Receipt No.,Completion Time,Initiation Time,Details,Transaction Status,Paid In,Withdrawn,Balance,Balance Confirmed,Reason Type,Other Party Info,Linked Transaction ID,A/C No.
OBE22PFPPA,14/02/2020 10:26,14/02/2020 10:26,Pay Bill from 254797665088 - INNOCENT WANAMI Acc. V2,Completed,6600,,37400,TRUE,Pay Utility,254797665088 - INNOCENT WANAMI,,V2
OBD82J4GO8,13/02/2020 22:35,13/02/2020 22:35,Pay Bill from 0758765813 - Filda Anyango Otieno Acc. v34,Completed,3400,,30800,TRUE,Pay Utility,0758765813 - Filda Anyango Otieno,,v34
OBD92A5NKT,13/02/2020 18:19,13/02/2020 18:19,Pay Bill from 254704783091 - CLINTON MUSEBE KASUTI Acc. V48,Completed,6600,,27400,TRUE,Pay Utility,254704783091 - CLINTON MUSEBE KASUTI,,V48
OBD425OYT0,13/02/2020 16:04,13/02/2020 16:04,Pay Bill from 254704480791 - LYDIA OMENO Acc. Samson v33,Completed,7000,,20800,TRUE,Pay Utility with OD via STK,254704480791 - LYDIA OMENO,,Samson
