Receipt No.,Completion Time,Initiation Time,Details,Transaction Status,Paid In,Withdrawn,Balance,Balance Confirmed,Reason Type,Other Party Info,Linked Transaction ID,A/C No.
PL92U85NCE,09/12/2021 08:16,09/12/2021 08:16,Pay Bill from 0740422187 - KEVIN MAKATO KUNGA Acc. KEG,Completed,10000,,30000,TRUE,Pay Utility,0740422187 - KEVIN MAKATO KUNGA,,KEG
PL90U6PFJA,09/12/2021 07:43,09/12/2021 07:43,Pay Bill from 254725754547 - MWACHIRO GEORGE DECHE Acc. DFC,Completed,20000,,20000,TRUE,Pay Utility,254725754547 - MWACHIRO GEORGE DECHE,,DFC
PL98U4FVNK,09/12/2021 06:31,09/12/2021 06:31,Utility Account to Organization Settlement Account,Completed,,-142000,0,TRUE,Utility Account to Organization Settlement Account,979524 - ANCIENT WELLS PROPERTY MANAGERS 2,,
PL98U471K6,09/12/2021 06:18,09/12/2021 06:18,Pay Bill Online from 254724005780 - IVY MARGARET OGOLA Acc. FFB,Completed,3000,,142000,TRUE,Pay Bill Online,254724005780 - IVY MARGARET OGOLA,,FFB
PL98U46N7I,09/12/2021 06:16,09/12/2021 06:16,Pay Bill from 254714578986 - EZEKIEL MULUNGYE Acc. hac,Completed,10000,,139000,TRUE,Pay Utility,254714578986 - EZEKIEL MULUNGYE,,hac
PL95U45MEZ,09/12/2021 06:15,09/12/2021 06:15,Pay Bill from 0114593668 - Ivy Margaret akinyi Ogola Acc. FFB,Completed,5000,,129000,TRUE,Pay Utility with OD via STK,0114593668 - Ivy Margaret akinyi Ogola,,FFB
PL85TVP90V,08/12/2021 21:02,08/12/2021 21:02,Pay Bill from 254724655033 - SUSAN CHIMOTO Acc. KGH,Completed,9500,,124000,TRUE,Pay Utility,254724655033 - SUSAN CHIMOTO,,KGH
PL80TVNCVE,08/12/2021 21:02,08/12/2021 21:02,Pay Bill from 254728238249 - ESTHER WANGUI KIBUNYI Acc. ICA,Completed,17000,,114500,TRUE,Pay Utility,254728238249 - ESTHER WANGUI KIBUNYI,,ICA
PL86TQM7SE,08/12/2021 20:01,08/12/2021 20:01,Pay Bill from 254708499439 - ROSE NDEDE Acc. HGF,Completed,9000,,97500,TRUE,Pay Utility,254708499439 - ROSE NDEDE,,HGF
PL83TCQGHN,08/12/2021 17:36,08/12/2021 17:36,Pay Bill from 254719779657 - SAMUEL NJOROGE Acc. JGA,Completed,10000,,88500,TRUE,Pay Utility,254719779657 - SAMUEL NJOROGE,,JGA
PL80T81EYE,08/12/2021 16:32,08/12/2021 16:32,Pay Bill from 0769118645 - kennedy kipkurui korir Acc. IGC,Completed,4000,,78500,TRUE,Pay Utility,0769118645 - kennedy kipkurui korir,,IGC
PL82T1PU3O,08/12/2021 14:52,08/12/2021 14:52,Pay Bill from 254729392595 - WINNIE NASICHE KERE Acc. JBF,Completed,3500,,74500,TRUE,Pay Utility,254729392595 - WINNIE NASICHE KERE,,JBF
PL80T19Y9S,08/12/2021 14:45,08/12/2021 14:45,Pay Bill from 254722136450 - MARY EVERLYN Acc. JAI,Completed,20000,,71000,TRUE,Pay Utility with OD via STK,254722136450 - MARY EVERLYN,,JAI
PL84SZNHFG,08/12/2021 14:19,08/12/2021 14:19,Pay Bill Online from 254722769473 - SAMSON CHALO Acc. IAB,Completed,15000,,51000,TRUE,Pay Utility with OD Online,254722769473 - SAMSON CHALO,,IAB
PL84SX5NNM,08/12/2021 13:40,08/12/2021 13:40,Pay Bill from 254701196539 - GICHURI KARANJA Acc. Fee,Completed,16000,,36000,TRUE,Pay Utility,254701196539 - GICHURI KARANJA,,Fee
PL86SSOC40,08/12/2021 12:29,08/12/2021 12:29,Pay Bill from 254712954563 - JOSEPH MUTISO KILONZO Acc. DAC,Completed,20000,,20000,TRUE,Pay Utility,254712954563 - JOSEPH MUTISO KILONZO,,DAC
PL80SLW00E,08/12/2021 10:38,08/12/2021 10:38,Utility Account to Organization Settlement Account,Completed,,-543400,0,TRUE,Utility Account to Organization Settlement Account,979524 - ANCIENT WELLS PROPERTY MANAGERS 2,,
PL81SIOW5J,08/12/2021 09:44,08/12/2021 09:44,Pay Bill from 254707715639 - Annastacia Kimeu Acc. JFC,Completed,10000,,543400,TRUE,Pay Utility,254707715639 - Annastacia Kimeu,,JFC
PL87SEOEEX,08/12/2021 08:31,08/12/2021 08:31,Pay Bill Online from 254706549634 - CLINTON OMBASA Acc. FDB,Completed,17000,,533400,TRUE,Pay Bill Online,254706549634 - CLINTON OMBASA,,FDB
PL82S8J1E2,08/12/2021 02:32,08/12/2021 02:32,Pay Bill from 0743248310 - PATRICK STURRIDGE NYONGESA Acc. daa,Completed,17000,,516400,TRUE,Pay Utility,0743248310 - PATRICK STURRIDGE NYONGESA,,daa
PL77RS2V13,07/12/2021 19:24,07/12/2021 19:24,Pay Bill Online from 254797601911 - JORAM MASAI KILONZO Acc. KTE,Completed,9500,,499400,TRUE,Pay Bill Online,254797601911 - JORAM MASAI KILONZO,,KTE
PL77RDK6LF,07/12/2021 16:38,07/12/2021 16:38,Pay Bill from 254795023150 - FAITH MORAA SITEMBA Acc. IFC,Completed,8000,,489900,TRUE,Pay Utility with OD via STK,254795023150 - FAITH MORAA SITEMBA,,IFC
PL76RA5VWQ,07/12/2021 15:47,07/12/2021 15:47,Pay Bill from 254729713741 - ALBANUS MUTISO Acc. DDC,Completed,20000,,481900,TRUE,Pay Utility,254729713741 - ALBANUS MUTISO,,DDC
PL75R6Z895,07/12/2021 14:57,07/12/2021 14:57,Pay Bill from 254722569870 - LUKA KEITANY Acc. jfj,Completed,15000,,461900,TRUE,Pay Utility,254722569870 - LUKA KEITANY,,jfj
PL75R2DV39,07/12/2021 13:44,07/12/2021 13:44,Pay Bill Online from 254710146965 - BRENDA DORCAS MABONGA Acc. HFG,Completed,15000,,446900,TRUE,Pay Bill Online,254710146965 - BRENDA DORCAS MABONGA,,HFG
PL71R1VKXJ,07/12/2021 13:36,07/12/2021 13:36,Pay Bill from 254713205244 - ROBERT OGALO Acc. KBH,Completed,10000,,431900,TRUE,Pay Utility,254713205244 - ROBERT OGALO,,KBH
PL79R1LCIZ,07/12/2021 13:32,07/12/2021 13:32,Pay Bill from 254724821898 - ALLAN GISONI NYANGARESI Acc. DBA,Completed,17000,,421900,TRUE,Pay Utility,254724821898 - ALLAN GISONI NYANGARESI,,DBA
PL77R0H6J3,07/12/2021 13:14,07/12/2021 13:14,Pay Bill from 254720868281 - KENNEDY MWELU Acc. KBI,Completed,12500,,404900,TRUE,Pay Utility with OD via STK,254720868281 - KENNEDY MWELU,,KBI
PL72QY6K4C,07/12/2021 12:37,07/12/2021 12:37,Pay Bill from 0715273095 - Stacy Aketch Ochuka Acc. KGK,Completed,10500,,392400,TRUE,Pay Utility,0715273095 - Stacy Aketch Ochuka,,KGK
PL70QWEB48,07/12/2021 12:08,07/12/2021 12:08,Pay Bill from 254712974871 - PAULA WANJIKU GATUI Acc. hea,Completed,16000,,381900,TRUE,Pay Utility,254712974871 - PAULA WANJIKU GATUI,,hea
PL77QSAO09,07/12/2021 11:00,07/12/2021 11:00,Pay Bill from 254728259571 - ANNE KASIVA Acc. ieb,Completed,15000,,365900,TRUE,Pay Utility,254728259571 - ANNE KASIVA,,ieb
PL73QS29AX,07/12/2021 10:56,07/12/2021 10:56,Pay Bill Online from 254715764212 - BANCE ISHEMINYE Acc. JFE ,Completed,5000,,350900,TRUE,Pay Bill Online,254715764212 - BANCE ISHEMINYE,,JFE
PL71QRS54V,07/12/2021 10:52,07/12/2021 10:52,Pay Bill from 254723747228 - MORARA ASANYO Acc. pool,Completed,22400,,345900,TRUE,Pay Utility,254723747228 - MORARA ASANYO,,pool
PL71QOLF4V,07/12/2021 09:58,07/12/2021 09:58,Pay Bill Online from 254720583235 - JOHN ODIMA Acc. KGF,Completed,10000,,323500,TRUE,Pay Bill Online,254720583235 - JOHN ODIMA,,KGF
PL76QN9B66,07/12/2021 09:35,07/12/2021 09:35,Pay Bill from 0115054975 - faith syovata joseph Acc. IBC,Completed,9500,,313500,TRUE,Pay Utility,0115054975 - faith syovata joseph,,IBC
PL70QMKAC0,07/12/2021 09:23,07/12/2021 09:23,Pay Bill Online from 0757699775 - BENARD MUIA MUTUA Acc. HCB,Completed,16000,,304000,TRUE,Pay Bill Online,0757699775 - BENARD MUIA MUTUA,,HCB
PL73QKSNMT,07/12/2021 08:50,07/12/2021 08:50,Pay Bill from 254721315975 - JOSEPH NDEGWA Acc. HEB,Completed,16000,,288000,TRUE,Pay Utility,254721315975 - JOSEPH NDEGWA,,HEB
PL77QH6VRZ,07/12/2021 07:34,07/12/2021 07:34,Pay Bill from 254717140158 - Peter Wanjiru Acc. FHB,Completed,15000,,272000,TRUE,Pay Utility,254717140158 - Peter Wanjiru,,FHB
PL77QH2QH9,07/12/2021 07:31,07/12/2021 07:31,Pay Bill from 254713281251 - ERIC KIAMA Acc. JDI,Completed,20000,,257000,TRUE,Pay Utility,254713281251 - ERIC KIAMA,,JDI
PL79QGBP1Z,07/12/2021 07:10,07/12/2021 07:10,Pay Bill from 254790304204 - DORCAS NDINDA MBIU Acc. JDG,Completed,10000,,237000,TRUE,Pay Utility,254790304204 - DORCAS NDINDA MBIU,,JDG
PL72QDSE8S,07/12/2021 02:15,07/12/2021 02:15,Pay Bill from 254723499628 - CLINTON JOSEPH MUHARI Acc. hfh,Completed,16000,,227000,TRUE,Pay Utility,254723499628 - CLINTON JOSEPH MUHARI,,hfh
PL67QCMK57,06/12/2021 23:32,06/12/2021 23:32,Pay Bill from 254702346515 - ELIZABETH ACHIENG NGOME Acc. KDE,Completed,10000,,211000,TRUE,Pay Utility,254702346515 - ELIZABETH ACHIENG NGOME,,KDE
PL62QCHITK,06/12/2021 23:22,06/12/2021 23:22,Pay Bill from 254726687555 - ELIUD MUTHURE MICHENI Acc. KAI,Completed,12000,,201000,TRUE,Pay Utility,254726687555 - ELIUD MUTHURE MICHENI,,KAI
PL60Q76A2Y,06/12/2021 21:06,06/12/2021 21:06,Pay Bill Online from 254720381965 - JAMES NGUGI MWANIKI Acc. JBI,Completed,20000,,189000,TRUE,Pay Utility with OD Online,254720381965 - JAMES NGUGI MWANIKI,,JBI
PL65Q59TXD,06/12/2021 20:40,06/12/2021 20:40,Pay Bill from 254724466518 - EUNICE NDUTA Acc. kff,Completed,9500,,169000,TRUE,Pay Utility,254724466518 - EUNICE NDUTA,,kff
PL62Q2N91Q,06/12/2021 20:08,06/12/2021 20:08,Pay Bill from 254729590734 - PATRICK NDUNGA Acc. IDD,Completed,10000,,159500,TRUE,Pay Utility,254729590734 - PATRICK NDUNGA,,IDD
PL68PW70SG,06/12/2021 19:03,06/12/2021 19:03,Pay Bill from 254726651764 - NICHOLAS MWANZIA Acc. hbe,Completed,10500,,149500,TRUE,Pay Utility,254726651764 - NICHOLAS MWANZIA,,hbe
PL69PSZF4H,06/12/2021 18:31,06/12/2021 18:31,Pay Bill from 254726028330 - JOHN WAMBUA Acc. IFH,Completed,15000,,139000,TRUE,Pay Utility,254726028330 - JOHN WAMBUA,,IFH
PL67PRU9IN,06/12/2021 18:18,06/12/2021 18:18,Pay Bill from 254719779657 - SAMUEL NJOROGE Acc. JGA,Completed,5000,,124000,TRUE,Pay Utility with OD via STK,254719779657 - SAMUEL NJOROGE,,JGA
PL64POX4HQ,06/12/2021 17:43,06/12/2021 17:43,Pay Bill from 254723643548 - KEVIN OUKO Acc. FDD,Completed,11000,,119000,TRUE,Pay Utility,254723643548 - KEVIN OUKO,,FDD
PL69PN0KYR,06/12/2021 17:18,06/12/2021 17:18,Pay Bill from 254720814822 - JAMES OTIENO OPAR Acc. Jgj,Completed,500,,108000,TRUE,Pay Utility,254720814822 - JAMES OTIENO OPAR,,Jgj
PL66PKA7TK,06/12/2021 16:40,06/12/2021 16:40,Pay Bill Online from 254712187712 - JUDELEEN AHINDUKHA SHILOBELE Acc. IEA,Completed,10000,,107500,TRUE,Pay Bill Online,254712187712 - JUDELEEN AHINDUKHA SHILOBELE,,IEA
PL61PKAIT9,06/12/2021 16:39,06/12/2021 16:39,Pay Bill from 254729355933 - FELISTAH NJERI WAIRIMU Acc. IDI,Completed,15000,,97500,TRUE,Pay Utility,254729355933 - FELISTAH NJERI WAIRIMU,,IDI
PL65PK16AN,06/12/2021 16:36,06/12/2021 16:36,Pay Bill Online from 254700050190 - ANGELA GATHONI NDEGWA Acc. KCD,Completed,12000,,82500,TRUE,Pay Bill Online,254700050190 - ANGELA GATHONI NDEGWA,,KCD
PL64PIUAWO,06/12/2021 16:18,06/12/2021 16:18,Pay Bill Online from 254718911865 - KENNEDY KELI KATUNGII Acc. HDF,Completed,9000,,70500,TRUE,Pay Utility with OD Online,254718911865 - KENNEDY KELI KATUNGII,,HDF
PL62PISTX4,06/12/2021 16:17,06/12/2021 16:17,Pay Bill from 254702144275 - CAROLYNE MAKENA KARIA Acc. JFB,Completed,15000,,61500,TRUE,Pay Utility,254702144275 - CAROLYNE MAKENA KARIA,,JFB
PL65PHPBF7,06/12/2021 16:00,06/12/2021 16:00,Pay Bill from 254716581384 - GREGORY KILUNGYA Acc. DAD,Completed,20000,,46500,TRUE,Pay Utility,254716581384 - GREGORY KILUNGYA,,DAD
PL65PGG8SH,06/12/2021 15:40,06/12/2021 15:40,Pay Bill Online from 0724386624 - FATUMA ISSE YUSSUF Acc. FAB,Completed,16000,,26500,TRUE,Pay Utility with OD Online,0724386624 - FATUMA ISSE YUSSUF,,FAB
PL65PE69RJ,06/12/2021 15:03,06/12/2021 15:03,Pay Bill from 254718233980 - KAREN ASWANI Acc. HEC,Completed,10500,,10500,TRUE,Pay Utility,254718233980 - KAREN ASWANI,,HEC
PL69PCQU3D,06/12/2021 14:40,06/12/2021 14:40,Utility Account to Organization Settlement Account,Completed,,-632000,0,TRUE,Utility Account to Organization Settlement Account,979524 - ANCIENT WELLS PROPERTY MANAGERS 2,,
PL60PAUROE,06/12/2021 14:09,06/12/2021 14:09,Pay Bill from 254703453863 - EMILY MUNANIE MALUKI Acc. KEC,Completed,10000,,632000,TRUE,Pay Utility,254703453863 - EMILY MUNANIE MALUKI,,KEC
PL64PA21DS,06/12/2021 13:56,06/12/2021 13:56,Pay Bill from 254726636196 - BETHUEL KEMBOI KURUI Acc. JFD,Completed,15000,,622000,TRUE,Pay Utility,254726636196 - BETHUEL KEMBOI KURUI,,JFD
PL60P6W4NK,06/12/2021 13:06,06/12/2021 13:06,Pay Bill Online from 254710382992 - SIMON KAMAU MUIRURI Acc. jcd,Completed,15000,,607000,TRUE,Pay Bill Online,254710382992 - SIMON KAMAU MUIRURI,,jcd
PL60P6HOSA,06/12/2021 13:00,06/12/2021 13:00,Pay Bill Online from 254710202776 - KELVIN KARIMI MACHARIA Acc. FAD,Completed,11000,,592000,TRUE,Pay Bill Online,254710202776 - KELVIN KARIMI MACHARIA,,FAD
PL69P1OD0B,06/12/2021 11:40,06/12/2021 11:40,Pay Bill from 254704403532 - Mercy Chepchirchir Mary Acc. JBC,Completed,12000,,581000,TRUE,Pay Utility with OD via STK,254704403532 - Mercy Chepchirchir Mary,,JBC
PL62P19HDW,06/12/2021 11:33,06/12/2021 11:33,Pay Bill Online from 254710732381 - JANE ACHIENG MBEKE Acc. 846783,Completed,1000,,569000,TRUE,Pay Bill Online,254710732381 - JANE ACHIENG MBEKE,,846783
PL67OZKM6P,06/12/2021 11:05,06/12/2021 11:05,Pay Bill Online from 254717053159 - FREDRICK NYATIKA Acc. IEF,Completed,11000,,568000,TRUE,Pay Bill Online,254717053159 - FREDRICK NYATIKA,,IEF
PL67OZ4BCV,06/12/2021 10:58,06/12/2021 10:58,Pay Bill from 254717438676 - SHIHAB THIIRU Acc. IEI,Completed,15000,,557000,TRUE,Pay Utility with OD via STK,254717438676 - SHIHAB THIIRU,,IEI
PL61OZ0RMX,06/12/2021 10:56,06/12/2021 10:56,Pay Bill from 0791158325 - WHELDON MARK MASONGO GORI Acc. HBD,Completed,10000,,542000,TRUE,Pay Utility,0791158325 - WHELDON MARK MASONGO GORI,,HBD
PL67OYWOZ3,06/12/2021 10:54,06/12/2021 10:54,Pay Bill Online from 254723930071 - AMOS KITAVI KIVITE Acc. JCE,Completed,9000,,532000,TRUE,Pay Bill Online,254723930071 - AMOS KITAVI KIVITE,,JCE
PL66OYS294,06/12/2021 10:52,06/12/2021 10:52,Pay Bill from 0113803309 - DORRIS MUENI MUTIE Acc. House FBC,Completed,7500,,523000,TRUE,Pay Utility,0113803309 - DORRIS MUENI MUTIE,,House
PL63OYLP9Z,06/12/2021 10:49,06/12/2021 10:49,Pay Bill from 254799371069 - ALPHONCE OCHIENG WAREGA Acc. IEE,Completed,8500,,515500,TRUE,Pay Utility,254799371069 - ALPHONCE OCHIENG WAREGA,,IEE
PL64OYKMM2,06/12/2021 10:48,06/12/2021 10:48,Pay Bill from 0711769778 - PROTASIA BONIPHACE MANOSA Acc. IBB,Completed,15000,,507000,TRUE,Pay Utility,0711769778 - PROTASIA BONIPHACE MANOSA,,IBB
PL67OYGNJV,06/12/2021 10:46,06/12/2021 10:46,Pay Bill from 254726337163 - HALIMA ALI HASSAN Acc. DDA,Completed,15000,,492000,TRUE,Pay Utility,254726337163 - HALIMA ALI HASSAN,,DDA
PL64OYG1DG,06/12/2021 10:46,06/12/2021 10:46,Pay Bill from 254716702294 - DANIEL MULATI Acc. KBB,Completed,22500,,477000,TRUE,Pay Utility,254716702294 - DANIEL MULATI,,KBB
PL66OXVYUY,06/12/2021 10:37,06/12/2021 10:37,Pay Bill from 254700557767 - BAKHITA MWENDE MUANGE Acc. KCB ,Completed,2000,,454500,TRUE,Pay Utility,254700557767 - BAKHITA MWENDE MUANGE,,KCB
PL60OXV67Y,06/12/2021 10:36,06/12/2021 10:36,Pay Bill Online from 254718772336 - DAVID SERUGO Acc. DCD,Completed,20000,,452500,TRUE,Pay Bill Online,254718772336 - DAVID SERUGO,,DCD
PL63OS1V7R,06/12/2021 08:54,06/12/2021 08:54,Pay Bill Online from 254741433913 - DUNCAN OMONDI OKETCH Acc. IAG,Completed,9000,,432500,TRUE,Pay Bill Online,254741433913 - DUNCAN OMONDI OKETCH,,IAG
PL64ON3IG0,06/12/2021 06:59,06/12/2021 06:59,Pay Bill from 0757416076 - Glenn Muindi Mukwa Kisiang'ani Acc. DBB,Completed,4000,,423500,TRUE,Pay Utility,0757416076 - Glenn Muindi Mukwa Kisiang'ani,,DBB
PL64OKKMQM,06/12/2021 00:21,06/12/2021 00:21,Pay Bill Online from 254714563486 - BRIAN MMATA MUSERA Acc. KBJ,Completed,16000,,419500,TRUE,Pay Utility with OD Online,254714563486 - BRIAN MMATA MUSERA,,KBJ
PL65OKFDAN,06/12/2021 00:05,06/12/2021 00:05,Pay Bill Online from 0711117122 - Yassir Mwinyi Abdulrazaq Acc. ICE,Completed,5000,,403500,TRUE,Pay Bill Online,0711117122 - Yassir Mwinyi Abdulrazaq,,ICE
PL52OJZQ7G,05/12/2021 23:25,05/12/2021 23:25,Pay Bill from 254716056537 - KIRUI KIPLANGAT HILLARY Acc. JCJ,Completed,16000,,398500,TRUE,Pay Utility,254716056537 - KIRUI KIPLANGAT HILLARY,,JCJ
PL51OJW9DJ,05/12/2021 23:19,05/12/2021 23:19,Pay Bill Online from 254710732381 - JANE ACHIENG MBEKE Acc. HAF,Completed,9000,,382500,TRUE,Pay Bill Online,254710732381 - JANE ACHIENG MBEKE,,HAF
PL51OJB5RZ,05/12/2021 22:49,05/12/2021 22:49,Pay Bill from 254715002789 - ERICK NGUGI MAINA Acc. HAG,Completed,16000,,373500,TRUE,Pay Utility,254715002789 - ERICK NGUGI MAINA,,HAG
PL50OILNB8,05/12/2021 22:23,05/12/2021 22:23,Pay Bill from 254717985596 - NICHOLAS KIPKOECH BUTIA Acc. hcf,Completed,9000,,357500,TRUE,Pay Utility,254717985596 - NICHOLAS KIPKOECH BUTIA,,hcf
PL53OFQXV9,05/12/2021 21:18,05/12/2021 21:18,Pay Bill Online from 254704682516 - Winnie Akinyi Omollo Acc. FDA,Completed,16000,,348500,TRUE,Pay Bill Online,254704682516 - Winnie Akinyi Omollo,,FDA
PL57OEVXPF,05/12/2021 21:03,05/12/2021 21:03,Pay Bill Online from 254718138578 - PAULINE KIOKO Acc. KFD,Completed,14000,,332500,TRUE,Pay Bill Online,254718138578 - PAULINE KIOKO,,KFD
PL53OAGM33,05/12/2021 20:02,05/12/2021 20:02,Pay Bill from 0722531422 - ANTHONY ITIMU MAINA Acc. Jbd,Completed,6000,,318500,TRUE,Pay Utility,0722531422 - ANTHONY ITIMU MAINA,,Jbd
PL54O2MXXK,05/12/2021 18:35,05/12/2021 18:35,Pay Bill from 254722444622 - CHARITY KAGWAINI Acc. ffd,Completed,11000,,312500,TRUE,Pay Utility,254722444622 - CHARITY KAGWAINI,,ffd
PL55NRRHGF,05/12/2021 15:59,05/12/2021 15:59,Pay Bill from 254718672924 - LILIAN CHEBET NGENO Acc. KGD,Completed,10000,,301500,TRUE,Pay Utility,254718672924 - LILIAN CHEBET NGENO,,KGD
PL55NRPR0D,05/12/2021 15:58,05/12/2021 15:58,Pay Bill from 254728042989 - PATRICK OMONDI Acc. IFI,Completed,15000,,291500,TRUE,Pay Utility with OD via STK,254728042989 - PATRICK OMONDI,,IFI
PL55NRE5U1,05/12/2021 15:53,05/12/2021 15:53,Pay Bill from 254720107609 - DENNIS OGENDI BARAKE Acc. JAJ,Completed,15000,,276500,TRUE,Pay Utility,254720107609 - DENNIS OGENDI BARAKE,,JAJ
PL55NQFN5D,05/12/2021 15:38,05/12/2021 15:38,Pay Bill from 254723328258 - SAMUEL MAINA MURIUKI Acc. IFE,Completed,8000,,261500,TRUE,Pay Utility,254723328258 - SAMUEL MAINA MURIUKI,,IFE
PL54NPSVYS,05/12/2021 15:28,05/12/2021 15:28,Pay Bill from 254720802644 - MESHACK MAXWELL GANDA Acc. HAB,Completed,15000,,253500,TRUE,Pay Utility,254720802644 - MESHACK MAXWELL GANDA,,HAB
PL53NHYUSB,05/12/2021 13:20,05/12/2021 13:20,Pay Bill from 254712461449 - CAROLINE MUTHONI GICHOHI Acc. fca,Completed,16000,,238500,TRUE,Pay Utility,254712461449 - CAROLINE MUTHONI GICHOHI,,fca
PL58NFOQFK,05/12/2021 12:39,05/12/2021 12:39,Pay Bill from 0745378455 - harriet nyanchama nyaberi Acc. FCC,Completed,9000,,222500,TRUE,Pay Utility,0745378455 - harriet nyanchama nyaberi,,FCC
PL54NEEYTU,05/12/2021 12:15,05/12/2021 12:15,Pay Bill from 254723929380 - RHODAH K WAMBUA Acc. HEF,Completed,9500,,213500,TRUE,Pay Utility,254723929380 - RHODAH K WAMBUA,,HEF
PL50NDQDAU,05/12/2021 12:02,05/12/2021 12:02,Pay Bill from 254724450782 - DENNIS MUSAU Acc. JCB,Completed,31000,,204000,TRUE,Pay Utility,254724450782 - DENNIS MUSAU,,JCB
PL55NCPKKP,05/12/2021 11:42,05/12/2021 11:42,Pay Bill from 254728084427 - MARY NABWIRE OKELLO Acc. FDF,Completed,16000,,173000,TRUE,Pay Utility,254728084427 - MARY NABWIRE OKELLO,,FDF
PL54NC1NOQ,05/12/2021 11:29,05/12/2021 11:29,Pay Bill from 254706158280 - patience mutheu mbevi Acc. KFC,Completed,10000,,157000,TRUE,Pay Utility,254706158280 - patience mutheu mbevi,,KFC
PL51NAHRQD,05/12/2021 11:00,05/12/2021 11:00,Pay Bill Online from 254792187144 - HASSAN AHMED HASSAN Acc. KGI,Completed,10000,,147000,TRUE,Pay Bill Online,254792187144 - HASSAN AHMED HASSAN,,KGI
PL58NA0Y2Y,05/12/2021 10:51,05/12/2021 10:51,Pay Bill from 254710239100 - PHILOMENA WOKI MUTHAMA Acc. KDK,Completed,17000,,137000,TRUE,Pay Utility,254710239100 - PHILOMENA WOKI MUTHAMA,,KDK
PL50N98ZXC,05/12/2021 10:35,05/12/2021 10:35,Pay Bill Online from 254722521028 - CHARLES MONYONCHO Acc. ICB,Completed,17000,,120000,TRUE,Pay Bill Online,254722521028 - CHARLES MONYONCHO,,ICB
PL58N985D0,05/12/2021 10:35,05/12/2021 10:35,Pay Bill from 254718590800 - MARTINE SIELE Acc. IGC,Completed,15000,,103000,TRUE,Pay Utility,254718590800 - MARTINE SIELE,,IGC
PL52N745DU,05/12/2021 09:54,05/12/2021 09:54,Pay Bill Online from 254721465713 - RHODA WAMBUI MWANGI Acc. jfh,Completed,17000,,88000,TRUE,Pay Bill Online,254721465713 - RHODA WAMBUI MWANGI,,jfh
PL51MYYH2H,05/12/2021 05:55,05/12/2021 05:55,Pay Bill Online from 254722258756 - DAVID KEMBOI Acc. HDA,Completed,18000,,71000,TRUE,Pay Bill Online,254722258756 - DAVID KEMBOI,,HDA
PL57MYQXNT,05/12/2021 05:13,05/12/2021 05:13,Pay Bill from 254702355678 - JOHN NJOROGE GICHERU Acc. ITE,Completed,30000,,53000,TRUE,Pay Utility,254702355678 - JOHN NJOROGE GICHERU,,ITE
PL47MVM6EH,04/12/2021 22:46,04/12/2021 22:46,Pay Bill Online from 254725218904 - SALOME MUTHONI MWANGI Acc. KFJ,Completed,15000,,23000,TRUE,Pay Bill Online,254725218904 - SALOME MUTHONI MWANGI,,KFJ
PL49MT6XPJ,04/12/2021 21:45,04/12/2021 21:45,Pay Bill from 254799946039 - LUIS OTIENO Acc. IAE,Completed,8000,,8000,TRUE,Pay Utility,254799946039 - LUIS OTIENO,,IAE
PL49MOQCJB,04/12/2021 20:35,04/12/2021 20:35,Utility Account to Organization Settlement Account,Completed,,-196000,0,TRUE,Utility Account to Organization Settlement Account,979524 - ANCIENT WELLS PROPERTY MANAGERS 2,,
PL41MOJ0UV,04/12/2021 20:32,04/12/2021 20:32,Pay Bill from 254724953672 - MERCY MBETI Acc. JCA,Completed,20000,,196000,TRUE,Pay Utility,254724953672 - MERCY MBETI,,JCA
PL44MM9VNM,04/12/2021 20:06,04/12/2021 20:06,Pay Bill from 0757416076 - Glenn Muindi Mukwa Kisiang'ani Acc. DBB,Completed,6000,,176000,TRUE,Pay Utility,0757416076 - Glenn Muindi Mukwa Kisiang'ani,,DBB
PL41MHEUF3,04/12/2021 19:14,04/12/2021 19:14,Pay Bill from 254720278119 - LINDAH OGAWO Acc. kfe,Completed,9500,,170000,TRUE,Pay Utility,254720278119 - LINDAH OGAWO,,kfe
PL48ME707S,04/12/2021 18:42,04/12/2021 18:42,Pay Bill from 254721302658 - JACOB BIRUNDU Acc. DDB,Completed,20000,,160500,TRUE,Pay Utility,254721302658 - JACOB BIRUNDU,,DDB
PL40ME68DC,04/12/2021 18:42,04/12/2021 18:42,Pay Bill Online from 254705951407 - CAROLINE WAITHIRA KAMAU Acc. IDH,Completed,14000,,140500,TRUE,Pay Bill Online,254705951407 - CAROLINE WAITHIRA KAMAU,,IDH
PL43MBJP0V,04/12/2021 18:12,04/12/2021 18:12,Pay Bill from 254729160700 - MICAH NDUNGI Acc. HFE,Completed,10500,,126500,TRUE,Pay Utility,254729160700 - MICAH NDUNGI,,HFE
PL44M9R95M,04/12/2021 17:52,04/12/2021 17:52,Pay Bill Online from 254715892656 - DENNIS MUSYOKA MUOKI Acc. KFA,Completed,16000,,116000,TRUE,Pay Bill Online,254715892656 - DENNIS MUSYOKA MUOKI,,KFA
PL46M919KA,04/12/2021 17:43,04/12/2021 17:43,Pay Bill from 254724694917 - ROSE NJERI KARANJA Acc. jfa,Completed,20000,,100000,TRUE,Pay Utility,254724694917 - ROSE NJERI KARANJA,,jfa
PL44M8M4JO,04/12/2021 17:38,04/12/2021 17:38,Pay Bill from 254796848496 - IVY WITABA Acc. JBA,Completed,10000,,80000,TRUE,Pay Utility,254796848496 - IVY WITABA,,JBA
PL42M0FZVE,04/12/2021 15:43,04/12/2021 15:43,Pay Bill from 254721115404 - Justine Fayuma Okwemba Acc. HAA,Completed,17000,,70000,TRUE,Pay Utility with OD via STK,254721115404 - Justine Fayuma Okwemba,,HAA
PL44LZDGQS,04/12/2021 15:28,04/12/2021 15:28,Pay Bill from 254702764047 - FERDINAND K Acc. KDB,Completed,16000,,53000,TRUE,Pay Utility,254702764047 - FERDINAND K,,KDB
PL41LVLB9D,04/12/2021 14:34,04/12/2021 14:34,Pay Bill from 254111542144 - GAI MANYOK REECH Acc. KGG,Completed,11000,,37000,TRUE,Pay Utility,254111542144 - GAI MANYOK REECH,,KGG
PL49LPXBVN,04/12/2021 13:09,04/12/2021 13:09,Pay Bill Online from 254710814215 - JOAN NYAMBURA KAMAU Acc. ifb,Completed,15000,,26000,TRUE,Pay Bill Online,254710814215 - JOAN NYAMBURA KAMAU,,ifb
PL42LP7IV0,04/12/2021 12:58,04/12/2021 12:58,Pay Bill Online from 254711562428 - Lionel Mutune Muoka Acc. KDI,Completed,11000,,11000,TRUE,Pay Bill Online,254711562428 - Lionel Mutune Muoka,,KDI
PL42LJI46E,04/12/2021 11:28,04/12/2021 11:28,Utility Account to Organization Settlement Account,Completed,,-201950,0,TRUE,Utility Account to Organization Settlement Account,979524 - ANCIENT WELLS PROPERTY MANAGERS 2,,
PL41LIIRGB,04/12/2021 11:12,04/12/2021 11:12,Pay Bill from 254719134037 - KELVIN KITOO Acc. FAA,Completed,16000,,201950,TRUE,Pay Utility,254719134037 - KELVIN KITOO,,FAA
PL47LEU5GV,04/12/2021 10:11,04/12/2021 10:11,Pay Bill from 254796292434 - ANTONINA HAYA Acc. HED,Completed,10000,,185950,TRUE,Pay Utility,254796292434 - ANTONINA HAYA,,HED
PL43L9ZT1X,04/12/2021 08:45,04/12/2021 08:45,Pay Bill Online from 254798022849 - MARTIN BUNDI RUGENDO Acc. KFH,Completed,10000,,175950,TRUE,Pay Bill Online,254798022849 - MARTIN BUNDI RUGENDO,,KFH
PL41L3EHHT,04/12/2021 01:19,04/12/2021 01:19,Pay Bill Online from 254728670882 - SHARAD EDWARD ADALA OLUM Acc. KCK,Completed,15000,,165950,TRUE,Pay Bill Online,254728670882 - SHARAD EDWARD ADALA OLUM,,KCK
PL35KVR0JD,03/12/2021 20:52,03/12/2021 20:52,Pay Bill from 254702152790 - Michelle Ndunge Kyalo Acc. IDE,Completed,8000,,150950,TRUE,Pay Utility,254702152790 - Michelle Ndunge Kyalo,,IDE
PL31KKX1YN,03/12/2021 18:53,03/12/2021 18:53,Pay Bill Online from 254707726441 - JOHN OLOO NYAULA Acc. IEH,Completed,15000,,142950,TRUE,Pay Bill Online,254707726441 - JOHN OLOO NYAULA,,IEH
PL38KBBOB6,03/12/2021 17:00,03/12/2021 17:00,Pay Bill Online from 254722728975 - CURTIS MRIGA OMIDO Acc. IAH,Completed,16000,,127950,TRUE,Pay Bill Online,254722728975 - CURTIS MRIGA OMIDO,,IAH
PL36K95LJW,03/12/2021 16:30,03/12/2021 16:30,Pay Bill from 0113473583 - GERARD   HAVYARIMANA Acc. HEE,Completed,10500,,111950,TRUE,Pay Utility,0113473583 - GERARD   HAVYARIMANA,,HEE
PL31K8NBGD,03/12/2021 16:22,03/12/2021 16:22,Pay Bill from 254728854349 - JOSEPH MUSYOKA Acc. IBG,Completed,8000,,101450,TRUE,Pay Utility,254728854349 - JOSEPH MUSYOKA,,IBG
PL37K5MITN,03/12/2021 15:37,03/12/2021 15:37,Pay Bill from 254729371750 - DERRICK OTANGA Acc. FEF,Completed,17000,,93450,TRUE,Pay Utility,254729371750 - DERRICK OTANGA,,FEF
PL36K01JF6,03/12/2021 14:09,03/12/2021 14:09,Pay Bill Online from 254713966424 - NDUTI MUTHUI Acc. Jed,Completed,15000,,76450,TRUE,Pay Bill Online,254713966424 - NDUTI MUTHUI,,Jed
PL37JXA61X,03/12/2021 13:25,03/12/2021 13:25,Pay Bill from 254723901777 - EVANS YEBEI Acc. KCH,Completed,10000,,61450,TRUE,Pay Utility with OD via STK,254723901777 - EVANS YEBEI,,KCH
PL37JWDZT9,03/12/2021 13:11,03/12/2021 13:11,Pay Bill from 254719398942 - NORAH WAYUA MUNYAO Acc. KDA,Completed,16500,,51450,TRUE,Pay Utility,254719398942 - NORAH WAYUA MUNYAO,,KDA
PL30JVXD2W,03/12/2021 13:03,03/12/2021 13:03,Pay Bill from 254726385675 - JAMES OENGA Acc. JEI,Completed,1450,,34950,TRUE,Pay Utility,254726385675 - JAMES OENGA,,JEI
PL32JVCCS0,03/12/2021 12:53,03/12/2021 12:53,Pay Bill from 254717606114 - KELVIN TONDO NGUMBAO Acc. HCE,Completed,12000,,33500,TRUE,Pay Utility,254717606114 - KELVIN TONDO NGUMBAO,,HCE
PL30JM9JAQ,03/12/2021 10:21,03/12/2021 10:21,Pay Bill Online from 254728093389 - MOHAMED MUSA ALASOW Acc. KED ,Completed,12000,,21500,TRUE,Pay Bill Online,254728093389 - MOHAMED MUSA ALASOW,,KED
PL33JG8QTF,03/12/2021 08:31,03/12/2021 08:31,Pay Bill from 254715742045 - FRIDAH KIEMA Acc. HGC ,Completed,9500,,9500,TRUE,Pay Utility with OD via STK,254715742045 - FRIDAH KIEMA,,HGC
PL37JE3PMT,03/12/2021 07:43,03/12/2021 07:43,Utility Account to Organization Settlement Account,Completed,,-100800,0,TRUE,Utility Account to Organization Settlement Account,979524 - ANCIENT WELLS PROPERTY MANAGERS 2,,
PL32JCQ4GU,03/12/2021 07:03,03/12/2021 07:03,Pay Bill Online from 0796121714 - janet   mwikali Acc. KBC,Completed,10000,,100800,TRUE,Pay Bill Online,0796121714 - janet   mwikali,,KBC
PL21J7UX11,02/12/2021 22:24,02/12/2021 22:24,Pay Bill from 254716315144 - PETER MUNYIRI WAROTERE Acc. FBB,Completed,16000,,90800,TRUE,Pay Utility,254716315144 - PETER MUNYIRI WAROTERE,,FBB
PL22J5CY0W,02/12/2021 21:28,02/12/2021 21:28,Pay Bill from 254700382442 - EVERLYNE MWENDE MUMO Acc. FGC,Completed,9000,,74800,TRUE,Pay Utility,254700382442 - EVERLYNE MWENDE MUMO,,FGC
PL22J4Y9SS,02/12/2021 21:20,02/12/2021 21:20,Pay Bill from 254721417560 - ANDREW SANDE Acc. JBJ,Completed,16000,,65800,TRUE,Pay Utility,254721417560 - ANDREW SANDE,,JBJ
PL27IYL4F5,02/12/2021 19:55,02/12/2021 19:55,Pay Bill from 254720375006 - JACOB KANGOGO Acc. IBA,Completed,15000,,49800,TRUE,Pay Utility,254720375006 - JACOB KANGOGO,,IBA
PL22IXIBRK,02/12/2021 19:43,02/12/2021 19:43,Pay Bill from 254799287000 - Godfrey odhiambo oyugi Acc. kae,Completed,9800,,34800,TRUE,Pay Utility with OD via STK,254799287000 - Godfrey odhiambo oyugi,,kae
PL22ISKECU,02/12/2021 18:54,02/12/2021 18:54,Pay Bill from 254704934557 - BAKARI KITSAKA Acc. JAD,Completed,15000,,25000,TRUE,Pay Utility,254704934557 - BAKARI KITSAKA,,JAD
PL22ILDJHO,02/12/2021 17:33,02/12/2021 17:33,Pay Bill from 254798146452 - VALARY ODHIAMBO Acc. JEE,Completed,10000,,10000,TRUE,Pay Utility,254798146452 - VALARY ODHIAMBO,,JEE
PL29IIO38X,02/12/2021 16:57,02/12/2021 16:57,Utility Account to Organization Settlement Account,Completed,,-171700,0,TRUE,Utility Account to Organization Settlement Account,979524 - ANCIENT WELLS PROPERTY MANAGERS 2,,
PL28IHCT84,02/12/2021 16:38,02/12/2021 16:38,Pay Bill from 0795068880 - Patrick   Kiplagat Acc. KAG,Completed,10600,,171700,TRUE,Pay Utility,0795068880 - Patrick   Kiplagat,,KAG
PL24IH9TGK,02/12/2021 16:37,02/12/2021 16:37,Pay Bill from 0797758628 - jackline nyamari onyango Acc. ICF ,Completed,11000,,161100,TRUE,Pay Utility,0797758628 - jackline nyamari onyango,,ICF
PL22IDG1G8,02/12/2021 15:38,02/12/2021 15:38,Pay Bill from 254726385675 - JAMES OENGA Acc. JEI,Completed,27100,,150100,TRUE,Pay Utility,254726385675 - JAMES OENGA,,JEI
PL28I9MXBA,02/12/2021 14:35,02/12/2021 14:35,Pay Bill Online from 254715764212 - BANCE ISHEMINYE Acc. JFE ,Completed,4000,,123000,TRUE,Pay Bill Online,254715764212 - BANCE ISHEMINYE,,JFE
PL23I76G6Z,02/12/2021 13:54,02/12/2021 13:54,Pay Bill from 254724852503 - GEOFREY YEGO Acc. JFF,Completed,10000,,119000,TRUE,Pay Utility,254724852503 - GEOFREY YEGO,,JFF
PL22I4T5UG,02/12/2021 13:15,02/12/2021 13:15,Pay Bill Online from 254790627132 - Everline Mutave Kiio Acc. IGG,Completed,8000,,109000,TRUE,Pay Bill Online,254790627132 - Everline Mutave Kiio,,IGG
PL26I3GFYU,02/12/2021 12:52,02/12/2021 12:52,Pay Bill from 254721852723 - HASSAN ABDINOOR MOHAMED Acc. jaa,Completed,17000,,101000,TRUE,Pay Utility,254721852723 - HASSAN ABDINOOR MOHAMED,,jaa
PL26I362RK,02/12/2021 12:47,02/12/2021 12:47,Pay Bill from 0705569029 - phillip nyongesa wamocha Acc. DGC,Completed,20000,,84000,TRUE,Pay Utility,0705569029 - phillip nyongesa wamocha,,DGC
PL22I2NGIU,02/12/2021 12:38,02/12/2021 12:38,Pay Bill Online from 254708225541 - JUDITH NKATHA SIMBA Acc. HDH,Completed,16000,,64000,TRUE,Pay Bill Online,254708225541 - JUDITH NKATHA SIMBA,,HDH
PL20I0KTU8,02/12/2021 12:02,02/12/2021 12:02,Pay Bill from 254729557859 - AUDREY KASINDAHA KASINDAHA Acc. KFB,Completed,16000,,48000,TRUE,Pay Utility with OD via STK,254729557859 - AUDREY KASINDAHA KASINDAHA,,KFB
PL21HZRN1X,02/12/2021 11:48,02/12/2021 11:48,Pay Bill Online from 254720787158 - AMOS CHELANG'A Acc. KFK,Completed,32000,,32000,TRUE,Pay Bill Online,254720787158 - AMOS CHELANG'A,,KFK
PL28HUSFIU,02/12/2021 10:20,02/12/2021 10:20,Utility Account to Organization Settlement Account,Completed,,-140000,0,TRUE,Utility Account to Organization Settlement Account,979524 - ANCIENT WELLS PROPERTY MANAGERS 2,,
PL24HUE89Q,02/12/2021 10:13,02/12/2021 10:13,Pay Bill from 254718284151 - EVERLINE MATHEKA Acc. JAG,Completed,9000,,140000,TRUE,Pay Utility,254718284151 - EVERLINE MATHEKA,,JAG
PL29HUDG7V,02/12/2021 10:12,02/12/2021 10:12,Pay Bill from 254720814822 - JAMES OTIENO OPAR Acc. Jgj,Completed,2000,,131000,TRUE,Pay Utility,254720814822 - JAMES OTIENO OPAR,,Jgj
PL21HQXERJ,02/12/2021 09:10,02/12/2021 09:10,Pay Bill from 254724952183 - MICHAEL WAMBUA MWOVE Acc. Fea,Completed,16000,,129000,TRUE,Pay Utility,254724952183 - MICHAEL WAMBUA MWOVE,,Fea
PL28HP91S8,02/12/2021 08:37,02/12/2021 08:37,Pay Bill Online from 254716784364 - Wendy Kemunto Nyandiko Acc. FFC,Completed,9000,,113000,TRUE,Pay Bill Online,254716784364 - Wendy Kemunto Nyandiko,,FFC
PL26HOY754,02/12/2021 08:31,02/12/2021 08:31,Pay Bill Online from 254742911013 - HANEST AMIMO Acc. IEG,Completed,8000,,104000,TRUE,Pay Bill Online,254742911013 - HANEST AMIMO,,IEG
PL26HLEQHG,02/12/2021 07:05,02/12/2021 07:05,Pay Bill Online from 254714855708 - KIPLANGAT SITIENEI Acc. FAE,Completed,16000,,96000,TRUE,Pay Bill Online,254714855708 - KIPLANGAT SITIENEI,,FAE
PL11HH8L3F,01/12/2021 22:45,01/12/2021 22:45,Pay Bill from 254726977770 - STEPHEN MUIRURI MATHENGE Acc. KAF,Completed,10000,,80000,TRUE,Pay Utility,254726977770 - STEPHEN MUIRURI MATHENGE,,KAF
PL16HDP1VO,01/12/2021 21:24,01/12/2021 21:24,Pay Bill from 254708570729 - MARY OGOLLA Acc. KAD,Completed,12000,,70000,TRUE,Pay Utility,254708570729 - MARY OGOLLA,,KAD
PL16HB9DIS,01/12/2021 20:48,01/12/2021 20:48,Pay Bill from 254717726012 - WINFRED MUENI PETER Acc. IDA,Completed,16000,,58000,TRUE,Pay Utility,254717726012 - WINFRED MUENI PETER,,IDA
PL12H7IEJW,01/12/2021 20:05,01/12/2021 20:05,Pay Bill from 0715688238 - JOANNAH ATUHAIRE BANTU Acc. jae,Completed,4500,,42000,TRUE,Pay Utility,0715688238 - JOANNAH ATUHAIRE BANTU,,jae
PL15GZLCI3,01/12/2021 18:49,01/12/2021 18:49,Pay Bill from 0717216114 - Felix Njeru Mugambi Acc. Kdf,Completed,10000,,37500,TRUE,Pay Utility,0717216114 - Felix Njeru Mugambi,,Kdf
PL12GYRKFU,01/12/2021 18:41,01/12/2021 18:41,Pay Bill from 0740123933 - MAVIN AYOO OMONDI Acc. IGE,Completed,2000,,27500,TRUE,Pay Utility,0740123933 - MAVIN AYOO OMONDI,,IGE
PL10GYOWP4,01/12/2021 18:40,01/12/2021 18:40,Pay Bill Online from 254714536026 - LILIAN AWUOR ONYANGO Acc. HDC,Completed,10500,,25500,TRUE,Pay Bill Online,254714536026 - LILIAN AWUOR ONYANGO,,HDC
PL12GXEYG4,01/12/2021 18:27,01/12/2021 18:27,Pay Bill from 254707370896 - OKECH BRIAN BRIAN Acc. FFA,Completed,15000,,15000,TRUE,Pay Utility,254707370896 - OKECH BRIAN BRIAN,,FFA
PL10GV17LY,01/12/2021 18:00,01/12/2021 18:00,Utility Account to Organization Settlement Account,Completed,,-152500,0,TRUE,Utility Account to Organization Settlement Account,979524 - ANCIENT WELLS PROPERTY MANAGERS 2,,
PL15GU61OX,01/12/2021 17:49,01/12/2021 17:49,Pay Bill from 254725771056 - CHARLES MURAGURI Acc. FCE,Completed,15000,,152500,TRUE,Pay Utility,254725771056 - CHARLES MURAGURI,,FCE
PL13GQDS0P,01/12/2021 17:00,01/12/2021 17:00,Pay Bill from 254703528196 - ERIC GITONGA MUGO Acc. KGJ,Completed,15000,,137500,TRUE,Pay Utility,254703528196 - ERIC GITONGA MUGO,,KGJ
PL14GOSPYC,01/12/2021 16:37,01/12/2021 16:37,Pay Bill from 254729541871 - ROBERT KULEI Acc. JAB,Completed,5000,,122500,TRUE,Pay Utility,254729541871 - ROBERT KULEI,,JAB
PL14GNVIEW,01/12/2021 16:23,01/12/2021 16:23,Pay Bill Online from 254727554512 - COLLINS KOECH Acc. JDJ,Completed,15000,,117500,TRUE,Pay Bill Online,254727554512 - COLLINS KOECH,,JDJ
PL10GNHNL0,01/12/2021 16:17,01/12/2021 16:17,Pay Bill Online from 254707226192 - NICHOLUS MAINGI MWANTHI Acc. HBF,Completed,9000,,102500,TRUE,Pay Bill Online,254707226192 - NICHOLUS MAINGI MWANTHI,,HBF
PL13GMIOGH,01/12/2021 16:02,01/12/2021 16:02,Pay Bill Online from 254722604851 - WILFRED SAKWA Acc. IDG,Completed,10000,,93500,TRUE,Pay Bill Online,254722604851 - WILFRED SAKWA,,IDG
PL13GKD6VR,01/12/2021 15:28,01/12/2021 15:28,Pay Bill from 254115949784 - JOHN MAITHA MULWA Acc. ibh,Completed,20000,,83500,TRUE,Pay Utility,254115949784 - JOHN MAITHA MULWA,,ibh
PL10GILMCG,01/12/2021 14:59,01/12/2021 14:59,Pay Bill from 254724477912 - SAMUEL MURIMI Acc. HCD,Completed,10000,,63500,TRUE,Pay Utility,254724477912 - SAMUEL MURIMI,,HCD
PL13GIITJN,01/12/2021 14:57,01/12/2021 14:57,Pay Bill from 254720814822 - JAMES OTIENO OPAR Acc. Jgj,Completed,2500,,53500,TRUE,Pay Utility with OD via STK,254720814822 - JAMES OTIENO OPAR,,Jgj
PL17GGHM33,01/12/2021 14:24,01/12/2021 14:24,Pay Bill from 254726172957 - VINCENT OLIENG' Acc. HBC,Completed,10000,,51000,TRUE,Pay Utility,254726172957 - VINCENT OLIENG',,HBC
PL15GF068P,01/12/2021 13:59,01/12/2021 13:59,Pay Bill from 254740579741 - MUHINDI MULINYA Acc. HGG,Completed,15000,,41000,TRUE,Pay Utility,254740579741 - MUHINDI MULINYA,,HGG
PL18GAMCVW,01/12/2021 12:48,01/12/2021 12:48,Pay Bill from 254700430569 - EDITH   GAKII Acc. FCB,Completed,16000,,26000,TRUE,Pay Utility,254700430569 - EDITH   GAKII,,FCB
PL12GA0B5K,01/12/2021 12:38,01/12/2021 12:38,Pay Bill from 254728901013 - ALEX MOSE ARWASA Acc. HGD,Completed,10000,,10000,TRUE,Pay Utility,254728901013 - ALEX MOSE ARWASA,,HGD
PL12G96EUW,01/12/2021 12:24,01/12/2021 12:24,Utility Account to Organization Settlement Account,Completed,,-43000,0,TRUE,Utility Account to Organization Settlement Account,979524 - ANCIENT WELLS PROPERTY MANAGERS 2,,
PL13G7YVVJ,01/12/2021 12:03,01/12/2021 12:03,Merchant Pay Utility Received from 7040090 - Amina Haji Salah Acc. JEH,Completed,6000,,43000,TRUE,Merchant Pay Utility via API,7040090 - Amina Haji Salah,,JEH
PL17G4SR9D,01/12/2021 11:09,01/12/2021 11:09,Pay Bill Online from 254726001437 - FESTUS MUNYIRI MAINA Acc. IFF,Completed,10000,,37000,TRUE,Pay Bill Online,254726001437 - FESTUS MUNYIRI MAINA,,IFF
PL10G2SXB0,01/12/2021 10:35,01/12/2021 10:35,Pay Bill from 254729796719 - JACINTA WANJIKU NJERI Acc. FFF,Completed,17000,,27000,TRUE,Pay Utility,254729796719 - JACINTA WANJIKU NJERI,,FFF
PL13FWWQKD,01/12/2021 08:52,01/12/2021 08:52,Pay Bill Online from 254700187806 - WINNIE OLIVIA AKOTH Acc. jec,Completed,10000,,10000,TRUE,Pay Bill Online,254700187806 - WINNIE OLIVIA AKOTH,,jec
PL11FV7XAP,01/12/2021 08:19,01/12/2021 08:19,Utility Account to Organization Settlement Account,Completed,,-181500,0,TRUE,Utility Account to Organization Settlement Account,979524 - ANCIENT WELLS PROPERTY MANAGERS 2,,
PL16FV1PGS,01/12/2021 08:15,01/12/2021 08:15,Pay Bill Online from 254795510441 - LEWIS MUEMA Acc. KEB,Completed,16000,,181500,TRUE,Pay Bill Online,254795510441 - LEWIS MUEMA,,KEB
PL10FRWDKS,01/12/2021 06:54,01/12/2021 06:54,Pay Bill Online from 254717809935 - LYDIAH WERU Acc. IDC,Completed,9500,,165500,TRUE,Pay Bill Online,254717809935 - LYDIAH WERU,,IDC
PL15FPMAET,01/12/2021 02:16,01/12/2021 02:16,Pay Bill from 254723488259 - WILSON OKITE OKITE Acc. HCA,Completed,15000,,156000,TRUE,Pay Utility,254723488259 - WILSON OKITE OKITE,,HCA
PL12FORBJ6,01/12/2021 00:15,01/12/2021 00:15,Pay Bill from 254703180395 - JANE NYAGUTHII MWAGO Acc. IBE,Completed,8000,,141000,TRUE,Pay Utility,254703180395 - JANE NYAGUTHII MWAGO,,IBE
