Receipt No.,Completion Time,Initiation Time,Details,Transaction Status,Paid In,Withdrawn,Balance,Balance Confirmed,Reason Type,Other Party Info,Linked Transaction ID,A/C No.
RL52AF6VGE,05/12/2023 16:02,05/12/2023 16:02,Pay Bill Online from 254715***212 - BANCE *** Acc. JFE,Completed,9000,,110500,TRUE,Pay Bill Online,254715***212 - BANCE ***,,JFE
RL56A81N7M,05/12/2023 15:00,05/12/2023 15:00,Pay Bill from 254700***569 - EDITH *** Acc. DDB,Completed,16000,,101500,TRUE,Pay Utility with OD via STK,254700***569 - EDITH ***,,DDB
RL599WHF6P,05/12/2023 13:23,05/12/2023 13:23,Pay Bill Online from 254742***013 - HANEST *** Acc. IED,Completed,11000,,85500,TRUE,Pay Bill Online,254742***013 - HANEST ***,,IED
RL519VT0J3,05/12/2023 13:17,05/12/2023 13:17,Pay Bill from 254723***777 - BONIFACE *** Acc. IDG,Completed,9500,,74500,TRUE,Pay Utility,254723***777 - BONIFACE ***,,IDG
RL579EKPW7,05/12/2023 10:47,05/12/2023 10:47,Pay Bill Online from 254710***776 - KELVIN *** Acc. FAD,Completed,12000,,65000,TRUE,Pay Bill Online,254710***776 - KELVIN ***,,FAD
RL589EEIGW,05/12/2023 10:45,05/12/2023 10:45,Pay Bill from 254711***196 - JUDITH *** Acc. Fea,Completed,16000,,53000,TRUE,Pay Utility,254711***196 - JUDITH ***,,Fea
RL5597VHN3,05/12/2023 09:48,05/12/2023 09:48,Pay Bill from 254724***503 - GEOFREY *** Acc. JFF,Completed,10000,,37000,TRUE,Pay Utility,254724***503 - GEOFREY ***,,JFF
RL51950A57,05/12/2023 09:22,05/12/2023 09:22,Pay Bill from 074337***291 - Ann *** Acc. KAD,Completed,11000,,27000,TRUE,Pay Utility,074337***291 - Ann ***,,KAD
RL589488R2,05/12/2023 09:14,05/12/2023 09:14,Pay Bill from 254719***942 - NORAH *** Acc. KDA,Completed,16000,,16000,TRUE,Pay Utility,254719***942 - NORAH ***,,KDA
RL5193038N,05/12/2023 09:03,05/12/2023 09:03,Utility Account to Organization Settlement Account,Completed,,-274500,0,TRUE,Utility Account to Organization Settlement Account,979524 - ANCIENT WELLS PROPERTY MANAGERS 2,,
RL57910Z8T,05/12/2023 08:44,05/12/2023 08:44,Pay Bill from 254705***030 - FRIDAH *** Acc. JEH,Completed,16000,,274500,TRUE,Pay Utility,254705***030 - FRIDAH ***,,JEH
RL578VIFIH,05/12/2023 07:46,05/12/2023 07:46,Pay Bill Online from 254725***904 - SALOME *** Acc. KFJ,Completed,15000,,258500,TRUE,Pay Bill Online,254725***904 - SALOME ***,,KFJ
RL468KIZ8C,04/12/2023 23:17,04/12/2023 23:17,Pay Bill from 254723***911 - JAMES *** Acc. ICG,Completed,9500,,243500,TRUE,Pay Utility,254723***911 - JAMES ***,,ICG
RL468JUI88,04/12/2023 23:02,04/12/2023 23:02,Pay Bill Online from 254702***678 - JOHN *** Acc. DEB,Completed,16000,,234000,TRUE,Pay Bill Online,254702***678 - JOHN ***,,DEB
RL428AP7ZW,04/12/2023 21:11,04/12/2023 21:11,Pay Bill from 254724***046 - GIDEON *** Acc. KFH,Completed,8000,,218000,TRUE,Pay Utility,254724***046 - GIDEON ***,,KFH
RL49883LRR,04/12/2023 20:51,04/12/2023 20:51,Pay Bill from 254701***397 - ELEMA *** Acc. FCA,Completed,10000,,210000,TRUE,Pay Utility,254701***397 - ELEMA ***,,FCA
RL4886Y96A,04/12/2023 20:43,04/12/2023 20:43,Pay Bill from 254796***496 - IVY *** Acc. FAA,Completed,8000,,200000,TRUE,Pay Utility,254796***496 - IVY ***,,FAA
RL457Z7O07,04/12/2023 19:53,04/12/2023 19:53,Pay Bill from 074020***174 - Josephine *** Acc. Ifg,Completed,9000,,192000,TRUE,Pay Utility,074020***174 - Josephine ***,,Ifg
RL487VKZR8,04/12/2023 19:33,04/12/2023 19:33,Pay Bill from 079009***091 - Daisy *** Acc. KFI,Completed,12000,,183000,TRUE,Pay Utility,079009***091 - Daisy ***,,KFI
RL447TRR5E,04/12/2023 19:24,04/12/2023 19:24,Pay Bill from 254729***859 - AUDREY *** Acc. KFB,Completed,16000,,171000,TRUE,Pay Utility,254729***859 - AUDREY ***,,KFB
RL437AK76N,04/12/2023 17:31,04/12/2023 17:31,Pay Bill from 254720***502 - JOHN *** Acc. JFA,Completed,5000,,155000,TRUE,Pay Utility,254720***502 - JOHN ***,,JFA
RL416XN8WJ,04/12/2023 15:50,04/12/2023 15:50,Pay Bill Online from 254729***700 - MICAH *** Acc. HFE,Completed,10500,,150000,TRUE,Pay Bill Online,254729***700 - MICAH ***,,HFE
RL456WN2RP,04/12/2023 15:41,04/12/2023 15:41,Pay Bill from 254718***358 - Job *** Acc. ICF,Completed,23000,,139500,TRUE,Pay Utility,254718***358 - Job ***,,ICF
RL446MWDQ0,04/12/2023 14:16,04/12/2023 14:16,Pay Bill from 254725***537 - PATRICK *** Acc. Keh,Completed,13500,,116500,TRUE,Pay Utility,254725***537 - PATRICK ***,,Keh
RL486L6T24,04/12/2023 14:02,04/12/2023 14:02,Pay Bill from 074378***968 - Dallias *** Acc. hbb,Completed,5000,,103000,TRUE,Pay Utility,074378***968 - Dallias ***,,hbb
RL466EMANQ,04/12/2023 13:07,04/12/2023 13:07,Pay Bill from 074130***410 - STEVEKEVIN *** Acc. IAC,Completed,9000,,98000,TRUE,Pay Utility,074130***410 - STEVEKEVIN ***,,IAC
RL466E6RK8,04/12/2023 13:04,04/12/2023 13:04,Pay Bill from 070656***358 - HARRIET *** Acc. HBA,Completed,16000,,89000,TRUE,Pay Utility,070656***358 - HARRIET ***,,HBA
RL496DQPQX,04/12/2023 13:00,04/12/2023 13:00,Pay Bill Online from 254720***253 - JIMMY *** Acc. KBD,Completed,1000,,73000,TRUE,Pay Utility with OD Online,254720***253 - JIMMY ***,,KBD
RL4667Q5T8,04/12/2023 12:08,04/12/2023 12:08,Pay Bill from 254721***481 - MARTIN *** Acc. DFA,Completed,16000,,72000,TRUE,Pay Utility,254721***481 - MARTIN ***,,DFA
RL4764B2M7,04/12/2023 11:37,04/12/2023 11:37,Pay Bill Online from 254716***144 - PETER *** Acc. FBB,Completed,16000,,56000,TRUE,Pay Bill Online,254716***144 - PETER ***,,FBB
RL45628A63,04/12/2023 11:18,04/12/2023 11:18,Pay Bill from 254728***882 - SHARAD *** Acc. KCK,Completed,15000,,40000,TRUE,Pay Utility,254728***882 - SHARAD ***,,KCK
RL475WB2VB,04/12/2023 10:25,04/12/2023 10:25,Pay Bill from 074548***142 - Daisy *** Acc. FGE,Completed,15000,,25000,TRUE,Pay Utility with OD via STK,074548***142 - Daisy ***,,FGE
RL405UIJEY,04/12/2023 10:10,04/12/2023 10:10,Pay Bill from 254703***744 - Esther *** Acc. KEF,Completed,10000,,10000,TRUE,Pay Utility,254703***744 - Esther ***,,KEF
RL405NTQOI,04/12/2023 09:06,04/12/2023 09:06,Utility Account to Organization Settlement Account,Completed,,-233002,0,TRUE,Utility Account to Organization Settlement Account,979524 - ANCIENT WELLS PROPERTY MANAGERS 2,,
RL455K0QNV,04/12/2023 08:27,04/12/2023 08:27,Pay Bill from 254703***626 - DAVID *** Acc. FCD,Completed,5000,,233002,TRUE,Pay Utility,254703***626 - DAVID ***,,FCD
RL425JPHS8,04/12/2023 08:24,04/12/2023 08:24,Pay Bill Online from 254702***887 - Nax *** Acc. FDE,Completed,22000,,228002,TRUE,Pay Bill Online,254702***887 - Nax ***,,FDE
RL4159DPEP,04/12/2023 03:44,04/12/2023 03:44,Pay Bill from 254743***420 - Margaret *** Acc. fce,Completed,15000,,206002,TRUE,Pay Utility,254743***420 - Margaret ***,,fce
RL465832BW,04/12/2023 01:07,04/12/2023 01:07,Pay Bill Online from 254720***659 - FRANCIS *** Acc. kdg,Completed,10000,,191002,TRUE,Pay Bill Online,254720***659 - FRANCIS ***,,kdg
RL3756U6E1,03/12/2023 23:52,03/12/2023 23:52,Business Pay Bill by 998094 - COOP TO PAYBILL Acc. Hea via API,Completed,16000,,181002,TRUE,Business Pay Bill via API,998094 - COOP TO PAYBILL,,Hea
RL3055L1IK,03/12/2023 23:11,03/12/2023 23:11,Pay Bill from 254723***628 - CLINTON *** Acc. hfh,Completed,16000,,165002,TRUE,Pay Utility,254723***628 - CLINTON ***,,hfh
RL38512050,03/12/2023 21:54,03/12/2023 21:54,Pay Bill from 254728***256 - NICHOLAS *** Acc. HAD,Completed,10000,,149002,TRUE,Pay Utility,254728***256 - NICHOLAS ***,,HAD
RL324WXDGY,03/12/2023 21:10,03/12/2023 21:10,Pay Bill Online from 254723***777 - EVANS *** Acc. KCH,Completed,10000,,139002,TRUE,Pay Utility with OD Online,254723***777 - EVANS ***,,KCH
RL394VMYCB,03/12/2023 20:59,03/12/2023 20:59,Pay Bill Online from 254721***294 - GRACE *** Acc. IGH,Completed,15000,,129002,TRUE,Pay Bill Online,254721***294 - GRACE ***,,IGH
RL374ITZMJ,03/12/2023 19:29,03/12/2023 19:29,Pay Bill from 254716***682 - JUSTINE *** Acc. HAA,Completed,17000,,114002,TRUE,Pay Utility,254716***682 - JUSTINE ***,,HAA
RL374IM2IN,03/12/2023 19:28,03/12/2023 19:28,Pay Bill from 254716***682 - JUSTINE *** Acc. Ahh,Completed,2,,97002,TRUE,Pay Utility,254716***682 - JUSTINE ***,,Ahh
RL3442APJE,03/12/2023 17:40,03/12/2023 17:40,Pay Bill from 254795***751 - caroline *** Acc. KBF,Completed,9000,,97000,TRUE,Pay Utility,254795***751 - caroline ***,,KBF
RL353UV227,03/12/2023 16:41,03/12/2023 16:41,Pay Bill Online from 254726***437 - FESTUS *** Acc. IFF,Completed,10000,,88000,TRUE,Pay Bill Online,254726***437 - FESTUS ***,,IFF
RL312YU843,03/12/2023 11:48,03/12/2023 11:48,Pay Bill from 254717***324 - Christine *** Acc. KDF,Completed,10000,,78000,TRUE,Pay Utility,254717***324 - Christine ***,,KDF
RL332YLQPZ,03/12/2023 11:46,03/12/2023 11:46,Pay Bill Online from 254721***995 - BERNICE *** Acc. KFK,Completed,16000,,68000,TRUE,Pay Bill Online,254721***995 - BERNICE ***,,KFK
RL342XI21S,03/12/2023 11:34,03/12/2023 11:34,Pay Bill from 254723***864 - WILLIAM *** Acc. DED,Completed,20000,,52000,TRUE,Pay Utility with OD via STK,254723***864 - WILLIAM ***,,DED
RL392VAX7V,03/12/2023 11:11,03/12/2023 11:11,Pay Bill Online from 254707***839 - DENNIS *** Acc. FEF,Completed,16000,,32000,TRUE,Pay Bill Online,254707***839 - DENNIS ***,,FEF
RL302TXQDM,03/12/2023 10:57,03/12/2023 10:57,Pay Bill from 254728***427 - MARY *** Acc. FDF,Completed,16000,,16000,TRUE,Pay Utility,254728***427 - MARY ***,,FDF
RL352QYNTB,03/12/2023 10:27,03/12/2023 10:27,Utility Account to Organization Settlement Account,Completed,,-136000,0,TRUE,Utility Account to Organization Settlement Account,979524 - ANCIENT WELLS PROPERTY MANAGERS 2,,
RL362PWEXA,03/12/2023 10:16,03/12/2023 10:16,Pay Bill from 254729***750 - DERRICK *** Acc. DAC,Completed,20000,,136000,TRUE,Pay Utility,254729***750 - DERRICK ***,,DAC
RL332J5TRV,03/12/2023 09:06,03/12/2023 09:06,Pay Bill Online from 254720***253 - JIMMY *** Acc. KBD,Completed,1000,,116000,TRUE,Pay Utility with OD Online,254720***253 - JIMMY ***,,KBD
RL392HQEXR,03/12/2023 08:50,03/12/2023 08:50,Pay Bill from 074065***285 - DOMINIC *** Acc. kdc,Completed,10000,,115000,TRUE,Pay Utility,074065***285 - DOMINIC ***,,kdc
RL291QS6Y9,02/12/2023 21:14,02/12/2023 21:14,Pay Bill Online from 254702***515 - ELIZABETH *** Acc. ICH,Completed,16000,,105000,TRUE,Pay Bill Online,254702***515 - ELIZABETH ***,,ICH
RL29ZWXTI7,02/12/2023 18:15,02/12/2023 18:15,Pay Bill from 254723***380 - RHODAH *** Acc. HEG,Completed,15000,,89000,TRUE,Pay Utility,254723***380 - RHODAH ***,,HEG
RL28ZWSASA,02/12/2023 18:14,02/12/2023 18:14,Pay Bill from 254702***907 - FAITH *** Acc. kbe,Completed,10000,,74000,TRUE,Pay Utility,254702***907 - FAITH ***,,kbe
RL26ZE8G2G,02/12/2023 15:59,02/12/2023 15:59,Pay Bill Online from 254792***144 - HASSAN *** Acc. KGI,Completed,10000,,64000,TRUE,Pay Bill Online,254792***144 - HASSAN ***,,KGI
RL25YYSRUH,02/12/2023 13:53,02/12/2023 13:53,Pay Bill from 079895***042 - fridah *** Acc. HGE,Completed,9000,,54000,TRUE,Pay Utility,079895***042 - fridah ***,,HGE
RL29YY1EGF,02/12/2023 13:47,02/12/2023 13:47,Pay Bill from 254714***203 - PATRICK *** Acc. KEI,Completed,12000,,45000,TRUE,Pay Utility,254714***203 - PATRICK ***,,KEI
RL29YV7KK7,02/12/2023 13:24,02/12/2023 13:24,Pay Bill Online from 254706***634 - CLINTON *** Acc. FDB,Completed,17000,,33000,TRUE,Pay Bill Online,254706***634 - CLINTON ***,,FDB
RL29XZS4C7,02/12/2023 08:47,02/12/2023 08:47,Pay Bill from 254708***464 - MERCY *** Acc. IBB,Completed,16000,,16000,TRUE,Pay Utility,254708***464 - MERCY ***,,IBB
RL22XSCML6,02/12/2023 07:24,02/12/2023 07:24,Utility Account to Organization Settlement Account,Completed,,-251600,0,TRUE,Utility Account to Organization Settlement Account,979524 - ANCIENT WELLS PROPERTY MANAGERS 2,,
RL10XJ3Q9K,01/12/2023 23:43,01/12/2023 23:43,Pay Bill Online from 254728***775 - Faith *** Acc. JAC,Completed,500,,251600,TRUE,Pay Bill Online,254728***775 - Faith ***,,JAC
RL16XEGEUO,01/12/2023 22:18,01/12/2023 22:18,Pay Bill from 254722***450 - MARY *** Acc. JAI,Completed,20000,,251100,TRUE,Pay Utility,254722***450 - MARY ***,,JAI
RL11XCEKVV,01/12/2023 21:55,01/12/2023 21:55,Pay Bill from 254791***982 - ADULLAHI *** Acc. JCI,Completed,20000,,231100,TRUE,Pay Utility,254791***982 - ADULLAHI ***,,JCI
RL17X7057P,01/12/2023 21:08,01/12/2023 21:08,Pay Bill from 254745***401 - mirriam *** Acc. KCI,Completed,11000,,211100,TRUE,Pay Utility,254745***401 - mirriam ***,,KCI
RL19X1XO67,01/12/2023 20:33,01/12/2023 20:33,Pay Bill Online from 254720***253 - JIMMY *** Acc. KBD,Completed,100,,200100,TRUE,Pay Utility with OD Online,254720***253 - JIMMY ***,,KBD
RL15WKAN3R,01/12/2023 18:55,01/12/2023 18:55,FSI to Pay Bill by 576777 - I&M BANK LTD - BANK TO TILL Acc. IDI via WEB by I&M BANK LTD - BANK TO TILL\B2BUser1,Completed,15000,,200000,TRUE,FSI to Pay Bill via API,576777 - I&M BANK LTD - BANK TO TILL,,IDI
RL10WJZMI4,01/12/2023 18:53,01/12/2023 18:53,Pay Bill from 254722***705 - ERIC *** Acc. FCF,Completed,16000,,185000,TRUE,Pay Utility,254722***705 - ERIC ***,,FCF
RL15WHO2GT,01/12/2023 18:41,01/12/2023 18:41,Pay Bill Online from 254705***736 - SNAIDA *** Acc. FEC,Completed,9000,,169000,TRUE,Pay Bill Online,254705***736 - SNAIDA ***,,FEC
RL11W5W0DT,01/12/2023 17:27,01/12/2023 17:27,Pay Bill from 074591***020 - PAUL *** Acc. IFC,Completed,8000,,160000,TRUE,Pay Utility,074591***020 - PAUL ***,,IFC
RL11W4LIGZ,01/12/2023 17:18,01/12/2023 17:18,Pay Bill from 075760***316 - MOHAMED *** Acc. FCA,Completed,6000,,152000,TRUE,Pay Utility,075760***316 - MOHAMED ***,,FCA
RL17W4C3QP,01/12/2023 17:16,01/12/2023 17:16,Pay Bill from 254791***823 - rachel *** Acc. JEG,Completed,9000,,146000,TRUE,Pay Utility,254791***823 - rachel ***,,JEG
RL17W2ITFL,01/12/2023 17:03,01/12/2023 17:03,Pay Bill from 254717***012 - WINFRED *** Acc. IDA,Completed,16000,,137000,TRUE,Pay Utility,254717***012 - WINFRED ***,,IDA
RL12VXWSJO,01/12/2023 16:28,01/12/2023 16:28,Pay Bill from 254711***815 - NAOMI *** Acc. KBA,Completed,18500,,121000,TRUE,Pay Utility,254711***815 - NAOMI ***,,KBA
RL14VWVCJY,01/12/2023 16:20,01/12/2023 16:20,Pay Bill from 254712***486 - JACKLINE *** Acc. ked,Completed,11000,,102500,TRUE,Pay Utility,254712***486 - JACKLINE ***,,ked
RL11VG85VP,01/12/2023 14:02,01/12/2023 14:02,Pay Bill from 074378***968 - Dallias *** Acc. hbb,Completed,3000,,91500,TRUE,Pay Utility,074378***968 - Dallias ***,,hbb
RL11V3OZAX,01/12/2023 12:17,01/12/2023 12:17,Pay Bill from 254722***052 - JOSEPH *** Acc. JCF,Completed,3000,,88500,TRUE,Pay Utility,254722***052 - JOSEPH ***,,JCF
RL14V3LMG6,01/12/2023 12:16,01/12/2023 12:16,Pay Bill from 254726***835 - LAWRENCE *** Acc. kdj,Completed,16000,,85500,TRUE,Pay Utility,254726***835 - LAWRENCE ***,,kdj
RL15V0ZT9L,01/12/2023 11:53,01/12/2023 11:53,Pay Bill Online from 254729***719 - JACINTA *** Acc. FFF,Completed,17000,,69500,TRUE,Pay Bill Online,254729***719 - JACINTA ***,,FFF
RL19UZ08L5,01/12/2023 11:36,01/12/2023 11:36,Pay Bill from 254724***488 - NICHOLAS *** Acc. JDE,Completed,9500,,52500,TRUE,Pay Utility,254724***488 - NICHOLAS ***,,JDE
RL16UV3AJS,01/12/2023 11:01,01/12/2023 11:01,Pay Bill from 074325***188 - NANCY *** Acc. KFD,Completed,12000,,43000,TRUE,Pay Utility,074325***188 - NANCY ***,,KFD
RL14UTEX62,01/12/2023 10:47,01/12/2023 10:47,Pay Bill Online from 254717***935 - LYDIAH *** Acc. FFB ,Completed,15000,,31000,TRUE,Pay Bill Online,254717***935 - LYDIAH ***,,FFB
RL10USJBUW,01/12/2023 10:39,01/12/2023 10:39,Pay Bill Online from 254795***441 - LEWIS *** Acc. KEB,Completed,16000,,16000,TRUE,Pay Bill Online,254795***441 - LEWIS ***,,KEB
RL14ULES42,01/12/2023 09:35,01/12/2023 09:35,Utility Account to Organization Settlement Account,Completed,,-109500,0,TRUE,Utility Account to Organization Settlement Account,979524 - ANCIENT WELLS PROPERTY MANAGERS 2,,
RL18UI9NMG,01/12/2023 09:06,01/12/2023 09:06,Pay Bill from 011532***960 - JOSEPH *** Acc. IBG,Completed,8000,,109500,TRUE,Pay Utility,011532***960 - JOSEPH ***,,IBG
RL16UHK1FI,01/12/2023 08:59,01/12/2023 08:59,Pay Bill from 254716***398 - HYVENE *** Acc. KDE,Completed,10000,,101500,TRUE,Pay Utility,254716***398 - HYVENE ***,,KDE
RL18U7I2PQ,01/12/2023 07:08,01/12/2023 07:08,Pay Bill Online from 254723***064 - ANDREW *** Acc. HBG ,Completed,16000,,91500,TRUE,Pay Bill Online,254723***064 - ANDREW ***,,HBG
RL17U70KNH,01/12/2023 07:00,01/12/2023 07:00,Pay Bill from 074547***241 - Tonny *** Acc. IDC,Completed,9500,,75500,TRUE,Pay Utility,074547***241 - Tonny ***,,IDC
RKU7TXZHJT,30/11/2023 23:07,30/11/2023 23:07,Pay Bill Online from 254706***429 - ROSE *** Acc. IFI,Completed,15000,,66000,TRUE,Pay Bill Online,254706***429 - ROSE ***,,IFI
RKU6TRMFQW,30/11/2023 21:43,30/11/2023 21:43,Pay Bill Online from 254718***538 - JAMES *** Acc. JBH,Completed,16000,,51000,TRUE,Pay Bill Online,254718***538 - JAMES ***,,JBH
RKU1TO1E03,30/11/2023 21:12,30/11/2023 21:12,Pay Bill Online from 011497***420 - WENDY *** Acc. FFC,Completed,9000,,35000,TRUE,Pay Bill Online,011497***420 - WENDY ***,,FFC
RKU7THK3JT,30/11/2023 20:27,30/11/2023 20:27,Pay Bill Online from 254742***558 - PEACEMARY *** Acc. JBC,Completed,11000,,26000,TRUE,Pay Bill Online,254742***558 - PEACEMARY ***,,JBC
RKU0T42Z6Y,30/11/2023 19:12,30/11/2023 19:12,Pay Bill from 011178***209 - Jacob *** Acc. IBA,Completed,15000,,15000,TRUE,Pay Utility,011178***209 - Jacob ***,,IBA
RKU5SPFLLZ,30/11/2023 17:48,30/11/2023 17:48,Utility Account to Organization Settlement Account,Completed,,-34000,0,TRUE,Utility Account to Organization Settlement Account,979524 - ANCIENT WELLS PROPERTY MANAGERS 2,,
RKU6SDC7SS,30/11/2023 16:17,30/11/2023 16:17,Pay Bill from 071972***347 - ROSEMARY *** Acc. K G E ,Completed,9000,,34000,TRUE,Pay Utility,071972***347 - ROSEMARY ***,,K
RKU4S348OC,30/11/2023 14:48,30/11/2023 14:48,Pay Bill from 254711***034 - Lucky *** Acc. JAA,Completed,20000,,25000,TRUE,Pay Utility,254711***034 - Lucky ***,,JAA
RKU9S0UNTJ,30/11/2023 14:28,30/11/2023 14:28,Pay Bill from 254720***502 - JOHN *** Acc. JFA,Completed,5000,,5000,TRUE,Pay Utility,254720***502 - JOHN ***,,JFA
RKU6RPAFZO,30/11/2023 12:51,30/11/2023 12:51,Utility Account to Organization Settlement Account,Completed,,-60000,0,TRUE,Utility Account to Organization Settlement Account,979524 - ANCIENT WELLS PROPERTY MANAGERS 2,,
RKU1RLRTI9,30/11/2023 12:19,30/11/2023 12:19,Pay Bill from 254729***338 - REGINA *** Acc. IEC,Completed,10000,,60000,TRUE,Pay Utility,254729***338 - REGINA ***,,IEC
RKU6RKNTH0,30/11/2023 12:09,30/11/2023 12:09,Pay Bill from 254725***547 - MWACHIRO *** Acc. DFC,Completed,20000,,50000,TRUE,Pay Utility,254725***547 - MWACHIRO ***,,DFC
RKU2RHTE0K,30/11/2023 11:43,30/11/2023 11:43,Pay Bill Online from 254721***037 - ERIC *** Acc. HCG,Completed,15000,,30000,TRUE,Pay Bill Online,254721***037 - ERIC ***,,HCG
RKU0QYHUSU,30/11/2023 08:42,30/11/2023 08:42,Pay Bill Online from 254704***557 - BAKARI *** Acc. HDG,Completed,15000,,15000,TRUE,Pay Bill Online,254704***557 - BAKARI ***,,HDG
RKU2QVYH4A,30/11/2023 08:15,30/11/2023 08:15,Utility Account to Organization Settlement Account,Completed,,-178900,0,TRUE,Utility Account to Organization Settlement Account,979524 - ANCIENT WELLS PROPERTY MANAGERS 2,,
RKU2QROG2C,30/11/2023 07:23,30/11/2023 07:23,Pay Bill from 254704***133 - ELVIS *** Acc. HFD,Completed,900,,178900,TRUE,Pay Utility,254704***133 - ELVIS ***,,HFD
RKT4QFTSE2,29/11/2023 22:28,29/11/2023 22:28,Pay Bill from 254714***677 - IMMANUEL *** Acc. KAI,Completed,12000,,178000,TRUE,Pay Utility,254714***677 - IMMANUEL ***,,KAI
RKT2QD0PFI,29/11/2023 21:52,29/11/2023 21:52,Pay Bill Online from 254710***167 - KUSA *** Acc. JEB,Completed,15000,,166000,TRUE,Pay Bill Online,254710***167 - KUSA ***,,JEB
RKT4PNI9TA,29/11/2023 19:03,29/11/2023 19:03,Pay Bill Online from 254722***851 - WILFRED *** Acc. KEE,Completed,10000,,151000,TRUE,Pay Bill Online,254722***851 - WILFRED ***,,KEE
RKT6P509ZW,29/11/2023 17:06,29/11/2023 17:06,Pay Bill Online from 071160***780 - gift *** Acc. DEA,Completed,33000,,141000,TRUE,Pay Bill Online,071160***780 - gift ***,,DEA
RKT0OJU7YG,29/11/2023 14:03,29/11/2023 14:03,Pay Bill from 074635***450 - Alice *** Acc. FBC,Completed,9000,,108000,TRUE,Pay Utility,074635***450 - Alice ***,,FBC
RKT4OIEMO2,29/11/2023 13:51,29/11/2023 13:51,Pay Bill from 254723***259 - WILSON *** Acc. hca,Completed,15000,,99000,TRUE,Pay Utility,254723***259 - WILSON ***,,hca
RKT0O8CTR0,29/11/2023 12:23,29/11/2023 12:23,Pay Bill from 254721***773 - NANCY *** Acc. KCF,Completed,11000,,84000,TRUE,Pay Utility,254721***773 - NANCY ***,,KCF
RKT3O1H4P7,29/11/2023 11:19,29/11/2023 11:19,Business Pay Bill by 488519 - NCBA  Bank M-pesa Acc. DBD  via API,Completed,20000,,73000,TRUE,Business Pay Bill via API,488519 - NCBA  Bank M-pesa,,DBD
RKT5NVSUVR,29/11/2023 10:27,29/11/2023 10:27,Pay Bill Online from 254705***407 - CAROLINE *** Acc. IDH,Completed,10000,,53000,TRUE,Pay Bill Online,254705***407 - CAROLINE ***,,IDH
RKT0NIGN5K,29/11/2023 08:14,29/11/2023 08:14,Pay Bill Online from 254724***857 - OCHUODHO *** Acc. KBK,Completed,17000,,43000,TRUE,Pay Bill Online,254724***857 - OCHUODHO ***,,KBK
RKS9MYHO7Z,28/11/2023 21:34,28/11/2023 21:34,Pay Bill from 254799***271 - CALVIN *** Acc. FEB,Completed,15000,,26000,TRUE,Pay Utility,254799***271 - CALVIN ***,,FEB
RKS6MQ751U,28/11/2023 20:28,28/11/2023 20:28,Pay Bill from 254720***822 - JAMES *** Acc. jgj,Completed,1000,,11000,TRUE,Pay Utility with OD via STK,254720***822 - JAMES ***,,jgj
RKS3LSCZ39,28/11/2023 17:00,28/11/2023 17:00,Pay Bill from 254721***773 - NANCY *** Acc. KCF,Completed,10000,,10000,TRUE,Pay Utility,254721***773 - NANCY ***,,KCF
RKS4LFQ56G,28/11/2023 15:12,28/11/2023 15:12,Utility Account to Organization Settlement Account,Completed,,-219200,0,TRUE,Utility Account to Organization Settlement Account,979524 - ANCIENT WELLS PROPERTY MANAGERS 2,,
RKS5L80VW3,28/11/2023 14:04,28/11/2023 14:04,Pay Bill Online from 254714***840 - RACHAEL *** Acc. ITE,Completed,10000,,219200,TRUE,Pay Bill Online,254714***840 - RACHAEL ***,,ITE
RKS4L2Z4T8,28/11/2023 13:21,28/11/2023 13:21,FSI to Pay Bill by 3033815 - LOOP B2C. Acc. DCC via WEB by LOOP B2C.\TRINITYAPI,Completed,20000,,209200,TRUE,FSI to Pay Bill via API,3033815 - LOOP B2C.,,DCC
RKS5KSR7HV,28/11/2023 11:48,28/11/2023 11:48,Pay Bill Online from 254700***806 - WINNIE *** Acc. JEC,Completed,10000,,189200,TRUE,Pay Bill Online,254700***806 - WINNIE ***,,JEC
RKS3KSK2Z3,28/11/2023 11:46,28/11/2023 11:46,Pay Bill from 254702***790 - Michelle *** Acc. IDE,Completed,8000,,179200,TRUE,Pay Utility,254702***790 - Michelle ***,,IDE
RKS1KQ6I3N,28/11/2023 11:23,28/11/2023 11:23,Pay Bill from 254720***822 - JAMES *** Acc. jgj,Completed,2000,,171200,TRUE,Pay Utility,254720***822 - JAMES ***,,jgj
RKS7KJA5SZ,28/11/2023 10:19,28/11/2023 10:19,Pay Bill from 254722***052 - JOSEPH *** Acc. JCF,Completed,15000,,169200,TRUE,Pay Utility,254722***052 - JOSEPH ***,,JCF
RKS5KBPMYN,28/11/2023 09:05,28/11/2023 09:05,Pay Bill Online from 254706***046 - STACY *** Acc. KGK,Completed,15000,,154200,TRUE,Pay Bill Online,254706***046 - STACY ***,,KGK
RKR3IJFH3V,27/11/2023 17:12,27/11/2023 17:12,Pay Bill from 070115***700 - Anabel *** Acc. jdj,Completed,15000,,139200,TRUE,Pay Utility,070115***700 - Anabel ***,,jdj
RKR1IDR4F9,27/11/2023 16:26,27/11/2023 16:26,Pay Bill from 072113***307 - HILLARY *** Acc. JCH,Completed,16000,,124200,TRUE,Pay Utility,072113***307 - HILLARY ***,,JCH
RKR0IBMDYC,27/11/2023 16:07,27/11/2023 16:07,Pay Bill from 079225***626 - Susan *** Acc. IAE,Completed,21200,,108200,TRUE,Pay Utility,079225***626 - Susan ***,,IAE
RKR3I507ZD,27/11/2023 15:08,27/11/2023 15:08,Pay Bill from 254704***365 - JOAN *** Acc. KDH,Completed,10000,,87000,TRUE,Pay Utility,254704***365 - JOAN ***,,KDH
RKR5HXH8Z5,27/11/2023 14:00,27/11/2023 14:00,Pay Bill Online from 254712***712 - JUDELEEN *** Acc. IEA,Completed,16000,,77000,TRUE,Pay Bill Online,254712***712 - JUDELEEN ***,,IEA
RKR9HSVUB7,27/11/2023 13:21,27/11/2023 13:21,Pay Bill Online from 071150***447 - Gabriel *** Acc. FDC,Completed,9000,,61000,TRUE,Pay Bill Online,071150***447 - Gabriel ***,,FDC
RKR0HLKYQM,27/11/2023 12:15,27/11/2023 12:15,Pay Bill Online from 071883***251 - MARK *** Acc. kfg,Completed,10000,,52000,TRUE,Pay Bill Online,071883***251 - MARK ***,,kfg
RKR9HKOASF,27/11/2023 12:06,27/11/2023 12:06,Pay Bill from 254718***744 - ALBERT *** Acc. IBH,Completed,15000,,42000,TRUE,Pay Utility,254718***744 - ALBERT ***,,IBH
RKR1H9SNLN,27/11/2023 10:24,27/11/2023 10:24,Pay Bill from 254703***239 - BENARD *** Acc. KAK,Completed,16000,,27000,TRUE,Pay Utility,254703***239 - BENARD ***,,KAK
RKR6H53114,27/11/2023 09:37,27/11/2023 09:37,Pay Bill Online from 254707***441 - JOHN *** Acc. IEH,Completed,7000,,11000,TRUE,Pay Bill Online,254707***441 - JOHN ***,,IEH
RKR3H3S929,27/11/2023 09:24,27/11/2023 09:24,Pay Bill from 075725***130 - RASHID *** Acc. JAF ,Completed,4000,,4000,TRUE,Pay Utility,075725***130 - RASHID ***,,JAF
RKR4GY0E5U,27/11/2023 08:21,27/11/2023 08:21,Utility Account to Organization Settlement Account,Completed,,-116400,0,TRUE,Utility Account to Organization Settlement Account,979524 - ANCIENT WELLS PROPERTY MANAGERS 2,,
RKQ0GLH7Z4,26/11/2023 23:18,26/11/2023 23:18,Pay Bill from 254720***449 - STANLEY *** Acc. FBE,Completed,19000,,116400,TRUE,Pay Utility,254720***449 - STANLEY ***,,FBE
RKQ6G6HSS6,26/11/2023 20:14,26/11/2023 20:14,Pay Bill from 254729***678 - GRACE *** Acc. fba,Completed,15000,,97400,TRUE,Pay Utility,254729***678 - GRACE ***,,fba
RKQ4FN52KO,26/11/2023 18:06,26/11/2023 18:06,Pay Bill from 254704***133 - ELVIS *** Acc. HFD,Completed,800,,82400,TRUE,Pay Utility,254704***133 - ELVIS ***,,HFD
RKQ3F1M3M5,26/11/2023 14:59,26/11/2023 14:59,Pay Bill Online from 254725***080 - DENNIS *** Acc. HDH,Completed,16000,,81600,TRUE,Pay Utility with OD Online,254725***080 - DENNIS ***,,HDH
RKQ3ESY359,26/11/2023 13:37,26/11/2023 13:37,Pay Bill from 074048***793 - Twince *** Acc. DGC,Completed,28000,,65600,TRUE,Pay Utility,074048***793 - Twince ***,,DGC
RKQ8E953KM,26/11/2023 09:50,26/11/2023 09:50,Pay Bill Online from 254714***632 - ROMANA *** Acc. KEG,Completed,11600,,37600,TRUE,Pay Utility with OD Online,254714***632 - ROMANA ***,,KEG
RKP0DISHPO,25/11/2023 21:42,25/11/2023 21:42,Pay Bill Online from 254701***737 - MICHAEL *** Acc. HDB,Completed,16000,,26000,TRUE,Pay Bill Online,254701***737 - MICHAEL ***,,HDB
RKP7D3EZEX,25/11/2023 19:46,25/11/2023 19:46,Pay Bill from 254769***105 - GEORGE *** Acc. JAG,Completed,10000,,10000,TRUE,Pay Utility,254769***105 - GEORGE ***,,JAG
RKP1C9YR1X,25/11/2023 16:36,25/11/2023 16:36,Utility Account to Organization Settlement Account,Completed,,-21000,0,TRUE,Utility Account to Organization Settlement Account,979524 - ANCIENT WELLS PROPERTY MANAGERS 2,,
RKP1C9JHQN,25/11/2023 16:33,25/11/2023 16:33,Pay Bill Online from 254721***560 - ANDREW *** Acc. JBJ,Completed,16000,,21000,TRUE,Pay Bill Online,254721***560 - ANDREW ***,,JBJ
RKP0BFSOVG,25/11/2023 12:21,25/11/2023 12:21,Pay Bill Online from 254722***078 - MAUREEN *** Acc. DCD,Completed,3500,,5000,TRUE,Pay Bill Online,254722***078 - MAUREEN ***,,DCD
RKP5BDWY6J,25/11/2023 12:04,25/11/2023 12:04,Pay Bill Online from 254722***078 - MAUREEN *** Acc. DCD,Completed,1500,,1500,TRUE,Pay Bill Online,254722***078 - MAUREEN ***,,DCD
RKP4BBMH2G,25/11/2023 11:43,25/11/2023 11:43,Utility Account to Organization Settlement Account,Completed,,-147900,0,TRUE,Utility Account to Organization Settlement Account,979524 - ANCIENT WELLS PROPERTY MANAGERS 2,,
RKP6AX95CC,25/11/2023 09:28,25/11/2023 09:28,Pay Bill from 075725***130 - RASHID *** Acc. JAF,Completed,5000,,147900,TRUE,Pay Utility,075725***130 - RASHID ***,,JAF
RKP8AVJ6H0,25/11/2023 09:11,25/11/2023 09:11,Pay Bill from 254720***119 - LINDAH *** Acc. kfe,Completed,9500,,142900,TRUE,Pay Utility,254720***119 - LINDAH ***,,kfe
RKP8AV13WG,25/11/2023 09:06,25/11/2023 09:06,Pay Bill Online from 254790***254 - BROOKLYN *** Acc. JBB,Completed,15000,,133400,TRUE,Pay Bill Online,254790***254 - BROOKLYN ***,,JBB
RKP5ANZOAD,25/11/2023 07:45,25/11/2023 07:45,Pay Bill Online from 254717***608 - DANIEL *** Acc. JFD,Completed,15000,,118400,TRUE,Pay Bill Online,254717***608 - DANIEL ***,,JFD
RKP8AM3ZJE,25/11/2023 07:18,25/11/2023 07:18,Pay Bill Online from 254722***078 - MAUREEN *** Acc. DCD,Completed,5000,,103400,TRUE,Pay Bill Online,254722***078 - MAUREEN ***,,DCD
RKO5A2H03N,24/11/2023 21:04,24/11/2023 21:04,Pay Bill from 076890***522 - Jael *** Acc. HEF,Completed,9000,,98400,TRUE,Pay Utility,076890***522 - Jael ***,,HEF
RKO99WM529,24/11/2023 20:21,24/11/2023 20:21,Pay Bill Online from 254741***913 - DUNCAN *** Acc. FAE,Completed,15000,,89400,TRUE,Pay Bill Online,254741***913 - DUNCAN ***,,FAE
RKO49TWELE,24/11/2023 20:03,24/11/2023 20:03,Pay Bill from 254717***848 - MARY *** Acc. FGD,Completed,9000,,74400,TRUE,Pay Utility with OD via STK,254717***848 - MARY ***,,FGD
RKO89RR16I,24/11/2023 19:49,24/11/2023 19:49,Pay Bill from 079094***220 - Joyce *** Acc. IAG,Completed,2000,,65400,TRUE,Pay Utility with OD via STK,079094***220 - Joyce ***,,IAG
RKO59MCCK5,24/11/2023 19:18,24/11/2023 19:18,Pay Bill Online from 254724***401 - RAPHAEL *** Acc. KGG,Completed,10000,,63400,TRUE,Pay Bill Online,254724***401 - RAPHAEL ***,,KGG
RKO49G4S8E,24/11/2023 18:45,24/11/2023 18:45,Business Pay Bill by 488519 - NCBA  Bank M-pesa Acc. DEC via API,Completed,20000,,53400,TRUE,Business Pay Bill via API,488519 - NCBA  Bank M-pesa,,DEC
RKO58QTACZ,24/11/2023 15:41,24/11/2023 15:41,Pay Bill from 079094***220 - Joyce *** Acc. IAG,Completed,1400,,33400,TRUE,Pay Utility with OD via STK,079094***220 - Joyce ***,,IAG
RKO08IJCUI,24/11/2023 14:28,24/11/2023 14:28,Pay Bill from 254715***579 - GRACE *** Acc. FDA ,Completed,16000,,32000,TRUE,Pay Utility,254715***579 - GRACE ***,,FDA
RKO380URK3,24/11/2023 11:47,24/11/2023 11:47,Pay Bill Online from 254712***681 - DENNIS *** Acc. HAG,Completed,16000,,16000,TRUE,Pay Utility with OD Online,254712***681 - DENNIS ***,,HAG
RKO67UXIQM,24/11/2023 10:50,24/11/2023 10:50,Utility Account to Organization Settlement Account,Completed,,-88100,0,TRUE,Utility Account to Organization Settlement Account,979524 - ANCIENT WELLS PROPERTY MANAGERS 2,,
RKO17KBU21,24/11/2023 09:06,24/11/2023 09:06,Pay Bill from 254714***668 - ZACHARY *** Acc. JAD,Completed,33000,,88100,TRUE,Pay Utility,254714***668 - ZACHARY ***,,JAD
RKO27JDIAU,24/11/2023 08:56,24/11/2023 08:56,Pay Bill Online from 254728***280 - EMMANUEL *** Acc. IBI,Completed,16000,,55100,TRUE,Pay Bill Online,254728***280 - EMMANUEL ***,,IBI
RKO07B0B4C,24/11/2023 07:13,24/11/2023 07:13,Pay Bill from 254717***817 - NYANGAU *** Acc. jba,Completed,23000,,39100,TRUE,Pay Utility,254717***817 - NYANGAU ***,,jba
RKO0761H8G,24/11/2023 01:59,24/11/2023 01:59,Pay Bill Online from 254704***133 - ELVIS *** Acc. HFD,Completed,700,,16100,TRUE,Pay Bill Online,254704***133 - ELVIS ***,,HFD
RKN96KLF93,23/11/2023 20:04,23/11/2023 20:04,Pay Bill Online from 254791***800 - CAROL *** Acc. ICF,Completed,400,,15400,TRUE,Pay Utility with OD Online,254791***800 - CAROL ***,,ICF
RKN76KJW2N,23/11/2023 20:04,23/11/2023 20:04,Pay Bill from 254725***246 - FRANCIS *** Acc. IGI,Completed,15000,,15000,TRUE,Pay Utility,254725***246 - FRANCIS ***,,IGI
RKN36JGAN9,23/11/2023 19:57,23/11/2023 19:57,Utility Account to Organization Settlement Account,Completed,,-25900,0,TRUE,Utility Account to Organization Settlement Account,979524 - ANCIENT WELLS PROPERTY MANAGERS 2,,
RKN75ELQO7,23/11/2023 15:11,23/11/2023 15:11,Pay Bill Online from 254720***609 - DENNIS *** Acc. JAJ,Completed,12000,,25900,TRUE,Pay Bill Online,254720***609 - DENNIS ***,,JAJ
RKN05AS2X2,23/11/2023 14:39,23/11/2023 14:39,Pay Bill from 254796***496 - IVY *** Acc. FAA,Completed,2000,,13900,TRUE,Pay Utility,254796***496 - IVY ***,,FAA
RKN95A47F3,23/11/2023 14:33,23/11/2023 14:33,Pay Bill Online from 254703***395 - JANE *** Acc. IBE,Completed,8000,,11900,TRUE,Pay Bill Online,254703***395 - JANE ***,,IBE
RKN24OUNIS,23/11/2023 11:20,23/11/2023 11:20,Pay Bill from 079094***220 - Joyce *** Acc. IAG,Completed,3900,,3900,TRUE,Pay Utility with OD via STK,079094***220 - Joyce ***,,IAG
RKN94O9SZT,23/11/2023 11:15,23/11/2023 11:15,Utility Account to Organization Settlement Account,Completed,,-40100,0,TRUE,Utility Account to Organization Settlement Account,979524 - ANCIENT WELLS PROPERTY MANAGERS 2,,
RKN73X16JP,23/11/2023 02:04,23/11/2023 02:04,Pay Bill from 254704***133 - ELVIS *** Acc. HFD,Completed,600,,40100,TRUE,Pay Utility,254704***133 - ELVIS ***,,HFD
RKM932N3ET,22/11/2023 19:04,22/11/2023 19:04,Pay Bill from 254720***822 - JAMES *** Acc. jgj,Completed,3500,,39500,TRUE,Pay Utility,254720***822 - JAMES ***,,jgj
RKM82BY2R2,22/11/2023 15:54,22/11/2023 15:54,Pay Bill from 254727***033 - JOHN *** Acc. FAF,Completed,16000,,36000,TRUE,Pay Utility with OD via STK,254727***033 - JOHN ***,,FAF
RKM71GDRCX,22/11/2023 11:00,22/11/2023 11:00,Pay Bill from 074048***793 - Twince *** Acc. DGC,Completed,20000,,20000,TRUE,Pay Utility,074048***793 - Twince ***,,DGC
RKL8Z6BY52,21/11/2023 20:03,21/11/2023 20:03,Utility Account to Organization Settlement Account,Completed,,-10500,0,TRUE,Utility Account to Organization Settlement Account,979524 - ANCIENT WELLS PROPERTY MANAGERS 2,,
RKL2Z5KLK6,21/11/2023 19:58,21/11/2023 19:58,Pay Bill Online from 254718***980 - KAREN *** Acc. HEC,Completed,10500,,10500,TRUE,Pay Bill Online,254718***980 - KAREN ***,,HEC
RKL2YXTC6S,21/11/2023 19:13,21/11/2023 19:13,Utility Account to Organization Settlement Account,Completed,,-17000,0,TRUE,Utility Account to Organization Settlement Account,979524 - ANCIENT WELLS PROPERTY MANAGERS 2,,
RKL7YPM3KX,21/11/2023 18:27,21/11/2023 18:27,Pay Bill from 254718***568 - NADI *** Acc. JEA,Completed,3000,,17000,TRUE,Pay Utility,254718***568 - NADI ***,,JEA
RKL1YOVYJ9,21/11/2023 18:22,21/11/2023 18:22,Pay Bill from 072253***422 - ANTHONY *** Acc. JBD,Completed,6000,,14000,TRUE,Pay Utility,072253***422 - ANTHONY ***,,JBD
RKL6YLR7LQ,21/11/2023 18:02,21/11/2023 18:02,Pay Bill Online from 254702***887 - Nax *** Acc. FDE,Completed,8000,,8000,TRUE,Pay Bill Online,254702***887 - Nax ***,,FDE
RKL4Y5TU38,21/11/2023 15:55,21/11/2023 15:55,Utility Account to Organization Settlement Account,Completed,,-27000,0,TRUE,Utility Account to Organization Settlement Account,979524 - ANCIENT WELLS PROPERTY MANAGERS 2,,
RKL3XIE1TN,21/11/2023 12:18,21/11/2023 12:18,Pay Bill from 074318***837 - Caroline *** Acc. JDC,Completed,10000,,27000,TRUE,Pay Utility,074318***837 - Caroline ***,,JDC
RKL8XBX5YM,21/11/2023 11:14,21/11/2023 11:14,Pay Bill from 254721***307 - SHARLEEN *** Acc. KBC,Completed,10000,,17000,TRUE,Pay Utility,254721***307 - SHARLEEN ***,,KBC
RKL7X9QCNJ,21/11/2023 10:52,21/11/2023 10:52,Pay Bill Online from 254723***004 - LABAN *** Acc. JEF,Completed,6000,,7000,TRUE,Pay Utility with OD Online,254723***004 - LABAN ***,,JEF
RKL9X9809F,21/11/2023 10:48,21/11/2023 10:48,Pay Bill Online from 254728***864 - MOULINE *** Acc. IAA,Completed,1000,,1000,TRUE,Pay Utility with OD Online,254728***864 - MOULINE ***,,IAA
RKL5WY6DY1,21/11/2023 08:56,21/11/2023 08:56,Utility Account to Organization Settlement Account,Completed,,-58490,0,TRUE,Utility Account to Organization Settlement Account,979524 - ANCIENT WELLS PROPERTY MANAGERS 2,,
RKL2WO9WB4,21/11/2023 06:33,21/11/2023 06:33,Pay Bill from 254711***263 - BENSON *** Acc. HFC,Completed,9000,,58490,TRUE,Pay Utility,254711***263 - BENSON ***,,HFC
RKL2WLAQ80,21/11/2023 01:52,21/11/2023 01:52,Pay Bill from 254704***133 - ELVIS *** Acc. HFD,Completed,990,,49490,TRUE,Pay Utility,254704***133 - ELVIS ***,,HFD
RKK0W2XL8Y,20/11/2023 20:19,20/11/2023 20:19,Pay Bill from 254726***933 - JOSHUA *** Acc. KCD,Completed,10000,,48500,TRUE,Pay Utility with OD via STK,254726***933 - JOSHUA ***,,KCD
RKK0VZ8902,20/11/2023 19:55,20/11/2023 19:55,Pay Bill from 254707***264 - KELVIN *** Acc. hde,Completed,10500,,38500,TRUE,Pay Utility,254707***264 - KELVIN ***,,hde
RKK4VR4IPO,20/11/2023 19:09,20/11/2023 19:09,Pay Bill Online from 254711***087 - MUTHIANI *** Acc. IDB ,Completed,15000,,28000,TRUE,Pay Bill Online,254711***087 - MUTHIANI ***,,IDB
RKK5VI12DF,20/11/2023 18:17,20/11/2023 18:17,Pay Bill Online from 254715***212 - BANCE *** Acc. JFE,Completed,1000,,13000,TRUE,Pay Bill Online,254715***212 - BANCE ***,,JFE
RKK5V8G3RP,20/11/2023 17:10,20/11/2023 17:10,Pay Bill from 072059***684 - CHEMUTAI *** Acc. HAB,Completed,2000,,12000,TRUE,Pay Utility,072059***684 - CHEMUTAI ***,,HAB
RKK1V4DK8F,20/11/2023 16:38,20/11/2023 16:38,Pay Bill from 254722***104 - ERICK *** Acc. hae,Completed,10000,,10000,TRUE,Pay Utility,254722***104 - ERICK ***,,hae
RKK4U62PTW,20/11/2023 11:32,20/11/2023 11:32,Utility Account to Organization Settlement Account,Completed,,-22000,0,TRUE,Utility Account to Organization Settlement Account,979524 - ANCIENT WELLS PROPERTY MANAGERS 2,,
RKK7TSQQUD,20/11/2023 09:23,20/11/2023 09:23,Pay Bill Online from 254728***775 - Faith *** Acc. JAC,Completed,5500,,22000,TRUE,Pay Bill Online,254728***775 - Faith ***,,JAC
RKK7TLOLQV,20/11/2023 08:05,20/11/2023 08:05,Pay Bill from 075760***316 - MOHAMED *** Acc. FCA,Completed,1000,,16500,TRUE,Pay Utility with OD via STK,075760***316 - MOHAMED ***,,FCA
RKK4TDN84M,20/11/2023 03:43,20/11/2023 03:43,Pay Bill from 074378***968 - Dallias *** Acc. hbb,Completed,3000,,15500,TRUE,Pay Utility,074378***968 - Dallias ***,,hbb
RKJ9TAI8BN,19/11/2023 23:17,19/11/2023 23:17,Pay Bill from 254701***397 - ELEMA *** Acc. FCA,Completed,1000,,12500,TRUE,Pay Utility with OD via STK,254701***397 - ELEMA ***,,FCA
RKI7OEXXSZ,18/11/2023 13:35,18/11/2023 13:35,Pay Bill from 254724***046 - GIDEON *** Acc. KFH,Completed,2000,,11500,TRUE,Pay Utility with OD via STK,254724***046 - GIDEON ***,,KFH
RKI7O9H64H,18/11/2023 12:45,18/11/2023 12:45,Pay Bill from 254711***333 - JOSEPH *** Acc. KBH,Completed,5000,,9500,TRUE,Pay Utility,254711***333 - JOSEPH ***,,KBH
RKI8NR80GO,18/11/2023 09:53,18/11/2023 09:53,Pay Bill Online from 254722***078 - MAUREEN *** Acc. DCD,Completed,3500,,4500,TRUE,Pay Utility with OD Online,254722***078 - MAUREEN ***,,DCD
RKI2NK925S,18/11/2023 08:41,18/11/2023 08:41,Pay Bill Online from 254704***133 - ELVIS *** Acc. HFD,Completed,1000,,1000,TRUE,Pay Bill Online,254704***133 - ELVIS ***,,HFD
RKI9NGAUDH,18/11/2023 07:54,18/11/2023 07:54,Utility Account to Organization Settlement Account,Completed,,-68000,0,TRUE,Utility Account to Organization Settlement Account,979524 - ANCIENT WELLS PROPERTY MANAGERS 2,,
RKH2MWWE6G,17/11/2023 21:30,17/11/2023 21:30,Pay Bill from 079293***158 - mary *** Acc. Dgd,Completed,5500,,68000,TRUE,Pay Utility,079293***158 - mary ***,,Dgd
RKH7MOLC2B,17/11/2023 20:24,17/11/2023 20:24,Pay Bill Online from 254717***175 - MERCY *** Acc. DGD,Completed,8000,,62500,TRUE,Pay Bill Online,254717***175 - MERCY ***,,DGD
RKH5M1KDIB,17/11/2023 18:09,17/11/2023 18:09,Pay Bill from 254723***777 - BONIFACE *** Acc. lDG,Completed,9500,,54500,TRUE,Pay Utility,254723***777 - BONIFACE ***,,lDG
RKH1LL104T,17/11/2023 16:05,17/11/2023 16:05,Pay Bill Online from 254741***913 - DUNCAN *** Acc. FAE,Completed,15000,,45000,TRUE,Pay Bill Online,254741***913 - DUNCAN ***,,FAE
RKH1LAFL1X,17/11/2023 14:31,17/11/2023 14:31,Pay Bill from 254710***391 - CHEPKOECH *** Acc. KAH,Completed,10000,,30000,TRUE,Pay Utility,254710***391 - CHEPKOECH ***,,KAH
RKH8KT06LC,17/11/2023 11:50,17/11/2023 11:50,Pay Bill Online from 254741***913 - DUNCAN *** Acc. FAE,Completed,15000,,20000,TRUE,Pay Bill Online,254741***913 - DUNCAN ***,,FAE
RKH7KIDCQ3,17/11/2023 10:08,17/11/2023 10:08,Pay Bill from 079225***626 - Susan *** Acc. IAE,Completed,5000,,5000,TRUE,Pay Utility,079225***626 - Susan ***,,IAE
RKH2K6ZAI8,17/11/2023 08:08,17/11/2023 08:08,Utility Account to Organization Settlement Account,Completed,,-157600,0,TRUE,Utility Account to Organization Settlement Account,979524 - ANCIENT WELLS PROPERTY MANAGERS 2,,
RKH6K2XA2E,17/11/2023 07:14,17/11/2023 07:14,Pay Bill from 254718***924 - LILIAN *** Acc. HAB,Completed,13000,,157600,TRUE,Pay Utility,254718***924 - LILIAN ***,,HAB
RKG5JBMGD9,16/11/2023 19:57,16/11/2023 19:57,Pay Bill from 254791***800 - CAROL *** Acc. ICF,Completed,4600,,144600,TRUE,Pay Utility with OD via STK,254791***800 - CAROL ***,,ICF
RKG2IBYGGW,16/11/2023 16:00,16/11/2023 16:00,Pay Bill from 254703***196 - ERIC *** Acc. KGJ,Completed,18000,,140000,TRUE,Pay Utility,254703***196 - ERIC ***,,KGJ
RKG9IB0JPB,16/11/2023 15:51,16/11/2023 15:51,Pay Bill Online from 254726***777 - MARY *** Acc. JDB ,Completed,15000,,122000,TRUE,Pay Bill Online,254726***777 - MARY ***,,JDB
RKG4HYB6OW,16/11/2023 13:55,16/11/2023 13:55,Pay Bill from 074378***968 - Dallias *** Acc. hbb,Completed,2000,,107000,TRUE,Pay Utility,074378***968 - Dallias ***,,hbb
RKG2HUAJLU,16/11/2023 13:19,16/11/2023 13:19,Pay Bill from 254717***198 - JIM *** Acc. IGG,Completed,9000,,105000,TRUE,Pay Utility,254717***198 - JIM ***,,IGG
RKG5HB3H2F,16/11/2023 10:18,16/11/2023 10:18,Pay Bill Online from 254722***132 - JOE *** Acc. IFA,Completed,15000,,96000,TRUE,Pay Bill Online,254722***132 - JOE ***,,IFA
RKG3H5AZUV,16/11/2023 09:20,16/11/2023 09:20,Pay Bill from 075725***130 - RASHID *** Acc. JAF,Completed,3000,,81000,TRUE,Pay Utility,075725***130 - RASHID ***,,JAF
RKG5GQR1JV,16/11/2023 05:23,16/11/2023 05:23,Pay Bill Online from 254720***235 - JOHN *** Acc. KGF,Completed,10000,,78000,TRUE,Pay Bill Online,254720***235 - JOHN ***,,KGF
RKG0GPW7QY,16/11/2023 03:34,16/11/2023 03:34,Pay Bill Online from 254704***133 - ELVIS *** Acc. HFD,Completed,1000,,68000,TRUE,Pay Bill Online,254704***133 - ELVIS ***,,HFD
RKG7GOCK73,16/11/2023 00:44,16/11/2023 00:44,Pay Bill from 254719***823 - MOSES *** Acc. Jcc,Completed,8000,,67000,TRUE,Pay Utility,254719***823 - MOSES ***,,Jcc
RKF3GKZSP9,15/11/2023 22:43,15/11/2023 22:43,Pay Bill from 254722***622 - CHARITY *** Acc. ffd,Completed,11000,,59000,TRUE,Pay Utility,254722***622 - CHARITY ***,,ffd
RKF4GG3ER8,15/11/2023 21:36,15/11/2023 21:36,Pay Bill from 254722***480 - PATRICK *** Acc. KGH,Completed,9500,,48000,TRUE,Pay Utility,254722***480 - PATRICK ***,,KGH
RKF7G8JDX3,15/11/2023 20:31,15/11/2023 20:31,Pay Bill from 254720***103 - NJENGA *** Acc. kca,Completed,16000,,38500,TRUE,Pay Utility,254720***103 - NJENGA ***,,kca
RKF3G4W0G5,15/11/2023 20:06,15/11/2023 20:06,Pay Bill from 079692***370 - HALIMA *** Acc. DBC,Completed,2000,,22500,TRUE,Pay Utility,079692***370 - HALIMA ***,,DBC
RKF2G2NGG4,15/11/2023 19:51,15/11/2023 19:51,Pay Bill from 254728***249 - ESTHER *** Acc. ICA,Completed,17000,,20500,TRUE,Pay Utility,254728***249 - ESTHER ***,,ICA
RKF7G09QBZ,15/11/2023 19:37,15/11/2023 19:37,Pay Bill Online from 254707***441 - JOHN *** Acc. IEH,Completed,3500,,3500,TRUE,Pay Bill Online,254707***441 - JOHN ***,,IEH
RKF1FI22V3,15/11/2023 17:51,15/11/2023 17:51,Utility Account to Organization Settlement Account,Completed,,-38500,0,TRUE,Utility Account to Organization Settlement Account,979524 - ANCIENT WELLS PROPERTY MANAGERS 2,,
RKF5F90MQX,15/11/2023 16:43,15/11/2023 16:43,Pay Bill from 079063***952 - Guyo *** Acc. DBC,Completed,18000,,38500,TRUE,Pay Utility with OD via STK,079063***952 - Guyo ***,,DBC
RKF6EYGWDW,15/11/2023 15:08,15/11/2023 15:08,Pay Bill Online from 254728***775 - Faith *** Acc. JAC,Completed,5000,,20500,TRUE,Pay Bill Online,254728***775 - Faith ***,,JAC
RKF7ET77TV,15/11/2023 14:19,15/11/2023 14:19,Pay Bill Online from 254722***078 - MAUREEN *** Acc. DCD,Completed,5500,,15500,TRUE,Pay Bill Online,254722***078 - MAUREEN ***,,DCD
RKF0ET4U9Y,15/11/2023 14:19,15/11/2023 14:19,Pay Bill from 072253***422 - ANTHONY *** Acc. JBD,Completed,10000,,10000,TRUE,Pay Utility,072253***422 - ANTHONY ***,,JBD
RKF1EQ6VRH,15/11/2023 13:52,15/11/2023 13:52,Utility Account to Organization Settlement Account,Completed,,-6100,0,TRUE,Utility Account to Organization Settlement Account,979524 - ANCIENT WELLS PROPERTY MANAGERS 2,,
RKF6E5IDF6,15/11/2023 10:36,15/11/2023 10:36,Pay Bill Online from 254799***749 - KENNEDY *** Acc. DDD ,Completed,4100,,6100,TRUE,Pay Bill Online,254799***749 - KENNEDY ***,,DDD
RKF5E43ABD,15/11/2023 10:22,15/11/2023 10:22,Pay Bill Online from 254720***253 - JIMMY *** Acc. KBD,Completed,1000,,2000,TRUE,Pay Utility with OD Online,254720***253 - JIMMY ***,,KBD
RKF4DY4DAU,15/11/2023 09:21,15/11/2023 09:21,Pay Bill Online from 254704***133 - ELVIS *** Acc. HFD,Completed,1000,,1000,TRUE,Pay Bill Online,254704***133 - ELVIS ***,,HFD
RKF9DWRYBH,15/11/2023 09:07,15/11/2023 09:07,Utility Account to Organization Settlement Account,Completed,,-128500,0,TRUE,Utility Account to Organization Settlement Account,979524 - ANCIENT WELLS PROPERTY MANAGERS 2,,
RKF8DW4LTO,15/11/2023 08:59,15/11/2023 08:59,Pay Bill from 254707***639 - Annastacia *** Acc. JFC ,Completed,10000,,128500,TRUE,Pay Utility,254707***639 - Annastacia ***,,JFC
RKF9DV12OD,15/11/2023 08:47,15/11/2023 08:47,Pay Bill from 254710***100 - PHILOMENA *** Acc. KDK,Completed,17000,,118500,TRUE,Pay Utility,254710***100 - PHILOMENA ***,,KDK
RKF5DHEQHX,15/11/2023 00:10,15/11/2023 00:10,Pay Bill from 079053***272 - BARNABAS *** Acc. FGC,Completed,7000,,101500,TRUE,Pay Utility,079053***272 - BARNABAS ***,,FGC
RKE8DDV34Y,14/11/2023 22:29,14/11/2023 22:29,Pay Bill from 079293***158 - mary *** Acc. dgd,Completed,8000,,94500,TRUE,Pay Utility,079293***158 - mary ***,,dgd
RKE8CG9HBS,14/11/2023 18:24,14/11/2023 18:24,Pay Bill from 254706***081 - FATUMA *** Acc. HED,Completed,9000,,86500,TRUE,Pay Utility,254706***081 - FATUMA ***,,HED
RKE8BX3XOY,14/11/2023 15:53,14/11/2023 15:53,Pay Bill from 254729***441 - ROBERT *** Acc. JFI,Completed,20000,,77500,TRUE,Pay Utility,254729***441 - ROBERT ***,,JFI
RKE6BVQ7QU,14/11/2023 15:40,14/11/2023 15:40,Pay Bill from 254724***882 - JOEL *** Acc. fee,Completed,16000,,57500,TRUE,Pay Utility,254724***882 - JOEL ***,,fee
RKE2BTJPMQ,14/11/2023 15:20,14/11/2023 15:20,Pay Bill from 254717***212 - PATRICK *** Acc. kce,Completed,10000,,41500,TRUE,Pay Utility with OD via STK,254717***212 - PATRICK ***,,kce
RKE2BKP0I8,14/11/2023 13:59,14/11/2023 13:59,Pay Bill from 254720***281 - KENNEDY *** Acc. KBI,Completed,12500,,31500,TRUE,Pay Utility with OD via STK,254720***281 - KENNEDY ***,,KBI
RKE2B8NUXC,14/11/2023 12:11,14/11/2023 12:11,Pay Bill from 254721***810 - MARY *** Acc. KEC,Completed,10000,,19000,TRUE,Pay Utility,254721***810 - MARY ***,,KEC
RKE9AZ2JKX,14/11/2023 10:38,14/11/2023 10:38,Pay Bill Online from 254723***071 - AMOS *** Acc. JCE,Completed,9000,,9000,TRUE,Pay Bill Online,254723***071 - AMOS ***,,JCE
RKE8AITPQK,14/11/2023 07:40,14/11/2023 07:40,Utility Account to Organization Settlement Account,Completed,,-2000,0,TRUE,Utility Account to Organization Settlement Account,979524 - ANCIENT WELLS PROPERTY MANAGERS 2,,
RKD89PDQZA,13/11/2023 19:43,13/11/2023 19:43,Pay Bill Online from 254722***051 - GILBERT *** Acc. JBE,Completed,2000,,2000,TRUE,Pay Bill Online,254722***051 - GILBERT ***,,JBE
RKD08ZU8AY,13/11/2023 16:51,13/11/2023 16:51,Utility Account to Organization Settlement Account,Completed,,-180300,0,TRUE,Utility Account to Organization Settlement Account,979524 - ANCIENT WELLS PROPERTY MANAGERS 2,,
RKD28QGP7K,13/11/2023 15:24,13/11/2023 15:24,Pay Bill from 254710***394 - LUCY *** Acc. KBG,Completed,1000,,180300,TRUE,Pay Utility with OD via STK,254710***394 - LUCY ***,,KBG
RKD286CEWU,13/11/2023 12:14,13/11/2023 12:14,Pay Bill Online from 071580***956 - Mercy *** Acc. FFE,Completed,15000,,179300,TRUE,Pay Bill Online,071580***956 - Mercy ***,,FFE
RKD4828EO8,13/11/2023 11:34,13/11/2023 11:34,Pay Bill Online from 254726***792 - PHILIP *** Acc. JEI,Completed,20000,,164300,TRUE,Pay Bill Online,254726***792 - PHILIP ***,,JEI
RKD87ZBXIE,13/11/2023 11:05,13/11/2023 11:05,Pay Bill from 254720***007 - BRENDA *** Acc. KAB,Completed,16000,,144300,TRUE,Pay Utility,254720***007 - BRENDA ***,,KAB
RKD77UHDK5,13/11/2023 10:17,13/11/2023 10:17,Pay Bill from 254713***755 - OLO *** Acc. HBD,Completed,10000,,128300,TRUE,Pay Utility,254713***755 - OLO ***,,HBD
RKC967RX5B,12/11/2023 17:51,12/11/2023 17:51,Pay Bill from 254796***496 - IVY *** Acc. FAA,Completed,4000,,118300,TRUE,Pay Utility,254796***496 - IVY ***,,FAA
RKC960Q6AV,12/11/2023 16:54,12/11/2023 16:54,Pay Bill Online from 254710***381 - JANE *** Acc. HAF,Completed,10000,,114300,TRUE,Pay Bill Online,254710***381 - JANE ***,,HAF
RKC34CVIQR,12/11/2023 04:08,12/11/2023 04:08,Pay Bill from 254703***626 - DAVID *** Acc. FCD,Completed,3000,,104300,TRUE,Pay Utility,254703***626 - DAVID ***,,FCD
RKB34511S9,11/11/2023 22:10,11/11/2023 22:10,Pay Bill Online from 079144***135 - HADIJA *** Acc. HTA,Completed,9000,,101300,TRUE,Pay Bill Online,079144***135 - HADIJA ***,,HTA
RKB3430ACT,11/11/2023 21:44,11/11/2023 21:44,Pay Bill Online from 254704***133 - ELVIS *** Acc. HFD,Completed,1000,,92300,TRUE,Pay Bill Online,254704***133 - ELVIS ***,,HFD
RKB624ODT4,11/11/2023 13:12,11/11/2023 13:12,Pay Bill Online from 254714***193 - CHRISTOPHER *** Acc. JGI ,Completed,20300,,91300,TRUE,Pay Bill Online,254714***193 - CHRISTOPHER ***,,JGI
RKB023SMM8,11/11/2023 13:04,11/11/2023 13:04,Pay Bill from 254723***228 - MORARA *** Acc. pool,Completed,22000,,71000,TRUE,Pay Utility,254723***228 - MORARA ***,,pool
RKB81UR1PO,11/11/2023 11:44,11/11/2023 11:44,Pay Bill from 254712***240 - GLORY *** Acc. KAA,Completed,16000,,49000,TRUE,Pay Utility with OD via STK,254712***240 - GLORY ***,,KAA
RKB11U3B97,11/11/2023 11:38,11/11/2023 11:38,Pay Bill from 254716***384 - GREGORY *** Acc. DAD,Completed,20000,,33000,TRUE,Pay Utility,254716***384 - GREGORY ***,,DAD
RKB91QR7XF,11/11/2023 11:07,11/11/2023 11:07,Pay Bill Online from 254720***253 - JIMMY *** Acc. KBD,Completed,3000,,13000,TRUE,Pay Utility with OD Online,254720***253 - JIMMY ***,,KBD
RKB019B7U2,11/11/2023 08:16,11/11/2023 08:16,Pay Bill from 254741***910 - VINCENT *** Acc. HBC,Completed,10000,,10000,TRUE,Pay Utility,254741***910 - VINCENT ***,,HBC
RKB115BRZ7,11/11/2023 07:24,11/11/2023 07:24,Utility Account to Organization Settlement Account,Completed,,-92500,0,TRUE,Utility Account to Organization Settlement Account,979524 - ANCIENT WELLS PROPERTY MANAGERS 2,,
RKA3ZRBFO1,10/11/2023 22:01,10/11/2023 22:01,Pay Bill from 254721***975 - JOSEPH *** Acc. HEB,Completed,16000,,92500,TRUE,Pay Utility,254721***975 - JOSEPH ***,,HEB
RKA1ZQRXOV,10/11/2023 21:54,10/11/2023 21:54,Pay Bill from 254711***815 - NAOMI *** Acc. KBA,Completed,2500,,76500,TRUE,Pay Utility,254711***815 - NAOMI ***,,KBA
RKA2ZHG7FM,10/11/2023 20:33,10/11/2023 20:33,Pay Bill Online from 076991***050 - newton *** Acc. JBG,Completed,10000,,74000,TRUE,Pay Bill Online,076991***050 - newton ***,,JBG
RKA3Z05R97,10/11/2023 18:50,10/11/2023 18:50,Pay Bill Online from 254799***069 - ALPHONCE *** Acc. IEE,Completed,8500,,64000,TRUE,Pay Bill Online,254799***069 - ALPHONCE ***,,IEE
RKA5YZSLKH,10/11/2023 18:48,10/11/2023 18:48,Pay Bill from 254792***192 - KELVIN *** Acc. ICE,Completed,9000,,55500,TRUE,Pay Utility,254792***192 - KELVIN ***,,ICE
RKA8YZPAKO,10/11/2023 18:48,10/11/2023 18:48,Pay Bill from 254723***533 - ADDAH *** Acc. IEG,Completed,10000,,46500,TRUE,Pay Utility,254723***533 - ADDAH ***,,IEG
RKA5YZJ4VH,10/11/2023 18:47,10/11/2023 18:47,Pay Bill Online from 011568***585 - Sophia *** Acc. FAC,Completed,9000,,36500,TRUE,Pay Bill Online,011568***585 - Sophia ***,,FAC
RKA4YVTMJY,10/11/2023 18:26,10/11/2023 18:26,Pay Bill from 074378***968 - Dallias *** Acc. hbb,Completed,2000,,27500,TRUE,Pay Utility,074378***968 - Dallias ***,,hbb
RKA6YVFWPE,10/11/2023 18:24,10/11/2023 18:24,Pay Bill from 071744***870 - Steven *** Acc. KTA,Completed,9500,,25500,TRUE,Pay Utility,071744***870 - Steven ***,,KTA
RKA7YR3ZGR,10/11/2023 17:57,10/11/2023 17:57,Pay Bill Online from 254712***302 - EMMANUEL *** Acc. KEA,Completed,16000,,16000,TRUE,Pay Bill Online,254712***302 - EMMANUEL ***,,KEA
RKA7YCFN3F,10/11/2023 16:09,10/11/2023 16:09,Utility Account to Organization Settlement Account,Completed,,-35000,0,TRUE,Utility Account to Organization Settlement Account,979524 - ANCIENT WELLS PROPERTY MANAGERS 2,,
RKA5Y8H1RX,10/11/2023 15:35,10/11/2023 15:35,Pay Bill Online from 254725***946 - GODFREY *** Acc. HEE,Completed,10000,,35000,TRUE,Pay Bill Online,254725***946 - GODFREY ***,,HEE
RKA5Y6XXTF,10/11/2023 15:22,10/11/2023 15:22,Pay Bill Online from 254715***656 - DENNIS *** Acc. kfa,Completed,10000,,25000,TRUE,Pay Bill Online,254715***656 - DENNIS ***,,kfa
RKA2XNMSW4,10/11/2023 12:35,10/11/2023 12:35,Pay Bill from 071568***238 - JOANNAH *** Acc. FFA,Completed,15000,,15000,TRUE,Pay Utility,071568***238 - JOANNAH ***,,FFA
RKA8XHEBXU,10/11/2023 11:36,10/11/2023 11:36,Utility Account to Organization Settlement Account,Completed,,-45000,0,TRUE,Utility Account to Organization Settlement Account,979524 - ANCIENT WELLS PROPERTY MANAGERS 2,,
RKA9XCTCPN,10/11/2023 10:54,10/11/2023 10:54,Pay Bill from 254726***330 - JOHN *** Acc. IFH,Completed,15000,,45000,TRUE,Pay Utility,254726***330 - JOHN ***,,IFH
RKA6X850KK,10/11/2023 10:11,10/11/2023 10:11,Pay Bill from 254724***046 - GIDEON *** Acc. KFH,Completed,8000,,30000,TRUE,Pay Utility,254724***046 - GIDEON ***,,KFH
RKA4X1N9O4,10/11/2023 09:07,10/11/2023 09:07,Pay Bill from 254713***244 - ROBERT *** Acc. HFB,Completed,16000,,22000,TRUE,Pay Utility,254713***244 - ROBERT ***,,HFB
RK93WHPSOH,09/11/2023 22:51,09/11/2023 22:51,Pay Bill from 074378***968 - Dallias *** Acc. hbb,Completed,2000,,6000,TRUE,Pay Utility,074378***968 - Dallias ***,,hbb
RK90VUTCZI,09/11/2023 19:31,09/11/2023 19:31,Pay Bill from 254720***822 - JAMES *** Acc. jgj,Completed,4000,,4000,TRUE,Pay Utility,254720***822 - JAMES ***,,jgj
RK94VNFWZ8,09/11/2023 18:51,09/11/2023 18:51,Utility Account to Organization Settlement Account,Completed,,-113500,0,TRUE,Utility Account to Organization Settlement Account,979524 - ANCIENT WELLS PROPERTY MANAGERS 2,,
RK95VAEWLR,09/11/2023 17:29,09/11/2023 17:29,Pay Bill from 254757***090 - Laureen *** Acc. KCJ,Completed,33000,,113500,TRUE,Pay Utility with OD via STK,254757***090 - Laureen ***,,KCJ
RK95UV931L,09/11/2023 15:21,09/11/2023 15:21,Pay Bill from 254726***163 - HALIMA *** Acc. DDA,Completed,8500,,80500,TRUE,Pay Utility,254726***163 - HALIMA ***,,DDA
RK91UU8SUZ,09/11/2023 15:11,09/11/2023 15:11,Pay Bill Online from 254715***656 - DENNIS *** Acc. kfa,Completed,2000,,72000,TRUE,Pay Bill Online,254715***656 - DENNIS ***,,kfa
RK93UNZLBN,09/11/2023 14:13,09/11/2023 14:13,Pay Bill from 254718***145 - KITEMI *** Acc. KGD,Completed,10000,,70000,TRUE,Pay Utility,254718***145 - KITEMI ***,,KGD
RK99UCHJQP,09/11/2023 12:29,09/11/2023 12:29,Pay Bill Online from 254710***965 - BRENDA *** Acc. hfg,Completed,15000,,60000,TRUE,Pay Bill Online,254710***965 - BRENDA ***,,hfg
RK96U6Y3J4,09/11/2023 11:35,09/11/2023 11:35,Pay Bill Online from 079725***813 - Maureen *** Acc. HAC,Completed,10000,,45000,TRUE,Pay Bill Online,079725***813 - Maureen ***,,HAC
RK95U6SY0H,09/11/2023 11:34,09/11/2023 11:34,Pay Bill from 254717***775 - QADRA *** Acc. DAB,Completed,33000,,35000,TRUE,Pay Utility,254717***775 - QADRA ***,,DAB
RK97TXPW7L,09/11/2023 10:06,09/11/2023 10:06,Pay Bill Online from 254715***656 - DENNIS *** Acc. kfa,Completed,2000,,2000,TRUE,Pay Bill Online,254715***656 - DENNIS ***,,kfa
RK94TP4QN2,09/11/2023 08:36,09/11/2023 08:36,Utility Account to Organization Settlement Account,Completed,,-198100,0,TRUE,Utility Account to Organization Settlement Account,979524 - ANCIENT WELLS PROPERTY MANAGERS 2,,
RK84SM7MK0,08/11/2023 19:27,08/11/2023 19:27,Pay Bill from 254724***912 - SAMUEL *** Acc. HCD,Completed,10000,,198100,TRUE,Pay Utility,254724***912 - SAMUEL ***,,HCD
RK83SKQ9NH,08/11/2023 19:19,08/11/2023 19:19,Pay Bill Online from 254720***253 - JIMMY *** Acc. KBD,Completed,100,,188100,TRUE,Pay Utility with OD Online,254720***253 - JIMMY ***,,KBD
RK88SF9HZE,08/11/2023 18:49,08/11/2023 18:49,Pay Bill from 254796***018 - PEACE *** Acc. JAH,Completed,16000,,188000,TRUE,Pay Utility,254796***018 - PEACE ***,,JAH
RK88S6UNHY,08/11/2023 17:57,08/11/2023 17:57,Pay Bill Online from 254710***215 - JOAN *** Acc. ifb,Completed,15000,,172000,TRUE,Pay Bill Online,254710***215 - JOAN ***,,ifb
RK85S6M509,08/11/2023 17:56,08/11/2023 17:56,Pay Bill Online from 254715***656 - DENNIS *** Acc. kfa,Completed,2000,,157000,TRUE,Pay Bill Online,254715***656 - DENNIS ***,,kfa
RK82S4MKT4,08/11/2023 17:42,08/11/2023 17:42,Pay Bill from 254719***657 - SAMUEL *** Acc. JGA,Completed,15000,,155000,TRUE,Pay Utility,254719***657 - SAMUEL ***,,JGA
RK80S09HN8,08/11/2023 17:10,08/11/2023 17:10,Pay Bill Online from 254720***070 - Michelle *** Acc. JEJ,Completed,15000,,140000,TRUE,Pay Utility with OD Online,254720***070 - Michelle ***,,JEJ
RK81RUWW9V,08/11/2023 16:25,08/11/2023 16:25,Pay Bill from 254717***919 - MARCELINE *** Acc. IAF,Completed,20000,,125000,TRUE,Pay Utility,254717***919 - MARCELINE ***,,IAF
RK89RMCTR7,08/11/2023 15:07,08/11/2023 15:07,Pay Bill Online from 254722***028 - CHARLES *** Acc. JDA,Completed,20000,,105000,TRUE,Pay Bill Online,254722***028 - CHARLES ***,,JDA
RK89RJBBXN,08/11/2023 14:38,08/11/2023 14:38,Pay Bill from 254799***095 - Patricia *** Acc. HBE,Completed,10000,,85000,TRUE,Pay Utility,254799***095 - Patricia ***,,HBE
RK85RFA17Z,08/11/2023 14:01,08/11/2023 14:01,Pay Bill from 254717***596 - NICHOLAS *** Acc. hcf,Completed,9000,,75000,TRUE,Pay Utility,254717***596 - NICHOLAS ***,,hcf
RK85RE8L7X,08/11/2023 13:52,08/11/2023 13:52,Pay Bill from 254700***550 - BENARD *** Acc. DBB,Completed,16000,,66000,TRUE,Pay Utility,254700***550 - BENARD ***,,DBB
RK89R6DVEN,08/11/2023 12:40,08/11/2023 12:40,Merchant Pay Utility Received from 6227093 -     RACHAEL WANZA MUIA      Acc. Wines,Completed,6000,,50000,TRUE,Merchant Pay Utility via API,6227093 -     RACHAEL WANZA MUIA     ,,Wines
RK88R22HWS,08/11/2023 11:59,08/11/2023 11:59,Pay Bill from 254714***944 - MERCY *** Acc. hff,Completed,10000,,44000,TRUE,Pay Utility,254714***944 - MERCY ***,,hff
RK85R1R6IL,08/11/2023 11:55,08/11/2023 11:55,Pay Bill from 254711***196 - JUDITH *** Acc. FEA,Completed,26000,,34000,TRUE,Pay Utility,254711***196 - JUDITH ***,,FEA
RK81R0OSW5,08/11/2023 11:45,08/11/2023 11:45,Pay Bill from 011532***960 - JOSEPH *** Acc. IBG,Completed,8000,,8000,TRUE,Pay Utility,011532***960 - JOSEPH ***,,IBG
RK89QWAV37,08/11/2023 11:02,08/11/2023 11:02,Utility Account to Organization Settlement Account,Completed,,-65000,0,TRUE,Utility Account to Organization Settlement Account,979524 - ANCIENT WELLS PROPERTY MANAGERS 2,,
RK83QL6FYB,08/11/2023 09:10,08/11/2023 09:10,Pay Bill Online from 254728***864 - MOULINE *** Acc. IAA,Completed,25000,,65000,TRUE,Pay Bill Online,254728***864 - MOULINE ***,,IAA
RK84QI71FC,08/11/2023 08:37,08/11/2023 08:37,Pay Bill from 254725***394 - RACHAEL *** Acc. Jfb,Completed,15000,,40000,TRUE,Pay Utility,254725***394 - RACHAEL ***,,Jfb
RK85QFLLS9,08/11/2023 08:08,08/11/2023 08:08,Pay Bill from 254705***030 - FRIDAH *** Acc. JEH,Completed,16000,,25000,TRUE,Pay Utility,254705***030 - FRIDAH ***,,JEH
RK83QEFKQR,08/11/2023 07:53,08/11/2023 07:53,Pay Bill from 075705***882 - FAITH *** Acc. HDF,Completed,9000,,9000,TRUE,Pay Utility,075705***882 - FAITH ***,,HDF
RK82QEEZV2,08/11/2023 07:53,08/11/2023 07:53,Utility Account to Organization Settlement Account,Completed,,-127500,0,TRUE,Utility Account to Organization Settlement Account,979524 - ANCIENT WELLS PROPERTY MANAGERS 2,,
RK89QC7I1F,08/11/2023 07:23,08/11/2023 07:23,Pay Bill from 254720***822 - JAMES *** Acc. jgj,Completed,5000,,127500,TRUE,Pay Utility,254720***822 - JAMES ***,,jgj
RK87QA27I9,08/11/2023 06:45,08/11/2023 06:45,Pay Bill from 254721***448 - EVERLYNE *** Acc. JCA ,Completed,20000,,122500,TRUE,Pay Utility with OD via STK,254721***448 - EVERLYNE ***,,JCA
RK85Q570YD,08/11/2023 00:02,08/11/2023 00:02,Pay Bill from 071414***211 - KAREN *** Acc. JDF,Completed,8000,,102500,TRUE,Pay Utility,071414***211 - KAREN ***,,JDF
RK73PSPYX3,07/11/2023 20:50,07/11/2023 20:50,Pay Bill from 079912***666 - ERIC *** Acc. JDI,Completed,20000,,94500,TRUE,Pay Utility,079912***666 - ERIC ***,,JDI
RK73P76UYL,07/11/2023 18:39,07/11/2023 18:39,Pay Bill from 254799***200 - PURITY *** Acc. HDC,Completed,10500,,74500,TRUE,Pay Utility,254799***200 - PURITY ***,,HDC
RK70OOXE6O,07/11/2023 16:32,07/11/2023 16:32,Pay Bill from 254703***963 - WYCLIFF *** Acc. IBC,Completed,9000,,64000,TRUE,Pay Utility,254703***963 - WYCLIFF ***,,IBC
RK71ONGHQP,07/11/2023 16:19,07/11/2023 16:19,Pay Bill from 254705***201 - NZIOKA *** Acc. JDG,Completed,10000,,55000,TRUE,Pay Utility,254705***201 - NZIOKA ***,,JDG
RK78OLNL22,07/11/2023 16:03,07/11/2023 16:03,Pay Bill from 254725***547 - MWACHIRO *** Acc. DFC,Completed,20000,,45000,TRUE,Pay Utility,254725***547 - MWACHIRO ***,,DFC
RK79OKF7JJ,07/11/2023 15:52,07/11/2023 15:52,Pay Bill from 254723***628 - CLINTON *** Acc. hfh,Completed,16000,,25000,TRUE,Pay Utility,254723***628 - CLINTON ***,,hfh
RK74OKA6GS,07/11/2023 15:51,07/11/2023 15:51,Pay Bill from 076995***691 - ANNA *** Acc. KGC,Completed,7000,,9000,TRUE,Pay Utility,076995***691 - ANNA ***,,KGC
RK78OJK9CE,07/11/2023 15:44,07/11/2023 15:44,Pay Bill from 254710***394 - LUCY *** Acc. KBG,Completed,2000,,2000,TRUE,Pay Utility with OD via STK,254710***394 - LUCY ***,,KBG
RK78O52LRE,07/11/2023 13:34,07/11/2023 13:34,Utility Account to Organization Settlement Account,Completed,,-36000,0,TRUE,Utility Account to Organization Settlement Account,979524 - ANCIENT WELLS PROPERTY MANAGERS 2,,
RK76O4NMDK,07/11/2023 13:30,07/11/2023 13:30,Pay Bill from 254715***045 - FRIDAH *** Acc. HGC,Completed,9000,,36000,TRUE,Pay Utility,254715***045 - FRIDAH ***,,HGC
RK78O4CZVC,07/11/2023 13:28,07/11/2023 13:28,Pay Bill from 075760***316 - MOHAMED *** Acc. FCA,Completed,6000,,27000,TRUE,Pay Utility,075760***316 - MOHAMED ***,,FCA
RK75NZ5HBT,07/11/2023 12:41,07/11/2023 12:41,Pay Bill Online from 254742***013 - HANEST *** Acc. IED,Completed,11000,,21000,TRUE,Pay Bill Online,254742***013 - HANEST ***,,IED
RK75NXYJIN,07/11/2023 12:31,07/11/2023 12:31,Business Pay Bill by 998094 - COOP TO PAYBILL Acc. IFF via API,Completed,10000,,10000,TRUE,Business Pay Bill via API,998094 - COOP TO PAYBILL,,IFF
RK72NWLLIC,07/11/2023 12:18,07/11/2023 12:18,Utility Account to Organization Settlement Account,Completed,,-125500,0,TRUE,Utility Account to Organization Settlement Account,979524 - ANCIENT WELLS PROPERTY MANAGERS 2,,
RK72NUZSQA,07/11/2023 12:03,07/11/2023 12:03,Pay Bill from 254716***517 - BENARD *** Acc. Hcb,Completed,16000,,125500,TRUE,Pay Utility,254716***517 - BENARD ***,,Hcb
RK76NUKVN4,07/11/2023 11:59,07/11/2023 11:59,Pay Bill from 254721***039 - ELIAS *** Acc. KAC,Completed,11000,,109500,TRUE,Pay Utility,254721***039 - ELIAS ***,,KAC
RK74NUERVE,07/11/2023 11:58,07/11/2023 11:58,Pay Bill Online from 254703***159 - Enock *** Acc. KAE,Completed,10000,,98500,TRUE,Pay Bill Online,254703***159 - Enock ***,,KAE
RK77NQO1BH,07/11/2023 11:21,07/11/2023 11:21,Pay Bill from 254724***488 - NICHOLAS *** Acc. JDE,Completed,9500,,88500,TRUE,Pay Utility,254724***488 - NICHOLAS ***,,JDE
RK79NQ2KO9,07/11/2023 11:15,07/11/2023 11:15,Pay Bill from 254725***531 - KIPKORIR *** Acc. DFB,Completed,15000,,79000,TRUE,Pay Utility,254725***531 - KIPKORIR ***,,DFB
RK72NOTZ2O,07/11/2023 11:03,07/11/2023 11:03,Pay Bill Online from 254720***965 - JAMES *** Acc. JBI,Completed,20000,,64000,TRUE,Pay Bill Online,254720***965 - JAMES ***,,JBI
RK71NJEDQV,07/11/2023 10:12,07/11/2023 10:12,Pay Bill from 254724***849 - Ann *** Acc. HDD,Completed,16000,,44000,TRUE,Pay Utility,254724***849 - Ann ***,,HDD
RK73NG0WU7,07/11/2023 09:38,07/11/2023 09:38,Pay Bill from 074325***188 - NANCY *** Acc. KFD,Completed,19000,,28000,TRUE,Pay Utility,074325***188 - NANCY ***,,KFD
RK75NFI3ND,07/11/2023 09:33,07/11/2023 09:33,Pay Bill from 074020***174 - Josephine *** Acc. Ifg,Completed,9000,,9000,TRUE,Pay Utility,074020***174 - Josephine ***,,Ifg
RK77NCH1OZ,07/11/2023 09:01,07/11/2023 09:01,Utility Account to Organization Settlement Account,Completed,,-279500,0,TRUE,Utility Account to Organization Settlement Account,979524 - ANCIENT WELLS PROPERTY MANAGERS 2,,
RK73N4EUWZ,07/11/2023 07:28,07/11/2023 07:28,Pay Bill from 079137***873 - Joseph *** Acc. HAH,Completed,16000,,279500,TRUE,Pay Utility,079137***873 - Joseph ***,,HAH
RK75N3O3O3,07/11/2023 07:17,07/11/2023 07:17,Pay Bill from 254700***767 - BAKHITA *** Acc. kcb,Completed,16000,,263500,TRUE,Pay Utility,254700***767 - BAKHITA ***,,kcb
RK72MX48PA,07/11/2023 00:30,07/11/2023 00:30,Pay Bill from 254700***569 - EDITH *** Acc. DDB,Completed,16000,,247500,TRUE,Pay Utility,254700***569 - EDITH ***,,DDB
RK67ML8GCN,06/11/2023 21:00,06/11/2023 21:00,Pay Bill Online from 254745***294 - Faith *** Acc. IFC,Completed,8000,,231500,TRUE,Pay Bill Online,254745***294 - Faith ***,,IFC
RK64MDZ14Y,06/11/2023 20:06,06/11/2023 20:06,Pay Bill Online from 254718***397 - JIMMY *** Acc. DCB,Completed,16000,,223500,TRUE,Pay Bill Online,254718***397 - JIMMY ***,,DCB
RK65M7W8OR,06/11/2023 19:29,06/11/2023 19:29,Pay Bill from 070728***361 - JOSEPHIN *** Acc. HGD,Completed,9000,,207500,TRUE,Pay Utility,070728***361 - JOSEPHIN ***,,HGD
RK61LTVKEL,06/11/2023 18:10,06/11/2023 18:10,Pay Bill from 254741***886 - TERESIA *** Acc. v50,Completed,10000,,198500,TRUE,Pay Utility,254741***886 - TERESIA ***,,v50
RK62LLLJKK,06/11/2023 17:13,06/11/2023 17:13,Pay Bill Online from 079009***091 - Daisy *** Acc. KFI,Completed,25000,,188500,TRUE,Pay Bill Online,079009***091 - Daisy ***,,KFI
RK64LHZ52E,06/11/2023 16:45,06/11/2023 16:45,Pay Bill from 254720***704 - JOSPHAT *** Acc. HDD,Completed,10000,,163500,TRUE,Pay Utility with OD via STK,254720***704 - JOSPHAT ***,,HDD
RK66LEW2DE,06/11/2023 16:19,06/11/2023 16:19,Business Pay Bill by 488519 - NCBA  Bank M-pesa Acc. DEC via API,Completed,19500,,153500,TRUE,Business Pay Bill via API,488519 - NCBA  Bank M-pesa,,DEC
RK63LAJFC1,06/11/2023 15:41,06/11/2023 15:41,Pay Bill from 074378***968 - Dallias *** Acc. hbb,Completed,4000,,134000,TRUE,Pay Utility,074378***968 - Dallias ***,,hbb
RK61L595BP,06/11/2023 14:54,06/11/2023 14:54,Pay Bill from 254704***496 - PETER *** Acc. DFD,Completed,20000,,130000,TRUE,Pay Utility,254704***496 - PETER ***,,DFD
RK61L51H39,06/11/2023 14:52,06/11/2023 14:52,Pay Bill Online from 254718***322 - DUNCAN *** Acc. JFJ,Completed,15000,,110000,TRUE,Pay Bill Online,254718***322 - DUNCAN ***,,JFJ
RK66L0LSD8,06/11/2023 14:12,06/11/2023 14:12,Pay Bill from 254792***128 - Edwin *** Acc. HBF,Completed,9000,,95000,TRUE,Pay Utility,254792***128 - Edwin ***,,HBF
RK68KZ7XC6,06/11/2023 14:00,06/11/2023 14:00,Pay Bill from 254703***305 - MARTHA *** Acc. IAI,Completed,15000,,86000,TRUE,Pay Utility,254703***305 - MARTHA ***,,IAI
RK64KYTHE0,06/11/2023 13:57,06/11/2023 13:57,Pay Bill Online from 254715***212 - BANCE *** Acc. JFE,Completed,9000,,71000,TRUE,Pay Bill Online,254715***212 - BANCE ***,,JFE
RK69KXJCO1,06/11/2023 13:46,06/11/2023 13:46,Pay Bill from 254798***621 - MERCY *** Acc. jcj,Completed,16000,,62000,TRUE,Pay Utility,254798***621 - MERCY ***,,jcj
RK69KWIE8H,06/11/2023 13:37,06/11/2023 13:37,Pay Bill Online from 254713***424 - NDUTI *** Acc. jed,Completed,15000,,46000,TRUE,Pay Bill Online,254713***424 - NDUTI ***,,jed
RK68KP3PGY,06/11/2023 12:32,06/11/2023 12:32,Pay Bill from 254720***502 - JOHN *** Acc. JFA ,Completed,5000,,31000,TRUE,Pay Utility,254720***502 - JOHN ***,,JFA
RK65KMIZTL,06/11/2023 12:08,06/11/2023 12:08,Pay Bill from 011497***420 - WENDY *** Acc. ffc,Completed,9000,,26000,TRUE,Pay Utility,011497***420 - WENDY ***,,ffc
RK61KK06S7,06/11/2023 11:44,06/11/2023 11:44,Pay Bill from 254721***818 - SAIDA *** Acc. JEA,Completed,17000,,17000,TRUE,Pay Utility,254721***818 - SAIDA ***,,JEA
RK63KJNQJV,06/11/2023 11:41,06/11/2023 11:41,Utility Account to Organization Settlement Account,Completed,,-159500,0,TRUE,Utility Account to Organization Settlement Account,979524 - ANCIENT WELLS PROPERTY MANAGERS 2,,
RK67KIN1LT,06/11/2023 11:31,06/11/2023 11:31,Pay Bill from 254700***449 - JOHN *** Acc. HCE,Completed,10500,,159500,TRUE,Pay Utility,254700***449 - JOHN ***,,HCE
RK60K98N5U,06/11/2023 10:03,06/11/2023 10:03,Pay Bill Online from 254799***271 - CALVIN *** Acc. FEB,Completed,15000,,149000,TRUE,Pay Bill Online,254799***271 - CALVIN ***,,FEB
RK65K4DR47,06/11/2023 09:14,06/11/2023 09:14,Pay Bill from 254719***219 - PHILIP *** Acc. JDH,Completed,16000,,134000,TRUE,Pay Utility with OD via STK,254719***219 - PHILIP ***,,JDH
RK66JZOBWA,06/11/2023 08:23,06/11/2023 08:23,Pay Bill Online from 254704***133 - ELVIS *** Acc. HFD,Completed,1000,,118000,TRUE,Pay Bill Online,254704***133 - ELVIS ***,,HFD
RK67JZ3PWD,06/11/2023 08:17,06/11/2023 08:17,Pay Bill from 254714***761 - MARTIN *** Acc. KDI,Completed,11000,,117000,TRUE,Pay Utility,254714***761 - MARTIN ***,,KDI
RK67JX0ZB9,06/11/2023 07:53,06/11/2023 07:53,Business Pay Bill by 488519 - NCBA  Bank M-pesa Acc. HGH via API,Completed,15000,,106000,TRUE,Business Pay Bill via API,488519 - NCBA  Bank M-pesa,,HGH
RK58JM6EBQ,05/11/2023 23:10,05/11/2023 23:10,Pay Bill from 254703***626 - DAVID *** Acc. FCD,Completed,1000,,91000,TRUE,Pay Utility,254703***626 - DAVID ***,,FCD
RK54JJDFSA,05/11/2023 22:11,05/11/2023 22:11,Pay Bill from 254708***373 - MUNINI *** Acc. IEB,Completed,15000,,90000,TRUE,Pay Utility,254708***373 - MUNINI ***,,IEB
RK50JIDHKI,05/11/2023 21:57,05/11/2023 21:57,Pay Bill from 011178***209 - Jacob *** Acc. IBA,Completed,15000,,75000,TRUE,Pay Utility,011178***209 - Jacob ***,,IBA
RK56JEKD6Y,05/11/2023 21:12,05/11/2023 21:12,Pay Bill from 254723***873 - FREDRICK *** Acc. jbf,Completed,8000,,60000,TRUE,Pay Utility,254723***873 - FREDRICK ***,,jbf
RK53J5S7Y5,05/11/2023 19:59,05/11/2023 19:59,Pay Bill from 254729***678 - GRACE *** Acc. fba,Completed,15000,,52000,TRUE,Pay Utility,254729***678 - GRACE ***,,fba
RK52J3KEHY,05/11/2023 19:44,05/11/2023 19:44,Pay Bill Online from 254720***158 - AMOS *** Acc. KCG,Completed,10000,,37000,TRUE,Pay Bill Online,254720***158 - AMOS ***,,KCG
RK55J1Y03N,05/11/2023 19:33,05/11/2023 19:33,Pay Bill Online from 254706***848 - KELVIN *** Acc. ICF,Completed,11000,,27000,TRUE,Pay Utility with OD Online,254706***848 - KELVIN ***,,ICF
RK50I7RGQG,05/11/2023 15:56,05/11/2023 15:56,Pay Bill from 254712***818 - OYUGI *** Acc. FCB,Completed,16000,,16000,TRUE,Pay Utility,254712***818 - OYUGI ***,,FCB
RK57I5J05F,05/11/2023 15:36,05/11/2023 15:36,Utility Account to Organization Settlement Account,Completed,,-304400,0,TRUE,Utility Account to Organization Settlement Account,979524 - ANCIENT WELLS PROPERTY MANAGERS 2,,
RK56I5IS3E,05/11/2023 15:36,05/11/2023 15:36,Pay Bill Online from 254721***995 - BERNICE *** Acc. KFK,Completed,16000,,304400,TRUE,Pay Bill Online,254721***995 - BERNICE ***,,KFK
RK50I4400O,05/11/2023 15:24,05/11/2023 15:24,Pay Bill from 254701***397 - ELEMA *** Acc. FCA,Completed,10000,,288400,TRUE,Pay Utility,254701***397 - ELEMA ***,,FCA
RK57I0XERZ,05/11/2023 14:56,05/11/2023 14:56,Pay Bill Online from 254711***729 - DAVID *** Acc. HFA,Completed,16000,,278400,TRUE,Pay Bill Online,254711***729 - DAVID ***,,HFA
RK54HS1B6Q,05/11/2023 13:36,05/11/2023 13:36,Pay Bill from 254726***273 - JESSE *** Acc. HCH,Completed,17000,,262400,TRUE,Pay Utility,254726***273 - JESSE ***,,HCH
RK51HL7C9F,05/11/2023 12:28,05/11/2023 12:28,Pay Bill from 254743***420 - Margaret *** Acc. FCE,Completed,15000,,245400,TRUE,Pay Utility,254743***420 - Margaret ***,,FCE
RK52HDL844,05/11/2023 11:07,05/11/2023 11:07,Pay Bill from 254727***667 - HILDA *** Acc. JBE,Completed,5000,,230400,TRUE,Pay Utility,254727***667 - HILDA ***,,JBE
RK51HBY50T,05/11/2023 10:50,05/11/2023 10:50,Pay Bill from 076911***645 - kennedy *** Acc. IGC,Completed,9000,,225400,TRUE,Pay Utility,076911***645 - kennedy ***,,IGC
RK56HB16UG,05/11/2023 10:40,05/11/2023 10:40,Pay Bill Online from 254723***004 - LABAN *** Acc. JEF,Completed,2000,,216400,TRUE,Pay Utility with OD Online,254723***004 - LABAN ***,,JEF
RK55HAF0YJ,05/11/2023 10:34,05/11/2023 10:34,Pay Bill from 254704***689 - ANTONY *** Acc. ICD,Completed,11000,,214400,TRUE,Pay Utility,254704***689 - ANTONY ***,,ICD
RK59H8A8RJ,05/11/2023 10:11,05/11/2023 10:11,Pay Bill Online from 254718***980 - KAREN *** Acc. HEC,Completed,10500,,203400,TRUE,Pay Bill Online,254718***980 - KAREN ***,,HEC
RK55H7MRMP,05/11/2023 10:05,05/11/2023 10:05,Pay Bill Online from 074150***311 - ALLAN *** Acc. DBA,Completed,16000,,192900,TRUE,Pay Bill Online,074150***311 - ALLAN ***,,DBA
RK50H56F5M,05/11/2023 09:38,05/11/2023 09:38,Pay Bill from 254719***910 - KEVIN *** Acc. iDD,Completed,11000,,176900,TRUE,Pay Utility,254719***910 - KEVIN ***,,iDD
RK59GVMZJV,05/11/2023 07:44,05/11/2023 07:44,Pay Bill from 254722***738 - MARY *** Acc. KDD,Completed,12000,,165900,TRUE,Pay Utility,254722***738 - MARY ***,,KDD
RK56GP14MI,05/11/2023 02:23,05/11/2023 02:23,Pay Bill from 254723***259 - WILSON *** Acc. hca,Completed,15000,,153900,TRUE,Pay Utility,254723***259 - WILSON ***,,hca
RK56GNHTV0,05/11/2023 00:40,05/11/2023 00:40,Pay Bill from 254720***659 - FRANCIS *** Acc. kdg,Completed,10000,,138900,TRUE,Pay Utility,254720***659 - FRANCIS ***,,kdg
RK59GN87EL,05/11/2023 00:28,05/11/2023 00:28,Pay Bill from 070115***700 - Anabel *** Acc. jdj,Completed,15000,,128900,TRUE,Pay Utility,070115***700 - Anabel ***,,jdj
RK43GKUB4H,04/11/2023 23:13,04/11/2023 23:13,Pay Bill from 254702***907 - FAITH *** Acc. kbe,Completed,10000,,113900,TRUE,Pay Utility,254702***907 - FAITH ***,,kbe
RK48GI9IX4,04/11/2023 22:28,04/11/2023 22:28,Pay Bill from 071624***065 - TABITHA *** Acc. JEE,Completed,10000,,103900,TRUE,Pay Utility,071624***065 - TABITHA ***,,JEE
RK41GGRKRP,04/11/2023 22:06,04/11/2023 22:06,Pay Bill from 075772***640 - PURITY *** Acc. kbb,Completed,16000,,93900,TRUE,Pay Utility with OD via STK,075772***640 - PURITY ***,,kbb
RK44G6ZXYU,04/11/2023 20:37,04/11/2023 20:37,Pay Bill Online from 254728***908 - Teddy *** Acc. DDD,Completed,15900,,77900,TRUE,Pay Bill Online,254728***908 - Teddy ***,,DDD
RK41G1GDCX,04/11/2023 20:01,04/11/2023 20:01,Pay Bill from 254728***882 - SHARAD *** Acc. KCK,Completed,15000,,62000,TRUE,Pay Utility,254728***882 - SHARAD ***,,KCK
RK49FS59AH,04/11/2023 19:07,04/11/2023 19:07,Pay Bill from 074337***291 - Ann *** Acc. KAD,Completed,11000,,47000,TRUE,Pay Utility,074337***291 - Ann ***,,KAD
RK48FHU7TU,04/11/2023 18:08,04/11/2023 18:08,Pay Bill from 254725***550 - FRANKLINE *** Acc. KAF,Completed,10000,,36000,TRUE,Pay Utility,254725***550 - FRANKLINE ***,,KAF
RK42EXL4CS,04/11/2023 15:39,04/11/2023 15:39,Pay Bill from 072438***624 - FATUMA *** Acc. FAB,Completed,16000,,26000,TRUE,Pay Utility,072438***624 - FATUMA ***,,FAB
RK40EUE9US,04/11/2023 15:15,04/11/2023 15:15,Pay Bill from 254724***503 - GEOFREY *** Acc. JFF,Completed,10000,,10000,TRUE,Pay Utility,254724***503 - GEOFREY ***,,JFF
RK44ERR46G,04/11/2023 14:53,04/11/2023 14:53,Utility Account to Organization Settlement Account,Completed,,-194000,0,TRUE,Utility Account to Organization Settlement Account,979524 - ANCIENT WELLS PROPERTY MANAGERS 2,,
RK44EJQV6I,04/11/2023 13:49,04/11/2023 13:49,Pay Bill Online from 254792***144 - HASSAN *** Acc. KGI,Completed,10000,,194000,TRUE,Pay Bill Online,254792***144 - HASSAN ***,,KGI
RK42EIQZTA,04/11/2023 13:41,04/11/2023 13:41,Pay Bill from 254728***256 - NICHOLAS *** Acc. HAD,Completed,10000,,184000,TRUE,Pay Utility,254728***256 - NICHOLAS ***,,HAD
RK45EGADP7,04/11/2023 13:22,04/11/2023 13:22,Pay Bill Online from 072225***105 - SALIM *** Acc. FGF,Completed,16000,,174000,TRUE,Pay Bill Online,072225***105 - SALIM ***,,FGF
RK43EG21FP,04/11/2023 13:20,04/11/2023 13:20,Pay Bill from 254720***502 - JOHN *** Acc. JFA ,Completed,5000,,158000,TRUE,Pay Utility,254720***502 - JOHN ***,,JFA
RK46EF7096,04/11/2023 13:13,04/11/2023 13:13,Pay Bill from 254729***933 - FELISTAH *** Acc. IDI,Completed,15000,,153000,TRUE,Pay Utility,254729***933 - FELISTAH ***,,IDI
RK48EBIHCQ,04/11/2023 12:41,04/11/2023 12:41,Pay Bill from 071057***069 - GLADYS *** Acc. HCC,Completed,10000,,138000,TRUE,Pay Utility,071057***069 - GLADYS ***,,HCC
RK49E9UG37,04/11/2023 12:27,04/11/2023 12:27,Pay Bill from 074607***642 - OLIVE *** Acc. KCF,Completed,11000,,128000,TRUE,Pay Utility,074607***642 - OLIVE ***,,KCF
RK45E7HPJX,04/11/2023 12:07,04/11/2023 12:07,Pay Bill Online from 070640***366 - LUCY *** Acc. KDB,Completed,20000,,117000,TRUE,Pay Bill Online,070640***366 - LUCY ***,,KDB
RK44E7DAAU,04/11/2023 12:06,04/11/2023 12:06,Pay Bill from 074548***142 - Daisy *** Acc. FGE,Completed,15000,,97000,TRUE,Pay Utility,074548***142 - Daisy ***,,FGE
RK48E5R4S0,04/11/2023 11:51,04/11/2023 11:51,Pay Bill from 254720***502 - JOHN *** Acc. JFA ,Completed,10000,,82000,TRUE,Pay Utility,254720***502 - JOHN ***,,JFA
RK45E033OB,04/11/2023 11:01,04/11/2023 11:01,Pay Bill Online from 254723***064 - ANDREW *** Acc. HBG ,Completed,16000,,72000,TRUE,Pay Bill Online,254723***064 - ANDREW ***,,HBG
RK49DVWNJL,04/11/2023 10:24,04/11/2023 10:24,Pay Bill from 079895***042 - fridah *** Acc. HGE,Completed,9000,,56000,TRUE,Pay Utility,079895***042 - fridah ***,,HGE
RK47DV6J4T,04/11/2023 10:17,04/11/2023 10:17,Pay Bill from 254748***777 - SAGE *** Acc. IAD,Completed,11000,,47000,TRUE,Pay Utility with OD via STK,254748***777 - SAGE ***,,IAD
RK43DUS21T,04/11/2023 10:14,04/11/2023 10:14,Pay Bill from 254722***450 - MARY *** Acc. JAI,Completed,20000,,36000,TRUE,Pay Utility,254722***450 - MARY ***,,JAI
RK47DUBE6N,04/11/2023 10:09,04/11/2023 10:09,Business Pay Bill by 998094 - COOP TO PAYBILL Acc. Hea via API,Completed,16000,,16000,TRUE,Business Pay Bill via API,998094 - COOP TO PAYBILL,,Hea
RK46DSKD66,04/11/2023 09:53,04/11/2023 09:53,Utility Account to Organization Settlement Account,Completed,,-31000,0,TRUE,Utility Account to Organization Settlement Account,979524 - ANCIENT WELLS PROPERTY MANAGERS 2,,
RK44DQ75IA,04/11/2023 09:30,04/11/2023 09:30,Pay Bill Online from 254719***821 - KIPKEMOI *** Acc. JDD,Completed,15000,,31000,TRUE,Pay Bill Online,254719***821 - KIPKEMOI ***,,JDD
RK48DIRGAO,04/11/2023 08:13,04/11/2023 08:13,Pay Bill from 254726***835 - LAWRENCE *** Acc. KDJ,Completed,16000,,16000,TRUE,Pay Utility with OD via STK,254726***835 - LAWRENCE ***,,KDJ
RK42DGFPLW,04/11/2023 07:46,04/11/2023 07:46,Utility Account to Organization Settlement Account,Completed,,-130600,0,TRUE,Utility Account to Organization Settlement Account,979524 - ANCIENT WELLS PROPERTY MANAGERS 2,,
RK47DBOZGN,04/11/2023 06:19,04/11/2023 06:19,Pay Bill from 254711***672 - ALLAN *** Acc. IEI,Completed,15000,,130600,TRUE,Pay Utility,254711***672 - ALLAN ***,,IEI
RK44D9BLRI,04/11/2023 02:54,04/11/2023 02:54,Pay Bill Online from 254710***776 - KELVIN *** Acc. FAD,Completed,15000,,115600,TRUE,Pay Bill Online,254710***776 - KELVIN ***,,FAD
RK30D4J234,03/11/2023 22:55,03/11/2023 22:55,Pay Bill Online from 254714***486 - BRIAN *** Acc. KBJ,Completed,16000,,100600,TRUE,Pay Bill Online,254714***486 - BRIAN ***,,KBJ
RK38D1ZQVW,03/11/2023 22:10,03/11/2023 22:10,Pay Bill Online from 254722***473 - SAMSON *** Acc. IAB,Completed,15000,,84600,TRUE,Pay Utility with OD Online,254722***473 - SAMSON ***,,IAB
RK31COV8XD,03/11/2023 20:12,03/11/2023 20:12,Pay Bill from 254710***630 - DONNA *** Acc. KCC ,Completed,10000,,69600,TRUE,Pay Utility,254710***630 - DONNA ***,,KCC
RK32CIVIB2,03/11/2023 19:33,03/11/2023 19:33,Pay Bill from 071060***910 - Peninah *** Acc. FCC,Completed,9000,,59600,TRUE,Pay Utility,071060***910 - Peninah ***,,FCC
RK36C8DE36,03/11/2023 18:35,03/11/2023 18:35,Pay Bill from 254722***574 - ALLAN *** Acc. jcg,Completed,18600,,50600,TRUE,Pay Utility,254722***574 - ALLAN ***,,jcg
RK30BTGR6Q,03/11/2023 16:58,03/11/2023 16:58,Pay Bill from 070656***358 - HARRIET *** Acc. HBA,Completed,16000,,32000,TRUE,Pay Utility,070656***358 - HARRIET ***,,HBA
RK31BR7VSH,03/11/2023 16:41,03/11/2023 16:41,Pay Bill from 254719***942 - NORAH *** Acc. KDA,Completed,16000,,16000,TRUE,Pay Utility,254719***942 - NORAH ***,,KDA
RK39BBG9BB,03/11/2023 14:28,03/11/2023 14:28,Utility Account to Organization Settlement Account,Completed,,-117000,0,TRUE,Utility Account to Organization Settlement Account,979524 - ANCIENT WELLS PROPERTY MANAGERS 2,,
RK34B9L6NO,03/11/2023 14:12,03/11/2023 14:12,Pay Bill from 076841***584 - Faith *** Acc. IDF,Completed,11000,,117000,TRUE,Pay Utility,076841***584 - Faith ***,,IDF
RK33B5AH7D,03/11/2023 13:36,03/11/2023 13:36,Pay Bill Online from 254724***857 - OCHUODHO *** Acc. KBK,Completed,17000,,106000,TRUE,Pay Bill Online,254724***857 - OCHUODHO ***,,KBK
RK36AZ4P34,03/11/2023 12:42,03/11/2023 12:42,Pay Bill from 254723***911 - JAMES *** Acc. ICG,Completed,9500,,89000,TRUE,Pay Utility,254723***911 - JAMES ***,,ICG
RK39AMQKDD,03/11/2023 10:49,03/11/2023 10:49,Pay Bill from 254710***003 - ALFRED *** Acc. HBH,Completed,21500,,79500,TRUE,Pay Utility,254710***003 - ALFRED ***,,HBH
RK33AMHGDF,03/11/2023 10:46,03/11/2023 10:46,Pay Bill from 254717***324 - Christine *** Acc. KDF,Completed,10000,,58000,TRUE,Pay Utility,254717***324 - Christine ***,,KDF
RK31AMH61F,03/11/2023 10:46,03/11/2023 10:46,Pay Bill Online from 254702***515 - ELIZABETH *** Acc. ICH,Completed,16000,,48000,TRUE,Pay Bill Online,254702***515 - ELIZABETH ***,,ICH
RK34AK5XRY,03/11/2023 10:25,03/11/2023 10:25,Pay Bill Online from 254721***713 - RHODA *** Acc. Jfh,Completed,17000,,32000,TRUE,Pay Bill Online,254721***713 - RHODA ***,,Jfh
RK36AI526U,03/11/2023 10:06,03/11/2023 10:06,Pay Bill Online from 254710***992 - SIMON *** Acc. JCD,Completed,15000,,15000,TRUE,Pay Bill Online,254710***992 - SIMON ***,,JCD
RK30AI1N8K,03/11/2023 10:06,03/11/2023 10:06,Utility Account to Organization Settlement Account,Completed,,-75500,0,TRUE,Utility Account to Organization Settlement Account,979524 - ANCIENT WELLS PROPERTY MANAGERS 2,,
RK37A7LPFT,03/11/2023 08:20,03/11/2023 08:20,Pay Bill from 071918***067 - SOSPETER *** Acc. KFF ,Completed,9000,,75500,TRUE,Pay Utility,071918***067 - SOSPETER ***,,KFF
RK31A56J15,03/11/2023 07:52,03/11/2023 07:52,Pay Bill Online from 254729***700 - MICAH *** Acc. HFE,Completed,10500,,66500,TRUE,Pay Bill Online,254729***700 - MICAH ***,,HFE
RK37A3IB19,03/11/2023 07:31,03/11/2023 07:31,Pay Bill from 254703***744 - Esther *** Acc. KEF,Completed,10000,,56000,TRUE,Pay Utility,254703***744 - Esther ***,,KEF
RK269TX0GE,02/11/2023 23:01,02/11/2023 23:01,Pay Bill from 254795***751 - caroline *** Acc. KBF,Completed,9000,,46000,TRUE,Pay Utility,254795***751 - caroline ***,,KBF
RK299TM667,02/11/2023 22:54,02/11/2023 22:54,Pay Bill from 254742***965 - DOMINIC *** Acc. KDC,Completed,10000,,37000,TRUE,Pay Utility,254742***965 - DOMINIC ***,,KDC
RK219GKJYX,02/11/2023 20:31,02/11/2023 20:31,Pay Bill Online from 254721***178 - PHANICE *** Acc. FBF,Completed,16000,,27000,TRUE,Pay Bill Online,254721***178 - PHANICE ***,,FBF
RK268UOZAE,02/11/2023 18:24,02/11/2023 18:24,Pay Bill from 254791***823 - rachel *** Acc. JEG,Completed,9000,,11000,TRUE,Pay Utility,254791***823 - rachel ***,,JEG
RK248KRMHK,02/11/2023 17:18,02/11/2023 17:18,Pay Bill from 074378***968 - Dallias *** Acc. hbb,Completed,2000,,2000,TRUE,Pay Utility,074378***968 - Dallias ***,,hbb
RK278JLTZ5,02/11/2023 17:09,02/11/2023 17:09,Utility Account to Organization Settlement Account,Completed,,-20000,0,TRUE,Utility Account to Organization Settlement Account,979524 - ANCIENT WELLS PROPERTY MANAGERS 2,,
RK287ZGNC0,02/11/2023 14:18,02/11/2023 14:18,Pay Bill from 074130***410 - STEVEKEVIN *** Acc. IAC,Completed,9000,,20000,TRUE,Pay Utility,074130***410 - STEVEKEVIN ***,,IAC
RK247VII96,02/11/2023 13:44,02/11/2023 13:44,Pay Bill Online from 254742***558 - PEACEMARY *** Acc. JBC,Completed,11000,,11000,TRUE,Pay Bill Online,254742***558 - PEACEMARY ***,,JBC
RK267PB0QW,02/11/2023 12:50,02/11/2023 12:50,Utility Account to Organization Settlement Account,Completed,,-41000,0,TRUE,Utility Account to Organization Settlement Account,979524 - ANCIENT WELLS PROPERTY MANAGERS 2,,
RK207KDYGK,02/11/2023 12:06,02/11/2023 12:06,Pay Bill from 254702***444 - RANDY *** Acc. JAB,Completed,15000,,41000,TRUE,Pay Utility,254702***444 - RANDY ***,,JAB
RK227GQNGO,02/11/2023 11:31,02/11/2023 11:31,Pay Bill from 254716***398 - HYVENE *** Acc. KDE,Completed,10000,,26000,TRUE,Pay Utility,254716***398 - HYVENE ***,,KDE
RK2578MGL1,02/11/2023 10:17,02/11/2023 10:17,Pay Bill from 254721***481 - MARTIN *** Acc. DFA,Completed,16000,,16000,TRUE,Pay Utility,254721***481 - MARTIN ***,,DFA
RK266VC41W,02/11/2023 08:02,02/11/2023 08:02,Utility Account to Organization Settlement Account,Completed,,-141000,0,TRUE,Utility Account to Organization Settlement Account,979524 - ANCIENT WELLS PROPERTY MANAGERS 2,,
RK276UA09H,02/11/2023 07:50,02/11/2023 07:50,Pay Bill from 254720***822 - JAMES *** Acc. jgj,Completed,2000,,141000,TRUE,Pay Utility with OD via STK,254720***822 - JAMES ***,,jgj
RK236M8Y2B,02/11/2023 01:47,02/11/2023 01:47,Pay Bill from 254796***496 - IVY *** Acc. FAA,Completed,2000,,139000,TRUE,Pay Utility,254796***496 - IVY ***,,FAA
RK116H4QLR,01/11/2023 22:37,01/11/2023 22:37,Pay Bill Online from 254797***402 - Tiberius *** Acc. KFC,Completed,9000,,137000,TRUE,Pay Bill Online,254797***402 - Tiberius ***,,KFC
RK1869QEK8,01/11/2023 21:16,01/11/2023 21:16,Pay Bill from 254728***427 - MARY *** Acc. FDF,Completed,16000,,128000,TRUE,Pay Utility,254728***427 - MARY ***,,FDF
RK1264JSGY,01/11/2023 20:37,01/11/2023 20:37,Pay Bill Online from 254708***223 - DENNIS *** Acc. DCA,Completed,16000,,112000,TRUE,Pay Bill Online,254708***223 - DENNIS ***,,DCA
RK1160IZIJ,01/11/2023 20:11,01/11/2023 20:11,Pay Bill from 254710***394 - LUCY *** Acc. 6000,Completed,6000,,96000,TRUE,Pay Utility with OD via STK,254710***394 - LUCY ***,,6000
RK155JCGIP,01/11/2023 18:39,01/11/2023 18:39,Pay Bill Online from 254706***634 - CLINTON *** Acc. FDB,Completed,17000,,90000,TRUE,Pay Bill Online,254706***634 - CLINTON ***,,FDB
RK115J4E0T,01/11/2023 18:38,01/11/2023 18:38,Pay Bill Online from 254721***294 - GRACE *** Acc. IGH,Completed,15000,,73000,TRUE,Pay Bill Online,254721***294 - GRACE ***,,IGH
RK135FPS87,01/11/2023 18:18,01/11/2023 18:18,Pay Bill Online from 254729***719 - JACINTA *** Acc. FFF,Completed,17000,,58000,TRUE,Pay Bill Online,254729***719 - JACINTA ***,,FFF
RK195AD4ZH,01/11/2023 17:43,01/11/2023 17:43,Pay Bill from 254722***705 - ERIC *** Acc. FCF,Completed,16000,,41000,TRUE,Pay Utility with OD via STK,254722***705 - ERIC ***,,FCF
RK13526OSX,01/11/2023 16:43,01/11/2023 16:43,Pay Bill from 254729***338 - REGINA *** Acc. IEC,Completed,10000,,25000,TRUE,Pay Utility,254729***338 - REGINA ***,,IEC
RK124ZG6FQ,01/11/2023 16:21,01/11/2023 16:21,Pay Bill from 254723***380 - RHODAH *** Acc. HEG,Completed,15000,,15000,TRUE,Pay Utility,254723***380 - RHODAH ***,,HEG
RK164W4WGI,01/11/2023 15:53,01/11/2023 15:53,Utility Account to Organization Settlement Account,Completed,,-98000,0,TRUE,Utility Account to Organization Settlement Account,979524 - ANCIENT WELLS PROPERTY MANAGERS 2,,
RK194QK725,01/11/2023 15:04,01/11/2023 15:04,Pay Bill from 254791***982 - ADULLAHI *** Acc. jci,Completed,20000,,98000,TRUE,Pay Utility,254791***982 - ADULLAHI ***,,jci
RK184MD9IM,01/11/2023 14:28,01/11/2023 14:28,Pay Bill Online from 254705***736 - SNAIDA *** Acc. FEC,Completed,9000,,78000,TRUE,Pay Bill Online,254705***736 - SNAIDA ***,,FEC
RK194KZXGB,01/11/2023 14:16,01/11/2023 14:16,Pay Bill Online from 254718***538 - JAMES *** Acc. JBH,Completed,16000,,69000,TRUE,Pay Bill Online,254718***538 - JAMES ***,,JBH
RK184D83XC,01/11/2023 13:10,01/11/2023 13:10,Pay Bill from 254714***203 - PATRICK *** Acc. KEI,Completed,12000,,53000,TRUE,Pay Utility,254714***203 - PATRICK ***,,KEI
RK124BMQCW,01/11/2023 12:56,01/11/2023 12:56,Pay Bill from 254798***376 - Oliva *** Acc. DEA,Completed,16000,,41000,TRUE,Pay Utility,254798***376 - Oliva ***,,DEA
RK1649HE5W,01/11/2023 12:38,01/11/2023 12:38,Pay Bill Online from 254706***429 - ROSE *** Acc. IFI,Completed,15000,,25000,TRUE,Pay Bill Online,254706***429 - ROSE ***,,IFI
RK1648C0PM,01/11/2023 12:27,01/11/2023 12:27,Pay Bill from 254714***840 - RACHAEL *** Acc. ITE,Completed,10000,,10000,TRUE,Pay Utility,254714***840 - RACHAEL ***,,ITE
RK1840KU4A,01/11/2023 11:15,01/11/2023 11:15,Utility Account to Organization Settlement Account,Completed,,-211000,0,TRUE,Utility Account to Organization Settlement Account,979524 - ANCIENT WELLS PROPERTY MANAGERS 2,,
RK123R7JDS,01/11/2023 09:47,01/11/2023 09:47,Pay Bill Online from 254707***839 - DENNIS *** Acc. FEF,Completed,16000,,211000,TRUE,Pay Bill Online,254707***839 - DENNIS ***,,FEF
RK123QC5M4,01/11/2023 09:38,01/11/2023 09:38,Pay Bill from 254716***682 - JUSTINE *** Acc. HAA,Completed,17000,,195000,TRUE,Pay Utility,254716***682 - JUSTINE ***,,HAA
RK183DWTWE,01/11/2023 07:22,01/11/2023 07:22,Pay Bill Online from 254795***441 - LEWIS *** Acc. KEB,Completed,16000,,178000,TRUE,Pay Bill Online,254795***441 - LEWIS ***,,KEB
