Receipt No.,Completion Time,Initiation Time,Details,Transaction Status,Paid In,Withdrawn,Balance,Balance Confirmed,Reason Type,Other Party Info,Linked Transaction ID,A/C No.
RD86OOCDCQ,8/4/2023 13:35,8/4/2023 13:35,Pay Bill from 254723853941 - ELIZABETH MUTIO MUTUKU Acc. house number 12,Completed,20000,,261500,TRUE,Pay Utility,254723853941 - ELIZABETH MUTIO MUTUKU,,house
RD76NEY53W,7/4/2023 21:30,7/4/2023 21:30,Pay Bill from 0759385844 - ROSEMARY WAMBUI GITAU Acc. b5,Completed,6000,,241500,TRUE,Pay Utility,0759385844 - ROSEMARY WAMBUI GITAU,,b5
RD65KSURT1,6/4/2023 23:41,6/4/2023 23:41,Pay Bill from 254720084537 - MARY NDUKU WAMBUA Acc. 5,Completed,16000,,235500,TRUE,Pay Utility,254720084537 - MARY NDUKU WAMBUA,,5
RD67JB9Z5N,6/4/2023 15:25,6/4/2023 15:25,Pay Bill from 254745713921 - LAUREEN WANJIRU MAINA Acc. B3,Completed,6000,,219500,TRUE,Pay Utility,254745713921 - LAUREEN WANJIRU MAINA,,B3
RD66IQ23CA,6/4/2023 11:50,6/4/2023 11:50,Pay Bill from 254722314500 - SHARON AKINYI OBIERO Acc. Hse 1,Completed,12000,,213500,TRUE,Pay Utility,254722314500 - SHARON AKINYI OBIERO,,Hse
RD60I6Q2B2,6/4/2023 8:16,6/4/2023 8:16,Pay Bill from 254721392330 - ROSE KENDI MUTEGI Acc. A202 ,Completed,90000,,201500,TRUE,Pay Utility,254721392330 - ROSE KENDI MUTEGI,,A202
RD56HBCNOY,5/4/2023 19:40,5/4/2023 19:40,Pay Bill from 254797632111 - ISAAC MACHARIA Acc. D5,Completed,11000,,111500,TRUE,Pay Utility,254797632111 - ISAAC MACHARIA,,D5
RD51H0CTXZ,5/4/2023 18:32,5/4/2023 18:32,Utility Account to Organization Settlement Account,Completed,,-15000,100500,TRUE,Utility Account to Organization Settlement Account,887264 - ANCIENT WELLS LTD 2,,
RD54F1U2RO,5/4/2023 0:14,5/4/2023 0:14,Pay Bill Online from 254718167869 - MARK OTIENO Acc. A3,Completed,7000,,115500,TRUE,Pay Bill Online,254718167869 - MARK OTIENO,,A3
RD47DITB0L,4/4/2023 15:10,4/4/2023 15:10,Pay Bill from 254723634653 - CHARD MASHANGA Acc. House Number 7,Completed,16000,,108500,TRUE,Pay Utility,254723634653 - CHARD MASHANGA,,House
RD47D3HVZX,4/4/2023 12:32,4/4/2023 12:32,Pay Bill Online from 254723909186 - BRIAN LIBASIA Acc. 18,Completed,16000,,92500,TRUE,Pay Bill Online,254723909186 - BRIAN LIBASIA,,18
RD47CEZ9YN,4/4/2023 7:53,4/4/2023 7:53,Pay Bill from 254723882311 - VERONICAH WAMBUGU Acc. House number 9,Completed,16000,,76500,TRUE,Pay Utility,254723882311 - VERONICAH WAMBUGU,,House
RD116JWU1N,1/4/2023 20:56,1/4/2023 20:56,Pay Bill Online from 254715776633 - FIONA KIMANI Acc. Z16,Completed,16000,,60500,TRUE,Pay Utility with OD Online,254715776633 - FIONA KIMANI,,Z16
RD1065CYAS,1/4/2023 19:11,1/4/2023 19:11,Pay Bill from 254726731040 - ISAAC NDUNGU Acc. D 8,Completed,6000,,44500,TRUE,Pay Utility,254726731040 - ISAAC NDUNGU,,D
RD115ESUKJ,1/4/2023 15:33,1/4/2023 15:33,Pay Bill from 254715979027 - NICHOLAS MWANGI Acc. Leah b3,Completed,15000,,38500,TRUE,Pay Utility,254715979027 - NICHOLAS MWANGI,,Leah
RD124FPLGG,1/4/2023 9:44,1/4/2023 9:44,Pay Bill from 0115818416 - dennis   spence Acc. n2,Completed,5500,,23500,TRUE,Pay Utility,0115818416 - dennis   spence,,n2
