Receipt No.,Completion Time,Initiation Time,Details,Transaction Status,Paid In,Withdrawn,Balance,Balance Confirmed,Reason Type,Other Party Info,Linked Transaction ID,A/C No.
RAG3IAPLF9,16/01/2023 14:44,16/01/2023 14:44,Utility Account to Organization Settlement Account,Completed,,-4700,0,TRUE,Utility Account to Organization Settlement Account,887674 - ANCIENT WELLS LTD 1,,
RAG0IA92QK,16/01/2023 14:39,16/01/2023 14:39,Utility Account to Organization Settlement Account,Completed,,-15000,4700,TRUE,Utility Account to Organization Settlement Account,887674 - ANCIENT WELLS LTD 1,,
RAF7GEB2RH,15/01/2023 18:05,15/01/2023 18:05,Utility Account to Organization Settlement Account,Completed,,-20000,19700,TRUE,Utility Account to Organization Settlement Account,887674 - ANCIENT WELLS LTD 1,,
RAF5G4IZGB,15/01/2023 16:14,15/01/2023 16:14,Utility Account to Organization Settlement Account,Completed,,-15000,39700,TRUE,Utility Account to Organization Settlement Account,887674 - ANCIENT WELLS LTD 1,,
RAF2F6Y764,15/01/2023 08:59,15/01/2023 08:59,Utility Account to Organization Settlement Account,Completed,,-15000,54700,TRUE,Utility Account to Organization Settlement Account,887674 - ANCIENT WELLS LTD 1,,
RAF8F55U4O,15/01/2023 08:32,15/01/2023 08:32,Pay Bill from 0727266858 - winrose imbuga mudenyo Acc. Vk5,Completed,3500,,69700,TRUE,Pay Utility,0727266858 - winrose imbuga mudenyo,,Vk5
RAE3DZLC6V,14/01/2023 17:42,14/01/2023 17:42,Utility Account to Organization Settlement Account,Completed,,-60000,66200,TRUE,Utility Account to Organization Settlement Account,887674 - ANCIENT WELLS LTD 1,,
RAE2DQQPR0,14/01/2023 16:06,14/01/2023 16:06,Utility Account to Organization Settlement Account,Completed,,-40000,126200,TRUE,Utility Account to Organization Settlement Account,887674 - ANCIENT WELLS LTD 1,,
RAC19KQP7J,12/01/2023 20:33,12/01/2023 20:33,Pay Bill from 0704562877 - RYAN WILBERT KOJWANG Acc. V35,Completed,7000,,166200,TRUE,Pay Utility with OD via STK,0704562877 - RYAN WILBERT KOJWANG,,V35
RAB2669CXG,11/01/2023 15:21,11/01/2023 15:21,Pay Bill from 254700085051 - HUMPHREY WANJIKU Acc. v46,Completed,6600,,159200,TRUE,Pay Utility,254700085051 - HUMPHREY WANJIKU,,v46
RAA04AHI8S,10/01/2023 18:51,10/01/2023 18:51,Pay Bill from 254723054087 - Nicholas kipkorir kemboi Acc. V45,Completed,3500,,152600,TRUE,Pay Utility with OD via STK,254723054087 - Nicholas kipkorir kemboi,,V45
RAA04AB1YU,10/01/2023 18:50,10/01/2023 18:50,Pay Bill from 254723054087 - Nicholas kipkorir kemboi Acc. V45,Completed,3500,,149100,TRUE,Pay Utility,254723054087 - Nicholas kipkorir kemboi,,V45
RAA93GA811,10/01/2023 13:34,10/01/2023 13:34,Pay Bill from 254729806880 - Eunice Akinyi Were Acc. V 33,Completed,7500,,145600,TRUE,Pay Utility,254729806880 - Eunice Akinyi Were,,V
RA9619QLCC,09/01/2023 15:12,09/01/2023 15:12,Pay Bill Online from 254720056285 - DAMARIS NDURU Acc. V18,Completed,6600,,138100,TRUE,Pay Bill Online,254720056285 - DAMARIS NDURU,,V18
RA921314YY,09/01/2023 13:56,09/01/2023 13:56,Pay Bill from 254729358258 - Cliff Ombasa Acc. v05,Completed,7000,,131500,TRUE,Pay Utility,254729358258 - Cliff Ombasa,,v05
RA94ZP2I5O,09/01/2023 11:21,09/01/2023 11:21,Pay Bill from 0713841898 - STACY MAUA KILONZO Acc. v37,Completed,7000,,124500,TRUE,Pay Utility,0713841898 - STACY MAUA KILONZO,,v37
RA95ZND5TF,09/01/2023 11:01,09/01/2023 11:01,Pay Bill from 254717294709 - CAROLINE WAVINYA NDINDA Acc. v15,Completed,7000,,117500,TRUE,Pay Utility,254717294709 - CAROLINE WAVINYA NDINDA,,v15
RA80YS4NLK,08/01/2023 20:31,08/01/2023 20:31,Pay Bill from 254718818610 - HANNAH NALIAKA Acc. V23,Completed,300,,110500,TRUE,Pay Utility,254718818610 - HANNAH NALIAKA,,V23
RA84YJKKJM,08/01/2023 19:17,08/01/2023 19:17,Pay Bill from 254706920646 - MIRIAM CHEPTOO Acc. V08,Completed,5500,,110200,TRUE,Pay Utility with OD via STK,254706920646 - MIRIAM CHEPTOO,,V08
RA85XQSA9T,08/01/2023 14:00,08/01/2023 14:00,Pay Bill from 0111512152 - Pasckaline Wangari Irungu Acc. V59,Completed,7000,,104700,TRUE,Pay Utility,0111512152 - Pasckaline Wangari Irungu,,V59
RA87X4DQIX,08/01/2023 08:51,08/01/2023 08:51,Pay Bill from 0758457508 - PETER KINGORI KAGUNDA Acc. v06,Completed,7000,,97700,TRUE,Pay Utility,0758457508 - PETER KINGORI KAGUNDA,,v06
RA70WM71TY,07/01/2023 21:08,07/01/2023 21:08,Pay Bill from 254720466443 - FATUMA MOHAMED ABDALLAH Acc. V21 ,Completed,2000,,90700,TRUE,Pay Utility,254720466443 - FATUMA MOHAMED ABDALLAH,,V21
RA75V60KMB,07/01/2023 12:44,07/01/2023 12:44,Pay Bill from 254713894468 - RAPHAEL . NTHAMBURI Acc. v26,Completed,5200,,88700,TRUE,Pay Utility,254713894468 - RAPHAEL . NTHAMBURI,,v26
RA73V1EPSJ,07/01/2023 11:52,07/01/2023 11:52,Pay Bill from 254791573608 - MICHELLE KARANJA Acc. V50,Completed,3500,,83500,TRUE,Pay Utility,254791573608 - MICHELLE KARANJA,,V50
RA75UZDYIP,07/01/2023 11:28,07/01/2023 11:28,Pay Bill Online from 254726465584 - JULIANA MUKELI MUTUNGA Acc. v4,Completed,6600,,80000,TRUE,Pay Bill Online,254726465584 - JULIANA MUKELI MUTUNGA,,v4
RA71UNPU49,07/01/2023 09:08,07/01/2023 09:08,Pay Bill Online from 254740912300 - ADELIDE IMINZA CHAGUSIA Acc. v27,Completed,7000,,73400,TRUE,Pay Bill Online,254740912300 - ADELIDE IMINZA CHAGUSIA,,v27
RA60U01BVC,06/01/2023 20:38,06/01/2023 20:38,Pay Bill from 0795807227 - Lucy Ncekei Kimathi Acc. V36 ,Completed,6600,,66400,TRUE,Pay Utility,0795807227 - Lucy Ncekei Kimathi,,V36
RA63TXE3EP,06/01/2023 20:15,06/01/2023 20:15,Pay Bill from 0769858701 - DOLLARS DANIEL CIRHUZA Acc. V09,Completed,7000,,59800,TRUE,Pay Utility,0769858701 - DOLLARS DANIEL CIRHUZA,,V09
RA66TOFJVS,06/01/2023 19:09,06/01/2023 19:09,Pay Bill from 254722578070 - SAMUEL MACHARIA Acc. v42,Completed,7000,,52800,TRUE,Pay Utility,254722578070 - SAMUEL MACHARIA,,v42
RA68SPRD0U,06/01/2023 13:18,06/01/2023 13:18,Pay Bill Online from 254704995854 - james karanja wairimu Acc. V54,Completed,6600,,45800,TRUE,Pay Bill Online,254704995854 - james karanja wairimu,,V54
RA65SLV7S5,06/01/2023 12:33,06/01/2023 12:33,Pay Bill from 254790128716 - HELLEN NAPHTAL Acc. V11,Completed,7000,,39200,TRUE,Pay Utility,254790128716 - HELLEN NAPHTAL,,V11
RA68S93UQC,06/01/2023 10:05,06/01/2023 10:05,Pay Bill from 254724760122 - DENIS NJUGUNA KARANJA Acc. V32,Completed,7000,,32200,TRUE,Pay Utility,254724760122 - DENIS NJUGUNA KARANJA,,V32
RA55RFX8KR,05/01/2023 20:22,05/01/2023 20:22,Pay Bill from 254720466443 - FATUMA MOHAMED ABDALLAH Acc. V21 ,Completed,5000,,25200,TRUE,Pay Utility,254720466443 - FATUMA MOHAMED ABDALLAH,,V21
RA55R7NJZ9,05/01/2023 19:19,05/01/2023 19:19,Pay Bill from 254723337732 - CHRISTINE AKINYI OCHELE Acc. V14 ,Completed,7000,,20200,TRUE,Pay Utility,254723337732 - CHRISTINE AKINYI OCHELE,,V14
RA50QZVOOA,05/01/2023 18:15,05/01/2023 18:15,Pay Bill from 254712091662 - BENARD OMONDI ROBY Acc. V16,Completed,6600,,13200,TRUE,Pay Utility,254712091662 - BENARD OMONDI ROBY,,V16
RA54QOZ79S,05/01/2023 16:28,05/01/2023 16:28,Pay Bill from 254723815832 - SEMEKIA ONDIALA Acc. V38,Completed,6600,,6600,TRUE,Pay Utility,254723815832 - SEMEKIA ONDIALA,,V38
RA58Q3L1O8,05/01/2023 12:27,05/01/2023 12:27,Utility Account to Organization Settlement Account,Completed,,-48600,0,TRUE,Utility Account to Organization Settlement Account,887674 - ANCIENT WELLS LTD 1,,
RA56Q2TNOW,05/01/2023 12:18,05/01/2023 12:18,Pay Bill Online from 254706427665 - CHRIS KIRIMI Acc. v22,Completed,14000,,48600,TRUE,Pay Bill Online,254706427665 - CHRIS KIRIMI,,v22
RA45PB9SIT,04/01/2023 23:10,04/01/2023 23:10,Pay Bill from 254718818610 - HANNAH NALIAKA Acc. V23,Completed,6600,,34600,TRUE,Pay Utility,254718818610 - HANNAH NALIAKA,,V23
RA45NXOG8B,04/01/2023 14:21,04/01/2023 14:21,Pay Bill from 0714747222 - WILSON KIMANI MWANGI Acc. v25,Completed,7000,,28000,TRUE,Pay Utility,0714747222 - WILSON KIMANI MWANGI,,v25
RA31MFZLP3,03/01/2023 19:45,03/01/2023 19:45,Pay Bill from 254720362703 - SULEKA ISSACK MOHAMED Acc. V52,Completed,7000,,21000,TRUE,Pay Utility,254720362703 - SULEKA ISSACK MOHAMED,,V52
RA29J22CLD,02/01/2023 13:07,02/01/2023 13:07,Pay Bill from 254791573608 - MICHELLE KARANJA Acc. V50,Completed,14000,,14000,TRUE,Pay Utility,254791573608 - MICHELLE KARANJA,,V50
RA12HXB2ZO,01/01/2023 20:01,01/01/2023 20:01,Utility Account to Organization Settlement Account,Completed,,-13600,0,TRUE,Utility Account to Organization Settlement Account,887674 - ANCIENT WELLS LTD 1,,
RA17G9LU79,01/01/2023 07:57,01/01/2023 07:57,Pay Bill from 254720002225 - DAVID NDENGWA Acc. V29,Completed,7000,,13600,TRUE,Pay Utility,254720002225 - DAVID NDENGWA,,V29
