Receipt No.,Completion Time,Initiation Time,Details,Transaction Status,Paid In,Withdrawn,Balance,Balance Confirmed,Reason Type,Other Party Info,Linked Transaction ID,A/C No.
OCA5NPQ06Z,10/03/2020 10:39,10/03/2020 10:39,Pay Bill from 0742658849 - Winfridah   Namiba Acc. PascalV45,Completed,600,,79900,TRUE,Pay Utility,0742658849 - Winfridah   Namiba,,PascalV45
OC98N6ADQA,09/03/2020 17:00,09/03/2020 17:00,Pay Bill from 254729569271 - MESHACK OBOTTA OBOTTA OBARE Acc. V12,Completed,6600,,79300,TRUE,Pay Utility,254729569271 - MESHACK OBOTTA OBOTTA OBARE,,V12
OC98MZAT34,09/03/2020 12:51,09/03/2020 12:51,Pay Bill from 0742658849 - Winfridah   Namiba Acc. Pascal V45,Completed,6600,,72700,TRUE,Pay Utility,0742658849 - Winfridah   Namiba,,Pascal
OC91MT60R7,09/03/2020 09:20,09/03/2020 09:20,Pay Bill from 0702544614 - linda kwamboka ombiro Acc. V49,Completed,6600,,66100,TRUE,Pay Utility,0702544614 - linda kwamboka ombiro,,V49
