Receipt No.,Completion Time,Initiation Time,Details,Transaction Status,Paid In,Withdrawn,Balance,Balance Confirmed,Reason Type,Other Party Info,Linked Transaction ID,A/C No.
PE23I7JM9D,02/05/2021 23:06,02/05/2021 23:06,Utility Account to Organization Settlement Account,Completed,,-16000,0,TRUE,Utility Account to Organization Settlement Account,887075 - ANCIENT WELLS LTD 3,,
PE28HAILNE,02/05/2021 11:16,02/05/2021 11:16,Pay Bill Online from 254795983642 - OBED MOGAKA Acc. F6 OBED ,Completed,8500,,16000,TRUE,Pay Bill Online,254795983642 - OBED MOGAKA,,F6
PE27H3LIXZ,02/05/2021 08:24,02/05/2021 08:24,Pay Bill from 254726432241 - STEPHEN MAYABI Acc. A1,Completed,7500,,7500,TRUE,Pay Utility with OD via STK,254726432241 - STEPHEN MAYABI,,A1
PE15GTOB87,01/05/2021 20:32,01/05/2021 20:32,Utility Account to Organization Settlement Account,Completed,,-8000,0,TRUE,Utility Account to Organization Settlement Account,887075 - ANCIENT WELLS LTD 3,,
PE10GKZYCI,01/05/2021 18:32,01/05/2021 18:32,Pay Bill Online from 254727725587 - IVY MACHARIA Acc. B2,Completed,8000,,8000,TRUE,Pay Bill Online,254727725587 - IVY MACHARIA,,B2
PE15FY98AJ,01/05/2021 11:32,01/05/2021 11:32,Utility Account to Organization Settlement Account,Completed,,-8000,0,TRUE,Utility Account to Organization Settlement Account,887075 - ANCIENT WELLS LTD 3,,
PDT1DSSBV5,29/04/2021 18:32,29/04/2021 18:32,Pay Bill from 254713701237 - Michael Wanjala Acc. G2,Completed,8000,,8000,TRUE,Pay Utility,254713701237 - Michael Wanjala,,G2
PDT3CWNNC1,29/04/2021 06:24,29/04/2021 06:24,Utility Account to Organization Settlement Account,Completed,,-15000,0,TRUE,Utility Account to Organization Settlement Account,887075 - ANCIENT WELLS LTD 3,,
PDS8CUQLQ8,28/04/2021 22:55,28/04/2021 22:55,Pay Bill from 0711239204 - shichenga wawire mark Acc. D2,Completed,7000,,15000,TRUE,Pay Utility,0711239204 - shichenga wawire mark,,D2
PDS4CRP3BG,28/04/2021 21:01,28/04/2021 21:01,Pay Bill from 254722706516 - KORIR ANTHONY Acc. Anthony d 3,Completed,8000,,8000,TRUE,Pay Utility,254722706516 - KORIR ANTHONY,,Anthony
PDQ794PZH7,26/04/2021 09:15,26/04/2021 09:15,Utility Account to Organization Settlement Account,Completed,,-9500,0,TRUE,Utility Account to Organization Settlement Account,887075 - ANCIENT WELLS LTD 3,,
PDP989G20J,25/04/2021 14:45,25/04/2021 14:45,Pay Bill from 254729110577 - GREGORY ONESMUS KIMANTHI Acc. D6,Completed,5000,,9500,TRUE,Pay Utility,254729110577 - GREGORY ONESMUS KIMANTHI,,D6
PDP186FXCH,25/04/2021 13:41,25/04/2021 13:41,Pay Bill from 254713229967 - John Mugabo Simba Acc. E4,Completed,4500,,4500,TRUE,Pay Utility,254713229967 - John Mugabo Simba,,E4
PDM44FXKRU,22/04/2021 14:51,22/04/2021 14:51,Utility Account to Organization Settlement Account,Completed,,-4000,0,TRUE,Utility Account to Organization Settlement Account,887075 - ANCIENT WELLS LTD 3,,
PDM74F2MHR,22/04/2021 14:33,22/04/2021 14:33,Pay Bill from 254729110577 - GREGORY ONESMUS KIMANTHI Acc. D6,Completed,4000,,4000,TRUE,Pay Utility,254729110577 - GREGORY ONESMUS KIMANTHI,,D6
PDM947WYEN,22/04/2021 11:58,22/04/2021 11:58,Utility Account to Organization Settlement Account,Completed,,-3000,0,TRUE,Utility Account to Organization Settlement Account,887075 - ANCIENT WELLS LTD 3,,
PDL93MNIRB,21/04/2021 19:36,21/04/2021 19:36,Pay Bill Online from 254703176849 - ROYAL MUYA Acc. F2,Completed,3000,,3000,TRUE,Pay Utility with OD Online,254703176849 - ROYAL MUYA,,F2
PDK61CA63E,20/04/2021 07:20,20/04/2021 07:20,Utility Account to Organization Settlement Account,Completed,,-11100,0,TRUE,Utility Account to Organization Settlement Account,887075 - ANCIENT WELLS LTD 3,,
PDJ014MUZ8,19/04/2021 20:16,19/04/2021 20:16,Pay Bill from 254711428856 - JAPHETH OTSIENO BARASA Acc. Japheth Barasa A5,Completed,11000,,11100,TRUE,Pay Utility,254711428856 - JAPHETH OTSIENO BARASA,,Japheth
PDJ3ZTLM97,19/04/2021 17:32,19/04/2021 17:32,Pay Bill from 254720465220 - ROBERT GICHOHI Acc. bob,Completed,100,,100,TRUE,Pay Utility,254720465220 - ROBERT GICHOHI,,bob
PDJ7ZN5AZT,19/04/2021 15:27,19/04/2021 15:27,Utility Account to Organization Settlement Account,Completed,,-6000,0,TRUE,Utility Account to Organization Settlement Account,887075 - ANCIENT WELLS LTD 3,,
PDI1YUP0TN,18/04/2021 20:02,18/04/2021 20:02,Pay Bill from 0799912339 - PETER KAMAU MURIU Acc. c5,Completed,6000,,6000,TRUE,Pay Utility,0799912339 - PETER KAMAU MURIU,,c5
PDH7XCVT75,17/04/2021 17:29,17/04/2021 17:29,Utility Account to Organization Settlement Account,Completed,,-8500,0,TRUE,Utility Account to Organization Settlement Account,887075 - ANCIENT WELLS LTD 3,,
PDG7VVHU5X,16/04/2021 16:00,16/04/2021 16:00,Pay Bill Online from 254720062144 - CAROLINE AMONDI OKELO Acc. f4,Completed,8500,,8500,TRUE,Pay Utility with OD Online,254720062144 - CAROLINE AMONDI OKELO,,f4
PDD7RQ8MFT,13/04/2021 12:46,13/04/2021 12:46,Utility Account to Organization Settlement Account,Completed,,-8000,0,TRUE,Utility Account to Organization Settlement Account,887075 - ANCIENT WELLS LTD 3,,
PDC9QG69HZ,12/04/2021 12:55,12/04/2021 12:55,Pay Bill from 254704213191 - VALENTINE WAVINYA Acc. e3,Completed,8000,,8000,TRUE,Pay Utility,254704213191 - VALENTINE WAVINYA,,e3
PDB8P9Q2E2,11/04/2021 14:02,11/04/2021 14:02,Utility Account to Organization Settlement Account,Completed,,-29000,0,TRUE,Utility Account to Organization Settlement Account,887075 - ANCIENT WELLS LTD 3,,
PDA4NQMC92,10/04/2021 11:07,10/04/2021 11:07,Pay Bill Online from 254703176849 - ROYAL MUYA Acc. F2,Completed,4000,,29000,TRUE,Pay Utility with OD Online,254703176849 - ROYAL MUYA,,F2
PDA2NLA1IO,10/04/2021 09:08,10/04/2021 09:08,Pay Bill from 254725085735 - MATTHEW MULI MUTUKU Acc. mercymulib6p,Completed,8500,,25000,TRUE,Pay Utility,254725085735 - MATTHEW MULI MUTUKU,,mercymulib6p
PD95NCPH0N,09/04/2021 21:22,09/04/2021 21:22,Pay Bill from 254727585857 - PETER MUOKI NGUNDO Acc. Peter ngundo e6,Completed,8500,,16500,TRUE,Pay Utility,254727585857 - PETER MUOKI NGUNDO,,Peter
PD91N4HKHF,09/04/2021 19:05,09/04/2021 19:05,Pay Bill from 254701339690 - ASHA BAGANWA NDAHIRU Acc. F3,Completed,8000,,8000,TRUE,Pay Utility,254701339690 - ASHA BAGANWA NDAHIRU,,F3
PD93MJJ0TT,09/04/2021 12:55,09/04/2021 12:55,Utility Account to Organization Settlement Account,Completed,,-8500,0,TRUE,Utility Account to Organization Settlement Account,887075 - ANCIENT WELLS LTD 3,,
PD98MGPYFG,09/04/2021 11:55,09/04/2021 11:55,Pay Bill from 254728664261 - LEVIN INGATI NYONJE Acc. B5,Completed,8500,,8500,TRUE,Pay Utility,254728664261 - LEVIN INGATI NYONJE,,B5
PD89KVL7KF,08/04/2021 08:23,08/04/2021 08:23,Utility Account to Organization Settlement Account,Completed,,-13500,0,TRUE,Utility Account to Organization Settlement Account,887075 - ANCIENT WELLS LTD 3,,
PD76KRFU2M,07/04/2021 23:29,07/04/2021 23:29,Pay Bill from 254713229967 - John Mugabo Simba Acc. E4,Completed,8500,,13500,TRUE,Pay Utility,254713229967 - John Mugabo Simba,,E4
PD79K6WT93,07/04/2021 16:45,07/04/2021 16:45,Pay Bill from 254703451075 - SHICHENGA MARK Acc. D2,Completed,5000,,5000,TRUE,Pay Utility,254703451075 - SHICHENGA MARK,,D2
PD76K5QCQW,07/04/2021 16:23,07/04/2021 16:23,Utility Account to Organization Settlement Account,Completed,,-41000,0,TRUE,Utility Account to Organization Settlement Account,887075 - ANCIENT WELLS LTD 3,,
PD79K5PI4H,07/04/2021 16:22,07/04/2021 16:22,Pay Bill from 254701379512 - veronicah minoo mwanza Acc. C3,Completed,17000,,41000,TRUE,Pay Utility,254701379512 - veronicah minoo mwanza,,C3
PD74K4I6UQ,07/04/2021 15:59,07/04/2021 15:59,Pay Bill from 254792976771 - DANIEL MUTHAMA NDUNDA Acc. F1,Completed,8000,,24000,TRUE,Pay Utility with OD via STK,254792976771 - DANIEL MUTHAMA NDUNDA,,F1
PD68JCB8TE,06/04/2021 21:03,06/04/2021 21:03,Pay Bill from 254721539716 - OCTAVIAN MWANYALO Acc. C6,Completed,8000,,16000,TRUE,Pay Utility,254721539716 - OCTAVIAN MWANYALO,,C6
PD62IVUU6C,06/04/2021 16:54,06/04/2021 16:54,Pay Bill from 254701330588 - EDGER WAFULA BUTALI Acc. D1,Completed,8000,,8000,TRUE,Pay Utility,254701330588 - EDGER WAFULA BUTALI,,D1
PD65IGZDI5,06/04/2021 11:54,06/04/2021 11:54,Utility Account to Organization Settlement Account,Completed,,-5000,0,TRUE,Utility Account to Organization Settlement Account,887075 - ANCIENT WELLS LTD 3,,
PD69IARMVB,06/04/2021 09:34,06/04/2021 09:34,Pay Bill from 254790837715 - JULIUS MWASHUMBE MAGHANGA Acc. F5,Completed,5000,,5000,TRUE,Pay Utility,254790837715 - JULIUS MWASHUMBE MAGHANGA,,F5
PD50HIYKC4,05/04/2021 15:47,05/04/2021 15:47,Utility Account to Organization Settlement Account,Completed,,-21000,0,TRUE,Utility Account to Organization Settlement Account,887075 - ANCIENT WELLS LTD 3,,
PD52HEU2TA,05/04/2021 14:20,05/04/2021 14:20,Pay Bill from 254717465142 - EPHANTUS IRURA Acc. C4 MURIITHI,Completed,8500,,21000,TRUE,Pay Utility,254717465142 - EPHANTUS IRURA,,C4
PD55HBHJLZ,05/04/2021 13:09,05/04/2021 13:09,Pay Bill from 254727725587 - IVY MACHARIA Acc. B2,Completed,12500,,12500,TRUE,Pay Utility,254727725587 - IVY MACHARIA,,B2
PD35EVA591,03/04/2021 13:50,03/04/2021 13:50,Utility Account to Organization Settlement Account,Completed,,-8500,0,TRUE,Utility Account to Organization Settlement Account,887075 - ANCIENT WELLS LTD 3,,
PD31EO0PYT,03/04/2021 11:28,03/04/2021 11:28,Pay Bill from 254703246217 - AMBROSE ADOCHE MIRASI Acc. D4,Completed,8500,,8500,TRUE,Pay Utility,254703246217 - AMBROSE ADOCHE MIRASI,,D4
PD39EC368L,03/04/2021 04:44,03/04/2021 04:44,Utility Account to Organization Settlement Account,Completed,,-25500,0,TRUE,Utility Account to Organization Settlement Account,887075 - ANCIENT WELLS LTD 3,,
PD22DQLZCK,02/04/2021 16:42,02/04/2021 16:42,Pay Bill from 254727725587 - IVY MACHARIA Acc. B2,Completed,8500,,25500,TRUE,Pay Utility,254727725587 - IVY MACHARIA,,B2
PD10CK97BQ,01/04/2021 18:44,01/04/2021 18:44,Pay Bill Online from 254724871526 - JOHN KAGUONGO Acc. D5 JOHN KAGUONGO,Completed,8500,,17000,TRUE,Pay Bill Online,254724871526 - JOHN KAGUONGO,,D5
PD15CA7FGP,01/04/2021 15:57,01/04/2021 15:57,Pay Bill Online from 254795983642 - OBED MOGAKA Acc. F6 OBED ,Completed,8500,,8500,TRUE,Pay Bill Online,254795983642 - OBED MOGAKA,,F6
PD19BM7EUF,01/04/2021 06:50,01/04/2021 06:50,Utility Account to Organization Settlement Account,Completed,,-8500,0,TRUE,Utility Account to Organization Settlement Account,887075 - ANCIENT WELLS LTD 3,,
