Receipt No.,Completion Time,Initiation Time,Details,Transaction Status,Paid In,Withdrawn,Balance,Balance Confirmed,Reason Type,Other Party Info,Linked Transaction ID,A/C No.
OB61VKV9HX,06/02/2020 17:32,06/02/2020 17:32,Pay Bill from 254727648419 - ABDISALAN AHMED Acc. JBH,Completed,17000,,636500,TRUE,Pay Utility,254727648419 - ABDISALAN AHMED,,JBH
OB63VIRK25,06/02/2020 16:29,06/02/2020 16:29,Pay Bill from 254722940643 - HERBERT MAVIAH ISWEKA Acc. HCG,Completed,10000,,619500,TRUE,Pay Utility,254722940643 - HERBERT MAVIAH ISWEKA,,HCG
OB64VI94ZM,06/02/2020 16:12,06/02/2020 16:12,Pay Bill from 254707626705 - MERCY KINANU NGAINE Acc. IGC,Completed,14000,,609500,TRUE,Pay Utility,254707626705 - MERCY KINANU NGAINE,,IGC
OB67VHR1UB,06/02/2020 15:55,06/02/2020 15:55,Pay Bill from 254720044312 - ELIUD KIPKURUI Acc. FCF,Completed,17000,,595500,TRUE,Pay Utility with OD via STK,254720044312 - ELIUD KIPKURUI,,FCF
OB63VEZO3L,06/02/2020 14:18,06/02/2020 14:18,Pay Bill from 254708851939 - VENANT MBOGHO Acc. kch,Completed,10000,,578500,TRUE,Pay Utility with OD via STK,254708851939 - VENANT MBOGHO,,kch
OB64VEZ324,06/02/2020 14:17,06/02/2020 14:17,Pay Bill from 254726227698 - Victor Omondi Acc. DEA,Completed,10000,,568500,TRUE,Pay Utility,254726227698 - Victor Omondi,,DEA
OB67VERB4Z,06/02/2020 14:09,06/02/2020 14:09,Pay Bill Online from 0743369961 - SALOME WANGARI KIBUGI Acc. KGD,Completed,10000,,558500,TRUE,Pay Bill Online,0743369961 - SALOME WANGARI KIBUGI,,KGD
OB64VCHH66,06/02/2020 12:50,06/02/2020 12:50,Pay Bill from 254724398579 - PETER DAVID OWINO OLENDI Acc. HBE,Completed,10500,,548500,TRUE,Pay Utility,254724398579 - PETER DAVID OWINO OLENDI,,HBE
OB68VBWGLC,06/02/2020 12:29,06/02/2020 12:29,Pay Bill from 254724423882 - JOEL GICHURI KARANJA Acc. Fee,Completed,16000,,538000,TRUE,Pay Utility,254724423882 - JOEL GICHURI KARANJA,,Fee
OB63VAXZH7,06/02/2020 11:55,06/02/2020 11:55,Pay Bill from 254729392595 - WINNIE KERE Acc. JBF,Completed,8000,,522000,TRUE,Pay Utility,254729392595 - WINNIE KERE,,JBF
OB69VAW6UF,06/02/2020 11:53,06/02/2020 11:53,Pay Bill from 254726929809 - MERCY YAA Acc. jbj,Completed,15000,,514000,TRUE,Pay Utility with OD via STK,254726929809 - MERCY YAA,,jbj
OB64V9T4M4,06/02/2020 11:14,06/02/2020 11:14,Pay Bill from 254725475321 - ANTONY MWANGI Acc. IEH,Completed,17000,,499000,TRUE,Pay Utility,254725475321 - ANTONY MWANGI,,IEH
OB61V8HC4J,06/02/2020 10:26,06/02/2020 10:26,Pay Bill from 254705207723 - LATIFA ALI BAKARI JUMA Acc. KFI,Completed,12000,,482000,TRUE,Pay Utility,254705207723 - LATIFA ALI BAKARI JUMA,,KFI
OB61V7U6AH,06/02/2020 10:03,06/02/2020 10:03,Pay Bill from 0758591833 - DORCUS MBULA PETER Acc. JEF,Completed,8000,,470000,TRUE,Pay Utility,0758591833 - DORCUS MBULA PETER,,JEF
OB61V7OSQZ,06/02/2020 09:58,06/02/2020 09:58,Pay Bill from 254724777705 - COLLINS AKASA Acc. KGK ,Completed,13000,,462000,TRUE,Pay Utility,254724777705 - COLLINS AKASA,,KGK
OB66V6UIHY,06/02/2020 09:26,06/02/2020 09:26,Pay Bill from 254722387899 - ADAN ALI Acc. Jba,Completed,22000,,449000,TRUE,Pay Utility,254722387899 - ADAN ALI,,Jba
OB68V5YWQ0,06/02/2020 08:51,06/02/2020 08:51,Pay Bill from 254706159636 - titus abuodha Acc. HBC,Completed,12000,,427000,TRUE,Pay Utility,254706159636 - titus abuodha,,HBC
OB67V5Y7K5,06/02/2020 08:50,06/02/2020 08:50,Pay Bill from 254710381003 - ALFRED KISHOIN Acc. IBC ,Completed,9500,,415000,TRUE,Pay Utility,254710381003 - ALFRED KISHOIN,,IBC
OB66V5RJ9K,06/02/2020 08:42,06/02/2020 08:42,Pay Bill from 254729948896 - CAROLINE V MILIZA Acc. Fec,Completed,4500,,405500,TRUE,Pay Utility,254729948896 - CAROLINE V MILIZA,,Fec
OB65V53MRH,06/02/2020 08:13,06/02/2020 08:13,Pay Bill from 254721115404 - Justine Fayuma Okwemba Acc. HAA,Completed,15300,,401000,TRUE,Pay Utility,254721115404 - Justine Fayuma Okwemba,,HAA
OB65V50Q3Z,06/02/2020 08:09,06/02/2020 08:09,Pay Bill from 254721115404 - Justine Fayuma Okwemba Acc. HAA,Completed,1700,,385700,TRUE,Pay Utility,254721115404 - Justine Fayuma Okwemba,,HAA
OB66V50IM0,06/02/2020 08:08,06/02/2020 08:08,Pay Bill Online from 254717809935 - LYDIAH WERU Acc. IDC,Completed,9500,,384000,TRUE,Pay Utility with OD Online,254717809935 - LYDIAH WERU,,IDC
OB67V4HGMR,06/02/2020 07:39,06/02/2020 07:39,Pay Bill Online from 254714889853 - EUNICE WAIRIMU MWANGI Acc. kge,Completed,9000,,374500,TRUE,Pay Bill Online,254714889853 - EUNICE WAIRIMU MWANGI,,kge
OB62V485W2,06/02/2020 07:22,06/02/2020 07:22,Pay Bill from 254721308646 - ISAAK ADAN ABDULLA Acc. Jbd,Completed,17000,,365500,TRUE,Pay Utility,254721308646 - ISAAK ADAN ABDULLA,,Jbd
