Receipt No.,Completion Time,Initiation Time,Details,Transaction Status,Paid In,Withdrawn,Balance,Balance Confirmed,Reason Type,Other Party Info,Linked Transaction ID,A/C No.
QIG82POW4Q,16/09/2022 08:25,16/09/2022 08:25,Pay Bill from 254724018163 - IRENE MUENI WILLY Acc. A4,Completed,12000,,14000,TRUE,Pay Utility,254724018163 - IRENE MUENI WILLY,,A4
QIF91JS21X,15/09/2022 16:47,15/09/2022 16:47,Pay Bill Online from 254703176849 - ROYAL MUYA Acc. F2,Completed,2000,,2000,TRUE,Pay Bill Online,254703176849 - ROYAL MUYA,,F2
QIE4YASNJA,14/09/2022 15:55,14/09/2022 15:55,Utility Account to Organization Settlement Account,Completed,,-42500,0,TRUE,Utility Account to Organization Settlement Account,887075 - ANCIENT WELLS LTD 3,,
QIE9XRQ7D3,14/09/2022 11:39,14/09/2022 11:39,Pay Bill from 254715020357 - ELIZABETH NJERI WARARI Acc. C2,Completed,7500,,42500,TRUE,Pay Utility,254715020357 - ELIZABETH NJERI WARARI,,C2
QID4VPRIQC,13/09/2022 10:55,13/09/2022 10:55,Utility Account to Organization Settlement Account,Completed,,-200000,35000,TRUE,Utility Account to Organization Settlement Account,887075 - ANCIENT WELLS LTD 3,,
QIC9UOY2BD,12/09/2022 18:51,12/09/2022 18:51,Pay Bill from 254714597495 - WAMBUA KIOKO Acc. c1,Completed,8000,,235000,TRUE,Pay Utility,254714597495 - WAMBUA KIOKO,,c1
QI90NHXCAK,09/09/2022 12:52,09/09/2022 12:52,Pay Bill from 0114093036 - Cecillia Njeri Githui Acc. C3,Completed,8000,,227000,TRUE,Pay Utility,0114093036 - Cecillia Njeri Githui,,C3
QI96NH6DKC,09/09/2022 12:41,09/09/2022 12:41,Pay Bill from 0704120519 - Mildred   Adhiambo Acc. G1,Completed,8000,,219000,TRUE,Pay Utility,0704120519 - Mildred   Adhiambo,,G1
QI90NH4T16,09/09/2022 12:41,09/09/2022 12:41,Pay Bill from 254713229967 - John Mugabo Simba Acc. E4,Completed,5000,,211000,TRUE,Pay Utility with OD via STK,254713229967 - John Mugabo Simba,,E4
QI98N7X3Q6,09/09/2022 10:31,09/09/2022 10:31,Pay Bill from 254720086214 - SAMUEL WANJIKU Acc. B3,Completed,11000,,206000,TRUE,Pay Utility,254720086214 - SAMUEL WANJIKU,,B3
QI79KACDM7,07/09/2022 19:49,07/09/2022 19:49,Pay Bill from 0799912339 - PETER KAMAU MURIU Acc. C5,Completed,10000,,195000,TRUE,Pay Utility,0799912339 - PETER KAMAU MURIU,,C5
QI76K41OSO,07/09/2022 18:55,07/09/2022 18:55,Pay Bill from 254727585857 - PETER MUOKI NGUNDO Acc. Peter Ngundo e6 ,Completed,8500,,185000,TRUE,Pay Utility,254727585857 - PETER MUOKI NGUNDO,,Peter
QI73K1NI3D,07/09/2022 18:34,07/09/2022 18:34,Pay Bill from 0743437540 - Susan Nduta Muiruri Acc. B2,Completed,8800,,176500,TRUE,Pay Utility with OD via STK,0743437540 - Susan Nduta Muiruri,,B2
QI73J9M6B1,07/09/2022 13:00,07/09/2022 13:00,Pay Bill from 0720571944 - Ronoh   Benard Acc. D2,Completed,6000,,167700,TRUE,Pay Utility,0720571944 - Ronoh   Benard,,D2
QI78IU0R7Q,07/09/2022 09:15,07/09/2022 09:15,Pay Bill from 254726945691 - JAMES RAMTU Acc. B5,Completed,8500,,161700,TRUE,Pay Utility,254726945691 - JAMES RAMTU,,B5
QI79ING66F,07/09/2022 07:11,07/09/2022 07:11,Pay Bill Online from 254711877988 - PATRICK KONZI Acc. b4,Completed,8500,,153200,TRUE,Pay Utility with OD Online,254711877988 - PATRICK KONZI,,b4
QI62I2SKHW,06/09/2022 19:20,06/09/2022 19:20,Pay Bill from 254721539716 - OCTAVIAN MWANYALO Acc. C6,Completed,8000,,144700,TRUE,Pay Utility,254721539716 - OCTAVIAN MWANYALO,,C6
QI64HN4SXO,06/09/2022 16:52,06/09/2022 16:52,Pay Bill Online from 254720201157 - BENSON INYANJE MWAKHA Acc. b6,Completed,8500,,136700,TRUE,Pay Utility with OD Online,254720201157 - BENSON INYANJE MWAKHA,,b6
QI68HKUHBI,06/09/2022 16:25,06/09/2022 16:25,Pay Bill Online from 254703176849 - ROYAL MUYA Acc. F2,Completed,5000,,128200,TRUE,Pay Utility with OD Online,254703176849 - ROYAL MUYA,,F2
QI62H3QT8O,06/09/2022 12:40,06/09/2022 12:40,Pay Bill from 254710248036 - Allan Kimeu Mutua Acc. F5,Completed,8700,,123200,TRUE,Pay Utility,254710248036 - Allan Kimeu Mutua,,F5
QI63GQPDIZ,06/09/2022 09:37,06/09/2022 09:37,Pay Bill from 0791565463 - Lilian Njeri Wakagwi Acc. F6,Completed,8500,,114500,TRUE,Pay Utility with OD via STK,0791565463 - Lilian Njeri Wakagwi,,F6
QI58F5L3M2,05/09/2022 13:49,05/09/2022 13:49,Pay Bill from 254726645592 - Ephantus Muriithi Irura Acc. c4 muriithi,Completed,8500,,106000,TRUE,Pay Utility,254726645592 - Ephantus Muriithi Irura,,c4
QI49CP8F1N,04/09/2022 09:56,04/09/2022 09:56,Pay Bill from 254791341895 - Enos Nyaosi Ayuma Acc. D5,Completed,8500,,97500,TRUE,Pay Utility,254791341895 - Enos Nyaosi Ayuma,,D5
QI46CMB4TS,04/09/2022 09:06,04/09/2022 09:06,Pay Bill from 0719349205 - Christabel Gakii Munene Acc. D1,Completed,8000,,89000,TRUE,Pay Utility,0719349205 - Christabel Gakii Munene,,D1
QI33CA4SYF,03/09/2022 22:03,03/09/2022 22:03,Pay Bill from 0715030019 - Omwenga Ong'era Stephen Acc. E1,Completed,8000,,81000,TRUE,Pay Utility,0715030019 - Omwenga Ong'era Stephen,,E1
QI32AV6T7E,03/09/2022 12:36,03/09/2022 12:36,Pay Bill Online from 254706722732 - NAOMY ACHIENG OYUGI Acc. E5,Completed,8500,,73000,TRUE,Pay Bill Online,254706722732 - NAOMY ACHIENG OYUGI,,E5
QI2395JVNB,02/09/2022 16:11,02/09/2022 16:11,Pay Bill from 254714419834 - FAITH MWIKALI MUTHAMA Acc. d4,Completed,8500,,64500,TRUE,Pay Utility,254714419834 - FAITH MWIKALI MUTHAMA,,d4
QI298JSWYN,02/09/2022 11:21,02/09/2022 11:21,Pay Bill from 254722706516 - KORIR ANTHONY Acc. Anthony D 3,Completed,8000,,56000,TRUE,Pay Utility,254722706516 - KORIR ANTHONY,,Anthony
QI156TLDNN,01/09/2022 14:43,01/09/2022 14:43,Pay Bill Online from 254790130650 - CELESTINE AMBOKA Acc. B1,Completed,16000,,48000,TRUE,Pay Bill Online,254790130650 - CELESTINE AMBOKA,,B1
