Receipt No.,Completion Time,Initiation Time,Details,Transaction Status,Paid In,Withdrawn,Balance,Balance Confirmed,Reason Type,Other Party Info,Linked Transaction ID,A/C No.
OBC91LALWJ,12/02/2020 19:44,12/02/2020 19:44,Pay Bill from 254705133053 - PASCAL OPAR Acc. pascalv45,Completed,600,,13800,TRUE,Pay Utility,254705133053 - PASCAL OPAR,,pascalv45
OBC11L8AH9,12/02/2020 19:42,12/02/2020 19:42,Pay Bill from 254705133053 - PASCAL OPAR Acc. pascalv45,Completed,6600,,13200,TRUE,Pay Utility,254705133053 - PASCAL OPAR,,pascalv45
OBB5ZRTIJH,11/02/2020 19:22,11/02/2020 19:22,Pay Bill from 254712305555 - peris kiragu Acc. V17,Completed,6600,,6600,TRUE,Pay Utility,254712305555 - peris kiragu,,V17
OBB7ZAEME7,11/02/2020 09:16,11/02/2020 09:16,Utility Account to Organization Settlement Account,Completed,,-37900,0,TRUE,Utility Account to Organization Settlement Account,887674 - ANCIENT WELLS LTD 1,,
