Receipt No.,Completion Time,Initiation Time,Details,Transaction Status,Paid In,Withdrawn,Balance,Balance Confirmed,Reason Type,Other Party Info,Linked Transaction ID,A/C No.
QGO715ZV7N,24/07/2022 17:54,24/07/2022 17:54,Pay Bill from 254704375822 - EDEL NJOKI KIMANI Acc. f3,Completed,2500,,41800,TRUE,Pay Utility,254704375822 - EDEL NJOKI KIMANI,,f3
QGN6Y3BYZO,23/07/2022 16:09,23/07/2022 16:09,Pay Bill Online from 254703176849 - ROYAL MUYA Acc. F2,Completed,3000,,39300,TRUE,Pay Bill Online,254703176849 - ROYAL MUYA,,F2
QGM8WC7EO4,22/07/2022 17:55,22/07/2022 17:55,Pay Bill from 254711428856 - JAPHETH OTSIENO BARASA Acc. Japheth Barasa A5,Completed,11000,,36300,TRUE,Pay Utility,254711428856 - JAPHETH OTSIENO BARASA,,Japheth
QGM3W5XVM5,22/07/2022 16:40,22/07/2022 16:40,Pay Bill from 0700188125 - JOHN MUGABO SIMBA Acc. E4,Completed,2000,,25300,TRUE,Pay Utility,0700188125 - JOHN MUGABO SIMBA,,E4
QGM0VSVZCI,22/07/2022 13:34,22/07/2022 13:34,Pay Bill Online from 254713295711 - JAMES CHEGE KAMAU Acc. A/2,Completed,15000,,23300,TRUE,Pay Bill Online,254713295711 - JAMES CHEGE KAMAU,,A/2
QGJ0R7LXW0,19/07/2022 23:25,19/07/2022 23:25,Pay Bill Online from 254720062144 - CAROLINE AMONDI OKELO Acc. f4,Completed,8100,,8300,TRUE,Pay Utility with OD Online,254720062144 - CAROLINE AMONDI OKELO,,f4
QGJ0Q40D5W,19/07/2022 14:23,19/07/2022 14:23,Pay Bill Online from 254720201157 - BENSON INYANJE MWAKHA Acc. b6,Completed,200,,200,TRUE,Pay Utility with OD Online,254720201157 - BENSON INYANJE MWAKHA,,b6
QGJ4POASGQ,19/07/2022 10:31,19/07/2022 10:31,Utility Account to Organization Settlement Account,Completed,,-144900,0,TRUE,Utility Account to Organization Settlement Account,887075 - ANCIENT WELLS LTD 3,,
QGF2IDC1XU,15/07/2022 15:21,15/07/2022 15:21,Pay Bill from 0799912339 - PETER KAMAU MURIU Acc. C5,Completed,8500,,144900,TRUE,Pay Utility,0799912339 - PETER KAMAU MURIU,,C5
QGC1D6YB2F,12/07/2022 21:03,12/07/2022 21:03,Pay Bill from 254714597495 - WAMBUA KIOKO Acc. c1,Completed,8000,,136400,TRUE,Pay Utility,254714597495 - WAMBUA KIOKO,,c1
QGC3CJOJDL,12/07/2022 17:07,12/07/2022 17:07,Pay Bill from 254724018163 - IRENE MUENI WILLY Acc. A4,Completed,12400,,128400,TRUE,Pay Utility,254724018163 - IRENE MUENI WILLY,,A4
QGB5A49S2R,11/07/2022 14:24,11/07/2022 14:24,Pay Bill from 254713229967 - John Mugabo Simba Acc. E4,Completed,5000,,116000,TRUE,Pay Utility with OD via STK,254713229967 - John Mugabo Simba,,E4
QG956STXP9,09/07/2022 18:50,09/07/2022 18:50,Pay Bill Online from 254703176849 - ROYAL MUYA Acc. F2,Completed,4000,,111000,TRUE,Pay Utility with OD Online,254703176849 - ROYAL MUYA,,F2
QG916GPJM3,09/07/2022 16:40,09/07/2022 16:40,Pay Bill from 254727585857 - PETER MUOKI NGUNDO Acc. Peter Ngundo e6,Completed,8500,,107000,TRUE,Pay Utility,254727585857 - PETER MUOKI NGUNDO,,Peter
QG9265U11Y,09/07/2022 14:20,09/07/2022 14:20,Pay Bill from 0791565463 - Lilian Njeri Wakagwi Acc. F6,Completed,8500,,98500,TRUE,Pay Utility,0791565463 - Lilian Njeri Wakagwi,,F6
QG975GQ0HD,09/07/2022 08:23,09/07/2022 08:23,Pay Bill from 254726945691 - JAMES RAMTU Acc. B5,Completed,8500,,90000,TRUE,Pay Utility,254726945691 - JAMES RAMTU,,B5
QG864A35CC,08/07/2022 16:23,08/07/2022 16:23,Pay Bill from 254703176849 - ROYAL MUYA Acc. F2,Completed,3000,,81500,TRUE,Pay Utility with OD via STK,254703176849 - ROYAL MUYA,,F2
QG722XECX8,07/07/2022 21:05,07/07/2022 21:05,Pay Bill Online from 254711877988 - PATRICK KONZI Acc. b4,Completed,8500,,78500,TRUE,Pay Utility with OD Online,254711877988 - PATRICK KONZI,,b4
QG62ZRKXPM,06/07/2022 21:00,06/07/2022 21:00,Pay Bill from 0743437540 - Susan Nduta Muiruri Acc. B2,Completed,8000,,70000,TRUE,Pay Utility,0743437540 - Susan Nduta Muiruri,,B2
QG63Z9BWT7,06/07/2022 18:11,06/07/2022 18:11,Pay Bill Online from 254704213191 - VALENTINE WAVINYA Acc. e3,Completed,8000,,62000,TRUE,Pay Utility with OD Online,254704213191 - VALENTINE WAVINYA,,e3
QG62YG9EQ8,06/07/2022 12:11,06/07/2022 12:11,Pay Bill from 254710248036 - Allan Kimeu Mutua Acc. F5,Completed,8500,,54000,TRUE,Pay Utility,254710248036 - Allan Kimeu Mutua,,F5
QG67Y536SL,06/07/2022 09:37,06/07/2022 09:37,Pay Bill from 0720571944 - Ronoh   Benard Acc. D2,Completed,8000,,45500,TRUE,Pay Utility,0720571944 - Ronoh   Benard,,D2
QG58XKO63W,05/07/2022 20:47,05/07/2022 20:47,Pay Bill from 254706248362 - BERYL HUMA Acc. E5,Completed,8500,,37500,TRUE,Pay Utility,254706248362 - BERYL HUMA,,E5
QG58XJUHI6,05/07/2022 20:38,05/07/2022 20:38,Pay Bill from 0114093036 - Cecillia Njeri Githui Acc. C3,Completed,13000,,29000,TRUE,Pay Utility,0114093036 - Cecillia Njeri Githui,,C3
QG56XD9DS0,05/07/2022 19:37,05/07/2022 19:37,Pay Bill from 0115708408 - MICHAEL ELIZA WANJALA Acc. G2,Completed,8000,,16000,TRUE,Pay Utility,0115708408 - MICHAEL ELIZA WANJALA,,G2
QG58X9X31E,05/07/2022 19:10,05/07/2022 19:10,Pay Bill from 254721539716 - OCTAVIAN MWANYALO Acc. C6,Completed,8000,,8000,TRUE,Pay Utility,254721539716 - OCTAVIAN MWANYALO,,C6
QG50W8TWCM,05/07/2022 11:45,05/07/2022 11:45,Utility Account to Organization Settlement Account,Completed,,-17000,0,TRUE,Utility Account to Organization Settlement Account,887075 - ANCIENT WELLS LTD 3,,
QG58W0GY1U,05/07/2022 09:48,05/07/2022 09:48,Pay Bill from 254717465142 - EPHANTUS IRURA Acc. c4 muriithi,Completed,8500,,17000,TRUE,Pay Utility,254717465142 - EPHANTUS IRURA,,c4
QG44VCNGES,04/07/2022 20:12,04/07/2022 20:12,Pay Bill Online from 254720201157 - BENSON INYANJE MWAKHA Acc. b6,Completed,8500,,8500,TRUE,Pay Utility with OD Online,254720201157 - BENSON INYANJE MWAKHA,,b6
QG33SSO0KX,03/07/2022 17:04,03/07/2022 17:04,Utility Account to Organization Settlement Account,Completed,,-20500,0,TRUE,Utility Account to Organization Settlement Account,887075 - ANCIENT WELLS LTD 3,,
QG36SDRG66,03/07/2022 13:35,03/07/2022 13:35,Pay Bill from 254791341895 - Enos Nyaosi Ayuma Acc. D5,Completed,12500,,20500,TRUE,Pay Utility,254791341895 - Enos Nyaosi Ayuma,,D5
QG30S9I0DM,03/07/2022 12:28,03/07/2022 12:28,Pay Bill from 0719349205 - Christabel Gakii Munene Acc. D1,Completed,8000,,8000,TRUE,Pay Utility,0719349205 - Christabel Gakii Munene,,D1
QG29QY437P,02/07/2022 18:05,02/07/2022 18:05,Utility Account to Organization Settlement Account,Completed,,-16500,0,TRUE,Utility Account to Organization Settlement Account,887075 - ANCIENT WELLS LTD 3,,
QG26QVNOOS,02/07/2022 17:39,02/07/2022 17:39,Pay Bill from 254720439955 - GEOPHRY OKOTH Acc. D6,Completed,8500,,16500,TRUE,Pay Utility,254720439955 - GEOPHRY OKOTH,,D6
QG29QFB72D,02/07/2022 14:15,02/07/2022 14:15,Pay Bill from 254720086214 - SAMUEL WANJIKU Acc. B3,Completed,8000,,8000,TRUE,Pay Utility,254720086214 - SAMUEL WANJIKU,,B3
QG29PU63A5,02/07/2022 09:30,02/07/2022 09:30,Utility Account to Organization Settlement Account,Completed,,-64000,0,TRUE,Utility Account to Organization Settlement Account,887075 - ANCIENT WELLS LTD 3,,
QG17PDJFB9,01/07/2022 21:27,01/07/2022 21:27,Pay Bill from 0715030019 - Omwenga Ong'era Stephen Acc. E1,Completed,8000,,64000,TRUE,Pay Utility,0715030019 - Omwenga Ong'era Stephen,,E1
QG19OP5QLX,01/07/2022 17:28,01/07/2022 17:28,Pay Bill from 254714419834 - FAITH MWIKALI MUTHAMA Acc. d4,Completed,8500,,56000,TRUE,Pay Utility,254714419834 - FAITH MWIKALI MUTHAMA,,d4
QG10NEZNFK,01/07/2022 06:29,01/07/2022 06:29,Pay Bill from 254722706516 - KORIR ANTHONY Acc. Anthony D 3,Completed,8000,,47500,TRUE,Pay Utility,254722706516 - KORIR ANTHONY,,Anthony
