Receipt No.,Completion Time,Initiation Time,Details,Transaction Status,Paid In,Withdrawn,Balance,Balance Confirmed,Reason Type,Other Party Info,Linked Transaction ID,A/C No.
QB88UMYRM8,08/02/2022 20:24,08/02/2022 20:24,Pay Bill Online from 254714597495 - WAMBUA KIOKO Acc. C1,Completed,8000,,14500,TRUE,Pay Bill Online,254714597495 - WAMBUA KIOKO,,C1
QB71RD3LHP,07/02/2022 07:59,07/02/2022 07:59,Pay Bill Online from 254703442069 - SALMA NASWA YUSUF Acc. B5,Completed,6500,,6500,TRUE,Pay Bill Online,254703442069 - SALMA NASWA YUSUF,,B5
QB64QGDE28,06/02/2022 16:41,06/02/2022 16:41,Utility Account to Organization Settlement Account,Completed,,-62500,0,TRUE,Utility Account to Organization Settlement Account,887075 - ANCIENT WELLS LTD 3,,
QB64QF2FL0,06/02/2022 16:22,06/02/2022 16:22,Pay Bill from 254722706516 - KORIR ANTHONY Acc. Anthony d 3 ,Completed,8000,,62500,TRUE,Pay Utility,254722706516 - KORIR ANTHONY,,Anthony
QB63Q3PRGB,06/02/2022 13:24,06/02/2022 13:24,Pay Bill from 254724018163 - IRENE MUENI WILLY Acc. A4,Completed,7000,,54500,TRUE,Pay Utility,254724018163 - IRENE MUENI WILLY,,A4
QB42NGL1CY,04/02/2022 21:36,04/02/2022 21:36,Pay Bill from 0799912339 - PETER KAMAU MURIU Acc. C5,Completed,8500,,47500,TRUE,Pay Utility,0799912339 - PETER KAMAU MURIU,,C5
QB40N6E27I,04/02/2022 19:39,04/02/2022 19:39,Pay Bill from 254706248362 - BERYL HUMA Acc. E5,Completed,8500,,39000,TRUE,Pay Utility,254706248362 - BERYL HUMA,,E5
QB47MT5U9H,04/02/2022 17:17,04/02/2022 17:17,Pay Bill from 254717465142 - EPHANTUS IRURA Acc. C4 muriithi,Completed,8500,,30500,TRUE,Pay Utility,254717465142 - EPHANTUS IRURA,,C4
QB49MCGW07,04/02/2022 13:10,04/02/2022 13:10,Pay Bill from 254724018163 - IRENE MUENI WILLY Acc. A4,Completed,22000,,22000,TRUE,Pay Utility,254724018163 - IRENE MUENI WILLY,,A4
QB49M6TZS9,04/02/2022 11:41,04/02/2022 11:41,Utility Account to Organization Settlement Account,Completed,,-67000,0,TRUE,Utility Account to Organization Settlement Account,887075 - ANCIENT WELLS LTD 3,,
QB41LWMAXN,04/02/2022 08:51,04/02/2022 08:51,Pay Bill from 0704120519 - Mildred   Adhiambo Acc. G1,Completed,8000,,67000,TRUE,Pay Utility,0704120519 - Mildred   Adhiambo,,G1
QB33LL20A9,03/02/2022 21:41,03/02/2022 21:41,Pay Bill from 254721539716 - OCTAVIAN MWANYALO Acc. C6,Completed,8000,,59000,TRUE,Pay Utility,254721539716 - OCTAVIAN MWANYALO,,C6
QB32KZZHOQ,03/02/2022 17:44,03/02/2022 17:44,Pay Bill from 0715030019 - Omwenga Ong'era Stephen Acc. E1,Completed,8000,,51000,TRUE,Pay Utility,0715030019 - Omwenga Ong'era Stephen,,E1
QB38KSF6XG,03/02/2022 15:58,03/02/2022 15:58,Pay Bill from 0720571944 - Ronoh   Benard Acc. D2,Completed,18500,,43000,TRUE,Pay Utility,0720571944 - Ronoh   Benard,,D2
QB20JBT22C,02/02/2022 18:52,02/02/2022 18:52,Pay Bill from 0719349205 - Christabel Gakii Munene Acc. D1,Completed,8000,,24500,TRUE,Pay Utility,0719349205 - Christabel Gakii Munene,,D1
QB27IB3YZB,02/02/2022 09:49,02/02/2022 09:49,Pay Bill from 254720086214 - SAMUEL WANJIKU Acc. B3,Completed,8000,,16500,TRUE,Pay Utility,254720086214 - SAMUEL WANJIKU,,B3
QB12HWLX6I,01/02/2022 21:40,01/02/2022 21:40,Pay Bill Online from 254711877988 - PATRICK KONZI Acc. b4,Completed,8500,,8500,TRUE,Pay Bill Online,254711877988 - PATRICK KONZI,,b4
QB10H6KMUK,01/02/2022 16:36,01/02/2022 16:36,Utility Account to Organization Settlement Account,Completed,,-42500,0,TRUE,Utility Account to Organization Settlement Account,887075 - ANCIENT WELLS LTD 3,,
QB19GWIRNX,01/02/2022 13:58,01/02/2022 13:58,Pay Bill Online from 254724871526 - JOHN KAGUONGO Acc. D5 JOHN KAGUONGO,Completed,8500,,42500,TRUE,Pay Bill Online,254724871526 - JOHN KAGUONGO,,D5
QB16G7GKOS,01/02/2022 04:33,01/02/2022 04:33,Pay Bill Online from 254715020357 - ELIZABETH NJERI WARARI Acc. C2,Completed,7500,,34000,TRUE,Pay Bill Online,254715020357 - ELIZABETH NJERI WARARI,,C2
