Receipt No.,Completion Time,Initiation Time,Details,Transaction Status,Paid In,Withdrawn,Balance,Balance Confirmed,Reason Type,Other Party Info,Linked Transaction ID,A/C No.
PIO0BB4IG0,24/09/2021 03:49,24/09/2021 03:49,Pay Bill from 254703555717 - SENGA SALIM Acc. hbb,Completed,1000,,161000,TRUE,Pay Utility,254703555717 - SENGA SALIM,,hbb
PIN3B2YS99,23/09/2021 20:17,23/09/2021 20:17,Pay Bill from 0718838251 - MARK KINYUA MAINA Acc. kfg,Completed,10000,,160000,TRUE,Pay Utility,0718838251 - MARK KINYUA MAINA,,kfg
PIN7AILZ2V,23/09/2021 15:27,23/09/2021 15:27,Pay Bill from 254729450678 - GRACE NDUNGE Acc. fba,Completed,15000,,150000,TRUE,Pay Utility with OD via STK,254729450678 - GRACE NDUNGE,,fba
PIN0AIHVK4,23/09/2021 15:25,23/09/2021 15:25,Pay Bill from 254759699509 - Amina Haji Salah Acc. JEH,Completed,21000,,135000,TRUE,Pay Utility,254759699509 - Amina Haji Salah,,JEH
PIN5A74D9H,23/09/2021 11:41,23/09/2021 11:41,Pay Bill from 254703528196 - ERIC GITONGA MUGO Acc. KGJ,Completed,7500,,114000,TRUE,Pay Utility with OD via STK,254703528196 - ERIC GITONGA MUGO,,KGJ
PIN0A1SVAA,23/09/2021 09:52,23/09/2021 09:52,Pay Bill from 254719499823 - MOSES MWANZIA MUTHIANI Acc. Jcc,Completed,8500,,106500,TRUE,Pay Utility with OD via STK,254719499823 - MOSES MWANZIA MUTHIANI,,Jcc
PIN3A01RZ5,23/09/2021 09:14,23/09/2021 09:14,Pay Bill from 254703375006 - KEN RODGERS Acc. FBC,Completed,20000,,98000,TRUE,Pay Utility,254703375006 - KEN RODGERS,,FBC
PIN19W6VVH,23/09/2021 07:38,23/09/2021 07:38,Pay Bill Online from 254720696119 - DUNCAN OMONDI OKETCH Acc. IAG,Completed,1000,,78000,TRUE,Pay Bill Online,254720696119 - DUNCAN OMONDI OKETCH,,IAG
PIM49S546M,22/09/2021 23:12,22/09/2021 23:12,Pay Bill from 254710965167 - KUSA STEPHANIE HAZEL Acc. JDC,Completed,11000,,77000,TRUE,Pay Utility,254710965167 - KUSA STEPHANIE HAZEL,,JDC
PIM89QJVM6,22/09/2021 21:57,22/09/2021 21:57,Pay Bill from 254703935626 - DAVID NGARI ITA Acc. FCD,Completed,1000,,66000,TRUE,Pay Utility,254703935626 - DAVID NGARI ITA,,FCD
PIM59Q1PTP,22/09/2021 21:43,22/09/2021 21:43,Pay Bill from 254725539787 - EVERLYNE MOGAKA Acc. KEF,Completed,10000,,65000,TRUE,Pay Utility,254725539787 - EVERLYNE MOGAKA,,KEF
PIM99PDD31,22/09/2021 21:27,22/09/2021 21:27,Pay Bill from 254719317219 - PHILIP MBOYA Acc. JDH,Completed,16000,,55000,TRUE,Pay Utility with OD via STK,254719317219 - PHILIP MBOYA,,JDH
PIM89GPDX2,22/09/2021 19:21,22/09/2021 19:21,Pay Bill Online from 254759699509 - Amina Haji Salah Acc. JEH,Completed,12000,,39000,TRUE,Pay Bill Online,254759699509 - Amina Haji Salah,,JEH
PIM494LRVM,22/09/2021 16:45,22/09/2021 16:45,Pay Bill from 254719134037 - KELVIN KITOO Acc. FAA,Completed,17000,,27000,TRUE,Pay Utility,254719134037 - KELVIN KITOO,,FAA
PIM98OP3YZ,22/09/2021 11:42,22/09/2021 11:42,Pay Bill from 0711117122 - Yassir Mwinyi Abdulrazaq Acc. ICE,Completed,1000,,10000,TRUE,Pay Utility,0711117122 - Yassir Mwinyi Abdulrazaq,,ICE
PIL085Q7ZY,21/09/2021 20:54,21/09/2021 20:54,Pay Bill from 254719439717 - Cecilia Omondi Acc. hfc,Completed,9000,,9000,TRUE,Pay Utility,254719439717 - Cecilia Omondi,,hfc
PIL677MTN8,21/09/2021 11:54,21/09/2021 11:54,Utility Account to Organization Settlement Account,Completed,,-89150,0,TRUE,Utility Account to Organization Settlement Account,979524 - ANCIENT WELLS PROPERTY MANAGERS 2,,
PIK76Q9F3D,20/09/2021 21:57,20/09/2021 21:57,Pay Bill from 254703935626 - DAVID NGARI ITA Acc. FCD,Completed,1000,,89150,TRUE,Pay Utility,254703935626 - DAVID NGARI ITA,,FCD
PIK866QH3K,20/09/2021 17:12,20/09/2021 17:12,Pay Bill from 254713281251 - ERIC KIAMA Acc. JDI,Completed,3650,,88150,TRUE,Pay Utility,254713281251 - ERIC KIAMA,,JDI
PIK16412UN,20/09/2021 16:27,20/09/2021 16:27,Pay Bill from 254798674917 - Egbe Okpaga Okpaga Acc. HAD,Completed,9500,,84500,TRUE,Pay Utility,254798674917 - Egbe Okpaga Okpaga,,HAD
PIK161BH97,20/09/2021 15:36,20/09/2021 15:36,Pay Bill from 0715688238 - JOANNAH ATUHAIRE BANTU Acc. jae,Completed,9000,,75000,TRUE,Pay Utility,0715688238 - JOANNAH ATUHAIRE BANTU,,jae
PIK65XZ3A0,20/09/2021 14:31,20/09/2021 14:31,Pay Bill Online from 254715764212 - BANCE ISHEMINYE Acc. JFE ,Completed,3000,,66000,TRUE,Pay Bill Online,254715764212 - BANCE ISHEMINYE,,JFE
PIK75XRU2Z,20/09/2021 14:27,20/09/2021 14:27,Pay Bill from 254703555717 - SENGA SALIM Acc. hbb,Completed,1000,,63000,TRUE,Pay Utility,254703555717 - SENGA SALIM,,hbb
PIK25NS50Q,20/09/2021 11:14,20/09/2021 11:14,Pay Bill from 254725381062 - VICTOR MAITHYA Acc. HEG,Completed,4000,,62000,TRUE,Pay Utility,254725381062 - VICTOR MAITHYA,,HEG
PIJ859CB6A,19/09/2021 22:10,19/09/2021 22:10,Pay Bill from 254703935626 - DAVID NGARI ITA Acc. FCD,Completed,1000,,58000,TRUE,Pay Utility,254703935626 - DAVID NGARI ITA,,FCD
PII73VHE39,18/09/2021 22:12,18/09/2021 22:12,Pay Bill from 254703935626 - DAVID NGARI ITA Acc. FCD,Completed,1000,,57000,TRUE,Pay Utility,254703935626 - DAVID NGARI ITA,,FCD
PII82YNNHE,18/09/2021 13:37,18/09/2021 13:37,Pay Bill from 254722910078 - MAUREEN MUNYIVA MUTUKU Acc. DBD,Completed,25000,,56000,TRUE,Pay Utility,254722910078 - MAUREEN MUNYIVA MUTUKU,,DBD
PII02P4M2U,18/09/2021 10:43,18/09/2021 10:43,Pay Bill from 254723954911 - JAMES KILAVI Acc. ICG,Completed,9500,,31000,TRUE,Pay Utility,254723954911 - JAMES KILAVI,,ICG
PII82EVVO6,18/09/2021 05:51,18/09/2021 05:51,Pay Bill Online from 254720451253 - JIMMY KIOGORA NKIROTE Acc. kbd,Completed,2500,,21500,TRUE,Pay Utility with OD Online,254720451253 - JIMMY KIOGORA NKIROTE,,kbd
PIH42C0C30,17/09/2021 22:14,17/09/2021 22:14,Pay Bill from 254703935626 - DAVID NGARI ITA Acc. FCD,Completed,1000,,19000,TRUE,Pay Utility,254703935626 - DAVID NGARI ITA,,FCD
PIH31OMC7H,17/09/2021 16:26,17/09/2021 16:26,Pay Bill from 254703555717 - SENGA SALIM Acc. hbb,Completed,2000,,18000,TRUE,Pay Utility,254703555717 - SENGA SALIM,,hbb
PIH41IT9WU,17/09/2021 14:40,17/09/2021 14:40,Pay Bill from 254701047939 - Cyrus Wahome Acc. JAH,Completed,16000,,16000,TRUE,Pay Utility,254701047939 - Cyrus Wahome,,JAH
PIH411KXCC,17/09/2021 09:00,17/09/2021 09:00,Utility Account to Organization Settlement Account,Completed,,-12000,0,TRUE,Utility Account to Organization Settlement Account,979524 - ANCIENT WELLS PROPERTY MANAGERS 2,,
PIH7106V8B,17/09/2021 08:28,17/09/2021 08:28,Pay Bill from 254722458136 - NADI GOLICHA Acc. KAA,Completed,7000,,12000,TRUE,Pay Utility with OD via STK,254722458136 - NADI GOLICHA,,KAA
PIG5ZF93SP,16/09/2021 18:37,16/09/2021 18:37,Pay Bill from 0748059595 - Rashid NASSIR Khamis Acc. DDA,Completed,5000,,5000,TRUE,Pay Utility,0748059595 - Rashid NASSIR Khamis,,DDA
PIG8ZCPC4A,16/09/2021 18:04,16/09/2021 18:04,Utility Account to Organization Settlement Account,Completed,,-36100,0,TRUE,Utility Account to Organization Settlement Account,979524 - ANCIENT WELLS PROPERTY MANAGERS 2,,
PIG8ZACL9G,16/09/2021 17:31,16/09/2021 17:31,Pay Bill from 254799214498 - EMMILY LWAMBA Acc. KCF,Completed,4100,,36100,TRUE,Pay Utility,254799214498 - EMMILY LWAMBA,,KCF
PIG3Z01SBN,16/09/2021 14:28,16/09/2021 14:28,Pay Bill from 254710635630 - DONNA JESSICA OWANO Acc. KCC,Completed,3000,,32000,TRUE,Pay Utility,254710635630 - DONNA JESSICA OWANO,,KCC
PIG4YSXJ8C,16/09/2021 12:10,16/09/2021 12:10,Pay Bill from 254703555717 - SENGA SALIM Acc. hbb,Completed,2000,,29000,TRUE,Pay Utility,254703555717 - SENGA SALIM,,hbb
PIF7YCZUIX,15/09/2021 23:15,15/09/2021 23:15,Pay Bill Online from 254700322836 - FAIMA OLAD Acc. FDF,Completed,10000,,27000,TRUE,Pay Bill Online,254700322836 - FAIMA OLAD,,FDF
PIF2XUMNJU,15/09/2021 18:03,15/09/2021 18:03,Pay Bill Online from 254703375006 - KEN RODGERS Acc. DBA,Completed,17000,,17000,TRUE,Pay Bill Online,254703375006 - KEN RODGERS,,DBA
PIF5XSY4PB,15/09/2021 17:41,15/09/2021 17:41,Utility Account to Organization Settlement Account,Completed,,-164500,0,TRUE,Utility Account to Organization Settlement Account,979524 - ANCIENT WELLS PROPERTY MANAGERS 2,,
PIF0XK4CXS,15/09/2021 15:13,15/09/2021 15:13,Pay Bill Online from 254790549449 - ABUKAR MOHAMED Acc. HBA,Completed,17000,,164500,TRUE,Pay Bill Online,254790549449 - ABUKAR MOHAMED,,HBA
PIF0XJJGSU,15/09/2021 15:02,15/09/2021 15:02,Pay Bill Online from 254722249092 - MARIAM ABDULLAHI Acc. KEH,Completed,9000,,147500,TRUE,Pay Utility with OD Online,254722249092 - MARIAM ABDULLAHI,,KEH
PIF5XI8N3F,15/09/2021 14:38,15/09/2021 14:38,Pay Bill from 254703528196 - ERIC GITONGA MUGO Acc. KGJ,Completed,7500,,138500,TRUE,Pay Utility,254703528196 - ERIC GITONGA MUGO,,KGJ
PIF4XGQ7G6,15/09/2021 14:09,15/09/2021 14:09,Pay Bill from 254704111133 - ELVIS OTIENO Acc. HFD,Completed,11000,,131000,TRUE,Pay Utility,254704111133 - ELVIS OTIENO,,HFD
PIF0XFCD6G,15/09/2021 13:43,15/09/2021 13:43,Pay Bill Online from 254728886864 - MOULINE ONYANGO Acc. IAA,Completed,16000,,120000,TRUE,Pay Bill Online,254728886864 - MOULINE ONYANGO,,IAA
PIF6XASTD8,15/09/2021 12:17,15/09/2021 12:17,Pay Bill Online from 254715764212 - BANCE ISHEMINYE Acc. JFE,Completed,6000,,104000,TRUE,Pay Utility with OD Online,254715764212 - BANCE ISHEMINYE,,JFE
PIF3X9P065,15/09/2021 11:56,15/09/2021 11:56,Pay Bill from 254719134037 - KELVIN KITOO Acc. FAA,Completed,16000,,98000,TRUE,Pay Utility,254719134037 - KELVIN KITOO,,FAA
PIF7X6RRWR,15/09/2021 10:58,15/09/2021 10:58,Pay Bill from 254720249209 - WILFRED NJUGUNA WANJIRA Acc. DDD,Completed,40000,,82000,TRUE,Pay Utility,254720249209 - WILFRED NJUGUNA WANJIRA,,DDD
PIF5X699BH,15/09/2021 10:48,15/09/2021 10:48,Pay Bill from 0722950695 - Joshua Mbithi Kivondo Acc. DCA,Completed,17000,,42000,TRUE,Pay Utility,0722950695 - Joshua Mbithi Kivondo,,DCA
PIF6X18IW4,15/09/2021 09:05,15/09/2021 09:05,Pay Bill from 254726039536 - MERCY MESHACK Acc. JBC,Completed,11000,,25000,TRUE,Pay Utility,254726039536 - MERCY MESHACK,,JBC
PIE7W5V4DH,14/09/2021 16:41,14/09/2021 16:41,Pay Bill from 254723389177 - NELSON MOI Acc. ibf,Completed,3000,,14000,TRUE,Pay Utility,254723389177 - NELSON MOI,,ibf
PIE3VPU7Z5,14/09/2021 11:42,14/09/2021 11:42,Pay Bill from 254720883049 - SIMON AMUKOCHE Acc. IED,Completed,11000,,11000,TRUE,Pay Utility,254720883049 - SIMON AMUKOCHE,,IED
PIE9VPKOEF,14/09/2021 11:37,14/09/2021 11:37,Utility Account to Organization Settlement Account,Completed,,-181500,0,TRUE,Utility Account to Organization Settlement Account,979524 - ANCIENT WELLS PROPERTY MANAGERS 2,,
PIE1VN149D,14/09/2021 10:47,14/09/2021 10:47,Pay Bill Online from 254711721087 - MUTHIANI KYULE Acc. IDB,Completed,15000,,181500,TRUE,Pay Utility with OD Online,254711721087 - MUTHIANI KYULE,,IDB
PIE5VML76X,14/09/2021 10:39,14/09/2021 10:39,Pay Bill from 254729541871 - ROBERT KULEI Acc. JAB,Completed,5000,,166500,TRUE,Pay Utility,254729541871 - ROBERT KULEI,,JAB
PIE6VFIHYG,14/09/2021 08:08,14/09/2021 08:08,Pay Bill from 254721520535 - NYAMWAYA MATARA Acc. JDB,Completed,15000,,161500,TRUE,Pay Utility with OD via STK,254721520535 - NYAMWAYA MATARA,,JDB
PIE2VCQYRM,14/09/2021 06:34,14/09/2021 06:34,Pay Bill from 254718245568 - NADI GOLICHA Acc. KAA,Completed,10000,,146500,TRUE,Pay Utility,254718245568 - NADI GOLICHA,,KAA
PID6V73LMW,13/09/2021 21:15,13/09/2021 21:15,Pay Bill Online from 254720451253 - JIMMY KIOGORA NKIROTE Acc. KBD,Completed,2000,,136500,TRUE,Pay Utility with OD Online,254720451253 - JIMMY KIOGORA NKIROTE,,KBD
PID9V5ZTBD,13/09/2021 20:55,13/09/2021 20:55,Pay Bill Online from 254714552193 - CHRISTOPHER OCHIENG Acc. JGI,Completed,20000,,134500,TRUE,Pay Bill Online,254714552193 - CHRISTOPHER OCHIENG,,JGI
PID3V16ZDR,13/09/2021 19:45,13/09/2021 19:45,Pay Bill from 254723966777 - BONIFACE MUTHAKA NGANGA Acc. iec,Completed,5000,,114500,TRUE,Pay Utility,254723966777 - BONIFACE MUTHAKA NGANGA,,iec
PID0UZ2S3M,13/09/2021 19:21,13/09/2021 19:21,Pay Bill from 0743248310 - PATRICK STURRIDGE NYONGESA Acc. daa,Completed,12000,,109500,TRUE,Pay Utility,0743248310 - PATRICK STURRIDGE NYONGESA,,daa
PID3UVZD81,13/09/2021 18:47,13/09/2021 18:47,Pay Bill Online from 254722921132 - JOE MCCRAY MURIUKI KIHIA Acc. IFA,Completed,15000,,97500,TRUE,Pay Utility with OD Online,254722921132 - JOE MCCRAY MURIUKI KIHIA,,IFA
PID3UKSSQV,13/09/2021 15:59,13/09/2021 15:59,Pay Bill Online from 254728681775 - Faith Abigael Acc. IAF,Completed,9000,,82500,TRUE,Pay Bill Online,254728681775 - Faith Abigael,,IAF
PID4UJVZJA,13/09/2021 15:42,13/09/2021 15:42,Pay Bill from 254727766786 - JOHN MAITHA MULWA Acc. IBH,Completed,10000,,73500,TRUE,Pay Utility,254727766786 - JOHN MAITHA MULWA,,IBH
PID3UIDEWL,13/09/2021 15:13,13/09/2021 15:13,Pay Bill from 254710110273 - AGNES NTOITI Acc. JBB,Completed,15000,,63500,TRUE,Pay Utility with OD via STK,254710110273 - AGNES NTOITI,,JBB
PID5UDGSVR,13/09/2021 13:40,13/09/2021 13:40,Pay Bill from 0792129617 - Antony Ng'ang'a Muthaka Acc. IEC,Completed,9500,,48500,TRUE,Pay Utility,0792129617 - Antony Ng'ang'a Muthaka,,IEC
PID1UA3BMP,13/09/2021 12:36,13/09/2021 12:36,Pay Bill from 254716702294 - DANIEL MULATI Acc. KBE,Completed,10000,,39000,TRUE,Pay Utility,254716702294 - DANIEL MULATI,,KBE
PID2U4SPSW,13/09/2021 10:53,13/09/2021 10:53,Pay Bill Online from 254724590178 - Silvanus Ongiri Acc. HAE,Completed,10000,,29000,TRUE,Pay Bill Online,254724590178 - Silvanus Ongiri,,HAE
PID2U2GSGU,13/09/2021 10:07,13/09/2021 10:07,Pay Bill from 0794582647 - PETER POCHI MAKHACHA Acc. Iac,Completed,9000,,19000,TRUE,Pay Utility with OD via STK,0794582647 - PETER POCHI MAKHACHA,,Iac
PID7U1OL5L,13/09/2021 09:51,13/09/2021 09:51,Pay Bill from 254722992162 - JAEL MWANDILOH Acc. DCB,Completed,10000,,10000,TRUE,Pay Utility,254722992162 - JAEL MWANDILOH,,DCB
PID9U14N15,13/09/2021 09:40,13/09/2021 09:40,Utility Account to Organization Settlement Account,Completed,,-85100,0,TRUE,Utility Account to Organization Settlement Account,979524 - ANCIENT WELLS PROPERTY MANAGERS 2,,
PID9U1454Z,13/09/2021 09:40,13/09/2021 09:40,Pay Bill Online from 254722258107 - JOHN ODIMA ODIMA Acc. KGF ,Completed,10000,,85100,TRUE,Pay Bill Online,254722258107 - JOHN ODIMA ODIMA,,KGF
PID0TYH9RY,13/09/2021 08:43,13/09/2021 08:43,Pay Bill from 254722136450 - MARY EVERLYN Acc. JAI,Completed,7000,,75100,TRUE,Pay Utility with OD via STK,254722136450 - MARY EVERLYN,,JAI
PID3TT0O1Z,13/09/2021 00:55,13/09/2021 00:55,Pay Bill from 0790924905 - KEVIN   KIDAGISA Acc. IGC,Completed,9000,,68100,TRUE,Pay Utility,0790924905 - KEVIN   KIDAGISA,,IGC
PIC6SSSAKC,12/09/2021 12:14,12/09/2021 12:14,Pay Bill from 254703555717 - SENGA SALIM Acc. hbb,Completed,2000,,59100,TRUE,Pay Utility,254703555717 - SENGA SALIM,,hbb
PIB6RNWC7U,11/09/2021 15:55,11/09/2021 15:55,Pay Bill Online from 254705846408 - JAMES OUMA Acc. HBH,Completed,16000,,57100,TRUE,Pay Bill Online,254705846408 - JAMES OUMA,,HBH
PIB9RL3FD5,11/09/2021 15:08,11/09/2021 15:08,Pay Bill Online from 254723370004 - LABAN MAINGI WAMBUA Acc. JEF,Completed,6000,,41100,TRUE,Pay Utility with OD Online,254723370004 - LABAN MAINGI WAMBUA,,JEF
PIB1RDHG3F,11/09/2021 12:58,11/09/2021 12:58,Pay Bill from 254706158280 - patience mutheu mbevi Acc. KFC,Completed,600,,35100,TRUE,Pay Utility,254706158280 - patience mutheu mbevi,,KFC
PIB9RCAU0P,11/09/2021 12:37,11/09/2021 12:37,Pay Bill from 254740657547 - WINNIE KERE Acc. JBF,Completed,8000,,34500,TRUE,Pay Utility,254740657547 - WINNIE KERE,,JBF
PIB1RC2RYT,11/09/2021 12:33,11/09/2021 12:33,Pay Bill from 254718009051 - STEPHEN OMOLLO Acc. JDF,Completed,8000,,26500,TRUE,Pay Utility with OD via STK,254718009051 - STEPHEN OMOLLO,,JDF
PIB3R6N6BP,11/09/2021 10:54,11/09/2021 10:54,Pay Bill from 254729948896 - CAROLINE V MILIZA Acc. Fec,Completed,9000,,18500,TRUE,Pay Utility,254729948896 - CAROLINE V MILIZA,,Fec
PIB6R32C3Y,11/09/2021 09:45,11/09/2021 09:45,Pay Bill from 254797601911 - JORAM MASAI KILONZO Acc. KTE,Completed,9500,,9500,TRUE,Pay Utility,254797601911 - JORAM MASAI KILONZO,,KTE
PIB4QWX7LU,11/09/2021 07:16,11/09/2021 07:16,Utility Account to Organization Settlement Account,Completed,,-198000,0,TRUE,Utility Account to Organization Settlement Account,979524 - ANCIENT WELLS PROPERTY MANAGERS 2,,
PIB6QW9BYO,11/09/2021 06:46,11/09/2021 06:46,Pay Bill from 254717909848 - MARY MBULA KATHUKU Acc. FGD,Completed,9000,,198000,TRUE,Pay Utility,254717909848 - MARY MBULA KATHUKU,,FGD
PIB2QUF768,11/09/2021 00:01,11/09/2021 00:01,Pay Bill from 254722889574 - ALLAN MWANGI Acc. JCG,Completed,10000,,189000,TRUE,Pay Utility with OD via STK,254722889574 - ALLAN MWANGI,,JCG
PIA0QOEMOK,10/09/2021 20:41,10/09/2021 20:41,Pay Bill from 254719626804 - PAUL NJOROGE CYRUS Acc. JFI,Completed,20000,,179000,TRUE,Pay Utility,254719626804 - PAUL NJOROGE CYRUS,,JFI
PIA4QCIQ7U,10/09/2021 18:14,10/09/2021 18:14,Pay Bill from 254713281251 - ERIC KIAMA Acc. JDI,Completed,29500,,159000,TRUE,Pay Utility,254713281251 - ERIC KIAMA,,JDI
PIA6Q72CZY,10/09/2021 16:56,10/09/2021 16:56,Pay Bill Online from 0740422187 - KEVIN MAKATO KUNGA Acc. KEG,Completed,10000,,129500,TRUE,Pay Bill Online,0740422187 - KEVIN MAKATO KUNGA,,KEG
PIA0Q34VDI,10/09/2021 15:50,10/09/2021 15:50,Pay Bill from 254710381003 - ALFRED KISHOIN Acc. DAB,Completed,16000,,119500,TRUE,Pay Utility,254710381003 - ALFRED KISHOIN,,DAB
PIA2Q27J0I,10/09/2021 15:34,10/09/2021 15:34,Pay Bill from 0740507437 - JOY KAARI KAMENCU Acc. FAC,Completed,9000,,103500,TRUE,Pay Utility,0740507437 - JOY KAARI KAMENCU,,FAC
PIA3PYJ1GD,10/09/2021 14:27,10/09/2021 14:27,Pay Bill from 254702190887 - Nax Ochieng Acc. FDE,Completed,15000,,94500,TRUE,Pay Utility,254702190887 - Nax Ochieng,,FDE
PIA0PT903O,10/09/2021 12:50,10/09/2021 12:50,Pay Bill from 254728103722 - YASSIR MWINYI ABDULRAZAQ Acc. ICE,Completed,5000,,79500,TRUE,Pay Utility,254728103722 - YASSIR MWINYI ABDULRAZAQ,,ICE
PIA4PQ3DL6,10/09/2021 11:49,10/09/2021 11:49,Pay Bill from 254729258441 - ROBERT RONO KULEI Acc. JAB,Completed,5000,,74500,TRUE,Pay Utility,254729258441 - ROBERT RONO KULEI,,JAB
PIA8POH8A4,10/09/2021 11:18,10/09/2021 11:18,Pay Bill from 0759217545 - Angela Syombua Lole Acc. HDE,Completed,10000,,69500,TRUE,Pay Utility,0759217545 - Angela Syombua Lole,,HDE
PIA4PHNEN2,10/09/2021 08:58,10/09/2021 08:58,Pay Bill from 0796929370 - HALIMA BOYA GALMA Acc. Dbc,Completed,20000,,59500,TRUE,Pay Utility,0796929370 - HALIMA BOYA GALMA,,Dbc
PIA4PGCDYO,10/09/2021 08:27,10/09/2021 08:27,Pay Bill from 0748059595 - Rashid NASSIR Khamis Acc. DDA,Completed,10000,,39500,TRUE,Pay Utility,0748059595 - Rashid NASSIR Khamis,,DDA
PIA3PEYMZX,10/09/2021 07:51,10/09/2021 07:51,Pay Bill Online from 254718772336 - DAVID SERUGO Acc. DCD,Completed,20000,,29500,TRUE,Pay Bill Online,254718772336 - DAVID SERUGO,,DCD
PIA0PD6844,10/09/2021 06:43,10/09/2021 06:43,Pay Bill from 0799028632 - WILSON MUTANGILI WAMBUA Acc. haf,Completed,9500,,9500,TRUE,Pay Utility,0799028632 - WILSON MUTANGILI WAMBUA,,haf
PIA3PCONN1,10/09/2021 06:08,10/09/2021 06:08,Utility Account to Organization Settlement Account,Completed,,-364500,0,TRUE,Utility Account to Organization Settlement Account,979524 - ANCIENT WELLS PROPERTY MANAGERS 2,,
PI98PBD5F4,09/09/2021 23:37,09/09/2021 23:37,Pay Bill from 254710635630 - DONNA JESSICA OWANO Acc. KCC,Completed,7000,,364500,TRUE,Pay Utility,254710635630 - DONNA JESSICA OWANO,,KCC
PI96P9U7AU,09/09/2021 22:06,09/09/2021 22:06,Pay Bill from 254798844460 - WYCLIFFE ODHIAMBO NYAGOA Acc. KAC,Completed,10000,,357500,TRUE,Pay Utility,254798844460 - WYCLIFFE ODHIAMBO NYAGOA,,KAC
PI97P9M7G3,09/09/2021 21:59,09/09/2021 21:59,Pay Bill from 254791318982 - ADULLAHI HASSAN Acc. JCI,Completed,20000,,347500,TRUE,Pay Utility,254791318982 - ADULLAHI HASSAN,,JCI
PI94P976FW,09/09/2021 21:47,09/09/2021 21:47,Pay Bill from 254726928933 - JOSHUA NDUNDA NZIOKA Acc. KCJ,Completed,15000,,327500,TRUE,Pay Utility,254726928933 - JOSHUA NDUNDA NZIOKA,,KCJ
PI99P69DR9,09/09/2021 20:44,09/09/2021 20:44,Pay Bill from 0723409745 - Kelvin Kitonga Mutyetu Acc. kbf,Completed,10000,,312500,TRUE,Pay Utility with OD via STK,0723409745 - Kelvin Kitonga Mutyetu,,kbf
PI98OKTCKI,09/09/2021 15:29,09/09/2021 15:29,Pay Bill from 254724611087 - Francis Mukindya Muoki Acc. dfb,Completed,5000,,302500,TRUE,Pay Utility with OD via STK,254724611087 - Francis Mukindya Muoki,,dfb
PI96OGLCEE,09/09/2021 14:07,09/09/2021 14:07,Pay Bill from 0792933158 - mary wamaitha maina Acc. KDH,Completed,10000,,297500,TRUE,Pay Utility,0792933158 - mary wamaitha maina,,KDH
PI96OG7MGG,09/09/2021 14:00,09/09/2021 14:00,Pay Bill from 254701196539 - GICHURI KARANJA Acc. Fee,Completed,16000,,287500,TRUE,Pay Utility,254701196539 - GICHURI KARANJA,,Fee
PI94OFGE0A,09/09/2021 13:45,09/09/2021 13:45,Pay Bill Online from 254706549634 - CLINTON OMBASA Acc. FDB,Completed,17000,,271500,TRUE,Pay Bill Online,254706549634 - CLINTON OMBASA,,FDB
PI90OEYPLW,09/09/2021 13:36,09/09/2021 13:36,Pay Bill from 254715338158 - REBECCA MUTHONI KARIUKI Acc. JCB,Completed,15000,,254500,TRUE,Pay Utility with OD via STK,254715338158 - REBECCA MUTHONI KARIUKI,,JCB
PI91OELK3J,09/09/2021 13:29,09/09/2021 13:29,Pay Bill from 254740579741 - MUHINDI MULINYA Acc. HGG,Completed,10000,,239500,TRUE,Pay Utility with OD via STK,254740579741 - MUHINDI MULINYA,,HGG
PI95OEB4XJ,09/09/2021 13:24,09/09/2021 13:24,Pay Bill from 254723699555 - DIANA NYAIREGI GICHIA Acc. FBF,Completed,30000,,229500,TRUE,Pay Utility,254723699555 - DIANA NYAIREGI GICHIA,,FBF
PI95ODF9QN,09/09/2021 13:07,09/09/2021 13:07,Pay Bill from 0713284902 - Julia Naliaka william Makhacha Acc. 1AC,Completed,2000,,199500,TRUE,Pay Utility,0713284902 - Julia Naliaka william Makhacha,,1AC
PI95OC1ZUX,09/09/2021 12:40,09/09/2021 12:40,Pay Bill Online from 254715764212 - BANCE ISHEMINYE Acc. JFE ,Completed,3000,,197500,TRUE,Pay Bill Online,254715764212 - BANCE ISHEMINYE,,JFE
PI97O92241,09/09/2021 11:39,09/09/2021 11:39,Pay Bill from 0713284902 - Julia Naliaka william Makhacha Acc. Iac,Completed,4000,,194500,TRUE,Pay Utility,0713284902 - Julia Naliaka william Makhacha,,Iac
PI94O876W2,09/09/2021 11:22,09/09/2021 11:22,Pay Bill Online from 254722854426 - OLIVE WANJIKU MACHAMBA Acc. JBG,Completed,10000,,190500,TRUE,Pay Bill Online,254722854426 - OLIVE WANJIKU MACHAMBA,,JBG
PI90O0P8HG,09/09/2021 08:42,09/09/2021 08:42,Pay Bill from 254728259571 - ANNE KASIVA Acc. ieb,Completed,15000,,180500,TRUE,Pay Utility,254728259571 - ANNE KASIVA,,ieb
PI98O08ZQU,09/09/2021 08:31,09/09/2021 08:31,Pay Bill from 254727515326 - HARRISON WACIRA MAINA Acc. HAH,Completed,16000,,165500,TRUE,Pay Utility,254727515326 - HARRISON WACIRA MAINA,,HAH
PI82NQDLYK,08/09/2021 20:52,08/09/2021 20:52,Pay Bill from 0748212685 - timothy odhiambo owiti Acc. JDE,Completed,8000,,149500,TRUE,Pay Utility,0748212685 - timothy odhiambo owiti,,JDE
PI86NMLDWK,08/09/2021 19:54,08/09/2021 19:54,Pay Bill from 254722564580 - GLENN KISIANG'ANI Acc. DBB,Completed,16000,,141500,TRUE,Pay Utility with OD via STK,254722564580 - GLENN KISIANG'ANI,,DBB
PI86NMIK9O,08/09/2021 19:53,08/09/2021 19:53,Pay Bill from 254710106394 - LUCY TONKEI Acc. KBG,Completed,9000,,125500,TRUE,Pay Utility,254710106394 - LUCY TONKEI,,KBG
PI80NM71MA,08/09/2021 19:49,08/09/2021 19:49,Pay Bill from 254713205244 - ROBERT OGALO Acc. KBH,Completed,10000,,116500,TRUE,Pay Utility,254713205244 - ROBERT OGALO,,KBH
PI87N6GQM9,08/09/2021 16:29,08/09/2021 16:29,Pay Bill from 254724655033 - SUSAN CHIMOTO Acc. KGH,Completed,9500,,106500,TRUE,Pay Utility,254724655033 - SUSAN CHIMOTO,,KGH
PI82N445EC,08/09/2021 15:50,08/09/2021 15:50,Pay Bill from 254700050190 - ANGELA GATHONI NDEGWA Acc. KAH,Completed,15000,,97000,TRUE,Pay Utility,254700050190 - ANGELA GATHONI NDEGWA,,KAH
PI87MVPXY7,08/09/2021 13:23,08/09/2021 13:23,Pay Bill from 254727411231 - OBADIAH MASWAI Acc. JGJ,Completed,15000,,82000,TRUE,Pay Utility,254727411231 - OBADIAH MASWAI,,JGJ
PI81MU27QT,08/09/2021 12:54,08/09/2021 12:54,Pay Bill from 254723930071 - AMOS KITAVI KIVITE Acc. JCE,Completed,9000,,67000,TRUE,Pay Utility,254723930071 - AMOS KITAVI KIVITE,,JCE
PI80MORLQU,08/09/2021 11:19,08/09/2021 11:19,Pay Bill from 254708570729 - MARY OGOLLA Acc. KAD,Completed,25000,,58000,TRUE,Pay Utility,254708570729 - MARY OGOLLA,,KAD
PI80MN3KH0,08/09/2021 10:49,08/09/2021 10:49,Pay Bill from 254728238249 - ESTHER WANGUI KIBUNYI Acc. ICA,Completed,17000,,33000,TRUE,Pay Utility,254728238249 - ESTHER WANGUI KIBUNYI,,ICA
PI85MLN2S9,08/09/2021 10:22,08/09/2021 10:22,Pay Bill from 254720496449 - STANLEY KIPKOECH RONO Acc. FBE,Completed,16000,,16000,TRUE,Pay Utility,254720496449 - STANLEY KIPKOECH RONO,,FBE
PI80MJ7L0Q,08/09/2021 09:35,08/09/2021 09:35,Utility Account to Organization Settlement Account,Completed,,-528000,0,TRUE,Utility Account to Organization Settlement Account,979524 - ANCIENT WELLS PROPERTY MANAGERS 2,,
PI80MIM3QY,08/09/2021 09:23,08/09/2021 09:23,Pay Bill from 254713159153 - GUYO SANKALA Acc. DGD,Completed,20000,,528000,TRUE,Pay Utility,254713159153 - GUYO SANKALA,,DGD
PI87MBACBB,08/09/2021 01:02,08/09/2021 01:02,Pay Bill from 254703935626 - DAVID NGARI ITA Acc. FCD,Completed,1000,,508000,TRUE,Pay Utility with OD via STK,254703935626 - DAVID NGARI ITA,,FCD
PI75M53W5D,07/09/2021 20:42,07/09/2021 20:42,Pay Bill from 254717985596 - NICHOLAS KIPKOECH BUTIA Acc. hcf,Completed,9000,,507000,TRUE,Pay Utility,254717985596 - NICHOLAS KIPKOECH BUTIA,,hcf
PI78M4D8T2,07/09/2021 20:30,07/09/2021 20:30,Pay Bill from 254708499439 - ROSE NDEDE Acc. HGF,Completed,9000,,498000,TRUE,Pay Utility,254708499439 - ROSE NDEDE,,HGF
PI72LZTVFG,07/09/2021 19:31,07/09/2021 19:31,Pay Bill from 254704833344 - LOISE KIMANI Acc. jfa,Completed,20000,,489000,TRUE,Pay Utility,254704833344 - LOISE KIMANI,,jfa
PI73LZ7WV7,07/09/2021 19:24,07/09/2021 19:24,Pay Bill from 254700050190 - ANGELA GATHONI NDEGWA Acc. KAH,Completed,10000,,469000,TRUE,Pay Utility,254700050190 - ANGELA GATHONI NDEGWA,,KAH
PI75LW6MJP,07/09/2021 18:52,07/09/2021 18:52,Pay Bill from 254716260268 - LUCY MUTHONI NJIRU Acc. HCB,Completed,16000,,459000,TRUE,Pay Utility,254716260268 - LUCY MUTHONI NJIRU,,HCB
PI73LOQPNT,07/09/2021 17:11,07/09/2021 17:11,Pay Bill from 254798643998 - Judith Mwaniki Acc. kce,Completed,10000,,443000,TRUE,Pay Utility,254798643998 - Judith Mwaniki,,kce
PI76LN4NDM,07/09/2021 16:45,07/09/2021 16:45,Pay Bill Online from 254722769473 - SAMSON CHALO Acc. IAB,Completed,15000,,433000,TRUE,Pay Bill Online,254722769473 - SAMSON CHALO,,IAB
PI72LI60OI,07/09/2021 15:16,07/09/2021 15:16,Pay Bill from 0795068880 - Patrick   Kiplagat Acc. KAG,Completed,10000,,418000,TRUE,Pay Utility,0795068880 - Patrick   Kiplagat,,KAG
PI75L6LOL7,07/09/2021 11:36,07/09/2021 11:36,Pay Bill from 254726172957 - VINCENT OLIENG' Acc. HBC ,Completed,10000,,408000,TRUE,Pay Utility,254726172957 - VINCENT OLIENG',,HBC
PI73L4SGNV,07/09/2021 11:00,07/09/2021 11:00,Pay Bill Online from 254728687482 - KELSEN MWIRIGI MUTIGA Acc. HCE,Completed,10500,,398000,TRUE,Pay Bill Online,254728687482 - KELSEN MWIRIGI MUTIGA,,HCE
PI72L48R9I,07/09/2021 10:49,07/09/2021 10:49,Pay Bill from 254729541871 - ROBERT KULEI Acc. JAB,Completed,5000,,387500,TRUE,Pay Utility,254729541871 - ROBERT KULEI,,JAB
PI73L0H2U3,07/09/2021 09:33,07/09/2021 09:33,Pay Bill from 254712954563 - JOSEPH MUTISO KILONZO Acc. DAC,Completed,20000,,382500,TRUE,Pay Utility,254712954563 - JOSEPH MUTISO KILONZO,,DAC
PI76KXX9WY,07/09/2021 08:37,07/09/2021 08:37,FSI to Pay Bill by 714888 - B2C LOOP VIA NCBA Acc. FAD via WEB by B2C LOOP VIA NCBA\Cbainitiator,Completed,11000,,362500,TRUE,FSI to Pay Bill via API,714888 - B2C LOOP VIA NCBA,,FAD
PI78KV9V6Q,07/09/2021 07:27,07/09/2021 07:27,Pay Bill from 254724006242 - JOAN CHEBET Acc. JEG,Completed,9000,,351500,TRUE,Pay Utility,254724006242 - JOAN CHEBET,,JEG
PI74KTC9GI,07/09/2021 05:14,07/09/2021 05:14,Pay Bill Online from 254722521028 - CHARLES MONYONCHO Acc. ICB,Completed,17000,,342500,TRUE,Pay Bill Online,254722521028 - CHARLES MONYONCHO,,ICB
PI66KRO2XU,06/09/2021 22:46,06/09/2021 22:46,Pay Bill from 254725771056 - CHARLES MURAGURI Acc. FCE,Completed,15000,,325500,TRUE,Pay Utility,254725771056 - CHARLES MURAGURI,,FCE
PI68KRJH2I,06/09/2021 22:38,06/09/2021 22:38,Pay Bill from 254703935626 - DAVID NGARI ITA Acc. FCD,Completed,1000,,310500,TRUE,Pay Utility,254703935626 - DAVID NGARI ITA,,FCD
PI64KRI5EK,06/09/2021 22:37,06/09/2021 22:37,Pay Bill from 254721315975 - JOSEPH NDEGWA Acc. HEB,Completed,16000,,309500,TRUE,Pay Utility,254721315975 - JOSEPH NDEGWA,,HEB
PI69KQ3Y7T,06/09/2021 21:48,06/09/2021 21:48,Pay Bill from 254729590734 - PATRICK NDUNGA Acc. IDD,Completed,10000,,293500,TRUE,Pay Utility,254729590734 - PATRICK NDUNGA,,IDD
PI65KQ0KJ5,06/09/2021 21:45,06/09/2021 21:45,Pay Bill Online from 254707282140 - JECINTA NDUGIRE Acc. KDA,Completed,17000,,283500,TRUE,Pay Bill Online,254707282140 - JECINTA NDUGIRE,,KDA
PI65KNMLVN,06/09/2021 20:55,06/09/2021 20:55,Pay Bill Online from 254720044312 - ELIUD KIPKURUI Acc. FCF,Completed,17000,,266500,TRUE,Pay Bill Online,254720044312 - ELIUD KIPKURUI,,FCF
PI65KKSSQD,06/09/2021 20:10,06/09/2021 20:10,Pay Bill from 254758140048 - ABDULKADIR ABASS DAHIR Acc. KAB,Completed,16000,,249500,TRUE,Pay Utility,254758140048 - ABDULKADIR ABASS DAHIR,,KAB
PI64KG122I,06/09/2021 19:12,06/09/2021 19:12,Pay Bill from 254707715639 - Annastacia Kimeu Acc. JFC,Completed,10000,,233500,TRUE,Pay Utility,254707715639 - Annastacia Kimeu,,JFC
PI66KE4S28,06/09/2021 18:51,06/09/2021 18:51,Pay Bill Online from 254725218904 - SALOME MUTHONI MWANGI Acc. KFJ,Completed,15000,,223500,TRUE,Pay Bill Online,254725218904 - SALOME MUTHONI MWANGI,,KFJ
PI67KDBYY5,06/09/2021 18:42,06/09/2021 18:42,Pay Bill from 254719779657 - SAMUEL NJOROGE Acc. JGA,Completed,20000,,208500,TRUE,Pay Utility with OD via STK,254719779657 - SAMUEL NJOROGE,,JGA
PI62K9DNNY,06/09/2021 17:51,06/09/2021 17:51,Pay Bill from 254729355933 - FELISTAH NJERI WAIRIMU Acc. IDI,Completed,15000,,188500,TRUE,Pay Utility,254729355933 - FELISTAH NJERI WAIRIMU,,IDI
PI69K6UHOR,06/09/2021 17:14,06/09/2021 17:14,Pay Bill Online from 254705951407 - CAROLINE WAITHIRA KAMAU Acc. IDH,Completed,16000,,173500,TRUE,Pay Bill Online,254705951407 - CAROLINE WAITHIRA KAMAU,,IDH
PI67K6NUJT,06/09/2021 17:11,06/09/2021 17:11,Pay Bill Online from 254716328009 - IRENE ODHIAMBO Acc. KGG,Completed,9000,,157500,TRUE,Pay Bill Online,254716328009 - IRENE ODHIAMBO,,KGG
PI69K2IY2D,06/09/2021 16:02,06/09/2021 16:02,Pay Bill Online from 254720381965 - JAMES NGUGI MWANIKI Acc. JBI,Completed,20000,,148500,TRUE,Pay Bill Online,254720381965 - JAMES NGUGI MWANIKI,,JBI
PI69K15R7T,06/09/2021 15:38,06/09/2021 15:38,Pay Bill Online from 254718911865 - KENNEDY KELI KATUNGII Acc. HDF,Completed,9000,,128500,TRUE,Pay Bill Online,254718911865 - KENNEDY KELI KATUNGII,,HDF
PI60K0G1KI,06/09/2021 15:25,06/09/2021 15:25,Pay Bill from 254720029066 - EVANS CHERUYOT ROTICH Acc. KFI,Completed,5500,,119500,TRUE,Pay Utility,254720029066 - EVANS CHERUYOT ROTICH,,KFI
PI66JUSMTI,06/09/2021 13:42,06/09/2021 13:42,Pay Bill Online from 0724386624 - FATUMA ISSE YUSSUF Acc. FAB,Completed,16000,,114000,TRUE,Pay Utility with OD Online,0724386624 - FATUMA ISSE YUSSUF,,FAB
PI65JUKJF7,06/09/2021 13:38,06/09/2021 13:38,Pay Bill from 0722925798 - ifrah abukar adan Acc. IEI,Completed,15000,,98000,TRUE,Pay Utility,0722925798 - ifrah abukar adan,,IEI
PI63JQO2RZ,06/09/2021 12:26,06/09/2021 12:26,Pay Bill from 254726687555 - ELIUD MUTHURE MICHENI Acc. KAI,Completed,12000,,83000,TRUE,Pay Utility,254726687555 - ELIUD MUTHURE MICHENI,,KAI
PI67JIQO05,06/09/2021 09:54,06/09/2021 09:54,Pay Bill from 254729713741 - ALBANUS MUTISO Acc. DDC,Completed,20000,,71000,TRUE,Pay Utility,254729713741 - ALBANUS MUTISO,,DDC
PI69JH94MN,06/09/2021 09:25,06/09/2021 09:25,Pay Bill from 254722136450 - MARY EVERLYN Acc. JAI,Completed,13000,,51000,TRUE,Pay Utility with OD via STK,254722136450 - MARY EVERLYN,,JAI
PI61JG97GJ,06/09/2021 09:04,06/09/2021 09:04,Pay Bill from 254723699555 - DIANA NYAIREGI GICHIA Acc. FBF,Completed,6000,,38000,TRUE,Pay Utility,254723699555 - DIANA NYAIREGI GICHIA,,FBF
PI62JFQLYC,06/09/2021 08:53,06/09/2021 08:53,Pay Bill from 254720868281 - KENNEDY MWELU Acc. KBI,Completed,12500,,32000,TRUE,Pay Utility,254720868281 - KENNEDY MWELU,,KBI
PI67JFGL3D,06/09/2021 08:46,06/09/2021 08:46,Pay Bill from 254718233980 - KAREN ASWANI Acc. HEC,Completed,10500,,19500,TRUE,Pay Utility,254718233980 - KAREN ASWANI,,HEC
PI68JELL3A,06/09/2021 08:27,06/09/2021 08:27,Pay Bill from 254720511734 - ENOCK KIBET Acc. FDC,Completed,9000,,9000,TRUE,Pay Utility,254720511734 - ENOCK KIBET,,FDC
PI60JCXE3Y,06/09/2021 07:44,06/09/2021 07:44,Utility Account to Organization Settlement Account,Completed,,-736100,0,TRUE,Utility Account to Organization Settlement Account,979524 - ANCIENT WELLS PROPERTY MANAGERS 2,,
PI65JBVA6D,06/09/2021 07:09,06/09/2021 07:09,Pay Bill from 0757721640 - PURITY KANYUA NJERU Acc. Hdg,Completed,15000,,736100,TRUE,Pay Utility,0757721640 - PURITY KANYUA NJERU,,Hdg
PI68JA4GCW,06/09/2021 03:24,06/09/2021 03:24,Pay Bill from 254720351482 - Cheruiyot Langat Brian Acc. dfa,Completed,15000,,721100,TRUE,Pay Utility with OD via STK,254720351482 - Cheruiyot Langat Brian,,dfa
PI57J98JWP,05/09/2021 23:31,05/09/2021 23:31,Pay Bill from 0792441884 - CORNELIA CONRAD MVULA Acc. IBB,Completed,15000,,706100,TRUE,Pay Utility,0792441884 - CORNELIA CONRAD MVULA,,IBB
PI59J94LKV,05/09/2021 23:20,05/09/2021 23:20,Pay Bill from 254725381062 - VICTOR MAITHYA Acc. HEG,Completed,4500,,691100,TRUE,Pay Utility,254725381062 - VICTOR MAITHYA,,HEG
PI57J8XNZ9,05/09/2021 23:04,05/09/2021 23:04,Pay Bill from 254712461449 - CAROLINE MUTHONI GICHOHI Acc. fca,Completed,16000,,686600,TRUE,Pay Utility,254712461449 - CAROLINE MUTHONI GICHOHI,,fca
PI53J75IAJ,05/09/2021 21:47,05/09/2021 21:47,Pay Bill Online from 254726636196 - BETHUEL KEMBOI KURUI Acc. JFD,Completed,15000,,670600,TRUE,Pay Bill Online,254726636196 - BETHUEL KEMBOI KURUI,,JFD
PI55J53GP7,05/09/2021 21:00,05/09/2021 21:00,Pay Bill Online from 254715892656 - DENNIS MUSYOKA MUOKI Acc. KFA,Completed,16000,,655600,TRUE,Pay Bill Online,254715892656 - DENNIS MUSYOKA MUOKI,,KFA
PI55J1BVG7,05/09/2021 19:58,05/09/2021 19:58,Pay Bill from 254714578986 - EZEKIEL MULUNGYE Acc. HAC,Completed,10000,,639600,TRUE,Pay Utility,254714578986 - EZEKIEL MULUNGYE,,HAC
PI52IZRX8Q,05/09/2021 19:37,05/09/2021 19:37,Pay Bill Online from 254714563486 - BRIAN MMATA MUSERA Acc. KBJ,Completed,16000,,629600,TRUE,Pay Utility with OD Online,254714563486 - BRIAN MMATA MUSERA,,KBJ
PI55IZ4A1H,05/09/2021 19:28,05/09/2021 19:28,Pay Bill Online from 254722728975 - CURTIS MRIGA OMIDO Acc. IAH,Completed,16000,,613600,TRUE,Pay Bill Online,254722728975 - CURTIS MRIGA OMIDO,,IAH
PI59IXUD2N,05/09/2021 19:13,05/09/2021 19:13,Pay Bill from 254721115404 - Justine Fayuma Okwemba Acc. HAA,Completed,17000,,597600,TRUE,Pay Utility with OD via STK,254721115404 - Justine Fayuma Okwemba,,HAA
PI52IV5Z3A,05/09/2021 18:39,05/09/2021 18:39,Pay Bill from 0798115228 - samwel kariuki wanjigi Acc. kaf,Completed,10000,,580600,TRUE,Pay Utility,0798115228 - samwel kariuki wanjigi,,kaf
PI52IROQRK,05/09/2021 17:47,05/09/2021 17:47,Pay Bill Online from 254714250131 - NELSON ODHONG OMBUYA Acc. DCC,Completed,20000,,570600,TRUE,Pay Bill Online,254714250131 - NELSON ODHONG OMBUYA,,DCC
PI53IREZX1,05/09/2021 17:43,05/09/2021 17:43,Pay Bill from 254721370673 - STELLA WAIRIMU GITAU Acc. 1CH,Completed,33000,,550600,TRUE,Pay Utility,254721370673 - STELLA WAIRIMU GITAU,,1CH
PI59IPKGCN,05/09/2021 17:13,05/09/2021 17:13,Pay Bill Online from 254798022849 - MARTIN BUNDI RUGENDO Acc. KFH,Completed,10000,,517600,TRUE,Pay Bill Online,254798022849 - MARTIN BUNDI RUGENDO,,KFH
PI54IOQE20,05/09/2021 16:58,05/09/2021 16:58,Pay Bill from 254725754547 - MWACHIRO GEORGE DECHE Acc. DFC,Completed,20000,,507600,TRUE,Pay Utility,254725754547 - MWACHIRO GEORGE DECHE,,DFC
PI55IMCT2R,05/09/2021 16:17,05/09/2021 16:17,Pay Bill from 254716581384 - GREGORY KILUNGYA Acc. DAD,Completed,20000,,487600,TRUE,Pay Utility,254716581384 - GREGORY KILUNGYA,,DAD
PI55ILA9O3,05/09/2021 15:57,05/09/2021 15:57,Pay Bill from 254729538121 - AGNETA MUINDE Acc. ABC,Completed,20000,,467600,TRUE,Pay Utility,254729538121 - AGNETA MUINDE,,ABC
PI59IKYE8F,05/09/2021 15:51,05/09/2021 15:51,Pay Bill from 254723747228 - MORARA ASANYO Acc. pool,Completed,22100,,447600,TRUE,Pay Utility,254723747228 - MORARA ASANYO,,pool
PI56IFY99G,05/09/2021 14:18,05/09/2021 14:18,Pay Bill from 254712974871 - PAULA WANJIKU GATUI Acc. hea,Completed,16000,,425500,TRUE,Pay Utility,254712974871 - PAULA WANJIKU GATUI,,hea
PI51IBYE31,05/09/2021 12:57,05/09/2021 12:57,Pay Bill from 254703997404 - PATRICK MWENESI NGAYWA Acc. KFC,Completed,10000,,409500,TRUE,Pay Utility,254703997404 - PATRICK MWENESI NGAYWA,,KFC
PI57I8MMBL,05/09/2021 11:44,05/09/2021 11:44,Pay Bill from 254725753814 - CARLYNE CHEPNGENO Acc. IFC,Completed,8000,,399500,TRUE,Pay Utility,254725753814 - CARLYNE CHEPNGENO,,IFC
PI54I7JGWC,05/09/2021 11:20,05/09/2021 11:20,Pay Bill Online from 254757143627 - PETER AMOLLO HAYA Acc. HED,Completed,5000,,391500,TRUE,Pay Utility with OD Online,254757143627 - PETER AMOLLO HAYA,,HED
PI52I6RTWU,05/09/2021 11:02,05/09/2021 11:02,Pay Bill from 254703555717 - SENGA SALIM Acc. hbb,Completed,2000,,386500,TRUE,Pay Utility,254703555717 - SENGA SALIM,,hbb
PI57I6OXTH,05/09/2021 11:00,05/09/2021 11:00,Pay Bill from 254701112397 - ELEMA GODANA DIBA Acc. IAD,Completed,10000,,384500,TRUE,Pay Utility with OD via STK,254701112397 - ELEMA GODANA DIBA,,IAD
PI53HXEO7N,05/09/2021 06:47,05/09/2021 06:47,Pay Bill from 254701006375 - EZRA MAKORI SERETI Acc. HTE,Completed,10000,,374500,TRUE,Pay Utility,254701006375 - EZRA MAKORI SERETI,,HTE
PI57HX91U7,05/09/2021 06:35,05/09/2021 06:35,Pay Bill from 254728042989 - PATRICK OMONDI Acc. IFI,Completed,15000,,364500,TRUE,Pay Utility with OD via STK,254728042989 - PATRICK OMONDI,,IFI
PI44HVD5TE,04/09/2021 23:36,04/09/2021 23:36,Pay Bill from 254717140158 - Peter Wanjiru Acc. HFB,Completed,15000,,349500,TRUE,Pay Utility,254717140158 - Peter Wanjiru,,HFB
PI45HU6L6P,04/09/2021 22:27,04/09/2021 22:27,Pay Bill from 254724953672 - MERCY MBETI Acc. JCA,Completed,20000,,334500,TRUE,Pay Utility,254724953672 - MERCY MBETI,,JCA
PI47HSSLK3,04/09/2021 21:45,04/09/2021 21:45,Pay Bill Online from 0796121714 - janet   mwikali Acc. KBC,Completed,10000,,314500,TRUE,Pay Bill Online,0796121714 - janet   mwikali,,KBC
PI40HOASA6,04/09/2021 20:24,04/09/2021 20:24,Pay Bill from 254723643548 - KEVIN OUKO Acc. FDD,Completed,11000,,304500,TRUE,Pay Utility,254723643548 - KEVIN OUKO,,FDD
PI47HN8CUH,04/09/2021 20:08,04/09/2021 20:08,Pay Bill from 254718138578 - PAULINE KIOKO Acc. KFD,Completed,12000,,293500,TRUE,Pay Utility,254718138578 - PAULINE KIOKO,,KFD
PI40HM32AG,04/09/2021 19:53,04/09/2021 19:53,Pay Bill from 254729450678 - GRACE NDUNGE Acc. fba,Completed,2000,,281500,TRUE,Pay Utility with OD via STK,254729450678 - GRACE NDUNGE,,fba
PI48HLVQ1M,04/09/2021 19:51,04/09/2021 19:51,Pay Bill from 254729160700 - MICAH NDUNGI Acc. HFE,Completed,10500,,279500,TRUE,Pay Utility,254729160700 - MICAH NDUNGI,,HFE
PI42HJT39A,04/09/2021 19:26,04/09/2021 19:26,Pay Bill from 254720278119 - LINDAH OGAWO Acc. KFE,Completed,9500,,269000,TRUE,Pay Utility with OD via STK,254720278119 - LINDAH OGAWO,,KFE
PI41HHYGAR,04/09/2021 19:05,04/09/2021 19:05,Pay Bill from 254702764047 - FERDINAND K Acc. KDB,Completed,16000,,259500,TRUE,Pay Utility,254702764047 - FERDINAND K,,KDB
PI45HCJPOX,04/09/2021 17:58,04/09/2021 17:58,Pay Bill Online from 254713966424 - NDUTI MUTHUI Acc. JED,Completed,15000,,243500,TRUE,Pay Bill Online,254713966424 - NDUTI MUTHUI,,JED
PI46HCDVQ2,04/09/2021 17:55,04/09/2021 17:55,Pay Bill from 254722569870 - LUKA KEITANY Acc. jfj,Completed,15000,,228500,TRUE,Pay Utility,254722569870 - LUKA KEITANY,,jfj
PI49H8M0BV,04/09/2021 16:59,04/09/2021 16:59,Pay Bill from 254718242028 - PAULINA NYAMWITHIA Acc. KCA,Completed,16000,,213500,TRUE,Pay Utility,254718242028 - PAULINA NYAMWITHIA,,KCA
PI49H66AQJ,04/09/2021 16:20,04/09/2021 16:20,Pay Bill from 254799371069 - ALPHONCE OCHIENG WAREGA Acc. IEE,Completed,18000,,197500,TRUE,Pay Utility,254799371069 - ALPHONCE OCHIENG WAREGA,,IEE
PI44H306UI,04/09/2021 15:26,04/09/2021 15:26,Pay Bill from 254719398942 - NORAH WAYUA MUNYAO Acc. KDC,Completed,10000,,179500,TRUE,Pay Utility,254719398942 - NORAH WAYUA MUNYAO,,KDC
PI46H10H0G,04/09/2021 14:51,04/09/2021 14:51,Pay Bill Online from 254712187712 - JUDELEEN AHINDUKHA SHILOBELE Acc. IEA,Completed,15000,,169500,TRUE,Pay Bill Online,254712187712 - JUDELEEN AHINDUKHA SHILOBELE,,IEA
PI45GXNWF1,04/09/2021 13:52,04/09/2021 13:52,Pay Bill Online from 254715002789 - ERICK NGUGI MAINA Acc. HAG,Completed,16000,,154500,TRUE,Pay Bill Online,254715002789 - ERICK NGUGI MAINA,,HAG
PI42GSKGDY,04/09/2021 12:20,04/09/2021 12:20,Pay Bill from 254710605251 - PAULINE OCHIENG Acc. hdc,Completed,10000,,138500,TRUE,Pay Utility,254710605251 - PAULINE OCHIENG,,hdc
PI45GSEMZ5,04/09/2021 12:17,04/09/2021 12:17,Pay Bill from 254716056537 - KIRUI KIPLANGAT HILLARY Acc. JCJ,Completed,16000,,128500,TRUE,Pay Utility,254716056537 - KIRUI KIPLANGAT HILLARY,,JCJ
PI49GRZ489,04/09/2021 12:09,04/09/2021 12:09,Pay Bill Online from 254708225541 - JUDITH NKATHA SIMBA Acc. HDH,Completed,16000,,112500,TRUE,Pay Bill Online,254708225541 - JUDITH NKATHA SIMBA,,HDH
PI47GQ6XKV,04/09/2021 11:36,04/09/2021 11:36,Pay Bill Online from 254723370004 - LABAN MAINGI WAMBUA Acc. JEF,Completed,10000,,96500,TRUE,Pay Utility with OD Online,254723370004 - LABAN MAINGI WAMBUA,,JEF
PI46GQ4136,04/09/2021 11:35,04/09/2021 11:35,Pay Bill Online from 254710382992 - SIMON KAMAU MUIRURI Acc. JCD,Completed,15000,,86500,TRUE,Pay Bill Online,254710382992 - SIMON KAMAU MUIRURI,,JCD
PI42GPTF0M,04/09/2021 11:29,04/09/2021 11:29,Pay Bill from 0727455001 - Winnie Akoth Ouma Acc. HEE,Completed,8000,,71500,TRUE,Pay Utility,0727455001 - Winnie Akoth Ouma,,HEE
PI49GPKHLZ,04/09/2021 11:25,04/09/2021 11:25,Pay Bill from 254723597642 - EMMANUEL RONO Acc. IFF,Completed,10000,,63500,TRUE,Pay Utility,254723597642 - EMMANUEL RONO,,IFF
PI48GP41E8,04/09/2021 11:16,04/09/2021 11:16,Pay Bill from 254722940643 - HERBERT MAVIAH ISWEKA Acc. HCG,Completed,30000,,53500,TRUE,Pay Utility with OD via STK,254722940643 - HERBERT MAVIAH ISWEKA,,HCG
PI42GNTRUM,04/09/2021 10:52,04/09/2021 10:52,Pay Bill from 0710115076 - FARDOSA ABDINUR MOHAMED Acc. jaa,Completed,23500,,23500,TRUE,Pay Utility,0710115076 - FARDOSA ABDINUR MOHAMED,,jaa
PI47GMAZYZ,04/09/2021 10:22,04/09/2021 10:22,Utility Account to Organization Settlement Account,Completed,,-25000,0,TRUE,Utility Account to Organization Settlement Account,979524 - ANCIENT WELLS PROPERTY MANAGERS 2,,
PI49GIRFFD,04/09/2021 09:10,04/09/2021 09:10,Pay Bill from 254728854349 - JOSEPH MUSYOKA Acc. IBG,Completed,8000,,25000,TRUE,Pay Utility,254728854349 - JOSEPH MUSYOKA,,IBG
PI49GHT7I7,04/09/2021 08:49,04/09/2021 08:49,Pay Bill from 254722276550 - ISAAC NYAMRER Acc. kgc,Completed,9000,,17000,TRUE,Pay Utility,254722276550 - ISAAC NYAMRER,,kgc
PI49GH2SR9,04/09/2021 08:32,04/09/2021 08:32,Pay Bill from 254722514052 - JOSEPH NDIRANGU Acc. JCF,Completed,8000,,8000,TRUE,Pay Utility,254722514052 - JOSEPH NDIRANGU,,JCF
PI42GFWDVA,04/09/2021 08:03,04/09/2021 08:03,Utility Account to Organization Settlement Account,Completed,,-194000,0,TRUE,Utility Account to Organization Settlement Account,979524 - ANCIENT WELLS PROPERTY MANAGERS 2,,
PI41GD61C3,04/09/2021 05:47,04/09/2021 05:47,Pay Bill from 254702355678 - JOHN NJOROGE GICHERU Acc. ITE,Completed,10000,,194000,TRUE,Pay Utility,254702355678 - JOHN NJOROGE GICHERU,,ITE
PI34GB59LM,03/09/2021 22:56,03/09/2021 22:56,Pay Bill from 254703935626 - DAVID NGARI ITA Acc. FCD,Completed,1000,,184000,TRUE,Pay Utility,254703935626 - DAVID NGARI ITA,,FCD
PI36G8NPZ4,03/09/2021 21:32,03/09/2021 21:32,Pay Bill from 254718242028 - PAULINA NYAMWITHIA Acc. Kca,Completed,17000,,183000,TRUE,Pay Utility,254718242028 - PAULINA NYAMWITHIA,,Kca
PI37G4VE61,03/09/2021 20:25,03/09/2021 20:25,Pay Bill from 254790627132 - Everline Mutave Kiio Acc. IGG,Completed,8000,,166000,TRUE,Pay Utility,254790627132 - Everline Mutave Kiio,,IGG
PI38FWN8DM,03/09/2021 18:45,03/09/2021 18:45,Pay Bill from 254725381062 - VICTOR MAITHYA Acc. HEG,Completed,3000,,158000,TRUE,Pay Utility with OD via STK,254725381062 - VICTOR MAITHYA,,HEG
PI33FRIQN9,03/09/2021 17:38,03/09/2021 17:38,Pay Bill from 254713404029 - ANNE ISEUNA Acc. DED,Completed,20000,,155000,TRUE,Pay Utility,254713404029 - ANNE ISEUNA,,DED
PI31FQRYBN,03/09/2021 17:27,03/09/2021 17:27,Pay Bill from 254726028330 - JOHN WAMBUA Acc. IFH,Completed,15000,,135000,TRUE,Pay Utility,254726028330 - JOHN WAMBUA,,IFH
PI32FQDAYY,03/09/2021 17:21,03/09/2021 17:21,Pay Bill from 254728670882 - SHARAD EDWARD ADALA OLUM Acc. KCK,Completed,15000,,120000,TRUE,Pay Utility,254728670882 - SHARAD EDWARD ADALA OLUM,,KCK
PI35FK5E1Z,03/09/2021 15:40,03/09/2021 15:40,Pay Bill from 0758591833 - DORCUS MBULA PETER Acc. HDD,Completed,9000,,105000,TRUE,Pay Utility,0758591833 - DORCUS MBULA PETER,,HDD
PI36FJZ1O2,03/09/2021 15:37,03/09/2021 15:37,Pay Bill Online from 254704682516 - Winnie Akinyi Omollo Acc. FDA,Completed,16000,,96000,TRUE,Pay Bill Online,254704682516 - Winnie Akinyi Omollo,,FDA
PI31FI2M0T,03/09/2021 15:03,03/09/2021 15:03,Pay Bill from 0727455001 - Winnie Akoth Ouma Acc. HEE,Completed,15000,,80000,TRUE,Pay Utility with OD via STK,0727455001 - Winnie Akoth Ouma,,HEE
PI39FGEFNV,03/09/2021 14:33,03/09/2021 14:33,Pay Bill from 0769714506 - edith      gakii Acc. FCB,Completed,16000,,65000,TRUE,Pay Utility,0769714506 - edith      gakii,,FCB
PI34FBQURU,03/09/2021 13:07,03/09/2021 13:07,Pay Bill from 254716958353 - EVERYNE MURUMWA BUTICHI Acc. JBH,Completed,33000,,49000,TRUE,Pay Utility,254716958353 - EVERYNE MURUMWA BUTICHI,,JBH
PI36F1PIIO,03/09/2021 09:53,03/09/2021 09:53,Pay Bill from 254702346515 - ELIZABETH ACHIENG NGOME Acc. KDE,Completed,10000,,16000,TRUE,Pay Utility,254702346515 - ELIZABETH ACHIENG NGOME,,KDE
PI37F082WZ,03/09/2021 09:23,03/09/2021 09:23,Pay Bill from 254723699555 - DIANA NYAIREGI GICHIA Acc. FBF,Completed,6000,,6000,TRUE,Pay Utility,254723699555 - DIANA NYAIREGI GICHIA,,FBF
PI31EYC19V,03/09/2021 08:41,03/09/2021 08:41,Utility Account to Organization Settlement Account,Completed,,-141500,0,TRUE,Utility Account to Organization Settlement Account,979524 - ANCIENT WELLS PROPERTY MANAGERS 2,,
PI33EVY71L,03/09/2021 07:41,03/09/2021 07:41,Pay Bill from 254722444622 - CHARITY KAGWAINI Acc. ffd,Completed,11000,,141500,TRUE,Pay Utility,254722444622 - CHARITY KAGWAINI,,ffd
PI38EVHSUS,03/09/2021 07:26,03/09/2021 07:26,Pay Bill Online from 254720451253 - JIMMY KIOGORA NKIROTE Acc. KBD,Completed,4000,,130500,TRUE,Pay Utility with OD Online,254720451253 - JIMMY KIOGORA NKIROTE,,KBD
PI21ES7QKB,02/09/2021 23:19,02/09/2021 23:19,Pay Bill from 254729796719 - JACINTA WANJIKU NJERI Acc. FFF,Completed,17000,,126500,TRUE,Pay Utility,254729796719 - JACINTA WANJIKU NJERI,,FFF
PI22EQW9C4,02/09/2021 22:10,02/09/2021 22:10,Pay Bill Online from 254717809935 - LYDIAH WERU Acc. IDC,Completed,9500,,109500,TRUE,Pay Bill Online,254717809935 - LYDIAH WERU,,IDC
PI26ENT3Y8,02/09/2021 20:59,02/09/2021 20:59,Pay Bill from 0742952242 - Isaac tuitoek cheserem Acc. IBI,Completed,10000,,100000,TRUE,Pay Utility,0742952242 - Isaac tuitoek cheserem,,IBI
PI28EN5IZS,02/09/2021 20:47,02/09/2021 20:47,Pay Bill from 254716315144 - PETER MUNYIRI WAROTERE Acc. FBB,Completed,16000,,90000,TRUE,Pay Utility,254716315144 - PETER MUNYIRI WAROTERE,,FBB
PI26EM47K4,02/09/2021 20:30,02/09/2021 20:30,Pay Bill Online from 254717780356 - ALFRED MAIRURA Acc. FAF,Completed,16000,,74000,TRUE,Pay Bill Online,254717780356 - ALFRED MAIRURA,,FAF
PI25EIBQLF,02/09/2021 19:39,02/09/2021 19:39,Pay Bill Online from 254706898046 - STACY AKETCH OCHUKA Acc. KGK,Completed,15000,,58000,TRUE,Pay Bill Online,254706898046 - STACY AKETCH OCHUKA,,KGK
PI29EI3MYD,02/09/2021 19:36,02/09/2021 19:36,Pay Bill from 254724466518 - EUNICE NDUTA Acc. KFF,Completed,9500,,43000,TRUE,Pay Utility,254724466518 - EUNICE NDUTA,,KFF
PI20ECEFG4,02/09/2021 18:31,02/09/2021 18:31,Pay Bill Online from 254714710698 - TABITHA MULEE KYALO Acc. IFD,Completed,11500,,33500,TRUE,Pay Bill Online,254714710698 - TABITHA MULEE KYALO,,IFD
PI24E9SP3K,02/09/2021 17:57,02/09/2021 17:57,Pay Bill from 0758826849 -  Norah Awala Anyango Acc. JEA,Completed,20000,,22000,TRUE,Pay Utility with OD via STK,0758826849 -  Norah Awala Anyango,,JEA
PI29E9I1UH,02/09/2021 17:53,02/09/2021 17:53,Pay Bill Online from 254723843982 - MOSES KIPCHIRCHIR ROTICH Acc. IEE,Completed,2000,,2000,TRUE,Pay Bill Online,254723843982 - MOSES KIPCHIRCHIR ROTICH,,IEE
PI26E31TY0,02/09/2021 16:10,02/09/2021 16:10,Utility Account to Organization Settlement Account,Completed,,-50500,0,TRUE,Utility Account to Organization Settlement Account,979524 - ANCIENT WELLS PROPERTY MANAGERS 2,,
PI29E181S7,02/09/2021 15:37,02/09/2021 15:37,Pay Bill from 254721977151 - MIRIAM KIKOLYA Acc. KEA,Completed,4000,,50500,TRUE,Pay Utility with OD via STK,254721977151 - MIRIAM KIKOLYA,,KEA
PI23DWEK3L,02/09/2021 14:06,02/09/2021 14:06,Pay Bill Online from 254792187144 - HASSAN AHMED HASSAN Acc. KGI,Completed,10000,,46500,TRUE,Pay Bill Online,254792187144 - HASSAN AHMED HASSAN,,KGI
PI29DVFJHJ,02/09/2021 13:48,02/09/2021 13:48,Pay Bill from 254742911013 - HANEST AMIMO Acc. IEG,Completed,8000,,36500,TRUE,Pay Utility,254742911013 - HANEST AMIMO,,IEG
PI29DRU06X,02/09/2021 12:41,02/09/2021 12:41,Pay Bill from 254718672924 - LILIAN CHEBET NGENO Acc. KGD,Completed,10000,,28500,TRUE,Pay Utility,254718672924 - LILIAN CHEBET NGENO,,KGD
PI21DRAGF5,02/09/2021 12:30,02/09/2021 12:30,Pay Bill Online from 254710814215 - JOAN NYAMBURA KAMAU Acc. ifb,Completed,15000,,18500,TRUE,Pay Bill Online,254710814215 - JOAN NYAMBURA KAMAU,,ifb
PI24DQWTCM,02/09/2021 12:23,02/09/2021 12:23,Pay Bill from 254725381062 - VICTOR MAITHYA Acc. HEG,Completed,3500,,3500,TRUE,Pay Utility,254725381062 - VICTOR MAITHYA,,HEG
PI20DN7LYM,02/09/2021 11:11,02/09/2021 11:11,Utility Account to Organization Settlement Account,Completed,,-27500,0,TRUE,Utility Account to Organization Settlement Account,979524 - ANCIENT WELLS PROPERTY MANAGERS 2,,
PI25DLZP6Z,02/09/2021 10:47,02/09/2021 10:47,Pay Bill from 254719285750 - LILIAN ACHIENG ODONGO Acc. IGE,Completed,9000,,27500,TRUE,Pay Utility,254719285750 - LILIAN ACHIENG ODONGO,,IGE
PI26DKIEPG,02/09/2021 10:18,02/09/2021 10:18,Pay Bill from 254715742045 - FRIDAH KIEMA Acc. HGC,Completed,9500,,18500,TRUE,Pay Utility with OD via STK,254715742045 - FRIDAH KIEMA,,HGC
PI23DH1E21,02/09/2021 09:06,02/09/2021 09:06,Pay Bill from 0745378455 - harriet nyanchama nyaberi Acc. FCC,Completed,9000,,9000,TRUE,Pay Utility,0745378455 - harriet nyanchama nyaberi,,FCC
PI27DDEAU7,02/09/2021 07:34,02/09/2021 07:34,Utility Account to Organization Settlement Account,Completed,,-111000,0,TRUE,Utility Account to Organization Settlement Account,979524 - ANCIENT WELLS PROPERTY MANAGERS 2,,
PI17D92RNN,01/09/2021 22:26,01/09/2021 22:26,Pay Bill from 254722743980 - BENSON MEMUSI KOIKAI Acc. IBD,Completed,11000,,111000,TRUE,Pay Utility,254722743980 - BENSON MEMUSI KOIKAI,,IBD
PI19D6NCEV,01/09/2021 21:17,01/09/2021 21:17,Pay Bill from 254723499628 - CLINTON JOSEPH MUHARI Acc. hfh,Completed,16000,,100000,TRUE,Pay Utility,254723499628 - CLINTON JOSEPH MUHARI,,hfh
PI13D35CJV,01/09/2021 20:18,01/09/2021 20:18,Pay Bill from 254721465713 - RHODA WAMBUI MWANGI Acc. jfh,Completed,17000,,84000,TRUE,Pay Utility,254721465713 - RHODA WAMBUI MWANGI,,jfh
PI16CZYHQC,01/09/2021 19:35,01/09/2021 19:35,Pay Bill from 254717726012 - WINFRED MUENI PETER Acc. IDA,Completed,16000,,67000,TRUE,Pay Utility,254717726012 - WINFRED MUENI PETER,,IDA
PI17CZ2TQX,01/09/2021 19:25,01/09/2021 19:25,Pay Bill from 254721302658 - JACOB BIRUNDU Acc. DDB,Completed,16000,,51000,TRUE,Pay Utility,254721302658 - JACOB BIRUNDU,,DDB
PI15CYDWZT,01/09/2021 19:17,01/09/2021 19:17,Pay Bill from 0114558202 - Bakari Ali Kitsaka Acc. JAD,Completed,15000,,35000,TRUE,Pay Utility,0114558202 - Bakari Ali Kitsaka,,JAD
PI13CX1MQT,01/09/2021 19:02,01/09/2021 19:02,Pay Bill from 254724435274 - WINFRED MBINYA MUNUVE Acc. JEI,Completed,20000,,20000,TRUE,Pay Utility,254724435274 - WINFRED MBINYA MUNUVE,,JEI
PI17CURX1T,01/09/2021 18:36,01/09/2021 18:36,Utility Account to Organization Settlement Account,Completed,,-185000,0,TRUE,Utility Account to Organization Settlement Account,979524 - ANCIENT WELLS PROPERTY MANAGERS 2,,
PI18CPN7BK,01/09/2021 17:27,01/09/2021 17:27,Pay Bill Online from 254711562428 - Lionel Mutune Muoka Acc. KDI,Completed,11000,,185000,TRUE,Pay Bill Online,254711562428 - Lionel Mutune Muoka,,KDI
PI18COALU6,01/09/2021 17:06,01/09/2021 17:06,Pay Bill from 254717053159 - FREDRICK NYATIKA Acc. IEF,Completed,11000,,174000,TRUE,Pay Utility,254717053159 - FREDRICK NYATIKA,,IEF
PI17CJZZF1,01/09/2021 15:54,01/09/2021 15:54,Pay Bill from 254700382442 - EVERLYNE MWENDE MUMO Acc. FGC,Completed,9000,,163000,TRUE,Pay Utility,254700382442 - EVERLYNE MWENDE MUMO,,FGC
PI16CE40CO,01/09/2021 14:04,01/09/2021 14:04,Pay Bill from 254724852503 - GEOFREY YEGO Acc. JFF,Completed,10000,,154000,TRUE,Pay Utility,254724852503 - GEOFREY YEGO,,JFF
PI14CDD9PW,01/09/2021 13:51,01/09/2021 13:51,Pay Bill from 254711123196 - JUDITH MUTUA Acc. Fea,Completed,22000,,144000,TRUE,Pay Utility,254711123196 - JUDITH MUTUA,,Fea
PI10C9EMF8,01/09/2021 12:36,01/09/2021 12:36,Pay Bill from 254729371750 - DERRICK OTANGA Acc. FEF,Completed,17000,,122000,TRUE,Pay Utility,254729371750 - DERRICK OTANGA,,FEF
PI14C7H1AC,01/09/2021 11:59,01/09/2021 11:59,Pay Bill Online from 254795510441 - LEWIS MUEMA Acc. KEB,Completed,16000,,105000,TRUE,Pay Bill Online,254795510441 - LEWIS MUEMA,,KEB
PI17C57VD9,01/09/2021 11:14,01/09/2021 11:14,Pay Bill from 254710239100 - PHILOMENA WOKI MUTHAMA Acc. KDK,Completed,17000,,89000,TRUE,Pay Utility,254710239100 - PHILOMENA WOKI MUTHAMA,,KDK
PI13C4Q3HL,01/09/2021 11:05,01/09/2021 11:05,Pay Bill from 0717216114 - Felix Njeru Mugambi Acc. kdf,Completed,10000,,72000,TRUE,Pay Utility,0717216114 - Felix Njeru Mugambi,,kdf
PI16C2YJJA,01/09/2021 10:30,01/09/2021 10:30,Pay Bill Online from 254726001437 - FESTUS MUNYIRI MAINA Acc. JCA,Completed,23000,,62000,TRUE,Pay Bill Online,254726001437 - FESTUS MUNYIRI MAINA,,JCA
PI15BYUKIH,01/09/2021 09:05,01/09/2021 09:05,Pay Bill from 254726753273 - JESSE K MURIRMI NJERU Acc. HCH,Completed,17000,,39000,TRUE,Pay Utility,254726753273 - JESSE K MURIRMI NJERU,,HCH
PI17BYKQUV,01/09/2021 08:59,01/09/2021 08:59,Pay Bill from 254728093389 - MOHAMED MUSA ALASOW Acc. KED,Completed,12000,,22000,TRUE,Pay Utility,254728093389 - MOHAMED MUSA ALASOW,,KED
PI12BVLXCO,01/09/2021 07:47,01/09/2021 07:47,Pay Bill from 0757004678 - AGGREY WANDA WAFULA Acc. IAC,Completed,10000,,10000,TRUE,Pay Utility,0757004678 - AGGREY WANDA WAFULA,,IAC
PI18BV939A,01/09/2021 07:37,01/09/2021 07:37,Utility Account to Organization Settlement Account,Completed,,-198500,0,TRUE,Utility Account to Organization Settlement Account,979524 - ANCIENT WELLS PROPERTY MANAGERS 2,,
PI12BV5NQ6,01/09/2021 07:34,01/09/2021 07:34,Pay Bill Online from 254714855708 - KIPLANGAT SITIENEI Acc. FAE,Completed,16000,,198500,TRUE,Pay Bill Online,254714855708 - KIPLANGAT SITIENEI,,FAE
PI11BTDFEJ,01/09/2021 06:09,01/09/2021 06:09,Pay Bill from 254707226192 - NICHOLUS MAINGI MWANTHI Acc. HBF,Completed,9000,,182500,TRUE,Pay Utility,254707226192 - NICHOLUS MAINGI MWANTHI,,HBF
PI18BT4X38,01/09/2021 05:39,01/09/2021 05:39,Pay Bill Online from 254727766786 - JOHN MAITHA MULWA Acc. IBH,Completed,10000,,173500,TRUE,Pay Bill Online,254727766786 - JOHN MAITHA MULWA,,IBH
PI12BSTQCG,01/09/2021 04:27,01/09/2021 04:27,Pay Bill Online from 254724005780 - IVY MARGARET OGOLA Acc. FFB,Completed,15000,,163500,TRUE,Pay Bill Online,254724005780 - IVY MARGARET OGOLA,,FFB
PI17BS2B0F,01/09/2021 01:29,01/09/2021 01:29,Pay Bill from 254718284151 - EVERLINE MATHEKA Acc. JAG,Completed,9000,,148500,TRUE,Pay Utility,254718284151 - EVERLINE MATHEKA,,JAG
