Receipt No.,Completion Time,Initiation Time,Details,Transaction Status,Paid In,Withdrawn,Balance,Balance Confirmed,Reason Type,Other Party Info,Linked Transaction ID,A/C No.
QH60QTO9XO,06/08/2022 08:09,06/08/2022 08:09,Pay Bill from 254706859500 - JULIA NJAMBI WAINAINA Acc. u2u4,Completed,1800,,7500,TRUE,Pay Utility,254706859500 - JULIA NJAMBI WAINAINA,,u2u4
QH56QMJ5H2,05/08/2022 23:39,05/08/2022 23:39,Pay Bill from 254725749776 - BEN KORIR Acc. IDF,Completed,500,,5700,TRUE,Pay Utility with OD via STK,254725749776 - BEN KORIR,,IDF
QH57Q1M55N,05/08/2022 19:05,05/08/2022 19:05,Pay Bill from 254720201157 - BENSON INYANJE MWAKHA Acc. b6,Completed,400,,5200,TRUE,Pay Utility,254720201157 - BENSON INYANJE MWAKHA,,b6
QH57Q1KR7B,05/08/2022 19:04,05/08/2022 19:04,Pay Bill Online from 254721465713 - RHODA WAMBUI MWANGI Acc. Jfh,Completed,1000,,4800,TRUE,Pay Bill Online,254721465713 - RHODA WAMBUI MWANGI,,Jfh
QH56PWVPHQ,05/08/2022 18:22,05/08/2022 18:22,Pay Bill from 254729355933 - FELISTAH NJERI WAIRIMU Acc. IDI,Completed,2000,,3800,TRUE,Pay Utility with OD via STK,254729355933 - FELISTAH NJERI WAIRIMU,,IDI
QH57PSW9LR,05/08/2022 17:42,05/08/2022 17:42,Pay Bill from 254720466443 - FATUMA MOHAMED ABDALLAH Acc. V21,Completed,200,,1800,TRUE,Pay Utility,254720466443 - FATUMA MOHAMED ABDALLAH,,V21
QH50PQOOAQ,05/08/2022 17:18,05/08/2022 17:18,Pay Bill from 254725478531 - KIPKORIR KUTO Acc. DFB,Completed,600,,1600,TRUE,Pay Utility,254725478531 - KIPKORIR KUTO,,DFB
QH52PHPKOG,05/08/2022 15:30,05/08/2022 15:30,Pay Bill from 0114093036 - Cecillia Njeri Githui Acc. C3,Completed,400,,1000,TRUE,Pay Utility,0114093036 - Cecillia Njeri Githui,,C3
QH54P1P77Y,05/08/2022 12:03,05/08/2022 12:03,Pay Bill from 254723815832 - SEMEKIA ONDIALA Acc. V38,Completed,600,,600,TRUE,Pay Utility,254723815832 - SEMEKIA ONDIALA,,V38
QH57OR0N6R,05/08/2022 09:37,05/08/2022 09:37,Utility Account to Organization Settlement Account,Completed,,-54900,0,TRUE,Utility Account to Organization Settlement Account,846783 - ANCIENT WELLS LTD 4,,
QH56ONNY2K,05/08/2022 08:45,05/08/2022 08:45,Pay Bill from 0791565463 - Lilian Njeri Wakagwi Acc. F6,Completed,400,,54900,TRUE,Pay Utility with OD via STK,0791565463 - Lilian Njeri Wakagwi,,F6
QH58OG64Q2,05/08/2022 01:13,05/08/2022 01:13,Pay Bill from 254708875278 - ROSEMARY WANJIRU KONYE Acc. HBF,Completed,400,,54500,TRUE,Pay Utility,254708875278 - ROSEMARY WANJIRU KONYE,,HBF
QH43OEJIXP,04/08/2022 23:09,04/08/2022 23:09,Pay Bill from 254700557767 - BAKHITA MWENDE MUANGE Acc. kcb,Completed,1000,,54100,TRUE,Pay Utility,254700557767 - BAKHITA MWENDE MUANGE,,kcb
QH40O1ER72,04/08/2022 19:57,04/08/2022 19:57,Pay Bill Online from 254714536026 - LILIAN AWUOR ONYANGO Acc. HDC,Completed,400,,53100,TRUE,Pay Bill Online,254714536026 - LILIAN AWUOR ONYANGO,,HDC
QH46NXNUP2,04/08/2022 19:25,04/08/2022 19:25,Pay Bill from 254715256302 - RUTH N NDUMA Acc. IGH ,Completed,600,,52700,TRUE,Pay Utility,254715256302 - RUTH N NDUMA,,IGH
QH41NO3JIJ,04/08/2022 17:57,04/08/2022 17:57,Pay Bill Online from 254715020357 - ELIZABETH NJERI WARARI Acc. C2,Completed,600,,52100,TRUE,Pay Bill Online,254715020357 - ELIZABETH NJERI WARARI,,C2
QH48NJ4FLQ,04/08/2022 17:03,04/08/2022 17:03,Pay Bill from 254724103759 - RICHARD NKAABO Acc. jej,Completed,2600,,51500,TRUE,Pay Utility with OD via STK,254724103759 - RICHARD NKAABO,,jej
QH42NGSWGW,04/08/2022 16:36,04/08/2022 16:36,Pay Bill from 254706248362 - BERYL HUMA Acc. E5,Completed,1000,,48900,TRUE,Pay Utility,254706248362 - BERYL HUMA,,E5
QH48NFVNHO,04/08/2022 16:25,04/08/2022 16:25,Pay Bill from 254728854349 - JOSEPH MUSYOKA Acc. IBG,Completed,500,,47900,TRUE,Pay Utility,254728854349 - JOSEPH MUSYOKA,,IBG
QH45NCDR9L,04/08/2022 15:41,04/08/2022 15:41,Pay Bill from 254726945691 - JAMES RAMTU Acc. B5,Completed,1000,,47400,TRUE,Pay Utility,254726945691 - JAMES RAMTU,,B5
QH42N6A8VE,04/08/2022 14:20,04/08/2022 14:20,Pay Bill from 254726645592 - Ephantus Muriithi Irura Acc. c4 Muriithi,Completed,400,,46400,TRUE,Pay Utility,254726645592 - Ephantus Muriithi Irura,,c4
QH46MUA8J2,04/08/2022 11:41,04/08/2022 11:41,Pay Bill Online from 254714552193 - CHRISTOPHER OCHIENG Acc. JGI,Completed,1500,,46000,TRUE,Pay Bill Online,254714552193 - CHRISTOPHER OCHIENG,,JGI
QH42MM90H2,04/08/2022 09:49,04/08/2022 09:49,Pay Bill Online from 254710814215 - JOAN NYAMBURA KAMAU Acc. ifb,Completed,800,,44500,TRUE,Pay Bill Online,254710814215 - JOAN NYAMBURA KAMAU,,ifb
QH42MLSA9W,04/08/2022 09:43,04/08/2022 09:43,Pay Bill Online from 254720696119 - DUNCAN OMONDI OKETCH Acc. IAG,Completed,800,,43700,TRUE,Pay Bill Online,254720696119 - DUNCAN OMONDI OKETCH,,IAG
QH35M9VJA9,03/08/2022 23:34,03/08/2022 23:34,Pay Bill Online from 254719134037 - KELVIN KITOO Acc. FAA,Completed,1000,,42900,TRUE,Pay Bill Online,254719134037 - KELVIN KITOO,,FAA
QH38M6ILTC,03/08/2022 21:56,03/08/2022 21:56,Pay Bill from 254714419834 - FAITH MWIKALI MUTHAMA Acc. d4,Completed,1000,,41900,TRUE,Pay Utility,254714419834 - FAITH MWIKALI MUTHAMA,,d4
QH32M5AEUQ,03/08/2022 21:36,03/08/2022 21:36,Pay Bill Online from 254721417560 - ANDREW SANDE Acc. JBJ,Completed,1000,,40900,TRUE,Pay Bill Online,254721417560 - ANDREW SANDE,,JBJ
QH32LXQFNO,03/08/2022 20:06,03/08/2022 20:06,Pay Bill from 0719349205 - Christabel Gakii Munene Acc. D1,Completed,200,,39900,TRUE,Pay Utility,0719349205 - Christabel Gakii Munene,,D1
QH34LU5BSY,03/08/2022 19:34,03/08/2022 19:34,Pay Bill from 254712091662 - BENARD OMONDI ROBY Acc. V16,Completed,600,,39700,TRUE,Pay Utility,254712091662 - BENARD OMONDI ROBY,,V16
QH37LJOHQ5,03/08/2022 18:00,03/08/2022 18:00,Pay Bill Online from 254715892656 - DENNIS MUSYOKA MUOKI Acc. KFA,Completed,400,,39100,TRUE,Pay Bill Online,254715892656 - DENNIS MUSYOKA MUOKI,,KFA
QH35LHUTGH,03/08/2022 17:41,03/08/2022 17:41,Pay Bill from 254723499628 - CLINTON JOSEPH MUHARI Acc. hfh,Completed,1000,,38700,TRUE,Pay Utility,254723499628 - CLINTON JOSEPH MUHARI,,hfh
QH30KS646Q,03/08/2022 12:20,03/08/2022 12:20,Pay Bill from 254725771056 - CHARLES MURAGURI Acc. FCE,Completed,600,,37700,TRUE,Pay Utility,254725771056 - CHARLES MURAGURI,,FCE
QH37KP3NSD,03/08/2022 11:38,03/08/2022 11:38,Pay Bill from 254719398942 - NORAH WAYUA MUNYAO Acc. KDA,Completed,800,,37100,TRUE,Pay Utility,254719398942 - NORAH WAYUA MUNYAO,,KDA
QH39K9V1AN,03/08/2022 07:46,03/08/2022 07:46,Pay Bill Online from 254792584569 - LUCY MWALIMO Acc. IAD,Completed,200,,36300,TRUE,Pay Bill Online,254792584569 - LUCY MWALIMO,,IAD
QH26K2LC7Y,02/08/2022 22:16,02/08/2022 22:16,Pay Bill from 254741791919 - Linet Mongina Maraga Acc. u3,Completed,600,,36100,TRUE,Pay Utility,254741791919 - Linet Mongina Maraga,,u3
QH29JVN5S3,02/08/2022 20:31,02/08/2022 20:31,Pay Bill Online from 254722258756 - DAVID KEMBOI Acc. HDA,Completed,800,,35500,TRUE,Pay Utility with OD Online,254722258756 - DAVID KEMBOI,,HDA
QH21JSKFC7,02/08/2022 20:00,02/08/2022 20:00,Pay Bill Online from 254714563486 - BRIAN MMATA MUSERA Acc. KBJ,Completed,600,,34700,TRUE,Pay Bill Online,254714563486 - BRIAN MMATA MUSERA,,KBJ
QH22JQN93C,02/08/2022 19:42,02/08/2022 19:42,Pay Bill from 254725754547 - MWACHIRO GEORGE DECHE Acc. DFC,Completed,1800,,34100,TRUE,Pay Utility,254725754547 - MWACHIRO GEORGE DECHE,,DFC
QH20JMIAY2,02/08/2022 19:07,02/08/2022 19:07,Pay Bill from 0700616526 - Lionel Uchechukwu Kibathi Acc. Leah b2,Completed,1500,,32300,TRUE,Pay Utility,0700616526 - Lionel Uchechukwu Kibathi,,Leah
QH27JKHBB9,02/08/2022 18:49,02/08/2022 18:49,Pay Bill from 0700616526 - Lionel Uchechukwu Kibathi Acc. Leah b2,Completed,13500,,30800,TRUE,Pay Utility,0700616526 - Lionel Uchechukwu Kibathi,,Leah
QH22JF9L80,02/08/2022 17:58,02/08/2022 17:58,Pay Bill Online from 254714855708 - KIPLANGAT SITIENEI Acc. FAE,Completed,1200,,17300,TRUE,Pay Bill Online,254714855708 - KIPLANGAT SITIENEI,,FAE
QH27J3SXA9,02/08/2022 15:44,02/08/2022 15:44,Pay Bill from 254791341895 - Enos Nyaosi Ayuma Acc. D5,Completed,600,,16100,TRUE,Pay Utility with OD via STK,254791341895 - Enos Nyaosi Ayuma,,D5
QH22J2AQJQ,02/08/2022 15:24,02/08/2022 15:24,Pay Bill Online from 254711877988 - PATRICK KONZI Acc. b4,Completed,500,,15500,TRUE,Pay Bill Online,254711877988 - PATRICK KONZI,,b4
QH26IQORBU,02/08/2022 12:49,02/08/2022 12:49,Pay Bill Online from 254726001437 - FESTUS MUNYIRI MAINA Acc. IFF,Completed,600,,15000,TRUE,Pay Bill Online,254726001437 - FESTUS MUNYIRI MAINA,,IFF
QH21IL9DVJ,02/08/2022 11:35,02/08/2022 11:35,Pay Bill from 254727585857 - PETER MUOKI NGUNDO Acc. Peter Ngundo e6,Completed,500,,14400,TRUE,Pay Utility,254727585857 - PETER MUOKI NGUNDO,,Peter
QH28IJVOOM,02/08/2022 11:16,02/08/2022 11:16,Pay Bill from 0721436195 - KIPKOECH   CHARLES Acc. E2,Completed,800,,13900,TRUE,Pay Utility,0721436195 - KIPKOECH   CHARLES,,E2
QH24I4J2OM,02/08/2022 07:02,02/08/2022 07:02,Pay Bill from 254711650034 - Lucky Ngoya Acc. JAA,Completed,500,,13100,TRUE,Pay Utility,254711650034 - Lucky Ngoya,,JAA
QH21I44YMJ,02/08/2022 06:50,02/08/2022 06:50,Business Pay Bill by 488519 - NCBA  Bank M-pesa Acc. DCC via API,Completed,1000,,12600,TRUE,Business Pay Bill via API,488519 - NCBA  Bank M-pesa,,DCC
QH20I2EC04,02/08/2022 03:50,02/08/2022 03:50,Pay Bill from 254720550403 - GRACE WANGONDU Acc. jfi,Completed,2000,,11600,TRUE,Pay Utility,254720550403 - GRACE WANGONDU,,jfi
QH14HZOEIG,01/08/2022 22:50,01/08/2022 22:50,Pay Bill from 254720407659 - FRANCIS CHUMO Acc. KDG,Completed,400,,9600,TRUE,Pay Utility,254720407659 - FRANCIS CHUMO,,KDG
QH14HU8GKI,01/08/2022 21:06,01/08/2022 21:06,Pay Bill from 254796848496 - IVY WITABA Acc. JBA,Completed,2000,,9200,TRUE,Pay Utility,254796848496 - IVY WITABA,,JBA
QH10HHXPRQ,01/08/2022 19:09,01/08/2022 19:09,Pay Bill from 254711438010 - DORICE ELSIE AKINYI Acc. HCG,Completed,4800,,7200,TRUE,Pay Utility,254711438010 - DORICE ELSIE AKINYI,,HCG
QH12H87LKY,01/08/2022 17:41,01/08/2022 17:41,Pay Bill Online from 254706784429 - ROSE JEPKOECH RUTTO Acc. IFI,Completed,600,,2400,TRUE,Pay Bill Online,254706784429 - ROSE JEPKOECH RUTTO,,IFI
QH15GQO89R,01/08/2022 14:04,01/08/2022 14:04,Pay Bill from 254727766786 - JOHN MAITHA MULWA Acc. ibh,Completed,600,,1800,TRUE,Pay Utility,254727766786 - JOHN MAITHA MULWA,,ibh
QH16GAKMP8,01/08/2022 10:19,01/08/2022 10:19,Pay Bill from 254718244582 - GRANT WANANGWE Acc. KAH,Completed,1200,,1200,TRUE,Pay Utility,254718244582 - GRANT WANANGWE,,KAH
QH11G36FS3,01/08/2022 08:20,01/08/2022 08:20,Utility Account to Organization Settlement Account,Completed,,-48950,0,TRUE,Utility Account to Organization Settlement Account,846783 - ANCIENT WELLS LTD 4,,
