Receipt No.,Completion Time,Initiation Time,Details,Transaction Status,Paid In,Withdrawn,Balance,Balance Confirmed,Reason Type,Other Party Info,Linked Transaction ID,A/C No.
RJI1THOL0P,18/10/2023 13:22,18/10/2023 13:22,Pay Bill Online from 0706402366 - LUCY WANJIKU MICHINO Acc. KDB,Completed,10000,,21000,TRUE,Pay Bill Online,0706402366 - LUCY WANJIKU MICHINO,,KDB
RJI1T89GXV,18/10/2023 11:51,18/10/2023 11:51,Pay Bill Online from 254723370004 - LABAN MAINGI WAMBUA Acc. JEF,Completed,2000,,11000,TRUE,Pay Utility with OD Online,254723370004 - LABAN MAINGI WAMBUA,,JEF
RJI9T74VBH,18/10/2023 11:40,18/10/2023 11:40,Pay Bill Online from 254723930071 - AMOS KITAVI KIVITE Acc. JCE,Completed,9000,,9000,TRUE,Pay Bill Online,254723930071 - AMOS KITAVI KIVITE,,JCE
RJI5T6L1UX,18/10/2023 11:35,18/10/2023 11:35,Utility Account to Organization Settlement Account,Completed,,-81500,0,TRUE,Utility Account to Organization Settlement Account,979524 - ANCIENT WELLS PROPERTY MANAGERS 2,,
RJI1SWAABZ,18/10/2023 09:52,18/10/2023 09:52,Pay Bill Online from 254722928051 - GILBERT K NGETUNY Acc. JBE,Completed,1000,,81500,TRUE,Pay Utility with OD Online,254722928051 - GILBERT K NGETUNY,,JBE
RJI5SN6C29,18/10/2023 08:13,18/10/2023 08:13,Pay Bill from 254719779657 - SAMUEL NJOROGE Acc. JGA,Completed,5000,,80500,TRUE,Pay Utility,254719779657 - SAMUEL NJOROGE,,JGA
RJH3RTU34P,17/10/2023 20:12,17/10/2023 20:12,Pay Bill Online from 254704111133 - ELVIS OTIENO Acc. HFD,Completed,1000,,75500,TRUE,Pay Bill Online,254704111133 - ELVIS OTIENO,,HFD
RJH8RDMZV0,17/10/2023 18:40,17/10/2023 18:40,Pay Bill from 254717003817 - MARTHA GATHONI GATHERU Acc. fcf,Completed,25000,,74500,TRUE,Pay Utility,254717003817 - MARTHA GATHONI GATHERU,,fcf
RJH4QZO004,17/10/2023 17:04,17/10/2023 17:04,Pay Bill from 0743180837 - Caroline Kanana Mutiiria Acc. JDC,Completed,10000,,49500,TRUE,Pay Utility,0743180837 - Caroline Kanana Mutiiria,,JDC
RJH4QIAL9A,17/10/2023 14:23,17/10/2023 14:23,Pay Bill Online from 0111278177 - Alfred   Kishoin Acc. DAB,Completed,16000,,39500,TRUE,Pay Bill Online,0111278177 - Alfred   Kishoin,,DAB
RJH9Q7BBN1,17/10/2023 12:42,17/10/2023 12:42,Pay Bill from 0768413584 - Faith Mwelu Kivindyo Acc. lDf,Completed,17500,,23500,TRUE,Pay Utility,0768413584 - Faith Mwelu Kivindyo,,lDf
RJH0Q3T8Z4,17/10/2023 12:07,17/10/2023 12:07,Pay Bill from 254724435274 - WINFRED MBINYA MUNUVE Acc. DDC,Completed,5000,,6000,TRUE,Pay Utility,254724435274 - WINFRED MBINYA MUNUVE,,DDC
RJH4PUM80O,17/10/2023 10:36,17/10/2023 10:36,Pay Bill Online from 254722928051 - GILBERT K NGETUNY Acc. JBE,Completed,1000,,1000,TRUE,Pay Utility with OD Online,254722928051 - GILBERT K NGETUNY,,JBE
RJG3OHZVB5,16/10/2023 19:36,16/10/2023 19:36,Utility Account to Organization Settlement Account,Completed,,-60000,0,TRUE,Utility Account to Organization Settlement Account,979524 - ANCIENT WELLS PROPERTY MANAGERS 2,,
RJG8NR490K,16/10/2023 16:43,16/10/2023 16:43,Pay Bill from 254720257103 - NJENGA KURIA Acc. kca,Completed,16000,,60000,TRUE,Pay Utility,254720257103 - NJENGA KURIA,,kca
RJG1NLL30X,16/10/2023 15:55,16/10/2023 15:55,Pay Bill from 254720931007 - BRENDA NASIMIYU NYONGESA Acc. KAB,Completed,16000,,44000,TRUE,Pay Utility,254720931007 - BRENDA NASIMIYU NYONGESA,,KAB
RJG6NKCKHY,16/10/2023 15:43,16/10/2023 15:43,Pay Bill from 254722444622 - CHARITY KAGWAINI Acc. ffd,Completed,5000,,28000,TRUE,Pay Utility,254722444622 - CHARITY KAGWAINI,,ffd
RJG2MZEQRS,16/10/2023 12:28,16/10/2023 12:28,Pay Bill Online from 0718838251 - MARK KINYUA MAINA Acc. kfg,Completed,10000,,23000,TRUE,Pay Bill Online,0718838251 - MARK KINYUA MAINA,,kfg
RJG3MSZU67,16/10/2023 11:24,16/10/2023 11:24,Pay Bill from 0790946220 - Joyce Silvier Ombeyi Acc. IAG,Completed,9000,,13000,TRUE,Pay Utility,0790946220 - Joyce Silvier Ombeyi,,IAG
RJG1MOT3RL,16/10/2023 10:43,16/10/2023 10:43,Pay Bill from 254726337163 - HALIMA ALI HASSAN Acc. DDA,Completed,3000,,4000,TRUE,Pay Utility,254726337163 - HALIMA ALI HASSAN,,DDA
RJG2MJEW3M,16/10/2023 09:49,16/10/2023 09:49,Pay Bill Online from 254704111133 - ELVIS OTIENO Acc. HFD,Completed,1000,,1000,TRUE,Pay Bill Online,254704111133 - ELVIS OTIENO,,HFD
RJG6MDUJ34,16/10/2023 08:49,16/10/2023 08:49,Utility Account to Organization Settlement Account,Completed,,-66000,0,TRUE,Utility Account to Organization Settlement Account,979524 - ANCIENT WELLS PROPERTY MANAGERS 2,,
RJG9M9ZJ8V,16/10/2023 08:06,16/10/2023 08:06,Pay Bill Online from 254720451253 - JIMMY KIOGORA NKIROTE Acc. KBD,Completed,1000,,66000,TRUE,Pay Utility with OD Online,254720451253 - JIMMY KIOGORA NKIROTE,,KBD
RJF3KR8TSB,15/10/2023 17:00,15/10/2023 17:00,Pay Bill from 254722572104 - ERICK MURABULA Acc. hae,Completed,10000,,65000,TRUE,Pay Utility,254722572104 - ERICK MURABULA,,hae
RJF8K37JBS,15/10/2023 13:12,15/10/2023 13:12,Pay Bill from 0743371291 - Ann Murugi Gichohi Acc. KAD,Completed,17500,,55000,TRUE,Pay Utility,0743371291 - Ann Murugi Gichohi,,KAD
RJF0JDF3A0,15/10/2023 08:22,15/10/2023 08:22,Pay Bill from 254710357391 - CHEPKOECH VALENTINE Acc. KAH,Completed,10000,,37500,TRUE,Pay Utility,254710357391 - CHEPKOECH VALENTINE,,KAH
RJE0J1V5PY,14/10/2023 23:57,14/10/2023 23:57,Pay Bill Online from 254720451253 - JIMMY KIOGORA NKIROTE Acc. KBD,Completed,2000,,27500,TRUE,Pay Utility with OD Online,254720451253 - JIMMY KIOGORA NKIROTE,,KBD
RJE1J1C3X3,14/10/2023 23:39,14/10/2023 23:39,Pay Bill from 254726337163 - HALIMA ALI HASSAN Acc. DDA,Completed,5000,,25500,TRUE,Pay Utility,254726337163 - HALIMA ALI HASSAN,,DDA
RJE6IIBKI6,14/10/2023 20:06,14/10/2023 20:06,Pay Bill from 254722746480 - PATRICK OPEYWA AURA Acc. KGH,Completed,9500,,20500,TRUE,Pay Utility,254722746480 - PATRICK OPEYWA AURA,,KGH
RJE9IC6JVD,14/10/2023 19:29,14/10/2023 19:29,Pay Bill from 254796848496 - IVY WITABA Acc. FAA,Completed,5000,,11000,TRUE,Pay Utility,254796848496 - IVY WITABA,,FAA
RJE1HSI8UF,14/10/2023 17:29,14/10/2023 17:29,Pay Bill from 254720496449 - STANLEY KIPKOECH RONO Acc. FBE,Completed,6000,,6000,TRUE,Pay Utility with OD via STK,254720496449 - STANLEY KIPKOECH RONO,,FBE
RJE6HKPFYU,14/10/2023 16:27,14/10/2023 16:27,Utility Account to Organization Settlement Account,Completed,,-139000,0,TRUE,Utility Account to Organization Settlement Account,979524 - ANCIENT WELLS PROPERTY MANAGERS 2,,
RJE2HDY3NC,14/10/2023 15:28,14/10/2023 15:28,Pay Bill Online from 0715806956 - Mercy Jelagat Kalum Acc. FFE,Completed,15000,,139000,TRUE,Pay Bill Online,0715806956 - Mercy Jelagat Kalum,,FFE
RJE7GV30PR,14/10/2023 12:28,14/10/2023 12:28,Pay Bill Online from 254715764212 - BANCE ISHEMINYE Acc. JFE,Completed,2000,,124000,TRUE,Pay Bill Online,254715764212 - BANCE ISHEMINYE,,JFE
RJE5GUW5MF,14/10/2023 12:25,14/10/2023 12:25,Pay Bill from 254723966777 - BONIFACE MUTHAKA NGANGA Acc. IDG,Completed,9500,,122000,TRUE,Pay Utility,254723966777 - BONIFACE MUTHAKA NGANGA,,IDG
RJE3GS8BO1,14/10/2023 12:00,14/10/2023 12:00,Pay Bill Online from 254704111133 - ELVIS OTIENO Acc. HFD,Completed,1000,,112500,TRUE,Pay Bill Online,254704111133 - ELVIS OTIENO,,HFD
RJE8GPKYWQ,14/10/2023 11:35,14/10/2023 11:35,Pay Bill from 0757604316 - MOHAMED AYUB MUCHEKE Acc. FCA,Completed,6000,,111500,TRUE,Pay Utility,0757604316 - MOHAMED AYUB MUCHEKE,,FCA
RJE9GGQBUF,14/10/2023 10:12,14/10/2023 10:12,Pay Bill Online from 254742911013 - HANEST AMIMO Acc. IED,Completed,6000,,105500,TRUE,Pay Bill Online,254742911013 - HANEST AMIMO,,IED
RJE4GGHFSC,14/10/2023 10:10,14/10/2023 10:10,Pay Bill from 254711271263 - BENSON MWADIME JOSEPH Acc. HFC,Completed,9000,,99500,TRUE,Pay Utility,254711271263 - BENSON MWADIME JOSEPH,,HFC
RJE8GDU55Y,14/10/2023 09:44,14/10/2023 09:44,Pay Bill Online from 254722910078 - MAUREEN MUNYIVA MUTUKU Acc. DCD,Completed,7000,,90500,TRUE,Pay Bill Online,254722910078 - MAUREEN MUNYIVA MUTUKU,,DCD
RJD8FT5T50,13/10/2023 23:56,13/10/2023 23:56,Pay Bill from 254713147755 - OLO ROBA Acc. HBD,Completed,10000,,83500,TRUE,Pay Utility,254713147755 - OLO ROBA,,HBD
RJD4FRBAL0,13/10/2023 23:03,13/10/2023 23:03,Pay Bill Online from 254796878941 - PAUL KYALO MUENDO Acc. HBE,Completed,10000,,73500,TRUE,Pay Bill Online,254796878941 - PAUL KYALO MUENDO,,HBE
RJD9F630H3,13/10/2023 19:45,13/10/2023 19:45,Pay Bill from 254723399409 - RANDY OCHIENG ONDITI Acc. JAB,Completed,15000,,63500,TRUE,Pay Utility,254723399409 - RANDY OCHIENG ONDITI,,JAB
RJD1EUB9VB,13/10/2023 18:41,13/10/2023 18:41,Pay Bill from 254721780448 - EVERLYNE MIDEVA CHOGO Acc. jca,Completed,20000,,48500,TRUE,Pay Utility,254721780448 - EVERLYNE MIDEVA CHOGO,,jca
RJD0EMTQBI,13/10/2023 17:54,13/10/2023 17:54,Pay Bill from 0769952691 - ANNA ALUOCH OPONDO Acc. IEF,Completed,17500,,28500,TRUE,Pay Utility,0769952691 - ANNA ALUOCH OPONDO,,IEF
RJD9E8K14H,13/10/2023 16:03,13/10/2023 16:03,Pay Bill from 254711706815 - NAOMI WANYONYI Acc. KBA,Completed,11000,,11000,TRUE,Pay Utility,254711706815 - NAOMI WANYONYI,,KBA
RJD7DMPDM7,13/10/2023 12:45,13/10/2023 12:45,Utility Account to Organization Settlement Account,Completed,,-67100,0,TRUE,Utility Account to Organization Settlement Account,979524 - ANCIENT WELLS PROPERTY MANAGERS 2,,
RJD3D07Z2L,13/10/2023 09:07,13/10/2023 09:07,Pay Bill from 0743789968 - Dallias Thanare Githara Acc. hbb,Completed,2000,,67100,TRUE,Pay Utility,0743789968 - Dallias Thanare Githara,,hbb
RJD2CUW7BK,13/10/2023 08:10,13/10/2023 08:10,Pay Bill Online from 254799031749 - KENNEDY WAINAINA NJOROGE Acc. DDD ,Completed,4100,,65100,TRUE,Pay Bill Online,254799031749 - KENNEDY WAINAINA NJOROGE,,DDD
RJD9CTE3PB,13/10/2023 07:52,13/10/2023 07:52,Pay Bill from 0791379873 - Joseph Kyalo Sila Acc. HAH,Completed,16000,,61000,TRUE,Pay Utility,0791379873 - Joseph Kyalo Sila,,HAH
RJD2CSCSPM,13/10/2023 07:39,13/10/2023 07:39,Pay Bill from 254708499439 - ROSE NDEDE Acc. JCB,Completed,15000,,45000,TRUE,Pay Utility with OD via STK,254708499439 - ROSE NDEDE,,JCB
RJC3C6F0MD,12/10/2023 20:53,12/10/2023 20:53,Pay Bill Online from 254720451253 - JIMMY KIOGORA NKIROTE Acc. KBD,Completed,1000,,30000,TRUE,Pay Bill Online,254720451253 - JIMMY KIOGORA NKIROTE,,KBD
RJC4C6B4QA,12/10/2023 20:53,12/10/2023 20:53,Pay Bill Online from 0790536272 - BARNABAS MSITIA KEYARI Acc. FGC,Completed,2000,,29000,TRUE,Pay Bill Online,0790536272 - BARNABAS MSITIA KEYARI,,FGC
RJC1C350HT,12/10/2023 20:29,12/10/2023 20:29,Pay Bill from 254716581384 - GREGORY KILUNGYA Acc. DAD,Completed,20000,,27000,TRUE,Pay Utility,254716581384 - GREGORY KILUNGYA,,DAD
RJC9AXACIB,12/10/2023 15:42,12/10/2023 15:42,Pay Bill from 254720051502 - JOHN OCHIENG ONYANGO Acc. JFA ,Completed,7000,,7000,TRUE,Pay Utility,254720051502 - JOHN OCHIENG ONYANGO,,JFA
RJC1ABGIQZ,12/10/2023 12:16,12/10/2023 12:16,Utility Account to Organization Settlement Account,Completed,,-194000,0,TRUE,Utility Account to Organization Settlement Account,979524 - ANCIENT WELLS PROPERTY MANAGERS 2,,
RJC7A03UVN,12/10/2023 10:26,12/10/2023 10:26,Pay Bill Online from 254723747228 - MORARA ASANYO Acc. POOL,Completed,22000,,194000,TRUE,Pay Bill Online,254723747228 - MORARA ASANYO,,POOL
RJC29YRJ76,12/10/2023 10:14,12/10/2023 10:14,Pay Bill Online from 254710239100 - PHILOMENA WOKI MUTHAMA Acc. KDK,Completed,17000,,172000,TRUE,Pay Bill Online,254710239100 - PHILOMENA WOKI MUTHAMA,,KDK
RJC89L4YOQ,12/10/2023 07:47,12/10/2023 07:47,Pay Bill from 254707715639 - Annastacia Kimeu Acc. JFC ,Completed,10000,,155000,TRUE,Pay Utility,254707715639 - Annastacia Kimeu,,JFC
RJB68K7TAM,11/10/2023 19:17,11/10/2023 19:17,Pay Bill from 254718599145 - KITEMI KIEMA Acc. KGD,Completed,10000,,145000,TRUE,Pay Utility,254718599145 - KITEMI KIEMA,,KGD
RJB38JBCET,11/10/2023 19:12,11/10/2023 19:12,Pay Bill from 254720278119 - LINDAH OGAWO Acc. kfe,Completed,9500,,135000,TRUE,Pay Utility,254720278119 - LINDAH OGAWO,,kfe
RJB18BFW05,11/10/2023 18:30,11/10/2023 18:30,Pay Bill Online from 254710235188 - STANLEY MUSILI Acc. ICI,Completed,26000,,125500,TRUE,Pay Bill Online,254710235188 - STANLEY MUSILI,,ICI
RJB480P3JO,11/10/2023 17:18,11/10/2023 17:18,Pay Bill from 254748051777 - SAGE KIMANI WANJIKU Acc. IAD,Completed,11000,,99500,TRUE,Pay Utility with OD via STK,254748051777 - SAGE KIMANI WANJIKU,,IAD
RJB47WHX32,11/10/2023 16:45,11/10/2023 16:45,Pay Bill Online from 254710146965 - BRENDA DORCAS MABONGA Acc. hfg,Completed,15000,,88500,TRUE,Pay Bill Online,254710146965 - BRENDA DORCAS MABONGA,,hfg
RJB37QDIB3,11/10/2023 15:51,11/10/2023 15:51,Pay Bill from 254721352307 - SHARLEEN CHEPTOO Acc. KBC,Completed,10000,,73500,TRUE,Pay Utility,254721352307 - SHARLEEN CHEPTOO,,KBC
RJB772AQ9X,11/10/2023 12:05,11/10/2023 12:05,Pay Bill Online from 254720451253 - JIMMY KIOGORA NKIROTE Acc. KBD,Completed,2000,,63500,TRUE,Pay Utility with OD Online,254720451253 - JIMMY KIOGORA NKIROTE,,KBD
RJB46TU6M6,11/10/2023 10:43,11/10/2023 10:43,Pay Bill Online from 254799371069 - ALPHONCE OCHIENG WAREGA Acc. IEE,Completed,8500,,61500,TRUE,Pay Bill Online,254799371069 - ALPHONCE OCHIENG WAREGA,,IEE
RJB56SJF9X,11/10/2023 10:30,11/10/2023 10:30,Pay Bill from 254713205244 - ROBERT OGALO Acc. HFB,Completed,16000,,53000,TRUE,Pay Utility,254713205244 - ROBERT OGALO,,HFB
RJB96PN505,11/10/2023 10:02,11/10/2023 10:02,Pay Bill from 254700430569 - EDITH   GAKII Acc. DDB,Completed,16000,,37000,TRUE,Pay Utility,254700430569 - EDITH   GAKII,,DDB
RJB66P8J8K,11/10/2023 09:58,11/10/2023 09:58,Pay Bill Online from 254722910078 - MAUREEN MUNYIVA MUTUKU Acc. DCD,Completed,5000,,21000,TRUE,Pay Bill Online,254722910078 - MAUREEN MUNYIVA MUTUKU,,DCD
RJB56M110F,11/10/2023 09:25,11/10/2023 09:25,Pay Bill from 254712990240 - GLORY KARIUKI Acc. KAA,Completed,16000,,16000,TRUE,Pay Utility,254712990240 - GLORY KARIUKI,,KAA
RJB16G6UMV,11/10/2023 08:22,11/10/2023 08:22,Utility Account to Organization Settlement Account,Completed,,-265000,0,TRUE,Utility Account to Organization Settlement Account,979524 - ANCIENT WELLS PROPERTY MANAGERS 2,,
RJB16DSI6Z,11/10/2023 07:55,11/10/2023 07:55,Pay Bill Online from 254715892656 - DENNIS MUSYOKA MUOKI Acc. kfa,Completed,2500,,265000,TRUE,Pay Bill Online,254715892656 - DENNIS MUSYOKA MUOKI,,kfa
RJB76ASRPV,11/10/2023 07:16,11/10/2023 07:16,Pay Bill from 254728238249 - ESTHER WANGUI KIBUNYI Acc. ICA,Completed,17000,,262500,TRUE,Pay Utility,254728238249 - ESTHER WANGUI KIBUNYI,,ICA
RJB86A3I92,11/10/2023 07:06,11/10/2023 07:06,Pay Bill Online from 254726292792 - PHILIP MIANO Acc. JEI,Completed,20000,,245500,TRUE,Pay Bill Online,254726292792 - PHILIP MIANO,,JEI
RJB3641VT7,11/10/2023 00:25,11/10/2023 00:25,Pay Bill Online from 254720451253 - JIMMY KIOGORA NKIROTE Acc. KBD,Completed,3000,,225500,TRUE,Pay Bill Online,254720451253 - JIMMY KIOGORA NKIROTE,,KBD
RJA35BDUWH,10/10/2023 19:09,10/10/2023 19:09,Pay Bill from 254722444622 - CHARITY KAGWAINI Acc. ffd,Completed,6000,,222500,TRUE,Pay Utility,254722444622 - CHARITY KAGWAINI,,ffd
RJA355MGCN,10/10/2023 18:37,10/10/2023 18:37,Pay Bill from 254792712192 - KELVIN MASIBO Acc. ICE,Completed,9000,,216500,TRUE,Pay Utility,254792712192 - KELVIN MASIBO,,ICE
RJA84NCZOK,10/10/2023 16:19,10/10/2023 16:19,Pay Bill from 254720051502 - JOHN OCHIENG ONYANGO Acc. JFA ,Completed,5000,,207500,TRUE,Pay Utility,254720051502 - JOHN OCHIENG ONYANGO,,JFA
RJA13WG69Z,10/10/2023 12:12,10/10/2023 12:12,Pay Bill from 0113888957 - BONVENTURE MASINGA MUTINDA Acc. JEH,Completed,16000,,202500,TRUE,Pay Utility,0113888957 - BONVENTURE MASINGA MUTINDA,,JEH
RJA13S2TXB,10/10/2023 11:31,10/10/2023 11:31,Pay Bill from 254791848695 - RACHEAL WANZA MUIA Acc. wines,Completed,6000,,186500,TRUE,Pay Utility,254791848695 - RACHEAL WANZA MUIA,,wines
RJA63QZVAQ,10/10/2023 11:20,10/10/2023 11:20,Pay Bill from 254796069018 - PEACE KIMEU Acc. Jah,Completed,16000,,180500,TRUE,Pay Utility,254796069018 - PEACE KIMEU,,Jah
RJA73QXK0Z,10/10/2023 11:20,10/10/2023 11:20,Pay Bill from 254721315975 - JOSEPH NDEGWA Acc. HEB,Completed,16000,,164500,TRUE,Pay Utility,254721315975 - JOSEPH NDEGWA,,HEB
RJA63L5TNA,10/10/2023 10:25,10/10/2023 10:25,Pay Bill from 254717985596 - NICHOLAS KIPKOECH BUTIA Acc. hcf,Completed,9000,,148500,TRUE,Pay Utility,254717985596 - NICHOLAS KIPKOECH BUTIA,,hcf
RJA23HJFUS,10/10/2023 09:50,10/10/2023 09:50,Pay Bill Online from 254711507729 - DAVID ANYONGE MALIJAMBO Acc. HFA,Completed,16000,,139500,TRUE,Pay Bill Online,254711507729 - DAVID ANYONGE MALIJAMBO,,HFA
RJA93G6DSX,10/10/2023 09:36,10/10/2023 09:36,Pay Bill from 0799122666 - ERIC WAWERU KIAMA Acc. JDI,Completed,20000,,123500,TRUE,Pay Utility with OD via STK,0799122666 - ERIC WAWERU KIAMA,,JDI
RJA23CW7FI,10/10/2023 09:01,10/10/2023 09:01,Pay Bill Online from 254745391294 - Faith Moraa Sitemba Acc. IFC,Completed,8000,,103500,TRUE,Pay Bill Online,254745391294 - Faith Moraa Sitemba,,IFC
RJA52ZCU3X,10/10/2023 01:25,10/10/2023 01:25,Pay Bill Online from 254722928051 - GILBERT K NGETUNY Acc. JBH,Completed,2000,,95500,TRUE,Pay Utility with OD Online,254722928051 - GILBERT K NGETUNY,,JBH
RJ94231K58,09/10/2023 18:59,09/10/2023 18:59,Pay Bill from 254722617724 - Cosmas Leitich Kiptoo Acc. kag,Completed,8000,,93500,TRUE,Pay Utility with OD via STK,254722617724 - Cosmas Leitich Kiptoo,,kag
RJ991WBELZ,09/10/2023 18:22,09/10/2023 18:22,Pay Bill from 254717294198 - JIM O ONYANGO Acc. IGG,Completed,3000,,85500,TRUE,Pay Utility,254717294198 - JIM O ONYANGO,,IGG
RJ951L3WNZ,09/10/2023 17:04,09/10/2023 17:04,Pay Bill Online from 254715892656 - DENNIS MUSYOKA MUOKI Acc. kfa,Completed,2500,,82500,TRUE,Pay Bill Online,254715892656 - DENNIS MUSYOKA MUOKI,,kfa
RJ971KVCCL,09/10/2023 17:03,09/10/2023 17:03,Pay Bill Online from 254713966424 - NDUTI MUTHUI Acc. jed,Completed,15000,,80000,TRUE,Pay Bill Online,254713966424 - NDUTI MUTHUI,,jed
RJ971JDQ03,09/10/2023 16:51,09/10/2023 16:51,Pay Bill from 254703393963 - WYCLIFF JUMA Acc. IBC,Completed,9000,,65000,TRUE,Pay Utility with OD via STK,254703393963 - WYCLIFF JUMA,,IBC
RJ941CZY9I,09/10/2023 15:56,09/10/2023 15:56,Pay Bill from 0743789968 - Dallias Thanare Githara Acc. hbb,Completed,4000,,56000,TRUE,Pay Utility,0743789968 - Dallias Thanare Githara,,hbb
RJ9818L4G8,09/10/2023 15:16,09/10/2023 15:16,Pay Bill from 254708612464 - MERCY KINANU KIWOTI Acc. IBB,Completed,16000,,52000,TRUE,Pay Utility,254708612464 - MERCY KINANU KIWOTI,,IBB
RJ9215L3ZM,09/10/2023 14:48,09/10/2023 14:48,Pay Bill Online from 254704111133 - ELVIS OTIENO Acc. HFD,Completed,1000,,36000,TRUE,Pay Bill Online,254704111133 - ELVIS OTIENO,,HFD
RJ9011IRVW,09/10/2023 14:11,09/10/2023 14:11,Pay Bill from 254724423882 - JOEL GICHURI KARANJA Acc. fee,Completed,16000,,35000,TRUE,Pay Utility,254724423882 - JOEL GICHURI KARANJA,,fee
RJ93ZPRNW1,09/10/2023 12:27,09/10/2023 12:27,Pay Bill Online from 0115687585 - Sophia   Nzola Acc. FAC,Completed,19000,,19000,TRUE,Pay Bill Online,0115687585 - Sophia   Nzola,,FAC
RJ98ZK27JK,09/10/2023 11:34,09/10/2023 11:34,Utility Account to Organization Settlement Account,Completed,,-17000,0,TRUE,Utility Account to Organization Settlement Account,979524 - ANCIENT WELLS PROPERTY MANAGERS 2,,
RJ99ZEX7W3,09/10/2023 10:47,09/10/2023 10:47,Pay Bill Online from 254715764212 - BANCE ISHEMINYE Acc. JFE,Completed,8000,,17000,TRUE,Pay Bill Online,254715764212 - BANCE ISHEMINYE,,JFE
RJ93YOCEJF,09/10/2023 01:44,09/10/2023 01:44,Pay Bill Online from 0791445135 - HADIJA ALI KADIDA Acc. HTE,Completed,9000,,9000,TRUE,Pay Bill Online,0791445135 - HADIJA ALI KADIDA,,HTE
RJ82YH7ETG,08/10/2023 21:45,08/10/2023 21:45,Utility Account to Organization Settlement Account,Completed,,-336050,0,TRUE,Utility Account to Organization Settlement Account,979524 - ANCIENT WELLS PROPERTY MANAGERS 2,,
RJ85YAA5W9,08/10/2023 20:43,08/10/2023 20:43,Pay Bill Online from 254726116777 - MARY NDUTA GOSHO Acc. JDB ,Completed,15000,,336050,TRUE,Pay Bill Online,254726116777 - MARY NDUTA GOSHO,,JDB
RJ80Y3DLHC,08/10/2023 19:52,08/10/2023 19:52,Pay Bill Online from 254711189333 - JOSEPH MAUNDU MWANGANGI Acc. KBH ,Completed,5000,,321050,TRUE,Pay Bill Online,254711189333 - JOSEPH MAUNDU MWANGANGI,,KBH
RJ88XY9O3A,08/10/2023 19:20,08/10/2023 19:20,Pay Bill from 0742599061 - Judy Masese Samwel Acc. hgf,Completed,9500,,316050,TRUE,Pay Utility,0742599061 - Judy Masese Samwel,,hgf
RJ86XL2LLI,08/10/2023 17:56,08/10/2023 17:56,Pay Bill Online from 254720381965 - JAMES NGUGI MWANIKI Acc. JBI,Completed,20000,,306550,TRUE,Pay Bill Online,254720381965 - JAMES NGUGI MWANIKI,,JBI
RJ85X3E0UP,08/10/2023 15:30,08/10/2023 15:30,Pay Bill from 0743789968 - Dallias Thanare Githara Acc. hbb,Completed,5000,,286550,TRUE,Pay Utility,0743789968 - Dallias Thanare Githara,,hbb
RJ86WZ5VGW,08/10/2023 14:53,08/10/2023 14:53,Pay Bill from 254704303496 - PETER MACHARIA WAIGANJO Acc. DFD,Completed,20000,,281550,TRUE,Pay Utility,254704303496 - PETER MACHARIA WAIGANJO,,DFD
RJ83WN1XQX,08/10/2023 13:02,08/10/2023 13:02,Pay Bill Online from 254702190887 - Nax Ochieng Acc. FDE,Completed,15000,,261550,TRUE,Pay Bill Online,254702190887 - Nax Ochieng,,FDE
RJ80WILNBU,08/10/2023 12:18,08/10/2023 12:18,Pay Bill from 254712974871 - PAULA WANJIKU GATUI Acc. HEA,Completed,16000,,246550,TRUE,Pay Utility,254712974871 - PAULA WANJIKU GATUI,,HEA
RJ81W92JZT,08/10/2023 10:39,08/10/2023 10:39,Pay Bill Online from 254713404029 - ANNE ISEUNA Acc. DED,Completed,20000,,230550,TRUE,Pay Bill Online,254713404029 - ANNE ISEUNA,,DED
RJ88VQRE8W,08/10/2023 07:00,08/10/2023 07:00,Pay Bill Online from 254703285159 - Enock Michieka Mochoge Acc. KAE,Completed,10000,,210550,TRUE,Pay Bill Online,254703285159 - Enock Michieka Mochoge,,KAE
RJ71V63SZN,07/10/2023 20:51,07/10/2023 20:51,Pay Bill Online from 254718663397 - JIMMY MUNYAO NZIOKI Acc. DCB,Completed,16000,,200550,TRUE,Pay Utility with OD Online,254718663397 - JIMMY MUNYAO NZIOKI,,DCB
RJ71UVYFQF,07/10/2023 19:46,07/10/2023 19:46,Pay Bill Online from 0797251813 - Maureen   njoki Acc. HAC,Completed,10000,,184550,TRUE,Pay Bill Online,0797251813 - Maureen   njoki,,HAC
RJ71UU36PH,07/10/2023 19:36,07/10/2023 19:36,Pay Bill Online from 254710814215 - JOAN NYAMBURA KAMAU Acc. ifb,Completed,15000,,174550,TRUE,Pay Bill Online,254710814215 - JOAN NYAMBURA KAMAU,,ifb
RJ79URT9D1,07/10/2023 19:24,07/10/2023 19:24,Pay Bill from 254743487420 - Margaret Wacu Muia Acc. fce,Completed,15000,,159550,TRUE,Pay Utility,254743487420 - Margaret Wacu Muia,,fce
RJ78UIZBFO,07/10/2023 18:37,07/10/2023 18:37,Pay Bill from 254710965167 - KUSA STEPHANIE HAZEL Acc. JEB,Completed,15000,,144550,TRUE,Pay Utility,254710965167 - KUSA STEPHANIE HAZEL,,JEB
RJ76TUPUSY,07/10/2023 15:42,07/10/2023 15:42,Pay Bill Online from 0769918050 - newton   mutethia Acc. JBG,Completed,10000,,129550,TRUE,Pay Bill Online,0769918050 - newton   mutethia,,JBG
RJ75TLGDGZ,07/10/2023 14:26,07/10/2023 14:26,Pay Bill Online from 254714552193 - CHRISTOPHER OCHIENG Acc. JGI ,Completed,20500,,119550,TRUE,Pay Bill Online,254714552193 - CHRISTOPHER OCHIENG,,JGI
RJ77TFJ30B,07/10/2023 13:38,07/10/2023 13:38,Pay Bill from 0798121865 - Purity Jelagat Kurui Acc. HDC,Completed,10500,,99050,TRUE,Pay Utility,0798121865 - Purity Jelagat Kurui,,HDC
RJ75TABWW1,07/10/2023 12:55,07/10/2023 12:55,Pay Bill Online from 254757569672 - BRIAN MARITA NYANGAU Acc. KDD,Completed,12000,,88550,TRUE,Pay Bill Online,254757569672 - BRIAN MARITA NYANGAU,,KDD
RJ74SYR0BE,07/10/2023 11:15,07/10/2023 11:15,Pay Bill Online from 254718253322 - DUNCAN MOCHOGE Acc. JFJ,Completed,15000,,76550,TRUE,Pay Bill Online,254718253322 - DUNCAN MOCHOGE,,JFJ
RJ75SWMXMX,07/10/2023 10:57,07/10/2023 10:57,Pay Bill Online from 254720044312 - ELIUD KIPKURUI Acc. FCF,Completed,10550,,61550,TRUE,Pay Utility with OD Online,254720044312 - ELIUD KIPKURUI,,FCF
RJ76SW4NT0,07/10/2023 10:53,07/10/2023 10:53,Pay Bill from 254740579741 - MUHINDI MULINYA Acc. HGG,Completed,5000,,51000,TRUE,Pay Utility,254740579741 - MUHINDI MULINYA,,HGG
RJ73SSC8AR,07/10/2023 10:19,07/10/2023 10:19,Pay Bill Online from 254710732381 - JANE ACHIENG MBEKE Acc. HAF,Completed,10000,,46000,TRUE,Pay Bill Online,254710732381 - JANE ACHIENG MBEKE,,HAF
RJ78SMWGZK,07/10/2023 09:29,07/10/2023 09:29,Pay Bill from 254720814822 - JAMES OTIENO OPAR Acc. jgj,Completed,4000,,36000,TRUE,Pay Utility,254720814822 - JAMES OTIENO OPAR,,jgj
RJ71SHWBQ7,07/10/2023 08:39,07/10/2023 08:39,Pay Bill from 254702500404 - VALENTINE JEPCHIRCHIR KEMEI Acc. DGC,Completed,9000,,32000,TRUE,Pay Utility,254702500404 - VALENTINE JEPCHIRCHIR KEMEI,,DGC
RJ74SHFB5I,07/10/2023 08:35,07/10/2023 08:35,Pay Bill Online from 254723411873 - FREDRICK CHERUIYOT Acc. jbf,Completed,8000,,23000,TRUE,Pay Bill Online,254723411873 - FREDRICK CHERUIYOT,,jbf
RJ78SF3FPC,07/10/2023 08:10,07/10/2023 08:10,Pay Bill from 0715688238 - JOANNAH ATUHAIRE BANTU Acc. FFA,Completed,15000,,15000,TRUE,Pay Utility,0715688238 - JOANNAH ATUHAIRE BANTU,,FFA
RJ71SDM4TF,07/10/2023 07:53,07/10/2023 07:53,Utility Account to Organization Settlement Account,Completed,,-485000,0,TRUE,Utility Account to Organization Settlement Account,979524 - ANCIENT WELLS PROPERTY MANAGERS 2,,
RJ72S45UU0,07/10/2023 01:31,07/10/2023 01:31,Pay Bill Online from 254720451253 - JIMMY KIOGORA NKIROTE Acc. KBD,Completed,1000,,485000,TRUE,Pay Bill Online,254720451253 - JIMMY KIOGORA NKIROTE,,KBD
RJ79S2VUNP,07/10/2023 00:20,07/10/2023 00:20,Pay Bill from 254796848496 - IVY WITABA Acc. FAA,Completed,2000,,484000,TRUE,Pay Utility,254796848496 - IVY WITABA,,FAA
RJ61RQH7KJ,06/10/2023 21:10,06/10/2023 21:10,Pay Bill from 254798524621 - MERCY CHESANG Acc. jcj,Completed,16000,,482000,TRUE,Pay Utility,254798524621 - MERCY CHESANG,,jcj
RJ67RCJ3H9,06/10/2023 19:39,06/10/2023 19:39,Pay Bill from 254711742716 - RODGERS KIPLANGAT KORIR Acc. IGC,Completed,9000,,466000,TRUE,Pay Utility,254711742716 - RODGERS KIPLANGAT KORIR,,IGC
RJ66R5HS72,06/10/2023 19:03,06/10/2023 19:03,Pay Bill from 254724477912 - SAMUEL MURIMI Acc. HCD,Completed,10000,,457000,TRUE,Pay Utility,254724477912 - SAMUEL MURIMI,,HCD
RJ67QZI517,06/10/2023 18:31,06/10/2023 18:31,Pay Bill Online from 254710382992 - SIMON KAMAU MUIRURI Acc. JCD,Completed,15000,,447000,TRUE,Pay Bill Online,254710382992 - SIMON KAMAU MUIRURI,,JCD
RJ64QYDFX8,06/10/2023 18:24,06/10/2023 18:24,Pay Bill from 254725478531 - KIPKORIR KUTO Acc. DFB,Completed,15000,,432000,TRUE,Pay Utility,254725478531 - KIPKORIR KUTO,,DFB
RJ63QX2UYX,06/10/2023 18:17,06/10/2023 18:17,Pay Bill from 254700557767 - BAKHITA MWENDE MUANGE Acc. kcb,Completed,16000,,417000,TRUE,Pay Utility,254700557767 - BAKHITA MWENDE MUANGE,,kcb
RJ63QVJA25,06/10/2023 18:07,06/10/2023 18:07,Pay Bill from 254719779657 - SAMUEL NJOROGE Acc. JGA,Completed,10000,,401000,TRUE,Pay Utility,254719779657 - SAMUEL NJOROGE,,JGA
RJ64QOBPVM,06/10/2023 17:19,06/10/2023 17:19,Pay Bill from 254716167517 - BENARD MUTUA Acc. Hcb,Completed,16000,,391000,TRUE,Pay Utility,254716167517 - BENARD MUTUA,,Hcb
RJ62QKYTWG,06/10/2023 16:54,06/10/2023 16:54,Pay Bill from 254720051502 - JOHN OCHIENG ONYANGO Acc. JFA,Completed,8000,,375000,TRUE,Pay Utility,254720051502 - JOHN OCHIENG ONYANGO,,JFA
RJ66QKDOG2,06/10/2023 16:49,06/10/2023 16:49,Pay Bill from 254742825965 - DOMINIC MUTISYA KELI Acc. KDC,Completed,10000,,367000,TRUE,Pay Utility,254742825965 - DOMINIC MUTISYA KELI,,KDC
RJ63QII71D,06/10/2023 16:35,06/10/2023 16:35,Pay Bill from 0717441870 - Steven oduor ogutu Acc. KTA,Completed,9500,,357000,TRUE,Pay Utility,0717441870 - Steven oduor ogutu,,KTA
RJ69QHLQGD,06/10/2023 16:27,06/10/2023 16:27,Pay Bill Online from 254715892656 - DENNIS MUSYOKA MUOKI Acc. kfa,Completed,5000,,347500,TRUE,Pay Bill Online,254715892656 - DENNIS MUSYOKA MUOKI,,kfa
RJ65QBAMGF,06/10/2023 15:34,06/10/2023 15:34,Pay Bill from 254717801919 - MARCELINE AKINYI Acc. IAF,Completed,10000,,342500,TRUE,Pay Utility,254717801919 - MARCELINE AKINYI,,IAF
RJ65Q2L7ZJ,06/10/2023 14:19,06/10/2023 14:19,Pay Bill Online from 254702346515 - ELIZABETH ACHIENG NGOME Acc. ICH,Completed,16000,,332500,TRUE,Pay Bill Online,254702346515 - ELIZABETH ACHIENG NGOME,,ICH
RJ65Q1DQBD,06/10/2023 14:08,06/10/2023 14:08,Pay Bill Online from 254723370004 - LABAN MAINGI WAMBUA Acc. JEF,Completed,6000,,316500,TRUE,Pay Bill Online,254723370004 - LABAN MAINGI WAMBUA,,JEF
RJ60POX7OM,06/10/2023 12:20,06/10/2023 12:20,Pay Bill from 254711123196 - JUDITH MUTUA Acc. Fea,Completed,16000,,310500,TRUE,Pay Utility,254711123196 - JUDITH MUTUA,,Fea
RJ61PIFT09,06/10/2023 11:21,06/10/2023 11:21,Pay Bill Online from 254722521028 - CHARLES MONYONCHO Acc. JDA,Completed,20000,,294500,TRUE,Pay Utility with OD Online,254722521028 - CHARLES MONYONCHO,,JDA
RJ65PEM0BN,06/10/2023 10:47,06/10/2023 10:47,Pay Bill from 254723499628 - CLINTON JOSEPH MUHARI Acc. hfh,Completed,16000,,274500,TRUE,Pay Utility,254723499628 - CLINTON JOSEPH MUHARI,,hfh
RJ63P9HHQ9,06/10/2023 10:01,06/10/2023 10:01,Pay Bill from 0757053882 - FAITH MWENDE MBINYA Acc. HDF,Completed,19000,,258500,TRUE,Pay Utility,0757053882 - FAITH MWENDE MBINYA,,HDF
RJ67OYIXNF,06/10/2023 08:11,06/10/2023 08:11,Pay Bill from 254717690295 - MARCELLA JELIMO Acc. IGE,Completed,9000,,239500,TRUE,Pay Utility,254717690295 - MARCELLA JELIMO,,IGE
RJ66OVF5KQ,06/10/2023 07:36,06/10/2023 07:36,Pay Bill Online from 0741500311 - ALLAN GISONI NYANGARESI Acc. DBA,Completed,16000,,230500,TRUE,Pay Bill Online,0741500311 - ALLAN GISONI NYANGARESI,,DBA
RJ58OLF8SM,05/10/2023 23:55,05/10/2023 23:55,Pay Bill Online from 254729097858 - AMBROSE ADEYA AHAWO Acc. KCF,Completed,10000,,214500,TRUE,Pay Bill Online,254729097858 - AMBROSE ADEYA AHAWO,,KCF
RJ53OGET4L,05/10/2023 22:11,05/10/2023 22:11,Business Pay Bill by 998094 - COOP TO PAYBILL Acc. IFF via API,Completed,10000,,204500,TRUE,Business Pay Bill via API,998094 - COOP TO PAYBILL,,IFF
RJ59OCALE3,05/10/2023 21:30,05/10/2023 21:30,Pay Bill from 254729450678 - GRACE NDUNGE Acc. fba,Completed,15000,,194500,TRUE,Pay Utility with OD via STK,254729450678 - GRACE NDUNGE,,fba
RJ56O9U1D4,05/10/2023 21:09,05/10/2023 21:09,Pay Bill from 254712283818 - OYUGI OCHIENG Acc. FCB,Completed,16000,,179500,TRUE,Pay Utility,254712283818 - OYUGI OCHIENG,,FCB
RJ57O59BQ7,05/10/2023 20:36,05/10/2023 20:36,Pay Bill from 254708910373 - MUNINI ISAAC Acc. IEB,Completed,15000,,163500,TRUE,Pay Utility,254708910373 - MUNINI ISAAC,,IEB
RJ50O1WVIO,05/10/2023 20:15,05/10/2023 20:15,Pay Bill from 0740208174 - Josephine adhiambo koyi Acc. Ifg,Completed,9000,,148500,TRUE,Pay Utility,0740208174 - Josephine adhiambo koyi,,Ifg
RJ54O00GKO,05/10/2023 20:03,05/10/2023 20:03,Pay Bill from 254700811449 - JOHN MULIMA ENANE Acc. HCE,Completed,10500,,139500,TRUE,Pay Utility,254700811449 - JOHN MULIMA ENANE,,HCE
RJ53NWXOLF,05/10/2023 19:45,05/10/2023 19:45,Pay Bill Online from 254797260402 - Tiberius Ogera Omoro Acc. KFC,Completed,9000,,129000,TRUE,Pay Utility with OD Online,254797260402 - Tiberius Ogera Omoro,,KFC
RJ55NWJ5SD,05/10/2023 19:43,05/10/2023 19:43,Pay Bill from 254717748212 - PATRICK KIOKO MUTUKU Acc. kce,Completed,10000,,120000,TRUE,Pay Utility,254717748212 - PATRICK KIOKO MUTUKU,,kce
RJ52NNNZP8,05/10/2023 18:58,05/10/2023 18:58,Pay Bill from 254706144834 - WILKISTER OSUMO Acc. HGH,Completed,15000,,110000,TRUE,Pay Utility,254706144834 - WILKISTER OSUMO,,HGH
RJ50NMHSFK,05/10/2023 18:52,05/10/2023 18:52,Pay Bill from 254717294198 - JIM O ONYANGO Acc. IGG,Completed,16000,,95000,TRUE,Pay Utility,254717294198 - JIM O ONYANGO,,IGG
RJ51NL5WTV,05/10/2023 18:45,05/10/2023 18:45,Pay Bill from 0719726347 - ROSEMARY DAYO KILUMBE Acc. KGE,Completed,9000,,79000,TRUE,Pay Utility,0719726347 - ROSEMARY DAYO KILUMBE,,KGE
RJ52NFQNO6,05/10/2023 18:13,05/10/2023 18:13,Pay Bill from 254725754547 - MWACHIRO GEORGE DECHE Acc. DFC,Completed,20000,,70000,TRUE,Pay Utility,254725754547 - MWACHIRO GEORGE DECHE,,DFC
RJ56NF9PQI,05/10/2023 18:10,05/10/2023 18:10,Pay Bill Online from 254720620070 - Michelle Mwihaki Ngaruiya Acc. JEJ,Completed,15000,,50000,TRUE,Pay Utility with OD Online,254720620070 - Michelle Mwihaki Ngaruiya,,JEJ
RJ55N9CHRH,05/10/2023 17:30,05/10/2023 17:30,Pay Bill from 0743789968 - Dallias Thanare Githara Acc. hbb,Completed,4000,,35000,TRUE,Pay Utility,0743789968 - Dallias Thanare Githara,,hbb
RJ56N8YPCO,05/10/2023 17:28,05/10/2023 17:28,Pay Bill Online from 254721974995 - BERNICE MANGOKA Acc. KFK,Completed,16000,,31000,TRUE,Pay Bill Online,254721974995 - BERNICE MANGOKA,,KFK
RJ59MZYMOH,05/10/2023 16:17,05/10/2023 16:17,Pay Bill from 254703276305 - MARTHA MUSYOKA Acc. IAI,Completed,15000,,15000,TRUE,Pay Utility,254703276305 - MARTHA MUSYOKA,,IAI
RJ54MZRAE6,05/10/2023 16:15,05/10/2023 16:15,Utility Account to Organization Settlement Account,Completed,,-114000,0,TRUE,Utility Account to Organization Settlement Account,979524 - ANCIENT WELLS PROPERTY MANAGERS 2,,
RJ51MXQFFZ,05/10/2023 15:58,05/10/2023 15:58,Pay Bill from 254725062550 - FRANKLINE MASSAM Acc. KAF,Completed,10000,,114000,TRUE,Pay Utility,254725062550 - FRANKLINE MASSAM,,KAF
RJ55MIX3NB,05/10/2023 13:44,05/10/2023 13:44,Pay Bill from 254700198550 - BENARD ONYANGO Acc. DBB,Completed,16000,,104000,TRUE,Pay Utility,254700198550 - BENARD ONYANGO,,DBB
RJ59MGXF85,05/10/2023 13:27,05/10/2023 13:27,Pay Bill from 254720814822 - JAMES OTIENO OPAR Acc. jgj,Completed,5000,,88000,TRUE,Pay Utility with OD via STK,254720814822 - JAMES OTIENO OPAR,,jgj
RJ59MGGOXN,05/10/2023 13:23,05/10/2023 13:23,Pay Bill from 254721707481 - MARTIN ONSONGO Acc. DFA,Completed,16000,,83000,TRUE,Pay Utility,254721707481 - MARTIN ONSONGO,,DFA
RJ59MELQKL,05/10/2023 13:07,05/10/2023 13:07,Pay Bill from 0701151700 - Anabel Mwikali Gichuru Acc. Jdj,Completed,15000,,67000,TRUE,Pay Utility,0701151700 - Anabel Mwikali Gichuru,,Jdj
RJ50MC8QHK,05/10/2023 12:45,05/10/2023 12:45,Pay Bill from 0741300410 - STEVEKEVIN POUNGUI DIFFO Acc. IAC,Completed,9000,,52000,TRUE,Pay Utility,0741300410 - STEVEKEVIN POUNGUI DIFFO,,IAC
RJ56MBWWNQ,05/10/2023 12:42,05/10/2023 12:42,Pay Bill from 254727095667 - HILDA JEPKEMOI KIMELIEL Acc. JBE,Completed,1000,,43000,TRUE,Pay Utility,254727095667 - HILDA JEPKEMOI KIMELIEL,,JBE
RJ55MA0NNH,05/10/2023 12:25,05/10/2023 12:25,Pay Bill from 254721667039 - ELIAS KIPLAGAT Acc. KAC,Completed,11000,,42000,TRUE,Pay Utility,254721667039 - ELIAS KIPLAGAT,,KAC
RJ51M6V7XH,05/10/2023 11:55,05/10/2023 11:55,Pay Bill from 254742825965 - DOMINIC MUTISYA KELI Acc. KDC,Completed,11000,,31000,TRUE,Pay Utility,254742825965 - DOMINIC MUTISYA KELI,,KDC
RJ50M156P6,05/10/2023 11:01,05/10/2023 11:01,Pay Bill from 254717247817 - NYANGAU HARONI Acc. jba,Completed,20000,,20000,TRUE,Pay Utility,254717247817 - NYANGAU HARONI,,jba
RJ58LVEDAY,05/10/2023 10:07,05/10/2023 10:07,Utility Account to Organization Settlement Account,Completed,,-292400,0,TRUE,Utility Account to Organization Settlement Account,979524 - ANCIENT WELLS PROPERTY MANAGERS 2,,
RJ50LQJXG0,05/10/2023 09:19,05/10/2023 09:19,Pay Bill from 0710572069 - GLADYS NYAMBURA MAINA Acc. HCC ,Completed,10000,,292400,TRUE,Pay Utility,0710572069 - GLADYS NYAMBURA MAINA,,HCC
RJ51LMHEAR,05/10/2023 08:36,05/10/2023 08:36,Pay Bill from 254719747910 - KEVIN NDERITU GAKINGO Acc. idd,Completed,11000,,282400,TRUE,Pay Utility,254719747910 - KEVIN NDERITU GAKINGO,,idd
RJ50LJXO44,05/10/2023 08:08,05/10/2023 08:08,Pay Bill from 254723930071 - AMOS KITAVI KIVITE Acc. JCE,Completed,9000,,271400,TRUE,Pay Utility with OD via STK,254723930071 - AMOS KITAVI KIVITE,,JCE
RJ50LHUFHU,05/10/2023 07:44,05/10/2023 07:44,Pay Bill Online from 254710202776 - KELVIN KARIMI MACHARIA Acc. FAD,Completed,6000,,262400,TRUE,Pay Bill Online,254710202776 - KELVIN KARIMI MACHARIA,,FAD
RJ53L8AT0F,05/10/2023 00:05,05/10/2023 00:05,Pay Bill from 254724862849 - Ann Fresiah Kinyua Acc. HDA,Completed,16000,,256400,TRUE,Pay Utility,254724862849 - Ann Fresiah Kinyua,,HDA
RJ42L1TMLS,04/10/2023 21:50,04/10/2023 21:50,Pay Bill from 254710635630 - DONNA JESSICA OWANO Acc. KCC,Completed,10000,,240400,TRUE,Pay Utility,254710635630 - DONNA JESSICA OWANO,,KCC
RJ45KXH4SX,04/10/2023 21:10,04/10/2023 21:10,Pay Bill from 254716881682 - JUSTINE FAYUMA OKWEMBA Acc. HAA,Completed,17000,,230400,TRUE,Pay Utility,254716881682 - JUSTINE FAYUMA OKWEMBA,,HAA
RJ43KQB44X,04/10/2023 20:18,04/10/2023 20:18,Pay Bill from 254796640269 - TABITHA NJERI MAINA Acc. JEE,Completed,10000,,213400,TRUE,Pay Utility,254796640269 - TABITHA NJERI MAINA,,JEE
RJ44KOY2KE,04/10/2023 20:09,04/10/2023 20:09,Pay Bill Online from 254728897908 - Teddy Allan Onyango Acc. DDD,Completed,15900,,203400,TRUE,Pay Bill Online,254728897908 - Teddy Allan Onyango,,DDD
RJ43KMIJNV,04/10/2023 19:54,04/10/2023 19:54,Pay Bill from 254726028330 - JOHN WAMBUA Acc. IFH,Completed,15000,,187500,TRUE,Pay Utility,254726028330 - JOHN WAMBUA,,IFH
RJ44KGYJLO,04/10/2023 19:23,04/10/2023 19:23,Pay Bill from 254702216907 - FAITH MUSA Acc. kbe,Completed,10000,,172500,TRUE,Pay Utility,254702216907 - FAITH MUSA,,kbe
RJ44KD7QLW,04/10/2023 19:04,04/10/2023 19:04,Pay Bill Online from 254721714178 - PHANICE JEROTICH KIPTOO Acc. FBF,Completed,16000,,162500,TRUE,Pay Bill Online,254721714178 - PHANICE JEROTICH KIPTOO,,FBF
RJ43K2S4OF,04/10/2023 18:05,04/10/2023 18:05,Pay Bill from 254729355933 - FELISTAH NJERI WAIRIMU Acc. IDI,Completed,15000,,146500,TRUE,Pay Utility,254729355933 - FELISTAH NJERI WAIRIMU,,IDI
RJ45JX0F1R,04/10/2023 17:26,04/10/2023 17:26,Pay Bill from 254701112397 - ELEMA GODANA DIBA Acc. FCA,Completed,10000,,131500,TRUE,Pay Utility,254701112397 - ELEMA GODANA DIBA,,FCA
RJ48JWG772,04/10/2023 17:21,04/10/2023 17:21,Pay Bill from 254721698818 - SAIDA SHUKRI GUFU Acc. JEA,Completed,17000,,121500,TRUE,Pay Utility,254721698818 - SAIDA SHUKRI GUFU,,JEA
RJ46JU7UAU,04/10/2023 17:05,04/10/2023 17:05,Pay Bill Online from 254792187144 - HASSAN AHMED HASSAN Acc. KGI,Completed,10000,,104500,TRUE,Pay Bill Online,254792187144 - HASSAN AHMED HASSAN,,KGI
RJ43JQHSP3,04/10/2023 16:35,04/10/2023 16:35,Pay Bill from 0111786209 - Jacob Kipkogei Kangogo Acc. IBA,Completed,15000,,94500,TRUE,Pay Utility,0111786209 - Jacob Kipkogei Kangogo,,IBA
RJ45JOM7GH,04/10/2023 16:19,04/10/2023 16:19,Pay Bill from 254728670882 - SHARAD EDWARD ADALA OLUM Acc. KCK,Completed,15000,,79500,TRUE,Pay Utility,254728670882 - SHARAD EDWARD ADALA OLUM,,KCK
RJ45JJEOGD,04/10/2023 15:32,04/10/2023 15:32,Pay Bill from 254704111133 - ELVIS OTIENO Acc. HFD,Completed,1000,,64500,TRUE,Pay Utility,254704111133 - ELVIS OTIENO,,HFD
RJ40JIZSXC,04/10/2023 15:28,04/10/2023 15:28,Pay Bill from 0724386624 - FATUMA ISSE YUSSUF Acc. FAB,Completed,16000,,63500,TRUE,Pay Utility,0724386624 - FATUMA ISSE YUSSUF,,FAB
RJ42JI8MVY,04/10/2023 15:21,04/10/2023 15:21,Pay Bill Online from 254702355678 - JOHN NJOROGE GICHERU Acc. DEB,Completed,20000,,47500,TRUE,Pay Bill Online,254702355678 - JOHN NJOROGE GICHERU,,DEB
RJ49JCKSD7,04/10/2023 14:30,04/10/2023 14:30,Pay Bill from 0714142211 - KAREN KENDI NGERE Acc. JDF,Completed,8000,,27500,TRUE,Pay Utility,0714142211 - KAREN KENDI NGERE,,JDF
RJ49JAORJZ,04/10/2023 14:12,04/10/2023 14:12,Pay Bill from 254724852503 - GEOFREY YEGO Acc. JFF,Completed,10000,,19500,TRUE,Pay Utility,254724852503 - GEOFREY YEGO,,JFF
RJ43J6GCB9,04/10/2023 13:35,04/10/2023 13:35,Pay Bill from 254715742045 - FRIDAH KIEMA Acc. HGC,Completed,9500,,9500,TRUE,Pay Utility,254715742045 - FRIDAH KIEMA,,HGC
RJ45IOCBOV,04/10/2023 10:47,04/10/2023 10:47,Utility Account to Organization Settlement Account,Completed,,-273000,0,TRUE,Utility Account to Organization Settlement Account,979524 - ANCIENT WELLS PROPERTY MANAGERS 2,,
RJ43ILCAGL,04/10/2023 10:19,04/10/2023 10:19,Pay Bill from 254710106394 - LUCY TONKEI Acc. KBG,Completed,9000,,273000,TRUE,Pay Utility with OD via STK,254710106394 - LUCY TONKEI,,KBG
RJ42ICRX3E,04/10/2023 08:55,04/10/2023 08:55,Pay Bill from 254720947704 - JOSPHAT JOHN MUSYOKI Acc. HDD,Completed,10000,,264000,TRUE,Pay Utility,254720947704 - JOSPHAT JOHN MUSYOKI,,HDD
RJ49I43E8R,04/10/2023 07:15,04/10/2023 07:15,Pay Bill from 254703724744 - Esther Njambi Maina Acc. KEF,Completed,10000,,254000,TRUE,Pay Utility,254703724744 - Esther Njambi Maina,,KEF
RJ47HXU719,04/10/2023 01:27,04/10/2023 01:27,Pay Bill from 254729160700 - MICAH NDUNGI Acc. HFE,Completed,10500,,244000,TRUE,Pay Utility,254729160700 - MICAH NDUNGI,,HFE
RJ49HWWMD3,04/10/2023 00:28,04/10/2023 00:28,Pay Bill Online from 254712040302 - EMMANUEL MWARO BARASA Acc. KEA,Completed,16000,,233500,TRUE,Pay Bill Online,254712040302 - EMMANUEL MWARO BARASA,,KEA
RJ34HV5EAW,03/10/2023 23:24,03/10/2023 23:24,Pay Bill from 254723954911 - JAMES KILAVI Acc. ICG,Completed,9500,,217500,TRUE,Pay Utility,254723954911 - JAMES KILAVI,,ICG
RJ33HRGGED,03/10/2023 22:14,03/10/2023 22:14,Pay Bill Online from 254742023558 - PEACEMARY NJERI MAINA Acc. JBC,Completed,3000,,208000,TRUE,Pay Bill Online,254742023558 - PEACEMARY NJERI MAINA,,JBC
RJ30HOLI5A,03/10/2023 21:43,03/10/2023 21:43,Pay Bill from 254725621394 - RACHAEL WACHIRA Acc. Jfb,Completed,15000,,205000,TRUE,Pay Utility,254725621394 - RACHAEL WACHIRA,,Jfb
RJ37HLX141,03/10/2023 21:19,03/10/2023 21:19,Pay Bill from 254704977689 - ANTONY MUTHONI Acc. ICD,Completed,11000,,190000,TRUE,Pay Utility,254704977689 - ANTONY MUTHONI,,ICD
RJ38HI3A2S,03/10/2023 20:49,03/10/2023 20:49,Pay Bill from 254705346201 - NZIOKA SILA Acc. JDG,Completed,10000,,179000,TRUE,Pay Utility,254705346201 - NZIOKA SILA,,JDG
RJ39HFGGOL,03/10/2023 20:32,03/10/2023 20:32,Pay Bill from 254726753273 - JESSE K MURIRMI NJERU Acc. HCH,Completed,17000,,169000,TRUE,Pay Utility,254726753273 - JESSE K MURIRMI NJERU,,HCH
RJ30HDQW0M,03/10/2023 20:20,03/10/2023 20:20,Pay Bill Online from 0722255105 - SALIM OMAR MZEE Acc. FGF,Completed,16000,,152000,TRUE,Pay Utility with OD Online,0722255105 - SALIM OMAR MZEE,,FGF
RJ30HASJ1K,03/10/2023 20:02,03/10/2023 20:02,Pay Bill from 254792840128 - Edwin Kingori Acc. HBF,Completed,9000,,136000,TRUE,Pay Utility,254792840128 - Edwin Kingori,,HBF
RJ39H3LPRB,03/10/2023 19:23,03/10/2023 19:23,Pay Bill from 254728213256 - NICHOLAS NJOROGE Acc. HAD,Completed,10000,,127000,TRUE,Pay Utility,254728213256 - NICHOLAS NJOROGE,,HAD
RJ33H16DQZ,03/10/2023 19:11,03/10/2023 19:11,Pay Bill Online from 254742023558 - PEACEMARY NJERI MAINA Acc. JBC,Completed,8000,,117000,TRUE,Pay Bill Online,254742023558 - PEACEMARY NJERI MAINA,,JBC
RJ31GO6RNF,03/10/2023 17:57,03/10/2023 17:57,Pay Bill from 254716504398 - HYVENE MAYETI Acc. KDE,Completed,10000,,109000,TRUE,Pay Utility,254716504398 - HYVENE MAYETI,,KDE
RJ35GIC65N,03/10/2023 17:15,03/10/2023 17:15,Pay Bill from 0707289361 - JOSEPHIN ANYANGO OLUOCH Acc. HGD,Completed,19000,,99000,TRUE,Pay Utility,0707289361 - JOSEPHIN ANYANGO OLUOCH,,HGD
RJ38GGBCXK,03/10/2023 17:00,03/10/2023 17:00,Pay Bill from 254717063324 - Christine Murugi Nyaga Acc. KDF,Completed,10000,,80000,TRUE,Pay Utility,254717063324 - Christine Murugi Nyaga,,KDF
RJ36G9AVRS,03/10/2023 16:01,03/10/2023 16:01,Pay Bill Online from 0111278177 - Alfred   Kishoin Acc. DAB,Completed,16000,,70000,TRUE,Pay Bill Online,0111278177 - Alfred   Kishoin,,DAB
RJ33G20C5X,03/10/2023 14:54,03/10/2023 14:54,Pay Bill Online from 254722769473 - SAMSON CHALO Acc. IAB,Completed,15000,,54000,TRUE,Pay Bill Online,254722769473 - SAMSON CHALO,,IAB
RJ35FV5R4N,03/10/2023 13:52,03/10/2023 13:52,Pay Bill Online from 254723394064 - ANDREW LAGAT Acc. hbg,Completed,16000,,39000,TRUE,Pay Bill Online,254723394064 - ANDREW LAGAT,,hbg
RJ37FUM0B9,03/10/2023 13:47,03/10/2023 13:47,Pay Bill Online from 254725218904 - SALOME MUTHONI MWANGI Acc. KFJ,Completed,15000,,23000,TRUE,Pay Bill Online,254725218904 - SALOME MUTHONI MWANGI,,KFJ
RJ31F8IVGN,03/10/2023 10:22,03/10/2023 10:22,Pay Bill from 0115327960 - JOSEPH WAMBUA MUSYOKA Acc. IBG,Completed,8000,,8000,TRUE,Pay Utility,0115327960 - JOSEPH WAMBUA MUSYOKA,,IBG
RJ34F79Y68,03/10/2023 10:10,03/10/2023 10:10,Utility Account to Organization Settlement Account,Completed,,-304500,0,TRUE,Utility Account to Organization Settlement Account,979524 - ANCIENT WELLS PROPERTY MANAGERS 2,,
RJ33F6AWW3,03/10/2023 10:01,03/10/2023 10:01,Pay Bill from 254719398942 - NORAH WAYUA MUNYAO Acc. KDA,Completed,16000,,304500,TRUE,Pay Utility,254719398942 - NORAH WAYUA MUNYAO,,KDA
RJ30F43JBS,03/10/2023 09:39,03/10/2023 09:39,Pay Bill Online from 254729796719 - JACINTA WANJIKU NJERI Acc. FFF,Completed,17000,,288500,TRUE,Pay Bill Online,254729796719 - JACINTA WANJIKU NJERI,,FFF
RJ35ERL1CF,03/10/2023 07:19,03/10/2023 07:19,Pay Bill from 254711515672 - ALLAN MUTEMBEI Acc. IEI,Completed,15000,,271500,TRUE,Pay Utility,254711515672 - ALLAN MUTEMBEI,,IEI
RJ21EGE9V7,02/10/2023 22:30,02/10/2023 22:30,Merchant Pay Utility Received from 6539297 - RENE EMMANUEL AURA Acc. FBD,Completed,8000,,256500,TRUE,Merchant Pay Utility via API,6539297 - RENE EMMANUEL AURA,,FBD
RJ20EGBCC0,02/10/2023 22:28,02/10/2023 22:28,Pay Bill from 254723488259 - WILSON OKITE OKITE Acc. hca,Completed,15000,,248500,TRUE,Pay Utility,254723488259 - WILSON OKITE OKITE,,hca
RJ21EFJR3D,02/10/2023 22:17,02/10/2023 22:16,Pay Bill from 254745338401 - mirriam ngina jane Acc. kgc,Completed,9000,,233500,TRUE,Pay Utility,254745338401 - mirriam ngina jane,,kgc
RJ20EDN8H0,02/10/2023 21:52,02/10/2023 21:52,Pay Bill Online from 254708357223 - DENNIS KIRIMI Acc. DCA,Completed,16000,,224500,TRUE,Pay Bill Online,254708357223 - DENNIS KIRIMI,,DCA
RJ29ECO3UB,02/10/2023 21:42,02/10/2023 21:42,Pay Bill from 0711502447 - Gabriel gatehi mwaura Acc. FDC,Completed,9000,,208500,TRUE,Pay Utility,0711502447 - Gabriel gatehi mwaura,,FDC
RJ20ECK55E,02/10/2023 21:41,02/10/2023 21:41,Pay Bill from 254728084427 - MARY NABWIRE OKELLO Acc. FDF,Completed,16000,,199500,TRUE,Pay Utility,254728084427 - MARY NABWIRE OKELLO,,FDF
RJ20EA98TK,02/10/2023 21:19,02/10/2023 21:19,Pay Bill Online from 254721417560 - ANDREW SANDE Acc. JBJ,Completed,16000,,183500,TRUE,Pay Bill Online,254721417560 - ANDREW SANDE,,JBJ
RJ20DYCJ3O,02/10/2023 19:54,02/10/2023 19:54,Pay Bill from 254740579741 - MUHINDI MULINYA Acc. HGG,Completed,19000,,167500,TRUE,Pay Utility,254740579741 - MUHINDI MULINYA,,HGG
RJ25DW28BJ,02/10/2023 19:40,02/10/2023 19:40,Pay Bill from 254729598338 - REGINA GATHONI Acc. iec,Completed,10000,,148500,TRUE,Pay Utility,254729598338 - REGINA GATHONI,,iec
RJ22DI5F3I,02/10/2023 18:26,02/10/2023 18:26,Pay Bill from 254706443081 - FATUMA WAKO JARSO Acc. HED,Completed,9000,,138500,TRUE,Pay Utility,254706443081 - FATUMA WAKO JARSO,,HED
RJ28DH4ICY,02/10/2023 18:19,02/10/2023 18:19,Pay Bill from 254726599835 - LAWRENCE MURIITHI Acc. kdj,Completed,16000,,129500,TRUE,Pay Utility,254726599835 - LAWRENCE MURIITHI,,kdj
RJ29DEJ9J5,02/10/2023 18:03,02/10/2023 18:03,Pay Bill from 0710604910 - Peninah Purity Muthoni Ndogo Acc. FCC,Completed,9000,,113500,TRUE,Pay Utility,0710604910 - Peninah Purity Muthoni Ndogo,,FCC
RJ24CZ8FLS,02/10/2023 16:08,02/10/2023 16:08,Pay Bill from 0745484142 - Daisy   Chebet Acc. FGE,Completed,15000,,104500,TRUE,Pay Utility,0745484142 - Daisy   Chebet,,FGE
RJ29CXZR5H,02/10/2023 15:57,02/10/2023 15:57,Pay Bill Online from 254712187712 - JUDELEEN SHILOBELE AHINDUKHA Acc. IEA,Completed,13000,,89500,TRUE,Pay Bill Online,254712187712 - JUDELEEN SHILOBELE AHINDUKHA,,IEA
RJ25CUL4KX,02/10/2023 15:26,02/10/2023 15:26,Pay Bill from 254724379488 - NICHOLAS KOOME Acc. JDE,Completed,9500,,76500,TRUE,Pay Utility,254724379488 - NICHOLAS KOOME,,JDE
RJ26CQ8ANC,02/10/2023 14:46,02/10/2023 14:46,Pay Bill from 254722136450 - MARY EVERLYN Acc. JAI,Completed,20000,,67000,TRUE,Pay Utility,254722136450 - MARY EVERLYN,,JAI
RJ21CJ8JXP,02/10/2023 13:44,02/10/2023 13:44,Pay Bill Online from 254722910078 - MAUREEN MUNYIVA MUTUKU Acc. DCD,Completed,3000,,47000,TRUE,Pay Bill Online,254722910078 - MAUREEN MUNYIVA MUTUKU,,DCD
RJ24CIKOAK,02/10/2023 13:38,02/10/2023 13:38,Pay Bill from 254791318982 - ADULLAHI HASSAN Acc. jci,Completed,15000,,44000,TRUE,Pay Utility,254791318982 - ADULLAHI HASSAN,,jci
RJ22CGQ16G,02/10/2023 13:22,02/10/2023 13:22,Pay Bill from 254795008751 - caroline owala Acc. KBF,Completed,9000,,29000,TRUE,Pay Utility,254795008751 - caroline owala,,KBF
RJ26C5WSNG,02/10/2023 11:43,02/10/2023 11:43,Pay Bill from 254715390903 - GLADYS NTHULE KIVULUI Acc. DBD,Completed,20000,,20000,TRUE,Pay Utility,254715390903 - GLADYS NTHULE KIVULUI,,DBD
RJ23C555J7,02/10/2023 11:36,02/10/2023 11:36,Utility Account to Organization Settlement Account,Completed,,-308000,0,TRUE,Utility Account to Organization Settlement Account,979524 - ANCIENT WELLS PROPERTY MANAGERS 2,,
RJ25BQCDSP,02/10/2023 09:15,02/10/2023 09:15,Pay Bill Online from 254704111133 - ELVIS OTIENO Acc. HFD,Completed,1000,,308000,TRUE,Pay Bill Online,254704111133 - ELVIS OTIENO,,HFD
RJ24BODWX6,02/10/2023 08:55,02/10/2023 08:55,Pay Bill Online from 254700187806 - WINNIE OLIVIA AKOTH Acc. JEC,Completed,10000,,307000,TRUE,Pay Bill Online,254700187806 - WINNIE OLIVIA AKOTH,,JEC
RJ20BIW5J0,02/10/2023 07:56,02/10/2023 07:56,Pay Bill Online from 254725381062 - VICTOR MAITHYA Acc. DEC,Completed,4000,,297000,TRUE,Pay Utility with OD Online,254725381062 - VICTOR MAITHYA,,DEC
RJ27BH2JHV,02/10/2023 07:34,02/10/2023 07:34,Pay Bill from 254723929380 - RHODAH K WAMBUA Acc. HEG,Completed,15000,,293000,TRUE,Pay Utility,254723929380 - RHODAH K WAMBUA,,HEG
RJ26BEK1KU,02/10/2023 06:59,02/10/2023 06:59,Pay Bill from 254712367486 - JACKLINE JUMA Acc. ked,Completed,11000,,278000,TRUE,Pay Utility,254712367486 - JACKLINE JUMA,,ked
RJ20BD5Z9C,02/10/2023 06:34,02/10/2023 06:34,Pay Bill from 254791387800 - CAROL MUTUNGA Acc. ICF,Completed,11000,,267000,TRUE,Pay Utility,254791387800 - CAROL MUTUNGA,,ICF
RJ29BA6ETT,02/10/2023 03:58,02/10/2023 03:58,Pay Bill from 254714060203 - PATRICK MWANGOMBE MSAWUCHI Acc. KEI,Completed,12000,,256000,TRUE,Pay Utility,254714060203 - PATRICK MWANGOMBE MSAWUCHI,,KEI
RJ16B57MTW,01/10/2023 22:50,01/10/2023 22:50,Pay Bill from 254791602823 - rachel mati kalundi Acc. JEG,Completed,9000,,244000,TRUE,Pay Utility,254791602823 - rachel mati kalundi,,JEG
RJ19B1K403,01/10/2023 21:50,01/10/2023 21:50,Pay Bill Online from 254720451253 - JIMMY KIOGORA NKIROTE Acc. KBD,Completed,1000,,235000,TRUE,Pay Bill Online,254720451253 - JIMMY KIOGORA NKIROTE,,KBD
RJ13AZP88R,01/10/2023 21:29,01/10/2023 21:29,Pay Bill Online from 254706784429 - ROSE JEPKOECH RUTTO Acc. IFI,Completed,15000,,234000,TRUE,Pay Bill Online,254706784429 - ROSE JEPKOECH RUTTO,,IFI
RJ10AIAPNY,01/10/2023 19:18,01/10/2023 19:18,Pay Bill from 254769123105 - GEORGE BANGE OGETO Acc. JAG,Completed,10000,,219000,TRUE,Pay Utility,254769123105 - GEORGE BANGE OGETO,,JAG
RJ13A5KXEB,01/10/2023 17:57,01/10/2023 17:57,Pay Bill Online from 254721465713 - RHODA WAMBUI MWANGI Acc. Jfh,Completed,17000,,209000,TRUE,Pay Bill Online,254721465713 - RHODA WAMBUI MWANGI,,Jfh
RJ159WD619,01/10/2023 16:44,01/10/2023 16:44,Pay Bill from 0706563358 - HARRIET NYANCHAMA NYABERI Acc. HBA,Completed,16000,,192000,TRUE,Pay Utility,0706563358 - HARRIET NYANCHAMA NYABERI,,HBA
RJ159LYIQH,01/10/2023 15:13,01/10/2023 15:13,Pay Bill Online from 254707966839 - DENNIS KIPTOO MAIYO Acc. FEF,Completed,16000,,176000,TRUE,Pay Bill Online,254707966839 - DENNIS KIPTOO MAIYO,,FEF
RJ179EPU6X,01/10/2023 14:08,01/10/2023 14:08,Pay Bill Online from 254721981294 - GRACE WAMBUI KIHANYA Acc. IGH,Completed,15000,,160000,TRUE,Pay Bill Online,254721981294 - GRACE WAMBUI KIHANYA,,IGH
RJ109490OO,01/10/2023 12:26,01/10/2023 12:26,Pay Bill Online from 254714095632 - ROMANA MBINYA Acc. KEG,Completed,10000,,145000,TRUE,Pay Bill Online,254714095632 - ROMANA MBINYA,,KEG
RJ1293PEEW,01/10/2023 12:21,01/10/2023 12:21,Pay Bill from 0745472241 - Tonny Nyachieo Onsinyo Acc. idc,Completed,9500,,135000,TRUE,Pay Utility,0745472241 - Tonny Nyachieo Onsinyo,,idc
RJ1792XPD5,01/10/2023 12:13,01/10/2023 12:13,Pay Bill Online from 254706549634 - CLINTON OMBASA Acc. FDB,Completed,17000,,125500,TRUE,Pay Bill Online,254706549634 - CLINTON OMBASA,,FDB
RJ178W7W99,01/10/2023 11:01,01/10/2023 11:01,Pay Bill Online from 254795510441 - LEWIS MUEMA Acc. KEB,Completed,16000,,108500,TRUE,Pay Bill Online,254795510441 - LEWIS MUEMA,,KEB
RJ138OGY65,01/10/2023 09:39,01/10/2023 09:39,Pay Bill from 0798951042 - fridah kathure kinyua Acc. HGE,Completed,9000,,92500,TRUE,Pay Utility,0798951042 - fridah kathure kinyua,,HGE
RJ1989RJ8D,01/10/2023 04:56,01/10/2023 04:56,Pay Bill Online from 254707726441 - JOHN OLOO NYAULA Acc. IEH,Completed,15000,,83500,TRUE,Pay Bill Online,254707726441 - JOHN OLOO NYAULA,,IEH
RJ19863RWX,01/10/2023 00:34,01/10/2023 00:34,Pay Bill from 254703935626 - DAVID NGARI ITA Acc. FCD,Completed,2000,,68500,TRUE,Pay Utility with OD via STK,254703935626 - DAVID NGARI ITA,,FCD
