Receipt No.,Completion Time,Initiation Time,Details,Transaction Status,Paid In,Withdrawn,Balance,Balance Confirmed,Reason Type,Other Party Info,Linked Transaction ID,A/C No.
OEB14NZP77,11/05/2020 18:48,11/05/2020 18:48,Pay Bill from 254725014210 - FREDRICK MOUNDE Acc. EPZ MH,Completed,28000,,33750,TRUE,Pay Utility with OD via STK,254725014210 - FREDRICK MOUNDE,,EPZ
OEB34GIUZZ,11/05/2020 15:58,11/05/2020 15:58,Pay Bill from 0794231328 - Jobic Gesimba Otwabe Acc. U4,Completed,5750,,5750,TRUE,Pay Utility,0794231328 - Jobic Gesimba Otwabe,,U4
OEB84DPJ6G,11/05/2020 14:39,11/05/2020 14:39,Utility Account to Organization Settlement Account,Completed,,-26500,0,TRUE,Utility Account to Organization Settlement Account,887264 - ANCIENT WELLS LTD 2,,
OEA53VPPL5,10/05/2020 19:33,10/05/2020 19:33,Pay Bill from 254728464531 - JAMES MUIRURI Acc. James Kenedy Muiruri,Completed,2500,,26500,TRUE,Pay Utility,254728464531 - JAMES MUIRURI,,James
OE77ZRT2NB,07/05/2020 10:55,07/05/2020 10:55,Pay Bill from 0743263203 - Patrick theuri wachira Acc. U1,Completed,5000,,24000,TRUE,Pay Utility,0743263203 - Patrick theuri wachira,,U1
