Receipt No.,Completion Time,Initiation Time,Details,Transaction Status,Paid In,Withdrawn,Balance,Balance Confirmed,Reason Type,Other Party Info,Linked Transaction ID,A/C No.
RLL6R7XA2W,21/12/2023 09:00,21/12/2023 09:00,Pay Bill from 254728***985 - VIRGINIAH *** Acc. B7,Completed,6000,,6000,TRUE,Pay Utility,254728***985 - VIRGINIAH ***,,B7
RLK7OSOTVV,20/12/2023 14:06,20/12/2023 14:06,Utility Account to Organization Settlement Account,Completed,,-25500,0,TRUE,Utility Account to Organization Settlement Account,887264 - ANCIENT WELLS LTD 2,,
RLJ8LSO4LU,19/12/2023 15:48,19/12/2023 15:48,Pay Bill from 254722***652 - BONIFACE *** Acc. D/9,Completed,5500,,25500,TRUE,Pay Utility,254722***652 - BONIFACE ***,,D/9
RLJ3KYPNM9,19/12/2023 11:20,19/12/2023 11:20,Pay Bill from 254722***566 - DANIEL *** Acc. UMOJA H101,Completed,20000,,20000,TRUE,Pay Utility,254722***566 - DANIEL ***,,UMOJA
RLI5JQA2IP,18/12/2023 20:46,18/12/2023 20:46,Utility Account to Organization Settlement Account,Completed,,-431450,0,TRUE,Utility Account to Organization Settlement Account,887264 - ANCIENT WELLS LTD 2,,
RLI5IY3SOD,18/12/2023 17:53,18/12/2023 17:53,Pay Bill from 254724***327 - CAROLINE *** Acc. D5,Completed,10000,,431450,TRUE,Pay Utility,254724***327 - CAROLINE ***,,D5
RLG5DP57R3,16/12/2023 22:18,16/12/2023 22:18,Pay Bill from 079896***287 - Mary *** Acc. Z14,Completed,16000,,421450,TRUE,Pay Utility,079896***287 - Mary ***,,Z14
RLF67X6ZGE,15/12/2023 11:10,15/12/2023 11:10,Pay Bill from 254726***866 - JOSEPH *** Acc. shop 1 saika,Completed,7500,,405450,TRUE,Pay Utility,254726***866 - JOSEPH ***,,shop
RLE26WQRKG,14/12/2023 21:51,14/12/2023 21:51,Pay Bill from 074552***615 - COLLINS *** Acc. U6,Completed,2500,,397950,TRUE,Pay Utility,074552***615 - COLLINS ***,,U6
RLE26OQNHQ,14/12/2023 20:42,14/12/2023 20:42,Pay Bill from 254722***369 - FAIZ *** Acc. Nairobi West 12,Completed,70000,,395450,TRUE,Pay Utility,254722***369 - FAIZ ***,,Nairobi
RLE15FOAEN,14/12/2023 15:35,14/12/2023 15:35,Pay Bill from 074080***913 - Odhiambo *** Acc. D11/D12,Completed,2750,,325450,TRUE,Pay Utility,074080***913 - Odhiambo ***,,D11/D12
RLD72AEPTR,13/12/2023 16:08,13/12/2023 16:08,Pay Bill from 254725***381 - ADELINE *** Acc. Saika A6,Completed,39000,,322700,TRUE,Pay Utility,254725***381 - ADELINE ***,,Saika
RLD827KBVW,13/12/2023 15:43,13/12/2023 15:43,Pay Bill Online from 072170***341 - Samson *** Acc. Z4,Completed,15000,,283700,TRUE,Pay Bill Online,072170***341 - Samson ***,,Z4
RLD821N0UC,13/12/2023 14:49,13/12/2023 14:49,Pay Bill from 254720***522 - DANIEL *** Acc. Z15 ,Completed,16000,,268700,TRUE,Pay Utility,254720***522 - DANIEL ***,,Z15
RLD61JJ70U,13/12/2023 12:03,13/12/2023 12:03,Utility Account to Organization Settlement Account,Completed,,-35000,252700,TRUE,Utility Account to Organization Settlement Account,887264 - ANCIENT WELLS LTD 2,,
RLD11F0QSL,13/12/2023 11:21,13/12/2023 11:21,Pay Bill from 254728***446 - GRACE *** Acc. ancient well ,Completed,40000,,287700,TRUE,Pay Utility with OD via STK,254728***446 - GRACE ***,,ancient
RLD21DU9UO,13/12/2023 11:10,13/12/2023 11:10,Utility Account to Organization Settlement Account,Completed,,-50000,247700,TRUE,Utility Account to Organization Settlement Account,887264 - ANCIENT WELLS LTD 2,,
RLD71BRWDD,13/12/2023 10:51,13/12/2023 10:51,Pay Bill Online from 254796***225 - Martin *** Acc. z8,Completed,16000,,297700,TRUE,Pay Utility with OD Online,254796***225 - Martin ***,,z8
RLC0YF56CS,12/12/2023 17:55,12/12/2023 17:55,Utility Account to Organization Settlement Account,Completed,,-50000,281700,TRUE,Utility Account to Organization Settlement Account,887264 - ANCIENT WELLS LTD 2,,
RLC5XZAR4L,12/12/2023 15:42,12/12/2023 15:42,Pay Bill from 074326***203 - Patrick *** Acc. U1,Completed,5000,,331700,TRUE,Pay Utility,074326***203 - Patrick ***,,U1
RLB3VR6MUR,11/12/2023 20:06,11/12/2023 20:06,Pay Bill Online from 254715***633 - FIONA *** Acc. Z16,Completed,16000,,326700,TRUE,Pay Bill Online,254715***633 - FIONA ***,,Z16
RLB1TGVP7X,11/12/2023 09:10,11/12/2023 09:10,Pay Bill from 254729***163 - BEATRICE *** Acc. z13,Completed,16200,,310700,TRUE,Pay Utility with OD via STK,254729***163 - BEATRICE ***,,z13
RLA9SI7XYJ,10/12/2023 19:52,10/12/2023 19:52,Business Pay Bill by 998094 - COOP TO PAYBILL Acc. hse no 3 via API,Completed,12000,,294500,TRUE,Business Pay Bill via API,998094 - COOP TO PAYBILL,,hse
RLA5QGNJID,10/12/2023 09:06,10/12/2023 09:06,Pay Bill from 254745***921 - LAUREEN *** Acc. B3,Completed,6000,,282500,TRUE,Pay Utility,254745***921 - LAUREEN ***,,B3
RL93O9P8MZ,09/12/2023 15:25,09/12/2023 15:25,Pay Bill Online from 254723***941 - ELIZABETH *** Acc. house z12,Completed,30000,,276500,TRUE,Pay Bill Online,254723***941 - ELIZABETH ***,,house
RL91MPRNBD,09/12/2023 06:27,09/12/2023 06:27,Pay Bill from 254725***210 - FREDRICK *** Acc. EPZ MH ,Completed,35000,,246500,TRUE,Pay Utility,254725***210 - FREDRICK ***,,EPZ
RL71IFNBHH,07/12/2023 19:56,07/12/2023 19:56,Pay Bill Online from 254710***833 - PATRICK *** Acc. SAVANAH 102,Completed,36000,,211500,TRUE,Pay Bill Online,254710***833 - PATRICK ***,,SAVANAH
RL74I1TRAO,07/12/2023 18:43,07/12/2023 18:43,Pay Bill from 011407***813 - David *** Acc. D8,Completed,5500,,175500,TRUE,Pay Utility,011407***813 - David ***,,D8
RL79HWCSWD,07/12/2023 18:09,07/12/2023 18:09,Pay Bill from 254720***537 - MARY *** Acc. 6,Completed,16000,,170000,TRUE,Pay Utility,254720***537 - MARY ***,,6
RL71GRSTAV,07/12/2023 12:36,07/12/2023 12:36,Pay Bill from 254722***500 - SHARON *** Acc. z1,Completed,12000,,154000,TRUE,Pay Utility,254722***500 - SHARON ***,,z1
RL63E1C0ID,06/12/2023 16:37,06/12/2023 16:37,Pay Bill from 254728***930 - DOREEN *** Acc. Z10,Completed,10000,,142000,TRUE,Pay Utility,254728***930 - DOREEN ***,,Z10
RL64C9J3C4,06/12/2023 07:04,06/12/2023 07:04,Pay Bill Online from 254718***869 - MARK *** Acc. A3,Completed,7000,,132000,TRUE,Pay Bill Online,254718***869 - MARK ***,,A3
RL559FH94B,05/12/2023 10:54,05/12/2023 10:54,Pay Bill Online from 254723***186 - BRIAN *** Acc. 18,Completed,16000,,125000,TRUE,Pay Bill Online,254723***186 - BRIAN ***,,18
RL478F3M8L,04/12/2023 21:51,04/12/2023 21:51,Pay Bill Online from 254711***176 - ANTONY *** Acc. 17,Completed,16000,,109000,TRUE,Pay Bill Online,254711***176 - ANTONY ***,,17
RL487UEQJW,04/12/2023 19:27,04/12/2023 19:27,Pay Bill Online from 254712***161 - ANGELA *** Acc. A202,Completed,90000,,93000,TRUE,Pay Bill Online,254712***161 - ANGELA ***,,A202
RL4576RYS3,04/12/2023 17:03,04/12/2023 17:03,Utility Account to Organization Settlement Account,Completed,,-140000,3000,TRUE,Utility Account to Organization Settlement Account,887264 - ANCIENT WELLS LTD 2,,
RL406QOL7G,04/12/2023 14:49,04/12/2023 14:49,Pay Bill from 254724***611 - PAULINE *** Acc. D13,Completed,6000,,143000,TRUE,Pay Utility,254724***611 - PAULINE ***,,D13
RL40644L5K,04/12/2023 11:35,04/12/2023 11:35,Pay Bill from 076923***929 - vincent *** Acc. Z10,Completed,10000,,137000,TRUE,Pay Utility,076923***929 - vincent ***,,Z10
RL445VRA38,04/12/2023 10:21,04/12/2023 10:21,Pay Bill from 254723***311 - VERONICAH *** Acc. house no 9,Completed,16000,,127000,TRUE,Pay Utility,254723***311 - VERONICAH ***,,house
RL353WT32B,03/12/2023 16:57,03/12/2023 16:57,Utility Account to Organization Settlement Account,Completed,,-20000,111000,TRUE,Utility Account to Organization Settlement Account,887264 - ANCIENT WELLS LTD 2,,
RL392KHDTN,03/12/2023 09:20,03/12/2023 09:20,Pay Bill from 254706***442 - REUBEN *** Acc. B5,Completed,6000,,131000,TRUE,Pay Utility with OD via STK,254706***442 - REUBEN ***,,B5
RL25151B1V,02/12/2023 19:02,02/12/2023 19:02,Utility Account to Organization Settlement Account,Completed,,-60000,125000,TRUE,Utility Account to Organization Settlement Account,887264 - ANCIENT WELLS LTD 2,,
RL29ZOCFXP,02/12/2023 17:18,02/12/2023 17:18,Pay Bill from 254715***027 - NICHOLAS *** Acc. Leah b2,Completed,20000,,185000,TRUE,Pay Utility,254715***027 - NICHOLAS ***,,Leah
RL27XV5AZ3,02/12/2023 07:58,02/12/2023 07:58,Utility Account to Organization Settlement Account,Completed,,-50000,165000,TRUE,Utility Account to Organization Settlement Account,887264 - ANCIENT WELLS LTD 2,,
RL28XP8ZD4,02/12/2023 06:28,02/12/2023 06:28,Pay Bill from 074552***615 - COLLINS *** Acc. U6,Completed,8000,,215000,TRUE,Pay Utility,074552***615 - COLLINS ***,,U6
RL14WON16S,01/12/2023 19:17,01/12/2023 19:17,Pay Bill Online from 254712***161 - ANGELA *** Acc. A202,Completed,180000,,207000,TRUE,Pay Bill Online,254712***161 - ANGELA ***,,A202
RL11WLBJ3Z,01/12/2023 19:00,01/12/2023 19:00,Pay Bill from 254726***715 - ELIZAPHAN *** Acc. Z2,Completed,16000,,27000,TRUE,Pay Utility with OD via STK,254726***715 - ELIZAPHAN ***,,Z2
RL16WA1378,01/12/2023 17:55,01/12/2023 17:55,Pay Bill from 254707***400 - SUSAN *** Acc. D7,Completed,11000,,11000,TRUE,Pay Utility,254707***400 - SUSAN ***,,D7
