Receipt No.,Completion Time,Initiation Time,Details,Transaction Status,Paid In,Withdrawn,Balance,Balance Confirmed,Reason Type,Other Party Info,Linked Transaction ID,A/C No.
QKB6P66J78,11/11/2022 10:19,11/11/2022 10:19,Pay Bill Online from 0757950400 - JOHN ARNOLD MWANGI Acc. Prit7,Completed,10000,,94000,TRUE,Pay Bill Online,0757950400 - JOHN ARNOLD MWANGI,,Prit7
QKB7P06INP,11/11/2022 08:58,11/11/2022 08:58,Pay Bill from 254721623212 - MOSES KARANJA WAMBURA Acc. Z16,Completed,16000,,84000,TRUE,Pay Utility,254721623212 - MOSES KARANJA WAMBURA,,Z16
QKA4OMUIJG,10/11/2022 22:34,10/11/2022 22:34,FSI to Pay Bill by 998094 - COOP TO PAYBILL Acc. hse no.3 via WEB by COOP TO PAYBILL\COOPAYBILLTRNS,Completed,12000,,68000,TRUE,FSI to Pay Bill via API,998094 - COOP TO PAYBILL,,hse
QKA2NMZBQ0,10/11/2022 16:39,10/11/2022 16:39,Pay Bill from 254728912446 - GRACE NJERI KIMANI Acc. ancient wells ,Completed,40000,,56000,TRUE,Pay Utility with OD via STK,254728912446 - GRACE NJERI KIMANI,,ancient
QKA5MN5J97,10/11/2022 09:00,10/11/2022 09:00,Pay Bill from 254720867522 - DANIEL WAMBUI Acc. z15 ,Completed,16000,,16000,TRUE,Pay Utility,254720867522 - DANIEL WAMBUI,,z15
QKA0MF9JTG,10/11/2022 06:31,10/11/2022 06:31,Utility Account to Organization Settlement Account,Completed,,-338300,0,TRUE,Utility Account to Organization Settlement Account,887264 - ANCIENT WELLS LTD 2,,
QK90LUIZS8,09/11/2022 19:36,09/11/2022 19:36,Pay Bill from 254724825611 - PAULINE INDIEKA Acc. D13,Completed,6000,,338300,TRUE,Pay Utility,254724825611 - PAULINE INDIEKA,,D13
QK90LGIJLA,09/11/2022 17:51,09/11/2022 17:51,Pay Bill from 254726928715 - ELIZAPHAN KAMAU NDUTA Acc. Z2,Completed,18000,,332300,TRUE,Pay Utility,254726928715 - ELIZAPHAN KAMAU NDUTA,,Z2
QK91KNG3SB,09/11/2022 12:13,09/11/2022 12:13,Pay Bill from 0115556359 - CHEPNGENO   EDITH Acc. c701,Completed,20000,,314300,TRUE,Pay Utility,0115556359 - CHEPNGENO   EDITH,,c701
QK99KF6SSH,09/11/2022 10:27,09/11/2022 10:27,Pay Bill from 254725014210 - FREDRICK MOUNDE Acc. epz mh,Completed,30000,,294300,TRUE,Pay Utility,254725014210 - FREDRICK MOUNDE,,epz
QK93KASQE5,09/11/2022 09:30,09/11/2022 09:30,Utility Account to Organization Settlement Account,Completed,,-24000,264300,TRUE,Utility Account to Organization Settlement Account,887264 - ANCIENT WELLS LTD 2,,
QK99JZ0IXT,09/11/2022 04:53,09/11/2022 04:53,Pay Bill from 254728208930 - DOREEN MAKENA Acc. 10,Completed,15000,,288300,TRUE,Pay Utility,254728208930 - DOREEN MAKENA,,10
QK82HZUKCS,08/11/2022 10:07,08/11/2022 10:07,Pay Bill from 254721121502 - ANNE WANGUI KAMAU Acc. Anne 11 samville ,Completed,15000,,273300,TRUE,Pay Utility,254721121502 - ANNE WANGUI KAMAU,,Anne
QK71H5GE9P,07/11/2022 19:54,07/11/2022 19:54,Pay Bill Online from 254723853941 - ELIZABETH MUTIO MUTUKU Acc. house number 12,Completed,16000,,258300,TRUE,Pay Bill Online,254723853941 - ELIZABETH MUTIO MUTUKU,,house
QK78G6TV3S,07/11/2022 14:20,07/11/2022 14:20,Pay Bill Online from 0757950400 - JOHN ARNOLD MWANGI Acc. Prit7,Completed,15000,,242300,TRUE,Pay Bill Online,0757950400 - JOHN ARNOLD MWANGI,,Prit7
QK73FZ3Q09,07/11/2022 12:48,07/11/2022 12:48,Pay Bill Online from 254716779144 - VICTOR OMONDI SIDIGU Acc. U2,Completed,5800,,227300,TRUE,Pay Bill Online,254716779144 - VICTOR OMONDI SIDIGU,,U2
QK79FF6T3V,07/11/2022 08:25,07/11/2022 08:25,Pay Bill from 254722314500 - SHARON AKINYI OBIERO Acc. house number 1,Completed,12000,,221500,TRUE,Pay Utility,254722314500 - SHARON AKINYI OBIERO,,house
QK51CPKOJV,05/11/2022 21:03,05/11/2022 21:03,Utility Account to Organization Settlement Account,Completed,,-10000,209500,TRUE,Utility Account to Organization Settlement Account,887264 - ANCIENT WELLS LTD 2,,
QK58COTX5U,05/11/2022 20:55,05/11/2022 20:55,Utility Account to Organization Settlement Account,Completed,,-11000,219500,TRUE,Utility Account to Organization Settlement Account,887264 - ANCIENT WELLS LTD 2,,
QK55C4EOOR,05/11/2022 18:10,05/11/2022 18:10,Pay Bill from 254722729251 - DAVID KIBE NJUGUNA Acc. 4Z,Completed,7000,,230500,TRUE,Pay Utility,254722729251 - DAVID KIBE NJUGUNA,,4Z
QK50BOFR6M,05/11/2022 15:34,05/11/2022 15:34,Pay Bill from 254702639932 - ZACHARIAH MOENGA MOGUCHE Acc. dpritt1 ,Completed,11000,,223500,TRUE,Pay Utility,254702639932 - ZACHARIAH MOENGA MOGUCHE,,dpritt1
QK419B2XJH,04/11/2022 16:28,04/11/2022 16:28,Pay Bill Online from 0757950400 - JOHN ARNOLD MWANGI Acc. Prit7,Completed,10000,,212500,TRUE,Pay Bill Online,0757950400 - JOHN ARNOLD MWANGI,,Prit7
QK478XXA5X,04/11/2022 13:56,04/11/2022 13:56,Pay Bill from 254721392330 - ROSE KENDI Acc. A202,Completed,90000,,202500,TRUE,Pay Utility with OD via STK,254721392330 - ROSE KENDI,,A202
QK488RMQH8,04/11/2022 12:41,04/11/2022 12:41,Pay Bill Online from 254723909186 - BRIAN LIBASIA Acc. 18,Completed,16000,,112500,TRUE,Pay Bill Online,254723909186 - BRIAN LIBASIA,,18
QK408BQLRW,04/11/2022 09:19,04/11/2022 09:19,Utility Account to Organization Settlement Account,Completed,,-35500,96500,TRUE,Utility Account to Organization Settlement Account,887264 - ANCIENT WELLS LTD 2,,
QK357WFC0T,03/11/2022 22:25,03/11/2022 22:25,Pay Bill from 254702639932 - ZACHARIAH MOENGA MOGUCHE Acc. dpritt1,Completed,5500,,132000,TRUE,Pay Utility,254702639932 - ZACHARIAH MOENGA MOGUCHE,,dpritt1
QK306FGLCK,03/11/2022 13:20,03/11/2022 13:20,Pay Bill from 254723882311 - VERONICAH WAMBUGU Acc. house numer 9,Completed,16000,,126500,TRUE,Pay Utility,254723882311 - VERONICAH WAMBUGU,,house
QK29436VUP,02/11/2022 14:03,02/11/2022 14:03,Pay Bill Online from 0757950400 - JOHN ARNOLD MWANGI Acc. Prit7,Completed,30000,,110500,TRUE,Pay Bill Online,0757950400 - JOHN ARNOLD MWANGI,,Prit7
QK203J0V48,02/11/2022 09:47,02/11/2022 09:47,Pay Bill from 254718167869 - MARK OTIENO Acc. A3,Completed,7000,,80500,TRUE,Pay Utility,254718167869 - MARK OTIENO,,A3
QK182ZNALM,01/11/2022 21:30,01/11/2022 21:30,Pay Bill from 254718736574 - PATRICK LUMUMBA AGAN Acc. 369S,Completed,13000,,73500,TRUE,Pay Utility,254718736574 - PATRICK LUMUMBA AGAN,,369S
QK192LLZ3R,01/11/2022 19:20,01/11/2022 19:20,Pay Bill from 254726731040 - ISAAC NDUNGU Acc. D8,Completed,12000,,60500,TRUE,Pay Utility,254726731040 - ISAAC NDUNGU,,D8
