Receipt No.,Completion Time,Initiation Time,Details,Transaction Status,Paid In,Withdrawn,Balance,Balance Confirmed,Reason Type,Other Party Info,Linked Transaction ID,A/C No.
SDH0F5LDOM,17/04/2024 04:34,17/04/2024 04:34,Pay Bill from 254727***164 - NICHOLAS *** Acc. G2,Completed,1200,,251200,TRUE,Pay Utility,254727***164 - NICHOLAS ***,,G2
SDF27Z0V18,15/04/2024 00:31,15/04/2024 00:31,Pay Bill from 254707***121 - JOHNSTONE *** Acc. b4,Completed,8500,,250000,TRUE,Pay Utility,254707***121 - JOHNSTONE ***,,b4
SDE17TY821,14/04/2024 22:18,14/04/2024 22:18,Pay Bill from 072977***299 - WAMBUA *** Acc. c1,Completed,2000,,241500,TRUE,Pay Utility,072977***299 - WAMBUA ***,,c1
SDC5XZX7L1,12/04/2024 14:49,12/04/2024 14:49,Pay Bill from 254715***408 - JONATHAN *** Acc. G1,Completed,8000,,239500,TRUE,Pay Utility,254715***408 - JONATHAN ***,,G1
SDC3XWIRO9,12/04/2024 14:23,12/04/2024 14:23,Pay Bill from 074871***970 - judith *** Acc. E5,Completed,8500,,231500,TRUE,Pay Utility,074871***970 - judith ***,,E5
SD96OZ9LUM,09/04/2024 22:37,09/04/2024 22:37,Pay Bill from 254710***036 - Allan *** Acc. F5,Completed,8500,,223000,TRUE,Pay Utility,254710***036 - Allan ***,,F5
SD90NRRAZI,09/04/2024 18:07,09/04/2024 18:07,Pay Bill from 074234***493 - benson *** Acc. b6,Completed,8500,,214500,TRUE,Pay Utility,074234***493 - benson ***,,b6
SD90NO0X78,09/04/2024 17:45,09/04/2024 17:45,Pay Bill Online from 254703***849 - ROYAL *** Acc. F2,Completed,8000,,206000,TRUE,Pay Utility with OD Online,254703***849 - ROYAL ***,,F2
SD88KK5JLS,08/04/2024 19:18,08/04/2024 19:18,Pay Bill from 254708***835 - SUSAN *** Acc. B2,Completed,8000,,198000,TRUE,Pay Utility,254708***835 - SUSAN ***,,B2
SD85IKRKHN,08/04/2024 10:46,08/04/2024 10:46,Business Pay Bill by 998094 - COOP TO PAYBILL Acc. A1 via API,Completed,8000,,190000,TRUE,Business Pay Bill via API,998094 - COOP TO PAYBILL,,A1 via API
SD84HSRCAU,08/04/2024 00:19,08/04/2024 00:19,Pay Bill from 254727***164 - NICHOLAS *** Acc. G2,Completed,8000,,182000,TRUE,Pay Utility,254727***164 - NICHOLAS ***,,G2
SD76HB57QK,07/04/2024 20:30,07/04/2024 20:30,Pay Bill from 254715***093 - GICHANA *** Acc. E3,Completed,8000,,174000,TRUE,Pay Utility,254715***093 - GICHANA ***,,E3
SD74FG5OF4,07/04/2024 12:35,07/04/2024 12:35,Pay Bill from 254722***516 - KORIR *** Acc. Anthony D3 ,Completed,8000,,166000,TRUE,Pay Utility,254722***516 - KORIR ***,,Anthony D3 
SD66CBKFUS,06/04/2024 14:55,06/04/2024 14:55,Pay Bill Online from 074028***700 - SERAH *** Acc. c4serahmukulu,Completed,8500,,158000,TRUE,Pay Bill Online,074028***700 - SERAH ***,,c4serahmukulu
SD66BIQ5I8,06/04/2024 11:14,06/04/2024 11:14,Pay Bill from 254792***730 - kevin *** Acc. F3,Completed,8000,,149500,TRUE,Pay Utility,254792***730 - kevin ***,,F3
SD64BGC4XI,06/04/2024 10:55,06/04/2024 10:55,Pay Bill from 254746***971 - gladys *** Acc. E4,Completed,8500,,141500,TRUE,Pay Utility,254746***971 - gladys ***,,E4
SD58AITZQU,05/04/2024 22:43,05/04/2024 22:43,Pay Bill from 079156***463 - Lilian *** Acc. F6,Completed,8500,,133000,TRUE,Pay Utility,079156***463 - Lilian ***,,F6
SD52AH50YG,05/04/2024 22:21,05/04/2024 22:21,Pay Bill from 074180***396 - JAMES *** Acc. B5,Completed,8500,,124500,TRUE,Pay Utility,074180***396 - JAMES ***,,B5
SD54A1621Y,05/04/2024 20:20,05/04/2024 20:20,Pay Bill from 070888***932 - Annfaith *** Acc. C3,Completed,8000,,116000,TRUE,Pay Utility,070888***932 - Annfaith ***,,C3
SD599YGV09,05/04/2024 20:05,05/04/2024 20:05,Pay Bill from 074632***646 - OTIENO *** Acc. D6,Completed,8500,,108000,TRUE,Pay Utility,074632***646 - OTIENO ***,,D6
SD538YYVZ1,05/04/2024 16:52,05/04/2024 16:52,Pay Bill from 071503***019 - Omwenga *** Acc. E1,Completed,8000,,99500,TRUE,Pay Utility,071503***019 - Omwenga ***,,E1
SD508KCFPU,05/04/2024 15:03,05/04/2024 15:03,Pay Bill from 254727***857 - PETER *** Acc. Peter Ngundo e6 ,Completed,8500,,91500,TRUE,Pay Utility,254727***857 - PETER ***,,Peter Ngundo e6 
SD486G83C8,04/04/2024 21:16,04/04/2024 21:16,Pay Bill Online from 254792***122 - MWENDWA *** Acc. B1,Completed,8000,,83000,TRUE,Pay Bill Online,254792***122 - MWENDWA ***,,B1
SD425RFXZM,04/04/2024 19:00,04/04/2024 19:00,Pay Bill from 071934***205 - Christabel *** Acc. D1,Completed,8000,,75000,TRUE,Pay Utility,071934***205 - Christabel ***,,D1
SD4451DBU4,04/04/2024 16:13,04/04/2024 16:13,Pay Bill Online from 072143***195 - KIPKOECH *** Acc. E2,Completed,8000,,67000,TRUE,Pay Bill Online,072143***195 - KIPKOECH ***,,E2
SD453EY5T5,04/04/2024 08:00,04/04/2024 08:00,Pay Bill from 254791***895 - Enos *** Acc. D5,Completed,8500,,59000,TRUE,Pay Utility,254791***895 - Enos ***,,D5
SD33ZWNY81,03/04/2024 14:02,03/04/2024 14:02,Pay Bill from 254714***834 - FAITH *** Acc. d4,Completed,8500,,50500,TRUE,Pay Utility,254714***834 - FAITH ***,,d4
SD21X2ISAZ,02/04/2024 18:03,02/04/2024 18:03,Pay Bill Online from 254790***715 - JULIUS *** Acc. C2,Completed,7500,,42000,TRUE,Pay Bill Online,254790***715 - JULIUS ***,,C2
SD18S2AOLI,01/04/2024 11:02,01/04/2024 11:02,Pay Bill from 079162***292 - Miriam *** Acc. f1,Completed,7000,,34500,TRUE,Pay Utility,079162***292 - Miriam ***,,f1
SD14RR21SE,01/04/2024 09:18,01/04/2024 09:18,Pay Bill from 072977***299 - WAMBUA *** Acc. c1,Completed,1000,,27500,TRUE,Pay Utility,072977***299 - WAMBUA ***,,c1
