Receipt No.,Completion Time,Initiation Time,Details,Transaction Status,Paid In,Withdrawn,Balance,Balance Confirmed,Reason Type,Other Party Info,Linked Transaction ID,A/C No.
SCE52OFHG1,14/03/2024 23:14,14/03/2024 23:14,Pay Bill Online from 071883***251 - MARK *** Acc. kfg,Completed,4000,,20000,TRUE,Pay Bill Online,071883***251 - MARK ***,,kfg
SCE2ZQB0YQ,14/03/2024 14:35,14/03/2024 14:35,Pay Bill from 079850***956 - Raphael *** Acc. KEC,Completed,16000,,16000,TRUE,Pay Utility,079850***956 - Raphael ***,,KEC
SCE0YZKW68,14/03/2024 10:46,14/03/2024 10:46,Utility Account to Organization Settlement Account,Completed,,-153000,0,TRUE,Utility Account to Organization Settlement Account,979524 - ANCIENT WELLS PROPERTY MANAGERS 2,,
SCE2YYVSYQ,14/03/2024 10:40,14/03/2024 10:40,Pay Bill Online from 254722***078 - MAUREEN *** Acc. DCD,Completed,9000,,153000,TRUE,Pay Bill Online,254722***078 - MAUREEN ***,,DCD
SCE2YKPRIS,14/03/2024 08:25,14/03/2024 08:25,Pay Bill Online from 254707***441 - JOHN *** Acc. IEH,Completed,3000,,144000,TRUE,Pay Bill Online,254707***441 - JOHN ***,,IEH
SCD4XRCGME,13/03/2024 21:04,13/03/2024 21:04,Pay Bill Online from 254728***864 - MOULINE *** Acc. IAA,Completed,10000,,141000,TRUE,Pay Utility with OD Online,254728***864 - MOULINE ***,,IAA
SCD8X4A5NI,13/03/2024 18:59,13/03/2024 18:59,Pay Bill Online from 254720***103 - NJENGA *** Acc. kca,Completed,16000,,131000,TRUE,Pay Bill Online,254720***103 - NJENGA ***,,kca
SCD6WX3MTM,13/03/2024 18:17,13/03/2024 18:17,Pay Bill from 254713***244 - ROBERT *** Acc. HFB,Completed,16000,,115000,TRUE,Pay Utility,254713***244 - ROBERT ***,,HFB
SCD3W3FGKR,13/03/2024 14:21,13/03/2024 14:21,Pay Bill from 254708***464 - MERCY *** Acc. IBB,Completed,6000,,99000,TRUE,Pay Utility,254708***464 - MERCY ***,,IBB
SCD5VTDLRT,13/03/2024 12:57,13/03/2024 12:57,Pay Bill from 254720***502 - JOHN *** Acc. JFA ,Completed,5000,,93000,TRUE,Pay Utility,254720***502 - JOHN ***,,JFA 
SCD7VKVN6L,13/03/2024 11:43,13/03/2024 11:43,Pay Bill Online from 254711***840 - HILDA *** Acc. KTA,Completed,10000,,88000,TRUE,Pay Utility with OD Online,254711***840 - HILDA ***,,KTA
SCD1VDN5G3,13/03/2024 10:39,13/03/2024 10:39,Pay Bill from 254720***822 - JAMES *** Acc. jgj,Completed,2500,,78000,TRUE,Pay Utility with OD via STK,254720***822 - JAMES ***,,jgj
SCD1VBQ74H,13/03/2024 10:22,13/03/2024 10:22,Pay Bill Online from 254712***302 - EMMANUEL *** Acc. KEA,Completed,16000,,75500,TRUE,Pay Bill Online,254712***302 - EMMANUEL ***,,KEA
SCD9UOLUBD,13/03/2024 04:19,13/03/2024 04:19,Pay Bill Online from 254715***212 - BANCE *** Acc. JFE,Completed,1000,,59500,TRUE,Pay Bill Online,254715***212 - BANCE ***,,JFE
SCC8TF70FC,12/03/2024 18:30,12/03/2024 18:30,Pay Bill from 254792***192 - KELVIN *** Acc. ICE,Completed,9000,,58500,TRUE,Pay Utility,254792***192 - KELVIN ***,,ICE
SCC6SP1MVY,12/03/2024 15:10,12/03/2024 15:10,Pay Bill from 079912***666 - ERIC *** Acc. JDI,Completed,20000,,49500,TRUE,Pay Utility,079912***666 - ERIC ***,,JDI
SCC0SF35TA,12/03/2024 13:46,12/03/2024 13:46,Pay Bill from 254717***596 - NICHOLAS *** Acc. hcf,Completed,9000,,29500,TRUE,Pay Utility,254717***596 - NICHOLAS ***,,hcf
SCC7S4L4J1,12/03/2024 12:19,12/03/2024 12:19,Pay Bill from 071556***922 - diramu *** Acc. HBD,Completed,10000,,20500,TRUE,Pay Utility with OD via STK,071556***922 - diramu ***,,HBD
SCC6S0YU2W,12/03/2024 11:48,12/03/2024 11:48,Pay Bill from 074159***850 - Yahya *** Acc. HAD,Completed,10500,,10500,TRUE,Pay Utility,074159***850 - Yahya ***,,HAD
SCC6RRQJY8,12/03/2024 10:28,12/03/2024 10:28,Utility Account to Organization Settlement Account,Completed,,-199000,0,TRUE,Utility Account to Organization Settlement Account,979524 - ANCIENT WELLS PROPERTY MANAGERS 2,,
SCC0RHPS94,12/03/2024 08:55,12/03/2024 08:55,Pay Bill from 254726***163 - HALIMA *** Acc. DDA,Completed,3000,,199000,TRUE,Pay Utility,254726***163 - HALIMA ***,,DDA
SCC5R6TSUZ,12/03/2024 06:50,12/03/2024 06:50,Pay Bill from 254717***817 - NYANGAU *** Acc. jba,Completed,17000,,196000,TRUE,Pay Utility,254717***817 - NYANGAU ***,,jba
SCB0QQRX0S,11/03/2024 21:31,11/03/2024 21:31,Pay Bill from 254710***100 - PHILOMENA *** Acc. KDK,Completed,17000,,179000,TRUE,Pay Utility,254710***100 - PHILOMENA ***,,KDK
SCB6QF6U4A,11/03/2024 20:14,11/03/2024 20:14,Pay Bill from 254707***264 - KELVIN *** Acc. HDE,Completed,10500,,162000,TRUE,Pay Utility,254707***264 - KELVIN ***,,HDE
SCB1Q2YPMH,11/03/2024 19:14,11/03/2024 19:14,Pay Bill from 070412***963 - John *** Acc. KDC,Completed,11000,,151500,TRUE,Pay Utility,070412***963 - John ***,,KDC
SCB5PXSUTF,11/03/2024 18:47,11/03/2024 18:47,Pay Bill from 071308***955 - BELINDA *** Acc. keh,Completed,10000,,140500,TRUE,Pay Utility,071308***955 - BELINDA ***,,keh
SCB4POUEP6,11/03/2024 17:52,11/03/2024 17:52,Pay Bill Online from 070640***366 - LUCY *** Acc. KDB,Completed,4000,,130500,TRUE,Pay Bill Online,070640***366 - LUCY ***,,KDB
SCB2PI8HCM,11/03/2024 17:07,11/03/2024 17:07,Pay Bill Online from 254702***887 - Nax *** Acc. FDE,Completed,19000,,126500,TRUE,Pay Bill Online,254702***887 - Nax ***,,FDE
SCB6OUC3JS,11/03/2024 13:51,11/03/2024 13:51,Pay Bill from 254707***639 - Annastacia *** Acc. JFC ,Completed,10000,,107500,TRUE,Pay Utility,254707***639 - Annastacia ***,,JFC 
SCB4OJD8WI,11/03/2024 12:23,11/03/2024 12:23,Pay Bill from 254717***999 - LEILA *** Acc. IEG,Completed,9000,,97500,TRUE,Pay Utility,254717***999 - LEILA ***,,IEG
SCB3OIWXFB,11/03/2024 12:19,11/03/2024 12:19,Pay Bill Online from 254723***228 - MORARA *** Acc. POOL,Completed,22000,,88500,TRUE,Pay Bill Online,254723***228 - MORARA ***,,POOL
SCB1OFDYEV,11/03/2024 11:49,11/03/2024 11:49,Pay Bill from 254721***818 - SAIDA *** Acc. JEA,Completed,17000,,66500,TRUE,Pay Utility,254721***818 - SAIDA ***,,JEA
SCB1O4JA81,11/03/2024 10:18,11/03/2024 10:18,Pay Bill Online from 254715***656 - DENNIS *** Acc. kfa,Completed,6000,,49500,TRUE,Pay Bill Online,254715***656 - DENNIS ***,,kfa
SCB0NHAZUA,11/03/2024 04:46,11/03/2024 04:46,Pay Bill from 254720***822 - JAMES *** Acc. jgj,Completed,7000,,43500,TRUE,Pay Utility with OD via STK,254720***822 - JAMES ***,,jgj
SCB4NH7OCG,11/03/2024 04:33,11/03/2024 04:33,Pay Bill from 071568***238 - JOANNAH *** Acc. FFA,Completed,15000,,36500,TRUE,Pay Utility,071568***238 - JOANNAH ***,,FFA
SCA7MYE4ZX,10/03/2024 20:49,10/03/2024 20:49,Pay Bill from 254720***119 - LINDAH *** Acc. kfe,Completed,9500,,21500,TRUE,Pay Utility,254720***119 - LINDAH ***,,kfe
SCA0MQU85Y,10/03/2024 19:59,10/03/2024 19:59,Pay Bill Online from 254715***212 - BANCE *** Acc. JFE,Completed,2000,,12000,TRUE,Pay Bill Online,254715***212 - BANCE ***,,JFE
SCA1MOX2TV,10/03/2024 19:48,10/03/2024 19:48,Pay Bill from 254704***222 - Lesley *** Acc. KCF,Completed,10000,,10000,TRUE,Pay Utility,254704***222 - Lesley ***,,KCF
SCA0MLP8EU,10/03/2024 19:32,10/03/2024 19:32,Utility Account to Organization Settlement Account,Completed,,-188800,0,TRUE,Utility Account to Organization Settlement Account,979524 - ANCIENT WELLS PROPERTY MANAGERS 2,,
SCA4MGHYH8,10/03/2024 19:03,10/03/2024 19:03,Pay Bill from 070288***109 - Edith *** Acc. DDB,Completed,16000,,188800,TRUE,Pay Utility,070288***109 - Edith ***,,DDB
SCA7LWVK03,10/03/2024 16:52,10/03/2024 16:52,Pay Bill from 074378***968 - Dallias *** Acc. hbb,Completed,5000,,172800,TRUE,Pay Utility,074378***968 - Dallias ***,,hbb
SCA2LDV03Y,10/03/2024 14:21,10/03/2024 14:21,Pay Bill from 254745***401 - mirriam *** Acc. kci,Completed,11000,,167800,TRUE,Pay Utility,254745***401 - mirriam ***,,kci
SCA9LC83YB,10/03/2024 14:08,10/03/2024 14:08,Pay Bill from 254728***249 - ESTHER *** Acc. ICA,Completed,17000,,156800,TRUE,Pay Utility,254728***249 - ESTHER ***,,ICA
SCA7L5GCW1,10/03/2024 13:12,10/03/2024 13:12,Pay Bill from 254710***391 - CHEPKOECH *** Acc. KAH,Completed,10000,,139800,TRUE,Pay Utility,254710***391 - CHEPKOECH ***,,KAH
SCA0L0RO62,10/03/2024 12:30,10/03/2024 12:30,Pay Bill Online from 254742***013 - HANEST *** Acc. IED,Completed,11000,,129800,TRUE,Pay Bill Online,254742***013 - HANEST ***,,IED
SCA4KWPQBU,10/03/2024 11:53,10/03/2024 11:53,Pay Bill from 254725***547 - MWACHIRO *** Acc. DFC,Completed,20000,,118800,TRUE,Pay Utility,254725***547 - MWACHIRO ***,,DFC
SCA4KF9W9O,10/03/2024 09:05,10/03/2024 09:05,Pay Bill Online from 254799***069 - ALPHONCE *** Acc. IEE,Completed,8500,,98800,TRUE,Pay Bill Online,254799***069 - ALPHONCE ***,,IEE
SCA0K8FZCK,10/03/2024 07:49,10/03/2024 07:49,Pay Bill Online from 254710***381 - JANE *** Acc. HAF,Completed,10000,,90300,TRUE,Pay Bill Online,254710***381 - JANE ***,,HAF
SC91JJ9PFT,09/03/2024 20:56,09/03/2024 20:56,Pay Bill Online from 254745***294 - Faith *** Acc. IFC,Completed,8000,,80300,TRUE,Pay Bill Online,254745***294 - Faith ***,,IFC
SC98JBPPRG,09/03/2024 20:12,09/03/2024 20:12,Pay Bill from 011568***585 - Sophia *** Acc. FAC,Completed,9000,,72300,TRUE,Pay Utility,011568***585 - Sophia ***,,FAC
SC92IV5I8W,09/03/2024 18:49,09/03/2024 18:49,Pay Bill Online from 254720***609 - DENNIS *** Acc. JAJ,Completed,15000,,63300,TRUE,Pay Bill Online,254720***609 - DENNIS ***,,JAJ
SC92INKEKC,09/03/2024 18:04,09/03/2024 18:04,Pay Bill Online from 076991***050 - newton *** Acc. JBG,Completed,10000,,48300,TRUE,Pay Utility with OD Online,076991***050 - newton ***,,JBG
SC90IMR0OO,09/03/2024 17:59,09/03/2024 17:59,Pay Bill from 254728***256 - NICHOLAS *** Acc. FBE,Completed,9300,,38300,TRUE,Pay Utility,254728***256 - NICHOLAS ***,,FBE
SC92IFE9II,09/03/2024 17:11,09/03/2024 17:11,Pay Bill from 254722***724 - Cosmas *** Acc. kag,Completed,10000,,29000,TRUE,Pay Utility,254722***724 - Cosmas ***,,kag
SC99I60DW5,09/03/2024 16:01,09/03/2024 16:01,Pay Bill from 071057***069 - GLADYS *** Acc. HCC,Completed,10000,,19000,TRUE,Pay Utility,071057***069 - GLADYS ***,,HCC
SC99HTF3SR,09/03/2024 14:26,09/03/2024 14:26,Pay Bill Online from 254723***071 - AMOS *** Acc. JCE,Completed,9000,,9000,TRUE,Pay Bill Online,254723***071 - AMOS ***,,JCE
SC93HRLAT9,09/03/2024 14:12,09/03/2024 14:12,Utility Account to Organization Settlement Account,Completed,,-80000,0,TRUE,Utility Account to Organization Settlement Account,979524 - ANCIENT WELLS PROPERTY MANAGERS 2,,
SC90HM25HM,09/03/2024 13:31,09/03/2024 13:31,Pay Bill from 071060***910 - Peninah *** Acc. FCC,Completed,9000,,80000,TRUE,Pay Utility,071060***910 - Peninah ***,,FCC
SC94HDH0QQ,09/03/2024 12:24,09/03/2024 12:24,Pay Bill from 075725***130 - RASHID *** Acc. JAF,Completed,4000,,71000,TRUE,Pay Utility,075725***130 - RASHID ***,,JAF
SC90H878XM,09/03/2024 11:42,09/03/2024 11:42,Pay Bill from 254726***330 - JOHN *** Acc. IFH,Completed,15000,,67000,TRUE,Pay Utility,254726***330 - JOHN ***,,IFH
SC95H1HY6F,09/03/2024 10:47,09/03/2024 10:47,Pay Bill from 254758***136 - SCOVIAH *** Acc. JCA,Completed,20000,,52000,TRUE,Pay Utility,254758***136 - SCOVIAH ***,,JCA
SC98GWW5DU,09/03/2024 10:08,09/03/2024 10:08,Pay Bill from 254721***975 - JOSEPH *** Acc. H E B,Completed,16000,,32000,TRUE,Pay Utility,254721***975 - JOSEPH ***,,H E B
SC90GUEUOQ,09/03/2024 09:47,09/03/2024 09:47,Pay Bill from 070115***700 - Anabel *** Acc. jdj,Completed,15000,,16000,TRUE,Pay Utility,070115***700 - Anabel ***,,jdj
SC94GKS424,09/03/2024 08:17,09/03/2024 08:17,Pay Bill Online from 254720***253 - JIMMY *** Acc. KBD,Completed,1000,,1000,TRUE,Pay Bill Online,254720***253 - JIMMY ***,,KBD
SC92GFN4RW,09/03/2024 07:16,09/03/2024 07:16,Utility Account to Organization Settlement Account,Completed,,-47100,0,TRUE,Utility Account to Organization Settlement Account,979524 - ANCIENT WELLS PROPERTY MANAGERS 2,,
SC86G6MH78,08/03/2024 23:30,08/03/2024 23:30,Pay Bill from 254720***659 - FRANCIS *** Acc. KDG,Completed,2500,,47100,TRUE,Pay Utility,254720***659 - FRANCIS ***,,KDG
SC88G4J248,08/03/2024 22:50,08/03/2024 22:50,Pay Bill from 254722***622 - CHARITY *** Acc. ffd,Completed,3000,,44600,TRUE,Pay Utility,254722***622 - CHARITY ***,,ffd
SC89FT2WGZ,08/03/2024 21:05,08/03/2024 21:05,Pay Bill from 254799***466 - RUTH *** Acc. kdh,Completed,10000,,41600,TRUE,Pay Utility,254799***466 - RUTH ***,,kdh
SC86FMJ4S8,08/03/2024 20:25,08/03/2024 20:25,Pay Bill from 254700***449 - JOHN *** Acc. HCE,Completed,10500,,31600,TRUE,Pay Utility,254700***449 - JOHN ***,,HCE
SC81F6JCEZ,08/03/2024 19:06,08/03/2024 19:06,Pay Bill Online from 254720***253 - JIMMY *** Acc. KBD,Completed,1000,,21100,TRUE,Pay Bill Online,254720***253 - JIMMY ***,,KBD
SC84F328EW,08/03/2024 18:48,08/03/2024 18:48,Pay Bill Online from 254714***193 - CHRISTOPHER *** Acc. JGI ,Completed,20100,,20100,TRUE,Pay Bill Online,254714***193 - CHRISTOPHER ***,,JGI 
SC88EWXMSE,08/03/2024 18:13,08/03/2024 18:13,Utility Account to Organization Settlement Account,Completed,,-14500,0,TRUE,Utility Account to Organization Settlement Account,979524 - ANCIENT WELLS PROPERTY MANAGERS 2,,
SC88EPVXJG,08/03/2024 17:28,08/03/2024 17:28,Pay Bill from 254720***502 - JOHN *** Acc. JFA ,Completed,5000,,14500,TRUE,Pay Utility,254720***502 - JOHN ***,,JFA 
SC80ECKDTC,08/03/2024 15:50,08/03/2024 15:50,Pay Bill from 011071***819 - JANE *** Acc. HGF,Completed,9500,,9500,TRUE,Pay Utility,011071***819 - JANE ***,,HGF
SC84EB8ANI,08/03/2024 15:39,08/03/2024 15:39,Utility Account to Organization Settlement Account,Completed,,-3000,0,TRUE,Utility Account to Organization Settlement Account,979524 - ANCIENT WELLS PROPERTY MANAGERS 2,,
SC86DW1OEM,08/03/2024 13:40,08/03/2024 13:40,Pay Bill Online from 254720***253 - JIMMY *** Acc. KBD,Completed,1000,,3000,TRUE,Pay Bill Online,254720***253 - JIMMY ***,,KBD
SC89DP0SUN,08/03/2024 12:45,08/03/2024 12:45,Pay Bill from 254710***394 - LUCY *** Acc. KBG,Completed,2000,,2000,TRUE,Pay Utility,254710***394 - LUCY ***,,KBG
SC81D00RCT,08/03/2024 09:17,08/03/2024 09:17,Utility Account to Organization Settlement Account,Completed,,-171700,0,TRUE,Utility Account to Organization Settlement Account,979524 - ANCIENT WELLS PROPERTY MANAGERS 2,,
SC89CJ24PH,08/03/2024 04:43,08/03/2024 04:43,Pay Bill Online from 254720***253 - JIMMY *** Acc. KBD,Completed,700,,171700,TRUE,Pay Utility with OD Online,254720***253 - JIMMY ***,,KBD
SC80CHJORG,08/03/2024 01:29,08/03/2024 01:29,Pay Bill from 076995***691 - ANNA *** Acc. IFD,Completed,11000,,171000,TRUE,Pay Utility,076995***691 - ANNA ***,,IFD
SC72C345EY,07/03/2024 21:11,07/03/2024 21:11,Pay Bill from 070728***361 - JOSEPHIN *** Acc. HGD,Completed,9000,,160000,TRUE,Pay Utility,070728***361 - JOSEPHIN ***,,HGD
SC74C0F1TC,07/03/2024 20:53,07/03/2024 20:53,Pay Bill from 079692***370 - HALIMA *** Acc. DBC,Completed,20000,,151000,TRUE,Pay Utility,079692***370 - HALIMA ***,,DBC
SC74BSWW2E,07/03/2024 20:10,07/03/2024 20:10,Pay Bill Online from 254718***397 - JIMMY *** Acc. DCB,Completed,16000,,131000,TRUE,Pay Bill Online,254718***397 - JIMMY ***,,DCB
SC72BIWR5Y,07/03/2024 19:21,07/03/2024 19:21,Pay Bill from 254716***517 - BENARD *** Acc. HCB,Completed,16000,,115000,TRUE,Pay Utility,254716***517 - BENARD ***,,HCB
SC72BDYSQA,07/03/2024 18:57,07/03/2024 18:57,Pay Bill Online from 254726***792 - PHILIP *** Acc. JEI,Completed,20000,,99000,TRUE,Pay Bill Online,254726***792 - PHILIP ***,,JEI
SC78BB7H8O,07/03/2024 18:42,07/03/2024 18:42,Pay Bill from 254725***550 - FRANKLINE *** Acc. KAF,Completed,10000,,79000,TRUE,Pay Utility,254725***550 - FRANKLINE ***,,KAF
SC75B0PSZV,07/03/2024 17:38,07/03/2024 17:38,Pay Bill Online from 254713***424 - NDUTI *** Acc. jed,Completed,15000,,69000,TRUE,Pay Bill Online,254713***424 - NDUTI ***,,jed
SC75AG961X,07/03/2024 14:59,07/03/2024 14:59,Pay Bill from 254720***502 - JOHN *** Acc. JFA ,Completed,10000,,54000,TRUE,Pay Utility,254720***502 - JOHN ***,,JFA 
SC78AFYC7A,07/03/2024 14:57,07/03/2024 14:57,Pay Bill from 079009***091 - Daisy *** Acc. KFI,Completed,12000,,44000,TRUE,Pay Utility,079009***091 - Daisy ***,,KFI
SC78A0GD6I,07/03/2024 12:52,07/03/2024 12:52,Pay Bill Online from 254703***159 - Enock *** Acc. KAE,Completed,10000,,32000,TRUE,Pay Bill Online,254703***159 - Enock ***,,KAE
SC729ZQW2S,07/03/2024 12:46,07/03/2024 12:46,Pay Bill Online from 254710***992 - SIMON *** Acc. JCD,Completed,15000,,22000,TRUE,Pay Bill Online,254710***992 - SIMON ***,,JCD
SC759LE40R,07/03/2024 10:47,07/03/2024 10:47,Pay Bill Online from 254715***212 - BANCE *** Acc. JFE,Completed,7000,,7000,TRUE,Pay Bill Online,254715***212 - BANCE ***,,JFE
SC709HN9E8,07/03/2024 10:15,07/03/2024 10:15,Utility Account to Organization Settlement Account,Completed,,-336500,0,TRUE,Utility Account to Organization Settlement Account,979524 - ANCIENT WELLS PROPERTY MANAGERS 2,,
SC739A43MF,07/03/2024 09:09,07/03/2024 09:09,Pay Bill Online from 072225***105 - SALIM *** Acc. FGF,Completed,16000,,336500,TRUE,Pay Bill Online,072225***105 - SALIM ***,,FGF
SC7399K4D3,07/03/2024 09:04,07/03/2024 09:04,Pay Bill from 254725***394 - RACHAEL *** Acc. Jfb,Completed,15000,,320500,TRUE,Pay Utility,254725***394 - RACHAEL ***,,Jfb
SC7092SJWK,07/03/2024 07:59,07/03/2024 07:59,Pay Bill from 254729***678 - GRACE *** Acc. DED,Completed,20000,,305500,TRUE,Pay Utility with OD via STK,254729***678 - GRACE ***,,DED
SC7491MTH6,07/03/2024 07:46,07/03/2024 07:46,Pay Bill from 254701***476 - mary *** Acc. DAA,Completed,16000,,285500,TRUE,Pay Utility,254701***476 - mary ***,,DAA
SC7091HQHU,07/03/2024 07:45,07/03/2024 07:45,Pay Bill Online from 254711***716 - RODGERS *** Acc. IGC,Completed,9000,,269500,TRUE,Pay Bill Online,254711***716 - RODGERS ***,,IGC
SC798ZKI21,07/03/2024 07:22,07/03/2024 07:22,Pay Bill from 075705***882 - FAITH *** Acc. HDF,Completed,9000,,260500,TRUE,Pay Utility,075705***882 - FAITH ***,,HDF
SC738W2DCB,07/03/2024 06:23,07/03/2024 06:23,Pay Bill Online from 254723***628 - CLINTON *** Acc. hfh,Completed,16000,,251500,TRUE,Pay Bill Online,254723***628 - CLINTON ***,,hfh
SC678PFWH5,06/03/2024 23:41,06/03/2024 23:41,Pay Bill Online from 254795***849 - PURITY *** Acc. kbb,Completed,16000,,235500,TRUE,Pay Bill Online,254795***849 - PURITY ***,,kbb
SC6985QSKR,06/03/2024 20:28,06/03/2024 20:28,Pay Bill Online from 254723***873 - FREDRICK *** Acc. jbf,Completed,8000,,219500,TRUE,Pay Bill Online,254723***873 - FREDRICK ***,,jbf
SC657UYI8D,06/03/2024 19:33,06/03/2024 19:33,Pay Bill from 254711***196 - JUDITH *** Acc. fea,Completed,30000,,211500,TRUE,Pay Utility,254711***196 - JUDITH ***,,fea
SC637NL0V1,06/03/2024 18:58,06/03/2024 18:58,Pay Bill Online from 254742***558 - PEACEMARY *** Acc. JBC,Completed,5000,,181500,TRUE,Pay Utility with OD Online,254742***558 - PEACEMARY ***,,JBC
SC617GAX6J,06/03/2024 18:17,06/03/2024 18:17,Pay Bill from 254710***394 - LUCY *** Acc. KBG,Completed,3000,,176500,TRUE,Pay Utility,254710***394 - LUCY ***,,KBG
SC697AWBLD,06/03/2024 17:43,06/03/2024 17:43,Pay Bill from 254702***444 - RANDY *** Acc. Jab,Completed,30000,,173500,TRUE,Pay Utility,254702***444 - RANDY ***,,Jab
SC62799V74,06/03/2024 17:33,06/03/2024 17:33,Pay Bill Online from 254757***672 - BRIAN *** Acc. KDD,Completed,12000,,143500,TRUE,Pay Bill Online,254757***672 - BRIAN ***,,KDD
SC63751DBB,06/03/2024 17:03,06/03/2024 17:03,Pay Bill from 254796***018 - PEACE *** Acc. JAH,Completed,16000,,131500,TRUE,Pay Utility,254796***018 - PEACE ***,,JAH
SC636OQZQ1,06/03/2024 14:53,06/03/2024 14:53,Pay Bill from 254719***910 - KEVIN *** Acc. iDD,Completed,11000,,115500,TRUE,Pay Utility,254719***910 - KEVIN ***,,iDD
SC686NLPFS,06/03/2024 14:44,06/03/2024 14:44,Pay Bill from 254725***531 - KIPKORIR *** Acc. DFB,Completed,15000,,104500,TRUE,Pay Utility,254725***531 - KIPKORIR ***,,DFB
SC606HIIF6,06/03/2024 13:54,06/03/2024 13:54,Pay Bill Online from 254720***253 - JIMMY *** Acc. KBD,Completed,1000,,89500,TRUE,Pay Bill Online,254720***253 - JIMMY ***,,KBD
SC626CB72E,06/03/2024 13:15,06/03/2024 13:15,Pay Bill from 254715***045 - FRIDAH *** Acc. HGC,Completed,9500,,88500,TRUE,Pay Utility with OD via STK,254715***045 - FRIDAH ***,,HGC
SC666C0VD4,06/03/2024 13:13,06/03/2024 13:13,Pay Bill Online from 254710***215 - JOAN *** Acc. ifb,Completed,15000,,79000,TRUE,Pay Bill Online,254710***215 - JOAN ***,,ifb
SC6569A8J3,06/03/2024 12:52,06/03/2024 12:52,Pay Bill from 254703***305 - MARTHA *** Acc. IAI,Completed,15000,,64000,TRUE,Pay Utility,254703***305 - MARTHA ***,,IAI
SC63668E3L,06/03/2024 12:28,06/03/2024 12:28,Pay Bill Online from 254701***102 - CHEPCHUMBA *** Acc. IFE,Completed,9000,,49000,TRUE,Pay Bill Online,254701***102 - CHEPCHUMBA ***,,IFE
SC675XDQNH,06/03/2024 11:15,06/03/2024 11:15,Pay Bill from 254792***128 - Edwin *** Acc. HBF,Completed,9000,,40000,TRUE,Pay Utility,254792***128 - Edwin ***,,HBF
SC665W1NYG,06/03/2024 11:04,06/03/2024 11:04,Pay Bill from 254700***550 - BENARD *** Acc. DBB,Completed,16000,,31000,TRUE,Pay Utility,254700***550 - BENARD ***,,DBB
SC615T1CV3,06/03/2024 10:40,06/03/2024 10:40,Pay Bill Online from 254710***965 - BRENDA *** Acc. hfg,Completed,15000,,15000,TRUE,Pay Bill Online,254710***965 - BRENDA ***,,hfg
SC645R6R36,06/03/2024 10:25,06/03/2024 10:25,Utility Account to Organization Settlement Account,Completed,,-211000,0,TRUE,Utility Account to Organization Settlement Account,979524 - ANCIENT WELLS PROPERTY MANAGERS 2,,
SC635F0DGJ,06/03/2024 08:38,06/03/2024 08:38,Pay Bill Online from 254705***407 - CAROLINE *** Acc. IDH,Completed,16000,,211000,TRUE,Pay Bill Online,254705***407 - CAROLINE ***,,IDH
SC605E5FMY,06/03/2024 08:29,06/03/2024 08:29,Pay Bill from 254705***030 - FRIDAH *** Acc. JEH,Completed,16000,,195000,TRUE,Pay Utility,254705***030 - FRIDAH ***,,JEH
SC635E2NGX,06/03/2024 08:29,06/03/2024 08:29,Pay Bill from 254705***030 - FRIDAH *** Acc. JEE,Completed,10000,,179000,TRUE,Pay Utility,254705***030 - FRIDAH ***,,JEE
SC6955TK0F,06/03/2024 06:56,06/03/2024 06:56,Pay Bill from 071414***211 - KAREN *** Acc. JDF,Completed,7000,,169000,TRUE,Pay Utility,071414***211 - KAREN ***,,JDF
SC6252S5EI,06/03/2024 05:24,06/03/2024 05:24,Pay Bill from 254715***353 - Martin *** Acc. KDI,Completed,11000,,162000,TRUE,Pay Utility,254715***353 - Martin ***,,KDI
SC6550PMGR,06/03/2024 01:17,06/03/2024 01:17,Pay Bill Online from 254720***253 - JIMMY *** Acc. KBD,Completed,4000,,151000,TRUE,Pay Bill Online,254720***253 - JIMMY ***,,KBD
SC504YQMAY,05/03/2024 23:45,05/03/2024 23:45,Pay Bill from 254714***203 - PATRICK *** Acc. KEI,Completed,12000,,147000,TRUE,Pay Utility,254714***203 - PATRICK ***,,KEI
SC524MUVZ0,05/03/2024 21:17,05/03/2024 21:17,Pay Bill from 254718***877 - JEMMIMAH *** Acc. KGI,Completed,10000,,135000,TRUE,Pay Utility,254718***877 - JEMMIMAH ***,,KGI
SC504MHY1W,05/03/2024 21:14,05/03/2024 21:14,Pay Bill from 254797***402 - Tiberius *** Acc. KFC,Completed,9000,,125000,TRUE,Pay Utility,254797***402 - Tiberius ***,,KFC
SC534FC1C9,05/03/2024 20:29,05/03/2024 20:29,Pay Bill from 076841***584 - Faith *** Acc. IDF ,Completed,11000,,116000,TRUE,Pay Utility,076841***584 - Faith ***,,IDF 
SC594CKQRF,05/03/2024 20:13,05/03/2024 20:13,Pay Bill from 254712***818 - OYUGI *** Acc. FCB,Completed,16000,,105000,TRUE,Pay Utility,254712***818 - OYUGI ***,,FCB
SC5646YZBQ,05/03/2024 19:45,05/03/2024 19:45,Pay Bill Online from 254721***178 - PHANICE *** Acc. FBF,Completed,16000,,89000,TRUE,Pay Bill Online,254721***178 - PHANICE ***,,FBF
SC57465JNP,05/03/2024 19:41,05/03/2024 19:41,Pay Bill Online from 254705***736 - SNAIDA *** Acc. hbc,Completed,10000,,73000,TRUE,Pay Bill Online,254705***736 - SNAIDA ***,,hbc
SC59456OR3,05/03/2024 19:36,05/03/2024 19:36,Pay Bill from 254727***545 - SERAH *** Acc. KGD,Completed,10000,,63000,TRUE,Pay Utility,254727***545 - SERAH ***,,KGD
SC5840PJYQ,05/03/2024 19:16,05/03/2024 19:16,Pay Bill Online from 074150***311 - ALLAN *** Acc. DBA,Completed,16000,,53000,TRUE,Pay Bill Online,074150***311 - ALLAN ***,,DBA
SC513S2VYN,05/03/2024 18:31,05/03/2024 18:31,Pay Bill Online from 079100***130 - shadrack *** Acc. KFH,Completed,11000,,37000,TRUE,Pay Bill Online,079100***130 - shadrack ***,,KFH
SC583R4446,05/03/2024 18:26,05/03/2024 18:26,Pay Bill from 254717***324 - Christine *** Acc. KDF,Completed,10000,,26000,TRUE,Pay Utility,254717***324 - Christine ***,,KDF
SC533QFSMT,05/03/2024 18:22,05/03/2024 18:22,Pay Bill from 072438***624 - FATUMA *** Acc. FAB,Completed,16000,,16000,TRUE,Pay Utility,072438***624 - FATUMA ***,,FAB
SC563H2SHE,05/03/2024 17:23,05/03/2024 17:23,Utility Account to Organization Settlement Account,Completed,,-284600,0,TRUE,Utility Account to Organization Settlement Account,979524 - ANCIENT WELLS PROPERTY MANAGERS 2,,
SC553DU66H,05/03/2024 17:01,05/03/2024 17:01,Pay Bill from 254703***196 - ERIC *** Acc. KGJ,Completed,15000,,284600,TRUE,Pay Utility with OD via STK,254703***196 - ERIC ***,,KGJ
SC5039TKX6,05/03/2024 16:32,05/03/2024 16:32,Pay Bill Online from 254714***668 - ZACHARY *** Acc. JAD,Completed,16000,,269600,TRUE,Pay Bill Online,254714***668 - ZACHARY ***,,JAD
SC5039C3FI,05/03/2024 16:28,05/03/2024 16:28,Pay Bill from 254726***273 - JESSE *** Acc. HCH,Completed,17000,,253600,TRUE,Pay Utility,254726***273 - JESSE ***,,HCH
SC5136QFF1,05/03/2024 16:08,05/03/2024 16:08,Pay Bill from 074262***652 - Charity *** Acc. IEB,Completed,15000,,236600,TRUE,Pay Utility,074262***652 - Charity ***,,IEB
SC56367WXA,05/03/2024 16:04,05/03/2024 16:04,Pay Bill from 254705***201 - NZIOKA *** Acc. JDG,Completed,10000,,221600,TRUE,Pay Utility,254705***201 - NZIOKA ***,,JDG
SC5331H9JT,05/03/2024 15:26,05/03/2024 15:26,Pay Bill Online from 254742***558 - PEACEMARY *** Acc. JBC,Completed,6000,,211600,TRUE,Pay Bill Online,254742***558 - PEACEMARY ***,,JBC
SC5330GMUR,05/03/2024 15:18,05/03/2024 15:18,Pay Bill Online from 254720***704 - JOSPHAT *** Acc. HDD,Completed,10000,,205600,TRUE,Pay Bill Online,254720***704 - JOSPHAT ***,,HDD
SC522Z7VWU,05/03/2024 15:08,05/03/2024 15:08,Pay Bill Online from 254722***115 - NORAH *** Acc. HAC,Completed,10000,,195600,TRUE,Pay Bill Online,254722***115 - NORAH ***,,HAC
SC532U2XBF,05/03/2024 14:26,05/03/2024 14:26,Pay Bill from 254757***090 - Laureen *** Acc. KCJ,Completed,16000,,185600,TRUE,Pay Utility,254757***090 - Laureen ***,,KCJ
SC542TYBVC,05/03/2024 14:25,05/03/2024 14:25,Pay Bill from 074548***142 - Daisy *** Acc. FGE,Completed,15000,,169600,TRUE,Pay Utility with OD via STK,074548***142 - Daisy ***,,FGE
SC522R1H6E,05/03/2024 14:02,05/03/2024 14:02,Pay Bill from 254721***885 - QUINTER *** Acc. kgc,Completed,13700,,154600,TRUE,Pay Utility,254721***885 - QUINTER ***,,kgc
SC562N7TQE,05/03/2024 13:34,05/03/2024 13:34,Pay Bill Online from 254728***908 - Teddy *** Acc. DDD,Completed,15900,,140900,TRUE,Pay Bill Online,254728***908 - Teddy ***,,DDD
SC572M2W9P,05/03/2024 13:25,05/03/2024 13:25,Pay Bill from 254721***481 - MARTIN *** Acc. DFA,Completed,16000,,125000,TRUE,Pay Utility with OD via STK,254721***481 - MARTIN ***,,DFA
SC502JKKDG,05/03/2024 13:07,05/03/2024 13:07,Pay Bill from 074350***952 - FAITH *** Acc. JGA,Completed,20000,,109000,TRUE,Pay Utility,074350***952 - FAITH ***,,JGA
SC502FWGBY,05/03/2024 12:38,05/03/2024 12:38,Pay Bill from 254700***767 - BAKHITA *** Acc. kcb,Completed,16000,,89000,TRUE,Pay Utility,254700***767 - BAKHITA ***,,kcb
SC532FRSND,05/03/2024 12:37,05/03/2024 12:37,Pay Bill Online from 254720***119 - DUNCAN *** Acc. FAE,Completed,5000,,73000,TRUE,Pay Bill Online,254720***119 - DUNCAN ***,,FAE
SC5529KREX,05/03/2024 11:48,05/03/2024 11:48,Pay Bill from 254719***942 - NORAH *** Acc. KDA,Completed,16000,,68000,TRUE,Pay Utility,254719***942 - NORAH ***,,KDA
SC5927NQ4H,05/03/2024 11:33,05/03/2024 11:33,Pay Bill Online from 254716***144 - PETER *** Acc. FBB,Completed,16000,,52000,TRUE,Pay Bill Online,254716***144 - PETER ***,,FBB
SC52271MUA,05/03/2024 11:29,05/03/2024 11:29,Pay Bill from 254722***622 - CHARITY *** Acc. ffd,Completed,6000,,36000,TRUE,Pay Utility,254722***622 - CHARITY ***,,ffd
SC50250QFW,05/03/2024 11:12,05/03/2024 11:12,Pay Bill Online from 254722***473 - SAMSON *** Acc. IAB,Completed,15000,,30000,TRUE,Pay Bill Online,254722***473 - SAMSON ***,,IAB
SC531ZQQGJ,05/03/2024 10:30,05/03/2024 10:30,Pay Bill from 011412***024 - Sharad *** Acc. KCK,Completed,15000,,15000,TRUE,Pay Utility,011412***024 - Sharad ***,,KCK
SC511Y7FRR,05/03/2024 10:18,05/03/2024 10:18,Utility Account to Organization Settlement Account,Completed,,-154000,0,TRUE,Utility Account to Organization Settlement Account,979524 - ANCIENT WELLS PROPERTY MANAGERS 2,,
SC571TE9IB,05/03/2024 09:38,05/03/2024 09:38,Pay Bill from 254727***667 - HILDA *** Acc. JBE,Completed,2000,,154000,TRUE,Pay Utility,254727***667 - HILDA ***,,JBE
SC531T8QOP,05/03/2024 09:37,05/03/2024 09:37,Pay Bill from 254724***849 - Ann *** Acc. hda,Completed,16000,,152000,TRUE,Pay Utility with OD via STK,254724***849 - Ann ***,,hda
SC501SS4N6,05/03/2024 09:33,05/03/2024 09:33,Pay Bill Online from 254725***904 - SALOME *** Acc. KFJ,Completed,15000,,136000,TRUE,Pay Bill Online,254725***904 - SALOME ***,,KFJ
SC571RWAHZ,05/03/2024 09:25,05/03/2024 09:25,Pay Bill from 254727***667 - HILDA *** Acc. JBE,Completed,7000,,121000,TRUE,Pay Utility,254727***667 - HILDA ***,,JBE
SC531QNG6B,05/03/2024 09:14,05/03/2024 09:14,Pay Bill from 075711***940 - FAITH *** Acc. DGC,Completed,19000,,114000,TRUE,Pay Utility,075711***940 - FAITH ***,,DGC
SC591MFS35,05/03/2024 08:37,05/03/2024 08:37,Pay Bill Online from 070640***366 - LUCY *** Acc. KDB,Completed,16000,,95000,TRUE,Pay Bill Online,070640***366 - LUCY ***,,KDB
SC521H32QS,05/03/2024 07:46,05/03/2024 07:46,Pay Bill Online from 254702***678 - JOHN *** Acc. DEB,Completed,16000,,79000,TRUE,Pay Bill Online,254702***678 - JOHN ***,,DEB
SC42ZZRQV8,04/03/2024 21:53,04/03/2024 21:53,Pay Bill from 254711***672 - ALLAN *** Acc. IEI,Completed,15000,,63000,TRUE,Pay Utility,254711***672 - ALLAN ***,,IEI
SC44ZXQRB2,04/03/2024 21:35,04/03/2024 21:35,Pay Bill from 254729***933 - FELISTAH *** Acc. IDI,Completed,15000,,48000,TRUE,Pay Utility,254729***933 - FELISTAH ***,,IDI
SC42YUFRW4,04/03/2024 17:51,04/03/2024 17:51,Pay Bill from 074378***968 - Dallias *** Acc. hbb,Completed,5000,,33000,TRUE,Pay Utility,074378***968 - Dallias ***,,hbb
SC47YRJSMR,04/03/2024 17:33,04/03/2024 17:33,Pay Bill Online from 254721***713 - RHODA *** Acc. Jfh,Completed,17000,,28000,TRUE,Pay Bill Online,254721***713 - RHODA ***,,Jfh
SC47YR45AR,04/03/2024 17:30,04/03/2024 17:30,Pay Bill from 254799***755 - CAROLINE *** Acc. IEF,Completed,11000,,11000,TRUE,Pay Utility,254799***755 - CAROLINE ***,,IEF
SC45YQHPY9,04/03/2024 17:26,04/03/2024 17:26,Utility Account to Organization Settlement Account,Completed,,-178500,0,TRUE,Utility Account to Organization Settlement Account,979524 - ANCIENT WELLS PROPERTY MANAGERS 2,,
SC42YPWKTM,04/03/2024 17:22,04/03/2024 17:22,Pay Bill Online from 254729***858 - AMBROSE *** Acc. KEJ,Completed,32000,,178500,TRUE,Pay Bill Online,254729***858 - AMBROSE ***,,KEJ
SC45YOV0BZ,04/03/2024 17:15,04/03/2024 17:15,Pay Bill Online from 254720***253 - JIMMY *** Acc. KBD,Completed,2000,,146500,TRUE,Pay Utility with OD Online,254720***253 - JIMMY ***,,KBD
SC49YKZTGZ,04/03/2024 16:49,04/03/2024 16:49,Pay Bill from 074337***291 - Ann *** Acc. KAD,Completed,11000,,144500,TRUE,Pay Utility,074337***291 - Ann ***,,KAD
SC41YJVHDH,04/03/2024 16:41,04/03/2024 16:41,Pay Bill from 254703***744 - Esther *** Acc. KEF,Completed,10000,,133500,TRUE,Pay Utility,254703***744 - Esther ***,,KEF
SC49YIEC65,04/03/2024 16:30,04/03/2024 16:30,Pay Bill from 254716***682 - JUSTINE *** Acc. HAA,Completed,17000,,123500,TRUE,Pay Utility,254716***682 - JUSTINE ***,,HAA
SC43YH23CZ,04/03/2024 16:20,04/03/2024 16:20,Pay Bill from 254728***024 - melvis *** Acc. KAC,Completed,11000,,106500,TRUE,Pay Utility,254728***024 - melvis ***,,KAC
SC42Y7A80S,04/03/2024 15:03,04/03/2024 15:03,Pay Bill Online from 254706***046 - STACY *** Acc. KGK,Completed,15000,,95500,TRUE,Pay Bill Online,254706***046 - STACY ***,,KGK
SC46Y1Z6Q4,04/03/2024 14:21,04/03/2024 14:21,Pay Bill Online from 254708***223 - DENNIS *** Acc. DCA,Completed,16000,,80500,TRUE,Pay Bill Online,254708***223 - DENNIS ***,,DCA
SC46XX8TOE,04/03/2024 13:46,04/03/2024 13:46,Pay Bill from 254721***191 - Asmahan *** Acc. JBD,Completed,4000,,64500,TRUE,Pay Utility,254721***191 - Asmahan ***,,JBD
SC45XN3ZM9,04/03/2024 12:31,04/03/2024 12:31,Pay Bill from 011532***960 - JOSEPH *** Acc. IBG,Completed,8000,,60500,TRUE,Pay Utility,011532***960 - JOSEPH ***,,IBG
SC45X07ZMX,04/03/2024 09:29,04/03/2024 09:29,Pay Bill from 254724***503 - GEOFREY *** Acc. JFF,Completed,10000,,52500,TRUE,Pay Utility,254724***503 - GEOFREY ***,,JFF
SC43WZOMI7,04/03/2024 09:24,04/03/2024 09:24,Business Pay Bill by 488519 - NCBA  Bank M-pesa Acc. ICH via API,Completed,16000,,42500,TRUE,Business Pay Bill via API,488519 - NCBA  Bank M-pesa,,ICH via API
SC43WV0CV7,04/03/2024 08:44,04/03/2024 08:44,Pay Bill Online from 254721***995 - BERNICE *** Acc. KFK,Completed,16000,,26500,TRUE,Pay Bill Online,254721***995 - BERNICE ***,,KFK
SC42WSC3U2,04/03/2024 08:19,04/03/2024 08:19,Pay Bill Online from 254729***700 - MICAH *** Acc. HFE,Completed,10500,,10500,TRUE,Pay Bill Online,254729***700 - MICAH ***,,HFE
SC44WRIIOA,04/03/2024 08:11,04/03/2024 08:11,Utility Account to Organization Settlement Account,Completed,,-179400,0,TRUE,Utility Account to Organization Settlement Account,979524 - ANCIENT WELLS PROPERTY MANAGERS 2,,
SC48WQOYV6,04/03/2024 08:03,04/03/2024 08:03,Pay Bill from 254798***533 - SAMUEL *** Acc. HEC,Completed,10000,,179400,TRUE,Pay Utility,254798***533 - SAMUEL ***,,HEC
SC39WE360J,03/03/2024 23:35,03/03/2024 23:35,Pay Bill from 254723***259 - WILSON *** Acc. HCA,Completed,15000,,169400,TRUE,Pay Utility,254723***259 - WILSON ***,,HCA
SC32WDLY4S,03/03/2024 23:22,03/03/2024 23:22,Pay Bill from 254703***626 - DAVID *** Acc. FCD,Completed,1000,,154400,TRUE,Pay Utility,254703***626 - DAVID ***,,FCD
SC39W7YPOR,03/03/2024 21:58,03/03/2024 21:58,Pay Bill from 254722***705 - ERIC *** Acc. FCF,Completed,16000,,153400,TRUE,Pay Utility,254722***705 - ERIC ***,,FCF
SC31VOQGZJ,03/03/2024 19:45,03/03/2024 19:45,Pay Bill from 254715***579 - GRACE *** Acc. FDA ,Completed,16000,,137400,TRUE,Pay Utility,254715***579 - GRACE ***,,FDA 
SC33UK2EUH,03/03/2024 15:09,03/03/2024 15:09,Pay Bill Online from 254712***871 - PAULA *** Acc. hea,Completed,16000,,121400,TRUE,Pay Bill Online,254712***871 - PAULA ***,,hea
SC35UDIR6B,03/03/2024 14:18,03/03/2024 14:18,Pay Bill from 254702***404 - VALENTINE *** Acc. IBH,Completed,14500,,105400,TRUE,Pay Utility,254702***404 - VALENTINE ***,,IBH
SC32T4LHWY,03/03/2024 07:03,03/03/2024 07:03,Business Pay Bill by 488519 - NCBA  Bank M-pesa Acc. kbf via API,Completed,10000,,90900,TRUE,Business Pay Bill via API,488519 - NCBA  Bank M-pesa,,kbf via API
SC24SUYPP2,02/03/2024 23:01,02/03/2024 23:01,Pay Bill Online from 254719***219 - PHILIP *** Acc. JDH,Completed,26000,,80900,TRUE,Pay Utility with OD Online,254719***219 - PHILIP ***,,JDH
SC23SIT7Q5,02/03/2024 21:07,02/03/2024 21:07,Pay Bill from 254743***420 - Margaret *** Acc. FCE,Completed,15000,,54900,TRUE,Pay Utility,254743***420 - Margaret ***,,FCE
SC21RZAXJ7,02/03/2024 19:23,02/03/2024 19:23,Pay Bill from 254722***450 - MARY *** Acc. JAI,Completed,20000,,39900,TRUE,Pay Utility with OD via STK,254722***450 - MARY ***,,JAI
SC29RMJHFJ,02/03/2024 18:14,02/03/2024 18:14,Pay Bill from 254721***191 - Asmahan *** Acc. JBD,Completed,17000,,19900,TRUE,Pay Utility,254721***191 - Asmahan ***,,JBD
SC26RM4AYE,02/03/2024 18:11,02/03/2024 18:11,Pay Bill from 254721***191 - Asmahan *** Acc. IBF,Completed,2900,,2900,TRUE,Pay Utility,254721***191 - Asmahan ***,,IBF
SC29REQHE1,02/03/2024 17:25,02/03/2024 17:25,Utility Account to Organization Settlement Account,Completed,,-199400,0,TRUE,Utility Account to Organization Settlement Account,979524 - ANCIENT WELLS PROPERTY MANAGERS 2,,
SC27R9KSXZ,02/03/2024 16:50,02/03/2024 16:50,Pay Bill from 072099***728 - CHARITY *** Acc. ifg,Completed,9000,,199400,TRUE,Pay Utility with OD via STK,072099***728 - CHARITY ***,,ifg
SC29QUH7QX,02/03/2024 14:59,02/03/2024 14:59,Pay Bill Online from 254704***557 - BAKARI *** Acc. HDG,Completed,15000,,190400,TRUE,Pay Bill Online,254704***557 - BAKARI ***,,HDG
SC23QSTNJN,02/03/2024 14:46,02/03/2024 14:46,Pay Bill from 254718***358 - Job *** Acc. ICF,Completed,11000,,175400,TRUE,Pay Utility,254718***358 - Job ***,,ICF
SC20QS3CK6,02/03/2024 14:41,02/03/2024 14:41,Pay Bill from 254702***790 - Michelle *** Acc. IDE,Completed,8000,,164400,TRUE,Pay Utility,254702***790 - Michelle ***,,IDE
SC23QN4ULT,02/03/2024 14:05,02/03/2024 14:05,Pay Bill from 254720***128 - ERNEST *** Acc. igd,Completed,10000,,156400,TRUE,Pay Utility,254720***128 - ERNEST ***,,igd
SC26QHXTWE,02/03/2024 13:26,02/03/2024 13:26,Pay Bill Online from 254706***429 - ROSE *** Acc. IFI,Completed,15000,,146400,TRUE,Pay Bill Online,254706***429 - ROSE ***,,IFI
SC28QFEFBM,02/03/2024 13:08,02/03/2024 13:08,Pay Bill from 254712***486 - JACKLINE *** Acc. ked,Completed,11000,,131400,TRUE,Pay Utility,254712***486 - JACKLINE ***,,ked
SC22QAUJUM,02/03/2024 12:33,02/03/2024 12:33,Pay Bill Online from 254706***634 - CLINTON *** Acc. FDB,Completed,17000,,120400,TRUE,Pay Bill Online,254706***634 - CLINTON ***,,FDB
SC22Q9GNRG,02/03/2024 12:22,02/03/2024 12:22,Pay Bill Online from 254729***719 - JACINTA *** Acc. FFF,Completed,17000,,103400,TRUE,Pay Bill Online,254729***719 - JACINTA ***,,FFF
SC29Q1H25N,02/03/2024 11:20,02/03/2024 11:20,Pay Bill from 254702***981 - VICTORIA *** Acc. KCE,Completed,10000,,86400,TRUE,Pay Utility,254702***981 - VICTORIA ***,,KCE
SC25Q1CE93,02/03/2024 11:19,02/03/2024 11:19,Pay Bill from 075760***316 - MOHAMED *** Acc. IEC,Completed,10000,,76400,TRUE,Pay Utility with OD via STK,075760***316 - MOHAMED ***,,IEC
SC26PZ9DLS,02/03/2024 11:03,02/03/2024 11:03,Pay Bill from 254725***094 - ABDISALAN *** Acc. IBA,Completed,16000,,66400,TRUE,Pay Utility,254725***094 - ABDISALAN ***,,IBA
SC20PWVWEQ,02/03/2024 10:44,02/03/2024 10:44,Pay Bill Online from 254714***677 - IMMANUEL *** Acc. KAI,Completed,12000,,50400,TRUE,Pay Bill Online,254714***677 - IMMANUEL ***,,KAI
SC20PSL68M,02/03/2024 10:09,02/03/2024 10:09,Pay Bill Online from 254711***729 - DAVID *** Acc. HFA,Completed,18400,,38400,TRUE,Pay Bill Online,254711***729 - DAVID ***,,HFA
SC23PQ0EU3,02/03/2024 09:47,02/03/2024 09:47,Pay Bill Online from 079100***130 - shadrack *** Acc. KFH,Completed,10000,,20000,TRUE,Pay Bill Online,079100***130 - shadrack ***,,KFH
SC29PNGPRX,02/03/2024 09:25,02/03/2024 09:25,Pay Bill from 254716***398 - HYVENE *** Acc. KDE ,Completed,10000,,10000,TRUE,Pay Utility,254716***398 - HYVENE ***,,KDE 
SC29PDESY5,02/03/2024 07:48,02/03/2024 07:48,Utility Account to Organization Settlement Account,Completed,,-293000,0,TRUE,Utility Account to Organization Settlement Account,979524 - ANCIENT WELLS PROPERTY MANAGERS 2,,
SC23PDD30T,02/03/2024 07:48,02/03/2024 07:48,Pay Bill Online from 254721***560 - ANDREW *** Acc. JBJ,Completed,16000,,293000,TRUE,Pay Bill Online,254721***560 - ANDREW ***,,JBJ
SC25P5ORM7,02/03/2024 02:31,02/03/2024 02:31,Pay Bill from 254723***911 - JAMES *** Acc. ICG,Completed,9500,,277000,TRUE,Pay Utility,254723***911 - JAMES ***,,ICG
SC27P39T3N,02/03/2024 00:12,02/03/2024 00:12,Pay Bill Online from 254721***294 - GRACE *** Acc. IGH,Completed,15000,,267500,TRUE,Pay Bill Online,254721***294 - GRACE ***,,IGH
SC17ORJJ3Z,01/03/2024 21:28,01/03/2024 21:28,Pay Bill from 070656***358 - HARRIET *** Acc. HBA,Completed,16000,,252500,TRUE,Pay Utility,070656***358 - HARRIET ***,,HBA
SC18OLNXNE,01/03/2024 20:48,01/03/2024 20:48,Pay Bill from 254710***630 - DONNA *** Acc. KCC,Completed,5000,,236500,TRUE,Pay Utility,254710***630 - DONNA ***,,KCC
SC19OIVSB7,01/03/2024 20:31,01/03/2024 20:31,Pay Bill from 254708***516 - DENNIS *** Acc. IBC,Completed,9000,,231500,TRUE,Pay Utility,254708***516 - DENNIS ***,,IBC
SC11O94QET,01/03/2024 19:40,01/03/2024 19:40,Pay Bill Online from 254710***167 - KUSA *** Acc. JEB,Completed,15000,,222500,TRUE,Pay Bill Online,254710***167 - KUSA ***,,JEB
SC13O0OSC5,01/03/2024 19:00,01/03/2024 19:00,Pay Bill Online from 254700***806 - WINNIE *** Acc. JEC,Completed,10000,,207500,TRUE,Pay Bill Online,254700***806 - WINNIE ***,,JEC
SC19O0NJ5D,01/03/2024 19:00,01/03/2024 19:00,Pay Bill from 254706***081 - FATUMA *** Acc. HED,Completed,9000,,197500,TRUE,Pay Utility,254706***081 - FATUMA ***,,HED
SC14NRO2S0,01/03/2024 18:10,01/03/2024 18:10,Pay Bill from 254724***046 - GIDEON *** Acc. KBJ,Completed,23500,,188500,TRUE,Pay Utility with OD via STK,254724***046 - GIDEON ***,,KBJ
SC18NGRRNM,01/03/2024 17:01,01/03/2024 17:01,Pay Bill Online from 254718***538 - JAMES *** Acc. JBH,Completed,16000,,165000,TRUE,Pay Bill Online,254718***538 - JAMES ***,,JBH
SC13NCSXM5,01/03/2024 16:33,01/03/2024 16:33,Pay Bill Online from 254723***064 - ANDREW *** Acc. HBG ,Completed,16000,,149000,TRUE,Pay Bill Online,254723***064 - ANDREW ***,,HBG 
SC12NBP02G,01/03/2024 16:25,01/03/2024 16:25,Pay Bill Online from 254714***840 - RACHAEL *** Acc. ITE,Completed,10000,,133000,TRUE,Pay Bill Online,254714***840 - RACHAEL ***,,ITE
SC17NA42RV,01/03/2024 16:13,01/03/2024 16:13,Pay Bill from 254791***823 - rachel *** Acc. JEG,Completed,9000,,123000,TRUE,Pay Utility,254791***823 - rachel ***,,JEG
SC17N2L6X7,01/03/2024 15:16,01/03/2024 15:16,Pay Bill from 074325***188 - NANCY *** Acc. KFD,Completed,12000,,114000,TRUE,Pay Utility,074325***188 - NANCY ***,,KFD
SC11MZDZ79,01/03/2024 14:52,01/03/2024 14:52,Pay Bill from 254725***246 - FRANCIS *** Acc. IGI,Completed,15000,,102000,TRUE,Pay Utility,254725***246 - FRANCIS ***,,IGI
SC18MPKH1I,01/03/2024 13:39,01/03/2024 13:39,Pay Bill from 254112***958 - Nicholas *** Acc. JDE,Completed,9500,,87000,TRUE,Pay Utility,254112***958 - Nicholas ***,,JDE
SC17MO5YQV,01/03/2024 13:29,01/03/2024 13:29,Pay Bill Online from 254720***965 - JAMES *** Acc. JBI,Completed,20000,,77500,TRUE,Pay Bill Online,254720***965 - JAMES ***,,JBI
SC16MNJKFW,01/03/2024 13:24,01/03/2024 13:24,Pay Bill from 254703***626 - DAVID *** Acc. FCD,Completed,1000,,57500,TRUE,Pay Utility with OD via STK,254703***626 - DAVID ***,,FCD
SC19MMNNVD,01/03/2024 13:18,01/03/2024 13:18,Pay Bill from 076802***575 - DOREEN *** Acc. HCD,Completed,21000,,56500,TRUE,Pay Utility,076802***575 - DOREEN ***,,HCD
SC18MJLAYW,01/03/2024 12:54,01/03/2024 12:54,Pay Bill from 254724***046 - GIDEON *** Acc. KFH,Completed,10000,,35500,TRUE,Pay Utility,254724***046 - GIDEON ***,,KFH
SC13MH9X1V,01/03/2024 12:37,01/03/2024 12:37,Pay Bill Online from 254700***039 - MARTIN *** Acc. ICB,Completed,16000,,25500,TRUE,Pay Bill Online,254700***039 - MARTIN ***,,ICB
SC19M9F41X,01/03/2024 11:34,01/03/2024 11:34,Pay Bill from 074547***241 - Tonny *** Acc. Idc,Completed,9500,,9500,TRUE,Pay Utility,074547***241 - Tonny ***,,Idc
SC15M7IWPB,01/03/2024 11:19,01/03/2024 11:19,Utility Account to Organization Settlement Account,Completed,,-321300,0,TRUE,Utility Account to Organization Settlement Account,979524 - ANCIENT WELLS PROPERTY MANAGERS 2,,
SC15M5JIZV,01/03/2024 11:03,01/03/2024 11:03,Pay Bill from 254743***477 - FAITH *** Acc. IGE,Completed,9000,,321300,TRUE,Pay Utility,254743***477 - FAITH ***,,IGE
SC18M2XYBQ,01/03/2024 10:42,01/03/2024 10:42,Pay Bill from 254792***372 - tyson *** Acc. lAH,Completed,32000,,312300,TRUE,Pay Utility with OD via STK,254792***372 - tyson ***,,lAH
SC15LZ6XTV,01/03/2024 10:12,01/03/2024 10:12,Pay Bill from 254113***311 - AMIR *** Acc. HGE,Completed,10000,,280300,TRUE,Pay Utility,254113***311 - AMIR ***,,HGE
SC11LVWHC3,01/03/2024 09:44,01/03/2024 09:44,Pay Bill Online from 254707***839 - DENNIS *** Acc. FEF,Completed,16000,,270300,TRUE,Pay Bill Online,254707***839 - DENNIS ***,,FEF
SC10LUNHE0,01/03/2024 09:34,01/03/2024 09:34,Pay Bill from 079692***370 - HALIMA *** Acc. DBC,Completed,3000,,254300,TRUE,Pay Utility,079692***370 - HALIMA ***,,DBC
SC14LOAWIY,01/03/2024 08:38,01/03/2024 08:38,Pay Bill from 254704***496 - PETER *** Acc. DFD,Completed,20000,,251300,TRUE,Pay Utility,254704***496 - PETER ***,,DFD
SC11LKAIMF,01/03/2024 07:59,01/03/2024 07:59,Pay Bill Online from 011425***335 - ISAAC *** Acc. HAB,Completed,16000,,231300,TRUE,Pay Bill Online,011425***335 - ISAAC ***,,HAB
SC19LK1SR7,01/03/2024 07:57,01/03/2024 07:57,Pay Bill Online from 254795***441 - LEWIS *** Acc. KEB,Completed,16000,,215300,TRUE,Pay Bill Online,254795***441 - LEWIS ***,,KEB
SC10LJDJS0,01/03/2024 07:50,01/03/2024 07:50,Pay Bill from 254717***919 - MARCELINE *** Acc. IAF,Completed,10000,,199300,TRUE,Pay Utility,254717***919 - MARCELINE ***,,IAF
SC11LDL6WN,01/03/2024 06:13,01/03/2024 06:13,Pay Bill from 011066***258 - lucky *** Acc. JAA,Completed,20000,,189300,TRUE,Pay Utility,011066***258 - lucky ***,,JAA
SC12LC6L7A,01/03/2024 04:27,01/03/2024 04:27,Pay Bill from 254722***028 - CHARLES *** Acc. JDA,Completed,20000,,169300,TRUE,Pay Utility,254722***028 - CHARLES ***,,JDA
SC19L8ETED,01/03/2024 00:00,01/03/2024 00:00,Pay Bill from 254703***626 - DAVID *** Acc. FCD,Completed,1000,,149300,TRUE,Pay Utility with OD via STK,254703***626 - DAVID ***,,FCD
