Receipt No.,Completion Time,Initiation Time,Details,Transaction Status,Paid In,Withdrawn,Balance,Balance Confirmed,Reason Type,Other Party Info,Linked Transaction ID,A/C No.
REH9R347P3,17/05/2023 13:58,17/05/2023 13:58,Utility Account to Organization Settlement Account,Completed,,-25000,0,TRUE,Utility Account to Organization Settlement Account,887075 - ANCIENT WELLS LTD 3,,
REG4O0Z88O,16/05/2023 11:51,16/05/2023 11:51,Pay Bill from 254724018163 - IRENE MUENI WILLY Acc. A4,Completed,12000,,25000,TRUE,Pay Utility,254724018163 - IRENE MUENI WILLY,,A4
REF8KRWF8Q,15/05/2023 08:46,15/05/2023 08:46,Utility Account to Organization Settlement Account,Completed,,-13000,13000,TRUE,Utility Account to Organization Settlement Account,887075 - ANCIENT WELLS LTD 3,,
RED0HIQOAU,13/05/2023 21:03,13/05/2023 21:03,Utility Account to Organization Settlement Account,Completed,,-20000,26000,TRUE,Utility Account to Organization Settlement Account,887075 - ANCIENT WELLS LTD 3,,
RED3H9SSYR,13/05/2023 19:53,13/05/2023 19:53,Pay Bill from 0758877993 - VIRGINIA MBATHA MUTINDA Acc. G1,Completed,2000,,46000,TRUE,Pay Utility,0758877993 - VIRGINIA MBATHA MUTINDA,,G1
RED3FJWT53,13/05/2023 10:49,13/05/2023 10:49,Utility Account to Organization Settlement Account,Completed,,-5000,44000,TRUE,Utility Account to Organization Settlement Account,887075 - ANCIENT WELLS LTD 3,,
RED7F7JRYF,13/05/2023 08:30,13/05/2023 08:30,Pay Bill from 254714597495 - WAMBUA KIOKO Acc. c1,Completed,8000,,49000,TRUE,Pay Utility with OD via STK,254714597495 - WAMBUA KIOKO,,c1
REC2CFZWK8,12/05/2023 09:20,12/05/2023 09:20,Pay Bill Online from 254720086214 - SAMUEL WANJIKU Acc. B3,Completed,6500,,41000,TRUE,Pay Utility with OD Online,254720086214 - SAMUEL WANJIKU,,B3
REC3CF8KML,12/05/2023 09:11,12/05/2023 09:11,Utility Account to Organization Settlement Account,Completed,,-50000,34500,TRUE,Utility Account to Organization Settlement Account,887075 - ANCIENT WELLS LTD 3,,
REB2A9MQ9G,11/05/2023 13:34,11/05/2023 13:34,Utility Account to Organization Settlement Account,Completed,,-165000,84500,TRUE,Utility Account to Organization Settlement Account,887075 - ANCIENT WELLS LTD 3,,
REB29C67YO,11/05/2023 06:56,11/05/2023 06:56,Pay Bill from 254707801121 - JOHNSTONE MUTHUI MUTHAMI Acc. B4,Completed,8700,,249500,TRUE,Pay Utility,254707801121 - JOHNSTONE MUTHUI MUTHAMI,,B4
REA18GRDKR,10/05/2023 18:58,10/05/2023 18:58,Pay Bill from 0745516938 - MARION REBECCA BARASA Acc. Marion barasa A2,Completed,2000,,240800,TRUE,Pay Utility,0745516938 - MARION REBECCA BARASA,,Marion
REA27DDH66,10/05/2023 13:01,10/05/2023 13:01,Pay Bill from 254715764093 - GICHANA GOVAN Acc. E3,Completed,7600,,238800,TRUE,Pay Utility,254715764093 - GICHANA GOVAN,,E3
REA271ATPK,10/05/2023 10:53,10/05/2023 10:53,Pay Bill from 254727585857 - PETER MUOKI NGUNDO Acc. peter Ngundo e6,Completed,8500,,231200,TRUE,Pay Utility,254727585857 - PETER MUOKI NGUNDO,,peter
RE9355BDBX,09/05/2023 16:56,09/05/2023 16:56,Pay Bill from 254704740197 - CECILIA NJERI GITHUI Acc. C3,Completed,8000,,222700,TRUE,Pay Utility,254704740197 - CECILIA NJERI GITHUI,,C3
RE954IK567,09/05/2023 13:15,09/05/2023 13:15,Pay Bill Online from 254720201157 - BENSON INYANJE MWAKHA Acc. b6,Completed,8500,,214700,TRUE,Pay Bill Online,254720201157 - BENSON INYANJE MWAKHA,,b6
RE933YM8T7,09/05/2023 09:53,09/05/2023 09:53,Pay Bill from 0791565463 - Lilian Njeri Wakagwi Acc. F6,Completed,8500,,206200,TRUE,Pay Utility,0791565463 - Lilian Njeri Wakagwi,,F6
RE81ZSX50P,08/05/2023 08:37,08/05/2023 08:37,Pay Bill Online from 254720062144 - CAROLINE AMONDI OKELO Acc. f4,Completed,9200,,197700,TRUE,Pay Utility with OD Online,254720062144 - CAROLINE AMONDI OKELO,,f4
RE81ZLOVCX,08/05/2023 06:47,08/05/2023 06:47,Pay Bill from 0721436195 - KIPKOECH   CHARLES Acc. E2,Completed,8000,,188500,TRUE,Pay Utility with OD via STK,0721436195 - KIPKOECH   CHARLES,,E2
RE72XEUZBY,07/05/2023 10:46,07/05/2023 10:46,Pay Bill from 254710248036 - Allan Kimeu Mutua Acc. F5,Completed,8500,,180500,TRUE,Pay Utility,254710248036 - Allan Kimeu Mutua,,F5
RE75WXSX45,07/05/2023 06:30,07/05/2023 06:30,Pay Bill from 254711428856 - JAPHETH OTSIENO BARASA Acc. Japheth Barasa A5,Completed,11000,,172000,TRUE,Pay Utility,254711428856 - JAPHETH OTSIENO BARASA,,Japheth
RE65WGVYON,06/05/2023 20:45,06/05/2023 20:45,Pay Bill from 0748719970 - judith ndunge mwende Acc. E5,Completed,8500,,161000,TRUE,Pay Utility,0748719970 - judith ndunge mwende,,E5
RE51T4X67H,05/05/2023 19:23,05/05/2023 19:23,Pay Bill Online from 0740283700 - SERAH MUKULU MULILIA Acc. c4serahmukulu,Completed,8500,,152500,TRUE,Pay Bill Online,0740283700 - SERAH MUKULU MULILIA,,c4serahmukulu
RE58T29166,05/05/2023 19:07,05/05/2023 19:07,Pay Bill from 254791341895 - Enos Nyaosi Ayuma Acc. D5,Completed,8500,,144000,TRUE,Pay Utility,254791341895 - Enos Nyaosi Ayuma,,D5
RE58SPOJGG,05/05/2023 17:42,05/05/2023 17:42,Pay Bill from 0720571944 - Ronoh   Benard Acc. D2,Completed,8000,,135500,TRUE,Pay Utility,0720571944 - Ronoh   Benard,,D2
RE57RN6ISP,05/05/2023 11:45,05/05/2023 11:45,Pay Bill from 254726945691 - JAMES RAMTU Acc. B5,Completed,8500,,127500,TRUE,Pay Utility,254726945691 - JAMES RAMTU,,B5
RE42Q0I896,04/05/2023 18:49,04/05/2023 18:49,Pay Bill from 254708989835 - SUSAN NDUTA Acc. B2,Completed,8000,,119000,TRUE,Pay Utility,254708989835 - SUSAN NDUTA,,B2
RE34LGRJV0,03/05/2023 09:21,03/05/2023 09:21,Pay Bill from 0715030019 - Omwenga Ong'era Stephen Acc. E1,Completed,8000,,111000,TRUE,Pay Utility,0715030019 - Omwenga Ong'era Stephen,,E1
RE31LDBZ1Z,03/05/2023 08:41,03/05/2023 08:41,Pay Bill Online from 0799912339 - PETER KAMAU MURIU Acc. C5,Completed,8500,,103000,TRUE,Pay Bill Online,0799912339 - PETER KAMAU MURIU,,C5
RE25JY0VQ5,02/05/2023 17:14,02/05/2023 17:14,Pay Bill from 0758877993 - VIRGINIA MBATHA MUTINDA Acc. G1,Completed,19000,,94500,TRUE,Pay Utility,0758877993 - VIRGINIA MBATHA MUTINDA,,G1
RE24JXS3S8,02/05/2023 17:12,02/05/2023 17:12,Pay Bill Online from 254706298810 - Morgan Mudengani Kisarago Acc. f1,Completed,8000,,75500,TRUE,Pay Bill Online,254706298810 - Morgan Mudengani Kisarago,,f1
RE24J3HSGG,02/05/2023 12:09,02/05/2023 12:09,Pay Bill from 254746659971 - gladys wanjiru nyaga Acc. E4,Completed,8500,,67500,TRUE,Pay Utility,254746659971 - gladys wanjiru nyaga,,E4
RE19HYU4AJ,01/05/2023 20:36,01/05/2023 20:36,Pay Bill from 0719349205 - Christabel Gakii Munene Acc. D1,Completed,8000,,59000,TRUE,Pay Utility,0719349205 - Christabel Gakii Munene,,D1
