Receipt No.,Completion Time,Initiation Time,Details,Transaction Status,Paid In,Withdrawn,Balance,Balance Confirmed,Reason Type,Other Party Info,Linked Transaction ID,A/C No.
OF63QKY2OH,06/06/2020 16:28,06/06/2020 16:28,Pay Bill from 254701330588 - EDGER WAFULA BUTALI Acc. d1,Completed,8000,,16500,TRUE,Pay Utility with OD via STK,254701330588 - EDGER WAFULA BUTALI,,d1
OF69QD8P5H,06/06/2020 12:56,06/06/2020 12:56,Pay Bill from 254703246217 - AMBROSE ADOCHE MIRASI Acc. D4,Completed,8500,,8500,TRUE,Pay Utility,254703246217 - AMBROSE ADOCHE MIRASI,,D4
OF61QAMCU1,06/06/2020 11:41,06/06/2020 11:41,Utility Account to Organization Settlement Account,Completed,,-18000,0,TRUE,Utility Account to Organization Settlement Account,887075 - ANCIENT WELLS LTD 3,,
OF65Q8MWJX,06/06/2020 10:43,06/06/2020 10:43,Pay Bill from 254701230271 - SHEILA MUYUKA MMASI Acc. 301,Completed,13000,,18000,TRUE,Pay Utility,254701230271 - SHEILA MUYUKA MMASI,,301
OF63Q2K8CF,06/06/2020 06:23,06/06/2020 06:23,Pay Bill from 254703176849 - ROYAL MUYA Acc. F2,Completed,5000,,5000,TRUE,Pay Utility,254703176849 - ROYAL MUYA,,F2
OF64Q2F0RY,06/06/2020 05:43,06/06/2020 05:43,Utility Account to Organization Settlement Account,Completed,,-155500,0,TRUE,Utility Account to Organization Settlement Account,887075 - ANCIENT WELLS LTD 3,,
OF59PZJSA7,05/06/2020 20:44,05/06/2020 20:44,Pay Bill Online from 254702172427 - OKINDA OCHOLLAH Acc. Okinda Ochollah G1,Completed,8000,,155500,TRUE,Pay Bill Online,254702172427 - OKINDA OCHOLLAH,,Okinda
OF55PZAJDD,05/06/2020 20:34,05/06/2020 20:34,Pay Bill from 254723065636 - ROSEMARY M NZUVE Acc. E5,Completed,8000,,147500,TRUE,Pay Utility,254723065636 - ROSEMARY M NZUVE,,E5
OF55PZ50E1,05/06/2020 20:29,05/06/2020 20:29,Pay Bill from 254711903617 - Grace Njeri Thuo Acc. 701 Njenga,Completed,13000,,139500,TRUE,Pay Utility,254711903617 - Grace Njeri Thuo,,701
OF59PWFGL5,05/06/2020 19:17,05/06/2020 19:17,Pay Bill from 254724871526 - JOHN KAGUONGO Acc. D2 JOHN KAGUONGO ,Completed,8000,,126500,TRUE,Pay Utility,254724871526 - JOHN KAGUONGO,,D2
OF57PSD763,05/06/2020 17:59,05/06/2020 17:59,Pay Bill from 254711877988 - PATRICK KONZI Acc. b4,Completed,8500,,118500,TRUE,Pay Utility with OD via STK,254711877988 - PATRICK KONZI,,b4
OF52PQ9MP0,05/06/2020 17:17,05/06/2020 17:17,Pay Bill from 254711712240 - LEON WOMWENE BWAYO Acc. 102,Completed,14000,,110000,TRUE,Pay Utility,254711712240 - LEON WOMWENE BWAYO,,102
OF55PF0YC9,05/06/2020 12:19,05/06/2020 12:19,Pay Bill from 254722395959 - THEOPHILUS MUSYOKA Acc. 601,Completed,15000,,96000,TRUE,Pay Utility,254722395959 - THEOPHILUS MUSYOKA,,601
OF46P1BKMC,04/06/2020 19:56,04/06/2020 19:56,Pay Bill Online from 254711184244 - KIPROP FESTUS Acc. Festus Kiprop C1p,Completed,8000,,81000,TRUE,Pay Bill Online,254711184244 - KIPROP FESTUS,,Festus
OF48P0C6BY,04/06/2020 19:31,04/06/2020 19:31,Pay Bill from 254728664261 - LEVIN INGATI NYONJE Acc. B1,Completed,7500,,73000,TRUE,Pay Utility,254728664261 - LEVIN INGATI NYONJE,,B1
OF41OYUBGB,04/06/2020 18:59,04/06/2020 18:59,Pay Bill from 254722706516 - KORIR ANTHONY Acc. Anthony D3,Completed,8000,,65500,TRUE,Pay Utility,254722706516 - KORIR ANTHONY,,Anthony
OF40OVDKPM,04/06/2020 17:52,04/06/2020 17:52,Pay Bill from 254721539716 - OCTAVIAN MWANYALO Acc. OMwanyalo C6,Completed,8000,,57500,TRUE,Pay Utility,254721539716 - OCTAVIAN MWANYALO,,OMwanyalo
OF43OI4YBH,04/06/2020 11:58,04/06/2020 11:58,Pay Bill from 254710269475 - SAMUEL M KIMANTHI Acc. Nicholas. Room302,Completed,13000,,49500,TRUE,Pay Utility,254710269475 - SAMUEL M KIMANTHI,,Nicholas.
OF41ODJMO9,04/06/2020 09:35,04/06/2020 09:35,Pay Bill from 254796502531 - ASHA MAOMBOLA Acc. Asha 801,Completed,5000,,36500,TRUE,Pay Utility,254796502531 - ASHA MAOMBOLA,,Asha
OF46OC07J4,04/06/2020 08:41,04/06/2020 08:41,Pay Bill from 254724395251 - ZENA ANYANGO ORWAYA Acc. 202,Completed,15000,,31500,TRUE,Pay Utility,254724395251 - ZENA ANYANGO ORWAYA,,202
OF34O8C2P8,03/06/2020 22:03,03/06/2020 22:03,Pay Bill from 254705445188 - SHEILA KIPKEMBOI Acc. D5,Completed,8500,,16500,TRUE,Pay Utility,254705445188 - SHEILA KIPKEMBOI,,D5
OF33O5O6V3,03/06/2020 20:02,03/06/2020 20:02,Pay Bill from 254700007703 - RITA LESOROGOL Acc. ritahnashangairm901,Completed,8000,,8000,TRUE,Pay Utility,254700007703 - RITA LESOROGOL,,ritahnashangairm901
OF31NYSTFH,03/06/2020 17:36,03/06/2020 17:36,Utility Account to Organization Settlement Account,Completed,,-111000,0,TRUE,Utility Account to Organization Settlement Account,887075 - ANCIENT WELLS LTD 3,,
OF35NXG52L,03/06/2020 17:07,03/06/2020 17:07,Pay Bill from 254723892997 - TERRY MUTHONI WAMAITHA Acc. Terry room101,Completed,39000,,111000,TRUE,Pay Utility,254723892997 - TERRY MUTHONI WAMAITHA,,Terry
OF35NKQQIH,03/06/2020 11:11,03/06/2020 11:11,Pay Bill from 254710269475 - SAMUEL M KIMANTHI Acc. MichaelKIILU.Room802,Completed,15000,,72000,TRUE,Pay Utility,254710269475 - SAMUEL M KIMANTHI,,MichaelKIILU.Room802
OF21MN09AR,02/06/2020 10:10,02/06/2020 10:10,Pay Bill from 254701339690 - ASHA BAGANWA NDAHIRU Acc. F3,Completed,8000,,57000,TRUE,Pay Utility,254701339690 - ASHA BAGANWA NDAHIRU,,F3
OF11LSVSQ7,01/06/2020 10:07,01/06/2020 10:07,Pay Bill Online from 254795983642 - OBED MOGAKA Acc. F6 OBED ,Completed,8500,,49000,TRUE,Pay Bill Online,254795983642 - OBED MOGAKA,,F6
OF16LQWZ7U,01/06/2020 08:59,01/06/2020 08:59,Pay Bill from 0741067845 - jullian ellside  lion davids Acc. A2,Completed,7500,,40500,TRUE,Pay Utility,0741067845 - jullian ellside  lion davids,,A2
