Receipt No.,Completion Time,Initiation Time,Details,Transaction Status,Paid In,Withdrawn,Balance,Balance Confirmed,Reason Type,Other Party Info,Linked Transaction ID,A/C No.
RDC21OT12U,12/4/2023 21:37,12/4/2023 21:37,Pay Bill from 254714419834 - FAITH MWIKALI MUTHAMA Acc. d4,Completed,8500,,209400,TRUE,Pay Utility,254714419834 - FAITH MWIKALI MUTHAMA,,d4
RDC4YPIIKO,12/4/2023 10:23,12/4/2023 10:23,Pay Bill Online from 254720086214 - SAMUEL WANJIKU Acc. B3,Completed,8000,,200900,TRUE,Pay Utility with OD Online,254720086214 - SAMUEL WANJIKU,,B3
RDB4Y1J8WU,11/4/2023 21:59,11/4/2023 21:59,Pay Bill from 254724018163 - IRENE MUENI WILLY Acc. A4,Completed,12000,,192900,TRUE,Pay Utility,254724018163 - IRENE MUENI WILLY,,A4
RDB2VT9076,11/4/2023 9:14,11/4/2023 9:14,Pay Bill from 254727585857 - PETER MUOKI NGUNDO Acc. peter Ngundo e6,Completed,8500,,180900,TRUE,Pay Utility,254727585857 - PETER MUOKI NGUNDO,,peter
RDB3VKFGRJ,11/4/2023 7:06,11/4/2023 7:06,Pay Bill from 0114093036 - Cecillia Njeri Githui Acc. C3,Completed,8000,,172400,TRUE,Pay Utility,0114093036 - Cecillia Njeri Githui,,C3
RDA0UOHFOA,10/4/2023 18:46,10/4/2023 18:46,Pay Bill Online from 254721457538 - SUSAN MUIRURI Acc. B2,Completed,8000,,164400,TRUE,Pay Utility with OD Online,254721457538 - SUSAN MUIRURI,,B2
RDA1UKGSVB,10/4/2023 18:14,10/4/2023 18:14,Pay Bill from 254713062617 - ISAAC KIPROTICH INCHERE Acc. F3,Completed,8000,,156400,TRUE,Pay Utility,254713062617 - ISAAC KIPROTICH INCHERE,,F3
RDA0TRSI3K,10/4/2023 13:22,10/4/2023 13:22,Pay Bill from 254715764093 - GICHANA GOVAN Acc. E3,Completed,400,,148400,TRUE,Pay Utility,254715764093 - GICHANA GOVAN,,E3
RD97RKVIX3,9/4/2023 15:33,9/4/2023 15:33,Pay Bill Online from 254703176849 - ROYAL MUYA Acc. F2,Completed,4000,,148000,TRUE,Pay Bill Online,254703176849 - ROYAL MUYA,,F2
RD97QGD6YR,9/4/2023 5:34,9/4/2023 5:34,Pay Bill Online from 0799912339 - PETER KAMAU MURIU Acc. c5,Completed,8500,,144000,TRUE,Pay Bill Online,0799912339 - PETER KAMAU MURIU,,c5
RD82PQ4GBA,8/4/2023 19:15,8/4/2023 19:15,Pay Bill from 0791565463 - Lilian Njeri Wakagwi Acc. f6,Completed,8500,,135500,TRUE,Pay Utility,0791565463 - Lilian Njeri Wakagwi,,f6
RD72LHRT6M,7/4/2023 11:06,7/4/2023 11:06,Pay Bill Online from 0740283700 - SERAH MUKULU MULILIA Acc. c4serahmukulu,Completed,8500,,127000,TRUE,Pay Bill Online,0740283700 - SERAH MUKULU MULILIA,,c4serahmukulu
RD60KS19UM,6/4/2023 23:13,6/4/2023 23:13,Pay Bill from 254710248036 - Allan Kimeu Mutua Acc. F5,Completed,8500,,118500,TRUE,Pay Utility,254710248036 - Allan Kimeu Mutua,,F5
RD62KJGRXW,6/4/2023 21:08,6/4/2023 21:08,Pay Bill from 254707801121 - JOHNSTONE MUTHUI MUTHAMI Acc. B4,Completed,9500,,110000,TRUE,Pay Utility,254707801121 - JOHNSTONE MUTHUI MUTHAMI,,B4
RD69JOZ9WZ,6/4/2023 17:31,6/4/2023 17:31,Pay Bill Online from 254720201157 - BENSON INYANJE MWAKHA Acc. b6,Completed,8500,,100500,TRUE,Pay Bill Online,254720201157 - BENSON INYANJE MWAKHA,,b6
RD66J591I4,6/4/2023 14:24,6/4/2023 14:24,Pay Bill from 0748719970 - judith ndunge mwende Acc. E5,Completed,4500,,92000,TRUE,Pay Utility,0748719970 - judith ndunge mwende,,E5
RD67HYIPXF,6/4/2023 2:29,6/4/2023 2:29,Pay Bill from 0720571944 - Ronoh   Benard Acc. D2,Completed,8000,,87500,TRUE,Pay Utility,0720571944 - Ronoh   Benard,,D2
RD58H9Q1BE,5/4/2023 19:31,5/4/2023 19:31,Pay Bill from 0715030019 - Omwenga Ong'era Stephen Acc. E1,Completed,8000,,79500,TRUE,Pay Utility,0715030019 - Omwenga Ong'era Stephen,,E1
RD41ETTPG3,4/4/2023 21:30,4/4/2023 21:30,Pay Bill from 0719349205 - Christabel Gakii Munene Acc. D1,Completed,8000,,71500,TRUE,Pay Utility,0719349205 - Christabel Gakii Munene,,D1
RD44E6OT4W,4/4/2023 18:42,4/4/2023 18:42,Pay Bill from 254726945691 - JAMES RAMTU Acc. B5,Completed,8500,,63500,TRUE,Pay Utility,254726945691 - JAMES RAMTU,,B5
RD36BZA442,3/4/2023 21:10,3/4/2023 21:10,Pay Bill from 0111653037 - STEPHEN MUKABANA MAYABI Acc. A1,Completed,7500,,55000,TRUE,Pay Utility,0111653037 - STEPHEN MUKABANA MAYABI,,A1
RD36B4X986,3/4/2023 17:22,3/4/2023 17:22,FSI to Pay Bill by 576777 - I&M BANK LTD - BANK TO TILL Acc. E4 via WEB by I&M BANK LTD - BANK TO TILL\B2BUser1,Completed,8500,,47500,TRUE,FSI to Pay Bill via API,576777 - I&M BANK LTD - BANK TO TILL,,E4
RD359RENPH,3/4/2023 8:35,3/4/2023 8:35,Pay Bill from 254791341895 - Enos Nyaosi Ayuma Acc. D5,Completed,8500,,39000,TRUE,Pay Utility,254791341895 - Enos Nyaosi Ayuma,,D5
RD166UK582,1/4/2023 23:39,1/4/2023 23:39,Merchant Pay Utility Received from 7649916 -    JALEEL MWERO    Acc. A2,Completed,7500,,30500,TRUE,Merchant Pay Utility via API,7649916 -    JALEEL MWERO   ,,A2
RD134SC0DL,1/4/2023 11:54,1/4/2023 11:54,Merchant Pay Utility Received from 7649916 -    JALEEL MWERO    Acc. A2,Completed,7500,,23000,TRUE,Merchant Pay Utility via API,7649916 -    JALEEL MWERO   ,,A2
RD194HZVU7,1/4/2023 10:08,1/4/2023 10:08,Pay Bill Online from 254715020357 - ELIZABETH NJERI WARARI Acc. C2,Completed,7500,,15500,TRUE,Pay Bill Online,254715020357 - ELIZABETH NJERI WARARI,,C2
RD164A94SG,1/4/2023 8:43,1/4/2023 8:43,Pay Bill from 254722706516 - KORIR ANTHONY Acc. Anthony D3 ,Completed,8000,,8000,TRUE,Pay Utility,254722706516 - KORIR ANTHONY,,Anthony
