Receipt No.,Completion Time,Initiation Time,Details,Transaction Status,Paid In,Withdrawn,Balance,Balance Confirmed,Reason Type,Other Party Info,Linked Transaction ID,A/C No.
QE10AXQQRI,01/05/2022 22:51,01/05/2022 22:51,Pay Bill Online from 254728093389 - MOHAMED MUSA ALASOW Acc. KED ,Completed,12000,,189400,TRUE,Pay Bill Online,254728093389 - MOHAMED MUSA ALASOW,,KED
QE18AUOV0S,01/05/2022 21:30,01/05/2022 21:30,Pay Bill from 254714060203 - PATRICK MWANGOMBE MSAWUCHI Acc. KEI,Completed,12000,,177400,TRUE,Pay Utility,254714060203 - PATRICK MWANGOMBE MSAWUCHI,,KEI
QE119X8J07,01/05/2022 14:03,01/05/2022 14:03,Pay Bill Online from 254795510441 - LEWIS MUEMA Acc. KEB,Completed,16000,,165400,TRUE,Pay Bill Online,254795510441 - LEWIS MUEMA,,KEB
QE129VLAGK,01/05/2022 13:38,01/05/2022 13:38,Pay Bill Online from 254728897908 - Teddy Allan Onyango Acc. DDD,Completed,30400,,149400,TRUE,Pay Bill Online,254728897908 - Teddy Allan Onyango,,DDD
QE189SH5FE,01/05/2022 12:47,01/05/2022 12:47,Pay Bill Online from 254706549634 - CLINTON OMBASA Acc. FDB,Completed,6000,,119000,TRUE,Pay Utility with OD Online,254706549634 - CLINTON OMBASA,,FDB
QE159JEVH5,01/05/2022 10:03,01/05/2022 10:03,Pay Bill from 254721302658 - JACOB BIRUNDU Acc. HDE,Completed,10000,,113000,TRUE,Pay Utility,254721302658 - JACOB BIRUNDU,,HDE
QE129I0LRM,01/05/2022 09:37,01/05/2022 09:37,Pay Bill from 254717726012 - WINFRED MUENI PETER Acc. IDA,Completed,16000,,103000,TRUE,Pay Utility,254717726012 - WINFRED MUENI PETER,,IDA
QE159BEGKF,01/05/2022 07:04,01/05/2022 07:04,Pay Bill from 254702355678 - JOHN NJOROGE GICHERU Acc. ITE,Completed,10000,,87000,TRUE,Pay Utility,254702355678 - JOHN NJOROGE GICHERU,,ITE
QE189AMWOG,01/05/2022 06:18,01/05/2022 06:18,Pay Bill from 254791318982 - ADULLAHI HASSAN Acc. JCI,Completed,20000,,77000,TRUE,Pay Utility,254791318982 - ADULLAHI HASSAN,,JCI
QDU895RH5A,30/04/2022 22:42,30/04/2022 22:42,Pay Bill from 254704111133 - ELVIS OTIENO Acc. HFD,Completed,3000,,57000,TRUE,Pay Utility,254704111133 - ELVIS OTIENO,,HFD
QDU991TAEV,30/04/2022 21:22,30/04/2022 21:22,Pay Bill from 254702152790 - Michelle Ndunge Kyalo Acc. IDE,Completed,8000,,54000,TRUE,Pay Utility,254702152790 - Michelle Ndunge Kyalo,,IDE
QDU2903H6M,30/04/2022 20:57,30/04/2022 20:57,Pay Bill Online from 254707370896 - OKECH BRIAN BRIAN Acc. FFA,Completed,15000,,46000,TRUE,Pay Bill Online,254707370896 - OKECH BRIAN BRIAN,,FFA
QDU18J0EFP,30/04/2022 18:01,30/04/2022 18:01,Pay Bill Online from 254711562428 - Lionel Mutune Muoka Acc. KDI,Completed,11000,,31000,TRUE,Pay Bill Online,254711562428 - Lionel Mutune Muoka,,KDI
QDU58IROLH,30/04/2022 17:58,30/04/2022 17:58,Pay Bill from 254704934557 - BAKARI KITSAKA Acc. JEI,Completed,20000,,20000,TRUE,Pay Utility,254704934557 - BAKARI KITSAKA,,JEI
QDU98BUK8R,30/04/2022 16:28,30/04/2022 16:28,Utility Account to Organization Settlement Account,Completed,,-358000,0,TRUE,Utility Account to Organization Settlement Account,979524 - ANCIENT WELLS PROPERTY MANAGERS 2,,
QDU187KY07,30/04/2022 15:28,30/04/2022 15:28,Pay Bill from 254704111133 - ELVIS OTIENO Acc. HFD,Completed,3000,,358000,TRUE,Pay Utility,254704111133 - ELVIS OTIENO,,HFD
QDU581UDTJ,30/04/2022 14:08,30/04/2022 14:08,Pay Bill Online from 254720107609 - DENNIS OGENDI BARAKE Acc. JAJ,Completed,15000,,355000,TRUE,Pay Bill Online,254720107609 - DENNIS OGENDI BARAKE,,JAJ
QDU37XDD11,30/04/2022 13:07,30/04/2022 13:07,Pay Bill from 254711706815 - NAOMI WANYONYI Acc. KBA,Completed,16000,,340000,TRUE,Pay Utility,254711706815 - NAOMI WANYONYI,,KBA
QDU27K40TM,30/04/2022 09:46,30/04/2022 09:46,Pay Bill from 254717438676 - SHIHAB THIIRU Acc. IEI,Completed,15000,,324000,TRUE,Pay Utility with OD via STK,254717438676 - SHIHAB THIIRU,,IEI
QDU47G37HE,30/04/2022 08:34,30/04/2022 08:34,Pay Bill Online from 254717809935 - LYDIAH WERU Acc. IEF,Completed,11500,,309000,TRUE,Pay Bill Online,254717809935 - LYDIAH WERU,,IEF
QDU279ZXDA,30/04/2022 01:20,30/04/2022 01:20,Pay Bill Online from 254705951407 - CAROLINE WAITHIRA KAMAU Acc. IDH,Completed,20500,,297500,TRUE,Pay Bill Online,254705951407 - CAROLINE WAITHIRA KAMAU,,IDH
QDT36SG87D,29/04/2022 19:08,29/04/2022 19:08,Pay Bill from 254710239100 - PHILOMENA WOKI MUTHAMA Acc. KDK,Completed,17000,,277000,TRUE,Pay Utility,254710239100 - PHILOMENA WOKI MUTHAMA,,KDK
QDT66OKCDQ,29/04/2022 18:29,29/04/2022 18:29,Pay Bill Online from 254723411873 - FREDRICK CHERUIYOT Acc. JBF,Completed,8000,,260000,TRUE,Pay Bill Online,254723411873 - FREDRICK CHERUIYOT,,JBF
QDT86K6IBC,29/04/2022 17:40,29/04/2022 17:40,Pay Bill Online from 254722917617 - MOSES BARBOI Acc. KAI,Completed,12000,,252000,TRUE,Pay Bill Online,254722917617 - MOSES BARBOI,,KAI
QDT46AMBTQ,29/04/2022 15:34,29/04/2022 15:34,Pay Bill from 254720931300 - ESTHER WANJIRU NDUNGO Acc. KGE ,Completed,9000,,240000,TRUE,Pay Utility,254720931300 - ESTHER WANJIRU NDUNGO,,KGE
QDT462MV4O,29/04/2022 13:37,29/04/2022 13:37,Pay Bill from 254713631869 - ZABIBA HIRBO Acc. HBD,Completed,1000,,231000,TRUE,Pay Utility,254713631869 - ZABIBA HIRBO,,HBD
QDT55YLMFN,29/04/2022 12:35,29/04/2022 12:35,Pay Bill Online from 254726593769 - BONFACE BWINA Acc. DEB,Completed,16000,,230000,TRUE,Pay Bill Online,254726593769 - BONFACE BWINA,,DEB
QDT45XOUYI,29/04/2022 12:22,29/04/2022 12:22,Pay Bill from 254711650034 - Lucky Ngoya Acc. JAA,Completed,21000,,214000,TRUE,Pay Utility,254711650034 - Lucky Ngoya,,JAA
QDT95RLL0F,29/04/2022 10:47,29/04/2022 10:47,Pay Bill Online from 254706784429 - ROSE JEPKOECH RUTTO Acc. IFI,Completed,15000,,193000,TRUE,Pay Bill Online,254706784429 - ROSE JEPKOECH RUTTO,,IFI
QDT75QMSWT,29/04/2022 10:31,29/04/2022 10:31,Pay Bill from 254726753273 - JESSE K MURIRMI NJERU Acc. HCH,Completed,17000,,178000,TRUE,Pay Utility,254726753273 - JESSE K MURIRMI NJERU,,HCH
QDT95PCBL5,29/04/2022 10:10,29/04/2022 10:10,Pay Bill Online from 254716315144 - PETER MUNYIRI WAROTERE Acc. FBB,Completed,16000,,161000,TRUE,Pay Bill Online,254716315144 - PETER MUNYIRI WAROTERE,,FBB
QDT95PA5NV,29/04/2022 10:09,29/04/2022 10:09,Pay Bill from 254721780448 - EVERLYNE MIDEVA CHOGO Acc. JCA,Completed,20000,,145000,TRUE,Pay Utility,254721780448 - EVERLYNE MIDEVA CHOGO,,JCA
QDT55GGH0L,29/04/2022 07:07,29/04/2022 07:07,Pay Bill from 0757259130 - RASHID SUDI MCHOMBO Acc. JAF,Completed,2000,,125000,TRUE,Pay Utility,0757259130 - RASHID SUDI MCHOMBO,,JAF
QDS1594JCR,28/04/2022 21:37,28/04/2022 21:37,FSI to Pay Bill by 960604 - GULF AFRICAN BANK- B2B RECEIVERBLES Acc. DEC via WEB by GULF AFRICAN BANK- B2B RECEIVERBLES\GABInitiator,Completed,10000,,123000,TRUE,FSI to Pay Bill via API,960604 - GULF AFRICAN BANK- B2B RECEIVERBLES,,DEC
QDS955YMPD,28/04/2022 20:48,28/04/2022 20:48,Pay Bill from 254718284151 - EVERLINE MATHEKA Acc. JAG,Completed,9000,,113000,TRUE,Pay Utility,254718284151 - EVERLINE MATHEKA,,JAG
QDS655N7MO,28/04/2022 20:44,28/04/2022 20:44,Pay Bill from 254704111133 - ELVIS OTIENO Acc. HFD,Completed,4000,,104000,TRUE,Pay Utility,254704111133 - ELVIS OTIENO,,HFD
QDS74XHE9F,28/04/2022 19:15,28/04/2022 19:15,Pay Bill Online from 254716784364 - Wendy Kemunto Nyandiko Acc. FFC,Completed,9000,,100000,TRUE,Pay Bill Online,254716784364 - Wendy Kemunto Nyandiko,,FFC
QDS94QX1MD,28/04/2022 18:11,28/04/2022 18:11,Pay Bill from 254719439717 - Cecilia Omondi Acc. HFC,Completed,9000,,91000,TRUE,Pay Utility,254719439717 - Cecilia Omondi,,HFC
QDS44MQZNE,28/04/2022 17:25,28/04/2022 17:25,Pay Bill Online from 254799946039 - LUIS OTIENO Acc. IAE,Completed,8000,,82000,TRUE,Pay Bill Online,254799946039 - LUIS OTIENO,,IAE
QDS64GCIVA,28/04/2022 16:02,28/04/2022 16:02,Pay Bill from 254703555717 - SENGA SALIM Acc. hbb,Completed,3000,,74000,TRUE,Pay Utility,254703555717 - SENGA SALIM,,hbb
QDS84DCGUS,28/04/2022 15:19,28/04/2022 15:19,Pay Bill from 0742952242 - Isaac tuitoek cheserem Acc. IBI,Completed,10000,,71000,TRUE,Pay Utility,0742952242 - Isaac tuitoek cheserem,,IBI
QDS04D8GXG,28/04/2022 15:17,28/04/2022 15:17,Pay Bill from 254799287000 - Godfrey odhiambo oyugi Acc. kae,Completed,5000,,61000,TRUE,Pay Utility,254799287000 - Godfrey odhiambo oyugi,,kae
QDS94AW02L,28/04/2022 14:43,28/04/2022 14:43,Pay Bill from 254716702294 - DANIEL MULATI Acc. KBB,Completed,10000,,56000,TRUE,Pay Utility,254716702294 - DANIEL MULATI,,KBB
QDS74A48XX,28/04/2022 14:32,28/04/2022 14:32,Pay Bill from 254796848496 - IVY WITABA Acc. JBA,Completed,10000,,46000,TRUE,Pay Utility,254796848496 - IVY WITABA,,JBA
QDS94A4NWL,28/04/2022 14:32,28/04/2022 14:32,Pay Bill from 254724450782 - DENNIS MUSAU Acc. jcb,Completed,2000,,36000,TRUE,Pay Utility,254724450782 - DENNIS MUSAU,,jcb
QDS949Z7VX,28/04/2022 14:29,28/04/2022 14:29,Pay Bill from 254716702294 - DANIEL MULATI Acc. KBB,Completed,6000,,34000,TRUE,Pay Utility,254716702294 - DANIEL MULATI,,KBB
QDS847RHQW,28/04/2022 13:57,28/04/2022 13:57,Pay Bill Online from 254722258756 - DAVID KEMBOI Acc. HDA,Completed,18000,,28000,TRUE,Pay Bill Online,254722258756 - DAVID KEMBOI,,HDA
QDS347AXQD,28/04/2022 13:51,28/04/2022 13:51,Pay Bill from 254114394078 - pascaline iteriteka Acc. JEG,Completed,10000,,10000,TRUE,Pay Utility,254114394078 - pascaline iteriteka,,JEG
QDS046H832,28/04/2022 13:39,28/04/2022 13:39,Utility Account to Organization Settlement Account,Completed,,-159500,0,TRUE,Utility Account to Organization Settlement Account,979524 - ANCIENT WELLS PROPERTY MANAGERS 2,,
QDS34479XB,28/04/2022 13:05,28/04/2022 13:05,Pay Bill from 254725385966 - JOSEPH MUYA MARUA Acc. KEE,Completed,10000,,159500,TRUE,Pay Utility,254725385966 - JOSEPH MUYA MARUA,,KEE
QDS942SXCZ,28/04/2022 12:44,28/04/2022 12:44,Pay Bill Online from 254721465713 - RHODA WAMBUI MWANGI Acc. Jfh,Completed,17000,,149500,TRUE,Pay Bill Online,254721465713 - RHODA WAMBUI MWANGI,,Jfh
QDS640TJ4A,28/04/2022 12:14,28/04/2022 12:14,Pay Bill from 254724878751 - NAOMI CHEPKOECH Acc. FBD,Completed,16000,,132500,TRUE,Pay Utility,254724878751 - NAOMI CHEPKOECH,,FBD
QDS43YKZE8,28/04/2022 11:39,28/04/2022 11:39,Pay Bill from 0701439767 - Cosmus kimeu wambua Acc. HED,Completed,9000,,116500,TRUE,Pay Utility,0701439767 - Cosmus kimeu wambua,,HED
QDS03SCBRY,28/04/2022 09:58,28/04/2022 09:58,Pay Bill Online from 254707726441 - JOHN OLOO NYAULA Acc. IEH,Completed,16000,,107500,TRUE,Pay Utility with OD Online,254707726441 - JOHN OLOO NYAULA,,IEH
QDS23I0IJE,28/04/2022 02:19,28/04/2022 02:19,Pay Bill from 254721671129 - CHRISPINUS ODHIAMBO Acc. DFD,Completed,20000,,91500,TRUE,Pay Utility,254721671129 - CHRISPINUS ODHIAMBO,,DFD
QDR73GTGS5,27/04/2022 23:32,27/04/2022 23:32,Pay Bill from 254728670882 - SHARAD EDWARD ADALA OLUM Acc. KCK,Completed,15000,,71500,TRUE,Pay Utility,254728670882 - SHARAD EDWARD ADALA OLUM,,KCK
QDR22IJRVA,27/04/2022 15:26,27/04/2022 15:26,Pay Bill from 254715591919 - JOHN O OCHIENG Acc. HCC,Completed,10000,,56500,TRUE,Pay Utility,254715591919 - JOHN O OCHIENG,,HCC
QDR82HWMJG,27/04/2022 15:17,27/04/2022 15:17,Pay Bill from 254703180395 - JANE NYAGUTHII MWAGO Acc. IBE,Completed,8000,,46500,TRUE,Pay Utility,254703180395 - JANE NYAGUTHII MWAGO,,IBE
QDR12DKG37,27/04/2022 14:11,27/04/2022 14:11,Pay Bill from 0758001057 - sahara mohamed edow Acc. IGF,Completed,10000,,38500,TRUE,Pay Utility,0758001057 - sahara mohamed edow,,IGF
QDR42AZAGQ,27/04/2022 13:33,27/04/2022 13:33,Pay Bill from 0790823150 - ALEX OMOLO OMONDI Acc. IGE,Completed,9000,,28500,TRUE,Pay Utility,0790823150 - ALEX OMOLO OMONDI,,IGE
QDR52A6OQ7,27/04/2022 13:21,27/04/2022 13:21,Pay Bill from 0725806383 - gofrey thiane kibaya Acc. HEE,Completed,10000,,19500,TRUE,Pay Utility,0725806383 - gofrey thiane kibaya,,HEE
QDR529D99N,27/04/2022 13:09,27/04/2022 13:09,Pay Bill from 254723954911 - JAMES KILAVI Acc. ICG,Completed,9500,,9500,TRUE,Pay Utility,254723954911 - JAMES KILAVI,,ICG
QDR223WL1I,27/04/2022 11:46,27/04/2022 11:46,Utility Account to Organization Settlement Account,Completed,,-294200,0,TRUE,Utility Account to Organization Settlement Account,979524 - ANCIENT WELLS PROPERTY MANAGERS 2,,
QDR21WI1ZK,27/04/2022 09:49,27/04/2022 09:49,Pay Bill from 254704140048 - MAUREEN GACHERI KINYUA Acc. JDD ,Completed,15000,,294200,TRUE,Pay Utility,254704140048 - MAUREEN GACHERI KINYUA,,JDD
QDR01U8JYS,27/04/2022 09:11,27/04/2022 09:11,Pay Bill from 254719499823 - MOSES MWANZIA MUTHIANI Acc. Jcc,Completed,12000,,279200,TRUE,Pay Utility,254719499823 - MOSES MWANZIA MUTHIANI,,Jcc
QDR41QD090,27/04/2022 07:59,27/04/2022 07:59,Pay Bill Online from 254725381062 - VICTOR MAITHYA Acc. HEG,Completed,5000,,267200,TRUE,Pay Utility with OD Online,254725381062 - VICTOR MAITHYA,,HEG
QDQ01AW39U,26/04/2022 20:14,26/04/2022 20:14,Pay Bill Online from 254714710698 - TABITHA MULEE KYALO Acc. IFD,Completed,11500,,262200,TRUE,Pay Bill Online,254714710698 - TABITHA MULEE KYALO,,IFD
QDQ2ZVZ4YI,26/04/2022 17:44,26/04/2022 17:44,Pay Bill from 254722826454 - CHARLES KARIMI MAITAI Acc. KDC,Completed,10000,,250700,TRUE,Pay Utility,254722826454 - CHARLES KARIMI MAITAI,,KDC
QDQ6ZRG3C8,26/04/2022 16:48,26/04/2022 16:48,Pay Bill from 0746934144 - Rosemary Wangui Muiruri Acc. ICD,Completed,7000,,240700,TRUE,Pay Utility,0746934144 - Rosemary Wangui Muiruri,,ICD
QDQ4ZPBLL6,26/04/2022 16:20,26/04/2022 16:20,Pay Bill Online from 254724882554 - ALPHONCE WAMBUA NGELI Acc. JDA,Completed,20000,,233700,TRUE,Pay Bill Online,254724882554 - ALPHONCE WAMBUA NGELI,,JDA
QDQ6ZEC53M,26/04/2022 13:41,26/04/2022 13:41,Pay Bill from 0718838251 - MARK KINYUA MAINA Acc. kfg,Completed,4000,,213700,TRUE,Pay Utility,0718838251 - MARK KINYUA MAINA,,kfg
QDQ9ZDYX95,26/04/2022 13:35,26/04/2022 13:35,Pay Bill from 254720883049 - SIMON AMUKOCHE Acc. IED,Completed,4800,,209700,TRUE,Pay Utility,254720883049 - SIMON AMUKOCHE,,IED
QDQ1ZBUTCJ,26/04/2022 13:05,26/04/2022 13:05,Pay Bill from 254720496449 - STANLEY KIPKOECH RONO Acc. FBE,Completed,9000,,204900,TRUE,Pay Utility,254720496449 - STANLEY KIPKOECH RONO,,FBE
QDQ4Z7GOT8,26/04/2022 12:00,26/04/2022 12:00,Pay Bill Online from 254700379039 - MARTIN KIMANI Acc. KCI,Completed,12000,,195900,TRUE,Pay Bill Online,254700379039 - MARTIN KIMANI,,KCI
QDQ3Z50WQ5,26/04/2022 11:23,26/04/2022 11:23,Pay Bill Online from 254717463608 - DANIEL MUNIU MUGURE Acc. HGE,Completed,10000,,183900,TRUE,Pay Bill Online,254717463608 - DANIEL MUNIU MUGURE,,HGE
QDQ4YT2ZT0,26/04/2022 08:08,26/04/2022 08:08,Pay Bill Online from 254724211857 - OCHUODHO OUMA Acc. KBK,Completed,17000,,173900,TRUE,Pay Bill Online,254724211857 - OCHUODHO OUMA,,KBK
QDP6YIPE6O,25/04/2022 21:27,25/04/2022 21:27,Pay Bill from 254728888511 - HAMISI MIRITI Acc. KAK,Completed,16000,,156900,TRUE,Pay Utility,254728888511 - HAMISI MIRITI,,KAK
QDP2YH1GWC,25/04/2022 21:01,25/04/2022 21:01,Pay Bill from 0721130307 - HILLARY NGUNYI MUTINDA Acc. JCH,Completed,16000,,140900,TRUE,Pay Utility,0721130307 - HILLARY NGUNYI MUTINDA,,JCH
QDP1Y10J57,25/04/2022 18:14,25/04/2022 18:14,Pay Bill Online from 254724882554 - ALPHONCE WAMBUA NGELI Acc. JDA,Completed,10000,,124900,TRUE,Pay Bill Online,254724882554 - ALPHONCE WAMBUA NGELI,,JDA
QDP0XKQ8GM,25/04/2022 14:42,25/04/2022 14:42,Pay Bill from 254726599835 - LAWRENCE MURIITHI Acc. KDJ,Completed,16000,,114900,TRUE,Pay Utility,254726599835 - LAWRENCE MURIITHI,,KDJ
QDP8XHZ1H0,25/04/2022 14:03,25/04/2022 14:03,Pay Bill from 254713662892 - DAVID JUMA KIPTOCH Acc. JBE,Completed,8500,,98900,TRUE,Pay Utility,254713662892 - DAVID JUMA KIPTOCH,,JBE
QDP9XG8467,25/04/2022 13:38,25/04/2022 13:38,Pay Bill from 254711650034 - Lucky Ngoya Acc. JAA,Completed,20000,,90400,TRUE,Pay Utility,254711650034 - Lucky Ngoya,,JAA
QDP3X87MRB,25/04/2022 11:40,25/04/2022 11:40,Pay Bill from 0795068880 - Patrick   Kiplagat Acc. KAG,Completed,4000,,70400,TRUE,Pay Utility,0795068880 - Patrick   Kiplagat,,KAG
QDP7X75XSL,25/04/2022 11:24,25/04/2022 11:24,Pay Bill from 254710635630 - DONNA JESSICA OWANO Acc. KCC,Completed,2000,,66400,TRUE,Pay Utility,254710635630 - DONNA JESSICA OWANO,,KCC
QDP0X4Z85K,25/04/2022 10:50,25/04/2022 10:50,Pay Bill from 254722889574 - ALLAN MWANGI Acc. jcg,Completed,1400,,64400,TRUE,Pay Utility,254722889574 - ALLAN MWANGI,,jcg
QDP9X2I88P,25/04/2022 10:10,25/04/2022 10:10,Pay Bill from 254729557859 - AUDREY KASINDAHA KASINDAHA Acc. KFB,Completed,25000,,63000,TRUE,Pay Utility,254729557859 - AUDREY KASINDAHA KASINDAHA,,KFB
QDP4X0AMYA,25/04/2022 09:34,25/04/2022 09:34,Pay Bill from 254715256302 - RUTH N NDUMA Acc. IGH ,Completed,15000,,38000,TRUE,Pay Utility,254715256302 - RUTH N NDUMA,,IGH
QDP1WXE2BT,25/04/2022 08:43,25/04/2022 08:43,Pay Bill from 254724878751 - NAOMI CHEPKOECH Acc. FBD,Completed,6000,,23000,TRUE,Pay Utility,254724878751 - NAOMI CHEPKOECH,,FBD
QDO6WAOJ9C,24/04/2022 18:59,24/04/2022 18:59,Pay Bill Online from 254716579300 - BRIAN KIPKOECH RONO Acc. HEH,Completed,16000,,17000,TRUE,Pay Bill Online,254716579300 - BRIAN KIPKOECH RONO,,HEH
QDO9V24BDX,24/04/2022 00:50,24/04/2022 00:50,Pay Bill Online from 0711117122 - Yassir Mwinyi Abdulrazaq Acc. ICE,Completed,1000,,1000,TRUE,Pay Bill Online,0711117122 - Yassir Mwinyi Abdulrazaq,,ICE
QDN8TVBT2Q,23/04/2022 13:56,23/04/2022 13:56,Utility Account to Organization Settlement Account,Completed,,-126300,0,TRUE,Utility Account to Organization Settlement Account,979524 - ANCIENT WELLS PROPERTY MANAGERS 2,,
QDM9T3T7SN,22/04/2022 23:50,22/04/2022 23:50,Pay Bill from 254729450678 - GRACE NDUNGE Acc. fba,Completed,15000,,126300,TRUE,Pay Utility with OD via STK,254729450678 - GRACE NDUNGE,,fba
QDM1T31FS5,22/04/2022 23:07,22/04/2022 23:07,Pay Bill from 0722950695 - Joshua Mbithi Kivondo Acc. Dca ,Completed,10000,,111300,TRUE,Pay Utility,0722950695 - Joshua Mbithi Kivondo,,Dca
QDM1SK2OS9,22/04/2022 18:34,22/04/2022 18:34,Pay Bill from 0722531422 - ANTHONY ITIMU MAINA Acc. JBD,Completed,6000,,101300,TRUE,Pay Utility,0722531422 - ANTHONY ITIMU MAINA,,JBD
QDM0SHP096,22/04/2022 18:09,22/04/2022 18:09,Pay Bill from 254700811449 - JOHN MULIMA ENANE Acc. HCE,Completed,10500,,95300,TRUE,Pay Utility,254700811449 - JOHN MULIMA ENANE,,HCE
QDM8SF5O0G,22/04/2022 17:39,22/04/2022 17:39,Pay Bill from 254710965167 - KUSA STEPHANIE HAZEL Acc. JDC,Completed,11000,,84800,TRUE,Pay Utility,254710965167 - KUSA STEPHANIE HAZEL,,JDC
QDM5S9LTOT,22/04/2022 16:29,22/04/2022 16:29,Pay Bill from 254728681775 - Faith Abigael Acc. JAC,Completed,15000,,73800,TRUE,Pay Utility,254728681775 - Faith Abigael,,JAC
QDM2S8T89U,22/04/2022 16:18,22/04/2022 16:18,Pay Bill Online from 254720044312 - ELIUD KIPKURUI Acc. FCF,Completed,17000,,58800,TRUE,Pay Bill Online,254720044312 - ELIUD KIPKURUI,,FCF
QDM5RYGU2B,22/04/2022 13:48,22/04/2022 13:48,Pay Bill Online from 0700206427 - Clare Nabalisa Mukasa Acc. HFA,Completed,10000,,41800,TRUE,Pay Utility with OD Online,0700206427 - Clare Nabalisa Mukasa,,HFA
QDM5RXOA8D,22/04/2022 13:36,22/04/2022 13:36,Pay Bill from 0792933158 - mary wamaitha maina Acc. kdh,Completed,10000,,31800,TRUE,Pay Utility,0792933158 - mary wamaitha maina,,kdh
QDM4RWZ726,22/04/2022 13:26,22/04/2022 13:26,Pay Bill Online from 254701683737 - MICHAEL NGUGI Acc. HDB,Completed,16000,,21800,TRUE,Pay Bill Online,254701683737 - MICHAEL NGUGI,,HDB
QDM3RV0UYV,22/04/2022 12:56,22/04/2022 12:56,Pay Bill Online from 0700206427 - Clare Nabalisa Mukasa Acc. HFA,Completed,5800,,5800,TRUE,Pay Utility with OD Online,0700206427 - Clare Nabalisa Mukasa,,HFA
QDM8ROX9P0,22/04/2022 11:20,22/04/2022 11:20,Utility Account to Organization Settlement Account,Completed,,-72500,0,TRUE,Utility Account to Organization Settlement Account,979524 - ANCIENT WELLS PROPERTY MANAGERS 2,,
QDM6ROSYIU,22/04/2022 11:18,22/04/2022 11:18,Pay Bill from 254722746480 - PATRICK OPEYWA AURA Acc. KGH,Completed,9500,,72500,TRUE,Pay Utility,254722746480 - PATRICK OPEYWA AURA,,KGH
QDM4RJJMPW,22/04/2022 09:53,22/04/2022 09:53,Pay Bill from 254723605941 - JOHN KARIHA Acc. KDD,Completed,15000,,63000,TRUE,Pay Utility,254723605941 - JOHN KARIHA,,KDD
QDM4RCJF6U,22/04/2022 07:33,22/04/2022 07:33,Pay Bill from 0718838251 - MARK KINYUA MAINA Acc. kfg,Completed,6000,,48000,TRUE,Pay Utility,0718838251 - MARK KINYUA MAINA,,kfg
QDL6QO3ZTO,21/04/2022 18:16,21/04/2022 18:16,Pay Bill Online from 254715764212 - BANCE ISHEMINYE Acc. JFE ,Completed,5000,,42000,TRUE,Pay Bill Online,254715764212 - BANCE ISHEMINYE,,JFE
QDL3QJ6R5Z,21/04/2022 17:18,21/04/2022 17:18,Pay Bill from 254798643998 - Judith Mwaniki Acc. kce,Completed,10000,,37000,TRUE,Pay Utility,254798643998 - Judith Mwaniki,,kce
QDL4Q6CWBW,21/04/2022 14:12,21/04/2022 14:12,Pay Bill Online from 254790549449 - AHMED MOHAMED ABUKAR Acc. HBA,Completed,17000,,27000,TRUE,Pay Bill Online,254790549449 - AHMED MOHAMED ABUKAR,,HBA
QDL3PWW74X,21/04/2022 11:49,21/04/2022 11:49,Pay Bill from 254703935626 - DAVID NGARI ITA Acc. FCD,Completed,10000,,10000,TRUE,Pay Utility,254703935626 - DAVID NGARI ITA,,FCD
QDL7PWKLJ5,21/04/2022 11:44,21/04/2022 11:44,Utility Account to Organization Settlement Account,Completed,,-106500,0,TRUE,Utility Account to Organization Settlement Account,979524 - ANCIENT WELLS PROPERTY MANAGERS 2,,
QDL0PQG4ZO,21/04/2022 10:05,21/04/2022 10:05,Pay Bill from 254722889574 - ALLAN MWANGI Acc. JCG ,Completed,10000,,106500,TRUE,Pay Utility,254722889574 - ALLAN MWANGI,,JCG
QDL1PQG1UD,21/04/2022 10:05,21/04/2022 10:05,Pay Bill from 0757758972 - BETH MUTHONI KASYOKA Acc. DEA,Completed,16000,,96500,TRUE,Pay Utility,0757758972 - BETH MUTHONI KASYOKA,,DEA
QDL4PI29N2,21/04/2022 07:19,21/04/2022 07:19,Pay Bill from 254701047939 - Cyrus Wahome Acc. JAH,Completed,6000,,80500,TRUE,Pay Utility with OD via STK,254701047939 - Cyrus Wahome,,JAH
QDK0PEBPDM,20/04/2022 23:24,20/04/2022 23:24,Pay Bill from 254703555717 - SENGA SALIM Acc. hbb,Completed,3000,,74500,TRUE,Pay Utility,254703555717 - SENGA SALIM,,hbb
QDK2PDYUDC,20/04/2022 23:04,20/04/2022 23:04,Pay Bill from 254721884037 - ERIC MISIANI Acc. HCG,Completed,15000,,71500,TRUE,Pay Utility,254721884037 - ERIC MISIANI,,HCG
QDK1P9X51X,20/04/2022 21:23,20/04/2022 21:23,Pay Bill from 254725539787 - EVERLYNE MOGAKA Acc. KEF,Completed,10000,,56500,TRUE,Pay Utility,254725539787 - EVERLYNE MOGAKA,,KEF
QDK5OYQKPL,20/04/2022 19:12,20/04/2022 19:12,Pay Bill from 254729541871 - ROBERT KULEI Acc. JAB,Completed,7000,,46500,TRUE,Pay Utility,254729541871 - ROBERT KULEI,,JAB
QDK8OJH1AW,20/04/2022 16:14,20/04/2022 16:14,Pay Bill Online from 254704403532 - Mercy Chepchirchir Mary Acc. JBC,Completed,8000,,39500,TRUE,Pay Bill Online,254704403532 - Mercy Chepchirchir Mary,,JBC
QDK6OD7O6C,20/04/2022 14:41,20/04/2022 14:41,Pay Bill Online from 254720044312 - ELIUD KIPKURUI Acc. FCF,Completed,20000,,31500,TRUE,Pay Bill Online,254720044312 - ELIUD KIPKURUI,,FCF
QDK9OAQLY9,20/04/2022 14:04,20/04/2022 14:04,Pay Bill from 254717909848 - MARY MBULA KATHUKU Acc. FGD,Completed,9000,,11500,TRUE,Pay Utility with OD via STK,254717909848 - MARY MBULA KATHUKU,,FGD
QDK9O5R279,20/04/2022 12:50,20/04/2022 12:50,Pay Bill Online from 254720451253 - JIMMY KIOGORA NKIROTE Acc. kbd,Completed,2500,,2500,TRUE,Pay Bill Online,254720451253 - JIMMY KIOGORA NKIROTE,,kbd
QDK7NZDLAP,20/04/2022 11:11,20/04/2022 11:11,Utility Account to Organization Settlement Account,Completed,,-59000,0,TRUE,Utility Account to Organization Settlement Account,979524 - ANCIENT WELLS PROPERTY MANAGERS 2,,
QDK7NRR9HT,20/04/2022 09:04,20/04/2022 09:04,Pay Bill from 254720883049 - SIMON AMUKOCHE Acc. IED,Completed,15000,,59000,TRUE,Pay Utility,254720883049 - SIMON AMUKOCHE,,IED
QDJ3NI8397,19/04/2022 22:31,19/04/2022 22:31,Pay Bill Online from 254711721087 - MUTHIANI KYULE Acc. IDB ,Completed,15000,,44000,TRUE,Pay Bill Online,254711721087 - MUTHIANI KYULE,,IDB
QDJ8NCCM7C,19/04/2022 20:42,19/04/2022 20:42,Pay Bill from 254725111246 - FRANCIS MUUTU MWANGANGI Acc. IGI,Completed,15000,,29000,TRUE,Pay Utility,254725111246 - FRANCIS MUUTU MWANGANGI,,IGI
QDJ9MHRVV1,19/04/2022 14:25,19/04/2022 14:25,Pay Bill from 0722950695 - Joshua Mbithi Kivondo Acc. Dca,Completed,14000,,14000,TRUE,Pay Utility,0722950695 - Joshua Mbithi Kivondo,,Dca
QDJ3M4NUQX,19/04/2022 11:04,19/04/2022 11:04,Utility Account to Organization Settlement Account,Completed,,-90000,0,TRUE,Utility Account to Organization Settlement Account,979524 - ANCIENT WELLS PROPERTY MANAGERS 2,,
QDJ0LYQ644,19/04/2022 09:27,19/04/2022 09:27,Pay Bill from 254723606895 - ABDINASI DAHIR Acc. KAB,Completed,16000,,90000,TRUE,Pay Utility with OD via STK,254723606895 - ABDINASI DAHIR,,KAB
QDI2KP7L0O,18/04/2022 14:10,18/04/2022 14:10,Pay Bill from 254722458136 - NADI GOLICHA Acc. JEA,Completed,10000,,74000,TRUE,Pay Utility,254722458136 - NADI GOLICHA,,JEA
QDI9KF27UZ,18/04/2022 11:26,18/04/2022 11:26,Pay Bill from 254724103759 - RICHARD NKAABO Acc. JEJ,Completed,16000,,64000,TRUE,Pay Utility,254724103759 - RICHARD NKAABO,,JEJ
QDI3KDOUQP,18/04/2022 11:03,18/04/2022 11:03,Pay Bill Online from 254715764212 - BANCE ISHEMINYE Acc. JFE ,Completed,2000,,48000,TRUE,Pay Bill Online,254715764212 - BANCE ISHEMINYE,,JFE
QDI3K4RP9D,18/04/2022 08:18,18/04/2022 08:18,Pay Bill Online from 254797726484 - gideon marubua kiburu Acc. JBB,Completed,15000,,46000,TRUE,Pay Bill Online,254797726484 - gideon marubua kiburu,,JBB
QDH3JZ40JB,17/04/2022 23:22,17/04/2022 23:22,Pay Bill Online from 0711117122 - Yassir Mwinyi Abdulrazaq Acc. ICE,Completed,1000,,31000,TRUE,Pay Bill Online,0711117122 - Yassir Mwinyi Abdulrazaq,,ICE
QDH3J1SCV7,17/04/2022 14:20,17/04/2022 14:20,Pay Bill from 254702190887 - Nax Ochieng Acc. FDE,Completed,15000,,30000,TRUE,Pay Utility,254702190887 - Nax Ochieng,,FDE
QDG9I797RV,16/04/2022 21:04,16/04/2022 21:04,Pay Bill from 0716115127 - MOHAMED SHEIKH ABDI Acc. FFE,Completed,15000,,15000,TRUE,Pay Utility,0716115127 - MOHAMED SHEIKH ABDI,,FFE
QDG4HAZNAY,16/04/2022 14:11,16/04/2022 14:11,Utility Account to Organization Settlement Account,Completed,,-12000,0,TRUE,Utility Account to Organization Settlement Account,979524 - ANCIENT WELLS PROPERTY MANAGERS 2,,
QDG7H981Z7,16/04/2022 13:45,16/04/2022 13:45,Pay Bill from 254722861942 - MAGDALINE WANJIKU Acc. KBG,Completed,9000,,12000,TRUE,Pay Utility,254722861942 - MAGDALINE WANJIKU,,KBG
QDG4GPG1VK,16/04/2022 08:25,16/04/2022 08:25,Pay Bill from 254703555717 - SENGA SALIM Acc. hbb,Completed,3000,,3000,TRUE,Pay Utility,254703555717 - SENGA SALIM,,hbb
QDF0FC3500,15/04/2022 13:09,15/04/2022 13:09,Utility Account to Organization Settlement Account,Completed,,-229100,0,TRUE,Utility Account to Organization Settlement Account,979524 - ANCIENT WELLS PROPERTY MANAGERS 2,,
QDE3EJW83R,14/04/2022 21:49,14/04/2022 21:49,Pay Bill Online from 254745661722 - MUHAMEDMALIK GAAL Acc. DEC,Completed,3000,,229100,TRUE,Pay Bill Online,254745661722 - MUHAMEDMALIK GAAL,,DEC
QDE6EEFG6Q,14/04/2022 20:31,14/04/2022 20:31,Pay Bill from 254724450782 - DENNIS MUSAU Acc. jcb,Completed,3000,,226100,TRUE,Pay Utility,254724450782 - DENNIS MUSAU,,jcb
QDE9EB0EOV,14/04/2022 19:54,14/04/2022 19:54,Pay Bill from 254726651764 - NICHOLAS MWANZIA Acc. HBE,Completed,10500,,223100,TRUE,Pay Utility with OD via STK,254726651764 - NICHOLAS MWANZIA,,HBE
QDE5E7T9JH,14/04/2022 19:24,14/04/2022 19:24,Pay Bill from 254799287000 - Godfrey odhiambo oyugi Acc. kae,Completed,5000,,212600,TRUE,Pay Utility,254799287000 - Godfrey odhiambo oyugi,,kae
QDE0DWU6VI,14/04/2022 17:32,14/04/2022 17:32,Pay Bill from 254719779657 - SAMUEL NJOROGE Acc. JGA,Completed,15000,,207600,TRUE,Pay Utility with OD via STK,254719779657 - SAMUEL NJOROGE,,JGA
QDE3DNS1W1,14/04/2022 15:34,14/04/2022 15:34,Pay Bill from 254745661722 - MUHAMEDMALIK GAAL Acc. DEC,Completed,3000,,192600,TRUE,Pay Utility,254745661722 - MUHAMEDMALIK GAAL,,DEC
QDE1DL74R9,14/04/2022 14:57,14/04/2022 14:57,Pay Bill from 0795068880 - Patrick   Kiplagat Acc. KAG,Completed,5000,,189600,TRUE,Pay Utility,0795068880 - Patrick   Kiplagat,,KAG
QDE8DGT370,14/04/2022 13:55,14/04/2022 13:55,Pay Bill from 254720868281 - KENNEDY MWELU Acc. KBI,Completed,12500,,184600,TRUE,Pay Utility,254720868281 - KENNEDY MWELU,,KBI
QDE1DEGXSR,14/04/2022 13:23,14/04/2022 13:23,Pay Bill from 254701112397 - ELEMA GODANA DIBA Acc. FCA,Completed,6000,,172100,TRUE,Pay Utility,254701112397 - ELEMA GODANA DIBA,,FCA
QDE1DB29V5,14/04/2022 12:34,14/04/2022 12:34,Pay Bill Online from 254715764212 - BANCE ISHEMINYE Acc. JFE,Completed,3000,,166100,TRUE,Pay Bill Online,254715764212 - BANCE ISHEMINYE,,JFE
QDE1CWULD3,14/04/2022 08:50,14/04/2022 08:50,Pay Bill from 254726928933 - JOSHUA NDUNDA NZIOKA Acc. KCJ,Completed,16000,,163100,TRUE,Pay Utility,254726928933 - JOSHUA NDUNDA NZIOKA,,KCJ
QDE0CUJRK2,14/04/2022 08:07,14/04/2022 08:07,Pay Bill from 0720599684 - CHEMUTAI   JACKLINE Acc. KGD,Completed,10000,,147100,TRUE,Pay Utility,0720599684 - CHEMUTAI   JACKLINE,,KGD
QDD3C856XJ,13/04/2022 19:12,13/04/2022 19:12,Pay Bill Online from 254799214498 - EMMILY LWAMBA Acc. KCF ,Completed,4100,,137100,TRUE,Pay Bill Online,254799214498 - EMMILY LWAMBA,,KCF
QDD4C4K8MI,13/04/2022 18:36,13/04/2022 18:36,Pay Bill from 0722531422 - ANTHONY ITIMU MAINA Acc. JBD,Completed,10000,,133000,TRUE,Pay Utility,0722531422 - ANTHONY ITIMU MAINA,,JBD
QDD5C3X6BF,13/04/2022 18:29,13/04/2022 18:29,Pay Bill Online from 254722258107 - JOHN ODIMA ODIMA Acc. KGF,Completed,10000,,123000,TRUE,Pay Bill Online,254722258107 - JOHN ODIMA ODIMA,,KGF
QDD6BV4OCO,13/04/2022 16:43,13/04/2022 16:43,Pay Bill from 254728681775 - Faith Abigael Acc. JAC,Completed,7000,,113000,TRUE,Pay Utility,254728681775 - Faith Abigael,,JAC
QDD0BPQDTG,13/04/2022 15:25,13/04/2022 15:25,Pay Bill Online from 254745661722 - MUHAMEDMALIK GAAL Acc. DEC,Completed,22000,,106000,TRUE,Pay Bill Online,254745661722 - MUHAMEDMALIK GAAL,,DEC
QDD6BOL6GS,13/04/2022 15:08,13/04/2022 15:08,Pay Bill Online from 254714552193 - CHRISTOPHER OCHIENG Acc. JGI ,Completed,20000,,84000,TRUE,Pay Bill Online,254714552193 - CHRISTOPHER OCHIENG,,JGI
QDD7BNDB2R,13/04/2022 14:50,13/04/2022 14:50,Pay Bill Online from 254723747228 - MORARA ASANYO Acc. pool,Completed,14000,,64000,TRUE,Pay Bill Online,254723747228 - MORARA ASANYO,,pool
QDD7BDDLMH,13/04/2022 12:24,13/04/2022 12:24,Pay Bill Online from 254720451253 - JIMMY KIOGORA NKIROTE Acc. KBD,Completed,6000,,50000,TRUE,Pay Bill Online,254720451253 - JIMMY KIOGORA NKIROTE,,KBD
QDD8B59NDM,13/04/2022 10:21,13/04/2022 10:21,Pay Bill from 0748059595 - Rashid NASSIR Khamis Acc. DDA,Completed,30000,,44000,TRUE,Pay Utility,0748059595 - Rashid NASSIR Khamis,,DDA
QDD6B25OW2,13/04/2022 09:31,13/04/2022 09:31,Pay Bill Online from 254711123196 - JUDITH MUTUA Acc. FEA,Completed,14000,,14000,TRUE,Pay Bill Online,254711123196 - JUDITH MUTUA,,FEA
QDD2B1BJ5A,13/04/2022 09:17,13/04/2022 09:17,Utility Account to Organization Settlement Account,Completed,,-134000,0,TRUE,Utility Account to Organization Settlement Account,979524 - ANCIENT WELLS PROPERTY MANAGERS 2,,
QDD1B0GGK3,13/04/2022 09:02,13/04/2022 09:02,Pay Bill from 0757259130 - RASHID SUDI MCHOMBO Acc. JAF,Completed,6000,,134000,TRUE,Pay Utility,0757259130 - RASHID SUDI MCHOMBO,,JAF
QDD2AZ0XQ8,13/04/2022 08:37,13/04/2022 08:37,Pay Bill Online from 254725381062 - VICTOR MAITHYA Acc. HEG,Completed,4000,,128000,TRUE,Pay Utility with OD Online,254725381062 - VICTOR MAITHYA,,HEG
QDC0ANUKEI,12/04/2022 21:44,12/04/2022 21:44,Pay Bill Online from 254720451253 - JIMMY KIOGORA NKIROTE Acc. jbg,Completed,10000,,124000,TRUE,Pay Bill Online,254720451253 - JIMMY KIOGORA NKIROTE,,jbg
QDC1AJSZZJ,12/04/2022 20:46,12/04/2022 20:46,Pay Bill Online from 254724882554 - ALPHONCE WAMBUA NGELI Acc. JDA,Completed,10000,,114000,TRUE,Pay Bill Online,254724882554 - ALPHONCE WAMBUA NGELI,,JDA
QDC5A248HJ,12/04/2022 17:38,12/04/2022 17:38,Pay Bill from 254706322764 - GEORGE OUMA OCHOLA Acc. JDF,Completed,8000,,104000,TRUE,Pay Utility,254706322764 - GEORGE OUMA OCHOLA,,JDF
QDC19XURLV,12/04/2022 16:43,12/04/2022 16:43,Pay Bill Online from 254710381003 - ALFRED KISHOIN Acc. DAB,Completed,16000,,96000,TRUE,Pay Bill Online,254710381003 - ALFRED KISHOIN,,DAB
QDC89V8O4W,12/04/2022 16:05,12/04/2022 16:05,Pay Bill from 254728259571 - ANNE KASIVA Acc. ieb,Completed,15000,,80000,TRUE,Pay Utility,254728259571 - ANNE KASIVA,,ieb
QDC99ST39V,12/04/2022 15:28,12/04/2022 15:28,Pay Bill Online from 254703528196 - ERIC GITONGA MUGO Acc. KGJ,Completed,20000,,65000,TRUE,Pay Bill Online,254703528196 - ERIC GITONGA MUGO,,KGJ
QDC09ORCVW,12/04/2022 14:27,12/04/2022 14:27,Pay Bill from 254791318982 - ADULLAHI HASSAN Acc. JCI,Completed,20000,,45000,TRUE,Pay Utility,254791318982 - ADULLAHI HASSAN,,JCI
QDC49FOYRK,12/04/2022 12:14,12/04/2022 12:14,Pay Bill from 254726636196 - BETHUEL KEMBOI KURUI Acc. JFD,Completed,15000,,25000,TRUE,Pay Utility with OD via STK,254726636196 - BETHUEL KEMBOI KURUI,,JFD
QDC29AWAW4,12/04/2022 11:01,12/04/2022 11:01,Pay Bill from 254707715639 - Annastacia Kimeu Acc. JFC,Completed,10000,,10000,TRUE,Pay Utility,254707715639 - Annastacia Kimeu,,JFC
QDC399RERR,12/04/2022 10:44,12/04/2022 10:44,Utility Account to Organization Settlement Account,Completed,,-50500,0,TRUE,Utility Account to Organization Settlement Account,979524 - ANCIENT WELLS PROPERTY MANAGERS 2,,
QDC58YYA0J,12/04/2022 07:37,12/04/2022 07:37,Pay Bill Online from 254720451253 - JIMMY KIOGORA NKIROTE Acc. kbd,Completed,4000,,50500,TRUE,Pay Utility with OD Online,254720451253 - JIMMY KIOGORA NKIROTE,,kbd
QDB58T5F8Z,11/04/2022 22:35,11/04/2022 22:35,Pay Bill from 254703935626 - DAVID NGARI ITA Acc. FCD,Completed,1000,,46500,TRUE,Pay Utility,254703935626 - DAVID NGARI ITA,,FCD
QDB88T4EBM,11/04/2022 22:35,11/04/2022 22:35,Pay Bill from 254718245568 - NADI GOLICHA Acc. JEA,Completed,10000,,45500,TRUE,Pay Utility,254718245568 - NADI GOLICHA,,JEA
QDB77WK6C5,11/04/2022 15:42,11/04/2022 15:42,Pay Bill Online from 254723930071 - AMOS KITAVI KIVITE Acc. JCE,Completed,9000,,35500,TRUE,Pay Bill Online,254723930071 - AMOS KITAVI KIVITE,,JCE
QDB67NRJ2I,11/04/2022 13:36,11/04/2022 13:36,Pay Bill from 254727515326 - HARRISON WACIRA MAINA Acc. HAH,Completed,16000,,26500,TRUE,Pay Utility,254727515326 - HARRISON WACIRA MAINA,,HAH
QDB57LF78H,11/04/2022 13:04,11/04/2022 13:04,Pay Bill from 0758591833 - DORCUS MBULA PETER Acc. HDD,Completed,9000,,10500,TRUE,Pay Utility,0758591833 - DORCUS MBULA PETER,,HDD
QDB87HUAVI,11/04/2022 12:13,11/04/2022 12:13,Pay Bill Online from 0711117122 - Yassir Mwinyi Abdulrazaq Acc. ICE,Completed,1500,,1500,TRUE,Pay Bill Online,0711117122 - Yassir Mwinyi Abdulrazaq,,ICE
QDB67729LK,11/04/2022 09:31,11/04/2022 09:31,Utility Account to Organization Settlement Account,Completed,,-117500,0,TRUE,Utility Account to Organization Settlement Account,979524 - ANCIENT WELLS PROPERTY MANAGERS 2,,
QDB772FVRZ,11/04/2022 08:12,11/04/2022 08:12,Pay Bill Online from 0740422187 - KEVIN MAKATO KUNGA Acc. KEG,Completed,10000,,117500,TRUE,Pay Bill Online,0740422187 - KEVIN MAKATO KUNGA,,KEG
QDA46CUZOW,10/04/2022 18:29,10/04/2022 18:29,Pay Bill from 254701741613 - ELDERKIN AKOSA Acc. HSE IFB,Completed,15000,,107500,TRUE,Pay Utility,254701741613 - ELDERKIN AKOSA,,HSE
QDA366EL65,10/04/2022 17:05,10/04/2022 17:05,Pay Bill from 254796848496 - IVY WITABA Acc. JBA,Completed,10000,,92500,TRUE,Pay Utility,254796848496 - IVY WITABA,,JBA
QDA560PDZB,10/04/2022 15:41,10/04/2022 15:41,Pay Bill from 254713631869 - ZABIBA HIRBO Acc. HBD,Completed,9000,,82500,TRUE,Pay Utility,254713631869 - ZABIBA HIRBO,,HBD
QDA55SFY2L,10/04/2022 13:37,10/04/2022 13:37,Pay Bill from 0796929370 - HALIMA BOYA GALMA Acc. Dbc,Completed,20000,,73500,TRUE,Pay Utility,0796929370 - HALIMA BOYA GALMA,,Dbc
QDA65L4100,10/04/2022 11:31,10/04/2022 11:31,Pay Bill from 254710635630 - DONNA JESSICA OWANO Acc. KCC,Completed,8000,,53500,TRUE,Pay Utility,254710635630 - DONNA JESSICA OWANO,,KCC
QDA65E4LPC,10/04/2022 09:25,10/04/2022 09:25,Pay Bill from 0743248310 - PATRICK STURRIDGE NYONGESA Acc. daa,Completed,16000,,45500,TRUE,Pay Utility,0743248310 - PATRICK STURRIDGE NYONGESA,,daa
QDA35611IH,10/04/2022 03:01,10/04/2022 03:01,Pay Bill from 254703555717 - SENGA SALIM Acc. hbb,Completed,4000,,29500,TRUE,Pay Utility,254703555717 - SENGA SALIM,,hbb
QD914IZCZH,09/04/2022 18:42,09/04/2022 18:42,Pay Bill Online from 254726116777 - MARY NDUTA GOSHO Acc. JDB,Completed,15000,,25500,TRUE,Pay Utility with OD Online,254726116777 - MARY NDUTA GOSHO,,JDB
QD95434QCV,09/04/2022 15:24,09/04/2022 15:24,Pay Bill from 254720814822 - JAMES OTIENO OPAR Acc. Jgj,Completed,500,,10500,TRUE,Pay Utility with OD via STK,254720814822 - JAMES OTIENO OPAR,,Jgj
QD933NIOXR,09/04/2022 11:49,09/04/2022 11:49,Pay Bill from 254701112397 - ELEMA GODANA DIBA Acc. FCA,Completed,10000,,10000,TRUE,Pay Utility,254701112397 - ELEMA GODANA DIBA,,FCA
QD903I89AC,09/04/2022 10:33,09/04/2022 10:33,Utility Account to Organization Settlement Account,Completed,,-49500,0,TRUE,Utility Account to Organization Settlement Account,979524 - ANCIENT WELLS PROPERTY MANAGERS 2,,
QD913F4Y6J,09/04/2022 09:47,09/04/2022 09:47,Pay Bill from 0724110456 - Fredrick Otieno Onege Acc. ICH,Completed,10000,,49500,TRUE,Pay Utility,0724110456 - Fredrick Otieno Onege,,ICH
QD8430EET4,08/04/2022 22:20,08/04/2022 22:20,Pay Bill Online from 254722514052 - JOSEPH NDIRANGU Acc. JCF,Completed,8000,,39500,TRUE,Pay Bill Online,254722514052 - JOSEPH NDIRANGU,,JCF
QD832N5QLB,08/04/2022 19:33,08/04/2022 19:33,Pay Bill Online from 0792942242 - BRENDA DORCAS MABONGA Acc. HFG,Completed,15000,,31500,TRUE,Pay Bill Online,0792942242 - BRENDA DORCAS MABONGA,,HFG
QD832ECOJ7,08/04/2022 18:08,08/04/2022 18:08,Pay Bill from 254714536026 - LILIAN AWUOR ONYANGO Acc. HDC,Completed,10500,,16500,TRUE,Pay Utility,254714536026 - LILIAN AWUOR ONYANGO,,HDC
QD8725SQ8X,08/04/2022 16:25,08/04/2022 16:25,Pay Bill from 254720029066 - EVANS CHERUYOT ROTICH Acc. KFI,Completed,6000,,6000,TRUE,Pay Utility,254720029066 - EVANS CHERUYOT ROTICH,,KFI
QD8424JM9I,08/04/2022 16:08,08/04/2022 16:08,Utility Account to Organization Settlement Account,Completed,,-79550,0,TRUE,Utility Account to Organization Settlement Account,979524 - ANCIENT WELLS PROPERTY MANAGERS 2,,
QD822171ZQ,08/04/2022 15:21,08/04/2022 15:21,Pay Bill Online from 254701196539 - GICHURI KARANJA Acc. fee,Completed,16000,,79550,TRUE,Pay Bill Online,254701196539 - GICHURI KARANJA,,fee
QD83209LS3,08/04/2022 15:08,08/04/2022 15:08,Pay Bill from 254717985596 - NICHOLAS KIPKOECH BUTIA Acc. hcf,Completed,9000,,63550,TRUE,Pay Utility,254717985596 - NICHOLAS KIPKOECH BUTIA,,hcf
QD851VTU45,08/04/2022 14:06,08/04/2022 14:06,Pay Bill from 254725753814 - CARLYNE CHEPNGENO Acc. IFC,Completed,8000,,54550,TRUE,Pay Utility with OD via STK,254725753814 - CARLYNE CHEPNGENO,,IFC
QD871RKXFB,08/04/2022 13:07,08/04/2022 13:07,Pay Bill Online from 254725381062 - VICTOR MAITHYA Acc. HEG,Completed,3550,,46550,TRUE,Pay Utility with OD Online,254725381062 - VICTOR MAITHYA,,HEG
QD891RINY1,08/04/2022 13:06,08/04/2022 13:06,Pay Bill Online from 254705846408 - JAMES OUMA Acc. HBH,Completed,16000,,43000,TRUE,Pay Bill Online,254705846408 - JAMES OUMA,,HBH
QD851P6RHT,08/04/2022 12:33,08/04/2022 12:33,Pay Bill from 0724134105 - HILDA JEPKEMOI KIMELIEL Acc. JBH,Completed,16000,,27000,TRUE,Pay Utility,0724134105 - HILDA JEPKEMOI KIMELIEL,,JBH
QD851IS6OX,08/04/2022 11:02,08/04/2022 11:02,Pay Bill from 254700290755 - MERCY GOGA Acc. FDD,Completed,11000,,11000,TRUE,Pay Utility,254700290755 - MERCY GOGA,,FDD
QD801GULVG,08/04/2022 10:34,08/04/2022 10:34,Utility Account to Organization Settlement Account,Completed,,-264000,0,TRUE,Utility Account to Organization Settlement Account,979524 - ANCIENT WELLS PROPERTY MANAGERS 2,,
QD8515XIP3,08/04/2022 07:26,08/04/2022 07:26,Pay Bill from 0769118645 - kennedy kipkurui korir Acc. IGC,Completed,9000,,264000,TRUE,Pay Utility,0769118645 - kennedy kipkurui korir,,IGC
QD741068E0,07/04/2022 22:37,07/04/2022 22:37,Pay Bill from 254722444622 - CHARITY KAGWAINI Acc. ffd,Completed,11000,,255000,TRUE,Pay Utility,254722444622 - CHARITY KAGWAINI,,ffd
QD76ZWB5A8,07/04/2022 21:26,07/04/2022 21:26,Pay Bill from 0759888028 - ROBERT OKOTH OGALO Acc. KBH,Completed,10000,,244000,TRUE,Pay Utility,0759888028 - ROBERT OKOTH OGALO,,KBH
QD74ZTJ76I,07/04/2022 20:50,07/04/2022 20:50,Pay Bill Online from 254718772336 - DAVID SERUGO Acc. DCD,Completed,20000,,234000,TRUE,Pay Bill Online,254718772336 - DAVID SERUGO,,DCD
QD74ZRJ7H4,07/04/2022 20:27,07/04/2022 20:27,Pay Bill from 254708499439 - ROSE NDEDE Acc. HGF,Completed,9000,,214000,TRUE,Pay Utility,254708499439 - ROSE NDEDE,,HGF
QD75ZQ4N93,07/04/2022 20:12,07/04/2022 20:12,Pay Bill from 254702266191 - IRINE MOMBO Acc. FEC,Completed,9000,,205000,TRUE,Pay Utility,254702266191 - IRINE MOMBO,,FEC
QD79ZPJ0S7,07/04/2022 20:07,07/04/2022 20:07,Pay Bill from 254716581384 - GREGORY KILUNGYA Acc. DAD,Completed,20000,,196000,TRUE,Pay Utility,254716581384 - GREGORY KILUNGYA,,DAD
QD74ZMRVT0,07/04/2022 19:41,07/04/2022 19:41,Pay Bill from 254724450782 - DENNIS MUSAU Acc. JCB,Completed,10000,,176000,TRUE,Pay Utility,254724450782 - DENNIS MUSAU,,JCB
QD74ZICXJW,07/04/2022 19:03,07/04/2022 19:03,Pay Bill from 0795068880 - Patrick   Kiplagat Acc. KAG,Completed,3000,,166000,TRUE,Pay Utility,0795068880 - Patrick   Kiplagat,,KAG
QD78ZF2QWI,07/04/2022 18:31,07/04/2022 18:31,Pay Bill from 254729557859 - AUDREY KASINDAHA KASINDAHA Acc. KFB,Completed,7000,,163000,TRUE,Pay Utility,254729557859 - AUDREY KASINDAHA KASINDAHA,,KFB
QD73ZET4L5,07/04/2022 18:28,07/04/2022 18:28,Pay Bill from 0769960650 - DORIS WAMARWA MURIUKI Acc. KEC,Completed,10000,,156000,TRUE,Pay Utility,0769960650 - DORIS WAMARWA MURIUKI,,KEC
QD70ZAS3YA,07/04/2022 17:44,07/04/2022 17:44,Pay Bill Online from 254710732381 - JANE ACHIENG MBEKE Acc. HAF,Completed,10000,,146000,TRUE,Pay Bill Online,254710732381 - JANE ACHIENG MBEKE,,HAF
QD70ZAQ63U,07/04/2022 17:43,07/04/2022 17:43,Pay Bill Online from 254799371069 - ALPHONCE OCHIENG WAREGA Acc. IEE,Completed,8500,,136000,TRUE,Pay Bill Online,254799371069 - ALPHONCE OCHIENG WAREGA,,IEE
QD77Z9E8SN,07/04/2022 17:28,07/04/2022 17:28,Pay Bill from 254702764047 - FERDINAND K Acc. KDB,Completed,16000,,127500,TRUE,Pay Utility,254702764047 - FERDINAND K,,KDB
QD75Z82GOZ,07/04/2022 17:12,07/04/2022 17:12,Pay Bill from 254719439717 - Cecilia Omondi Acc. hfc,Completed,9000,,111500,TRUE,Pay Utility,254719439717 - Cecilia Omondi,,hfc
QD71Z82173,07/04/2022 17:11,07/04/2022 17:11,Pay Bill from 0115054975 - faith syovata joseph Acc. IBC,Completed,9500,,102500,TRUE,Pay Utility,0115054975 - faith syovata joseph,,IBC
QD75Z7FHHJ,07/04/2022 17:04,07/04/2022 17:04,Pay Bill from 254723328258 - SAMUEL MAINA MURIUKI Acc. IFE,Completed,8000,,93000,TRUE,Pay Utility,254723328258 - SAMUEL MAINA MURIUKI,,IFE
QD73Z6ODAZ,07/04/2022 16:54,07/04/2022 16:54,Pay Bill Online from 254713966424 - NDUTI MUTHUI Acc. jed,Completed,15000,,85000,TRUE,Pay Bill Online,254713966424 - NDUTI MUTHUI,,jed
QD76Z5VZE6,07/04/2022 16:44,07/04/2022 16:44,Pay Bill Online from 254720787158 - AMOS CHELANG'A Acc. KCG,Completed,10000,,70000,TRUE,Pay Bill Online,254720787158 - AMOS CHELANG'A,,KCG
QD74Z0OEVK,07/04/2022 15:32,07/04/2022 15:32,Pay Bill Online from 254725909984 - TIMOTHY ODHIAMBO OWITI Acc. JDE,Completed,15000,,60000,TRUE,Pay Bill Online,254725909984 - TIMOTHY ODHIAMBO OWITI,,JDE
QD76YUO738,07/04/2022 14:06,07/04/2022 14:06,Pay Bill from 254729450678 - GRACE NDUNGE Acc. fba,Completed,5000,,45000,TRUE,Pay Utility,254729450678 - GRACE NDUNGE,,fba
QD77YQ57D7,07/04/2022 13:04,07/04/2022 13:04,Pay Bill Online from 254718911865 - KENNEDY KELI KATUNGII Acc. HDF,Completed,9000,,40000,TRUE,Pay Bill Online,254718911865 - KENNEDY KELI KATUNGII,,HDF
QD71YKC5DH,07/04/2022 11:42,07/04/2022 11:42,Pay Bill from 0711769778 - PROTASIA BONIPHACE MANOSA Acc. IBB,Completed,15000,,31000,TRUE,Pay Utility,0711769778 - PROTASIA BONIPHACE MANOSA,,IBB
QD70YIMI1C,07/04/2022 11:17,07/04/2022 11:17,Pay Bill from 254720814822 - JAMES OTIENO OPAR Acc. Jgj,Completed,1000,,16000,TRUE,Pay Utility with OD via STK,254720814822 - JAMES OTIENO OPAR,,Jgj
QD76YGSSX2,07/04/2022 10:51,07/04/2022 10:51,Pay Bill Online from 254795534849 - PURITY NJERU Acc. feb,Completed,15000,,15000,TRUE,Pay Bill Online,254795534849 - PURITY NJERU,,feb
QD75YEGFUB,07/04/2022 10:17,07/04/2022 10:17,Utility Account to Organization Settlement Account,Completed,,-256500,0,TRUE,Utility Account to Organization Settlement Account,979524 - ANCIENT WELLS PROPERTY MANAGERS 2,,
QD77YEE23F,07/04/2022 10:16,07/04/2022 10:16,Pay Bill Online from 254715764212 - BANCE ISHEMINYE Acc. JFE ,Completed,5000,,256500,TRUE,Pay Bill Online,254715764212 - BANCE ISHEMINYE,,JFE
QD77YCYZZ7,07/04/2022 09:55,07/04/2022 09:55,Pay Bill from 254712954563 - JOSEPH MUTISO KILONZO Acc. DAC ,Completed,20000,,251500,TRUE,Pay Utility,254712954563 - JOSEPH MUTISO KILONZO,,DAC
QD75Y9M7XZ,07/04/2022 09:02,07/04/2022 09:02,Pay Bill from 0717441870 - Steven oduor ogutu Acc. KTA,Completed,9500,,231500,TRUE,Pay Utility,0717441870 - Steven oduor ogutu,,KTA
QD76Y9COL6,07/04/2022 08:58,07/04/2022 08:58,Pay Bill Online from 254708225541 - JUDITH NKATHA SIMBA Acc. HDH,Completed,16000,,222000,TRUE,Pay Bill Online,254708225541 - JUDITH NKATHA SIMBA,,HDH
QD76Y6NMWO,07/04/2022 08:11,07/04/2022 08:11,Pay Bill from 254728238249 - ESTHER WANGUI KIBUNYI Acc. ICA,Completed,17000,,206000,TRUE,Pay Utility,254728238249 - ESTHER WANGUI KIBUNYI,,ICA
QD77Y6KK6L,07/04/2022 08:10,07/04/2022 08:10,Pay Bill from 254702346515 - ELIZABETH ACHIENG NGOME Acc. KDE,Completed,10000,,189000,TRUE,Pay Utility,254702346515 - ELIZABETH ACHIENG NGOME,,KDE
QD79Y4EWB9,07/04/2022 07:22,07/04/2022 07:22,Pay Bill from 0700851010 - Njenga    Kuria Acc. kca,Completed,16000,,179000,TRUE,Pay Utility,0700851010 - Njenga    Kuria,,kca
QD78Y38W06,07/04/2022 06:43,07/04/2022 06:43,Pay Bill from 0746078348 - GERALD ODHIAMBO OWIYO Acc. KCD,Completed,12000,,163000,TRUE,Pay Utility,0746078348 - GERALD ODHIAMBO OWIYO,,KCD
QD62XXH2YS,06/04/2022 22:08,06/04/2022 22:08,Pay Bill from 254701006375 - EZRA MAKORI SERETI Acc. HTA,Completed,10000,,151000,TRUE,Pay Utility,254701006375 - EZRA MAKORI SERETI,,HTA
QD65XIDQIH,06/04/2022 19:15,06/04/2022 19:15,Pay Bill Online from 0715273095 - Stacy Aketch Ochuka Acc. KGK,Completed,15000,,141000,TRUE,Pay Bill Online,0715273095 - Stacy Aketch Ochuka,,KGK
QD61XCU4XJ,06/04/2022 18:23,06/04/2022 18:23,Pay Bill from 254725385966 - JOSEPH MUYA MARUA Acc. KEE,Completed,10000,,126000,TRUE,Pay Utility,254725385966 - JOSEPH MUYA MARUA,,KEE
QD67X4J0TH,06/04/2022 16:48,06/04/2022 16:48,Pay Bill from 254726028330 - JOHN WAMBUA Acc. IFH,Completed,15000,,116000,TRUE,Pay Utility,254726028330 - JOHN WAMBUA,,IFH
QD63X43L57,06/04/2022 16:42,06/04/2022 16:42,Pay Bill from 254716056537 - KIRUI KIPLANGAT HILLARY Acc. JCJ,Completed,16000,,101000,TRUE,Pay Utility with OD via STK,254716056537 - KIRUI KIPLANGAT HILLARY,,JCJ
QD67WOEJQH,06/04/2022 13:06,06/04/2022 13:06,Pay Bill from 254708875278 - ROSEMARY WANJIRU KONYE Acc. HBF,Completed,9000,,85000,TRUE,Pay Utility,254708875278 - ROSEMARY WANJIRU KONYE,,HBF
QD68WME4RY,06/04/2022 12:38,06/04/2022 12:38,Pay Bill from 254721315975 - JOSEPH NDEGWA Acc. H E B,Completed,16000,,76000,TRUE,Pay Utility,254721315975 - JOSEPH NDEGWA,,H
QD68WKWZTU,06/04/2022 12:17,06/04/2022 12:17,Pay Bill from 254702216907 - FAITH MUSA Acc. KBE ,Completed,10000,,60000,TRUE,Pay Utility,254702216907 - FAITH MUSA,,KBE
QD65WHGUOV,06/04/2022 11:28,06/04/2022 11:28,Pay Bill Online from 254797160610 - JAMES MWANIKI Acc. JBI,Completed,20000,,50000,TRUE,Pay Bill Online,254797160610 - JAMES MWANIKI,,JBI
QD67WEUJO3,06/04/2022 10:50,06/04/2022 10:50,Pay Bill from 254725478531 - KIPKORIR KUTO Acc. DFB,Completed,15000,,30000,TRUE,Pay Utility,254725478531 - KIPKORIR KUTO,,DFB
QD68WE1VUA,06/04/2022 10:39,06/04/2022 10:39,Pay Bill from 254723488259 - WILSON OKITE OKITE Acc. HCA,Completed,15000,,15000,TRUE,Pay Utility with OD via STK,254723488259 - WILSON OKITE OKITE,,HCA
QD67WD54RV,06/04/2022 10:26,06/04/2022 10:26,Utility Account to Organization Settlement Account,Completed,,-512500,0,TRUE,Utility Account to Organization Settlement Account,979524 - ANCIENT WELLS PROPERTY MANAGERS 2,,
QD61WAFCLB,06/04/2022 09:45,06/04/2022 09:45,Pay Bill from 254722136450 - MARY EVERLYN Acc. JAI,Completed,20000,,512500,TRUE,Pay Utility,254722136450 - MARY EVERLYN,,JAI
QD67W3MZZ5,06/04/2022 07:51,06/04/2022 07:51,Pay Bill Online from 254718138578 - PAULINE KIOKO Acc. KFD,Completed,12000,,492500,TRUE,Pay Bill Online,254718138578 - PAULINE KIOKO,,KFD
QD60W1HI3E,06/04/2022 06:54,06/04/2022 06:54,Pay Bill from 254704833344 - LOISE KIMANI Acc. jfa,Completed,20000,,480500,TRUE,Pay Utility,254704833344 - LOISE KIMANI,,jfa
QD62W1EO7O,06/04/2022 06:51,06/04/2022 06:51,Pay Bill Online from 254725381062 - VICTOR MAITHYA Acc. HEG,Completed,3000,,460500,TRUE,Pay Utility with OD Online,254725381062 - VICTOR MAITHYA,,HEG
QD61W076R9,06/04/2022 05:02,06/04/2022 05:02,Pay Bill Online from 254722521028 - CHARLES MONYONCHO Acc. ICB,Completed,17000,,457500,TRUE,Pay Bill Online,254722521028 - CHARLES MONYONCHO,,ICB
QD52VXBAR0,05/04/2022 22:50,05/04/2022 22:50,Pay Bill Online from 254718663397 - JIMMY MUNYAO NZIOKI Acc. DCB,Completed,16000,,440500,TRUE,Pay Bill Online,254718663397 - JIMMY MUNYAO NZIOKI,,DCB
QD50VW20IM,05/04/2022 22:15,05/04/2022 22:15,Pay Bill Online from 254715002789 - ERICK NGUGI MAINA Acc. HAG,Completed,16000,,424500,TRUE,Pay Bill Online,254715002789 - ERICK NGUGI MAINA,,HAG
QD58VVD5A8,05/04/2022 22:00,05/04/2022 22:00,Pay Bill from 254700557767 - BAKHITA MWENDE MUANGE Acc. kcb,Completed,16000,,408500,TRUE,Pay Utility,254700557767 - BAKHITA MWENDE MUANGE,,kcb
QD56VV8CHW,05/04/2022 21:58,05/04/2022 21:58,Pay Bill from 254796069018 - PEACE KIMEU Acc. Hdg,Completed,15000,,392500,TRUE,Pay Utility,254796069018 - PEACE KIMEU,,Hdg
QD57VUS4MR,05/04/2022 21:50,05/04/2022 21:50,Business Pay Bill by 488519 - NCBA  Bank M-pesa Acc. JCD via API,Completed,15000,,377500,TRUE,Business Pay Bill via API,488519 - NCBA  Bank M-pesa,,JCD
QD51VUJZXN,05/04/2022 21:46,05/04/2022 21:46,Pay Bill from 254712040302 - EMMANUEL MWARO BARASA Acc. KEA,Completed,16000,,362500,TRUE,Pay Utility,254712040302 - EMMANUEL MWARO BARASA,,KEA
QD51VU78G9,05/04/2022 21:40,05/04/2022 21:40,Pay Bill Online from 254713404029 - ANNE ISEUNA Acc. DED,Completed,20000,,346500,TRUE,Pay Utility with OD Online,254713404029 - ANNE ISEUNA,,DED
QD58VTHRPY,05/04/2022 21:29,05/04/2022 21:29,Pay Bill from 254724466518 - EUNICE NDUTA Acc. KFF,Completed,9500,,326500,TRUE,Pay Utility,254724466518 - EUNICE NDUTA,,KFF
QD52VS3WNU,05/04/2022 21:09,05/04/2022 21:09,Pay Bill Online from 254725218904 - SALOME MUTHONI MWANGI Acc. KFJ,Completed,15000,,317000,TRUE,Pay Bill Online,254725218904 - SALOME MUTHONI MWANGI,,KFJ
QD53VFNFUT,05/04/2022 19:03,05/04/2022 19:03,Pay Bill Online from 254720620070 - Michelle Mwihaki Ngaruiya Acc. JEB,Completed,15000,,302000,TRUE,Pay Utility with OD Online,254720620070 - Michelle Mwihaki Ngaruiya,,JEB
QD55VAIHAT,05/04/2022 18:12,05/04/2022 18:12,Pay Bill from 254720802644 - MESHACK MAXWELL GANDA Acc. HAB,Completed,15000,,287000,TRUE,Pay Utility,254720802644 - MESHACK MAXWELL GANDA,,HAB
QD59V8Z8AR,05/04/2022 17:55,05/04/2022 17:55,Pay Bill Online from 254715892656 - DENNIS MUSYOKA MUOKI Acc. KFA,Completed,16000,,272000,TRUE,Pay Bill Online,254715892656 - DENNIS MUSYOKA MUOKI,,KFA
QD52V8DFNM,05/04/2022 17:49,05/04/2022 17:49,Pay Bill from 254715591919 - JOHN O OCHIENG Acc. hcc,Completed,10000,,256000,TRUE,Pay Utility,254715591919 - JOHN O OCHIENG,,hcc
QD58V553S6,05/04/2022 17:11,05/04/2022 17:11,Pay Bill from 254712974871 - PAULA WANJIKU GATUI Acc. hea,Completed,16000,,246000,TRUE,Pay Utility,254712974871 - PAULA WANJIKU GATUI,,hea
QD59UYJ62D,05/04/2022 15:43,05/04/2022 15:43,Pay Bill from 254792584569 - LUCY MWALIMO Acc. IAD,Completed,11000,,230000,TRUE,Pay Utility,254792584569 - LUCY MWALIMO,,IAD
QD55UWLVR9,05/04/2022 15:15,05/04/2022 15:15,Pay Bill from 254721115404 - Justine Fayuma Okwemba Acc. HAA,Completed,17000,,219000,TRUE,Pay Utility with OD via STK,254721115404 - Justine Fayuma Okwemba,,HAA
QD59UVQMBT,05/04/2022 15:03,05/04/2022 15:03,Pay Bill from 254723929380 - RHODAH K WAMBUA Acc. HEF,Completed,9500,,202000,TRUE,Pay Utility,254723929380 - RHODAH K WAMBUA,,HEF
QD58UUVEJY,05/04/2022 14:50,05/04/2022 14:50,Pay Bill from 254706144834 - WILKISTER OSUMO Acc. HFB,Completed,15000,,192500,TRUE,Pay Utility,254706144834 - WILKISTER OSUMO,,HFB
QD53UU1ZNT,05/04/2022 14:38,05/04/2022 14:38,Pay Bill from 254740579741 - MUHINDI MULINYA Acc. HGG,Completed,15000,,177500,TRUE,Pay Utility,254740579741 - MUHINDI MULINYA,,HGG
QD59UT45O7,05/04/2022 14:25,05/04/2022 14:25,Pay Bill from 254713281251 - ERIC KIAMA Acc. JDI,Completed,20000,,162500,TRUE,Pay Utility,254713281251 - ERIC KIAMA,,JDI
QD51UROLLN,05/04/2022 14:05,05/04/2022 14:05,Pay Bill from 254717438676 - SHIHAB THIIRU Acc. IEI,Completed,15000,,142500,TRUE,Pay Utility with OD via STK,254717438676 - SHIHAB THIIRU,,IEI
QD52UPJFIK,05/04/2022 13:35,05/04/2022 13:35,Pay Bill from 254723017892 - JUDY MUTHEU Acc. ICI,Completed,4000,,127500,TRUE,Pay Utility,254723017892 - JUDY MUTHEU,,ICI
QD51UOCK37,05/04/2022 13:18,05/04/2022 13:18,Pay Bill from 254719779657 - SAMUEL NJOROGE Acc. JGA,Completed,5000,,123500,TRUE,Pay Utility with OD via STK,254719779657 - SAMUEL NJOROGE,,JGA
QD57ULX7NX,05/04/2022 12:44,05/04/2022 12:44,Pay Bill from 254702152790 - Michelle Ndunge Kyalo Acc. IDE,Completed,8000,,118500,TRUE,Pay Utility,254702152790 - Michelle Ndunge Kyalo,,IDE
QD58UKVIAY,05/04/2022 12:29,05/04/2022 12:29,Pay Bill from 254714814264 - PATRICIA NZOMO Acc. Hbg,Completed,16000,,110500,TRUE,Pay Utility,254714814264 - PATRICIA NZOMO,,Hbg
QD56UJ5V42,05/04/2022 12:05,05/04/2022 12:05,Pay Bill from 254702355678 - JOHN NJOROGE GICHERU Acc. ITE,Completed,10000,,94500,TRUE,Pay Utility,254702355678 - JOHN NJOROGE GICHERU,,ITE
QD57UIWH5Z,05/04/2022 12:01,05/04/2022 12:01,Pay Bill from 254723499628 - CLINTON JOSEPH MUHARI Acc. hfh,Completed,16000,,84500,TRUE,Pay Utility,254723499628 - CLINTON JOSEPH MUHARI,,hfh
QD53UIL54P,05/04/2022 11:56,05/04/2022 11:56,Pay Bill from 254720814822 - JAMES OTIENO OPAR Acc. Jgj,Completed,2500,,68500,TRUE,Pay Utility,254720814822 - JAMES OTIENO OPAR,,Jgj
QD53UE0423,05/04/2022 10:49,05/04/2022 10:49,Pay Bill from 254701047939 - Cyrus Wahome Acc. JAH,Completed,13000,,66000,TRUE,Pay Utility,254701047939 - Cyrus Wahome,,JAH
QD53UBW75X,05/04/2022 10:18,05/04/2022 10:18,Pay Bill from 254720496449 - STANLEY KIPKOECH RONO Acc. FBE,Completed,6000,,53000,TRUE,Pay Utility,254720496449 - STANLEY KIPKOECH RONO,,FBE
QD52UALLFA,05/04/2022 09:58,05/04/2022 09:58,Pay Bill Online from 0757699775 - BENARD MUIA MUTUA Acc. HCB,Completed,16000,,47000,TRUE,Pay Utility with OD Online,0757699775 - BENARD MUIA MUTUA,,HCB
QD58U9WZVQ,05/04/2022 09:48,05/04/2022 09:48,Pay Bill from 254724821898 - ALLAN GISONI NYANGARESI Acc. DBA,Completed,16000,,31000,TRUE,Pay Utility,254724821898 - ALLAN GISONI NYANGARESI,,DBA
QD55U9PS8P,05/04/2022 09:45,05/04/2022 09:45,Pay Bill from 254720375006 - JACOB KANGOGO Acc. IBA,Completed,15000,,15000,TRUE,Pay Utility,254720375006 - JACOB KANGOGO,,IBA
QD52U3DI9E,05/04/2022 07:58,05/04/2022 07:58,Utility Account to Organization Settlement Account,Completed,,-257500,0,TRUE,Utility Account to Organization Settlement Account,979524 - ANCIENT WELLS PROPERTY MANAGERS 2,,
QD51TYMQS7,05/04/2022 00:35,05/04/2022 00:35,Pay Bill Online from 254712187712 - JUDELEEN SHILOBELE AHINDUKHA Acc. IEA,Completed,16000,,257500,TRUE,Pay Bill Online,254712187712 - JUDELEEN SHILOBELE AHINDUKHA,,IEA
QD40TSMY2A,04/04/2022 21:22,04/04/2022 21:22,Pay Bill Online from 254714563486 - BRIAN MMATA MUSERA Acc. KBJ,Completed,16000,,241500,TRUE,Pay Bill Online,254714563486 - BRIAN MMATA MUSERA,,KBJ
QD40TR9A3W,04/04/2022 21:02,04/04/2022 21:02,Pay Bill from 0115702401 - John Kamau Kanyiri Acc. HFF,Completed,10000,,225500,TRUE,Pay Utility,0115702401 - John Kamau Kanyiri,,HFF
QD41TP2AQT,04/04/2022 20:35,04/04/2022 20:35,Pay Bill Online from 254710202776 - KELVIN KARIMI MACHARIA Acc. FAD,Completed,11000,,215500,TRUE,Pay Bill Online,254710202776 - KELVIN KARIMI MACHARIA,,FAD
QD46TP22AS,04/04/2022 20:35,04/04/2022 20:35,Pay Bill from 254725771056 - CHARLES MURAGURI Acc. FCE,Completed,15000,,204500,TRUE,Pay Utility,254725771056 - CHARLES MURAGURI,,FCE
QD49TOTIDL,04/04/2022 20:32,04/04/2022 20:32,Pay Bill from 254720351482 - Cheruiyot Langat Brian Acc. dfa,Completed,15000,,189500,TRUE,Pay Utility,254720351482 - Cheruiyot Langat Brian,,dfa
QD47TMI1O3,04/04/2022 20:08,04/04/2022 20:08,Pay Bill from 254720278119 - LINDAH OGAWO Acc. KFE,Completed,9500,,174500,TRUE,Pay Utility,254720278119 - LINDAH OGAWO,,KFE
QD42TMF26S,04/04/2022 20:07,04/04/2022 20:07,Pay Bill Online from 254722769473 - SAMSON CHALO Acc. IAB,Completed,15000,,165000,TRUE,Pay Utility with OD Online,254722769473 - SAMSON CHALO,,IAB
QD40TBQTNW,04/04/2022 18:26,04/04/2022 18:26,Pay Bill from 254711163049 - OYUGI OCHIENG Acc. FCB,Completed,16000,,150000,TRUE,Pay Utility,254711163049 - OYUGI OCHIENG,,FCB
QD42T1YDL4,04/04/2022 16:30,04/04/2022 16:30,Pay Bill from 254799181999 - Catherine Muteti Acc. HED19,Completed,19000,,134000,TRUE,Pay Utility,254799181999 - Catherine Muteti,,HED19
QD41T036IP,04/04/2022 16:04,04/04/2022 16:04,Pay Bill from 254725754547 - MWACHIRO GEORGE DECHE Acc. DFC,Completed,20000,,115000,TRUE,Pay Utility,254725754547 - MWACHIRO GEORGE DECHE,,DFC
QD45SZE0KX,04/04/2022 15:54,04/04/2022 15:54,Pay Bill from 254728670882 - SHARAD EDWARD ADALA OLUM Acc. KCK,Completed,15000,,95000,TRUE,Pay Utility,254728670882 - SHARAD EDWARD ADALA OLUM,,KCK
QD42SWUS36,04/04/2022 15:17,04/04/2022 15:17,Pay Bill from 254729371750 - DERRICK OTANGA Acc. FEF ,Completed,17000,,80000,TRUE,Pay Utility,254729371750 - DERRICK OTANGA,,FEF
QD43SOP0GZ,04/04/2022 13:22,04/04/2022 13:22,Pay Bill Online from 0757319222 - ATEM KUOL JOHN BOL Acc. FAC,Completed,9500,,63000,TRUE,Pay Bill Online,0757319222 - ATEM KUOL JOHN BOL,,FAC
QD42SMMS66,04/04/2022 12:54,04/04/2022 12:54,Pay Bill from 254723966777 - BONIFACE MUTHAKA NGANGA Acc. IEC,Completed,9000,,53500,TRUE,Pay Utility,254723966777 - BONIFACE MUTHAKA NGANGA,,IEC
QD41SLL86H,04/04/2022 12:39,04/04/2022 12:39,Pay Bill from 254724852503 - GEOFREY YEGO Acc. JFF,Completed,10000,,44500,TRUE,Pay Utility,254724852503 - GEOFREY YEGO,,JFF
QD46SIJA0Q,04/04/2022 11:56,04/04/2022 11:56,Pay Bill from 254729355933 - FELISTAH NJERI WAIRIMU Acc. IDI,Completed,15000,,34500,TRUE,Pay Utility,254729355933 - FELISTAH NJERI WAIRIMU,,IDI
QD49SH3BYL,04/04/2022 11:34,04/04/2022 11:34,Pay Bill from 0717216114 - Felix Njeru Mugambi Acc. kdf,Completed,10000,,19500,TRUE,Pay Utility,0717216114 - Felix Njeru Mugambi,,kdf
QD41SCCV3Z,04/04/2022 10:25,04/04/2022 10:25,Pay Bill from 254715742045 - FRIDAH KIEMA Acc. HGC,Completed,9500,,9500,TRUE,Pay Utility,254715742045 - FRIDAH KIEMA,,HGC
QD40SA55A2,04/04/2022 09:52,04/04/2022 09:52,Utility Account to Organization Settlement Account,Completed,,-430000,0,TRUE,Utility Account to Organization Settlement Account,979524 - ANCIENT WELLS PROPERTY MANAGERS 2,,
QD43RZH2GB,04/04/2022 03:30,04/04/2022 03:30,Pay Bill from 254703555717 - SENGA SALIM Acc. hbb,Completed,5000,,430000,TRUE,Pay Utility,254703555717 - SENGA SALIM,,hbb
QD39RXQR29,03/04/2022 23:21,03/04/2022 23:21,Pay Bill from 0746934144 - Rosemary Wangui Muiruri Acc. ICD,Completed,11000,,425000,TRUE,Pay Utility,0746934144 - Rosemary Wangui Muiruri,,ICD
QD37RW33RZ,03/04/2022 22:20,03/04/2022 22:20,Pay Bill from 254790382466 - Lorraine Mwangi Acc. KGC,Completed,9000,,414000,TRUE,Pay Utility,254790382466 - Lorraine Mwangi,,KGC
QD31RUQNL9,03/04/2022 21:49,03/04/2022 21:49,Pay Bill Online from 254717809935 - LYDIAH WERU Acc. IEF,Completed,11500,,405000,TRUE,Pay Bill Online,254717809935 - LYDIAH WERU,,IEF
QD39RRCGE3,03/04/2022 20:54,03/04/2022 20:54,Pay Bill from 254728084427 - MARY NABWIRE OKELLO Acc. FDF,Completed,16000,,393500,TRUE,Pay Utility,254728084427 - MARY NABWIRE OKELLO,,FDF
QD39RQE0U7,03/04/2022 20:41,03/04/2022 20:40,Pay Bill from 0769714506 - edith      gakii Acc. DDB,Completed,16000,,377500,TRUE,Pay Utility with OD via STK,0769714506 - edith      gakii,,DDB
QD31REMIT1,03/04/2022 18:33,03/04/2022 18:33,Pay Bill Online from 254722728975 - CURTIS MRIGA OMIDO Acc. IAH,Completed,16000,,361500,TRUE,Pay Bill Online,254722728975 - CURTIS MRIGA OMIDO,,IAH
QD30RAL0TS,03/04/2022 17:43,03/04/2022 17:43,Pay Bill Online from 0796121714 - janet   mwikali Acc. KBC,Completed,10000,,345500,TRUE,Pay Bill Online,0796121714 - janet   mwikali,,KBC
QD36R9FE5G,03/04/2022 17:27,03/04/2022 17:27,Pay Bill Online from 254712990240 - GLORY KARIUKI Acc. KAA,Completed,16000,,335500,TRUE,Pay Bill Online,254712990240 - GLORY KARIUKI,,KAA
QD33R8XQDL,03/04/2022 17:21,03/04/2022 17:21,Pay Bill Online from 254790627132 - Everline Mutave Kiio Acc. IGG,Completed,8000,,319500,TRUE,Pay Bill Online,254790627132 - Everline Mutave Kiio,,IGG
QD36R1WB0A,03/04/2022 15:40,03/04/2022 15:40,Pay Bill Online from 254718233980 - KAREN ASWANI Acc. HEC,Completed,10500,,311500,TRUE,Pay Bill Online,254718233980 - KAREN ASWANI,,HEC
QD35R120EB,03/04/2022 15:28,03/04/2022 15:28,Pay Bill from 254729160700 - MICAH NDUNGI Acc. HFE,Completed,10500,,301000,TRUE,Pay Utility,254729160700 - MICAH NDUNGI,,HFE
QD30QZ3UZQ,03/04/2022 14:59,03/04/2022 14:59,Pay Bill from 0791379873 - Joseph Kyalo Sila Acc. JFB,Completed,31000,,290500,TRUE,Pay Utility,0791379873 - Joseph Kyalo Sila,,JFB
QD35QVOD9R,03/04/2022 14:08,03/04/2022 14:08,Pay Bill from 254704934557 - BAKARI KITSAKA Acc. JEI,Completed,20000,,259500,TRUE,Pay Utility,254704934557 - BAKARI KITSAKA,,JEI
QD30QVHEM0,03/04/2022 14:05,03/04/2022 14:05,Pay Bill from 254721780448 - EVERLYNE MIDEVA CHOGO Acc. JCA,Completed,20000,,239500,TRUE,Pay Utility,254721780448 - EVERLYNE MIDEVA CHOGO,,JCA
QD30QPZVS0,03/04/2022 12:38,03/04/2022 12:38,Pay Bill from 254718253322 - DUNCAN MOCHOGE Acc. JFJ,Completed,31000,,219500,TRUE,Pay Utility,254718253322 - DUNCAN MOCHOGE,,JFJ
QD30QPIA42,03/04/2022 12:30,03/04/2022 12:30,Pay Bill from 0706563358 - HARRIET NYANCHAMA NYABERI Acc. FCC,Completed,9000,,188500,TRUE,Pay Utility,0706563358 - HARRIET NYANCHAMA NYABERI,,FCC
QD37QM3I21,03/04/2022 11:31,03/04/2022 11:31,Pay Bill Online from 254708300413 - ROBINSON AYAKO Acc. KEH,Completed,10000,,179500,TRUE,Pay Bill Online,254708300413 - ROBINSON AYAKO,,KEH
QD36QKDHEG,03/04/2022 11:00,03/04/2022 11:00,Pay Bill Online from 254715657094 - BONVENTURE MASINGA MUTINDA Acc. JEH,Completed,16000,,169500,TRUE,Pay Bill Online,254715657094 - BONVENTURE MASINGA MUTINDA,,JEH
QD33QFCUA5,03/04/2022 09:32,03/04/2022 09:32,Pay Bill from 254719747910 - KEVIN NDERITU GAKINGO Acc. iDD,Completed,11000,,153500,TRUE,Pay Utility,254719747910 - KEVIN NDERITU GAKINGO,,iDD
QD30Q9PXNY,03/04/2022 07:35,03/04/2022 07:35,Pay Bill from 254718284151 - EVERLINE MATHEKA Acc. KGG,Completed,10000,,142500,TRUE,Pay Utility,254718284151 - EVERLINE MATHEKA,,KGG
QD28Q51X3U,02/04/2022 23:44,02/04/2022 23:44,Pay Bill Online from 254722258756 - DAVID KEMBOI Acc. HDA,Completed,18000,,132500,TRUE,Pay Bill Online,254722258756 - DAVID KEMBOI,,HDA
QD29Q3RR0V,02/04/2022 22:56,02/04/2022 22:56,Pay Bill from 254725549603 - ELIZABETH OKELLO Acc. IDC,Completed,9500,,114500,TRUE,Pay Utility,254725549603 - ELIZABETH OKELLO,,IDC
QD20Q31APA,02/04/2022 22:35,02/04/2022 22:35,Pay Bill from 254703935626 - DAVID NGARI ITA Acc. FCD,Completed,1000,,105000,TRUE,Pay Utility,254703935626 - DAVID NGARI ITA,,FCD
QD22PQUORA,02/04/2022 19:47,02/04/2022 19:47,Pay Bill Online from 254721465713 - RHODA WAMBUI MWANGI Acc. Jfh,Completed,17000,,104000,TRUE,Pay Bill Online,254721465713 - RHODA WAMBUI MWANGI,,Jfh
QD21PO68TJ,02/04/2022 19:24,02/04/2022 19:24,Pay Bill from 254798844460 - WYCLIFFE ODHIAMBO NYAGOA Acc. KAC,Completed,10000,,87000,TRUE,Pay Utility,254798844460 - WYCLIFFE ODHIAMBO NYAGOA,,KAC
QD20PEYASO,02/04/2022 17:52,02/04/2022 17:52,Pay Bill from 254723263681 - EDWIN KORIR Acc. kdc,Completed,10000,,77000,TRUE,Pay Utility,254723263681 - EDWIN KORIR,,kdc
QD23PEN6L9,02/04/2022 17:49,02/04/2022 17:49,Pay Bill Online from 254742911013 - HANEST AMIMO Acc. IEG,Completed,8000,,67000,TRUE,Pay Utility with OD Online,254742911013 - HANEST AMIMO,,IEG
QD20P932QK,02/04/2022 16:42,02/04/2022 16:42,Pay Bill from 0759829646 - JACKLINE NKATHA KAILIKIA Acc. JDG,Completed,21000,,59000,TRUE,Pay Utility,0759829646 - JACKLINE NKATHA KAILIKIA,,JDG
QD23P7DCWJ,02/04/2022 16:21,02/04/2022 16:21,Pay Bill Online from 254723411873 - FREDRICK CHERUIYOT Acc. jbf,Completed,17000,,38000,TRUE,Pay Bill Online,254723411873 - FREDRICK CHERUIYOT,,jbf
QD20P72M5O,02/04/2022 16:17,02/04/2022 16:17,Pay Bill from 254796292434 - ANTONINA HAYA Acc. HED,Completed,10000,,21000,TRUE,Pay Utility,254796292434 - ANTONINA HAYA,,HED
QD27P3NZXN,02/04/2022 15:32,02/04/2022 15:32,Pay Bill Online from 254711562428 - Lionel Mutune Muoka Acc. KDI,Completed,11000,,11000,TRUE,Pay Bill Online,254711562428 - Lionel Mutune Muoka,,KDI
QD21OXQLST,02/04/2022 14:14,02/04/2022 14:14,Utility Account to Organization Settlement Account,Completed,,-287100,0,TRUE,Utility Account to Organization Settlement Account,979524 - ANCIENT WELLS PROPERTY MANAGERS 2,,
QD21OS0301,02/04/2022 12:59,02/04/2022 12:59,Pay Bill from 254724435274 - WINFRED MBINYA MUNUVE Acc. ICI George,Completed,3100,,287100,TRUE,Pay Utility,254724435274 - WINFRED MBINYA MUNUVE,,ICI
QD27OMYVLF,02/04/2022 11:50,02/04/2022 11:50,Pay Bill from 254729796719 - JACINTA WANJIKU NJERI Acc. FFF,Completed,17000,,284000,TRUE,Pay Utility,254729796719 - JACINTA WANJIKU NJERI,,FFF
QD27OMKQ9V,02/04/2022 11:45,02/04/2022 11:45,Pay Bill Online from 254700187806 - WINNIE OLIVIA AKOTH Acc. jec,Completed,10000,,267000,TRUE,Pay Bill Online,254700187806 - WINNIE OLIVIA AKOTH,,jec
QD29OK49HP,02/04/2022 11:11,02/04/2022 11:11,Pay Bill from 254719398942 - NORAH WAYUA MUNYAO Acc. KDA,Completed,16000,,257000,TRUE,Pay Utility,254719398942 - NORAH WAYUA MUNYAO,,KDA
QD20OGHNV4,02/04/2022 10:19,02/04/2022 10:19,Pay Bill from 254721302658 - JACOB BIRUNDU Acc. HDE,Completed,10000,,241000,TRUE,Pay Utility,254721302658 - JACOB BIRUNDU,,HDE
QD26OG0L3C,02/04/2022 10:12,02/04/2022 10:12,Pay Bill Online from 254714855708 - KIPLANGAT SITIENEI Acc. FAE,Completed,16000,,231000,TRUE,Pay Bill Online,254714855708 - KIPLANGAT SITIENEI,,FAE
QD23O2ZACF,02/04/2022 01:19,02/04/2022 01:19,Pay Bill from 254718284151 - EVERLINE MATHEKA Acc. JAG,Completed,9000,,215000,TRUE,Pay Utility,254718284151 - EVERLINE MATHEKA,,JAG
QD14O1LDN2,01/04/2022 23:36,01/04/2022 23:36,Pay Bill from 254703935626 - DAVID NGARI ITA Acc. FCD,Completed,1000,,206000,TRUE,Pay Utility,254703935626 - DAVID NGARI ITA,,FCD
QD11NSUL8B,01/04/2022 20:44,01/04/2022 20:44,Pay Bill from 254724477912 - SAMUEL MURIMI Acc. HCD,Completed,10000,,205000,TRUE,Pay Utility,254724477912 - SAMUEL MURIMI,,HCD
QD12NKVBC0,01/04/2022 19:27,01/04/2022 19:27,Pay Bill from 254717801919 - MARCELINE AKINYI Acc. IAF,Completed,10000,,195000,TRUE,Pay Utility,254717801919 - MARCELINE AKINYI,,IAF
QD12NKGGHK,01/04/2022 19:24,01/04/2022 19:24,Pay Bill Online from 254728093389 - MOHAMED MUSA ALASOW Acc. KED ,Completed,12000,,185000,TRUE,Pay Bill Online,254728093389 - MOHAMED MUSA ALASOW,,KED
QD10NFTVZC,01/04/2022 18:43,01/04/2022 18:43,Pay Bill from 254729450678 - GRACE NDUNGE Acc. fba,Completed,1000,,173000,TRUE,Pay Utility with OD via STK,254729450678 - GRACE NDUNGE,,fba
QD14NCGSNM,01/04/2022 18:09,01/04/2022 18:09,Pay Bill from 254729450678 - GRACE NDUNGE Acc. fba,Completed,5000,,172000,TRUE,Pay Utility with OD via STK,254729450678 - GRACE NDUNGE,,fba
QD18NCCY9I,01/04/2022 18:08,01/04/2022 18:08,Pay Bill from 0797758628 - jackline nyamari onyango Acc. ICF ,Completed,11000,,167000,TRUE,Pay Utility,0797758628 - jackline nyamari onyango,,ICF
QD12N63YLA,01/04/2022 16:58,01/04/2022 16:58,Pay Bill Online from 254707370896 - OKECH BRIAN BRIAN Acc. FFA,Completed,15000,,156000,TRUE,Pay Bill Online,254707370896 - OKECH BRIAN BRIAN,,FFA
QD12N5E04Q,01/04/2022 16:49,01/04/2022 16:49,Pay Bill from 254728901013 - ALEX MOSE ARWASA Acc. hgd,Completed,10000,,141000,TRUE,Pay Utility,254728901013 - ALEX MOSE ARWASA,,hgd
QD13N533QD,01/04/2022 16:45,01/04/2022 16:45,Pay Bill from 254717726012 - WINFRED MUENI PETER Acc. IDA,Completed,16000,,131000,TRUE,Pay Utility,254717726012 - WINFRED MUENI PETER,,IDA
QD13N26Q1Z,01/04/2022 16:09,01/04/2022 16:09,Pay Bill Online from 254707726441 - JOHN OLOO NYAULA Acc. IEH,Completed,5000,,115000,TRUE,Pay Utility with OD Online,254707726441 - JOHN OLOO NYAULA,,IEH
QD18N1ND76,01/04/2022 16:02,01/04/2022 16:02,Pay Bill from 254720550403 - GRACE WANGONDU Acc. JF1,Completed,20000,,110000,TRUE,Pay Utility,254720550403 - GRACE WANGONDU,,JF1
QD18MZKR18,01/04/2022 15:34,01/04/2022 15:34,Pay Bill Online from 254719134037 - KELVIN KITOO Acc. FAA,Completed,16000,,90000,TRUE,Pay Bill Online,254719134037 - KELVIN KITOO,,FAA
QD12MZJEO8,01/04/2022 15:33,01/04/2022 15:33,Pay Bill from 254723017892 - JUDY MUTHEU Acc. ICI,Completed,29000,,74000,TRUE,Pay Utility with OD via STK,254723017892 - JUDY MUTHEU,,ICI
QD14MXDRV8,01/04/2022 15:04,01/04/2022 15:04,Pay Bill Online from 0724386624 - FATUMA ISSE YUSSUF Acc. FAB,Completed,16000,,45000,TRUE,Pay Utility with OD Online,0724386624 - FATUMA ISSE YUSSUF,,FAB
QD18MWP004,01/04/2022 14:55,01/04/2022 14:55,Pay Bill Online from 254720696119 - DUNCAN OMONDI OKETCH Acc. IAG,Completed,9000,,29000,TRUE,Pay Bill Online,254720696119 - DUNCAN OMONDI OKETCH,,IAG
QD17MUZID9,01/04/2022 14:32,01/04/2022 14:32,Pay Bill from 254714060203 - PATRICK MWANGOMBE MSAWUCHI Acc. KEI,Completed,12000,,20000,TRUE,Pay Utility,254714060203 - PATRICK MWANGOMBE MSAWUCHI,,KEI
QD13MURXOR,01/04/2022 14:29,01/04/2022 14:29,Pay Bill from 254728854349 - JOSEPH MUSYOKA Acc. IBG,Completed,8000,,8000,TRUE,Pay Utility with OD via STK,254728854349 - JOSEPH MUSYOKA,,IBG
QD15MQI2R5,01/04/2022 13:33,01/04/2022 13:33,Utility Account to Organization Settlement Account,Completed,,-245000,0,TRUE,Utility Account to Organization Settlement Account,979524 - ANCIENT WELLS PROPERTY MANAGERS 2,,
QD17MP0735,01/04/2022 13:13,01/04/2022 13:13,Pay Bill Online from 254795510441 - LEWIS MUEMA Acc. KEB,Completed,16000,,245000,TRUE,Pay Bill Online,254795510441 - LEWIS MUEMA,,KEB
QD17MN0TOT,01/04/2022 12:45,01/04/2022 12:45,Pay Bill Online from 254706158280 - patience mutheu mbevi Acc. KFC,Completed,10000,,229000,TRUE,Pay Bill Online,254706158280 - patience mutheu mbevi,,KFC
QD10MMDGRA,01/04/2022 12:37,01/04/2022 12:37,Pay Bill from 254720814822 - JAMES OTIENO OPAR Acc. Jgj,Completed,3000,,219000,TRUE,Pay Utility,254720814822 - JAMES OTIENO OPAR,,Jgj
QD14ML1QWW,01/04/2022 12:18,01/04/2022 12:18,Pay Bill from 254703180395 - JANE NYAGUTHII MWAGO Acc. IBE,Completed,8000,,216000,TRUE,Pay Utility,254703180395 - JANE NYAGUTHII MWAGO,,IBE
QD15MJO7GR,01/04/2022 11:59,01/04/2022 11:59,Pay Bill Online from 254716315144 - PETER MUNYIRI WAROTERE Acc. FBB,Completed,16000,,208000,TRUE,Pay Bill Online,254716315144 - PETER MUNYIRI WAROTERE,,FBB
QD15MJGMCJ,01/04/2022 11:56,01/04/2022 11:56,Pay Bill Online from 254706549634 - CLINTON OMBASA Acc. FDB,Completed,18000,,192000,TRUE,Pay Utility with OD Online,254706549634 - CLINTON OMBASA,,FDB
QD17MHS3HZ,01/04/2022 11:32,01/04/2022 11:32,Pay Bill from 0720015317 - mohamed maalim hassan Acc. FBC,Completed,20000,,174000,TRUE,Pay Utility,0720015317 - mohamed maalim hassan,,FBC
QD12MHNQKO,01/04/2022 11:30,01/04/2022 11:30,Pay Bill from 254708570729 - MARY OGOLLA Acc. HOUSE KAD,Completed,12000,,154000,TRUE,Pay Utility,254708570729 - MARY OGOLLA,,HOUSE
QD13MH5Y1J,01/04/2022 11:23,01/04/2022 11:23,Pay Bill Online from 254726001437 - FESTUS MUNYIRI MAINA Acc. IFF,Completed,10000,,142000,TRUE,Pay Bill Online,254726001437 - FESTUS MUNYIRI MAINA,,IFF
QD19MDUV67,01/04/2022 10:36,01/04/2022 10:36,Pay Bill Online from 254723901777 - EVANS YEBEI Acc. KCH,Completed,10000,,132000,TRUE,Pay Bill Online,254723901777 - EVANS YEBEI,,KCH
QD18MAQFWS,01/04/2022 09:50,01/04/2022 09:50,Pay Bill from 254729450678 - GRACE NDUNGE Acc. fba,Completed,4000,,122000,TRUE,Pay Utility with OD via STK,254729450678 - GRACE NDUNGE,,fba
QD12M48198,01/04/2022 08:05,01/04/2022 08:05,Pay Bill from 254726172957 - VINCENT OLIENG' Acc. HBC,Completed,10000,,118000,TRUE,Pay Utility,254726172957 - VINCENT OLIENG',,HBC
