Receipt No.,Completion Time,Initiation Time,Details,Transaction Status,Paid In,Withdrawn,Balance,Balance Confirmed,Reason Type,Other Party Info,Linked Transaction ID,A/C No.
PL76QZYB00,07/12/2021 13:06,07/12/2021 13:06,Pay Bill from 254723954911 - JAMES KILAVI Acc. ICG,Completed,200,,600,TRUE,Pay Utility,254723954911 - JAMES KILAVI,,ICG
PL79QSV545,07/12/2021 11:09,07/12/2021 11:09,Pay Bill from 254703108159 - JOICE OGOLLA Acc. V50,Completed,400,,400,TRUE,Pay Utility,254703108159 - JOICE OGOLLA,,V50
PL76QO56FK,07/12/2021 09:50,07/12/2021 09:50,Utility Account to Organization Settlement Account,Completed,,-27900,0,TRUE,Utility Account to Organization Settlement Account,846783 - ANCIENT WELLS LTD 4,,
PL75QMU8CR,07/12/2021 09:28,07/12/2021 09:28,Pay Bill Online from 254723643548 - KEVIN OUKO Acc. FDD,Completed,1000,,27900,TRUE,Pay Bill Online,254723643548 - KEVIN OUKO,,FDD
PL70QK15CG,07/12/2021 08:36,07/12/2021 08:36,Pay Bill Online from 254720381965 - JAMES NGUGI MWANIKI Acc. JBI,Completed,3000,,26900,TRUE,Pay Bill Online,254720381965 - JAMES NGUGI MWANIKI,,JBI
PL76QH8YDS,07/12/2021 07:35,07/12/2021 07:35,Pay Bill from 254717140158 - Peter Wanjiru Acc. HFB,Completed,400,,23900,TRUE,Pay Utility,254717140158 - Peter Wanjiru,,HFB
PL71QFUYBF,07/12/2021 06:55,07/12/2021 06:55,Pay Bill from 254726465584 - JULIANA MUKELI MUTUNGA Acc. v4,Completed,400,,23500,TRUE,Pay Utility,254726465584 - JULIANA MUKELI MUTUNGA,,v4
PL78QE59TA,07/12/2021 04:11,07/12/2021 04:11,Pay Bill Online from 254715020357 - ELIZABETH NJERI WARARI Acc. C2,Completed,400,,23100,TRUE,Pay Bill Online,254715020357 - ELIZABETH NJERI WARARI,,C2
PL78QDSQXM,07/12/2021 02:16,07/12/2021 02:16,Pay Bill from 254723499628 - CLINTON JOSEPH MUHARI Acc. hfh,Completed,400,,22700,TRUE,Pay Utility,254723499628 - CLINTON JOSEPH MUHARI,,hfh
PL62QCJT2Y,06/12/2021 23:26,06/12/2021 23:26,Pay Bill from 254726687555 - ELIUD MUTHURE MICHENI Acc. KAI,Completed,600,,22300,TRUE,Pay Utility,254726687555 - ELIUD MUTHURE MICHENI,,KAI
PL66QBIGDM,06/12/2021 22:38,06/12/2021 22:38,Pay Bill from 254721539716 - OCTAVIAN MWANYALO Acc. C6,Completed,200,,21700,TRUE,Pay Utility,254721539716 - OCTAVIAN MWANYALO,,C6
PL63QARUM3,06/12/2021 22:15,06/12/2021 22:15,Pay Bill from 254718818610 - HANNAH NALIAKA Acc. V23,Completed,200,,21500,TRUE,Pay Utility,254718818610 - HANNAH NALIAKA,,V23
PL66Q5I4MG,06/12/2021 20:43,06/12/2021 20:43,Pay Bill from 254724466518 - EUNICE NDUTA Acc. kff,Completed,1000,,21300,TRUE,Pay Utility,254724466518 - EUNICE NDUTA,,kff
PL67PUQXA3,06/12/2021 18:50,06/12/2021 18:50,Pay Bill from 254726028330 - JOHN WAMBUA Acc. IFH,Completed,1200,,20300,TRUE,Pay Utility,254726028330 - JOHN WAMBUA,,IFH
PL60PL4352,06/12/2021 16:52,06/12/2021 16:52,Pay Bill from 254791318982 - ADULLAHI HASSAN Acc. JCI,Completed,2400,,19100,TRUE,Pay Utility,254791318982 - ADULLAHI HASSAN,,JCI
PL66PKHRMK,06/12/2021 16:42,06/12/2021 16:42,Pay Bill from 254729355933 - FELISTAH NJERI WAIRIMU Acc. IDI,Completed,2000,,16700,TRUE,Pay Utility,254729355933 - FELISTAH NJERI WAIRIMU,,IDI
PL69PK36LJ,06/12/2021 16:37,06/12/2021 16:37,Pay Bill Online from 254700050190 - ANGELA GATHONI NDEGWA Acc. KCD,Completed,2400,,14700,TRUE,Pay Bill Online,254700050190 - ANGELA GATHONI NDEGWA,,KCD
PL66PIWXKI,06/12/2021 16:19,06/12/2021 16:19,Pay Bill from 254702144275 - CAROLYNE MAKENA KARIA Acc. JFB,Completed,400,,12300,TRUE,Pay Utility,254702144275 - CAROLYNE MAKENA KARIA,,JFB
PL61PGMLH5,06/12/2021 15:43,06/12/2021 15:43,Pay Bill from 254717577871 - KELVIN MUTUMA KINYUA Acc. B1,Completed,600,,11900,TRUE,Pay Utility,254717577871 - KELVIN MUTUMA KINYUA,,B1
PL65PEB7CB,06/12/2021 15:05,06/12/2021 15:05,Pay Bill from 254718233980 - KAREN ASWANI Acc. HEC,Completed,400,,11300,TRUE,Pay Utility,254718233980 - KAREN ASWANI,,HEC
PL64PD89K4,06/12/2021 14:48,06/12/2021 14:48,Pay Bill from 0711769778 - PROTASIA BONIPHACE MANOSA Acc. IBB,Completed,1600,,10900,TRUE,Pay Utility,0711769778 - PROTASIA BONIPHACE MANOSA,,IBB
PL64PB16S8,06/12/2021 14:12,06/12/2021 14:12,Pay Bill from 254703453863 - EMILY MUNANIE MALUKI Acc. KEC,Completed,1200,,9300,TRUE,Pay Utility,254703453863 - EMILY MUNANIE MALUKI,,KEC
PL67P741RD,06/12/2021 13:10,06/12/2021 13:10,Pay Bill Online from 254710382992 - SIMON KAMAU MUIRURI Acc. JCD,Completed,400,,8100,TRUE,Pay Bill Online,254710382992 - SIMON KAMAU MUIRURI,,JCD
PL64P6JRTS,06/12/2021 13:01,06/12/2021 13:01,Pay Bill Online from 254724882554 - ALPHONCE WAMBUA NGELI Acc. JDA,Completed,1600,,7700,TRUE,Pay Bill Online,254724882554 - ALPHONCE WAMBUA NGELI,,JDA
PL67OYU3Y7,06/12/2021 10:53,06/12/2021 10:53,Pay Bill from 0113803309 - DORRIS MUENI MUTIE Acc. House FBC,Completed,600,,6100,TRUE,Pay Utility,0113803309 - DORRIS MUENI MUTIE,,House
PL69OYN51R,06/12/2021 10:49,06/12/2021 10:49,Pay Bill from 254712974871 - PAULA WANJIKU GATUI Acc. HEA,Completed,600,,5500,TRUE,Pay Utility,254712974871 - PAULA WANJIKU GATUI,,HEA
PL67OYM7IH,06/12/2021 10:49,06/12/2021 10:49,Pay Bill from 254716702294 - DANIEL MULATI Acc. KBB,Completed,800,,4900,TRUE,Pay Utility,254716702294 - DANIEL MULATI,,KBB
PL66OKG0Q0,06/12/2021 00:05,06/12/2021 00:05,Pay Bill Online from 0769929240 - Calvince Klein Alal Acc. v02,Completed,1000,,4100,TRUE,Pay Bill Online,0769929240 - Calvince Klein Alal,,v02
PL53OJDTFX,05/12/2021 22:52,05/12/2021 22:52,Pay Bill from 254708915764 - GEORGE WAHOME Acc. V18,Completed,200,,3100,TRUE,Pay Utility,254708915764 - GEORGE WAHOME,,V18
PL53OHWHFX,05/12/2021 22:03,05/12/2021 22:03,Pay Bill from 254717985596 - NICHOLAS KIPKOECH BUTIA Acc. hcf,Completed,1000,,2900,TRUE,Pay Utility,254717985596 - NICHOLAS KIPKOECH BUTIA,,hcf
PL57OEXX1H,05/12/2021 21:04,05/12/2021 21:04,Pay Bill Online from 254718138578 - PAULINE KIOKO Acc. KFD,Completed,400,,1900,TRUE,Pay Bill Online,254718138578 - PAULINE KIOKO,,KFD
PL55OEXJXH,05/12/2021 21:04,05/12/2021 21:04,Pay Bill from 254712091662 - BENARD OMONDI ROBY Acc. V6,Completed,400,,1500,TRUE,Pay Utility,254712091662 - BENARD OMONDI ROBY,,V6
PL59OEE42L,05/12/2021 20:55,05/12/2021 20:55,Pay Bill from 254722578070 - SAMUEL MACHARIA Acc. v42,Completed,400,,1100,TRUE,Pay Utility,254722578070 - SAMUEL MACHARIA,,v42
PL51O8G2B5,05/12/2021 19:39,05/12/2021 19:39,Pay Bill from 254715892656 - DENNIS MUSYOKA MUOKI Acc. Kfa,Completed,200,,700,TRUE,Pay Utility,254715892656 - DENNIS MUSYOKA MUOKI,,Kfa
PL54O2QVLU,05/12/2021 18:36,05/12/2021 18:36,Pay Bill from 254722444622 - CHARITY KAGWAINI Acc. ffd,Completed,500,,500,TRUE,Pay Utility,254722444622 - CHARITY KAGWAINI,,ffd
PL53O0D4AH,05/12/2021 18:04,05/12/2021 18:04,Utility Account to Organization Settlement Account,Completed,,-9050,0,TRUE,Utility Account to Organization Settlement Account,846783 - ANCIENT WELLS LTD 4,,
PL52NRZAN4,05/12/2021 16:02,05/12/2021 16:02,Pay Bill from 254718672924 - LILIAN CHEBET NGENO Acc. KGD,Completed,60,,9050,TRUE,Pay Utility,254718672924 - LILIAN CHEBET NGENO,,KGD
PL55NRXGLZ,05/12/2021 16:01,05/12/2021 16:01,Pay Bill from 254718672924 - LILIAN CHEBET NGENO Acc. KGD,Completed,90,,8990,TRUE,Pay Utility,254718672924 - LILIAN CHEBET NGENO,,KGD
PL54NRVQKW,05/12/2021 16:01,05/12/2021 16:01,Pay Bill from 254718672924 - LILIAN CHEBET NGENO Acc. KGD,Completed,100,,8900,TRUE,Pay Utility,254718672924 - LILIAN CHEBET NGENO,,KGD
PL57NRIPZ9,05/12/2021 15:55,05/12/2021 15:55,Pay Bill from 254720107609 - DENNIS OGENDI BARAKE Acc. JAJ,Completed,1000,,8800,TRUE,Pay Utility,254720107609 - DENNIS OGENDI BARAKE,,JAJ
PL52NM916Q,05/12/2021 14:32,05/12/2021 14:32,Pay Bill from 254708570729 - MARY OGOLLA Acc. KAD,Completed,600,,7800,TRUE,Pay Utility,254708570729 - MARY OGOLLA,,KAD
PL53NFRHJ7,05/12/2021 12:40,05/12/2021 12:40,Pay Bill from 0745378455 - harriet nyanchama nyaberi Acc. FCC,Completed,400,,7200,TRUE,Pay Utility,0745378455 - harriet nyanchama nyaberi,,FCC
PL50NEJ7SO,05/12/2021 12:17,05/12/2021 12:17,Pay Bill from 254723929380 - RHODAH K WAMBUA Acc. HEF,Completed,800,,6800,TRUE,Pay Utility,254723929380 - RHODAH K WAMBUA,,HEF
PL59NC0045,05/12/2021 11:29,05/12/2021 11:29,Pay Bill from 254720623535 - JOSEPH MUTURI KAMAU Acc. V32,Completed,200,,6000,TRUE,Pay Utility,254720623535 - JOSEPH MUTURI KAMAU,,V32
PL59N79LZT,05/12/2021 09:57,05/12/2021 09:57,Pay Bill from 254723815832 - SEMEKIA ONDIALA Acc. V38,Completed,400,,5800,TRUE,Pay Utility,254723815832 - SEMEKIA ONDIALA,,V38
PL52N77MK8,05/12/2021 09:56,05/12/2021 09:56,Pay Bill Online from 254721465713 - RHODA WAMBUI MWANGI Acc. jfh,Completed,800,,5400,TRUE,Pay Bill Online,254721465713 - RHODA WAMBUI MWANGI,,jfh
PL46MVM5FG,04/12/2021 22:47,04/12/2021 22:47,Pay Bill Online from 254725218904 - SALOME MUTHONI MWANGI Acc. KFJ,Completed,1000,,4600,TRUE,Pay Bill Online,254725218904 - SALOME MUTHONI MWANGI,,KFJ
PL45MT2FWZ,04/12/2021 21:42,04/12/2021 21:42,Pay Bill from 254799946039 - LUIS OTIENO Acc. IAE,Completed,800,,3600,TRUE,Pay Utility,254799946039 - LUIS OTIENO,,IAE
PL49MOLHQ9,04/12/2021 20:33,04/12/2021 20:33,Pay Bill from 254724953672 - MERCY MBETI Acc. JCA,Completed,2800,,2800,TRUE,Pay Utility,254724953672 - MERCY MBETI,,JCA
PL48MMH5DE,04/12/2021 20:08,04/12/2021 20:08,Utility Account to Organization Settlement Account,Completed,,-34597,0,TRUE,Utility Account to Organization Settlement Account,846783 - ANCIENT WELLS LTD 4,,
PL48MFJCFA,04/12/2021 18:55,04/12/2021 18:55,Pay Bill from 0799912339 - PETER KAMAU MURIU Acc. C5,Completed,1500,,34597,TRUE,Pay Utility,0799912339 - PETER KAMAU MURIU,,C5
PL46MECXRI,04/12/2021 18:44,04/12/2021 18:44,Pay Bill from 254721302658 - JACOB BIRUNDU Acc. DDB,Completed,400,,33097,TRUE,Pay Utility,254721302658 - JACOB BIRUNDU,,DDB
PL48ME7W3A,04/12/2021 18:42,04/12/2021 18:42,Pay Bill Online from 254705951407 - CAROLINE WAITHIRA KAMAU Acc. IDH,Completed,500,,32697,TRUE,Pay Bill Online,254705951407 - CAROLINE WAITHIRA KAMAU,,IDH
PL46MDYG56,04/12/2021 18:39,04/12/2021 18:39,Pay Bill from 0715030019 - Omwenga Ong'era Stephen Acc. E1,Completed,600,,32197,TRUE,Pay Utility,0715030019 - Omwenga Ong'era Stephen,,E1
PL43LQBV8V,04/12/2021 13:16,04/12/2021 13:16,Pay Bill from 254717465142 - EPHANTUS IRURA Acc. c4 muriithi,Completed,600,,31597,TRUE,Pay Utility,254717465142 - EPHANTUS IRURA,,c4
PL46LPV0L8,04/12/2021 13:08,04/12/2021 13:08,Pay Bill Online from 254710814215 - JOAN NYAMBURA KAMAU Acc. ifb,Completed,800,,30997,TRUE,Pay Bill Online,254710814215 - JOAN NYAMBURA KAMAU,,ifb
PL43LP4VGB,04/12/2021 12:57,04/12/2021 12:57,Pay Bill Online from 254711562428 - Lionel Mutune Muoka Acc. KDI,Completed,400,,30197,TRUE,Pay Bill Online,254711562428 - Lionel Mutune Muoka,,KDI
PL40LM1V5U,04/12/2021 12:08,04/12/2021 12:08,Pay Bill from 254710239100 - PHILOMENA WOKI MUTHAMA Acc. KDK,Completed,1000,,29797,TRUE,Pay Utility,254710239100 - PHILOMENA WOKI MUTHAMA,,KDK
PL44LILN2O,04/12/2021 11:13,04/12/2021 11:13,Pay Bill from 254719134037 - KELVIN KITOO Acc. FAA,Completed,500,,28797,TRUE,Pay Utility,254719134037 - KELVIN KITOO,,FAA
PL47LC324P,04/12/2021 09:24,04/12/2021 09:24,Pay Bill from 254707244987 - CALVINCE OCHIENG ODHIAMBO Acc. JEE,Completed,400,,28297,TRUE,Pay Utility,254707244987 - CALVINCE OCHIENG ODHIAMBO,,JEE
PL41L6WA3J,04/12/2021 07:38,04/12/2021 07:38,Pay Bill from 254701006375 - EZRA MAKORI SERETI Acc. HTE,Completed,10000,,27897,TRUE,Pay Utility,254701006375 - EZRA MAKORI SERETI,,HTE
PL47L3FBSJ,04/12/2021 01:21,04/12/2021 01:21,Pay Bill Online from 254728670882 - SHARAD EDWARD ADALA OLUM Acc. KCK,Completed,400,,17897,TRUE,Pay Bill Online,254728670882 - SHARAD EDWARD ADALA OLUM,,KCK
PL36L1DPQU,03/12/2021 22:47,03/12/2021 22:47,Pay Bill from 254741791919 - Linet Mongina Maraga Acc. u3,Completed,900,,17497,TRUE,Pay Utility,254741791919 - Linet Mongina Maraga,,u3
PL38L0SRF2,03/12/2021 22:28,03/12/2021 22:28,Pay Bill Online from 254720062144 - CAROLINE AMONDI OKELO Acc. f4,Completed,400,,16597,TRUE,Pay Utility with OD Online,254720062144 - CAROLINE AMONDI OKELO,,f4
PL34KVT950,03/12/2021 20:53,03/12/2021 20:53,Pay Bill from 254702152790 - Michelle Ndunge Kyalo Acc. IDE,Completed,400,,16197,TRUE,Pay Utility,254702152790 - Michelle Ndunge Kyalo,,IDE
PL33KOCHEB,03/12/2021 19:26,03/12/2021 19:26,Pay Bill Online from 254715144865 - CAROL JULIET MUGOYA Acc. E2,Completed,600,,15797,TRUE,Pay Bill Online,254715144865 - CAROL JULIET MUGOYA,,E2
PL33KL0HB9,03/12/2021 18:54,03/12/2021 18:54,Pay Bill Online from 254707726441 - JOHN OLOO NYAULA Acc. IEH,Completed,97,,15197,TRUE,Pay Bill Online,254707726441 - JOHN OLOO NYAULA,,IEH
PL36KENTHS,03/12/2021 17:43,03/12/2021 17:43,Pay Bill from 254719779657 - SAMUEL NJOROGE Acc. JGA,Completed,4000,,15100,TRUE,Pay Utility with OD via STK,254719779657 - SAMUEL NJOROGE,,JGA
PL32KBC5MM,03/12/2021 17:00,03/12/2021 17:00,Pay Bill Online from 254722728975 - CURTIS MRIGA OMIDO Acc. IAH,Completed,600,,11100,TRUE,Pay Bill Online,254722728975 - CURTIS MRIGA OMIDO,,IAH
PL39K5Q3HX,03/12/2021 15:38,03/12/2021 15:38,Pay Bill from 254729371750 - DERRICK OTANGA Acc. FEF,Completed,800,,10500,TRUE,Pay Utility,254729371750 - DERRICK OTANGA,,FEF
PL35K4OL5B,03/12/2021 15:22,03/12/2021 15:22,Pay Bill Online from 254799863492 - HIRANI MULJI Acc. JDB,Completed,1000,,9700,TRUE,Pay Bill Online,254799863492 - HIRANI MULJI,,JDB
PL33K2B55F,03/12/2021 14:44,03/12/2021 14:44,Pay Bill from 254790837715 - JULIUS MWASHUMBE MAGHANGA Acc. F5,Completed,200,,8700,TRUE,Pay Utility,254790837715 - JULIUS MWASHUMBE MAGHANGA,,F5
PL31K0L3W5,03/12/2021 14:17,03/12/2021 14:17,Pay Bill from 254714419834 - FAITH MWIKALI MUTHAMA Acc. D4,Completed,800,,8500,TRUE,Pay Utility,254714419834 - FAITH MWIKALI MUTHAMA,,D4
PL38K03JMY,03/12/2021 14:09,03/12/2021 14:09,Pay Bill Online from 254713966424 - NDUTI MUTHUI Acc. Jed,Completed,1000,,7700,TRUE,Pay Bill Online,254713966424 - NDUTI MUTHUI,,Jed
PL30JY1W7C,03/12/2021 13:37,03/12/2021 13:37,Pay Bill from 254714710840 - RACHAEL WANJIRU NJOROGE Acc. ITE,Completed,600,,6700,TRUE,Pay Utility,254714710840 - RACHAEL WANJIRU NJOROGE,,ITE
PL38JO8EIA,03/12/2021 10:54,03/12/2021 10:54,Pay Bill from 254742395038 - PETER MTALAKI CHRISTOPHER Acc. V25,Completed,100,,6100,TRUE,Pay Utility,254742395038 - PETER MTALAKI CHRISTOPHER,,V25
PL31JO0D37,03/12/2021 10:50,03/12/2021 10:50,Pay Bill from 254742395038 - PETER MTALAKI CHRISTOPHER Acc. V25,Completed,100,,6000,TRUE,Pay Utility,254742395038 - PETER MTALAKI CHRISTOPHER,,V25
PL35JNXF55,03/12/2021 10:49,03/12/2021 10:49,Pay Bill from 254742395038 - PETER MTALAKI CHRISTOPHER Acc. V25,Completed,100,,5900,TRUE,Pay Utility,254742395038 - PETER MTALAKI CHRISTOPHER,,V25
PL32JHQVN6,03/12/2021 09:00,03/12/2021 09:00,Pay Bill Online from 254706354035 - MOSES MUOKA Acc. V03,Completed,400,,5800,TRUE,Pay Utility with OD Online,254706354035 - MOSES MUOKA,,V03
PL38JCRR4E,03/12/2021 07:04,03/12/2021 07:04,Pay Bill Online from 0796121714 - janet   mwikali Acc. KBC,Completed,400,,5400,TRUE,Pay Bill Online,0796121714 - janet   mwikali,,KBC
PL23J7VY0H,02/12/2021 22:25,02/12/2021 22:25,Pay Bill from 254716315144 - PETER MUNYIRI WAROTERE Acc. FBB,Completed,600,,5000,TRUE,Pay Utility,254716315144 - PETER MUNYIRI WAROTERE,,FBB
PL27IXUT11,02/12/2021 19:46,02/12/2021 19:46,Pay Bill from 254799287000 - Godfrey odhiambo oyugi Acc. kae,Completed,100,,4400,TRUE,Pay Utility with OD via STK,254799287000 - Godfrey odhiambo oyugi,,kae
PL22ISOD7M,02/12/2021 18:55,02/12/2021 18:55,Pay Bill from 254704934557 - BAKARI KITSAKA Acc. JAD,Completed,1200,,4300,TRUE,Pay Utility,254704934557 - BAKARI KITSAKA,,JAD
PL23IMVCL9,02/12/2021 17:52,02/12/2021 17:52,Pay Bill from 254798146452 - VALARY ODHIAMBO Acc. JEE,Completed,2500,,3100,TRUE,Pay Utility,254798146452 - VALARY ODHIAMBO,,JEE
PL26IH5C1I,02/12/2021 16:35,02/12/2021 16:35,Pay Bill from 0797758628 - jackline nyamari onyango Acc. ICF,Completed,600,,600,TRUE,Pay Utility,0797758628 - jackline nyamari onyango,,ICF
PL20IG4OQ2,02/12/2021 16:20,02/12/2021 16:20,Utility Account to Organization Settlement Account,Completed,,-9800,0,TRUE,Utility Account to Organization Settlement Account,846783 - ANCIENT WELLS LTD 4,,
PL28I6KIO2,02/12/2021 13:44,02/12/2021 13:44,Pay Bill Online from 254720787158 - AMOS CHELANG'A Acc. KFK,Completed,200,,9800,TRUE,Pay Bill Online,254720787158 - AMOS CHELANG'A,,KFK
PL24I659H4,02/12/2021 13:37,02/12/2021 13:37,Pay Bill Online from 254797601911 - JORAM MASAI KILONZO Acc. KTE,Completed,600,,9600,TRUE,Pay Bill Online,254797601911 - JORAM MASAI KILONZO,,KTE
PL24I4NQEY,02/12/2021 13:12,02/12/2021 13:12,Pay Bill Online from 254790627132 - Everline Mutave Kiio Acc. IGG,Completed,400,,9000,TRUE,Pay Bill Online,254790627132 - Everline Mutave Kiio,,IGG
PL25I2RW5B,02/12/2021 12:40,02/12/2021 12:40,Pay Bill Online from 254708225541 - JUDITH NKATHA SIMBA Acc. HDH,Completed,800,,8600,TRUE,Pay Bill Online,254708225541 - JUDITH NKATHA SIMBA,,HDH
PL20HWB4ZQ,02/12/2021 10:47,02/12/2021 10:47,Pay Bill from 254798844460 - WYCLIFFE ODHIAMBO NYAGOA Acc. KAC,Completed,600,,7800,TRUE,Pay Utility,254798844460 - WYCLIFFE ODHIAMBO NYAGOA,,KAC
PL26HVXKP0,02/12/2021 10:40,02/12/2021 10:40,Pay Bill from 0715273095 - Stacy Aketch Ochuka Acc. KGK,Completed,800,,7200,TRUE,Pay Utility,0715273095 - Stacy Aketch Ochuka,,KGK
PL28HUWDJW,02/12/2021 10:22,02/12/2021 10:22,Pay Bill from 254715939283 - alex nyamai Acc. v07,Completed,600,,6400,TRUE,Pay Utility,254715939283 - alex nyamai,,v07
PL22HUHOC2,02/12/2021 10:15,02/12/2021 10:15,Pay Bill from 254718284151 - EVERLINE MATHEKA Acc. JAG,Completed,400,,5800,TRUE,Pay Utility,254718284151 - EVERLINE MATHEKA,,JAG
PL24HRI0EI,02/12/2021 09:20,02/12/2021 09:20,Pay Bill from 254742395038 - PETER MTALAKI CHRISTOPHER Acc. V25,Completed,100,,5400,TRUE,Pay Utility,254742395038 - PETER MTALAKI CHRISTOPHER,,V25
PL25HRF5YH,02/12/2021 09:19,02/12/2021 09:19,Pay Bill from 254742395038 - PETER MTALAKI CHRISTOPHER Acc. V25,Completed,100,,5300,TRUE,Pay Utility,254742395038 - PETER MTALAKI CHRISTOPHER,,V25
PL25HR560F,02/12/2021 09:14,02/12/2021 09:14,Pay Bill from 254724952183 - MICHAEL WAMBUA MWOVE Acc. Fea,Completed,2000,,5200,TRUE,Pay Utility,254724952183 - MICHAEL WAMBUA MWOVE,,Fea
PL24HQA0I8,02/12/2021 08:57,02/12/2021 08:57,Pay Bill from 0717042461 - Sharon Nyangasi Shivachi Acc. V55,Completed,200,,3200,TRUE,Pay Utility,0717042461 - Sharon Nyangasi Shivachi,,V55
PL20HPCCTA,02/12/2021 08:39,02/12/2021 08:39,Pay Bill Online from 254716784364 - Wendy Kemunto Nyandiko Acc. FFC,Completed,800,,3000,TRUE,Pay Bill Online,254716784364 - Wendy Kemunto Nyandiko,,FFC
PL20HOZVY4,02/12/2021 08:32,02/12/2021 08:32,Pay Bill Online from 254742911013 - HANEST AMIMO Acc. IEG,Completed,600,,2200,TRUE,Pay Bill Online,254742911013 - HANEST AMIMO,,IEG
PL26HLH3NU,02/12/2021 07:07,02/12/2021 07:07,Pay Bill Online from 254714855708 - KIPLANGAT SITIENEI Acc. FAE,Completed,1000,,1600,TRUE,Pay Bill Online,254714855708 - KIPLANGAT SITIENEI,,FAE
PL17H7L50H,01/12/2021 20:06,01/12/2021 20:06,Pay Bill from 0715688238 - JOANNAH ATUHAIRE BANTU Acc. jae,Completed,600,,600,TRUE,Pay Utility,0715688238 - JOANNAH ATUHAIRE BANTU,,jae
PL14H603TE,01/12/2021 19:50,01/12/2021 19:50,Utility Account to Organization Settlement Account,Completed,,-10700,0,TRUE,Utility Account to Organization Settlement Account,846783 - ANCIENT WELLS LTD 4,,
PL10H5WQ6E,01/12/2021 19:49,01/12/2021 19:49,Pay Bill from 0727542914 - Pascal Ouma Opar Acc. pascalv45,Completed,400,,10700,TRUE,Pay Utility,0727542914 - Pascal Ouma Opar,,pascalv45
PL12H5PWI0,01/12/2021 19:47,01/12/2021 19:47,Pay Bill from 254720802644 - MESHACK MAXWELL GANDA Acc. HAB,Completed,400,,10300,TRUE,Pay Utility,254720802644 - MESHACK MAXWELL GANDA,,HAB
PL15H4JJ6F,01/12/2021 19:35,01/12/2021 19:35,Pay Bill from 254726977770 - STEPHEN MUIRURI MATHENGE Acc. KAF,Completed,800,,9900,TRUE,Pay Utility,254726977770 - STEPHEN MUIRURI MATHENGE,,KAF
PL16GZQ6FS,01/12/2021 18:50,01/12/2021 18:50,Pay Bill from 0717216114 - Felix Njeru Mugambi Acc. Kdf,Completed,1000,,9100,TRUE,Pay Utility,0717216114 - Felix Njeru Mugambi,,Kdf
PL12GYXSQ0,01/12/2021 18:43,01/12/2021 18:43,Pay Bill Online from 254714536026 - LILIAN AWUOR ONYANGO Acc. HDC,Completed,200,,8100,TRUE,Pay Bill Online,254714536026 - LILIAN AWUOR ONYANGO,,HDC
PL19GX3IYP,01/12/2021 18:23,01/12/2021 18:23,Pay Bill from 254707370896 - OKECH BRIAN BRIAN Acc. FFA,Completed,1000,,7900,TRUE,Pay Utility,254707370896 - OKECH BRIAN BRIAN,,FFA
PL13GU9FRV,01/12/2021 17:50,01/12/2021 17:50,Pay Bill from 254725771056 - CHARLES MURAGURI Acc. FCE,Completed,800,,6900,TRUE,Pay Utility,254725771056 - CHARLES MURAGURI,,FCE
PL10GRFBI8,01/12/2021 17:14,01/12/2021 17:14,Pay Bill from 254712614146 - SOPHIE MUENI MUVITHU Acc. Sophie Mueni-Hse No6,Completed,300,,6100,TRUE,Pay Utility,254712614146 - SOPHIE MUENI MUVITHU,,Sophie
PL16GOWTD2,01/12/2021 16:39,01/12/2021 16:39,Pay Bill from 254729541871 - ROBERT KULEI Acc. JAB,Completed,600,,5800,TRUE,Pay Utility,254729541871 - ROBERT KULEI,,JAB
PL10GOUG6S,01/12/2021 16:38,01/12/2021 16:38,Pay Bill from 254703690697 - CATHERINE MURAGE Acc. V21,Completed,200,,5200,TRUE,Pay Utility,254703690697 - CATHERINE MURAGE,,V21
PL12GNKUTE,01/12/2021 16:19,01/12/2021 16:19,Pay Bill Online from 254707226192 - NICHOLUS MAINGI MWANTHI Acc. HBF,Completed,600,,5000,TRUE,Pay Bill Online,254707226192 - NICHOLUS MAINGI MWANTHI,,HBF
PL14GMM8LU,01/12/2021 16:04,01/12/2021 16:04,Pay Bill Online from 254722604851 - WILFRED SAKWA Acc. IDG,Completed,800,,4400,TRUE,Pay Bill Online,254722604851 - WILFRED SAKWA,,IDG
PL11GKF9Q5,01/12/2021 15:29,01/12/2021 15:29,Pay Bill from 254115949784 - JOHN MAITHA MULWA Acc. ibh,Completed,3600,,3600,TRUE,Pay Utility,254115949784 - JOHN MAITHA MULWA,,ibh
PL15GIM8I3,01/12/2021 14:59,01/12/2021 14:59,Utility Account to Organization Settlement Account,Completed,,-2000,0,TRUE,Utility Account to Organization Settlement Account,846783 - ANCIENT WELLS LTD 4,,
PL14GFKXKK,01/12/2021 14:09,01/12/2021 14:09,Pay Bill from 254740579741 - MUHINDI MULINYA Acc. HGG,Completed,2000,,2000,TRUE,Pay Utility,254740579741 - MUHINDI MULINYA,,HGG
PL10G9IVME,01/12/2021 12:30,01/12/2021 12:30,Utility Account to Organization Settlement Account,Completed,,-23000,0,TRUE,Utility Account to Organization Settlement Account,846783 - ANCIENT WELLS LTD 4,,
PL12G2UZM2,01/12/2021 10:36,01/12/2021 10:36,Pay Bill from 254729796719 - JACINTA WANJIKU NJERI Acc. FFF,Completed,600,,23000,TRUE,Pay Utility,254729796719 - JACINTA WANJIKU NJERI,,FFF
PL14G16EWU,01/12/2021 10:07,01/12/2021 10:07,Pay Bill from 254726337163 - HALIMA ALI HASSAN Acc. DDA,Completed,500,,22400,TRUE,Pay Utility,254726337163 - HALIMA ALI HASSAN,,DDA
PL16FWXQ9Q,01/12/2021 08:53,01/12/2021 08:53,Pay Bill Online from 254700187806 - WINNIE OLIVIA AKOTH Acc. jec,Completed,800,,21900,TRUE,Pay Bill Online,254700187806 - WINNIE OLIVIA AKOTH,,jec
PL18FV4AI0,01/12/2021 08:17,01/12/2021 08:17,Pay Bill Online from 254795510441 - LEWIS MUEMA Acc. KEB,Completed,400,,21100,TRUE,Pay Bill Online,254795510441 - LEWIS MUEMA,,KEB
PL12FU2RSK,01/12/2021 07:55,01/12/2021 07:54,Pay Bill from 254742395038 - PETER MTALAKI CHRISTOPHER Acc. V25,Completed,100,,20700,TRUE,Pay Utility,254742395038 - PETER MTALAKI CHRISTOPHER,,V25
PL19FU0O7D,01/12/2021 07:53,01/12/2021 07:53,Pay Bill from 254742395038 - PETER MTALAKI CHRISTOPHER Acc. V25,Completed,100,,20600,TRUE,Pay Utility,254742395038 - PETER MTALAKI CHRISTOPHER,,V25
PL11FRX5A1,01/12/2021 06:55,01/12/2021 06:55,Pay Bill Online from 254717809935 - LYDIAH WERU Acc. idc,Completed,600,,20500,TRUE,Pay Bill Online,254717809935 - LYDIAH WERU,,idc
PL15FORLUN,01/12/2021 00:17,01/12/2021 00:17,Pay Bill from 254703180395 - JANE NYAGUTHII MWAGO Acc. IBE,Completed,200,,19900,TRUE,Pay Utility,254703180395 - JANE NYAGUTHII MWAGO,,IBE
