Receipt No.,Completion Time,Initiation Time,Details,Transaction Status,Paid In,Withdrawn,Balance,Balance Confirmed,Reason Type,Other Party Info,Linked Transaction ID,A/C No.
PCM8YRA7KA,22/03/2021 18:12,22/03/2021 18:12,Pay Bill from 254716702294 - DANIEL MULATI Acc. KBE,Completed,2000,,49000,TRUE,Pay Utility,254716702294 - DANIEL MULATI,,KBE
PCM9YQTWNZ,22/03/2021 18:05,22/03/2021 18:05,Pay Bill from 254720989821 - VERONICA NYOKABI Acc. FEB,Completed,15000,,47000,TRUE,Pay Utility,254720989821 - VERONICA NYOKABI,,FEB
PCM9YP3QAL,22/03/2021 17:35,22/03/2021 17:35,Pay Bill from 0113473583 - GERARD   HAVYARIMANA Acc. KAH,Completed,21000,,32000,TRUE,Pay Utility,0113473583 - GERARD   HAVYARIMANA,,KAH
PCM7YJYH6R,22/03/2021 15:54,22/03/2021 15:54,Pay Bill from 254722564580 - GLENN KISIANG'ANI Acc. DBB,Completed,5000,,11000,TRUE,Pay Utility with OD via STK,254722564580 - GLENN KISIANG'ANI,,DBB
PCM9YCA9T5,22/03/2021 13:02,22/03/2021 13:02,Pay Bill from 254722458136 - NADI GOLICHA Acc. KAA,Completed,6000,,6000,TRUE,Pay Utility with OD via STK,254722458136 - NADI GOLICHA,,KAA
PCM7YA6D4Z,22/03/2021 12:14,22/03/2021 12:14,Utility Account to Organization Settlement Account,Completed,,-155200,0,TRUE,Utility Account to Organization Settlement Account,979524 - ANCIENT WELLS PROPERTY MANAGERS 2,,
PCM6XX5RUI,22/03/2021 01:28,22/03/2021 01:28,Pay Bill from 254703935626 - DAVID NGARI ITA Acc. FCD,Completed,1000,,155200,TRUE,Pay Utility with OD via STK,254703935626 - DAVID NGARI ITA,,FCD
PCL5XVXKU3,21/03/2021 22:25,21/03/2021 22:25,Pay Bill from 254701171047 - MOLAH DIBOGO Acc. KCA,Completed,1000,,154200,TRUE,Pay Utility,254701171047 - MOLAH DIBOGO,,KCA
PCL4XV48VC,21/03/2021 21:52,21/03/2021 21:52,Pay Bill from 254707195717 - PAULINE NDUTA Acc. KDJ,Completed,16000,,153200,TRUE,Pay Utility,254707195717 - PAULINE NDUTA,,KDJ
PCL4XV3RG4,21/03/2021 21:51,21/03/2021 21:51,Pay Bill from 254708376721 - Millicent Achieng Akuka Acc. KCA,Completed,1700,,137200,TRUE,Pay Utility,254708376721 - Millicent Achieng Akuka,,KCA
PCL0X0M53W,21/03/2021 11:16,21/03/2021 11:16,Pay Bill from 0710115076 - FARDOSA ABDINUR MOHAMED Acc. jaa,Completed,5000,,135500,TRUE,Pay Utility,0710115076 - FARDOSA ABDINUR MOHAMED,,jaa
PCK4WQQJ24,20/03/2021 23:39,20/03/2021 23:39,Pay Bill Online from 254720451253 - JIMMY KIOGORA NKIROTE Acc. KBD,Completed,2000,,130500,TRUE,Pay Utility with OD Online,254720451253 - JIMMY KIOGORA NKIROTE,,KBD
PCK1WPLZ35,20/03/2021 22:19,20/03/2021 22:19,Pay Bill from 254703935626 - DAVID NGARI ITA Acc. FCD,Completed,1000,,128500,TRUE,Pay Utility,254703935626 - DAVID NGARI ITA,,FCD
PCK0WAI3M0,20/03/2021 17:54,20/03/2021 17:54,Pay Bill from 254722458136 - NADI GOLICHA Acc. KAA,Completed,10000,,127500,TRUE,Pay Utility with OD via STK,254722458136 - NADI GOLICHA,,KAA
PCK3W6BCY3,20/03/2021 16:42,20/03/2021 16:42,Pay Bill from 254724103759 - RICHARD NKAABO Acc. JEJ,Completed,16000,,117500,TRUE,Pay Utility,254724103759 - RICHARD NKAABO,,JEJ
PCK5W0OR6L,20/03/2021 14:50,20/03/2021 14:50,Pay Bill from 254725218904 - SALOME MUTHONI MWANGI Acc. KFJ,Completed,16000,,101500,TRUE,Pay Utility,254725218904 - SALOME MUTHONI MWANGI,,KFJ
PCK4VWVGKY,20/03/2021 13:32,20/03/2021 13:32,Pay Bill from 254720496449 - STANLEY KIPKOECH RONO Acc. IGG,Completed,16000,,85500,TRUE,Pay Utility,254720496449 - STANLEY KIPKOECH RONO,,IGG
PCK3VR0OT7,20/03/2021 11:27,20/03/2021 11:27,Pay Bill from 254716702294 - DANIEL MULATI Acc. KBE,Completed,5500,,69500,TRUE,Pay Utility,254716702294 - DANIEL MULATI,,KBE
PCK9VPNZQJ,20/03/2021 10:57,20/03/2021 10:57,Pay Bill from 254722910078 - MAUREEN MUNYIVA MUTUKU Acc. DBD,Completed,5000,,64000,TRUE,Pay Utility,254722910078 - MAUREEN MUNYIVA MUTUKU,,DBD
PCK4VF9NFG,20/03/2021 01:20,20/03/2021 01:20,Pay Bill Online from 254720451253 - JIMMY KIOGORA NKIROTE Acc. KBD,Completed,7000,,59000,TRUE,Pay Utility with OD Online,254720451253 - JIMMY KIOGORA NKIROTE,,KBD
PCJ5VDZMWH,19/03/2021 22:40,19/03/2021 22:40,Pay Bill from 254703935626 - DAVID NGARI ITA Acc. FCD,Completed,1000,,52000,TRUE,Pay Utility,254703935626 - DAVID NGARI ITA,,FCD
PCJ0VC2K3C,19/03/2021 21:33,19/03/2021 21:33,Pay Bill Online from 254728886864 - MOULINE ONYANGO Acc. IAA,Completed,32000,,51000,TRUE,Pay Bill Online,254728886864 - MOULINE ONYANGO,,IAA
PCJ2UQIACQ,19/03/2021 15:28,19/03/2021 15:28,Pay Bill from 254790549449 - ABUKAR MOHAMED Acc. HBA,Completed,17000,,19000,TRUE,Pay Utility,254790549449 - ABUKAR MOHAMED,,HBA
PCJ4UP7QD8,19/03/2021 15:00,19/03/2021 15:00,Pay Bill from 254703555717 - SENGA SALIM Acc. hbb,Completed,2000,,2000,TRUE,Pay Utility,254703555717 - SENGA SALIM,,hbb
PCJ8UK85XW,19/03/2021 13:13,19/03/2021 13:13,Utility Account to Organization Settlement Account,Completed,,-163500,0,TRUE,Utility Account to Organization Settlement Account,979524 - ANCIENT WELLS PROPERTY MANAGERS 2,,
PCJ3UI1D5V,19/03/2021 12:24,19/03/2021 12:24,Pay Bill from 0768054908 - CHARLES ODHIAMBO OGANYO Acc. JEH,Completed,15000,,163500,TRUE,Pay Utility,0768054908 - CHARLES ODHIAMBO OGANYO,,JEH
