Receipt No.,Completion Time,Initiation Time,Details,Transaction Status,Paid In,Withdrawn,Balance,Balance Confirmed,Reason Type,Other Party Info,Linked Transaction ID,A/C No.
PHO3Z3BXPV,24/08/2021 08:24,24/08/2021 08:24,Utility Account to Organization Settlement Account,Completed,,-3600,0,TRUE,Utility Account to Organization Settlement Account,846783 - ANCIENT WELLS LTD 4,,
PHO5Z27FSD,24/08/2021 07:54,24/08/2021 07:54,Pay Bill Online from 254705670064 - margaret wahu wachira Acc. v35,Completed,200,,3600,TRUE,Pay Bill Online,254705670064 - margaret wahu wachira,,v35
PHN2YUHEN4,23/08/2021 20:59,23/08/2021 20:59,Pay Bill Online from 254748666537 - LABAN MACHARIA GITAU Acc. ICC,Completed,500,,3400,TRUE,Pay Utility with OD Online,254748666537 - LABAN MACHARIA GITAU,,ICC
PHN1YO3N5H,23/08/2021 19:28,23/08/2021 19:28,Pay Bill from 254704140048 - MAUREEN GACHERI KINYUA Acc. JDD,Completed,400,,2900,TRUE,Pay Utility,254704140048 - MAUREEN GACHERI KINYUA,,JDD
PHN6YB2B1W,23/08/2021 16:16,23/08/2021 16:16,Pay Bill from 254798146452 - VALARY ODHIAMBO Acc. JEE,Completed,1500,,2500,TRUE,Pay Utility,254798146452 - VALARY ODHIAMBO,,JEE
PHN9Y8V1OB,23/08/2021 15:32,23/08/2021 15:32,Pay Bill from 254720883049 - SIMON AMUKOCHE Acc. IED,Completed,1000,,1000,TRUE,Pay Utility,254720883049 - SIMON AMUKOCHE,,IED
PHN4XWLSBO,23/08/2021 11:22,23/08/2021 11:22,Utility Account to Organization Settlement Account,Completed,,-6700,0,TRUE,Utility Account to Organization Settlement Account,846783 - ANCIENT WELLS LTD 4,,
PHN0XTWOHK,23/08/2021 10:27,23/08/2021 10:27,Pay Bill from 254723389177 - NELSON MOI Acc. ibf,Completed,1600,,6700,TRUE,Pay Utility,254723389177 - NELSON MOI,,ibf
PHM8XIVR68,22/08/2021 22:25,22/08/2021 22:25,Pay Bill from 254725381062 - VICTOR MAITHYA Acc. HEG,Completed,1200,,5100,TRUE,Pay Utility with OD via STK,254725381062 - VICTOR MAITHYA,,HEG
PHM5X8ZSY7,22/08/2021 19:10,22/08/2021 19:10,Pay Bill from 254721417560 - ANDREW SANDE Acc. JBJ,Completed,1000,,3900,TRUE,Pay Utility,254721417560 - ANDREW SANDE,,JBJ
PHM2X2RMAS,22/08/2021 17:35,22/08/2021 17:35,Pay Bill Online from 254707049818 - LUCKY TSUMA Acc. V19,Completed,400,,2900,TRUE,Pay Bill Online,254707049818 - LUCKY TSUMA,,V19
PHM9WXHPI9,22/08/2021 15:58,22/08/2021 15:58,Pay Bill from 254716581384 - GREGORY KILUNGYA Acc. DAD,Completed,1500,,2500,TRUE,Pay Utility,254716581384 - GREGORY KILUNGYA,,DAD
PHM5WOWS4P,22/08/2021 13:10,22/08/2021 13:10,Pay Bill from 0757721640 - PURITY KANYUA NJERU Acc. HDG,Completed,400,,1000,TRUE,Pay Utility,0757721640 - PURITY KANYUA NJERU,,HDG
PHM5WO2TMV,22/08/2021 12:52,22/08/2021 12:52,Pay Bill Online from 0740422187 - KEVIN MAKATO KUNGA Acc. KEG,Completed,600,,600,TRUE,Pay Utility with OD Online,0740422187 - KEVIN MAKATO KUNGA,,KEG
PHM0WEG4N6,22/08/2021 09:04,22/08/2021 09:04,Utility Account to Organization Settlement Account,Completed,,-4200,0,TRUE,Utility Account to Organization Settlement Account,846783 - ANCIENT WELLS LTD 4,,
PHM5WE1B3J,22/08/2021 08:53,22/08/2021 08:53,Pay Bill from 254701261592 - VICTOR MWILU Acc. V37,Completed,600,,4200,TRUE,Pay Utility,254701261592 - VICTOR MWILU,,V37
PHL0W868V0,21/08/2021 22:56,21/08/2021 22:56,Pay Bill from 254720361605 - DAUD AMBER Acc. IGH,Completed,400,,3600,TRUE,Pay Utility,254720361605 - DAUD AMBER,,IGH
PHL6VZYJEI,21/08/2021 19:53,21/08/2021 19:53,Pay Bill from 254729450678 - GRACE NDUNGE Acc. fba,Completed,200,,3200,TRUE,Pay Utility with OD via STK,254729450678 - GRACE NDUNGE,,fba
PHL5VR1SM1,21/08/2021 17:59,21/08/2021 17:59,Pay Bill from 254715002789 - ERICK NGUGI MAINA Acc. HAG,Completed,1000,,3000,TRUE,Pay Utility,254715002789 - ERICK NGUGI MAINA,,HAG
PHL8VLMDQ0,21/08/2021 16:32,21/08/2021 16:32,Pay Bill Online from 254712370657 - MARVIN NYANGAU Acc. KAJ,Completed,2000,,2000,TRUE,Pay Bill Online,254712370657 - MARVIN NYANGAU,,KAJ
PHL8VK50RA,21/08/2021 16:06,21/08/2021 16:06,Utility Account to Organization Settlement Account,Completed,,-5000,0,TRUE,Utility Account to Organization Settlement Account,846783 - ANCIENT WELLS LTD 4,,
PHL0VFEJVA,21/08/2021 14:39,21/08/2021 14:39,Pay Bill from 254726178084 - CHRISTOPHER OCHIENG Acc. ffe,Completed,600,,5000,TRUE,Pay Utility,254726178084 - CHRISTOPHER OCHIENG,,ffe
PHL3VDT9J7,21/08/2021 14:11,21/08/2021 14:11,Pay Bill from 254726636196 - BETHUEL KEMBOI KURUI Acc. JFD,Completed,400,,4400,TRUE,Pay Utility,254726636196 - BETHUEL KEMBOI KURUI,,JFD
PHL0VB1GG0,21/08/2021 13:20,21/08/2021 13:20,Pay Bill Online from 254710965167 - KUSA STEPHANIE HAZEL Acc. JDC,Completed,600,,4000,TRUE,Pay Bill Online,254710965167 - KUSA STEPHANIE HAZEL,,JDC
PHL6V3393W,21/08/2021 10:45,21/08/2021 10:45,Pay Bill from 254722874715 - PATRCIAH mbesa KIOKO Acc. KBB,Completed,1000,,3400,TRUE,Pay Utility,254722874715 - PATRCIAH mbesa KIOKO,,KBB
PHL2V05JGQ,21/08/2021 09:44,21/08/2021 09:44,Pay Bill from 0796929370 - HALIMA BOYA GALMA Acc. Dbc,Completed,2200,,2400,TRUE,Pay Utility,0796929370 - HALIMA BOYA GALMA,,Dbc
PHL2UY93XS,21/08/2021 09:02,21/08/2021 09:02,Pay Bill from 254701006375 - EZRA MAKORI SERETI Acc. HTE,Completed,200,,200,TRUE,Pay Utility with OD via STK,254701006375 - EZRA MAKORI SERETI,,HTE
PHK9UN8YP9,20/08/2021 20:56,20/08/2021 20:56,Utility Account to Organization Settlement Account,Completed,,-8200,0,TRUE,Utility Account to Organization Settlement Account,846783 - ANCIENT WELLS LTD 4,,
PHK4UM7BTU,20/08/2021 20:38,20/08/2021 20:38,Pay Bill from 254723901777 - EVANS YEBEI Acc. KCH,Completed,1500,,8200,TRUE,Pay Utility,254723901777 - EVANS YEBEI,,KCH
PHK8UHC55E,20/08/2021 19:30,20/08/2021 19:30,Pay Bill from 254716479709 - PAUL MUSYOKI Acc. IEC,Completed,1900,,6700,TRUE,Pay Utility,254716479709 - PAUL MUSYOKI,,IEC
PHK3UFDD7P,20/08/2021 19:08,20/08/2021 19:08,Pay Bill Online from 254703375006 - KEN RODGERS Acc. DBA,Completed,1000,,4800,TRUE,Pay Bill Online,254703375006 - KEN RODGERS,,DBA
PHK4UD1XSY,20/08/2021 18:40,20/08/2021 18:40,Pay Bill Online from 254722728975 - CURTIS MRIGA OMIDO Acc. IAH,Completed,600,,3800,TRUE,Pay Bill Online,254722728975 - CURTIS MRIGA OMIDO,,IAH
PHK0U6OYWO,20/08/2021 17:11,20/08/2021 17:11,Pay Bill from 254791206178 - LORINE MUGANDA Acc. FBD,Completed,1000,,3200,TRUE,Pay Utility,254791206178 - LORINE MUGANDA,,FBD
PHK7U5J8W3,20/08/2021 16:52,20/08/2021 16:52,Pay Bill Online from 254722921132 - JOE MCCRAY MURIUKI KIHIA Acc. IFA,Completed,1400,,2200,TRUE,Pay Bill Online,254722921132 - JOE MCCRAY MURIUKI KIHIA,,IFA
PHK7U14KC5,20/08/2021 15:31,20/08/2021 15:31,Pay Bill from 254720881746 - LEMMY WANJAU NJIRU Acc. v51,Completed,800,,800,TRUE,Pay Utility,254720881746 - LEMMY WANJAU NJIRU,,v51
PHK0TUN378,20/08/2021 13:24,20/08/2021 13:24,Utility Account to Organization Settlement Account,Completed,,-28180,0,TRUE,Utility Account to Organization Settlement Account,846783 - ANCIENT WELLS LTD 4,,
PHK3TUJTSN,20/08/2021 13:22,20/08/2021 13:22,Pay Bill from 254722910078 - MAUREEN MUNYIVA MUTUKU Acc. DBD,Completed,800,,28180,TRUE,Pay Utility,254722910078 - MAUREEN MUNYIVA MUTUKU,,DBD
PHK9TQS2EZ,20/08/2021 12:05,20/08/2021 12:05,Pay Bill from 254718672924 - LILIAN CHEBET NGENO Acc. KGD,Completed,100,,27380,TRUE,Pay Utility,254718672924 - LILIAN CHEBET NGENO,,KGD
PHK3TQNJMJ,20/08/2021 12:02,20/08/2021 12:02,Pay Bill from 254718672924 - LILIAN CHEBET NGENO Acc. KGD,Completed,90,,27280,TRUE,Pay Utility,254718672924 - LILIAN CHEBET NGENO,,KGD
PHK5TQMC2T,20/08/2021 12:01,20/08/2021 12:01,Pay Bill from 254718672924 - LILIAN CHEBET NGENO Acc. KGD,Completed,100,,27190,TRUE,Pay Utility,254718672924 - LILIAN CHEBET NGENO,,KGD
PHK5TQLI2J,20/08/2021 12:01,20/08/2021 12:01,Pay Bill from 254718672924 - LILIAN CHEBET NGENO Acc. KGD,Completed,90,,27090,TRUE,Pay Utility,254718672924 - LILIAN CHEBET NGENO,,KGD
PHK7TQKMSH,20/08/2021 12:00,20/08/2021 12:00,Pay Bill from 254718672924 - LILIAN CHEBET NGENO Acc. KGD,Completed,100,,27000,TRUE,Pay Utility,254718672924 - LILIAN CHEBET NGENO,,KGD
PHK9TJW30L,20/08/2021 09:39,20/08/2021 09:39,Pay Bill from 254712461449 - CAROLINE MUTHONI GICHOHI Acc. fca,Completed,400,,26900,TRUE,Pay Utility,254712461449 - CAROLINE MUTHONI GICHOHI,,fca
PHK4TJTTPS,20/08/2021 09:38,20/08/2021 09:38,Pay Bill from 254728042989 - PATRICK OMONDI Acc. IFI,Completed,1200,,26500,TRUE,Pay Utility with OD via STK,254728042989 - PATRICK OMONDI,,IFI
PHK9TINC9D,20/08/2021 09:11,20/08/2021 09:11,Pay Bill from 254720029066 - EVANS CHERUYOT ROTICH Acc. KFI,Completed,1400,,25300,TRUE,Pay Utility,254720029066 - EVANS CHERUYOT ROTICH,,KFI
PHK0TH90P0,20/08/2021 08:37,20/08/2021 08:37,Pay Bill from 0712917575 - Derrick Osore Songoro Acc. V58,Completed,1600,,23900,TRUE,Pay Utility,0712917575 - Derrick Osore Songoro,,V58
PHJ2T72UWM,19/08/2021 20:44,19/08/2021 20:44,Pay Bill from 254705122840 - RICHU MWANGI GATURAGA Acc. DEA,Completed,2400,,22300,TRUE,Pay Utility,254705122840 - RICHU MWANGI GATURAGA,,DEA
PHJ5T66T8H,19/08/2021 20:29,19/08/2021 20:29,Pay Bill from 254723295023 - Murugan Achudhanantham Acc. HBA,Completed,600,,19900,TRUE,Pay Utility,254723295023 - Murugan Achudhanantham,,HBA
PHJ5SZDDAL,19/08/2021 19:01,19/08/2021 19:01,Pay Bill from 254728093389 - MOHAMED MUSA ALASOW Acc. KED,Completed,400,,19300,TRUE,Pay Utility,254728093389 - MOHAMED MUSA ALASOW,,KED
PHJ4SZ4GH4,19/08/2021 18:58,19/08/2021 18:58,Pay Bill from 254719285750 - LILIAN ACHIENG ODONGO Acc. IGE,Completed,400,,18900,TRUE,Pay Utility,254719285750 - LILIAN ACHIENG ODONGO,,IGE
PHJ3SXYTGX,19/08/2021 18:44,19/08/2021 18:44,Pay Bill from 254722458136 - NADI GOLICHA Acc. KAA,Completed,1000,,18500,TRUE,Pay Utility with OD via STK,254722458136 - NADI GOLICHA,,KAA
PHJ5SWVW75,19/08/2021 18:30,19/08/2021 18:30,Pay Bill from 0743914369 - LYDIAH NJOKI MUCHIRI Acc. jeb,Completed,1000,,17500,TRUE,Pay Utility,0743914369 - LYDIAH NJOKI MUCHIRI,,jeb
PHJ6ST604E,19/08/2021 17:37,19/08/2021 17:37,Pay Bill Online from 0769929240 - Calvince Klein Alal Acc. v02,Completed,800,,16500,TRUE,Pay Bill Online,0769929240 - Calvince Klein Alal,,v02
PHJ2SSXN64,19/08/2021 17:34,19/08/2021 17:34,Pay Bill from 254798674917 - Egbe Okpaga Okpaga Acc. HAD,Completed,400,,15700,TRUE,Pay Utility,254798674917 - Egbe Okpaga Okpaga,,HAD
PHJ0SP6ZRO,19/08/2021 16:31,19/08/2021 16:31,Pay Bill from 254718284151 - EVERLINE MATHEKA Acc. JAG,Completed,200,,15300,TRUE,Pay Utility,254718284151 - EVERLINE MATHEKA,,JAG
PHJ5SOU4V3,19/08/2021 16:24,19/08/2021 16:24,Pay Bill from 254728888511 - HAMISI MIRITI Acc. KAK,Completed,200,,15100,TRUE,Pay Utility,254728888511 - HAMISI MIRITI,,KAK
PHJ4SNVFNY,19/08/2021 16:05,19/08/2021 16:05,Pay Bill from 254717053159 - FREDRICK NYATIKA Acc. IEF,Completed,400,,14900,TRUE,Pay Utility,254717053159 - FREDRICK NYATIKA,,IEF
PHJ4SNGFRA,19/08/2021 15:57,19/08/2021 15:57,Pay Bill from 254725111246 - FRANCIS MUUTU MWANGANGI Acc.  IGI,Completed,400,,14500,TRUE,Pay Utility,254725111246 - FRANCIS MUUTU MWANGANGI,,
PHJ6SMQCLC,19/08/2021 15:43,19/08/2021 15:43,Pay Bill from 254722648389 - SUDI MOSES Acc. V31,Completed,200,,14100,TRUE,Pay Utility,254722648389 - SUDI MOSES,,V31
PHJ0SMD5O8,19/08/2021 15:35,19/08/2021 15:35,Pay Bill from 254717909848 - MARY MBULA KATHUKU Acc. FGD,Completed,1200,,13900,TRUE,Pay Utility,254717909848 - MARY MBULA KATHUKU,,FGD
PHJ0SJZYPO,19/08/2021 14:47,19/08/2021 14:47,Pay Bill Online from 254720696119 - DUNCAN OMONDI OKETCH Acc. IAG,Completed,1000,,12700,TRUE,Pay Bill Online,254720696119 - DUNCAN OMONDI OKETCH,,IAG
PHJ5SHWJ9P,19/08/2021 14:04,19/08/2021 14:04,Pay Bill Online from 254715764212 - BANCE ISHEMINYE Acc. JFE,Completed,500,,11700,TRUE,Pay Utility with OD Online,254715764212 - BANCE ISHEMINYE,,JFE
PHJ0SEJMHU,19/08/2021 12:56,19/08/2021 12:56,Pay Bill from 254700382442 - EVERLYNE MWENDE MUMO Acc. FGC,Completed,400,,11200,TRUE,Pay Utility,254700382442 - EVERLYNE MWENDE MUMO,,FGC
PHJ5SDQCUL,19/08/2021 12:39,19/08/2021 12:39,Pay Bill from 254720931300 - ESTHER WANJIRU NDUNGO Acc. KGE,Completed,1000,,10800,TRUE,Pay Utility,254720931300 - ESTHER WANJIRU NDUNGO,,KGE
PHJ8SDN6IK,19/08/2021 12:38,19/08/2021 12:38,Pay Bill from 0727542914 - Pascal Ouma Opar Acc. pascalv45,Completed,800,,9800,TRUE,Pay Utility,0727542914 - Pascal Ouma Opar,,pascalv45
PHJ6SD2GNO,19/08/2021 12:26,19/08/2021 12:26,Pay Bill from 254702346515 - ELIZABETH ACHIENG NGOME Acc. KDE,Completed,400,,9000,TRUE,Pay Utility,254702346515 - ELIZABETH ACHIENG NGOME,,KDE
PHJ0SCWF2G,19/08/2021 12:22,19/08/2021 12:22,Pay Bill from 254715939283 - alex nyamai Acc. alexv07,Completed,600,,8600,TRUE,Pay Utility with OD via STK,254715939283 - alex nyamai,,alexv07
PHJ4SCKPV8,19/08/2021 12:15,19/08/2021 12:15,Pay Bill Online from 254722521028 - CHARLES MONYONCHO Acc. ICB,Completed,3600,,8000,TRUE,Pay Bill Online,254722521028 - CHARLES MONYONCHO,,ICB
PHJ3SCIEL5,19/08/2021 12:14,19/08/2021 12:14,Pay Bill from 254729160700 - MICAH NDUNGI Acc. HFE,Completed,200,,4400,TRUE,Pay Utility,254729160700 - MICAH NDUNGI,,HFE
PHJ2SBJIKQ,19/08/2021 11:54,19/08/2021 11:54,Pay Bill from 254720249209 - WILFRED NJUGUNA WANJIRA Acc. DDD,Completed,1400,,4200,TRUE,Pay Utility,254720249209 - WILFRED NJUGUNA WANJIRA,,DDD
PHJ9SBA695,19/08/2021 11:49,19/08/2021 11:49,Pay Bill Online from 254718911865 - KENNEDY KELI KATUNGII Acc. HDF,Completed,1000,,2800,TRUE,Pay Bill Online,254718911865 - KENNEDY KELI KATUNGII,,HDF
PHJ6SAV94E,19/08/2021 11:40,19/08/2021 11:40,Pay Bill from 254701174081 - JOSEPHINE ODUOR Acc. v34,Completed,200,,1800,TRUE,Pay Utility,254701174081 - JOSEPHINE ODUOR,,v34
PHJ1SAO6PN,19/08/2021 11:36,19/08/2021 11:36,Pay Bill from 0758457508 - PETER KINGORI KAGUNDA Acc. V06,Completed,200,,1600,TRUE,Pay Utility,0758457508 - PETER KINGORI KAGUNDA,,V06
PHI5RI8ZOD,18/08/2021 18:36,18/08/2021 18:36,Pay Bill from 254715742045 - FRIDAH KIEMA Acc. HGC ,Completed,1000,,1400,TRUE,Pay Utility with OD via STK,254715742045 - FRIDAH KIEMA,,HGC
PHI2RDLPIS,18/08/2021 17:28,18/08/2021 17:28,Pay Bill from 254710106394 - LUCY TONKEI Acc. KBG,Completed,400,,400,TRUE,Pay Utility,254710106394 - LUCY TONKEI,,KBG
PHH8Q0TEUY,17/08/2021 17:49,17/08/2021 17:49,Utility Account to Organization Settlement Account,Completed,,-1500,0,TRUE,Utility Account to Organization Settlement Account,846783 - ANCIENT WELLS LTD 4,,
PHG4OX3QLW,16/08/2021 20:03,16/08/2021 20:03,Pay Bill from 254721539716 - OCTAVIAN MWANYALO Acc. C6,Completed,1000,,1500,TRUE,Pay Utility,254721539716 - OCTAVIAN MWANYALO,,C6
PHG8OG7D4E,16/08/2021 16:01,16/08/2021 16:01,Pay Bill from 0718838251 - MARK KINYUA MAINA Acc. kfg,Completed,500,,500,TRUE,Pay Utility,0718838251 - MARK KINYUA MAINA,,kfg
PHG7O1TGAH,16/08/2021 11:20,16/08/2021 11:20,Utility Account to Organization Settlement Account,Completed,,-1600,0,TRUE,Utility Account to Organization Settlement Account,846783 - ANCIENT WELLS LTD 4,,
PHG6O0VZ4W,16/08/2021 11:01,16/08/2021 11:01,Pay Bill from 254707568664 - Ismael Kitsao Acc. v52,Completed,1600,,1600,TRUE,Pay Utility,254707568664 - Ismael Kitsao,,v52
PHG1NZ5OKJ,16/08/2021 10:25,16/08/2021 10:25,Utility Account to Organization Settlement Account,Completed,,-13300,0,TRUE,Utility Account to Organization Settlement Account,846783 - ANCIENT WELLS LTD 4,,
PHF4NNHCD6,15/08/2021 21:56,15/08/2021 21:56,Pay Bill from 254701196539 - GICHURI KARANJA Acc. Fee,Completed,400,,13300,TRUE,Pay Utility,254701196539 - GICHURI KARANJA,,Fee
PHF7MLI77H,15/08/2021 10:01,15/08/2021 10:01,Pay Bill Online from 254726877391 - EVERLYNE ATIENO Acc. JGI,Completed,1500,,12900,TRUE,Pay Utility with OD Online,254726877391 - EVERLYNE ATIENO,,JGI
PHE7MABRRF,14/08/2021 21:26,14/08/2021 21:26,Pay Bill from 254713916352 - WINFRED KATUNGWA NDALA Acc. V30,Completed,200,,11400,TRUE,Pay Utility,254713916352 - WINFRED KATUNGWA NDALA,,V30
PHE3M279NP,14/08/2021 19:20,14/08/2021 19:20,Pay Bill from 254700218502 - GRACE NGURE Acc. v46,Completed,6600,,11200,TRUE,Pay Utility,254700218502 - GRACE NGURE,,v46
PHE4L8XFLQ,14/08/2021 11:07,14/08/2021 11:07,Pay Bill from 254740306063 - susan wanja thurui Acc. Acc.Hfg,Completed,1600,,4600,TRUE,Pay Utility,254740306063 - susan wanja thurui,,Acc.Hfg
PHE1L2XBR7,14/08/2021 08:59,14/08/2021 08:59,Pay Bill from 254719779657 - SAMUEL NJOROGE Acc. JGA,Completed,3000,,3000,TRUE,Pay Utility,254719779657 - SAMUEL NJOROGE,,JGA
PHD5JPKW1D,13/08/2021 10:06,13/08/2021 10:06,Utility Account to Organization Settlement Account,Completed,,-3800,0,TRUE,Utility Account to Organization Settlement Account,846783 - ANCIENT WELLS LTD 4,,
PHD0JP9DSG,13/08/2021 09:59,13/08/2021 09:59,Pay Bill Online from 254727766786 - JOHN MAITHA MULWA Acc. IBH,Completed,2400,,3800,TRUE,Pay Bill Online,254727766786 - JOHN MAITHA MULWA,,IBH
PHC0J30DFU,12/08/2021 18:51,12/08/2021 18:51,Pay Bill from 0717042461 - Sharon Nyangasi Shivachi Acc. V55,Completed,200,,1400,TRUE,Pay Utility with OD via STK,0717042461 - Sharon Nyangasi Shivachi,,V55
PHC1IVA88L,12/08/2021 16:56,12/08/2021 16:56,Pay Bill from 254797601911 - JORAM MASAI KILONZO Acc. KTE,Completed,1200,,1200,TRUE,Pay Utility,254797601911 - JORAM MASAI KILONZO,,KTE
PHC6IOY8B6,12/08/2021 14:52,12/08/2021 14:52,Utility Account to Organization Settlement Account,Completed,,-4960,0,TRUE,Utility Account to Organization Settlement Account,846783 - ANCIENT WELLS LTD 4,,
PHB1I0RXQH,11/08/2021 22:03,11/08/2021 22:03,Pay Bill from 254720623535 - JOSEPH MUTURI KAMAU Acc. V32,Completed,200,,4960,TRUE,Pay Utility with OD via STK,254720623535 - JOSEPH MUTURI KAMAU,,V32
PHB1HWT6QL,11/08/2021 20:36,11/08/2021 20:36,Pay Bill from 254720351482 - Cheruiyot Langat Brian Acc. dfa,Completed,800,,4760,TRUE,Pay Utility,254720351482 - Cheruiyot Langat Brian,,dfa
PHB2HCCEX4,11/08/2021 15:30,11/08/2021 15:30,Pay Bill from 254726337163 - HALIMA ALI HASSAN Acc. DDA,Completed,500,,3960,TRUE,Pay Utility,254726337163 - HALIMA ALI HASSAN,,DDA
PHB4GR4VPQ,11/08/2021 08:01,11/08/2021 08:01,Pay Bill from 0711239204 - shichenga wawire mark Acc. D2,Completed,200,,3460,TRUE,Pay Utility,0711239204 - shichenga wawire mark,,D2
PHA9GJA64T,10/08/2021 21:00,10/08/2021 21:00,Pay Bill from 254710635630 - DONNA JESSICA OWANO Acc. KCC,Completed,400,,3260,TRUE,Pay Utility,254710635630 - DONNA JESSICA OWANO,,KCC
PHA0GEQ3DS,10/08/2021 19:48,10/08/2021 19:48,Pay Bill from 254720361605 - DAUD AMBER Acc. IGH,Completed,2200,,2860,TRUE,Pay Utility,254720361605 - DAUD AMBER,,IGH
PHA7G0A5TR,10/08/2021 16:25,10/08/2021 16:25,Pay Bill from 254718672924 - LILIAN CHEBET NGENO Acc. KGD,Completed,60,,660,TRUE,Pay Utility,254718672924 - LILIAN CHEBET NGENO,,KGD
PHA3FWLZ87,10/08/2021 15:15,10/08/2021 15:15,Pay Bill from 254700218502 - GRACE NGURE Acc. v46,Completed,600,,600,TRUE,Pay Utility,254700218502 - GRACE NGURE,,v46
PHA9FR8L85,10/08/2021 13:31,10/08/2021 13:31,Utility Account to Organization Settlement Account,Completed,,-6700,0,TRUE,Utility Account to Organization Settlement Account,846783 - ANCIENT WELLS LTD 4,,
PHA4F9NDRW,10/08/2021 06:53,10/08/2021 06:53,Pay Bill Online from 0740422187 - KEVIN MAKATO KUNGA Acc. KEG,Completed,200,,6700,TRUE,Pay Bill Online,0740422187 - KEVIN MAKATO KUNGA,,KEG
PH99F1CXNP,09/08/2021 20:27,09/08/2021 20:27,Pay Bill from 254728259571 - ANNE KASIVA Acc. ieb,Completed,1200,,6500,TRUE,Pay Utility,254728259571 - ANNE KASIVA,,ieb
PH95EUNRCJ,09/08/2021 19:02,09/08/2021 19:02,Pay Bill Online from 254728687482 - KELSEN MWIRIGI MUTIGA Acc. HCE,Completed,800,,5300,TRUE,Pay Bill Online,254728687482 - KELSEN MWIRIGI MUTIGA,,HCE
PH97EP6HZZ,09/08/2021 17:49,09/08/2021 17:49,Pay Bill Online from 254727725587 - IVY MACHARIA Acc. B2,Completed,400,,4500,TRUE,Pay Bill Online,254727725587 - IVY MACHARIA,,B2
PH98ENFVNC,09/08/2021 17:23,09/08/2021 17:23,Pay Bill from 254713701237 - Michael Wanjala Acc. G2,Completed,800,,4100,TRUE,Pay Utility,254713701237 - Michael Wanjala,,G2
PH95E8W8G7,09/08/2021 12:52,09/08/2021 12:52,Pay Bill from 0799028632 - WILSON MUTANGILI WAMBUA Acc. haf,Completed,400,,3300,TRUE,Pay Utility,0799028632 - WILSON MUTANGILI WAMBUA,,haf
PH94E50MJY,09/08/2021 11:37,09/08/2021 11:37,Pay Bill from 254726432241 - STEPHEN MAYABI Acc. A1,Completed,2900,,2900,TRUE,Pay Utility with OD via STK,254726432241 - STEPHEN MAYABI,,A1
PH99DZJREV,09/08/2021 09:51,09/08/2021 09:51,Utility Account to Organization Settlement Account,Completed,,-6900,0,TRUE,Utility Account to Organization Settlement Account,846783 - ANCIENT WELLS LTD 4,,
PH83DLDVRN,08/08/2021 20:42,08/08/2021 20:42,Pay Bill Online from 254720107609 - DENNIS OGENDI BARAKE Acc. JAJ,Completed,500,,6900,TRUE,Pay Bill Online,254720107609 - DENNIS OGENDI BARAKE,,JAJ
PH86DIEXPI,08/08/2021 19:55,08/08/2021 19:55,Pay Bill Online from 254725218904 - SALOME MUTHONI MWANGI Acc. KFJ,Completed,1000,,6400,TRUE,Pay Bill Online,254725218904 - SALOME MUTHONI MWANGI,,KFJ
PH84CY42GG,08/08/2021 14:24,08/08/2021 14:24,Pay Bill from 0715688238 - JOANNAH ATUHAIRE BANTU Acc. jae,Completed,400,,5400,TRUE,Pay Utility,0715688238 - JOANNAH ATUHAIRE BANTU,,jae
PH81CX0ZHT,08/08/2021 14:03,08/08/2021 14:03,Pay Bill Online from 254795983642 - OBED MOGAKA Acc. F6 OBED ,Completed,400,,5000,TRUE,Pay Bill Online,254795983642 - OBED MOGAKA,,F6
PH82CPLKD6,08/08/2021 11:21,08/08/2021 11:21,Pay Bill from 254708499439 - ROSE NDEDE Acc. HGF,Completed,600,,4600,TRUE,Pay Utility,254708499439 - ROSE NDEDE,,HGF
PH83CP4WZ5,08/08/2021 11:10,08/08/2021 11:10,Pay Bill from 254768687118 - mitchelle chepkemoi Acc. HFF,Completed,1000,,4000,TRUE,Pay Utility,254768687118 - mitchelle chepkemoi,,HFF
PH82COW9Q4,08/08/2021 11:05,08/08/2021 11:05,Pay Bill from 254712091662 - BENARD OMONDI ROBY Acc. V16,Completed,800,,3000,TRUE,Pay Utility,254712091662 - BENARD OMONDI ROBY,,V16
PH87CKLIPV,08/08/2021 09:25,08/08/2021 09:25,Pay Bill from 254724655033 - SUSAN CHIMOTO Acc. KGH,Completed,600,,2200,TRUE,Pay Utility,254724655033 - SUSAN CHIMOTO,,KGH
PH77CBRUKH,07/08/2021 21:55,07/08/2021 21:55,Pay Bill from 0792933158 - mary wamaitha maina Acc. kdh,Completed,400,,1600,TRUE,Pay Utility,0792933158 - mary wamaitha maina,,kdh
PH76BNYET0,07/08/2021 15:53,07/08/2021 15:53,Pay Bill from 254791318982 - ADULLAHI HASSAN Acc. JCI,Completed,1200,,1200,TRUE,Pay Utility,254791318982 - ADULLAHI HASSAN,,JCI
PH73BK3SI3,07/08/2021 14:44,07/08/2021 14:44,Utility Account to Organization Settlement Account,Completed,,-15300,0,TRUE,Utility Account to Organization Settlement Account,846783 - ANCIENT WELLS LTD 4,,
PH70BICYJ6,07/08/2021 14:11,07/08/2021 14:11,Pay Bill from 254727648419 - ABDISALAN AHMED Acc. Jbh,Completed,1600,,15300,TRUE,Pay Utility,254727648419 - ABDISALAN AHMED,,Jbh
PH79BBYFPN,07/08/2021 12:12,07/08/2021 12:12,Pay Bill from 254722136450 - MARY EVERLYN Acc. JAI,Completed,200,,13700,TRUE,Pay Utility with OD via STK,254722136450 - MARY EVERLYN,,JAI
PH71B9SJNL,07/08/2021 11:30,07/08/2021 11:30,Pay Bill from 254713159153 - GUYO SANKALA Acc. DGD,Completed,3600,,13500,TRUE,Pay Utility,254713159153 - GUYO SANKALA,,DGD
PH73B8B4ZT,07/08/2021 11:01,07/08/2021 11:01,Pay Bill from 254726337163 - HALIMA ALI HASSAN Acc. DDA,Completed,500,,9900,TRUE,Pay Utility,254726337163 - HALIMA ALI HASSAN,,DDA
PH74B6LNVM,07/08/2021 10:27,07/08/2021 10:27,Pay Bill from 254717985596 - NICHOLAS KIPKOECH BUTIA Acc. hcf,Completed,600,,9400,TRUE,Pay Utility,254717985596 - NICHOLAS KIPKOECH BUTIA,,hcf
PH76B47QZI,07/08/2021 09:38,07/08/2021 09:38,Pay Bill Online from 0796121714 - janet   mwikali Acc. KEC,Completed,600,,8800,TRUE,Pay Bill Online,0796121714 - janet   mwikali,,KEC
PH76B2V4C6,07/08/2021 09:08,07/08/2021 09:08,Pay Bill from 254729713741 - ALBANUS MUTISO Acc. JBD,Completed,2000,,8200,TRUE,Pay Utility,254729713741 - ALBANUS MUTISO,,JBD
PH65AWFTNB,06/08/2021 23:52,06/08/2021 23:52,Pay Bill from 254723643548 - KEVIN OUKO Acc. FDD,Completed,1000,,6200,TRUE,Pay Utility with OD via STK,254723643548 - KEVIN OUKO,,FDD
PH66AV7IDM,06/08/2021 22:27,06/08/2021 22:27,Pay Bill from 254718233980 - KAREN ASWANI Acc. HEC,Completed,600,,5200,TRUE,Pay Utility,254718233980 - KAREN ASWANI,,HEC
PH61AN0X6J,06/08/2021 19:51,06/08/2021 19:51,Pay Bill from 254723389922 - ANNE WANJIKU NDUNGU Acc. v53,Completed,300,,4600,TRUE,Pay Utility,254723389922 - ANNE WANJIKU NDUNGU,,v53
PH65ALDTBV,06/08/2021 19:31,06/08/2021 19:31,Pay Bill Online from 254707315614 - TERESAH WANJIRU KIRAGU Acc. JDI,Completed,3500,,4300,TRUE,Pay Bill Online,254707315614 - TERESAH WANJIRU KIRAGU,,JDI
PH60AE7N3I,06/08/2021 18:04,06/08/2021 18:04,Pay Bill Online from 254714597495 - WAMBUA KIOKO Acc. C1,Completed,800,,800,TRUE,Pay Bill Online,254714597495 - WAMBUA KIOKO,,C1
PH66A8ASKK,06/08/2021 16:34,06/08/2021 16:34,Utility Account to Organization Settlement Account,Completed,,-51250,0,TRUE,Utility Account to Organization Settlement Account,846783 - ANCIENT WELLS LTD 4,,
PH63A52RQ3,06/08/2021 15:36,06/08/2021 15:36,Pay Bill from 254726337163 - HALIMA ALI HASSAN Acc. DDA,Completed,500,,51250,TRUE,Pay Utility,254726337163 - HALIMA ALI HASSAN,,DDA
PH62A2V5WC,06/08/2021 14:55,06/08/2021 14:55,Pay Bill Online from 0724386624 - FATUMA ISSE YUSSUF Acc. FAB,Completed,1000,,50750,TRUE,Pay Bill Online,0724386624 - FATUMA ISSE YUSSUF,,FAB
PH649UOW0E,06/08/2021 12:20,06/08/2021 12:20,Pay Bill from 254710605251 - PAULINE OCHIENG Acc. HDC,Completed,1000,,49750,TRUE,Pay Utility,254710605251 - PAULINE OCHIENG,,HDC
PH699RMMB3,06/08/2021 11:20,06/08/2021 11:20,Pay Bill from 254725753814 - CARLYNE CHEPNGENO Acc. IFC,Completed,400,,48750,TRUE,Pay Utility,254725753814 - CARLYNE CHEPNGENO,,IFC
PH639K2IPT,06/08/2021 08:45,06/08/2021 08:45,Pay Bill Online from 254706549634 - CLINTON OMBASA Acc. FDB,Completed,800,,48350,TRUE,Pay Bill Online,254706549634 - CLINTON OMBASA,,FDB
PH659JJRAL,06/08/2021 08:32,06/08/2021 08:32,Pay Bill Online from 254722769473 - SAMSON CHALO Acc. IAB,Completed,1400,,47550,TRUE,Pay Utility with OD Online,254722769473 - SAMSON CHALO,,IAB
PH629IQTKA,06/08/2021 08:12,06/08/2021 08:12,Pay Bill from 254724882554 - ALPHONCE WAMBUA NGELI Acc. JDA,Completed,2000,,46150,TRUE,Pay Utility,254724882554 - ALPHONCE WAMBUA NGELI,,JDA
PH539DZTHF,05/08/2021 23:13,05/08/2021 23:13,Pay Bill Online from 254711562428 - Lionel Mutune Muoka Acc. KDI,Completed,400,,44150,TRUE,Pay Bill Online,254711562428 - Lionel Mutune Muoka,,KDI
PH539D4EX5,05/08/2021 22:25,05/08/2021 22:25,Pay Bill from 254796292434 - ANTONINA HAYA Acc. HED,Completed,1000,,43750,TRUE,Pay Utility,254796292434 - ANTONINA HAYA,,HED
PH579CM9FZ,05/08/2021 22:07,05/08/2021 22:07,Pay Bill Online from 254704995854 - james karanja wairimu Acc. V54,Completed,100,,42750,TRUE,Pay Bill Online,254704995854 - james karanja wairimu,,V54
PH569BZNRG,05/08/2021 21:49,05/08/2021 21:49,Pay Bill from 254720381965 - JAMES NGUGI MWANIKI Acc. JBI,Completed,2000,,42650,TRUE,Pay Utility,254720381965 - JAMES NGUGI MWANIKI,,JBI
PH559BO8KN,05/08/2021 21:41,05/08/2021 21:41,Pay Bill from 254718138578 - PAULINE KIOKO Acc. KFD,Completed,400,,40650,TRUE,Pay Utility,254718138578 - PAULINE KIOKO,,KFD
PH559BNQ8X,05/08/2021 21:41,05/08/2021 21:41,Pay Bill Online from 254704995854 - james karanja wairimu Acc. V54,Completed,100,,40250,TRUE,Pay Bill Online,254704995854 - james karanja wairimu,,V54
PH579B3OZ5,05/08/2021 21:28,05/08/2021 21:28,Pay Bill from 254704833344 - LOISE KIMANI Acc. jfa,Completed,1000,,40150,TRUE,Pay Utility,254704833344 - LOISE KIMANI,,jfa
PH549AHOAY,05/08/2021 21:16,05/08/2021 21:16,Pay Bill from 254727585857 - PETER MUOKI NGUNDO Acc. peter muoki e6,Completed,600,,39150,TRUE,Pay Utility,254727585857 - PETER MUOKI NGUNDO,,peter
PH5998HTUL,05/08/2021 20:41,05/08/2021 20:41,Pay Bill from 254722578070 - SAMUEL MACHARIA Acc. v42,Completed,600,,38550,TRUE,Pay Utility,254722578070 - SAMUEL MACHARIA,,v42
PH5797W9MN,05/08/2021 20:32,05/08/2021 20:32,Pay Bill from 254726465584 - JULIANA MUKELI MUTUNGA Acc. v4,Completed,600,,37950,TRUE,Pay Utility,254726465584 - JULIANA MUKELI MUTUNGA,,v4
PH5396NRD5,05/08/2021 20:14,05/08/2021 20:14,Pay Bill from 254724953672 - MERCY MBETI Acc. JCA,Completed,2400,,37350,TRUE,Pay Utility,254724953672 - MERCY MBETI,,JCA
PH58959RJE,05/08/2021 19:55,05/08/2021 19:55,Pay Bill Online from 254711877988 - PATRICK KONZI Acc. b4,Completed,1000,,34950,TRUE,Pay Bill Online,254711877988 - PATRICK KONZI,,b4
PH5292JYJE,05/08/2021 19:23,05/08/2021 19:23,Pay Bill Online from 254715002789 - ERICK NGUGI MAINA Acc. HAG,Completed,1400,,33950,TRUE,Pay Bill Online,254715002789 - ERICK NGUGI MAINA,,HAG
PH588YA998,05/08/2021 18:33,05/08/2021 18:33,Pay Bill from 0792441884 - CORNELIA CONRAD MVULA Acc. IBB,Completed,1200,,32550,TRUE,Pay Utility,0792441884 - CORNELIA CONRAD MVULA,,IBB
PH528TLTH8,05/08/2021 17:25,05/08/2021 17:25,Pay Bill from 254726403551 - VICTOR KIRUMA Acc. u2,Completed,400,,31350,TRUE,Pay Utility,254726403551 - VICTOR KIRUMA,,u2
PH588PTEPW,05/08/2021 16:21,05/08/2021 16:21,Pay Bill Online from 254713966424 - NDUTI MUTHUI Acc. JED,Completed,1200,,30950,TRUE,Pay Bill Online,254713966424 - NDUTI MUTHUI,,JED
PH578MUZZ7,05/08/2021 15:25,05/08/2021 15:25,Pay Bill Online from 254708703539 - SUSAN NDUGIRE NDUGIRE Acc. KDA,Completed,800,,29750,TRUE,Pay Bill Online,254708703539 - SUSAN NDUGIRE NDUGIRE,,KDA
PH558KX01X,05/08/2021 14:47,05/08/2021 14:47,Pay Bill from 254729371750 - DERRICK OTANGA Acc. FEF,Completed,800,,28950,TRUE,Pay Utility,254729371750 - DERRICK OTANGA,,FEF
PH518J3O7P,05/08/2021 14:12,05/08/2021 14:12,Pay Bill from 254791273726 - JULLIET WINNIE OTIENO Acc. G1,Completed,200,,28150,TRUE,Pay Utility,254791273726 - JULLIET WINNIE OTIENO,,G1
PH5989Z8JZ,05/08/2021 11:14,05/08/2021 11:14,Pay Bill from 254723815832 - SEMEKIA ONDIALA Acc. v38,Completed,1000,,27950,TRUE,Pay Utility,254723815832 - SEMEKIA ONDIALA,,v38
PH5181RY2T,05/08/2021 08:16,05/08/2021 08:16,Pay Bill from 0791391378 - Sophie Mueni Muvithu Acc. Hse. U6 Sophie Mueni,Completed,600,,26950,TRUE,Pay Utility,0791391378 - Sophie Mueni Muvithu,,Hse.
PH5681NR4I,05/08/2021 08:14,05/08/2021 08:14,Pay Bill from 254725771056 - CHARLES MURAGURI Acc. FCE,Completed,1000,,26350,TRUE,Pay Utility,254725771056 - CHARLES MURAGURI,,FCE
PH51805VTD,05/08/2021 07:29,05/08/2021 07:29,Pay Bill from 254723929380 - RHODAH K WAMBUA Acc. HEF,Completed,1000,,25350,TRUE,Pay Utility,254723929380 - RHODAH K WAMBUA,,HEF
PH53803TXZ,05/08/2021 07:27,05/08/2021 07:27,Pay Bill from 254748354739 - Valary Bhoke Mwita Acc. G3,Completed,1400,,24350,TRUE,Pay Utility,254748354739 - Valary Bhoke Mwita,,G3
PH547ZL88A,05/08/2021 07:07,05/08/2021 07:07,Pay Bill from 254713404029 - ANNE ISEUNA Acc. DED,Completed,2800,,22950,TRUE,Pay Utility,254713404029 - ANNE ISEUNA,,DED
PH427WYQYY,04/08/2021 23:55,04/08/2021 23:55,Pay Bill from 254728670882 - SHARAD EDWARD ADALA OLUM Acc. KCK,Completed,1600,,20150,TRUE,Pay Utility,254728670882 - SHARAD EDWARD ADALA OLUM,,KCK
PH427W5V84,04/08/2021 22:47,04/08/2021 22:47,Pay Bill from 254716702294 - DANIEL MULATI Acc. KBE,Completed,200,,18550,TRUE,Pay Utility,254716702294 - DANIEL MULATI,,KBE
PH427QTP1E,04/08/2021 20:34,04/08/2021 20:34,Pay Bill from 254724466518 - EUNICE NDUTA Acc. KFF,Completed,1000,,18350,TRUE,Pay Utility,254724466518 - EUNICE NDUTA,,KFF
PH407P0GVQ,04/08/2021 20:07,04/08/2021 20:07,Pay Bill from 254708915764 - GEORGE WAHOME Acc. V18,Completed,200,,17350,TRUE,Pay Utility,254708915764 - GEORGE WAHOME,,V18
PH427GSHW2,04/08/2021 18:26,04/08/2021 18:26,Pay Bill from 254720511734 - ENOCK KIBET Acc. FDC,Completed,200,,17150,TRUE,Pay Utility,254720511734 - ENOCK KIBET,,FDC
PH467EDKXE,04/08/2021 17:53,04/08/2021 17:53,Pay Bill Online from 254718359438 - AHMAD TAHIR MACHENGO Acc. V11,Completed,400,,16950,TRUE,Pay Bill Online,254718359438 - AHMAD TAHIR MACHENGO,,V11
PH467B0SPK,04/08/2021 17:02,04/08/2021 17:02,Pay Bill from 254703108159 - JOICE OGOLLA Acc. V50,Completed,400,,16550,TRUE,Pay Utility,254703108159 - JOICE OGOLLA,,V50
PH4679KS52,04/08/2021 16:38,04/08/2021 16:38,Pay Bill from 254701027615 - JAMES KIPKURUI KEMBOI Acc. HAB,Completed,1000,,16150,TRUE,Pay Utility,254701027615 - JAMES KIPKURUI KEMBOI,,HAB
PH45791M97,04/08/2021 16:29,04/08/2021 16:29,Pay Bill Online from 254722258756 - DAVID KEMBOI Acc. HDA,Completed,800,,15150,TRUE,Pay Bill Online,254722258756 - DAVID KEMBOI,,HDA
PH4474R19G,04/08/2021 15:08,04/08/2021 15:08,Pay Bill from 254719398942 - NORAH WAYUA MUNYAO Acc. KDC,Completed,1000,,14350,TRUE,Pay Utility,254719398942 - NORAH WAYUA MUNYAO,,KDC
PH446ZZGJ8,04/08/2021 13:37,04/08/2021 13:37,Pay Bill from 254726687555 - ELIUD MUTHURE MICHENI Acc. KAI,Completed,400,,13350,TRUE,Pay Utility,254726687555 - ELIUD MUTHURE MICHENI,,KAI
PH426W02QQ,04/08/2021 12:22,04/08/2021 12:22,Pay Bill from 254728664261 - LEVIN INGATI NYONJE Acc. B5,Completed,800,,12950,TRUE,Pay Utility,254728664261 - LEVIN INGATI NYONJE,,B5
PH496SRTQ3,04/08/2021 11:19,04/08/2021 11:19,Pay Bill from 254717465142 - EPHANTUS IRURA Acc. C4 muriithi,Completed,400,,12150,TRUE,Pay Utility,254717465142 - EPHANTUS IRURA,,C4
PH426OUHI2,04/08/2021 10:01,04/08/2021 10:01,Pay Bill from 254723499628 - CLINTON JOSEPH MUHARI Acc. hfh,Completed,800,,11750,TRUE,Pay Utility,254723499628 - CLINTON JOSEPH MUHARI,,hfh
PH486OOGP8,04/08/2021 09:58,04/08/2021 09:58,Pay Bill from 254726977770 - STEPHEN MUIRURI MATHENGE Acc. HBG,Completed,600,,10950,TRUE,Pay Utility,254726977770 - STEPHEN MUIRURI MATHENGE,,HBG
PH416OKLZ5,04/08/2021 09:56,04/08/2021 09:56,Pay Bill Online from 254715144865 - CAROL JULIET MUGOYA Acc. E2,Completed,750,,10350,TRUE,Pay Bill Online,254715144865 - CAROL JULIET MUGOYA,,E2
PH496MC5JZ,04/08/2021 09:08,04/08/2021 09:08,Pay Bill Online from 254715020357 - ELIZABETH NJERI WARARI Acc. C2,Completed,400,,9600,TRUE,Pay Bill Online,254715020357 - ELIZABETH NJERI WARARI,,C2
PH476L5YUL,04/08/2021 08:41,04/08/2021 08:41,Pay Bill from 254712791601 - JOHN MAINA Acc. IGF,Completed,600,,9200,TRUE,Pay Utility with OD via STK,254712791601 - JOHN MAINA,,IGF
PH486KXK6S,04/08/2021 08:36,04/08/2021 08:36,Pay Bill from 0702488412 - SAMUEL MUTUA ANNASTACIA Acc. JEI,Completed,1400,,8600,TRUE,Pay Utility,0702488412 - SAMUEL MUTUA ANNASTACIA,,JEI
PH486K84DW,04/08/2021 08:18,04/08/2021 08:18,Pay Bill from 254729948896 - CAROLINE V MILIZA Acc. Fec,Completed,600,,7200,TRUE,Pay Utility,254729948896 - CAROLINE V MILIZA,,Fec
PH436HD5LB,04/08/2021 06:35,04/08/2021 06:35,Pay Bill Online from 254722307003 - NIGEL BOMETT Acc. V01,Completed,600,,6600,TRUE,Pay Bill Online,254722307003 - NIGEL BOMETT,,V01
PH316EPHVX,03/08/2021 23:04,03/08/2021 23:04,Pay Bill from 254700187806 - WINNIE OLIVIA AKOTH Acc. jec,Completed,600,,6000,TRUE,Pay Utility,254700187806 - WINNIE OLIVIA AKOTH,,jec
PH326CVYYK,03/08/2021 21:52,03/08/2021 21:52,Pay Bill Online from 254798844460 - WYCLIFFE ODHIAMBO NYAGOA Acc. KAC,Completed,400,,5400,TRUE,Pay Bill Online,254798844460 - WYCLIFFE ODHIAMBO NYAGOA,,KAC
PH316CKWBZ,03/08/2021 21:44,03/08/2021 21:44,Pay Bill from 254728476791 - CAROLE ACHIENG Acc. KCF,Completed,1200,,5000,TRUE,Pay Utility,254728476791 - CAROLE ACHIENG,,KCF
PH336C6DK1,03/08/2021 21:35,03/08/2021 21:35,Pay Bill from 254728681775 - Faith Abigael Acc. IAF,Completed,1200,,3800,TRUE,Pay Utility,254728681775 - Faith Abigael,,IAF
PH376BY42F,03/08/2021 21:30,03/08/2021 21:30,Pay Bill from 254712791601 - JOHN MAINA Acc. IGF,Completed,1200,,2600,TRUE,Pay Utility,254712791601 - JOHN MAINA,,IGF
PH376ASQ6B,03/08/2021 21:08,03/08/2021 21:08,Pay Bill from 254726178084 - CHRISTOPHER OCHIENG Acc. ffe,Completed,800,,1400,TRUE,Pay Utility,254726178084 - CHRISTOPHER OCHIENG,,ffe
PH3160OTJN,03/08/2021 18:53,03/08/2021 18:53,Pay Bill from 0745378455 - harriet nyanchama nyaberi Acc. FCC,Completed,600,,600,TRUE,Pay Utility,0745378455 - harriet nyanchama nyaberi,,FCC
PH395YIQKV,03/08/2021 18:25,03/08/2021 18:25,Utility Account to Organization Settlement Account,Completed,,-24300,0,TRUE,Utility Account to Organization Settlement Account,846783 - ANCIENT WELLS LTD 4,,
PH345IJS2C,03/08/2021 13:47,03/08/2021 13:47,Pay Bill from 254724852503 - GEOFREY YEGO Acc. JFF,Completed,500,,24300,TRUE,Pay Utility,254724852503 - GEOFREY YEGO,,JFF
PH335G95Q7,03/08/2021 13:03,03/08/2021 13:03,Pay Bill Online from 254708225541 - JUDITH NKATHA SIMBA Acc. HDH,Completed,1000,,23800,TRUE,Pay Bill Online,254708225541 - JUDITH NKATHA SIMBA,,HDH
PH3559VDIT,03/08/2021 10:58,03/08/2021 10:58,Pay Bill from 0743914369 - LYDIAH NJOKI MUCHIRI Acc. jeb,Completed,15000,,22800,TRUE,Pay Utility,0743914369 - LYDIAH NJOKI MUCHIRI,,jeb
PH3257FP6Y,03/08/2021 10:09,03/08/2021 10:09,Pay Bill Online from 254710814215 - JOAN NYAMBURA KAMAU Acc. ifb,Completed,800,,7800,TRUE,Pay Bill Online,254710814215 - JOAN NYAMBURA KAMAU,,ifb
PH305486UW,03/08/2021 09:02,03/08/2021 09:02,Pay Bill from 254700890378 - MERCY KIMORI Acc. FAA,Completed,1400,,7000,TRUE,Pay Utility,254700890378 - MERCY KIMORI,,FAA
PH3750HTFB,03/08/2021 07:26,03/08/2021 07:26,Pay Bill from 254717726012 - WINFRED MUENI PETER Acc. IDA,Completed,600,,5600,TRUE,Pay Utility,254717726012 - WINFRED MUENI PETER,,IDA
PH234V6GH9,02/08/2021 21:38,02/08/2021 21:38,Pay Bill from 254758951969 - WILKISTER IRAKO HARAMBEE Acc. 37847739,Completed,200,,5000,TRUE,Pay Utility,254758951969 - WILKISTER IRAKO HARAMBEE,,37847739
PH294UPEBP,02/08/2021 21:27,02/08/2021 21:27,Pay Bill from 254702152790 - Michelle Ndunge Kyalo Acc. IDE,Completed,200,,4800,TRUE,Pay Utility,254702152790 - Michelle Ndunge Kyalo,,IDE
PH284P94WO,02/08/2021 19:56,02/08/2021 19:56,Pay Bill from 254707226192 - NICHOLUS MAINGI MWANTHI Acc. HBF,Completed,400,,4600,TRUE,Pay Utility,254707226192 - NICHOLUS MAINGI MWANTHI,,HBF
PH284MFS5E,02/08/2021 19:22,02/08/2021 19:22,Pay Bill from 0798660933 - JOSEPH NEWTON GUNI Acc. IAI,Completed,700,,4200,TRUE,Pay Utility,0798660933 - JOSEPH NEWTON GUNI,,IAI
PH284H4MS8,02/08/2021 18:17,02/08/2021 18:17,Pay Bill from 254713205244 - ROBERT OGALO Acc. KBH,Completed,400,,3500,TRUE,Pay Utility,254713205244 - ROBERT OGALO,,KBH
PH254DYWQ1,02/08/2021 17:31,02/08/2021 17:31,Pay Bill from 254725385966 - JOSEPH MUYA MARUA Acc. KEE,Completed,1200,,3100,TRUE,Pay Utility,254725385966 - JOSEPH MUYA MARUA,,KEE
PH2042I7Y0,02/08/2021 14:05,02/08/2021 14:05,Pay Bill Online from 254716784364 - Wendy Kemunto Nyandiko Acc. FFC,Completed,600,,1900,TRUE,Pay Bill Online,254716784364 - Wendy Kemunto Nyandiko,,FFC
PH2642003W,02/08/2021 13:56,02/08/2021 13:56,Pay Bill from 254726337163 - HALIMA ALI HASSAN Acc. DDA,Completed,500,,1300,TRUE,Pay Utility,254726337163 - HALIMA ALI HASSAN,,DDA
PH213YVC5B,02/08/2021 12:58,02/08/2021 12:58,Pay Bill from 254703180395 - JANE NYAGUTHII MWAGO Acc. IBE,Completed,400,,800,TRUE,Pay Utility,254703180395 - JANE NYAGUTHII MWAGO,,IBE
PH293TD2CZ,02/08/2021 11:12,02/08/2021 11:12,Pay Bill from 254721302658 - JACOB BIRUNDU Acc. DDB,Completed,400,,400,TRUE,Pay Utility,254721302658 - JACOB BIRUNDU,,DDB
PH273TADFR,02/08/2021 11:11,02/08/2021 11:11,Utility Account to Organization Settlement Account,Completed,,-2700,0,TRUE,Utility Account to Organization Settlement Account,846783 - ANCIENT WELLS LTD 4,,
PH273PZBX5,02/08/2021 10:07,02/08/2021 10:07,Pay Bill Online from 254714563486 - BRIAN MMATA MUSERA Acc. KBJ,Completed,400,,2700,TRUE,Pay Bill Online,254714563486 - BRIAN MMATA MUSERA,,KBJ
PH273I1SBV,02/08/2021 06:37,02/08/2021 06:37,Pay Bill from 254700788416 - MERCY KASILI Acc. ife,Completed,400,,2300,TRUE,Pay Utility,254700788416 - MERCY KASILI,,ife
PH103EXE1K,01/08/2021 22:26,01/08/2021 22:26,Pay Bill Online from 254717780356 - ALFRED MAIRURA Acc. FAF,Completed,1500,,1900,TRUE,Pay Bill Online,254717780356 - ALFRED MAIRURA,,FAF
PH163DHRT2,01/08/2021 21:39,01/08/2021 21:39,Pay Bill Online from 254717809935 - LYDIAH WERU Acc. idc,Completed,400,,400,TRUE,Pay Bill Online,254717809935 - LYDIAH WERU,,idc
PH183ABW6Q,01/08/2021 20:34,01/08/2021 20:34,Utility Account to Organization Settlement Account,Completed,,-9800,0,TRUE,Utility Account to Organization Settlement Account,846783 - ANCIENT WELLS LTD 4,,
PH1339VEUV,01/08/2021 20:26,01/08/2021 20:26,Pay Bill from 254702355678 - JOHN NJOROGE GICHERU Acc. ITE,Completed,1000,,9800,TRUE,Pay Utility,254702355678 - JOHN NJOROGE GICHERU,,ITE
PH132XTNPV,01/08/2021 17:33,01/08/2021 17:33,Pay Bill Online from 254715892656 - DENNIS MUSYOKA MUOKI Acc. KFA,Completed,400,,8800,TRUE,Pay Bill Online,254715892656 - DENNIS MUSYOKA MUOKI,,KFA
PH152JMGPB,01/08/2021 13:05,01/08/2021 13:05,Pay Bill from 254769102712 - VALARIA VUTALE AZENGA Acc. KAD,Completed,400,,8400,TRUE,Pay Utility with OD via STK,254769102712 - VALARIA VUTALE AZENGA,,KAD
PH112J3TZ3,01/08/2021 12:54,01/08/2021 12:54,Pay Bill from 254716315144 - PETER MUNYIRI WAROTERE Acc. FBB,Completed,400,,8000,TRUE,Pay Utility,254716315144 - PETER MUNYIRI WAROTERE,,FBB
PH162ITKTS,01/08/2021 12:48,01/08/2021 12:48,Pay Bill Online from 254795510441 - LEWIS MUEMA Acc. KEB,Completed,600,,7600,TRUE,Pay Bill Online,254795510441 - LEWIS MUEMA,,KEB
PH132IILVN,01/08/2021 12:41,01/08/2021 12:41,Pay Bill from 254710239100 - PHILOMENA WOKI MUTHAMA Acc. KDK,Completed,800,,7000,TRUE,Pay Utility,254710239100 - PHILOMENA WOKI MUTHAMA,,KDK
PH132FE6DN,01/08/2021 11:31,01/08/2021 11:31,Pay Bill from 254721465713 - RHODA WAMBUI MWANGI Acc. Jfh,Completed,800,,6200,TRUE,Pay Utility,254721465713 - RHODA WAMBUI MWANGI,,Jfh
PH172F9VRD,01/08/2021 11:28,01/08/2021 11:28,Pay Bill from 254714855708 - KIPLANGAT SITIENEI Acc. FAE,Completed,600,,5400,TRUE,Pay Utility,254714855708 - KIPLANGAT SITIENEI,,FAE
PH182CKCBQ,01/08/2021 10:25,01/08/2021 10:25,Pay Bill from 254729796719 - JACINTA WANJIKU NJERI Acc. FFF,Completed,600,,4800,TRUE,Pay Utility,254729796719 - JACINTA WANJIKU NJERI,,FFF
PH132934G9,01/08/2021 09:02,01/08/2021 09:02,Pay Bill from 254724865383 - LUCY ODUOL Acc. KFE,Completed,600,,4200,TRUE,Pay Utility,254724865383 - LUCY ODUOL,,KFE
