Receipt No.,Completion Time,Initiation Time,Details,Transaction Status,Paid In,Withdrawn,Balance,Balance Confirmed,Reason Type,Other Party Info,Linked Transaction ID,A/C No.
SAM8R6EMRM,22/01/2024 15:39,22/01/2024 15:39,Pay Bill Online from 254710***381 - JANE *** Acc. HAF,Completed,10000,,46000,TRUE,Pay Bill Online,254710***381 - JANE ***,,HAF
SAM5QAQSA5,22/01/2024 11:05,22/01/2024 11:05,Pay Bill Online from 254720***609 - DENNIS *** Acc. JAJ,Completed,15000,,36000,TRUE,Pay Bill Online,254720***609 - DENNIS ***,,JAJ
SAM4Q8887M,22/01/2024 10:42,22/01/2024 10:42,Pay Bill Online from 254717***969 - IAN *** Acc. FDD,Completed,21000,,21000,TRUE,Pay Bill Online,254717***969 - IAN ***,,FDD
SAM1Q0OFIX,22/01/2024 09:30,22/01/2024 09:30,Utility Account to Organization Settlement Account,Completed,,-11500,0,TRUE,Utility Account to Organization Settlement Account,979524 - ANCIENT WELLS PROPERTY MANAGERS 2,,
SAM0PZVDBA,22/01/2024 09:22,22/01/2024 09:22,Pay Bill from 254707***264 - KELVIN *** Acc. HDE,Completed,10500,,11500,TRUE,Pay Utility,254707***264 - KELVIN ***,,HDE
SAL7P7PHNF,21/01/2024 21:14,21/01/2024 21:14,Pay Bill from 254703***626 - DAVID *** Acc. FCD,Completed,1000,,1000,TRUE,Pay Utility,254703***626 - DAVID ***,,FCD
SAL2N8J09I,21/01/2024 11:38,21/01/2024 11:38,Utility Account to Organization Settlement Account,Completed,,-2000,0,TRUE,Utility Account to Organization Settlement Account,979524 - ANCIENT WELLS PROPERTY MANAGERS 2,,
SAK1MG47BV,20/01/2024 23:58,20/01/2024 23:58,Pay Bill from 254703***626 - DAVID *** Acc. FCD,Completed,2000,,2000,TRUE,Pay Utility with OD via STK,254703***626 - DAVID ***,,FCD
SAK0K7CPU6,20/01/2024 13:02,20/01/2024 13:02,Utility Account to Organization Settlement Account,Completed,,-286500,0,TRUE,Utility Account to Organization Settlement Account,979524 - ANCIENT WELLS PROPERTY MANAGERS 2,,
SAK3K492BH,20/01/2024 12:35,20/01/2024 12:35,Pay Bill from 072253***422 - ANTHONY *** Acc. JBD,Completed,5000,,286500,TRUE,Pay Utility,072253***422 - ANTHONY ***,,JBD
SAK8JVNHMQ,20/01/2024 11:16,20/01/2024 11:16,Pay Bill from 254722***574 - ALLAN *** Acc. jcg,Completed,20000,,281500,TRUE,Pay Utility,254722***574 - ALLAN ***,,jcg
SAJ3IMRBYB,19/01/2024 20:40,19/01/2024 20:40,Pay Bill Online from 254711***087 - MUTHIANI *** Acc. IDB ,Completed,15000,,261500,TRUE,Pay Bill Online,254711***087 - MUTHIANI ***,,IDB
SAJ0HWPV3W,19/01/2024 18:07,19/01/2024 18:07,Pay Bill from 254714***944 - MERCY *** Acc. hff,Completed,10000,,246500,TRUE,Pay Utility,254714***944 - MERCY ***,,hff
SAJ0HKSXIY,19/01/2024 16:42,19/01/2024 16:42,Pay Bill from 254796***496 - IVY *** Acc. FAA,Completed,3000,,236500,TRUE,Pay Utility,254796***496 - IVY ***,,FAA
SAJ5H5RK9H,19/01/2024 14:31,19/01/2024 14:31,Pay Bill from 254729***441 - ROBERT *** Acc. JFI,Completed,20000,,233500,TRUE,Pay Utility,254729***441 - ROBERT ***,,JFI
SAJ6GOP86C,19/01/2024 12:01,19/01/2024 12:01,Pay Bill from 254718***819 - SOLOMON *** Acc. DGD,Completed,5000,,213500,TRUE,Pay Utility,254718***819 - SOLOMON ***,,DGD
SAJ3GLQJIN,19/01/2024 11:33,19/01/2024 11:33,Pay Bill Online from 254720***070 - Michelle *** Acc. JEJ,Completed,3500,,208500,TRUE,Pay Bill Online,254720***070 - Michelle ***,,JEJ
SAJ5FUG2AR,19/01/2024 06:27,19/01/2024 06:27,Pay Bill Online from 254702***887 - Nax *** Acc. FDE,Completed,15000,,205000,TRUE,Pay Bill Online,254702***887 - Nax ***,,FDE
SAJ6FRKPPY,19/01/2024 02:09,19/01/2024 02:09,Pay Bill Online from 254723***071 - AMOS *** Acc. JCE,Completed,9000,,190000,TRUE,Pay Bill Online,254723***071 - AMOS ***,,JCE
SAI4FMUQ4C,18/01/2024 22:41,18/01/2024 22:41,Pay Bill from 254724***046 - GIDEON *** Acc. kfh,Completed,3000,,181000,TRUE,Pay Utility,254724***046 - GIDEON ***,,kfh
SAI7FL65AF,18/01/2024 22:17,18/01/2024 22:17,Pay Bill Online from 254720***070 - Michelle *** Acc. JEJ,Completed,7500,,178000,TRUE,Pay Utility with OD Online,254720***070 - Michelle ***,,JEJ
SAI5EYB2UJ,18/01/2024 19:28,18/01/2024 19:28,Pay Bill Online from 254712***681 - DENNIS *** Acc. HAG,Completed,16000,,170500,TRUE,Pay Bill Online,254712***681 - DENNIS ***,,HAG
SAI0EXMGUK,18/01/2024 19:25,18/01/2024 19:25,Pay Bill Online from 254722***115 - NORAH *** Acc. HAC,Completed,10000,,154500,TRUE,Pay Bill Online,254722***115 - NORAH ***,,HAC
SAI8ER8ZJ0,18/01/2024 18:49,18/01/2024 18:49,Pay Bill from 074224***143 - Eddy *** Acc. KFF,Completed,7000,,144500,TRUE,Pay Utility,074224***143 - Eddy ***,,KFF
SAI6EPFQ5G,18/01/2024 18:38,18/01/2024 18:38,Pay Bill from 071556***922 - diramu *** Acc. HBD,Completed,10000,,137500,TRUE,Pay Utility,071556***922 - diramu ***,,HBD
SAI5EP6CL7,18/01/2024 18:37,18/01/2024 18:37,Pay Bill Online from 254704***576 - NICODEMUS *** Acc. HBC,Completed,5500,,127500,TRUE,Pay Bill Online,254704***576 - NICODEMUS ***,,HBC
SAI7EMZVLJ,18/01/2024 18:23,18/01/2024 18:23,Pay Bill Online from 254717***969 - IAN *** Acc. FDD,Completed,2700,,122000,TRUE,Pay Bill Online,254717***969 - IAN ***,,FDD
SAI9EMU1GL,18/01/2024 18:22,18/01/2024 18:22,Pay Bill Online from 254717***969 - IAN *** Acc. FDD,Completed,300,,119300,TRUE,Pay Bill Online,254717***969 - IAN ***,,FDD
SAI6EIJ5SW,18/01/2024 17:53,18/01/2024 17:53,Pay Bill from 254799***271 - CALVIN *** Acc. FEB,Completed,15000,,119000,TRUE,Pay Utility,254799***271 - CALVIN ***,,FEB
SAI3E9K03H,18/01/2024 16:46,18/01/2024 16:46,Pay Bill from 074378***968 - Dallias *** Acc. hbb,Completed,3000,,104000,TRUE,Pay Utility,074378***968 - Dallias ***,,hbb
SAI4DTEK2G,18/01/2024 14:24,18/01/2024 14:24,Pay Bill from 075725***130 - RASHID *** Acc. JAF,Completed,3000,,101000,TRUE,Pay Utility,075725***130 - RASHID ***,,JAF
SAI2DNZ0PQ,18/01/2024 13:36,18/01/2024 13:36,Pay Bill Online from 254728***864 - MOULINE *** Acc. IAA,Completed,28000,,98000,TRUE,Pay Utility with OD Online,254728***864 - MOULINE ***,,IAA
SAI9DMF1RL,18/01/2024 13:22,18/01/2024 13:22,Pay Bill Online from 254728***775 - Faith *** Acc. JAC,Completed,6000,,70000,TRUE,Pay Bill Online,254728***775 - Faith ***,,JAC
SAI7DJM8XR,18/01/2024 12:57,18/01/2024 12:57,Pay Bill from 254796***496 - IVY *** Acc. FAA,Completed,9000,,64000,TRUE,Pay Utility,254796***496 - IVY ***,,FAA
SAI7DFCKNT,18/01/2024 12:18,18/01/2024 12:18,Pay Bill from 254722***136 - NADI *** Acc. JEA,Completed,3000,,55000,TRUE,Pay Utility,254722***136 - NADI ***,,JEA
SAI1DD2K3P,18/01/2024 11:57,18/01/2024 11:57,Pay Bill Online from 254715***212 - BANCE *** Acc. JFE,Completed,1000,,52000,TRUE,Pay Bill Online,254715***212 - BANCE ***,,JFE
SAI2DCUUDO,18/01/2024 11:55,18/01/2024 11:55,Pay Bill from 254725***537 - PATRICK *** Acc. KEH,Completed,6000,,51000,TRUE,Pay Utility,254725***537 - PATRICK ***,,KEH
SAI1D3WOVN,18/01/2024 10:32,18/01/2024 10:32,Pay Bill from 079692***370 - HALIMA *** Acc. DBC,Completed,20000,,45000,TRUE,Pay Utility,079692***370 - HALIMA ***,,DBC
SAI3D3T6JX,18/01/2024 10:31,18/01/2024 10:31,Pay Bill Online from 071580***956 - Mercy *** Acc. FFE ,Completed,15000,,25000,TRUE,Pay Bill Online,071580***956 - Mercy ***,,FFE
SAI0D2ZQU4,18/01/2024 10:24,18/01/2024 10:24,Pay Bill from 254717***324 - Christine *** Acc. KDF,Completed,10000,,10000,TRUE,Pay Utility,254717***324 - Christine ***,,KDF
SAI9D00E2F,18/01/2024 09:55,18/01/2024 09:55,Utility Account to Organization Settlement Account,Completed,,-51000,0,TRUE,Utility Account to Organization Settlement Account,979524 - ANCIENT WELLS PROPERTY MANAGERS 2,,
SAI4CWHRA6,18/01/2024 09:20,18/01/2024 09:20,Pay Bill Online from 254720***253 - JIMMY *** Acc. KBD,Completed,1000,,51000,TRUE,Pay Utility with OD Online,254720***253 - JIMMY ***,,KBD
SAI9CT2JN9,18/01/2024 08:44,18/01/2024 08:44,Pay Bill from 254717***848 - MARY *** Acc. FGD,Completed,9000,,50000,TRUE,Pay Utility with OD via STK,254717***848 - MARY ***,,FGD
SAH1BQJ46P,17/01/2024 19:47,17/01/2024 19:47,Pay Bill from 254703***963 - WYCLIFF *** Acc. IBC,Completed,9000,,41000,TRUE,Pay Utility,254703***963 - WYCLIFF ***,,IBC
SAH3B1ZZNX,17/01/2024 17:18,17/01/2024 17:18,Pay Bill from 254797***450 - JOHN *** Acc. FAF,Completed,16000,,32000,TRUE,Pay Utility,254797***450 - JOHN ***,,FAF
SAH3AI9GMN,17/01/2024 14:29,17/01/2024 14:29,Pay Bill from 254724***882 - JOEL *** Acc. fee,Completed,16000,,16000,TRUE,Pay Utility,254724***882 - JOEL ***,,fee
SAH99LXDLH,17/01/2024 09:33,17/01/2024 09:33,Utility Account to Organization Settlement Account,Completed,,-2000,0,TRUE,Utility Account to Organization Settlement Account,979524 - ANCIENT WELLS PROPERTY MANAGERS 2,,
SAH99II397,17/01/2024 08:59,17/01/2024 08:59,Pay Bill from 254720***822 - JAMES *** Acc. jgj,Completed,2000,,2000,TRUE,Pay Utility with OD via STK,254720***822 - JAMES ***,,jgj
SAG483GNT0,16/01/2024 18:49,16/01/2024 18:49,Utility Account to Organization Settlement Account,Completed,,-21000,0,TRUE,Utility Account to Organization Settlement Account,979524 - ANCIENT WELLS PROPERTY MANAGERS 2,,
SAG57EOBO5,16/01/2024 15:45,16/01/2024 15:45,Pay Bill from 254720***103 - NJENGA *** Acc. kca,Completed,16000,,21000,TRUE,Pay Utility,254720***103 - NJENGA ***,,kca
SAG27D7FQ4,16/01/2024 15:32,16/01/2024 15:32,Pay Bill from 254704***133 - ELVIS *** Acc. HFD,Completed,5000,,5000,TRUE,Pay Utility,254704***133 - ELVIS ***,,HFD
SAG86RDQMO,16/01/2024 12:19,16/01/2024 12:19,Utility Account to Organization Settlement Account,Completed,,-83600,0,TRUE,Utility Account to Organization Settlement Account,979524 - ANCIENT WELLS PROPERTY MANAGERS 2,,
SAF65P6HLC,15/01/2024 23:44,15/01/2024 23:44,Merchant Pay Utility Received from 7781174 -      ELVIS OTIENO OTIENO    Acc. HFD,Completed,1500,,83600,TRUE,Merchant Pay Utility via API,7781174 -      ELVIS OTIENO OTIENO   ,,HFD
SAF35KKK9T,15/01/2024 22:12,15/01/2024 22:12,Pay Bill from 072541***312 - faith *** Acc. KGC,Completed,1000,,82100,TRUE,Pay Utility,072541***312 - faith ***,,KGC
SAF05G92XU,15/01/2024 21:28,15/01/2024 21:28,Pay Bill from 254711***263 - BENSON *** Acc. HFC,Completed,9000,,81100,TRUE,Pay Utility,254711***263 - BENSON ***,,HFC
SAF74WX37N,15/01/2024 19:24,15/01/2024 19:24,Pay Bill from 011373***632 - Mathews *** Acc. JAE,Completed,10000,,72100,TRUE,Pay Utility,011373***632 - Mathews ***,,JAE
SAF74QT797,15/01/2024 18:50,15/01/2024 18:50,Pay Bill Online from 254707***441 - JOHN *** Acc. IEH,Completed,6000,,62100,TRUE,Pay Bill Online,254707***441 - JOHN ***,,IEH
SAF54INWY9,15/01/2024 17:58,15/01/2024 17:58,Pay Bill from 254719***657 - SAMUEL *** Acc. JGA,Completed,20000,,56100,TRUE,Pay Utility,254719***657 - SAMUEL ***,,JGA
SAF0443JLE,15/01/2024 16:09,15/01/2024 16:09,Pay Bill Online from 254799***749 - KENNEDY *** Acc. DDD ,Completed,4100,,36100,TRUE,Pay Bill Online,254799***749 - KENNEDY ***,,DDD
SAF93BKQQD,15/01/2024 12:03,15/01/2024 12:03,Pay Bill from 079137***873 - Joseph *** Acc. HAH,Completed,16000,,32000,TRUE,Pay Utility with OD via STK,079137***873 - Joseph ***,,HAH
SAF338QF7T,15/01/2024 11:38,15/01/2024 11:38,Merchant Pay Utility Received from 7245661 -  OCHIENG CHEMIST  Acc. HFD,Completed,1000,,16000,TRUE,Merchant Pay Utility via API,7245661 -  OCHIENG CHEMIST ,,HFD
SAF338FHTL,15/01/2024 11:35,15/01/2024 11:35,Merchant Pay Utility Received from 7245661 -  OCHIENG CHEMIST  Acc. HFD,Completed,1000,,15000,TRUE,Merchant Pay Utility via API,7245661 -  OCHIENG CHEMIST ,,HFD
SAF9383PE1,15/01/2024 11:32,15/01/2024 11:32,Pay Bill from 254720***822 - JAMES *** Acc. jgj,Completed,2000,,14000,TRUE,Pay Utility,254720***822 - JAMES ***,,jgj
SAF434OS4Q,15/01/2024 11:03,15/01/2024 11:03,Pay Bill from 254795***150 - FAITH *** Acc. IFC,Completed,8000,,12000,TRUE,Pay Utility,254795***150 - FAITH ***,,IFC
SAF32SNOPB,15/01/2024 09:13,15/01/2024 09:13,Pay Bill from 254703***626 - DAVID *** Acc. FCD,Completed,1000,,4000,TRUE,Pay Utility with OD via STK,254703***626 - DAVID ***,,FCD
SAF92DP1OT,15/01/2024 04:44,15/01/2024 04:44,Pay Bill Online from 254720***253 - JIMMY *** Acc. KBD,Completed,1000,,3000,TRUE,Pay Utility with OD Online,254720***253 - JIMMY ***,,KBD
SAF02CUN08,15/01/2024 02:48,15/01/2024 02:48,Pay Bill from 074378***968 - Dallias *** Acc. hbb,Completed,2000,,2000,TRUE,Pay Utility,074378***968 - Dallias ***,,hbb
SAE41P4Q4Y,14/01/2024 19:50,14/01/2024 19:50,Utility Account to Organization Settlement Account,Completed,,-84500,0,TRUE,Utility Account to Organization Settlement Account,979524 - ANCIENT WELLS PROPERTY MANAGERS 2,,
SAE112DG7R,14/01/2024 17:22,14/01/2024 17:22,Pay Bill Online from 254726***777 - MARY *** Acc. JDB ,Completed,15000,,84500,TRUE,Pay Bill Online,254726***777 - MARY ***,,JDB
SAE1ZRU8V5,14/01/2024 15:56,14/01/2024 15:56,Pay Bill from 072541***312 - faith *** Acc. KGC,Completed,3000,,69500,TRUE,Pay Utility,072541***312 - faith ***,,KGC
SAE5Z5STEJ,14/01/2024 12:34,14/01/2024 12:34,Pay Bill from 254748***777 - SAGE *** Acc. IAD,Completed,11000,,66500,TRUE,Pay Utility with OD via STK,254748***777 - SAGE ***,,IAD
SAE8YY0ZWS,14/01/2024 11:12,14/01/2024 11:12,Pay Bill from 254745***989 - Regina *** Acc. FGC,Completed,8000,,55500,TRUE,Pay Utility,254745***989 - Regina ***,,FGC
SAE5Y9LOVB,14/01/2024 01:07,14/01/2024 01:07,Pay Bill from 254710***100 - PHILOMENA *** Acc. KDK,Completed,7000,,47500,TRUE,Pay Utility,254710***100 - PHILOMENA ***,,KDK
SAE8Y8VHYO,14/01/2024 00:28,14/01/2024 00:28,Pay Bill from 254720***822 - JAMES *** Acc. jgj,Completed,4000,,40500,TRUE,Pay Utility,254720***822 - JAMES ***,,jgj
SAD5Y5KF8D,13/01/2024 22:58,13/01/2024 22:58,Pay Bill from 254703***626 - DAVID *** Acc. FCD,Completed,1000,,36500,TRUE,Pay Utility with OD via STK,254703***626 - DAVID ***,,FCD
SAD8XPBYAU,13/01/2024 20:21,13/01/2024 20:21,Pay Bill from 254722***480 - PATRICK *** Acc. KGH,Completed,9500,,35500,TRUE,Pay Utility,254722***480 - PATRICK ***,,KGH
SAD2XALSWI,13/01/2024 18:59,13/01/2024 18:59,Pay Bill Online from 254718***980 - KAREN *** Acc. FBA,Completed,26000,,26000,TRUE,Pay Bill Online,254718***980 - KAREN ***,,FBA
SAD8WVJ09W,13/01/2024 17:21,13/01/2024 17:21,Utility Account to Organization Settlement Account,Completed,,-103800,0,TRUE,Utility Account to Organization Settlement Account,979524 - ANCIENT WELLS PROPERTY MANAGERS 2,,
SAD0W5WR7C,13/01/2024 13:53,13/01/2024 13:53,Pay Bill Online from 254722***107 - JOHN *** Acc. KGF,Completed,10000,,103800,TRUE,Pay Bill Online,254722***107 - JOHN ***,,KGF
SAD3VW6QFN,13/01/2024 12:26,13/01/2024 12:26,Pay Bill Online from 254720***253 - JIMMY *** Acc. KBD,Completed,1000,,93800,TRUE,Pay Utility with OD Online,254720***253 - JIMMY ***,,KBD
SAD4VSG7TS,13/01/2024 11:52,13/01/2024 11:52,Pay Bill from 254720***502 - JOHN *** Acc. JFA,Completed,2000,,92800,TRUE,Pay Utility,254720***502 - JOHN ***,,JFA
SAD1VINMIT,13/01/2024 10:22,13/01/2024 10:22,Pay Bill Online from 254722***986 - HALIMA *** Acc. IAH,Completed,51800,,90800,TRUE,Pay Bill Online,254722***986 - HALIMA ***,,IAH
SAD8VD3A06,13/01/2024 09:28,13/01/2024 09:28,Pay Bill Online from 254722***078 - MAUREEN *** Acc. DCD,Completed,9000,,39000,TRUE,Pay Utility with OD Online,254722***078 - MAUREEN ***,,DCD
SAD3VA5S4Z,13/01/2024 08:57,13/01/2024 08:57,Pay Bill from 254710***100 - PHILOMENA *** Acc. KDK,Completed,10000,,30000,TRUE,Pay Utility,254710***100 - PHILOMENA ***,,KDK
SAD0V6QRAA,13/01/2024 08:17,13/01/2024 08:17,Pay Bill from 072253***422 - ANTHONY *** Acc. JBD,Completed,10000,,20000,TRUE,Pay Utility,072253***422 - ANTHONY ***,,JBD
SAC1UE8VP3,12/01/2024 20:22,12/01/2024 20:22,Pay Bill Online from 254717***175 - MERCY *** Acc. DGD,Completed,10000,,10000,TRUE,Pay Bill Online,254717***175 - MERCY ***,,DGD
SAC4T7O2C0,12/01/2024 15:34,12/01/2024 15:34,Utility Account to Organization Settlement Account,Completed,,-122200,0,TRUE,Utility Account to Organization Settlement Account,979524 - ANCIENT WELLS PROPERTY MANAGERS 2,,
SAC0T0SE7W,12/01/2024 14:34,12/01/2024 14:34,Pay Bill from 071883***251 - MARK *** Acc. kfg,Completed,10000,,122200,TRUE,Pay Utility,071883***251 - MARK ***,,kfg
SAC9SYZ8AJ,12/01/2024 14:18,12/01/2024 14:18,Pay Bill Online from 079094***220 - Joyce *** Acc. IAG,Completed,100,,112200,TRUE,Pay Utility with OD Online,079094***220 - Joyce ***,,IAG
SAC7SYVPK9,12/01/2024 14:17,12/01/2024 14:17,Pay Bill from 079144***135 - HADIJA *** Acc. HTA,Completed,9000,,112100,TRUE,Pay Utility,079144***135 - HADIJA ***,,HTA
SAC2SWS8DI,12/01/2024 13:59,12/01/2024 13:59,Pay Bill Online from 079094***220 - Joyce *** Acc. IAG,Completed,7000,,103100,TRUE,Pay Utility with OD Online,079094***220 - Joyce ***,,IAG
SAC2SUY54G,12/01/2024 13:44,12/01/2024 13:44,Pay Bill from 254723***228 - MORARA *** Acc. pool,Completed,22000,,96100,TRUE,Pay Utility,254723***228 - MORARA ***,,pool
SAC4SO2VGS,12/01/2024 12:43,12/01/2024 12:43,Pay Bill from 254721***810 - MARY *** Acc. KEC,Completed,10000,,74100,TRUE,Pay Utility,254721***810 - MARY ***,,KEC
SAC3SM9IZ1,12/01/2024 12:27,12/01/2024 12:27,Pay Bill from 254705***606 - JOSEPH *** Acc. FED,Completed,7000,,64100,TRUE,Pay Utility,254705***606 - JOSEPH ***,,FED
SAC5SKR8N9,12/01/2024 12:13,12/01/2024 12:13,Pay Bill from 254724***274 - WINFRED *** Acc. DDC,Completed,13500,,57100,TRUE,Pay Utility,254724***274 - WINFRED ***,,DDC
SAC9SJYSF5,12/01/2024 12:06,12/01/2024 12:06,Pay Bill from 254719***823 - MOSES *** Acc. Jcc,Completed,8000,,43600,TRUE,Pay Utility,254719***823 - MOSES ***,,Jcc
SAC3SJPJN9,12/01/2024 12:03,12/01/2024 12:03,Pay Bill from 254720***502 - JOHN *** Acc. JFA,Completed,3000,,35600,TRUE,Pay Utility,254720***502 - JOHN ***,,JFA
SAC3SJ57WH,12/01/2024 11:58,12/01/2024 11:58,Pay Bill from 254717***596 - NICHOLAS *** Acc. Hcf,Completed,9000,,32600,TRUE,Pay Utility,254717***596 - NICHOLAS ***,,Hcf
SAC6SH9IP4,12/01/2024 11:41,12/01/2024 11:41,Pay Bill Online from 079094***220 - Joyce *** Acc. IAG,Completed,4700,,23600,TRUE,Pay Utility with OD Online,079094***220 - Joyce ***,,IAG
SAC1S2XX0F,12/01/2024 09:28,12/01/2024 09:28,Pay Bill from 254720***822 - JAMES *** Acc. jgj,Completed,6000,,18900,TRUE,Pay Utility,254720***822 - JAMES ***,,jgj
SAC7S1QRUP,12/01/2024 09:16,12/01/2024 09:16,Pay Bill from 254710***630 - DONNA *** Acc. KCC,Completed,10000,,12900,TRUE,Pay Utility,254710***630 - DONNA ***,,KCC
SAC7S1HSAX,12/01/2024 09:14,12/01/2024 09:14,Pay Bill Online from 254720***253 - JIMMY *** Acc. KBD,Completed,900,,2900,TRUE,Pay Bill Online,254720***253 - JIMMY ***,,KBD
SAC6RX36TS,12/01/2024 08:28,12/01/2024 08:28,Pay Bill Online from 254720***253 - JIMMY *** Acc. KBD,Completed,2000,,2000,TRUE,Pay Bill Online,254720***253 - JIMMY ***,,KBD
SAC7RRLQ1Z,12/01/2024 07:19,12/01/2024 07:19,Utility Account to Organization Settlement Account,Completed,,-14000,0,TRUE,Utility Account to Organization Settlement Account,979524 - ANCIENT WELLS PROPERTY MANAGERS 2,,
SAC4RN91XQ,12/01/2024 04:31,12/01/2024 04:31,Pay Bill from 074378***968 - Dallias *** Acc. hbb,Completed,2000,,14000,TRUE,Pay Utility,074378***968 - Dallias ***,,hbb
SAB4R86YMW,11/01/2024 21:00,11/01/2024 21:00,Merchant Pay Utility Received from 7245661 -  OCHIENG CHEMIST  Acc. HFD,Completed,1000,,12000,TRUE,Merchant Pay Utility via API,7245661 -  OCHIENG CHEMIST ,,HFD
SAB1QYBKOB,11/01/2024 19:53,11/01/2024 19:53,Pay Bill from 254796***018 - PEACE *** Acc. JEE,Completed,11000,,11000,TRUE,Pay Utility,254796***018 - PEACE ***,,JEE
SAB1Q5VJ7X,11/01/2024 16:49,11/01/2024 16:49,Utility Account to Organization Settlement Account,Completed,,-1000,0,TRUE,Utility Account to Organization Settlement Account,979524 - ANCIENT WELLS PROPERTY MANAGERS 2,,
SAB0Q3MCAW,11/01/2024 16:30,11/01/2024 16:30,Pay Bill Online from 254720***253 - JIMMY *** Acc. KBD,Completed,1000,,1000,TRUE,Pay Utility with OD Online,254720***253 - JIMMY ***,,KBD
SAB8Q1TUQG,11/01/2024 16:15,11/01/2024 16:15,Utility Account to Organization Settlement Account,Completed,,-35000,0,TRUE,Utility Account to Organization Settlement Account,979524 - ANCIENT WELLS PROPERTY MANAGERS 2,,
SAB9Q1PIJF,11/01/2024 16:14,11/01/2024 16:14,Pay Bill Online from 254720***253 - JIMMY *** Acc. KBD,Completed,2000,,35000,TRUE,Pay Utility with OD Online,254720***253 - JIMMY ***,,KBD
SAB8PPG94Y,11/01/2024 14:25,11/01/2024 14:25,Pay Bill Online from 254707***441 - JOHN *** Acc. IEH,Completed,5000,,33000,TRUE,Pay Bill Online,254707***441 - JOHN ***,,IEH
SAB2P693M2,11/01/2024 11:37,11/01/2024 11:37,Pay Bill from 254711***306 - RAYMOND *** Acc. KBG,Completed,2000,,28000,TRUE,Pay Utility,254711***306 - RAYMOND ***,,KBG
SAB0P3RUZ0,11/01/2024 11:15,11/01/2024 11:15,Pay Bill Online from 254715***212 - BANCE *** Acc. JFE,Completed,1000,,26000,TRUE,Pay Bill Online,254715***212 - BANCE ***,,JFE
SAB6OSTX8Y,11/01/2024 09:39,11/01/2024 09:39,Pay Bill from 254720***822 - JAMES *** Acc. jgj,Completed,5000,,25000,TRUE,Pay Utility,254720***822 - JAMES ***,,jgj
SAB8OGK0X0,11/01/2024 07:23,11/01/2024 07:23,Pay Bill from 254716***384 - GREGORY *** Acc. DAD,Completed,20000,,20000,TRUE,Pay Utility,254716***384 - GREGORY ***,,DAD
SAB7OFQG4H,11/01/2024 07:09,11/01/2024 07:09,Utility Account to Organization Settlement Account,Completed,,-63000,0,TRUE,Utility Account to Organization Settlement Account,979524 - ANCIENT WELLS PROPERTY MANAGERS 2,,
SAB8OCHZRI,11/01/2024 05:21,11/01/2024 05:21,Pay Bill from 254713***244 - ROBERT *** Acc. HFB,Completed,16000,,63000,TRUE,Pay Utility,254713***244 - ROBERT ***,,HFB
SAB0OBSJUI,11/01/2024 03:54,11/01/2024 03:54,Pay Bill Online from 254720***253 - JIMMY *** Acc. KBD,Completed,1000,,47000,TRUE,Pay Utility with OD Online,254720***253 - JIMMY ***,,KBD
SAA3O02OUN,10/01/2024 21:29,10/01/2024 21:29,Pay Bill Online from 254712***240 - GLORY *** Acc. KAA,Completed,16000,,46000,TRUE,Pay Bill Online,254712***240 - GLORY ***,,KAA
SAA6N91IAA,10/01/2024 18:39,10/01/2024 18:39,Pay Bill from 254792***192 - KELVIN *** Acc. ICE,Completed,9000,,30000,TRUE,Pay Utility,254792***192 - KELVIN ***,,ICE
SAA1N50MAL,10/01/2024 18:14,10/01/2024 18:14,Pay Bill from 254721***968 - MOHAMUD *** Acc. FCA,Completed,10000,,21000,TRUE,Pay Utility,254721***968 - MOHAMUD ***,,FCA
SAA9MSURW5,10/01/2024 16:48,10/01/2024 16:48,Pay Bill from 076995***691 - ANNA *** Acc. IFD,Completed,11000,,11000,TRUE,Pay Utility,076995***691 - ANNA ***,,IFD
SAA5MR20VD,10/01/2024 16:33,10/01/2024 16:33,Utility Account to Organization Settlement Account,Completed,,-74500,0,TRUE,Utility Account to Organization Settlement Account,979524 - ANCIENT WELLS PROPERTY MANAGERS 2,,
SAA0LW7V5O,10/01/2024 12:07,10/01/2024 12:07,Pay Bill from 071414***211 - KAREN *** Acc. JDF,Completed,8000,,74500,TRUE,Pay Utility,071414***211 - KAREN ***,,JDF
SAA4LVB6UU,10/01/2024 11:59,10/01/2024 11:59,Pay Bill from 254796***496 - IVY *** Acc. FAA,Completed,4000,,66500,TRUE,Pay Utility,254796***496 - IVY ***,,FAA
SAA4LSXII6,10/01/2024 11:39,10/01/2024 11:39,Pay Bill from 254717***817 - NYANGAU *** Acc. jba,Completed,12000,,62500,TRUE,Pay Utility,254717***817 - NYANGAU ***,,jba
SAA4LQP4EY,10/01/2024 11:20,10/01/2024 11:20,Pay Bill from 254721***818 - SAIDA *** Acc. JEA,Completed,17000,,50500,TRUE,Pay Utility,254721***818 - SAIDA ***,,JEA
SAA6LK2B02,10/01/2024 10:23,10/01/2024 10:23,Pay Bill Online from 254720***158 - AMOS *** Acc. KCG,Completed,10000,,33500,TRUE,Pay Bill Online,254720***158 - AMOS ***,,KCG
SAA9LGDRJ3,10/01/2024 09:51,10/01/2024 09:51,Pay Bill Online from 254799***069 - ALPHONCE *** Acc. IEE,Completed,8500,,23500,TRUE,Pay Bill Online,254799***069 - ALPHONCE ***,,IEE
SAA9L8CHFL,10/01/2024 08:34,10/01/2024 08:34,Pay Bill from 254726***330 - JOHN *** Acc. IFH,Completed,15000,,15000,TRUE,Pay Utility,254726***330 - JOHN ***,,IFH
SAA1L26CHX,10/01/2024 07:22,10/01/2024 07:22,Utility Account to Organization Settlement Account,Completed,,-90500,0,TRUE,Utility Account to Organization Settlement Account,979524 - ANCIENT WELLS PROPERTY MANAGERS 2,,
SAA6L1VN78,10/01/2024 07:18,10/01/2024 07:18,Pay Bill Online from 254714***193 - CHRISTOPHER *** Acc. JGI ,Completed,20500,,90500,TRUE,Pay Bill Online,254714***193 - CHRISTOPHER ***,,JGI
SA98KLQ39Y,09/01/2024 21:32,09/01/2024 21:32,Business Pay Bill by 998094 - COOP TO PAYBILL Acc. FCC via API,Completed,9000,,70000,TRUE,Business Pay Bill via API,998094 - COOP TO PAYBILL,,FCC
SA90KB7TYO,09/01/2024 20:15,09/01/2024 20:15,Pay Bill from 072099***728 - CHARITY *** Acc. IFG,Completed,16000,,61000,TRUE,Pay Utility,072099***728 - CHARITY ***,,IFG
SA96KAYKTI,09/01/2024 20:14,09/01/2024 20:14,Pay Bill from 254724***912 - SAMUEL *** Acc. HCD,Completed,10000,,45000,TRUE,Pay Utility,254724***912 - SAMUEL ***,,HCD
SA98JTD4ZI,09/01/2024 18:35,09/01/2024 18:35,Pay Bill from 254727***667 - HILDA *** Acc. JBE,Completed,15000,,35000,TRUE,Pay Utility with OD via STK,254727***667 - HILDA ***,,JBE
SA99JQTSD9,09/01/2024 18:19,09/01/2024 18:19,Pay Bill from 254729***750 - DERRICK *** Acc. DAC,Completed,20000,,20000,TRUE,Pay Utility,254729***750 - DERRICK ***,,DAC
SA94JDEGES,09/01/2024 16:49,09/01/2024 16:49,Utility Account to Organization Settlement Account,Completed,,-45500,0,TRUE,Utility Account to Organization Settlement Account,979524 - ANCIENT WELLS PROPERTY MANAGERS 2,,
SA96J6QJS8,09/01/2024 15:59,09/01/2024 15:59,Pay Bill from 071744***870 - Steven *** Acc. KTA,Completed,9500,,45500,TRUE,Pay Utility,071744***870 - Steven ***,,KTA
SA96J4EHDE,09/01/2024 15:40,09/01/2024 15:40,Pay Bill from 254798***621 - MERCY *** Acc. jcj,Completed,16000,,36000,TRUE,Pay Utility,254798***621 - MERCY ***,,jcj
SA94IMY38E,09/01/2024 13:38,09/01/2024 13:38,Pay Bill Online from 254728***590 - ELIZABETH *** Acc. HDD,Completed,20000,,20000,TRUE,Pay Bill Online,254728***590 - ELIZABETH ***,,HDD
SA94I2ZVAI,09/01/2024 09:25,09/01/2024 09:25,Utility Account to Organization Settlement Account,Completed,,-76000,0,TRUE,Utility Account to Organization Settlement Account,979524 - ANCIENT WELLS PROPERTY MANAGERS 2,,
SA97HSM2DZ,09/01/2024 07:36,09/01/2024 07:36,Pay Bill from 079912***666 - ERIC *** Acc. JDI,Completed,20000,,76000,TRUE,Pay Utility,079912***666 - ERIC ***,,JDI
SA90HMK0JW,09/01/2024 03:30,09/01/2024 03:30,Pay Bill from 074378***968 - Dallias *** Acc. hbb,Completed,3000,,56000,TRUE,Pay Utility,074378***968 - Dallias ***,,hbb
SA83H90NDV,08/01/2024 21:14,08/01/2024 21:14,Pay Bill from 254707***639 - Annastacia *** Acc. JFC ,Completed,10000,,53000,TRUE,Pay Utility,254707***639 - Annastacia ***,,JFC
SA80G86T92,08/01/2024 17:21,08/01/2024 17:21,Pay Bill Online from 254710***965 - BRENDA *** Acc. hfg,Completed,15000,,43000,TRUE,Pay Bill Online,254710***965 - BRENDA ***,,hfg
SA85G7J5KX,08/01/2024 17:17,08/01/2024 17:17,Pay Bill from 254720***502 - JOHN *** Acc. JFA,Completed,15000,,28000,TRUE,Pay Utility,254720***502 - JOHN ***,,JFA
SA80G5J9MY,08/01/2024 17:02,08/01/2024 17:02,Pay Bill Online from 254715***656 - DENNIS *** Acc. kfa,Completed,3000,,13000,TRUE,Pay Bill Online,254715***656 - DENNIS ***,,kfa
SA87G0VPH3,08/01/2024 16:26,08/01/2024 16:26,Pay Bill from 254705***201 - NZIOKA *** Acc. JDG,Completed,10000,,10000,TRUE,Pay Utility,254705***201 - NZIOKA ***,,JDG
SA87FWBSVP,08/01/2024 15:49,08/01/2024 15:49,Utility Account to Organization Settlement Account,Completed,,-54000,0,TRUE,Utility Account to Organization Settlement Account,979524 - ANCIENT WELLS PROPERTY MANAGERS 2,,
SA84FLE784,08/01/2024 14:19,08/01/2024 14:19,Pay Bill Online from 254720***965 - JAMES *** Acc. JBI,Completed,20000,,54000,TRUE,Pay Bill Online,254720***965 - JAMES ***,,JBI
SA86FKFOFC,08/01/2024 14:11,08/01/2024 14:11,Pay Bill from 074318***837 - Caroline *** Acc. JDC,Completed,10000,,34000,TRUE,Pay Utility,074318***837 - Caroline ***,,JDC
SA81FG732N,08/01/2024 13:36,08/01/2024 13:36,Pay Bill Online from 254715***212 - BANCE *** Acc. JFE,Completed,1000,,24000,TRUE,Pay Bill Online,254715***212 - BANCE ***,,JFE
SA89FAR79L,08/01/2024 12:52,08/01/2024 12:52,Pay Bill Online from 254723***873 - FREDRICK *** Acc. jbf,Completed,8000,,23000,TRUE,Pay Bill Online,254723***873 - FREDRICK ***,,jbf
SA82F69B5G,08/01/2024 12:14,08/01/2024 12:14,Pay Bill from 254703***305 - MARTHA *** Acc. IAI,Completed,15000,,15000,TRUE,Pay Utility,254703***305 - MARTHA ***,,IAI
SA88F4XKVU,08/01/2024 12:03,08/01/2024 12:03,Utility Account to Organization Settlement Account,Completed,,-94000,0,TRUE,Utility Account to Organization Settlement Account,979524 - ANCIENT WELLS PROPERTY MANAGERS 2,,
SA80EZR0LS,08/01/2024 11:18,08/01/2024 11:18,Pay Bill Online from 070640***366 - LUCY *** Acc. KDB,Completed,10000,,94000,TRUE,Pay Bill Online,070640***366 - LUCY ***,,KDB
SA81EXWUHZ,08/01/2024 11:03,08/01/2024 11:03,Pay Bill from 072253***422 - ANTHONY *** Acc. JBD,Completed,10000,,84000,TRUE,Pay Utility,072253***422 - ANTHONY ***,,JBD
SA85EO0BQ5,08/01/2024 09:35,08/01/2024 09:35,Pay Bill from 254700***449 - JOHN *** Acc. HCE,Completed,10500,,74000,TRUE,Pay Utility,254700***449 - JOHN ***,,HCE
SA83EJDOCL,08/01/2024 08:50,08/01/2024 08:50,Pay Bill Online from 076991***050 - newton *** Acc. JBG,Completed,10000,,63500,TRUE,Pay Utility with OD Online,076991***050 - newton ***,,JBG
SA86EDGEHW,08/01/2024 07:44,08/01/2024 07:43,Pay Bill from 254702***404 - VALENTINE *** Acc. IBH,Completed,7000,,53500,TRUE,Pay Utility,254702***404 - VALENTINE ***,,IBH
SA89ECT33D,08/01/2024 07:35,08/01/2024 07:35,Pay Bill Online from 254720***253 - JIMMY *** Acc. KBD,Completed,1000,,46500,TRUE,Pay Utility with OD Online,254720***253 - JIMMY ***,,KBD
SA89E4S80F,08/01/2024 00:09,08/01/2024 00:09,Pay Bill from 254725***394 - RACHAEL *** Acc. Jfb,Completed,15000,,45500,TRUE,Pay Utility,254725***394 - RACHAEL ***,,Jfb
SA77E3SQNX,07/01/2024 23:32,07/01/2024 23:32,Pay Bill Online from 254757***672 - BRIAN *** Acc. KDD,Completed,12000,,30500,TRUE,Pay Bill Online,254757***672 - BRIAN ***,,KDD
SA74D987AC,07/01/2024 18:50,07/01/2024 18:50,Pay Bill from 072541***312 - faith *** Acc. KGC,Completed,4000,,18500,TRUE,Pay Utility,072541***312 - faith ***,,KGC
SA70D7WQ3E,07/01/2024 18:41,07/01/2024 18:41,Pay Bill from 079812***865 - Purity *** Acc. HDC,Completed,10500,,14500,TRUE,Pay Utility,079812***865 - Purity ***,,HDC
SA72D62BVY,07/01/2024 18:29,07/01/2024 18:29,Pay Bill from 074378***968 - Dallias *** Acc. hbb,Completed,4000,,4000,TRUE,Pay Utility,074378***968 - Dallias ***,,hbb
SA79CVT9FD,07/01/2024 17:10,07/01/2024 17:10,Utility Account to Organization Settlement Account,Completed,,-237000,0,TRUE,Utility Account to Organization Settlement Account,979524 - ANCIENT WELLS PROPERTY MANAGERS 2,,
SA70CDE3IA,07/01/2024 14:32,07/01/2024 14:32,Pay Bill Online from 254713***424 - NDUTI *** Acc. jed,Completed,15000,,237000,TRUE,Pay Bill Online,254713***424 - NDUTI ***,,jed
SA71C22PU5,07/01/2024 12:42,07/01/2024 12:42,Pay Bill from 254721***975 - JOSEPH *** Acc. H E B,Completed,16000,,222000,TRUE,Pay Utility,254721***975 - JOSEPH ***,,H
SA73BWOE7F,07/01/2024 11:45,07/01/2024 11:45,Pay Bill Online from 074150***311 - ALLAN *** Acc. DBA,Completed,16000,,206000,TRUE,Pay Bill Online,074150***311 - ALLAN ***,,DBA
SA75BW6G23,07/01/2024 11:40,07/01/2024 11:40,Pay Bill from 254710***391 - CHEPKOECH *** Acc. KAH,Completed,10000,,190000,TRUE,Pay Utility with OD via STK,254710***391 - CHEPKOECH ***,,KAH
SA75BVJNEH,07/01/2024 11:33,07/01/2024 11:33,Pay Bill from 254711***815 - NAOMI *** Acc. KBA,Completed,48000,,180000,TRUE,Pay Utility,254711***815 - NAOMI ***,,KBA
SA78BMN76Y,07/01/2024 09:58,07/01/2024 09:58,Pay Bill from 254705***030 - FRIDAH *** Acc. JEH,Completed,16000,,132000,TRUE,Pay Utility,254705***030 - FRIDAH ***,,JEH
SA73BJ4RR5,07/01/2024 09:18,07/01/2024 09:18,Pay Bill Online from 254742***013 - HANEST *** Acc. IED,Completed,11000,,116000,TRUE,Pay Bill Online,254742***013 - HANEST ***,,IED
SA76BCJOP0,07/01/2024 07:55,07/01/2024 07:55,Pay Bill from 254743***420 - Margaret *** Acc. FCE,Completed,15000,,105000,TRUE,Pay Utility,254743***420 - Margaret ***,,FCE
SA63B1G8CZ,06/01/2024 23:00,06/01/2024 23:00,Pay Bill from 254700***569 - EDITH *** Acc. DDB,Completed,16000,,90000,TRUE,Pay Utility,254700***569 - EDITH ***,,DDB
SA68AXQEC8,06/01/2024 22:06,06/01/2024 22:06,Pay Bill from 254711***672 - ALLAN *** Acc. IEI,Completed,15000,,74000,TRUE,Pay Utility,254711***672 - ALLAN ***,,IEI
SA61AUMJU5,06/01/2024 21:35,06/01/2024 21:35,Pay Bill from 254725***547 - MWACHIRO *** Acc. DFC,Completed,20000,,59000,TRUE,Pay Utility,254725***547 - MWACHIRO ***,,DFC
SA61AR0VNF,06/01/2024 21:04,06/01/2024 21:04,Pay Bill from 254741***957 - Mercy *** Acc. Jcb,Completed,15000,,39000,TRUE,Pay Utility,254741***957 - Mercy ***,,Jcb
SA66A62404,06/01/2024 18:55,06/01/2024 18:55,Business Pay Bill by 998094 - COOP TO PAYBILL Acc. IFF via API,Completed,10000,,24000,TRUE,Business Pay Bill via API,998094 - COOP TO PAYBILL,,IFF
SA69A4TIPN,06/01/2024 18:48,06/01/2024 18:48,Pay Bill from 076896***255 - Johnson *** Acc. HCC,Completed,10000,,14000,TRUE,Pay Utility,076896***255 - Johnson ***,,HCC
SA61A0U5AB,06/01/2024 18:22,06/01/2024 18:22,Pay Bill from 254700***930 - RENE *** Acc. fbd,Completed,4000,,4000,TRUE,Pay Utility,254700***930 - RENE ***,,fbd
SA639YE9T3,06/01/2024 18:06,06/01/2024 18:06,Utility Account to Organization Settlement Account,Completed,,-99000,0,TRUE,Utility Account to Organization Settlement Account,979524 - ANCIENT WELLS PROPERTY MANAGERS 2,,
SA699WUYM7,06/01/2024 17:56,06/01/2024 17:56,Pay Bill from 254700***767 - BAKHITA *** Acc. kcb,Completed,16000,,99000,TRUE,Pay Utility,254700***767 - BAKHITA ***,,kcb
SA689V8GYU,06/01/2024 17:45,06/01/2024 17:45,Pay Bill Online from 254795***849 - PURITY *** Acc. kbb,Completed,16000,,83000,TRUE,Pay Bill Online,254795***849 - PURITY ***,,kbb
SA669U1X4Y,06/01/2024 17:37,06/01/2024 17:37,Pay Bill from 254725***531 - KIPKORIR *** Acc. DFB,Completed,15000,,67000,TRUE,Pay Utility,254725***531 - KIPKORIR ***,,DFB
SA699NW375,06/01/2024 16:52,06/01/2024 16:52,Pay Bill from 070728***361 - JOSEPHIN *** Acc. HGD,Completed,9000,,52000,TRUE,Pay Utility,070728***361 - JOSEPHIN ***,,HGD
SA608VJ6PQ,06/01/2024 12:59,06/01/2024 12:59,Pay Bill Online from 075769***775 - BENARD *** Acc. HCB,Completed,16000,,43000,TRUE,Pay Bill Online,075769***775 - BENARD ***,,HCB
SA638REVRB,06/01/2024 12:23,06/01/2024 12:23,Pay Bill Online from 254710***215 - JOAN *** Acc. ifb,Completed,15000,,27000,TRUE,Pay Bill Online,254710***215 - JOAN ***,,ifb
SA678P6OUT,06/01/2024 12:03,06/01/2024 12:03,Pay Bill from 079009***091 - Daisy *** Acc. KFI,Completed,12000,,12000,TRUE,Pay Utility,079009***091 - Daisy ***,,KFI
SA688OKCTK,06/01/2024 11:58,06/01/2024 11:58,Utility Account to Organization Settlement Account,Completed,,-58000,0,TRUE,Utility Account to Organization Settlement Account,979524 - ANCIENT WELLS PROPERTY MANAGERS 2,,
SA678NTMCD,06/01/2024 11:51,06/01/2024 11:51,Pay Bill Online from 254703***159 - Enock *** Acc. KAE,Completed,10000,,58000,TRUE,Pay Bill Online,254703***159 - Enock ***,,KAE
SA6387VAVL,06/01/2024 09:24,06/01/2024 09:24,Pay Bill from 254719***910 - KEVIN *** Acc. Idd,Completed,11000,,48000,TRUE,Pay Utility,254719***910 - KEVIN ***,,Idd
SA62868P82,06/01/2024 09:07,06/01/2024 09:07,Pay Bill from 254702***907 - FAITH *** Acc. kbe,Completed,10000,,37000,TRUE,Pay Utility,254702***907 - FAITH ***,,kbe
SA6484V5TC,06/01/2024 08:52,06/01/2024 08:52,Pay Bill Online from 254722***078 - MAUREEN *** Acc. DCD,Completed,6000,,27000,TRUE,Pay Bill Online,254722***078 - MAUREEN ***,,DCD
SA6384UD8F,06/01/2024 08:52,06/01/2024 08:52,Pay Bill Online from 254720***253 - JIMMY *** Acc. KBD,Completed,1000,,21000,TRUE,Pay Utility with OD Online,254720***253 - JIMMY ***,,KBD
SA6482H5HA,06/01/2024 08:26,06/01/2024 08:26,Pay Bill from 011066***258 - lucky *** Acc. JAA,Completed,20000,,20000,TRUE,Pay Utility,011066***258 - lucky ***,,JAA
SA6680WODY,06/01/2024 08:07,06/01/2024 08:07,Utility Account to Organization Settlement Account,Completed,,-263000,0,TRUE,Utility Account to Organization Settlement Account,979524 - ANCIENT WELLS PROPERTY MANAGERS 2,,
SA627TPJFC,06/01/2024 04:03,06/01/2024 04:03,Pay Bill Online from 254720***253 - JIMMY *** Acc. KBD,Completed,1000,,263000,TRUE,Pay Utility with OD Online,254720***253 - JIMMY ***,,KBD
SA587QND1S,05/01/2024 23:56,05/01/2024 23:56,Pay Bill Online from 254714***486 - BRIAN *** Acc. KBJ,Completed,16000,,262000,TRUE,Pay Bill Online,254714***486 - BRIAN ***,,KBJ
SA567PXW36,05/01/2024 23:34,05/01/2024 23:34,Pay Bill Online from 254721***178 - PHANICE *** Acc. FBF,Completed,16000,,246000,TRUE,Pay Bill Online,254721***178 - PHANICE ***,,FBF
SA517OT6TL,05/01/2024 23:05,05/01/2024 23:05,Pay Bill from 075705***882 - FAITH *** Acc. HDF ,Completed,9000,,230000,TRUE,Pay Utility,075705***882 - FAITH ***,,HDF
SA577NV8UX,05/01/2024 22:45,05/01/2024 22:45,Pay Bill Online from 254715***656 - DENNIS *** Acc. kfa,Completed,6000,,221000,TRUE,Pay Bill Online,254715***656 - DENNIS ***,,kfa
SA527LTKMI,05/01/2024 22:14,05/01/2024 22:14,Pay Bill Online from 254706***834 - WILKISTER *** Acc. HGH,Completed,15000,,215000,TRUE,Pay Bill Online,254706***834 - WILKISTER ***,,HGH
SA557KZ7NX,05/01/2024 22:04,05/01/2024 22:04,Pay Bill from 254716***682 - JUSTINE *** Acc. HAA,Completed,17000,,200000,TRUE,Pay Utility,254716***682 - JUSTINE ***,,HAA
SA557IMVLB,05/01/2024 21:39,05/01/2024 21:39,Pay Bill from 254708***464 - MERCY *** Acc. IBB,Completed,16000,,183000,TRUE,Pay Utility,254708***464 - MERCY ***,,IBB
SA517BWD85,05/01/2024 20:42,05/01/2024 20:42,Pay Bill from 254722***028 - CHARLES *** Acc. JDA,Completed,20000,,167000,TRUE,Pay Utility,254722***028 - CHARLES ***,,JDA
SA507AQZF2,05/01/2024 20:33,05/01/2024 20:33,Pay Bill from 071568***238 - JOANNAH *** Acc. FFA,Completed,15000,,147000,TRUE,Pay Utility,071568***238 - JOANNAH ***,,FFA
SA5275F80M,05/01/2024 19:57,05/01/2024 19:57,Pay Bill Online from 254715***656 - DENNIS *** Acc. kfa,Completed,7000,,132000,TRUE,Pay Bill Online,254715***656 - DENNIS ***,,kfa
SA5672UFES,05/01/2024 19:42,05/01/2024 19:42,Pay Bill Online from 254723***628 - CLINTON *** Acc. hfh,Completed,16000,,125000,TRUE,Pay Bill Online,254723***628 - CLINTON ***,,hfh
SA526ZCW0C,05/01/2024 19:22,05/01/2024 19:22,Pay Bill from 254712***818 - OYUGI *** Acc. FCB,Completed,16000,,109000,TRUE,Pay Utility,254712***818 - OYUGI ***,,FCB
SA576W7XB3,05/01/2024 19:04,05/01/2024 19:04,Pay Bill from 254700***550 - BENARD *** Acc. DBB,Completed,16000,,93000,TRUE,Pay Utility,254700***550 - BENARD ***,,DBB
SA536SXEQV,05/01/2024 18:44,05/01/2024 18:44,Pay Bill from 254708***373 - MUNINI *** Acc. IEB,Completed,15000,,77000,TRUE,Pay Utility,254708***373 - MUNINI ***,,IEB
SA516PY62N,05/01/2024 18:25,05/01/2024 18:25,Pay Bill from 254714***761 - MARTIN *** Acc. KDI,Completed,11000,,62000,TRUE,Pay Utility,254714***761 - MARTIN ***,,KDI
SA576OFSS1,05/01/2024 18:14,05/01/2024 18:14,Pay Bill from 254757***090 - Laureen *** Acc. KCJ,Completed,16000,,51000,TRUE,Pay Utility,254757***090 - Laureen ***,,KCJ
SA516L53AB,05/01/2024 17:51,05/01/2024 17:51,Pay Bill Online from 254711***716 - RODGERS *** Acc. IGC,Completed,9000,,35000,TRUE,Pay Bill Online,254711***716 - RODGERS ***,,IGC
SA596E2TIF,05/01/2024 16:57,05/01/2024 16:57,Pay Bill from 076841***584 - Faith *** Acc. IDF,Completed,11000,,26000,TRUE,Pay Utility,076841***584 - Faith ***,,IDF
SA576AQNED,05/01/2024 16:31,05/01/2024 16:31,Pay Bill from 070115***700 - Anabel *** Acc. Jdj,Completed,15000,,15000,TRUE,Pay Utility,070115***700 - Anabel ***,,Jdj
SA5569H1FH,05/01/2024 16:21,05/01/2024 16:21,Utility Account to Organization Settlement Account,Completed,,-58500,0,TRUE,Utility Account to Organization Settlement Account,979524 - ANCIENT WELLS PROPERTY MANAGERS 2,,
SA5067EWRY,05/01/2024 16:04,05/01/2024 16:04,Pay Bill Online from 254714***668 - ZACHARY *** Acc. JAD,Completed,16000,,58500,TRUE,Pay Bill Online,254714***668 - ZACHARY ***,,JAD
SA595QVWQ9,05/01/2024 13:43,05/01/2024 13:43,Pay Bill from 254710***394 - LUCY *** Acc. KBG,Completed,1000,,42500,TRUE,Pay Utility,254710***394 - LUCY ***,,KBG
SA545HPTQ2,05/01/2024 12:23,05/01/2024 12:23,Pay Bill from 254112***958 - Nicholas *** Acc. JDE,Completed,9500,,41500,TRUE,Pay Utility,254112***958 - Nicholas ***,,JDE
SA525C7H6K,05/01/2024 11:34,05/01/2024 11:34,Pay Bill Online from 254708***223 - DENNIS *** Acc. DCA,Completed,16000,,32000,TRUE,Pay Bill Online,254708***223 - DENNIS ***,,DCA
SA585BTUSK,05/01/2024 11:31,05/01/2024 11:31,Pay Bill Online from 254725***080 - DENNIS *** Acc. HDH,Completed,16000,,16000,TRUE,Pay Utility with OD Online,254725***080 - DENNIS ***,,HDH
SA5559NP4T,05/01/2024 11:12,05/01/2024 11:12,Utility Account to Organization Settlement Account,Completed,,-58000,0,TRUE,Utility Account to Organization Settlement Account,979524 - ANCIENT WELLS PROPERTY MANAGERS 2,,
SA5057QQYM,05/01/2024 10:55,05/01/2024 10:55,Pay Bill from 254703***744 - Esther *** Acc. KEF,Completed,10000,,58000,TRUE,Pay Utility,254703***744 - Esther ***,,KEF
SA5955JXZ7,05/01/2024 10:35,05/01/2024 10:35,Pay Bill from 254719***942 - NORAH *** Acc. KDA,Completed,16000,,48000,TRUE,Pay Utility,254719***942 - NORAH ***,,KDA
SA5453OHIC,05/01/2024 10:18,05/01/2024 10:18,Pay Bill Online from 254702***515 - ELIZABETH *** Acc. ICH,Completed,16000,,32000,TRUE,Pay Bill Online,254702***515 - ELIZABETH ***,,ICH
SA5951T3FL,05/01/2024 10:01,05/01/2024 10:01,Pay Bill from 254796***018 - PEACE *** Acc. JAH,Completed,16000,,16000,TRUE,Pay Utility,254796***018 - PEACE ***,,JAH
SA524Z1Z84,05/01/2024 09:34,05/01/2024 09:34,Utility Account to Organization Settlement Account,Completed,,-167900,0,TRUE,Utility Account to Organization Settlement Account,979524 - ANCIENT WELLS PROPERTY MANAGERS 2,,
SA564SEGUO,05/01/2024 08:26,05/01/2024 08:26,Pay Bill Online from 254728***908 - Teddy *** Acc. DDD,Completed,15900,,167900,TRUE,Pay Utility with OD Online,254728***908 - Teddy ***,,DDD
SA514QWMEX,05/01/2024 08:08,05/01/2024 08:08,Pay Bill Online from 254721***995 - BERNICE *** Acc. KFK,Completed,16000,,152000,TRUE,Pay Bill Online,254721***995 - BERNICE ***,,KFK
SA554GT9HF,05/01/2024 00:20,05/01/2024 00:20,Pay Bill from 254722***235 - AHMED *** Acc. IGD,Completed,10000,,136000,TRUE,Pay Utility with OD via STK,254722***235 - AHMED ***,,IGD
SA4243VVWG,04/01/2024 21:00,04/01/2024 21:00,Pay Bill from 074337***291 - Ann *** Acc. KAD,Completed,11000,,126000,TRUE,Pay Utility,074337***291 - Ann ***,,KAD
SA4243IVTC,04/01/2024 20:57,04/01/2024 20:57,Pay Bill Online from 254721***713 - RHODA *** Acc. Jfh,Completed,17000,,115000,TRUE,Pay Bill Online,254721***713 - RHODA ***,,Jfh
SA4441U5SG,04/01/2024 20:44,04/01/2024 20:44,Pay Bill Online from 254719***219 - PHILIP *** Acc. JDH,Completed,20000,,98000,TRUE,Pay Utility with OD Online,254719***219 - PHILIP ***,,JDH
SA443X7GU0,04/01/2024 20:12,04/01/2024 20:12,Pay Bill from 254714***203 - PATRICK *** Acc. KEI,Completed,12000,,78000,TRUE,Pay Utility,254714***203 - PATRICK ***,,KEI
SA423C1FYW,04/01/2024 18:02,04/01/2024 18:02,Pay Bill from 254724***503 - GEOFREY *** Acc. JFF,Completed,10000,,66000,TRUE,Pay Utility,254724***503 - GEOFREY ***,,JFF
SA4839Z1ZA,04/01/2024 17:48,04/01/2024 17:48,Pay Bill from 254728***256 - NICHOLAS *** Acc. HAD,Completed,10000,,56000,TRUE,Pay Utility,254728***256 - NICHOLAS ***,,HAD
SA4737Z07P,04/01/2024 17:34,04/01/2024 17:34,Pay Bill Online from 254723***331 - DALLIAS *** Acc. HBB,Completed,3000,,46000,TRUE,Pay Bill Online,254723***331 - DALLIAS ***,,HBB
SA44369YCK,04/01/2024 17:21,04/01/2024 17:21,Pay Bill from 254703***626 - DAVID *** Acc. FCD,Completed,1000,,43000,TRUE,Pay Utility with OD via STK,254703***626 - DAVID ***,,FCD
SA432X576F,04/01/2024 16:06,04/01/2024 16:06,Pay Bill from 254724***849 - Ann *** Acc. HDA,Completed,16000,,42000,TRUE,Pay Utility,254724***849 - Ann ***,,HDA
SA442QF6RS,04/01/2024 15:06,04/01/2024 15:06,Pay Bill from 074548***142 - Daisy *** Acc. FGE,Completed,15000,,26000,TRUE,Pay Utility,074548***142 - Daisy ***,,FGE
SA492L5TRZ,04/01/2024 14:19,04/01/2024 14:19,Pay Bill from 071451***575 - IAN *** Acc. IBD,Completed,11000,,11000,TRUE,Pay Utility,071451***575 - IAN ***,,IBD
SA432JT12P,04/01/2024 14:07,04/01/2024 14:07,Utility Account to Organization Settlement Account,Completed,,-17000,0,TRUE,Utility Account to Organization Settlement Account,979524 - ANCIENT WELLS PROPERTY MANAGERS 2,,
SA442FRL5O,04/01/2024 13:31,04/01/2024 13:31,Pay Bill from 254743***477 - FAITH *** Acc. IGE,Completed,1000,,17000,TRUE,Pay Utility,254743***477 - FAITH ***,,IGE
SA482D21CI,04/01/2024 13:07,04/01/2024 13:07,Pay Bill Online from 254716***144 - PETER *** Acc. FBB,Completed,16000,,16000,TRUE,Pay Bill Online,254716***144 - PETER ***,,FBB
SA412BPJYF,04/01/2024 12:55,04/01/2024 12:55,Utility Account to Organization Settlement Account,Completed,,-37000,0,TRUE,Utility Account to Organization Settlement Account,979524 - ANCIENT WELLS PROPERTY MANAGERS 2,,
SA462A7VJW,04/01/2024 12:42,04/01/2024 12:42,Pay Bill Online from 011497***420 - WENDY *** Acc. FFC,Completed,9000,,37000,TRUE,Pay Bill Online,011497***420 - WENDY ***,,FFC
SA4429P4WW,04/01/2024 12:37,04/01/2024 12:37,Pay Bill from 254740***741 - MUHINDI *** Acc. HGG,Completed,10000,,28000,TRUE,Pay Utility,254740***741 - MUHINDI ***,,HGG
SA471VIK57,04/01/2024 10:26,04/01/2024 10:26,Pay Bill from 254743***477 - FAITH *** Acc. IGE,Completed,18000,,18000,TRUE,Pay Utility,254743***477 - FAITH ***,,IGE
SA491R41XN,04/01/2024 09:43,04/01/2024 09:43,Utility Account to Organization Settlement Account,Completed,,-223500,0,TRUE,Utility Account to Organization Settlement Account,979524 - ANCIENT WELLS PROPERTY MANAGERS 2,,
SA431LZICL,04/01/2024 08:50,04/01/2024 08:50,Pay Bill from 254799***755 - CAROLINE *** Acc. IEF,Completed,15000,,223500,TRUE,Pay Utility,254799***755 - CAROLINE ***,,IEF
SA451LCSM1,04/01/2024 08:43,04/01/2024 08:43,Pay Bill Online from 254729***700 - MICAH *** Acc. HFE,Completed,10500,,208500,TRUE,Pay Bill Online,254729***700 - MICAH ***,,HFE
SA441IM1WK,04/01/2024 08:12,04/01/2024 08:12,Pay Bill from 254720***119 - LINDAH *** Acc. kfe,Completed,9500,,198000,TRUE,Pay Utility,254720***119 - LINDAH ***,,kfe
SA481C2E5O,04/01/2024 06:09,04/01/2024 06:09,Pay Bill from 254723***911 - JAMES *** Acc. ICG,Completed,9500,,188500,TRUE,Pay Utility,254723***911 - JAMES ***,,ICG
SA4119D689,04/01/2024 01:38,04/01/2024 01:38,Pay Bill Online from 254702***678 - JOHN *** Acc. DEB,Completed,16000,,179000,TRUE,Pay Bill Online,254702***678 - JOHN ***,,DEB
SA3017FSLS,03/01/2024 23:46,03/01/2024 23:46,Pay Bill Online from 254720***253 - JIMMY *** Acc. KBD,Completed,2000,,163000,TRUE,Pay Utility with OD Online,254720***253 - JIMMY ***,,KBD
SA3113FHJ1,03/01/2024 22:21,03/01/2024 22:21,Pay Bill from 254711***196 - JUDITH *** Acc. FEA,Completed,16000,,161000,TRUE,Pay Utility,254711***196 - JUDITH ***,,FEA
SA3810Z0TS,03/01/2024 21:51,03/01/2024 21:51,Pay Bill from 254725***550 - FRANKLINE *** Acc. KAF,Completed,10000,,145000,TRUE,Pay Utility,254725***550 - FRANKLINE ***,,KAF
SA31ZU2X6F,03/01/2024 20:50,03/01/2024 20:50,Pay Bill Online from 072225***105 - SALIM *** Acc. FGF,Completed,16000,,135000,TRUE,Pay Utility with OD Online,072225***105 - SALIM ***,,FGF
SA32Z4U0IU,03/01/2024 18:10,03/01/2024 18:10,Pay Bill Online from 254726***792 - PHILIP *** Acc. JEI,Completed,20000,,119000,TRUE,Pay Bill Online,254726***792 - PHILIP ***,,JEI
SA37YXOXP3,03/01/2024 17:18,03/01/2024 17:18,Pay Bill from 074805***595 - Rashid *** Acc. DDA,Completed,15000,,99000,TRUE,Pay Utility,074805***595 - Rashid ***,,DDA
SA37YX25KX,03/01/2024 17:13,03/01/2024 17:13,Pay Bill from 254725***537 - PATRICK *** Acc. KEH,Completed,5000,,84000,TRUE,Pay Utility,254725***537 - PATRICK ***,,KEH
SA35YR99WT,03/01/2024 16:25,03/01/2024 16:25,Pay Bill Online from 254718***980 - KAREN *** Acc. HEC,Completed,10500,,79000,TRUE,Pay Bill Online,254718***980 - KAREN ***,,HEC
SA32YNZOD8,03/01/2024 15:56,03/01/2024 15:56,Pay Bill from 075760***316 - MOHAMED *** Acc. FCA,Completed,6000,,68500,TRUE,Pay Utility,075760***316 - MOHAMED ***,,FCA
SA39YL7O7L,03/01/2024 15:31,03/01/2024 15:31,Pay Bill Online from 254742***558 - PEACEMARY *** Acc. JBC,Completed,11000,,62500,TRUE,Pay Bill Online,254742***558 - PEACEMARY ***,,JBC
SA38YHGA2E,03/01/2024 14:57,03/01/2024 14:57,Pay Bill Online from 254711***729 - DAVID *** Acc. HFA,Completed,16000,,51500,TRUE,Pay Bill Online,254711***729 - DAVID ***,,HFA
SA34YFON8A,03/01/2024 14:41,03/01/2024 14:41,Pay Bill from 254715***045 - FRIDAH *** Acc. HGC,Completed,9500,,35500,TRUE,Pay Utility,254715***045 - FRIDAH ***,,HGC
SA33Y0338F,03/01/2024 12:21,03/01/2024 12:21,Pay Bill Online from 254706***046 - STACY *** Acc. KGK,Completed,15000,,26000,TRUE,Pay Bill Online,254706***046 - STACY ***,,KGK
SA34XZ6K2S,03/01/2024 12:13,03/01/2024 12:13,Pay Bill from 254745***401 - mirriam *** Acc. kci,Completed,11000,,11000,TRUE,Pay Utility,254745***401 - mirriam ***,,kci
SA33XTTY8F,03/01/2024 11:23,03/01/2024 11:23,Utility Account to Organization Settlement Account,Completed,,-28000,0,TRUE,Utility Account to Organization Settlement Account,979524 - ANCIENT WELLS PROPERTY MANAGERS 2,,
SA38XP34G2,03/01/2024 10:40,03/01/2024 10:40,Pay Bill from 254702***404 - VALENTINE *** Acc. IDH,Completed,6000,,28000,TRUE,Pay Utility,254702***404 - VALENTINE ***,,IDH
SA38XOXHOC,03/01/2024 10:38,03/01/2024 10:38,Pay Bill from 254710***394 - LUCY *** Acc. KBG,Completed,6000,,22000,TRUE,Pay Utility,254710***394 - LUCY ***,,KBG
SA37XNYC3R,03/01/2024 10:29,03/01/2024 10:29,Pay Bill from 254712***871 - PAULA *** Acc. hea ,Completed,16000,,16000,TRUE,Pay Utility,254712***871 - PAULA ***,,hea
SA31XNVEFP,03/01/2024 10:28,03/01/2024 10:28,Utility Account to Organization Settlement Account,Completed,,-8000,0,TRUE,Utility Account to Organization Settlement Account,979524 - ANCIENT WELLS PROPERTY MANAGERS 2,,
SA31XJSGN7,03/01/2024 09:48,03/01/2024 09:48,Pay Bill from 011532***960 - JOSEPH *** Acc. IBG,Completed,8000,,8000,TRUE,Pay Utility,011532***960 - JOSEPH ***,,IBG
SA31X9W8Q3,03/01/2024 07:59,03/01/2024 07:59,Utility Account to Organization Settlement Account,Completed,,-10000,0,TRUE,Utility Account to Organization Settlement Account,979524 - ANCIENT WELLS PROPERTY MANAGERS 2,,
SA30X8PU7W,03/01/2024 07:42,03/01/2024 07:42,Pay Bill from 254710***630 - DONNA *** Acc. KCC,Completed,10000,,10000,TRUE,Pay Utility,254710***630 - DONNA ***,,KCC
SA22WUJIBC,02/01/2024 21:58,02/01/2024 21:58,Utility Account to Organization Settlement Account,Completed,,-165300,0,TRUE,Utility Account to Organization Settlement Account,979524 - ANCIENT WELLS PROPERTY MANAGERS 2,,
SA26WTKE4M,02/01/2024 21:47,02/01/2024 21:47,Pay Bill from 254722***622 - CHARITY *** Acc. ffd,Completed,11000,,165300,TRUE,Pay Utility,254722***622 - CHARITY ***,,ffd
SA23WT2UZ5,02/01/2024 21:41,02/01/2024 21:41,Pay Bill Online from 254718***397 - JIMMY *** Acc. DCB,Completed,16000,,154300,TRUE,Pay Bill Online,254718***397 - JIMMY ***,,DCB
SA25WRX0PN,02/01/2024 21:29,02/01/2024 21:29,Pay Bill Online from 254715***212 - BANCE *** Acc. JFE,Completed,8000,,138300,TRUE,Pay Bill Online,254715***212 - BANCE ***,,JFE
SA26WADHUY,02/01/2024 19:22,02/01/2024 19:22,Pay Bill from 072438***624 - FATUMA *** Acc. FAB,Completed,16000,,130300,TRUE,Pay Utility,072438***624 - FATUMA ***,,FAB
SA29W47RPJ,02/01/2024 18:45,02/01/2024 18:45,Pay Bill from 254706***081 - FATUMA *** Acc. HED,Completed,9000,,114300,TRUE,Pay Utility,254706***081 - FATUMA ***,,HED
SA28VO5LSE,02/01/2024 16:43,02/01/2024 16:43,Pay Bill from 254701***476 - mary *** Acc. DAA,Completed,13000,,105300,TRUE,Pay Utility,254701***476 - mary ***,,DAA
SA29VNX5WZ,02/01/2024 16:41,02/01/2024 16:41,Pay Bill from 254718***655 - Victor *** Acc. DAA,Completed,20000,,92300,TRUE,Pay Utility,254718***655 - Victor ***,,DAA
SA28VKQKUQ,02/01/2024 16:12,02/01/2024 16:12,Pay Bill from 074130***410 - STEVEKEVIN *** Acc. IAC,Completed,9000,,72300,TRUE,Pay Utility,074130***410 - STEVEKEVIN ***,,IAC
SA20VIOGFG,02/01/2024 15:53,02/01/2024 15:53,Pay Bill from 254717***212 - PATRICK *** Acc. kce,Completed,20000,,63300,TRUE,Pay Utility,254717***212 - PATRICK ***,,kce
SA27VHCNT5,02/01/2024 15:41,02/01/2024 15:41,Pay Bill from 254717***212 - PATRICK *** Acc. kce,Completed,2300,,43300,TRUE,Pay Utility,254717***212 - PATRICK ***,,kce
SA27VFDA9T,02/01/2024 15:23,02/01/2024 15:23,Pay Bill from 070656***358 - HARRIET *** Acc. HBA,Completed,16000,,41000,TRUE,Pay Utility,070656***358 - HARRIET ***,,HBA
SA22VBTBEG,02/01/2024 14:50,02/01/2024 14:50,Pay Bill from 254792***128 - Edwin *** Acc. HBF,Completed,9000,,25000,TRUE,Pay Utility,254792***128 - Edwin ***,,HBF
SA26VA20P8,02/01/2024 14:33,02/01/2024 14:33,Pay Bill from 254726***835 - LAWRENCE *** Acc. KDJ,Completed,16000,,16000,TRUE,Pay Utility,254726***835 - LAWRENCE ***,,KDJ
SA27V86GKL,02/01/2024 14:15,02/01/2024 14:15,Utility Account to Organization Settlement Account,Completed,,-96000,0,TRUE,Utility Account to Organization Settlement Account,979524 - ANCIENT WELLS PROPERTY MANAGERS 2,,
SA22V5UETI,02/01/2024 13:54,02/01/2024 13:54,Pay Bill Online from 254700***806 - WINNIE *** Acc. JEC,Completed,10000,,96000,TRUE,Pay Bill Online,254700***806 - WINNIE ***,,JEC
SA25UYWNR9,02/01/2024 12:50,02/01/2024 12:50,Pay Bill Online from 071160***780 - gift *** Acc. DEA,Completed,16000,,86000,TRUE,Pay Bill Online,071160***780 - gift ***,,DEA
SA20UTN2XS,02/01/2024 11:59,02/01/2024 11:59,Pay Bill from 254722***705 - ERIC *** Acc. FCF,Completed,16000,,70000,TRUE,Pay Utility,254722***705 - ERIC ***,,FCF
SA20UTJH0K,02/01/2024 11:58,02/01/2024 11:58,Pay Bill from 254791***823 - rachel *** Acc. JEG,Completed,9000,,54000,TRUE,Pay Utility,254791***823 - rachel ***,,JEG
SA28UQILGW,02/01/2024 11:28,02/01/2024 11:28,Pay Bill from 254748***063 - NELLY *** Acc. KCK,Completed,15000,,45000,TRUE,Pay Utility,254748***063 - NELLY ***,,KCK
SA23UKOPZ9,02/01/2024 10:32,02/01/2024 10:32,Pay Bill from 254717***919 - MARCELINE *** Acc. IAF,Completed,10000,,30000,TRUE,Pay Utility,254717***919 - MARCELINE ***,,IAF
SA25UKFHGR,02/01/2024 10:29,02/01/2024 10:29,Pay Bill from 254722***450 - MARY *** Acc. JAI,Completed,20000,,20000,TRUE,Pay Utility,254722***450 - MARY ***,,JAI
SA21U6SJOJ,02/01/2024 07:51,02/01/2024 07:51,Utility Account to Organization Settlement Account,Completed,,-401700,0,TRUE,Utility Account to Organization Settlement Account,979524 - ANCIENT WELLS PROPERTY MANAGERS 2,,
SA11TEWOHP,01/01/2024 19:39,01/01/2024 19:39,Pay Bill Online from 254723***064 - ANDREW *** Acc. HBG,Completed,16000,,401700,TRUE,Pay Bill Online,254723***064 - ANDREW ***,,HBG
SA12TDKLUE,01/01/2024 19:30,01/01/2024 19:30,Pay Bill from 254726***273 - JESSE *** Acc. HCH,Completed,17000,,385700,TRUE,Pay Utility,254726***273 - JESSE ***,,HCH
SA15SZ830V,01/01/2024 17:34,01/01/2024 17:34,Pay Bill Online from 254721***294 - GRACE *** Acc. IGH,Completed,15000,,368700,TRUE,Pay Bill Online,254721***294 - GRACE ***,,IGH
SA18SX1KCY,01/01/2024 17:14,01/01/2024 17:14,Pay Bill from 254795***751 - caroline *** Acc. KBF,Completed,9000,,353700,TRUE,Pay Utility,254795***751 - caroline ***,,KBF
SA16SOKZBI,01/01/2024 15:51,01/01/2024 15:51,Pay Bill from 254721***773 - NANCY *** Acc. KCF,Completed,10000,,344700,TRUE,Pay Utility,254721***773 - NANCY ***,,KCF
SA18SKGDEM,01/01/2024 15:09,01/01/2024 15:09,Pay Bill from 254716***398 - HYVENE *** Acc. KDE ,Completed,10000,,334700,TRUE,Pay Utility,254716***398 - HYVENE ***,,KDE
SA13SI00JX,01/01/2024 14:44,01/01/2024 14:44,Pay Bill from 254711***333 - JOSEPH *** Acc. KBH,Completed,10000,,324700,TRUE,Pay Utility,254711***333 - JOSEPH ***,,KBH
SA17SEN06B,01/01/2024 14:11,01/01/2024 14:11,Pay Bill from 254729***678 - GRACE *** Acc. DED,Completed,30500,,314700,TRUE,Pay Utility,254729***678 - GRACE ***,,DED
SA14S9GJJ8,01/01/2024 13:19,01/01/2024 13:19,Pay Bill Online from 254729***858 - AMBROSE *** Acc. KEJ,Completed,16000,,284200,TRUE,Pay Bill Online,254729***858 - AMBROSE ***,,KEJ
SA18S5A28A,01/01/2024 12:38,01/01/2024 12:38,Pay Bill Online from 254795***441 - LEWIS *** Acc. KEB,Completed,16000,,268200,TRUE,Pay Bill Online,254795***441 - LEWIS ***,,KEB
SA10S402UG,01/01/2024 12:26,01/01/2024 12:26,Pay Bill Online from 254707***839 - DENNIS *** Acc. FEF,Completed,16000,,252200,TRUE,Pay Bill Online,254707***839 - DENNIS ***,,FEF
SA18S3CHVM,01/01/2024 12:19,01/01/2024 12:19,Pay Bill from 079063***952 - Guyo *** Acc. DBC,Completed,20000,,236200,TRUE,Pay Utility with OD via STK,079063***952 - Guyo ***,,DBC
SA19S0MNEH,01/01/2024 11:53,01/01/2024 11:53,Pay Bill from 254729***933 - FELISTAH *** Acc. IDI,Completed,15000,,216200,TRUE,Pay Utility,254729***933 - FELISTAH ***,,IDI
SA18RGAGJU,01/01/2024 08:09,01/01/2024 08:09,Pay Bill from 254725***537 - PATRICK *** Acc. KEH,Completed,5000,,201200,TRUE,Pay Utility,254725***537 - PATRICK ***,,KEH
SA13RBAO83,01/01/2024 06:00,01/01/2024 06:00,Pay Bill Online from 254706***429 - ROSE *** Acc. IFI,Completed,15000,,196200,TRUE,Pay Bill Online,254706***429 - ROSE ***,,IFI
SA15R8LSF1,01/01/2024 03:00,01/01/2024 03:00,Pay Bill from 254712***486 - JACKLINE *** Acc. ked,Completed,11000,,181200,TRUE,Pay Utility,254712***486 - JACKLINE ***,,ked
SA19R1ZP4H,01/01/2024 00:10,01/01/2024 00:10,Pay Bill from 254703***626 - DAVID *** Acc. FCD,Completed,1000,,170200,TRUE,Pay Utility,254703***626 - DAVID ***,,FCD
