Receipt No.,Completion Time,Initiation Time,Details,Transaction Status,Paid In,Withdrawn,Balance,Balance Confirmed,Reason Type,Other Party Info,Linked Transaction ID,A/C No.
OGB3NWBMZP,11/07/2020 13:47,11/07/2020 13:47,Utility Account to Organization Settlement Account,Completed,,-64300,0,TRUE,Utility Account to Organization Settlement Account,887674 - ANCIENT WELLS LTD 1,,
OGB3NVLMU1,11/07/2020 13:28,11/07/2020 13:28,Pay Bill from 254729569271 - MESHACK OBOTTA OBOTTA OBARE Acc. V12,Completed,6600,,64300,TRUE,Pay Utility,254729569271 - MESHACK OBOTTA OBOTTA OBARE,,V12
OGB1NVJUDF,11/07/2020 13:26,11/07/2020 13:26,Pay Bill from 254797665088 - INNOCENT WANAMI Acc. V2,Completed,6600,,57700,TRUE,Pay Utility with OD via STK,254797665088 - INNOCENT WANAMI,,V2
OGA7N5M4N5,10/07/2020 17:27,10/07/2020 17:27,Pay Bill from 254713388942 - UKONU CHRISTOPHER OBINNA Acc. V22,Completed,1000,,51100,TRUE,Pay Utility,254713388942 - UKONU CHRISTOPHER OBINNA,,V22
OGA9N37R2R,10/07/2020 16:32,10/07/2020 16:32,Pay Bill from 254702170403 - LUCY KATHAMBI KOOME Acc. V25,Completed,13100,,50100,TRUE,Pay Utility,254702170403 - LUCY KATHAMBI KOOME,,V25
OGA5MNR2XX,10/07/2020 09:20,10/07/2020 09:20,Pay Bill from 254718818610 - HANNAH NALIAKA Acc. V23,Completed,6600,,37000,TRUE,Pay Utility,254718818610 - HANNAH NALIAKA,,V23
OG80LKLVW0,08/07/2020 23:12,08/07/2020 23:12,Pay Bill from 0714576438 - OCHOLA HESBON OCHIENG Acc. V06,Completed,6600,,30400,TRUE,Pay Utility,0714576438 - OCHOLA HESBON OCHIENG,,V06
OG83LFJD8R,08/07/2020 19:57,08/07/2020 19:57,Pay Bill from 254702921564 - DENNIS MAHERO SHIUNDU Acc. Dennis V21,Completed,6600,,23800,TRUE,Pay Utility,254702921564 - DENNIS MAHERO SHIUNDU,,Dennis
OG83LDXAG5,08/07/2020 19:27,08/07/2020 19:27,Pay Bill from 254723935789 - EDWIN MWITI Acc. V43,Completed,6600,,17200,TRUE,Pay Utility,254723935789 - EDWIN MWITI,,V43
OG89L9PGRB,08/07/2020 18:10,08/07/2020 18:10,Pay Bill from 254713388942 - UKONU CHRISTOPHER OBINNA Acc. V22,Completed,4000,,10600,TRUE,Pay Utility,254713388942 - UKONU CHRISTOPHER OBINNA,,V22
OG85L0CBZB,08/07/2020 14:23,08/07/2020 14:23,Pay Bill from 0702583480 - NANCY NEKESA OLUOCH Acc. v31,Completed,6600,,6600,TRUE,Pay Utility,0702583480 - NANCY NEKESA OLUOCH,,v31
OG88KS2WCO,08/07/2020 10:31,08/07/2020 10:31,Utility Account to Organization Settlement Account,Completed,,-19800,0,TRUE,Utility Account to Organization Settlement Account,887674 - ANCIENT WELLS LTD 1,,
OG85KMNVH7,08/07/2020 07:16,08/07/2020 07:16,Pay Bill from 254701086112 - CAROLYNE KOKI MULWA Acc. V30,Completed,6600,,19800,TRUE,Pay Utility,254701086112 - CAROLYNE KOKI MULWA,,V30
OG89KM0UFR,08/07/2020 06:07,08/07/2020 06:07,Pay Bill from 254727067380 - mika kevin omondi Acc. v03,Completed,6600,,13200,TRUE,Pay Utility,254727067380 - mika kevin omondi,,v03
OG73KKIGS1,07/07/2020 22:16,07/07/2020 22:16,Pay Bill from 254710262457 - PETER VIKATSI Acc. V26,Completed,6600,,6600,TRUE,Pay Utility,254710262457 - PETER VIKATSI,,V26
OG79K3JWEV,07/07/2020 15:47,07/07/2020 15:47,Utility Account to Organization Settlement Account,Completed,,-12800,0,TRUE,Utility Account to Organization Settlement Account,887674 - ANCIENT WELLS LTD 1,,
OG73JWG3KN,07/07/2020 12:34,07/07/2020 12:34,Pay Bill from 254712305555 - peris kiragu Acc. V 17,Completed,6200,,12800,TRUE,Pay Utility,254712305555 - peris kiragu,,V
OG79JOMFW7,07/07/2020 08:42,07/07/2020 08:42,Pay Bill from 254704995854 - james karanja wairimu Acc. V54,Completed,6600,,6600,TRUE,Pay Utility,254704995854 - james karanja wairimu,,V54
OG78JOC7U6,07/07/2020 08:31,07/07/2020 08:31,Utility Account to Organization Settlement Account,Completed,,-47400,0,TRUE,Utility Account to Organization Settlement Account,887674 - ANCIENT WELLS LTD 1,,
OG70JM3FAQ,07/07/2020 06:10,07/07/2020 06:10,Pay Bill from 254700218502 - GRACE NGURE Acc. v46,Completed,6600,,47400,TRUE,Pay Utility,254700218502 - GRACE NGURE,,v46
OG64JJXDZK,06/07/2020 21:24,06/07/2020 21:24,Pay Bill Online from 254712569636 - BENSON NYAGA Acc. v60,Completed,6600,,40800,TRUE,Pay Utility with OD Online,254712569636 - BENSON NYAGA,,v60
OG68IXUPSE,06/07/2020 12:38,06/07/2020 12:38,Pay Bill from 254720056285 - DAMARIS NDURU Acc. V09,Completed,10600,,34200,TRUE,Pay Utility,254720056285 - DAMARIS NDURU,,V09
OG51IDOCVN,05/07/2020 18:33,05/07/2020 18:33,Pay Bill from 254722307003 - NIGEL BOMETT Acc. V01,Completed,6600,,23600,TRUE,Pay Utility,254722307003 - NIGEL BOMETT,,V01
OG50I8237C,05/07/2020 16:19,05/07/2020 16:19,Pay Bill from 254723389922 - ANNE WANJIKU Acc. V53,Completed,7000,,17000,TRUE,Pay Utility,254723389922 - ANNE WANJIKU,,V53
OG59I3MVHN,05/07/2020 14:18,05/07/2020 14:18,Pay Bill from 254712014147 - HILLAN MWITI GITONGA Acc. V49,Completed,10000,,10000,TRUE,Pay Utility,254712014147 - HILLAN MWITI GITONGA,,V49
OG55I3DQCN,05/07/2020 14:11,05/07/2020 14:11,Utility Account to Organization Settlement Account,Completed,,-37500,0,TRUE,Utility Account to Organization Settlement Account,887674 - ANCIENT WELLS LTD 1,,
OG59HZBYOX,05/07/2020 12:16,05/07/2020 12:16,Pay Bill from 254723737647 - BRIAN MANGADE Acc. V51,Completed,6600,,37500,TRUE,Pay Utility,254723737647 - BRIAN MANGADE,,V51
OG52HXLPEW,05/07/2020 11:24,05/07/2020 11:24,Pay Bill from 254790610309 - MESHACK CHUMBA Acc. V39,Completed,6600,,30900,TRUE,Pay Utility,254790610309 - MESHACK CHUMBA,,V39
OG51HSVMUD,05/07/2020 08:50,05/07/2020 08:50,Pay Bill from 254726465584 - JULIANA MUKELI MUTUNGA Acc. v4,Completed,6600,,24300,TRUE,Pay Utility,254726465584 - JULIANA MUKELI MUTUNGA,,v4
OG46HFUTZU,04/07/2020 18:35,04/07/2020 18:34,Pay Bill from 254720623535 - JOSEPH MUTURI KAMAU Acc. V32,Completed,11100,,17700,TRUE,Pay Utility with OD via STK,254720623535 - JOSEPH MUTURI KAMAU,,V32
OG46H4IASY,04/07/2020 14:21,04/07/2020 14:21,Pay Bill from 254703311892 - WINNIE ACHIENG' OPEYO Acc. v50,Completed,6600,,6600,TRUE,Pay Utility,254703311892 - WINNIE ACHIENG' OPEYO,,v50
OG48H37AKG,04/07/2020 13:47,04/07/2020 13:47,Utility Account to Organization Settlement Account,Completed,,-53500,0,TRUE,Utility Account to Organization Settlement Account,887674 - ANCIENT WELLS LTD 1,,
OG44H2IS6S,04/07/2020 13:30,04/07/2020 13:30,Pay Bill from 254791798688 - EMILY AWUOR HAWI Acc. v50,Completed,22700,,53500,TRUE,Pay Utility,254791798688 - EMILY AWUOR HAWI,,v50
OG34GGX8WO,03/07/2020 19:09,03/07/2020 19:09,Pay Bill from 254758070694 - naomi ndinda nzamalu Acc. v28,Completed,6600,,30800,TRUE,Pay Utility,254758070694 - naomi ndinda nzamalu,,v28
OG32GFGJZ6,03/07/2020 18:43,03/07/2020 18:43,Pay Bill Online from 254713498554 - HENRY KINYUA WARUI Acc. V44 Henry Warui,Completed,6000,,24200,TRUE,Pay Bill Online,254713498554 - HENRY KINYUA WARUI,,V44
OG30GAU0IQ,03/07/2020 17:11,03/07/2020 17:11,Pay Bill from 0702322105 - hurry ibarasi madede Acc. V52,Completed,6600,,18200,TRUE,Pay Utility,0702322105 - hurry ibarasi madede,,V52
OG35G1YYS7,03/07/2020 13:27,03/07/2020 13:27,Pay Bill from 254721294568 - BERNARD SIMIYU Acc. House V8,Completed,6600,,11600,TRUE,Pay Utility,254721294568 - BERNARD SIMIYU,,House
OG30FRJ2VG,03/07/2020 08:19,03/07/2020 08:19,Pay Bill from 254720623535 - JOSEPH MUTURI KAMAU Acc. V32,Completed,5000,,5000,TRUE,Pay Utility,254720623535 - JOSEPH MUTURI KAMAU,,V32
OG36FQ12E8,03/07/2020 07:02,03/07/2020 07:02,Utility Account to Organization Settlement Account,Completed,,-72300,0,TRUE,Utility Account to Organization Settlement Account,887674 - ANCIENT WELLS LTD 1,,
OG29F54XE3,02/07/2020 14:32,02/07/2020 14:32,Pay Bill from 254722160984 - PENINNAH MUNYWOKI Acc. Anita v27,Completed,7600,,72300,TRUE,Pay Utility,254722160984 - PENINNAH MUNYWOKI,,Anita
OG25F3YGLB,02/07/2020 13:59,02/07/2020 13:59,Pay Bill Online from 254725639425 - CHRISPINE OMONDI Acc. V13,Completed,16100,,64700,TRUE,Pay Bill Online,254725639425 - CHRISPINE OMONDI,,V13
OG27F30WE3,02/07/2020 13:34,02/07/2020 13:34,Pay Bill Online from 254705670064 - margaret wahu wachira Acc. v35,Completed,7000,,48600,TRUE,Pay Bill Online,254705670064 - margaret wahu wachira,,v35
OG26EXDLSW,02/07/2020 10:55,02/07/2020 10:55,Pay Bill from 254799376885 - DERRICK OSORE SONGORO Acc. DerrickV58,Completed,6600,,41600,TRUE,Pay Utility,254799376885 - DERRICK OSORE SONGORO,,DerrickV58
OG23EW9XFF,02/07/2020 10:23,02/07/2020 10:23,Pay Bill from 254723815832 - SEMEKIA ONDIALA Acc. v 38,Completed,6600,,35000,TRUE,Pay Utility,254723815832 - SEMEKIA ONDIALA,,v
OG27ESO3WB,02/07/2020 08:24,02/07/2020 08:24,Pay Bill from 254723538366 - VERONICAH SHIYENJI Acc. V40,Completed,2200,,28400,TRUE,Pay Utility,254723538366 - VERONICAH SHIYENJI,,V40
OG13EP3M9P,01/07/2020 22:13,01/07/2020 22:13,Pay Bill from 254708915764 - GEORGE WAHOME Acc. V18,Completed,6000,,26200,TRUE,Pay Utility,254708915764 - GEORGE WAHOME,,V18
OG10ELNPFW,01/07/2020 20:16,01/07/2020 20:16,Pay Bill from 254718359438 - AHMAD TAHIR MACHENGO Acc. V11,Completed,6600,,20200,TRUE,Pay Utility,254718359438 - AHMAD TAHIR MACHENGO,,V11
OG19ECW8RV,01/07/2020 17:32,01/07/2020 17:32,Pay Bill from 254729078854 - JOSHUA NJUGUNA KARANJA Acc. joshua v 20,Completed,400,,13600,TRUE,Pay Utility,254729078854 - JOSHUA NJUGUNA KARANJA,,joshua
OG12E6QMHC,01/07/2020 15:02,01/07/2020 15:02,Pay Bill from 254718417450 - HARON ASUMA OROKO Acc. haron v47,Completed,6600,,13200,TRUE,Pay Utility,254718417450 - HARON ASUMA OROKO,,haron
OG17E4WZWZ,01/07/2020 14:13,01/07/2020 14:13,Pay Bill from 0717042461 - Sharon Nyangasi Shivachi Acc. V55,Completed,6600,,6600,TRUE,Pay Utility,0717042461 - Sharon Nyangasi Shivachi,,V55
OG19DZVQF9,01/07/2020 11:52,01/07/2020 11:52,Utility Account to Organization Settlement Account,Completed,,-38300,0,TRUE,Utility Account to Organization Settlement Account,887674 - ANCIENT WELLS LTD 1,,
