Receipt No.,Completion Time,Initiation Time,Details,Transaction Status,Paid In,Withdrawn,Balance,Balance Confirmed,Reason Type,Other Party Info,Linked Transaction ID,A/C No.
RIU984XJ7X,30/09/2023 23:54,30/09/2023 23:54,Pay Bill from 254722627652 - BONIFACE MWAMUTSI CHENGO Acc. D9,Completed,11000,,11000,TRUE,Pay Utility,254722627652 - BONIFACE MWAMUTSI CHENGO,,D9
RIU84TKE06,30/09/2023 05:56,30/09/2023 05:56,Utility Account to Organization Settlement Account,Completed,,-5650,0,TRUE,Utility Account to Organization Settlement Account,887264 - ANCIENT WELLS LTD 2,,
RIT14BKYJD,29/09/2023 20:58,29/09/2023 20:58,Pay Bill from 254705652845 - DENNIS SPENCE Acc. n2,Completed,5650,,5650,TRUE,Pay Utility,254705652845 - DENNIS SPENCE,,n2
RIT32CWMX7,29/09/2023 12:07,29/09/2023 12:07,Utility Account to Organization Settlement Account,Completed,,-52000,0,TRUE,Utility Account to Organization Settlement Account,887264 - ANCIENT WELLS LTD 2,,
RIS0XC2364,28/09/2023 06:52,28/09/2023 06:52,Pay Bill Online from 254710820833 - PATRICK AYIEKO Acc. SAVANAH 102,Completed,36000,,52000,TRUE,Pay Bill Online,254710820833 - PATRICK AYIEKO,,SAVANAH
RIR7WPVGS5,27/09/2023 20:25,27/09/2023 20:25,Pay Bill Online from 254723853941 - ELIZABETH MUTIO MUTUKU Acc. house z12,Completed,16000,,16000,TRUE,Pay Utility with OD Online,254723853941 - ELIZABETH MUTIO MUTUKU,,house
RIQ0S0XQOE,26/09/2023 13:05,26/09/2023 13:05,Utility Account to Organization Settlement Account,Completed,,-16000,0,TRUE,Utility Account to Organization Settlement Account,887264 - ANCIENT WELLS LTD 2,,
RIP3PN4YHZ,25/09/2023 16:50,25/09/2023 16:50,Pay Bill from 254714033354 - George njoroge Acc. Z11 ,Completed,16000,,16000,TRUE,Pay Utility,254714033354 - George njoroge,,Z11
RIM6FRSF2O,22/09/2023 12:27,22/09/2023 12:27,Utility Account to Organization Settlement Account,Completed,,-19500,0,TRUE,Utility Account to Organization Settlement Account,887264 - ANCIENT WELLS LTD 2,,
RIM1F7DB2X,22/09/2023 08:55,22/09/2023 08:55,Pay Bill from 254728208930 - DOREEN MAKENA Acc. Z10,Completed,4000,,19500,TRUE,Pay Utility,254728208930 - DOREEN MAKENA,,Z10
RIL4ENDJ4Q,21/09/2023 21:56,21/09/2023 21:56,Pay Bill from 254715979027 - NICHOLAS MWANGI Acc. Leah b2,Completed,10000,,15500,TRUE,Pay Utility,254715979027 - NICHOLAS MWANGI,,Leah
RIL3CKAZ2J,21/09/2023 11:25,21/09/2023 11:25,Pay Bill from 254721226492 - MICHAEL OKEYO CURTIS Acc. uu4,Completed,5500,,5500,TRUE,Pay Utility,254721226492 - MICHAEL OKEYO CURTIS,,uu4
RIL4CDWKUM,21/09/2023 10:20,21/09/2023 10:20,Utility Account to Organization Settlement Account,Completed,,-76000,0,TRUE,Utility Account to Organization Settlement Account,887264 - ANCIENT WELLS LTD 2,,
RIL6BZTH36,21/09/2023 07:38,21/09/2023 07:38,Utility Account to Organization Settlement Account,Completed,,-10000,76000,TRUE,Utility Account to Organization Settlement Account,887264 - ANCIENT WELLS LTD 2,,
RIK3BA0I7H,20/09/2023 20:14,20/09/2023 20:14,Utility Account to Organization Settlement Account,Completed,,-10000,86000,TRUE,Utility Account to Organization Settlement Account,887264 - ANCIENT WELLS LTD 2,,
RIH91TYBVX,17/09/2023 18:54,17/09/2023 18:54,Pay Bill from 254728479985 - VIRGINIAH MUHIA Acc. B7,Completed,6000,,96000,TRUE,Pay Utility,254728479985 - VIRGINIAH MUHIA,,B7
RIF5TL8Z3J,15/09/2023 13:46,15/09/2023 13:46,Pay Bill from 254722566566 - DANIEL KIMANTHI KAMANDI Acc. UMOJA H101,Completed,10000,,90000,TRUE,Pay Utility,254722566566 - DANIEL KIMANTHI KAMANDI,,UMOJA
RIE4RKU0J8,14/09/2023 19:03,14/09/2023 19:03,Pay Bill from 254741791919 - Linet Mongina Maraga Acc. u3,Completed,5000,,80000,TRUE,Pay Utility with OD via STK,254741791919 - Linet Mongina Maraga,,u3
RIE5PTAA51,14/09/2023 09:23,14/09/2023 09:23,Pay Bill from 254728208930 - DOREEN MAKENA Acc. Z10,Completed,2000,,75000,TRUE,Pay Utility,254728208930 - DOREEN MAKENA,,Z10
RIE4PDMT6E,14/09/2023 01:18,14/09/2023 01:18,Pay Bill from 0745528615 - COLLINS OCHIENG ONYANGO Acc. U6,Completed,6000,,73000,TRUE,Pay Utility,0745528615 - COLLINS OCHIENG ONYANGO,,U6
RID6MEGZAO,13/09/2023 04:35,13/09/2023 04:35,Utility Account to Organization Settlement Account,Completed,,-36000,67000,TRUE,Utility Account to Organization Settlement Account,887264 - ANCIENT WELLS LTD 2,,
RIC2L8DU7S,12/09/2023 17:45,12/09/2023 17:45,Pay Bill from 254720213934 - TERRY KAWIRA SALESIO Acc. z20,Completed,10000,,103000,TRUE,Pay Utility,254720213934 - TERRY KAWIRA SALESIO,,z20
RIC1L1B9NV,12/09/2023 16:48,12/09/2023 16:48,Pay Bill from 254728912446 - GRACE NJERI KIMANI Acc. ancient well ,Completed,40000,,93000,TRUE,Pay Utility with OD via STK,254728912446 - GRACE NJERI KIMANI,,ancient
RIC0KKY538,12/09/2023 14:11,12/09/2023 14:11,Pay Bill from 254720084537 - MARY NDUKU WAMBUA Acc. 6,Completed,16000,,53000,TRUE,Pay Utility,254720084537 - MARY NDUKU WAMBUA,,6
RIB9IJ97AV,11/09/2023 19:06,11/09/2023 19:06,Pay Bill Online from 0743263203 - Patrick theuri wachira Acc. u1,Completed,5000,,37000,TRUE,Pay Bill Online,0743263203 - Patrick theuri wachira,,u1
RIB2I3LUAA,11/09/2023 17:21,11/09/2023 17:21,Pay Bill Online from 254715776633 - FIONA KIMANI Acc. Z16,Completed,16000,,32000,TRUE,Pay Bill Online,254715776633 - FIONA KIMANI,,Z16
RIB3I1UFAT,11/09/2023 17:07,11/09/2023 17:07,Pay Bill from 254720867522 - DANIEL WAMBUI Acc. z15 ,Completed,16000,,16000,TRUE,Pay Utility,254720867522 - DANIEL WAMBUI,,z15
RIB1HZZ72Z,11/09/2023 16:51,11/09/2023 16:51,Utility Account to Organization Settlement Account,Completed,,-395500,0,TRUE,Utility Account to Organization Settlement Account,887264 - ANCIENT WELLS LTD 2,,
RIB8HBMJK4,11/09/2023 13:03,11/09/2023 13:03,Pay Bill Online from 254722269369 - FAIZ OMAR BASABRA Acc. Nairobi west12,Completed,70000,,395500,TRUE,Pay Bill Online,254722269369 - FAIZ OMAR BASABRA,,Nairobi
RIB1GF1ROX,11/09/2023 07:12,11/09/2023 07:12,Pay Bill from 254729140163 - BEATRICE OMADI NYANDIGA Acc. Z13,Completed,10500,,325500,TRUE,Pay Utility,254729140163 - BEATRICE OMADI NYANDIGA,,Z13
RIA8G6ABK0,10/09/2023 22:41,10/09/2023 22:41,Pay Bill from 254706011442 - REUBEN MURIUKI Acc. B5,Completed,6000,,315000,TRUE,Pay Utility with OD via STK,254706011442 - REUBEN MURIUKI,,B5
RIA5DZ883N,10/09/2023 10:18,10/09/2023 10:18,Pay Bill Online from 254724312731 - Judith Omadi Acc. hse no.3,Completed,12000,,309000,TRUE,Pay Bill Online,254724312731 - Judith Omadi,,hse
RIA8DQRPNO,10/09/2023 08:35,10/09/2023 08:35,Pay Bill from 0798966287 - Mary Njeri Wangari Acc. Z14,Completed,16000,,297000,TRUE,Pay Utility,0798966287 - Mary Njeri Wangari,,Z14
RI97BSLNLD,09/09/2023 15:19,09/09/2023 15:19,Pay Bill from 254710966654 - MILLICENT ACHIENG ODHONE Acc. Andrew Odhiambo,Completed,12000,,281000,TRUE,Pay Utility,254710966654 - MILLICENT ACHIENG ODHONE,,Andrew
RI92BHZVY4,09/09/2023 13:43,09/09/2023 13:43,Pay Bill from 254728208930 - DOREEN MAKENA Acc. Z10,Completed,3000,,269000,TRUE,Pay Utility,254728208930 - DOREEN MAKENA,,Z10
RI8295NFP0,08/09/2023 17:44,08/09/2023 17:44,Pay Bill from 254722566566 - DANIEL KIMANTHI KAMANDI Acc. UMOJA H101,Completed,10000,,266000,TRUE,Pay Utility,254722566566 - DANIEL KIMANTHI KAMANDI,,UMOJA
RI887QN3FE,08/09/2023 10:02,08/09/2023 10:02,Pay Bill from 0748071102 - Rose  Kendi  Mutegi Acc. A202 ,Completed,90000,,256000,TRUE,Pay Utility,0748071102 - Rose  Kendi  Mutegi,,A202
RI857JHRS7,08/09/2023 08:45,08/09/2023 08:45,Pay Bill from 254712751975 - HAPPINESS SIMAMOI JOSEPH Acc. B3,Completed,6000,,166000,TRUE,Pay Utility,254712751975 - HAPPINESS SIMAMOI JOSEPH,,B3
RI756HH375,07/09/2023 19:17,07/09/2023 19:17,Pay Bill from 254725014210 - FREDRICK MOUNDE Acc. EPZ MH ,Completed,30000,,160000,TRUE,Pay Utility,254725014210 - FREDRICK MOUNDE,,EPZ
RI755TKDDP,07/09/2023 16:24,07/09/2023 16:24,Pay Bill from 254722314500 - SHARON AKINYI OBIERO Acc. hse 1 zimma,Completed,12000,,130000,TRUE,Pay Utility,254722314500 - SHARON AKINYI OBIERO,,hse
RI7545HJ8H,07/09/2023 00:06,07/09/2023 00:06,Pay Bill Online from 254718167869 - MARK OTIENO Acc. A3,Completed,7000,,118000,TRUE,Pay Bill Online,254718167869 - MARK OTIENO,,A3
RI6844DSFO,06/09/2023 23:19,06/09/2023 23:19,Pay Bill from 254728208930 - DOREEN MAKENA Acc. Z10,Completed,2000,,111000,TRUE,Pay Utility,254728208930 - DOREEN MAKENA,,Z10
RI622V5KG8,06/09/2023 17:02,06/09/2023 17:02,Pay Bill from 254726928715 - ELIZAPHAN KAMAU NDUTA Acc. z2,Completed,16000,,109000,TRUE,Pay Utility,254726928715 - ELIZAPHAN KAMAU NDUTA,,z2
RI652JWFFR,06/09/2023 15:19,06/09/2023 15:19,Pay Bill from 254722627652 - BONIFACE MWAMUTSI CHENGO Acc. D9/D10,Completed,11000,,93000,TRUE,Pay Utility with OD via STK,254722627652 - BONIFACE MWAMUTSI CHENGO,,D9/D10
RI631PVHLX,06/09/2023 10:31,06/09/2023 10:31,Pay Bill Online from 0758440469 - Tecla Emma Anyango Odongo Acc. Z4,Completed,15000,,82000,TRUE,Pay Bill Online,0758440469 - Tecla Emma Anyango Odongo,,Z4
RI52XLB09S,05/09/2023 10:32,05/09/2023 10:32,Pay Bill from 254723882311 - VERONICAH WAMBUGU Acc. house no 9,Completed,16000,,67000,TRUE,Pay Utility,254723882311 - VERONICAH WAMBUGU,,house
RI35RN4W4F,03/09/2023 11:36,03/09/2023 11:36,Pay Bill Online from 254723909186 - BRIAN LIBASIA Acc. 18,Completed,16000,,51000,TRUE,Pay Bill Online,254723909186 - BRIAN LIBASIA,,18
RI21QRP3N7,02/09/2023 22:25,02/09/2023 22:25,Pay Bill from 254724825611 - PAULINE INDIEKA Acc. D13,Completed,6000,,35000,TRUE,Pay Utility,254724825611 - PAULINE INDIEKA,,D13
RI29PR37DJ,02/09/2023 17:59,02/09/2023 17:59,Pay Bill from 254725903381 - ADELINE LUMBASI Acc. Saika A6,Completed,13000,,29000,TRUE,Pay Utility,254725903381 - ADELINE LUMBASI,,Saika
