Receipt No.,Completion Time,Initiation Time,Details,Transaction Status,Paid In,Withdrawn,Balance,Balance Confirmed,Reason Type,Other Party Info,Linked Transaction ID,A/C No.
RC707SHJ9A,07/03/2023 09:45,07/03/2023 09:45,Pay Bill from 0114093036 - Cecillia Njeri Githui Acc. C3,Completed,8000,,136500,TRUE,Pay Utility,0114093036 - Cecillia Njeri Githui,,C3
RC737GLT73,07/03/2023 07:09,07/03/2023 07:09,Pay Bill from 254710248036 - Allan Kimeu Mutua Acc. F5,Completed,8500,,128500,TRUE,Pay Utility,254710248036 - Allan Kimeu Mutua,,F5
RC646631YY,06/03/2023 17:05,06/03/2023 17:05,Pay Bill Online from 254720201157 - BENSON INYANJE MWAKHA Acc. b6,Completed,8500,,120000,TRUE,Pay Bill Online,254720201157 - BENSON INYANJE MWAKHA,,b6
RC675KAMOV,06/03/2023 13:15,06/03/2023 13:15,Pay Bill Online from 0704120519 - Mildred   Adhiambo Acc. G1,Completed,8000,,111500,TRUE,Pay Bill Online,0704120519 - Mildred   Adhiambo,,G1
RC563637K2,05/03/2023 15:14,05/03/2023 15:14,Pay Bill Online from 0740283700 - SERAH MUKULU MULILIA Acc. c4serahmukulu,Completed,13500,,103500,TRUE,Pay Bill Online,0740283700 - SERAH MUKULU MULILIA,,c4serahmukulu
RC47ZOQ5R5,04/03/2023 16:18,04/03/2023 16:18,Pay Bill from 0111653037 - STEPHEN MUKABANA MAYABI Acc. A1,Completed,7500,,90000,TRUE,Pay Utility,0111653037 - STEPHEN MUKABANA MAYABI,,A1
RC45ZNUU5R,04/03/2023 16:09,04/03/2023 16:09,Pay Bill from 254791341895 - Enos Nyaosi Ayuma Acc. D5,Completed,8500,,82500,TRUE,Pay Utility,254791341895 - Enos Nyaosi Ayuma,,D5
RC41YEWOHP,04/03/2023 08:25,04/03/2023 08:25,Pay Bill from 254726945691 - JAMES RAMTU Acc. B5,Completed,8500,,74000,TRUE,Pay Utility,254726945691 - JAMES RAMTU,,B5
RC31X7ZKX3,03/03/2023 18:33,03/03/2023 18:33,Pay Bill from 0715030019 - Omwenga Ong'era Stephen Acc. E1,Completed,8000,,65500,TRUE,Pay Utility,0715030019 - Omwenga Ong'era Stephen,,E1
RC33WAAUXD,03/03/2023 13:11,03/03/2023 13:11,Pay Bill Online from 254715020357 - ELIZABETH NJERI WARARI Acc. C2,Completed,7500,,57500,TRUE,Pay Bill Online,254715020357 - ELIZABETH NJERI WARARI,,C2
RC38W6DGW4,03/03/2023 12:28,03/03/2023 12:28,Pay Bill from 254713701237 - Michael Wanjala Acc. G2,Completed,8000,,50000,TRUE,Pay Utility,254713701237 - Michael Wanjala,,G2
RC29V8JC3V,02/03/2023 23:34,02/03/2023 23:34,Pay Bill from 254715764093 - GICHANA GOVAN Acc. E3,Completed,8000,,42000,TRUE,Pay Utility,254715764093 - GICHANA GOVAN,,E3
RC22T1SJXW,02/03/2023 10:20,02/03/2023 10:20,Pay Bill from 254720439955 - GEOPHRY OKOTH Acc. D6,Completed,8500,,34000,TRUE,Pay Utility,254720439955 - GEOPHRY OKOTH,,D6
RC11QOV3CP,01/03/2023 13:00,01/03/2023 13:00,Pay Bill Online from 254722444929 - LIZ KIHARA Acc. g3,Completed,8000,,25500,TRUE,Pay Bill Online,254722444929 - LIZ KIHARA,,g3
RC11QF05AF,01/03/2023 11:09,01/03/2023 11:09,Pay Bill from 0748956967 - Selvin Mukami Wanjiru Acc. E4,Completed,8500,,17500,TRUE,Pay Utility,0748956967 - Selvin Mukami Wanjiru,,E4
