Receipt No.,Completion Time,Initiation Time,Details,Transaction Status,Paid In,Withdrawn,Balance,Balance Confirmed,Reason Type,Other Party Info,Linked Transaction ID,A/C No.
RIK199DOG5,20/09/2023 09:56,20/09/2023 09:56,Utility Account to Organization Settlement Account,Completed,,-32500,0,TRUE,Utility Account to Organization Settlement Account,979524 - ANCIENT WELLS PROPERTY MANAGERS 2,,
RIK696O444,20/09/2023 09:27,20/09/2023 09:27,Pay Bill from 0722531422 - ANTHONY ITIMU MAINA Acc. JBD,Completed,5000,,32500,TRUE,Pay Utility,0722531422 - ANTHONY ITIMU MAINA,,JBD
RIK58WYJGB,20/09/2023 07:31,20/09/2023 07:31,Pay Bill from 254707653264 - KELVIN MWANGI MUCHORI Acc. hde,Completed,10500,,27500,TRUE,Pay Utility with OD via STK,254707653264 - KELVIN MWANGI MUCHORI,,hde
RIJ48KY76E,19/09/2023 22:14,19/09/2023 22:14,Pay Bill Online from 254719317219 - PHILIP MBOYA Acc. JDH,Completed,16000,,17000,TRUE,Pay Bill Online,254719317219 - PHILIP MBOYA,,JDH
RIJ88C9M3E,19/09/2023 20:45,19/09/2023 20:45,Pay Bill from 254724201046 - GIDEON NDOLO Acc. KFH,Completed,1000,,1000,TRUE,Pay Utility with OD via STK,254724201046 - GIDEON NDOLO,,KFH
RIJ877I1J6,19/09/2023 16:00,19/09/2023 16:00,Utility Account to Organization Settlement Account,Completed,,-117100,0,TRUE,Utility Account to Organization Settlement Account,979524 - ANCIENT WELLS PROPERTY MANAGERS 2,,
RIJ16UX1J7,19/09/2023 13:56,19/09/2023 13:56,Pay Bill from 254725111246 - FRANCIS MUUTU MWANGANGI Acc. IGI,Completed,15000,,117100,TRUE,Pay Utility,254725111246 - FRANCIS MUUTU MWANGANGI,,IGI
RIJ16FMG7F,19/09/2023 11:20,19/09/2023 11:20,Pay Bill from 254720931007 - BRENDA NASIMIYU NYONGESA Acc. KAB,Completed,16000,,102100,TRUE,Pay Utility,254720931007 - BRENDA NASIMIYU NYONGESA,,KAB
RIJ16AL3RT,19/09/2023 10:29,19/09/2023 10:29,Pay Bill Online from 254720451253 - JIMMY KIOGORA NKIROTE Acc. KBD,Completed,1000,,86100,TRUE,Pay Utility with OD Online,254720451253 - JIMMY KIOGORA NKIROTE,,KBD
RIJ85U13FO,19/09/2023 07:14,19/09/2023 07:14,Pay Bill Online from 254799946039 - LUIS OTIENO Acc. IAE,Completed,12000,,85100,TRUE,Pay Bill Online,254799946039 - LUIS OTIENO,,IAE
RII85KQHIM,18/09/2023 22:29,18/09/2023 22:29,Pay Bill from 254703935626 - DAVID NGARI ITA Acc. FCD,Completed,8000,,73100,TRUE,Pay Utility,254703935626 - DAVID NGARI ITA,,FCD
RII35J1IAF,18/09/2023 22:02,18/09/2023 22:02,Pay Bill Online from 254702190887 - Nax Ochieng Acc. FDE,Completed,15000,,65100,TRUE,Pay Bill Online,254702190887 - Nax Ochieng,,FDE
RII35J0M7P,18/09/2023 22:01,18/09/2023 22:01,Pay Bill from 0112254959 - Timothy muoka musyoka Acc. jca,Completed,20000,,50100,TRUE,Pay Utility with OD via STK,0112254959 - Timothy muoka musyoka,,jca
RII75EWDSF,18/09/2023 21:15,18/09/2023 21:15,Pay Bill from 0708931111 - NJENGA   KURIA Acc. kca,Completed,16000,,30100,TRUE,Pay Utility,0708931111 - NJENGA   KURIA,,kca
RII94PGNND,18/09/2023 18:26,18/09/2023 18:26,Pay Bill from 254719779657 - SAMUEL NJOROGE Acc. JGA,Completed,10000,,14100,TRUE,Pay Utility,254719779657 - SAMUEL NJOROGE,,JGA
RII546LNTR,18/09/2023 15:56,18/09/2023 15:56,Pay Bill from 0743789968 - Dallias Thanare Githara Acc. hbb,Completed,4000,,4100,TRUE,Pay Utility,0743789968 - Dallias Thanare Githara,,hbb
RII03EF026,18/09/2023 11:20,18/09/2023 11:20,Pay Bill from 254704111133 - ELVIS OTIENO Acc. HFD,Completed,100,,100,TRUE,Pay Utility,254704111133 - ELVIS OTIENO,,HFD
RII03C2FSK,18/09/2023 10:57,18/09/2023 10:57,Utility Account to Organization Settlement Account,Completed,,-72000,0,TRUE,Utility Account to Organization Settlement Account,979524 - ANCIENT WELLS PROPERTY MANAGERS 2,,
RIH02LC67W,17/09/2023 23:42,17/09/2023 23:42,Pay Bill from 254719499823 - MOSES MWANZIA MUTHIANI Acc. Jcc,Completed,7000,,72000,TRUE,Pay Utility with OD via STK,254719499823 - MOSES MWANZIA MUTHIANI,,Jcc
RIH728QKXX,17/09/2023 20:37,17/09/2023 20:37,Pay Bill from 0792933158 - mary wamaitha maina Acc. DGD ,Completed,11000,,65000,TRUE,Pay Utility,0792933158 - mary wamaitha maina,,DGD
RIH11Y94LH,17/09/2023 19:22,17/09/2023 19:22,Pay Bill from 254701112397 - ELEMA GODANA DIBA Acc. FCA,Completed,6000,,54000,TRUE,Pay Utility,254701112397 - ELEMA GODANA DIBA,,FCA
RIH21UTF0C,17/09/2023 19:00,17/09/2023 19:00,Pay Bill from 254796848496 - IVY WITABA Acc. FAA,Completed,11000,,48000,TRUE,Pay Utility,254796848496 - IVY WITABA,,FAA
RIH51SA4S9,17/09/2023 18:44,17/09/2023 18:44,Pay Bill from 0719726347 - ROSEMARY DAYO KILUMBE Acc. KGE,Completed,9000,,37000,TRUE,Pay Utility,0719726347 - ROSEMARY DAYO KILUMBE,,KGE
RIH01DB0PA,17/09/2023 16:46,17/09/2023 16:46,Pay Bill from 254799805832 - NATHANIEl MAMBO MBITHI Acc. KBH,Completed,3000,,28000,TRUE,Pay Utility,254799805832 - NATHANIEl MAMBO MBITHI,,KBH
RIH5YZFP5L,17/09/2023 07:51,17/09/2023 07:51,Pay Bill Online from 254720696119 - DUNCAN OMONDI OKETCH Acc. FAE,Completed,15000,,25000,TRUE,Pay Bill Online,254720696119 - DUNCAN OMONDI OKETCH,,FAE
RIG3Y8ND1T,16/09/2023 20:14,16/09/2023 20:14,Pay Bill from 0790946220 - Joyce Silvier Ombeyi Acc. IAG,Completed,9000,,10000,TRUE,Pay Utility,0790946220 - Joyce Silvier Ombeyi,,IAG
RIG0XN1G2A,16/09/2023 18:00,16/09/2023 18:00,Pay Bill from 0790536272 - BARNABAS MSITIA KEYARI Acc. FGC,Completed,1000,,1000,TRUE,Pay Utility,0790536272 - BARNABAS MSITIA KEYARI,,FGC
RIG9X4KJ2L,16/09/2023 15:32,16/09/2023 15:32,Utility Account to Organization Settlement Account,Completed,,-284600,0,TRUE,Utility Account to Organization Settlement Account,979524 - ANCIENT WELLS PROPERTY MANAGERS 2,,
RIG8WQ4132,16/09/2023 13:25,16/09/2023 13:25,Pay Bill from 254711271263 - BENSON MWADIME JOSEPH Acc. HFC,Completed,9000,,284600,TRUE,Pay Utility,254711271263 - BENSON MWADIME JOSEPH,,HFC
RIG1WECR6P,16/09/2023 11:36,16/09/2023 11:36,Pay Bill Online from 254722258107 - JOHN ODIMA ODIMA Acc. KGF,Completed,10000,,275600,TRUE,Pay Bill Online,254722258107 - JOHN ODIMA ODIMA,,KGF
RIG6WACMDW,16/09/2023 10:58,16/09/2023 10:58,Pay Bill Online from 254722910078 - MAUREEN MUNYIVA MUTUKU Acc. DCD,Completed,4000,,265600,TRUE,Pay Bill Online,254722910078 - MAUREEN MUNYIVA MUTUKU,,DCD
RIG0WA63YU,16/09/2023 10:56,16/09/2023 10:56,Pay Bill from 0796929370 - HALIMA BOYA GALMA Acc. DBC,Completed,20000,,261600,TRUE,Pay Utility,0796929370 - HALIMA BOYA GALMA,,DBC
RIG6VPAY6A,16/09/2023 06:54,16/09/2023 06:54,Pay Bill from 254704977689 - ANTONY MUTHONI Acc. ICD,Completed,11000,,241600,TRUE,Pay Utility,254704977689 - ANTONY MUTHONI,,ICD
RIG3VNQRZB,16/09/2023 06:07,16/09/2023 06:07,Pay Bill from 254704111133 - ELVIS OTIENO Acc. HFD,Completed,1000,,230600,TRUE,Pay Utility,254704111133 - ELVIS OTIENO,,HFD
RIF6VG9E7Y,15/09/2023 22:41,15/09/2023 22:41,Pay Bill from 254722572104 - ERICK MURABULA Acc. hae,Completed,10000,,229600,TRUE,Pay Utility,254722572104 - ERICK MURABULA,,hae
RIF3V2OKLP,15/09/2023 20:25,15/09/2023 20:25,Pay Bill Online from 254702764047 - FERDINAND K Acc. KDB,Completed,16000,,219600,TRUE,Pay Bill Online,254702764047 - FERDINAND K,,KDB
RIF8V2MAAI,15/09/2023 20:24,15/09/2023 20:24,Pay Bill from 254718672924 - LILIAN CHEBET NGENO Acc. HAB,Completed,15000,,203600,TRUE,Pay Utility,254718672924 - LILIAN CHEBET NGENO,,HAB
RIF0ULP298,15/09/2023 18:44,15/09/2023 18:44,Pay Bill Online from 254710732381 - JANE ACHIENG MBEKE Acc. HAF,Completed,9400,,188600,TRUE,Pay Bill Online,254710732381 - JANE ACHIENG MBEKE,,HAF
RIF2U7J2FO,15/09/2023 17:07,15/09/2023 17:07,Pay Bill from 254729258441 - ROBERT RONO KULEI Acc. JFI,Completed,10000,,179200,TRUE,Pay Utility,254729258441 - ROBERT RONO KULEI,,JFI
RIF4U5OYS8,15/09/2023 16:52,15/09/2023 16:52,Pay Bill from 254796848496 - IVY WITABA Acc. FAA,Completed,14000,,169200,TRUE,Pay Utility,254796848496 - IVY WITABA,,FAA
RIF6TE5TS6,15/09/2023 12:40,15/09/2023 12:40,Pay Bill from 254710106394 - LUCY TONKEI Acc. KBG,Completed,9000,,155200,TRUE,Pay Utility with OD via STK,254710106394 - LUCY TONKEI,,KBG
RIF9TBF0C7,15/09/2023 12:13,15/09/2023 12:13,Pay Bill Online from 254711189333 - JOSEPH MAUNDU MWANGANGI Acc. KBH,Completed,5000,,146200,TRUE,Pay Bill Online,254711189333 - JOSEPH MAUNDU MWANGANGI,,KBH
RIF8SYM0HM,15/09/2023 10:08,15/09/2023 10:08,Pay Bill from 254711706815 - NAOMI WANYONYI Acc. KBA,Completed,5000,,141200,TRUE,Pay Utility,254711706815 - NAOMI WANYONYI,,KBA
RIF5SWP4ND,15/09/2023 09:48,15/09/2023 09:48,Pay Bill Online from 254799031749 - KENNEDY WAINAINA NJOROGE Acc. DDD ,Completed,4100,,136200,TRUE,Pay Bill Online,254799031749 - KENNEDY WAINAINA NJOROGE,,DDD
RIF9SDRZP1,15/09/2023 00:08,15/09/2023 00:08,Pay Bill Online from 254720451253 - JIMMY KIOGORA NKIROTE Acc. KBD,Completed,1000,,132100,TRUE,Pay Bill Online,254720451253 - JIMMY KIOGORA NKIROTE,,KBD
RIE7SCJG8T,14/09/2023 23:17,14/09/2023 23:17,Pay Bill from 254704111133 - ELVIS OTIENO Acc. HFD,Completed,1800,,131100,TRUE,Pay Utility,254704111133 - ELVIS OTIENO,,HFD
RIE0S6G726,14/09/2023 21:36,14/09/2023 21:36,Pay Bill from 254722746480 - PATRICK OPEYWA AURA Acc. KGH,Completed,9500,,129300,TRUE,Pay Utility,254722746480 - PATRICK OPEYWA AURA,,KGH
RIE4RX67OW,14/09/2023 20:18,14/09/2023 20:18,Pay Bill from 254726337163 - HALIMA ALI HASSAN Acc. DDA,Completed,4000,,119800,TRUE,Pay Utility,254726337163 - HALIMA ALI HASSAN,,DDA
RIE5RTGZDZ,14/09/2023 19:53,14/09/2023 19:53,Pay Bill Online from 254726116777 - MARY NDUTA GOSHO Acc. JDB,Completed,15000,,115800,TRUE,Pay Utility with OD Online,254726116777 - MARY NDUTA GOSHO,,JDB
RIE6RS8G5C,14/09/2023 19:46,14/09/2023 19:46,Pay Bill Online from 254722205986 - HALIMA MOHAMED ALI Acc. IAH,Completed,49800,,100800,TRUE,Pay Bill Online,254722205986 - HALIMA MOHAMED ALI,,IAH
RIE2ROWSYM,14/09/2023 19:26,14/09/2023 19:26,Pay Bill from 254720868281 - KENNEDY MWELU Acc. KBI,Completed,12500,,51000,TRUE,Pay Utility with OD via STK,254720868281 - KENNEDY MWELU,,KBI
RIE0R6AO2Q,14/09/2023 17:24,14/09/2023 17:24,Pay Bill Online from 254742911013 - HANEST AMIMO Acc. IED,Completed,6000,,38500,TRUE,Pay Bill Online,254742911013 - HANEST AMIMO,,IED
RIE4R22WSI,14/09/2023 16:49,14/09/2023 16:49,Pay Bill Online from 254726292792 - PHILIP MIANO Acc. JEI,Completed,20000,,32500,TRUE,Pay Bill Online,254726292792 - PHILIP MIANO,,JEI
RIE9QT06Z3,14/09/2023 15:23,14/09/2023 15:23,Pay Bill from 254748051777 - SAGE KIMANI WANJIKU Acc. iad,Completed,1500,,12500,TRUE,Pay Utility with OD via STK,254748051777 - SAGE KIMANI WANJIKU,,iad
RIE2QPRC6Q,14/09/2023 14:51,14/09/2023 14:51,Pay Bill Online from 254720451253 - JIMMY KIOGORA NKIROTE Acc. KBD,Completed,1000,,11000,TRUE,Pay Bill Online,254720451253 - JIMMY KIOGORA NKIROTE,,KBD
RIE7QOKO21,14/09/2023 14:39,14/09/2023 14:39,Pay Bill from 254718599145 - KITEMI KIEMA Acc. KGD ,Completed,10000,,10000,TRUE,Pay Utility,254718599145 - KITEMI KIEMA,,KGD
RIE5QKZB4J,14/09/2023 14:03,14/09/2023 14:03,Utility Account to Organization Settlement Account,Completed,,-149000,0,TRUE,Utility Account to Organization Settlement Account,979524 - ANCIENT WELLS PROPERTY MANAGERS 2,,
RIE0QGF5FS,14/09/2023 13:20,14/09/2023 13:20,Pay Bill from 254721315975 - JOSEPH NDEGWA Acc. HEB,Completed,16000,,149000,TRUE,Pay Utility,254721315975 - JOSEPH NDEGWA,,HEB
RID6P7KJNC,13/09/2023 21:59,13/09/2023 21:59,Pay Bill from 254728238249 - ESTHER WANGUI KIBUNYI Acc. ICA,Completed,17000,,133000,TRUE,Pay Utility,254728238249 - ESTHER WANGUI KIBUNYI,,ICA
RID0P551U4,13/09/2023 21:31,13/09/2023 21:31,Pay Bill Online from 254715764212 - BANCE ISHEMINYE Acc. JFE,Completed,2000,,116000,TRUE,Pay Bill Online,254715764212 - BANCE ISHEMINYE,,JFE
RID5P1E0AF,13/09/2023 20:56,13/09/2023 20:56,Pay Bill from 254716581384 - GREGORY KILUNGYA Acc. DAD,Completed,20000,,114000,TRUE,Pay Utility,254716581384 - GREGORY KILUNGYA,,DAD
RID5OL4AE7,13/09/2023 19:08,13/09/2023 19:08,Pay Bill from 254713205244 - ROBERT OGALO Acc. HFB,Completed,16000,,94000,TRUE,Pay Utility,254713205244 - ROBERT OGALO,,HFB
RID5O2ML9R,13/09/2023 17:00,13/09/2023 17:00,Pay Bill Online from 254707726441 - JOHN OLOO NYAULA Acc. IEH,Completed,15000,,78000,TRUE,Pay Bill Online,254707726441 - JOHN OLOO NYAULA,,IEH
RID7O292D7,13/09/2023 16:57,13/09/2023 16:57,Pay Bill Online from 254742911013 - HANEST AMIMO Acc. IED,Completed,5000,,63000,TRUE,Pay Bill Online,254742911013 - HANEST AMIMO,,IED
RID1NZUOPT,13/09/2023 16:36,13/09/2023 16:36,Pay Bill from 0740488793 - Twince   Korir Acc. DGC,Completed,10000,,58000,TRUE,Pay Utility,0740488793 - Twince   Korir,,DGC
RID4NTRGYU,13/09/2023 15:38,13/09/2023 15:38,Pay Bill from 0715566922 - diramu ollo galgalo Acc. HBD ,Completed,10000,,48000,TRUE,Pay Utility,0715566922 - diramu ollo galgalo,,HBD
RID3NOZW7H,13/09/2023 14:50,13/09/2023 14:50,Pay Bill Online from 254706549634 - CLINTON OMBASA Acc. FDB,Completed,7000,,38000,TRUE,Pay Bill Online,254706549634 - CLINTON OMBASA,,FDB
RID1NM1K5F,13/09/2023 14:21,13/09/2023 14:21,Pay Bill from 254720051502 - JOHN OCHIENG ONYANGO Acc. JFA ,Completed,5000,,31000,TRUE,Pay Utility,254720051502 - JOHN OCHIENG ONYANGO,,JFA
RID0NELJHQ,13/09/2023 13:09,13/09/2023 13:09,Pay Bill Online from 0722255105 - SALIM OMAR MZEE Acc. FGF,Completed,16000,,26000,TRUE,Pay Bill Online,0722255105 - SALIM OMAR MZEE,,FGF
RID7NDB78P,13/09/2023 12:57,13/09/2023 12:57,Pay Bill from 0743180837 - Caroline Kanana Mutiiria Acc. JDC,Completed,10000,,10000,TRUE,Pay Utility,0743180837 - Caroline Kanana Mutiiria,,JDC
RID8N5PNAM,13/09/2023 11:40,13/09/2023 11:40,Utility Account to Organization Settlement Account,Completed,,-17000,0,TRUE,Utility Account to Organization Settlement Account,979524 - ANCIENT WELLS PROPERTY MANAGERS 2,,
RID2N4E4FW,13/09/2023 11:26,13/09/2023 11:26,Pay Bill from 254700811449 - JOHN MULIMA ENANE Acc. HCE,Completed,10500,,17000,TRUE,Pay Utility,254700811449 - JOHN MULIMA ENANE,,HCE
RID0MXKS70,13/09/2023 10:16,13/09/2023 10:16,Pay Bill from 254704111133 - ELVIS OTIENO Acc. HFD,Completed,1500,,6500,TRUE,Pay Utility,254704111133 - ELVIS OTIENO,,HFD
RID2MNACNM,13/09/2023 08:20,13/09/2023 08:20,Pay Bill from 254727095667 - HILDA JEPKEMOI KIMELIEL Acc. JBE,Completed,5000,,5000,TRUE,Pay Utility,254727095667 - HILDA JEPKEMOI KIMELIEL,,JBE
RID3MMNKMJ,13/09/2023 08:12,13/09/2023 08:12,Utility Account to Organization Settlement Account,Completed,,-20800,0,TRUE,Utility Account to Organization Settlement Account,979524 - ANCIENT WELLS PROPERTY MANAGERS 2,,
RIC2M4N7IS,12/09/2023 21:28,12/09/2023 21:28,Pay Bill Online from 254722910078 - MAUREEN MUNYIVA MUTUKU Acc. DCD,Completed,5000,,20800,TRUE,Pay Bill Online,254722910078 - MAUREEN MUNYIVA MUTUKU,,DCD
RIC5LPO4BZ,12/09/2023 19:35,12/09/2023 19:35,Pay Bill Online from 254704143476 - DICKSON MZUNGU Acc. JCB,Completed,15000,,15800,TRUE,Pay Utility with OD Online,254704143476 - DICKSON MZUNGU,,JCB
RIC6L74PU4,12/09/2023 17:36,12/09/2023 17:36,Pay Bill from 0790536272 - BARNABAS MSITIA KEYARI Acc. FGC,Completed,800,,800,TRUE,Pay Utility,0790536272 - BARNABAS MSITIA KEYARI,,FGC
RIC1L6WSZJ,12/09/2023 17:34,12/09/2023 17:34,Utility Account to Organization Settlement Account,Completed,,-89400,0,TRUE,Utility Account to Organization Settlement Account,979524 - ANCIENT WELLS PROPERTY MANAGERS 2,,
RIC3KPNYP1,12/09/2023 14:58,12/09/2023 14:58,Merchant Pay Utility Received from 6353371 -   MERCY NJERI NDUNGU     Acc. hff,Completed,10000,,89400,TRUE,Merchant Pay Utility via API,6353371 -   MERCY NJERI NDUNGU    ,,hff
RIC4K8U9UM,12/09/2023 12:15,12/09/2023 12:15,Pay Bill from 254748051777 - SAGE KIMANI WANJIKU Acc. iad,Completed,2000,,79400,TRUE,Pay Utility with OD via STK,254748051777 - SAGE KIMANI WANJIKU,,iad
RIC3JOLMOX,12/09/2023 08:46,12/09/2023 08:46,Pay Bill Online from 254720451253 - JIMMY KIOGORA NKIROTE Acc. KBD,Completed,2000,,77400,TRUE,Pay Bill Online,254720451253 - JIMMY KIOGORA NKIROTE,,KBD
RIC9JLPDFV,12/09/2023 08:12,12/09/2023 08:12,Pay Bill from 254740579741 - MUHINDI MULINYA Acc. HGG,Completed,10000,,75400,TRUE,Pay Utility,254740579741 - MUHINDI MULINYA,,HGG
RIC4JBZ9ZU,12/09/2023 00:39,12/09/2023 00:39,Pay Bill from 254722514052 - JOSEPH NDIRANGU Acc. JCF,Completed,5000,,65400,TRUE,Pay Utility,254722514052 - JOSEPH NDIRANGU,,JCF
RIB6J8ZMPW,11/09/2023 22:42,11/09/2023 22:42,Pay Bill from 254704111133 - ELVIS OTIENO Acc. HFD,Completed,1900,,60400,TRUE,Pay Utility,254704111133 - ELVIS OTIENO,,HFD
RIB6J7C396,11/09/2023 22:13,11/09/2023 22:13,Pay Bill Online from 254799371069 - ALPHONCE OCHIENG WAREGA Acc. IEE,Completed,8500,,58500,TRUE,Pay Bill Online,254799371069 - ALPHONCE OCHIENG WAREGA,,IEE
RIB1IS80IJ,11/09/2023 19:58,11/09/2023 19:58,Pay Bill Online from 254710239100 - PHILOMENA WOKI MUTHAMA Acc. KDK,Completed,17000,,50000,TRUE,Pay Bill Online,254710239100 - PHILOMENA WOKI MUTHAMA,,KDK
RIB0INW8EK,11/09/2023 19:32,11/09/2023 19:32,Pay Bill Online from 254718911865 - KENNEDY KELI KATUNGII Acc. HDF,Completed,9000,,33000,TRUE,Pay Utility with OD Online,254718911865 - KENNEDY KELI KATUNGII,,HDF
RIB6I8YFE2,11/09/2023 18:01,11/09/2023 18:01,Pay Bill from 254707435553 - VENALD PETER ODHIAMBO ALOO Acc. IEG,Completed,18000,,24000,TRUE,Pay Utility,254707435553 - VENALD PETER ODHIAMBO ALOO,,IEG
RIB7I89NSL,11/09/2023 17:56,11/09/2023 17:56,Pay Bill from 254791387800 - CAROL MUTUNGA Acc. ICF,Completed,6000,,6000,TRUE,Pay Utility,254791387800 - CAROL MUTUNGA,,ICF
RIB8I7Z5X0,11/09/2023 17:54,11/09/2023 17:54,Utility Account to Organization Settlement Account,Completed,,-316000,0,TRUE,Utility Account to Organization Settlement Account,979524 - ANCIENT WELLS PROPERTY MANAGERS 2,,
RIB7I7P39Z,11/09/2023 17:52,11/09/2023 17:52,Pay Bill from 254708006226 - SAGE KIMANI WANJIKU Acc. iad,Completed,14000,,316000,TRUE,Pay Utility with OD via STK,254708006226 - SAGE KIMANI WANJIKU,,iad
RIB4I28SQW,11/09/2023 17:10,11/09/2023 17:10,Pay Bill from 254722826454 - CHARLES KARIMI MAITAI Acc. KDC. Keila,Completed,10000,,302000,TRUE,Pay Utility,254722826454 - CHARLES KARIMI MAITAI,,KDC.
RIB4HYXB40,11/09/2023 16:42,11/09/2023 16:42,Pay Bill from 0722531422 - ANTHONY ITIMU MAINA Acc. JBD,Completed,13000,,292000,TRUE,Pay Utility,0722531422 - ANTHONY ITIMU MAINA,,JBD
RIB3HXML7D,11/09/2023 16:31,11/09/2023 16:31,Pay Bill from 254707715639 - Annastacia Kimeu Acc. JFC ,Completed,10000,,279000,TRUE,Pay Utility,254707715639 - Annastacia Kimeu,,JFC
RIB6HWYIGE,11/09/2023 16:25,11/09/2023 16:25,Pay Bill from 254720051502 - JOHN OCHIENG ONYANGO Acc. JFA ,Completed,5000,,269000,TRUE,Pay Utility,254720051502 - JOHN OCHIENG ONYANGO,,JFA
RIB4HVAIEY,11/09/2023 16:10,11/09/2023 16:10,Pay Bill Online from 254701196539 - GICHURI KARANJA Acc. fee,Completed,16000,,264000,TRUE,Pay Bill Online,254701196539 - GICHURI KARANJA,,fee
RIB6HRJ78I,11/09/2023 15:34,11/09/2023 15:34,Pay Bill from 254703393963 - WYCLIFF JUMA Acc. IBC,Completed,14500,,248000,TRUE,Pay Utility,254703393963 - WYCLIFF JUMA,,IBC
RIB5HQTEOZ,11/09/2023 15:27,11/09/2023 15:27,Pay Bill from 0717441870 - Steven oduor ogutu Acc. KTA,Completed,9500,,233500,TRUE,Pay Utility,0717441870 - Steven oduor ogutu,,KTA
RIB8HJ5ZQ6,11/09/2023 14:13,11/09/2023 14:13,Pay Bill Online from 0797251813 - Maureen   njoki Acc. HAC,Completed,16000,,224000,TRUE,Pay Bill Online,0797251813 - Maureen   njoki,,HAC
RIB1HHL1CX,11/09/2023 13:58,11/09/2023 13:58,Pay Bill from 254722862886 - LENA C CHEREKWENY Acc. JBE,Completed,2000,,208000,TRUE,Pay Utility,254722862886 - LENA C CHEREKWENY,,JBE
RIB0H8XAM0,11/09/2023 12:37,11/09/2023 12:37,Pay Bill Online from 254700467755 - PAUL OKEYO Acc. ifc,Completed,8000,,206000,TRUE,Pay Utility with OD Online,254700467755 - PAUL OKEYO,,ifc
RIB3H8SOW9,11/09/2023 12:36,11/09/2023 12:36,Pay Bill Online from 254723747228 - MORARA ASANYO Acc. pool,Completed,22000,,198000,TRUE,Pay Bill Online,254723747228 - MORARA ASANYO,,pool
RIB5H8F6M7,11/09/2023 12:32,11/09/2023 12:32,Pay Bill Online from 254720451253 - JIMMY KIOGORA NKIROTE Acc. KBD,Completed,2000,,176000,TRUE,Pay Bill Online,254720451253 - JIMMY KIOGORA NKIROTE,,KBD
RIB2GVW4UY,11/09/2023 10:26,11/09/2023 10:26,Pay Bill from 254722889574 - ALLAN MWANGI Acc. jcg,Completed,20000,,174000,TRUE,Pay Utility,254722889574 - ALLAN MWANGI,,jcg
RIA4G6VPJW,10/09/2023 22:55,10/09/2023 22:55,Pay Bill Online from 254718233980 - KAREN ASWANI Acc. HEC,Completed,10500,,154000,TRUE,Pay Bill Online,254718233980 - KAREN ASWANI,,HEC
RIA5G3OZ43,10/09/2023 21:56,10/09/2023 21:56,Pay Bill from 254712990240 - GLORY KARIUKI Acc. KAA,Completed,16000,,143500,TRUE,Pay Utility with OD via STK,254712990240 - GLORY KARIUKI,,KAA
RIA2G09H8M,10/09/2023 21:16,10/09/2023 21:16,Pay Bill from 254700430569 - EDITH   GAKII Acc. DDB,Completed,16000,,127500,TRUE,Pay Utility with OD via STK,254700430569 - EDITH   GAKII,,DDB
RIA8FV2WPS,10/09/2023 20:29,10/09/2023 20:29,Pay Bill Online from 254702346515 - ELIZABETH ACHIENG NGOME Acc. ICH,Completed,16000,,111500,TRUE,Pay Bill Online,254702346515 - ELIZABETH ACHIENG NGOME,,ICH
RIA9F97RRJ,10/09/2023 17:58,10/09/2023 17:58,Pay Bill from 254710357391 - CHEPKOECH VALENTINE Acc. KAH,Completed,10000,,95500,TRUE,Pay Utility,254710357391 - CHEPKOECH VALENTINE,,KAH
RIA3F86GJ9,10/09/2023 17:49,10/09/2023 17:49,Pay Bill Online from 254710146965 - BRENDA DORCAS MABONGA Acc. hfg,Completed,15000,,85500,TRUE,Pay Bill Online,254710146965 - BRENDA DORCAS MABONGA,,hfg
RIA1F634NP,10/09/2023 17:32,10/09/2023 17:32,Pay Bill from 254792712192 - KELVIN MASIBO Acc. ICE,Completed,9000,,70500,TRUE,Pay Utility,254792712192 - KELVIN MASIBO,,ICE
RIA6EZMOD8,10/09/2023 16:37,10/09/2023 16:37,Pay Bill from 254722862886 - LENA C CHEREKWENY Acc. JBE,Completed,2000,,61500,TRUE,Pay Utility,254722862886 - LENA C CHEREKWENY,,JBE
RIA3EV1DVX,10/09/2023 15:54,10/09/2023 15:54,Pay Bill from 254741573910 - VINCENT ODUOR OLIENG Acc. HBC,Completed,10000,,59500,TRUE,Pay Utility,254741573910 - VINCENT ODUOR OLIENG,,HBC
RIA7DRPRI7,10/09/2023 08:47,10/09/2023 08:47,Pay Bill from 254723966777 - BONIFACE MUTHAKA NGANGA Acc. IDG,Completed,5000,,49500,TRUE,Pay Utility,254723966777 - BONIFACE MUTHAKA NGANGA,,IDG
RIA4DNXRDK,10/09/2023 07:56,10/09/2023 07:56,Pay Bill from 254720814822 - JAMES OTIENO OPAR Acc. jgj,Completed,2000,,44500,TRUE,Pay Utility,254720814822 - JAMES OTIENO OPAR,,jgj
RI97CFKYF1,09/09/2023 18:23,09/09/2023 18:23,Pay Bill Online from 254715892656 - DENNIS MUSYOKA MUOKI Acc. kfa,Completed,500,,42500,TRUE,Pay Bill Online,254715892656 - DENNIS MUSYOKA MUOKI,,kfa
RI98CCEVF4,09/09/2023 18:01,09/09/2023 18:01,Pay Bill Online from 254712040302 - EMMANUEL MWARO BARASA Acc. KEA,Completed,16000,,42000,TRUE,Pay Bill Online,254712040302 - EMMANUEL MWARO BARASA,,KEA
RI98CA2YEQ,09/09/2023 17:44,09/09/2023 17:44,Pay Bill from 0743248310 - PATRICK STURRIDGE NYONGESA Acc. daa,Completed,6000,,26000,TRUE,Pay Utility,0743248310 - PATRICK STURRIDGE NYONGESA,,daa
RI98BUJUTE,09/09/2023 15:36,09/09/2023 15:36,Pay Bill from 0799122666 - ERIC WAWERU KIAMA Acc. JDI,Completed,20000,,20000,TRUE,Pay Utility with OD via STK,0799122666 - ERIC WAWERU KIAMA,,JDI
RI95BRV4N9,09/09/2023 15:12,09/09/2023 15:12,Utility Account to Organization Settlement Account,Completed,,-296500,0,TRUE,Utility Account to Organization Settlement Account,979524 - ANCIENT WELLS PROPERTY MANAGERS 2,,
RI95B9I1N3,09/09/2023 12:24,09/09/2023 12:24,Pay Bill Online from 254722910078 - MAUREEN MUNYIVA MUTUKU Acc. DCD,Completed,7000,,296500,TRUE,Pay Bill Online,254722910078 - MAUREEN MUNYIVA MUTUKU,,DCD
RI93B663I9,09/09/2023 11:52,09/09/2023 11:52,Pay Bill from 254726337163 - HALIMA ALI HASSAN Acc. DDA,Completed,5000,,289500,TRUE,Pay Utility,254726337163 - HALIMA ALI HASSAN,,DDA
RI93AZS3LL,09/09/2023 10:50,09/09/2023 10:50,Pay Bill Online from 254722921132 - JOE MCCRAY MURIUKI KIHIA Acc. IFA,Completed,15000,,284500,TRUE,Pay Utility with OD Online,254722921132 - JOE MCCRAY MURIUKI KIHIA,,IFA
RI90AVQ0LW,09/09/2023 10:10,09/09/2023 10:10,Pay Bill from 254720814822 - JAMES OTIENO OPAR Acc. jgj,Completed,3000,,269500,TRUE,Pay Utility,254720814822 - JAMES OTIENO OPAR,,jgj
RI92AOWKHY,09/09/2023 08:56,09/09/2023 08:56,Pay Bill from 0791379873 - Joseph Kyalo Sila Acc. HAH,Completed,16000,,266500,TRUE,Pay Utility,0791379873 - Joseph Kyalo Sila,,HAH
RI99AK4DDJ,09/09/2023 07:57,09/09/2023 07:57,Pay Bill Online from 254723901777 - EVANS YEBEI Acc. KCH,Completed,5000,,250500,TRUE,Pay Utility with OD Online,254723901777 - EVANS YEBEI,,KCH
RI92ADZ30Q,09/09/2023 04:56,09/09/2023 04:56,Pay Bill Online from 254715764212 - BANCE ISHEMINYE Acc. JFE,Completed,3000,,245500,TRUE,Pay Bill Online,254715764212 - BANCE ISHEMINYE,,JFE
RI85AAB3V5,08/09/2023 23:41,08/09/2023 23:41,Pay Bill from 254724862849 - Ann Fresiah Kinyua Acc. HDA,Completed,16000,,242500,TRUE,Pay Utility,254724862849 - Ann Fresiah Kinyua,,HDA
RI88A96RXS,08/09/2023 23:08,08/09/2023 23:08,Pay Bill Online from 254728886864 - MOULINE ONYANGO Acc. IAA,Completed,50000,,226500,TRUE,Pay Bill Online,254728886864 - MOULINE ONYANGO,,IAA
RI86A5O0KW,08/09/2023 22:05,08/09/2023 22:05,Pay Bill from 254710635630 - DONNA JESSICA OWANO Acc. KCC,Completed,10000,,176500,TRUE,Pay Utility,254710635630 - DONNA JESSICA OWANO,,KCC
RI86A4QSE4,08/09/2023 21:53,08/09/2023 21:53,Pay Bill Online from 254713966424 - NDUTI MUTHUI Acc. Jed,Completed,15000,,166500,TRUE,Pay Bill Online,254713966424 - NDUTI MUTHUI,,Jed
RI88A2UT0C,08/09/2023 21:32,08/09/2023 21:32,Pay Bill from 254726028330 - JOHN WAMBUA Acc. IFH,Completed,15000,,151500,TRUE,Pay Utility,254726028330 - JOHN WAMBUA,,IFH
RI88A0MNGC,08/09/2023 21:11,08/09/2023 21:11,Pay Bill from 0790536272 - BARNABAS MSITIA KEYARI Acc. FGC,Completed,2000,,136500,TRUE,Pay Utility,0790536272 - BARNABAS MSITIA KEYARI,,FGC
RI819VTBER,08/09/2023 20:32,08/09/2023 20:32,Pay Bill Online from 254712757681 - DENNIS MURANGO Acc. hag,Completed,16000,,134500,TRUE,Pay Bill Online,254712757681 - DENNIS MURANGO,,hag
RI899M69U3,08/09/2023 19:28,08/09/2023 19:28,Pay Bill from 254703528196 - ERIC GITONGA MUGO Acc. KGJ,Completed,15000,,118500,TRUE,Pay Utility,254703528196 - ERIC GITONGA MUGO,,KGJ
RI869L3BRK,08/09/2023 19:22,08/09/2023 19:22,Pay Bill Online from 254710814215 - JOAN NYAMBURA KAMAU Acc. ifb,Completed,15000,,103500,TRUE,Pay Bill Online,254710814215 - JOAN NYAMBURA KAMAU,,ifb
RI8198X7RH,08/09/2023 18:07,08/09/2023 18:07,Pay Bill Online from 254715892656 - DENNIS MUSYOKA MUOKI Acc. kfa,Completed,4500,,88500,TRUE,Pay Bill Online,254715892656 - DENNIS MUSYOKA MUOKI,,kfa
RI8293D9P8,08/09/2023 17:28,08/09/2023 17:28,Pay Bill from 254720278119 - LINDAH OGAWO Acc. kfe,Completed,9500,,84000,TRUE,Pay Utility,254720278119 - LINDAH OGAWO,,kfe
RI8491B77O,08/09/2023 17:12,08/09/2023 17:12,Pay Bill from 254727144033 - JOHN NYAREGA NYAKUNDI Acc. FAF,Completed,16000,,74500,TRUE,Pay Utility with OD via STK,254727144033 - JOHN NYAREGA NYAKUNDI,,FAF
RI858ZBQSR,08/09/2023 16:57,08/09/2023 16:57,Pay Bill from 0743789968 - Dallias Thanare Githara Acc. hbb,Completed,3000,,58500,TRUE,Pay Utility,0743789968 - Dallias Thanare Githara,,hbb
RI878ULST1,08/09/2023 16:18,08/09/2023 16:18,Pay Bill from 254702216907 - FAITH MUSA Acc. KBE,Completed,10000,,55500,TRUE,Pay Utility,254702216907 - FAITH MUSA,,KBE
RI888OVJZG,08/09/2023 15:27,08/09/2023 15:27,Pay Bill from 254796878941 - PAUL KYALO MUENDO Acc. HBE,Completed,10000,,45500,TRUE,Pay Utility,254796878941 - PAUL KYALO MUENDO,,HBE
RI828OP68Q,08/09/2023 15:25,08/09/2023 15:25,Pay Bill from 254724435274 - WINFRED MBINYA MUNUVE Acc. DDC,Completed,4500,,35500,TRUE,Pay Utility,254724435274 - WINFRED MBINYA MUNUVE,,DDC
RI868HWJ3W,08/09/2023 14:23,08/09/2023 14:23,Pay Bill Online from 254726593769 - BONFACE BWINA Acc. DEB,Completed,16000,,31000,TRUE,Pay Bill Online,254726593769 - BONFACE BWINA,,DEB
RI818EXPJR,08/09/2023 13:55,08/09/2023 13:55,Pay Bill Online from 254720620070 - Michelle Mwihaki Ngaruiya Acc. JEJ,Completed,15000,,15000,TRUE,Pay Bill Online,254720620070 - Michelle Mwihaki Ngaruiya,,JEJ
RI848EJQVG,08/09/2023 13:52,08/09/2023 13:52,Utility Account to Organization Settlement Account,Completed,,-115000,0,TRUE,Utility Account to Organization Settlement Account,979524 - ANCIENT WELLS PROPERTY MANAGERS 2,,
RI878DOYIZ,08/09/2023 13:44,08/09/2023 13:44,Pay Bill from 254791848695 - RACHEAL WANZA MUIA Acc. wines,Completed,6000,,115000,TRUE,Pay Utility,254791848695 - RACHEAL WANZA MUIA,,wines
RI828BSRDA,08/09/2023 13:27,08/09/2023 13:27,Pay Bill from 0701151700 - Anabel Mwikali Gichuru Acc. Jdj,Completed,15000,,109000,TRUE,Pay Utility,0701151700 - Anabel Mwikali Gichuru,,Jdj
RI85892CIV,08/09/2023 13:01,08/09/2023 13:01,Pay Bill from 254796069018 - PEACE KIMEU Acc. Jah,Completed,16000,,94000,TRUE,Pay Utility,254796069018 - PEACE KIMEU,,Jah
RI8086FKLU,08/09/2023 12:36,08/09/2023 12:36,Pay Bill from 0715688238 - JOANNAH ATUHAIRE BANTU Acc. FFA,Completed,15000,,78000,TRUE,Pay Utility,0715688238 - JOANNAH ATUHAIRE BANTU,,FFA
RI877K9VVJ,08/09/2023 08:54,08/09/2023 08:54,Pay Bill from 0115327960 - JOSEPH WAMBUA MUSYOKA Acc. IBG,Completed,8000,,63000,TRUE,Pay Utility,0115327960 - JOSEPH WAMBUA MUSYOKA,,IBG
RI847I6Q0W,08/09/2023 08:30,08/09/2023 08:30,Pay Bill Online from 254710202776 - KELVIN KARIMI MACHARIA Acc. FAD,Completed,11000,,55000,TRUE,Pay Bill Online,254710202776 - KELVIN KARIMI MACHARIA,,FAD
RI7074AYVO,07/09/2023 22:54,07/09/2023 22:54,Pay Bill Online from 254710382992 - SIMON KAMAU MUIRURI Acc. JCD,Completed,15000,,44000,TRUE,Pay Bill Online,254710382992 - SIMON KAMAU MUIRURI,,JCD
RI737050Z1,07/09/2023 21:43,07/09/2023 21:43,Pay Bill from 0740208174 - Josephine adhiambo koyi Acc. ifg,Completed,9000,,29000,TRUE,Pay Utility,0740208174 - Josephine adhiambo koyi,,ifg
RI706WL86W,07/09/2023 21:06,07/09/2023 21:06,Pay Bill from 254704303496 - PETER MACHARIA WAIGANJO Acc. DFD,Completed,20000,,20000,TRUE,Pay Utility,254704303496 - PETER MACHARIA WAIGANJO,,DFD
RI756KLGGV,07/09/2023 19:36,07/09/2023 19:36,Utility Account to Organization Settlement Account,Completed,,-117000,0,TRUE,Utility Account to Organization Settlement Account,979524 - ANCIENT WELLS PROPERTY MANAGERS 2,,
RI755NUAQV,07/09/2023 15:30,07/09/2023 15:30,Pay Bill from 254727095667 - HILDA JEPKEMOI KIMELIEL Acc. JBE,Completed,4000,,117000,TRUE,Pay Utility,254727095667 - HILDA JEPKEMOI KIMELIEL,,JBE
RI765MMDZO,07/09/2023 15:18,07/09/2023 15:18,Pay Bill Online from 0757699775 - BENARD MUIA MUTUA Acc. HCB,Completed,16000,,113000,TRUE,Pay Utility with OD Online,0757699775 - BENARD MUIA MUTUA,,HCB
RI755IIWE3,07/09/2023 14:38,07/09/2023 14:38,Pay Bill from 254720051502 - JOHN OCHIENG ONYANGO Acc. JFA ,Completed,5000,,97000,TRUE,Pay Utility,254720051502 - JOHN OCHIENG ONYANGO,,JFA
RI775FG9VB,07/09/2023 14:08,07/09/2023 14:08,Pay Bill from 254702070444 - RANDY OCHIENG ONDITI Acc. JAB,Completed,15000,,92000,TRUE,Pay Utility,254702070444 - RANDY OCHIENG ONDITI,,JAB
RI704Y00SY,07/09/2023 11:21,07/09/2023 11:21,Pay Bill from 254711706815 - NAOMI WANYONYI Acc. KBA,Completed,4000,,77000,TRUE,Pay Utility,254711706815 - NAOMI WANYONYI,,KBA
RI754WYPCN,07/09/2023 11:11,07/09/2023 11:11,Pay Bill from 254705641030 - FRIDAH WAENI MUITHYA Acc. JEH,Completed,16000,,73000,TRUE,Pay Utility,254705641030 - FRIDAH WAENI MUITHYA,,JEH
RI744VJWOY,07/09/2023 10:57,07/09/2023 10:57,Pay Bill Online from 0769918050 - newton   mutethia Acc. JBG,Completed,10000,,57000,TRUE,Pay Bill Online,0769918050 - newton   mutethia,,JBG
RI704UV7B2,07/09/2023 10:51,07/09/2023 10:51,Pay Bill Online from 254715764212 - BANCE ISHEMINYE Acc. JFE,Completed,7000,,47000,TRUE,Pay Bill Online,254715764212 - BANCE ISHEMINYE,,JFE
RI764SIZN8,07/09/2023 10:28,07/09/2023 10:28,Pay Bill from 254720814822 - JAMES OTIENO OPAR Acc. jgj,Completed,5000,,40000,TRUE,Pay Utility,254720814822 - JAMES OTIENO OPAR,,jgj
RI774J55L3,07/09/2023 08:48,07/09/2023 08:48,Pay Bill from 254719194821 - KIPKEMOI SANG GEOFFREY Acc. JDD,Completed,15000,,35000,TRUE,Pay Utility,254719194821 - KIPKEMOI SANG GEOFFREY,,JDD
RI754J47YR,07/09/2023 08:48,07/09/2023 08:48,Pay Bill from 254722521028 - CHARLES MONYONCHO Acc. JDA,Completed,20000,,20000,TRUE,Pay Utility,254722521028 - CHARLES MONYONCHO,,JDA
RI704F1WJO,07/09/2023 08:01,07/09/2023 08:01,Utility Account to Organization Settlement Account,Completed,,-485900,0,TRUE,Utility Account to Organization Settlement Account,979524 - ANCIENT WELLS PROPERTY MANAGERS 2,,
RI694007OJ,06/09/2023 21:56,06/09/2023 21:56,Pay Bill Online from 0715806956 - Mercy Jelagat Kalum Acc. FFE ,Completed,15000,,485900,TRUE,Pay Bill Online,0715806956 - Mercy Jelagat Kalum,,FFE
RI68400SMY,06/09/2023 21:56,06/09/2023 21:56,Pay Bill Online from 254723394064 - ANDREW LAGAT Acc. hbg,Completed,16000,,470900,TRUE,Pay Bill Online,254723394064 - ANDREW LAGAT,,hbg
RI623XCBXU,06/09/2023 21:26,06/09/2023 21:26,Pay Bill from 0742599061 - Judy Masese Samwel Acc. hgf,Completed,9500,,454900,TRUE,Pay Utility,0742599061 - Judy Masese Samwel,,hgf
RI643SD064,06/09/2023 20:43,06/09/2023 20:43,Pay Bill from 254722617724 - Cosmas Leitich Kiptoo Acc. KAG,Completed,9000,,445400,TRUE,Pay Utility with OD via STK,254722617724 - Cosmas Leitich Kiptoo,,KAG
RI673R170J,06/09/2023 20:33,06/09/2023 20:33,Pay Bill Online from 254718663397 - JIMMY MUNYAO NZIOKI Acc. DCB,Completed,16000,,436400,TRUE,Pay Utility with OD Online,254718663397 - JIMMY MUNYAO NZIOKI,,DCB
RI683QKPMW,06/09/2023 20:30,06/09/2023 20:30,Pay Bill from 254725478531 - KIPKORIR KUTO Acc. DFB,Completed,15000,,420400,TRUE,Pay Utility,254725478531 - KIPKORIR KUTO,,DFB
RI633OAGPF,06/09/2023 20:14,06/09/2023 20:14,Pay Bill from 254722136450 - MARY EVERLYN Acc. JAI,Completed,20000,,405400,TRUE,Pay Utility,254722136450 - MARY EVERLYN,,JAI
RI673MOB6B,06/09/2023 20:03,06/09/2023 20:03,Pay Bill Online from 0703634804 - SYLVIA NYAMBURA NJOROGE Acc. KCD,Completed,11000,,385400,TRUE,Pay Bill Online,0703634804 - SYLVIA NYAMBURA NJOROGE,,KCD
RI613EX0QZ,06/09/2023 19:16,06/09/2023 19:16,Pay Bill from 254724477912 - SAMUEL MURIMI Acc. HCD,Completed,10000,,374400,TRUE,Pay Utility with OD via STK,254724477912 - SAMUEL MURIMI,,HCD
RI6136AINL,06/09/2023 18:25,06/09/2023 18:25,Pay Bill Online from 254722769473 - SAMSON CHALO Acc. IAB,Completed,15000,,364400,TRUE,Pay Utility with OD Online,254722769473 - SAMSON CHALO,,IAB
RI6935LFW3,06/09/2023 18:20,06/09/2023 18:20,Pay Bill Online from 254714552193 - CHRISTOPHER OCHIENG Acc. JGI ,Completed,20500,,349400,TRUE,Pay Bill Online,254714552193 - CHRISTOPHER OCHIENG,,JGI
RI61348DJ9,06/09/2023 18:11,06/09/2023 18:11,Pay Bill from 254711742716 - RODGERS KIPLANGAT KORIR Acc. IGC,Completed,9000,,328900,TRUE,Pay Utility,254711742716 - RODGERS KIPLANGAT KORIR,,IGC
RI632OPY6R,06/09/2023 16:05,06/09/2023 16:05,Pay Bill Online from 254728897908 - Teddy Allan Onyango Acc. DDD,Completed,15900,,319900,TRUE,Pay Bill Online,254728897908 - Teddy Allan Onyango,,DDD
RI662K3EXY,06/09/2023 15:21,06/09/2023 15:21,Pay Bill Online from 254703276305 - MARTHA MUSYOKA Acc. iai,Completed,15000,,304000,TRUE,Pay Bill Online,254703276305 - MARTHA MUSYOKA,,iai
RI652CRJRN,06/09/2023 14:10,06/09/2023 14:10,Pay Bill Online from 254792187144 - HASSAN AHMED HASSAN Acc. KGI,Completed,10000,,289000,TRUE,Pay Bill Online,254792187144 - HASSAN AHMED HASSAN,,KGI
RI622BW7C8,06/09/2023 14:02,06/09/2023 14:02,Pay Bill from 254700518930 - RENE EMMANUEL AURA Acc. FBD,Completed,5100,,279000,TRUE,Pay Utility,254700518930 - RENE EMMANUEL AURA,,FBD
RI672BLKM1,06/09/2023 14:00,06/09/2023 14:00,Pay Bill from 0111359189 - PAULINE WANJIRU MWAURA Acc. FBD,Completed,4900,,273900,TRUE,Pay Utility,0111359189 - PAULINE WANJIRU MWAURA,,FBD
RI6725CPM1,06/09/2023 13:01,06/09/2023 13:01,Pay Bill from 254721698818 - SAIDA SHUKRI GUFU Acc. JEA,Completed,17000,,269000,TRUE,Pay Utility,254721698818 - SAIDA SHUKRI GUFU,,JEA
RI691SZPBJ,06/09/2023 11:01,06/09/2023 11:01,Pay Bill from 0791168610 - MARY NYABOKE MARITA Acc. KDD,Completed,12000,,252000,TRUE,Pay Utility,0791168610 - MARY NYABOKE MARITA,,KDD
RI621MRXDQ,06/09/2023 10:00,06/09/2023 10:00,Pay Bill from 0714512575 - IAN OCHIENG OTIENO Acc. IBD,Completed,29500,,240000,TRUE,Pay Utility,0714512575 - IAN OCHIENG OTIENO,,IBD
RI691HTA2P,06/09/2023 09:08,06/09/2023 09:08,Pay Bill Online from 254720381965 - JAMES NGUGI MWANIKI Acc. JBI,Completed,20000,,210500,TRUE,Pay Bill Online,254720381965 - JAMES NGUGI MWANIKI,,JBI
RI681F3Z4U,06/09/2023 08:38,06/09/2023 08:38,Pay Bill Online from 254703285159 - Enock Michieka Mochoge Acc. KAE,Completed,10000,,190500,TRUE,Pay Bill Online,254703285159 - Enock Michieka Mochoge,,KAE
RI691D7J5T,06/09/2023 08:17,06/09/2023 08:17,Pay Bill Online from 254723411873 - FREDRICK CHERUIYOT Acc. JBF,Completed,8000,,180500,TRUE,Pay Bill Online,254723411873 - FREDRICK CHERUIYOT,,JBF
RI63134WRL,06/09/2023 01:28,06/09/2023 01:28,Pay Bill from 254700198550 - BENARD ONYANGO Acc. DBB,Completed,16000,,172500,TRUE,Pay Utility,254700198550 - BENARD ONYANGO,,DBB
RI51ZZT97B,05/09/2023 22:52,05/09/2023 22:52,Pay Bill Online from 254715892656 - DENNIS MUSYOKA MUOKI Acc. kfa,Completed,6500,,156500,TRUE,Pay Bill Online,254715892656 - DENNIS MUSYOKA MUOKI,,kfa
RI54ZZ9LOA,05/09/2023 22:41,05/09/2023 22:41,Pay Bill Online from 254724821898 - ALLAN GISONI NYANGARESI Acc. DBA,Completed,16000,,150000,TRUE,Pay Bill Online,254724821898 - ALLAN GISONI NYANGARESI,,DBA
RI55ZZ9321,05/09/2023 22:40,05/09/2023 22:40,Pay Bill from 254728670882 - SHARAD EDWARD ADALA OLUM Acc. KCK,Completed,15000,,134000,TRUE,Pay Utility,254728670882 - SHARAD EDWARD ADALA OLUM,,KCK
RI57ZWL36F,05/09/2023 22:00,05/09/2023 22:00,Pay Bill from 254729450678 - GRACE NDUNGE Acc. fba,Completed,15000,,119000,TRUE,Pay Utility with OD via STK,254729450678 - GRACE NDUNGE,,fba
RI57ZVI6Y3,05/09/2023 21:47,05/09/2023 21:47,Pay Bill Online from 254721714178 - PHANICE JEROTICH KIPTOO Acc. FBF,Completed,16000,,104000,TRUE,Pay Bill Online,254721714178 - PHANICE JEROTICH KIPTOO,,FBF
RI59ZT8KFH,05/09/2023 21:24,05/09/2023 21:24,Pay Bill from 254720407659 - FRANCIS CHUMO Acc. KDG,Completed,10000,,88000,TRUE,Pay Utility,254720407659 - FRANCIS CHUMO,,KDG
RI52ZP5SOU,05/09/2023 20:50,05/09/2023 20:50,Pay Bill from 254708910373 - MUNINI ISAAC Acc. IEB,Completed,15000,,78000,TRUE,Pay Utility,254708910373 - MUNINI ISAAC,,IEB
RI51ZNDL2R,05/09/2023 20:36,05/09/2023 20:36,Pay Bill from 254711163049 - OYUGI OCHIENG Acc. FCB,Completed,16000,,63000,TRUE,Pay Utility,254711163049 - OYUGI OCHIENG,,FCB
RI55ZIFANJ,05/09/2023 20:02,05/09/2023 20:02,Pay Bill Online from 254705846408 - JAMES OUMA Acc. HBH,Completed,16000,,47000,TRUE,Pay Bill Online,254705846408 - JAMES OUMA,,HBH
RI51ZGB6BH,05/09/2023 19:49,05/09/2023 19:49,Pay Bill from 254700557767 - BAKHITA MWENDE MUANGE Acc. kcb,Completed,16000,,31000,TRUE,Pay Utility,254700557767 - BAKHITA MWENDE MUANGE,,kcb
RI57ZD0XHT,05/09/2023 19:30,05/09/2023 19:30,Pay Bill from 254743487420 - Margaret Wacu Muia Acc. FCE,Completed,15000,,15000,TRUE,Pay Utility,254743487420 - Margaret Wacu Muia,,FCE
RI54ZCSUTA,05/09/2023 19:29,05/09/2023 19:29,Utility Account to Organization Settlement Account,Completed,,-161000,0,TRUE,Utility Account to Organization Settlement Account,979524 - ANCIENT WELLS PROPERTY MANAGERS 2,,
RI56Z7D5EM,05/09/2023 18:58,05/09/2023 18:58,Pay Bill Online from 254706144834 - WILKISTER OSUMO Acc. HGH,Completed,15000,,161000,TRUE,Pay Bill Online,254706144834 - WILKISTER OSUMO,,HGH
RI58YY5O3I,05/09/2023 18:00,05/09/2023 18:00,Pay Bill from 254719398942 - NORAH WAYUA MUNYAO Acc. KDA,Completed,16000,,146000,TRUE,Pay Utility,254719398942 - NORAH WAYUA MUNYAO,,KDA
RI51YU6DIP,05/09/2023 17:31,05/09/2023 17:31,Pay Bill from 0790536272 - BARNABAS MSITIA KEYARI Acc. FGC,Completed,2000,,130000,TRUE,Pay Utility,0790536272 - BARNABAS MSITIA KEYARI,,FGC
RI58YTMGLG,05/09/2023 17:27,05/09/2023 17:27,Pay Bill from 254711515672 - ALLAN MUTEMBEI Acc. IEI,Completed,15000,,128000,TRUE,Pay Utility with OD via STK,254711515672 - ALLAN MUTEMBEI,,IEI
RI52YODJC0,05/09/2023 16:43,05/09/2023 16:43,Pay Bill Online from 254711507729 - DAVID ANYONGE MALIJAMBO Acc. HFA,Completed,16000,,113000,TRUE,Pay Bill Online,254711507729 - DAVID ANYONGE MALIJAMBO,,HFA
RI55Y7ODJN,05/09/2023 14:05,05/09/2023 14:05,Pay Bill from 254721667039 - ELIAS KIPLAGAT Acc. KAC,Completed,11000,,97000,TRUE,Pay Utility,254721667039 - ELIAS KIPLAGAT,,KAC
RI51Y56WNL,05/09/2023 13:42,05/09/2023 13:42,Pay Bill from 0705402025 - patrick kioko mutuku Acc. kce,Completed,10000,,86000,TRUE,Pay Utility,0705402025 - patrick kioko mutuku,,kce
RI59Y22UPL,05/09/2023 13:13,05/09/2023 13:13,Pay Bill from 0724386624 - FATUMA ISSE YUSSUF Acc. FAB,Completed,16000,,76000,TRUE,Pay Utility,0724386624 - FATUMA ISSE YUSSUF,,FAB
RI55Y1R8F5,05/09/2023 13:10,05/09/2023 13:10,Pay Bill from 254716056537 - KIRUI KIPLANGAT HILLARY Acc. JCJ,Completed,16000,,60000,TRUE,Pay Utility,254716056537 - KIRUI KIPLANGAT HILLARY,,JCJ
RI52XZJWAI,05/09/2023 12:50,05/09/2023 12:50,Pay Bill from 254716881682 - JUSTINE FAYUMA OKWEMBA Acc. HAA,Completed,17000,,44000,TRUE,Pay Utility,254716881682 - JUSTINE FAYUMA OKWEMBA,,HAA
RI59XQUS9N,05/09/2023 11:25,05/09/2023 11:25,Pay Bill from 254726599835 - LAWRENCE MURIITHI Acc. KDJ,Completed,16000,,27000,TRUE,Pay Utility,254726599835 - LAWRENCE MURIITHI,,KDJ
RI58XP8Z4S,05/09/2023 11:10,05/09/2023 11:10,Pay Bill from 254719747910 - KEVIN NDERITU GAKINGO Acc. iDD,Completed,11000,,11000,TRUE,Pay Utility,254719747910 - KEVIN NDERITU GAKINGO,,iDD
RI54XA2FVS,05/09/2023 08:35,05/09/2023 08:35,Utility Account to Organization Settlement Account,Completed,,-148000,0,TRUE,Utility Account to Organization Settlement Account,979524 - ANCIENT WELLS PROPERTY MANAGERS 2,,
RI53X7ZUOT,05/09/2023 08:11,05/09/2023 08:11,Pay Bill from 254724379488 - NICHOLAS KOOME Acc. JDE,Completed,9500,,148000,TRUE,Pay Utility,254724379488 - NICHOLAS KOOME,,JDE
RI54X5HXZ6,05/09/2023 07:40,05/09/2023 07:40,Pay Bill Online from 254718253322 - DUNCAN MOCHOGE Acc. JFJ,Completed,15000,,138500,TRUE,Pay Bill Online,254718253322 - DUNCAN MOCHOGE,,JFJ
RI56X2MFLS,05/09/2023 06:57,05/09/2023 06:57,Pay Bill Online from 254708357223 - DENNIS KIRIMI Acc. DCA,Completed,16000,,123500,TRUE,Pay Bill Online,254708357223 - DENNIS KIRIMI,,DCA
RI40WV3JNC,04/09/2023 22:49,04/09/2023 22:49,Pay Bill from 254723954911 - JAMES KILAVI Acc. ICG,Completed,9500,,107500,TRUE,Pay Utility,254723954911 - JAMES KILAVI,,ICG
RI45WMGKSR,04/09/2023 21:04,04/09/2023 21:04,Pay Bill from 254723499628 - CLINTON JOSEPH MUHARI Acc. hfh,Completed,16000,,98000,TRUE,Pay Utility,254723499628 - CLINTON JOSEPH MUHARI,,hfh
RI43W69LRN,04/09/2023 19:16,04/09/2023 19:16,Pay Bill from 0710604910 - Peninah Purity Muthoni Ndogo Acc. FCC,Completed,19000,,82000,TRUE,Pay Utility,0710604910 - Peninah Purity Muthoni Ndogo,,FCC
RI46W62R4U,04/09/2023 19:15,04/09/2023 19:15,Pay Bill from 254717726012 - WINFRED MUENI PETER Acc. IDA,Completed,16000,,63000,TRUE,Pay Utility with OD via STK,254717726012 - WINFRED MUENI PETER,,IDA
RI48W5OXXG,04/09/2023 19:13,04/09/2023 19:13,Pay Bill from 254796640269 - TABITHA NJERI MAINA Acc. JEE,Completed,10000,,47000,TRUE,Pay Utility,254796640269 - TABITHA NJERI MAINA,,JEE
RI49W3Q9KT,04/09/2023 19:02,04/09/2023 19:02,Pay Bill from 254726753273 - JESSE K MURIRMI NJERU Acc. HCH,Completed,17000,,37000,TRUE,Pay Utility,254726753273 - JESSE K MURIRMI NJERU,,HCH
RI49W2XH6T,04/09/2023 18:57,04/09/2023 18:57,Pay Bill from 254701112397 - ELEMA GODANA DIBA Acc. FCA,Completed,10000,,20000,TRUE,Pay Utility,254701112397 - ELEMA GODANA DIBA,,FCA
RI44VXQ3ZQ,04/09/2023 18:25,04/09/2023 18:25,Pay Bill from 254724852503 - GEOFREY YEGO Acc. JFF,Completed,10000,,10000,TRUE,Pay Utility,254724852503 - GEOFREY YEGO,,JFF
RI43VVQWAX,04/09/2023 18:12,04/09/2023 18:12,Utility Account to Organization Settlement Account,Completed,,-82000,0,TRUE,Utility Account to Organization Settlement Account,979524 - ANCIENT WELLS PROPERTY MANAGERS 2,,
RI46VOZJTS,04/09/2023 17:24,04/09/2023 17:24,Pay Bill from 254716504398 - HYVENE MAYETI Acc. KDE,Completed,10000,,82000,TRUE,Pay Utility,254716504398 - HYVENE MAYETI,,KDE
RI46VKHBCK,04/09/2023 16:47,04/09/2023 16:47,Pay Bill from 254720947704 - JOSPHAT JOHN MUSYOKI Acc. HDD,Completed,10000,,72000,TRUE,Pay Utility,254720947704 - JOSPHAT JOHN MUSYOKI,,HDD
RI40V85JWK,04/09/2023 14:53,04/09/2023 14:53,Pay Bill from 0743789968 - Dallias Thanare Githara Acc. hbb,Completed,4000,,62000,TRUE,Pay Utility,0743789968 - Dallias Thanare Githara,,hbb
RI46ULSD9A,04/09/2023 11:23,04/09/2023 11:23,Pay Bill Online from 0718838251 - MARK KINYUA MAINA Acc. kfg,Completed,9500,,58000,TRUE,Pay Bill Online,0718838251 - MARK KINYUA MAINA,,kfg
RI49UFKLS5,04/09/2023 10:24,04/09/2023 10:24,Pay Bill Online from 0757319222 - ATEM KUOL JOHN BOL Acc. FAC,Completed,9500,,48500,TRUE,Pay Bill Online,0757319222 - ATEM KUOL JOHN BOL,,FAC
RI48UB7ANC,04/09/2023 09:40,04/09/2023 09:40,Pay Bill from 0711502447 - Gabriel gatehi mwaura Acc. FDC,Completed,9000,,39000,TRUE,Pay Utility,0711502447 - Gabriel gatehi mwaura,,FDC
RI45U5L3Z1,04/09/2023 08:41,04/09/2023 08:41,Pay Bill from 254728213256 - NICHOLAS NJOROGE Acc. HAD,Completed,10000,,30000,TRUE,Pay Utility,254728213256 - NICHOLAS NJOROGE,,HAD
RI46U2JY06,04/09/2023 08:06,04/09/2023 08:06,Pay Bill from 254729371750 - DERRICK OTANGA Acc. DAC,Completed,20000,,20000,TRUE,Pay Utility with OD via STK,254729371750 - DERRICK OTANGA,,DAC
RI41TXCD6N,04/09/2023 06:49,04/09/2023 06:49,Utility Account to Organization Settlement Account,Completed,,-292500,0,TRUE,Utility Account to Organization Settlement Account,979524 - ANCIENT WELLS PROPERTY MANAGERS 2,,
RI45TVOI3F,04/09/2023 06:04,04/09/2023 06:04,Pay Bill from 254729160700 - MICAH NDUNGI Acc. HFE,Completed,10500,,292500,TRUE,Pay Utility,254729160700 - MICAH NDUNGI,,HFE
RI30T2645Y,03/09/2023 19:15,03/09/2023 19:15,Pay Bill from 0743789968 - Dallias Thanare Githara Acc. hbb,Completed,4000,,282000,TRUE,Pay Utility,0743789968 - Dallias Thanare Githara,,hbb
RI34SFCJ6Y,03/09/2023 16:18,03/09/2023 16:18,Pay Bill from 254714060203 - PATRICK MWANGOMBE MSAWUCHI Acc. KEI,Completed,12000,,278000,TRUE,Pay Utility,254714060203 - PATRICK MWANGOMBE MSAWUCHI,,KEI
RI31SEZGKD,03/09/2023 16:14,03/09/2023 16:14,Pay Bill from 254725621394 - RACHAEL WACHIRA Acc. Jfb,Completed,15000,,266000,TRUE,Pay Utility,254725621394 - RACHAEL WACHIRA,,Jfb
RI31S785OJ,03/09/2023 15:02,03/09/2023 15:02,Pay Bill from 254728084427 - MARY NABWIRE OKELLO Acc. FDF,Completed,16000,,251000,TRUE,Pay Utility,254728084427 - MARY NABWIRE OKELLO,,FDF
RI37S6Z35F,03/09/2023 15:00,03/09/2023 15:00,Pay Bill Online from 254714095632 - ROMANA MBINYA Acc. KEG,Completed,21000,,235000,TRUE,Pay Bill Online,254714095632 - ROMANA MBINYA,,KEG
RI39S3B54X,03/09/2023 14:25,03/09/2023 14:25,Pay Bill Online from 254721974995 - BERNICE MANGOKA Acc. KFK,Completed,16000,,214000,TRUE,Pay Bill Online,254721974995 - BERNICE MANGOKA,,KFK
RI31RK4KU5,03/09/2023 11:02,03/09/2023 11:02,Pay Bill from 254720814822 - JAMES OTIENO OPAR Acc. jgj,Completed,1500,,198000,TRUE,Pay Utility,254720814822 - JAMES OTIENO OPAR,,jgj
RI33RCN5E7,03/09/2023 09:37,03/09/2023 09:37,Pay Bill from 254715390903 - GLADYS NTHULE KIVULUI Acc. DBD,Completed,41000,,196500,TRUE,Pay Utility,254715390903 - GLADYS NTHULE KIVULUI,,DBD
RI31R65GR5,03/09/2023 08:17,03/09/2023 08:17,Pay Bill Online from 254716784364 - Wendy Kemunto Nyandiko Acc. FFC,Completed,9000,,155500,TRUE,Pay Bill Online,254716784364 - Wendy Kemunto Nyandiko,,FFC
RI31R2BSMV,03/09/2023 07:16,03/09/2023 07:16,Pay Bill from 254703724744 - Esther Njambi Maina Acc. KEF,Completed,11000,,146500,TRUE,Pay Utility,254703724744 - Esther Njambi Maina,,KEF
RI37QZ5W6N,03/09/2023 04:13,03/09/2023 04:13,Pay Bill from 254729557859 - AUDREY KASINDAHA KASINDAHA Acc. KFB,Completed,8000,,135500,TRUE,Pay Utility,254729557859 - AUDREY KASINDAHA KASINDAHA,,KFB
RI20QII48G,02/09/2023 20:52,02/09/2023 20:52,Pay Bill Online from 254713404029 - ANNE ISEUNA Acc. DED,Completed,20000,,127500,TRUE,Pay Bill Online,254713404029 - ANNE ISEUNA,,DED
RI29QCYRHX,02/09/2023 20:13,02/09/2023 20:13,Pay Bill from 254712974871 - PAULA WANJIKU GATUI Acc. hea,Completed,16000,,107500,TRUE,Pay Utility,254712974871 - PAULA WANJIKU GATUI,,hea
RI24PSFZSI,02/09/2023 18:09,02/09/2023 18:09,Pay Bill from 0798951042 - fridah kathure kinyua Acc. HGE,Completed,9000,,91500,TRUE,Pay Utility,0798951042 - fridah kathure kinyua,,HGE
RI20POVZEG,02/09/2023 17:43,02/09/2023 17:43,Pay Bill Online from 254729097858 - AMBROSE ADEYA AHAWO Acc. KCF,Completed,10000,,82500,TRUE,Pay Bill Online,254729097858 - AMBROSE ADEYA AHAWO,,KCF
RI25PO7TOV,02/09/2023 17:38,02/09/2023 17:38,Pay Bill Online from 254715892656 - DENNIS MUSYOKA MUOKI Acc. kfa,Completed,4500,,72500,TRUE,Pay Bill Online,254715892656 - DENNIS MUSYOKA MUOKI,,kfa
RI22PIG7H4,02/09/2023 16:53,02/09/2023 16:53,Pay Bill from 254717063324 - Christine Murugi Nyaga Acc. KDF,Completed,10000,,68000,TRUE,Pay Utility,254717063324 - Christine Murugi Nyaga,,KDF
RI27P9TO0P,02/09/2023 15:41,02/09/2023 15:41,Pay Bill Online from 254721417560 - ANDREW SANDE Acc. JBJ,Completed,16000,,58000,TRUE,Pay Bill Online,254721417560 - ANDREW SANDE,,JBJ
RI23P762RL,02/09/2023 15:18,02/09/2023 15:18,Pay Bill Online from 254729796719 - JACINTA WANJIKU NJERI Acc. FFF,Completed,17000,,42000,TRUE,Pay Bill Online,254729796719 - JACINTA WANJIKU NJERI,,FFF
RI24OVJWVC,02/09/2023 13:36,02/09/2023 13:36,Pay Bill from 0741300410 - STEVEKEVIN POUNGUI DIFFO Acc. iac,Completed,9000,,25000,TRUE,Pay Utility,0741300410 - STEVEKEVIN POUNGUI DIFFO,,iac
RI28OMYA58,02/09/2023 12:18,02/09/2023 12:18,Pay Bill from 0707950214 - Abdirashid Osman Huka Acc. KEJ,Completed,16000,,16000,TRUE,Pay Utility,0707950214 - Abdirashid Osman Huka,,KEJ
RI21ODQN5P,02/09/2023 10:52,02/09/2023 10:52,Utility Account to Organization Settlement Account,Completed,,-157000,0,TRUE,Utility Account to Organization Settlement Account,979524 - ANCIENT WELLS PROPERTY MANAGERS 2,,
RI23O5KCON,02/09/2023 09:31,02/09/2023 09:31,Pay Bill Online from 254710965167 - KUSA STEPHANIE HAZEL Acc. JEB,Completed,15000,,157000,TRUE,Pay Bill Online,254710965167 - KUSA STEPHANIE HAZEL,,JEB
RI25NNWG0L,02/09/2023 00:36,02/09/2023 00:36,Pay Bill from 254708612464 - MERCY KINANU KIWOTI Acc. IBB,Completed,16000,,142000,TRUE,Pay Utility,254708612464 - MERCY KINANU KIWOTI,,IBB
RI17NMF647,01/09/2023 23:40,01/09/2023 23:40,Pay Bill Online from 254742023558 - PEACEMARY NJERI MAINA Acc. JBC,Completed,11000,,126000,TRUE,Pay Bill Online,254742023558 - PEACEMARY NJERI MAINA,,JBC
RI15NJ1H7X,01/09/2023 22:27,01/09/2023 22:27,Pay Bill from 0706563358 - HARRIET NYANCHAMA NYABERI Acc. HBA,Completed,16000,,115000,TRUE,Pay Utility,0706563358 - HARRIET NYANCHAMA NYABERI,,HBA
RI15NAGDUD,01/09/2023 20:59,01/09/2023 20:59,Pay Bill from 254711123196 - JUDITH MUTUA Acc. Fea,Completed,16000,,99000,TRUE,Pay Utility,254711123196 - JUDITH MUTUA,,Fea
RI12N43ZGG,01/09/2023 20:14,01/09/2023 20:14,Pay Bill from 254717690295 - MARCELLA JELIMO Acc. IGE,Completed,9000,,83000,TRUE,Pay Utility,254717690295 - MARCELLA JELIMO,,IGE
RI16N1Y3CS,01/09/2023 20:00,01/09/2023 20:00,Pay Bill Online from 254745338401 - mirriam ngina jane Acc. KGC,Completed,9000,,74000,TRUE,Pay Bill Online,254745338401 - mirriam ngina jane,,KGC
RI12N0OHZI,01/09/2023 19:52,01/09/2023 19:52,Pay Bill from 254717247817 - NYANGAU HARONI Acc. jba,Completed,20000,,65000,TRUE,Pay Utility with OD via STK,254717247817 - NYANGAU HARONI,,jba
RI18MPEV1A,01/09/2023 18:49,01/09/2023 18:49,Pay Bill Online from 254724840741 - LAURA JERUTO ROP Acc. KFC,Completed,10000,,45000,TRUE,Pay Bill Online,254724840741 - LAURA JERUTO ROP,,KFC
RI15MOWS0J,01/09/2023 18:46,01/09/2023 18:46,Pay Bill Online from 254795510441 - LEWIS MUEMA Acc. KEB,Completed,16000,,35000,TRUE,Pay Bill Online,254795510441 - LEWIS MUEMA,,KEB
RI10MN0F4G,01/09/2023 18:34,01/09/2023 18:34,Pay Bill Online from 254706549634 - CLINTON OMBASA Acc. FDB,Completed,10000,,19000,TRUE,Pay Bill Online,254706549634 - CLINTON OMBASA,,FDB
RI10M9RC1Y,01/09/2023 16:59,01/09/2023 16:59,Pay Bill from 0794580122 - Edgar                    usagi Acc. JAE,Completed,9000,,9000,TRUE,Pay Utility,0794580122 - Edgar                    usagi,,JAE
RI13LY7OPR,01/09/2023 15:16,01/09/2023 15:16,Utility Account to Organization Settlement Account,Completed,,-93000,0,TRUE,Utility Account to Organization Settlement Account,979524 - ANCIENT WELLS PROPERTY MANAGERS 2,,
RI13LXQMFB,01/09/2023 15:11,01/09/2023 15:11,Pay Bill from 254712367486 - JACKLINE JUMA Acc. KED,Completed,11000,,93000,TRUE,Pay Utility,254712367486 - JACKLINE JUMA,,KED
RI16LS3VVW,01/09/2023 14:19,01/09/2023 14:19,Pay Bill from 254722106052 - PURITY MUKAMI NJUE Acc. kci,Completed,25000,,82000,TRUE,Pay Utility,254722106052 - PURITY MUKAMI NJUE,,kci
RI17LRZS51,01/09/2023 14:18,01/09/2023 14:18,Pay Bill from 254769648341 - BARBRA ATIENO OSONGO Acc. fbc,Completed,9000,,57000,TRUE,Pay Utility,254769648341 - BARBRA ATIENO OSONGO,,fbc
RI10LJ2AWG,01/09/2023 12:56,01/09/2023 12:56,Pay Bill Online from 254721465713 - RHODA WAMBUI MWANGI Acc. Jfh,Completed,17000,,48000,TRUE,Pay Bill Online,254721465713 - RHODA WAMBUI MWANGI,,Jfh
RI14LH07MC,01/09/2023 12:36,01/09/2023 12:36,Pay Bill Online from 254720696119 - DUNCAN OMONDI OKETCH Acc. FAE,Completed,15000,,31000,TRUE,Pay Bill Online,254720696119 - DUNCAN OMONDI OKETCH,,FAE
RI19KWKUD9,01/09/2023 09:14,01/09/2023 09:14,Pay Bill Online from 0718473068 - Dennis Kiptoo Maiyo Acc. FEF,Completed,16000,,16000,TRUE,Pay Bill Online,0718473068 - Dennis Kiptoo Maiyo,,FEF
RI11KU9147,01/09/2023 08:49,01/09/2023 08:49,Utility Account to Organization Settlement Account,Completed,,-204500,0,TRUE,Utility Account to Organization Settlement Account,979524 - ANCIENT WELLS PROPERTY MANAGERS 2,,
RI14KU0T64,01/09/2023 08:47,01/09/2023 08:47,Pay Bill from 254798609376 - Oliva Wafula Juma Acc. DEA,Completed,16000,,204500,TRUE,Pay Utility,254798609376 - Oliva Wafula Juma,,DEA
RI18KREINQ,01/09/2023 08:17,01/09/2023 08:17,Pay Bill from 254723389177 - NELSON MOI Acc. IBF,Completed,5000,,188500,TRUE,Pay Utility,254723389177 - NELSON MOI,,IBF
RI15KPCS91,01/09/2023 07:52,01/09/2023 07:52,Pay Bill from 0719726347 - ROSEMARY DAYO KILUMBE Acc. KGE,Completed,9000,,183500,TRUE,Pay Utility,0719726347 - ROSEMARY DAYO KILUMBE,,KGE
RI18KLJ21K,01/09/2023 06:52,01/09/2023 06:52,Pay Bill Online from 254717809935 - LYDIAH WERU Acc. ffb,Completed,15000,,174500,TRUE,Pay Bill Online,254717809935 - LYDIAH WERU,,ffb
RI12KINB5K,01/09/2023 04:17,01/09/2023 04:17,Pay Bill Online from 254725218904 - SALOME MUTHONI MWANGI Acc. KFJ,Completed,15000,,159500,TRUE,Pay Bill Online,254725218904 - SALOME MUTHONI MWANGI,,KFJ
