Receipt No.,Completion Time,Initiation Time,Details,Transaction Status,Paid In,Withdrawn,Balance,Balance Confirmed,Reason Type,Other Party Info,Linked Transaction ID,A/C No.
PHR74D7XUF,27/08/2021 05:47,27/08/2021 05:47,Pay Bill from 254721524677 - SAMSON AHOLO Acc. Samson v33,Completed,3000,,23600,TRUE,Pay Utility with OD via STK,254721524677 - SAMSON AHOLO,,Samson
PHQ44AOW0O,26/08/2021 22:14,26/08/2021 22:14,Pay Bill Online from 254720360607 - MARITIM SUSAN CHEBET Acc. V49,Completed,14000,,20600,TRUE,Pay Bill Online,254720360607 - MARITIM SUSAN CHEBET,,V49
PHQ13WT6DD,26/08/2021 18:39,26/08/2021 18:39,Pay Bill from 0712917575 - Derrick Osore Songoro Acc. Derrick V58,Completed,6600,,6600,TRUE,Pay Utility,0712917575 - Derrick Osore Songoro,,Derrick
PHQ02VZCSW,26/08/2021 06:27,26/08/2021 06:27,Utility Account to Organization Settlement Account,Completed,,-12000,0,TRUE,Utility Account to Organization Settlement Account,887674 - ANCIENT WELLS LTD 1,,
PHP022EDG8,25/08/2021 15:14,25/08/2021 15:14,Pay Bill from 254722954532 - PAMPHIL CHORONGO Acc. V60,Completed,7000,,12000,TRUE,Pay Utility,254722954532 - PAMPHIL CHORONGO,,V60
PHP420TVOS,25/08/2021 14:43,25/08/2021 14:43,Pay Bill from 0795807227 - Lucy Ncekei Kimathi Acc. V 36,Completed,5000,,5000,TRUE,Pay Utility,0795807227 - Lucy Ncekei Kimathi,,V
PHP41YUYEG,25/08/2021 14:04,25/08/2021 14:04,Utility Account to Organization Settlement Account,Completed,,-2600,0,TRUE,Utility Account to Organization Settlement Account,887674 - ANCIENT WELLS LTD 1,,
PHP81WTLQO,25/08/2021 13:25,25/08/2021 13:25,Pay Bill from 0727542914 - Pascal Ouma Opar Acc. pascalv45,Completed,2600,,2600,TRUE,Pay Utility,0727542914 - Pascal Ouma Opar,,pascalv45
PHP01RWGAE,25/08/2021 11:48,25/08/2021 11:48,Utility Account to Organization Settlement Account,Completed,,-13600,0,TRUE,Utility Account to Organization Settlement Account,887674 - ANCIENT WELLS LTD 1,,
PHP41KTMAM,25/08/2021 09:21,25/08/2021 09:21,Pay Bill from 254720881746 - LEMMY WANJAU NJIRU Acc. V51,Completed,7000,,13600,TRUE,Pay Utility,254720881746 - LEMMY WANJAU NJIRU,,V51
PHP71F1JLF,25/08/2021 06:17,25/08/2021 06:17,Pay Bill from 254702343078 - JOSEPH EBENYO Acc. V10 joseph,Completed,6600,,6600,TRUE,Pay Utility,254702343078 - JOSEPH EBENYO,,V10
PHO5ZX9NM3,24/08/2021 18:19,24/08/2021 18:19,Utility Account to Organization Settlement Account,Completed,,-14800,0,TRUE,Utility Account to Organization Settlement Account,887674 - ANCIENT WELLS LTD 1,,
PHO4ZQU0B2,24/08/2021 16:36,24/08/2021 16:36,Pay Bill from 254704783091 - CLINTON MUSEBE KASUTI Acc. V48,Completed,14800,,14800,TRUE,Pay Utility,254704783091 - CLINTON MUSEBE KASUTI,,V48
PHM9XBVMJ3,22/08/2021 19:50,22/08/2021 19:50,Utility Account to Organization Settlement Account,Completed,,-9700,0,TRUE,Utility Account to Organization Settlement Account,887674 - ANCIENT WELLS LTD 1,,
PHM9X2GM6F,22/08/2021 17:30,22/08/2021 17:30,Pay Bill Online from 254707049818 - LUCKY TSUMA Acc. V19,Completed,6600,,9700,TRUE,Pay Bill Online,254707049818 - LUCKY TSUMA,,V19
PHM9WFD92D,22/08/2021 09:26,22/08/2021 09:26,Pay Bill from 254715939283 - alex nyamai Acc. alexv07,Completed,3100,,3100,TRUE,Pay Utility,254715939283 - alex nyamai,,alexv07
PHK9TUKWZD,20/08/2021 13:22,20/08/2021 13:22,Utility Account to Organization Settlement Account,Completed,,-8300,0,TRUE,Utility Account to Organization Settlement Account,887674 - ANCIENT WELLS LTD 1,,
PHK9TLR9FD,20/08/2021 10:20,20/08/2021 10:20,Pay Bill Online from 254725639425 - CHRISPINE OMONDI Acc. V13,Completed,800,,8300,TRUE,Pay Bill Online,254725639425 - CHRISPINE OMONDI,,V13
PHK8TL8ACI,20/08/2021 10:08,20/08/2021 10:08,Pay Bill Online from 254725639425 - CHRISPINE OMONDI Acc. V13,Completed,6000,,7500,TRUE,Pay Bill Online,254725639425 - CHRISPINE OMONDI,,V13
PHJ9S5QRYJ,19/08/2021 09:50,19/08/2021 09:50,Pay Bill from 254701174081 - JOSEPHINE ODUOR Acc. v34,Completed,1500,,1500,TRUE,Pay Utility,254701174081 - JOSEPHINE ODUOR,,v34
PHJ9RZ40GH,19/08/2021 06:38,19/08/2021 06:38,Utility Account to Organization Settlement Account,Completed,,-6600,0,TRUE,Utility Account to Organization Settlement Account,887674 - ANCIENT WELLS LTD 1,,
PHI3RSUIQJ,18/08/2021 20:56,18/08/2021 20:56,Pay Bill from 254721510646 - ANTHONY IRUNGU KARIUKI Acc. v41,Completed,6600,,6600,TRUE,Pay Utility,254721510646 - ANTHONY IRUNGU KARIUKI,,v41
PHI2RB7ZJS,18/08/2021 16:47,18/08/2021 16:47,Utility Account to Organization Settlement Account,Completed,,-2000,0,TRUE,Utility Account to Organization Settlement Account,887674 - ANCIENT WELLS LTD 1,,
PHI1R5VVL1,18/08/2021 15:02,18/08/2021 15:02,Pay Bill from 254720068224 - ESAU JARREL MUNYWOKI Acc. V27,Completed,2000,,2000,TRUE,Pay Utility,254720068224 - ESAU JARREL MUNYWOKI,,V27
PHH7PM4LMN,17/08/2021 13:04,17/08/2021 13:04,Utility Account to Organization Settlement Account,Completed,,-6000,0,TRUE,Utility Account to Organization Settlement Account,887674 - ANCIENT WELLS LTD 1,,
PHG7P1FHHH,16/08/2021 21:16,16/08/2021 21:16,Pay Bill from 254715939283 - alex nyamai Acc. alexv07,Completed,3500,,6000,TRUE,Pay Utility,254715939283 - alex nyamai,,alexv07
PHG2O7Z3OY,16/08/2021 13:22,16/08/2021 13:22,Pay Bill from 254729358258 - Cliff Ombasa Acc. V05,Completed,2500,,2500,TRUE,Pay Utility,254729358258 - Cliff Ombasa,,V05
PHF3N4AAK1,15/08/2021 16:35,15/08/2021 16:35,Utility Account to Organization Settlement Account,Completed,,-5000,0,TRUE,Utility Account to Organization Settlement Account,887674 - ANCIENT WELLS LTD 1,,
PHF0MKIKR8,15/08/2021 09:37,15/08/2021 09:37,Pay Bill from 0701762102 - KELVIN SOMBA MAUNDU Acc. vk6,Completed,2000,,5000,TRUE,Pay Utility,0701762102 - KELVIN SOMBA MAUNDU,,vk6
PHE5M2LKAZ,14/08/2021 19:24,14/08/2021 19:24,Pay Bill from 0713851252 - GRACE   OMUNG'ANA Acc. vk3,Completed,3000,,3000,TRUE,Pay Utility,0713851252 - GRACE   OMUNG'ANA,,vk3
PHD1JKOFRB,13/08/2021 08:12,13/08/2021 08:12,Utility Account to Organization Settlement Account,Completed,,-6600,0,TRUE,Utility Account to Organization Settlement Account,887674 - ANCIENT WELLS LTD 1,,
PHC2J2TRJG,12/08/2021 18:48,12/08/2021 18:48,Pay Bill from 0717042461 - Sharon Nyangasi Shivachi Acc. v55,Completed,6600,,6600,TRUE,Pay Utility,0717042461 - Sharon Nyangasi Shivachi,,v55
PHC7ITALGX,12/08/2021 16:19,12/08/2021 16:19,Utility Account to Organization Settlement Account,Completed,,-6600,0,TRUE,Utility Account to Organization Settlement Account,887674 - ANCIENT WELLS LTD 1,,
PHC5I8TZS7,12/08/2021 09:15,12/08/2021 09:15,Pay Bill from 254720056285 - DAMARIS NDURU Acc. V09,Completed,6600,,6600,TRUE,Pay Utility,254720056285 - DAMARIS NDURU,,V09
PHC8I82VMM,12/08/2021 08:57,12/08/2021 08:57,Utility Account to Organization Settlement Account,Completed,,-13200,0,TRUE,Utility Account to Organization Settlement Account,887674 - ANCIENT WELLS LTD 1,,
PHC0I4KT5Y,12/08/2021 07:12,12/08/2021 07:12,Pay Bill Online from 254729569271 - MESHACK OBOTTA OBARE Acc. V12,Completed,6600,,13200,TRUE,Pay Bill Online,254729569271 - MESHACK OBOTTA OBARE,,V12
PHB8I0O40M,11/08/2021 22:00,11/08/2021 22:00,Pay Bill from 254720623535 - JOSEPH MUTURI KAMAU Acc. V32,Completed,6600,,6600,TRUE,Pay Utility,254720623535 - JOSEPH MUTURI KAMAU,,V32
PHB9H22UH1,11/08/2021 12:04,11/08/2021 12:04,Utility Account to Organization Settlement Account,Completed,,-7000,0,TRUE,Utility Account to Organization Settlement Account,887674 - ANCIENT WELLS LTD 1,,
PHB2GV9LUU,11/08/2021 09:41,11/08/2021 09:41,Pay Bill from 254701174081 - JOSEPHINE ODUOR Acc. V34,Completed,3000,,7000,TRUE,Pay Utility,254701174081 - JOSEPHINE ODUOR,,V34
PHA0GLC0CO,10/08/2021 21:46,10/08/2021 21:46,Pay Bill from 254721524677 - SAMSON AHOLO Acc. Samson v33,Completed,4000,,4000,TRUE,Pay Utility with OD via STK,254721524677 - SAMSON AHOLO,,Samson
PHA5FQYEHT,10/08/2021 13:25,10/08/2021 13:25,Utility Account to Organization Settlement Account,Completed,,-2000,0,TRUE,Utility Account to Organization Settlement Account,887674 - ANCIENT WELLS LTD 1,,
PHA9FNPHI1,10/08/2021 12:22,10/08/2021 12:22,Pay Bill from 254719701463 - MARY KANYI KIARIE Acc. V17,Completed,2000,,2000,TRUE,Pay Utility,254719701463 - MARY KANYI KIARIE,,V17
PHA7FB45W5,10/08/2021 07:48,10/08/2021 07:48,Utility Account to Organization Settlement Account,Completed,,-20600,0,TRUE,Utility Account to Organization Settlement Account,887674 - ANCIENT WELLS LTD 1,,
PH95EPUROF,09/08/2021 17:59,09/08/2021 17:59,Pay Bill from 254707220622 - EVERLYN SYOMBUA KAKUI Acc. V57,Completed,14000,,20600,TRUE,Pay Utility,254707220622 - EVERLYN SYOMBUA KAKUI,,V57
PH97EJIEHP,09/08/2021 16:15,09/08/2021 16:15,Pay Bill from 0113907030 - NAOMI NDINDA NZAMALU Acc. V28,Completed,6600,,6600,TRUE,Pay Utility,0113907030 - NAOMI NDINDA NZAMALU,,V28
PH94DZGP8C,09/08/2021 09:49,09/08/2021 09:49,Utility Account to Organization Settlement Account,Completed,,-27600,0,TRUE,Utility Account to Organization Settlement Account,887674 - ANCIENT WELLS LTD 1,,
PH83CVLU9Z,08/08/2021 13:34,08/08/2021 13:34,Pay Bill from 254799969726 - florence njoki njoroge Acc. V59,Completed,7000,,27600,TRUE,Pay Utility with OD via STK,254799969726 - florence njoki njoroge,,V59
PH81COTRD1,08/08/2021 11:03,08/08/2021 11:03,Pay Bill from 254712091662 - BENARD OMONDI ROBY Acc. V16,Completed,6600,,20600,TRUE,Pay Utility,254712091662 - BENARD OMONDI ROBY,,V16
PH76CA0SV0,07/08/2021 21:15,07/08/2021 21:15,Pay Bill from 254701261592 - VICTOR MWILU Acc. V37,Completed,7000,,14000,TRUE,Pay Utility,254701261592 - VICTOR MWILU,,V37
PH75C5ECTD,07/08/2021 20:00,07/08/2021 20:00,Pay Bill from 254703690697 - CATHERINE MURAGE Acc. V21,Completed,7000,,7000,TRUE,Pay Utility,254703690697 - CATHERINE MURAGE,,V21
PH71B3QIH1,07/08/2021 09:27,07/08/2021 09:27,Utility Account to Organization Settlement Account,Completed,,-9600,0,TRUE,Utility Account to Organization Settlement Account,887674 - ANCIENT WELLS LTD 1,,
PH61AOK4IZ,06/08/2021 20:11,06/08/2021 20:11,Pay Bill from 254720068224 - ESAU JARREL MUNYWOKI Acc. V27,Completed,2800,,9600,TRUE,Pay Utility with OD via STK,254720068224 - ESAU JARREL MUNYWOKI,,V27
PH61AMUNP1,06/08/2021 19:49,06/08/2021 19:49,Pay Bill from 254723389922 - ANNE WANJIKU NDUNGU Acc. v53,Completed,6800,,6800,TRUE,Pay Utility,254723389922 - ANNE WANJIKU NDUNGU,,v53
PH65A886UX,06/08/2021 16:33,06/08/2021 16:33,Utility Account to Organization Settlement Account,Completed,,-70500,0,TRUE,Utility Account to Organization Settlement Account,887674 - ANCIENT WELLS LTD 1,,
PH61A5CFYZ,06/08/2021 15:41,06/08/2021 15:41,Pay Bill from 254717294709 - CAROLINE WAVINYA NDINDA Acc. v15,Completed,7000,,70500,TRUE,Pay Utility,254717294709 - CAROLINE WAVINYA NDINDA,,v15
PH689YBRZM,06/08/2021 13:30,06/08/2021 13:30,Pay Bill from 0795807227 - Lucy Ncekei Kimathi Acc. V36,Completed,8000,,63500,TRUE,Pay Utility,0795807227 - Lucy Ncekei Kimathi,,V36
PH609W6H8I,06/08/2021 12:49,06/08/2021 12:49,Pay Bill from 254790610309 - MESHACK CHUMBA Acc. V39,Completed,6600,,55500,TRUE,Pay Utility,254790610309 - MESHACK CHUMBA,,V39
PH659O8IX3,06/08/2021 10:14,06/08/2021 10:14,Pay Bill from 254713916352 - WINFRED KATUNGWA NDALA Acc. V30,Completed,6600,,48900,TRUE,Pay Utility,254713916352 - WINFRED KATUNGWA NDALA,,V30
PH689M46CA,06/08/2021 09:30,06/08/2021 09:30,Pay Bill from 0727542914 - Pascal Ouma Opar Acc. pascalv45,Completed,4000,,42300,TRUE,Pay Utility,0727542914 - Pascal Ouma Opar,,pascalv45
PH699FJJ0R,06/08/2021 05:40,06/08/2021 05:40,Pay Bill Online from 254705670064 - margaret wahu wachira Acc. v35,Completed,6600,,38300,TRUE,Pay Bill Online,254705670064 - margaret wahu wachira,,v35
PH539BLEX5,05/08/2021 21:40,05/08/2021 21:40,Pay Bill from 0701762102 - KELVIN SOMBA MAUNDU Acc. vk6,Completed,1500,,31700,TRUE,Pay Utility with OD via STK,0701762102 - KELVIN SOMBA MAUNDU,,vk6
PH519BKB9V,05/08/2021 21:39,05/08/2021 21:39,Pay Bill Online from 254704995854 - james karanja wairimu Acc. V54,Completed,6600,,30200,TRUE,Pay Bill Online,254704995854 - james karanja wairimu,,V54
PH5698A6HQ,05/08/2021 20:38,05/08/2021 20:38,Pay Bill from 254722578070 - SAMUEL MACHARIA Acc. v42,Completed,7000,,23600,TRUE,Pay Utility,254722578070 - SAMUEL MACHARIA,,v42
PH55986H6T,05/08/2021 20:36,05/08/2021 20:36,Pay Bill from 254726465584 - JULIANA MUKELI MUTUNGA Acc. v4,Completed,6600,,16600,TRUE,Pay Utility,254726465584 - JULIANA MUKELI MUTUNGA,,v4
PH5895FCFC,05/08/2021 19:57,05/08/2021 19:57,Pay Bill from 254707568664 - Ismael Kitsao Acc. v52,Completed,10000,,10000,TRUE,Pay Utility,254707568664 - Ismael Kitsao,,v52
PH528JS8M2,05/08/2021 14:25,05/08/2021 14:25,Utility Account to Organization Settlement Account,Completed,,-79500,0,TRUE,Utility Account to Organization Settlement Account,887674 - ANCIENT WELLS LTD 1,,
PH558D65W1,05/08/2021 12:17,05/08/2021 12:17,Pay Bill from 254720068224 - ESAU JARREL MUNYWOKI Acc. V27,Completed,3000,,79500,TRUE,Pay Utility,254720068224 - ESAU JARREL MUNYWOKI,,V27
PH5889L2OE,05/08/2021 11:06,05/08/2021 11:06,Pay Bill from 254723815832 - SEMEKIA ONDIALA Acc. v38,Completed,6600,,76500,TRUE,Pay Utility,254723815832 - SEMEKIA ONDIALA,,v38
PH5687DF3U,05/08/2021 10:21,05/08/2021 10:21,Pay Bill Online from 254722307003 - NIGEL BOMETT Acc. V01,Completed,6600,,69900,TRUE,Pay Bill Online,254722307003 - NIGEL BOMETT,,V01
PH52849TT8,05/08/2021 09:16,05/08/2021 09:16,Pay Bill from 0702360376 - Bonface aganga nyamongo Acc. vk4,Completed,5000,,63300,TRUE,Pay Utility,0702360376 - Bonface aganga nyamongo,,vk4
PH5683T96G,05/08/2021 09:05,05/08/2021 09:05,Pay Bill from 0758457508 - PETER KINGORI KAGUNDA Acc. V06,Completed,7000,,58300,TRUE,Pay Utility,0758457508 - PETER KINGORI KAGUNDA,,V06
PH517ZHOOJ,05/08/2021 07:03,05/08/2021 07:03,Pay Bill Online from 254706427665 - CHRIS KIRIMI Acc. V22,Completed,7000,,51300,TRUE,Pay Bill Online,254706427665 - CHRIS KIRIMI,,V22
PH467OXR3M,04/08/2021 20:06,04/08/2021 20:06,Pay Bill from 254708915764 - GEORGE WAHOME Acc. V18,Completed,6600,,44300,TRUE,Pay Utility,254708915764 - GEORGE WAHOME,,V18
PH437GCEV3,04/08/2021 18:20,04/08/2021 18:20,Pay Bill from 254759390371 - RHINUS MUTWIRI KINYURU Acc. V26,Completed,17500,,37700,TRUE,Pay Utility with OD via STK,254759390371 - RHINUS MUTWIRI KINYURU,,V26
PH457EAL7B,04/08/2021 17:52,04/08/2021 17:52,Pay Bill Online from 254718359438 - AHMAD TAHIR MACHENGO Acc. V11,Completed,6600,,20200,TRUE,Pay Bill Online,254718359438 - AHMAD TAHIR MACHENGO,,V11
PH417BN3SJ,04/08/2021 17:12,04/08/2021 17:12,Pay Bill from 254706920646 - MIRIAM CHEPTOO Acc. V08,Completed,7000,,13600,TRUE,Pay Utility,254706920646 - MIRIAM CHEPTOO,,V08
PH487AVIUW,04/08/2021 17:00,04/08/2021 17:00,Pay Bill from 254703108159 - JOICE OGOLLA Acc. V50,Completed,6600,,6600,TRUE,Pay Utility,254703108159 - JOICE OGOLLA,,V50
PH374Z6AWF,03/08/2021 06:24,03/08/2021 06:24,Utility Account to Organization Settlement Account,Completed,,-22070,0,TRUE,Utility Account to Organization Settlement Account,887674 - ANCIENT WELLS LTD 1,,
PH244XDER8,02/08/2021 23:04,02/08/2021 23:04,Pay Bill from 254718818610 - HANNAH NALIAKA Acc. V23,Completed,6600,,22070,TRUE,Pay Utility,254718818610 - HANNAH NALIAKA,,V23
PH204V4XWQ,02/08/2021 21:37,02/08/2021 21:37,Pay Bill from 254758951969 - WILKISTER IRAKO HARAMBEE Acc. 37847739,Completed,7000,,15470,TRUE,Pay Utility,254758951969 - WILKISTER IRAKO HARAMBEE,,37847739
PH274OJ721,02/08/2021 19:47,02/08/2021 19:47,Pay Bill Online from 0769929240 - Calvince Klein Alal Acc. V02,Completed,7500,,8470,TRUE,Pay Bill Online,0769929240 - Calvince Klein Alal,,V02
PH2845P0XQ,02/08/2021 15:05,02/08/2021 15:05,Pay Bill from 0748079105 - Nyantari Ntabo Ronald Acc. stela ndunge,Completed,500,,970,TRUE,Pay Utility,0748079105 - Nyantari Ntabo Ronald,,stela
PH2545BMGR,02/08/2021 14:58,02/08/2021 14:58,Pay Bill from 0748079105 - Nyantari Ntabo Ronald Acc. stela ndunge,Completed,470,,470,TRUE,Pay Utility,0748079105 - Nyantari Ntabo Ronald,,stela
PH143A92ZU,01/08/2021 20:32,01/08/2021 20:32,Utility Account to Organization Settlement Account,Completed,,-10000,0,TRUE,Utility Account to Organization Settlement Account,887674 - ANCIENT WELLS LTD 1,,
PH1636XXRY,01/08/2021 19:43,01/08/2021 19:43,Pay Bill Online from 0769929240 - Calvince Klein Alal Acc. V02,Completed,10000,,10000,TRUE,Pay Bill Online,0769929240 - Calvince Klein Alal,,V02
