Receipt No.,Completion Time,Initiation Time,Details,Transaction Status,Paid In,Withdrawn,Balance,Balance Confirmed,Reason Type,Other Party Info,Linked Transaction ID,A/C No.
RJI9SYRFUZ,18/10/2023 10:17,18/10/2023 10:17,Utility Account to Organization Settlement Account,Completed,,-9000,0,TRUE,Utility Account to Organization Settlement Account,887264 - ANCIENT WELLS LTD 2,,
RJI0SCBUMC,18/10/2023 00:26,18/10/2023 00:26,Pay Bill from 254729140163 - BEATRICE OMADI NYANDIGA Acc. z13,Completed,2000,,9000,TRUE,Pay Utility with OD via STK,254729140163 - BEATRICE OMADI NYANDIGA,,z13
RJH4QMWUSG,17/10/2023 15:08,17/10/2023 15:08,Pay Bill from 254728208930 - DOREEN MAKENA Acc. Z10,Completed,7000,,7000,TRUE,Pay Utility,254728208930 - DOREEN MAKENA,,Z10
RJH3P9ER85,17/10/2023 06:20,17/10/2023 06:20,Utility Account to Organization Settlement Account,Completed,,-122000,0,TRUE,Utility Account to Organization Settlement Account,887264 - ANCIENT WELLS LTD 2,,
RJG5O0AHPT,16/10/2023 17:53,16/10/2023 17:53,Pay Bill from 254722566566 - DANIEL KIMANTHI KAMANDI Acc. UMOJA H101,Completed,10000,,122000,TRUE,Pay Utility,254722566566 - DANIEL KIMANTHI KAMANDI,,UMOJA
RJG4NSTN2E,16/10/2023 16:58,16/10/2023 16:58,Pay Bill from 254720867522 - DANIEL WAMBUI Acc. Z 15,Completed,16000,,112000,TRUE,Pay Utility,254720867522 - DANIEL WAMBUI,,Z
RJG7NINLA7,16/10/2023 15:27,16/10/2023 15:27,Pay Bill from 0740800913 - Odhiambo Collince Ochieng Acc. D12,Completed,11000,,96000,TRUE,Pay Utility,0740800913 - Odhiambo Collince Ochieng,,D12
RJG5NAJDCX,16/10/2023 14:11,16/10/2023 14:11,Pay Bill Online from 0721708341 - Samson Onguru Onyango Acc. Z4,Completed,15000,,85000,TRUE,Pay Bill Online,0721708341 - Samson Onguru Onyango,,Z4
RJF8LXK85Q,15/10/2023 23:02,15/10/2023 23:02,Pay Bill Online from 254722269369 - FAIZ OMAR BASABRA Acc. Nairobi west 12,Completed,70000,,70000,TRUE,Pay Bill Online,254722269369 - FAIZ OMAR BASABRA,,Nairobi
RJE8H4CSF2,14/10/2023 14:05,14/10/2023 14:05,Utility Account to Organization Settlement Account,Completed,,-244800,0,TRUE,Utility Account to Organization Settlement Account,887264 - ANCIENT WELLS LTD 2,,
RJE7GUEJ3F,14/10/2023 12:21,14/10/2023 12:21,Pay Bill from 254712751975 - HAPPINESS SIMAMOI JOSEPH Acc. B3,Completed,6000,,244800,TRUE,Pay Utility,254712751975 - HAPPINESS SIMAMOI JOSEPH,,B3
RJE2GDXQVI,14/10/2023 09:44,14/10/2023 09:44,Pay Bill from 254741791919 - Linet Mongina Maraga Acc. u3,Completed,5000,,238800,TRUE,Pay Utility with OD via STK,254741791919 - Linet Mongina Maraga,,u3
RJD5DBEKZH,13/10/2023 10:56,13/10/2023 10:56,Pay Bill Online from 0743263203 - Patrick theuri wachira Acc. U1,Completed,5000,,233800,TRUE,Pay Bill Online,0743263203 - Patrick theuri wachira,,U1
RJD6CJ6N9W,13/10/2023 00:26,13/10/2023 00:26,Pay Bill Online from 254796931225 - Martin Nyaga Gikang'a Acc. z8,Completed,16000,,228800,TRUE,Pay Utility with OD Online,254796931225 - Martin Nyaga Gikang'a,,z8
RJC0C5FTQS,12/10/2023 20:46,12/10/2023 20:46,Utility Account to Organization Settlement Account,Completed,,-50000,212800,TRUE,Utility Account to Organization Settlement Account,887264 - ANCIENT WELLS LTD 2,,
RJC6C0JSQQ,12/10/2023 20:11,12/10/2023 20:11,Pay Bill from 254728912446 - GRACE NJERI KIMANI Acc. ancient well ,Completed,40000,,262800,TRUE,Pay Utility,254728912446 - GRACE NJERI KIMANI,,ancient
RJC6BMDWDK,12/10/2023 18:49,12/10/2023 18:49,Pay Bill from 254728208930 - DOREEN MAKENA Acc. Z10,Completed,3000,,222800,TRUE,Pay Utility,254728208930 - DOREEN MAKENA,,Z10
RJC2B3LQDS,12/10/2023 16:39,12/10/2023 16:39,Pay Bill from 0723271110 - millicent achieng odhone Acc. andrew odhiambo,Completed,20000,,219800,TRUE,Pay Utility,0723271110 - millicent achieng odhone,,andrew
RJB87YDNX8,11/10/2023 17:00,11/10/2023 17:00,Pay Bill from 254722314500 - SHARON AKINYI OBIERO Acc. z1,Completed,12000,,199800,TRUE,Pay Utility,254722314500 - SHARON AKINYI OBIERO,,z1
RJB876SZI4,11/10/2023 12:48,11/10/2023 12:48,Business Pay Bill by 998094 - COOP TO PAYBILL Acc. hse no.3 via API,Completed,12000,,187800,TRUE,Business Pay Bill via API,998094 - COOP TO PAYBILL,,hse
RJA83ES74C,10/10/2023 09:21,10/10/2023 09:21,Small Business Pay Bill from 254729140163 - BEATRICE OMADI NYANDIGA Acc. z13,Completed,7300,,175800,TRUE,Micro SME Customer Pay Bill via API,254729140163 - BEATRICE OMADI NYANDIGA,,z13
RJA932OTUB,10/10/2023 06:41,10/10/2023 06:41,Pay Bill from 254725014210 - FREDRICK MOUNDE Acc. EPZ MH ,Completed,30000,,168500,TRUE,Pay Utility,254725014210 - FREDRICK MOUNDE,,EPZ
RJA92YSKMN,10/10/2023 00:35,10/10/2023 00:35,Pay Bill from 254720084537 - MARY NDUKU WAMBUA Acc. 6,Completed,16000,,138500,TRUE,Pay Utility,254720084537 - MARY NDUKU WAMBUA,,6
RJ92ZMNXWM,09/10/2023 11:59,09/10/2023 11:59,Pay Bill from 254726629866 - JOSEPH KAROKI GICHUKI Acc. shop 1 saika,Completed,7500,,122500,TRUE,Pay Utility,254726629866 - JOSEPH KAROKI GICHUKI,,shop
RJ97Z1JR7D,09/10/2023 08:38,09/10/2023 08:38,Pay Bill from 0798966287 - Mary Njeri Wangari Acc. Z14,Completed,16000,,115000,TRUE,Pay Utility,0798966287 - Mary Njeri Wangari,,Z14
RJ83YFA4PF,08/10/2023 21:25,08/10/2023 21:25,Pay Bill from 254706011442 - REUBEN MURIUKI Acc. b2,Completed,5000,,99000,TRUE,Pay Utility with OD via STK,254706011442 - REUBEN MURIUKI,,b2
RJ84VKOH3E,08/10/2023 00:11,08/10/2023 00:11,Pay Bill from 254723882311 - VERONICAH WAMBUGU Acc. house no 9,Completed,16000,,94000,TRUE,Pay Utility,254723882311 - VERONICAH WAMBUGU,,house
RJ73SFET5H,07/10/2023 08:13,07/10/2023 08:13,Utility Account to Organization Settlement Account,Completed,,-30000,78000,TRUE,Utility Account to Organization Settlement Account,887264 - ANCIENT WELLS LTD 2,,
RJ69RYL3B3,06/10/2023 22:35,06/10/2023 22:35,Pay Bill from 254718167869 - MARK OTIENO Acc. A3,Completed,7000,,108000,TRUE,Pay Utility,254718167869 - MARK OTIENO,,A3
RJ59OCDSP7,05/10/2023 21:31,05/10/2023 21:31,Pay Bill from 254720213934 - TERRY KAWIRA SALESIO Acc. z20,Completed,6000,,101000,TRUE,Pay Utility,254720213934 - TERRY KAWIRA SALESIO,,z20
RJ58MFWUSG,05/10/2023 13:18,05/10/2023 13:18,Pay Bill Online from 254723909186 - BRIAN LIBASIA Acc. 18,Completed,16000,,95000,TRUE,Pay Bill Online,254723909186 - BRIAN LIBASIA,,18
RJ55LGMDXF,05/10/2023 07:28,05/10/2023 07:28,Pay Bill from 254728208930 - DOREEN MAKENA Acc. Z10,Completed,4000,,79000,TRUE,Pay Utility,254728208930 - DOREEN MAKENA,,Z10
RJ43JCJVMZ,04/10/2023 14:30,04/10/2023 14:30,Pay Bill Online from 254715776633 - FIONA KIMANI Acc. Z16,Completed,12000,,75000,TRUE,Pay Bill Online,254715776633 - FIONA KIMANI,,Z16
RJ49JCILHR,04/10/2023 14:29,04/10/2023 14:29,Pay Bill Online from 254723634653 - CHARD MASHANGA Acc. House No 7,Completed,16000,,63000,TRUE,Pay Bill Online,254723634653 - CHARD MASHANGA,,House
RJ42IUQM10,04/10/2023 11:47,04/10/2023 11:47,Pay Bill Online from 254723853941 - ELIZABETH MUTIO MUTUKU Acc. house z12,Completed,16000,,47000,TRUE,Pay Bill Online,254723853941 - ELIZABETH MUTIO MUTUKU,,house
RJ35F1QOPT,03/10/2023 09:15,03/10/2023 09:15,Pay Bill from 254726928715 - ELIZAPHAN KAMAU NDUTA Acc. Z2,Completed,16000,,31000,TRUE,Pay Utility with OD via STK,254726928715 - ELIZAPHAN KAMAU NDUTA,,Z2
RJ31ENQU9T,03/10/2023 06:09,03/10/2023 06:09,Pay Bill from 254728208930 - DOREEN MAKENA Acc. Z10,Completed,4000,,15000,TRUE,Pay Utility,254728208930 - DOREEN MAKENA,,Z10
