Receipt No.,Completion Time,Initiation Time,Details,Transaction Status,Paid In,Withdrawn,Balance,Balance Confirmed,Reason Type,Other Party Info,Linked Transaction ID,A/C No.
PBA5IU0NTP,10/02/2021 10:21,10/02/2021 10:21,Pay Bill Online from 254727648782 - EUNICE MUTIO MULE Acc. JEI,Completed,800,,14200,TRUE,Pay Bill Online,254727648782 - EUNICE MUTIO MULE,,JEI
PBA2ITV9QO,10/02/2021 10:17,10/02/2021 10:17,Pay Bill from 254715597659 - JOYCE KIVAI Acc. IED,Completed,400,,13400,TRUE,Pay Utility,254715597659 - JOYCE KIVAI,,IED
PB97ICMCMV,09/02/2021 19:31,09/02/2021 19:31,Pay Bill from 254712091662 - BENARD OMONDI ROBY Acc. V16,Completed,600,,13000,TRUE,Pay Utility,254712091662 - BENARD OMONDI ROBY,,V16
PB96IAFHVU,09/02/2021 19:01,09/02/2021 19:01,Pay Bill from 254707315614 - TERESAH WANJIRU KIRAGU Acc. JDI,Completed,3200,,12400,TRUE,Pay Utility,254707315614 - TERESAH WANJIRU KIRAGU,,JDI
PB91HLHYNT,09/02/2021 10:06,09/02/2021 10:06,Pay Bill from 0715688238 - JOANNAH ATUHAIRE BANTU Acc. jae,Completed,400,,9200,TRUE,Pay Utility,0715688238 - JOANNAH ATUHAIRE BANTU,,jae
PB92HKG2Q6,09/02/2021 09:40,09/02/2021 09:40,Pay Bill from 254720107609 - DENNIS OGENDI BARAKE Acc. JAJ,Completed,700,,8800,TRUE,Pay Utility with OD via STK,254720107609 - DENNIS OGENDI BARAKE,,JAJ
PB92HE8JA4,09/02/2021 00:39,09/02/2021 00:39,Pay Bill from 254723954911 - JAMES KILAVI Acc. ICG,Completed,200,,8100,TRUE,Pay Utility,254723954911 - JAMES KILAVI,,ICG
PB84HE2PR4,08/02/2021 23:57,08/02/2021 23:57,Pay Bill from 254729392595 - WINNIE NASICHE KERE Acc. JBF,Completed,200,,7900,TRUE,Pay Utility,254729392595 - WINNIE NASICHE KERE,,JBF
PB89H3WOVR,08/02/2021 19:14,08/02/2021 19:14,Pay Bill from 254719626804 - PAUL NJOROGE CYRUS Acc. JFI,Completed,1500,,7700,TRUE,Pay Utility,254719626804 - PAUL NJOROGE CYRUS,,JFI
PB82H107M0,08/02/2021 18:30,08/02/2021 18:30,Pay Bill from 254722706516 - KORIR ANTHONY Acc. Anthony D 3 ,Completed,200,,6200,TRUE,Pay Utility,254722706516 - KORIR ANTHONY,,Anthony
PB89GNWEBX,08/02/2021 14:01,08/02/2021 14:01,Pay Bill from 0743248310 - PATRICK STURRIDGE NYONGESA Acc. kaf,Completed,1600,,6000,TRUE,Pay Utility,0743248310 - PATRICK STURRIDGE NYONGESA,,kaf
PB84GKOYG4,08/02/2021 12:48,08/02/2021 12:48,Pay Bill from 0795807227 - Lucy Ncekei Kimathi Acc. V36,Completed,400,,4400,TRUE,Pay Utility,0795807227 - Lucy Ncekei Kimathi,,V36
PB85GDQOXN,08/02/2021 10:03,08/02/2021 10:03,Pay Bill from 254702190887 - Nax Ochieng Acc. FDE,Completed,1000,,4000,TRUE,Pay Utility,254702190887 - Nax Ochieng,,FDE
PB83GCY7DL,08/02/2021 09:43,08/02/2021 09:43,Pay Bill from 254713159153 - GUYO SANKALA Acc. DGD,Completed,3000,,3000,TRUE,Pay Utility,254713159153 - GUYO SANKALA,,DGD
PB86G9ACVS,08/02/2021 07:58,08/02/2021 07:58,Utility Account to Organization Settlement Account,Completed,,-38850,0,TRUE,Utility Account to Organization Settlement Account,846783 - ANCIENT WELLS LTD 4,,
PB88G93KWS,08/02/2021 07:51,08/02/2021 07:51,Pay Bill from 254708328466 - VENESSA NYARERU Acc. Kcd,Completed,200,,38850,TRUE,Pay Utility with OD via STK,254708328466 - VENESSA NYARERU,,Kcd
PB78G25MWG,07/02/2021 20:43,07/02/2021 20:43,Pay Bill from 254718138578 - PAULINE KIOKO Acc. KFD,Completed,600,,38650,TRUE,Pay Utility,254718138578 - PAULINE KIOKO,,KFD
PB74FZTT92,07/02/2021 19:59,07/02/2021 19:59,Pay Bill from 254703375006 - KEN RODGERS Acc. DBA,Completed,800,,38050,TRUE,Pay Utility,254703375006 - KEN RODGERS,,DBA
PB70FTYB06,07/02/2021 18:25,07/02/2021 18:25,Pay Bill from 254717554562 - OMONDI JACK Acc. kci,Completed,200,,37250,TRUE,Pay Utility,254717554562 - OMONDI JACK,,kci
PB77FRT2M7,07/02/2021 17:46,07/02/2021 17:46,Pay Bill from 254714209770 - PURITY NDUKU KYALO Acc. JEB,Completed,1800,,37050,TRUE,Pay Utility,254714209770 - PURITY NDUKU KYALO,,JEB
PB77FCF0OV,07/02/2021 12:03,07/02/2021 12:03,Pay Bill from 254704658943 - IRENE MUTHUI Acc. E5,Completed,8700,,35250,TRUE,Pay Utility,254704658943 - IRENE MUTHUI,,E5
PB70F5BYQE,07/02/2021 08:48,07/02/2021 08:48,Pay Bill from 254701196539 - GICHURI KARANJA Acc. fee,Completed,400,,26550,TRUE,Pay Utility,254701196539 - GICHURI KARANJA,,fee
PB76F27BQK,07/02/2021 05:38,07/02/2021 05:38,Pay Bill from 254722307003 - NIGEL BOMETT Acc. V01,Completed,400,,26150,TRUE,Pay Utility,254722307003 - NIGEL BOMETT,,V01
