Receipt No.,Completion Time,Initiation Time,Details,Transaction Status,Paid In,Withdrawn,Balance,Balance Confirmed,Reason Type,Other Party Info,Linked Transaction ID,A/C No.
PCC0LEUNHA,12/03/2021 11:04,12/03/2021 11:04,Pay Bill from 254703108159 - JOICE OGOLLA Acc. V50,Completed,600,,600,TRUE,Pay Utility,254703108159 - JOICE OGOLLA,,V50
PCC3L5SBY9,12/03/2021 06:58,12/03/2021 06:58,Utility Account to Organization Settlement Account,Completed,,-14700,0,TRUE,Utility Account to Organization Settlement Account,846783 - ANCIENT WELLS LTD 4,,
PCC0L4A35C,12/03/2021 00:57,12/03/2021 00:57,Pay Bill Online from 254722249092 - MARIAM ABDULLAHI Acc. KEH,Completed,400,,14700,TRUE,Pay Utility with OD Online,254722249092 - MARIAM ABDULLAHI,,KEH
PCB6L1UPI6,11/03/2021 21:51,11/03/2021 21:51,Pay Bill from 254715597659 - JOYCE KIVAI Acc. IED,Completed,11000,,14300,TRUE,Pay Utility,254715597659 - JOYCE KIVAI,,IED
PCB4KZZIA6,11/03/2021 21:06,11/03/2021 21:06,Pay Bill from 254714710698 - TABITHA MULEE KYALO Acc. IFD,Completed,600,,3300,TRUE,Pay Utility,254714710698 - TABITHA MULEE KYALO,,IFD
PCB4K2K4W6,11/03/2021 10:20,11/03/2021 10:20,Pay Bill Online from 254729569271 - MESHACK OBOTTA OBARE Acc. V12,Completed,200,,2700,TRUE,Pay Bill Online,254729569271 - MESHACK OBOTTA OBARE,,V12
PCB7JYX0TH,11/03/2021 08:50,11/03/2021 08:50,Pay Bill from 254714209770 - PURITY NDUKU KYALO Acc. JEB,Completed,1200,,2500,TRUE,Pay Utility,254714209770 - PURITY NDUKU KYALO,,JEB
PCA2JOE9L0,10/03/2021 20:41,10/03/2021 20:41,Pay Bill from 0790566761 - HILDA KAKUVI MUTUA Acc. KEG,Completed,500,,1300,TRUE,Pay Utility,0790566761 - HILDA KAKUVI MUTUA,,KEG
PCA2JE8QFA,10/03/2021 18:18,10/03/2021 18:18,Pay Bill from 0746447780 - MERCY KARISA MUTSEMBI Acc. KCG,Completed,200,,800,TRUE,Pay Utility,0746447780 - MERCY KARISA MUTSEMBI,,KCG
PCA8J1L0RA,10/03/2021 13:57,10/03/2021 13:57,Pay Bill from 254723389177 - NELSON MOI Acc. ibf,Completed,600,,600,TRUE,Pay Utility,254723389177 - NELSON MOI,,ibf
PCA2IY9GGE,10/03/2021 12:43,10/03/2021 12:43,Utility Account to Organization Settlement Account,Completed,,-8150,0,TRUE,Utility Account to Organization Settlement Account,846783 - ANCIENT WELLS LTD 4,,
PCA6IX3J1C,10/03/2021 12:16,10/03/2021 12:16,Pay Bill from 254727460527 - KENNETH GACHUHI Acc. HAB ,Completed,500,,8150,TRUE,Pay Utility,254727460527 - KENNETH GACHUHI,,HAB
PCA4IQ32PU,10/03/2021 09:35,10/03/2021 09:35,Pay Bill from 254723026840 - HARRISON MAINA Acc. HAH,Completed,2000,,7650,TRUE,Pay Utility,254723026840 - HARRISON MAINA,,HAH
PCA2IJNI22,10/03/2021 02:42,10/03/2021 02:42,Pay Bill from 254798674917 - Egbe Okpaga Okpaga Acc. HAD,Completed,200,,5650,TRUE,Pay Utility,254798674917 - Egbe Okpaga Okpaga,,HAD
PC96II1QTY,09/03/2021 22:24,09/03/2021 22:24,Pay Bill from 0799912339 - PETER KAMAU MURIU Acc. C5,Completed,600,,5450,TRUE,Pay Utility,0799912339 - PETER KAMAU MURIU,,C5
PC96I6PLHE,09/03/2021 19:03,09/03/2021 19:03,Pay Bill from 0715688238 - JOANNAH ATUHAIRE BANTU Acc. jae,Completed,400,,4850,TRUE,Pay Utility,0715688238 - JOANNAH ATUHAIRE BANTU,,jae
PC98HT2LKY,09/03/2021 14:45,09/03/2021 14:45,Pay Bill from 254798643998 - Judith Mwaniki Acc. kce,Completed,600,,4450,TRUE,Pay Utility,254798643998 - Judith Mwaniki,,kce
PC93HP7B1R,09/03/2021 13:18,09/03/2021 13:18,Pay Bill from 254745113452 - MARIAN TAABU MULI Acc. B6,Completed,800,,3850,TRUE,Pay Utility,254745113452 - MARIAN TAABU MULI,,B6
