Receipt No.,Completion Time,Initiation Time,Details,Transaction Status,Paid In,Withdrawn,Balance,Balance Confirmed,Reason Type,Other Party Info,Linked Transaction ID,A/C No.
QLD51ZRBAB,13/12/2022 06:53,13/12/2022 06:53,Business Pay Bill by 901670 - Bonga Everywhere Services Acc. jbf via API,Completed,200,,141360,TRUE,Business Pay Bill via API,901670 - Bonga Everywhere Services,,jbf
QLC7ZATL4N,12/12/2022 13:25,12/12/2022 13:25,Pay Bill Online from 254706722732 - NAOMY ACHIENG OYUGI Acc. E5,Completed,800,,141160,TRUE,Pay Bill Online,254706722732 - NAOMY ACHIENG OYUGI,,E5
QLC3Z4VWZL,12/12/2022 12:22,12/12/2022 12:22,Pay Bill Online from 254705846408 - JAMES OUMA Acc. HBH,Completed,3000,,140360,TRUE,Pay Bill Online,254705846408 - JAMES OUMA,,HBH
QLC4Z4HEEA,12/12/2022 12:17,12/12/2022 12:17,Pay Bill from 254790128716 - HELLEN NAPHTAL Acc. V11,Completed,1200,,137360,TRUE,Pay Utility with OD via STK,254790128716 - HELLEN NAPHTAL,,V11
QLC3YMUWEB,12/12/2022 08:54,12/12/2022 08:54,Pay Bill Online from 254718284151 - EVERLINE MATHEKA Acc. DFA,Completed,15000,,136160,TRUE,Pay Utility with OD Online,254718284151 - EVERLINE MATHEKA,,DFA
QLB1XT3A01,11/12/2022 19:34,11/12/2022 19:34,Pay Bill from 254700811449 - JOHN MULIMA ENANE Acc. HCE,Completed,1200,,121160,TRUE,Pay Utility,254700811449 - JOHN MULIMA ENANE,,HCE
QLB3W0KNLR,11/12/2022 07:46,11/12/2022 07:46,Pay Bill Online from 254723394064 - ANDREW LAGAT Acc. HBG ,Completed,600,,119960,TRUE,Pay Bill Online,254723394064 - ANDREW LAGAT,,HBG
QLA3UY32CR,10/12/2022 18:09,10/12/2022 18:09,Pay Bill Online from 254714563486 - BRIAN MMATA MUSERA Acc. KBJ,Completed,600,,119360,TRUE,Pay Bill Online,254714563486 - BRIAN MMATA MUSERA,,KBJ
QLA2U2L0SQ,10/12/2022 13:10,10/12/2022 13:10,Pay Bill from 254713229967 - John Mugabo Simba Acc. E4,Completed,1200,,118760,TRUE,Pay Utility,254713229967 - John Mugabo Simba,,E4
QLA3TECM79,10/12/2022 08:49,10/12/2022 08:49,Merchant Pay Utility Received from 7245661 -  OCHIENG CHEMIST  Acc. HFD,Completed,500,,117560,TRUE,Merchant Pay Utility via API,7245661 -  OCHIENG CHEMIST ,,HFD
QL91SR5Q5Z,09/12/2022 21:00,09/12/2022 21:00,Pay Bill from 0717441870 - Steven oduor ogutu Acc. KTA,Completed,1000,,117060,TRUE,Pay Utility,0717441870 - Steven oduor ogutu,,KTA
QL93SR53KZ,09/12/2022 21:00,09/12/2022 21:00,Pay Bill from 254720439955 - GEOPHRY OKOTH Acc. D6,Completed,600,,116060,TRUE,Pay Utility,254720439955 - GEOPHRY OKOTH,,D6
QL93ROICAR,09/12/2022 15:56,09/12/2022 15:56,Pay Bill Online from 254720062144 - CAROLINE AMONDI OKELO Acc. f4,Completed,1200,,115460,TRUE,Pay Bill Online,254720062144 - CAROLINE AMONDI OKELO,,f4
QL88Q257IK,08/12/2022 22:08,08/12/2022 22:08,Pay Bill from 254723981147 - GRACE NDUNGE Acc. Fba,Completed,400,,114260,TRUE,Pay Utility,254723981147 - GRACE NDUNGE,,Fba
QL84PN1ILG,08/12/2022 19:49,08/12/2022 19:49,Pay Bill from 0719349205 - Christabel Gakii Munene Acc. D1,Completed,400,,113860,TRUE,Pay Utility,0719349205 - Christabel Gakii Munene,,D1
QL89PDPIIP,08/12/2022 18:49,08/12/2022 18:49,Pay Bill from 0114093036 - Cecillia Njeri Githui Acc. c3,Completed,800,,113460,TRUE,Pay Utility,0114093036 - Cecillia Njeri Githui,,c3
QL81PA4GB5,08/12/2022 18:24,08/12/2022 18:24,Pay Bill Online from 0799912339 - PETER KAMAU MURIU Acc. c5,Completed,500,,112660,TRUE,Pay Bill Online,0799912339 - PETER KAMAU MURIU,,c5
QL86OXO370,08/12/2022 16:41,08/12/2022 16:41,Pay Bill Online from 254727554512 - COLLINS KOECH Acc. JDJ,Completed,1600,,112160,TRUE,Pay Bill Online,254727554512 - COLLINS KOECH,,JDJ
QL82OGM0UA,08/12/2022 13:53,08/12/2022 13:53,Pay Bill from 254726028330 - JOHN WAMBUA Acc. IFH,Completed,1000,,110560,TRUE,Pay Utility,254726028330 - JOHN WAMBUA,,IFH
QL86OFNPJ0,08/12/2022 13:44,08/12/2022 13:44,Pay Bill from 254722706516 - KORIR ANTHONY Acc. Anthony D 3 ,Completed,200,,109560,TRUE,Pay Utility,254722706516 - KORIR ANTHONY,,Anthony
QL84O7USQE,08/12/2022 12:27,08/12/2022 12:27,Pay Bill from 254703276305 - MARTHA MUSYOKA Acc. IAI ,Completed,800,,109360,TRUE,Pay Utility,254703276305 - MARTHA MUSYOKA,,IAI
QL81NPTIZL,08/12/2022 09:16,08/12/2022 09:16,Pay Bill from 254729258441 - ROBERT RONO KULEI Acc. JAB,Completed,1200,,108560,TRUE,Pay Utility,254729258441 - ROBERT RONO KULEI,,JAB
QL89NG6V71,08/12/2022 07:08,08/12/2022 07:08,Pay Bill from 254797675450 - JOHN NYAREGA NYAKUNDI Acc. FAF,Completed,600,,107360,TRUE,Pay Utility,254797675450 - JOHN NYAREGA NYAKUNDI,,FAF
QL70MPM7BS,07/12/2022 19:49,07/12/2022 19:49,Pay Bill from 254721539716 - OCTAVIAN MWANYALO Acc. C6,Completed,400,,106760,TRUE,Pay Utility,254721539716 - OCTAVIAN MWANYALO,,C6
QL75MMAPPB,07/12/2022 19:28,07/12/2022 19:28,Pay Bill from 254720814822 - JAMES OTIENO OPAR Acc. Jgj,Completed,600,,106360,TRUE,Pay Utility with OD via STK,254720814822 - JAMES OTIENO OPAR,,Jgj
QL79MI7F7Z,07/12/2022 19:03,07/12/2022 19:03,Pay Bill Online from 254723499628 - CLINTON JOSEPH MUHARI Acc. hfh,Completed,1200,,105760,TRUE,Pay Bill Online,254723499628 - CLINTON JOSEPH MUHARI,,hfh
QL71M9PAH3,07/12/2022 18:04,07/12/2022 18:04,Pay Bill Online from 254724423882 - JOEL GICHURI KARANJA Acc. fee,Completed,1400,,104560,TRUE,Pay Bill Online,254724423882 - JOEL GICHURI KARANJA,,fee
QL79M5F64R,07/12/2022 17:31,07/12/2022 17:31,Pay Bill from 254714597495 - WAMBUA KIOKO Acc. c1,Completed,600,,103160,TRUE,Pay Utility,254714597495 - WAMBUA KIOKO,,c1
QL78M4ETSG,07/12/2022 17:22,07/12/2022 17:22,Pay Bill from 0720571944 - Ronoh   Benard Acc. D2,Completed,200,,102560,TRUE,Pay Utility,0720571944 - Ronoh   Benard,,D2
QL75M3RJUT,07/12/2022 17:17,07/12/2022 17:17,Pay Bill from 0743248310 - PATRICK STURRIDGE NYONGESA Acc. daa,Completed,600,,102360,TRUE,Pay Utility,0743248310 - PATRICK STURRIDGE NYONGESA,,daa
QL71M1PTXL,07/12/2022 16:59,07/12/2022 16:59,Pay Bill from 254726945691 - JAMES RAMTU Acc. B5,Completed,400,,101760,TRUE,Pay Utility,254726945691 - JAMES RAMTU,,B5
QL71LY6P37,07/12/2022 16:28,07/12/2022 16:28,Pay Bill from 254718818610 - HANNAH NALIAKA Acc. V23,Completed,400,,101360,TRUE,Pay Utility,254718818610 - HANNAH NALIAKA,,V23
QL79LW5PM9,07/12/2022 16:09,07/12/2022 16:09,Pay Bill from 254702923950 - SAMUEL KIMANTHI Acc. V49,Completed,1400,,100960,TRUE,Pay Utility,254702923950 - SAMUEL KIMANTHI,,V49
QL75LVSTFL,07/12/2022 16:05,07/12/2022 16:05,Pay Bill Online from 254725385966 - JOSEPH MUYA MARUA Acc. KEE,Completed,1100,,99560,TRUE,Pay Bill Online,254725385966 - JOSEPH MUYA MARUA,,KEE
QL73LORLVJ,07/12/2022 14:57,07/12/2022 14:57,Pay Bill from 254721780448 - EVERLYNE MIDEVA CHOGO Acc. JCA ,Completed,3000,,98460,TRUE,Pay Utility,254721780448 - EVERLYNE MIDEVA CHOGO,,JCA
QL72LLYX7Q,07/12/2022 14:30,07/12/2022 14:30,Pay Bill from 0715688238 - JOANNAH ATUHAIRE BANTU Acc. jae,Completed,800,,95460,TRUE,Pay Utility,0715688238 - JOANNAH ATUHAIRE BANTU,,jae
QL78LHJ12S,07/12/2022 13:48,07/12/2022 13:48,Pay Bill from 254702190887 - Nax Ochieng Acc. FDE,Completed,1000,,94660,TRUE,Pay Utility,254702190887 - Nax Ochieng,,FDE
QL70L8WZZE,07/12/2022 12:26,07/12/2022 12:26,Pay Bill Online from 254715764212 - BANCE ISHEMINYE Acc. JFE ,Completed,100,,93660,TRUE,Pay Bill Online,254715764212 - BANCE ISHEMINYE,,JFE
QL77KX5QBH,07/12/2022 10:27,07/12/2022 10:27,Pay Bill from 0769118645 - kennedy kipkurui korir Acc. IGC,Completed,900,,93560,TRUE,Pay Utility,0769118645 - kennedy kipkurui korir,,IGC
QL73KUZ8KF,07/12/2022 10:04,07/12/2022 10:04,Pay Bill Online from 0757699775 - BENARD MUIA MUTUA Acc. HCB,Completed,1800,,92660,TRUE,Pay Utility with OD Online,0757699775 - BENARD MUIA MUTUA,,HCB
QL70KFKYR4,07/12/2022 06:42,07/12/2022 06:42,Pay Bill Online from 254714552193 - CHRISTOPHER OCHIENG Acc. JGI,Completed,1250,,90860,TRUE,Pay Bill Online,254714552193 - CHRISTOPHER OCHIENG,,JGI
QL62K8HL1A,06/12/2022 22:34,06/12/2022 22:34,Pay Bill Online from 254711562428 - Lionel Mutune Muoka Acc. KDI,Completed,600,,89610,TRUE,Pay Bill Online,254711562428 - Lionel Mutune Muoka,,KDI
QL64K74QO8,06/12/2022 22:11,06/12/2022 22:11,Pay Bill from 254729806880 - Eunice Akinyi Were Acc. V33,Completed,1200,,89010,TRUE,Pay Utility,254729806880 - Eunice Akinyi Were,,V33
QL67K20DCP,06/12/2022 21:15,06/12/2022 21:15,Pay Bill from 0717042461 - Sharon Nyangasi Shivachi Acc. V55 ,Completed,200,,87810,TRUE,Pay Utility,0717042461 - Sharon Nyangasi Shivachi,,V55
QL68JTH7LU,06/12/2022 20:04,06/12/2022 20:04,Pay Bill from 254724201046 - GIDEON NDOLO Acc. KFH,Completed,500,,87610,TRUE,Pay Utility,254724201046 - GIDEON NDOLO,,KFH
QL61JPZ4F3,06/12/2022 19:40,06/12/2022 19:40,Pay Bill Online from 254722728975 - CURTIS MRIGA OMIDO Acc. IAH,Completed,600,,87110,TRUE,Pay Bill Online,254722728975 - CURTIS MRIGA OMIDO,,IAH
QL62JHJW50,06/12/2022 18:46,06/12/2022 18:46,Pay Bill from 254796069018 - PEACE KIMEU Acc. JAH,Completed,2000,,86510,TRUE,Pay Utility,254796069018 - PEACE KIMEU,,JAH
QL62J8IKH0,06/12/2022 17:42,06/12/2022 17:42,Pay Bill Online from 0724386624 - FATUMA ISSE YUSSUF Acc. FAB,Completed,800,,84510,TRUE,Pay Utility with OD Online,0724386624 - FATUMA ISSE YUSSUF,,FAB
QL62J64JOU,06/12/2022 17:24,06/12/2022 17:24,Pay Bill Online from 254723901777 - EVANS YEBEI Acc. KCH,Completed,500,,83710,TRUE,Pay Utility with OD Online,254723901777 - EVANS YEBEI,,KCH
QL64J0JEZW,06/12/2022 16:37,06/12/2022 16:37,Pay Bill from 254712091662 - BENARD OMONDI ROBY Acc. V16,Completed,400,,83210,TRUE,Pay Utility,254712091662 - BENARD OMONDI ROBY,,V16
QL66IZP9RW,06/12/2022 16:30,06/12/2022 16:30,Pay Bill from 254726732160 - CATHERINE MBETI Acc. kfi,Completed,400,,82810,TRUE,Pay Utility,254726732160 - CATHERINE MBETI,,kfi
QL64IVPVJ0,06/12/2022 15:53,06/12/2022 15:53,Pay Bill from 254729355933 - FELISTAH NJERI WAIRIMU Acc. IDI,Completed,1400,,82410,TRUE,Pay Utility with OD via STK,254729355933 - FELISTAH NJERI WAIRIMU,,IDI
QL68IK0TY2,06/12/2022 14:02,06/12/2022 14:02,Pay Bill from 254798643998 - Judith Mwaniki Acc. kce,Completed,800,,81010,TRUE,Pay Utility,254798643998 - Judith Mwaniki,,kce
QL62I71R6I,06/12/2022 12:01,06/12/2022 12:01,Pay Bill from 254700198550 - BENARD ONYANGO Acc. DBB,Completed,1000,,80210,TRUE,Pay Utility,254700198550 - BENARD ONYANGO,,DBB
QL67I3WVYJ,06/12/2022 11:31,06/12/2022 11:31,Pay Bill from 254703108159 - JOICE OGOLLA Acc. V50,Completed,400,,79210,TRUE,Pay Utility,254703108159 - JOICE OGOLLA,,V50
QL63I2G0DJ,06/12/2022 11:16,06/12/2022 11:16,Pay Bill Online from 254726465584 - JULIANA MUKELI MUTUNGA Acc. v4,Completed,400,,78810,TRUE,Pay Bill Online,254726465584 - JULIANA MUKELI MUTUNGA,,v4
QL63HUM71B,06/12/2022 09:59,06/12/2022 09:59,Pay Bill from 254723017892 - JUDY MUTHEU Acc. ICI,Completed,600,,78410,TRUE,Pay Utility,254723017892 - JUDY MUTHEU,,ICI
QL63HMTDFR,06/12/2022 08:38,06/12/2022 08:38,Pay Bill Online from 254719134037 - KELVIN KITOO Acc. FAA,Completed,1250,,77810,TRUE,Pay Bill Online,254719134037 - KELVIN KITOO,,FAA
QL69HKDLHV,06/12/2022 08:10,06/12/2022 08:10,Pay Bill from 254723815832 - SEMEKIA ONDIALA Acc. V38,Completed,800,,76560,TRUE,Pay Utility,254723815832 - SEMEKIA ONDIALA,,V38
QL68HKC3OM,06/12/2022 08:10,06/12/2022 08:10,Pay Bill from 0791379873 - Joseph Kyalo Sila Acc. HAH,Completed,1260,,75760,TRUE,Pay Utility with OD via STK,0791379873 - Joseph Kyalo Sila,,HAH
QL67HIXKT5,06/12/2022 07:53,06/12/2022 07:53,Pay Bill Online from 254720381965 - JAMES NGUGI MWANIKI Acc. JBI,Completed,3400,,74500,TRUE,Pay Bill Online,254720381965 - JAMES NGUGI MWANIKI,,JBI
QL63HDEHCZ,06/12/2022 06:11,06/12/2022 06:11,Pay Bill from 254714710944 - MERCY NDUNG'U Acc. hff,Completed,400,,71100,TRUE,Pay Utility,254714710944 - MERCY NDUNG'U,,hff
QL51H9SXGD,05/12/2022 23:41,05/12/2022 23:41,Pay Bill Online from 254727425310 - DENNIS KIPKOECH CHERUIYOT Acc. JAG,Completed,600,,70700,TRUE,Pay Bill Online,254727425310 - DENNIS KIPKOECH CHERUIYOT,,JAG
QL51H9ARY9,05/12/2022 23:22,05/12/2022 23:22,Pay Bill from 254725478531 - KIPKORIR KUTO Acc. DFB,Completed,400,,70100,TRUE,Pay Utility,254725478531 - KIPKORIR KUTO,,DFB
QL59H8VTR7,05/12/2022 23:10,05/12/2022 23:10,Pay Bill Online from 254742911013 - HANEST AMIMO Acc. IEG,Completed,400,,69700,TRUE,Pay Bill Online,254742911013 - HANEST AMIMO,,IEG
QL50H7RE3C,05/12/2022 22:45,05/12/2022 22:45,Pay Bill from 254721714178 - PHANICE JEROTICH KIPTOO Acc. FBF,Completed,800,,69300,TRUE,Pay Utility,254721714178 - PHANICE JEROTICH KIPTOO,,FBF
QL59H0IRON,05/12/2022 21:16,05/12/2022 21:16,Pay Bill Online from 254718138578 - PAULINE KIOKO Acc. KFD,Completed,400,,68500,TRUE,Pay Bill Online,254718138578 - PAULINE KIOKO,,KFD
QL59GSEM77,05/12/2022 20:13,05/12/2022 20:13,Pay Bill from 254728084427 - MARY NABWIRE OKELLO Acc. FDF,Completed,2400,,68100,TRUE,Pay Utility,254728084427 - MARY NABWIRE OKELLO,,FDF
QL50GQSO88,05/12/2022 20:03,05/12/2022 20:03,Pay Bill from 254702216907 - FAITH MUSA Acc. 400,Completed,400,,65700,TRUE,Pay Utility,254702216907 - FAITH MUSA,,400
QL50GI3NX2,05/12/2022 19:10,05/12/2022 19:10,Pay Bill from 254711163049 - OYUGI OCHIENG Acc. FCB,Completed,2200,,65300,TRUE,Pay Utility,254711163049 - OYUGI OCHIENG,,FCB
QL51G3UUU7,05/12/2022 17:38,05/12/2022 17:38,Pay Bill Online from 254715892656 - DENNIS MUSYOKA MUOKI Acc. KFA,Completed,400,,63100,TRUE,Pay Bill Online,254715892656 - DENNIS MUSYOKA MUOKI,,KFA
QL59FT616R,05/12/2022 16:16,05/12/2022 16:16,Pay Bill from 254725771056 - CHARLES MURAGURI Acc. FCE,Completed,400,,62700,TRUE,Pay Utility,254725771056 - CHARLES MURAGURI,,FCE
QL56FQLIHE,05/12/2022 15:54,05/12/2022 15:54,Pay Bill Online from 254721974995 - BERNICE MANGOKA Acc. KFK,Completed,800,,62300,TRUE,Pay Bill Online,254721974995 - BERNICE MANGOKA,,KFK
QL55FLG2N3,05/12/2022 15:08,05/12/2022 15:08,Pay Bill Online from 254799371069 - ALPHONCE OCHIENG WAREGA Acc. IEE,Completed,1500,,61500,TRUE,Pay Bill Online,254799371069 - ALPHONCE OCHIENG WAREGA,,IEE
QL55FGM8SL,05/12/2022 14:24,05/12/2022 14:24,Pay Bill from 254705902606 - JOSEPH OTIENO SAGWA Acc. fed,Completed,500,,60000,TRUE,Pay Utility,254705902606 - JOSEPH OTIENO SAGWA,,fed
QL59EP07M1,05/12/2022 10:14,05/12/2022 10:14,Pay Bill Online from 254721465713 - RHODA WAMBUI MWANGI Acc. Jfh,Completed,1000,,59500,TRUE,Pay Bill Online,254721465713 - RHODA WAMBUI MWANGI,,Jfh
QL53EO0M21,05/12/2022 10:04,05/12/2022 10:04,Pay Bill Online from 254717809935 - LYDIAH WERU Acc. ief,Completed,1000,,58500,TRUE,Pay Bill Online,254717809935 - LYDIAH WERU,,ief
QL52EFU3B4,05/12/2022 08:43,05/12/2022 08:43,Pay Bill from 254743243622 - fridah waeni muithya Acc. JEH,Completed,1100,,57500,TRUE,Pay Utility,254743243622 - fridah waeni muithya,,JEH
QL50E5688E,05/12/2022 06:10,05/12/2022 06:10,Pay Bill Online from 254714855708 - KIPLANGAT SITIENEI Acc. FAE,Completed,1400,,56400,TRUE,Pay Bill Online,254714855708 - KIPLANGAT SITIENEI,,FAE
QL42DYQ19O,04/12/2022 23:11,04/12/2022 23:11,Pay Bill from 254728670882 - SHARAD EDWARD ADALA OLUM Acc. KCK,Completed,2000,,55000,TRUE,Pay Utility,254728670882 - SHARAD EDWARD ADALA OLUM,,KCK
QL42DT5LNQ,04/12/2022 21:45,04/12/2022 21:45,Pay Bill from 254791341895 - Enos Nyaosi Ayuma Acc. D5,Completed,200,,53000,TRUE,Pay Utility,254791341895 - Enos Nyaosi Ayuma,,D5
QL44D5VUFU,04/12/2022 18:45,04/12/2022 18:45,Pay Bill from 254710239100 - PHILOMENA WOKI MUTHAMA Acc. KDK,Completed,1000,,52800,TRUE,Pay Utility,254710239100 - PHILOMENA WOKI MUTHAMA,,KDK
QL41CZSQJB,04/12/2022 18:00,04/12/2022 18:00,Pay Bill from 254719398942 - NORAH WAYUA MUNYAO Acc. KDA,Completed,1200,,51800,TRUE,Pay Utility,254719398942 - NORAH WAYUA MUNYAO,,KDA
QL47CWCU83,04/12/2022 17:33,04/12/2022 17:33,Pay Bill from 254720814822 - JAMES OTIENO OPAR Acc. Jgj,Completed,350,,50600,TRUE,Pay Utility,254720814822 - JAMES OTIENO OPAR,,Jgj
QL46CBJPXQ,04/12/2022 14:30,04/12/2022 14:30,Pay Bill Online from 254720787158 - AMOS CHELANG'A Acc. KCG,Completed,600,,50250,TRUE,Pay Utility with OD Online,254720787158 - AMOS CHELANG'A,,KCG
QL43C3BRBJ,04/12/2022 13:16,04/12/2022 13:16,Pay Bill from 0720599684 - CHEMUTAI   JACKLINE Acc. KGD,Completed,1000,,49650,TRUE,Pay Utility,0720599684 - CHEMUTAI   JACKLINE,,KGD
QL42C1JV5O,04/12/2022 12:58,04/12/2022 12:58,Pay Bill from 254720978285 - PETER KYALO KIIO Acc. DBD,Completed,2600,,48650,TRUE,Pay Utility,254720978285 - PETER KYALO KIIO,,DBD
QL40BIRZDQ,04/12/2022 09:40,04/12/2022 09:40,Pay Bill from 254720329895 - BEATRICE KIMINZA MUNYOKI Acc. KEJ,Completed,1000,,46050,TRUE,Pay Utility with OD via STK,254720329895 - BEATRICE KIMINZA MUNYOKI,,KEJ
QL37AND3LR,03/12/2022 21:53,03/12/2022 21:53,Pay Bill Online from 254726001437 - FESTUS MUNYIRI MAINA Acc. IFF,Completed,200,,45050,TRUE,Pay Bill Online,254726001437 - FESTUS MUNYIRI MAINA,,IFF
QL39AARX3V,03/12/2022 20:10,03/12/2022 20:10,Pay Bill Online from 254704934557 - BAKARI KITSAKA Acc. HDG,Completed,800,,44850,TRUE,Pay Bill Online,254704934557 - BAKARI KITSAKA,,HDG
QL329MT2JG,03/12/2022 17:32,03/12/2022 17:32,Pay Bill from 254796848496 - IVY WITABA Acc. JBA,Completed,1000,,44050,TRUE,Pay Utility,254796848496 - IVY WITABA,,JBA
QL339A81UP,03/12/2022 15:47,03/12/2022 15:47,Pay Bill Online from 254703176849 - ROYAL MUYA Acc. F2,Completed,400,,43050,TRUE,Pay Bill Online,254703176849 - ROYAL MUYA,,F2
QL38981AVO,03/12/2022 15:27,03/12/2022 15:27,Pay Bill from 254723929380 - RHODAH K WAMBUA Acc. HEG,Completed,1400,,42650,TRUE,Pay Utility,254723929380 - RHODAH K WAMBUA,,HEG
QL3190ZRSR,03/12/2022 14:26,03/12/2022 14:26,Pay Bill Online from 254729796719 - JACINTA WANJIKU NJERI Acc. FFF,Completed,600,,41250,TRUE,Pay Bill Online,254729796719 - JACINTA WANJIKU NJERI,,FFF
QL3190VUGP,03/12/2022 14:25,03/12/2022 14:25,Pay Bill Online from 254718233980 - KAREN ASWANI Acc. HEC,Completed,800,,40650,TRUE,Pay Bill Online,254718233980 - KAREN ASWANI,,HEC
QL388MPVNE,03/12/2022 12:24,03/12/2022 12:24,Pay Bill from 0706563358 - HARRIET NYANCHAMA NYABERI Acc. FCC,Completed,600,,39850,TRUE,Pay Utility,0706563358 - HARRIET NYANCHAMA NYABERI,,FCC
QL3180ERLV,03/12/2022 09:01,03/12/2022 09:01,Pay Bill Online from 254718253322 - DUNCAN MOCHOGE Acc. JFJ,Completed,1000,,39250,TRUE,Pay Bill Online,254718253322 - DUNCAN MOCHOGE,,JFJ
QL317XDNPF,03/12/2022 08:30,03/12/2022 08:30,Pay Bill from 254712974871 - PAULA WANJIKU GATUI Acc. hea,Completed,1200,,38250,TRUE,Pay Utility,254712974871 - PAULA WANJIKU GATUI,,hea
QL377T23ER,03/12/2022 07:37,03/12/2022 07:37,Pay Bill Online from 254715764212 - BANCE ISHEMINYE Acc. JFE ,Completed,300,,37050,TRUE,Pay Bill Online,254715764212 - BANCE ISHEMINYE,,JFE
QL307INZ2A,03/12/2022 00:04,03/12/2022 00:04,Pay Bill Online from 254720451253 - JIMMY KIOGORA NKIROTE Acc. KBD,Completed,300,,36750,TRUE,Pay Utility with OD Online,254720451253 - JIMMY KIOGORA NKIROTE,,KBD
QL226SYH84,02/12/2022 19:28,02/12/2022 19:28,Pay Bill from 254741791919 - Linet Mongina Maraga Acc. u3,Completed,1350,,36450,TRUE,Pay Utility,254741791919 - Linet Mongina Maraga,,u3
QL206LRHXQ,02/12/2022 18:43,02/12/2022 18:43,Pay Bill from 254723328258 - SAMUEL MAINA MURIUKI Acc. IFE,Completed,200,,35100,TRUE,Pay Utility,254723328258 - SAMUEL MAINA MURIUKI,,IFE
QL226JTUYE,02/12/2022 18:30,02/12/2022 18:30,Pay Bill Online from 254716784364 - Wendy Kemunto Nyandiko Acc. ffc,Completed,800,,34900,TRUE,Pay Bill Online,254716784364 - Wendy Kemunto Nyandiko,,ffc
QL296JOJ9H,02/12/2022 18:28,02/12/2022 18:28,Pay Bill from 254726599835 - LAWRENCE MURIITHI Acc. kdj,Completed,1400,,34100,TRUE,Pay Utility,254726599835 - LAWRENCE MURIITHI,,kdj
QL216HXI93,02/12/2022 18:16,02/12/2022 18:16,Pay Bill Online from 254706549634 - CLINTON OMBASA Acc. FDB,Completed,1200,,32700,TRUE,Pay Bill Online,254706549634 - CLINTON OMBASA,,FDB
QL285ZTPJA,02/12/2022 15:50,02/12/2022 15:50,Pay Bill from 254711706815 - NAOMI WANYONYI Acc. KBA,Completed,1500,,31500,TRUE,Pay Utility,254711706815 - NAOMI WANYONYI,,KBA
QL245XPJPW,02/12/2022 15:31,02/12/2022 15:31,Pay Bill Online from 254714596677 - IMMANUEL BARBOI Acc. KAI,Completed,300,,30000,TRUE,Pay Bill Online,254714596677 - IMMANUEL BARBOI,,KAI
QL225JRCOK,02/12/2022 13:26,02/12/2022 13:26,Pay Bill Online from 254726292792 - PHILIP MIANO Acc. JEI,Completed,2600,,29700,TRUE,Pay Bill Online,254726292792 - PHILIP MIANO,,JEI
QL275IZZ3V,02/12/2022 13:19,02/12/2022 13:19,Pay Bill Online from 254795510441 - LEWIS MUEMA Acc. KEB,Completed,600,,27100,TRUE,Pay Bill Online,254795510441 - LEWIS MUEMA,,KEB
QL285H1NZC,02/12/2022 13:01,02/12/2022 13:01,Pay Bill Online from 254706898046 - STACY AKETCH OCHUKA Acc. KGK,Completed,800,,26500,TRUE,Pay Bill Online,254706898046 - STACY AKETCH OCHUKA,,KGK
QL295BAPJT,02/12/2022 12:08,02/12/2022 12:08,Pay Bill from 0715806956 - Mercy Jelagat Kalum Acc. FFE,Completed,200,,25700,TRUE,Pay Utility,0715806956 - Mercy Jelagat Kalum,,FFE
QL2357K0B5,02/12/2022 11:33,02/12/2022 11:33,Pay Bill Online from 254700187806 - WINNIE OLIVIA AKOTH Acc. JEC,Completed,600,,25500,TRUE,Pay Bill Online,254700187806 - WINNIE OLIVIA AKOTH,,JEC
QL294XJ0SP,02/12/2022 09:58,02/12/2022 09:58,Pay Bill from 0758457508 - PETER KINGORI KAGUNDA Acc. v06,Completed,400,,24900,TRUE,Pay Utility,0758457508 - PETER KINGORI KAGUNDA,,v06
QL224WWDT2,02/12/2022 09:52,02/12/2022 09:52,Pay Bill from 254715742045 - FRIDAH KIEMA Acc. HGC,Completed,3000,,24500,TRUE,Pay Utility with OD via STK,254715742045 - FRIDAH KIEMA,,HGC
QL274O7VL5,02/12/2022 08:24,02/12/2022 08:24,Pay Bill from 254720814822 - JAMES OTIENO OPAR Acc. jgj,Completed,600,,21500,TRUE,Pay Utility,254720814822 - JAMES OTIENO OPAR,,jgj
QL214NMCU5,02/12/2022 08:18,02/12/2022 08:18,Pay Bill from 254720550403 - GRACE WANGONDU Acc. jfi,Completed,3000,,20900,TRUE,Pay Utility,254720550403 - GRACE WANGONDU,,jfi
QL244IIISS,02/12/2022 07:17,02/12/2022 07:17,Pay Bill from 254791086424 - Martha Achieng Arodi Acc. FDC,Completed,200,,17900,TRUE,Pay Utility,254791086424 - Martha Achieng Arodi,,FDC
QL1746ITN7,01/12/2022 23:23,01/12/2022 23:23,Pay Bill from 254708875278 - ROSEMARY WANJIRU KONYE Acc. HBF,Completed,600,,17700,TRUE,Pay Utility,254708875278 - ROSEMARY WANJIRU KONYE,,HBF
QL1943F01V,01/12/2022 22:31,01/12/2022 22:31,Pay Bill Online from 0720141407 - Felix Wanjala Wafula Acc. IEB,Completed,200,,17100,TRUE,Pay Bill Online,0720141407 - Felix Wanjala Wafula,,IEB
QL163ZMZCY,01/12/2022 21:41,01/12/2022 21:41,Pay Bill from 254726702082 - STEPHEN NJUGUNA Acc. V02,Completed,1000,,16900,TRUE,Pay Utility,254726702082 - STEPHEN NJUGUNA,,V02
QL143SK2DI,01/12/2022 20:37,01/12/2022 20:37,Pay Bill from 254723341864 - WILLIAM OSIEL WACHUDI Acc. DED,Completed,4800,,15900,TRUE,Pay Utility with OD via STK,254723341864 - WILLIAM OSIEL WACHUDI,,DED
QL1734YMSL,01/12/2022 17:59,01/12/2022 17:59,Pay Bill Online from 0715939681 - alex mwanzia nyamai Acc. v7,Completed,400,,11100,TRUE,Pay Bill Online,0715939681 - alex mwanzia nyamai,,v7
QL142Y5ITG,01/12/2022 17:07,01/12/2022 17:07,Pay Bill from 254700430569 - EDITH   GAKII Acc. DDB,Completed,1000,,10700,TRUE,Pay Utility,254700430569 - EDITH   GAKII,,DDB
QL122UA3AM,01/12/2022 16:32,01/12/2022 16:32,Pay Bill from 254717726012 - WINFRED MUENI PETER Acc. IDA,Completed,1000,,9700,TRUE,Pay Utility,254717726012 - WINFRED MUENI PETER,,IDA
QL132RC0EN,01/12/2022 16:04,01/12/2022 16:04,Pay Bill from 254703528196 - ERIC GITONGA MUGO Acc. KGJ,Completed,2000,,8700,TRUE,Pay Utility,254703528196 - ERIC GITONGA MUGO,,KGJ
QL172N7ZRX,01/12/2022 15:24,01/12/2022 15:24,FSI to Pay Bill by 714888 - B2C LOOP VIA NCBA Acc. V40 via WEB by B2C LOOP VIA NCBA\Cbainitiator,Completed,600,,6700,TRUE,FSI to Pay Bill via API,714888 - B2C LOOP VIA NCBA,,V40
QL1728UY9T,01/12/2022 13:04,01/12/2022 13:04,Pay Bill from 254702152790 - Michelle Ndunge Kyalo Acc. IDE,Completed,400,,6100,TRUE,Pay Utility,254702152790 - Michelle Ndunge Kyalo,,IDE
QL14223TJY,01/12/2022 11:56,01/12/2022 11:56,Pay Bill Online from 254703180395 - JANE NYAGUTHII MWAGO Acc. IBE,Completed,600,,5700,TRUE,Pay Bill Online,254703180395 - JANE NYAGUTHII MWAGO,,IBE
QL151PII6R,01/12/2022 09:43,01/12/2022 09:43,Pay Bill from 254720407659 - FRANCIS CHUMO Acc. KDG,Completed,1000,,5100,TRUE,Pay Utility,254720407659 - FRANCIS CHUMO,,KDG
QL101HQUQA,01/12/2022 08:16,01/12/2022 08:16,Pay Bill from 254741573910 - VINCENT ODUOR OLIENG Acc. HBC,Completed,600,,4100,TRUE,Pay Utility,254741573910 - VINCENT ODUOR OLIENG,,HBC
