Receipt No.,Completion Time,Initiation Time,Details,Transaction Status,Paid In,Withdrawn,Balance,Balance Confirmed,Reason Type,Other Party Info,Linked Transaction ID,A/C No.
OLI0OXNL7C,18/12/2020 17:50,18/12/2020 17:50,Pay Bill Online from 254706898046 - STACY AKETCH OCHUKA Acc. KED,Completed,12000,,12000,TRUE,Pay Bill Online,254706898046 - STACY AKETCH OCHUKA,,KED
OLI8OD0W7M,18/12/2020 10:42,18/12/2020 10:42,Utility Account to Organization Settlement Account,Completed,,-74900,0,TRUE,Utility Account to Organization Settlement Account,979524 - ANCIENT WELLS PROPERTY MANAGERS 2,,
OLI0O5NSDC,18/12/2020 07:32,18/12/2020 07:32,Pay Bill Online from 254715764212 - BANCE ISHEMINYE Acc. JFE ,Completed,8000,,74900,TRUE,Pay Bill Online,254715764212 - BANCE ISHEMINYE,,JFE
OLI7O3F0Z5,18/12/2020 00:45,18/12/2020 00:45,Pay Bill from 0748059595 - Rashid NASSIR Khamis Acc. DDA,Completed,5000,,66900,TRUE,Pay Utility,0748059595 - Rashid NASSIR Khamis,,DDA
OLH5O2CFZH,17/12/2020 22:33,17/12/2020 22:33,Pay Bill from 254722910078 - MAUREEN MUNYIVA MUTUKU Acc. DBD,Completed,2500,,61900,TRUE,Pay Utility,254722910078 - MAUREEN MUNYIVA MUTUKU,,DBD
OLH0NRFXDO,17/12/2020 18:52,17/12/2020 18:52,Pay Bill from 254711397174 - JASEL HOPE ANTONINA Acc. kef,Completed,3000,,59400,TRUE,Pay Utility,254711397174 - JASEL HOPE ANTONINA,,kef
OLH0NLE5BG,17/12/2020 17:11,17/12/2020 17:11,Pay Bill from 254720361605 - DAUD AMBER Acc. IGH,Completed,1000,,56400,TRUE,Pay Utility,254720361605 - DAUD AMBER,,IGH
OLH2ND8S78,17/12/2020 14:19,17/12/2020 14:19,Pay Bill from 254704140048 - MAUREEN GACHERI KINYUA Acc. JDD,Completed,23500,,55400,TRUE,Pay Utility,254704140048 - MAUREEN GACHERI KINYUA,,JDD
OLH1MYRP4J,17/12/2020 08:44,17/12/2020 08:44,Pay Bill from 254722458136 - NADI GOLICHA Acc. KAA,Completed,2000,,31900,TRUE,Pay Utility with OD via STK,254722458136 - NADI GOLICHA,,KAA
OLH9MXKLRV,17/12/2020 08:11,17/12/2020 08:11,Pay Bill from 254729892526 - PHARIS MICHUKI Acc. JA1,Completed,1000,,29900,TRUE,Pay Utility,254729892526 - PHARIS MICHUKI,,JA1
OLH7MX04CV,17/12/2020 07:53,17/12/2020 07:53,Pay Bill from 254726405755 - EDWARD NGONGE Acc. DGC,Completed,7900,,28900,TRUE,Pay Utility,254726405755 - EDWARD NGONGE,,DGC
OLG5MDKZBT,16/12/2020 17:54,16/12/2020 17:54,Pay Bill from 254722564580 - GLENN KISIANG'ANI Acc. DBB,Completed,5000,,21000,TRUE,Pay Utility,254722564580 - GLENN KISIANG'ANI,,DBB
OLG9MCJJS9,16/12/2020 17:36,16/12/2020 17:36,Pay Bill from 254708225541 - JUDITH NKATHA SIMBA Acc. ICF,Completed,7000,,16000,TRUE,Pay Utility with OD via STK,254708225541 - JUDITH NKATHA SIMBA,,ICF
OLG0M4YZLO,16/12/2020 14:59,16/12/2020 14:59,Pay Bill Online from 254703624678 - Zacharia Gesora Omwoyo Acc. igd ,Completed,9000,,9000,TRUE,Pay Bill Online,254703624678 - Zacharia Gesora Omwoyo,,igd
OLG5LUPI4R,16/12/2020 11:07,16/12/2020 11:07,Utility Account to Organization Settlement Account,Completed,,-25000,0,TRUE,Utility Account to Organization Settlement Account,979524 - ANCIENT WELLS PROPERTY MANAGERS 2,,
OLG1LRWJS9,16/12/2020 10:04,16/12/2020 10:04,Pay Bill from 254114321800 - KAWA KOUL TONG NGOR Acc. DP7,Completed,15000,,25000,TRUE,Pay Utility,254114321800 - KAWA KOUL TONG NGOR,,DP7
