Receipt No.,Completion Time,Initiation Time,Details,Transaction Status,Paid In,Withdrawn,Balance,Balance Confirmed,Reason Type,Other Party Info,Linked Transaction ID,A/C No.
QB44MZRSV6,04/02/2022 18:35,04/02/2022 18:35,Pay Bill from 254726403551 - VICTOR O KIRUMA Acc. u2,Completed,5500,,11000,TRUE,Pay Utility,254726403551 - VICTOR O KIRUMA,,u2
QB44M23QM4,04/02/2022 10:25,04/02/2022 10:25,Pay Bill from 254706859500 - JULIA NJAMBI WAINAINA Acc. U4,Completed,5500,,5500,TRUE,Pay Utility,254706859500 - JULIA NJAMBI WAINAINA,,U4
QB40LVGYR6,04/02/2022 08:29,04/02/2022 08:29,Utility Account to Organization Settlement Account,Completed,,-13000,0,TRUE,Utility Account to Organization Settlement Account,887264 - ANCIENT WELLS LTD 2,,
QB43LQO9DP,04/02/2022 05:38,04/02/2022 05:38,Pay Bill from 254718736574 - PATRICK LUMUMBA AGAN Acc. 369S,Completed,13000,,13000,TRUE,Pay Utility,254718736574 - PATRICK LUMUMBA AGAN,,369S
QB13H6JI53,01/02/2022 16:36,01/02/2022 16:36,Utility Account to Organization Settlement Account,Completed,,-15000,0,TRUE,Utility Account to Organization Settlement Account,887264 - ANCIENT WELLS LTD 2,,
QB10GR920Q,01/02/2022 12:36,01/02/2022 12:36,Pay Bill from 254726524831 - ANDREW ODHIAMBO Acc. Andrew odhiambo ,Completed,15000,,15000,TRUE,Pay Utility,254726524831 - ANDREW ODHIAMBO,,Andrew
