Receipt No.,Completion Time,Initiation Time,Details,Transaction Status,Paid In,Withdrawn,Balance,Balance Confirmed,Reason Type,Other Party Info,Linked Transaction ID,A/C No.
OGK7WPPJMJ,20/07/2020 20:25,20/07/2020 20:25,Pay Bill from 254721115404 - Justine Fayuma Okwemba Acc. HAA,Completed,1000,,2300,TRUE,Pay Utility,254721115404 - Justine Fayuma Okwemba,,HAA
OGK5WGI72Z,20/07/2020 17:15,20/07/2020 17:15,Pay Bill from 254724559756 - DUNCAN OMONDI OGOLA Acc. JDJ,Completed,800,,1300,TRUE,Pay Utility,254724559756 - DUNCAN OMONDI OGOLA,,JDJ
OGK5W0YP2H,20/07/2020 09:55,20/07/2020 09:55,Pay Bill from 254706159636 - titus omondi abuodha Acc. hbc,Completed,500,,500,TRUE,Pay Utility,254706159636 - titus omondi abuodha,,hbc
OGK6VXCY2E,20/07/2020 07:42,20/07/2020 07:40,Business Transfer from Utility Account to MMF Account via WEB by M-PESA - NWWAINAINA,Completed,,-2800,0,TRUE,Business Transfer from Utility Account to MMF Account via WEB,846783 - ANCIENT WELLS LTD 4,,
OGJ8VV438Q,19/07/2020 22:27,19/07/2020 22:27,Pay Bill from 254705546387 - MICAH KAMIDI Acc. jgj,Completed,400,,2800,TRUE,Pay Utility,254705546387 - MICAH KAMIDI,,jgj
OGJ3VJTP1N,19/07/2020 17:24,19/07/2020 17:24,Pay Bill from 0797876668 - PATRICK DOVOI AMURAVU Acc. Patrick v37 ,Completed,400,,2400,TRUE,Pay Utility,0797876668 - PATRICK DOVOI AMURAVU,,Patrick
OGH9U4BCF7,17/07/2020 23:30,17/07/2020 23:30,Pay Bill from 254722249092 - MARIAM ABDULLAHI Acc. KEH,Completed,400,,2000,TRUE,Pay Utility with OD via STK,254722249092 - MARIAM ABDULLAHI,,KEH
OGH0TOTVLG,17/07/2020 16:20,17/07/2020 16:20,Pay Bill from 0111278177 - Alfred   Kishoin Acc. IBC,Completed,600,,1600,TRUE,Pay Utility,0111278177 - Alfred   Kishoin,,IBC
OGH1TNA5IL,17/07/2020 15:39,17/07/2020 15:39,Pay Bill from 254799376885 - DERRICK OSORE SONGORO Acc. V58,Completed,400,,1000,TRUE,Pay Utility,254799376885 - DERRICK OSORE SONGORO,,V58
OGH0TI672I,17/07/2020 13:13,17/07/2020 13:13,Pay Bill from 254717465142 - EPHANTUS IRURA Acc. C4 MURIITHI,Completed,600,,600,TRUE,Pay Utility,254717465142 - EPHANTUS IRURA,,C4
OGG7ST72RT,16/07/2020 17:27,16/07/2020 17:27,Utility Account to Organization Settlement Account,Completed,,-8400,0,TRUE,Utility Account to Organization Settlement Account,846783 - ANCIENT WELLS LTD 4,,
OGG5SIB0S5,16/07/2020 12:31,16/07/2020 12:31,Pay Bill from 254725385966 - JOSEPH MUYA MARUA Acc. KEE,Completed,1000,,8400,TRUE,Pay Utility,254725385966 - JOSEPH MUYA MARUA,,KEE
OGF1RTQ5AJ,15/07/2020 17:15,15/07/2020 17:15,Pay Bill from 254714818251 - MERCY AKINYI OMONDI Acc. DFB,Completed,600,,7400,TRUE,Pay Utility,254714818251 - MERCY AKINYI OMONDI,,DFB
OGE8QZD7VG,14/07/2020 18:53,14/07/2020 18:53,Pay Bill from 254701086112 - CAROLYNE KOKI MULWA Acc. V30,Completed,200,,6800,TRUE,Pay Utility,254701086112 - CAROLYNE KOKI MULWA,,V30
OGE1QXX5CH,14/07/2020 18:24,14/07/2020 18:24,Pay Bill from 254720041583 - KIPROTICH YEGON Acc. HBD,Completed,5000,,6600,TRUE,Pay Utility,254720041583 - KIPROTICH YEGON,,HBD
OGD9PSVDT3,13/07/2020 15:09,13/07/2020 15:09,Pay Bill from 254726611493 - Cornelius Kimeli Acc. HAG,Completed,1600,,1600,TRUE,Pay Utility with OD via STK,254726611493 - Cornelius Kimeli,,HAG
OGD9PIIBGB,13/07/2020 10:08,13/07/2020 10:08,Utility Account to Organization Settlement Account,Completed,,-32000,0,TRUE,Utility Account to Organization Settlement Account,846783 - ANCIENT WELLS LTD 4,,
OGC0P0O8D0,12/07/2020 17:05,12/07/2020 17:05,Pay Bill from 254707370896 - OKECH BRIAN BRIAN Acc. KBC,Completed,300,,32000,TRUE,Pay Utility,254707370896 - OKECH BRIAN BRIAN,,KBC
OGB9NZAET3,11/07/2020 15:06,11/07/2020 15:06,Pay Bill from 254721417560 - ANDREW SANDE Acc. JBJ,Completed,400,,31700,TRUE,Pay Utility,254721417560 - ANDREW SANDE,,JBJ
OGB4NU782Y,11/07/2020 12:49,11/07/2020 12:49,Pay Bill from 254724611087 - Francis Mukindya Muoki Acc. Kde,Completed,500,,31300,TRUE,Pay Utility with OD via STK,254724611087 - Francis Mukindya Muoki,,Kde
OGB2NS57IG,11/07/2020 11:53,11/07/2020 11:53,Pay Bill from 254703311892 - WINNIE ACHIENG' OPEYO Acc. v50,Completed,400,,30800,TRUE,Pay Utility,254703311892 - WINNIE ACHIENG' OPEYO,,v50
OGB9NR7R2X,11/07/2020 11:27,11/07/2020 11:27,Pay Bill from 254707358881 - SUSAN NZOMO Acc. v42,Completed,400,,30400,TRUE,Pay Utility,254707358881 - SUSAN NZOMO,,v42
OGB7NPEZ0P,11/07/2020 10:35,11/07/2020 10:35,Pay Bill from 254700218502 - GRACE NGURE Acc. v46,Completed,200,,30000,TRUE,Pay Utility,254700218502 - GRACE NGURE,,v46
OGB6NMYROG,11/07/2020 09:19,11/07/2020 09:19,Pay Bill Online from 254726116777 - MARY NDUTA GOSHO Acc. JDB,Completed,1200,,29800,TRUE,Pay Utility with OD Online,254726116777 - MARY NDUTA GOSHO,,JDB
OGA6NHFCN6,10/07/2020 22:00,10/07/2020 22:00,Pay Bill from 254726337163 - HALIMA ALI HASSAN Acc. DDA,Completed,500,,28600,TRUE,Pay Utility,254726337163 - HALIMA ALI HASSAN,,DDA
OGA2N8A812,10/07/2020 18:22,10/07/2020 18:22,Pay Bill Online from 254725604284 - BRIAN MURATHE WARUIRU Acc. FFA,Completed,1200,,28100,TRUE,Pay Bill Online,254725604284 - BRIAN MURATHE WARUIRU,,FFA
OGA4MQ4FYI,10/07/2020 10:32,10/07/2020 10:32,Pay Bill from 254728313347 - GEORGE KIMAIGA NYAMORI Acc. ici,Completed,400,,26900,TRUE,Pay Utility,254728313347 - GEORGE KIMAIGA NYAMORI,,ici
OGA8MNTI1K,10/07/2020 09:22,10/07/2020 09:22,Pay Bill from 254718818610 - HANNAH NALIAKA Acc. V23,Completed,200,,26500,TRUE,Pay Utility,254718818610 - HANNAH NALIAKA,,V23
OG93MJ8SLF,09/07/2020 22:37,09/07/2020 22:37,Pay Bill from 254721539716 - OCTAVIAN MWANYALO Acc. C6,Completed,200,,26300,TRUE,Pay Utility,254721539716 - OCTAVIAN MWANYALO,,C6
OG99MFPFJN,09/07/2020 20:26,09/07/2020 20:26,Pay Bill from 254729258441 - ROBERT RONO KULEI Acc. JAB,Completed,400,,26100,TRUE,Pay Utility,254729258441 - ROBERT RONO KULEI,,JAB
OG94MDQAHG,09/07/2020 19:45,09/07/2020 19:45,Pay Bill from 0715251159 - mediatrix davvy malo Acc. IAC,Completed,200,,25700,TRUE,Pay Utility,0715251159 - mediatrix davvy malo,,IAC
OG96LVGFOE,09/07/2020 12:28,09/07/2020 12:28,Pay Bill from 254726380203 - SHARON OLENDO Acc. HCA,Completed,800,,25500,TRUE,Pay Utility,254726380203 - SHARON OLENDO,,HCA
OG97LU36J3,09/07/2020 11:49,09/07/2020 11:49,Pay Bill from 254720107609 - DENNIS OGENDI BARAKE Acc. JAJ,Completed,1000,,24700,TRUE,Pay Utility,254720107609 - DENNIS OGENDI BARAKE,,JAJ
OG93LT8PWX,09/07/2020 11:25,09/07/2020 11:25,Pay Bill from 254701006375 - EZRA MAKORI SERETI Acc. IFB,Completed,400,,23700,TRUE,Pay Utility with OD via STK,254701006375 - EZRA MAKORI SERETI,,IFB
OG96LR8P8W,09/07/2020 10:26,09/07/2020 10:26,Pay Bill from 254715597659 - JOYCE KIVAI Acc. IED ,Completed,200,,23300,TRUE,Pay Utility,254715597659 - JOYCE KIVAI,,IED
OG91LM1QZV,09/07/2020 07:09,09/07/2020 07:09,Pay Bill from 254742112979 - RABBECCAH NGAO Acc. E2,Completed,1000,,23100,TRUE,Pay Utility with OD via STK,254742112979 - RABBECCAH NGAO,,E2
OG88LKMBUO,08/07/2020 23:14,08/07/2020 23:14,Pay Bill from 0714576438 - OCHOLA HESBON OCHIENG Acc. V06,Completed,600,,22100,TRUE,Pay Utility,0714576438 - OCHOLA HESBON OCHIENG,,V06
OG80LJFH0S,08/07/2020 21:46,08/07/2020 21:46,Pay Bill from 254728664261 - LEVIN INGATI NYONJE Acc. B1,Completed,200,,21500,TRUE,Pay Utility,254728664261 - LEVIN INGATI NYONJE,,B1
OG86LFOSAI,08/07/2020 20:00,08/07/2020 20:00,Pay Bill from 254702921564 - DENNIS MAHERO SHIUNDU Acc. Dennis V21,Completed,600,,21300,TRUE,Pay Utility,254702921564 - DENNIS MAHERO SHIUNDU,,Dennis
OG87LENLCL,08/07/2020 19:40,08/07/2020 19:40,Pay Bill from 254723935789 - EDWIN MWITI Acc. V43,Completed,400,,20700,TRUE,Pay Utility,254723935789 - EDWIN MWITI,,V43
OG87LCLC0L,08/07/2020 19:04,08/07/2020 19:04,Pay Bill from 254714114228 - MWANGO AWINO VIOLET Acc. DCB,Completed,500,,20300,TRUE,Pay Utility,254714114228 - MWANGO AWINO VIOLET,,DCB
OG76KJUKHA,07/07/2020 21:43,07/07/2020 21:43,Pay Bill Online from 254722170279 - GEOFFREY GETUI Acc. FDE,Completed,200,,19800,TRUE,Pay Bill Online,254722170279 - GEOFFREY GETUI,,FDE
OG79KIGWHV,07/07/2020 20:56,07/07/2020 20:56,Pay Bill from 254723071630 - KENNEDY KARANJA NJOROGE Acc. JBI,Completed,2600,,19600,TRUE,Pay Utility,254723071630 - KENNEDY KARANJA NJOROGE,,JBI
OG70KHHNR6,07/07/2020 20:30,07/07/2020 20:30,Pay Bill from 254701196539 - GICHURI KARANJA Acc. fee,Completed,400,,17000,TRUE,Pay Utility,254701196539 - GICHURI KARANJA,,fee
OG76KAH2ES,07/07/2020 18:22,07/07/2020 18:22,Pay Bill from 254720458054 - ROBERT BETT Acc. ICH,Completed,2000,,16600,TRUE,Pay Utility,254720458054 - ROBERT BETT,,ICH
OG78K98NZ8,07/07/2020 17:58,07/07/2020 17:58,Pay Bill from 254728238249 - ESTHER WANGUI KIBUNYI Acc. ICA,Completed,1200,,14600,TRUE,Pay Utility,254728238249 - ESTHER WANGUI KIBUNYI,,ICA
OG72K7PGOK,07/07/2020 17:26,07/07/2020 17:26,Pay Bill from 254703122244 - MABEL KAMANDA Acc. JGA,Completed,3800,,13400,TRUE,Pay Utility,254703122244 - MABEL KAMANDA,,JGA
OG78K5VQT2,07/07/2020 16:45,07/07/2020 16:45,Pay Bill from 254714710698 - TABITHA MULEE KYALO Acc. IFE,Completed,400,,9600,TRUE,Pay Utility,254714710698 - TABITHA MULEE KYALO,,IFE
OG78K2QDYS,07/07/2020 15:26,07/07/2020 15:26,Pay Bill from 254716587875 - PATRICIA WAITHERA MAINA Acc. V24,Completed,2000,,9200,TRUE,Pay Utility,254716587875 - PATRICIA WAITHERA MAINA,,V24
OG71JZN2WZ,07/07/2020 14:02,07/07/2020 14:02,Pay Bill from 0715688238 - JOANNAH ATUHAIRE BANTU Acc. JAE,Completed,200,,7200,TRUE,Pay Utility,0715688238 - JOANNAH ATUHAIRE BANTU,,JAE
OG75JY31UX,07/07/2020 13:20,07/07/2020 13:20,Pay Bill from 254724655033 - SUSAN CHIMOTO Acc. KGH,Completed,800,,7000,TRUE,Pay Utility,254724655033 - SUSAN CHIMOTO,,KGH
OG79JXAG1F,07/07/2020 12:58,07/07/2020 12:58,Pay Bill from 254721911181 - UBAH ALINOOR Acc. HDG ,Completed,1800,,6200,TRUE,Pay Utility,254721911181 - UBAH ALINOOR,,HDG
OG76JWEWJK,07/07/2020 12:34,07/07/2020 12:34,Pay Bill from 254712305555 - peris kiragu Acc. V 17,Completed,1200,,4400,TRUE,Pay Utility,254712305555 - peris kiragu,,V
OG72JQXU40,07/07/2020 09:57,07/07/2020 09:57,Pay Bill from 254725754547 - MWACHIRO GEORGE DECHE Acc. DFC,Completed,1800,,3200,TRUE,Pay Utility,254725754547 - MWACHIRO GEORGE DECHE,,DFC
OG74JQKCR0,07/07/2020 09:45,07/07/2020 09:45,Pay Bill from 0790924905 - KEVIN   KIDAGISA Acc. IGC,Completed,200,,1400,TRUE,Pay Utility,0790924905 - KEVIN   KIDAGISA,,IGC
OG72JP7BI2,07/07/2020 09:02,07/07/2020 09:02,Pay Bill Online from 254715121526 - ROBERT WAINAINA KARIUKI Acc. HAH,Completed,500,,1200,TRUE,Pay Bill Online,254715121526 - ROBERT WAINAINA KARIUKI,,HAH
OG72JOXB6Y,07/07/2020 08:52,07/07/2020 08:52,Pay Bill from 254792976771 - DANIEL MUTHAMA NDUNDA Acc. F1,Completed,700,,700,TRUE,Pay Utility with OD via STK,254792976771 - DANIEL MUTHAMA NDUNDA,,F1
OG73JOE05B,07/07/2020 08:33,07/07/2020 08:33,Utility Account to Organization Settlement Account,Completed,,-35450,0,TRUE,Utility Account to Organization Settlement Account,846783 - ANCIENT WELLS LTD 4,,
OG76JO8ANC,07/07/2020 08:27,07/07/2020 08:27,Pay Bill from 254729569271 - MESHACK OBOTTA OBOTTA OBARE Acc. V12,Completed,400,,35450,TRUE,Pay Utility,254729569271 - MESHACK OBOTTA OBOTTA OBARE,,V12
OG73JM3KU9,07/07/2020 06:11,07/07/2020 06:11,Pay Bill from 254700218502 - GRACE NGURE Acc. v46,Completed,200,,35050,TRUE,Pay Utility,254700218502 - GRACE NGURE,,v46
OG64JKT7SQ,06/07/2020 22:03,06/07/2020 22:03,Pay Bill from 254741791919 - Linet Mongina Maraga Acc. u3,Completed,900,,34850,TRUE,Pay Utility,254741791919 - Linet Mongina Maraga,,u3
OG68JK01UI,06/07/2020 21:27,06/07/2020 21:27,Pay Bill Online from 254712569636 - BENSON NYAGA Acc. v60,Completed,600,,33950,TRUE,Pay Utility with OD Online,254712569636 - BENSON NYAGA,,v60
OG66JJXADM,06/07/2020 21:24,06/07/2020 21:24,Pay Bill from 254710202776 - KELVIN KARIMI MACHARIA Acc. FAD,Completed,200,,33350,TRUE,Pay Utility,254710202776 - KELVIN KARIMI MACHARIA,,FAD
OG67JIHL07,06/07/2020 20:38,06/07/2020 20:38,Pay Bill from 254726827817 - ERWIN ADHOK Acc. kba,Completed,600,,33150,TRUE,Pay Utility,254726827817 - ERWIN ADHOK,,kba
OG69JIEVXT,06/07/2020 20:36,06/07/2020 20:36,Pay Bill from 254712954563 - JOSEPH MUTISO KILONZO Acc. dac,Completed,800,,32550,TRUE,Pay Utility,254712954563 - JOSEPH MUTISO KILONZO,,dac
OG63JCVDU3,06/07/2020 18:46,06/07/2020 18:46,Pay Bill from 254725815806 - WILFRED OGAYE Acc. HSE DCD,Completed,1600,,31750,TRUE,Pay Utility,254725815806 - WILFRED OGAYE,,HSE
OG64JCMVDW,06/07/2020 18:41,06/07/2020 18:41,Pay Bill from 254724953672 - MERCY MBETI Acc. JCA,Completed,2200,,30150,TRUE,Pay Utility,254724953672 - MERCY MBETI,,JCA
OG69J55E6P,06/07/2020 15:57,06/07/2020 15:57,Pay Bill from 254702764047 - FERDINAND K Acc. KDB,Completed,800,,27950,TRUE,Pay Utility,254702764047 - FERDINAND K,,KDB
OG62J4WSIG,06/07/2020 15:51,06/07/2020 15:51,Pay Bill from 254721510646 - ANTHONY IRUNGU KARIUKI Acc. v41,Completed,600,,27150,TRUE,Pay Utility,254721510646 - ANTHONY IRUNGU KARIUKI,,v41
OG68J3V83O,06/07/2020 15:23,06/07/2020 15:23,Pay Bill from 254728610675 - RUTH WAKOLI KISABULI Acc. KGC,Completed,400,,26550,TRUE,Pay Utility,254728610675 - RUTH WAKOLI KISABULI,,KGC
OG67IW4TYF,06/07/2020 11:50,06/07/2020 11:50,Pay Bill from 254708703539 - SUSAN NDUGIRE NDUGIRE Acc. Kda,Completed,600,,26150,TRUE,Pay Utility,254708703539 - SUSAN NDUGIRE NDUGIRE,,Kda
OG66IVWUJ6,06/07/2020 11:44,06/07/2020 11:44,Pay Bill from 254700745283 - WINFRED MUTHEU NYAMAI Acc. E5,Completed,450,,25550,TRUE,Pay Utility,254700745283 - WINFRED MUTHEU NYAMAI,,E5
OG67IUS5J7,06/07/2020 11:12,06/07/2020 11:12,Pay Bill from 254717897455 - VIOLA OCHIENO Acc. E3,Completed,400,,25100,TRUE,Pay Utility with OD via STK,254717897455 - VIOLA OCHIENO,,E3
OG61ISDWVT,06/07/2020 10:04,06/07/2020 10:04,Pay Bill Online from 254717809935 - LYDIAH WERU Acc. IDC,Completed,400,,24700,TRUE,Pay Utility with OD Online,254717809935 - LYDIAH WERU,,IDC
OG64IQU3VG,06/07/2020 09:16,06/07/2020 09:16,Pay Bill from 254748104979 - JAMES GITHOGORI NGARI Acc. Kfb,Completed,600,,24300,TRUE,Pay Utility,254748104979 - JAMES GITHOGORI NGARI,,Kfb
OG61IPT6VR,06/07/2020 08:42,06/07/2020 08:42,Pay Bill from 254718138578 - PAULINE KIOKO Acc. KFD,Completed,600,,23700,TRUE,Pay Utility,254718138578 - PAULINE KIOKO,,KFD
OG56IMIKLM,05/07/2020 23:24,05/07/2020 23:24,Pay Bill from 254705163028 - VICTORIA MUTHONI NJIRU Acc. IFD,Completed,200,,23100,TRUE,Pay Utility,254705163028 - VICTORIA MUTHONI NJIRU,,IFD
OG55IM7L9D,05/07/2020 22:43,05/07/2020 22:43,Pay Bill from 254713159153 - GUYO SANKALA Acc. DGD,Completed,2000,,22900,TRUE,Pay Utility,254713159153 - GUYO SANKALA,,DGD
OG50IJ8ZVE,05/07/2020 20:33,05/07/2020 20:33,Pay Bill from 254791154655 - ELISHA JURA Acc. IAH,Completed,1500,,20900,TRUE,Pay Utility,254791154655 - ELISHA JURA,,IAH
OG52IHUVG0,05/07/2020 19:59,05/07/2020 19:59,Pay Bill from 254713115724 - ROTICH JUDITH JUDITH CHERONO Acc. KCK,Completed,600,,19400,TRUE,Pay Utility,254713115724 - ROTICH JUDITH JUDITH CHERONO,,KCK
OG51IGWH67,05/07/2020 19:38,05/07/2020 19:38,Pay Bill from 254726001708 - MARTHA ATIENO ATIENO OSALO Acc. IBI,Completed,1300,,18800,TRUE,Pay Utility,254726001708 - MARTHA ATIENO ATIENO OSALO,,IBI
OG56IGIG3U,05/07/2020 19:30,05/07/2020 19:30,Pay Bill from 254710814215 - JOAN NYAMBURA KAMAU Acc. jci,Completed,1600,,17500,TRUE,Pay Utility,254710814215 - JOAN NYAMBURA KAMAU,,jci
OG55IG80SF,05/07/2020 19:25,05/07/2020 19:25,Pay Bill from 254721894887 - EDMOND NYAMWEYA Acc. Dad,Completed,800,,15900,TRUE,Pay Utility,254721894887 - EDMOND NYAMWEYA,,Dad
OG57IFCUKH,05/07/2020 19:08,05/07/2020 19:08,Pay Bill from 0768391388 - VENANTIUS OKURUT EMOIT Acc. DED,Completed,1100,,15100,TRUE,Pay Utility,0768391388 - VENANTIUS OKURUT EMOIT,,DED
OG53IF9HCR,05/07/2020 19:06,05/07/2020 19:06,Pay Bill from 254723341864 - WILLIAM OSIEL WACHUDI Acc. DED,Completed,1500,,14000,TRUE,Pay Utility,254723341864 - WILLIAM OSIEL WACHUDI,,DED
OG58IDMOZ6,05/07/2020 18:32,05/07/2020 18:32,Pay Bill from 254722307003 - NIGEL BOMETT Acc. V01,Completed,400,,12500,TRUE,Pay Utility,254722307003 - NIGEL BOMETT,,V01
OG51I8LH61,05/07/2020 16:33,05/07/2020 16:33,Pay Bill Online from 254711184244 - KIPROP FESTUS Acc. Festus Kiprop C1p,Completed,200,,12100,TRUE,Pay Bill Online,254711184244 - KIPROP FESTUS,,Festus
OG56I8832W,05/07/2020 16:24,05/07/2020 16:24,Pay Bill from 254723389922 - ANNE WANJIKU Acc. V53,Completed,500,,11900,TRUE,Pay Utility,254723389922 - ANNE WANJIKU,,V53
OG57I4Q6VH,05/07/2020 14:49,05/07/2020 14:49,Pay Bill from 254704833344 - LOISE KIMANI Acc. jfa,Completed,3000,,11400,TRUE,Pay Utility,254704833344 - LOISE KIMANI,,jfa
OG56I43MAO,05/07/2020 14:31,05/07/2020 14:31,Pay Bill from 254729948896 - CAROLINE V MILIZA Acc. Fec,Completed,1400,,8400,TRUE,Pay Utility,254729948896 - CAROLINE V MILIZA,,Fec
OG53HXAVOX,05/07/2020 11:15,05/07/2020 11:15,Pay Bill from 254792891094 - WINNIE ODHIAMBO Acc. HFD,Completed,400,,7000,TRUE,Pay Utility,254792891094 - WINNIE ODHIAMBO,,HFD
OG55HX4L91,05/07/2020 11:10,05/07/2020 11:10,Pay Bill from 254718233980 - KAREN ASWANI Acc. HEC,Completed,200,,6600,TRUE,Pay Utility,254718233980 - KAREN ASWANI,,HEC
OG55HX3CH3,05/07/2020 11:09,05/07/2020 11:09,Pay Bill from 254790610309 - MESHACK CHUMBA Acc. V39,Completed,200,,6400,TRUE,Pay Utility,254790610309 - MESHACK CHUMBA,,V39
OG52HWXOJW,05/07/2020 11:04,05/07/2020 11:04,Pay Bill from 254721302658 - JACOB BIRUNDU Acc. DDB,Completed,400,,6200,TRUE,Pay Utility,254721302658 - JACOB BIRUNDU,,DDB
OG55HSYSNZ,05/07/2020 08:53,05/07/2020 08:53,Pay Bill from 254726465584 - JULIANA MUKELI MUTUNGA Acc. v4,Completed,600,,5800,TRUE,Pay Utility,254726465584 - JULIANA MUKELI MUTUNGA,,v4
OG50HQ4OA4,05/07/2020 02:12,05/07/2020 02:12,Pay Bill from 254727648419 - ABDISALAN AHMED Acc. Jbh ,Completed,1000,,5200,TRUE,Pay Utility,254727648419 - ABDISALAN AHMED,,Jbh
OG46HL1O2G,04/07/2020 20:11,04/07/2020 20:11,Pay Bill from 254798524621 - MERCY CHESANG Acc. JCJ,Completed,800,,4200,TRUE,Pay Utility,254798524621 - MERCY CHESANG,,JCJ
OG41HHJCNX,04/07/2020 19:05,04/07/2020 19:05,Pay Bill from 254719626804 - PAUL NJOROGE Acc. JFI,Completed,1400,,3400,TRUE,Pay Utility,254719626804 - PAUL NJOROGE,,JFI
OG42H9WWH0,04/07/2020 16:32,04/07/2020 16:32,Pay Bill from 254722706516 - KORIR ANTHONY Acc. Anthony D 3,Completed,200,,2000,TRUE,Pay Utility,254722706516 - KORIR ANTHONY,,Anthony
OG48H9W7YO,04/07/2020 16:32,04/07/2020 16:32,Pay Bill from 254725255978 - DICKSON OLUOCH Acc. JFF,Completed,400,,1800,TRUE,Pay Utility,254725255978 - DICKSON OLUOCH,,JFF
OG43H3GUAH,04/07/2020 13:54,04/07/2020 13:54,Pay Bill from 254719398942 - NORAH WAYUA MUNYAO Acc. KDC,Completed,800,,1400,TRUE,Pay Utility,254719398942 - NORAH WAYUA MUNYAO,,KDC
OG48H3BV2O,04/07/2020 13:51,04/07/2020 13:51,Pay Bill Online from 254726313835 - SYLVIA JUMA Acc. HDF,Completed,600,,600,TRUE,Pay Bill Online,254726313835 - SYLVIA JUMA,,HDF
OG47H39UY9,04/07/2020 13:49,04/07/2020 13:49,Utility Account to Organization Settlement Account,Completed,,-63100,0,TRUE,Utility Account to Organization Settlement Account,846783 - ANCIENT WELLS LTD 4,,
OG47H2K8SR,04/07/2020 13:31,04/07/2020 13:31,Pay Bill from 254791798688 - EMILY AWUOR HAWI Acc. v50,Completed,400,,63100,TRUE,Pay Utility,254791798688 - EMILY AWUOR HAWI,,v50
OG41H1KTIL,04/07/2020 13:05,04/07/2020 13:05,Pay Bill Online from 254724754662 - CHARLES ERUKUDI EKAI Acc. FBE,Completed,2000,,62700,TRUE,Pay Bill Online,254724754662 - CHARLES ERUKUDI EKAI,,FBE
OG41H0XLX7,04/07/2020 12:48,04/07/2020 12:48,Pay Bill from 254729371750 - DERRICK OTANGA Acc. FEF,Completed,800,,60700,TRUE,Pay Utility,254729371750 - DERRICK OTANGA,,FEF
OG46GZVE8W,04/07/2020 12:20,04/07/2020 12:20,Pay Bill from 254722521028 - CHARLES MONYONCHO Acc. HCC,Completed,2200,,59900,TRUE,Pay Utility,254722521028 - CHARLES MONYONCHO,,HCC
OG43GTNKJB,04/07/2020 09:26,04/07/2020 09:26,Pay Bill from 0769001671 - Wilson Mutangili Wambua Acc. haf,Completed,600,,57700,TRUE,Pay Utility,0769001671 - Wilson Mutangili Wambua,,haf
OG40GQJEPA,04/07/2020 07:29,04/07/2020 07:29,Pay Bill from 254705445188 - SHEILA KIPKEMBOI Acc. D5,Completed,400,,57100,TRUE,Pay Utility,254705445188 - SHEILA KIPKEMBOI,,D5
OG49GPBFAR,04/07/2020 01:44,04/07/2020 01:44,Pay Bill from 254711877988 - PATRICK KONZI Acc. b4,Completed,200,,56700,TRUE,Pay Utility,254711877988 - PATRICK KONZI,,b4
OG35GKV8R3,03/07/2020 20:25,03/07/2020 20:25,Pay Bill from 254704995854 - james karanja wairimu Acc. V54,Completed,200,,56500,TRUE,Pay Utility,254704995854 - james karanja wairimu,,V54
OG31GKGXSD,03/07/2020 20:15,03/07/2020 20:15,Pay Bill from 254729796719 - JACINTA WANJIKU NJERI Acc. FFF,Completed,600,,56300,TRUE,Pay Utility,254729796719 - JACINTA WANJIKU NJERI,,FFF
OG36GHAPX0,03/07/2020 19:15,03/07/2020 19:15,Pay Bill Online from 0743369961 - SALOME WANGARI KIBUGI Acc. KGD,Completed,400,,55700,TRUE,Pay Bill Online,0743369961 - SALOME WANGARI KIBUGI,,KGD
OG36GG2WRS,03/07/2020 18:54,03/07/2020 18:54,Pay Bill from 254706237502 - STEPHEN WERE Acc. IBA,Completed,400,,55300,TRUE,Pay Utility,254706237502 - STEPHEN WERE,,IBA
OG39GFESZB,03/07/2020 18:42,03/07/2020 18:42,Pay Bill Online from 254713498554 - HENRY KINYUA WARUI Acc. V44  Henry Warui,Completed,1000,,54900,TRUE,Pay Bill Online,254713498554 - HENRY KINYUA WARUI,,V44
OG30G9E498,03/07/2020 16:39,03/07/2020 16:39,Pay Bill from 254725094113 - BRAXTON LUMWAJI Acc. DDC,Completed,4600,,53900,TRUE,Pay Utility,254725094113 - BRAXTON LUMWAJI,,DDC
OG32G4OZMQ,03/07/2020 14:39,03/07/2020 14:39,Pay Bill from 254724882554 - ALPHONCE WAMBUA NGELI Acc. JDA,Completed,2200,,49300,TRUE,Pay Utility,254724882554 - ALPHONCE WAMBUA NGELI,,JDA
OG32G0XMEM,03/07/2020 12:58,03/07/2020 12:58,Pay Bill from 254728364280 - EMMANUEL THUMA OYIER Acc. IDF,Completed,500,,47100,TRUE,Pay Utility,254728364280 - EMMANUEL THUMA OYIER,,IDF
OG30FZG9T6,03/07/2020 12:19,03/07/2020 12:19,Pay Bill Online from 254703528196 - ERIC GITONGA MUGO Acc. KGJ,Completed,400,,46600,TRUE,Pay Bill Online,254703528196 - ERIC GITONGA MUGO,,KGJ
OG35FXT3EV,03/07/2020 11:33,03/07/2020 11:33,Pay Bill from 0745440551 - DON ONYANGO ODERO KOBONG Acc. HDE,Completed,1600,,46200,TRUE,Pay Utility,0745440551 - DON ONYANGO ODERO KOBONG,,HDE
OG38FWZJ2U,03/07/2020 11:09,03/07/2020 11:09,Pay Bill from 254728476791 - CAROLE ACHIENG Acc. KCF,Completed,1200,,44600,TRUE,Pay Utility,254728476791 - CAROLE ACHIENG,,KCF
OG35FWMF7T,03/07/2020 10:59,03/07/2020 10:59,Pay Bill from 254714538946 - GRACE WANJIRU KIBUE Acc. deb,Completed,1800,,43400,TRUE,Pay Utility,254714538946 - GRACE WANJIRU KIBUE,,deb
OG38FVEF0S,03/07/2020 10:24,03/07/2020 10:24,Pay Bill from 254715949223 - JAMES ONYANGO Acc. KAG,Completed,400,,41600,TRUE,Pay Utility with OD via STK,254715949223 - JAMES ONYANGO,,KAG
OG38FTV4VS,03/07/2020 09:38,03/07/2020 09:38,Pay Bill from 254712091662 - BENARD OMONDI ROBY Acc. V16,Completed,600,,41200,TRUE,Pay Utility,254712091662 - BENARD OMONDI ROBY,,V16
OG36FPWHJS,03/07/2020 06:50,03/07/2020 06:50,Pay Bill from 254708786932 - ZUBEDAH MOHAMMED Acc. IAG,Completed,800,,40600,TRUE,Pay Utility,254708786932 - ZUBEDAH MOHAMMED,,IAG
OG22FMLE32,02/07/2020 20:59,02/07/2020 20:59,Pay Bill from 254725074792 - CAROLINE KURI Acc. KCA,Completed,1600,,39800,TRUE,Pay Utility,254725074792 - CAROLINE KURI,,KCA
OG29FLZEYF,02/07/2020 20:42,02/07/2020 20:42,Pay Bill from 0758826849 -  Norah Awala Anyango Acc. IDH,Completed,1500,,38200,TRUE,Pay Utility,0758826849 -  Norah Awala Anyango,,IDH
OG22FKQXEO,02/07/2020 20:11,02/07/2020 20:11,Pay Bill from 254717672307 - LIZZY AWUOR OBONYO Acc. HAE,Completed,600,,36700,TRUE,Pay Utility,254717672307 - LIZZY AWUOR OBONYO,,HAE
OG20FJTKCA,02/07/2020 19:52,02/07/2020 19:52,Pay Bill from 254703246217 - AMBROSE ADOCHE MIRASI Acc. D4,Completed,400,,36100,TRUE,Pay Utility,254703246217 - AMBROSE ADOCHE MIRASI,,D4
OG27FJP25L,02/07/2020 19:50,02/07/2020 19:50,Pay Bill Online from 254720787158 - AMOS CHELANG'A Acc. KFK,Completed,1400,,35700,TRUE,Pay Bill Online,254720787158 - AMOS CHELANG'A,,KFK
OG29FH5A6L,02/07/2020 19:05,02/07/2020 19:05,Pay Bill from 254712757681 - DENNIS MURANGO Acc. jdi,Completed,4600,,34300,TRUE,Pay Utility,254712757681 - DENNIS MURANGO,,jdi
OG27FG1GXB,02/07/2020 18:45,02/07/2020 18:45,Pay Bill from 254729508187 - PATRICK SOLOMON GUDA Acc. IGF,Completed,3000,,29700,TRUE,Pay Utility,254729508187 - PATRICK SOLOMON GUDA,,IGF
OG27FFA12T,02/07/2020 18:31,02/07/2020 18:31,Pay Bill from 254708619274 - BONIFACE MUTUA Acc. IFF,Completed,800,,26700,TRUE,Pay Utility,254708619274 - BONIFACE MUTUA,,IFF
OG21FB2L93,02/07/2020 17:04,02/07/2020 17:04,Pay Bill from 254724871526 - JOHN KAGUONGO Acc. D2,Completed,800,,25900,TRUE,Pay Utility,254724871526 - JOHN KAGUONGO,,D2
OG29F0AL99,02/07/2020 12:17,02/07/2020 12:17,Pay Bill from 254716499837 - ASHA MUSA Acc. JFD,Completed,800,,25100,TRUE,Pay Utility,254716499837 - ASHA MUSA,,JFD
OG29EY8FZN,02/07/2020 11:19,02/07/2020 11:19,Pay Bill from 254721465713 - RHODA WAMBUI MWANGI Acc. Jfh,Completed,1000,,24300,TRUE,Pay Utility,254721465713 - RHODA WAMBUI MWANGI,,Jfh
OG26EXUZLS,02/07/2020 11:09,02/07/2020 11:09,Pay Bill from 254714855708 - KIPLANGAT SITIENEI Acc. FAE,Completed,1000,,23300,TRUE,Pay Utility,254714855708 - KIPLANGAT SITIENEI,,FAE
OG27EXGTJB,02/07/2020 10:57,02/07/2020 10:57,Pay Bill from 254799376885 - DERRICK OSORE SONGORO Acc. V58,Completed,600,,22300,TRUE,Pay Utility,254799376885 - DERRICK OSORE SONGORO,,V58
OG26EVT494,02/07/2020 10:09,02/07/2020 10:09,Pay Bill from 254718292893 - HERINE ELSEBA ATIENO Acc. IFI,Completed,1700,,21700,TRUE,Pay Utility,254718292893 - HERINE ELSEBA ATIENO,,IFI
OG22EQLW04,02/07/2020 06:03,02/07/2020 06:03,Pay Bill from 254791154655 - ELISHA JURA Acc. IAH,Completed,1500,,20000,TRUE,Pay Utility,254791154655 - ELISHA JURA,,IAH
OG11EPOYQ3,01/07/2020 23:10,01/07/2020 23:10,Pay Bill from 254798643998 - Judith Mwaniki Acc. KCE,Completed,1200,,18500,TRUE,Pay Utility with OD via STK,254798643998 - Judith Mwaniki,,KCE
OG18EPBFTE,01/07/2020 22:29,01/07/2020 22:29,Pay Bill from 254716369842 - HUMMAM HAMID MOHAMED SAID AMBER Acc. FGC,Completed,200,,17300,TRUE,Pay Utility,254716369842 - HUMMAM HAMID MOHAMED SAID AMBER,,FGC
OG19EP9H81,01/07/2020 22:25,01/07/2020 22:25,Pay Bill from 254798146452 - VALARY ODHIAMBO Acc. JEE,Completed,1200,,17100,TRUE,Pay Utility,254798146452 - VALARY ODHIAMBO,,JEE
OG19EP6VDF,01/07/2020 22:20,01/07/2020 22:20,Pay Bill from 254708915764 - GEORGE WAHOME Acc. V18,Completed,400,,15900,TRUE,Pay Utility,254708915764 - GEORGE WAHOME,,V18
OG17EP6HGT,01/07/2020 22:19,01/07/2020 22:19,Pay Bill from 254720062144 - CAROLINE AMONDI OKELO Acc. F4,Completed,3000,,15500,TRUE,Pay Utility,254720062144 - CAROLINE AMONDI OKELO,,F4
OG12EOFKVS,01/07/2020 21:41,01/07/2020 21:41,Pay Bill Online from 254795983642 - OBED MOGAKA Acc. F6 OBED ,Completed,200,,12500,TRUE,Pay Bill Online,254795983642 - OBED MOGAKA,,F6
OG19EMYHUH,01/07/2020 20:49,01/07/2020 20:49,Pay Bill from 254722444622 - CHARITY KAGWAINI Acc. FFD,Completed,200,,12300,TRUE,Pay Utility,254722444622 - CHARITY KAGWAINI,,FFD
OG17ELPRFF,01/07/2020 20:17,01/07/2020 20:17,Pay Bill from 254718359438 - AHMAD TAHIR MACHENGO Acc. V11,Completed,400,,12100,TRUE,Pay Utility,254718359438 - AHMAD TAHIR MACHENGO,,V11
OG16EFWAYG,01/07/2020 18:30,01/07/2020 18:30,Pay Bill from 254726593769 - BONFACE BWINA Acc. DEB,Completed,1800,,11700,TRUE,Pay Utility,254726593769 - BONFACE BWINA,,DEB
OG13EBLFGB,01/07/2020 17:04,01/07/2020 17:04,Pay Bill Online from 254711724272 - EDMOND ONYANGO OKEWE Acc. FCE,Completed,1000,,9900,TRUE,Pay Bill Online,254711724272 - EDMOND ONYANGO OKEWE,,FCE
OG16E6SUD0,01/07/2020 15:04,01/07/2020 15:04,Pay Bill from 254718417450 - HARON ASUMA OROKO Acc. haron v47,Completed,400,,8900,TRUE,Pay Utility,254718417450 - HARON ASUMA OROKO,,haron
OG15E6B8RJ,01/07/2020 14:51,01/07/2020 14:51,Pay Bill from 254719499823 - MOSES MWANZIA MUTHIANI Acc. JCC,Completed,2500,,8500,TRUE,Pay Utility,254719499823 - MOSES MWANZIA MUTHIANI,,JCC
OG17E60O3F,01/07/2020 14:43,01/07/2020 14:43,Pay Bill from 254714209770 - PURITY NDUKU KYALO Acc. JEB,Completed,1200,,6000,TRUE,Pay Utility,254714209770 - PURITY NDUKU KYALO,,JEB
OG12E545RW,01/07/2020 14:18,01/07/2020 14:18,Pay Bill from 0717042461 - Sharon Nyangasi Shivachi Acc. V55,Completed,200,,4800,TRUE,Pay Utility,0717042461 - Sharon Nyangasi Shivachi,,V55
OG10E3HREA,01/07/2020 13:34,01/07/2020 13:34,Pay Bill from 254791910715 - BOAZ OMAE MORARO Acc. ICC,Completed,3000,,4600,TRUE,Pay Utility,254791910715 - BOAZ OMAE MORARO,,ICC
OG19E0SOTJ,01/07/2020 12:18,01/07/2020 12:18,Pay Bill from 254798674917 - Egbe Okpaga Okpaga Acc. HAD,Completed,600,,1600,TRUE,Pay Utility,254798674917 - Egbe Okpaga Okpaga,,HAD
OG14E0RXR8,01/07/2020 12:18,01/07/2020 12:18,Pay Bill from 254798674917 - Egbe Okpaga Okpaga Acc. HAD,Completed,400,,1000,TRUE,Pay Utility,254798674917 - Egbe Okpaga Okpaga,,HAD
OG16E0OLLQ,01/07/2020 12:15,01/07/2020 12:15,Pay Bill from 254722986239 - CLAIRE IRENE WANGARI NJERI Acc. FFE,Completed,600,,600,TRUE,Pay Utility,254722986239 - CLAIRE IRENE WANGARI NJERI,,FFE
OG12DZY1E0,01/07/2020 11:54,01/07/2020 11:54,Utility Account to Organization Settlement Account,Completed,,-32170,0,TRUE,Utility Account to Organization Settlement Account,846783 - ANCIENT WELLS LTD 4,,
OG15DZFLAB,01/07/2020 11:40,01/07/2020 11:40,Pay Bill from 254718292893 - HERINE ELSEBA ATIENO Acc. IFI,Completed,1000,,32170,TRUE,Pay Utility,254718292893 - HERINE ELSEBA ATIENO,,IFI
OG16DYVTPY,01/07/2020 11:24,01/07/2020 11:24,Pay Bill from 254725771056 - CHARLES MURAGURI Acc. FCC,Completed,800,,31170,TRUE,Pay Utility,254725771056 - CHARLES MURAGURI,,FCC
