Receipt No.,Completion Time,Initiation Time,Details,Transaction Status,Paid In,Withdrawn,Balance,Balance Confirmed,Reason Type,Other Party Info,Linked Transaction ID,A/C No.
PGU1ZGR6EX,30/07/2021 21:07,30/07/2021 21:07,Pay Bill from 254715144865 - CAROL JULIET MUGOYA Acc. E2 Carol Juliet,Completed,8000,,8000,TRUE,Pay Utility,254715144865 - CAROL JULIET MUGOYA,,E2
PGT9WWDLTH,29/07/2021 09:19,29/07/2021 09:19,Utility Account to Organization Settlement Account,Completed,,-2300,0,TRUE,Utility Account to Organization Settlement Account,887075 - ANCIENT WELLS LTD 3,,
PGS1WPA1HL,28/07/2021 23:33,28/07/2021 23:33,Merchant Pay Utility Received from 708689 - PALACE      BUTCHERY  2 Acc. CHRISTOPHER,Completed,1000,,2300,TRUE,Merchant Pay Utility via API,708689 - PALACE      BUTCHERY  2,,CHRISTOPHER
PGS9VHKSKD,28/07/2021 09:38,28/07/2021 09:38,Pay Bill from 254729110577 - GREGORY ONESMUS KIMANTHI Acc. D6,Completed,1300,,1300,TRUE,Pay Utility with OD via STK,254729110577 - GREGORY ONESMUS KIMANTHI,,D6
PGS0VE3L92,28/07/2021 08:17,28/07/2021 08:17,Utility Account to Organization Settlement Account,Completed,,-9550,0,TRUE,Utility Account to Organization Settlement Account,887075 - ANCIENT WELLS LTD 3,,
PGS8VAVYNY,28/07/2021 05:28,28/07/2021 05:28,Pay Bill Online from 254703451075 - SHICHENGA MARK Acc. D2,Completed,8000,,9550,TRUE,Pay Bill Online,254703451075 - SHICHENGA MARK,,D2
PGQ6TQDZRQ,26/07/2021 21:39,26/07/2021 21:39,Merchant Pay Utility Received from 708689 - PALACE      BUTCHERY  2 Acc. CHRISTOPHER,Completed,1000,,1550,TRUE,Merchant Pay Utility via API,708689 - PALACE      BUTCHERY  2,,CHRISTOPHER
PGQ0T7G5GC,26/07/2021 17:02,26/07/2021 17:02,Pay Bill from 254720377961 - HANNINGTON OJWANG Acc. toffee,Completed,550,,550,TRUE,Pay Utility,254720377961 - HANNINGTON OJWANG,,toffee
PGP5RW047P,25/07/2021 18:05,25/07/2021 18:05,Utility Account to Organization Settlement Account,Completed,,-8000,0,TRUE,Utility Account to Organization Settlement Account,887075 - ANCIENT WELLS LTD 3,,
PGP3RQA6TP,25/07/2021 16:22,25/07/2021 16:22,Pay Bill Online from 254727725587 - IVY MACHARIA Acc. B2,Completed,8000,,8000,TRUE,Pay Bill Online,254727725587 - IVY MACHARIA,,B2
PGP7RHWV3R,25/07/2021 13:34,25/07/2021 13:34,Utility Account to Organization Settlement Account,Completed,,-1000,0,TRUE,Utility Account to Organization Settlement Account,887075 - ANCIENT WELLS LTD 3,,
PGO9R1547Z,24/07/2021 23:45,24/07/2021 23:45,Merchant Pay Utility Received from 708689 - PALACE      BUTCHERY  2 Acc. CHRISTOPHER,Completed,1000,,1000,TRUE,Merchant Pay Utility via API,708689 - PALACE      BUTCHERY  2,,CHRISTOPHER
PGO3POWF1B,24/07/2021 08:11,24/07/2021 08:11,Utility Account to Organization Settlement Account,Completed,,-8000,0,TRUE,Utility Account to Organization Settlement Account,887075 - ANCIENT WELLS LTD 3,,
PGN2OU6ER6,23/07/2021 15:37,23/07/2021 15:37,Pay Bill from 254713701237 - Michael Wanjala Acc. G2,Completed,8000,,8000,TRUE,Pay Utility,254713701237 - Michael Wanjala,,G2
PGM9N2NQAP,22/07/2021 12:10,22/07/2021 12:10,Utility Account to Organization Settlement Account,Completed,,-1000,0,TRUE,Utility Account to Organization Settlement Account,887075 - ANCIENT WELLS LTD 3,,
PGM9MNK2CZ,22/07/2021 00:57,22/07/2021 00:57,Merchant Pay Utility Received from 708689 - PALACE      BUTCHERY  2 Acc. CHRISTOPHER,Completed,1000,,1000,TRUE,Merchant Pay Utility via API,708689 - PALACE      BUTCHERY  2,,CHRISTOPHER
PGL8M14SRG,21/07/2021 16:48,21/07/2021 16:48,Utility Account to Organization Settlement Account,Completed,,-1000,0,TRUE,Utility Account to Organization Settlement Account,887075 - ANCIENT WELLS LTD 3,,
PGL6L941QU,21/07/2021 06:07,21/07/2021 06:07,Pay Bill Online from 254720201580 - CHRISTOPHER OTUOMA Acc. CHRISTOPHER,Completed,1000,,1000,TRUE,Pay Bill Online,254720201580 - CHRISTOPHER OTUOMA,,CHRISTOPHER
PGK8L2OJSY,20/07/2021 20:46,20/07/2021 20:46,Utility Account to Organization Settlement Account,Completed,,-2000,0,TRUE,Utility Account to Organization Settlement Account,887075 - ANCIENT WELLS LTD 3,,
PGK6KDBL4C,20/07/2021 13:36,20/07/2021 13:36,Pay Bill from 254713229967 - John Mugabo Simba Acc. E4,Completed,2000,,2000,TRUE,Pay Utility with OD via STK,254713229967 - John Mugabo Simba,,E4
PGK8K13RCA,20/07/2021 09:21,20/07/2021 09:21,Utility Account to Organization Settlement Account,Completed,,-1000,0,TRUE,Utility Account to Organization Settlement Account,887075 - ANCIENT WELLS LTD 3,,
PGJ2JU8CLW,19/07/2021 22:57,19/07/2021 22:57,Merchant Pay Utility Received from 708689 - PALACE      BUTCHERY  2 Acc. CHRISTOPHER,Completed,1000,,1000,TRUE,Merchant Pay Utility via API,708689 - PALACE      BUTCHERY  2,,CHRISTOPHER
PGI9H8MH5F,18/07/2021 07:47,18/07/2021 07:47,Utility Account to Organization Settlement Account,Completed,,-1000,0,TRUE,Utility Account to Organization Settlement Account,887075 - ANCIENT WELLS LTD 3,,
PGI8H6SL1A,18/07/2021 03:25,18/07/2021 03:25,Merchant Pay Utility Received from 708689 - PALACE      BUTCHERY  2 Acc. CHRISTOPHER,Completed,1000,,1000,TRUE,Merchant Pay Utility via API,708689 - PALACE      BUTCHERY  2,,CHRISTOPHER
PGH2H4FEES,17/07/2021 22:13,17/07/2021 22:13,Utility Account to Organization Settlement Account,Completed,,-11000,0,TRUE,Utility Account to Organization Settlement Account,887075 - ANCIENT WELLS LTD 3,,
PGH2H3IDEW,17/07/2021 21:45,17/07/2021 21:45,Pay Bill from 254711428856 - JAPHETH OTSIENO BARASA Acc. Japheth Barasa A5,Completed,11000,,11000,TRUE,Pay Utility,254711428856 - JAPHETH OTSIENO BARASA,,Japheth
PGH7GI0RVF,17/07/2021 16:15,17/07/2021 16:15,Utility Account to Organization Settlement Account,Completed,,-15500,0,TRUE,Utility Account to Organization Settlement Account,887075 - ANCIENT WELLS LTD 3,,
PGH6GB0VI0,17/07/2021 14:05,17/07/2021 14:05,Pay Bill from 254726432241 - STEPHEN MAYABI Acc. A1,Completed,7500,,15500,TRUE,Pay Utility with OD via STK,254726432241 - STEPHEN MAYABI,,A1
PGG1FPK4WF,16/07/2021 23:33,16/07/2021 23:33,Pay Bill Online from 254720062144 - CAROLINE AMONDI OKELO Acc. f4,Completed,7000,,8000,TRUE,Pay Bill Online,254720062144 - CAROLINE AMONDI OKELO,,f4
PGG6FOOAK8,16/07/2021 22:37,16/07/2021 22:37,Merchant Pay Utility Received from 708689 - PALACE      BUTCHERY  2 Acc. CHRISTOPHER,Completed,1000,,1000,TRUE,Merchant Pay Utility via API,708689 - PALACE      BUTCHERY  2,,CHRISTOPHER
PGG0EVLPF4,16/07/2021 14:47,16/07/2021 14:47,Utility Account to Organization Settlement Account,Completed,,-5000,0,TRUE,Utility Account to Organization Settlement Account,887075 - ANCIENT WELLS LTD 3,,
PGG0ENQUUM,16/07/2021 12:19,16/07/2021 12:19,Pay Bill Online from 254703176849 - ROYAL MUYA Acc. F2,Completed,4000,,5000,TRUE,Pay Bill Online,254703176849 - ROYAL MUYA,,F2
PGF0E65BJ0,15/07/2021 22:40,15/07/2021 22:40,Merchant Pay Utility Received from 708689 - PALACE      BUTCHERY  2 Acc. CHRISTOPHER,Completed,1000,,1000,TRUE,Merchant Pay Utility via API,708689 - PALACE      BUTCHERY  2,,CHRISTOPHER
PGF7DB0WG5,15/07/2021 13:45,15/07/2021 13:45,Utility Account to Organization Settlement Account,Completed,,-15000,0,TRUE,Utility Account to Organization Settlement Account,887075 - ANCIENT WELLS LTD 3,,
PGF0D941K8,15/07/2021 13:09,15/07/2021 13:09,Pay Bill from 254704375822 - EDEL NJOKI KIMANI Acc. F3,Completed,4100,,15000,TRUE,Pay Utility with OD via STK,254704375822 - EDEL NJOKI KIMANI,,F3
PGF1D8A61X,15/07/2021 12:53,15/07/2021 12:53,Pay Bill from 254704375822 - EDEL NJOKI KIMANI Acc. F3,Completed,9900,,10900,TRUE,Pay Utility with OD via STK,254704375822 - EDEL NJOKI KIMANI,,F3
PGE3CQDZF7,14/07/2021 23:13,14/07/2021 23:13,Pay Bill Online from 254720201580 - CHRISTOPHER OTUOMA Acc. CHRISTOPHER,Completed,1000,,1000,TRUE,Pay Bill Online,254720201580 - CHRISTOPHER OTUOMA,,CHRISTOPHER
PGE0BHHVE0,14/07/2021 09:05,14/07/2021 09:05,Utility Account to Organization Settlement Account,Completed,,-9500,0,TRUE,Utility Account to Organization Settlement Account,887075 - ANCIENT WELLS LTD 3,,
PGE3BBBMC1,14/07/2021 00:22,14/07/2021 00:22,Merchant Pay Utility Received from 708689 - PALACE      BUTCHERY  2 Acc. CHRISTOPHER,Completed,1000,,9500,TRUE,Merchant Pay Utility via API,708689 - PALACE      BUTCHERY  2,,CHRISTOPHER
PGD2A50JGC,13/07/2021 10:18,13/07/2021 10:18,Pay Bill from 254704658943 - IRENE MUTHUI Acc. E5,Completed,8500,,8500,TRUE,Pay Utility with OD via STK,254704658943 - IRENE MUTHUI,,E5
PGD29ZU04Y,13/07/2021 08:25,13/07/2021 08:25,Utility Account to Organization Settlement Account,Completed,,-1500,0,TRUE,Utility Account to Organization Settlement Account,887075 - ANCIENT WELLS LTD 3,,
PGC99V85AV,12/07/2021 23:54,12/07/2021 23:54,Pay Bill Online from 254720201580 - CHRISTOPHER OTUOMA Acc. Christopher,Completed,1500,,1500,TRUE,Pay Utility with OD Online,254720201580 - CHRISTOPHER OTUOMA,,Christopher
PGC18QN8SN,12/07/2021 10:31,12/07/2021 10:31,Utility Account to Organization Settlement Account,Completed,,-8500,0,TRUE,Utility Account to Organization Settlement Account,887075 - ANCIENT WELLS LTD 3,,
PGB27FSD8G,11/07/2021 10:23,11/07/2021 10:23,Pay Bill from 254713229967 - John Mugabo Simba Acc. E4,Completed,8500,,8500,TRUE,Pay Utility,254713229967 - John Mugabo Simba,,E4
PGA25ZFY3A,10/07/2021 10:03,10/07/2021 10:03,Utility Account to Organization Settlement Account,Completed,,-8500,0,TRUE,Utility Account to Organization Settlement Account,887075 - ANCIENT WELLS LTD 3,,
PG954W42HV,09/07/2021 14:19,09/07/2021 14:19,Pay Bill from 254725085735 - MATTHEW MULI MUTUKU Acc. mercymulib6p,Completed,8500,,8500,TRUE,Pay Utility,254725085735 - MATTHEW MULI MUTUKU,,mercymulib6p
PG984CTNO6,09/07/2021 07:24,09/07/2021 07:24,Utility Account to Organization Settlement Account,Completed,,-21000,0,TRUE,Utility Account to Organization Settlement Account,887075 - ANCIENT WELLS LTD 3,,
PG873QTLCV,08/07/2021 17:20,08/07/2021 17:20,Pay Bill from 254727585857 - PETER MUOKI NGUNDO Acc. Peter muoki e6,Completed,8500,,21000,TRUE,Pay Utility,254727585857 - PETER MUOKI NGUNDO,,Peter
PG88337WDK,08/07/2021 09:43,08/07/2021 09:43,Pay Bill from 254790837715 - JULIUS MWASHUMBE MAGHANGA Acc. F5,Completed,8500,,12500,TRUE,Pay Utility,254790837715 - JULIUS MWASHUMBE MAGHANGA,,F5
PG742SJCUS,07/07/2021 21:35,07/07/2021 21:35,Pay Bill Online from 254703176849 - ROYAL MUYA Acc. F2,Completed,4000,,4000,TRUE,Pay Bill Online,254703176849 - ROYAL MUYA,,F2
PG742LXRX8,07/07/2021 19:41,07/07/2021 19:41,Utility Account to Organization Settlement Account,Completed,,-8000,0,TRUE,Utility Account to Organization Settlement Account,887075 - ANCIENT WELLS LTD 3,,
PG7628GMLM,07/07/2021 16:38,07/07/2021 16:38,Pay Bill from 254721539716 - OCTAVIAN MWANYALO Acc. C6,Completed,8000,,8000,TRUE,Pay Utility,254721539716 - OCTAVIAN MWANYALO,,C6
PG6815UYOE,06/07/2021 19:37,06/07/2021 19:37,Utility Account to Organization Settlement Account,Completed,,-8000,0,TRUE,Utility Account to Organization Settlement Account,887075 - ANCIENT WELLS LTD 3,,
PG6414S4PW,06/07/2021 19:24,06/07/2021 19:24,Pay Bill from 254792976771 - DANIEL MUTHAMA NDUNDA Acc. F1,Completed,8000,,8000,TRUE,Pay Utility,254792976771 - DANIEL MUTHAMA NDUNDA,,F1
PG66ZTUB88,06/07/2021 16:59,06/07/2021 16:59,Utility Account to Organization Settlement Account,Completed,,-8000,0,TRUE,Utility Account to Organization Settlement Account,887075 - ANCIENT WELLS LTD 3,,
PG65ZNF5GB,06/07/2021 15:05,06/07/2021 15:05,Pay Bill Online from 254704213191 - VALENTINE WAVINYA Acc. e3,Completed,8000,,8000,TRUE,Pay Bill Online,254704213191 - VALENTINE WAVINYA,,e3
PG66ZBW9TK,06/07/2021 11:19,06/07/2021 11:19,Utility Account to Organization Settlement Account,Completed,,-8000,0,TRUE,Utility Account to Organization Settlement Account,887075 - ANCIENT WELLS LTD 3,,
PG69Z9QI65,06/07/2021 10:35,06/07/2021 10:35,Pay Bill from 254703451075 - SHICHENGA MARK Acc. D2,Completed,8000,,8000,TRUE,Pay Utility,254703451075 - SHICHENGA MARK,,D2
PG69Z44PK1,06/07/2021 08:34,06/07/2021 08:34,Utility Account to Organization Settlement Account,Completed,,-7000,0,TRUE,Utility Account to Organization Settlement Account,887075 - ANCIENT WELLS LTD 3,,
PG53YK90OB,05/07/2021 18:34,05/07/2021 18:34,Pay Bill from 254748354739 - Valary Bhoke Mwita Acc. G3,Completed,7000,,7000,TRUE,Pay Utility,254748354739 - Valary Bhoke Mwita,,G3
PG57YCG0Q9,05/07/2021 16:43,05/07/2021 16:43,Utility Account to Organization Settlement Account,Completed,,-33500,0,TRUE,Utility Account to Organization Settlement Account,887075 - ANCIENT WELLS LTD 3,,
PG50Y92MP8,05/07/2021 15:43,05/07/2021 15:43,Pay Bill from 0799912339 - PETER KAMAU MURIU Acc. C5,Completed,8500,,33500,TRUE,Pay Utility,0799912339 - PETER KAMAU MURIU,,C5
PG59XWIJDJ,05/07/2021 11:49,05/07/2021 11:49,Pay Bill from 254717465142 - EPHANTUS IRURA Acc. c4 muriithi,Completed,8500,,25000,TRUE,Pay Utility,254717465142 - EPHANTUS IRURA,,c4
PG44X0S3NC,04/07/2021 17:33,04/07/2021 17:33,Pay Bill from 254791273726 - JULLIET WINNIE OTIENO Acc. G1,Completed,8000,,16500,TRUE,Pay Utility,254791273726 - JULLIET WINNIE OTIENO,,G1
PG32W64L8Q,03/07/2021 22:34,03/07/2021 22:34,Pay Bill from 254728664261 - LEVIN INGATI NYONJE Acc. B5,Completed,8500,,8500,TRUE,Pay Utility,254728664261 - LEVIN INGATI NYONJE,,B5
PG39V96YIB,03/07/2021 13:25,03/07/2021 13:25,Utility Account to Organization Settlement Account,Completed,,-29000,0,TRUE,Utility Account to Organization Settlement Account,887075 - ANCIENT WELLS LTD 3,,
PG30V70VVU,03/07/2021 12:45,03/07/2021 12:45,Pay Bill from 254701330588 - EDGER WAFULA BUTALI Acc. D1,Completed,8000,,29000,TRUE,Pay Utility,254701330588 - EDGER WAFULA BUTALI,,D1
PG32V2MHUK,03/07/2021 11:22,03/07/2021 11:22,Pay Bill Online from 254711877988 - PATRICK KONZI Acc. b4,Completed,8500,,21000,TRUE,Pay Bill Online,254711877988 - PATRICK KONZI,,b4
PG36V1PRWU,03/07/2021 11:05,03/07/2021 11:05,Pay Bill from 254715122543 - francis ntwiki mukiti Acc. D4,Completed,12500,,12500,TRUE,Pay Utility,254715122543 - francis ntwiki mukiti,,D4
PG11RYCPI5,01/07/2021 09:21,01/07/2021 09:21,Utility Account to Organization Settlement Account,Completed,,-16000,0,TRUE,Utility Account to Organization Settlement Account,887075 - ANCIENT WELLS LTD 3,,
PG11RXFKQF,01/07/2021 09:00,01/07/2021 09:00,Pay Bill Online from 254795983642 - OBED MOGAKA Acc. F6 OBED ,Completed,8500,,16000,TRUE,Pay Bill Online,254795983642 - OBED MOGAKA,,F6
