Receipt No.,Completion Time,Initiation Time,Details,Transaction Status,Paid In,Withdrawn,Balance,Balance Confirmed,Reason Type,Other Party Info,Linked Transaction ID,A/C No.
SB63B7TPP1,06/02/2024 22:04,06/02/2024 22:04,Pay Bill from 254711***672 - ALLAN *** Acc. IEI,Completed,15000,,248200,TRUE,Pay Utility,254711***672 - ALLAN ***,,IEI
SB61ATVQNH,06/02/2024 20:25,06/02/2024 20:25,Pay Bill from 254703***305 - MARTHA *** Acc. iai,Completed,15000,,233200,TRUE,Pay Utility,254703***305 - MARTHA ***,,iai
SB66ALRDDM,06/02/2024 19:43,06/02/2024 19:43,Pay Bill Online from 254724***741 - LAURA *** Acc. KFC,Completed,9000,,218200,TRUE,Pay Bill Online,254724***741 - LAURA ***,,KFC
SB68AK76LO,06/02/2024 19:35,06/02/2024 19:35,Pay Bill Online from 254708***516 - DENNIS *** Acc. IBC,Completed,19000,,209200,TRUE,Pay Utility with OD Online,254708***516 - DENNIS ***,,IBC
SB60AEVHGW,06/02/2024 19:10,06/02/2024 19:10,Pay Bill Online from 254715***656 - DENNIS *** Acc. kfa,Completed,3000,,190200,TRUE,Pay Bill Online,254715***656 - DENNIS ***,,kfa
SB65ACCQ6J,06/02/2024 18:56,06/02/2024 18:56,Pay Bill Online from 254729***858 - AMBROSE *** Acc. KEJ,Completed,16000,,187200,TRUE,Pay Bill Online,254729***858 - AMBROSE ***,,KEJ
SB67A3MHBJ,06/02/2024 18:04,06/02/2024 18:04,Pay Bill from 254745***401 - mirriam *** Acc. kci,Completed,11000,,171200,TRUE,Pay Utility,254745***401 - mirriam ***,,kci
SB699ZXSQN,06/02/2024 17:39,06/02/2024 17:39,Pay Bill from 254792***128 - Edwin *** Acc. HBF,Completed,9000,,160200,TRUE,Pay Utility,254792***128 - Edwin ***,,HBF
SB619T0DT1,06/02/2024 16:49,06/02/2024 16:49,Pay Bill from 254725***531 - KIPKORIR *** Acc. DFB,Completed,15000,,151200,TRUE,Pay Utility,254725***531 - KIPKORIR ***,,DFB
SB649Q36NC,06/02/2024 16:26,06/02/2024 16:26,Pay Bill Online from 254713***424 - NDUTI *** Acc. jed,Completed,15000,,136200,TRUE,Pay Bill Online,254713***424 - NDUTI ***,,jed
SB689LL4GC,06/02/2024 15:48,06/02/2024 15:48,Pay Bill Online from 254700***755 - PAUL *** Acc. ifc,Completed,8000,,121200,TRUE,Pay Utility with OD Online,254700***755 - PAUL ***,,ifc
SB659IB4RL,06/02/2024 15:19,06/02/2024 15:19,Pay Bill from 011532***960 - JOSEPH *** Acc. IBG,Completed,8000,,113200,TRUE,Pay Utility,011532***960 - JOSEPH ***,,IBG
SB609D78MQ,06/02/2024 14:34,06/02/2024 14:34,Pay Bill from 254719***910 - KEVIN *** Acc. idd,Completed,11000,,105200,TRUE,Pay Utility,254719***910 - KEVIN ***,,idd
SB64976XX6,06/02/2024 13:44,06/02/2024 13:44,Pay Bill Online from 254725***394 - RACHAEL *** Acc. Jfb,Completed,15000,,94200,TRUE,Pay Bill Online,254725***394 - RACHAEL ***,,Jfb
SB6092O22Q,06/02/2024 13:08,06/02/2024 13:08,Pay Bill from 254722***028 - CHARLES *** Acc. JDA,Completed,20000,,79200,TRUE,Pay Utility,254722***028 - CHARLES ***,,JDA
SB608XYD2K,06/02/2024 12:29,06/02/2024 12:29,Pay Bill Online from 254720***704 - JOSPHAT *** Acc. HDD,Completed,10000,,59200,TRUE,Pay Bill Online,254720***704 - JOSPHAT ***,,HDD
SB618QKDNV,06/02/2024 11:26,06/02/2024 11:26,Pay Bill from 074065***285 - DOMINIC *** Acc. kdc,Completed,10000,,49200,TRUE,Pay Utility,074065***285 - DOMINIC ***,,kdc
SB608QCUO0,06/02/2024 11:25,06/02/2024 11:25,Pay Bill from 254704***222 - Lesley *** Acc. KCF,Completed,8200,,39200,TRUE,Pay Utility,254704***222 - Lesley ***,,KCF
SB648MXYMU,06/02/2024 10:56,06/02/2024 10:56,Pay Bill Online from 254757***672 - BRIAN *** Acc. KDD,Completed,12000,,31000,TRUE,Pay Bill Online,254757***672 - BRIAN ***,,KDD
SB628GYWP2,06/02/2024 10:04,06/02/2024 10:04,Pay Bill Online from 254723***873 - FREDRICK *** Acc. jbf,Completed,8000,,19000,TRUE,Pay Bill Online,254723***873 - FREDRICK ***,,jbf
SB628FAHC0,06/02/2024 09:48,06/02/2024 09:48,Pay Bill from 254722***622 - CHARITY *** Acc. ffd,Completed,11000,,11000,TRUE,Pay Utility,254722***622 - CHARITY ***,,ffd
SB618BV53D,06/02/2024 09:17,06/02/2024 09:17,Funds Transfer from Utility Account to Working Account,Completed,,-531900,0,TRUE,Business Transfer From Utility Account To MMF Account via API,979524 - ANCIENT WELLS PROPERTY MANAGERS 2,,
SB6185HL23,06/02/2024 08:14,06/02/2024 08:14,Pay Bill from 254717***324 - Christine *** Acc. KDF,Completed,10000,,531900,TRUE,Pay Utility,254717***324 - Christine ***,,KDF
SB68829CYI,06/02/2024 07:39,06/02/2024 07:39,Pay Bill from 254729***933 - FELISTAH *** Acc. IDI,Completed,15000,,521900,TRUE,Pay Utility,254729***933 - FELISTAH ***,,IDI
SB6681P2GE,06/02/2024 07:32,06/02/2024 07:32,Pay Bill from 254708***373 - MUNINI *** Acc. IEB,Completed,15000,,506900,TRUE,Pay Utility,254708***373 - MUNINI ***,,IEB
SB597JRIOJ,05/02/2024 21:41,05/02/2024 21:41,Pay Bill Online from 254714***486 - BRIAN *** Acc. KBJ,Completed,16000,,491900,TRUE,Pay Bill Online,254714***486 - BRIAN ***,,KBJ
SB557GT25B,05/02/2024 21:19,05/02/2024 21:19,Pay Bill from 074548***142 - Daisy *** Acc. FGE,Completed,15000,,475900,TRUE,Pay Utility with OD via STK,074548***142 - Daisy ***,,FGE
SB517GJYJV,05/02/2024 21:17,05/02/2024 21:17,Pay Bill Online from 254706***834 - WILKISTER *** Acc. HGH,Completed,15000,,460900,TRUE,Pay Bill Online,254706***834 - WILKISTER ***,,HGH
SB567BY4BY,05/02/2024 20:47,05/02/2024 20:47,Pay Bill from 254743***420 - Margaret *** Acc. FCE,Completed,15000,,445900,TRUE,Pay Utility,254743***420 - Margaret ***,,FCE
SB5974QB0V,05/02/2024 20:08,05/02/2024 20:08,Pay Bill Online from 074150***311 - ALLAN *** Acc. DBA,Completed,16000,,430900,TRUE,Pay Bill Online,074150***311 - ALLAN ***,,DBA
SB546UT0TU,05/02/2024 19:20,05/02/2024 19:20,Pay Bill Online from 254795***849 - PURITY *** Acc. kbb,Completed,16000,,414900,TRUE,Pay Bill Online,254795***849 - PURITY ***,,kbb
SB546UDO6K,05/02/2024 19:18,05/02/2024 19:18,Pay Bill from 254712***818 - OYUGI *** Acc. FCB,Completed,16000,,398900,TRUE,Pay Utility,254712***818 - OYUGI ***,,FCB
SB556RET9Z,05/02/2024 19:03,05/02/2024 19:03,Pay Bill from 254725***547 - MWACHIRO *** Acc. DFC,Completed,20000,,382900,TRUE,Pay Utility,254725***547 - MWACHIRO ***,,DFC
SB5764PSIL,05/02/2024 16:33,05/02/2024 16:33,Pay Bill from 254719***657 - SAMUEL *** Acc. JGA,Completed,40000,,362900,TRUE,Pay Utility,254719***657 - SAMUEL ***,,JGA
SB596429FD,05/02/2024 16:28,05/02/2024 16:28,Pay Bill from 254701***102 - CHEPCHUMBA *** Acc. IFE,Completed,19000,,322900,TRUE,Pay Utility,254701***102 - CHEPCHUMBA ***,,IFE
SB5762GXL9,05/02/2024 16:15,05/02/2024 16:15,Pay Bill from 254719***395 - MARGARET *** Acc. ICH,Completed,3000,,303900,TRUE,Pay Utility,254719***395 - MARGARET ***,,ICH
SB585WECZU,05/02/2024 15:24,05/02/2024 15:24,Pay Bill from 254723***913 - ANNE *** Acc. JBC,Completed,11000,,300900,TRUE,Pay Utility,254723***913 - ANNE ***,,JBC
SB505OKHZ4,05/02/2024 14:17,05/02/2024 14:17,Pay Bill Online from 254716***364 - Wendy *** Acc. FFC,Completed,9000,,289900,TRUE,Pay Bill Online,254716***364 - Wendy ***,,FFC
SB595MAP1V,05/02/2024 13:58,05/02/2024 13:58,Pay Bill from 254728***256 - NICHOLAS *** Acc. HAD,Completed,10000,,280900,TRUE,Pay Utility,254728***256 - NICHOLAS ***,,HAD
SB575B6V9Z,05/02/2024 12:30,05/02/2024 12:30,Pay Bill from 254719***942 - NORAH *** Acc. KDA,Completed,16000,,270900,TRUE,Pay Utility,254719***942 - NORAH ***,,KDA
SB5959QXCJ,05/02/2024 12:18,05/02/2024 12:18,Pay Bill from 254796***018 - PEACE *** Acc. JEE,Completed,10000,,254900,TRUE,Pay Utility,254796***018 - PEACE ***,,JEE
SB5059MEOQ,05/02/2024 12:16,05/02/2024 12:16,Pay Bill from 254796***018 - PEACE *** Acc. Jah,Completed,16000,,244900,TRUE,Pay Utility,254796***018 - PEACE ***,,Jah
SB584YFEEW,05/02/2024 10:41,05/02/2024 10:41,Pay Bill Online from 254714***668 - ZACHARY *** Acc. JAD,Completed,16000,,228900,TRUE,Pay Bill Online,254714***668 - ZACHARY ***,,JAD
SB574VMOA1,05/02/2024 10:17,05/02/2024 10:17,Pay Bill Online from 254728***908 - Teddy *** Acc. DDD,Completed,15900,,212900,TRUE,Pay Bill Online,254728***908 - Teddy ***,,DDD
SB554TU8LD,05/02/2024 10:02,05/02/2024 10:02,Pay Bill from 254724***503 - GEOFREY *** Acc. JFF,Completed,10000,,197000,TRUE,Pay Utility,254724***503 - GEOFREY ***,,JFF
SB584MHZ50,05/02/2024 08:54,05/02/2024 08:54,Pay Bill from 254703***744 - Esther *** Acc. KEF,Completed,10000,,187000,TRUE,Pay Utility,254703***744 - Esther ***,,KEF
SB544HJSJ2,05/02/2024 08:04,05/02/2024 08:04,Pay Bill from 075705***882 - FAITH *** Acc. HDF,Completed,9000,,177000,TRUE,Pay Utility,075705***882 - FAITH ***,,HDF
SB504F2PFE,05/02/2024 07:36,05/02/2024 07:36,Pay Bill from 254701***476 - mary *** Acc. DAA,Completed,16000,,168000,TRUE,Pay Utility,254701***476 - mary ***,,DAA
SB544EFYTI,05/02/2024 07:28,05/02/2024 07:28,Pay Bill Online from 254729***700 - MICAH *** Acc. HFE,Completed,10500,,152000,TRUE,Pay Bill Online,254729***700 - MICAH ***,,HFE
SB554DD22L,05/02/2024 07:13,05/02/2024 07:13,Pay Bill Online from 254710***776 - KELVIN *** Acc. FAD,Completed,8500,,141500,TRUE,Pay Bill Online,254710***776 - KELVIN ***,,FAD
SB554CM81D,05/02/2024 07:02,05/02/2024 07:02,Pay Bill Online from 254725***904 - SALOME *** Acc. KFJ,Completed,15000,,133000,TRUE,Pay Bill Online,254725***904 - SALOME ***,,KFJ
SB5948YDGT,05/02/2024 04:39,05/02/2024 04:39,Pay Bill from 074378***968 - Dallias *** Acc. hbb,Completed,4000,,118000,TRUE,Pay Utility,074378***968 - Dallias ***,,hbb
SB41433LBT,04/02/2024 22:45,04/02/2024 22:45,Pay Bill Online from 254721***178 - PHANICE *** Acc. FBF,Completed,16000,,114000,TRUE,Pay Bill Online,254721***178 - PHANICE ***,,FBF
SB443UHJ4G,04/02/2024 21:13,04/02/2024 21:13,Pay Bill from 254703***626 - DAVID *** Acc. FCD,Completed,2000,,98000,TRUE,Pay Utility,254703***626 - DAVID ***,,FCD
SB433FODHV,04/02/2024 19:36,04/02/2024 19:36,Pay Bill from 254716***517 - BENARD *** Acc. Hcb,Completed,16000,,96000,TRUE,Pay Utility,254716***517 - BENARD ***,,Hcb
SB443FEPV6,04/02/2024 19:35,04/02/2024 19:35,Pay Bill from 254798***621 - MERCY *** Acc. jcj,Completed,16000,,80000,TRUE,Pay Utility,254798***621 - MERCY ***,,jcj
SB443C5F9U,04/02/2024 19:18,04/02/2024 19:18,Pay Bill from 070197***456 - FAITH *** Acc. ICH,Completed,30000,,64000,TRUE,Pay Utility with OD via STK,070197***456 - FAITH ***,,ICH
SB4938OF9Z,04/02/2024 18:59,04/02/2024 18:59,Pay Bill from 254702***404 - VALENTINE *** Acc. IBH,Completed,9000,,34000,TRUE,Pay Utility,254702***404 - VALENTINE ***,,IBH
SB462OTXZ8,04/02/2024 16:36,04/02/2024 16:36,Pay Bill from 072438***624 - FATUMA *** Acc. FAB,Completed,16000,,25000,TRUE,Pay Utility,072438***624 - FATUMA ***,,FAB
SB482MMZL6,04/02/2024 16:19,04/02/2024 16:19,Pay Bill from 074130***410 - STEVEKEVIN *** Acc. IAC,Completed,9000,,9000,TRUE,Pay Utility,074130***410 - STEVEKEVIN ***,,IAC
SB472KKPF5,04/02/2024 16:02,04/02/2024 16:02,Funds Transfer from Utility Account to Working Account,Completed,,-204000,0,TRUE,Business Transfer From Utility Account To MMF Account via API,979524 - ANCIENT WELLS PROPERTY MANAGERS 2,,
SB482FNLBQ,04/02/2024 15:21,04/02/2024 15:21,Pay Bill Online from 254722***115 - NORAH *** Acc. HAC,Completed,10000,,204000,TRUE,Pay Bill Online,254722***115 - NORAH ***,,HAC
SB421TYY1S,04/02/2024 12:13,04/02/2024 12:13,Pay Bill from 254714***203 - PATRICK *** Acc. KEI,Completed,12000,,194000,TRUE,Pay Utility,254714***203 - PATRICK ***,,KEI
SB411TXQ0R,04/02/2024 12:13,04/02/2024 12:13,Pay Bill Online from 254720***965 - JAMES *** Acc. JBI,Completed,20000,,182000,TRUE,Pay Bill Online,254720***965 - JAMES ***,,JBI
SB421QFEKG,04/02/2024 11:39,04/02/2024 11:39,Pay Bill from 254799***200 - PURITY *** Acc. HDC,Completed,10500,,162000,TRUE,Pay Utility,254799***200 - PURITY ***,,HDC
SB411O54YN,04/02/2024 11:17,04/02/2024 11:17,Pay Bill Online from 254721***995 - BERNICE *** Acc. KFK,Completed,16000,,151500,TRUE,Pay Bill Online,254721***995 - BERNICE ***,,KFK
SB421K29XW,04/02/2024 10:37,04/02/2024 10:37,Business Pay Bill by 488519 - NCBA  Bank M-pesa Acc. JCD via API,Completed,15000,,135500,TRUE,Business Pay Bill via API,488519 - NCBA  Bank M-pesa,,JCD via API
SB481JZD9Q,04/02/2024 10:37,04/02/2024 10:37,Pay Bill from 254723***911 - JAMES *** Acc. ICG,Completed,9500,,120500,TRUE,Pay Utility,254723***911 - JAMES ***,,ICG
SB4718K62F,04/02/2024 08:39,04/02/2024 08:39,Pay Bill from 254710***103 - MARY *** Acc. KCE,Completed,10000,,111000,TRUE,Pay Utility,254710***103 - MARY ***,,KCE
SB31ZR6EYZ,03/02/2024 22:37,03/02/2024 22:37,Pay Bill Online from 254723***628 - CLINTON *** Acc. hfh,Completed,16000,,101000,TRUE,Pay Bill Online,254723***628 - CLINTON ***,,hfh
SB35ZQD0O7,03/02/2024 22:26,03/02/2024 22:26,FSI to Pay Bill by 3033815 - LOOP B2C. Acc. DCC via WEB by LOOP B2C.\TRINITYAPI,Completed,20000,,85000,TRUE,FSI to Pay Bill via API,3033815 - LOOP B2C.,,DCC via WEB by LOOP B2C.\TRINITYAPI
SB30ZC1QC4,03/02/2024 20:31,03/02/2024 20:31,Pay Bill from 254706***081 - FATUMA *** Acc. HED,Completed,9000,,65000,TRUE,Pay Utility,254706***081 - FATUMA ***,,HED
SB37YQ69MZ,03/02/2024 18:35,03/02/2024 18:35,Pay Bill Online from 254716***144 - PETER *** Acc. FBB,Completed,16000,,56000,TRUE,Pay Bill Online,254716***144 - PETER ***,,FBB
SB33YP9YID,03/02/2024 18:30,03/02/2024 18:30,Pay Bill Online from 254721***294 - GRACE *** Acc. IGH ,Completed,15000,,40000,TRUE,Pay Bill Online,254721***294 - GRACE ***,,IGH 
SB35YJHTKL,03/02/2024 17:53,03/02/2024 17:53,Pay Bill from 011412***024 - Sharad *** Acc. KCK,Completed,15000,,25000,TRUE,Pay Utility,011412***024 - Sharad ***,,KCK
SB32Y8QJTG,03/02/2024 16:37,03/02/2024 16:37,Business Pay Bill by 998094 - COOP TO PAYBILL Acc. IFF via API,Completed,10000,,10000,TRUE,Business Pay Bill via API,998094 - COOP TO PAYBILL,,IFF via API
SB34Y6WYJ4,03/02/2024 16:23,03/02/2024 16:23,Funds Transfer from Utility Account to Working Account,Completed,,-189900,0,TRUE,Business Transfer From Utility Account To MMF Account via API,979524 - ANCIENT WELLS PROPERTY MANAGERS 2,,
SB36Y27QT8,03/02/2024 15:46,03/02/2024 15:46,Pay Bill from 254714***575 - IAN *** Acc. IBD,Completed,11500,,189900,TRUE,Pay Utility,254714***575 - IAN ***,,IBD
SB37XY9DQR,03/02/2024 15:14,03/02/2024 15:14,Pay Bill Online from 254712***699 - NELSON *** Acc. KCD,Completed,12000,,178400,TRUE,Pay Bill Online,254712***699 - NELSON ***,,KCD
SB34XUQBDQ,03/02/2024 14:46,03/02/2024 14:46,Pay Bill from 254720***502 - JOHN *** Acc. JFA,Completed,5000,,166400,TRUE,Pay Utility,254720***502 - JOHN ***,,JFA
SB38XU0X02,03/02/2024 14:41,03/02/2024 14:41,Pay Bill from 076890***522 - Jael *** Acc. HEF,Completed,9000,,161400,TRUE,Pay Utility,076890***522 - Jael ***,,HEF
SB35XS3W6X,03/02/2024 14:26,03/02/2024 14:25,Pay Bill Online from 079958***884 - Eric *** Acc. HEE,Completed,10000,,152400,TRUE,Pay Bill Online,079958***884 - Eric ***,,HEE
SB39X7HONZ,03/02/2024 11:44,03/02/2024 11:44,Pay Bill Online from 254700***806 - WINNIE *** Acc. JEC,Completed,10000,,142400,TRUE,Pay Bill Online,254700***806 - WINNIE ***,,JEC
SB38X52OWM,03/02/2024 11:24,03/02/2024 11:24,Pay Bill from 254712***486 - JACKLINE *** Acc. ked,Completed,400,,132400,TRUE,Pay Utility,254712***486 - JACKLINE ***,,ked
SB32X4C2II,03/02/2024 11:18,03/02/2024 11:18,Pay Bill Online from 254723***064 - ANDREW *** Acc. HBG,Completed,16000,,132000,TRUE,Pay Bill Online,254723***064 - ANDREW ***,,HBG
SB37X3LF19,03/02/2024 11:12,03/02/2024 11:12,Pay Bill from 254708***464 - MERCY *** Acc. IBB,Completed,16000,,116000,TRUE,Pay Utility,254708***464 - MERCY ***,,IBB
SB38WZYSFY,03/02/2024 10:42,03/02/2024 10:42,Pay Bill from 254712***486 - JACKLINE *** Acc. ked,Completed,11000,,100000,TRUE,Pay Utility,254712***486 - JACKLINE ***,,ked
SB37W9N8E1,03/02/2024 02:16,03/02/2024 02:16,Pay Bill Online from 254702***678 - JOHN *** Acc. DEB,Completed,16000,,89000,TRUE,Pay Bill Online,254702***678 - JOHN ***,,DEB
SB36W8RUCC,03/02/2024 01:15,03/02/2024 01:15,Pay Bill Online from 254742***013 - HANEST *** Acc. IED,Completed,11000,,73000,TRUE,Pay Bill Online,254742***013 - HANEST ***,,IED
SB39W78AQB,03/02/2024 00:06,03/02/2024 00:06,Pay Bill from 074337***291 - Ann *** Acc. KAD,Completed,11000,,62000,TRUE,Pay Utility,074337***291 - Ann ***,,KAD
SB24VUZ3A0,02/02/2024 21:28,02/02/2024 21:28,Pay Bill from 254743***477 - FAITH *** Acc. lGE ,Completed,9000,,51000,TRUE,Pay Utility,254743***477 - FAITH ***,,lGE 
SB24VKNO92,02/02/2024 20:30,02/02/2024 20:30,Pay Bill Online from 254729***719 - JACINTA *** Acc. FFF,Completed,17000,,42000,TRUE,Pay Bill Online,254729***719 - JACINTA ***,,FFF
SB24VJDVB4,02/02/2024 20:24,02/02/2024 20:24,Pay Bill from 070656***358 - HARRIET *** Acc. HBA,Completed,16000,,25000,TRUE,Pay Utility,070656***358 - HARRIET ***,,HBA
SB28VIA612,02/02/2024 20:19,02/02/2024 20:19,Pay Bill from 070728***361 - JOSEPHIN *** Acc. HGD,Completed,9000,,9000,TRUE,Pay Utility with OD via STK,070728***361 - JOSEPHIN ***,,HGD
SB27VEYN2D,02/02/2024 20:03,02/02/2024 20:03,Funds Transfer from Utility Account to Working Account,Completed,,-105000,0,TRUE,Business Transfer From Utility Account To MMF Account via API,979524 - ANCIENT WELLS PROPERTY MANAGERS 2,,
SB20VEIT76,02/02/2024 20:00,02/02/2024 20:00,Pay Bill Online from 072225***105 - SALIM *** Acc. FGF,Completed,16000,,105000,TRUE,Pay Utility with OD Online,072225***105 - SALIM ***,,FGF
SB27VDNRL7,02/02/2024 19:56,02/02/2024 19:56,Pay Bill from 254726***273 - JESSE *** Acc. HCH,Completed,17000,,89000,TRUE,Pay Utility,254726***273 - JESSE ***,,HCH
SB27UXTHP3,02/02/2024 18:36,02/02/2024 18:36,Pay Bill Online from 254706***634 - CLINTON *** Acc. FDB,Completed,17000,,72000,TRUE,Pay Bill Online,254706***634 - CLINTON ***,,FDB
SB25UUDOMB,02/02/2024 18:16,02/02/2024 18:16,Pay Bill Online from 254712***699 - NELSON *** Acc. KCD,Completed,13000,,55000,TRUE,Pay Bill Online,254712***699 - NELSON ***,,KCD
SB27UKUC41,02/02/2024 17:13,02/02/2024 17:13,Pay Bill from 254722***235 - AHMED *** Acc. IGD,Completed,10000,,42000,TRUE,Pay Utility,254722***235 - AHMED ***,,IGD
SB26UI81CW,02/02/2024 16:54,02/02/2024 16:54,Pay Bill from 254717***012 - WINFRED *** Acc. IDA,Completed,16000,,32000,TRUE,Pay Utility,254717***012 - WINFRED ***,,IDA
SB22U517LI,02/02/2024 15:09,02/02/2024 15:09,Pay Bill from 254721***481 - MARTIN *** Acc. DFA,Completed,16000,,16000,TRUE,Pay Utility,254721***481 - MARTIN ***,,DFA
SB22U3P76G,02/02/2024 14:58,02/02/2024 14:58,Funds Transfer from Utility Account to Working Account,Completed,,-38500,0,TRUE,Business Transfer From Utility Account To MMF Account via API,979524 - ANCIENT WELLS PROPERTY MANAGERS 2,,
SB22TYLFZS,02/02/2024 14:16,02/02/2024 14:16,Pay Bill Online from 071160***780 - gift *** Acc. DEA,Completed,16000,,38500,TRUE,Pay Bill Online,071160***780 - gift ***,,DEA
SB29TXCDON,02/02/2024 14:06,02/02/2024 14:06,Pay Bill from 011071***819 - JANE *** Acc. HGF,Completed,11500,,22500,TRUE,Pay Utility,011071***819 - JANE ***,,HGF
SB25TP2C1V,02/02/2024 13:01,02/02/2024 13:01,Pay Bill from 254710***103 - MARY *** Acc. KCE-Victoria,Completed,11000,,11000,TRUE,Pay Utility,254710***103 - MARY ***,,KCE-Victoria
SB20TND0WS,02/02/2024 12:46,02/02/2024 12:46,Funds Transfer from Utility Account to Working Account,Completed,,-150000,0,TRUE,Business Transfer From Utility Account To MMF Account via API,979524 - ANCIENT WELLS PROPERTY MANAGERS 2,,
SB25TLYRZJ,02/02/2024 12:35,02/02/2024 12:35,Business Pay Bill by 488519 - NCBA  Bank M-pesa Acc. kbf via API,Completed,16000,,150000,TRUE,Business Pay Bill via API,488519 - NCBA  Bank M-pesa,,kbf via API
SB20TIFYVI,02/02/2024 12:05,02/02/2024 12:05,Pay Bill from 254724***046 - GIDEON *** Acc. KFH,Completed,7000,,134000,TRUE,Pay Utility,254724***046 - GIDEON ***,,KFH
SB26THP4SS,02/02/2024 11:59,02/02/2024 11:59,Pay Bill from 254724***488 - NICHOLAS *** Acc. 979524,Completed,9500,,127000,TRUE,Pay Utility,254724***488 - NICHOLAS ***,,979524
SB24TFDYHQ,02/02/2024 11:39,02/02/2024 11:39,Pay Bill from 254716***398 - HYVENE *** Acc. KDE ,Completed,10000,,117500,TRUE,Pay Utility,254716***398 - HYVENE ***,,KDE 
SB29T9512X,02/02/2024 10:46,02/02/2024 10:46,Pay Bill from 254717***775 - QADRA *** Acc. JCI,Completed,20000,,107500,TRUE,Pay Utility,254717***775 - QADRA ***,,JCI
SB29T3BFH9,02/02/2024 09:56,02/02/2024 09:56,Pay Bill Online from 071883***251 - MARK *** Acc. kfg,Completed,9500,,87500,TRUE,Pay Bill Online,071883***251 - MARK ***,,kfg
SB21T2X7AZ,02/02/2024 09:53,02/02/2024 09:53,Pay Bill Online from 075707***363 - Ifrah *** Acc. IGF,Completed,15000,,78000,TRUE,Pay Bill Online,075707***363 - Ifrah ***,,IGF
SB22SVDS6Q,02/02/2024 08:41,02/02/2024 08:41,Pay Bill Online from 254708***223 - DENNIS *** Acc. DCA,Completed,16000,,63000,TRUE,Pay Bill Online,254708***223 - DENNIS ***,,DCA
SB23SGYNEN,02/02/2024 00:44,02/02/2024 00:44,Pay Bill Online from 075707***363 - Ifrah *** Acc. IGF,Completed,5000,,47000,TRUE,Pay Bill Online,075707***363 - Ifrah ***,,IGF
SB27SG8LEP,02/02/2024 00:08,02/02/2024 00:08,Pay Bill from 254723***259 - WILSON *** Acc. hca,Completed,15000,,42000,TRUE,Pay Utility,254723***259 - WILSON ***,,hca
SB11SDSIXV,01/02/2024 23:01,01/02/2024 23:01,Pay Bill Online from 254704***557 - BAKARI *** Acc. HDG,Completed,15000,,27000,TRUE,Pay Bill Online,254704***557 - BAKARI ***,,HDG
SB10S6QTDI,01/02/2024 21:37,01/02/2024 21:37,Pay Bill from 254718***358 - Job *** Acc. ICF,Completed,11000,,12000,TRUE,Pay Utility,254718***358 - Job ***,,ICF
SB14S28Z5Q,01/02/2024 21:03,01/02/2024 21:03,Pay Bill from 254703***626 - DAVID *** Acc. FCD,Completed,1000,,1000,TRUE,Pay Utility with OD via STK,254703***626 - DAVID ***,,FCD
SB17RVLNUZ,01/02/2024 20:21,01/02/2024 20:21,Utility Account to Organization Settlement Account,Completed,,-67300,0,TRUE,Utility Account to Organization Settlement Account,979524 - ANCIENT WELLS PROPERTY MANAGERS 2,,
SB12RV0LY4,01/02/2024 20:18,01/02/2024 20:18,Pay Bill from 254715***045 - FRIDAH *** Acc. HGC,Completed,6500,,67300,TRUE,Pay Utility,254715***045 - FRIDAH ***,,HGC
SB10RTN6QE,01/02/2024 20:11,01/02/2024 20:11,Pay Bill from 254722***705 - ERIC *** Acc. FCF,Completed,16000,,60800,TRUE,Pay Utility,254722***705 - ERIC ***,,FCF
SB17RSEVV1,01/02/2024 20:04,01/02/2024 20:04,Pay Bill Online from 254705***736 - SNAIDA *** Acc. HBC,Completed,10000,,44800,TRUE,Pay Bill Online,254705***736 - SNAIDA ***,,HBC
SB15RRZNHL,01/02/2024 20:01,01/02/2024 20:01,Pay Bill from 254727***667 - HILDA *** Acc. JBE,Completed,9000,,34800,TRUE,Pay Utility,254727***667 - HILDA ***,,JBE
SB17RGRCPF,01/02/2024 19:06,01/02/2024 19:06,Pay Bill from 254717***919 - MARCELINE *** Acc. IAF,Completed,10000,,25800,TRUE,Pay Utility,254717***919 - MARCELINE ***,,IAF
SB16RCQDBC,01/02/2024 18:43,01/02/2024 18:43,Pay Bill from 254701***397 - ELEMA *** Acc. FCA,Completed,5800,,15800,TRUE,Pay Utility,254701***397 - ELEMA ***,,FCA
SB10RCIAWQ,01/02/2024 18:42,01/02/2024 18:42,Pay Bill from 254701***397 - ELEMA *** Acc. IEC,Completed,10000,,10000,TRUE,Pay Utility,254701***397 - ELEMA ***,,IEC
SB19R8URXJ,01/02/2024 18:20,01/02/2024 18:20,Utility Account to Organization Settlement Account,Completed,,-52500,0,TRUE,Utility Account to Organization Settlement Account,979524 - ANCIENT WELLS PROPERTY MANAGERS 2,,
SB15R7UC9F,01/02/2024 18:14,01/02/2024 18:14,Pay Bill from 254727***545 - SERAH *** Acc. KGD,Completed,10000,,52500,TRUE,Pay Utility,254727***545 - SERAH ***,,KGD
SB15R7F4N9,01/02/2024 18:11,01/02/2024 18:11,Pay Bill from 074378***968 - Dallias *** Acc. hbb,Completed,2000,,42500,TRUE,Pay Utility,074378***968 - Dallias ***,,hbb
SB11R1GY5N,01/02/2024 17:32,01/02/2024 17:32,Pay Bill Online from 254707***839 - DENNIS *** Acc. FEF,Completed,16000,,40500,TRUE,Pay Bill Online,254707***839 - DENNIS ***,,FEF
SB18QY9O5U,01/02/2024 17:09,01/02/2024 17:09,Pay Bill Online from 254711***729 - DAVID *** Acc. HFA,Completed,16000,,24500,TRUE,Pay Bill Online,254711***729 - DAVID ***,,HFA
SB18QXKJE6,01/02/2024 17:04,01/02/2024 17:04,Pay Bill from 011071***819 - JANE *** Acc. HGF,Completed,8500,,8500,TRUE,Pay Utility,011071***819 - JANE ***,,HGF
SB18QKY41S,01/02/2024 15:20,01/02/2024 15:20,Utility Account to Organization Settlement Account,Completed,,-65400,0,TRUE,Utility Account to Organization Settlement Account,979524 - ANCIENT WELLS PROPERTY MANAGERS 2,,
SB15QGMN8Z,01/02/2024 14:43,01/02/2024 14:43,Pay Bill from 254791***823 - rachel *** Acc. jeg,Completed,9000,,65400,TRUE,Pay Utility,254791***823 - rachel ***,,jeg
SB12QA8A7Q,01/02/2024 13:49,01/02/2024 13:49,Pay Bill from 254704***496 - PETER *** Acc. DFD,Completed,20000,,56400,TRUE,Pay Utility,254704***496 - PETER ***,,DFD
SB16Q6QFJE,01/02/2024 13:21,01/02/2024 13:21,Pay Bill from 254791***695 - RACHEAL *** Acc. Butcher ,Completed,5400,,36400,TRUE,Pay Utility,254791***695 - RACHEAL ***,,Butcher 
SB11Q31S0X,01/02/2024 12:50,01/02/2024 12:50,Pay Bill from 254799***466 - RUTH *** Acc. KDH,Completed,21000,,31000,TRUE,Pay Utility,254799***466 - RUTH ***,,KDH
SB17Q30YTF,01/02/2024 12:50,01/02/2024 12:50,Pay Bill Online from 254714***840 - RACHAEL *** Acc. ITE,Completed,10000,,10000,TRUE,Pay Bill Online,254714***840 - RACHAEL ***,,ITE
SB13Q0G01F,01/02/2024 12:28,01/02/2024 12:28,Utility Account to Organization Settlement Account,Completed,,-91000,0,TRUE,Utility Account to Organization Settlement Account,979524 - ANCIENT WELLS PROPERTY MANAGERS 2,,
SB19PX6I75,01/02/2024 12:00,01/02/2024 12:00,Pay Bill from 254113***311 - AMIR *** Acc. HGE,Completed,21000,,91000,TRUE,Pay Utility,254113***311 - AMIR ***,,HGE
SB10PS8BF8,01/02/2024 11:16,01/02/2024 11:16,Pay Bill Online from 070640***366 - LUCY *** Acc. KBD,Completed,3000,,70000,TRUE,Pay Bill Online,070640***366 - LUCY ***,,KBD
SB11PBD2UF,01/02/2024 08:39,01/02/2024 08:39,Pay Bill Online from 254795***441 - LEWIS *** Acc. KEB,Completed,16000,,67000,TRUE,Pay Bill Online,254795***441 - LEWIS ***,,KEB
SB12P5GZLU,01/02/2024 07:33,01/02/2024 07:33,Pay Bill Online from 075707***363 - Ifrah *** Acc. IGF,Completed,5000,,51000,TRUE,Pay Bill Online,075707***363 - Ifrah ***,,IGF
