Receipt No.,Completion Time,Initiation Time,Details,Transaction Status,Paid In,Withdrawn,Balance,Balance Confirmed,Reason Type,Other Party Info,Linked Transaction ID,A/C No.
OKB0E0H5MM,11/11/2020 06:40,11/11/2020 06:40,Utility Account to Organization Settlement Account,Completed,,-6600,0,TRUE,Utility Account to Organization Settlement Account,887674 - ANCIENT WELLS LTD 1,,
OKA9D7M39Z,10/11/2020 13:15,10/11/2020 13:15,Pay Bill from 254700218502 - GRACE NGURE Acc. V46,Completed,6600,,6600,TRUE,Pay Utility,254700218502 - GRACE NGURE,,V46
OKA9D1ELMN,10/11/2020 10:47,10/11/2020 10:47,Utility Account to Organization Settlement Account,Completed,,-7100,0,TRUE,Utility Account to Organization Settlement Account,887674 - ANCIENT WELLS LTD 1,,
OKA3CYH3ON,10/11/2020 09:37,10/11/2020 09:37,Pay Bill from 254790552440 - ANGEL MAIMA Acc. vk3,Completed,500,,7100,TRUE,Pay Utility,254790552440 - ANGEL MAIMA,,vk3
OK95CLU5DT,09/11/2020 20:09,09/11/2020 20:09,Pay Bill from 254713388942 - UKONU CHRISTOPHER OBINNA Acc. V22,Completed,6600,,6600,TRUE,Pay Utility,254713388942 - UKONU CHRISTOPHER OBINNA,,V22
OK91CK27N7,09/11/2020 19:39,09/11/2020 19:39,Utility Account to Organization Settlement Account,Completed,,-13200,0,TRUE,Utility Account to Organization Settlement Account,887674 - ANCIENT WELLS LTD 1,,
OK95CDK9GP,09/11/2020 18:04,09/11/2020 18:04,Pay Bill from 0795807227 - Lucy Ncekei Kimathi Acc. V36,Completed,13200,,13200,TRUE,Pay Utility,0795807227 - Lucy Ncekei Kimathi,,V36
OK94C3ULQC,09/11/2020 14:44,09/11/2020 14:44,Business Transfer from Utility Account to MMF Account via WEB by M-PESA - gwainaina,Completed,,-40000,0,TRUE,Business Transfer from Utility Account to MMF Account via WEB,887674 - ANCIENT WELLS LTD 1,,
OK96BVUJN2,09/11/2020 11:34,09/11/2020 11:34,Pay Bill from 254720056285 - DAMARIS NDURU Acc. V09,Completed,6600,,40000,TRUE,Pay Utility,254720056285 - DAMARIS NDURU,,V09
OK81BI4YJF,08/11/2020 21:19,08/11/2020 21:19,Pay Bill from 254703108159 - JOICE OGOLLA Acc. V50,Completed,6600,,33400,TRUE,Pay Utility,254703108159 - JOICE OGOLLA,,V50
OK81AULK3R,08/11/2020 13:13,08/11/2020 13:13,Pay Bill from 254710262457 - PETER VIKATSI Acc. Peter v26,Completed,6600,,26800,TRUE,Pay Utility,254710262457 - PETER VIKATSI,,Peter
OK89AN6P0F,08/11/2020 10:00,08/11/2020 10:00,Pay Bill Online from 254729569271 - MESHACK OBOTTA OBOTTA OBARE Acc. V12,Completed,6600,,20200,TRUE,Pay Bill Online,254729569271 - MESHACK OBOTTA OBOTTA OBARE,,V12
OK80AJQMSA,08/11/2020 08:25,08/11/2020 08:25,Pay Bill from 254722307003 - NIGEL BOMETT Acc. V01,Completed,6600,,13600,TRUE,Pay Utility,254722307003 - NIGEL BOMETT,,V01
OK83AJAJX7,08/11/2020 08:12,08/11/2020 08:12,Pay Bill from 0711494312 - CALVIN MAKWAKA AMULIOTO Acc. V08,Completed,7000,,7000,TRUE,Pay Utility,0711494312 - CALVIN MAKWAKA AMULIOTO,,V08
OK789UQ5GC,07/11/2020 15:57,07/11/2020 15:57,Utility Account to Organization Settlement Account,Completed,,-42300,0,TRUE,Utility Account to Organization Settlement Account,887674 - ANCIENT WELLS LTD 1,,
OK749NOB4S,07/11/2020 13:31,07/11/2020 13:31,Pay Bill from 254723538366 - VERONICAH SHIYENJI Acc. v40,Completed,14000,,42300,TRUE,Pay Utility,254723538366 - VERONICAH SHIYENJI,,v40
OK719J2FRT,07/11/2020 11:49,07/11/2020 11:49,Pay Bill Online from 254715939283 - alex nyamai Acc. alex v07,Completed,4000,,28300,TRUE,Pay Bill Online,254715939283 - alex nyamai,,alex
OK759FJTN5,07/11/2020 10:30,07/11/2020 10:30,Pay Bill from 254758070694 - naomi ndinda nzamalu Acc. v28,Completed,6600,,24300,TRUE,Pay Utility,254758070694 - naomi ndinda nzamalu,,v28
OK6196B0ZZ,06/11/2020 23:56,06/11/2020 23:56,Pay Bill from 254790610309 - MESHACK CHUMBA Acc. V39,Completed,6600,,17700,TRUE,Pay Utility,254790610309 - MESHACK CHUMBA,,V39
OK6094HAUA,06/11/2020 21:50,06/11/2020 21:50,Pay Bill from 254790552440 - ANGEL MAIMA Acc. vk3,Completed,4500,,11100,TRUE,Pay Utility,254790552440 - ANGEL MAIMA,,vk3
OK608CS7PU,06/11/2020 12:45,06/11/2020 12:45,Pay Bill from 0797876668 - PATRICK DOVOI AMURAVU Acc. patrick v37,Completed,6600,,6600,TRUE,Pay Utility,0797876668 - PATRICK DOVOI AMURAVU,,patrick
OK66814WGA,06/11/2020 07:55,06/11/2020 07:55,Utility Account to Organization Settlement Account,Completed,,-54800,0,TRUE,Utility Account to Organization Settlement Account,887674 - ANCIENT WELLS LTD 1,,
OK6280QHPG,06/11/2020 07:40,06/11/2020 07:40,Pay Bill from 254758951969 - WILKISTER IRAKO HARAMBEE Acc. v14,Completed,7000,,54800,TRUE,Pay Utility,254758951969 - WILKISTER IRAKO HARAMBEE,,v14
OK6980CKHR,06/11/2020 07:25,06/11/2020 07:25,Pay Bill from 254721524677 - SAMSON AHOLO Acc. Samson v33,Completed,8000,,47800,TRUE,Pay Utility,254721524677 - SAMSON AHOLO,,Samson
OK577T4YS5,05/11/2020 20:29,05/11/2020 20:29,Pay Bill from 254718359438 - AHMAD TAHIR MACHENGO Acc. V11,Completed,6600,,39800,TRUE,Pay Utility,254718359438 - AHMAD TAHIR MACHENGO,,V11
OK537OW2L7,05/11/2020 19:22,05/11/2020 19:22,Pay Bill from 254705670064 - margaret wahu wachira Acc. v35,Completed,6400,,33200,TRUE,Pay Utility,254705670064 - margaret wahu wachira,,v35
OK567OIK4S,05/11/2020 19:17,05/11/2020 19:17,Pay Bill from 254726465584 - JULIANA MUKELI MUTUNGA Acc. v4,Completed,6600,,26800,TRUE,Pay Utility,254726465584 - JULIANA MUKELI MUTUNGA,,v4
OK567KIMXG,05/11/2020 18:23,05/11/2020 18:23,Pay Bill from 254799376885 - DERRICK OSORE SONGORO Acc. DerrickV58,Completed,6600,,20200,TRUE,Pay Utility with OD via STK,254799376885 - DERRICK OSORE SONGORO,,DerrickV58
OK567JJPJ2,05/11/2020 18:07,05/11/2020 18:07,Pay Bill from 254717294709 - CAROLINE WAVINYA NDINDA Acc. V15,Completed,7000,,13600,TRUE,Pay Utility,254717294709 - CAROLINE WAVINYA NDINDA,,V15
OK516ZB8NX,05/11/2020 10:43,05/11/2020 10:43,Pay Bill from 254723815832 - SEMEKIA ONDIALA Acc. v38,Completed,6600,,6600,TRUE,Pay Utility,254723815832 - SEMEKIA ONDIALA,,v38
OK536TWW77,05/11/2020 08:26,05/11/2020 08:26,Utility Account to Organization Settlement Account,Completed,,-20200,0,TRUE,Utility Account to Organization Settlement Account,887674 - ANCIENT WELLS LTD 1,,
OK426FK2XQ,04/11/2020 18:58,04/11/2020 18:58,Pay Bill from 254720623535 - JOSEPH MUTURI KAMAU Acc. V32,Completed,6600,,20200,TRUE,Pay Utility,254720623535 - JOSEPH MUTURI KAMAU,,V32
OK4865MZ9Q,04/11/2020 16:00,04/11/2020 16:00,Pay Bill from 254723389922 - ANNE WANJIKU Acc. v53,Completed,7000,,13600,TRUE,Pay Utility,254723389922 - ANNE WANJIKU,,v53
OK4262R1CE,04/11/2020 14:55,04/11/2020 14:55,Pay Bill Online from 254704995854 - james karanja wairimu Acc. V54,Completed,6600,,6600,TRUE,Pay Bill Online,254704995854 - james karanja wairimu,,V54
OK4761BZV3,04/11/2020 14:21,04/11/2020 14:21,Utility Account to Organization Settlement Account,Completed,,-10600,0,TRUE,Utility Account to Organization Settlement Account,887674 - ANCIENT WELLS LTD 1,,
OK455Y4HAZ,04/11/2020 13:06,04/11/2020 13:06,Pay Bill from 254712091662 - BENARD OMONDI ROBY Acc. V16,Completed,6600,,10600,TRUE,Pay Utility,254712091662 - BENARD OMONDI ROBY,,V16
OK425RPS6Q,04/11/2020 10:32,04/11/2020 10:32,Pay Bill from 254702921564 - DENNIS MAHERO SHIUNDU Acc. Dennis V21,Completed,4000,,4000,TRUE,Pay Utility,254702921564 - DENNIS MAHERO SHIUNDU,,Dennis
OK445OX8QS,04/11/2020 09:22,04/11/2020 09:22,Utility Account to Organization Settlement Account,Completed,,-40000,0,TRUE,Utility Account to Organization Settlement Account,887674 - ANCIENT WELLS LTD 1,,
OK395BZD7N,03/11/2020 19:49,03/11/2020 19:49,Pay Bill Online from 254725639425 - CHRISPINE OMONDI Acc. V13,Completed,6600,,40000,TRUE,Pay Bill Online,254725639425 - CHRISPINE OMONDI,,V13
OK375BWJB9,03/11/2020 19:48,03/11/2020 19:48,Pay Bill from 0717042461 - Sharon Nyangasi Shivachi Acc. V55,Completed,6600,,33400,TRUE,Pay Utility,0717042461 - Sharon Nyangasi Shivachi,,V55
OK325ANA0O,03/11/2020 19:28,03/11/2020 19:28,Pay Bill from 254718818610 - HANNAH NALIAKA Acc. V23,Completed,6600,,26800,TRUE,Pay Utility,254718818610 - HANNAH NALIAKA,,V23
OK3057JPIG,03/11/2020 18:44,03/11/2020 18:44,Pay Bill Online from 254704783091 - CLINTON MUSEBE KASUTI Acc. v48,Completed,6600,,20200,TRUE,Pay Bill Online,254704783091 - CLINTON MUSEBE KASUTI,,v48
OK3257BBEY,03/11/2020 18:40,03/11/2020 18:40,Pay Bill from 254722578070 - SAMUEL MACHARIA Acc. v42,Completed,7000,,13600,TRUE,Pay Utility,254722578070 - SAMUEL MACHARIA,,v42
OK324XEHCW,03/11/2020 15:33,03/11/2020 15:33,Pay Bill from 254702170403 - LUCY KATHAMBI KOOME Acc. v25,Completed,6600,,6600,TRUE,Pay Utility,254702170403 - LUCY KATHAMBI KOOME,,v25
OK334JTE25,03/11/2020 10:09,03/11/2020 10:09,Utility Account to Organization Settlement Account,Completed,,-41200,0,TRUE,Utility Account to Organization Settlement Account,887674 - ANCIENT WELLS LTD 1,,
OK314IZMRF,03/11/2020 09:48,03/11/2020 09:48,Pay Bill from 254701086112 - CAROLYNE KOKI MULWA Acc. V30,Completed,6600,,41200,TRUE,Pay Utility,254701086112 - CAROLYNE KOKI MULWA,,V30
OK364H0MTE,03/11/2020 08:56,03/11/2020 08:56,Pay Bill from 254723737647 - BRIAN MANGADE Acc. V51,Completed,6600,,34600,TRUE,Pay Utility,254723737647 - BRIAN MANGADE,,V51
OK284A4O2O,02/11/2020 21:44,02/11/2020 21:44,Pay Bill from 254712569636 - BENSON NYAGA Acc. V,Completed,6600,,28000,TRUE,Pay Utility,254712569636 - BENSON NYAGA,,V
OK2843UIYE,02/11/2020 19:28,02/11/2020 19:28,Pay Bill from 254727729395 - ROBERT OUKO OSORO Acc. V29,Completed,6600,,21400,TRUE,Pay Utility,254727729395 - ROBERT OUKO OSORO,,V29
OK2543HADN,02/11/2020 19:23,02/11/2020 19:23,Pay Bill from 254724464046 - JOSEPH A ORINA Acc. v34,Completed,700,,14800,TRUE,Pay Utility,254724464046 - JOSEPH A ORINA,,v34
OK293YQFI3,02/11/2020 18:11,02/11/2020 18:11,Pay Bill from 254708915764 - GEORGE WAHOME Acc. V18,Completed,7100,,14100,TRUE,Pay Utility,254708915764 - GEORGE WAHOME,,V18
OK213TQHDD,02/11/2020 16:36,02/11/2020 16:36,Pay Bill Online from 254726844965 - LAMECK OGOT Acc. V3,Completed,7000,,7000,TRUE,Pay Bill Online,254726844965 - LAMECK OGOT,,V3
OK223IBP0U,02/11/2020 12:09,02/11/2020 12:09,Utility Account to Organization Settlement Account,Completed,,-6600,0,TRUE,Utility Account to Organization Settlement Account,887674 - ANCIENT WELLS LTD 1,,
OK213GBEAR,02/11/2020 11:20,02/11/2020 11:20,Pay Bill from 254718417450 - HARON ASUMA OROKO Acc. Haron v47,Completed,6600,,6600,TRUE,Pay Utility,254718417450 - HARON ASUMA OROKO,,Haron
