Receipt No.,Completion Time,Initiation Time,Details,Transaction Status,Paid In,Withdrawn,Balance,Balance Confirmed,Reason Type,Other Party Info,Linked Transaction ID,A/C No.
PJQ4QWBE8S,26/10/2021 12:36,26/10/2021 12:36,Pay Bill from 254704140048 - MAUREEN GACHERI KINYUA Acc. JDD,Completed,15000,,15000,TRUE,Pay Utility,254704140048 - MAUREEN GACHERI KINYUA,,JDD
PJQ1QPCPDF,26/10/2021 10:22,26/10/2021 10:22,Utility Account to Organization Settlement Account,Completed,,-10000,0,TRUE,Utility Account to Organization Settlement Account,979524 - ANCIENT WELLS PROPERTY MANAGERS 2,,
PJQ7QMGDZ5,26/10/2021 09:25,26/10/2021 09:25,Pay Bill Online from 254717463608 - DANIEL MUNIU MUGURE Acc. HGE,Completed,10000,,10000,TRUE,Pay Bill Online,254717463608 - DANIEL MUNIU MUGURE,,HGE
PJQ2QMFBQ2,26/10/2021 09:24,26/10/2021 09:24,Utility Account to Organization Settlement Account,Completed,,-93500,0,TRUE,Utility Account to Organization Settlement Account,979524 - ANCIENT WELLS PROPERTY MANAGERS 2,,
PJP8Q9H7G8,25/10/2021 21:10,25/10/2021 21:10,Pay Bill from 254703528196 - ERIC GITONGA MUGO Acc. KGJ,Completed,11000,,93500,TRUE,Pay Utility,254703528196 - ERIC GITONGA MUGO,,KGJ
PJP8PNXICW,25/10/2021 16:18,25/10/2021 16:18,Pay Bill from 254713497971 - GERISHON NDUNG'U KOMU Acc. HGH,Completed,17000,,82500,TRUE,Pay Utility,254713497971 - GERISHON NDUNG'U KOMU,,HGH
PJP2PNR0LQ,25/10/2021 16:14,25/10/2021 16:14,Merchant Pay Utility Received from 7040090 - Amina Haji Salah Acc. JEH,Completed,10000,,65500,TRUE,Merchant Pay Utility via API,7040090 - Amina Haji Salah,,JEH
PJP9PNA4HF,25/10/2021 16:06,25/10/2021 16:06,Pay Bill from 254722458136 - NADI GOLICHA Acc. KAA,Completed,11000,,55500,TRUE,Pay Utility with OD via STK,254722458136 - NADI GOLICHA,,KAA
PJP8PJ0Q8A,25/10/2021 14:46,25/10/2021 14:46,Pay Bill from 254798146452 - VALARY ODHIAMBO Acc. JEE,Completed,10000,,44500,TRUE,Pay Utility,254798146452 - VALARY ODHIAMBO,,JEE
PJP3PHFAL5,25/10/2021 14:15,25/10/2021 14:15,Pay Bill Online from 254719317219 - PHILIP MBOYA Acc. JDH,Completed,16000,,34500,TRUE,Pay Utility with OD Online,254719317219 - PHILIP MBOYA,,JDH
PJP9PBXIRF,25/10/2021 12:33,25/10/2021 12:33,Pay Bill from 0721130307 - HILLARY NGUNYI MUTINDA Acc. JCH,Completed,16000,,18500,TRUE,Pay Utility,0721130307 - HILLARY NGUNYI MUTINDA,,JCH
PJP6PADFSU,25/10/2021 12:03,25/10/2021 12:03,Pay Bill from 0715688238 - JOANNAH ATUHAIRE BANTU Acc. jae,Completed,2500,,2500,TRUE,Pay Utility,0715688238 - JOANNAH ATUHAIRE BANTU,,jae
PJP1OYGC69,25/10/2021 07:55,25/10/2021 07:55,Utility Account to Organization Settlement Account,Completed,,-99500,0,TRUE,Utility Account to Organization Settlement Account,979524 - ANCIENT WELLS PROPERTY MANAGERS 2,,
PJP2OVVHEA,25/10/2021 06:26,25/10/2021 06:26,Pay Bill from 254716715043 - HANNAH WATETU GACHAGUA Acc. IAI,Completed,15000,,99500,TRUE,Pay Utility with OD via STK,254716715043 - HANNAH WATETU GACHAGUA,,IAI
PJO7OC6KTL,24/10/2021 17:50,24/10/2021 17:50,Pay Bill from 254710110273 - AGNES NTOITI Acc. JBB,Completed,5000,,84500,TRUE,Pay Utility with OD via STK,254710110273 - AGNES NTOITI,,JBB
PJO3NZ8V7T,24/10/2021 14:04,24/10/2021 14:04,Pay Bill from 254728788938 - MOHAMED ISSAK ADAN Acc. jaa,Completed,6000,,79500,TRUE,Pay Utility with OD via STK,254728788938 - MOHAMED ISSAK ADAN,,jaa
PJO2NXAFUQ,24/10/2021 13:27,24/10/2021 13:27,Pay Bill Online from 254723901777 - EVANS YEBEI Acc. KCH,Completed,10000,,73500,TRUE,Pay Bill Online,254723901777 - EVANS YEBEI,,KCH
PJO4NQQZZO,24/10/2021 11:08,24/10/2021 11:08,Pay Bill from 254717606114 - KELVIN TONDO NGUMBAO Acc. HCE,Completed,11000,,63500,TRUE,Pay Utility,254717606114 - KELVIN TONDO NGUMBAO,,HCE
PJO8NPU0GY,24/10/2021 10:48,24/10/2021 10:48,Pay Bill Online from 254714536026 - LILIAN AWUOR ONYANGO Acc. HDC ,Completed,22000,,52500,TRUE,Pay Bill Online,254714536026 - LILIAN AWUOR ONYANGO,,HDC
PJN3NAZKQ9,23/10/2021 21:38,23/10/2021 21:38,Pay Bill from 0113803309 - DORRIS MUENI MUTIE Acc. FBC,Completed,9500,,30500,TRUE,Pay Utility,0113803309 - DORRIS MUENI MUTIE,,FBC
PJN6N36T8M,23/10/2021 19:35,23/10/2021 19:35,Pay Bill from 0718838251 - MARK KINYUA MAINA Acc. kfg,Completed,10000,,21000,TRUE,Pay Utility,0718838251 - MARK KINYUA MAINA,,kfg
PJN0ML9NGE,23/10/2021 15:27,23/10/2021 15:27,Pay Bill from 254704403532 - Mercy Chepchirchir Mary Acc. Jbc,Completed,11000,,11000,TRUE,Pay Utility,254704403532 - Mercy Chepchirchir Mary,,Jbc
PJN6M11UY8,23/10/2021 09:26,23/10/2021 09:26,Utility Account to Organization Settlement Account,Completed,,-111500,0,TRUE,Utility Account to Organization Settlement Account,979524 - ANCIENT WELLS PROPERTY MANAGERS 2,,
PJN6LZSWAK,23/10/2021 09:00,23/10/2021 09:00,Pay Bill from 254713662892 - DAVID JUMA KIPTOCH Acc. JBE,Completed,8500,,111500,TRUE,Pay Utility,254713662892 - DAVID JUMA KIPTOCH,,JBE
PJN8LUXDSI,23/10/2021 06:52,23/10/2021 06:52,Pay Bill Online from 254720451253 - JIMMY KIOGORA NKIROTE Acc. KBD,Completed,2500,,103000,TRUE,Pay Utility with OD Online,254720451253 - JIMMY KIOGORA NKIROTE,,KBD
PJM6L3LBI2,22/10/2021 16:45,22/10/2021 16:45,Pay Bill from 254728681775 - Faith Abigael Acc. JAC,Completed,7500,,100500,TRUE,Pay Utility,254728681775 - Faith Abigael,,JAC
PJM4KZZ3CE,22/10/2021 15:43,22/10/2021 15:43,Pay Bill Online from 254720787158 - AMOS CHELANG'A Acc. KFK,Completed,32000,,93000,TRUE,Pay Bill Online,254720787158 - AMOS CHELANG'A,,KFK
PJM0KVXFBU,22/10/2021 14:29,22/10/2021 14:29,Pay Bill from 254729371750 - DERRICK OTANGA Acc. FEF,Completed,17000,,61000,TRUE,Pay Utility,254729371750 - DERRICK OTANGA,,FEF
PJM1KUT97L,22/10/2021 14:08,22/10/2021 14:08,Pay Bill from 0111501429 - James Mwaura Mwangi Acc. IBI,Completed,7000,,44000,TRUE,Pay Utility,0111501429 - James Mwaura Mwangi,,IBI
PJM8KSZFV4,22/10/2021 13:34,22/10/2021 13:34,Pay Bill from 254728681775 - Faith Abigael Acc. JAC,Completed,10000,,37000,TRUE,Pay Utility,254728681775 - Faith Abigael,,JAC
PJM9KSPVE1,22/10/2021 13:30,22/10/2021 13:30,Pay Bill from 254728681775 - Faith Abigael Acc. IAF,Completed,9000,,27000,TRUE,Pay Utility,254728681775 - Faith Abigael,,IAF
PJM2KNW408,22/10/2021 11:56,22/10/2021 11:56,Pay Bill from 0740507437 - JOY KAARI KAMENCU Acc. FAC,Completed,9000,,18000,TRUE,Pay Utility,0740507437 - JOY KAARI KAMENCU,,FAC
PJM3KE0DQP,22/10/2021 08:35,22/10/2021 08:35,Pay Bill from 254717909848 - MARY MBULA KATHUKU Acc. FGD,Completed,9000,,9000,TRUE,Pay Utility,254717909848 - MARY MBULA KATHUKU,,FGD
PJM2KAZK98,22/10/2021 07:15,22/10/2021 07:15,Utility Account to Organization Settlement Account,Completed,,-41000,0,TRUE,Utility Account to Organization Settlement Account,979524 - ANCIENT WELLS PROPERTY MANAGERS 2,,
PJM8K99YJM,22/10/2021 05:41,22/10/2021 05:41,Pay Bill from 0715688238 - JOANNAH ATUHAIRE BANTU Acc. jae,Completed,2000,,41000,TRUE,Pay Utility,0715688238 - JOANNAH ATUHAIRE BANTU,,jae
PJL5JIIIFH,21/10/2021 16:18,21/10/2021 16:18,Pay Bill from 0792933158 - mary wamaitha maina Acc. kdh,Completed,10000,,39000,TRUE,Pay Utility,0792933158 - mary wamaitha maina,,kdh
PJL4J89L6G,21/10/2021 13:07,21/10/2021 13:07,Pay Bill from 254795449800 - MARTHA WANJIRU NJUGUNA Acc. FEB,Completed,15000,,29000,TRUE,Pay Utility,254795449800 - MARTHA WANJIRU NJUGUNA,,FEB
PJL9J6EWW1,21/10/2021 12:32,21/10/2021 12:32,Pay Bill from 254724611087 - Francis Mukindya Muoki Acc. dfb,Completed,4500,,14000,TRUE,Pay Utility,254724611087 - Francis Mukindya Muoki,,dfb
PJL9J4X7ND,21/10/2021 12:03,21/10/2021 12:03,Pay Bill from 254723954911 - JAMES KILAVI Acc. ICG,Completed,9500,,9500,TRUE,Pay Utility,254723954911 - JAMES KILAVI,,ICG
PJL6J4J7W0,21/10/2021 11:56,21/10/2021 11:56,Utility Account to Organization Settlement Account,Completed,,-17000,0,TRUE,Utility Account to Organization Settlement Account,979524 - ANCIENT WELLS PROPERTY MANAGERS 2,,
PJL8IX36CQ,21/10/2021 09:29,21/10/2021 09:29,Pay Bill from 0722950695 - Joshua Mbithi Kivondo Acc. Dca,Completed,17000,,17000,TRUE,Pay Utility,0722950695 - Joshua Mbithi Kivondo,,Dca
PJL7IT9UPL,21/10/2021 08:03,21/10/2021 08:03,Utility Account to Organization Settlement Account,Completed,,-35000,0,TRUE,Utility Account to Organization Settlement Account,979524 - ANCIENT WELLS PROPERTY MANAGERS 2,,
PJL9IRHBYH,21/10/2021 07:10,21/10/2021 07:10,Pay Bill from 254700531269 - FRANCIS GITAU MACHARIA Acc. ICC,Completed,15000,,35000,TRUE,Pay Utility with OD via STK,254700531269 - FRANCIS GITAU MACHARIA,,ICC
PJK1HN660J,20/10/2021 12:41,20/10/2021 12:41,Pay Bill from 254701047939 - Cyrus Wahome Acc. JAH,Completed,16000,,20000,TRUE,Pay Utility,254701047939 - Cyrus Wahome,,JAH
PJK5HJ89TX,20/10/2021 11:25,20/10/2021 11:25,Pay Bill from 254704111133 - ELVIS OTIENO Acc. HFD,Completed,2000,,4000,TRUE,Pay Utility,254704111133 - ELVIS OTIENO,,HFD
PJK8HGKVYA,20/10/2021 10:33,20/10/2021 10:33,Pay Bill Online from 254710202776 - KELVIN KARIMI MACHARIA Acc. FAD,Completed,2000,,2000,TRUE,Pay Bill Online,254710202776 - KELVIN KARIMI MACHARIA,,FAD
PJK8HDZ59E,20/10/2021 09:41,20/10/2021 09:41,Utility Account to Organization Settlement Account,Completed,,-10000,0,TRUE,Utility Account to Organization Settlement Account,979524 - ANCIENT WELLS PROPERTY MANAGERS 2,,
PJK2HAA6FE,20/10/2021 08:19,20/10/2021 08:19,Pay Bill from 254719499823 - MOSES MWANZIA MUTHIANI Acc. Jcc,Completed,7000,,10000,TRUE,Pay Utility,254719499823 - MOSES MWANZIA MUTHIANI,,Jcc
PJJ3GZA36N,19/10/2021 20:29,19/10/2021 20:29,Pay Bill Online from 254720451253 - JIMMY KIOGORA NKIROTE Acc. KBD,Completed,3000,,3000,TRUE,Pay Utility with OD Online,254720451253 - JIMMY KIOGORA NKIROTE,,KBD
PJJ6GP6J0K,19/10/2021 18:30,19/10/2021 18:30,Utility Account to Organization Settlement Account,Completed,,-34000,0,TRUE,Utility Account to Organization Settlement Account,979524 - ANCIENT WELLS PROPERTY MANAGERS 2,,
PJJ1GD4YS1,19/10/2021 15:28,19/10/2021 15:28,Pay Bill from 254722136450 - MARY EVERLYN Acc. JAI,Completed,7200,,34000,TRUE,Pay Utility with OD via STK,254722136450 - MARY EVERLYN,,JAI
PJJ3GCFFP5,19/10/2021 15:15,19/10/2021 15:15,Pay Bill from 254722136450 - MARY EVERLYN Acc. JAI,Completed,800,,26800,TRUE,Pay Utility,254722136450 - MARY EVERLYN,,JAI
PJJ7GCEGO5,19/10/2021 15:15,19/10/2021 15:15,Pay Bill from 254729557859 - AUDREY KASINDAHA KASINDAHA Acc. KFB,Completed,16000,,26000,TRUE,Pay Utility,254729557859 - AUDREY KASINDAHA KASINDAHA,,KFB
PJJ5G3ZKVZ,19/10/2021 12:38,19/10/2021 12:38,Pay Bill from 254725539787 - EVERLYNE MOGAKA Acc. KEF,Completed,10000,,10000,TRUE,Pay Utility,254725539787 - EVERLYNE MOGAKA,,KEF
PJJ5G0ERVH,19/10/2021 11:29,19/10/2021 11:29,Utility Account to Organization Settlement Account,Completed,,-5000,0,TRUE,Utility Account to Organization Settlement Account,979524 - ANCIENT WELLS PROPERTY MANAGERS 2,,
PJI9FG1K61,18/10/2021 20:38,18/10/2021 20:38,Pay Bill from 254721944520 - NANCY KARIHA Acc. KDD,Completed,5000,,5000,TRUE,Pay Utility,254721944520 - NANCY KARIHA,,KDD
PJI2F7Z2K8,18/10/2021 18:58,18/10/2021 18:58,Utility Account to Organization Settlement Account,Completed,,-66200,0,TRUE,Utility Account to Organization Settlement Account,979524 - ANCIENT WELLS PROPERTY MANAGERS 2,,
PJI7EUCZI3,18/10/2021 15:44,18/10/2021 15:44,Pay Bill from 254716715043 - HANNAH WATETU GACHAGUA Acc. IAI,Completed,3700,,66200,TRUE,Pay Utility,254716715043 - HANNAH WATETU GACHAGUA,,IAI
PJI7EKSFA5,18/10/2021 12:48,18/10/2021 12:48,Pay Bill from 254710110273 - AGNES NTOITI Acc. JBB,Completed,10000,,62500,TRUE,Pay Utility with OD via STK,254710110273 - AGNES NTOITI,,JBB
PJI9EGDGHD,18/10/2021 11:24,18/10/2021 11:24,Pay Bill from 254703555717 - SENGA SALIM Acc. hbb,Completed,5000,,52500,TRUE,Pay Utility,254703555717 - SENGA SALIM,,hbb
PJI8EEVU6S,18/10/2021 10:55,18/10/2021 10:55,Pay Bill from 254728313347 - GEORGE KIMAIGA NYAMORI Acc. ici,Completed,16000,,47500,TRUE,Pay Utility with OD via STK,254728313347 - GEORGE KIMAIGA NYAMORI,,ici
PJI1EDZRDT,18/10/2021 10:38,18/10/2021 10:38,Pay Bill Online from 254722921132 - JOE MCCRAY MURIUKI KIHIA Acc. IFA,Completed,15000,,31500,TRUE,Pay Utility with OD Online,254722921132 - JOE MCCRAY MURIUKI KIHIA,,IFA
PJI1E9F4N1,18/10/2021 09:06,18/10/2021 09:06,Pay Bill from 254725381062 - VICTOR MAITHYA Acc. HEG,Completed,6000,,16500,TRUE,Pay Utility with OD via STK,254725381062 - VICTOR MAITHYA,,HEG
PJI9E4HFIV,18/10/2021 06:59,18/10/2021 06:59,Pay Bill Online from 254715764212 - BANCE ISHEMINYE Acc. JFE,Completed,2000,,10500,TRUE,Pay Utility with OD Online,254715764212 - BANCE ISHEMINYE,,JFE
PJH0CNI7A0,17/10/2021 01:20,17/10/2021 01:20,Pay Bill from 254723389177 - NELSON MOI Acc. ibf,Completed,8500,,8500,TRUE,Pay Utility,254723389177 - NELSON MOI,,ibf
PJG0BJI70K,16/10/2021 12:46,16/10/2021 12:46,Utility Account to Organization Settlement Account,Completed,,-176400,0,TRUE,Utility Account to Organization Settlement Account,979524 - ANCIENT WELLS PROPERTY MANAGERS 2,,
PJG2B7NMZO,16/10/2021 09:14,16/10/2021 09:14,Pay Bill from 254722458136 - NADI GOLICHA Acc. KAA,Completed,5500,,176400,TRUE,Pay Utility with OD via STK,254722458136 - NADI GOLICHA,,KAA
PJG6B7KI4G,16/10/2021 09:12,16/10/2021 09:12,Pay Bill from 254722458136 - NADI GOLICHA Acc. KAA,Completed,500,,170900,TRUE,Pay Utility,254722458136 - NADI GOLICHA,,KAA
PJG2B7BY90,16/10/2021 09:08,16/10/2021 09:08,Pay Bill from 254724655033 - SUSAN CHIMOTO Acc. KGH,Completed,9500,,170400,TRUE,Pay Utility,254724655033 - SUSAN CHIMOTO,,KGH
PJG9B0MZ5B,16/10/2021 03:50,16/10/2021 03:50,Pay Bill from 254720883049 - SIMON AMUKOCHE Acc. IED,Completed,11000,,160900,TRUE,Pay Utility,254720883049 - SIMON AMUKOCHE,,IED
PJF8AYV38M,15/10/2021 22:51,15/10/2021 22:51,Pay Bill from 0748059595 - Rashid NASSIR Khamis Acc. DDA,Completed,8000,,149900,TRUE,Pay Utility with OD via STK,0748059595 - Rashid NASSIR Khamis,,DDA
PJF8AXFA6E,15/10/2021 21:59,15/10/2021 21:59,Pay Bill from 254722992162 - JAEL MWANDILOH Acc. DCB,Completed,5000,,141900,TRUE,Pay Utility,254722992162 - JAEL MWANDILOH,,DCB
PJF9AM1OKR,15/10/2021 19:11,15/10/2021 19:11,Pay Bill from 254722992162 - JAEL MWANDILOH Acc. DCB,Completed,10000,,136900,TRUE,Pay Utility,254722992162 - JAEL MWANDILOH,,DCB
PJF3AHJQSX,15/10/2021 18:23,15/10/2021 18:23,Pay Bill from 254728084427 - MARY NABWIRE OKELLO Acc. FDF,Completed,41000,,126900,TRUE,Pay Utility,254728084427 - MARY NABWIRE OKELLO,,FDF
PJF0AFM31E,15/10/2021 17:59,15/10/2021 17:59,Pay Bill from 254726116777 - MARY NDUTA GOSHO Acc. JDB,Completed,15000,,85900,TRUE,Pay Utility,254726116777 - MARY NDUTA GOSHO,,JDB
PJF1A3WR1D,15/10/2021 14:58,15/10/2021 14:58,Pay Bill Online from 254722258107 - JOHN ODIMA ODIMA Acc. KGF,Completed,10000,,70900,TRUE,Pay Bill Online,254722258107 - JOHN ODIMA ODIMA,,KGF
PJF5A3NMK7,15/10/2021 14:53,15/10/2021 14:53,Pay Bill from 254716715043 - HANNAH WATETU GACHAGUA Acc. IAI,Completed,19800,,60900,TRUE,Pay Utility with OD via STK,254716715043 - HANNAH WATETU GACHAGUA,,IAI
PJF3A2MAJF,15/10/2021 14:35,15/10/2021 14:35,Pay Bill from 254796848496 - IVY WITABA Acc. JBA,Completed,20000,,41100,TRUE,Pay Utility,254796848496 - IVY WITABA,,JBA
PJF29Z4XEM,15/10/2021 13:34,15/10/2021 13:34,Pay Bill from 254799214498 - EMMILY LWAMBA Acc. KCF,Completed,4100,,21100,TRUE,Pay Utility,254799214498 - EMMILY LWAMBA,,KCF
PJF69SUK8Q,15/10/2021 11:39,15/10/2021 11:39,Pay Bill from 254724103759 - RICHARD NKAABO Acc. jej,Completed,6000,,17000,TRUE,Pay Utility,254724103759 - RICHARD NKAABO,,jej
PJF09J55VG,15/10/2021 08:25,15/10/2021 08:25,Pay Bill from 254726039536 - MERCY MESHACK Acc. JBC,Completed,11000,,11000,TRUE,Pay Utility,254726039536 - MERCY MESHACK,,JBC
PJF89FCS6S,15/10/2021 06:28,15/10/2021 06:28,Utility Account to Organization Settlement Account,Completed,,-60700,0,TRUE,Utility Account to Organization Settlement Account,979524 - ANCIENT WELLS PROPERTY MANAGERS 2,,
PJE18BPEBR,14/10/2021 12:22,14/10/2021 12:22,Pay Bill from 254798643998 - Judith Mwaniki Acc. kce,Completed,10000,,60700,TRUE,Pay Utility with OD via STK,254798643998 - Judith Mwaniki,,kce
PJE287KA98,14/10/2021 11:02,14/10/2021 11:02,Pay Bill from 254702190887 - Nax Ochieng Acc. FDE,Completed,15000,,50700,TRUE,Pay Utility,254702190887 - Nax Ochieng,,FDE
PJE1836RDT,14/10/2021 09:36,14/10/2021 09:36,Pay Bill from 254704111133 - ELVIS OTIENO Acc. HFD,Completed,2000,,35700,TRUE,Pay Utility,254704111133 - ELVIS OTIENO,,HFD
PJD17TEZD3,13/10/2021 22:33,13/10/2021 22:33,Pay Bill from 254704481218 - Asenath Kivunga Mwakio Acc. KDG,Completed,10000,,33700,TRUE,Pay Utility,254704481218 - Asenath Kivunga Mwakio,,KDG
PJD57FHG3H,13/10/2021 18:52,13/10/2021 18:52,Pay Bill from 0799028632 - WILSON MUTANGILI WAMBUA Acc. haf,Completed,4500,,23700,TRUE,Pay Utility,0799028632 - WILSON MUTANGILI WAMBUA,,haf
PJD37EUIQ3,13/10/2021 18:45,13/10/2021 18:45,Pay Bill from 0743248310 - PATRICK STURRIDGE NYONGESA Acc. daa,Completed,3000,,19200,TRUE,Pay Utility,0743248310 - PATRICK STURRIDGE NYONGESA,,daa
PJD27E1RPI,13/10/2021 18:36,13/10/2021 18:36,Pay Bill from 254723699555 - DIANA NYAIREGI GICHIA Acc. FBF- Window pane ,Completed,200,,16200,TRUE,Pay Utility,254723699555 - DIANA NYAIREGI GICHIA,,FBF-
PJD471E99E,13/10/2021 15:25,13/10/2021 15:25,Merchant Pay Utility Received from 7040090 - Amina Haji Salah Acc. JEH,Completed,6000,,16000,TRUE,Merchant Pay Utility via API,7040090 - Amina Haji Salah,,JEH
PJD66WEW0W,13/10/2021 13:53,13/10/2021 13:53,Pay Bill Online from 254727766786 - JOHN MAITHA MULWA Acc. IBH,Completed,10000,,10000,TRUE,Pay Bill Online,254727766786 - JOHN MAITHA MULWA,,IBH
PJD26S0Y0O,13/10/2021 12:34,13/10/2021 12:34,Utility Account to Organization Settlement Account,Completed,,-75500,0,TRUE,Utility Account to Organization Settlement Account,979524 - ANCIENT WELLS PROPERTY MANAGERS 2,,
PJD76QNSSL,13/10/2021 12:08,13/10/2021 12:08,Pay Bill Online from 254728886864 - MOULINE ONYANGO Acc. IAA,Completed,16000,,75500,TRUE,Pay Bill Online,254728886864 - MOULINE ONYANGO,,IAA
PJD06OVEL4,13/10/2021 11:34,13/10/2021 11:34,Pay Bill from 0723409745 - Kelvin Kitonga Mutyetu Acc. kbf,Completed,4000,,59500,TRUE,Pay Utility with OD via STK,0723409745 - Kelvin Kitonga Mutyetu,,kbf
PJD06NN9J0,13/10/2021 11:11,13/10/2021 11:11,Pay Bill Online from 254705846408 - JAMES OUMA Acc. HBH,Completed,16000,,55500,TRUE,Pay Bill Online,254705846408 - JAMES OUMA,,HBH
PJD96JJYJH,13/10/2021 09:53,13/10/2021 09:53,Pay Bill from 254726170938 - ANNE CHEBET TALLAM Acc. hff,Completed,9500,,39500,TRUE,Pay Utility,254726170938 - ANNE CHEBET TALLAM,,hff
PJD66FZNQG,13/10/2021 08:40,13/10/2021 08:40,Pay Bill from 254715338158 - REBECCA MUTHONI KARIUKI Acc. JCB,Completed,15000,,30000,TRUE,Pay Utility with OD via STK,254715338158 - REBECCA MUTHONI KARIUKI,,JCB
PJD66E6PN2,13/10/2021 07:59,13/10/2021 07:59,Pay Bill Online from 254711721087 - MUTHIANI KYULE Acc. IDB,Completed,15000,,15000,TRUE,Pay Bill Online,254711721087 - MUTHIANI KYULE,,IDB
PJD66BLPE4,13/10/2021 06:34,13/10/2021 06:34,Utility Account to Organization Settlement Account,Completed,,-70000,0,TRUE,Utility Account to Organization Settlement Account,979524 - ANCIENT WELLS PROPERTY MANAGERS 2,,
PJC269YXXM,12/10/2021 23:54,12/10/2021 23:54,Pay Bill from 254791318982 - ADULLAHI HASSAN Acc. JCI,Completed,20000,,70000,TRUE,Pay Utility,254791318982 - ADULLAHI HASSAN,,JCI
PJC569K2V7,12/10/2021 23:07,12/10/2021 23:07,Pay Bill from 254798844460 - WYCLIFFE ODHIAMBO NYAGOA Acc. KAC,Completed,10000,,50000,TRUE,Pay Utility,254798844460 - WYCLIFFE ODHIAMBO NYAGOA,,KAC
PJC9697P1V,12/10/2021 22:44,12/10/2021 22:44,Pay Bill Online from 254720451253 - JIMMY KIOGORA NKIROTE Acc. KBD,Completed,3000,,40000,TRUE,Pay Bill Online,254720451253 - JIMMY KIOGORA NKIROTE,,KBD
PJC55Y71XP,12/10/2021 19:18,12/10/2021 19:18,Pay Bill from 254700382442 - EVERLYNE MWENDE MUMO Acc. FGC,Completed,9000,,37000,TRUE,Pay Utility,254700382442 - EVERLYNE MWENDE MUMO,,FGC
PJC25F8WIE,12/10/2021 14:51,12/10/2021 14:51,Pay Bill from 254710635630 - DONNA JESSICA OWANO Acc. KCC,Completed,10000,,28000,TRUE,Pay Utility,254710635630 - DONNA JESSICA OWANO,,KCC
PJC25BGQVS,12/10/2021 13:45,12/10/2021 13:45,Pay Bill Online from 254720451253 - JIMMY KIOGORA NKIROTE Acc. JBG,Completed,10000,,18000,TRUE,Pay Bill Online,254720451253 - JIMMY KIOGORA NKIROTE,,JBG
PJC04YWN98,12/10/2021 10:02,12/10/2021 10:02,Pay Bill from 254740657547 - WINNIE KERE Acc. JBF,Completed,8000,,8000,TRUE,Pay Utility,254740657547 - WINNIE KERE,,JBF
PJC24XJRX6,12/10/2021 09:36,12/10/2021 09:36,Utility Account to Organization Settlement Account,Completed,,-490850,0,TRUE,Utility Account to Organization Settlement Account,979524 - ANCIENT WELLS PROPERTY MANAGERS 2,,
PJC04VO2G8,12/10/2021 09:01,12/10/2021 09:01,Pay Bill from 254725381062 - VICTOR MAITHYA Acc. HEG,Completed,4950,,490850,TRUE,Pay Utility with OD via STK,254725381062 - VICTOR MAITHYA,,HEG
PJC04SXII4,12/10/2021 08:04,12/10/2021 08:04,FSI to Pay Bill by 714888 - B2C LOOP VIA NCBA Acc. FAD via WEB by B2C LOOP VIA NCBA\Cbainitiator,Completed,5000,,485900,TRUE,FSI to Pay Bill via API,714888 - B2C LOOP VIA NCBA,,FAD
PJB14ID4H5,11/10/2021 20:37,11/10/2021 20:37,Pay Bill from 0790631952 - Guyo Boru Guyo Acc. DBC,Completed,20000,,480900,TRUE,Pay Utility with OD via STK,0790631952 - Guyo Boru Guyo,,DBC
PJB94ERNTR,11/10/2021 19:46,11/10/2021 19:46,Pay Bill from 254716958353 - EVERYNE MURUMWA BUTICHI Acc. JBH,Completed,16000,,460900,TRUE,Pay Utility,254716958353 - EVERYNE MURUMWA BUTICHI,,JBH
PJB2414IB4,11/10/2021 16:52,11/10/2021 16:52,Pay Bill from 254704111133 - ELVIS OTIENO Acc. HFD,Completed,2000,,444900,TRUE,Pay Utility,254704111133 - ELVIS OTIENO,,HFD
PJB83MBBMY,11/10/2021 12:39,11/10/2021 12:39,Pay Bill from 254703555717 - SENGA SALIM Acc. hbb,Completed,4000,,442900,TRUE,Pay Utility,254703555717 - SENGA SALIM,,hbb
PJB03GOKSY,11/10/2021 10:58,11/10/2021 10:58,Pay Bill from 254720496449 - STANLEY KIPKOECH RONO Acc. FBE,Completed,16000,,438900,TRUE,Pay Utility,254720496449 - STANLEY KIPKOECH RONO,,FBE
PJB635V8GI,11/10/2021 06:44,11/10/2021 06:44,Pay Bill from 254723747228 - MORARA ASANYO Acc. pool,Completed,11900,,422900,TRUE,Pay Utility,254723747228 - MORARA ASANYO,,pool
PJA83028UU,10/10/2021 21:09,10/10/2021 21:09,Pay Bill from 0743248310 - PATRICK STURRIDGE NYONGESA Acc. daa,Completed,8000,,411000,TRUE,Pay Utility,0743248310 - PATRICK STURRIDGE NYONGESA,,daa
PJA61ZA5IW,10/10/2021 10:42,10/10/2021 10:42,Pay Bill from 254723930071 - AMOS KITAVI KIVITE Acc. JCE,Completed,9000,,403000,TRUE,Pay Utility,254723930071 - AMOS KITAVI KIVITE,,JCE
PJA61YUSDU,10/10/2021 10:33,10/10/2021 10:33,Pay Bill from 254706322764 - GEORGE OUMA OCHOLA Acc. JDF,Completed,8000,,394000,TRUE,Pay Utility,254706322764 - GEORGE OUMA OCHOLA,,JDF
PJA21O9J72,10/10/2021 00:31,10/10/2021 00:31,Pay Bill Online from 0711117122 - Yassir Mwinyi Abdulrazaq Acc. ICE,Completed,3000,,386000,TRUE,Pay Bill Online,0711117122 - Yassir Mwinyi Abdulrazaq,,ICE
PJ9415A0BM,09/10/2021 18:06,09/10/2021 18:06,Pay Bill from 254723699555 - DIANA NYAIREGI GICHIA Acc. FBF,Completed,27500,,383000,TRUE,Pay Utility with OD via STK,254723699555 - DIANA NYAIREGI GICHIA,,FBF
PJ96ZRNORK,09/10/2021 14:37,09/10/2021 14:37,Pay Bill Online from 254790549449 - ABUKAR MOHAMED Acc. HBA,Completed,17000,,355500,TRUE,Pay Bill Online,254790549449 - ABUKAR MOHAMED,,HBA
PJ92ZOSABY,09/10/2021 13:49,09/10/2021 13:49,Pay Bill from 254710106394 - LUCY TONKEI Acc. KBG,Completed,9000,,338500,TRUE,Pay Utility,254710106394 - LUCY TONKEI,,KBG
PJ94ZNPVSM,09/10/2021 13:31,09/10/2021 13:31,Pay Bill from 254719779657 - SAMUEL NJOROGE Acc. JGA,Completed,8000,,329500,TRUE,Pay Utility,254719779657 - SAMUEL NJOROGE,,JGA
PJ99Z2H74T,09/10/2021 05:43,09/10/2021 05:43,Pay Bill Online from 254722276550 - ISAAC NYAMRER Acc. KGC,Completed,9000,,321500,TRUE,Pay Bill Online,254722276550 - ISAAC NYAMRER,,KGC
PJ95Z17X2H,09/10/2021 00:36,09/10/2021 00:36,Pay Bill from 254724590178 - Silvanus Ongiri Acc. HAE,Completed,10000,,312500,TRUE,Pay Utility,254724590178 - Silvanus Ongiri,,HAE
PJ88Z04BEY,08/10/2021 23:02,08/10/2021 23:02,Pay Bill Online from 254718772336 - DAVID SERUGO Acc. DCD,Completed,20000,,302500,TRUE,Pay Bill Online,254718772336 - DAVID SERUGO,,DCD
PJ80YZKMMM,08/10/2021 22:36,08/10/2021 22:36,Pay Bill from 254726928933 - JOSHUA NDUNDA NZIOKA Acc. KCJ,Completed,16000,,282500,TRUE,Pay Utility,254726928933 - JOSHUA NDUNDA NZIOKA,,KCJ
PJ81YXV3OB,08/10/2021 21:45,08/10/2021 21:45,Pay Bill from 0740422187 - KEVIN MAKATO KUNGA Acc. KEG,Completed,10000,,266500,TRUE,Pay Utility,0740422187 - KEVIN MAKATO KUNGA,,KEG
PJ81YSD6TL,08/10/2021 20:12,08/10/2021 20:12,Pay Bill from 254720107609 - DENNIS OGENDI BARAKE Acc. JAJ,Completed,15000,,256500,TRUE,Pay Utility,254720107609 - DENNIS OGENDI BARAKE,,JAJ
PJ87YQB7JP,08/10/2021 19:46,08/10/2021 19:46,Pay Bill from 254707715639 - Annastacia Kimeu Acc. JFC,Completed,10000,,241500,TRUE,Pay Utility with OD via STK,254707715639 - Annastacia Kimeu,,JFC
PJ82YP1E0S,08/10/2021 19:31,08/10/2021 19:31,Pay Bill from 254708499439 - ROSE NDEDE Acc. HGF,Completed,9000,,231500,TRUE,Pay Utility,254708499439 - ROSE NDEDE,,HGF
PJ81YO67R3,08/10/2021 19:22,08/10/2021 19:22,Pay Bill from 254721977151 - MIRIAM KIKOLYA Acc. KEA,Completed,4500,,222500,TRUE,Pay Utility with OD via STK,254721977151 - MIRIAM KIKOLYA,,KEA
PJ89YLS0D3,08/10/2021 18:56,08/10/2021 18:56,Pay Bill from 254758140048 - ABDULKADIR ABASS DAHIR Acc. KAB,Completed,16000,,218000,TRUE,Pay Utility,254758140048 - ABDULKADIR ABASS DAHIR,,KAB
PJ82YBKJBW,08/10/2021 16:46,08/10/2021 16:46,Pay Bill from 0757259130 - RASHID SUDI MCHOMBO Acc. JAF,Completed,8000,,202000,TRUE,Pay Utility,0757259130 - RASHID SUDI MCHOMBO,,JAF
PJ85YASMW9,08/10/2021 16:34,08/10/2021 16:34,Pay Bill Online from 254722249092 - MARIAM ABDULLAHI Acc. KEH,Completed,11000,,194000,TRUE,Pay Utility with OD Online,254722249092 - MARIAM ABDULLAHI,,KEH
PJ84YAIY4O,08/10/2021 16:30,08/10/2021 16:30,Pay Bill from 254703528196 - ERIC GITONGA MUGO Acc. KGJ,Completed,9000,,183000,TRUE,Pay Utility with OD via STK,254703528196 - ERIC GITONGA MUGO,,KGJ
PJ84Y9Q3NO,08/10/2021 16:18,08/10/2021 16:18,Pay Bill from 254710381003 - ALFRED KISHOIN Acc. DAB,Completed,16000,,174000,TRUE,Pay Utility,254710381003 - ALFRED KISHOIN,,DAB
PJ84Y7F6V6,08/10/2021 15:41,08/10/2021 15:41,Pay Bill from 254721115404 - Justine Fayuma Okwemba Acc. HAA,Completed,17000,,158000,TRUE,Pay Utility with OD via STK,254721115404 - Justine Fayuma Okwemba,,HAA
PJ83Y28WQ1,08/10/2021 14:16,08/10/2021 14:16,Pay Bill from 254727515326 - HARRISON WACIRA MAINA Acc. HAH,Completed,16000,,141000,TRUE,Pay Utility,254727515326 - HARRISON WACIRA MAINA,,HAH
PJ87Y15WOB,08/10/2021 13:58,08/10/2021 13:58,Pay Bill from 254713159153 - GUYO SANKALA Acc. DGD ,Completed,20000,,125000,TRUE,Pay Utility,254713159153 - GUYO SANKALA,,DGD
PJ81XVAC41,08/10/2021 12:19,08/10/2021 12:19,Pay Bill from 254729258441 - ROBERT RONO KULEI Acc. JAB,Completed,10000,,105000,TRUE,Pay Utility,254729258441 - ROBERT RONO KULEI,,JAB
PJ83XUF3IJ,08/10/2021 12:05,08/10/2021 12:05,Pay Bill from 254703935626 - DAVID NGARI ITA Acc. FCD,Completed,20700,,95000,TRUE,Pay Utility,254703935626 - DAVID NGARI ITA,,FCD
PJ80XU9YI6,08/10/2021 12:02,08/10/2021 12:02,Pay Bill from 254703935626 - DAVID NGARI ITA Acc. FCD,Completed,2300,,74300,TRUE,Pay Utility,254703935626 - DAVID NGARI ITA,,FCD
PJ88XSJ14S,08/10/2021 11:32,08/10/2021 11:32,Pay Bill from 254722569870 - LUKA KEITANY Acc. jfj,Completed,15000,,72000,TRUE,Pay Utility,254722569870 - LUKA KEITANY,,jfj
PJ83XS31IP,08/10/2021 11:24,08/10/2021 11:24,Pay Bill from 254795023150 - FAITH MORAA SITEMBA Acc. IFC,Completed,8000,,57000,TRUE,Pay Utility,254795023150 - FAITH MORAA SITEMBA,,IFC
PJ88XQ3Y02,08/10/2021 10:50,08/10/2021 10:50,Pay Bill Online from 254715764212 - BANCE ISHEMINYE Acc. JFE ,Completed,4000,,49000,TRUE,Pay Bill Online,254715764212 - BANCE ISHEMINYE,,JFE
PJ81XKBCC3,08/10/2021 09:04,08/10/2021 09:04,Pay Bill Online from 254722769473 - SAMSON CHALO Acc. IAB,Completed,15000,,45000,TRUE,Pay Bill Online,254722769473 - SAMSON CHALO,,IAB
PJ80XIXFKQ,08/10/2021 08:35,08/10/2021 08:35,Pay Bill from 254795449800 - MARTHA WANJIRU NJUGUNA Acc. FEB,Completed,15000,,30000,TRUE,Pay Utility,254795449800 - MARTHA WANJIRU NJUGUNA,,FEB
PJ84XIWVEG,08/10/2021 08:35,08/10/2021 08:35,Pay Bill from 254725771056 - CHARLES MURAGURI Acc. FCE,Completed,15000,,15000,TRUE,Pay Utility,254725771056 - CHARLES MURAGURI,,FCE
PJ80XI6QE8,08/10/2021 08:20,08/10/2021 08:20,Utility Account to Organization Settlement Account,Completed,,-533900,0,TRUE,Utility Account to Organization Settlement Account,979524 - ANCIENT WELLS PROPERTY MANAGERS 2,,
PJ83XEJ4JJ,08/10/2021 06:27,08/10/2021 06:27,Pay Bill from 254729713741 - ALBANUS MUTISO Acc. DDC,Completed,20000,,533900,TRUE,Pay Utility,254729713741 - ALBANUS MUTISO,,DDC
PJ75XCCT3L,07/10/2021 23:00,07/10/2021 23:00,Pay Bill from 0758591833 - DORCUS MBULA PETER Acc. HDD,Completed,9000,,513900,TRUE,Pay Utility,0758591833 - DORCUS MBULA PETER,,HDD
PJ75X57H7L,07/10/2021 20:16,07/10/2021 20:16,Pay Bill Online from 254705951407 - CAROLINE WAITHIRA KAMAU Acc. IDH,Completed,10500,,504900,TRUE,Pay Utility with OD Online,254705951407 - CAROLINE WAITHIRA KAMAU,,IDH
PJ72X3DOTU,07/10/2021 19:52,07/10/2021 19:52,Pay Bill from 0715688238 - JOANNAH ATUHAIRE BANTU Acc. jae,Completed,4500,,494400,TRUE,Pay Utility,0715688238 - JOANNAH ATUHAIRE BANTU,,jae
PJ79X32RK9,07/10/2021 19:48,07/10/2021 19:48,Pay Bill from 254729948896 - CAROLINE V MILIZA Acc. Fec,Completed,8000,,489900,TRUE,Pay Utility,254729948896 - CAROLINE V MILIZA,,Fec
PJ70X2U3Y8,07/10/2021 19:45,07/10/2021 19:45,Pay Bill from 254706158280 - patience mutheu mbevi Acc. KFC,Completed,10000,,481900,TRUE,Pay Utility with OD via STK,254706158280 - patience mutheu mbevi,,KFC
PJ79WZOEWH,07/10/2021 19:10,07/10/2021 19:10,Pay Bill Online from 254700050190 - ANGELA GATHONI NDEGWA Acc. KCD,Completed,12000,,471900,TRUE,Pay Bill Online,254700050190 - ANGELA GATHONI NDEGWA,,KCD
PJ79WUH4UB,07/10/2021 18:11,07/10/2021 18:11,Pay Bill from 0759888028 - ROBERT OKOTH OGALO Acc. KBH,Completed,10000,,459900,TRUE,Pay Utility,0759888028 - ROBERT OKOTH OGALO,,KBH
PJ78WUDDIC,07/10/2021 18:10,07/10/2021 18:10,Pay Bill from 0748059595 - Rashid NASSIR Khamis Acc. DDA,Completed,8000,,449900,TRUE,Pay Utility,0748059595 - Rashid NASSIR Khamis,,DDA
PJ71WS4ZTD,07/10/2021 17:41,07/10/2021 17:41,Pay Bill from 254720868281 - KENNEDY MWELU Acc. KBI,Completed,12500,,441900,TRUE,Pay Utility,254720868281 - KENNEDY MWELU,,KBI
PJ77WQFT19,07/10/2021 17:17,07/10/2021 17:17,Pay Bill from 254722136450 - MARY EVERLYN Acc. JAI,Completed,12000,,429400,TRUE,Pay Utility with OD via STK,254722136450 - MARY EVERLYN,,JAI
PJ72WGDKTC,07/10/2021 14:31,07/10/2021 14:31,Pay Bill from 254724611087 - Francis Mukindya Muoki Acc. dfb,Completed,4000,,417400,TRUE,Pay Utility with OD via STK,254724611087 - Francis Mukindya Muoki,,dfb
PJ77WF7S5P,07/10/2021 14:11,07/10/2021 14:11,Pay Bill from 254717985596 - NICHOLAS KIPKOECH BUTIA Acc. hcf,Completed,9000,,413400,TRUE,Pay Utility,254717985596 - NICHOLAS KIPKOECH BUTIA,,hcf
PJ73W9V2C7,07/10/2021 12:38,07/10/2021 12:38,Pay Bill Online from 0757699775 - BENARD MUIA MUTUA Acc. HCB,Completed,16000,,404400,TRUE,Pay Bill Online,0757699775 - BENARD MUIA MUTUA,,HCB
PJ77W86G1J,07/10/2021 12:09,07/10/2021 12:09,Pay Bill from 254728259571 - ANNE KASIVA Acc. ieb,Completed,15000,,388400,TRUE,Pay Utility,254728259571 - ANNE KASIVA,,ieb
PJ73W5IV43,07/10/2021 11:20,07/10/2021 11:20,Pay Bill from 254712954563 - JOSEPH MUTISO KILONZO Acc. Dac,Completed,20000,,373400,TRUE,Pay Utility,254712954563 - JOSEPH MUTISO KILONZO,,Dac
PJ71VR8LY5,07/10/2021 00:29,07/10/2021 00:29,Pay Bill Online from 254723643548 - KEVIN OUKO Acc. FDD,Completed,11000,,353400,TRUE,Pay Bill Online,254723643548 - KEVIN OUKO,,FDD
PJ69VQOC0V,06/10/2021 23:18,06/10/2021 23:18,Pay Bill from 254721315975 - JOSEPH NDEGWA Acc. HEB,Completed,16000,,342400,TRUE,Pay Utility,254721315975 - JOSEPH NDEGWA,,HEB
PJ69VMNZD5,06/10/2021 21:08,06/10/2021 21:08,Pay Bill from 254729590734 - PATRICK NDUNGA Acc. IDD,Completed,10000,,326400,TRUE,Pay Utility,254729590734 - PATRICK NDUNGA,,IDD
PJ60VJZ5VE,06/10/2021 20:25,06/10/2021 20:25,Pay Bill Online from 254797601911 - JORAM MASAI KILONZO Acc. KTE,Completed,9500,,316400,TRUE,Pay Bill Online,254797601911 - JORAM MASAI KILONZO,,KTE
PJ68VHC9H2,06/10/2021 19:50,06/10/2021 19:50,Pay Bill Online from 254720044312 - ELIUD KIPKURUI Acc. FCF,Completed,17000,,306900,TRUE,Pay Bill Online,254720044312 - ELIUD KIPKURUI,,FCF
PJ62V8Q4H6,06/10/2021 18:13,06/10/2021 18:13,Pay Bill from 254726636196 - BETHUEL KEMBOI KURUI Acc. JFD,Completed,15000,,289900,TRUE,Pay Utility,254726636196 - BETHUEL KEMBOI KURUI,,JFD
PJ62V8J2AC,06/10/2021 18:10,06/10/2021 18:10,Pay Bill from 254726977770 - STEPHEN MUIRURI MATHENGE Acc. KAE,Completed,9500,,274900,TRUE,Pay Utility,254726977770 - STEPHEN MUIRURI MATHENGE,,KAE
PJ62V8GJSK,06/10/2021 18:09,06/10/2021 18:09,Pay Bill from 254726977770 - STEPHEN MUIRURI MATHENGE Acc. HBG,Completed,16000,,265400,TRUE,Pay Utility,254726977770 - STEPHEN MUIRURI MATHENGE,,HBG
PJ69V6AT8P,06/10/2021 17:41,06/10/2021 17:41,Pay Bill from 254703453863 - EMILY MUNANIE MALUKI Acc. KEC,Completed,10000,,249400,TRUE,Pay Utility,254703453863 - EMILY MUNANIE MALUKI,,KEC
PJ60V58BX2,06/10/2021 17:26,06/10/2021 17:26,Pay Bill from 254725909984 - TIMOTHY ODHIAMBO OWITI Acc. JDE,Completed,12000,,239400,TRUE,Pay Utility,254725909984 - TIMOTHY ODHIAMBO OWITI,,JDE
PJ64UZV7EW,06/10/2021 16:02,06/10/2021 16:02,Pay Bill from 254713281251 - ERIC KIAMA Acc. JDI,Completed,20000,,227400,TRUE,Pay Utility,254713281251 - ERIC KIAMA,,JDI
PJ61UZI02B,06/10/2021 15:56,06/10/2021 15:56,Pay Bill from 254716702294 - DANIEL MULATI Acc. KBE,Completed,10000,,207400,TRUE,Pay Utility,254716702294 - DANIEL MULATI,,KBE
PJ69UZ8BH3,06/10/2021 15:51,06/10/2021 15:51,Pay Bill Online from 254717053159 - FREDRICK NYATIKA Acc. IEF,Completed,11000,,197400,TRUE,Pay Bill Online,254717053159 - FREDRICK NYATIKA,,IEF
PJ62UVONEK,06/10/2021 14:50,06/10/2021 14:50,Pay Bill from 0795068880 - Patrick   Kiplagat Acc. KAG,Completed,10000,,186400,TRUE,Pay Utility,0795068880 - Patrick   Kiplagat,,KAG
PJ65USK31X,06/10/2021 13:55,06/10/2021 13:55,Pay Bill Online from 254723370004 - LABAN MAINGI WAMBUA Acc. JEF,Completed,8000,,176400,TRUE,Pay Utility with OD Online,254723370004 - LABAN MAINGI WAMBUA,,JEF
PJ65UQUBZ3,06/10/2021 13:26,06/10/2021 13:26,Pay Bill from 0722925798 - ifrah abukar adan Acc. IEI,Completed,15000,,168400,TRUE,Pay Utility,0722925798 - ifrah abukar adan,,IEI
PJ69UQJEZP,06/10/2021 13:21,06/10/2021 13:21,Pay Bill Online from 254728897908 - Teddy Allan Onyango Acc. KCF,Completed,5900,,153400,TRUE,Pay Bill Online,254728897908 - Teddy Allan Onyango,,KCF
PJ66UQABAO,06/10/2021 13:16,06/10/2021 13:16,Pay Bill from 254724882554 - ALPHONCE WAMBUA NGELI Acc. JDA,Completed,20000,,147500,TRUE,Pay Utility,254724882554 - ALPHONCE WAMBUA NGELI,,JDA
PJ61UPQW17,06/10/2021 13:07,06/10/2021 13:07,Pay Bill Online from 254706549634 - CLINTON OMBASA Acc. FDB,Completed,17000,,127500,TRUE,Pay Bill Online,254706549634 - CLINTON OMBASA,,FDB
PJ68UM20UE,06/10/2021 12:02,06/10/2021 12:02,Pay Bill from 254724466518 - EUNICE NDUTA Acc. KFF,Completed,9500,,110500,TRUE,Pay Utility,254724466518 - EUNICE NDUTA,,KFF
PJ63UHOLZ1,06/10/2021 10:44,06/10/2021 10:44,Pay Bill from 254708703539 - SUSAN NDUGIRE NDUGIRE Acc. KDA,Completed,17000,,101000,TRUE,Pay Utility,254708703539 - SUSAN NDUGIRE NDUGIRE,,KDA
PJ65UDQCSV,06/10/2021 09:30,06/10/2021 09:30,Pay Bill Online from 254710382992 - SIMON KAMAU MUIRURI Acc. JCD,Completed,15000,,84000,TRUE,Pay Bill Online,254710382992 - SIMON KAMAU MUIRURI,,JCD
PJ63UDENSP,06/10/2021 09:24,06/10/2021 09:24,Pay Bill from 254726687555 - ELIUD MUTHURE MICHENI Acc. KAI,Completed,12000,,69000,TRUE,Pay Utility,254726687555 - ELIUD MUTHURE MICHENI,,KAI
PJ68UBDLOY,06/10/2021 08:43,06/10/2021 08:43,Pay Bill from 254716581384 - GREGORY KILUNGYA Acc. DAD,Completed,20000,,57000,TRUE,Pay Utility,254716581384 - GREGORY KILUNGYA,,DAD
PJ60UB9FK0,06/10/2021 08:41,06/10/2021 08:41,Pay Bill from 254720351482 - Cheruiyot Langat Brian Acc. dfa,Completed,15000,,37000,TRUE,Pay Utility with OD via STK,254720351482 - Cheruiyot Langat Brian,,dfa
PJ62U9XZ8C,06/10/2021 08:13,06/10/2021 08:13,Pay Bill from 254719779657 - SAMUEL NJOROGE Acc. JGA,Completed,12000,,22000,TRUE,Pay Utility,254719779657 - SAMUEL NJOROGE,,JGA
PJ65U95U65,06/10/2021 07:55,06/10/2021 07:55,Pay Bill from 254702346515 - ELIZABETH ACHIENG NGOME Acc. KDE,Completed,10000,,10000,TRUE,Pay Utility,254702346515 - ELIZABETH ACHIENG NGOME,,KDE
PJ67U85WJD,06/10/2021 07:28,06/10/2021 07:28,Utility Account to Organization Settlement Account,Completed,,-233500,0,TRUE,Utility Account to Organization Settlement Account,979524 - ANCIENT WELLS PROPERTY MANAGERS 2,,
PJ66U82NQC,06/10/2021 07:26,06/10/2021 07:26,Pay Bill Online from 254797160610 - JAMES MWANIKI Acc. JBI,Completed,20000,,233500,TRUE,Pay Bill Online,254797160610 - JAMES MWANIKI,,JBI
PJ65U7VBAB,06/10/2021 07:20,06/10/2021 07:20,Pay Bill Online from 254715764212 - BANCE ISHEMINYE Acc. JFE ,Completed,4000,,213500,TRUE,Pay Bill Online,254715764212 - BANCE ISHEMINYE,,JFE
PJ63U7DLWP,06/10/2021 07:04,06/10/2021 07:03,Pay Bill from 254718233980 - KAREN ASWANI Acc. HEC,Completed,10500,,209500,TRUE,Pay Utility,254718233980 - KAREN ASWANI,,HEC
PJ62U5F31S,06/10/2021 01:20,06/10/2021 01:20,Pay Bill from 254728670882 - SHARAD EDWARD ADALA OLUM Acc. KCK,Completed,15000,,199000,TRUE,Pay Utility,254728670882 - SHARAD EDWARD ADALA OLUM,,KCK
PJ62U55DNQ,06/10/2021 00:14,06/10/2021 00:14,Pay Bill from 254712461449 - CAROLINE MUTHONI GICHOHI Acc. fca,Completed,16000,,184000,TRUE,Pay Utility,254712461449 - CAROLINE MUTHONI GICHOHI,,fca
PJ55U4K3AN,05/10/2021 23:09,05/10/2021 23:09,Pay Bill from 254703935626 - DAVID NGARI ITA Acc. FCD,Completed,1000,,168000,TRUE,Pay Utility with OD via STK,254703935626 - DAVID NGARI ITA,,FCD
PJ52U2T1GE,05/10/2021 21:55,05/10/2021 21:55,Pay Bill Online from 254714552193 - CHRISTOPHER OCHIENG Acc. JGI ,Completed,20500,,167000,TRUE,Pay Bill Online,254714552193 - CHRISTOPHER OCHIENG,,JGI
PJ50U2E73Y,05/10/2021 21:44,05/10/2021 21:44,Pay Bill from 254799371069 - ALPHONCE OCHIENG WAREGA Acc. IEE,Completed,8500,,146500,TRUE,Pay Utility,254799371069 - ALPHONCE OCHIENG WAREGA,,IEE
PJ52U1BHI0,05/10/2021 21:20,05/10/2021 21:20,Pay Bill from 254714250131 - NELSON ODHONG OMBUYA Acc. DCC,Completed,20000,,138000,TRUE,Pay Utility,254714250131 - NELSON ODHONG OMBUYA,,DCC
PJ54TZPSY8,05/10/2021 20:51,05/10/2021 20:51,Pay Bill Online from 254718138578 - PAULINE KIOKO Acc. KFD,Completed,12000,,118000,TRUE,Pay Bill Online,254718138578 - PAULINE KIOKO,,KFD
PJ59TZJ70T,05/10/2021 20:48,05/10/2021 20:48,Pay Bill from 254742911013 - HANEST AMIMO Acc. IEG,Completed,8000,,106000,TRUE,Pay Utility with OD via STK,254742911013 - HANEST AMIMO,,IEG
PJ56TWYIXA,05/10/2021 20:10,05/10/2021 20:10,Pay Bill from 254717726012 - WINFRED MUENI PETER Acc. IDA,Completed,16000,,98000,TRUE,Pay Utility,254717726012 - WINFRED MUENI PETER,,IDA
PJ53TVS64F,05/10/2021 19:55,05/10/2021 19:55,Pay Bill from 254722521028 - CHARLES MONYONCHO Acc. ICB,Completed,17000,,82000,TRUE,Pay Utility,254722521028 - CHARLES MONYONCHO,,ICB
PJ59TTU2QX,05/10/2021 19:31,05/10/2021 19:31,Pay Bill from 254728042989 - PATRICK OMONDI Acc. IFI,Completed,15000,,65000,TRUE,Pay Utility with OD via STK,254728042989 - PATRICK OMONDI,,IFI
PJ58TSUEE8,05/10/2021 19:21,05/10/2021 19:21,Pay Bill from 254790627132 - Everline Mutave Kiio Acc. IGG,Completed,8000,,50000,TRUE,Pay Utility,254790627132 - Everline Mutave Kiio,,IGG
PJ56TNMAJ8,05/10/2021 18:24,05/10/2021 18:24,Pay Bill Online from 254725218904 - SALOME MUTHONI MWANGI Acc. KFJ,Completed,15000,,42000,TRUE,Pay Bill Online,254725218904 - SALOME MUTHONI MWANGI,,KFJ
PJ57TIGLFD,05/10/2021 17:13,05/10/2021 17:13,Pay Bill from 0727455001 - Winnie Akoth Ouma Acc. HEE,Completed,11000,,27000,TRUE,Pay Utility,0727455001 - Winnie Akoth Ouma,,HEE
PJ57TFUJIL,05/10/2021 16:32,05/10/2021 16:32,Pay Bill from 254712974871 - PAULA WANJIKU GATUI Acc. hea,Completed,16000,,16000,TRUE,Pay Utility,254712974871 - PAULA WANJIKU GATUI,,hea
PJ50TF4QME,05/10/2021 16:19,05/10/2021 16:19,Utility Account to Organization Settlement Account,Completed,,-504418,0,TRUE,Utility Account to Organization Settlement Account,979524 - ANCIENT WELLS PROPERTY MANAGERS 2,,
PJ51TF426F,05/10/2021 16:19,05/10/2021 16:19,Pay Bill Online from 254711123196 - JUDITH MUTUA Acc. FEA,Completed,16000,,504418,TRUE,Pay Bill Online,254711123196 - JUDITH MUTUA,,FEA
PJ52TECO9Y,05/10/2021 16:06,05/10/2021 16:06,Pay Bill Online from 254713966424 - NDUTI MUTHUI Acc. Jed,Completed,15000,,488418,TRUE,Pay Bill Online,254713966424 - NDUTI MUTHUI,,Jed
PJ50TDQ19C,05/10/2021 15:54,05/10/2021 15:54,Pay Bill Online from 254715892656 - DENNIS MUSYOKA MUOKI Acc. KFA,Completed,16000,,473418,TRUE,Pay Bill Online,254715892656 - DENNIS MUSYOKA MUOKI,,KFA
PJ51TCOSRL,05/10/2021 15:36,05/10/2021 15:36,Pay Bill from 254721465713 - RHODA WAMBUI MWANGI Acc. jfh,Completed,17000,,457418,TRUE,Pay Utility,254721465713 - RHODA WAMBUI MWANGI,,jfh
PJ58TCGLXM,05/10/2021 15:32,05/10/2021 15:32,Pay Bill from 254768687118 - mitchelle chepkemoi Acc. HFF,Completed,9500,,440418,TRUE,Pay Utility,254768687118 - mitchelle chepkemoi,,HFF
PJ51TADW7P,05/10/2021 14:53,05/10/2021 14:53,Pay Bill from 0792441884 - CORNELIA CONRAD MVULA Acc. IBB,Completed,15000,,430918,TRUE,Pay Utility,0792441884 - CORNELIA CONRAD MVULA,,IBB
PJ59T5LIHJ,05/10/2021 13:29,05/10/2021 13:29,Pay Bill from 254723901777 - EVANS YEBEI Acc. KCH,Completed,10000,,415918,TRUE,Pay Utility,254723901777 - EVANS YEBEI,,KCH
PJ57T5GJBH,05/10/2021 13:27,05/10/2021 13:27,Pay Bill from 254728238249 - ESTHER WANGUI KIBUNYI Acc. ICA,Completed,17000,,405918,TRUE,Pay Utility,254728238249 - ESTHER WANGUI KIBUNYI,,ICA
PJ53T3HDN3,05/10/2021 12:53,05/10/2021 12:53,Pay Bill Online from 254792187144 - HASSAN AHMED HASSAN Acc. KGI,Completed,10000,,388918,TRUE,Pay Bill Online,254792187144 - HASSAN AHMED HASSAN,,KGI
PJ55T32CVD,05/10/2021 12:46,05/10/2021 12:46,Pay Bill Online from 254722728975 - CURTIS MRIGA OMIDO Acc. IAH,Completed,16000,,378918,TRUE,Pay Bill Online,254722728975 - CURTIS MRIGA OMIDO,,IAH
PJ58T06TVS,05/10/2021 11:55,05/10/2021 11:55,Pay Bill from 254719398942 - NORAH WAYUA MUNYAO Acc. KDC,Completed,10000,,362918,TRUE,Pay Utility,254719398942 - NORAH WAYUA MUNYAO,,KDC
PJ56SWG6XG,05/10/2021 10:47,05/10/2021 10:47,Pay Bill Online from 254715002789 - ERICK NGUGI MAINA Acc. HAG,Completed,16000,,352918,TRUE,Pay Bill Online,254715002789 - ERICK NGUGI MAINA,,HAG
PJ51SW00QP,05/10/2021 10:39,05/10/2021 10:39,Pay Bill Online from 254713404029 - ANNE ISEUNA Acc. DED,Completed,20000,,336918,TRUE,Pay Bill Online,254713404029 - ANNE ISEUNA,,DED
PJ53SQTI43,05/10/2021 09:03,05/10/2021 09:03,Pay Bill from 254721944520 - NANCY KARIHA Acc. KDD,Completed,7000,,316918,TRUE,Pay Utility,254721944520 - NANCY KARIHA,,KDD
PJ58SOV12C,05/10/2021 08:22,05/10/2021 08:22,Pay Bill from 254723499628 - CLINTON JOSEPH MUHARI Acc. hfh,Completed,16000,,309918,TRUE,Pay Utility with OD via STK,254723499628 - CLINTON JOSEPH MUHARI,,hfh
PJ54SM7GYW,05/10/2021 07:14,05/10/2021 07:14,Pay Bill from 254723929380 - RHODAH K WAMBUA Acc. HEF,Completed,9500,,293918,TRUE,Pay Utility,254723929380 - RHODAH K WAMBUA,,HEF
PJ40SHI30Y,04/10/2021 21:53,04/10/2021 21:53,Pay Bill from 254717140158 - Peter Wanjiru Acc. HFB,Completed,15000,,284418,TRUE,Pay Utility with OD via STK,254717140158 - Peter Wanjiru,,HFB
PJ46SHD3OG,04/10/2021 21:49,04/10/2021 21:49,Pay Bill from 254718672924 - LILIAN CHEBET NGENO Acc. KGD,Completed,10000,,269418,TRUE,Pay Utility,254718672924 - LILIAN CHEBET NGENO,,KGD
PJ48SH794I,04/10/2021 21:45,04/10/2021 21:45,Pay Bill from 254729355933 - FELISTAH NJERI WAIRIMU Acc. IDI,Completed,15000,,259418,TRUE,Pay Utility,254729355933 - FELISTAH NJERI WAIRIMU,,IDI
PJ41SETK6T,04/10/2021 20:57,04/10/2021 20:57,Pay Bill from 254720278119 - LINDAH OGAWO Acc. KFE,Completed,9500,,244418,TRUE,Pay Utility,254720278119 - LINDAH OGAWO,,KFE
PJ49SEOVUR,04/10/2021 20:55,04/10/2021 20:55,Pay Bill from 254729160700 - MICAH NDUNGI Acc. HFE,Completed,10500,,234918,TRUE,Pay Utility,254729160700 - MICAH NDUNGI,,HFE
PJ47SEGIBF,04/10/2021 20:51,04/10/2021 20:51,Pay Bill from 254729858484 - ANTONY CHEGE Acc. KCA,Completed,16000,,224418,TRUE,Pay Utility,254729858484 - ANTONY CHEGE,,KCA
PJ45SB7B17,04/10/2021 20:03,04/10/2021 20:03,Pay Bill Online from 0724386624 - FATUMA ISSE YUSSUF Acc. FAB,Completed,16000,,208418,TRUE,Pay Bill Online,0724386624 - FATUMA ISSE YUSSUF,,FAB
PJ44SARCWU,04/10/2021 19:58,04/10/2021 19:58,Pay Bill Online from 254718911865 - KENNEDY KELI KATUNGII Acc. HDF,Completed,9000,,192418,TRUE,Pay Bill Online,254718911865 - KENNEDY KELI KATUNGII,,HDF
PJ43S7EIOH,04/10/2021 19:19,04/10/2021 19:19,Pay Bill from 0115054975 - faith syovata joseph Acc. IBC,Completed,9500,,183418,TRUE,Pay Utility,0115054975 - faith syovata joseph,,IBC
PJ49S6RK8Z,04/10/2021 19:12,04/10/2021 19:12,Pay Bill Online from 254798022849 - MARTIN BUNDI RUGENDO Acc. KFH,Completed,10000,,173918,TRUE,Pay Bill Online,254798022849 - MARTIN BUNDI RUGENDO,,KFH
PJ46S5VAKM,04/10/2021 19:03,04/10/2021 19:03,Pay Bill from 254716056537 - KIRUI KIPLANGAT HILLARY Acc. JCJ,Completed,16000,,163918,TRUE,Pay Utility,254716056537 - KIRUI KIPLANGAT HILLARY,,JCJ
PJ43S5L3K1,04/10/2021 19:00,04/10/2021 19:00,Pay Bill from 254723966777 - BONIFACE MUTHAKA NGANGA Acc. IEC,Completed,9000,,147918,TRUE,Pay Utility,254723966777 - BONIFACE MUTHAKA NGANGA,,IEC
PJ44S4XJU0,04/10/2021 18:54,04/10/2021 18:54,Pay Bill Online from 254714563486 - BRIAN MMATA MUSERA Acc. KBJ,Completed,16000,,138918,TRUE,Pay Bill Online,254714563486 - BRIAN MMATA MUSERA,,KBJ
PJ41S485WJ,04/10/2021 18:47,04/10/2021 18:47,Pay Bill from 254722444622 - CHARITY KAGWAINI Acc. FFD,Completed,11000,,122918,TRUE,Pay Utility,254722444622 - CHARITY KAGWAINI,,FFD
PJ42S2J4U4,04/10/2021 18:30,04/10/2021 18:30,Pay Bill from 254719499823 - MOSES MWANZIA MUTHIANI Acc. Jcc,Completed,1500,,111918,TRUE,Pay Utility,254719499823 - MOSES MWANZIA MUTHIANI,,Jcc
PJ41S18IER,04/10/2021 18:14,04/10/2021 18:14,Pay Bill from 254702152790 - Michelle Ndunge Kyalo Acc. IDE,Completed,8000,,110418,TRUE,Pay Utility,254702152790 - Michelle Ndunge Kyalo,,IDE
PJ42S003MY,04/10/2021 17:59,04/10/2021 17:59,Pay Bill from 254715742045 - FRIDAH KIEMA Acc. HGC,Completed,9500,,102418,TRUE,Pay Utility,254715742045 - FRIDAH KIEMA,,HGC
PJ49RXBT4P,04/10/2021 17:24,04/10/2021 17:24,Pay Bill Online from 0711117122 - Yassir Mwinyi Abdulrazaq Acc. ICE,Completed,5000,,92918,TRUE,Pay Bill Online,0711117122 - Yassir Mwinyi Abdulrazaq,,ICE
PJ43RX0QX9,04/10/2021 17:20,04/10/2021 17:20,Pay Bill from 254723328258 - SAMUEL MAINA MURIUKI Acc. IFE,Completed,8000,,87918,TRUE,Pay Utility,254723328258 - SAMUEL MAINA MURIUKI,,IFE
PJ49RWZ3OX,04/10/2021 17:19,04/10/2021 17:19,Pay Bill from 254701112397 - ELEMA GODANA DIBA Acc. IAD,Completed,10000,,79918,TRUE,Pay Utility,254701112397 - ELEMA GODANA DIBA,,IAD
PJ44RQ8X2I,04/10/2021 15:31,04/10/2021 15:31,Pay Bill from 254702355678 - JOHN NJOROGE GICHERU Acc. ITE,Completed,3918,,69918,TRUE,Pay Utility,254702355678 - JOHN NJOROGE GICHERU,,ITE
PJ42RP99DO,04/10/2021 15:14,04/10/2021 15:14,Pay Bill from 254720802644 - MESHACK MAXWELL GANDA Acc. HAB,Completed,15000,,66000,TRUE,Pay Utility,254720802644 - MESHACK MAXWELL GANDA,,HAB
PJ41RO0EK1,04/10/2021 14:52,04/10/2021 14:52,Pay Bill Online from 254708225541 - JUDITH NKATHA SIMBA Acc. HDH,Completed,16000,,51000,TRUE,Pay Bill Online,254708225541 - JUDITH NKATHA SIMBA,,HDH
PJ48RMXSFI,04/10/2021 14:34,04/10/2021 14:34,Pay Bill from 254722889574 - ALLAN MWANGI Acc. JCG,Completed,10000,,35000,TRUE,Pay Utility with OD via STK,254722889574 - ALLAN MWANGI,,JCG
PJ42RM13C2,04/10/2021 14:18,04/10/2021 14:18,Pay Bill from 254727955151 - NKONGE MAURICE Acc. Fge,Completed,15000,,25000,TRUE,Pay Utility,254727955151 - NKONGE MAURICE,,Fge
PJ44RKS10I,04/10/2021 13:56,04/10/2021 13:56,Pay Bill from 254714814264 - PATRICIA NZOMO Acc. Hcc,Completed,10000,,10000,TRUE,Pay Utility,254714814264 - PATRICIA NZOMO,,Hcc
PJ44RFUR0U,04/10/2021 12:31,04/10/2021 12:31,Utility Account to Organization Settlement Account,Completed,,-9000,0,TRUE,Utility Account to Organization Settlement Account,979524 - ANCIENT WELLS PROPERTY MANAGERS 2,,
PJ49R2Z1C7,04/10/2021 08:31,04/10/2021 08:31,Pay Bill from 0745378455 - harriet nyanchama nyaberi Acc. FCC,Completed,9000,,9000,TRUE,Pay Utility,0745378455 - harriet nyanchama nyaberi,,FCC
PJ45R0EC43,04/10/2021 07:29,04/10/2021 07:29,Utility Account to Organization Settlement Account,Completed,,-253582,0,TRUE,Utility Account to Organization Settlement Account,979524 - ANCIENT WELLS PROPERTY MANAGERS 2,,
PJ34QWWXQA,03/10/2021 23:07,03/10/2021 23:07,Pay Bill from 254701196539 - GICHURI KARANJA Acc. Fee,Completed,16000,,253582,TRUE,Pay Utility,254701196539 - GICHURI KARANJA,,Fee
PJ35QWPHO1,03/10/2021 22:52,03/10/2021 22:52,Pay Bill from 254799946039 - LUIS OTIENO Acc. IAE,Completed,8000,,237582,TRUE,Pay Utility,254799946039 - LUIS OTIENO,,IAE
PJ35QWIW3J,03/10/2021 22:41,03/10/2021 22:41,Pay Bill from 254704833344 - LOISE KIMANI Acc. jfa,Completed,20000,,229582,TRUE,Pay Utility,254704833344 - LOISE KIMANI,,jfa
PJ38QT9R1Q,03/10/2021 21:04,03/10/2021 21:04,Pay Bill from 254719285750 - LILIAN ACHIENG ODONGO Acc. IGE,Completed,9000,,209582,TRUE,Pay Utility,254719285750 - LILIAN ACHIENG ODONGO,,IGE
PJ38QT3WA8,03/10/2021 21:01,03/10/2021 21:01,Pay Bill from 254714578986 - EZEKIEL MULUNGYE Acc. HAC,Completed,10000,,200582,TRUE,Pay Utility,254714578986 - EZEKIEL MULUNGYE,,HAC
PJ34QT20Y8,03/10/2021 21:00,03/10/2021 21:00,Pay Bill from 254700385346 - JESCA ATIENO OKOTH Acc. kcg,Completed,10000,,190582,TRUE,Pay Utility,254700385346 - JESCA ATIENO OKOTH,,kcg
PJ35QRB5WT,03/10/2021 20:30,03/10/2021 20:30,Pay Bill from 254702355678 - JOHN NJOROGE GICHERU Acc. Tithe ,Completed,6082,,180582,TRUE,Pay Utility,254702355678 - JOHN NJOROGE GICHERU,,Tithe
PJ36QN2DU2,03/10/2021 19:26,03/10/2021 19:26,Pay Bill from 254723488259 - WILSON OKITE OKITE Acc. HCA,Completed,15000,,174500,TRUE,Pay Utility,254723488259 - WILSON OKITE OKITE,,HCA
PJ34QMNVFW,03/10/2021 19:21,03/10/2021 19:21,Pay Bill from 254703555717 - SENGA SALIM Acc. hbb,Completed,7000,,159500,TRUE,Pay Utility,254703555717 - SENGA SALIM,,hbb
PJ39QL3R2Z,03/10/2021 19:01,03/10/2021 19:01,Pay Bill from 254700430569 - EDITH   GAKII Acc. FCB,Completed,16000,,152500,TRUE,Pay Utility,254700430569 - EDITH   GAKII,,FCB
PJ38QCAYY2,03/10/2021 16:59,03/10/2021 16:59,Pay Bill from 0797758628 - jackline nyamari onyango Acc. ICF,Completed,11000,,136500,TRUE,Pay Utility,0797758628 - jackline nyamari onyango,,ICF
PJ38QA1FAQ,03/10/2021 16:22,03/10/2021 16:22,Pay Bill from 254711706815 - NAOMI WANYONYI Acc. KBA,Completed,14000,,125500,TRUE,Pay Utility with OD via STK,254711706815 - NAOMI WANYONYI,,KBA
PJ34Q2U5IS,03/10/2021 14:20,03/10/2021 14:20,Pay Bill from 254725754547 - MWACHIRO GEORGE DECHE Acc. DFC,Completed,20000,,111500,TRUE,Pay Utility,254725754547 - MWACHIRO GEORGE DECHE,,DFC
PJ39Q2OOWB,03/10/2021 14:18,03/10/2021 14:18,Pay Bill Online from 0796121714 - janet   mwikali Acc. KBC,Completed,10000,,91500,TRUE,Pay Bill Online,0796121714 - janet   mwikali,,KBC
PJ32Q1BQOO,03/10/2021 13:54,03/10/2021 13:54,Pay Bill Online from 254728364280 - EMMANUEL THUMA OYIER Acc. IDF,Completed,11000,,81500,TRUE,Pay Bill Online,254728364280 - EMMANUEL THUMA OYIER,,IDF
PJ33PY9K41,03/10/2021 12:58,03/10/2021 12:58,Pay Bill Online from 254714855708 - KIPLANGAT SITIENEI Acc. FAE,Completed,16000,,70500,TRUE,Pay Bill Online,254714855708 - KIPLANGAT SITIENEI,,FAE
PJ23PDX1NN,02/10/2021 22:08,02/10/2021 22:08,Pay Bill from 254701006375 - EZRA MAKORI SERETI Acc. HTE,Completed,10000,,54500,TRUE,Pay Utility,254701006375 - EZRA MAKORI SERETI,,HTE
PJ21PDTIJR,02/10/2021 22:05,02/10/2021 22:05,Pay Bill from 254703935626 - DAVID NGARI ITA Acc. FCD,Completed,1000,,44500,TRUE,Pay Utility,254703935626 - DAVID NGARI ITA,,FCD
PJ26OXD3CQ,02/10/2021 18:14,02/10/2021 18:14,Pay Bill from 254702764047 - FERDINAND K Acc. KDB,Completed,16000,,43500,TRUE,Pay Utility,254702764047 - FERDINAND K,,KDB
PJ26OURSBG,02/10/2021 17:40,02/10/2021 17:40,Pay Bill from 254718284151 - EVERLINE MATHEKA Acc. JAG,Completed,9000,,27500,TRUE,Pay Utility,254718284151 - EVERLINE MATHEKA,,JAG
PJ27OUF01H,02/10/2021 17:35,02/10/2021 17:35,Pay Bill Online from 254741433913 - DUNCAN OMONDI OKETCH Acc. IAG,Completed,9000,,18500,TRUE,Pay Bill Online,254741433913 - DUNCAN OMONDI OKETCH,,IAG
PJ24OJDDJ6,02/10/2021 14:49,02/10/2021 14:49,Pay Bill Online from 254717809935 - LYDIAH WERU Acc. IDC,Completed,9500,,9500,TRUE,Pay Bill Online,254717809935 - LYDIAH WERU,,IDC
PJ29OFQK1D,02/10/2021 13:53,02/10/2021 13:53,Utility Account to Organization Settlement Account,Completed,,-121200,0,TRUE,Utility Account to Organization Settlement Account,979524 - ANCIENT WELLS PROPERTY MANAGERS 2,,
PJ27O91053,02/10/2021 12:05,02/10/2021 12:05,Pay Bill Online from 254796292434 - ANTONINA HAYA Acc. HED,Completed,12000,,121200,TRUE,Pay Bill Online,254796292434 - ANTONINA HAYA,,HED
PJ21O71PQX,02/10/2021 11:32,02/10/2021 11:32,Pay Bill Online from 254710814215 - JOAN NYAMBURA KAMAU Acc. IFB,Completed,16200,,109200,TRUE,Pay Bill Online,254710814215 - JOAN NYAMBURA KAMAU,,IFB
PJ22O6I8VK,02/10/2021 11:23,02/10/2021 11:23,Pay Bill Online from 254712187712 - JUDELEEN AHINDUKHA SHILOBELE Acc. IEA,Completed,16000,,93000,TRUE,Pay Bill Online,254712187712 - JUDELEEN AHINDUKHA SHILOBELE,,IEA
PJ25O1J3SP,02/10/2021 09:58,02/10/2021 09:58,Pay Bill from 254728854349 - JOSEPH MUSYOKA Acc. IBG,Completed,8000,,77000,TRUE,Pay Utility,254728854349 - JOSEPH MUSYOKA,,IBG
PJ27NYZM0D,02/10/2021 09:12,02/10/2021 09:12,Pay Bill Online from 254704682516 - Winnie Akinyi Omollo Acc. FDA,Completed,16000,,69000,TRUE,Pay Bill Online,254704682516 - Winnie Akinyi Omollo,,FDA
PJ26NY98IY,02/10/2021 08:58,02/10/2021 08:58,Pay Bill from 254726753273 - JESSE K MURIRMI NJERU Acc. HCH,Completed,17500,,53000,TRUE,Pay Utility,254726753273 - JESSE K MURIRMI NJERU,,HCH
PJ20NY3BHC,02/10/2021 08:55,02/10/2021 08:55,Pay Bill Online from 254720451253 - JIMMY KIOGORA NKIROTE Acc. KBD,Completed,3000,,35500,TRUE,Pay Utility with OD Online,254720451253 - JIMMY KIOGORA NKIROTE,,KBD
PJ28NXLCOK,02/10/2021 08:45,02/10/2021 08:45,Pay Bill from 254726178084 - CHRISTOPHER OCHIENG Acc. ffe,Completed,15000,,32500,TRUE,Pay Utility,254726178084 - CHRISTOPHER OCHIENG,,ffe
PJ29NWMGS3,02/10/2021 08:25,02/10/2021 08:25,Pay Bill Online from 254726001437 - FESTUS MUNYIRI MAINA Acc. JAC PAINTING,Completed,2500,,17500,TRUE,Pay Bill Online,254726001437 - FESTUS MUNYIRI MAINA,,JAC
PJ23NSNE19,02/10/2021 06:22,02/10/2021 06:22,Pay Bill Online from 254706898046 - STACY AKETCH OCHUKA Acc. KGK,Completed,15000,,15000,TRUE,Pay Bill Online,254706898046 - STACY AKETCH OCHUKA,,KGK
PJ27NSJEMB,02/10/2021 06:13,02/10/2021 06:13,Utility Account to Organization Settlement Account,Completed,,-194000,0,TRUE,Utility Account to Organization Settlement Account,979524 - ANCIENT WELLS PROPERTY MANAGERS 2,,
PJ13NQ9SL1,01/10/2021 23:01,01/10/2021 23:01,Pay Bill from 254720375006 - JACOB KANGOGO Acc. IBA,Completed,15000,,194000,TRUE,Pay Utility,254720375006 - JACOB KANGOGO,,IBA
PJ14NJBB5K,01/10/2021 20:22,01/10/2021 20:22,Pay Bill from 254710239100 - PHILOMENA WOKI MUTHAMA Acc. KDK,Completed,17000,,179000,TRUE,Pay Utility,254710239100 - PHILOMENA WOKI MUTHAMA,,KDK
PJ14NJ2RFI,01/10/2021 20:18,01/10/2021 20:18,Pay Bill Online from 254728093389 - MOHAMED MUSA ALASOW Acc. KED ,Completed,12000,,162000,TRUE,Pay Bill Online,254728093389 - MOHAMED MUSA ALASOW,,KED
PJ17NE7PM1,01/10/2021 19:19,01/10/2021 19:19,Pay Bill from 254729796719 - JACINTA WANJIKU NJERI Acc. FFF,Completed,17000,,150000,TRUE,Pay Utility,254729796719 - JACINTA WANJIKU NJERI,,FFF
PJ19NBW7Q5,01/10/2021 18:55,01/10/2021 18:55,Pay Bill from 254704934557 - BAKARI KITSAKA Acc. JAD,Completed,15000,,133000,TRUE,Pay Utility,254704934557 - BAKARI KITSAKA,,JAD
PJ18NAKY6A,01/10/2021 18:42,01/10/2021 18:42,Pay Bill from 254728685098 - AIDID ISSA ABDI Acc. fdf,Completed,1000,,118000,TRUE,Pay Utility with OD via STK,254728685098 - AIDID ISSA ABDI,,fdf
PJ17N9RN9B,01/10/2021 18:33,01/10/2021 18:33,Pay Bill from 254707370896 - OKECH BRIAN BRIAN Acc. FFA,Completed,15000,,117000,TRUE,Pay Utility,254707370896 - OKECH BRIAN BRIAN,,FFA
PJ19N9MWIF,01/10/2021 18:31,01/10/2021 18:31,Pay Bill from 254726028330 - JOHN WAMBUA Acc. IFH,Completed,15000,,102000,TRUE,Pay Utility,254726028330 - JOHN WAMBUA,,IFH
PJ13N9MIF1,01/10/2021 18:31,01/10/2021 18:31,Pay Bill from 254721302658 - JACOB BIRUNDU Acc. DDB,Completed,16000,,87000,TRUE,Pay Utility,254721302658 - JACOB BIRUNDU,,DDB
PJ11N8HGEX,01/10/2021 18:18,01/10/2021 18:18,Pay Bill Online from 254727554512 - COLLINS KOECH Acc. JDJ,Completed,15000,,71000,TRUE,Pay Bill Online,254727554512 - COLLINS KOECH,,JDJ
PJ19N37BW3,01/10/2021 17:10,01/10/2021 17:10,Pay Bill Online from 254717780356 - ALFRED MAIRURA Acc. FAF,Completed,16000,,56000,TRUE,Pay Bill Online,254717780356 - ALFRED MAIRURA,,FAF
PJ11N24FE3,01/10/2021 16:55,01/10/2021 16:55,Pay Bill Online from 254722604851 - WILFRED SAKWA Acc. IDG,Completed,10000,,40000,TRUE,Pay Bill Online,254722604851 - WILFRED SAKWA,,IDG
PJ14MSEDXE,01/10/2021 14:18,01/10/2021 14:18,Pay Bill from 254724852503 - GEOFREY YEGO Acc. JFF,Completed,10000,,30000,TRUE,Pay Utility,254724852503 - GEOFREY YEGO,,JFF
PJ18MQQECS,01/10/2021 13:50,01/10/2021 13:50,Pay Bill from 0758826849 -  Norah Awala Anyango Acc. JEA,Completed,20000,,20000,TRUE,Pay Utility with OD via STK,0758826849 -  Norah Awala Anyango,,JEA
PJ13MMT6EF,01/10/2021 12:44,01/10/2021 12:44,Utility Account to Organization Settlement Account,Completed,,-113000,0,TRUE,Utility Account to Organization Settlement Account,979524 - ANCIENT WELLS PROPERTY MANAGERS 2,,
PJ12MIURMS,01/10/2021 11:35,01/10/2021 11:35,Pay Bill from 254740579741 - MUHINDI MULINYA Acc. HGG,Completed,27000,,113000,TRUE,Pay Utility,254740579741 - MUHINDI MULINYA,,HGG
PJ14MI4HM6,01/10/2021 11:22,01/10/2021 11:22,Pay Bill Online from 254795510441 - LEWIS MUEMA Acc. KEB,Completed,16000,,86000,TRUE,Pay Bill Online,254795510441 - LEWIS MUEMA,,KEB
PJ10MHSKQM,01/10/2021 11:16,01/10/2021 11:16,Pay Bill Online from 254711562428 - Lionel Mutune Muoka Acc. KDI,Completed,11000,,70000,TRUE,Pay Bill Online,254711562428 - Lionel Mutune Muoka,,KDI
PJ12MDZXOU,01/10/2021 10:08,01/10/2021 10:08,Pay Bill from 254703180395 - JANE NYAGUTHII MWAGO Acc. IBE,Completed,8000,,59000,TRUE,Pay Utility,254703180395 - JANE NYAGUTHII MWAGO,,IBE
PJ12MCIUHI,01/10/2021 09:41,01/10/2021 09:41,Pay Bill Online from 254726001437 - FESTUS MUNYIRI MAINA Acc. JAC,Completed,11000,,51000,TRUE,Pay Bill Online,254726001437 - FESTUS MUNYIRI MAINA,,JAC
PJ17M8WVQ3,01/10/2021 08:30,01/10/2021 08:30,Pay Bill from 254716315144 - PETER MUNYIRI WAROTERE Acc. FBB,Completed,16000,,40000,TRUE,Pay Utility,254716315144 - PETER MUNYIRI WAROTERE,,FBB
PJ17M71ESZ,01/10/2021 07:48,01/10/2021 07:48,Pay Bill from 254728901013 - ALEX MOSE ARWASA Acc. HGD,Completed,10000,,24000,TRUE,Pay Utility with OD via STK,254728901013 - ALEX MOSE ARWASA,,HGD
PJ18M6LC5M,01/10/2021 07:36,01/10/2021 07:36,Pay Bill from 254729541871 - ROBERT KULEI Acc. JAB,Completed,5000,,14000,TRUE,Pay Utility,254729541871 - ROBERT KULEI,,JAB
PJ18M6LB1W,01/10/2021 07:36,01/10/2021 07:36,Pay Bill Online from 254707226192 - NICHOLUS MAINGI MWANTHI Acc. HBF,Completed,9000,,9000,TRUE,Pay Bill Online,254707226192 - NICHOLUS MAINGI MWANTHI,,HBF
PJ18M4HTYC,01/10/2021 06:13,01/10/2021 06:13,Utility Account to Organization Settlement Account,Completed,,-148500,0,TRUE,Utility Account to Organization Settlement Account,979524 - ANCIENT WELLS PROPERTY MANAGERS 2,,
