Receipt No.,Completion Time,Initiation Time,Details,Transaction Status,Paid In,Withdrawn,Balance,Balance Confirmed,Reason Type,Other Party Info,Linked Transaction ID,A/C No.
PAJ3SEVHWV,19/01/2021 21:20,19/01/2021 21:20,Pay Bill from 254726403551 - VICTOR KIRUMA Acc. u2,Completed,550,,2250,TRUE,Pay Utility,254726403551 - VICTOR KIRUMA,,u2
PAJ6RKY0Q4,19/01/2021 10:45,19/01/2021 10:45,Pay Bill from 254705133053 - PASCAL OPAR Acc. pascalv45,Completed,600,,1700,TRUE,Pay Utility,254705133053 - PASCAL OPAR,,pascalv45
PAI4R1K56U,18/01/2021 18:56,18/01/2021 18:56,Pay Bill from 254701086112 - CAROLYNE KOKI MULWA Acc. V30,Completed,200,,1100,TRUE,Pay Utility,254701086112 - CAROLYNE KOKI MULWA,,V30
PAH2P9W4PW,17/01/2021 09:17,17/01/2021 09:17,Pay Bill from 254722910078 - MAUREEN MUNYIVA MUTUKU Acc. DBD,Completed,500,,900,TRUE,Pay Utility,254722910078 - MAUREEN MUNYIVA MUTUKU,,DBD
PAG3OMGX8P,16/01/2021 16:42,16/01/2021 16:42,Pay Bill from 254703375006 - KEN RODGERS Acc. DBA,Completed,400,,400,TRUE,Pay Utility with OD via STK,254703375006 - KEN RODGERS,,DBA
PAG7O5LTIZ,16/01/2021 10:16,16/01/2021 10:16,Utility Account to Organization Settlement Account,Completed,,-400,0,TRUE,Utility Account to Organization Settlement Account,846783 - ANCIENT WELLS LTD 4,,
PAF9NX5SWD,15/01/2021 22:51,15/01/2021 22:51,Pay Bill Online from 254711184244 - KIPROP FESTUS Acc. Festus Kiprop C1p,Completed,400,,400,TRUE,Pay Bill Online,254711184244 - KIPROP FESTUS,,Festus
PAF2N0KSLA,15/01/2021 10:38,15/01/2021 10:38,Utility Account to Organization Settlement Account,Completed,,-400,0,TRUE,Utility Account to Organization Settlement Account,846783 - ANCIENT WELLS LTD 4,,
PAE0M6WSWU,14/01/2021 15:12,14/01/2021 15:12,Pay Bill from 254727300915 - EUNICE NJERI Acc. kff,Completed,400,,400,TRUE,Pay Utility,254727300915 - EUNICE NJERI,,kff
PAD0LBJPH2,13/01/2021 18:37,13/01/2021 18:37,Utility Account to Organization Settlement Account,Completed,,-500,0,TRUE,Utility Account to Organization Settlement Account,846783 - ANCIENT WELLS LTD 4,,
PAD4KPJ19K,13/01/2021 09:57,13/01/2021 09:57,Pay Bill from 254701166449 - BETTY NYAWIRA MAINA Acc. G-3,Completed,500,,500,TRUE,Pay Utility,254701166449 - BETTY NYAWIRA MAINA,,G-3
PAD4KPEZ3W,13/01/2021 09:54,13/01/2021 09:54,Utility Account to Organization Settlement Account,Completed,,-600,0,TRUE,Utility Account to Organization Settlement Account,846783 - ANCIENT WELLS LTD 4,,
PAC9KAORI5,12/01/2021 19:36,12/01/2021 19:36,Pay Bill from 254715400042 - BETHUEL WACHITE Acc. Hfg,Completed,400,,600,TRUE,Pay Utility,254715400042 - BETHUEL WACHITE,,Hfg
PAC8JIZP92,12/01/2021 09:08,12/01/2021 09:08,Pay Bill from 254710828379 - charles wachira Acc. Kda,Completed,200,,200,TRUE,Pay Utility,254710828379 - charles wachira,,Kda
PAB2JDOCRC,11/01/2021 22:46,11/01/2021 22:46,Utility Account to Organization Settlement Account,Completed,,-26400,0,TRUE,Utility Account to Organization Settlement Account,846783 - ANCIENT WELLS LTD 4,,
PAB0J9ASAO,11/01/2021 20:30,11/01/2021 20:30,Pay Bill from 254712091662 - BENARD OMONDI ROBY Acc. V16,Completed,1200,,26400,TRUE,Pay Utility,254712091662 - BENARD OMONDI ROBY,,V16
PAB4J8KNYK,11/01/2021 20:16,11/01/2021 20:16,Pay Bill from 0715256632 - FATUMA DIDA BORU Acc. IAF,Completed,21000,,25200,TRUE,Pay Utility,0715256632 - FATUMA DIDA BORU,,IAF
PAB7J0PI3H,11/01/2021 18:10,11/01/2021 18:10,Pay Bill from 254722521028 - CHARLES MONYONCHO Acc. ICB,Completed,1200,,4200,TRUE,Pay Utility,254722521028 - CHARLES MONYONCHO,,ICB
PAB4IIKPRQ,11/01/2021 11:08,11/01/2021 11:08,Pay Bill from 254715597659 - JOYCE KIVAI Acc. IED,Completed,200,,3000,TRUE,Pay Utility,254715597659 - JOYCE KIVAI,,IED
PAA2HQO0HS,10/01/2021 16:01,10/01/2021 16:01,Pay Bill from 254798146452 - VALARY ODHIAMBO Acc. JEE,Completed,400,,2800,TRUE,Pay Utility,254798146452 - VALARY ODHIAMBO,,JEE
PA92H0OHCM,09/01/2021 20:06,09/01/2021 20:06,Pay Bill from 254723341864 - WILLIAM OSIEL WACHUDI Acc. DED,Completed,2400,,2400,TRUE,Pay Utility with OD via STK,254723341864 - WILLIAM OSIEL WACHUDI,,DED
PA99GPB2KZ,09/01/2021 16:56,09/01/2021 16:56,Utility Account to Organization Settlement Account,Completed,,-400,0,TRUE,Utility Account to Organization Settlement Account,846783 - ANCIENT WELLS LTD 4,,
PA91GOC3ER,09/01/2021 16:37,09/01/2021 16:37,Pay Bill from 254792976771 - DANIEL MUTHAMA NDUNDA Acc. F1,Completed,400,,400,TRUE,Pay Utility with OD via STK,254792976771 - DANIEL MUTHAMA NDUNDA,,F1
PA92GEJCRO,09/01/2021 13:00,09/01/2021 13:00,Utility Account to Organization Settlement Account,Completed,,-3000,0,TRUE,Utility Account to Organization Settlement Account,846783 - ANCIENT WELLS LTD 4,,
PA96GE1GTU,09/01/2021 12:48,09/01/2021 12:48,Pay Bill from 0799028632 - WILSON MUTANGILI WAMBUA Acc. haf,Completed,400,,3000,TRUE,Pay Utility,0799028632 - WILSON MUTANGILI WAMBUA,,haf
PA92GCXMCM,09/01/2021 12:22,09/01/2021 12:22,Pay Bill from 254722706516 - KORIR ANTHONY Acc. Anthony D 3,Completed,400,,2600,TRUE,Pay Utility,254722706516 - KORIR ANTHONY,,Anthony
PA96G5C9R2,09/01/2021 09:13,09/01/2021 09:13,Pay Bill from 254711877988 - PATRICK KONZI Acc. b4,Completed,1000,,2200,TRUE,Pay Utility,254711877988 - PATRICK KONZI,,b4
PA88FY8DRG,08/01/2021 21:46,08/01/2021 21:46,Pay Bill from 254729392595 - WINNIE NASICHE KERE Acc. JBF,Completed,200,,1200,TRUE,Pay Utility,254729392595 - WINNIE NASICHE KERE,,JBF
PA89FNC3U1,08/01/2021 18:27,08/01/2021 18:27,Pay Bill from 254717554562 - OMONDI JACK Acc. KCI,Completed,200,,1000,TRUE,Pay Utility,254717554562 - OMONDI JACK,,KCI
PA86FJIWUM,08/01/2021 17:17,08/01/2021 17:17,Pay Bill from 254720107609 - DENNIS OGENDI BARAKE Acc. JAJ,Completed,800,,800,TRUE,Pay Utility with OD via STK,254720107609 - DENNIS OGENDI BARAKE,,JAJ
PA84FFX2FO,08/01/2021 15:57,08/01/2021 15:57,Utility Account to Organization Settlement Account,Completed,,-5100,0,TRUE,Utility Account to Organization Settlement Account,846783 - ANCIENT WELLS LTD 4,,
PA83F8KOUB,08/01/2021 12:57,08/01/2021 12:57,Pay Bill from 254729892526 - PHARIS MICHUKI Acc. JA1,Completed,400,,5100,TRUE,Pay Utility,254729892526 - PHARIS MICHUKI,,JA1
PA84F24I9Q,08/01/2021 10:17,08/01/2021 10:17,Pay Bill from 254703528196 - ERIC GITONGA MUGO Acc. KGJ,Completed,4500,,4700,TRUE,Pay Utility,254703528196 - ERIC GITONGA MUGO,,KGJ
PA87EZO29X,08/01/2021 09:13,08/01/2021 09:13,Pay Bill from 0715688238 - JOANNAH ATUHAIRE BANTU Acc. jae,Completed,200,,200,TRUE,Pay Utility,0715688238 - JOANNAH ATUHAIRE BANTU,,jae
PA87EZ1Q3N,08/01/2021 08:55,08/01/2021 08:55,Utility Account to Organization Settlement Account,Completed,,-13300,0,TRUE,Utility Account to Organization Settlement Account,846783 - ANCIENT WELLS LTD 4,,
PA76ERHME2,07/01/2021 21:13,07/01/2021 21:13,Pay Bill from 254703246217 - AMBROSE ADOCHE MIRASI Acc. D4,Completed,1000,,13300,TRUE,Pay Utility,254703246217 - AMBROSE ADOCHE MIRASI,,D4
PA78ENI4MC,07/01/2021 19:56,07/01/2021 19:56,Pay Bill from 254725326537 - PATRICK KIPLAGAT Acc. KAG,Completed,200,,12300,TRUE,Pay Utility with OD via STK,254725326537 - PATRICK KIPLAGAT,,KAG
PA79EN0J6R,07/01/2021 19:48,07/01/2021 19:48,Pay Bill from 254728687482 - KELSEN MWIRIGI MUTIGA Acc. HCE,Completed,800,,12100,TRUE,Pay Utility,254728687482 - KELSEN MWIRIGI MUTIGA,,HCE
PA73EM3K4F,07/01/2021 19:34,07/01/2021 19:34,Pay Bill from 254719626804 - PAUL NJOROGE Acc. JFI,Completed,1000,,11300,TRUE,Pay Utility,254719626804 - PAUL NJOROGE,,JFI
PA71EJBBL5,07/01/2021 18:52,07/01/2021 18:52,Pay Bill from 254714710698 - TABITHA MULEE KYALO Acc. IFD,Completed,1000,,10300,TRUE,Pay Utility,254714710698 - TABITHA MULEE KYALO,,IFD
PA71ECNEKX,07/01/2021 16:43,07/01/2021 16:43,Pay Bill from 254713966424 - NDUTI MUTHUI Acc. JED,Completed,600,,9300,TRUE,Pay Utility,254713966424 - NDUTI MUTHUI,,JED
PA78EBFEDQ,07/01/2021 16:15,07/01/2021 16:15,Pay Bill from 254714209770 - PURITY NDUKU KYALO Acc. JEB,Completed,1200,,8700,TRUE,Pay Utility,254714209770 - PURITY NDUKU KYALO,,JEB
PA76E928IU,07/01/2021 15:16,07/01/2021 15:16,Pay Bill from 254743775372 - SHIKUNDI PURITY KHAOYA Acc. hcd,Completed,200,,7500,TRUE,Pay Utility,254743775372 - SHIKUNDI PURITY KHAOYA,,hcd
PA75E3QFWP,07/01/2021 13:03,07/01/2021 13:03,Pay Bill from 0799838354 - Brian Kyengo Ndambuki Acc. B3,Completed,800,,7300,TRUE,Pay Utility,0799838354 - Brian Kyengo Ndambuki,,B3
PA72E1J16Q,07/01/2021 12:08,07/01/2021 12:08,Pay Bill from 254726337163 - HALIMA ALI HASSAN Acc. DDA,Completed,200,,6500,TRUE,Pay Utility,254726337163 - HALIMA ALI HASSAN,,DDA
PA77E1D17V,07/01/2021 12:03,07/01/2021 12:03,Pay Bill from 254723499628 - CLINTON JOSEPH MUHARI Acc. hfh,Completed,400,,6300,TRUE,Pay Utility with OD via STK,254723499628 - CLINTON JOSEPH MUHARI,,hfh
PA74DYJ9K4,07/01/2021 10:53,07/01/2021 10:53,Pay Bill from 254723605941 - JOHN KARIHA Acc. kdd,Completed,1500,,5900,TRUE,Pay Utility,254723605941 - JOHN KARIHA,,kdd
PA71DWOPBB,07/01/2021 10:07,07/01/2021 10:07,Pay Bill from 254705670064 - margaret wahu wachira Acc. v35,Completed,400,,4400,TRUE,Pay Utility,254705670064 - margaret wahu wachira,,v35
PA63DOGNZR,06/01/2021 22:33,06/01/2021 22:33,Pay Bill from 254724423882 - JOEL GICHURI KARANJA Acc. fee,Completed,400,,4000,TRUE,Pay Utility,254724423882 - JOEL GICHURI KARANJA,,fee
PA68DMOTPA,06/01/2021 21:30,06/01/2021 21:30,Pay Bill from 254726611493 - Cornelius Kimeli Acc. HAG,Completed,1000,,3600,TRUE,Pay Utility,254726611493 - Cornelius Kimeli,,HAG
PA60DJX5JG,06/01/2021 20:30,06/01/2021 20:30,Pay Bill from 254716328009 - IRENE ODHIAMBO Acc. KGG,Completed,400,,2600,TRUE,Pay Utility,254716328009 - IRENE ODHIAMBO,,KGG
PA65DDL0M1,06/01/2021 18:54,06/01/2021 18:54,Pay Bill from 254704833344 - LOISE KIMANI Acc. jfa,Completed,2200,,2200,TRUE,Pay Utility,254704833344 - LOISE KIMANI,,jfa
PA69DB5EWT,06/01/2021 18:14,06/01/2021 18:14,Utility Account to Organization Settlement Account,Completed,,-12600,0,TRUE,Utility Account to Organization Settlement Account,846783 - ANCIENT WELLS LTD 4,,
PA68D6WH96,06/01/2021 16:53,06/01/2021 16:53,Pay Bill from 254704658943 - IRENE MUTHUI Acc. E5,Completed,8700,,12600,TRUE,Pay Utility,254704658943 - IRENE MUTHUI,,E5
PA68D2GK02,06/01/2021 15:13,06/01/2021 15:13,Pay Bill from 254710814215 - JOAN NYAMBURA KAMAU Acc. jci,Completed,600,,3900,TRUE,Pay Utility,254710814215 - JOAN NYAMBURA KAMAU,,jci
PA60CTQK6W,06/01/2021 11:47,06/01/2021 11:47,Pay Bill from 254727585857 - PETER MUOKI NGUNDO Acc. Peter ngundo e6,Completed,500,,3300,TRUE,Pay Utility,254727585857 - PETER MUOKI NGUNDO,,Peter
PA61CO0VB3,06/01/2021 09:31,06/01/2021 09:31,Pay Bill from 254708328466 - VENESSA NYARERU Acc. KCD,Completed,400,,2800,TRUE,Pay Utility with OD via STK,254708328466 - VENESSA NYARERU,,KCD
PA60CN21YI,06/01/2021 09:07,06/01/2021 09:07,Pay Bill from 254725771056 - CHARLES MURAGURI Acc. FCE,Completed,1600,,2400,TRUE,Pay Utility,254725771056 - CHARLES MURAGURI,,FCE
PA67CLO4T7,06/01/2021 08:29,06/01/2021 08:29,Pay Bill from 254795449800 - MARTHA WANJIRU NJUGUNA Acc. FEB,Completed,800,,800,TRUE,Pay Utility,254795449800 - MARTHA WANJIRU NJUGUNA,,FEB
PA64CKCLSG,06/01/2021 07:47,06/01/2021 07:47,Utility Account to Organization Settlement Account,Completed,,-11000,0,TRUE,Utility Account to Organization Settlement Account,846783 - ANCIENT WELLS LTD 4,,
PA69CID4XJ,06/01/2021 05:17,06/01/2021 05:17,Pay Bill from 254722307003 - NIGEL BOMETT Acc. V01,Completed,400,,11000,TRUE,Pay Utility,254722307003 - NIGEL BOMETT,,V01
PA56CGMTOS,05/01/2021 22:18,05/01/2021 22:18,Pay Bill from 254798524621 - MERCY CHESANG Acc. jcj,Completed,800,,10600,TRUE,Pay Utility,254798524621 - MERCY CHESANG,,jcj
PA50CG2IM0,05/01/2021 21:56,05/01/2021 21:56,Pay Bill from 254729355933 - FELISTAH NJERI WAIRIMU Acc. IDI,Completed,1200,,9800,TRUE,Pay Utility,254729355933 - FELISTAH NJERI WAIRIMU,,IDI
PA51CEWS0F,05/01/2021 21:22,05/01/2021 21:22,Pay Bill from 0792933158 - mary wamaitha maina Acc. kdh,Completed,600,,8600,TRUE,Pay Utility,0792933158 - mary wamaitha maina,,kdh
PA51CDWUWR,05/01/2021 20:59,05/01/2021 20:59,Pay Bill from 254721465713 - RHODA WAMBUI MWANGI Acc. jfh,Completed,1200,,8000,TRUE,Pay Utility,254721465713 - RHODA WAMBUI MWANGI,,jfh
PA52CD7DTI,05/01/2021 20:44,05/01/2021 20:44,Pay Bill from 254724655033 - SUSAN CHIMOTO Acc. KGH,Completed,600,,6800,TRUE,Pay Utility,254724655033 - SUSAN CHIMOTO,,KGH
PA52CCK4P4,05/01/2021 20:32,05/01/2021 20:32,Pay Bill from 254792224857 - FRANKLIN MIWO OGUNDA ODHIAMBO Acc. IAG,Completed,800,,6200,TRUE,Pay Utility,254792224857 - FRANKLIN MIWO OGUNDA ODHIAMBO,,IAG
PA57CC7N5D,05/01/2021 20:26,05/01/2021 20:26,Pay Bill from 254726465584 - JULIANA MUKELI MUTUNGA Acc. v4,Completed,600,,5400,TRUE,Pay Utility,254726465584 - JULIANA MUKELI MUTUNGA,,v4
PA52C9Y9XU,05/01/2021 19:49,05/01/2021 19:49,Pay Bill from 254729590734 - PATRICK NDUNGA Acc. IDD,Completed,200,,4800,TRUE,Pay Utility,254729590734 - PATRICK NDUNGA,,IDD
PA52C6F7UW,05/01/2021 18:57,05/01/2021 18:57,Pay Bill from 254715728688 - NAOMI HAGERERA JACOB Acc. DGC,Completed,1800,,4600,TRUE,Pay Utility,254715728688 - NAOMI HAGERERA JACOB,,DGC
PA58C22CDC,05/01/2021 17:44,05/01/2021 17:44,Pay Bill Online from 254716499837 - ASHA MUSA Acc. jfd,Completed,800,,2800,TRUE,Pay Bill Online,254716499837 - ASHA MUSA,,jfd
PA54C1MFLI,05/01/2021 17:36,05/01/2021 17:36,Pay Bill from 254721302658 - JACOB BIRUNDU Acc. DDB,Completed,400,,2000,TRUE,Pay Utility,254721302658 - JACOB BIRUNDU,,DDB
PA51BZP6HR,05/01/2021 16:58,05/01/2021 16:58,Pay Bill from 0717042461 - Sharon Nyangasi Shivachi Acc. V55,Completed,200,,1600,TRUE,Pay Utility,0717042461 - Sharon Nyangasi Shivachi,,V55
PA55BSKOH5,05/01/2021 14:19,05/01/2021 14:19,Pay Bill Online from 254717809935 - LYDIAH WERU Acc. IDC,Completed,600,,1400,TRUE,Pay Bill Online,254717809935 - LYDIAH WERU,,IDC
PA53BQ6NBB,05/01/2021 13:25,05/01/2021 13:25,Pay Bill from 254718138578 - PAULINE KIOKO Acc. KFD,Completed,400,,800,TRUE,Pay Utility,254718138578 - PAULINE KIOKO,,KFD
PA52BPB5OQ,05/01/2021 13:05,05/01/2021 13:05,Pay Bill from 254708915764 - GEORGE WAHOME Acc. V18,Completed,400,,400,TRUE,Pay Utility,254708915764 - GEORGE WAHOME,,V18
PA57BNSOWT,05/01/2021 12:30,05/01/2021 12:30,Utility Account to Organization Settlement Account,Completed,,-9500,0,TRUE,Utility Account to Organization Settlement Account,846783 - ANCIENT WELLS LTD 4,,
PA52BJDDGK,05/01/2021 10:50,05/01/2021 10:50,Pay Bill from 254701330588 - EDGER WAFULA BUTALI Acc. D1,Completed,200,,9500,TRUE,Pay Utility,254701330588 - EDGER WAFULA BUTALI,,D1
PA56BH1C9Q,05/01/2021 09:56,05/01/2021 09:56,Pay Bill from 254703528196 - ERIC GITONGA MUGO Acc. KGJ,Completed,800,,9300,TRUE,Pay Utility,254703528196 - ERIC GITONGA MUGO,,KGJ
PA49B84JN9,04/01/2021 22:09,04/01/2021 22:09,Pay Bill from 254723815832 - SEMEKIA ONDIALA Acc. v38,Completed,1200,,8500,TRUE,Pay Utility,254723815832 - SEMEKIA ONDIALA,,v38
PA46B6FTGE,04/01/2021 21:18,04/01/2021 21:18,Pay Bill Online from 254795983642 - OBED MOGAKA Acc. F6 OBED ,Completed,600,,7300,TRUE,Pay Bill Online,254795983642 - OBED MOGAKA,,F6
PA41B5JJDJ,04/01/2021 20:58,04/01/2021 20:58,Pay Bill from 254717465142 - EPHANTUS IRURA Acc. C4 MURIITHI,Completed,400,,6700,TRUE,Pay Utility,254717465142 - EPHANTUS IRURA,,C4
PA47B3F0ET,04/01/2021 20:17,04/01/2021 20:17,Pay Bill from 254721539716 - OCTAVIAN MWANYALO Acc. C6,Completed,200,,6300,TRUE,Pay Utility,254721539716 - OCTAVIAN MWANYALO,,C6
PA40B2Y9D6,04/01/2021 20:09,04/01/2021 20:09,Pay Bill from 254706159636 - titus omondi abuodha Acc. HBC,Completed,400,,6100,TRUE,Pay Utility,254706159636 - titus omondi abuodha,,HBC
PA45B2X77Z,04/01/2021 20:09,04/01/2021 20:09,Pay Bill from 254791154655 - ELISHA JURA Acc. IAH,Completed,1000,,5700,TRUE,Pay Utility,254791154655 - ELISHA JURA,,IAH
PA40B1SKP0,04/01/2021 19:51,04/01/2021 19:51,Pay Bill from 254722578070 - SAMUEL MACHARIA Acc. v42,Completed,600,,4700,TRUE,Pay Utility,254722578070 - SAMUEL MACHARIA,,v42
PA41ATVKA1,04/01/2021 17:46,04/01/2021 17:46,Pay Bill from 254727729395 - ROBERT OUKO OSORO Acc. V29,Completed,600,,4100,TRUE,Pay Utility,254727729395 - ROBERT OUKO OSORO,,V29
PA40ASCGCC,04/01/2021 17:17,04/01/2021 17:17,Pay Bill from 254713701237 - Michael Wanjala Acc. G2,Completed,400,,3500,TRUE,Pay Utility,254713701237 - Michael Wanjala,,G2
PA41ARAW2Z,04/01/2021 16:57,04/01/2021 16:57,Pay Bill from 254795449800 - MARTHA WANJIRU NJUGUNA Acc. FEB,Completed,800,,3100,TRUE,Pay Utility,254795449800 - MARTHA WANJIRU NJUGUNA,,FEB
PA46ANL3RC,04/01/2021 15:39,04/01/2021 15:39,Pay Bill from 254728476791 - CAROLE ACHIENG Acc. KCF,Completed,1000,,2300,TRUE,Pay Utility,254728476791 - CAROLE ACHIENG,,KCF
PA43AM7O41,04/01/2021 15:09,04/01/2021 15:09,Pay Bill from 254710262457 - PETER VIKATSI Acc. Peter V26 ,Completed,300,,1300,TRUE,Pay Utility,254710262457 - PETER VIKATSI,,Peter
PA48AJXF4C,04/01/2021 14:18,04/01/2021 14:18,Pay Bill from 254708619274 - BONIFACE MUTUA Acc. JFB,Completed,1000,,1000,TRUE,Pay Utility,254708619274 - BONIFACE MUTUA,,JFB
PA40AJWF7C,04/01/2021 14:18,04/01/2021 14:18,Utility Account to Organization Settlement Account,Completed,,-24192,0,TRUE,Utility Account to Organization Settlement Account,846783 - ANCIENT WELLS LTD 4,,
PA48AJGDUK,04/01/2021 14:08,04/01/2021 14:08,Pay Bill from 0769408762 - Felix Muoki Maundu Acc. IDA,Completed,600,,24192,TRUE,Pay Utility,0769408762 - Felix Muoki Maundu,,IDA
PA48AFL9I0,04/01/2021 12:43,04/01/2021 12:43,Pay Bill Online from 254715144865 - CAROL JULIET MUGOYA Acc. E2,Completed,400,,23592,TRUE,Pay Bill Online,254715144865 - CAROL JULIET MUGOYA,,E2
PA40AAA9YM,04/01/2021 10:46,04/01/2021 10:46,Pay Bill from 254725094113 - BRAXTON LUMWAJI Acc. DDC,Completed,300,,23192,TRUE,Pay Utility,254725094113 - BRAXTON LUMWAJI,,DDC
PA42A6SRU6,04/01/2021 09:25,04/01/2021 09:25,Pay Bill from 254726313835 - SYLVIA JUMA Acc. HDF,Completed,400,,22892,TRUE,Pay Utility,254726313835 - SYLVIA JUMA,,HDF
PA309UARWC,03/01/2021 19:59,03/01/2021 19:59,Pay Bill from 254722569870 - LUKA KEITANY Acc. jfj,Completed,200,,22492,TRUE,Pay Utility,254722569870 - LUKA KEITANY,,jfj
PA349S0YNK,03/01/2021 19:22,03/01/2021 19:22,Pay Bill Online from 254715892656 - DENNIS MUSYOKA MUOKI Acc. KFA,Completed,392,,22292,TRUE,Pay Bill Online,254715892656 - DENNIS MUSYOKA MUOKI,,KFA
PA389PJ7LW,03/01/2021 18:41,03/01/2021 18:41,Pay Bill from 254718233980 - KAREN ASWANI Acc. HEC,Completed,400,,21900,TRUE,Pay Utility,254718233980 - KAREN ASWANI,,HEC
PA359KCL35,03/01/2021 16:58,03/01/2021 16:58,Pay Bill from 254701683737 - MICHAEL NGUGI Acc. HDB,Completed,400,,21500,TRUE,Pay Utility,254701683737 - MICHAEL NGUGI,,HDB
PA389E58AC,03/01/2021 14:42,03/01/2021 14:42,Pay Bill from 254714855708 - KIPLANGAT SITIENEI Acc. FAE,Completed,1000,,21100,TRUE,Pay Utility,254714855708 - KIPLANGAT SITIENEI,,FAE
PA3999ASDZ,03/01/2021 12:44,03/01/2021 12:44,Pay Bill Online from 254799863492 - HIRANI MULJI Acc. JDB,Completed,1600,,20100,TRUE,Pay Bill Online,254799863492 - HIRANI MULJI,,JDB
PA3097BU9O,03/01/2021 11:50,03/01/2021 11:50,Pay Bill from 254716784364 - Wendy Kemunto Nyandiko Acc. ffc,Completed,600,,18500,TRUE,Pay Utility,254716784364 - Wendy Kemunto Nyandiko,,ffc
PA3393HDFB,03/01/2021 10:03,03/01/2021 10:03,Pay Bill Online from 254725639425 - CHRISPINE OMONDI Acc. v13,Completed,700,,17900,TRUE,Pay Bill Online,254725639425 - CHRISPINE OMONDI,,v13
PA3793733R,03/01/2021 09:55,03/01/2021 09:55,Pay Bill Online from 254726844965 - LAMECK OGOT Acc. V3,Completed,7000,,17200,TRUE,Pay Utility with OD Online,254726844965 - LAMECK OGOT,,V3
PA3692OHLI,03/01/2021 09:41,03/01/2021 09:41,Pay Bill from 254727575146 - SUSAN NJERI KIBE Acc. KEC,Completed,200,,10200,TRUE,Pay Utility,254727575146 - SUSAN NJERI KIBE,,KEC
PA208LXL3Y,02/01/2021 18:52,02/01/2021 18:52,Pay Bill from 254700218502 - GRACE NGURE Acc. v46,Completed,800,,10000,TRUE,Pay Utility,254700218502 - GRACE NGURE,,v46
PA228L5ZHG,02/01/2021 18:39,02/01/2021 18:39,Pay Bill from 254720511734 - ENOCK KIBET Acc. FDC,Completed,400,,9200,TRUE,Pay Utility,254720511734 - ENOCK KIBET,,FDC
PA218BXWLB,02/01/2021 15:32,02/01/2021 15:32,Pay Bill from 0794460702 - ISSA ISACK GOLLO Acc. DCC,Completed,1400,,8800,TRUE,Pay Utility,0794460702 - ISSA ISACK GOLLO,,DCC
PA278AD4K7,02/01/2021 14:58,02/01/2021 14:58,Pay Bill from 254798643998 - Judith Mwaniki Acc. KCE,Completed,600,,7400,TRUE,Pay Utility,254798643998 - Judith Mwaniki,,KCE
PA2989X6FN,02/01/2021 14:48,02/01/2021 14:48,Pay Bill from 254790280339 - BANTURA GIBSON Acc. IBA,Completed,3200,,6800,TRUE,Pay Utility,254790280339 - BANTURA GIBSON,,IBA
PA2285JOO2,02/01/2021 13:08,02/01/2021 13:08,Pay Bill from 254722136450 - MARY EVERLYN Acc. FAF,Completed,400,,3600,TRUE,Pay Utility,254722136450 - MARY EVERLYN,,FAF
PA29856PNH,02/01/2021 13:00,02/01/2021 13:00,Pay Bill from 254719398942 - NORAH WAYUA MUNYAO Acc. KDC,Completed,600,,3200,TRUE,Pay Utility,254719398942 - NORAH WAYUA MUNYAO,,KDC
PA24816N7E,02/01/2021 11:26,02/01/2021 11:26,Pay Bill from 254724754662 - CHARLES ERUKUDI EKAI Acc. FBE,Completed,1000,,2600,TRUE,Pay Utility,254724754662 - CHARLES ERUKUDI EKAI,,FBE
PA147P39CS,01/01/2021 21:45,01/01/2021 21:45,Pay Bill Online from 254705846408 - JAMES OUMA Acc. HBG,Completed,400,,1600,TRUE,Pay Bill Online,254705846408 - JAMES OUMA,,HBG
PA167OPFSC,01/01/2021 21:30,01/01/2021 21:30,Pay Bill from 254722444622 - CHARITY KAGWAINI Acc. FFD,Completed,200,,1200,TRUE,Pay Utility,254722444622 - CHARITY KAGWAINI,,FFD
PA137OMG27,01/01/2021 21:28,01/01/2021 21:28,Pay Bill from 254726928933 - JOSHUA NDUNDA NZIOKA Acc. KCJ,Completed,1000,,1000,TRUE,Pay Utility with OD via STK,254726928933 - JOSHUA NDUNDA NZIOKA,,KCJ
PA137BISDL,01/01/2021 16:45,01/01/2021 16:45,Utility Account to Organization Settlement Account,Completed,,-1400,0,TRUE,Utility Account to Organization Settlement Account,846783 - ANCIENT WELLS LTD 4,,
PA1775T0XD,01/01/2021 14:30,01/01/2021 14:30,Pay Bill from 254718818610 - HANNAH NALIAKA Acc. V23,Completed,400,,1400,TRUE,Pay Utility,254718818610 - HANNAH NALIAKA,,V23
PA1271F9P0,01/01/2021 12:46,01/01/2021 12:46,Pay Bill from 254707669965 - ELVIS MOENGA OKERO Acc. IAE,Completed,400,,1000,TRUE,Pay Utility with OD via STK,254707669965 - ELVIS MOENGA OKERO,,IAE
PA156UKUDL,01/01/2021 10:04,01/01/2021 10:04,Pay Bill from 254707669965 - ELVIS MOENGA OKERO Acc. IAE,Completed,600,,600,TRUE,Pay Utility,254707669965 - ELVIS MOENGA OKERO,,IAE
PA176TAZKH,01/01/2021 09:32,01/01/2021 09:32,Utility Account to Organization Settlement Account,Completed,,-4800,0,TRUE,Utility Account to Organization Settlement Account,846783 - ANCIENT WELLS LTD 4,,
PA106R18VM,01/01/2021 08:28,01/01/2021 08:28,Pay Bill Online from 254726082666 - DRUSSILA MUTHEU MUTUNGA Acc. KAH,Completed,400,,4800,TRUE,Pay Bill Online,254726082666 - DRUSSILA MUTHEU MUTUNGA,,KAH
PA176QB3NN,01/01/2021 08:05,01/01/2021 08:05,Pay Bill Online from 254795510441 - LEWIS MUEMA Acc. KEB,Completed,400,,4400,TRUE,Pay Bill Online,254795510441 - LEWIS MUEMA,,KEB
