Receipt No.,Completion Time,Initiation Time,Details,Transaction Status,Paid In,Withdrawn,Balance,Balance Confirmed,Reason Type,Other Party Info,Linked Transaction ID,A/C No.
PLG57RSFWL,16/12/2021 12:40,16/12/2021 12:40,Pay Bill from 254713229967 - John Mugabo Simba Acc. E4,Completed,2000,,2000,TRUE,Pay Utility with OD via STK,254713229967 - John Mugabo Simba,,E4
PLG57O8N6R,16/12/2021 11:40,16/12/2021 11:40,Utility Account to Organization Settlement Account,Completed,,-4250,0,TRUE,Utility Account to Organization Settlement Account,887075 - ANCIENT WELLS LTD 3,,
PLF569GCQL,15/12/2021 15:08,15/12/2021 15:08,Pay Bill from 254706248362 - BERYL HUMA Acc. E5,Completed,4250,,4250,TRUE,Pay Utility with OD via STK,254706248362 - BERYL HUMA,,E5
PLD63GTJFO,13/12/2021 19:58,13/12/2021 19:58,Utility Account to Organization Settlement Account,Completed,,-6000,0,TRUE,Utility Account to Organization Settlement Account,887075 - ANCIENT WELLS LTD 3,,
PLB6XXTDVC,11/12/2021 09:40,11/12/2021 09:40,Pay Bill from 254713229967 - John Mugabo Simba Acc. E4,Completed,4000,,6000,TRUE,Pay Utility with OD via STK,254713229967 - John Mugabo Simba,,E4
PLA6WP9LXG,10/12/2021 15:25,10/12/2021 15:25,Pay Bill Online from 254703176849 - ROYAL MUYA Acc. F2,Completed,2000,,2000,TRUE,Pay Utility with OD Online,254703176849 - ROYAL MUYA,,F2
PLA0WK9EV4,10/12/2021 14:03,10/12/2021 14:03,Utility Account to Organization Settlement Account,Completed,,-15000,0,TRUE,Utility Account to Organization Settlement Account,887075 - ANCIENT WELLS LTD 3,,
PL95UYIOJZ,09/12/2021 15:51,09/12/2021 15:51,Pay Bill from 254726432241 - STEPHEN MAYABI Acc. A1,Completed,7500,,15000,TRUE,Pay Utility with OD via STK,254726432241 - STEPHEN MAYABI,,A1
PL93UXUW7L,09/12/2021 15:40,09/12/2021 15:40,Pay Bill from 254729110577 - GREGORY ONESMUS KIMANTHI Acc. D6,Completed,7500,,7500,TRUE,Pay Utility,254729110577 - GREGORY ONESMUS KIMANTHI,,D6
PL92UL1B0O,09/12/2021 12:10,09/12/2021 12:10,Utility Account to Organization Settlement Account,Completed,,-29000,0,TRUE,Utility Account to Organization Settlement Account,887075 - ANCIENT WELLS LTD 3,,
PL83T2C43X,08/12/2021 15:02,08/12/2021 15:02,Pay Bill from 254729110577 - GREGORY ONESMUS KIMANTHI Acc. D6,Completed,10000,,29000,TRUE,Pay Utility,254729110577 - GREGORY ONESMUS KIMANTHI,,D6
PL87SUD367,08/12/2021 12:56,08/12/2021 12:56,Pay Bill Online from 254703176849 - ROYAL MUYA Acc. F2,Completed,6000,,19000,TRUE,Pay Bill Online,254703176849 - ROYAL MUYA,,F2
PL85STD1BX,08/12/2021 12:40,08/12/2021 12:40,Pay Bill from 254792976771 - DANIEL MUTHAMA NDUNDA Acc. F1,Completed,5000,,13000,TRUE,Pay Utility with OD via STK,254792976771 - DANIEL MUTHAMA NDUNDA,,F1
PL82S8GMA8,08/12/2021 02:15,08/12/2021 02:15,Pay Bill Online from 254714597495 - WAMBUA KIOKO Acc. C1,Completed,8000,,8000,TRUE,Pay Bill Online,254714597495 - WAMBUA KIOKO,,C1
PL72QO2ECO,07/12/2021 09:49,07/12/2021 09:49,Utility Account to Organization Settlement Account,Completed,,-40600,0,TRUE,Utility Account to Organization Settlement Account,887075 - ANCIENT WELLS LTD 3,,
PL71QI1YDT,07/12/2021 07:55,07/12/2021 07:55,Pay Bill from 254727585857 - PETER MUOKI NGUNDO Acc. Peter muoki e6,Completed,8500,,40600,TRUE,Pay Utility,254727585857 - PETER MUOKI NGUNDO,,Peter
PL78QE5E7W,07/12/2021 04:11,07/12/2021 04:11,Pay Bill Online from 254715020357 - ELIZABETH NJERI WARARI Acc. C2,Completed,7500,,32100,TRUE,Pay Bill Online,254715020357 - ELIZABETH NJERI WARARI,,C2
PL68QBFTWA,06/12/2021 22:35,06/12/2021 22:35,Pay Bill from 254721539716 - OCTAVIAN MWANYALO Acc. C6,Completed,8000,,24600,TRUE,Pay Utility,254721539716 - OCTAVIAN MWANYALO,,C6
PL67PG489Z,06/12/2021 15:35,06/12/2021 15:35,Pay Bill from 254717577871 - KELVIN MUTUMA KINYUA Acc. B1,Completed,8000,,16600,TRUE,Pay Utility,254717577871 - KELVIN MUTUMA KINYUA,,B1
PL62P9QLJ2,06/12/2021 13:51,06/12/2021 13:51,Pay Bill from 254701379512 - veronicah minoo mwanza Acc. C3,Completed,8600,,8600,TRUE,Pay Utility,254701379512 - veronicah minoo mwanza,,C3
PL65P5OSTJ,06/12/2021 12:47,06/12/2021 12:47,Utility Account to Organization Settlement Account,Completed,,-8000,0,TRUE,Utility Account to Organization Settlement Account,887075 - ANCIENT WELLS LTD 3,,
PL69OXM7YT,06/12/2021 10:32,06/12/2021 10:32,Pay Bill from 0719349205 - Christabel Gakii Munene Acc. D1,Completed,8000,,8000,TRUE,Pay Utility,0719349205 - Christabel Gakii Munene,,D1
PL57NTDVFV,05/12/2021 16:24,05/12/2021 16:24,Utility Account to Organization Settlement Account,Completed,,-16500,0,TRUE,Utility Account to Organization Settlement Account,887075 - ANCIENT WELLS LTD 3,,
PL57N83N1J,05/12/2021 10:13,05/12/2021 10:13,Pay Bill Online from 254711877988 - PATRICK KONZI Acc. b4,Completed,8500,,16500,TRUE,Pay Utility with OD Online,254711877988 - PATRICK KONZI,,b4
PL48MDV9K8,04/12/2021 18:38,04/12/2021 18:38,Pay Bill from 0715030019 - Omwenga Ong'era Stephen Acc. E1,Completed,8000,,8000,TRUE,Pay Utility,0715030019 - Omwenga Ong'era Stephen,,E1
PL48M59JXU,04/12/2021 16:53,04/12/2021 16:53,Utility Account to Organization Settlement Account,Completed,,-24500,0,TRUE,Utility Account to Organization Settlement Account,887075 - ANCIENT WELLS LTD 3,,
PL40LPTYTM,04/12/2021 13:08,04/12/2021 13:08,Pay Bill from 254717465142 - EPHANTUS IRURA Acc. c4 muriithi,Completed,8500,,24500,TRUE,Pay Utility,254717465142 - EPHANTUS IRURA,,c4
PL41LNCEL5,04/12/2021 12:29,04/12/2021 12:29,Pay Bill from 0702590087 - edel njoki kimani Acc. F3,Completed,8000,,16000,TRUE,Pay Utility,0702590087 - edel njoki kimani,,F3
PL37KU3E55,03/12/2021 20:30,03/12/2021 20:30,Pay Bill from 254722706516 - KORIR ANTHONY Acc. Anthony D3,Completed,8000,,8000,TRUE,Pay Utility,254722706516 - KORIR ANTHONY,,Anthony
PL38KSBJXM,03/12/2021 20:09,03/12/2021 20:09,Utility Account to Organization Settlement Account,Completed,,-67500,0,TRUE,Utility Account to Organization Settlement Account,887075 - ANCIENT WELLS LTD 3,,
PL34KEWQRA,03/12/2021 17:46,03/12/2021 17:46,Pay Bill from 0799912339 - PETER KAMAU MURIU Acc. C5,Completed,10000,,67500,TRUE,Pay Utility,0799912339 - PETER KAMAU MURIU,,C5
PL30K680M4,03/12/2021 15:46,03/12/2021 15:46,Pay Bill from 0793999724 - JALEEL    MWERO Acc. A2,Completed,7500,,57500,TRUE,Pay Utility,0793999724 - JALEEL    MWERO,,A2
PL39K2GFRT,03/12/2021 14:47,03/12/2021 14:47,Pay Bill from 254790837715 - JULIUS MWASHUMBE MAGHANGA Acc. F5,Completed,8500,,50000,TRUE,Pay Utility,254790837715 - JULIUS MWASHUMBE MAGHANGA,,F5
PL34JMA1RA,03/12/2021 10:21,03/12/2021 10:21,Pay Bill from 0704120519 - Mildred   Adhiambo Acc. G1,Completed,8000,,41500,TRUE,Pay Utility,0704120519 - Mildred   Adhiambo,,G1
PL33JLS4TR,03/12/2021 10:12,03/12/2021 10:12,Pay Bill Online from 254724871526 - JOHN KAGUONGO Acc. D5 JOHN KAGUONGO,Completed,8500,,33500,TRUE,Pay Bill Online,254724871526 - JOHN KAGUONGO,,D5
PL27J7Q0TL,02/12/2021 22:20,02/12/2021 22:20,Pay Bill Online from 254715144865 - CAROL JULIET MUGOYA Acc. Carol Juliet E2,Completed,8000,,25000,TRUE,Pay Bill Online,254715144865 - CAROL JULIET MUGOYA,,Carol
PL29IP6ADR,02/12/2021 18:19,02/12/2021 18:19,Pay Bill from 254714419834 - FAITH MWIKALI MUTHAMA Acc. D4,Completed,8500,,17000,TRUE,Pay Utility,254714419834 - FAITH MWIKALI MUTHAMA,,D4
PL21IG81G7,02/12/2021 16:21,02/12/2021 16:21,Pay Bill from 254728664261 - LEVIN INGATI NYONJE Acc. B5,Completed,8500,,8500,TRUE,Pay Utility,254728664261 - LEVIN INGATI NYONJE,,B5
PL10G9GMRA,01/12/2021 12:29,01/12/2021 12:29,Utility Account to Organization Settlement Account,Completed,,-13000,0,TRUE,Utility Account to Organization Settlement Account,887075 - ANCIENT WELLS LTD 3,,
