Receipt No.,Completion Time,Initiation Time,Details,Transaction Status,Paid In,Withdrawn,Balance,Balance Confirmed,Reason Type,Other Party Info,Linked Transaction ID,A/C No.
RAF4GQYYZ4,15/01/2023 19:56,15/01/2023 19:56,Pay Bill from 254717909848 - MARY MBULA KATHUKU Acc. FGD,Completed,9000,,172500,TRUE,Pay Utility with OD via STK,254717909848 - MARY MBULA KATHUKU,,FGD
RAF2GL852A,15/01/2023 19:11,15/01/2023 19:11,Pay Bill from 254720868281 - KENNEDY MWELU Acc. KBI,Completed,12500,,163500,TRUE,Pay Utility,254720868281 - KENNEDY MWELU,,KBI
RAF3FDER0T,15/01/2023 10:30,15/01/2023 10:30,Pay Bill from 254715865256 - RABECCA NABEA Acc. JDG,Completed,10000,,151000,TRUE,Pay Utility,254715865256 - RABECCA NABEA,,JDG
RAF9EY91EH,15/01/2023 01:52,15/01/2023 01:52,Pay Bill from 0743789968 - Dallias Thanare Githara Acc. hbb,Completed,3000,,141000,TRUE,Pay Utility,0743789968 - Dallias Thanare Githara,,hbb
RAE6EWJK9M,14/01/2023 23:40,14/01/2023 23:40,Pay Bill Online from 254712040302 - EMMANUEL MWARO BARASA Acc. KEA,Completed,16000,,138000,TRUE,Pay Bill Online,254712040302 - EMMANUEL MWARO BARASA,,KEA
RAE5E8B8IB,14/01/2023 18:59,14/01/2023 18:59,Pay Bill Online from 254722258107 - JOHN ODIMA ODIMA Acc. KGF,Completed,10000,,122000,TRUE,Pay Bill Online,254722258107 - JOHN ODIMA ODIMA,,KGF
RAE8DC9OZA,14/01/2023 13:30,14/01/2023 13:30,Pay Bill Online from 0769918050 - newton   mutethia Acc. JBG,Completed,10000,,112000,TRUE,Pay Bill Online,0769918050 - newton   mutethia,,JBG
RAE7D5YBT5,14/01/2023 12:20,14/01/2023 12:20,Pay Bill Online from 254714710698 - TABITHA MULEE KYALO Acc. IFD,Completed,11500,,102000,TRUE,Pay Bill Online,254714710698 - TABITHA MULEE KYALO,,IFD
RAE1CROPPX,14/01/2023 09:31,14/01/2023 09:31,Pay Bill from 0720599684 - CHEMUTAI   JACKLINE Acc. KGD,Completed,10000,,90500,TRUE,Pay Utility,0720599684 - CHEMUTAI   JACKLINE,,KGD
RAE3CGRBJN,14/01/2023 05:48,14/01/2023 05:48,Pay Bill Online from 254722910078 - MAUREEN MUNYIVA MUTUKU Acc. DCD,Completed,7000,,80500,TRUE,Pay Bill Online,254722910078 - MAUREEN MUNYIVA MUTUKU,,DCD
RAD8CCPZW2,13/01/2023 23:00,13/01/2023 23:00,Pay Bill from 254725539787 - EVERLYNE MOGAKA Acc. KEF ,Completed,10000,,73500,TRUE,Pay Utility,254725539787 - EVERLYNE MOGAKA,,KEF
RAD3CC3UER,13/01/2023 22:44,13/01/2023 22:44,Pay Bill from 0796929370 - HALIMA BOYA GALMA Acc. DBC,Completed,20000,,63500,TRUE,Pay Utility,0796929370 - HALIMA BOYA GALMA,,DBC
RAD4C7KZB4,13/01/2023 21:31,13/01/2023 21:31,Pay Bill Online from 254717985596 - NICHOLAS KIPKOECH BUTIA Acc. hcf,Completed,2000,,43500,TRUE,Pay Bill Online,254717985596 - NICHOLAS KIPKOECH BUTIA,,hcf
RAD1BW42KH,13/01/2023 19:47,13/01/2023 19:47,Pay Bill Online from 254715892656 - DENNIS MUSYOKA MUOKI Acc. kfa,Completed,3500,,41500,TRUE,Pay Bill Online,254715892656 - DENNIS MUSYOKA MUOKI,,kfa
RAD4BE0CLQ,13/01/2023 17:12,13/01/2023 17:12,Pay Bill from 254722928051 - GILBERT K NGETUNY Acc. JBH,Completed,28000,,38000,TRUE,Pay Utility,254722928051 - GILBERT K NGETUNY,,JBH
RAD4B2X3KU,13/01/2023 15:09,13/01/2023 15:09,Pay Bill from 254741573910 - VINCENT ODUOR OLIENG Acc. HBC,Completed,10000,,10000,TRUE,Pay Utility,254741573910 - VINCENT ODUOR OLIENG,,HBC
RAD1AUFE6L,13/01/2023 13:34,13/01/2023 13:34,Utility Account to Organization Settlement Account,Completed,,-397480,0,TRUE,Utility Account to Organization Settlement Account,979524 - ANCIENT WELLS PROPERTY MANAGERS 2,,
RAD1ARJNBB,13/01/2023 13:02,13/01/2023 13:02,Pay Bill from 254724952183 - MICHAEL WAMBUA MWOVE Acc. FEA,Completed,9000,,397480,TRUE,Pay Utility,254724952183 - MICHAEL WAMBUA MWOVE,,FEA
RAD3AJ63E1,13/01/2023 11:24,13/01/2023 11:24,Merchant Pay Utility Received from 7245661 -  OCHIENG CHEMIST  Acc. HFD,Completed,1000,,388480,TRUE,Merchant Pay Utility via API,7245661 -  OCHIENG CHEMIST ,,HFD
RAD1AAMB1H,13/01/2023 09:41,13/01/2023 09:41,Pay Bill Online from 254714552193 - CHRISTOPHER OCHIENG Acc. JGI ,Completed,16000,,387480,TRUE,Pay Bill Online,254714552193 - CHRISTOPHER OCHIENG,,JGI
RAD5A9VBDB,13/01/2023 09:32,13/01/2023 09:32,Pay Bill Online from 254720451253 - JIMMY KIOGORA NKIROTE Acc. KBD,Completed,2000,,371480,TRUE,Pay Utility with OD Online,254720451253 - JIMMY KIOGORA NKIROTE,,KBD
RAD4A5UL7G,13/01/2023 08:39,13/01/2023 08:39,Pay Bill from 254728704935 - ALFRED KISHOIN Acc. DAB,Completed,16000,,369480,TRUE,Pay Utility,254728704935 - ALFRED KISHOIN,,DAB
RAD7A4NU37,13/01/2023 08:22,13/01/2023 08:22,Pay Bill Online from 254706549634 - CLINTON OMBASA Acc. FDB,Completed,7000,,353480,TRUE,Pay Bill Online,254706549634 - CLINTON OMBASA,,FDB
RAD0A0D6LA,13/01/2023 07:05,13/01/2023 07:05,Utility Account to Organization Settlement Account,Completed,,-400000,346480,TRUE,Utility Account to Organization Settlement Account,979524 - ANCIENT WELLS PROPERTY MANAGERS 2,,
RAC99JVXF7,12/01/2023 20:25,12/01/2023 20:25,Pay Bill from 254720931007 - BRENDA NASIMIYU NYONGESA Acc. KAB,Completed,16000,,746480,TRUE,Pay Utility,254720931007 - BRENDA NASIMIYU NYONGESA,,KAB
RAC698UC7A,12/01/2023 19:01,12/01/2023 19:01,Pay Bill Online from 254715892656 - DENNIS MUSYOKA MUOKI Acc. kfa,Completed,5000,,730480,TRUE,Pay Bill Online,254715892656 - DENNIS MUSYOKA MUOKI,,kfa
RAC48XEVZ8,12/01/2023 17:15,12/01/2023 17:15,Pay Bill from 254707653264 - KELVIN MWANGI MUCHORI Acc. HDE,Completed,10500,,725480,TRUE,Pay Utility,254707653264 - KELVIN MWANGI MUCHORI,,HDE
RAC58UHF23,12/01/2023 16:44,12/01/2023 16:44,Pay Bill from 254729541871 - ROBERT KULEI Acc. JAB,Completed,4500,,714980,TRUE,Pay Utility with OD via STK,254729541871 - ROBERT KULEI,,JAB
RAC38KJAER,12/01/2023 14:50,12/01/2023 14:50,Utility Account to Organization Settlement Account,Completed,,-400000,710480,TRUE,Utility Account to Organization Settlement Account,979524 - ANCIENT WELLS PROPERTY MANAGERS 2,,
RAC68FQW14,12/01/2023 13:55,12/01/2023 13:55,Pay Bill Online from 0757319222 - ATEM KUOL JOHN BOL Acc. FAC,Completed,9500,,1110480,TRUE,Pay Bill Online,0757319222 - ATEM KUOL JOHN BOL,,FAC
RAC485QCJE,12/01/2023 12:00,12/01/2023 12:00,Pay Bill Online from 254717985596 - NICHOLAS KIPKOECH BUTIA Acc. hcf,Completed,2000,,1100980,TRUE,Pay Bill Online,254717985596 - NICHOLAS KIPKOECH BUTIA,,hcf
RAC485FM3Q,12/01/2023 11:57,12/01/2023 11:57,Pay Bill from 254725147697 - JOYCE KIMELI Acc. DAC,Completed,15000,,1098980,TRUE,Pay Utility,254725147697 - JOYCE KIMELI,,DAC
RAC684RYEE,12/01/2023 11:49,12/01/2023 11:49,Pay Bill from 254723747228 - MORARA ASANYO Acc. pool,Completed,22000,,1083980,TRUE,Pay Utility,254723747228 - MORARA ASANYO,,pool
RAC28013H8,12/01/2023 10:52,12/01/2023 10:52,Pay Bill from 254720814822 - JAMES OTIENO OPAR Acc. Jgj,Completed,2000,,1061980,TRUE,Pay Utility,254720814822 - JAMES OTIENO OPAR,,Jgj
RAC17WW2C1,12/01/2023 10:14,12/01/2023 10:14,Pay Bill from 254728854349 - JOSEPH MUSYOKA Acc. IBG,Completed,8000,,1059980,TRUE,Pay Utility,254728854349 - JOSEPH MUSYOKA,,IBG
RAB27CG9JY,11/01/2023 22:07,11/01/2023 22:07,Pay Bill from 254745391294 - Faith Moraa Sitemba Acc. IFC,Completed,7980,,1051980,TRUE,Pay Utility,254745391294 - Faith Moraa Sitemba,,IFC
RAB76S6CBT,11/01/2023 19:01,11/01/2023 19:01,"Pay Bill from 254710110273 - AGNES NTOITI Acc. JBB
",Completed,4800,,1044000,TRUE,Pay Utility with OD via STK,254710110273 - AGNES NTOITI,,"JBB
"
RAB56NHZUT,11/01/2023 18:21,11/01/2023 18:21,Pay Bill from 254717747775 - QADRA SHEIKH ABDULLAHI Acc. JCI,Completed,20000,,1039200,TRUE,Pay Utility,254717747775 - QADRA SHEIKH ABDULLAHI,,JCI
RAB76LUYQ5,11/01/2023 18:06,11/01/2023 18:06,Pay Bill from 254711271263 - BENSON MWADIME JOSEPH Acc. HFC,Completed,14500,,1019200,TRUE,Pay Utility,254711271263 - BENSON MWADIME JOSEPH,,HFC
RAB86IHWYG,11/01/2023 17:34,11/01/2023 17:34,Pay Bill Online from 0110494934 - SHADRACK KIPKEMEI SEREM Acc. HDC,Completed,16000,,1004700,TRUE,Pay Bill Online,0110494934 - SHADRACK KIPKEMEI SEREM,,HDC
RAB16G3CT5,11/01/2023 17:10,11/01/2023 17:10,Merchant Pay Utility Received from 7245661 -  OCHIENG CHEMIST  Acc. HFD,Completed,1000,,988700,TRUE,Merchant Pay Utility via API,7245661 -  OCHIENG CHEMIST ,,HFD
RAB765J0I9,11/01/2023 15:12,11/01/2023 15:12,Pay Bill from 254721780448 - EVERLYNE MIDEVA CHOGO Acc. jca,Completed,20000,,987700,TRUE,Pay Utility,254721780448 - EVERLYNE MIDEVA CHOGO,,jca
RAB662LPT8,11/01/2023 14:38,11/01/2023 14:38,Pay Bill Online from 254720451253 - JIMMY KIOGORA NKIROTE Acc. KBD,Completed,4000,,967700,TRUE,Pay Utility with OD Online,254720451253 - JIMMY KIOGORA NKIROTE,,KBD
RAB25VNTSQ,11/01/2023 13:20,11/01/2023 13:20,Pay Bill from 0708931111 - NJENGA   KURIA Acc. kca,Completed,16000,,963700,TRUE,Pay Utility,0708931111 - NJENGA   KURIA,,kca
RAB154JP21,11/01/2023 07:41,11/01/2023 07:41,Pay Bill Online from 254716011092 - BRIAN OPIYO OMONDI Acc. icb,Completed,16000,,947700,TRUE,Pay Bill Online,254716011092 - BRIAN OPIYO OMONDI,,icb
RAA84VJM4S,10/01/2023 22:08,10/01/2023 22:08,Pay Bill Online from 254715892656 - DENNIS MUSYOKA MUOKI Acc. kfa,Completed,4500,,931700,TRUE,Pay Bill Online,254715892656 - DENNIS MUSYOKA MUOKI,,kfa
RAA14FH9UB,10/01/2023 19:28,10/01/2023 19:28,Pay Bill from 254720814822 - JAMES OTIENO OPAR Acc. Jgj,Completed,4000,,927200,TRUE,Pay Utility,254720814822 - JAMES OTIENO OPAR,,Jgj
RAA84DXR7O,10/01/2023 19:18,10/01/2023 19:18,Pay Bill Online from 254798639242 - Christian Kiragu Acc. FGE,Completed,7000,,923200,TRUE,Pay Bill Online,254798639242 - Christian Kiragu,,FGE
RAA54AJDZ9,10/01/2023 18:52,10/01/2023 18:52,Pay Bill Online from 254726292792 - PHILIP MIANO Acc. JEI,Completed,20000,,916200,TRUE,Pay Bill Online,254726292792 - PHILIP MIANO,,JEI
RAA047E0CS,10/01/2023 18:25,10/01/2023 18:25,Pay Bill from 254710635630 - DONNA JESSICA OWANO Acc. KCC,Completed,10000,,896200,TRUE,Pay Utility,254710635630 - DONNA JESSICA OWANO,,KCC
RAA244PEL4,10/01/2023 18:01,10/01/2023 18:01,Pay Bill from 254717801919 - MARCELINE AKINYI Acc. IAF,Completed,20000,,886200,TRUE,Pay Utility,254717801919 - MARCELINE AKINYI,,IAF
RAA93MU65X,10/01/2023 14:48,10/01/2023 14:48,Pay Bill from 254704111133 - ELVIS OTIENO Acc. HFD,Completed,2700,,866200,TRUE,Pay Utility,254704111133 - ELVIS OTIENO,,HFD
RAA93JEM97,10/01/2023 14:09,10/01/2023 14:09,Pay Bill from 254704111133 - ELVIS OTIENO Acc. HFD,Completed,1600,,863500,TRUE,Pay Utility,254704111133 - ELVIS OTIENO,,HFD
RAA63J1GRA,10/01/2023 14:05,10/01/2023 14:05,Pay Bill Online from 254798639242 - Christian Kiragu Acc. FGE,Completed,8000,,861900,TRUE,Pay Utility with OD Online,254798639242 - Christian Kiragu,,FGE
RAA53IEK37,10/01/2023 13:57,10/01/2023 13:57,Merchant Pay Utility Received from 7245661 -  OCHIENG CHEMIST  Acc. HFD,Completed,1000,,853900,TRUE,Merchant Pay Utility via API,7245661 -  OCHIENG CHEMIST ,,HFD
RAA33BC507,10/01/2023 12:39,10/01/2023 12:39,Pay Bill from 254715591919 - JOHN O OCHIENG Acc. JFA,Completed,10000,,852900,TRUE,Pay Utility,254715591919 - JOHN O OCHIENG,,JFA
RAA136NHVL,10/01/2023 11:44,10/01/2023 11:44,Pay Bill from 254720278119 - LINDAH OGAWO Acc. kfe,Completed,9500,,842900,TRUE,Pay Utility,254720278119 - LINDAH OGAWO,,kfe
RAA6341J5O,10/01/2023 11:13,10/01/2023 11:13,Pay Bill Online from 254718911865 - KENNEDY KELI KATUNGII Acc. HDF,Completed,9000,,833400,TRUE,Pay Bill Online,254718911865 - KENNEDY KELI KATUNGII,,HDF
RAA43017Z8,10/01/2023 10:26,10/01/2023 10:26,Pay Bill from 254710370277 - MAYAKA NYABOKE BRIGED Acc. JAJ,Completed,15000,,824400,TRUE,Pay Utility,254710370277 - MAYAKA NYABOKE BRIGED,,JAJ
RAA82ZQFEQ,10/01/2023 10:22,10/01/2023 10:22,Pay Bill Online from 254725385966 - JOSEPH MUYA MARUA Acc. KEE,Completed,8000,,809400,TRUE,Pay Bill Online,254725385966 - JOSEPH MUYA MARUA,,KEE
RAA82VEXV2,10/01/2023 09:29,10/01/2023 09:29,Pay Bill Online from 254711721087 - MUTHIANI KYULE Acc. IDB ,Completed,15000,,801400,TRUE,Pay Bill Online,254711721087 - MUTHIANI KYULE,,IDB
RAA02SYN5S,10/01/2023 08:57,10/01/2023 08:57,Pay Bill from 254722458136 - NADI GOLICHA Acc. JEA,Completed,9000,,786400,TRUE,Pay Utility,254722458136 - NADI GOLICHA,,JEA
RAA52O9S6V,10/01/2023 07:48,10/01/2023 07:48,Pay Bill from 254728238249 - ESTHER WANGUI KIBUNYI Acc. ICA,Completed,17000,,777400,TRUE,Pay Utility,254728238249 - ESTHER WANGUI KIBUNYI,,ICA
RAA82J4A7G,10/01/2023 00:57,10/01/2023 00:57,Pay Bill Online from 0740422187 - KEVIN MAKATO KUNGA Acc. KEG,Completed,10000,,760400,TRUE,Pay Utility with OD Online,0740422187 - KEVIN MAKATO KUNGA,,KEG
RA9325OD7H,09/01/2023 20:14,09/01/2023 20:14,Pay Bill from 254712990240 - GLORY KARIUKI Acc. KAA,Completed,16000,,750400,TRUE,Pay Utility,254712990240 - GLORY KARIUKI,,KAA
RA901VCL46,09/01/2023 18:52,09/01/2023 18:52,Pay Bill Online from 254715892656 - DENNIS MUSYOKA MUOKI Acc. kfa,Completed,3000,,734400,TRUE,Pay Bill Online,254715892656 - DENNIS MUSYOKA MUOKI,,kfa
RA971UY2UP,09/01/2023 18:48,09/01/2023 18:48,Pay Bill Online from 254704403532 - Mercy Chepchirchir Mary Acc. JBC,Completed,6500,,731400,TRUE,Pay Utility with OD Online,254704403532 - Mercy Chepchirchir Mary,,JBC
RA981RNWEQ,09/01/2023 18:20,09/01/2023 18:20,Pay Bill from 254799520265 - SYLVIA KIRINGA NJERI Acc. IAD,Completed,1000,,724900,TRUE,Pay Utility with OD via STK,254799520265 - SYLVIA KIRINGA NJERI,,IAD
RA921N6WGE,09/01/2023 17:39,09/01/2023 17:39,Pay Bill Online from 254724719419 - ROBERT GARAMA Acc. DGD,Completed,20000,,723900,TRUE,Pay Bill Online,254724719419 - ROBERT GARAMA,,DGD
RA941LTZH6,09/01/2023 17:25,09/01/2023 17:25,Pay Bill from 0719637249 - grace nyambura mwaura Acc. IAD,Completed,1000,,703900,TRUE,Pay Utility,0719637249 - grace nyambura mwaura,,IAD
RA911KWVTN,09/01/2023 17:16,09/01/2023 17:16,Pay Bill from 254717690295 - MARCELLA JELIMO Acc. IGE,Completed,14500,,702900,TRUE,Pay Utility,254717690295 - MARCELLA JELIMO,,IGE
RA941K12NC,09/01/2023 17:07,09/01/2023 17:07,Pay Bill Online from 254712187712 - JUDELEEN SHILOBELE AHINDUKHA Acc. IEA,Completed,36000,,688400,TRUE,Pay Bill Online,254712187712 - JUDELEEN SHILOBELE AHINDUKHA,,IEA
RA911GPSX3,09/01/2023 16:31,09/01/2023 16:31,Pay Bill from 254743916064 - KAI AIKENY IDOKO Acc. ibc,Completed,9500,,652400,TRUE,Pay Utility,254743916064 - KAI AIKENY IDOKO,,ibc
RA9418WC3I,09/01/2023 15:03,09/01/2023 15:03,Pay Bill from 254700430569 - EDITH   GAKII Acc. DDB,Completed,16000,,642900,TRUE,Pay Utility,254700430569 - EDITH   GAKII,,DDB
RA9318VIF5,09/01/2023 15:02,09/01/2023 15:02,Pay Bill from 254723966777 - BONIFACE MUTHAKA NGANGA Acc. IDG,Completed,9000,,626900,TRUE,Pay Utility,254723966777 - BONIFACE MUTHAKA NGANGA,,IDG
RA95ZYHXAV,09/01/2023 13:07,09/01/2023 13:07,Pay Bill Online from 254723930071 - AMOS KITAVI KIVITE Acc. JCE,Completed,9000,,617900,TRUE,Pay Bill Online,254723930071 - AMOS KITAVI KIVITE,,JCE
RA95ZVLFWV,09/01/2023 12:35,09/01/2023 12:35,Pay Bill from 254722826454 - CHARLES KARIMI MAITAI Acc. KDC Keila Nyambura,Completed,9400,,608900,TRUE,Pay Utility,254722826454 - CHARLES KARIMI MAITAI,,KDC
RA90ZV1KGC,09/01/2023 12:29,09/01/2023 12:29,Pay Bill from 254745338401 - mirriam ngina jane Acc. KGC,Completed,1000,,599500,TRUE,Pay Utility,254745338401 - mirriam ngina jane,,KGC
RA99ZRA06L,09/01/2023 11:46,09/01/2023 11:46,Pay Bill from 254721784820 - YVONNE OKELLO Acc. IEC,Completed,4500,,598500,TRUE,Pay Utility,254721784820 - YVONNE OKELLO,,IEC
RA97ZOPGMZ,09/01/2023 11:17,09/01/2023 11:17,Pay Bill Online from 254715892656 - DENNIS MUSYOKA MUOKI Acc. kfa,Completed,4500,,594000,TRUE,Pay Bill Online,254715892656 - DENNIS MUSYOKA MUOKI,,kfa
RA96ZODBSU,09/01/2023 11:13,09/01/2023 11:13,Pay Bill Online from 254722769473 - SAMSON CHALO Acc. IAB,Completed,15000,,589500,TRUE,Pay Utility with OD Online,254722769473 - SAMSON CHALO,,IAB
RA98ZO1C7E,09/01/2023 11:09,09/01/2023 11:09,Pay Bill from 254705425553 - ALEX MATHENGE Acc. JFD,Completed,15000,,574500,TRUE,Pay Utility,254705425553 - ALEX MATHENGE,,JFD
RA92ZE384I,09/01/2023 09:08,09/01/2023 09:08,Pay Bill Online from 254717985596 - NICHOLAS KIPKOECH BUTIA Acc. hcf,Completed,5000,,559500,TRUE,Pay Bill Online,254717985596 - NICHOLAS KIPKOECH BUTIA,,hcf
RA97Z6MNVZ,09/01/2023 07:08,09/01/2023 07:08,Pay Bill from 254716581384 - GREGORY KILUNGYA Acc. DAD,Completed,20000,,554500,TRUE,Pay Utility,254716581384 - GREGORY KILUNGYA,,DAD
RA99Z3S657,09/01/2023 01:51,09/01/2023 01:51,Pay Bill from 254703935626 - DAVID NGARI ITA Acc. FCD,Completed,2000,,534500,TRUE,Pay Utility with OD via STK,254703935626 - DAVID NGARI ITA,,FCD
RA86Z2EEQK,08/01/2023 23:37,08/01/2023 23:37,Pay Bill from 0715566922 - diramu ollo galgalo Acc. HBD,Completed,10000,,532500,TRUE,Pay Utility,0715566922 - diramu ollo galgalo,,HBD
RA85YYTLIT,08/01/2023 21:58,08/01/2023 21:58,Pay Bill from 254797675450 - JOHN NYAREGA NYAKUNDI Acc. FAF,Completed,16000,,522500,TRUE,Pay Utility,254797675450 - JOHN NYAREGA NYAKUNDI,,FAF
RA82YUTBIU,08/01/2023 21:02,08/01/2023 21:02,Pay Bill from 0717441870 - Steven oduor ogutu Acc. KTA,Completed,9500,,506500,TRUE,Pay Utility,0717441870 - Steven oduor ogutu,,KTA
RA86Y4VFAC,08/01/2023 16:48,08/01/2023 16:48,Pay Bill from 0743789968 - Dallias Thanare Githara Acc. hbb,Completed,4000,,497000,TRUE,Pay Utility,0743789968 - Dallias Thanare Githara,,hbb
RA87XQ9AVD,08/01/2023 13:54,08/01/2023 13:54,Pay Bill from 0715688238 - JOANNAH ATUHAIRE BANTU Acc. jae,Completed,9000,,493000,TRUE,Pay Utility,0715688238 - JOANNAH ATUHAIRE BANTU,,jae
RA85XDTLC7,08/01/2023 11:06,08/01/2023 11:06,Pay Bill from 254745338401 - mirriam ngina jane Acc. KGC,Completed,4500,,484000,TRUE,Pay Utility,254745338401 - mirriam ngina jane,,KGC
RA84X8YYXM,08/01/2023 09:57,08/01/2023 09:57,Pay Bill from 254701112397 - ELEMA GODANA DIBA Acc. FCA,Completed,10000,,479500,TRUE,Pay Utility,254701112397 - ELEMA GODANA DIBA,,FCA
RA82X15JVS,08/01/2023 07:58,08/01/2023 07:58,Pay Bill from 0705687898 - JORDAN KIPNGETICH THOMAS KIKWAI Acc. kff,Completed,9000,,469500,TRUE,Pay Utility,0705687898 - JORDAN KIPNGETICH THOMAS KIKWAI,,kff
RA82WYNJD6,08/01/2023 06:57,08/01/2023 06:57,Pay Bill Online from 254710146965 - BRENDA DORCAS MABONGA Acc. hfg,Completed,15000,,460500,TRUE,Pay Bill Online,254710146965 - BRENDA DORCAS MABONGA,,hfg
RA78WQPQIQ,07/01/2023 22:06,07/01/2023 22:06,Pay Bill from 254700557767 - BAKHITA MWENDE MUANGE Acc. kcb,Completed,16000,,445500,TRUE,Pay Utility,254700557767 - BAKHITA MWENDE MUANGE,,kcb
RA75WQ21UT,07/01/2023 21:56,07/01/2023 21:56,Merchant Pay Utility Received from 7245661 -  OCHIENG CHEMIST  Acc. HFD,Completed,1000,,429500,TRUE,Merchant Pay Utility via API,7245661 -  OCHIENG CHEMIST ,,HFD
RA78WNB4ZI,07/01/2023 21:21,07/01/2023 21:21,Pay Bill from 254712367486 - JACKLINE JUMA Acc. IEF,Completed,23000,,428500,TRUE,Pay Utility,254712367486 - JACKLINE JUMA,,IEF
RA73WIXR5X,07/01/2023 20:36,07/01/2023 20:36,Pay Bill from 254722136450 - MARY EVERLYN Acc. JAI,Completed,20000,,405500,TRUE,Pay Utility,254722136450 - MARY EVERLYN,,JAI
RA73W8UGE3,07/01/2023 19:18,07/01/2023 19:18,Pay Bill from 254729450678 - GRACE NDUNGE Acc. fba,Completed,5000,,385500,TRUE,Pay Utility with OD via STK,254729450678 - GRACE NDUNGE,,fba
RA77W8RACD,07/01/2023 19:17,07/01/2023 19:17,Pay Bill Online from 254715764212 - BANCE ISHEMINYE Acc. JFE ,Completed,2000,,380500,TRUE,Pay Bill Online,254715764212 - BANCE ISHEMINYE,,JFE
RA74VYDWE0,07/01/2023 17:48,07/01/2023 17:48,Pay Bill from 254708968773 - Elema Godana Diba Acc. FCA,Completed,6000,,378500,TRUE,Pay Utility,254708968773 - Elema Godana Diba,,FCA
RA76VJ0NSK,07/01/2023 15:07,07/01/2023 15:07,Pay Bill from 0797268984 - MARY MUKELI KIMEU Acc. kbc,Completed,10000,,372500,TRUE,Pay Utility,0797268984 - MARY MUKELI KIMEU,,kbc
RA70V3FD9E,07/01/2023 12:15,07/01/2023 12:15,Pay Bill from 0724386624 - FATUMA ISSE YUSSUF Acc. FAB,Completed,16000,,362500,TRUE,Pay Utility with OD via STK,0724386624 - FATUMA ISSE YUSSUF,,FAB
RA77V3AZMB,07/01/2023 12:13,07/01/2023 12:13,Pay Bill from 0722255105 - SALIM OMAR MZEE Acc. FGF,Completed,17000,,346500,TRUE,Pay Utility with OD via STK,0722255105 - SALIM OMAR MZEE,,FGF
RA77UZFH7N,07/01/2023 11:29,07/01/2023 11:29,Pay Bill from 254715591919 - JOHN O OCHIENG Acc. JFA,Completed,10000,,329500,TRUE,Pay Utility,254715591919 - JOHN O OCHIENG,,JFA
RA73UYMZS9,07/01/2023 11:20,07/01/2023 11:20,Pay Bill from 254701557211 - SUSAN KARANJA Acc. FEE,Completed,16000,,319500,TRUE,Pay Utility,254701557211 - SUSAN KARANJA,,FEE
RA74UYJVNC,07/01/2023 11:19,07/01/2023 11:19,Pay Bill from 254717063324 - Christine Murugi Nyaga Acc. KDF,Completed,10000,,303500,TRUE,Pay Utility,254717063324 - Christine Murugi Nyaga,,KDF
RA79UVHL7D,07/01/2023 10:43,07/01/2023 10:43,Pay Bill from 254722514052 - JOSEPH NDIRANGU Acc. JCF,Completed,5000,,293500,TRUE,Pay Utility,254722514052 - JOSEPH NDIRANGU,,JCF
RA73UU4VTJ,07/01/2023 10:28,07/01/2023 10:28,Pay Bill Online from 254715764212 - BANCE ISHEMINYE Acc. JFE ,Completed,7000,,288500,TRUE,Pay Bill Online,254715764212 - BANCE ISHEMINYE,,JFE
RA78USUGUY,07/01/2023 10:12,07/01/2023 10:12,Pay Bill Online from 254720044312 - ELIUD KIPKURUI Acc. FCF,Completed,17000,,281500,TRUE,Pay Bill Online,254720044312 - ELIUD KIPKURUI,,FCF
RA77UR8K7Z,07/01/2023 09:53,07/01/2023 09:53,Pay Bill from 254703276305 - MARTHA MUSYOKA Acc. IAI ,Completed,15000,,264500,TRUE,Pay Utility,254703276305 - MARTHA MUSYOKA,,IAI
RA76UP40PC,07/01/2023 09:26,07/01/2023 09:26,Pay Bill Online from 254718233980 - KAREN ASWANI Acc. HEC,Completed,10500,,249500,TRUE,Pay Bill Online,254718233980 - KAREN ASWANI,,HEC
RA79UMVHSL,07/01/2023 08:57,07/01/2023 08:57,Pay Bill from 0740245559 - Nduti   Muthui Acc. Jed ,Completed,15000,,239000,TRUE,Pay Utility,0740245559 - Nduti   Muthui,,Jed
RA78UMND64,07/01/2023 08:54,07/01/2023 08:54,Pay Bill from 254798448077 - Eunice Nasimiyu Webwana Acc. KAE,Completed,10000,,224000,TRUE,Pay Utility,254798448077 - Eunice Nasimiyu Webwana,,KAE
RA74UD3KKS,07/01/2023 01:40,07/01/2023 01:40,Pay Bill Online from 254711562428 - Lionel Mutune Muoka Acc. KDI,Completed,11000,,214000,TRUE,Pay Bill Online,254711562428 - Lionel Mutune Muoka,,KDI
RA61U56HHL,06/01/2023 21:33,06/01/2023 21:33,Merchant Pay Utility Received from 7245661 -  OCHIENG CHEMIST  Acc. HFD,Completed,1000,,203000,TRUE,Merchant Pay Utility via API,7245661 -  OCHIENG CHEMIST ,,HFD
RA68TZ2W7S,06/01/2023 20:30,06/01/2023 20:30,Pay Bill Online from 254799371069 - ALPHONCE OCHIENG WAREGA Acc. IEE,Completed,8500,,202000,TRUE,Pay Bill Online,254799371069 - ALPHONCE OCHIENG WAREGA,,IEE
RA63TXX4L3,06/01/2023 20:20,06/01/2023 20:20,Pay Bill from 254720814822 - JAMES OTIENO OPAR Acc. Jgj,Completed,4500,,193500,TRUE,Pay Utility,254720814822 - JAMES OTIENO OPAR,,Jgj
RA68TVAX5K,06/01/2023 19:59,06/01/2023 19:59,Pay Bill from 254721315975 - JOSEPH NDEGWA Acc. H E B,Completed,16000,,189000,TRUE,Pay Utility,254721315975 - JOSEPH NDEGWA,,H
RA62TSG798,06/01/2023 19:37,06/01/2023 19:37,Pay Bill Online from 254704401778 - HAPPINESS BITONGA TUMBO Acc. kfc,Completed,9000,,173000,TRUE,Pay Bill Online,254704401778 - HAPPINESS BITONGA TUMBO,,kfc
RA62TQGCTA,06/01/2023 19:23,06/01/2023 19:23,Pay Bill Online from 254710732381 - JANE ACHIENG MBEKE Acc. HAF,Completed,10000,,164000,TRUE,Pay Bill Online,254710732381 - JANE ACHIENG MBEKE,,HAF
RA65TOFIV3,06/01/2023 19:09,06/01/2023 19:09,Pay Bill Online from 254799735661 - ALBRIGHT SUNGUTI Acc. JEB,Completed,31000,,154000,TRUE,Pay Bill Online,254799735661 - ALBRIGHT SUNGUTI,,JEB
RA68TMVRIQ,06/01/2023 18:57,06/01/2023 18:57,Pay Bill Online from 254111303204 - JAMES MUEMA KIKUVI Acc. DFA,Completed,15000,,123000,TRUE,Pay Bill Online,254111303204 - JAMES MUEMA KIKUVI,,DFA
RA62TLOAJ4,06/01/2023 18:47,06/01/2023 18:47,Pay Bill from 254719779657 - SAMUEL NJOROGE Acc. JGA,Completed,5000,,108000,TRUE,Pay Utility,254719779657 - SAMUEL NJOROGE,,JGA
RA66TG4DJ0,06/01/2023 17:58,06/01/2023 17:58,Pay Bill from 254722521028 - CHARLES MONYONCHO Acc. JDA,Completed,20000,,103000,TRUE,Pay Utility with OD via STK,254722521028 - CHARLES MONYONCHO,,JDA
RA64T2YTA0,06/01/2023 15:45,06/01/2023 15:45,Pay Bill from 254725348334 - JANE NGERO Acc. DFD,Completed,20000,,83000,TRUE,Pay Utility with OD via STK,254725348334 - JANE NGERO,,DFD
RA66T2WFXA,06/01/2023 15:44,06/01/2023 15:44,Pay Bill from 254726028330 - JOHN WAMBUA Acc. IFH,Completed,15000,,63000,TRUE,Pay Utility,254726028330 - JOHN WAMBUA,,IFH
RA61SUORMF,06/01/2023 14:12,06/01/2023 14:12,Pay Bill from 254702764047 - FERDINAND K Acc. KDB,Completed,16000,,48000,TRUE,Pay Utility,254702764047 - FERDINAND K,,KDB
RA63SPG3YH,06/01/2023 13:14,06/01/2023 13:14,Pay Bill from 0791379873 - Joseph Kyalo Sila Acc. HAH,Completed,16000,,32000,TRUE,Pay Utility,0791379873 - Joseph Kyalo Sila,,HAH
RA62SK4LBS,06/01/2023 12:13,06/01/2023 12:13,Pay Bill Online from 0757699775 - BENARD MUIA MUTUA Acc. HCB,Completed,16000,,16000,TRUE,Pay Utility with OD Online,0757699775 - BENARD MUIA MUTUA,,HCB
RA60SJ9NFQ,06/01/2023 12:03,06/01/2023 12:03,Utility Account to Organization Settlement Account,Completed,,-911100,0,TRUE,Utility Account to Organization Settlement Account,979524 - ANCIENT WELLS PROPERTY MANAGERS 2,,
RA66SHNR7O,06/01/2023 11:45,06/01/2023 11:45,Pay Bill from 254702346515 - ELIZABETH ACHIENG NGOME Acc. KDE,Completed,10000,,911100,TRUE,Pay Utility,254702346515 - ELIZABETH ACHIENG NGOME,,KDE
RA61S3ZGTZ,06/01/2023 09:00,06/01/2023 09:00,Pay Bill Online from 254720381965 - JAMES NGUGI MWANIKI Acc. JBI,Completed,20000,,901100,TRUE,Pay Bill Online,254720381965 - JAMES NGUGI MWANIKI,,JBI
RA63S3Y7ER,06/01/2023 09:00,06/01/2023 09:00,Pay Bill Online from 254721714178 - PHANICE JEROTICH KIPTOO Acc. FBF,Completed,16000,,881100,TRUE,Pay Bill Online,254721714178 - PHANICE JEROTICH KIPTOO,,FBF
RA65S39LV3,06/01/2023 08:50,06/01/2023 08:50,Pay Bill from 254716056537 - KIRUI KIPLANGAT HILLARY Acc. JCJ,Completed,16000,,865100,TRUE,Pay Utility with OD via STK,254716056537 - KIRUI KIPLANGAT HILLARY,,JCJ
RA61RW5GB5,06/01/2023 06:39,06/01/2023 06:39,Pay Bill from 254704111133 - ELVIS OTIENO Acc. HFD,Completed,4600,,849100,TRUE,Pay Utility,254704111133 - ELVIS OTIENO,,HFD
RA63RU0DP3,06/01/2023 01:10,06/01/2023 01:10,Pay Bill Online from 254727425310 - DENNIS KIPKOECH CHERUIYOT Acc. JAG,Completed,10000,,844500,TRUE,Pay Bill Online,254727425310 - DENNIS KIPKOECH CHERUIYOT,,JAG
RA53RSQPNT,05/01/2023 23:37,05/01/2023 23:37,Pay Bill Online from 254700518930 - RENE EMMANUEL AURA Acc. fbd,Completed,10000,,834500,TRUE,Pay Bill Online,254700518930 - RENE EMMANUEL AURA,,fbd
RA50RQTVH0,05/01/2023 22:37,05/01/2023 22:37,Pay Bill from 254700811449 - JOHN MULIMA ENANE Acc. HCE,Completed,10500,,824500,TRUE,Pay Utility,254700811449 - JOHN MULIMA ENANE,,HCE
RA59RO26JB,05/01/2023 21:49,05/01/2023 21:49,Pay Bill from 254728670882 - SHARAD EDWARD ADALA OLUM Acc. KCK,Completed,15000,,814000,TRUE,Pay Utility,254728670882 - SHARAD EDWARD ADALA OLUM,,KCK
RA53RMX68R,05/01/2023 21:34,05/01/2023 21:34,Merchant Pay Utility Received from 7245661 -  OCHIENG CHEMIST  Acc. HFD,Completed,1000,,799000,TRUE,Merchant Pay Utility via API,7245661 -  OCHIENG CHEMIST ,,HFD
RA54RMUXTI,05/01/2023 21:34,05/01/2023 21:34,Pay Bill Online from 254715002789 - ERICK NGUGI MAINA Acc. HAG,Completed,16000,,798000,TRUE,Pay Bill Online,254715002789 - ERICK NGUGI MAINA,,HAG
RA54RM6AZ4,05/01/2023 21:25,05/01/2023 21:25,Pay Bill from 254796069018 - PEACE KIMEU Acc. JAH,Completed,16000,,782000,TRUE,Pay Utility,254796069018 - PEACE KIMEU,,JAH
RA53RM5289,05/01/2023 21:25,05/01/2023 21:25,Pay Bill from 0742461415 - MUHINDI FRANCIS MULINYA Acc. HGG,Completed,15000,,766000,TRUE,Pay Utility,0742461415 - MUHINDI FRANCIS MULINYA,,HGG
RA59RLDGCF,05/01/2023 21:16,05/01/2023 21:16,Pay Bill from 254705641030 - FRIDAH WAENI MUITHYA Acc. JEH,Completed,16000,,751000,TRUE,Pay Utility,254705641030 - FRIDAH WAENI MUITHYA,,JEH
RA50RJ7KP2,05/01/2023 20:53,05/01/2023 20:53,Pay Bill from 254703935626 - DAVID NGARI ITA Acc. FCD,Completed,1000,,735000,TRUE,Pay Utility,254703935626 - DAVID NGARI ITA,,FCD
RA52RJ7914,05/01/2023 20:53,05/01/2023 20:53,Pay Bill from 254729233120 - ABDIRAHMAN MOHAMUD ABDULLAHI Acc. HTE,Completed,9000,,734000,TRUE,Pay Utility,254729233120 - ABDIRAHMAN MOHAMUD ABDULLAHI,,HTE
RA51RIR2QL,05/01/2023 20:48,05/01/2023 20:48,Pay Bill Online from 254721974995 - BERNICE MANGOKA Acc. KFK,Completed,16000,,725000,TRUE,Pay Bill Online,254721974995 - BERNICE MANGOKA,,KFK
RA58RGZHB2,05/01/2023 20:32,05/01/2023 20:32,Pay Bill from 254718663397 - JIMMY MUNYAO NZIOKI Acc. DCB,Completed,16000,,709000,TRUE,Pay Utility,254718663397 - JIMMY MUNYAO NZIOKI,,DCB
RA55RELT7H,05/01/2023 20:11,05/01/2023 20:11,Pay Bill from 254700198550 - BENARD ONYANGO Acc. DBB,Completed,16000,,693000,TRUE,Pay Utility,254700198550 - BENARD ONYANGO,,DBB
RA52RCHBTG,05/01/2023 19:54,05/01/2023 19:54,Pay Bill from 254726001437 - FESTUS MUNYIRI MAINA Acc. IFF,Completed,10000,,677000,TRUE,Pay Utility,254726001437 - FESTUS MUNYIRI MAINA,,IFF
RA50R92CXC,05/01/2023 19:29,05/01/2023 19:29,Pay Bill from 254757569672 - BRIAN MARITA NYANGAU Acc. KDD,Completed,25000,,667000,TRUE,Pay Utility,254757569672 - BRIAN MARITA NYANGAU,,KDD
RA54R8S4G6,05/01/2023 19:27,05/01/2023 19:27,Pay Bill Online from 254724821898 - ALLAN GISONI NYANGARESI Acc. DBA,Completed,16000,,642000,TRUE,Pay Bill Online,254724821898 - ALLAN GISONI NYANGARESI,,DBA
RA57R3TXW3,05/01/2023 18:49,05/01/2023 18:49,Pay Bill Online from 254720329895 - BEATRICE KIMINZA MUNYOKI Acc. KEJ,Completed,15000,,626000,TRUE,Pay Bill Online,254720329895 - BEATRICE KIMINZA MUNYOKI,,KEJ
RA58R38ZDM,05/01/2023 18:44,05/01/2023 18:44,Pay Bill from 0112714616 - MERCY NJERI NDUNG'U Acc. hff,Completed,10000,,611000,TRUE,Pay Utility,0112714616 - MERCY NJERI NDUNG'U,,hff
RA54QXUKIM,05/01/2023 17:56,05/01/2023 17:56,Pay Bill from 254741223822 - Rhoyce Kiptarus Boiyo Acc. FEC,Completed,9000,,601000,TRUE,Pay Utility,254741223822 - Rhoyce Kiptarus Boiyo,,FEC
RA58QRFS20,05/01/2023 16:54,05/01/2023 16:54,Pay Bill from 254724435274 - WINFRED MBINYA MUNUVE Acc. DDC,Completed,4000,,592000,TRUE,Pay Utility,254724435274 - WINFRED MBINYA MUNUVE,,DDC
RA56QLVBWK,05/01/2023 15:54,05/01/2023 15:54,Business Pay Bill by 488519 - NCBA  Bank M-pesa Acc. ICC via API,Completed,9000,,588000,TRUE,Business Pay Bill via API,488519 - NCBA  Bank M-pesa,,ICC
RA51QJKMUJ,05/01/2023 15:28,05/01/2023 15:28,Pay Bill from 254702216907 - FAITH MUSA Acc. KBE ,Completed,10000,,579000,TRUE,Pay Utility,254702216907 - FAITH MUSA,,KBE
RA53QHOKKV,05/01/2023 15:07,05/01/2023 15:07,Pay Bill from 254724477912 - SAMUEL MURIMI Acc. HCD,Completed,10000,,569000,TRUE,Pay Utility,254724477912 - SAMUEL MURIMI,,HCD
RA58Q60KGA,05/01/2023 12:55,05/01/2023 12:55,Pay Bill Online from 254716702294 - DANIEL MULATI Acc. KBB,Completed,6000,,559000,TRUE,Pay Bill Online,254716702294 - DANIEL MULATI,,KBB
RA59Q50JZT,05/01/2023 12:44,05/01/2023 12:44,Pay Bill from 254745338401 - mirriam ngina jane Acc. KGC,Completed,9000,,553000,TRUE,Pay Utility,254745338401 - mirriam ngina jane,,KGC
RA58Q2ST3U,05/01/2023 12:18,05/01/2023 12:18,Pay Bill from 254725478531 - KIPKORIR KUTO Acc. DFB,Completed,15000,,544000,TRUE,Pay Utility,254725478531 - KIPKORIR KUTO,,DFB
RA52Q06PQY,05/01/2023 11:48,05/01/2023 11:48,Pay Bill from 254712283818 - OYUGI OCHIENG Acc. FCB,Completed,16000,,529000,TRUE,Pay Utility,254712283818 - OYUGI OCHIENG,,FCB
RA57PT9ANB,05/01/2023 10:25,05/01/2023 10:25,Pay Bill Online from 254706144834 - WILKISTER OSUMO Acc. HGH,Completed,15000,,513000,TRUE,Pay Bill Online,254706144834 - WILKISTER OSUMO,,HGH
RA59PSVAN7,05/01/2023 10:20,05/01/2023 10:20,Pay Bill from 0707581625 - ALICE WANGUI GITAU Acc. HED,Completed,10000,,498000,TRUE,Pay Utility,0707581625 - ALICE WANGUI GITAU,,HED
RA52PESZ32,05/01/2023 06:34,05/01/2023 06:34,Pay Bill from 254795079977 - COLLINS BOB OMOLLO Acc. IGG,Completed,10000,,488000,TRUE,Pay Utility,254795079977 - COLLINS BOB OMOLLO,,IGG
RA54PD00IS,05/01/2023 01:16,05/01/2023 01:16,Pay Bill from 254729097858 - AMBROSE ADEYA AHAWO Acc. KCF,Completed,10000,,478000,TRUE,Pay Utility,254729097858 - AMBROSE ADEYA AHAWO,,KCF
RA46P4XQP8,04/01/2023 21:13,04/01/2023 21:13,Pay Bill from 254703935626 - DAVID NGARI ITA Acc. FCD,Completed,1000,,468000,TRUE,Pay Utility with OD via STK,254703935626 - DAVID NGARI ITA,,FCD
RA47P1XB7F,04/01/2023 20:41,04/01/2023 20:41,Pay Bill from 254701528627 - TURGAY ELDEN Acc. IBB,Completed,16000,,467000,TRUE,Pay Utility,254701528627 - TURGAY ELDEN,,IBB
RA49OUUL09,04/01/2023 19:42,04/01/2023 19:42,Pay Bill from 254113678329 - LESLIE NAINI KOIKAI Acc. IBD ,Completed,11000,,451000,TRUE,Pay Utility,254113678329 - LESLIE NAINI KOIKAI,,IBD
RA41OSYLZ9,04/01/2023 19:27,04/01/2023 19:27,Pay Bill from 254723328258 - SAMUEL MAINA MURIUKI Acc. IFE,Completed,8000,,440000,TRUE,Pay Utility,254723328258 - SAMUEL MAINA MURIUKI,,IFE
RA49OQ4ATL,04/01/2023 19:06,04/01/2023 19:06,Pay Bill from 254710239100 - PHILOMENA WOKI MUTHAMA Acc. KDK,Completed,17000,,432000,TRUE,Pay Utility,254710239100 - PHILOMENA WOKI MUTHAMA,,KDK
RA42ONA33Y,04/01/2023 18:43,04/01/2023 18:43,Pay Bill from 254708499439 - ROSE NDEDE Acc. JCB,Completed,10000,,415000,TRUE,Pay Utility,254708499439 - ROSE NDEDE,,JCB
RA47OMJ6SD,04/01/2023 18:37,04/01/2023 18:37,Pay Bill Online from 254792187144 - HASSAN AHMED HASSAN Acc. KGI,Completed,10000,,405000,TRUE,Pay Bill Online,254792187144 - HASSAN AHMED HASSAN,,KGI
RA41OIBJ31,04/01/2023 18:00,04/01/2023 18:00,Pay Bill from 254743487420 - Margaret Wacu Muia Acc. HGD,Completed,10000,,395000,TRUE,Pay Utility,254743487420 - Margaret Wacu Muia,,HGD
RA45OHSA6P,04/01/2023 17:55,04/01/2023 17:55,Pay Bill from 254729450678 - GRACE NDUNGE Acc. fba,Completed,5000,,385000,TRUE,Pay Utility with OD via STK,254729450678 - GRACE NDUNGE,,fba
RA43OGMFHJ,04/01/2023 17:45,04/01/2023 17:45,Pay Bill Online from 254722728975 - CURTIS MRIGA OMIDO Acc. IAH,Completed,16000,,380000,TRUE,Pay Bill Online,254722728975 - CURTIS MRIGA OMIDO,,IAH
RA45OE5A25,04/01/2023 17:21,04/01/2023 17:21,Pay Bill Online from 254718513411 - Michelle mwangi Acc. HAD,Completed,10000,,364000,TRUE,Pay Bill Online,254718513411 - Michelle mwangi,,HAD
RA45O3LAN9,04/01/2023 15:29,04/01/2023 15:29,Pay Bill from 254719747910 - KEVIN NDERITU GAKINGO Acc. IDD,Completed,11000,,354000,TRUE,Pay Utility,254719747910 - KEVIN NDERITU GAKINGO,,IDD
RA40O1XPGG,04/01/2023 15:10,04/01/2023 15:10,Pay Bill from 254715742045 - FRIDAH KIEMA Acc. HGC,Completed,9500,,343000,TRUE,Pay Utility with OD via STK,254715742045 - FRIDAH KIEMA,,HGC
RA49NWJQW7,04/01/2023 14:09,04/01/2023 14:09,Pay Bill from 254720718594 - GEORGE MOTURI MATIANA Acc. JBE,Completed,9000,,333500,TRUE,Pay Utility,254720718594 - GEORGE MOTURI MATIANA,,JBE
RA48N9NDZA,04/01/2023 09:39,04/01/2023 09:39,Pay Bill Online from 254729160700 - MICAH NDUNGI Acc. HFE,Completed,10500,,324500,TRUE,Pay Bill Online,254729160700 - MICAH NDUNGI,,HFE
RA47N0RBUB,04/01/2023 07:21,04/01/2023 07:21,Pay Bill Online from 254725381062 - VICTOR MAITHYA Acc. DEC,Completed,3000,,314000,TRUE,Pay Utility with OD Online,254725381062 - VICTOR MAITHYA,,DEC
RA44MXALCQ,04/01/2023 00:55,04/01/2023 00:55,Pay Bill Online from 254720451253 - JIMMY KIOGORA NKIROTE Acc. KBD,Completed,1000,,311000,TRUE,Pay Bill Online,254720451253 - JIMMY KIOGORA NKIROTE,,KBD
RA30MWKU8S,03/01/2023 23:54,03/01/2023 23:54,Pay Bill from 254703935626 - DAVID NGARI ITA Acc. FCD,Completed,1000,,310000,TRUE,Pay Utility with OD via STK,254703935626 - DAVID NGARI ITA,,FCD
RA36MSJDB8,03/01/2023 21:57,03/01/2023 21:57,Pay Bill Online from 254725218904 - SALOME MUTHONI MWANGI Acc. KFJ,Completed,15000,,309000,TRUE,Pay Bill Online,254725218904 - SALOME MUTHONI MWANGI,,KFJ
RA32MMUOJA,03/01/2023 20:45,03/01/2023 20:45,Pay Bill from 254725621394 - RACHAEL WACHIRA Acc. Jfb,Completed,15000,,294000,TRUE,Pay Utility,254725621394 - RACHAEL WACHIRA,,Jfb
RA32MKYYDE,03/01/2023 20:27,03/01/2023 20:27,Pay Bill Online from 254723411873 - FREDRICK CHERUIYOT Acc. jbf,Completed,8000,,279000,TRUE,Pay Bill Online,254723411873 - FREDRICK CHERUIYOT,,jbf
RA30MEXS9E,03/01/2023 19:37,03/01/2023 19:37,Pay Bill from 254724201046 - GIDEON NDOLO Acc. KFH,Completed,10000,,271000,TRUE,Pay Utility,254724201046 - GIDEON NDOLO,,KFH
RA30M7OYVW,03/01/2023 18:41,03/01/2023 18:41,Pay Bill Online from 0711117122 - Yassir Mwinyi Abdulrazaq Acc. ICE,Completed,2000,,261000,TRUE,Pay Bill Online,0711117122 - Yassir Mwinyi Abdulrazaq,,ICE
RA36LZ6H7U,03/01/2023 17:23,03/01/2023 17:23,Pay Bill from 254799520265 - SYLVIA KIRINGA NJERI Acc. IAD,Completed,1000,,259000,TRUE,Pay Utility with OD via STK,254799520265 - SYLVIA KIRINGA NJERI,,IAD
RA32LYZV6U,03/01/2023 17:21,03/01/2023 17:21,Pay Bill from 0719637249 - grace nyambura mwaura Acc. IAD,Completed,2000,,258000,TRUE,Pay Utility,0719637249 - grace nyambura mwaura,,IAD
RA32LVGYSC,03/01/2023 16:45,03/01/2023 16:45,Pay Bill Online from 254742911013 - HANEST AMIMO Acc. IEG,Completed,8000,,256000,TRUE,Pay Utility with OD Online,254742911013 - HANEST AMIMO,,IEG
RA36LD2W44,03/01/2023 13:18,03/01/2023 13:18,Pay Bill from 254791086424 - Martha Achieng Arodi Acc. FDC,Completed,9000,,248000,TRUE,Pay Utility,254791086424 - Martha Achieng Arodi,,FDC
RA37LCUAOP,03/01/2023 13:15,03/01/2023 13:15,Pay Bill Online from 254723499628 - CLINTON JOSEPH MUHARI Acc. hfh,Completed,16000,,239000,TRUE,Pay Bill Online,254723499628 - CLINTON JOSEPH MUHARI,,hfh
RA32LBW21K,03/01/2023 13:04,03/01/2023 13:04,Pay Bill from 0769960650 - DORIS WAMARWA MURIUKI Acc. KEC,Completed,10000,,223000,TRUE,Pay Utility,0769960650 - DORIS WAMARWA MURIUKI,,KEC
RA33L71YSH,03/01/2023 12:08,03/01/2023 12:08,Pay Bill from 254722444622 - CHARITY KAGWAINI Acc. ffd,Completed,11000,,213000,TRUE,Pay Utility,254722444622 - CHARITY KAGWAINI,,ffd
RA30L5L0XK,03/01/2023 11:50,03/01/2023 11:50,Pay Bill from 254725771056 - CHARLES MURAGURI Acc. FCE,Completed,15000,,202000,TRUE,Pay Utility,254725771056 - CHARLES MURAGURI,,FCE
RA34L59HFC,03/01/2023 11:46,03/01/2023 11:46,Pay Bill Online from 0715806956 - Mercy Jelagat Kalum Acc. FFE,Completed,15000,,187000,TRUE,Pay Bill Online,0715806956 - Mercy Jelagat Kalum,,FFE
RA34KTC1NO,03/01/2023 09:17,03/01/2023 09:17,Pay Bill Online from 254728055159 - LEE NDUATI FRANCIS Acc. FEF,Completed,16000,,172000,TRUE,Pay Bill Online,254728055159 - LEE NDUATI FRANCIS,,FEF
RA34KLC3YE,03/01/2023 06:41,03/01/2023 06:41,Pay Bill Online from 254721465713 - RHODA WAMBUI MWANGI Acc. Jfh,Completed,17000,,156000,TRUE,Pay Bill Online,254721465713 - RHODA WAMBUI MWANGI,,Jfh
RA29KBM5ZB,02/01/2023 21:09,02/01/2023 21:09,Pay Bill from 254703935626 - DAVID NGARI ITA Acc. FCD,Completed,1000,,139000,TRUE,Pay Utility,254703935626 - DAVID NGARI ITA,,FCD
RA25K7OHHP,02/01/2023 20:25,02/01/2023 20:25,Pay Bill from 0768727221 - ERICK FORESTER BUYUKA Acc. AIC,Completed,9000,,138000,TRUE,Pay Utility,0768727221 - ERICK FORESTER BUYUKA,,AIC
RA29K6ZRIX,02/01/2023 20:19,02/01/2023 20:19,Pay Bill from 254714060203 - PATRICK MWANGOMBE MSAWUCHI Acc. KEI,Completed,12000,,129000,TRUE,Pay Utility,254714060203 - PATRICK MWANGOMBE MSAWUCHI,,KEI
RA26K3Y26Q,02/01/2023 19:52,02/01/2023 19:52,Pay Bill from 254729450678 - GRACE NDUNGE Acc. fba,Completed,1000,,117000,TRUE,Pay Utility with OD via STK,254729450678 - GRACE NDUNGE,,fba
RA21JS7L5B,02/01/2023 18:12,02/01/2023 18:12,Pay Bill Online from 0720141407 - Felix Wanjala Wafula Acc. IEB,Completed,15000,,116000,TRUE,Pay Bill Online,0720141407 - Felix Wanjala Wafula,,IEB
RA21JRDWZF,02/01/2023 18:04,02/01/2023 18:04,Pay Bill from 254726732160 - CATHERINE MBETI Acc. kfi,Completed,12000,,101000,TRUE,Pay Utility,254726732160 - CATHERINE MBETI,,kfi
RA20JQX5SY,02/01/2023 17:59,02/01/2023 17:59,Pay Bill Online from 254702355678 - JOHN NJOROGE GICHERU Acc. ITE,Completed,30000,,89000,TRUE,Pay Bill Online,254702355678 - JOHN NJOROGE GICHERU,,ITE
RA28JHTPVM,02/01/2023 16:20,02/01/2023 16:20,Pay Bill from 254796848496 - IVY WITABA Acc. JBA,Completed,5000,,59000,TRUE,Pay Utility,254796848496 - IVY WITABA,,JBA
RA24JEC3HY,02/01/2023 15:38,02/01/2023 15:38,Pay Bill from 254793009147 - Maria John Acc. FGC,Completed,18000,,54000,TRUE,Pay Utility,254793009147 - Maria John,,FGC
RA23J7S4UP,02/01/2023 14:18,02/01/2023 14:18,Pay Bill from 254719398942 - NORAH WAYUA MUNYAO Acc. KDA,Completed,16000,,36000,TRUE,Pay Utility,254719398942 - NORAH WAYUA MUNYAO,,KDA
RA21J43S1V,02/01/2023 13:32,02/01/2023 13:32,Pay Bill from 254724379488 - NICHOLAS KOOME Acc. JDE,Completed,20000,,20000,TRUE,Pay Utility with OD via STK,254724379488 - NICHOLAS KOOME,,JDE
RA27IZIGHX,02/01/2023 12:36,02/01/2023 12:36,Utility Account to Organization Settlement Account,Completed,,-292900,0,TRUE,Utility Account to Organization Settlement Account,979524 - ANCIENT WELLS PROPERTY MANAGERS 2,,
RA20IYWJF2,02/01/2023 12:28,02/01/2023 12:28,Pay Bill Online from 254729796719 - JACINTA WANJIKU NJERI Acc. FFF,Completed,17000,,292900,TRUE,Pay Bill Online,254729796719 - JACINTA WANJIKU NJERI,,FFF
RA29ISRLBJ,02/01/2023 11:11,02/01/2023 11:11,Pay Bill from 254717726012 - WINFRED MUENI PETER Acc. IDA,Completed,16000,,275900,TRUE,Pay Utility,254717726012 - WINFRED MUENI PETER,,IDA
RA23ISIO7N,02/01/2023 11:08,02/01/2023 11:08,Pay Bill Online from 254719134037 - KELVIN KITOO Acc. FAA,Completed,16000,,259900,TRUE,Pay Bill Online,254719134037 - KELVIN KITOO,,FAA
RA22IBQW1Y,02/01/2023 05:22,02/01/2023 05:22,Pay Bill from 254727766786 - JOHN MAITHA MULWA Acc. ibh,Completed,2500,,243900,TRUE,Pay Utility with OD via STK,254727766786 - JOHN MAITHA MULWA,,ibh
RA26IAT50O,02/01/2023 01:41,02/01/2023 01:41,Pay Bill from 254715636579 - GRACE KALUKI MULI Acc. FDA ,Completed,16000,,241400,TRUE,Pay Utility,254715636579 - GRACE KALUKI MULI,,FDA
RA17I61QOH,01/01/2023 21:56,01/01/2023 21:56,Pay Bill from 254708875278 - ROSEMARY WANJIRU KONYE Acc. HBF,Completed,9000,,225400,TRUE,Pay Utility,254708875278 - ROSEMARY WANJIRU KONYE,,HBF
RA19I5WD3X,01/01/2023 21:53,01/01/2023 21:53,Pay Bill Online from 254714563486 - BRIAN MMATA MUSERA Acc. KBJ,Completed,16000,,216400,TRUE,Pay Bill Online,254714563486 - BRIAN MMATA MUSERA,,KBJ
RA13I5VWA7,01/01/2023 21:53,01/01/2023 21:53,FSI to Pay Bill by 998094 - COOP TO PAYBILL Acc. HEA via WEB by COOP TO PAYBILL\COOPAYBILLTRNS,Completed,16000,,200400,TRUE,FSI to Pay Bill via API,998094 - COOP TO PAYBILL,,HEA
RA12I50UXQ,01/01/2023 21:38,01/01/2023 21:38,Pay Bill from 254723488259 - WILSON OKITE OKITE Acc. HCA,Completed,15000,,184400,TRUE,Pay Utility,254723488259 - WILSON OKITE OKITE,,HCA
RA13HYX851,01/01/2023 20:18,01/01/2023 20:18,Pay Bill from 0743789968 - Dallias Thanare Githara Acc. hbb,Completed,5000,,169400,TRUE,Pay Utility,0743789968 - Dallias Thanare Githara,,hbb
RA10HJOU5U,01/01/2023 17:43,01/01/2023 17:43,Pay Bill from 254711515672 - ALLAN MUTEMBEI Acc. IEI,Completed,15000,,164400,TRUE,Pay Utility,254711515672 - ALLAN MUTEMBEI,,IEI
RA19GSDTIZ,01/01/2023 12:15,01/01/2023 12:15,Pay Bill Online from 254723394064 - ANDREW LAGAT Acc. HBG,Completed,16000,,149400,TRUE,Pay Bill Online,254723394064 - ANDREW LAGAT,,HBG
RA11GNBJF7,01/01/2023 11:10,01/01/2023 11:10,Pay Bill from 254708570729 - MARY OGOLLA Acc. HOUSE NO.KAD,Completed,12000,,133400,TRUE,Pay Utility,254708570729 - MARY OGOLLA,,HOUSE
RA18GBKRO0,01/01/2023 08:30,01/01/2023 08:30,Pay Bill Online from 254795510441 - LEWIS MUEMA Acc. KEB,Completed,16000,,121400,TRUE,Pay Bill Online,254795510441 - LEWIS MUEMA,,KEB
