Receipt No.,Completion Time,Initiation Time,Details,Transaction Status,Paid In,Withdrawn,Balance,Balance Confirmed,Reason Type,Other Party Info,Linked Transaction ID,A/C No.
QL59GHQMKN,05/12/2022 19:08,05/12/2022 19:08,Pay Bill from 254711163049 - OYUGI OCHIENG Acc. FCB,Completed,16000,,178500,TRUE,Pay Utility,254711163049 - OYUGI OCHIENG,,FCB
QL58G12MTS,05/12/2022 17:18,05/12/2022 17:18,Pay Bill from 0707581625 - ALICE WANGUI GITAU Acc. HEF,Completed,11000,,162500,TRUE,Pay Utility,0707581625 - ALICE WANGUI GITAU,,HEF
QL51FZ2DH9,05/12/2022 17:03,05/12/2022 17:03,Pay Bill from 254715636579 - GRACE KALUKI MULI Acc. FDA,Completed,6000,,151500,TRUE,Pay Utility,254715636579 - GRACE KALUKI MULI,,FDA
QL55FWEJXH,05/12/2022 16:42,05/12/2022 16:42,Pay Bill from 254724477912 - SAMUEL MURIMI Acc. HCD,Completed,10000,,145500,TRUE,Pay Utility,254724477912 - SAMUEL MURIMI,,HCD
QL57FT2XNP,05/12/2022 16:15,05/12/2022 16:15,Pay Bill from 254725771056 - CHARLES MURAGURI Acc. FCE,Completed,15000,,135500,TRUE,Pay Utility,254725771056 - CHARLES MURAGURI,,FCE
QL57FQJ6ER,05/12/2022 15:53,05/12/2022 15:53,Pay Bill Online from 254721974995 - BERNICE MANGOKA Acc. KFK,Completed,16000,,120500,TRUE,Pay Bill Online,254721974995 - BERNICE MANGOKA,,KFK
QL51FMZJ1T,05/12/2022 15:22,05/12/2022 15:22,Pay Bill from 254700518930 - RENE EMMANUEL AURA Acc. fbd,Completed,11000,,104500,TRUE,Pay Utility with OD via STK,254700518930 - RENE EMMANUEL AURA,,fbd
QL53FGE5KD,05/12/2022 14:22,05/12/2022 14:22,Pay Bill from 254705902606 - JOSEPH OTIENO SAGWA Acc. fed,Completed,35000,,93500,TRUE,Pay Utility,254705902606 - JOSEPH OTIENO SAGWA,,fed
QL55FG18BT,05/12/2022 14:19,05/12/2022 14:19,Pay Bill from 254721784820 - YVONNE OKELLO Acc. KGC ,Completed,9000,,58500,TRUE,Pay Utility,254721784820 - YVONNE OKELLO,,KGC
QL52F8I8SK,05/12/2022 13:14,05/12/2022 13:14,Pay Bill from 0792933158 - mary wamaitha maina Acc. DGD,Completed,34500,,49500,TRUE,Pay Utility,0792933158 - mary wamaitha maina,,DGD
QL54F1R3D0,05/12/2022 12:15,05/12/2022 12:15,Pay Bill from 254702190887 - Nax Ochieng Acc. FDE,Completed,15000,,15000,TRUE,Pay Utility,254702190887 - Nax Ochieng,,FDE
QL50F03QII,05/12/2022 11:59,05/12/2022 11:59,Utility Account to Organization Settlement Account,Completed,,-446490,0,TRUE,Utility Account to Organization Settlement Account,979524 - ANCIENT WELLS PROPERTY MANAGERS 2,,
QL59ESTYHH,05/12/2022 10:49,05/12/2022 10:49,Pay Bill from 254716881682 - JUSTINE FAYUMA OKWEMBA Acc. HAA,Completed,17000,,446490,TRUE,Pay Utility,254716881682 - JUSTINE FAYUMA OKWEMBA,,HAA
QL56ESJ10E,05/12/2022 10:47,05/12/2022 10:47,Pay Bill from 254704111133 - ELVIS OTIENO Acc. HFD,Completed,990,,429490,TRUE,Pay Utility,254704111133 - ELVIS OTIENO,,HFD
QL58EORXWS,05/12/2022 10:11,05/12/2022 10:11,Pay Bill Online from 254721465713 - RHODA WAMBUI MWANGI Acc. Jfh,Completed,17000,,428500,TRUE,Pay Bill Online,254721465713 - RHODA WAMBUI MWANGI,,Jfh
QL53ENXOEZ,05/12/2022 10:03,05/12/2022 10:03,Pay Bill Online from 254717809935 - LYDIAH WERU Acc. IEF,Completed,11000,,411500,TRUE,Pay Bill Online,254717809935 - LYDIAH WERU,,IEF
QL55EFMPCR,05/12/2022 08:40,05/12/2022 08:40,Pay Bill from 254743243622 - fridah waeni muithya Acc. JEH,Completed,16000,,400500,TRUE,Pay Utility,254743243622 - fridah waeni muithya,,JEH
QL58E9MUTE,05/12/2022 07:34,05/12/2022 07:34,Pay Bill from 0742461415 - MUHINDI FRANCIS MULINYA Acc. HGG,Completed,15000,,384500,TRUE,Pay Utility,0742461415 - MUHINDI FRANCIS MULINYA,,HGG
QL59E859KN,05/12/2022 07:14,05/12/2022 07:14,Pay Bill from 254729160700 - MICAH NDUNGI Acc. HFE,Completed,10500,,369500,TRUE,Pay Utility,254729160700 - MICAH NDUNGI,,HFE
QL58E562N8,05/12/2022 06:10,05/12/2022 06:10,Pay Bill Online from 254714855708 - KIPLANGAT SITIENEI Acc. FAE,Completed,16000,,359000,TRUE,Pay Bill Online,254714855708 - KIPLANGAT SITIENEI,,FAE
QL49DYNDF1,04/12/2022 23:09,04/12/2022 23:09,Pay Bill from 254728670882 - SHARAD EDWARD ADALA OLUM Acc. KCK,Completed,15000,,343000,TRUE,Pay Utility,254728670882 - SHARAD EDWARD ADALA OLUM,,KCK
QL49DXGS3V,04/12/2022 22:47,04/12/2022 22:47,Pay Bill from 254725062550 - FRANKLINE MASSAM Acc. KAF,Completed,10000,,328000,TRUE,Pay Utility,254725062550 - FRANKLINE MASSAM,,KAF
QL44DCWC8M,04/12/2022 19:31,04/12/2022 19:31,Pay Bill Online from 254706144834 - WILKISTER OSUMO Acc. HFB,Completed,15000,,318000,TRUE,Pay Bill Online,254706144834 - WILKISTER OSUMO,,HFB
QL40D6UQL4,04/12/2022 18:52,04/12/2022 18:52,Pay Bill Online from 254723411873 - FREDRICK CHERUIYOT Acc. jbf,Completed,8000,,303000,TRUE,Pay Bill Online,254723411873 - FREDRICK CHERUIYOT,,jbf
QL45CZOSLZ,04/12/2022 17:59,04/12/2022 17:59,Pay Bill from 254719398942 - NORAH WAYUA MUNYAO Acc. KDA,Completed,16000,,295000,TRUE,Pay Utility,254719398942 - NORAH WAYUA MUNYAO,,KDA
QL47CCO6NP,04/12/2022 14:41,04/12/2022 14:41,Pay Bill from 254706891099 - MARGARET WAIRIMU GITAU Acc. HED,Completed,10000,,279000,TRUE,Pay Utility,254706891099 - MARGARET WAIRIMU GITAU,,HED
QL49C390UZ,04/12/2022 13:16,04/12/2022 13:16,Pay Bill from 0720599684 - CHEMUTAI   JACKLINE Acc. KGD,Completed,14000,,269000,TRUE,Pay Utility,0720599684 - CHEMUTAI   JACKLINE,,KGD
QL47C1GR2T,04/12/2022 12:57,04/12/2022 12:57,Pay Bill from 254720978285 - PETER KYALO KIIO Acc. DBD,Completed,20000,,255000,TRUE,Pay Utility,254720978285 - PETER KYALO KIIO,,DBD
QL45BIBPVJ,04/12/2022 09:35,04/12/2022 09:35,Pay Bill from 254720329895 - BEATRICE KIMINZA MUNYOKI Acc. KEJ,Completed,10000,,235000,TRUE,Pay Utility,254720329895 - BEATRICE KIMINZA MUNYOKI,,KEJ
QL48BI1YO0,04/12/2022 09:33,04/12/2022 09:33,Pay Bill from 254714060203 - PATRICK MWANGOMBE MSAWUCHI Acc. KEI,Completed,12000,,225000,TRUE,Pay Utility,254714060203 - PATRICK MWANGOMBE MSAWUCHI,,KEI
QL46B4ZBDC,04/12/2022 06:54,04/12/2022 06:54,Pay Bill from 254722444622 - CHARITY KAGWAINI Acc. ffd,Completed,11000,,213000,TRUE,Pay Utility,254722444622 - CHARITY KAGWAINI,,ffd
QL46B2MGS2,04/12/2022 05:36,04/12/2022 05:36,Pay Bill from 0743789968 - Dallias Thanare Githara Acc. hbb,Completed,5000,,202000,TRUE,Pay Utility,0743789968 - Dallias Thanare Githara,,hbb
QL47B1JG5P,04/12/2022 03:47,04/12/2022 03:47,Pay Bill from 254742270901 - FRACIS MULI KIAMBA Acc. FDA,Completed,10000,,197000,TRUE,Pay Utility,254742270901 - FRACIS MULI KIAMBA,,FDA
QL45B0QB43,04/12/2022 02:37,04/12/2022 02:37,Pay Bill from 254703935626 - DAVID NGARI ITA Acc. FCD,Completed,2000,,187000,TRUE,Pay Utility with OD via STK,254703935626 - DAVID NGARI ITA,,FCD
QL36ANEQ0S,03/12/2022 21:54,03/12/2022 21:54,Pay Bill Online from 254726001437 - FESTUS MUNYIRI MAINA Acc. IFF,Completed,10000,,185000,TRUE,Pay Bill Online,254726001437 - FESTUS MUNYIRI MAINA,,IFF
QL34ADXQXY,03/12/2022 20:32,03/12/2022 20:32,Pay Bill from 0724110456 - Fredrick Otieno Onege Acc. ICH,Completed,16000,,175000,TRUE,Pay Utility,0724110456 - Fredrick Otieno Onege,,ICH
QL31AAO1UB,03/12/2022 20:09,03/12/2022 20:09,Pay Bill Online from 254704934557 - BAKARI KITSAKA Acc. HDG,Completed,15000,,159000,TRUE,Pay Bill Online,254704934557 - BAKARI KITSAKA,,HDG
QL36A3CK42,03/12/2022 19:23,03/12/2022 19:23,Pay Bill from 254741223822 - Rhoyce Kiptarus Boiyo Acc. FEC,Completed,9000,,144000,TRUE,Pay Utility with OD via STK,254741223822 - Rhoyce Kiptarus Boiyo,,FEC
QL399MO4TB,03/12/2022 17:31,03/12/2022 17:31,Pay Bill from 0797268984 - MARY MUKELI KIMEU Acc. KBC,Completed,21000,,135000,TRUE,Pay Utility,0797268984 - MARY MUKELI KIMEU,,KBC
QL399MLJ17,03/12/2022 17:30,03/12/2022 17:30,Pay Bill from 254796848496 - IVY WITABA Acc. JBA,Completed,10000,,114000,TRUE,Pay Utility,254796848496 - IVY WITABA,,JBA
QL3897VP7Y,03/12/2022 15:26,03/12/2022 15:26,Pay Bill from 254723929380 - RHODAH K WAMBUA Acc. HEG,Completed,10000,,104000,TRUE,Pay Utility,254723929380 - RHODAH K WAMBUA,,HEG
QL3090YK6Q,03/12/2022 14:25,03/12/2022 14:25,Pay Bill Online from 254718233980 - KAREN ASWANI Acc. HEC,Completed,10500,,94000,TRUE,Pay Bill Online,254718233980 - KAREN ASWANI,,HEC
QL3690Y41S,03/12/2022 14:25,03/12/2022 14:25,Pay Bill Online from 254729796719 - JACINTA WANJIKU NJERI Acc. FFF,Completed,17000,,83500,TRUE,Pay Bill Online,254729796719 - JACINTA WANJIKU NJERI,,FFF
QL3390KKYZ,03/12/2022 14:22,03/12/2022 14:22,Pay Bill Online from 0757319222 - ATEM KUOL JOHN BOL Acc. FAC,Completed,9500,,66500,TRUE,Pay Bill Online,0757319222 - ATEM KUOL JOHN BOL,,FAC
QL368XIC0A,03/12/2022 13:56,03/12/2022 13:56,Pay Bill Online from 0711117122 - Yassir Mwinyi Abdulrazaq Acc. ICE,Completed,7000,,57000,TRUE,Pay Bill Online,0711117122 - Yassir Mwinyi Abdulrazaq,,ICE
QL328MKUZC,03/12/2022 12:23,03/12/2022 12:23,Pay Bill from 0706563358 - HARRIET NYANCHAMA NYABERI Acc. FCC,Completed,9000,,50000,TRUE,Pay Utility,0706563358 - HARRIET NYANCHAMA NYABERI,,FCC
QL338M4QCB,03/12/2022 12:19,03/12/2022 12:19,Pay Bill from 254722826454 - CHARLES KARIMI MAITAI Acc. KDC Keila,Completed,10000,,41000,TRUE,Pay Utility,254722826454 - CHARLES KARIMI MAITAI,,KDC
QL338A73Y1,03/12/2022 10:33,03/12/2022 10:33,Pay Bill Online from 254718663397 - JIMMY MUNYAO NZIOKI Acc. DCB,Completed,16000,,31000,TRUE,Pay Bill Online,254718663397 - JIMMY MUNYAO NZIOKI,,DCB
QL328846D8,03/12/2022 10:14,03/12/2022 10:14,Pay Bill Online from 254725218904 - SALOME MUTHONI MWANGI Acc. KFJ,Completed,15000,,15000,TRUE,Pay Bill Online,254725218904 - SALOME MUTHONI MWANGI,,KFJ
QL3080MQ5Y,03/12/2022 09:03,03/12/2022 09:03,Utility Account to Organization Settlement Account,Completed,,-289000,0,TRUE,Utility Account to Organization Settlement Account,979524 - ANCIENT WELLS PROPERTY MANAGERS 2,,
QL387X7AI8,03/12/2022 08:28,03/12/2022 08:28,Pay Bill from 254712974871 - PAULA WANJIKU GATUI Acc. hea,Completed,16000,,289000,TRUE,Pay Utility,254712974871 - PAULA WANJIKU GATUI,,hea
QL347T0LYS,03/12/2022 07:36,03/12/2022 07:36,Pay Bill Online from 254715764212 - BANCE ISHEMINYE Acc. JFE ,Completed,3000,,273000,TRUE,Pay Bill Online,254715764212 - BANCE ISHEMINYE,,JFE
QL347IR24G,03/12/2022 00:06,03/12/2022 00:06,Pay Bill from 254703935626 - DAVID NGARI ITA Acc. FCD,Completed,2000,,270000,TRUE,Pay Utility,254703935626 - DAVID NGARI ITA,,FCD
QL2979MM6D,02/12/2022 21:36,02/12/2022 21:36,Pay Bill Online from 254710202776 - KELVIN KARIMI MACHARIA Acc. FAD,Completed,11000,,268000,TRUE,Pay Bill Online,254710202776 - KELVIN KARIMI MACHARIA,,FAD
QL2177B0ND,02/12/2022 21:14,02/12/2022 21:14,Pay Bill Online from 254721417560 - ANDREW SANDE Acc. JBJ,Completed,16000,,257000,TRUE,Pay Bill Online,254721417560 - ANDREW SANDE,,JBJ
QL2476WD5Q,02/12/2022 21:10,02/12/2022 21:10,Pay Bill from 254724862849 - Ann Fresiah Kinyua Acc. HDA,Completed,16000,,241000,TRUE,Pay Utility with OD via STK,254724862849 - Ann Fresiah Kinyua,,HDA
QL24744Q0I,02/12/2022 20:47,02/12/2022 20:47,Pay Bill Online from 254720696119 - DUNCAN OMONDI OKETCH Acc. IAG,Completed,9000,,225000,TRUE,Pay Bill Online,254720696119 - DUNCAN OMONDI OKETCH,,IAG
QL24720M5I,02/12/2022 20:31,02/12/2022 20:31,Pay Bill Online from 0722255105 - SALIM OMAR MZEE Acc. FGF,Completed,16000,,216000,TRUE,Pay Bill Online,0722255105 - SALIM OMAR MZEE,,FGF
QL296OJU1J,02/12/2022 19:01,02/12/2022 19:01,Pay Bill from 254719747910 - KEVIN NDERITU GAKINGO Acc. iDD,Completed,11000,,200000,TRUE,Pay Utility,254719747910 - KEVIN NDERITU GAKINGO,,iDD
QL246L1EJI,02/12/2022 18:38,02/12/2022 18:38,Pay Bill from 254724852503 - GEOFREY YEGO Acc. JFF,Completed,10000,,189000,TRUE,Pay Utility,254724852503 - GEOFREY YEGO,,JFF
QL206L0WRE,02/12/2022 18:38,02/12/2022 18:38,Pay Bill from 254723328258 - SAMUEL MAINA MURIUKI Acc. IFE,Completed,8000,,179000,TRUE,Pay Utility,254723328258 - SAMUEL MAINA MURIUKI,,IFE
QL246JRU6Q,02/12/2022 18:29,02/12/2022 18:29,Pay Bill Online from 254716784364 - Wendy Kemunto Nyandiko Acc. ffc,Completed,9000,,171000,TRUE,Pay Bill Online,254716784364 - Wendy Kemunto Nyandiko,,ffc
QL296HUO7F,02/12/2022 18:15,02/12/2022 18:15,Pay Bill Online from 254706549634 - CLINTON OMBASA Acc. FDB,Completed,10000,,162000,TRUE,Pay Bill Online,254706549634 - CLINTON OMBASA,,FDB
QL266CED6U,02/12/2022 17:35,02/12/2022 17:35,Pay Bill Online from 254728055159 - LEE NDUATI FRANCIS Acc. FEF,Completed,16000,,152000,TRUE,Pay Bill Online,254728055159 - LEE NDUATI FRANCIS,,FEF
QL2963BSGF,02/12/2022 16:21,02/12/2022 16:21,Pay Bill from 254726753273 - JESSE K MURIRMI NJERU Acc. HCH,Completed,17000,,136000,TRUE,Pay Utility,254726753273 - JESSE K MURIRMI NJERU,,HCH
QL235ZCWL3,02/12/2022 15:46,02/12/2022 15:46,Pay Bill from 254711706815 - NAOMI WANYONYI Acc. KBA,Completed,12000,,119000,TRUE,Pay Utility,254711706815 - NAOMI WANYONYI,,KBA
QL295X5N6H,02/12/2022 15:26,02/12/2022 15:26,Pay Bill from 0757604316 - MOHAMED AYUB MUCHEKE Acc. FCA,Completed,6000,,107000,TRUE,Pay Utility,0757604316 - MOHAMED AYUB MUCHEKE,,FCA
QL265TPAQG,02/12/2022 14:55,02/12/2022 14:55,Pay Bill Online from 254702355678 - JOHN NJOROGE GICHERU Acc. ITE,Completed,10000,,101000,TRUE,Pay Bill Online,254702355678 - JOHN NJOROGE GICHERU,,ITE
QL225SFPK4,02/12/2022 14:43,02/12/2022 14:43,Pay Bill Online from 0720141407 - Felix Wanjala Wafula Acc. IEB,Completed,15000,,91000,TRUE,Pay Bill Online,0720141407 - Felix Wanjala Wafula,,IEB
QL255Q2Q8N,02/12/2022 14:22,02/12/2022 14:22,Pay Bill from 254723389177 - NELSON MOI Acc. ibf,Completed,4000,,76000,TRUE,Pay Utility,254723389177 - NELSON MOI,,ibf
QL295IYB29,02/12/2022 13:19,02/12/2022 13:19,Pay Bill Online from 254795510441 - LEWIS MUEMA Acc. KEB,Completed,16000,,72000,TRUE,Pay Bill Online,254795510441 - LEWIS MUEMA,,KEB
QL205ITW0G,02/12/2022 13:18,02/12/2022 13:18,Pay Bill from 254726599835 - LAWRENCE MURIITHI Acc. kdj,Completed,16000,,56000,TRUE,Pay Utility,254726599835 - LAWRENCE MURIITHI,,kdj
QL235FRE61,02/12/2022 12:49,02/12/2022 12:49,Pay Bill Online from 254706898046 - STACY AKETCH OCHUKA Acc. KGK,Completed,15000,,40000,TRUE,Pay Bill Online,254706898046 - STACY AKETCH OCHUKA,,KGK
QL205AWY2M,02/12/2022 12:04,02/12/2022 12:04,Pay Bill from 0715806956 - Mercy Jelagat Kalum Acc. FFE,Completed,15000,,25000,TRUE,Pay Utility,0715806956 - Mercy Jelagat Kalum,,FFE
QL2357GNM5,02/12/2022 11:32,02/12/2022 11:32,Pay Bill Online from 254700187806 - WINNIE OLIVIA AKOTH Acc. JEC,Completed,10000,,10000,TRUE,Pay Bill Online,254700187806 - WINNIE OLIVIA AKOTH,,JEC
QL2754R943,02/12/2022 11:06,02/12/2022 11:06,Utility Account to Organization Settlement Account,Completed,,-67500,0,TRUE,Utility Account to Organization Settlement Account,979524 - ANCIENT WELLS PROPERTY MANAGERS 2,,
QL2453YX54,02/12/2022 10:59,02/12/2022 10:59,Pay Bill from 254720176441 - JANE KEMUNTO Acc. FBC,Completed,9500,,67500,TRUE,Pay Utility,254720176441 - JANE KEMUNTO,,FBC
QL244XAOMG,02/12/2022 09:56,02/12/2022 09:56,Pay Bill from 254741573910 - VINCENT ODUOR OLIENG Acc. HBC,Completed,10000,,58000,TRUE,Pay Utility,254741573910 - VINCENT ODUOR OLIENG,,HBC
QL254SW7L3,02/12/2022 09:13,02/12/2022 09:13,Pay Bill from 254719499823 - MOSES MWANZIA MUTHIANI Acc. Jcc,Completed,10000,,48000,TRUE,Pay Utility with OD via STK,254719499823 - MOSES MWANZIA MUTHIANI,,Jcc
QL234NGX7P,02/12/2022 08:16,02/12/2022 08:16,Pay Bill from 254720550403 - GRACE WANGONDU Acc. jfi,Completed,20000,,38000,TRUE,Pay Utility,254720550403 - GRACE WANGONDU,,jfi
QL204IOJ8M,02/12/2022 07:19,02/12/2022 07:19,Pay Bill from 254791086424 - Martha Achieng Arodi Acc. FDC,Completed,9000,,18000,TRUE,Pay Utility,254791086424 - Martha Achieng Arodi,,FDC
QL1046GIAG,01/12/2022 23:21,01/12/2022 23:21,Pay Bill from 254708875278 - ROSEMARY WANJIRU KONYE Acc. HBF,Completed,9000,,9000,TRUE,Pay Utility,254708875278 - ROSEMARY WANJIRU KONYE,,HBF
QL1146BNTN,01/12/2022 23:19,01/12/2022 23:19,Utility Account to Organization Settlement Account,Completed,,-126000,0,TRUE,Utility Account to Organization Settlement Account,979524 - ANCIENT WELLS PROPERTY MANAGERS 2,,
QL173S6BWR,01/12/2022 20:34,01/12/2022 20:34,Pay Bill from 254723341864 - WILLIAM OSIEL WACHUDI Acc. DED,Completed,20000,,126000,TRUE,Pay Utility,254723341864 - WILLIAM OSIEL WACHUDI,,DED
QL193DATY5,01/12/2022 18:56,01/12/2022 18:56,Pay Bill from 254710239100 - PHILOMENA WOKI MUTHAMA Acc. KDK,Completed,17000,,106000,TRUE,Pay Utility,254710239100 - PHILOMENA WOKI MUTHAMA,,KDK
QL1835LFC2,01/12/2022 18:04,01/12/2022 18:04,Pay Bill from 254717148989 - ALLAN MUTHONI Acc. HAC,Completed,10000,,89000,TRUE,Pay Utility,254717148989 - ALLAN MUTHONI,,HAC
QL132WZCU7,01/12/2022 16:57,01/12/2022 16:57,Pay Bill from 0746934144 - Rosemary Wangui Muiruri Acc. ICD,Completed,3000,,79000,TRUE,Pay Utility,0746934144 - Rosemary Wangui Muiruri,,ICD
QL122V2XL8,01/12/2022 16:40,01/12/2022 16:40,Pay Bill from 254717063324 - Christine Murugi Nyaga Acc. KDF,Completed,10000,,76000,TRUE,Pay Utility,254717063324 - Christine Murugi Nyaga,,KDF
QL182U3GOS,01/12/2022 16:30,01/12/2022 16:30,Pay Bill from 254717726012 - WINFRED MUENI PETER Acc. IDA,Completed,16000,,66000,TRUE,Pay Utility,254717726012 - WINFRED MUENI PETER,,IDA
QL192RYQ23,01/12/2022 16:11,01/12/2022 16:11,Pay Bill from 254708570729 - MARY OGOLLA Acc. HOUSE NO.KAD,Completed,12000,,50000,TRUE,Pay Utility,254708570729 - MARY OGOLLA,,HOUSE
QL192RMPGH,01/12/2022 16:07,01/12/2022 16:07,Pay Bill from 254703528196 - ERIC GITONGA MUGO Acc. KGJ,Completed,30000,,38000,TRUE,Pay Utility,254703528196 - ERIC GITONGA MUGO,,KGJ
QL182E45QW,01/12/2022 13:54,01/12/2022 13:54,Pay Bill Online from 254742911013 - HANEST AMIMO Acc. IEG,Completed,8000,,8000,TRUE,Pay Utility with OD Online,254742911013 - HANEST AMIMO,,IEG
QL1728YPB7,01/12/2022 13:05,01/12/2022 13:05,Utility Account to Organization Settlement Account,Completed,,-88500,0,TRUE,Utility Account to Organization Settlement Account,979524 - ANCIENT WELLS PROPERTY MANAGERS 2,,
QL1928CMWD,01/12/2022 12:59,01/12/2022 12:59,Pay Bill from 254702152790 - Michelle Ndunge Kyalo Acc. IDE,Completed,8000,,88500,TRUE,Pay Utility,254702152790 - Michelle Ndunge Kyalo,,IDE
QL1523EKIX,01/12/2022 12:10,01/12/2022 12:10,Pay Bill from 254715591919 - JOHN O OCHIENG Acc. JFA,Completed,4500,,80500,TRUE,Pay Utility,254715591919 - JOHN O OCHIENG,,JFA
QL1821YOM0,01/12/2022 11:55,01/12/2022 11:55,Pay Bill Online from 254703180395 - JANE NYAGUTHII MWAGO Acc. IBE,Completed,8000,,76000,TRUE,Pay Bill Online,254703180395 - JANE NYAGUTHII MWAGO,,IBE
QL1620SYAW,01/12/2022 11:43,01/12/2022 11:43,Pay Bill Online from 254723394064 - ANDREW LAGAT Acc. HBG,Completed,16000,,68000,TRUE,Pay Bill Online,254723394064 - ANDREW LAGAT,,HBG
QL111SLS9J,01/12/2022 10:16,01/12/2022 10:16,Pay Bill Online from 254724005780 - IVY MARGARET OGOLA Acc. FFB,Completed,27000,,52000,TRUE,Pay Bill Online,254724005780 - IVY MARGARET OGOLA,,FFB
QL141OSKU6,01/12/2022 09:35,01/12/2022 09:35,Pay Bill from 254720407659 - FRANCIS CHUMO Acc. KDG,Completed,10000,,25000,TRUE,Pay Utility,254720407659 - FRANCIS CHUMO,,KDG
QL161LVLSE,01/12/2022 09:03,01/12/2022 09:03,Pay Bill Online from 254799696271 - CALVIN OCHIDO Acc. FEB,Completed,15000,,15000,TRUE,Pay Utility with OD Online,254799696271 - CALVIN OCHIDO,,FEB
QL191KTHS9,01/12/2022 08:51,01/12/2022 08:51,Utility Account to Organization Settlement Account,Completed,,-100500,0,TRUE,Utility Account to Organization Settlement Account,979524 - ANCIENT WELLS PROPERTY MANAGERS 2,,
QL151G6FFH,01/12/2022 07:57,01/12/2022 07:57,Pay Bill from 254713281251 - ERIC KIAMA Acc. JDI,Completed,20000,,100500,TRUE,Pay Utility,254713281251 - ERIC KIAMA,,JDI
QL161E97KA,01/12/2022 07:31,01/12/2022 07:31,Pay Bill Online from 254716011092 - BRIAN OPIYO OMONDI Acc. icb,Completed,16000,,80500,TRUE,Pay Bill Online,254716011092 - BRIAN OPIYO OMONDI,,icb
QKU3136ZX5,30/11/2022 23:41,30/11/2022 23:41,Pay Bill from 254723954911 - JAMES KILAVI Acc. ICG,Completed,9500,,64500,TRUE,Pay Utility,254723954911 - JAMES KILAVI,,ICG
QKU3112YK5,30/11/2022 22:37,30/11/2022 22:37,Pay Bill Online from 254706784429 - ROSE JEPKOECH RUTTO Acc. IFI,Completed,15000,,55000,TRUE,Pay Bill Online,254706784429 - ROSE JEPKOECH RUTTO,,IFI
QKU9ZRGNKX,30/11/2022 20:38,30/11/2022 20:38,Business Pay Bill by 488519 - NCBA  Bank M-pesa Acc. ICC via API,Completed,9000,,40000,TRUE,Business Pay Bill via API,488519 - NCBA  Bank M-pesa,,ICC
QKU3Z5WO6B,30/11/2022 18:00,30/11/2022 18:00,Pay Bill from 254728888511 - HAMISI MIRITI Acc. KAK,Completed,16000,,31000,TRUE,Pay Utility,254728888511 - HAMISI MIRITI,,KAK
QKU1YV9O9T,30/11/2022 16:24,30/11/2022 16:24,Pay Bill Online from 0791158325 - WHELDON MARK MASONGO GORI Acc. JAD,Completed,15000,,15000,TRUE,Pay Bill Online,0791158325 - WHELDON MARK MASONGO GORI,,JAD
QKU2YUXY0G,30/11/2022 16:20,30/11/2022 16:20,Utility Account to Organization Settlement Account,Completed,,-27000,0,TRUE,Utility Account to Organization Settlement Account,979524 - ANCIENT WELLS PROPERTY MANAGERS 2,,
QKU7YT25OX,30/11/2022 16:00,30/11/2022 16:00,Pay Bill from 254728681775 - Faith Abigael Acc. JAC,Completed,11000,,27000,TRUE,Pay Utility,254728681775 - Faith Abigael,,JAC
QKU3YLEA4F,30/11/2022 14:35,30/11/2022 14:35,Pay Bill from 254720814822 - JAMES OTIENO OPAR Acc. jgj,Completed,1000,,16000,TRUE,Pay Utility,254720814822 - JAMES OTIENO OPAR,,jgj
QKU1YJHY6V,30/11/2022 14:13,30/11/2022 14:13,Pay Bill from 254715591919 - JOHN O OCHIENG Acc. JFA,Completed,10000,,15000,TRUE,Pay Utility,254715591919 - JOHN O OCHIENG,,JFA
QKU1YHRLPH,30/11/2022 13:54,30/11/2022 13:54,Pay Bill from 254722572104 - ERICK MURABULA Acc. HAE,Completed,5000,,5000,TRUE,Pay Utility,254722572104 - ERICK MURABULA,,HAE
QKU8YA5NU6,30/11/2022 12:27,30/11/2022 12:27,Utility Account to Organization Settlement Account,Completed,,-148000,0,TRUE,Utility Account to Organization Settlement Account,979524 - ANCIENT WELLS PROPERTY MANAGERS 2,,
QKU5Y1FJ5V,30/11/2022 10:37,30/11/2022 10:37,Pay Bill Online from 254725452946 - GODFREY THIANE KIBAYA Acc. HEE,Completed,37000,,148000,TRUE,Pay Bill Online,254725452946 - GODFREY THIANE KIBAYA,,HEE
QKU5XWRRAV,30/11/2022 09:37,30/11/2022 09:37,Pay Bill from 254725348334 - JANE NGERO Acc. DFD,Completed,41000,,111000,TRUE,Pay Utility,254725348334 - JANE NGERO,,DFD
QKU7XUNXHB,30/11/2022 09:08,30/11/2022 09:08,Pay Bill from 254725754547 - MWACHIRO GEORGE DECHE Acc. DFC,Completed,20000,,70000,TRUE,Pay Utility,254725754547 - MWACHIRO GEORGE DECHE,,DFC
QKU0XNLHS8,30/11/2022 07:15,30/11/2022 07:15,Business Pay Bill by 488519 - NCBA  Bank M-pesa Acc. DCC via API,Completed,20000,,50000,TRUE,Business Pay Bill via API,488519 - NCBA  Bank M-pesa,,DCC
QKU5XNHCMX,30/11/2022 07:12,30/11/2022 07:12,Pay Bill Online from 254725381062 - VICTOR MAITHYA Acc. DEC,Completed,5000,,30000,TRUE,Pay Bill Online,254725381062 - VICTOR MAITHYA,,DEC
QKU1XMSBUH,30/11/2022 06:56,30/11/2022 06:56,Pay Bill Online from 254724587401 - RAPHAEL IRUNGU WAIHURA Acc. KGG,Completed,10000,,25000,TRUE,Pay Bill Online,254724587401 - RAPHAEL IRUNGU WAIHURA,,KGG
QKT5WWOUJD,29/11/2022 18:58,29/11/2022 18:58,Pay Bill from 254723929380 - RHODAH K WAMBUA Acc. HEG,Completed,15000,,15000,TRUE,Pay Utility,254723929380 - RHODAH K WAMBUA,,HEG
QKT2WM49XW,29/11/2022 17:30,29/11/2022 17:30,Utility Account to Organization Settlement Account,Completed,,-157500,0,TRUE,Utility Account to Organization Settlement Account,979524 - ANCIENT WELLS PROPERTY MANAGERS 2,,
QKT4WAK44Y,29/11/2022 15:24,29/11/2022 15:24,Pay Bill Online from 254717985596 - NICHOLAS KIPKOECH BUTIA Acc. hcf,Completed,9000,,157500,TRUE,Pay Bill Online,254717985596 - NICHOLAS KIPKOECH BUTIA,,hcf
QKT9VTEXMF,29/11/2022 11:56,29/11/2022 11:56,Pay Bill Online from 254720451253 - JIMMY KIOGORA NKIROTE Acc. KBD,Completed,1000,,148500,TRUE,Pay Utility with OD Online,254720451253 - JIMMY KIOGORA NKIROTE,,KBD
QKT1VO8DTB,29/11/2022 10:49,29/11/2022 10:49,Pay Bill from 254720375006 - JACOB KANGOGO Acc. IBA,Completed,25000,,147500,TRUE,Pay Utility,254720375006 - JACOB KANGOGO,,IBA
QKT1VJRSY7,29/11/2022 09:50,29/11/2022 09:50,Pay Bill Online from 254716315144 - PETER MUNYIRI WAROTERE Acc. FBB,Completed,16000,,122500,TRUE,Pay Bill Online,254716315144 - PETER MUNYIRI WAROTERE,,FBB
QKS8V12YTQ,28/11/2022 21:35,28/11/2022 21:35,Pay Bill from 0746934144 - Rosemary Wangui Muiruri Acc. ICD,Completed,2500,,106500,TRUE,Pay Utility with OD via STK,0746934144 - Rosemary Wangui Muiruri,,ICD
QKS3V0Z5JD,28/11/2022 21:34,28/11/2022 21:34,Pay Bill from 254703935626 - DAVID NGARI ITA Acc. FCD,Completed,1000,,104000,TRUE,Pay Utility,254703935626 - DAVID NGARI ITA,,FCD
QKS6UQHI00,28/11/2022 19:45,28/11/2022 19:45,Pay Bill Online from 254729097858 - AMBROSE ADEYA AHAWO Acc. KCF,Completed,10000,,103000,TRUE,Pay Bill Online,254729097858 - AMBROSE ADEYA AHAWO,,KCF
QKS4UPE3U2,28/11/2022 19:36,28/11/2022 19:36,Pay Bill Online from 254703550369 - ANASTASIA jepkoech Acc. DAC,Completed,10000,,93000,TRUE,Pay Utility with OD Online,254703550369 - ANASTASIA jepkoech,,DAC
QKS2UITIQQ,28/11/2022 18:48,28/11/2022 18:48,Pay Bill from 254711650034 - Lucky Ngoya Acc. JAA,Completed,60000,,83000,TRUE,Pay Utility,254711650034 - Lucky Ngoya,,JAA
QKS8TS7ICE,28/11/2022 14:08,28/11/2022 14:08,Pay Bill Online from 254722917617 - MOSES BARBOI Acc. KAI,Completed,12000,,23000,TRUE,Pay Bill Online,254722917617 - MOSES BARBOI,,KAI
QKS1TDXN4T,28/11/2022 11:13,28/11/2022 11:13,Pay Bill Online from 254710965167 - KUSA STEPHANIE HAZEL Acc. JDC,Completed,11000,,11000,TRUE,Pay Bill Online,254710965167 - KUSA STEPHANIE HAZEL,,JDC
QKS1T5M2GH,28/11/2022 09:22,28/11/2022 09:22,Utility Account to Organization Settlement Account,Completed,,-125400,0,TRUE,Utility Account to Organization Settlement Account,979524 - ANCIENT WELLS PROPERTY MANAGERS 2,,
QKR0SR65BS,27/11/2022 22:19,27/11/2022 22:19,Pay Bill from 254703935626 - DAVID NGARI ITA Acc. FCD,Completed,1000,,125400,TRUE,Pay Utility with OD via STK,254703935626 - DAVID NGARI ITA,,FCD
QKR4SHEEQU,27/11/2022 20:08,27/11/2022 20:08,Pay Bill from 0758591833 - DORCUS MBULA PETER Acc. HDD,Completed,9000,,124400,TRUE,Pay Utility,0758591833 - DORCUS MBULA PETER,,HDD
QKR6S2XHEM,27/11/2022 18:03,27/11/2022 18:03,Pay Bill from 0745472241 - Tonny Nyachieo Onsinyo Acc. I DC,Completed,9500,,115400,TRUE,Pay Utility,0745472241 - Tonny Nyachieo Onsinyo,,I
QKR6RYI3Y0,27/11/2022 17:15,27/11/2022 17:15,Pay Bill Online from 254728364280 - EMMANUEL THUMA OYIER Acc. IBI,Completed,16000,,105900,TRUE,Pay Bill Online,254728364280 - EMMANUEL THUMA OYIER,,IBI
QKR0RTETEM,27/11/2022 16:15,27/11/2022 16:15,Pay Bill from 0743789968 - Dallias Thanare Githara Acc. hbb,Completed,4000,,89900,TRUE,Pay Utility,0743789968 - Dallias Thanare Githara,,hbb
QKR9RHEMX1,27/11/2022 13:45,27/11/2022 13:45,Pay Bill from 254743487420 - Margaret Wacu Muia Acc. HGD,Completed,21000,,85900,TRUE,Pay Utility,254743487420 - Margaret Wacu Muia,,HGD
QKR5RC22J3,27/11/2022 12:30,27/11/2022 12:30,Pay Bill Online from 254726593769 - BONFACE BWINA Acc. DEB,Completed,16000,,64900,TRUE,Pay Bill Online,254726593769 - BONFACE BWINA,,DEB
QKR0R387AA,27/11/2022 10:16,27/11/2022 10:16,Pay Bill Online from 254705951407 - CAROLINE WAITHIRA KAMAU Acc. IDH,Completed,12000,,48900,TRUE,Pay Bill Online,254705951407 - CAROLINE WAITHIRA KAMAU,,IDH
QKQ6Q0IU20,26/11/2022 18:54,26/11/2022 18:54,Pay Bill Online from 254728897908 - Teddy Allan Onyango Acc. DDD,Completed,15900,,36900,TRUE,Pay Bill Online,254728897908 - Teddy Allan Onyango,,DDD
QKQ9PP2K89,26/11/2022 17:13,26/11/2022 17:13,Pay Bill Online from 254700379039 - MARTIN KIMANI Acc. KCI,Completed,12000,,21000,TRUE,Pay Bill Online,254700379039 - MARTIN KIMANI,,KCI
QKQ8P7GXDY,26/11/2022 13:52,26/11/2022 13:52,Pay Bill Online from 0758506934 - Edgar Maxwel Wanguba Acc. IFG,Completed,9000,,9000,TRUE,Pay Bill Online,0758506934 - Edgar Maxwel Wanguba,,IFG
QKQ1OJOTAP,26/11/2022 08:54,26/11/2022 08:54,Utility Account to Organization Settlement Account,Completed,,-192900,0,TRUE,Utility Account to Organization Settlement Account,979524 - ANCIENT WELLS PROPERTY MANAGERS 2,,
QKQ8O9YENE,26/11/2022 00:56,26/11/2022 00:56,Pay Bill from 0717216114 - Felix Njeru Mugambi Acc. kcj,Completed,16000,,192900,TRUE,Pay Utility,0717216114 - Felix Njeru Mugambi,,kcj
QKP2O7HOB4,25/11/2022 22:55,25/11/2022 22:55,Pay Bill Online from 254717463608 - DANIEL MUNIU MUGURE Acc. HGE,Completed,10000,,176900,TRUE,Pay Bill Online,254717463608 - DANIEL MUNIU MUGURE,,HGE
QKP7NCTHSN,25/11/2022 17:50,25/11/2022 17:50,Pay Bill from 0721130307 - HILLARY NGUNYI MUTINDA Acc. JCH,Completed,16000,,166900,TRUE,Pay Utility,0721130307 - HILLARY NGUNYI MUTINDA,,JCH
QKP6MVLOCG,25/11/2022 14:49,25/11/2022 14:49,Pay Bill from 254114394078 - pascaline iteriteka Acc. JEG,Completed,11000,,150900,TRUE,Pay Utility,254114394078 - pascaline iteriteka,,JEG
QKP1MH9V3T,25/11/2022 12:05,25/11/2022 12:05,Pay Bill from 254729557859 - AUDREY KASINDAHA KASINDAHA Acc. KFB,Completed,16000,,139900,TRUE,Pay Utility,254729557859 - AUDREY KASINDAHA KASINDAHA,,KFB
QKP1MCYFOT,25/11/2022 11:12,25/11/2022 11:12,Pay Bill Online from 254713497971 - GERISHON NDUNG'U KOMU Acc. HGH,Completed,22500,,123900,TRUE,Pay Bill Online,254713497971 - GERISHON NDUNG'U KOMU,,HGH
QKP2MAMJ2W,25/11/2022 10:43,25/11/2022 10:43,Pay Bill from 254710287053 - JOSEPH OBONGO Acc. DAC,Completed,2600,,101400,TRUE,Pay Utility with OD via STK,254710287053 - JOSEPH OBONGO,,DAC
QKP9M0UTDZ,25/11/2022 08:35,25/11/2022 08:35,Pay Bill from 254713662892 - DAVID JUMA KIPTOCH Acc. JBE,Completed,8500,,98800,TRUE,Pay Utility,254713662892 - DAVID JUMA KIPTOCH,,JBE
QKO4L0JG2G,24/11/2022 18:05,24/11/2022 18:05,Pay Bill Online from 254701683737 - MICHAEL NGUGI Acc. HDB,Completed,16000,,90300,TRUE,Pay Bill Online,254701683737 - MICHAEL NGUGI,,HDB
QKO2KUYR56,24/11/2022 17:10,24/11/2022 17:10,Pay Bill Online from 254716579300 - BRIAN KIPKOECH RONO Acc. HEH,Completed,16000,,74300,TRUE,Pay Bill Online,254716579300 - BRIAN KIPKOECH RONO,,HEH
QKO8KOX5L0,24/11/2022 16:02,24/11/2022 16:02,Pay Bill Online from 254790549449 - AHMED MOHAMED ABUKAR Acc. HBA,Completed,17000,,58300,TRUE,Pay Bill Online,254790549449 - AHMED MOHAMED ABUKAR,,HBA
QKO1KIVZUH,24/11/2022 14:51,24/11/2022 14:51,Pay Bill Online from 254720044312 - ELIUD KIPKURUI Acc. FCF,Completed,17000,,41300,TRUE,Pay Bill Online,254720044312 - ELIUD KIPKURUI,,FCF
QKO1KDYVMB,24/11/2022 13:50,24/11/2022 13:50,Pay Bill from 0722936882 - ALPHONCE WAMBUA KILONZO Acc. Salon,Completed,3000,,24300,TRUE,Pay Utility,0722936882 - ALPHONCE WAMBUA KILONZO,,Salon
QKO2KA1RZO,24/11/2022 13:03,24/11/2022 13:03,Pay Bill from 254722572104 - ERICK MURABULA Acc. HAE,Completed,4500,,21300,TRUE,Pay Utility,254722572104 - ERICK MURABULA,,HAE
QKO7K17VVH,24/11/2022 11:11,24/11/2022 11:11,Pay Bill from 0746934144 - Rosemary Wangui Muiruri Acc. ICD,Completed,10000,,16800,TRUE,Pay Utility with OD via STK,0746934144 - Rosemary Wangui Muiruri,,ICD
QKO8JR28RK,24/11/2022 08:54,24/11/2022 08:54,Pay Bill Online from 254707726441 - JOHN OLOO NYAULA Acc. IEH,Completed,6800,,6800,TRUE,Pay Bill Online,254707726441 - JOHN OLOO NYAULA,,IEH
QKO1JR17GL,24/11/2022 08:54,24/11/2022 08:54,Utility Account to Organization Settlement Account,Completed,,-19000,0,TRUE,Utility Account to Organization Settlement Account,979524 - ANCIENT WELLS PROPERTY MANAGERS 2,,
QKN6JCG99G,23/11/2022 21:38,23/11/2022 21:38,Pay Bill Online from 254724211857 - OCHUODHO OUMA Acc. KBK,Completed,17000,,19000,TRUE,Pay Bill Online,254724211857 - OCHUODHO OUMA,,KBK
QKN7ITZC6R,23/11/2022 18:48,23/11/2022 18:48,Pay Bill from 0743789968 - Dallias Thanare Githara Acc. hbb,Completed,2000,,2000,TRUE,Pay Utility,0743789968 - Dallias Thanare Githara,,hbb
QKN4IMGZSA,23/11/2022 17:47,23/11/2022 17:47,Utility Account to Organization Settlement Account,Completed,,-39100,0,TRUE,Utility Account to Organization Settlement Account,979524 - ANCIENT WELLS PROPERTY MANAGERS 2,,
QKN5I8XYHF,23/11/2022 15:22,23/11/2022 15:22,Pay Bill from 0748059595 - Rashid NASSIR Khamis Acc. DDA,Completed,3000,,39100,TRUE,Pay Utility with OD via STK,0748059595 - Rashid NASSIR Khamis,,DDA
QKN0HRX4SQ,23/11/2022 11:55,23/11/2022 11:55,Pay Bill Online from 254725381062 - VICTOR MAITHYA Acc. HEG,Completed,6000,,36100,TRUE,Pay Bill Online,254725381062 - VICTOR MAITHYA,,HEG
QKM8GRMSNC,22/11/2022 20:08,22/11/2022 20:08,Pay Bill from 254722826454 - CHARLES KARIMI MAITAI Acc. KDC  KEILA,Completed,600,,30100,TRUE,Pay Utility,254722826454 - CHARLES KARIMI MAITAI,,KDC
QKM1GNM389,22/11/2022 19:34,22/11/2022 19:34,Pay Bill from 0705351634 - LYDIAH KERUBO ONDARI Acc. JAJ,Completed,5000,,29500,TRUE,Pay Utility,0705351634 - LYDIAH KERUBO ONDARI,,JAJ
QKM8G0Z476,22/11/2022 16:09,22/11/2022 16:09,Pay Bill from 0705687898 - JORDAN KIPNGETICH THOMAS KIKWAI Acc. kff,Completed,4500,,24500,TRUE,Pay Utility,0705687898 - JORDAN KIPNGETICH THOMAS KIKWAI,,kff
QKM9G0YUS1,22/11/2022 16:09,22/11/2022 16:09,Pay Bill from 254796848496 - IVY WITABA Acc. JBA,Completed,5000,,20000,TRUE,Pay Utility,254796848496 - IVY WITABA,,JBA
QKM2G00AE2,22/11/2022 15:58,22/11/2022 15:58,Pay Bill from 254725111246 - FRANCIS MUUTU MWANGANGI Acc. IGI,Completed,15000,,15000,TRUE,Pay Utility,254725111246 - FRANCIS MUUTU MWANGANGI,,IGI
QKM9FABLMP,22/11/2022 10:35,22/11/2022 10:35,Utility Account to Organization Settlement Account,Completed,,-92000,0,TRUE,Utility Account to Organization Settlement Account,979524 - ANCIENT WELLS PROPERTY MANAGERS 2,,
QKL1EKBWHH,21/11/2022 20:57,21/11/2022 20:57,Pay Bill Online from 254711721087 - MUTHIANI KYULE Acc. IDB ,Completed,15000,,92000,TRUE,Pay Bill Online,254711721087 - MUTHIANI KYULE,,IDB
QKL4E1T3B6,21/11/2022 18:21,21/11/2022 18:21,Pay Bill Online from 254718253322 - DUNCAN MOCHOGE Acc. JFJ,Completed,15000,,77000,TRUE,Pay Utility with OD Online,254718253322 - DUNCAN MOCHOGE,,JFJ
QKL5DZ0T0X,21/11/2022 17:56,21/11/2022 17:56,Pay Bill from 0746934144 - Rosemary Wangui Muiruri Acc. ICD,Completed,5000,,62000,TRUE,Pay Utility with OD via STK,0746934144 - Rosemary Wangui Muiruri,,ICD
QKL5DQRYXH,21/11/2022 16:33,21/11/2022 16:33,Pay Bill from 254722801352 - NZAMBU NASSON MWATHE Acc. KBG,Completed,12000,,57000,TRUE,Pay Utility with OD via STK,254722801352 - NZAMBU NASSON MWATHE,,KBG
QKL7DFJ1NL,21/11/2022 14:19,21/11/2022 14:19,Pay Bill Online from 254728886864 - MOULINE ONYANGO Acc. IAA,Completed,40000,,45000,TRUE,Pay Utility with OD Online,254728886864 - MOULINE ONYANGO,,IAA
QKL6D83KM0,21/11/2022 12:48,21/11/2022 12:48,Pay Bill from 0743789968 - Dallias Thanare Githara Acc. hbb,Completed,5000,,5000,TRUE,Pay Utility,0743789968 - Dallias Thanare Githara,,hbb
QKL2D49RMC,21/11/2022 11:59,21/11/2022 11:59,Utility Account to Organization Settlement Account,Completed,,-99000,0,TRUE,Utility Account to Organization Settlement Account,979524 - ANCIENT WELLS PROPERTY MANAGERS 2,,
QKL8CY1RTA,21/11/2022 10:37,21/11/2022 10:37,Pay Bill from 0746934144 - Rosemary Wangui Muiruri Acc. ICD ,Completed,10000,,99000,TRUE,Pay Utility with OD via STK,0746934144 - Rosemary Wangui Muiruri,,ICD
QKK0CDUZ14,20/11/2022 22:14,20/11/2022 22:14,Pay Bill Online from 254719317219 - PHILIP MBOYA Acc. JDH,Completed,16000,,89000,TRUE,Pay Utility with OD Online,254719317219 - PHILIP MBOYA,,JDH
QKK1BTY13X,20/11/2022 18:33,20/11/2022 18:33,Pay Bill from 254720814822 - JAMES OTIENO OPAR Acc. Jgj,Completed,1000,,73000,TRUE,Pay Utility,254720814822 - JAMES OTIENO OPAR,,Jgj
QKK6BB4IY8,20/11/2022 14:59,20/11/2022 14:59,Pay Bill from 254704111133 - ELVIS OTIENO Acc. HFD,Completed,1500,,72000,TRUE,Pay Utility,254704111133 - ELVIS OTIENO,,HFD
QKK6AL9TLG,20/11/2022 08:29,20/11/2022 08:29,Pay Bill from 0718838251 - MARK KINYUA MAINA Acc. kfg,Completed,10000,,70500,TRUE,Pay Utility,0718838251 - MARK KINYUA MAINA,,kfg
QKJ39LGN1X,19/11/2022 18:05,19/11/2022 18:05,Pay Bill Online from 254725381062 - VICTOR MAITHYA Acc. DEC,Completed,9500,,60500,TRUE,Pay Bill Online,254725381062 - VICTOR MAITHYA,,DEC
QKJ88XVG5A,19/11/2022 13:41,19/11/2022 13:41,Pay Bill from 0722531422 - ANTHONY ITIMU MAINA Acc. JBD,Completed,4000,,51000,TRUE,Pay Utility,0722531422 - ANTHONY ITIMU MAINA,,JBD
QKJ788SOXV,19/11/2022 07:56,19/11/2022 07:56,Pay Bill from 254722910078 - MAUREEN MUNYIVA MUTUKU Acc. DCD,Completed,4500,,47000,TRUE,Pay Utility,254722910078 - MAUREEN MUNYIVA MUTUKU,,DCD
QKI67LAUUS,18/11/2022 19:40,18/11/2022 19:40,Pay Bill from 0743789968 - Dallias Thanare Githara Acc. hbb,Completed,2000,,42500,TRUE,Pay Utility,0743789968 - Dallias Thanare Githara,,hbb
QKI67HDZAO,18/11/2022 19:11,18/11/2022 19:11,Pay Bill from 0743248310 - PATRICK STURRIDGE NYONGESA Acc. daa,Completed,2000,,40500,TRUE,Pay Utility,0743248310 - PATRICK STURRIDGE NYONGESA,,daa
QKI878S4WE,18/11/2022 18:03,18/11/2022 18:03,Pay Bill from 0748059595 - Rashid NASSIR Khamis Acc. DDA,Completed,7000,,38500,TRUE,Pay Utility,0748059595 - Rashid NASSIR Khamis,,DDA
QKI86UEBKW,18/11/2022 15:31,18/11/2022 15:31,Pay Bill from 254723389177 - NELSON MOI Acc. ibf,Completed,14000,,31500,TRUE,Pay Utility,254723389177 - NELSON MOI,,ibf
QKI26S2COA,18/11/2022 15:02,18/11/2022 15:02,Pay Bill from 254720362703 - SULEKA ISSACK MOHAMED Acc. V52,Completed,12500,,17500,TRUE,Pay Utility,254720362703 - SULEKA ISSACK MOHAMED,,V52
QKI06RN892,18/11/2022 14:57,18/11/2022 14:57,Pay Bill from 254729258441 - ROBERT RONO KULEI Acc. JAB,Completed,5000,,5000,TRUE,Pay Utility,254729258441 - ROBERT RONO KULEI,,JAB
QKI26NIZRI,18/11/2022 14:06,18/11/2022 14:06,Utility Account to Organization Settlement Account,Completed,,-52000,0,TRUE,Utility Account to Organization Settlement Account,979524 - ANCIENT WELLS PROPERTY MANAGERS 2,,
QKI9690GPX,18/11/2022 11:00,18/11/2022 11:00,Pay Bill from 254722458136 - NADI GOLICHA Acc. JEA,Completed,15000,,52000,TRUE,Pay Utility,254722458136 - NADI GOLICHA,,JEA
QKI15TA467,18/11/2022 06:50,18/11/2022 06:50,Pay Bill from 0746934144 - Rosemary Wangui Muiruri Acc. ICD,Completed,10000,,37000,TRUE,Pay Utility with OD via STK,0746934144 - Rosemary Wangui Muiruri,,ICD
QKH65FG50U,17/11/2022 20:26,17/11/2022 20:26,Pay Bill from 0715688238 - JOANNAH ATUHAIRE BANTU Acc. jae,Completed,9000,,27000,TRUE,Pay Utility,0715688238 - JOANNAH ATUHAIRE BANTU,,jae
QKH6531USO,17/11/2022 18:46,17/11/2022 18:46,Pay Bill from 0743248310 - PATRICK STURRIDGE NYONGESA Acc. daa,Completed,3000,,18000,TRUE,Pay Utility,0743248310 - PATRICK STURRIDGE NYONGESA,,daa
QKH350YQ4J,17/11/2022 18:29,17/11/2022 18:29,Pay Bill from 0757758972 - BETH MUTHONI KASYOKA Acc. DEA,Completed,10000,,15000,TRUE,Pay Utility,0757758972 - BETH MUTHONI KASYOKA,,DEA
QKH54XTZ3B,17/11/2022 18:02,17/11/2022 18:02,Pay Bill from 254726928933 - JOSHUA NDUNDA NZIOKA Acc. KAJ,Completed,5000,,5000,TRUE,Pay Utility,254726928933 - JOSHUA NDUNDA NZIOKA,,KAJ
QKH54EC2D5,17/11/2022 14:19,17/11/2022 14:19,Utility Account to Organization Settlement Account,Completed,,-433100,0,TRUE,Utility Account to Organization Settlement Account,979524 - ANCIENT WELLS PROPERTY MANAGERS 2,,
QKH23YBTGO,17/11/2022 10:49,17/11/2022 10:49,Pay Bill from 254719779657 - SAMUEL NJOROGE Acc. JGA,Completed,15000,,433100,TRUE,Pay Utility,254719779657 - SAMUEL NJOROGE,,JGA
QKH23MM5LO,17/11/2022 07:51,17/11/2022 07:51,Pay Bill Online from 254725381062 - VICTOR MAITHYA Acc. HEG,Completed,4000,,418100,TRUE,Pay Bill Online,254725381062 - VICTOR MAITHYA,,HEG
QKH83HRGC8,17/11/2022 02:12,17/11/2022 02:12,Pay Bill Online from 254720451253 - JIMMY KIOGORA NKIROTE Acc. KBD,Completed,1000,,414100,TRUE,Pay Utility with OD Online,254720451253 - JIMMY KIOGORA NKIROTE,,KBD
QKG62JYV7I,16/11/2022 17:13,16/11/2022 17:13,Pay Bill from 254717063324 - Christine Murugi Nyaga Acc. KDF,Completed,6000,,413100,TRUE,Pay Utility,254717063324 - Christine Murugi Nyaga,,KDF
QKG72JUBMN,16/11/2022 17:12,16/11/2022 17:12,Pay Bill from 254717063324 - Christine Murugi Nyaga Acc. KDF,Completed,10000,,407100,TRUE,Pay Utility,254717063324 - Christine Murugi Nyaga,,KDF
QKG02F0ZH6,16/11/2022 16:18,16/11/2022 16:18,Pay Bill from 254717747775 - QADRA SHEIKH ABDULLAHI Acc. Jci,Completed,20000,,397100,TRUE,Pay Utility,254717747775 - QADRA SHEIKH ABDULLAHI,,Jci
QKG3265ESN,16/11/2022 14:25,16/11/2022 14:25,Pay Bill from 0722950695 - Joshua Mbithi Kivondo Acc.  ,Completed,15000,,377100,TRUE,Pay Utility,0722950695 - Joshua Mbithi Kivondo,,
QKG01YAJCY,16/11/2022 12:46,16/11/2022 12:46,Pay Bill from 0790631952 - Guyo Boru Guyo Acc. Dbc,Completed,20000,,362100,TRUE,Pay Utility,0790631952 - Guyo Boru Guyo,,Dbc
QKG21RHEIA,16/11/2022 11:14,16/11/2022 11:14,Pay Bill from 254720868281 - KENNEDY MWELU Acc. KBI,Completed,12500,,342100,TRUE,Pay Utility,254720868281 - KENNEDY MWELU,,KBI
QKG01QXMJ4,16/11/2022 11:07,16/11/2022 11:07,Pay Bill Online from 254798639242 - Christian Kiragu Acc. FGE,Completed,4000,,329600,TRUE,Pay Bill Online,254798639242 - Christian Kiragu,,FGE
QKG91GP3OF,16/11/2022 08:39,16/11/2022 08:39,Pay Bill from 0722531422 - ANTHONY ITIMU MAINA Acc. JBD,Completed,9000,,325600,TRUE,Pay Utility,0722531422 - ANTHONY ITIMU MAINA,,JBD
QKG3189ZFZ,16/11/2022 02:00,16/11/2022 02:00,Pay Bill from 0743789968 - Dallias Thanare Githara Acc. hbb,Completed,2000,,316600,TRUE,Pay Utility,0743789968 - Dallias Thanare Githara,,hbb
QKF614I0AI,15/11/2022 22:05,15/11/2022 22:05,Pay Bill from 254724103759 - RICHARD NKAABO Acc. jej ,Completed,16000,,314600,TRUE,Pay Utility,254724103759 - RICHARD NKAABO,,jej
QKF4ZN94G2,15/11/2022 19:02,15/11/2022 19:02,Pay Bill Online from 254726116777 - MARY NDUTA GOSHO Acc. JDB,Completed,15000,,298600,TRUE,Pay Bill Online,254726116777 - MARY NDUTA GOSHO,,JDB
QKF0ZLK60S,15/11/2022 18:50,15/11/2022 18:50,Pay Bill from 254715865256 - RABECCA NABEA Acc. JDG,Completed,10000,,283600,TRUE,Pay Utility,254715865256 - RABECCA NABEA,,JDG
QKF7Z9T829,15/11/2022 17:07,15/11/2022 17:07,Pay Bill from 254722746480 - PATRICK OPEYWA AURA Acc. KGH,Completed,9500,,273600,TRUE,Pay Utility,254722746480 - PATRICK OPEYWA AURA,,KGH
QKF4Z5FFFE,15/11/2022 16:18,15/11/2022 16:18,Pay Bill from 254720802644 - MESHACK MAXWELL GANDA Acc. HAB,Completed,15000,,264100,TRUE,Pay Utility,254720802644 - MESHACK MAXWELL GANDA,,HAB
QKF8YQH614,15/11/2022 13:11,15/11/2022 13:11,Pay Bill from 254725539787 - EVERLYNE MOGAKA Acc. KEF ,Completed,10000,,249100,TRUE,Pay Utility,254725539787 - EVERLYNE MOGAKA,,KEF
QKF8YISLL6,15/11/2022 11:30,15/11/2022 11:30,Pay Bill from 254728654250 - FRANCIS OTIENO OGUTU Acc. ICF,Completed,11000,,239100,TRUE,Pay Utility with OD via STK,254728654250 - FRANCIS OTIENO OGUTU,,ICF
QKF9YI2J3N,15/11/2022 11:20,15/11/2022 11:20,Pay Bill from 0740488793 - Twince   Korir Acc. DGC,Completed,19000,,228100,TRUE,Pay Utility,0740488793 - Twince   Korir,,DGC
QKF8YDLUFU,15/11/2022 10:20,15/11/2022 10:20,Pay Bill from 0705351634 - LYDIAH KERUBO ONDARI Acc. JAJ,Completed,10000,,209100,TRUE,Pay Utility with OD via STK,0705351634 - LYDIAH KERUBO ONDARI,,JAJ
QKF4YAA69K,15/11/2022 09:34,15/11/2022 09:34,Pay Bill from 254722514052 - JOSEPH NDIRANGU Acc. JCF,Completed,5000,,199100,TRUE,Pay Utility,254722514052 - JOSEPH NDIRANGU,,JCF
QKF6Y8HLYM,15/11/2022 09:08,15/11/2022 09:08,Pay Bill Online from 254799214498 - EMMILY LWAMBA Acc. DDD ,Completed,4100,,194100,TRUE,Pay Bill Online,254799214498 - EMMILY LWAMBA,,DDD
QKE2XVXG86,14/11/2022 22:48,14/11/2022 22:48,Pay Bill from 254740579741 - MUHINDI MULINYA Acc. HGG,Completed,15000,,190000,TRUE,Pay Utility,254740579741 - MUHINDI MULINYA,,HGG
QKE7XSMHO3,14/11/2022 21:31,14/11/2022 21:31,Pay Bill from 254710381003 - ALFRED KISHOIN Acc. DAB,Completed,16000,,175000,TRUE,Pay Utility,254710381003 - ALFRED KISHOIN,,DAB
QKE9XRQCU1,14/11/2022 21:18,14/11/2022 21:18,Pay Bill Online from 254721884037 - ERIC MISIANI Acc. HCG,Completed,15000,,159000,TRUE,Pay Utility with OD Online,254721884037 - ERIC MISIANI,,HCG
QKE9XQPQK9,14/11/2022 21:04,14/11/2022 21:04,Pay Bill Online from 254720451253 - JIMMY KIOGORA NKIROTE Acc. KBD,Completed,1000,,144000,TRUE,Pay Utility with OD Online,254720451253 - JIMMY KIOGORA NKIROTE,,KBD
QKE8XGUANQ,14/11/2022 19:28,14/11/2022 19:28,Pay Bill from 0720599684 - CHEMUTAI   JACKLINE Acc. KGD,Completed,6000,,143000,TRUE,Pay Utility,0720599684 - CHEMUTAI   JACKLINE,,KGD
QKE5XBY4IF,14/11/2022 18:51,14/11/2022 18:51,Pay Bill from 254711515672 - ALLAN MUTEMBEI Acc. IEI,Completed,31000,,137000,TRUE,Pay Utility,254711515672 - ALLAN MUTEMBEI,,IEI
QKE4X4NMQQ,14/11/2022 17:48,14/11/2022 17:48,Pay Bill from 254717300111 - SAMUEL MUCHIRI MAINA Acc. JEE,Completed,15000,,106000,TRUE,Pay Utility,254717300111 - SAMUEL MUCHIRI MAINA,,JEE
QKE3X2CWDB,14/11/2022 17:25,14/11/2022 17:25,Pay Bill from 254703528196 - ERIC GITONGA MUGO Acc. KGJ,Completed,15000,,91000,TRUE,Pay Utility,254703528196 - ERIC GITONGA MUGO,,KGJ
QKE3WXPBK7,14/11/2022 16:36,14/11/2022 16:36,Pay Bill Online from 254714710698 - TABITHA MULEE KYALO Acc. IFD,Completed,11500,,76000,TRUE,Pay Bill Online,254714710698 - TABITHA MULEE KYALO,,IFD
QKE5WX93W1,14/11/2022 16:31,14/11/2022 16:31,Pay Bill from 254743916064 - KAI AIKENY IDOKO Acc. IBC,Completed,9500,,64500,TRUE,Pay Utility,254743916064 - KAI AIKENY IDOKO,,IBC
QKE3WS2DZD,14/11/2022 15:28,14/11/2022 15:28,Pay Bill Online from 254710814215 - JOAN NYAMBURA KAMAU Acc. ifb,Completed,15000,,55000,TRUE,Pay Bill Online,254710814215 - JOAN NYAMBURA KAMAU,,ifb
QKE6WRBU2O,14/11/2022 15:19,14/11/2022 15:19,Pay Bill from 254710357391 - CHEPKOECH VALENTINE Acc. KAH,Completed,2000,,40000,TRUE,Pay Utility,254710357391 - CHEPKOECH VALENTINE,,KAH
QKE5WORGHT,14/11/2022 14:46,14/11/2022 14:46,Pay Bill from 254717909848 - MARY MBULA KATHUKU Acc. FGD,Completed,9000,,38000,TRUE,Pay Utility with OD via STK,254717909848 - MARY MBULA KATHUKU,,FGD
QKE0WKM28G,14/11/2022 13:54,14/11/2022 13:54,Pay Bill from 254796848496 - IVY WITABA Acc. JBA,Completed,5000,,29000,TRUE,Pay Utility,254796848496 - IVY WITABA,,JBA
QKE3WJWPEV,14/11/2022 13:45,14/11/2022 13:45,Pay Bill from 254702190887 - Nax Ochieng Acc. FDE,Completed,15000,,24000,TRUE,Pay Utility,254702190887 - Nax Ochieng,,FDE
QKE2WEOE4O,14/11/2022 12:40,14/11/2022 12:40,Pay Bill from 254723930071 - AMOS KITAVI KIVITE Acc. JCE,Completed,9000,,9000,TRUE,Pay Utility,254723930071 - AMOS KITAVI KIVITE,,JCE
QKE1WD2NMJ,14/11/2022 12:20,14/11/2022 12:20,Utility Account to Organization Settlement Account,Completed,,-150700,0,TRUE,Utility Account to Organization Settlement Account,979524 - ANCIENT WELLS PROPERTY MANAGERS 2,,
QKE6W99C9A,14/11/2022 11:28,14/11/2022 11:28,Pay Bill from 254707715639 - Annastacia Kimeu Acc. JFC ,Completed,10000,,150700,TRUE,Pay Utility,254707715639 - Annastacia Kimeu,,JFC
QKE3VO86HR,14/11/2022 00:53,14/11/2022 00:53,Pay Bill from 254703935626 - DAVID NGARI ITA Acc. FCD,Completed,1000,,140700,TRUE,Pay Utility,254703935626 - DAVID NGARI ITA,,FCD
QKD8UQWKD2,13/11/2022 16:49,13/11/2022 16:49,Pay Bill Online from 254720787158 - AMOS CHELANG'A Acc. KCG,Completed,10000,,139700,TRUE,Pay Bill Online,254720787158 - AMOS CHELANG'A,,KCG
QKD1ULECG3,13/11/2022 15:44,13/11/2022 15:44,Pay Bill from 254710110273 - AGNES NTOITI Acc. JBB,Completed,5000,,129700,TRUE,Pay Utility with OD via STK,254710110273 - AGNES NTOITI,,JBB
QKD4UC2LD6,13/11/2022 13:55,13/11/2022 13:55,Pay Bill from 254725621394 - RACHAEL WACHIRA Acc. Jfb,Completed,31000,,124700,TRUE,Pay Utility,254725621394 - RACHAEL WACHIRA,,Jfb
QKD8UC0812,13/11/2022 13:54,13/11/2022 13:54,Pay Bill from 254721780448 - EVERLYNE MIDEVA CHOGO Acc. JCA,Completed,20000,,93700,TRUE,Pay Utility with OD via STK,254721780448 - EVERLYNE MIDEVA CHOGO,,JCA
QKD9TWW187,13/11/2022 10:15,13/11/2022 10:15,Pay Bill from 254799520265 - SYLVIA KIRINGA NJERI Acc. IGD,Completed,3700,,73700,TRUE,Pay Utility,254799520265 - SYLVIA KIRINGA NJERI,,IGD
QKD1TOITK1,13/11/2022 08:00,13/11/2022 08:00,Pay Bill from 254710357391 - CHEPKOECH VALENTINE Acc. KAH,Completed,8000,,70000,TRUE,Pay Utility,254710357391 - CHEPKOECH VALENTINE,,KAH
QKC0TFTPY8,12/11/2022 22:51,12/11/2022 22:51,Pay Bill from 254703935626 - DAVID NGARI ITA Acc. FCD,Completed,1000,,62000,TRUE,Pay Utility,254703935626 - DAVID NGARI ITA,,FCD
QKC5TB63RT,12/11/2022 21:25,12/11/2022 21:25,Merchant Pay Utility Received from 7245661 -  OCHIENG CHEMIST  Acc. HFD,Completed,1000,,61000,TRUE,Merchant Pay Utility via API,7245661 -  OCHIENG CHEMIST ,,HFD
QKC0TA4N4A,12/11/2022 21:11,12/11/2022 21:11,Pay Bill from 254701006375 - EZRA MAKORI SERETI Acc. HTA,Completed,10000,,60000,TRUE,Pay Utility,254701006375 - EZRA MAKORI SERETI,,HTA
QKC2SJSTU8,12/11/2022 17:22,12/11/2022 17:22,Pay Bill from 254711123196 - JUDITH MUTUA Acc. Fea,Completed,17000,,50000,TRUE,Pay Utility,254711123196 - JUDITH MUTUA,,Fea
QKC7SEZIVL,12/11/2022 16:33,12/11/2022 16:33,Pay Bill from 0745318652 - Hesbon Otieno Onyango Acc. JDF,Completed,8000,,33000,TRUE,Pay Utility,0745318652 - Hesbon Otieno Onyango,,JDF
QKC5S8WVIX,12/11/2022 15:24,12/11/2022 15:24,Pay Bill Online from 254716011092 - BRIAN OPIYO OMONDI Acc. icb,Completed,25000,,25000,TRUE,Pay Bill Online,254716011092 - BRIAN OPIYO OMONDI,,icb
QKC0RIS9JO,12/11/2022 10:07,12/11/2022 10:07,Utility Account to Organization Settlement Account,Completed,,-42000,0,TRUE,Utility Account to Organization Settlement Account,979524 - ANCIENT WELLS PROPERTY MANAGERS 2,,
QKC1RC6OJN,12/11/2022 08:33,12/11/2022 08:33,Pay Bill from 0792933158 - mary wamaitha maina Acc. kdh,Completed,10000,,42000,TRUE,Pay Utility,0792933158 - mary wamaitha maina,,kdh
QKC6RA57Z2,12/11/2022 08:00,12/11/2022 08:00,Pay Bill Online from 254714552193 - CHRISTOPHER OCHIENG Acc. JGI ,Completed,20000,,32000,TRUE,Pay Bill Online,254714552193 - CHRISTOPHER OCHIENG,,JGI
QKC0R4SSPS,12/11/2022 02:56,12/11/2022 02:56,Pay Bill from 0743789968 - Dallias Thanare Githara Acc. hbb,Completed,2000,,12000,TRUE,Pay Utility,0743789968 - Dallias Thanare Githara,,hbb
QKB6R1Q35O,11/11/2022 22:54,11/11/2022 22:54,Pay Bill from 254703935626 - DAVID NGARI ITA Acc. FCD,Completed,1000,,10000,TRUE,Pay Utility,254703935626 - DAVID NGARI ITA,,FCD
QKB8QYQGPQ,11/11/2022 21:49,11/11/2022 21:49,Pay Bill Online from 254724821898 - ALLAN GISONI NYANGARESI Acc. DBA,Completed,1000,,9000,TRUE,Pay Bill Online,254724821898 - ALLAN GISONI NYANGARESI,,DBA
QKB7QXJI5V,11/11/2022 21:31,11/11/2022 21:31,Pay Bill from 254726928933 - JOSHUA NDUNDA NZIOKA Acc. KAJ,Completed,8000,,8000,TRUE,Pay Utility,254726928933 - JOSHUA NDUNDA NZIOKA,,KAJ
QKB4QXI1OC,11/11/2022 21:30,11/11/2022 21:30,Utility Account to Organization Settlement Account,Completed,,-58000,0,TRUE,Utility Account to Organization Settlement Account,979524 - ANCIENT WELLS PROPERTY MANAGERS 2,,
QKB0QXD8GO,11/11/2022 21:28,11/11/2022 21:28,Pay Bill from 254718245568 - NADI GOLICHA Acc. JEA,Completed,5000,,58000,TRUE,Pay Utility,254718245568 - NADI GOLICHA,,JEA
QKB8QU064M,11/11/2022 20:48,11/11/2022 20:48,Pay Bill from 254724691303 - FREDRICK OTIENO ONEGE Acc. ICH,Completed,6000,,53000,TRUE,Pay Utility with OD via STK,254724691303 - FREDRICK OTIENO ONEGE,,ICH
QKB4QOY22G,11/11/2022 20:00,11/11/2022 20:00,Pay Bill Online from 254715892656 - DENNIS MUSYOKA MUOKI Acc. kfa,Completed,2000,,47000,TRUE,Pay Bill Online,254715892656 - DENNIS MUSYOKA MUOKI,,kfa
QKB5Q932PP,11/11/2022 17:57,11/11/2022 17:57,Pay Bill from 0743248310 - PATRICK STURRIDGE NYONGESA Acc. daa,Completed,4000,,45000,TRUE,Pay Utility,0743248310 - PATRICK STURRIDGE NYONGESA,,daa
QKB0PRR2YA,11/11/2022 14:50,11/11/2022 14:50,Pay Bill from 0705687898 - JORDAN KIPNGETICH THOMAS KIKWAI Acc. kff,Completed,5000,,41000,TRUE,Pay Utility,0705687898 - JORDAN KIPNGETICH THOMAS KIKWAI,,kff
QKB9PO7JS1,11/11/2022 14:07,11/11/2022 14:07,Pay Bill from 254719439717 - Cecilia Omondi Acc. HFC,Completed,18000,,36000,TRUE,Pay Utility,254719439717 - Cecilia Omondi,,HFC
QKB3PN6RMZ,11/11/2022 13:55,11/11/2022 13:55,Pay Bill from 254722910078 - MAUREEN MUNYIVA MUTUKU Acc. DCD,Completed,11000,,18000,TRUE,Pay Utility,254722910078 - MAUREEN MUNYIVA MUTUKU,,DCD
QKB0P8LWRM,11/11/2022 10:51,11/11/2022 10:51,Pay Bill from 0722531422 - ANTHONY ITIMU MAINA Acc. JBD,Completed,6000,,7000,TRUE,Pay Utility,0722531422 - ANTHONY ITIMU MAINA,,JBD
QKB1P67OJF,11/11/2022 10:20,11/11/2022 10:20,Pay Bill Online from 254720451253 - JIMMY KIOGORA NKIROTE Acc. KBD,Completed,1000,,1000,TRUE,Pay Utility with OD Online,254720451253 - JIMMY KIOGORA NKIROTE,,KBD
QKB3P5ZWFB,11/11/2022 10:17,11/11/2022 10:17,Utility Account to Organization Settlement Account,Completed,,-132500,0,TRUE,Utility Account to Organization Settlement Account,979524 - ANCIENT WELLS PROPERTY MANAGERS 2,,
QKB0P42ZQI,11/11/2022 09:52,11/11/2022 09:52,Pay Bill from 254728238249 - ESTHER WANGUI KIBUNYI Acc. ICA,Completed,17000,,132500,TRUE,Pay Utility,254728238249 - ESTHER WANGUI KIBUNYI,,ICA
QKB1P2HU3J,11/11/2022 09:30,11/11/2022 09:30,Pay Bill from 254729258441 - ROBERT RONO KULEI Acc. JAB,Completed,10000,,115500,TRUE,Pay Utility,254729258441 - ROBERT RONO KULEI,,JAB
QKB9OZSAKH,11/11/2022 08:52,11/11/2022 08:52,Pay Bill Online from 254720451253 - JIMMY KIOGORA NKIROTE Acc. KBD,Completed,1000,,105500,TRUE,Pay Utility with OD Online,254720451253 - JIMMY KIOGORA NKIROTE,,KBD
QKB1OZFMRX,11/11/2022 08:47,11/11/2022 08:47,Merchant Pay Utility Received from 7245661 -  OCHIENG CHEMIST  Acc. HFD,Completed,1000,,104500,TRUE,Merchant Pay Utility via API,7245661 -  OCHIENG CHEMIST ,,HFD
QKB2OZ764G,11/11/2022 08:44,11/11/2022 08:44,Pay Bill Online from 254705846408 - JAMES OUMA Acc. HBH,Completed,16000,,103500,TRUE,Pay Bill Online,254705846408 - JAMES OUMA,,HBH
QKA6OOJFAE,10/11/2022 23:35,10/11/2022 23:35,Pay Bill Online from 254725749776 - BEN KORIR Acc. IDF,Completed,11000,,87500,TRUE,Pay Bill Online,254725749776 - BEN KORIR,,IDF
QKA7OO5KP9,10/11/2022 23:16,10/11/2022 23:16,Pay Bill from 254728681775 - Faith Abigael Acc. JAC,Completed,11000,,76500,TRUE,Pay Utility,254728681775 - Faith Abigael,,JAC
QKA2OHM1CG,10/11/2022 21:07,10/11/2022 21:07,Pay Bill Online from 254722258107 - JOHN ODIMA ODIMA Acc. KGF,Completed,10000,,65500,TRUE,Pay Bill Online,254722258107 - JOHN ODIMA ODIMA,,KGF
QKA9OHFR29,10/11/2022 21:05,10/11/2022 21:05,Merchant Pay Utility Received from 7245661 -  OCHIENG CHEMIST  Acc. HFD,Completed,1000,,55500,TRUE,Merchant Pay Utility via API,7245661 -  OCHIENG CHEMIST ,,HFD
QKA5O9NHX9,10/11/2022 19:51,10/11/2022 19:51,Pay Bill Online from 0708931111 - NJENGA   KURIA Acc. kca,Completed,16000,,54500,TRUE,Pay Bill Online,0708931111 - NJENGA   KURIA,,kca
QKA0O8KKH6,10/11/2022 19:43,10/11/2022 19:43,Pay Bill from 254722801352 - NZAMBU NASSON MWATHE Acc. KBG,Completed,3000,,38500,TRUE,Pay Utility with OD via STK,254722801352 - NZAMBU NASSON MWATHE,,KBG
QKA6O5TJN6,10/11/2022 19:22,10/11/2022 19:22,Pay Bill from 0759888028 - ROBERT OKOTH OGALO Acc. KBH,Completed,10000,,35500,TRUE,Pay Utility,0759888028 - ROBERT OKOTH OGALO,,KBH
QKA0O5CR9I,10/11/2022 19:19,10/11/2022 19:19,Pay Bill Online from 0740422187 - KEVIN MAKATO KUNGA Acc. KEG,Completed,8500,,25500,TRUE,Pay Bill Online,0740422187 - KEVIN MAKATO KUNGA,,KEG
QKA8NY9AUM,10/11/2022 18:28,10/11/2022 18:28,Pay Bill from 254722928051 - GILBERT K NGETUNY Acc. JBH,Completed,1000,,17000,TRUE,Pay Utility,254722928051 - GILBERT K NGETUNY,,JBH
QKA7NPHDN1,10/11/2022 17:07,10/11/2022 17:07,Pay Bill Online from 254712990240 - GLORY KARIUKI Acc. KAA,Completed,16000,,16000,TRUE,Pay Bill Online,254712990240 - GLORY KARIUKI,,KAA
QKA3NO586H,10/11/2022 16:52,10/11/2022 16:52,Utility Account to Organization Settlement Account,Completed,,-1500,0,TRUE,Utility Account to Organization Settlement Account,979524 - ANCIENT WELLS PROPERTY MANAGERS 2,,
QKA8NE3FSK,10/11/2022 14:50,10/11/2022 14:50,Pay Bill from 254720814822 - JAMES OTIENO OPAR Acc. Jgj,Completed,1500,,1500,TRUE,Pay Utility with OD via STK,254720814822 - JAMES OTIENO OPAR,,Jgj
QKA1N7ELBF,10/11/2022 13:27,10/11/2022 13:27,Utility Account to Organization Settlement Account,Completed,,-248200,0,TRUE,Utility Account to Organization Settlement Account,979524 - ANCIENT WELLS PROPERTY MANAGERS 2,,
QKA2N5ZNTM,10/11/2022 13:10,10/11/2022 13:10,Pay Bill from 254715591919 - JOHN O OCHIENG Acc. HCC,Completed,10000,,248200,TRUE,Pay Utility,254715591919 - JOHN O OCHIENG,,HCC
QKA2N5W5L6,10/11/2022 13:09,10/11/2022 13:09,Pay Bill from 254716702294 - DANIEL MULATI Acc. KBB,Completed,6000,,238200,TRUE,Pay Utility,254716702294 - DANIEL MULATI,,KBB
QKA1N31IVF,10/11/2022 12:33,10/11/2022 12:33,Pay Bill Online from 254720451253 - JIMMY KIOGORA NKIROTE Acc. KBD,Completed,2000,,232200,TRUE,Pay Bill Online,254720451253 - JIMMY KIOGORA NKIROTE,,KBD
QKA5N1N9EF,10/11/2022 12:15,10/11/2022 12:15,Pay Bill from 254723370004 - LABAN MAINGI WAMBUA Acc. jef,Completed,16000,,230200,TRUE,Pay Utility,254723370004 - LABAN MAINGI WAMBUA,,jef
QKA4MZAT8U,10/11/2022 11:44,10/11/2022 11:44,Pay Bill Online from 254799371069 - ALPHONCE OCHIENG WAREGA Acc. IEE,Completed,8500,,214200,TRUE,Pay Bill Online,254799371069 - ALPHONCE OCHIENG WAREGA,,IEE
QKA0MUFEBS,10/11/2022 10:40,10/11/2022 10:40,Pay Bill Online from 254718911865 - KENNEDY KELI KATUNGII Acc. HDF,Completed,9000,,205700,TRUE,Pay Bill Online,254718911865 - KENNEDY KELI KATUNGII,,HDF
QKA5MP2YUR,10/11/2022 09:27,10/11/2022 09:27,Merchant Pay Utility Received from 7245661 -  OCHIENG CHEMIST  Acc. HFD,Completed,1500,,196700,TRUE,Merchant Pay Utility via API,7245661 -  OCHIENG CHEMIST ,,HFD
QKA6MON84A,10/11/2022 09:21,10/11/2022 09:21,Pay Bill Online from 254725381062 - VICTOR MAITHYA Acc. HEG,Completed,6000,,195200,TRUE,Pay Bill Online,254725381062 - VICTOR MAITHYA,,HEG
QKA9MN2HOL,10/11/2022 08:59,10/11/2022 08:59,Pay Bill Online from 254724423882 - JOEL GICHURI KARANJA Acc. fee,Completed,16000,,189200,TRUE,Pay Bill Online,254724423882 - JOEL GICHURI KARANJA,,fee
QKA4MFY78I,10/11/2022 06:52,10/11/2022 06:52,Pay Bill from 254716581384 - GREGORY KILUNGYA Acc. DAD,Completed,20000,,173200,TRUE,Pay Utility,254716581384 - GREGORY KILUNGYA,,DAD
QKA8MCSGM8,10/11/2022 00:43,10/11/2022 00:43,Pay Bill Online from 254723901777 - EVANS YEBEI Acc. KCH,Completed,10000,,153200,TRUE,Pay Utility with OD Online,254723901777 - EVANS YEBEI,,KCH
QK92MAFIX4,09/11/2022 22:40,09/11/2022 22:40,Pay Bill from 254720278119 - LINDAH OGAWO Acc. kfe,Completed,9500,,143200,TRUE,Pay Utility,254720278119 - LINDAH OGAWO,,kfe
QK94M74E34,09/11/2022 21:39,09/11/2022 21:39,Pay Bill from 254723747228 - MORARA ASANYO Acc. pool,Completed,25000,,133700,TRUE,Pay Utility,254723747228 - MORARA ASANYO,,pool
QK92LJQFYC,09/11/2022 18:19,09/11/2022 18:19,Pay Bill from 0724134105 - HILDA JEPKEMOI KIMELIEL Acc. JBH,Completed,2000,,108700,TRUE,Pay Utility,0724134105 - HILDA JEPKEMOI KIMELIEL,,JBH
QK90LJOO3Y,09/11/2022 18:19,09/11/2022 18:19,Pay Bill from 254795079977 - COLLINS BOB OMOLLO Acc. IGG,Completed,9200,,106700,TRUE,Pay Utility,254795079977 - COLLINS BOB OMOLLO,,IGG
QK94LJG82I,09/11/2022 18:17,09/11/2022 18:17,Pay Bill from 254796848496 - IVY WITABA Acc. JBA,Completed,4000,,97500,TRUE,Pay Utility,254796848496 - IVY WITABA,,JBA
QK95L6BWXR,09/11/2022 16:04,09/11/2022 16:04,Pay Bill Online from 254722854426 - OLIVE WANJIKU MACHAMBA Acc. JBG,Completed,10000,,93500,TRUE,Pay Bill Online,254722854426 - OLIVE WANJIKU MACHAMBA,,JBG
QK96L4QXCK,09/11/2022 15:45,09/11/2022 15:45,Pay Bill Online from 0700206427 - Clare Nabalisa Mukasa Acc. HFA,Completed,16000,,83500,TRUE,Pay Bill Online,0700206427 - Clare Nabalisa Mukasa,,HFA
QK93L3OJPV,09/11/2022 15:32,09/11/2022 15:32,Pay Bill Online from 254717985596 - NICHOLAS KIPKOECH BUTIA Acc. hcf,Completed,9000,,67500,TRUE,Pay Bill Online,254717985596 - NICHOLAS KIPKOECH BUTIA,,hcf
QK93L2034D,09/11/2022 15:11,09/11/2022 15:11,Pay Bill Online from 254715764212 - BANCE ISHEMINYE Acc. JFE ,Completed,1000,,58500,TRUE,Pay Bill Online,254715764212 - BANCE ISHEMINYE,,JFE
QK96KZSO40,09/11/2022 14:43,09/11/2022 14:43,Pay Bill Online from 254722769473 - SAMSON CHALO Acc. IAB,Completed,15000,,57500,TRUE,Pay Bill Online,254722769473 - SAMSON CHALO,,IAB
QK94KSMB4Y,09/11/2022 13:17,09/11/2022 13:17,Pay Bill Online from 254720451253 - JIMMY KIOGORA NKIROTE Acc. KBD,Completed,2000,,42500,TRUE,Pay Bill Online,254720451253 - JIMMY KIOGORA NKIROTE,,KBD
QK96KQ3ET4,09/11/2022 12:46,09/11/2022 12:46,Pay Bill Online from 254111303204 - JAMES MUEMA KIKUVI Acc. DFA,Completed,15000,,40500,TRUE,Pay Bill Online,254111303204 - JAMES MUEMA KIKUVI,,DFA
QK97KGYGRT,09/11/2022 10:50,09/11/2022 10:50,Pay Bill Online from 254712040302 - EMMANUEL MWARO BARASA Acc. KEA,Completed,16000,,25500,TRUE,Pay Bill Online,254712040302 - EMMANUEL MWARO BARASA,,KEA
QK96KFYSLS,09/11/2022 10:37,09/11/2022 10:37,Pay Bill from 0717441870 - Steven oduor ogutu Acc. KTA,Completed,9500,,9500,TRUE,Pay Utility,0717441870 - Steven oduor ogutu,,KTA
QK98KFA20G,09/11/2022 10:28,09/11/2022 10:28,Utility Account to Organization Settlement Account,Completed,,-85000,0,TRUE,Utility Account to Organization Settlement Account,979524 - ANCIENT WELLS PROPERTY MANAGERS 2,,
QK93KBUAU7,09/11/2022 09:43,09/11/2022 09:43,Pay Bill from 254722910078 - MAUREEN MUNYIVA MUTUKU Acc. DCD,Completed,3000,,85000,TRUE,Pay Utility,254722910078 - MAUREEN MUNYIVA MUTUKU,,DCD
QK91K4QIHL,09/11/2022 08:01,09/11/2022 08:01,Pay Bill from 254702346515 - ELIZABETH ACHIENG NGOME Acc. KDE,Completed,10000,,82000,TRUE,Pay Utility,254702346515 - ELIZABETH ACHIENG NGOME,,KDE
QK97K3U7JD,09/11/2022 07:46,09/11/2022 07:46,Pay Bill from 0769118645 - kennedy kipkurui korir Acc. IGC,Completed,9000,,72000,TRUE,Pay Utility,0769118645 - kennedy kipkurui korir,,IGC
QK94K3N828,09/11/2022 07:42,09/11/2022 07:42,Pay Bill from 0743650673 - Winfred Mbithe Mbete Acc. IEC,Completed,9000,,63000,TRUE,Pay Utility,0743650673 - Winfred Mbithe Mbete,,IEC
QK87JSX8NL,08/11/2022 21:47,08/11/2022 21:47,Pay Bill Online from 254710732381 - JANE ACHIENG MBEKE Acc. HAF,Completed,10000,,54000,TRUE,Pay Bill Online,254710732381 - JANE ACHIENG MBEKE,,HAF
QK84JOPCHC,08/11/2022 20:53,08/11/2022 20:53,Pay Bill Online from 254799946039 - LUIS OTIENO Acc. IAE,Completed,8000,,44000,TRUE,Pay Bill Online,254799946039 - LUIS OTIENO,,IAE
QK88J7Z6TW,08/11/2022 18:38,08/11/2022 18:38,Pay Bill from 0769960650 - DORIS WAMARWA MURIUKI Acc. KEC,Completed,10000,,36000,TRUE,Pay Utility,0769960650 - DORIS WAMARWA MURIUKI,,KEC
QK88J59RC6,08/11/2022 18:17,08/11/2022 18:17,Pay Bill from 254720496449 - STANLEY KIPKOECH RONO Acc. FBE,Completed,10000,,26000,TRUE,Pay Utility,254720496449 - STANLEY KIPKOECH RONO,,FBE
QK86J3GZNA,08/11/2022 18:02,08/11/2022 18:02,Pay Bill from 254721315975 - JOSEPH NDEGWA Acc. H E B,Completed,16000,,16000,TRUE,Pay Utility,254721315975 - JOSEPH NDEGWA,,H
QK82IWXHK2,08/11/2022 17:00,08/11/2022 17:00,Utility Account to Organization Settlement Account,Completed,,-5000,0,TRUE,Utility Account to Organization Settlement Account,979524 - ANCIENT WELLS PROPERTY MANAGERS 2,,
QK86IWC4FA,08/11/2022 16:53,08/11/2022 16:53,Merchant Pay Utility Received from 7245661 -  OCHIENG CHEMIST  Acc. HFD,Completed,2000,,5000,TRUE,Merchant Pay Utility via API,7245661 -  OCHIENG CHEMIST ,,HFD
QK87IVARNX,08/11/2022 16:42,08/11/2022 16:42,Pay Bill from 254722572104 - ERICK MURABULA Acc. HAE,Completed,3000,,3000,TRUE,Pay Utility,254722572104 - ERICK MURABULA,,HAE
QK86IDFEI8,08/11/2022 13:03,08/11/2022 13:03,Utility Account to Organization Settlement Account,Completed,,-314500,0,TRUE,Utility Account to Organization Settlement Account,979524 - ANCIENT WELLS PROPERTY MANAGERS 2,,
QK80I9N6MW,08/11/2022 12:16,08/11/2022 12:16,Pay Bill from 254715742045 - FRIDAH KIEMA Acc. HGC,Completed,9500,,314500,TRUE,Pay Utility with OD via STK,254715742045 - FRIDAH KIEMA,,HGC
QK87I6UTQD,08/11/2022 11:39,08/11/2022 11:39,Pay Bill Online from 254718233980 - KAREN ASWANI Acc. HEC,Completed,10500,,305000,TRUE,Pay Bill Online,254718233980 - KAREN ASWANI,,HEC
QK82I6CVHI,08/11/2022 11:33,08/11/2022 11:33,Pay Bill Online from 254725385966 - JOSEPH MUYA MARUA Acc. KEE,Completed,10000,,294500,TRUE,Pay Utility with OD Online,254725385966 - JOSEPH MUYA MARUA,,KEE
QK84I69K9C,08/11/2022 11:31,08/11/2022 11:31,Pay Bill from 254720814822 - JAMES OTIENO OPAR Acc. Jgj,Completed,3500,,284500,TRUE,Pay Utility,254720814822 - JAMES OTIENO OPAR,,Jgj
QK84I5UVQY,08/11/2022 11:26,08/11/2022 11:26,Pay Bill from 254722714951 - JOSEPH MUTIGA NDIRANGU Acc. JCF,Completed,5000,,281000,TRUE,Pay Utility,254722714951 - JOSEPH MUTIGA NDIRANGU,,JCF
QK80I038YC,08/11/2022 10:10,08/11/2022 10:10,Pay Bill Online from 254722921132 - JOE MCCRAY MURIUKI KIHIA Acc. 15000,Completed,15000,,276000,TRUE,Pay Bill Online,254722921132 - JOE MCCRAY MURIUKI KIHIA,,15000
QK85HWMU1D,08/11/2022 09:23,08/11/2022 09:23,Pay Bill Online from 0757699775 - BENARD MUIA MUTUA Acc. HCB,Completed,16000,,261000,TRUE,Pay Bill Online,0757699775 - BENARD MUIA MUTUA,,HCB
QK87HVTGOF,08/11/2022 09:12,08/11/2022 09:12,Pay Bill from 254716056537 - KIRUI KIPLANGAT HILLARY Acc. JCJ,Completed,16000,,245000,TRUE,Pay Utility,254716056537 - KIRUI KIPLANGAT HILLARY,,JCJ
QK84HU8Z72,08/11/2022 08:49,08/11/2022 08:49,Pay Bill Online from 254723394064 - ANDREW LAGAT Acc. HBG,Completed,16000,,229000,TRUE,Pay Bill Online,254723394064 - ANDREW LAGAT,,HBG
QK89HTVABB,08/11/2022 08:44,08/11/2022 08:44,Pay Bill Online from 254710146965 - BRENDA DORCAS MABONGA Acc. hfg,Completed,15000,,213000,TRUE,Pay Bill Online,254710146965 - BRENDA DORCAS MABONGA,,hfg
QK85HRZQH3,08/11/2022 08:15,08/11/2022 08:15,Pay Bill Online from 254726292792 - PHILIP MIANO Acc. JEI,Completed,20000,,198000,TRUE,Pay Bill Online,254726292792 - PHILIP MIANO,,JEI
QK80HPMF7O,08/11/2022 07:35,08/11/2022 07:35,Pay Bill from 254722444622 - CHARITY KAGWAINI Acc. ffd,Completed,11000,,178000,TRUE,Pay Utility,254722444622 - CHARITY KAGWAINI,,ffd
QK87HON1WF,08/11/2022 07:16,08/11/2022 07:16,Pay Bill Online from 0757076363 - Ifrah Adan Hassan Acc. IGF,Completed,10000,,167000,TRUE,Pay Bill Online,0757076363 - Ifrah Adan Hassan,,IGF
QK84HNKZRM,08/11/2022 06:52,08/11/2022 06:52,Pay Bill from 254727144033 - JOHN NYAREGA NYAKUNDI Acc. FAF,Completed,16000,,157000,TRUE,Pay Utility,254727144033 - JOHN NYAREGA NYAKUNDI,,FAF
QK71HJ03K7,07/11/2022 23:02,07/11/2022 23:02,Pay Bill Online from 254720451253 - JIMMY KIOGORA NKIROTE Acc. KBD,Completed,1000,,141000,TRUE,Pay Bill Online,254720451253 - JIMMY KIOGORA NKIROTE,,KBD
QK71HF01S5,07/11/2022 21:35,07/11/2022 21:35,Pay Bill from 254700557767 - BAKHITA MWENDE MUANGE Acc. kcb,Completed,16000,,140000,TRUE,Pay Utility,254700557767 - BAKHITA MWENDE MUANGE,,kcb
QK74HEPNHS,07/11/2022 21:30,07/11/2022 21:30,Pay Bill Online from 254723499628 - CLINTON JOSEPH MUHARI Acc. hfh,Completed,16000,,124000,TRUE,Pay Bill Online,254723499628 - CLINTON JOSEPH MUHARI,,hfh
QK76H9S4IK,07/11/2022 20:33,07/11/2022 20:33,Pay Bill from 254702764047 - FERDINAND K Acc. KDB,Completed,16000,,108000,TRUE,Pay Utility,254702764047 - FERDINAND K,,KDB
QK78GVGKI2,07/11/2022 18:40,07/11/2022 18:40,Pay Bill from 254722521028 - CHARLES MONYONCHO Acc. JDA,Completed,28500,,92000,TRUE,Pay Utility,254722521028 - CHARLES MONYONCHO,,JDA
QK74GN2JJA,07/11/2022 17:28,07/11/2022 17:28,Pay Bill from 0724386624 - FATUMA ISSE YUSSUF Acc. FAB,Completed,16000,,63500,TRUE,Pay Utility with OD via STK,0724386624 - FATUMA ISSE YUSSUF,,FAB
QK71GMW1TL,07/11/2022 17:26,07/11/2022 17:26,Pay Bill Online from 254715764212 - BANCE ISHEMINYE Acc. JFE ,Completed,3000,,47500,TRUE,Pay Bill Online,254715764212 - BANCE ISHEMINYE,,JFE
QK75GL4M11,07/11/2022 17:08,07/11/2022 17:08,Pay Bill Online from 0711117122 - Yassir Mwinyi Abdulrazaq Acc. ICE,Completed,9000,,44500,TRUE,Pay Bill Online,0711117122 - Yassir Mwinyi Abdulrazaq,,ICE
QK75GKA4L9,07/11/2022 16:59,07/11/2022 16:59,Pay Bill Online from 254792187144 - HASSAN AHMED HASSAN Acc. KGI,Completed,10000,,35500,TRUE,Pay Bill Online,254792187144 - HASSAN AHMED HASSAN,,KGI
QK74GH44M6,07/11/2022 16:25,07/11/2022 16:25,Merchant Pay Utility Received from 6033532 - kelvin mwangi   muchori  1 Acc. HDE,Completed,10500,,25500,TRUE,Merchant Pay Utility via API,6033532 - kelvin mwangi   muchori  1,,HDE
QK73GEOKTP,07/11/2022 15:56,07/11/2022 15:56,Pay Bill Online from 254710382992 - SIMON KAMAU MUIRURI Acc. JCD,Completed,15000,,15000,TRUE,Pay Bill Online,254710382992 - SIMON KAMAU MUIRURI,,JCD
QK78G5C7QM,07/11/2022 14:02,07/11/2022 14:02,Utility Account to Organization Settlement Account,Completed,,-80500,0,TRUE,Utility Account to Organization Settlement Account,979524 - ANCIENT WELLS PROPERTY MANAGERS 2,,
QK78G4FMBK,07/11/2022 13:52,07/11/2022 13:52,Pay Bill Online from 0722255105 - SALIM OMAR MZEE Acc. FGF,Completed,26500,,80500,TRUE,Pay Utility with OD Online,0722255105 - SALIM OMAR MZEE,,FGF
QK78FY6F62,07/11/2022 12:37,07/11/2022 12:37,Pay Bill from 254719779657 - SAMUEL NJOROGE Acc. JGA,Completed,5000,,54000,TRUE,Pay Utility,254719779657 - SAMUEL NJOROGE,,JGA
QK74FT3QNI,07/11/2022 11:32,07/11/2022 11:32,Pay Bill from 254710635630 - DONNA JESSICA OWANO Acc. KCC,Completed,10000,,49000,TRUE,Pay Utility,254710635630 - DONNA JESSICA OWANO,,KCC
QK75FK87MD,07/11/2022 09:37,07/11/2022 09:37,Pay Bill Online from 254715002789 - ERICK NGUGI MAINA Acc. HAG,Completed,16000,,39000,TRUE,Pay Bill Online,254715002789 - ERICK NGUGI MAINA,,HAG
QK73FI999X,07/11/2022 09:10,07/11/2022 09:10,Pay Bill from 254720814822 - JAMES OTIENO OPAR Acc. Jgj,Completed,3000,,23000,TRUE,Pay Utility with OD via STK,254720814822 - JAMES OTIENO OPAR,,Jgj
QK79FDP4U7,07/11/2022 08:02,07/11/2022 08:02,Pay Bill from 254725754547 - MWACHIRO GEORGE DECHE Acc. DFC,Completed,20000,,20000,TRUE,Pay Utility,254725754547 - MWACHIRO GEORGE DECHE,,DFC
QK71FCK4VT,07/11/2022 07:43,07/11/2022 07:43,Utility Account to Organization Settlement Account,Completed,,-287000,0,TRUE,Utility Account to Organization Settlement Account,979524 - ANCIENT WELLS PROPERTY MANAGERS 2,,
QK79F7VZAB,07/11/2022 04:20,07/11/2022 04:20,Pay Bill from 0743789968 - Dallias Thanare Githara Acc. hbb,Completed,2000,,287000,TRUE,Pay Utility,0743789968 - Dallias Thanare Githara,,hbb
QK63F2ZGWD,06/11/2022 21:55,06/11/2022 21:55,Pay Bill from 254723488259 - WILSON OKITE OKITE Acc. HCA,Completed,15000,,285000,TRUE,Pay Utility with OD via STK,254723488259 - WILSON OKITE OKITE,,HCA
QK69F0J9VF,06/11/2022 21:16,06/11/2022 21:16,Pay Bill from 0724134105 - HILDA JEPKEMOI KIMELIEL Acc. JBH,Completed,1000,,270000,TRUE,Pay Utility,0724134105 - HILDA JEPKEMOI KIMELIEL,,JBH
QK66F0IADA,06/11/2022 21:16,06/11/2022 21:16,Pay Bill from 254703935626 - DAVID NGARI ITA Acc. FCD,Completed,1000,,269000,TRUE,Pay Utility,254703935626 - DAVID NGARI ITA,,FCD
QK62EVUGHY,06/11/2022 20:21,06/11/2022 20:21,Pay Bill Online from 254714536026 - LILIAN AWUOR ONYANGO Acc. HDC,Completed,10500,,268000,TRUE,Pay Bill Online,254714536026 - LILIAN AWUOR ONYANGO,,HDC
QK62E3TGIM,06/11/2022 15:47,06/11/2022 15:47,Pay Bill from 254703276305 - MARTHA MUSYOKA Acc. IAI,Completed,15000,,257500,TRUE,Pay Utility,254703276305 - MARTHA MUSYOKA,,IAI
QK61DXIDP9,06/11/2022 14:33,06/11/2022 14:33,Pay Bill from 254113678329 - LESLIE NAINI KOIKAI Acc. IBD ,Completed,11000,,242500,TRUE,Pay Utility,254113678329 - LESLIE NAINI KOIKAI,,IBD
QK68DN9XM8,06/11/2022 12:26,06/11/2022 12:26,Pay Bill from 254723017892 - JUDY MUTHEU Acc. ICI,Completed,16000,,231500,TRUE,Pay Utility,254723017892 - JUDY MUTHEU,,ICI
QK64DJMALY,06/11/2022 11:34,06/11/2022 11:34,Pay Bill from 0791379873 - Joseph Kyalo Sila Acc. HAH,Completed,16000,,215500,TRUE,Pay Utility with OD via STK,0791379873 - Joseph Kyalo Sila,,HAH
QK66DG36AI,06/11/2022 10:44,06/11/2022 10:44,Pay Bill from 254726028330 - JOHN WAMBUA Acc. IFH,Completed,15000,,199500,TRUE,Pay Utility,254726028330 - JOHN WAMBUA,,IFH
QK67DEA6MR,06/11/2022 10:18,06/11/2022 10:18,Pay Bill Online from 254711562428 - Lionel Mutune Muoka Acc. KDI,Completed,11000,,184500,TRUE,Pay Bill Online,254711562428 - Lionel Mutune Muoka,,KDI
QK61DBUMXH,06/11/2022 09:43,06/11/2022 09:43,Pay Bill Online from 254712187712 - JUDELEEN SHILOBELE AHINDUKHA Acc. IEA,Completed,15000,,173500,TRUE,Pay Bill Online,254712187712 - JUDELEEN SHILOBELE AHINDUKHA,,IEA
QK63D4DHPL,06/11/2022 07:48,06/11/2022 07:48,Pay Bill from 254795023150 - FAITH MORAA SITEMBA Acc. IFC,Completed,8000,,158500,TRUE,Pay Utility,254795023150 - FAITH MORAA SITEMBA,,IFC
QK68D47LXU,06/11/2022 07:45,06/11/2022 07:45,Pay Bill Online from 254720381965 - JAMES NGUGI MWANIKI Acc. JBI,Completed,20000,,150500,TRUE,Pay Bill Online,254720381965 - JAMES NGUGI MWANIKI,,JBI
QK52CXT1NE,05/11/2022 23:52,05/11/2022 23:52,Pay Bill from 254743243622 - fridah waeni muithya Acc. JEH,Completed,16000,,130500,TRUE,Pay Utility,254743243622 - fridah waeni muithya,,JEH
QK55CU6X4Z,05/11/2022 22:07,05/11/2022 22:07,Pay Bill Online from 254724821898 - ALLAN GISONI NYANGARESI Acc. DBA,Completed,15000,,114500,TRUE,Pay Bill Online,254724821898 - ALLAN GISONI NYANGARESI,,DBA
QK54CTSN8O,05/11/2022 22:00,05/11/2022 22:00,Pay Bill Online from 254718663397 - JIMMY MUNYAO NZIOKI Acc. DCB,Completed,16000,,99500,TRUE,Pay Bill Online,254718663397 - JIMMY MUNYAO NZIOKI,,DCB
QK56CSPPM4,05/11/2022 21:43,05/11/2022 21:43,Pay Bill from 254796069018 - PEACE KIMEU Acc. JAH,Completed,16000,,83500,TRUE,Pay Utility,254796069018 - PEACE KIMEU,,JAH
QK52CRELNK,05/11/2022 21:25,05/11/2022 21:25,Pay Bill from 0740899415 - CHRISTINE VAATI LUCAS Acc. IGE,Completed,1500,,67500,TRUE,Pay Utility,0740899415 - CHRISTINE VAATI LUCAS,,IGE
QK58CMWHMI,05/11/2022 20:36,05/11/2022 20:36,Pay Bill from 254720814822 - JAMES OTIENO OPAR Acc. Jgj,Completed,5000,,66000,TRUE,Pay Utility,254720814822 - JAMES OTIENO OPAR,,Jgj
QK56CHAO30,05/11/2022 19:48,05/11/2022 19:48,Pay Bill Online from 254727425310 - DENNIS KIPKOECH CHERUIYOT Acc. JAG,Completed,10000,,61000,TRUE,Pay Utility with OD Online,254727425310 - DENNIS KIPKOECH CHERUIYOT,,JAG
QK57CD9KIZ,05/11/2022 19:17,05/11/2022 19:17,Pay Bill from 254725062550 - FRANKLINE MASSAM Acc. KAf,Completed,10000,,51000,TRUE,Pay Utility,254725062550 - FRANKLINE MASSAM,,KAf
QK58CA1PNW,05/11/2022 18:54,05/11/2022 18:54,Pay Bill from 254712283818 - OYUGI OCHIENG Acc. FCB,Completed,16000,,41000,TRUE,Pay Utility,254712283818 - OYUGI OCHIENG,,FCB
QK56C7Y954,05/11/2022 18:39,05/11/2022 18:39,Pay Bill from 254728670882 - SHARAD EDWARD ADALA OLUM Acc. KCK,Completed,15000,,25000,TRUE,Pay Utility,254728670882 - SHARAD EDWARD ADALA OLUM,,KCK
QK59C6L5H3,05/11/2022 18:28,05/11/2022 18:28,Pay Bill Online from 254798639242 - Christian Kiragu Acc. FGE,Completed,10000,,10000,TRUE,Pay Bill Online,254798639242 - Christian Kiragu,,FGE
QK52C2WEO8,05/11/2022 17:57,05/11/2022 17:57,Utility Account to Organization Settlement Account,Completed,,-72700,0,TRUE,Utility Account to Organization Settlement Account,979524 - ANCIENT WELLS PROPERTY MANAGERS 2,,
QK54C2B2G6,05/11/2022 17:52,05/11/2022 17:52,Pay Bill from 254714060203 - PATRICK MWANGOMBE MSAWUCHI Acc. KEI,Completed,12000,,72700,TRUE,Pay Utility,254714060203 - PATRICK MWANGOMBE MSAWUCHI,,KEI
QK51BXOJQX,05/11/2022 17:09,05/11/2022 17:09,Pay Bill Online from 254721714178 - PHANICE JEROTICH KIPTOO Acc. FBF,Completed,16000,,60700,TRUE,Pay Bill Online,254721714178 - PHANICE JEROTICH KIPTOO,,FBF
QK52BUDM74,05/11/2022 16:37,05/11/2022 16:37,Pay Bill from 254745661722 - MUHAMEDMALIK GAAL Acc. DEC,Completed,16700,,44700,TRUE,Pay Utility,254745661722 - MUHAMEDMALIK GAAL,,DEC
QK54BT1XFK,05/11/2022 16:23,05/11/2022 16:23,Pay Bill from 254726732160 - CATHERINE MBETI Acc. KFI,Completed,12000,,28000,TRUE,Pay Utility,254726732160 - CATHERINE MBETI,,KFI
QK55BN4RVT,05/11/2022 15:19,05/11/2022 15:19,Pay Bill from 254715636579 - GRACE KALUKI MULI Acc. FDA ,Completed,16000,,16000,TRUE,Pay Utility,254715636579 - GRACE KALUKI MULI,,FDA
QK51BJPS0X,05/11/2022 14:42,05/11/2022 14:42,Utility Account to Organization Settlement Account,Completed,,-30000,0,TRUE,Utility Account to Organization Settlement Account,979524 - ANCIENT WELLS PROPERTY MANAGERS 2,,
QK59BJK9AP,05/11/2022 14:40,05/11/2022 14:40,Pay Bill from 254725478531 - KIPKORIR KUTO Acc. DFB,Completed,15000,,30000,TRUE,Pay Utility,254725478531 - KIPKORIR KUTO,,DFB
QK50BJJTQQ,05/11/2022 14:40,05/11/2022 14:40,Pay Bill from 254722889574 - ALLAN MWANGI Acc. jcg,Completed,10000,,15000,TRUE,Pay Utility with OD via STK,254722889574 - ALLAN MWANGI,,jcg
QK57BBJBSH,05/11/2022 13:12,05/11/2022 13:12,Pay Bill Online from 254706549634 - CLINTON OMBASA Acc. FDB,Completed,5000,,5000,TRUE,Pay Bill Online,254706549634 - CLINTON OMBASA,,FDB
QK56B83130,05/11/2022 12:32,05/11/2022 12:32,Utility Account to Organization Settlement Account,Completed,,-32000,0,TRUE,Utility Account to Organization Settlement Account,979524 - ANCIENT WELLS PROPERTY MANAGERS 2,,
QK56AXN0QE,05/11/2022 10:26,05/11/2022 10:26,Pay Bill from 254723966777 - BONIFACE MUTHAKA NGANGA Acc. IEC,Completed,10000,,32000,TRUE,Pay Utility,254723966777 - BONIFACE MUTHAKA NGANGA,,IEC
QK52AS5W8O,05/11/2022 09:15,05/11/2022 09:15,Pay Bill Online from 254715892656 - DENNIS MUSYOKA MUOKI Acc. kfa,Completed,2000,,22000,TRUE,Pay Bill Online,254715892656 - DENNIS MUSYOKA MUOKI,,kfa
QK59AR3WBV,05/11/2022 09:01,05/11/2022 09:01,Pay Bill from 0758621214 - PETER KYALO KIIO Acc. DBD,Completed,20000,,20000,TRUE,Pay Utility,0758621214 - PETER KYALO KIIO,,DBD
QK58AP80XM,05/11/2022 08:34,05/11/2022 08:34,Utility Account to Organization Settlement Account,Completed,,-155500,0,TRUE,Utility Account to Organization Settlement Account,979524 - ANCIENT WELLS PROPERTY MANAGERS 2,,
QK51AOLDPX,05/11/2022 08:25,05/11/2022 08:25,Pay Bill from 254741223822 - Rhoyce Kiptarus Boiyo Acc. FEC,Completed,9000,,155500,TRUE,Pay Utility with OD via STK,254741223822 - Rhoyce Kiptarus Boiyo,,FEC
QK52AJURQK,05/11/2022 06:58,05/11/2022 06:58,Pay Bill from 254723929380 - RHODAH K WAMBUA Acc. HEF,Completed,9500,,146500,TRUE,Pay Utility,254723929380 - RHODAH K WAMBUA,,HEF
QK47AEYPLX,04/11/2022 23:32,04/11/2022 23:32,Pay Bill Online from 254710202776 - KELVIN KARIMI MACHARIA Acc. FAD,Completed,11000,,137000,TRUE,Pay Bill Online,254710202776 - KELVIN KARIMI MACHARIA,,FAD
QK49ACBRUJ,04/11/2022 22:14,04/11/2022 22:14,Pay Bill Online from 254729097858 - AMBROSE ADEYA AHAWO Acc. KCF,Completed,10000,,126000,TRUE,Pay Bill Online,254729097858 - AMBROSE ADEYA AHAWO,,KCF
QK44ABDASC,04/11/2022 21:57,04/11/2022 21:57,Pay Bill from 254703935626 - DAVID NGARI ITA Acc. FCD,Completed,1000,,116000,TRUE,Pay Utility,254703935626 - DAVID NGARI ITA,,FCD
QK46AA5XOO,04/11/2022 21:38,04/11/2022 21:38,Pay Bill Online from 254723411873 - FREDRICK CHERUIYOT Acc. jbf,Completed,8000,,115000,TRUE,Pay Bill Online,254723411873 - FREDRICK CHERUIYOT,,jbf
QK429WB58W,04/11/2022 19:25,04/11/2022 19:25,Pay Bill from 254717801919 - MARCELINE AKINYI Acc. IAF,Completed,10000,,107000,TRUE,Pay Utility,254717801919 - MARCELINE AKINYI,,IAF
QK489UGK30,04/11/2022 19:11,04/11/2022 19:11,Pay Bill Online from 254713966424 - NDUTI MUTHUI Acc. jed,Completed,15000,,97000,TRUE,Pay Bill Online,254713966424 - NDUTI MUTHUI,,jed
QK489T6ZFO,04/11/2022 19:02,04/11/2022 19:02,Pay Bill from 254714710944 - MERCY NDUNG'U Acc. HFF,Completed,10000,,82000,TRUE,Pay Utility with OD via STK,254714710944 - MERCY NDUNG'U,,HFF
QK499QK42X,04/11/2022 18:44,04/11/2022 18:44,Pay Bill from 0705100292 - Leonard Mwatsuma Chai Acc. IGE,Completed,9000,,72000,TRUE,Pay Utility,0705100292 - Leonard Mwatsuma Chai,,IGE
QK469NX542,04/11/2022 18:25,04/11/2022 18:25,Pay Bill from 254708499439 - ROSE NDEDE Acc. HGF,Completed,9000,,63000,TRUE,Pay Utility,254708499439 - ROSE NDEDE,,HGF
QK469GDXUK,04/11/2022 17:21,04/11/2022 17:21,Pay Bill from 254721784820 - YVONNE OKELLO Acc. KGC,Completed,9000,,54000,TRUE,Pay Utility,254721784820 - YVONNE OKELLO,,KGC
QK489EF2DK,04/11/2022 17:02,04/11/2022 17:02,Pay Bill Online from 254719134037 - KELVIN KITOO Acc. FAA,Completed,16000,,45000,TRUE,Pay Utility with OD Online,254719134037 - KELVIN KITOO,,FAA
QK409C0L58,04/11/2022 16:38,04/11/2022 16:38,Pay Bill from 254758978557 - JOSEPH WAMBUA MUSYOKA Acc. IBG,Completed,8000,,29000,TRUE,Pay Utility,254758978557 - JOSEPH WAMBUA MUSYOKA,,IBG
QK459BLCK7,04/11/2022 16:33,04/11/2022 16:33,Pay Bill from 254702216907 - FAITH MUSA Acc. KBE ,Completed,10000,,21000,TRUE,Pay Utility,254702216907 - FAITH MUSA,,KBE
QK4899VNAG,04/11/2022 16:15,04/11/2022 16:15,Pay Bill from 254719747910 - KEVIN NDERITU GAKINGO Acc. iDD,Completed,11000,,11000,TRUE,Pay Utility,254719747910 - KEVIN NDERITU GAKINGO,,iDD
QK4996WUQL,04/11/2022 15:41,04/11/2022 15:41,Utility Account to Organization Settlement Account,Completed,,-134500,0,TRUE,Utility Account to Organization Settlement Account,979524 - ANCIENT WELLS PROPERTY MANAGERS 2,,
QK4993QB2X,04/11/2022 15:04,04/11/2022 15:04,Pay Bill from 254705425553 - ALEX MATHENGE Acc. JFD,Completed,31000,,134500,TRUE,Pay Utility,254705425553 - ALEX MATHENGE,,JFD
QK488YK8NU,04/11/2022 14:03,04/11/2022 14:03,Pay Bill Online from 254706144834 - WILKISTER OSUMO Acc. HFB,Completed,15000,,103500,TRUE,Pay Bill Online,254706144834 - WILKISTER OSUMO,,HFB
QK488XH5DC,04/11/2022 13:50,04/11/2022 13:50,Pay Bill from 0743683511 - job wasonga onyango Acc. KAG,Completed,21000,,88500,TRUE,Pay Utility,0743683511 - job wasonga onyango,,KAG
QK448K4WAU,04/11/2022 11:08,04/11/2022 11:08,Pay Bill Online from 254718513411 - Michelle mwangi Acc. HAD,Completed,10000,,67500,TRUE,Pay Bill Online,254718513411 - Michelle mwangi,,HAD
QK468JRTQC,04/11/2022 11:03,04/11/2022 11:03,Pay Bill from 254708570729 - MARY OGOLLA Acc. HOUSE NO.KAD,Completed,12000,,57500,TRUE,Pay Utility,254708570729 - MARY OGOLLA,,HOUSE
QK468JMLQU,04/11/2022 11:01,04/11/2022 11:01,Pay Bill from 254722136450 - MARY EVERLYN Acc. JAI,Completed,20000,,45500,TRUE,Pay Utility,254722136450 - MARY EVERLYN,,JAI
QK408IT8MK,04/11/2022 10:51,04/11/2022 10:51,Pay Bill from 0757758972 - BETH MUTHONI KASYOKA Acc. DEA,Completed,16000,,25500,TRUE,Pay Utility,0757758972 - BETH MUTHONI KASYOKA,,DEA
QK438HZV25,04/11/2022 10:41,04/11/2022 10:41,Pay Bill Online from 0757319222 - ATEM KUOL JOHN BOL Acc. FAC,Completed,9500,,9500,TRUE,Pay Bill Online,0757319222 - ATEM KUOL JOHN BOL,,FAC
QK4189G09T,04/11/2022 08:47,04/11/2022 08:47,Utility Account to Organization Settlement Account,Completed,,-182500,0,TRUE,Utility Account to Organization Settlement Account,979524 - ANCIENT WELLS PROPERTY MANAGERS 2,,
QK307RJXMM,03/11/2022 21:06,03/11/2022 21:06,FSI to Pay Bill by 998094 - COOP TO PAYBILL Acc. IFF via WEB by COOP TO PAYBILL\COOPAYBILLTRNS,Completed,10000,,182500,TRUE,FSI to Pay Bill via API,998094 - COOP TO PAYBILL,,IFF
QK337PY7DR,03/11/2022 20:49,03/11/2022 20:49,Pay Bill Online from 254714855708 - KIPLANGAT SITIENEI Acc. FAE,Completed,16000,,172500,TRUE,Pay Bill Online,254714855708 - KIPLANGAT SITIENEI,,FAE
QK397FLWHR,03/11/2022 19:21,03/11/2022 19:21,Pay Bill from 254724477912 - SAMUEL MURIMI Acc. HCD,Completed,10000,,156500,TRUE,Pay Utility,254724477912 - SAMUEL MURIMI,,HCD
QK327FKVHW,03/11/2022 19:20,03/11/2022 19:20,Pay Bill from 254723328258 - SAMUEL MAINA MURIUKI Acc. IFE,Completed,8000,,146500,TRUE,Pay Utility,254723328258 - SAMUEL MAINA MURIUKI,,IFE
QK337DZRZL,03/11/2022 19:09,03/11/2022 19:09,Business Pay Bill by 488519 - NCBA  Bank M-pesa Acc. ICC via API,Completed,9000,,138500,TRUE,Business Pay Bill via API,488519 - NCBA  Bank M-pesa,,ICC
QK366ZNB5G,03/11/2022 17:13,03/11/2022 17:13,Pay Bill from 0700221720 - Eunice Nasimiyu Webwana Acc. KAE,Completed,16000,,129500,TRUE,Pay Utility,0700221720 - Eunice Nasimiyu Webwana,,KAE
QK396XVYMD,03/11/2022 16:55,03/11/2022 16:55,Pay Bill Online from 254708300413 - ROBINSON AYAKO Acc. KEH,Completed,10000,,113500,TRUE,Pay Bill Online,254708300413 - ROBINSON AYAKO,,KEH
QK306XCR84,03/11/2022 16:50,03/11/2022 16:50,Pay Bill from 254796848496 - IVY WITABA Acc. JBA,Completed,11000,,103500,TRUE,Pay Utility,254796848496 - IVY WITABA,,JBA
QK356RHHJ9,03/11/2022 15:44,03/11/2022 15:44,Pay Bill Online from 254702355678 - JOHN NJOROGE GICHERU Acc. ITE,Completed,10000,,92500,TRUE,Pay Bill Online,254702355678 - JOHN NJOROGE GICHERU,,ITE
QK366RCJVG,03/11/2022 15:42,03/11/2022 15:42,Pay Bill Online from 254706549634 - CLINTON OMBASA Acc. FDB,Completed,10000,,82500,TRUE,Pay Bill Online,254706549634 - CLINTON OMBASA,,FDB
QK386OIHYO,03/11/2022 15:08,03/11/2022 15:08,Pay Bill from 0769714506 - edith      gakii Acc. DDB,Completed,16000,,72500,TRUE,Pay Utility,0769714506 - edith      gakii,,DDB
QK376M1U85,03/11/2022 14:38,03/11/2022 14:38,Pay Bill from 254724852503 - GEOFREY YEGO Acc. JFF,Completed,10000,,56500,TRUE,Pay Utility,254724852503 - GEOFREY YEGO,,JFF
QK386K4BMU,03/11/2022 14:14,03/11/2022 14:14,Pay Bill from 0715566922 - diramu ollo galgalo Acc. HBD,Completed,10000,,46500,TRUE,Pay Utility,0715566922 - diramu ollo galgalo,,HBD
QK356IODGN,03/11/2022 13:57,03/11/2022 13:57,Pay Bill from 254722826454 - CHARLES KARIMI MAITAI Acc. KDC  Nyambura,Completed,10000,,36500,TRUE,Pay Utility,254722826454 - CHARLES KARIMI MAITAI,,KDC
QK366FRAYO,03/11/2022 13:23,03/11/2022 13:23,Pay Bill Online from 254729160700 - MICAH NDUNGI Acc. HFE,Completed,10500,,26500,TRUE,Pay Bill Online,254729160700 - MICAH NDUNGI,,HFE
QK306FDNC6,03/11/2022 13:19,03/11/2022 13:19,Pay Bill Online from 254722728975 - CURTIS MRIGA OMIDO Acc. IAH,Completed,16000,,16000,TRUE,Pay Bill Online,254722728975 - CURTIS MRIGA OMIDO,,IAH
QK366ALXRO,03/11/2022 12:20,03/11/2022 12:20,Utility Account to Organization Settlement Account,Completed,,-54500,0,TRUE,Utility Account to Organization Settlement Account,979524 - ANCIENT WELLS PROPERTY MANAGERS 2,,
QK3368XB1J,03/11/2022 11:59,03/11/2022 11:59,Pay Bill Online from 254706898046 - STACY AKETCH OCHUKA Acc. KGK,Completed,16500,,54500,TRUE,Pay Bill Online,254706898046 - STACY AKETCH OCHUKA,,KGK
QK3768ILAJ,03/11/2022 11:54,03/11/2022 11:54,Pay Bill from 254719398942 - NORAH WAYUA MUNYAO Acc. KDA,Completed,16000,,38000,TRUE,Pay Utility,254719398942 - NORAH WAYUA MUNYAO,,KDA
QK3668G89E,03/11/2022 11:53,03/11/2022 11:53,Pay Bill Online from 254745661722 - MUHAMEDMALIK GAAL Acc. DEC,Completed,22000,,22000,TRUE,Pay Bill Online,254745661722 - MUHAMEDMALIK GAAL,,DEC
QK3161HDW7,03/11/2022 10:24,03/11/2022 10:24,Utility Account to Organization Settlement Account,Completed,,-36000,0,TRUE,Utility Account to Organization Settlement Account,979524 - ANCIENT WELLS PROPERTY MANAGERS 2,,
QK335Z0XPZ,03/11/2022 09:52,03/11/2022 09:52,Pay Bill from 254713281251 - ERIC KIAMA Acc. JDI,Completed,20000,,36000,TRUE,Pay Utility,254713281251 - ERIC KIAMA,,JDI
QK335R0GZP,03/11/2022 08:17,03/11/2022 08:17,Pay Bill Online from 254721974995 - BERNICE MANGOKA Acc. KFK,Completed,16000,,16000,TRUE,Pay Utility with OD Online,254721974995 - BERNICE MANGOKA,,KFK
QK355Q1D5P,03/11/2022 08:05,03/11/2022 08:05,Utility Account to Organization Settlement Account,Completed,,-81500,0,TRUE,Utility Account to Organization Settlement Account,979524 - ANCIENT WELLS PROPERTY MANAGERS 2,,
QK335KVHBT,03/11/2022 06:40,03/11/2022 06:40,Pay Bill from 254717438676 - SHIHAB THIIRU Acc. IEI,Completed,15000,,81500,TRUE,Pay Utility,254717438676 - SHIHAB THIIRU,,IEI
QK305IKB9W,03/11/2022 03:17,03/11/2022 03:17,Pay Bill Online from 254724005780 - IVY MARGARET OGOLA Acc. FFB,Completed,5000,,66500,TRUE,Pay Bill Online,254724005780 - IVY MARGARET OGOLA,,FFB
QK265G913W,02/11/2022 23:04,02/11/2022 23:04,Pay Bill Online from 254798639242 - Christian Kiragu Acc. FGE,Completed,10000,,61500,TRUE,Pay Utility with OD Online,254798639242 - Christian Kiragu,,FGE
QK255DPX31,02/11/2022 21:59,02/11/2022 21:59,Pay Bill Online from 254706158280 - patience mutheu mbevi Acc. KFC,Completed,10000,,51500,TRUE,Pay Bill Online,254706158280 - patience mutheu mbevi,,KFC
QK265616NK,02/11/2022 20:22,02/11/2022 20:22,Pay Bill from 0743789968 - Dallias Thanare Githara Acc. hbb,Completed,2000,,41500,TRUE,Pay Utility,0743789968 - Dallias Thanare Githara,,hbb
QK27529ML3,02/11/2022 19:49,02/11/2022 19:49,Pay Bill Online from 254728093389 - MOHAMED MUSA ALASOW Acc. KED ,Completed,12000,,39500,TRUE,Pay Bill Online,254728093389 - MOHAMED MUSA ALASOW,,KED
QK2851ZMHS,02/11/2022 19:47,02/11/2022 19:47,Pay Bill from 254728084427 - MARY NABWIRE OKELLO Acc. FDF,Completed,16000,,27500,TRUE,Pay Utility,254728084427 - MARY NABWIRE OKELLO,,FDF
QK264OPA8A,02/11/2022 18:06,02/11/2022 18:06,Pay Bill from 254729450678 - GRACE NDUNGE Acc. fba,Completed,2000,,11500,TRUE,Pay Utility with OD via STK,254729450678 - GRACE NDUNGE,,fba
QK274E41PJ,02/11/2022 16:19,02/11/2022 16:19,Pay Bill from 254720176441 - JANE KEMUNTO Acc. FBC,Completed,9500,,9500,TRUE,Pay Utility,254720176441 - JANE KEMUNTO,,FBC
QK283XIT00,02/11/2022 12:54,02/11/2022 12:54,Utility Account to Organization Settlement Account,Completed,,-6000,0,TRUE,Utility Account to Organization Settlement Account,979524 - ANCIENT WELLS PROPERTY MANAGERS 2,,
QK233UXI77,02/11/2022 12:22,02/11/2022 12:22,Pay Bill from 254701112397 - ELEMA GODANA DIBA Acc. FCA,Completed,6000,,6000,TRUE,Pay Utility,254701112397 - ELEMA GODANA DIBA,,FCA
QK203QVJ56,02/11/2022 11:30,02/11/2022 11:30,Utility Account to Organization Settlement Account,Completed,,-84000,0,TRUE,Utility Account to Organization Settlement Account,979524 - ANCIENT WELLS PROPERTY MANAGERS 2,,
QK273OTDDP,02/11/2022 11:04,02/11/2022 11:04,FSI to Pay Bill by 998094 - COOP TO PAYBILL Acc. Hea via WEB by COOP TO PAYBILL\COOPAYBILLTRNS,Completed,16000,,84000,TRUE,FSI to Pay Bill via API,998094 - COOP TO PAYBILL,,Hea
QK223OQHMU,02/11/2022 11:03,02/11/2022 11:03,Pay Bill Online from 254729796719 - JACINTA WANJIKU NJERI Acc. FFF,Completed,17000,,68000,TRUE,Pay Bill Online,254729796719 - JACINTA WANJIKU NJERI,,FFF
QK273OKJS3,02/11/2022 11:01,02/11/2022 11:01,Pay Bill Online from 254725218904 - SALOME MUTHONI MWANGI Acc. KFJ,Completed,15000,,51000,TRUE,Pay Bill Online,254725218904 - SALOME MUTHONI MWANGI,,KFJ
QK213M7IW9,02/11/2022 10:30,02/11/2022 10:30,Pay Bill from 0706563358 - HARRIET NYANCHAMA NYABERI Acc. FCC,Completed,9000,,36000,TRUE,Pay Utility,0706563358 - HARRIET NYANCHAMA NYABERI,,FCC
QK203K4JZY,02/11/2022 10:02,02/11/2022 10:02,Pay Bill Online from 254727554512 - COLLINS KOECH Acc. JDJ,Completed,15000,,27000,TRUE,Pay Bill Online,254727554512 - COLLINS KOECH,,JDJ
QK293JNM25,02/11/2022 09:56,02/11/2022 09:56,Pay Bill from 254718138578 - PAULINE KIOKO Acc. KFD,Completed,12000,,12000,TRUE,Pay Utility,254718138578 - PAULINE KIOKO,,KFD
QK293JMLOF,02/11/2022 09:55,02/11/2022 09:55,Utility Account to Organization Settlement Account,Completed,,-240800,0,TRUE,Utility Account to Organization Settlement Account,979524 - ANCIENT WELLS PROPERTY MANAGERS 2,,
QK223I9AXO,02/11/2022 09:36,02/11/2022 09:36,Pay Bill Online from 254720696119 - DUNCAN OMONDI OKETCH Acc. IAG,Completed,9000,,240800,TRUE,Pay Bill Online,254720696119 - DUNCAN OMONDI OKETCH,,IAG
QK203FKGPG,02/11/2022 08:59,02/11/2022 08:59,Pay Bill from 0758741326 - ABDULLAHI ISACK BANTE Acc. KBF,Completed,4000,,231800,TRUE,Pay Utility,0758741326 - ABDULLAHI ISACK BANTE,,KBF
QK2738HCS9,02/11/2022 06:54,02/11/2022 06:54,Pay Bill from 254720550403 - GRACE WANGONDU Acc. JFI,Completed,20000,,227800,TRUE,Pay Utility,254720550403 - GRACE WANGONDU,,JFI
QK2536FKZ1,02/11/2022 05:00,02/11/2022 05:00,Pay Bill Online from 254720451253 - JIMMY KIOGORA NKIROTE Acc. KBD,Completed,1000,,207800,TRUE,Pay Utility with OD Online,254720451253 - JIMMY KIOGORA NKIROTE,,KBD
QK1933QI7H,01/11/2022 22:55,01/11/2022 22:55,Pay Bill from 254724201046 - GIDEON NDOLO Acc. KFH,Completed,10000,,206800,TRUE,Pay Utility,254724201046 - GIDEON NDOLO,,KFH
QK153094EF,01/11/2022 21:39,01/11/2022 21:39,Pay Bill Online from 254715764212 - BANCE ISHEMINYE Acc. JFE ,Completed,2000,,196800,TRUE,Pay Bill Online,254715764212 - BANCE ISHEMINYE,,JFE
QK192ZKJDP,01/11/2022 21:29,01/11/2022 21:29,Pay Bill from 254711706815 - NAOMI WANYONYI Acc. KBA,Completed,19500,,194800,TRUE,Pay Utility with OD via STK,254711706815 - NAOMI WANYONYI,,KBA
QK192YOJGT,01/11/2022 21:17,01/11/2022 21:17,Pay Bill from 254703935626 - DAVID NGARI ITA Acc. FCD,Completed,1000,,175300,TRUE,Pay Utility with OD via STK,254703935626 - DAVID NGARI ITA,,FCD
QK112VVCMX,01/11/2022 20:45,01/11/2022 20:45,Pay Bill Online from 0796121714 - janet   mwikali Acc. KBC,Completed,10000,,174300,TRUE,Pay Bill Online,0796121714 - janet   mwikali,,KBC
QK142SDE98,01/11/2022 20:12,01/11/2022 20:12,Pay Bill from 254710357391 - CHEPKOECH VALENTINE Acc. KAH,Completed,500,,164300,TRUE,Pay Utility,254710357391 - CHEPKOECH VALENTINE,,KAH
QK152Q2HO9,01/11/2022 19:53,01/11/2022 19:53,Pay Bill from 254799520265 - SYLVIA KIRINGA NJERI Acc. IGD,Completed,6300,,163800,TRUE,Pay Utility,254799520265 - SYLVIA KIRINGA NJERI,,IGD
QK182JP5RU,01/11/2022 19:07,01/11/2022 19:07,Pay Bill Online from 254715892656 - DENNIS MUSYOKA MUOKI Acc. kfa,Completed,7000,,157500,TRUE,Pay Bill Online,254715892656 - DENNIS MUSYOKA MUOKI,,kfa
QK152FI8WP,01/11/2022 18:37,01/11/2022 18:37,Pay Bill from 254700811449 - JOHN MULIMA ENANE Acc. HCE,Completed,10500,,150500,TRUE,Pay Utility,254700811449 - JOHN MULIMA ENANE,,HCE
QK142CKXZW,01/11/2022 18:15,01/11/2022 18:15,Pay Bill from 254729450678 - GRACE NDUNGE Acc. fba,Completed,13000,,140000,TRUE,Pay Utility with OD via STK,254729450678 - GRACE NDUNGE,,fba
QK1128NZOT,01/11/2022 17:40,01/11/2022 17:40,Pay Bill Online from 254795510441 - LEWIS MUEMA Acc. KEB,Completed,16000,,127000,TRUE,Pay Bill Online,254795510441 - LEWIS MUEMA,,KEB
QK132809OF,01/11/2022 17:34,01/11/2022 17:34,Pay Bill from 254708875278 - ROSEMARY WANJIRU KONYE Acc. HBF,Completed,9000,,111000,TRUE,Pay Utility,254708875278 - ROSEMARY WANJIRU KONYE,,HBF
QK1822DH72,01/11/2022 16:38,01/11/2022 16:38,Pay Bill from 254717726012 - WINFRED MUENI PETER Acc. IDA,Completed,16000,,102000,TRUE,Pay Utility,254717726012 - WINFRED MUENI PETER,,IDA
QK111Y5YMZ,01/11/2022 15:50,01/11/2022 15:50,Pay Bill from 254723389177 - NELSON MOI Acc. ibf,Completed,7000,,86000,TRUE,Pay Utility,254723389177 - NELSON MOI,,ibf
QK151UXBVT,01/11/2022 15:11,01/11/2022 15:11,Pay Bill from 254798643998 - Judith Mwaniki Acc. kce,Completed,10000,,79000,TRUE,Pay Utility,254798643998 - Judith Mwaniki,,kce
QK141N3STA,01/11/2022 13:35,01/11/2022 13:35,Pay Bill from 254725771056 - CHARLES MURAGURI Acc. FCE,Completed,15000,,69000,TRUE,Pay Utility,254725771056 - CHARLES MURAGURI,,FCE
QK191LUHLT,01/11/2022 13:20,01/11/2022 13:20,Pay Bill from 254717148989 - ALLAN MUTHONI Acc. HAC,Completed,10000,,54000,TRUE,Pay Utility,254717148989 - ALLAN MUTHONI,,HAC
QK101D99US,01/11/2022 11:29,01/11/2022 11:29,Pay Bill from 0700221720 - Eunice Nasimiyu Webwana Acc. KAE,Completed,5000,,44000,TRUE,Pay Utility,0700221720 - Eunice Nasimiyu Webwana,,KAE
QK171AFCQ3,01/11/2022 10:53,01/11/2022 10:53,Pay Bill Online from 254728055159 - LEE NDUATI FRANCIS Acc. FEF,Completed,16000,,39000,TRUE,Pay Bill Online,254728055159 - LEE NDUATI FRANCIS,,FEF
QK12173UVA,01/11/2022 10:09,01/11/2022 10:09,Pay Bill Online from 254742911013 - HANEST AMIMO Acc. IEG,Completed,8000,,23000,TRUE,Pay Bill Online,254742911013 - HANEST AMIMO,,IEG
QK17120JMD,01/11/2022 08:59,01/11/2022 08:59,Pay Bill Online from 254721663113 - BEATRICE KIMINZA MUNYOKI Acc. KEJ,Completed,15000,,15000,TRUE,Pay Bill Online,254721663113 - BEATRICE KIMINZA MUNYOKI,,KEJ
QK17ZWC2WJ,01/11/2022 07:30,01/11/2022 07:30,Utility Account to Organization Settlement Account,Completed,,-317500,0,TRUE,Utility Account to Organization Settlement Account,979524 - ANCIENT WELLS PROPERTY MANAGERS 2,,
QK14ZW5SUE,01/11/2022 07:26,01/11/2022 07:26,Pay Bill from 254711650034 - Lucky Ngoya Acc. JAA,Completed,20000,,317500,TRUE,Pay Utility,254711650034 - Lucky Ngoya,,JAA
QK17ZS5BZX,01/11/2022 03:43,01/11/2022 03:43,Pay Bill from 254716702294 - DANIEL MULATI Acc. KBB,Completed,11000,,297500,TRUE,Pay Utility,254716702294 - DANIEL MULATI,,KBB
