Receipt No.,Completion Time,Initiation Time,Details,Transaction Status,Paid In,Withdrawn,Balance,Balance Confirmed,Reason Type,Other Party Info,Linked Transaction ID,A/C No.
QHI8EUTTPG,18/08/2022 17:48,18/08/2022 17:48,Pay Bill from 254719779657 - SAMUEL NJOROGE Acc. JGA,Completed,4600,,10200,TRUE,Pay Utility with OD via STK,254719779657 - SAMUEL NJOROGE,,JGA
QHI7E1ZXCH,18/08/2022 11:04,18/08/2022 11:04,Pay Bill from 254716706497 - ALIS OKENO Acc. IEE,Completed,1000,,5600,TRUE,Pay Utility,254716706497 - ALIS OKENO,,IEE
QHI7DO9W0T,18/08/2022 06:44,18/08/2022 06:44,Pay Bill from 254710381003 - ALFRED KISHOIN Acc. DAB,Completed,2000,,4600,TRUE,Pay Utility,254710381003 - ALFRED KISHOIN,,DAB
QHH5DAI3JR,17/08/2022 19:59,17/08/2022 19:59,Pay Bill from 254720814822 - JAMES OTIENO OPAR Acc. Jgj,Completed,700,,2600,TRUE,Pay Utility,254720814822 - JAMES OTIENO OPAR,,Jgj
QHH1D5UQ9D,17/08/2022 19:15,17/08/2022 19:15,Pay Bill from 254792601532 - ABDULLAHI ISACK BANTE Acc.   KBF,Completed,1000,,1900,TRUE,Pay Utility,254792601532 - ABDULLAHI ISACK BANTE,,
QHH5D1HJG9,17/08/2022 18:35,17/08/2022 18:35,Pay Bill from 254723295023 - Murugan Achudhanantham Acc. HBA,Completed,600,,900,TRUE,Pay Utility,254723295023 - Murugan Achudhanantham,,HBA
QHG7BOBBHD,16/08/2022 22:52,16/08/2022 22:52,Pay Bill from 254720739274 - GODFREY ODHIAMBO OYUGI Acc. kae,Completed,300,,300,TRUE,Pay Utility,254720739274 - GODFREY ODHIAMBO OYUGI,,kae
QHG4BFTM5C,16/08/2022 20:08,16/08/2022 20:08,Utility Account to Organization Settlement Account,Completed,,-3200,0,TRUE,Utility Account to Organization Settlement Account,846783 - ANCIENT WELLS LTD 4,,
QHG8ASUJU6,16/08/2022 15:35,16/08/2022 15:35,Pay Bill from 254722746480 - PATRICK OPEYWA AURA Acc. KGH,Completed,1000,,3200,TRUE,Pay Utility,254722746480 - PATRICK OPEYWA AURA,,KGH
QHG0ALNEPC,16/08/2022 13:43,16/08/2022 13:43,Pay Bill Online from 254725381062 - VICTOR MAITHYA Acc. HEG,Completed,1200,,2200,TRUE,Pay Bill Online,254725381062 - VICTOR MAITHYA,,HEG
QHG9AJYUDX,16/08/2022 13:18,16/08/2022 13:18,Pay Bill from 254722706516 - KORIR ANTHONY Acc. Anthony D 3,Completed,200,,1000,TRUE,Pay Utility,254722706516 - KORIR ANTHONY,,Anthony
QHF39SC8LF,15/08/2022 21:05,15/08/2022 21:05,Pay Bill from 254704140048 - MAUREEN GACHERI KINYUA Acc. JDD,Completed,800,,800,TRUE,Pay Utility with OD via STK,254704140048 - MAUREEN GACHERI KINYUA,,JDD
QHF58WANCP,15/08/2022 13:26,15/08/2022 13:26,Utility Account to Organization Settlement Account,Completed,,-7900,0,TRUE,Utility Account to Organization Settlement Account,846783 - ANCIENT WELLS LTD 4,,
QHF28KHOZ8,15/08/2022 10:26,15/08/2022 10:26,Pay Bill from 254704551142 - KEVIN MORGAN MUTWIRI Acc. V25,Completed,200,,7900,TRUE,Pay Utility,254704551142 - KEVIN MORGAN MUTWIRI,,V25
QHF189N9TD,15/08/2022 05:53,15/08/2022 05:53,Pay Bill Online from 254713443185 - FRANCIS ODHIAMBO SALU Acc. HGD,Completed,500,,7700,TRUE,Pay Utility with OD Online,254713443185 - FRANCIS ODHIAMBO SALU,,HGD
QHE86V5SJE,14/08/2022 10:27,14/08/2022 10:27,Pay Bill from 0799798223 - JOHN OLOO NYAULA Acc. IEH,Completed,200,,7200,TRUE,Pay Utility,0799798223 - JOHN OLOO NYAULA,,IEH
QHE76MSQM3,14/08/2022 07:22,14/08/2022 07:22,Pay Bill Online from 254721714178 - PHANICE JEROTICH KIPTOO Acc. FBF,Completed,400,,7000,TRUE,Pay Bill Online,254721714178 - PHANICE JEROTICH KIPTOO,,FBF
QHD85Q0TXK,13/08/2022 16:43,13/08/2022 16:43,Pay Bill Online from 254706898046 - STACY AKETCH OCHUKA Acc. KGK,Completed,2000,,6600,TRUE,Pay Bill Online,254706898046 - STACY AKETCH OCHUKA,,KGK
QHD95HKXBX,13/08/2022 14:49,13/08/2022 14:49,Pay Bill from 254724423882 - JOEL GICHURI KARANJA Acc. fee,Completed,1800,,4600,TRUE,Pay Utility,254724423882 - JOEL GICHURI KARANJA,,fee
QHD34XL4AL,13/08/2022 09:48,13/08/2022 09:48,Pay Bill from 254726636196 - BETHUEL KEMBOI KURUI Acc. JFD,Completed,200,,2800,TRUE,Pay Utility,254726636196 - BETHUEL KEMBOI KURUI,,JFD
QHD74SOOVV,13/08/2022 08:12,13/08/2022 08:12,Pay Bill from 254715636579 - GRACE KALUKI MULI Acc. fda,Completed,600,,2600,TRUE,Pay Utility,254715636579 - GRACE KALUKI MULI,,fda
QHD04NUQZ2,13/08/2022 00:01,13/08/2022 00:01,Pay Bill from 254725539787 - EVERLYNE MOGAKA Acc. KEF,Completed,600,,2000,TRUE,Pay Utility,254725539787 - EVERLYNE MOGAKA,,KEF
QHC84J773S,12/08/2022 21:27,12/08/2022 21:27,Pay Bill from 254740579741 - MUHINDI MULINYA Acc. HGG,Completed,800,,1400,TRUE,Pay Utility,254740579741 - MUHINDI MULINYA,,HGG
QHC142SHRD,12/08/2022 18:19,12/08/2022 18:19,Pay Bill from 254720230582 - SHADRACK KITAKA NGILA Acc. hse,Completed,600,,600,TRUE,Pay Utility,254720230582 - SHADRACK KITAKA NGILA,,hse
QHC240OJ0U,12/08/2022 17:56,12/08/2022 17:56,Utility Account to Organization Settlement Account,Completed,,-9400,0,TRUE,Utility Account to Organization Settlement Account,846783 - ANCIENT WELLS LTD 4,,
QHC43ZRHOI,12/08/2022 17:45,12/08/2022 17:45,Pay Bill from 254798844460 - WYCLIFFE ODHIAMBO NYAGOA Acc. KAC,Completed,200,,9400,TRUE,Pay Utility,254798844460 - WYCLIFFE ODHIAMBO NYAGOA,,KAC
QHC43SDZCS,12/08/2022 16:10,12/08/2022 16:10,Pay Bill from 254793009147 - Maria John Acc. FAF,Completed,1600,,9200,TRUE,Pay Utility,254793009147 - Maria John,,FAF
QHC035WLSQ,12/08/2022 10:27,12/08/2022 10:27,Pay Bill Online from 254720107609 - DENNIS OGENDI BARAKE Acc. JAJ,Completed,800,,7600,TRUE,Pay Bill Online,254720107609 - DENNIS OGENDI BARAKE,,JAJ
QHC635ASXC,12/08/2022 10:17,12/08/2022 10:17,Pay Bill from 254798524621 - MERCY CHESANG Acc. jcj,Completed,2200,,6800,TRUE,Pay Utility,254798524621 - MERCY CHESANG,,jcj
QHC72YHKTP,12/08/2022 08:08,12/08/2022 08:08,Pay Bill Online from 254799863492 - HIRANI MULJI Acc. JDB,Completed,1000,,4600,TRUE,Pay Bill Online,254799863492 - HIRANI MULJI,,JDB
QHC72VWBPV,12/08/2022 06:36,12/08/2022 06:36,Pay Bill from 254700198550 - BENARD ONYANGO Acc. DBB,Completed,1200,,3600,TRUE,Pay Utility,254700198550 - BENARD ONYANGO,,DBB
QHB422K5WS,11/08/2022 16:39,11/08/2022 16:39,Pay Bill from 254714597495 - WAMBUA KIOKO Acc. c1,Completed,1000,,2400,TRUE,Pay Utility,254714597495 - WAMBUA KIOKO,,c1
QHB61Y1S98,11/08/2022 15:31,11/08/2022 15:31,Pay Bill from 254728084427 - MARY NABWIRE OKELLO Acc. FDF,Completed,1400,,1400,TRUE,Pay Utility,254728084427 - MARY NABWIRE OKELLO,,FDF
QHB41KQDSQ,11/08/2022 12:04,11/08/2022 12:04,Utility Account to Organization Settlement Account,Completed,,-4200,0,TRUE,Utility Account to Organization Settlement Account,846783 - ANCIENT WELLS LTD 4,,
QHB91BCB59,11/08/2022 09:26,11/08/2022 09:26,Pay Bill from 254703573478 - ANTONY MAINA GICHINA Acc. Gichina A5,Completed,1000,,4200,TRUE,Pay Utility,254703573478 - ANTONY MAINA GICHINA,,Gichina
QHA9ZFU0NV,10/08/2022 17:27,10/08/2022 17:27,Pay Bill Online from 254742911013 - HANEST AMIMO Acc. IEG,Completed,600,,3200,TRUE,Pay Bill Online,254742911013 - HANEST AMIMO,,IEG
QHA8ZF33KM,10/08/2022 17:17,10/08/2022 17:17,Pay Bill from 254717801919 - MARCELINE AKINYI Acc. IAF,Completed,200,,2600,TRUE,Pay Utility with OD via STK,254717801919 - MARCELINE AKINYI,,IAF
QHA7Z5LFE7,10/08/2022 14:49,10/08/2022 14:49,Pay Bill Online from 254706549634 - CLINTON OMBASA Acc. FDB,Completed,1000,,2400,TRUE,Pay Bill Online,254706549634 - CLINTON OMBASA,,FDB
QHA7Z15A1P,10/08/2022 13:36,10/08/2022 13:36,Pay Bill from 0769118645 - kennedy kipkurui korir Acc. IGC,Completed,400,,1400,TRUE,Pay Utility,0769118645 - kennedy kipkurui korir,,IGC
QHA6YV0SC6,10/08/2022 11:57,10/08/2022 11:57,Pay Bill Online from 254722604851 - WILFRED SAKWA Acc. KEJ,Completed,1000,,1000,TRUE,Pay Bill Online,254722604851 - WILFRED SAKWA,,KEJ
QHA3YPUM4N,10/08/2022 10:29,10/08/2022 10:29,Utility Account to Organization Settlement Account,Completed,,-29400,0,TRUE,Utility Account to Organization Settlement Account,846783 - ANCIENT WELLS LTD 4,,
QHA4YJNFVM,10/08/2022 08:27,10/08/2022 08:27,Pay Bill from 254708570729 - MARY OGOLLA Acc. HOUSE KAD ,Completed,800,,29400,TRUE,Pay Utility,254708570729 - MARY OGOLLA,,HOUSE
QH92Y2LIHA,09/08/2022 19:36,09/08/2022 19:36,Pay Bill from 0708931111 - NJENGA   KURIA Acc. kca,Completed,600,,28600,TRUE,Pay Utility,0708931111 - NJENGA   KURIA,,kca
QH91XXJO4N,09/08/2022 18:38,09/08/2022 18:38,Pay Bill Online from 254722769473 - SAMSON CHALO Acc. IAB,Completed,800,,28000,TRUE,Pay Bill Online,254722769473 - SAMSON CHALO,,IAB
QH91XB01MJ,09/08/2022 12:29,09/08/2022 12:29,FSI to Pay Bill by 998094 - COOP TO PAYBILL Acc. KDH via WEB by COOP TO PAYBILL\COOPAYBILLTRNS,Completed,600,,27200,TRUE,FSI to Pay Bill via API,998094 - COOP TO PAYBILL,,KDH
QH98X8G858,09/08/2022 11:41,09/08/2022 11:41,Pay Bill Online from 254722728975 - CURTIS MRIGA OMIDO Acc. IAH,Completed,600,,26600,TRUE,Pay Bill Online,254722728975 - CURTIS MRIGA OMIDO,,IAH
QH93X7KV9X,09/08/2022 11:24,09/08/2022 11:24,Pay Bill Online from 254710382992 - SIMON KAMAU MUIRURI Acc. JCD,Completed,1200,,26000,TRUE,Pay Utility with OD Online,254710382992 - SIMON KAMAU MUIRURI,,JCD
QH93WYZJS5,09/08/2022 08:21,09/08/2022 08:21,Pay Bill Online from 254716702294 - DANIEL MULATI Acc. KBB,Completed,1600,,24800,TRUE,Pay Bill Online,254716702294 - DANIEL MULATI,,KBB
QH85WJBK2V,08/08/2022 20:39,08/08/2022 20:39,Pay Bill from 0112733151 - Steven Oduor Ogutu Acc. KTA,Completed,800,,23200,TRUE,Pay Utility,0112733151 - Steven Oduor Ogutu,,KTA
QH89WF28MP,08/08/2022 19:55,08/08/2022 19:55,Pay Bill Online from 254726292792 - PHILIP MIANO Acc. JEI,Completed,20000,,22400,TRUE,Pay Bill Online,254726292792 - PHILIP MIANO,,JEI
QH87VYH8Q1,08/08/2022 17:14,08/08/2022 17:14,Pay Bill from 254722136450 - MARY EVERLYN Acc. JAI,Completed,600,,2400,TRUE,Pay Utility,254722136450 - MARY EVERLYN,,JAI
QH85VVDRR1,08/08/2022 16:37,08/08/2022 16:37,Pay Bill from 254712283818 - OYUGI OCHIENG Acc. FCB,Completed,1800,,1800,TRUE,Pay Utility,254712283818 - OYUGI OCHIENG,,FCB
QH84VII5RA,08/08/2022 13:52,08/08/2022 13:52,Utility Account to Organization Settlement Account,Completed,,-27650,0,TRUE,Utility Account to Organization Settlement Account,846783 - ANCIENT WELLS LTD 4,,
QH84V75EIO,08/08/2022 11:22,08/08/2022 11:22,Pay Bill from 254723411873 - FREDRICK CHERUIYOT Acc. jbf,Completed,200,,27650,TRUE,Pay Utility,254723411873 - FREDRICK CHERUIYOT,,jbf
QH86V6WLQK,08/08/2022 11:18,08/08/2022 11:18,Pay Bill from 254721974995 - BERNICE MANGOKA Acc. KFK,Completed,800,,27450,TRUE,Pay Utility,254721974995 - BERNICE MANGOKA,,KFK
QH87V0G4PB,08/08/2022 09:47,08/08/2022 09:47,Pay Bill from 0114045180 - JOHN MULIMA ENANE Acc. HCE,Completed,550,,26650,TRUE,Pay Utility,0114045180 - JOHN MULIMA ENANE,,HCE
QH87V0DJPJ,08/08/2022 09:46,08/08/2022 09:46,Pay Bill from 254741223822 - Rhoyce Kiptarus Boiyo Acc. FEC,Completed,800,,26100,TRUE,Pay Utility,254741223822 - Rhoyce Kiptarus Boiyo,,FEC
QH89UV1J03,08/08/2022 08:17,08/08/2022 08:17,Pay Bill from 254722458136 - NADI GOLICHA Acc. JEA,Completed,6200,,25300,TRUE,Pay Utility,254722458136 - NADI GOLICHA,,JEA
QH82USTHLC,08/08/2022 07:27,08/08/2022 07:27,Pay Bill from 254713229967 - John Mugabo Simba Acc. E4,Completed,200,,19100,TRUE,Pay Utility,254713229967 - John Mugabo Simba,,E4
QH85UPQBCV,08/08/2022 00:55,08/08/2022 00:55,Pay Bill Online from 254729097858 - AMBROSE ADEYA AHAWO Acc. KCF,Completed,800,,18900,TRUE,Pay Bill Online,254729097858 - AMBROSE ADEYA AHAWO,,KCF
QH78ULXHWU,07/08/2022 22:03,07/08/2022 22:03,Pay Bill from 254718818610 - HANNAH NALIAKA Acc. V23,Completed,400,,18100,TRUE,Pay Utility,254718818610 - HANNAH NALIAKA,,V23
QH75ULBACB,07/08/2022 21:50,07/08/2022 21:50,Pay Bill Online from 254795534849 - PURITY NJERU Acc. feb,Completed,400,,17700,TRUE,Pay Bill Online,254795534849 - PURITY NJERU,,feb
QH73U90QT9,07/08/2022 19:19,07/08/2022 19:19,Pay Bill from 254723017892 - JUDY MUTHEU Acc. ICI,Completed,600,,17300,TRUE,Pay Utility with OD via STK,254723017892 - JUDY MUTHEU,,ICI
QH74U89X3G,07/08/2022 19:12,07/08/2022 19:12,Pay Bill Online from 254700379039 - MARTIN KIMANI Acc. KCI,Completed,1000,,16700,TRUE,Pay Bill Online,254700379039 - MARTIN KIMANI,,KCI
QH75U7MZ2J,07/08/2022 19:06,07/08/2022 19:06,Pay Bill Online from 254724821898 - ALLAN GISONI NYANGARESI Acc. DBA,Completed,600,,15700,TRUE,Pay Bill Online,254724821898 - ALLAN GISONI NYANGARESI,,DBA
QH73U43VCN,07/08/2022 18:28,07/08/2022 18:28,Pay Bill from 254702346515 - ELIZABETH ACHIENG NGOME Acc. KDE,Completed,200,,15100,TRUE,Pay Utility,254702346515 - ELIZABETH ACHIENG NGOME,,KDE
QH78U1L1PU,07/08/2022 18:00,07/08/2022 18:00,Pay Bill from 254721539716 - OCTAVIAN MWANYALO Acc. C6,Completed,400,,14900,TRUE,Pay Utility,254721539716 - OCTAVIAN MWANYALO,,C6
QH75TQ7RZB,07/08/2022 15:31,07/08/2022 15:31,Pay Bill from 0706563358 - HARRIET NYANCHAMA NYABERI Acc. FCC,Completed,400,,14500,TRUE,Pay Utility,0706563358 - HARRIET NYANCHAMA NYABERI,,FCC
QH70TJ9TDQ,07/08/2022 13:55,07/08/2022 13:55,Pay Bill Online from 254718138578 - PAULINE KIOKO Acc. KFD,Completed,600,,14100,TRUE,Pay Bill Online,254718138578 - PAULINE KIOKO,,KFD
QH75TE2F73,07/08/2022 12:35,07/08/2022 12:35,Pay Bill from 254728238249 - ESTHER WANGUI KIBUNYI Acc. ICA,Completed,2000,,13500,TRUE,Pay Utility,254728238249 - ESTHER WANGUI KIBUNYI,,ICA
QH74TD0NCM,07/08/2022 12:18,07/08/2022 12:18,Pay Bill Online from 254720381965 - JAMES NGUGI MWANIKI Acc. jbi,Completed,3200,,11500,TRUE,Pay Bill Online,254720381965 - JAMES NGUGI MWANIKI,,jbi
QH76T9WPFG,07/08/2022 11:26,07/08/2022 11:26,Pay Bill from 0758457508 - PETER KINGORI KAGUNDA Acc. V06,Completed,200,,8300,TRUE,Pay Utility,0758457508 - PETER KINGORI KAGUNDA,,V06
QH77T7H1FD,07/08/2022 10:45,07/08/2022 10:45,Pay Bill from 254726599835 - LAWRENCE MURIITHI Acc. kdj,Completed,1000,,8100,TRUE,Pay Utility,254726599835 - LAWRENCE MURIITHI,,kdj
QH78T1LUFM,07/08/2022 09:04,07/08/2022 09:04,Pay Bill Online from 0796121714 - janet   mwikali Acc. KBC,Completed,600,,7100,TRUE,Pay Bill Online,0796121714 - janet   mwikali,,KBC
QH74T1GOKY,07/08/2022 09:01,07/08/2022 09:01,Pay Bill from 254723328258 - SAMUEL MAINA MURIUKI Acc. IFE,Completed,200,,6500,TRUE,Pay Utility,254723328258 - SAMUEL MAINA MURIUKI,,IFE
QH78SZU956,07/08/2022 08:30,07/08/2022 08:30,Pay Bill Online from 254728780393 - DINAH ONGIRI Acc. V39,Completed,500,,6300,TRUE,Pay Bill Online,254728780393 - DINAH ONGIRI,,V39
QH77SYR913,07/08/2022 08:08,07/08/2022 08:08,Pay Bill from 254726465584 - JULIANA MUKELI MUTUNGA Acc. 846783,Completed,400,,5800,TRUE,Pay Utility,254726465584 - JULIANA MUKELI MUTUNGA,,846783
QH66SRWASG,06/08/2022 23:09,06/08/2022 23:09,Pay Bill from 0717216114 - Felix Njeru Mugambi Acc. kdf,Completed,1000,,5400,TRUE,Pay Utility,0717216114 - Felix Njeru Mugambi,,kdf
QH62SPGNP0,06/08/2022 22:09,06/08/2022 22:09,Pay Bill from 254725111246 - FRANCIS MUUTU MWANGANGI Acc. IGI,Completed,400,,4400,TRUE,Pay Utility,254725111246 - FRANCIS MUUTU MWANGANGI,,IGI
QH62SO9EUM,06/08/2022 21:50,06/08/2022 21:50,Pay Bill from 254796069018 - PEACE KIMEU Acc. JAH,Completed,1800,,4000,TRUE,Pay Utility,254796069018 - PEACE KIMEU,,JAH
QH67SM93CD,06/08/2022 21:20,06/08/2022 21:20,Pay Bill from 254718253322 - DUNCAN MOCHOGE Acc. JFJ,Completed,1000,,2200,TRUE,Pay Utility,254718253322 - DUNCAN MOCHOGE,,JFJ
QH62SLY50Y,06/08/2022 21:16,06/08/2022 21:16,Pay Bill Online from 254718233980 - KAREN ASWANI Acc. HEC,Completed,400,,1200,TRUE,Pay Utility with OD Online,254718233980 - KAREN ASWANI,,HEC
QH61SKVW2X,06/08/2022 21:02,06/08/2022 21:02,Pay Bill from 0717042461 - Sharon Nyangasi Shivachi Acc. V55 ,Completed,200,,800,TRUE,Pay Utility,0717042461 - Sharon Nyangasi Shivachi,,V55
QH68SEHA0O,06/08/2022 19:55,06/08/2022 19:55,Pay Bill Online from 254708300413 - ROBINSON AYAKO Acc. KEH,Completed,600,,600,TRUE,Pay Bill Online,254708300413 - ROBINSON AYAKO,,KEH
QH62S5SPUG,06/08/2022 18:37,06/08/2022 18:37,Utility Account to Organization Settlement Account,Completed,,-36900,0,TRUE,Utility Account to Organization Settlement Account,846783 - ANCIENT WELLS LTD 4,,
QH60S1A0LU,06/08/2022 17:50,06/08/2022 17:50,Pay Bill Online from 254725909984 - TIMOTHY ODHIAMBO OWITI Acc. jde,Completed,1000,,36900,TRUE,Pay Utility with OD Online,254725909984 - TIMOTHY ODHIAMBO OWITI,,jde
QH61RW427J,06/08/2022 16:50,06/08/2022 16:50,Pay Bill from 254729541871 - ROBERT KULEI Acc. JAB,Completed,800,,35900,TRUE,Pay Utility,254729541871 - ROBERT KULEI,,JAB
QH61RR6NLR,06/08/2022 15:49,06/08/2022 15:49,Pay Bill from 254710635630 - DONNA JESSICA OWANO Acc. KCC,Completed,1400,,35100,TRUE,Pay Utility,254710635630 - DONNA JESSICA OWANO,,KCC
QH60RLTIRI,06/08/2022 14:38,06/08/2022 14:38,Pay Bill Online from 254720451253 - JIMMY KIOGORA NKIROTE Acc. kbd,Completed,600,,33700,TRUE,Pay Bill Online,254720451253 - JIMMY KIOGORA NKIROTE,,kbd
QH69RGNVED,06/08/2022 13:33,06/08/2022 13:33,Pay Bill Online from 254703176849 - ROYAL MUYA Acc. F2,Completed,400,,33100,TRUE,Pay Bill Online,254703176849 - ROYAL MUYA,,F2
QH61RFEELF,06/08/2022 13:17,06/08/2022 13:17,Pay Bill from 254723929380 - RHODAH K WAMBUA Acc. HEF,Completed,1200,,32700,TRUE,Pay Utility,254723929380 - RHODAH K WAMBUA,,HEF
QH65RCZII5,06/08/2022 12:45,06/08/2022 12:45,Pay Bill Online from 254706144834 - WILKISTER OSUMO Acc. HFB,Completed,1000,,31500,TRUE,Pay Bill Online,254706144834 - WILKISTER OSUMO,,HFB
QH61RCJHYR,06/08/2022 12:39,06/08/2022 12:39,Pay Bill Online from 254710732381 - JANE ACHIENG MBEKE Acc. HAF,Completed,200,,30500,TRUE,Pay Bill Online,254710732381 - JANE ACHIENG MBEKE,,HAF
QH68RBZK6E,06/08/2022 12:32,06/08/2022 12:32,Pay Bill from 254722826454 - CHARLES KARIMI MAITAI Acc. KDC,Completed,1600,,30300,TRUE,Pay Utility,254722826454 - CHARLES KARIMI MAITAI,,KDC
QH66RBWU7E,06/08/2022 12:31,06/08/2022 12:31,Pay Bill from 0711769778 - PROTASIA BONIPHACE MANOSA Acc. IBB,Completed,1200,,28700,TRUE,Pay Utility,0711769778 - PROTASIA BONIPHACE MANOSA,,IBB
QH65R8RPTJ,06/08/2022 11:50,06/08/2022 11:50,Pay Bill from 254728670882 - SHARAD EDWARD ADALA OLUM Acc. KCK,Completed,2800,,27500,TRUE,Pay Utility,254728670882 - SHARAD EDWARD ADALA OLUM,,KCK
QH62R6SBAK,06/08/2022 11:24,06/08/2022 11:24,Pay Bill Online from 0757699775 - BENARD MUIA MUTUA Acc. HCB,Completed,1600,,24700,TRUE,Pay Bill Online,0757699775 - BENARD MUIA MUTUA,,HCB
QH66R6MDT4,06/08/2022 11:21,06/08/2022 11:21,Pay Bill from 254703555717 - SENGA SALIM Acc. hbb,Completed,500,,23100,TRUE,Pay Utility,254703555717 - SENGA SALIM,,hbb
QH66R5PRWA,06/08/2022 11:09,06/08/2022 11:09,Pay Bill Online from 254795510441 - LEWIS MUEMA Acc. KEB,Completed,400,,22600,TRUE,Pay Bill Online,254795510441 - LEWIS MUEMA,,KEB
QH62R3JSWS,06/08/2022 10:40,06/08/2022 10:40,Pay Bill from 254706427665 - CHRIS KIRIMI Acc. v22,Completed,100,,22200,TRUE,Pay Utility,254706427665 - CHRIS KIRIMI,,v22
QH63R3JMFH,06/08/2022 10:40,06/08/2022 10:40,Pay Bill from 254721780448 - EVERLYNE MIDEVA CHOGO Acc. JCA,Completed,2000,,22100,TRUE,Pay Utility,254721780448 - EVERLYNE MIDEVA CHOGO,,JCA
QH69R3IQZP,06/08/2022 10:40,06/08/2022 10:40,Pay Bill Online from 254728897908 - Teddy Allan Onyango Acc. DDD,Completed,2200,,20100,TRUE,Pay Bill Online,254728897908 - Teddy Allan Onyango,,DDD
QH68R3DZPK,06/08/2022 10:38,06/08/2022 10:38,Pay Bill from 254790128716 - HELLEN NAPHTAL Acc. V11,Completed,200,,17900,TRUE,Pay Utility,254790128716 - HELLEN NAPHTAL,,V11
QH63R397MZ,06/08/2022 10:36,06/08/2022 10:36,Pay Bill Online from 0791992967 - JOCELYN AKINYI ODONGO Acc. V47,Completed,600,,17700,TRUE,Pay Bill Online,0791992967 - JOCELYN AKINYI ODONGO,,V47
QH68R3410S,06/08/2022 10:34,06/08/2022 10:34,Pay Bill from 254706427665 - CHRIS KIRIMI Acc. v22,Completed,100,,17100,TRUE,Pay Utility,254706427665 - CHRIS KIRIMI,,v22
QH63R30NO1,06/08/2022 10:33,06/08/2022 10:33,Pay Bill Online from 254714596677 - IMMANUEL BARBOI Acc. KAI,Completed,800,,17000,TRUE,Pay Bill Online,254714596677 - IMMANUEL BARBOI,,KAI
QH61R2WYGZ,06/08/2022 10:31,06/08/2022 10:31,Pay Bill from 0721130307 - HILLARY NGUNYI MUTINDA Acc. JCH,Completed,1200,,16200,TRUE,Pay Utility,0721130307 - HILLARY NGUNYI MUTINDA,,JCH
QH69R2V531,06/08/2022 10:30,06/08/2022 10:30,Pay Bill from 254701006375 - EZRA MAKORI SERETI Acc. HTA,Completed,200,,15000,TRUE,Pay Utility,254701006375 - EZRA MAKORI SERETI,,HTA
QH69R2PN5R,06/08/2022 10:28,06/08/2022 10:28,Pay Bill Online from 254728093389 - MOHAMED MUSA ALASOW Acc. KED,Completed,400,,14800,TRUE,Pay Bill Online,254728093389 - MOHAMED MUSA ALASOW,,KED
QH65R2KC7H,06/08/2022 10:26,06/08/2022 10:26,Pay Bill Online from 254715764212 - BANCE ISHEMINYE Acc. JFE,Completed,300,,14400,TRUE,Pay Bill Online,254715764212 - BANCE ISHEMINYE,,JFE
QH61R2BJXJ,06/08/2022 10:23,06/08/2022 10:23,Pay Bill from 254700290755 - MERCY GOGA Acc. FDD,Completed,600,,14100,TRUE,Pay Utility,254700290755 - MERCY GOGA,,FDD
QH65R279BT,06/08/2022 10:21,06/08/2022 10:21,Pay Bill Online from 254715002789 - ERICK NGUGI MAINA Acc. HAG,Completed,1600,,13500,TRUE,Pay Bill Online,254715002789 - ERICK NGUGI MAINA,,HAG
QH69R25EIX,06/08/2022 10:21,06/08/2022 10:21,Pay Bill from 0724386624 - FATUMA ISSE YUSSUF Acc. FAB,Completed,1000,,11900,TRUE,Pay Utility with OD via STK,0724386624 - FATUMA ISSE YUSSUF,,FAB
QH66R1EMXO,06/08/2022 10:10,06/08/2022 10:10,Pay Bill from 254729160700 - MICAH NDUNGI Acc. HFE,Completed,200,,10900,TRUE,Pay Utility,254729160700 - MICAH NDUNGI,,HFE
QH66R155TY,06/08/2022 10:06,06/08/2022 10:06,Pay Bill from 254703108159 - JOICE OGOLLA Acc. V50,Completed,400,,10700,TRUE,Pay Utility,254703108159 - JOICE OGOLLA,,V50
QH65R0N66N,06/08/2022 09:59,06/08/2022 09:59,Pay Bill Online from 254718663397 - JIMMY MUNYAO NZIOKI Acc. DCB,Completed,800,,10300,TRUE,Pay Bill Online,254718663397 - JIMMY MUNYAO NZIOKI,,DCB
QH67QZJ86X,06/08/2022 09:43,06/08/2022 09:43,Pay Bill from 254743243622 - fridah waeni muithya Acc. JEH,Completed,2000,,9500,TRUE,Pay Utility,254743243622 - fridah waeni muithya,,JEH
QH60QTO9XO,06/08/2022 08:09,06/08/2022 08:09,Pay Bill from 254706859500 - JULIA NJAMBI WAINAINA Acc. u2u4,Completed,1800,,7500,TRUE,Pay Utility,254706859500 - JULIA NJAMBI WAINAINA,,u2u4
QH56QMJ5H2,05/08/2022 23:39,05/08/2022 23:39,Pay Bill from 254725749776 - BEN KORIR Acc. IDF,Completed,500,,5700,TRUE,Pay Utility with OD via STK,254725749776 - BEN KORIR,,IDF
QH57Q1M55N,05/08/2022 19:05,05/08/2022 19:05,Pay Bill from 254720201157 - BENSON INYANJE MWAKHA Acc. b6,Completed,400,,5200,TRUE,Pay Utility,254720201157 - BENSON INYANJE MWAKHA,,b6
QH57Q1KR7B,05/08/2022 19:04,05/08/2022 19:04,Pay Bill Online from 254721465713 - RHODA WAMBUI MWANGI Acc. Jfh,Completed,1000,,4800,TRUE,Pay Bill Online,254721465713 - RHODA WAMBUI MWANGI,,Jfh
QH56PWVPHQ,05/08/2022 18:22,05/08/2022 18:22,Pay Bill from 254729355933 - FELISTAH NJERI WAIRIMU Acc. IDI,Completed,2000,,3800,TRUE,Pay Utility with OD via STK,254729355933 - FELISTAH NJERI WAIRIMU,,IDI
QH57PSW9LR,05/08/2022 17:42,05/08/2022 17:42,Pay Bill from 254720466443 - FATUMA MOHAMED ABDALLAH Acc. V21,Completed,200,,1800,TRUE,Pay Utility,254720466443 - FATUMA MOHAMED ABDALLAH,,V21
QH50PQOOAQ,05/08/2022 17:18,05/08/2022 17:18,Pay Bill from 254725478531 - KIPKORIR KUTO Acc. DFB,Completed,600,,1600,TRUE,Pay Utility,254725478531 - KIPKORIR KUTO,,DFB
QH52PHPKOG,05/08/2022 15:30,05/08/2022 15:30,Pay Bill from 0114093036 - Cecillia Njeri Githui Acc. C3,Completed,400,,1000,TRUE,Pay Utility,0114093036 - Cecillia Njeri Githui,,C3
QH54P1P77Y,05/08/2022 12:03,05/08/2022 12:03,Pay Bill from 254723815832 - SEMEKIA ONDIALA Acc. V38,Completed,600,,600,TRUE,Pay Utility,254723815832 - SEMEKIA ONDIALA,,V38
QH57OR0N6R,05/08/2022 09:37,05/08/2022 09:37,Utility Account to Organization Settlement Account,Completed,,-54900,0,TRUE,Utility Account to Organization Settlement Account,846783 - ANCIENT WELLS LTD 4,,
QH56ONNY2K,05/08/2022 08:45,05/08/2022 08:45,Pay Bill from 0791565463 - Lilian Njeri Wakagwi Acc. F6,Completed,400,,54900,TRUE,Pay Utility with OD via STK,0791565463 - Lilian Njeri Wakagwi,,F6
QH58OG64Q2,05/08/2022 01:13,05/08/2022 01:13,Pay Bill from 254708875278 - ROSEMARY WANJIRU KONYE Acc. HBF,Completed,400,,54500,TRUE,Pay Utility,254708875278 - ROSEMARY WANJIRU KONYE,,HBF
QH43OEJIXP,04/08/2022 23:09,04/08/2022 23:09,Pay Bill from 254700557767 - BAKHITA MWENDE MUANGE Acc. kcb,Completed,1000,,54100,TRUE,Pay Utility,254700557767 - BAKHITA MWENDE MUANGE,,kcb
QH40O1ER72,04/08/2022 19:57,04/08/2022 19:57,Pay Bill Online from 254714536026 - LILIAN AWUOR ONYANGO Acc. HDC,Completed,400,,53100,TRUE,Pay Bill Online,254714536026 - LILIAN AWUOR ONYANGO,,HDC
QH46NXNUP2,04/08/2022 19:25,04/08/2022 19:25,Pay Bill from 254715256302 - RUTH N NDUMA Acc. IGH ,Completed,600,,52700,TRUE,Pay Utility,254715256302 - RUTH N NDUMA,,IGH
QH41NO3JIJ,04/08/2022 17:57,04/08/2022 17:57,Pay Bill Online from 254715020357 - ELIZABETH NJERI WARARI Acc. C2,Completed,600,,52100,TRUE,Pay Bill Online,254715020357 - ELIZABETH NJERI WARARI,,C2
QH48NJ4FLQ,04/08/2022 17:03,04/08/2022 17:03,Pay Bill from 254724103759 - RICHARD NKAABO Acc. jej,Completed,2600,,51500,TRUE,Pay Utility with OD via STK,254724103759 - RICHARD NKAABO,,jej
QH42NGSWGW,04/08/2022 16:36,04/08/2022 16:36,Pay Bill from 254706248362 - BERYL HUMA Acc. E5,Completed,1000,,48900,TRUE,Pay Utility,254706248362 - BERYL HUMA,,E5
QH48NFVNHO,04/08/2022 16:25,04/08/2022 16:25,Pay Bill from 254728854349 - JOSEPH MUSYOKA Acc. IBG,Completed,500,,47900,TRUE,Pay Utility,254728854349 - JOSEPH MUSYOKA,,IBG
QH45NCDR9L,04/08/2022 15:41,04/08/2022 15:41,Pay Bill from 254726945691 - JAMES RAMTU Acc. B5,Completed,1000,,47400,TRUE,Pay Utility,254726945691 - JAMES RAMTU,,B5
QH42N6A8VE,04/08/2022 14:20,04/08/2022 14:20,Pay Bill from 254726645592 - Ephantus Muriithi Irura Acc. c4 Muriithi,Completed,400,,46400,TRUE,Pay Utility,254726645592 - Ephantus Muriithi Irura,,c4
QH46MUA8J2,04/08/2022 11:41,04/08/2022 11:41,Pay Bill Online from 254714552193 - CHRISTOPHER OCHIENG Acc. JGI,Completed,1500,,46000,TRUE,Pay Bill Online,254714552193 - CHRISTOPHER OCHIENG,,JGI
QH42MM90H2,04/08/2022 09:49,04/08/2022 09:49,Pay Bill Online from 254710814215 - JOAN NYAMBURA KAMAU Acc. ifb,Completed,800,,44500,TRUE,Pay Bill Online,254710814215 - JOAN NYAMBURA KAMAU,,ifb
QH42MLSA9W,04/08/2022 09:43,04/08/2022 09:43,Pay Bill Online from 254720696119 - DUNCAN OMONDI OKETCH Acc. IAG,Completed,800,,43700,TRUE,Pay Bill Online,254720696119 - DUNCAN OMONDI OKETCH,,IAG
QH35M9VJA9,03/08/2022 23:34,03/08/2022 23:34,Pay Bill Online from 254719134037 - KELVIN KITOO Acc. FAA,Completed,1000,,42900,TRUE,Pay Bill Online,254719134037 - KELVIN KITOO,,FAA
QH38M6ILTC,03/08/2022 21:56,03/08/2022 21:56,Pay Bill from 254714419834 - FAITH MWIKALI MUTHAMA Acc. d4,Completed,1000,,41900,TRUE,Pay Utility,254714419834 - FAITH MWIKALI MUTHAMA,,d4
QH32M5AEUQ,03/08/2022 21:36,03/08/2022 21:36,Pay Bill Online from 254721417560 - ANDREW SANDE Acc. JBJ,Completed,1000,,40900,TRUE,Pay Bill Online,254721417560 - ANDREW SANDE,,JBJ
QH32LXQFNO,03/08/2022 20:06,03/08/2022 20:06,Pay Bill from 0719349205 - Christabel Gakii Munene Acc. D1,Completed,200,,39900,TRUE,Pay Utility,0719349205 - Christabel Gakii Munene,,D1
QH34LU5BSY,03/08/2022 19:34,03/08/2022 19:34,Pay Bill from 254712091662 - BENARD OMONDI ROBY Acc. V16,Completed,600,,39700,TRUE,Pay Utility,254712091662 - BENARD OMONDI ROBY,,V16
QH37LJOHQ5,03/08/2022 18:00,03/08/2022 18:00,Pay Bill Online from 254715892656 - DENNIS MUSYOKA MUOKI Acc. KFA,Completed,400,,39100,TRUE,Pay Bill Online,254715892656 - DENNIS MUSYOKA MUOKI,,KFA
QH35LHUTGH,03/08/2022 17:41,03/08/2022 17:41,Pay Bill from 254723499628 - CLINTON JOSEPH MUHARI Acc. hfh,Completed,1000,,38700,TRUE,Pay Utility,254723499628 - CLINTON JOSEPH MUHARI,,hfh
QH30KS646Q,03/08/2022 12:20,03/08/2022 12:20,Pay Bill from 254725771056 - CHARLES MURAGURI Acc. FCE,Completed,600,,37700,TRUE,Pay Utility,254725771056 - CHARLES MURAGURI,,FCE
QH37KP3NSD,03/08/2022 11:38,03/08/2022 11:38,Pay Bill from 254719398942 - NORAH WAYUA MUNYAO Acc. KDA,Completed,800,,37100,TRUE,Pay Utility,254719398942 - NORAH WAYUA MUNYAO,,KDA
QH39K9V1AN,03/08/2022 07:46,03/08/2022 07:46,Pay Bill Online from 254792584569 - LUCY MWALIMO Acc. IAD,Completed,200,,36300,TRUE,Pay Bill Online,254792584569 - LUCY MWALIMO,,IAD
QH26K2LC7Y,02/08/2022 22:16,02/08/2022 22:16,Pay Bill from 254741791919 - Linet Mongina Maraga Acc. u3,Completed,600,,36100,TRUE,Pay Utility,254741791919 - Linet Mongina Maraga,,u3
QH29JVN5S3,02/08/2022 20:31,02/08/2022 20:31,Pay Bill Online from 254722258756 - DAVID KEMBOI Acc. HDA,Completed,800,,35500,TRUE,Pay Utility with OD Online,254722258756 - DAVID KEMBOI,,HDA
QH21JSKFC7,02/08/2022 20:00,02/08/2022 20:00,Pay Bill Online from 254714563486 - BRIAN MMATA MUSERA Acc. KBJ,Completed,600,,34700,TRUE,Pay Bill Online,254714563486 - BRIAN MMATA MUSERA,,KBJ
QH22JQN93C,02/08/2022 19:42,02/08/2022 19:42,Pay Bill from 254725754547 - MWACHIRO GEORGE DECHE Acc. DFC,Completed,1800,,34100,TRUE,Pay Utility,254725754547 - MWACHIRO GEORGE DECHE,,DFC
QH20JMIAY2,02/08/2022 19:07,02/08/2022 19:07,Pay Bill from 0700616526 - Lionel Uchechukwu Kibathi Acc. Leah b2,Completed,1500,,32300,TRUE,Pay Utility,0700616526 - Lionel Uchechukwu Kibathi,,Leah
QH27JKHBB9,02/08/2022 18:49,02/08/2022 18:49,Pay Bill from 0700616526 - Lionel Uchechukwu Kibathi Acc. Leah b2,Completed,13500,,30800,TRUE,Pay Utility,0700616526 - Lionel Uchechukwu Kibathi,,Leah
QH22JF9L80,02/08/2022 17:58,02/08/2022 17:58,Pay Bill Online from 254714855708 - KIPLANGAT SITIENEI Acc. FAE,Completed,1200,,17300,TRUE,Pay Bill Online,254714855708 - KIPLANGAT SITIENEI,,FAE
QH27J3SXA9,02/08/2022 15:44,02/08/2022 15:44,Pay Bill from 254791341895 - Enos Nyaosi Ayuma Acc. D5,Completed,600,,16100,TRUE,Pay Utility with OD via STK,254791341895 - Enos Nyaosi Ayuma,,D5
QH22J2AQJQ,02/08/2022 15:24,02/08/2022 15:24,Pay Bill Online from 254711877988 - PATRICK KONZI Acc. b4,Completed,500,,15500,TRUE,Pay Bill Online,254711877988 - PATRICK KONZI,,b4
QH26IQORBU,02/08/2022 12:49,02/08/2022 12:49,Pay Bill Online from 254726001437 - FESTUS MUNYIRI MAINA Acc. IFF,Completed,600,,15000,TRUE,Pay Bill Online,254726001437 - FESTUS MUNYIRI MAINA,,IFF
QH21IL9DVJ,02/08/2022 11:35,02/08/2022 11:35,Pay Bill from 254727585857 - PETER MUOKI NGUNDO Acc. Peter Ngundo e6,Completed,500,,14400,TRUE,Pay Utility,254727585857 - PETER MUOKI NGUNDO,,Peter
QH28IJVOOM,02/08/2022 11:16,02/08/2022 11:16,Pay Bill from 0721436195 - KIPKOECH   CHARLES Acc. E2,Completed,800,,13900,TRUE,Pay Utility,0721436195 - KIPKOECH   CHARLES,,E2
QH24I4J2OM,02/08/2022 07:02,02/08/2022 07:02,Pay Bill from 254711650034 - Lucky Ngoya Acc. JAA,Completed,500,,13100,TRUE,Pay Utility,254711650034 - Lucky Ngoya,,JAA
QH21I44YMJ,02/08/2022 06:50,02/08/2022 06:50,Business Pay Bill by 488519 - NCBA  Bank M-pesa Acc. DCC via API,Completed,1000,,12600,TRUE,Business Pay Bill via API,488519 - NCBA  Bank M-pesa,,DCC
QH20I2EC04,02/08/2022 03:50,02/08/2022 03:50,Pay Bill from 254720550403 - GRACE WANGONDU Acc. jfi,Completed,2000,,11600,TRUE,Pay Utility,254720550403 - GRACE WANGONDU,,jfi
QH14HZOEIG,01/08/2022 22:50,01/08/2022 22:50,Pay Bill from 254720407659 - FRANCIS CHUMO Acc. KDG,Completed,400,,9600,TRUE,Pay Utility,254720407659 - FRANCIS CHUMO,,KDG
QH14HU8GKI,01/08/2022 21:06,01/08/2022 21:06,Pay Bill from 254796848496 - IVY WITABA Acc. JBA,Completed,2000,,9200,TRUE,Pay Utility,254796848496 - IVY WITABA,,JBA
QH10HHXPRQ,01/08/2022 19:09,01/08/2022 19:09,Pay Bill from 254711438010 - DORICE ELSIE AKINYI Acc. HCG,Completed,4800,,7200,TRUE,Pay Utility,254711438010 - DORICE ELSIE AKINYI,,HCG
QH12H87LKY,01/08/2022 17:41,01/08/2022 17:41,Pay Bill Online from 254706784429 - ROSE JEPKOECH RUTTO Acc. IFI,Completed,600,,2400,TRUE,Pay Bill Online,254706784429 - ROSE JEPKOECH RUTTO,,IFI
QH15GQO89R,01/08/2022 14:04,01/08/2022 14:04,Pay Bill from 254727766786 - JOHN MAITHA MULWA Acc. ibh,Completed,600,,1800,TRUE,Pay Utility,254727766786 - JOHN MAITHA MULWA,,ibh
QH16GAKMP8,01/08/2022 10:19,01/08/2022 10:19,Pay Bill from 254718244582 - GRANT WANANGWE Acc. KAH,Completed,1200,,1200,TRUE,Pay Utility,254718244582 - GRANT WANANGWE,,KAH
QH11G36FS3,01/08/2022 08:20,01/08/2022 08:20,Utility Account to Organization Settlement Account,Completed,,-48950,0,TRUE,Utility Account to Organization Settlement Account,846783 - ANCIENT WELLS LTD 4,,
