Receipt No.,Completion Time,Initiation Time,Details,Transaction Status,Paid In,Withdrawn,Balance,Balance Confirmed,Reason Type,Other Party Info,Linked Transaction ID,A/C No.
OFI22LX146,18/06/2020 21:52,18/06/2020 21:52,Pay Bill from 254741791919 - Linet Mongina Maraga Acc. linet,Completed,5000,,5000,TRUE,Pay Utility with OD via STK,254741791919 - Linet Mongina Maraga,,linet
OFH211IP98,17/06/2020 11:52,17/06/2020 11:52,Utility Account to Organization Settlement Account,Completed,,-5000,0,TRUE,Utility Account to Organization Settlement Account,887264 - ANCIENT WELLS LTD 2,,
OFF7YHKMPT,15/06/2020 16:16,15/06/2020 16:16,Pay Bill from 254712900502 - ANTONIA JERUTO LEKITARY Acc. u6,Completed,5000,,5000,TRUE,Pay Utility,254712900502 - ANTONIA JERUTO LEKITARY,,u6
