Receipt No.,Completion Time,Initiation Time,Details,Transaction Status,Paid In,Withdrawn,Balance,Balance Confirmed,Reason Type,Other Party Info,Linked Transaction ID,A/C No.
PGL3M15VR7,21/07/2021 16:49,21/07/2021 16:49,Utility Account to Organization Settlement Account,Completed,,-3000,0,TRUE,Utility Account to Organization Settlement Account,887264 - ANCIENT WELLS LTD 2,,
PGL5LZE4G5,21/07/2021 16:17,21/07/2021 16:17,Pay Bill from 254722235660 - JOHNSTONE OMBIMA OKWARO Acc. B7,Completed,3000,,3000,TRUE,Pay Utility with OD via STK,254722235660 - JOHNSTONE OMBIMA OKWARO,,B7
PGK4L2TPL6,20/07/2021 20:48,20/07/2021 20:48,Utility Account to Organization Settlement Account,Completed,,-7000,0,TRUE,Utility Account to Organization Settlement Account,887264 - ANCIENT WELLS LTD 2,,
PGK1KY9ZIZ,20/07/2021 19:36,20/07/2021 19:36,Pay Bill Online from 254723174583 - BRIAN ODHIAMBO OUMA Acc. B3,Completed,7000,,7000,TRUE,Pay Utility with OD Online,254723174583 - BRIAN ODHIAMBO OUMA,,B3
PGK3K6PZKH,20/07/2021 11:22,20/07/2021 11:22,Utility Account to Organization Settlement Account,Completed,,-8000,0,TRUE,Utility Account to Organization Settlement Account,887264 - ANCIENT WELLS LTD 2,,
PGK9K5BZM1,20/07/2021 10:53,20/07/2021 10:53,Pay Bill from 254724795060 - OKUSIMBA ELIZABETH Acc. B7,Completed,8000,,8000,TRUE,Pay Utility,254724795060 - OKUSIMBA ELIZABETH,,B7
PGE3BJ87PD,14/07/2021 09:43,14/07/2021 09:43,Utility Account to Organization Settlement Account,Completed,,-38000,0,TRUE,Utility Account to Organization Settlement Account,887264 - ANCIENT WELLS LTD 2,,
PGD0AOK3QM,13/07/2021 16:38,13/07/2021 16:38,Pay Bill from 0113698856 - Fredrick Mosoti Mounde Acc. epz mh,Completed,28000,,38000,TRUE,Pay Utility,0113698856 - Fredrick Mosoti Mounde,,epz
PGD7AB80DF,13/07/2021 12:23,13/07/2021 12:23,Pay Bill from 254726524831 - ANDREW ODHIAMBO Acc. Andrew odhiambo ,Completed,10000,,10000,TRUE,Pay Utility,254726524831 - ANDREW ODHIAMBO,,Andrew
PGC88QOL8G,12/07/2021 10:32,12/07/2021 10:32,Utility Account to Organization Settlement Account,Completed,,-40000,0,TRUE,Utility Account to Organization Settlement Account,887264 - ANCIENT WELLS LTD 2,,
PGA16KOCJZ,10/07/2021 16:43,10/07/2021 16:43,Pay Bill from 254728912446 - GRACE NJERI KIMANI Acc. ancient Wells LTD,Completed,40000,,40000,TRUE,Pay Utility,254728912446 - GRACE NJERI KIMANI,,ancient
PGA45ZGS9G,10/07/2021 10:03,10/07/2021 10:03,Utility Account to Organization Settlement Account,Completed,,-5000,0,TRUE,Utility Account to Organization Settlement Account,887264 - ANCIENT WELLS LTD 2,,
PG96509RMI,09/07/2021 15:36,09/07/2021 15:36,Pay Bill from 254741791919 - Linet Mongina Maraga Acc. linet,Completed,5000,,5000,TRUE,Pay Utility,254741791919 - Linet Mongina Maraga,,linet
PG934CTYUT,09/07/2021 07:25,09/07/2021 07:25,Utility Account to Organization Settlement Account,Completed,,-5000,0,TRUE,Utility Account to Organization Settlement Account,887264 - ANCIENT WELLS LTD 2,,
PG822VOF6E,08/07/2021 01:09,08/07/2021 01:09,Pay Bill from 0743263203 - Patrick theuri wachira Acc. U1,Completed,5000,,5000,TRUE,Pay Utility,0743263203 - Patrick theuri wachira,,U1
PG64ZBXTBU,06/07/2021 11:20,06/07/2021 11:20,Utility Account to Organization Settlement Account,Completed,,-5500,0,TRUE,Utility Account to Organization Settlement Account,887264 - ANCIENT WELLS LTD 2,,
PG60ZAI5VG,06/07/2021 10:51,06/07/2021 10:51,Pay Bill from 254712614146 - SOPHIE MUENI MUVITHU Acc. Sophie hse no.6,Completed,5500,,5500,TRUE,Pay Utility,254712614146 - SOPHIE MUENI MUVITHU,,Sophie
PG64Z46RF2,06/07/2021 08:35,06/07/2021 08:35,Utility Account to Organization Settlement Account,Completed,,-34200,0,TRUE,Utility Account to Organization Settlement Account,887264 - ANCIENT WELLS LTD 2,,
PG55YH5ERD,05/07/2021 17:54,05/07/2021 17:54,Pay Bill from 254724795060 - OKUSIMBA ELIZABETH Acc. B7,Completed,6000,,34200,TRUE,Pay Utility,254724795060 - OKUSIMBA ELIZABETH,,B7
PG53YH4M51,05/07/2021 17:53,05/07/2021 17:53,Pay Bill from 254705755947 - METRINE REPHAH MATETE Acc. A3,Completed,7000,,28200,TRUE,Pay Utility,254705755947 - METRINE REPHAH MATETE,,A3
PG41XHSJXB,04/07/2021 23:21,04/07/2021 23:21,Pay Bill from 254726403551 - VICTOR KIRUMA Acc. u2,Completed,500,,21200,TRUE,Pay Utility,254726403551 - VICTOR KIRUMA,,u2
PG47WFPVC7,04/07/2021 10:18,04/07/2021 10:18,Pay Bill from 254706011442 - REUBEN MURIUKI Acc. B5,Completed,6000,,20700,TRUE,Pay Utility,254706011442 - REUBEN MURIUKI,,B5
PG42W7SUJG,04/07/2021 02:10,04/07/2021 02:10,Pay Bill from 254703573478 - ANTONY MAINA GICHINA Acc. Gichina A5,Completed,14700,,14700,TRUE,Pay Utility,254703573478 - ANTONY MAINA GICHINA,,Gichina
PG35V97WVZ,03/07/2021 13:26,03/07/2021 13:26,Utility Account to Organization Settlement Account,Completed,,-5500,0,TRUE,Utility Account to Organization Settlement Account,887264 - ANCIENT WELLS LTD 2,,
PG22UNBNLE,02/07/2021 21:56,02/07/2021 21:56,Pay Bill from 254726403551 - VICTOR KIRUMA Acc. u2,Completed,5500,,5500,TRUE,Pay Utility,254726403551 - VICTOR KIRUMA,,u2
