Receipt No.,Completion Time,Initiation Time,Details,Transaction Status,Paid In,Withdrawn,Balance,Balance Confirmed,Reason Type,Other Party Info,Linked Transaction ID,A/C No.
OD80CF5F76,08/04/2020 12:04,08/04/2020 12:04,Pay Bill from 254729569271 - MESHACK OBOTTA OBOTTA OBARE Acc. V12,Completed,6600,,26400,TRUE,Pay Utility,254729569271 - MESHACK OBOTTA OBOTTA OBARE,,V12
OD80CBLF2O,08/04/2020 10:09,08/04/2020 10:09,Pay Bill from 254723935789 - EDWIN MWITI Acc. V43,Completed,6600,,19800,TRUE,Pay Utility,254723935789 - EDWIN MWITI,,V43
OD80CB5XZE,08/04/2020 09:54,08/04/2020 09:54,Pay Bill from 254701086112 - CAROLYNE KOKI MULWA Acc. V30,Completed,6600,,13200,TRUE,Pay Utility,254701086112 - CAROLYNE KOKI MULWA,,V30
OD78BE8G86,07/04/2020 08:10,07/04/2020 08:10,Pay Bill from 0717042461 - Sharon Nyangasi Shivachi Acc. V55,Completed,6600,,6600,TRUE,Pay Utility,0717042461 - Sharon Nyangasi Shivachi,,V55
OD77BDQ331,07/04/2020 07:44,07/04/2020 07:44,Utility Account to Organization Settlement Account,Completed,,-26400,0,TRUE,Utility Account to Organization Settlement Account,887674 - ANCIENT WELLS LTD 1,,
OD68BAQF6K,06/04/2020 21:07,06/04/2020 21:07,Pay Bill from 0702583480 - NANCY NEKESA OLUOCH Acc. v 31,Completed,6600,,26400,TRUE,Pay Utility,0702583480 - NANCY NEKESA OLUOCH,,v
OD61B2CRVD,06/04/2020 17:32,06/04/2020 17:32,Pay Bill from 254723737647 - BRIAN MANGADE Acc. V51,Completed,6600,,19800,TRUE,Pay Utility,254723737647 - BRIAN MANGADE,,V51
OD65ASINUL,06/04/2020 13:13,06/04/2020 13:13,Pay Bill from 254712091662 - BENARD OMONDI ROBY Acc. V16,Completed,6600,,13200,TRUE,Pay Utility,254712091662 - BENARD OMONDI ROBY,,V16
OD62AKOZLC,06/04/2020 09:16,06/04/2020 09:16,Pay Bill from 254723815832 - SEMEKIA ONDIALA Acc. v38,Completed,6600,,6600,TRUE,Pay Utility,254723815832 - SEMEKIA ONDIALA,,v38
OD65AI903Z,06/04/2020 07:32,06/04/2020 07:32,Utility Account to Organization Settlement Account,Completed,,-56200,0,TRUE,Utility Account to Organization Settlement Account,887674 - ANCIENT WELLS LTD 1,,
OD58AGBDUS,05/04/2020 22:15,05/04/2020 22:15,Pay Bill from 254708915764 - GEORGE WAHOME Acc. V18,Completed,6600,,56200,TRUE,Pay Utility,254708915764 - GEORGE WAHOME,,V18
OD53AF2R6N,05/04/2020 20:59,05/04/2020 20:59,Pay Bill from 254799376885 - DERRICK OSORE SONGORO Acc. Derrick V58,Completed,6600,,49600,TRUE,Pay Utility,254799376885 - DERRICK OSORE SONGORO,,Derrick
OD52A7VPXQ,05/04/2020 17:42,05/04/2020 17:42,Pay Bill from 254726465584 - JULIANA MUKELI MUTUNGA Acc. v4,Completed,6600,,43000,TRUE,Pay Utility,254726465584 - JULIANA MUKELI MUTUNGA,,v4
OD509SMR3Q,05/04/2020 10:02,05/04/2020 10:02,Pay Bill from 254704995854 - james karanja wairimu Acc. V54,Completed,6600,,36400,TRUE,Pay Utility,254704995854 - james karanja wairimu,,V54
OD559O9MSX,05/04/2020 02:38,05/04/2020 02:38,Pay Bill from 254722307003 - NIGEL BOMETT Acc. V01,Completed,6600,,29800,TRUE,Pay Utility,254722307003 - NIGEL BOMETT,,V01
OD488YAOFW,04/04/2020 10:22,04/04/2020 10:22,Pay Bill from 254795690554 - BENARD SIMIYU WANJALA Acc. V8,Completed,6600,,23200,TRUE,Pay Utility,254795690554 - BENARD SIMIYU WANJALA,,V8
OD368NW45Y,03/04/2020 19:24,03/04/2020 19:24,Pay Bill from 254791798688 - EMILY AWUOR HAWI Acc. v50,Completed,1500,,16600,TRUE,Pay Utility,254791798688 - EMILY AWUOR HAWI,,v50
OD348J7E6A,03/04/2020 17:45,03/04/2020 17:45,Pay Bill from 254705670064 - margaret wahu wachira Acc. v35,Completed,7000,,15100,TRUE,Pay Utility,254705670064 - margaret wahu wachira,,v35
OD3680DEOM,03/04/2020 08:59,03/04/2020 08:59,Pay Bill from 0743696124 - jocinta aoko Acc. V50,Completed,1500,,8100,TRUE,Pay Utility,0743696124 - jocinta aoko,,V50
OD207325QC,02/04/2020 07:58,02/04/2020 07:57,Pay Bill Online from 254712569636 - BENSON NYAGA Acc. v60,Completed,6600,,6600,TRUE,Pay Bill Online,254712569636 - BENSON NYAGA,,v60
OD2272XQW2,02/04/2020 07:51,02/04/2020 07:51,Utility Account to Organization Settlement Account,Completed,,-8200,0,TRUE,Utility Account to Organization Settlement Account,887674 - ANCIENT WELLS LTD 1,,
