Receipt No.,Completion Time,Initiation Time,Details,Transaction Status,Paid In,Withdrawn,Balance,Balance Confirmed,Reason Type,Other Party Info,Linked Transaction ID,A/C No.
PBJ2TMJAPW,19/02/2021 07:28,19/02/2021 07:28,Utility Account to Organization Settlement Account,Completed,,-6600,0,TRUE,Utility Account to Organization Settlement Account,887674 - ANCIENT WELLS LTD 1,,
PBJ1TJUH6Z,19/02/2021 00:16,19/02/2021 00:16,Pay Bill from 254719808077 - ANTHONY KARIUKI Acc. V41,Completed,6600,,6600,TRUE,Pay Utility,254719808077 - ANTHONY KARIUKI,,V41
PBI8SXBDP8,18/02/2021 15:36,18/02/2021 15:36,Utility Account to Organization Settlement Account,Completed,,-4000,0,TRUE,Utility Account to Organization Settlement Account,887674 - ANCIENT WELLS LTD 1,,
PBH1R7WRXP,17/02/2021 08:33,17/02/2021 08:33,Pay Bill from 254707568664 - Ismael Kitsao Acc. v52,Completed,4000,,4000,TRUE,Pay Utility,254707568664 - Ismael Kitsao,,v52
PBF7OZSQT5,15/02/2021 11:32,15/02/2021 11:32,Utility Account to Organization Settlement Account,Completed,,-7000,0,TRUE,Utility Account to Organization Settlement Account,887674 - ANCIENT WELLS LTD 1,,
PBE9ONVMEZ,14/02/2021 22:34,14/02/2021 22:34,Pay Bill Online from 254720360607 - MARITIM SUSAN CHEBET Acc. V49,Completed,7000,,7000,TRUE,Pay Bill Online,254720360607 - MARITIM SUSAN CHEBET,,V49
PBE1NVOL9D,14/02/2021 12:32,14/02/2021 12:32,Utility Account to Organization Settlement Account,Completed,,-28200,0,TRUE,Utility Account to Organization Settlement Account,887674 - ANCIENT WELLS LTD 1,,
PBE9NTVK9R,14/02/2021 11:43,14/02/2021 11:43,Pay Bill from 254700904994 - HUSSEIN HASSAN LAMA Acc. V43,Completed,7000,,28200,TRUE,Pay Utility,254700904994 - HUSSEIN HASSAN LAMA,,V43
PBE3NN6KB5,14/02/2021 08:32,14/02/2021 08:32,Pay Bill from 254715939283 - alex nyamai Acc. alex v07,Completed,3300,,21200,TRUE,Pay Utility,254715939283 - alex nyamai,,alex
PBD8N7UOYU,13/02/2021 18:55,13/02/2021 18:55,Pay Bill from 254722863783 - PAMELA KHISA KITUYI Acc. v03,Completed,8000,,17900,TRUE,Pay Utility,254722863783 - PAMELA KHISA KITUYI,,v03
PBD0N5PL3S,13/02/2021 18:21,13/02/2021 18:21,Pay Bill from 254715939283 - alex nyamai Acc. alex v07,Completed,3300,,9900,TRUE,Pay Utility,254715939283 - alex nyamai,,alex
PBD2N4JGG4,13/02/2021 18:01,13/02/2021 18:01,Pay Bill from 254797665088 - INNOCENT WANAMI Acc. V2,Completed,6600,,6600,TRUE,Pay Utility,254797665088 - INNOCENT WANAMI,,V2
PBC5LWIQLH,12/02/2021 18:23,12/02/2021 18:23,Utility Account to Organization Settlement Account,Completed,,-65400,0,TRUE,Utility Account to Organization Settlement Account,887674 - ANCIENT WELLS LTD 1,,
PBC1L9CN8N,12/02/2021 09:51,12/02/2021 09:51,Pay Bill Online from 254725639425 - CHRISPINE OMONDI Acc. V13,Completed,3600,,65400,TRUE,Pay Bill Online,254725639425 - CHRISPINE OMONDI,,V13
PBB8KUNENI,11/02/2021 19:52,11/02/2021 19:52,Pay Bill from 0711494312 - CALVIN MAKWAKA AMULIOTO Acc. V08,Completed,6000,,61800,TRUE,Pay Utility with OD via STK,0711494312 - CALVIN MAKWAKA AMULIOTO,,V08
PBB9KQOWJX,11/02/2021 18:56,11/02/2021 18:56,Pay Bill from 254707568664 - Ismael Kitsao Acc. v52,Completed,10000,,55800,TRUE,Pay Utility,254707568664 - Ismael Kitsao,,v52
PBB9KOD9GR,11/02/2021 18:18,11/02/2021 18:18,Pay Bill from 254701313986 - KEZIAH KATUNGE MBANDI Acc. v57,Completed,10000,,45800,TRUE,Pay Utility with OD via STK,254701313986 - KEZIAH KATUNGE MBANDI,,v57
PBB6KAJGD8,11/02/2021 13:19,11/02/2021 13:19,Pay Bill from 254703108159 - JOICE OGOLLA Acc. V50 ,Completed,6600,,35800,TRUE,Pay Utility,254703108159 - JOICE OGOLLA,,V50
PBB7K9N2YT,11/02/2021 12:58,11/02/2021 12:58,Pay Bill Online from 254713498554 - HENRY KINYUA WARUI Acc. Henry Warui V44,Completed,15800,,29200,TRUE,Pay Bill Online,254713498554 - HENRY KINYUA WARUI,,Henry
PBB0K748MY,11/02/2021 11:56,11/02/2021 11:56,Pay Bill from 254790610309 - MESHACK CHUMBA Acc. V39,Completed,6600,,13400,TRUE,Pay Utility,254790610309 - MESHACK CHUMBA,,V39
PBB4K1OBQW,11/02/2021 09:42,11/02/2021 09:42,Pay Bill from 254758070694 - naomi ndinda nzamalu Acc. v28,Completed,6600,,6800,TRUE,Pay Utility,254758070694 - naomi ndinda nzamalu,,v28
PBA8JUG2YC,10/02/2021 22:53,10/02/2021 22:53,Pay Bill from 254725756974 - MARTIN MUGAMBI Acc. v56,Completed,200,,200,TRUE,Pay Utility with OD via STK,254725756974 - MARTIN MUGAMBI,,v56
PBA4IZVGYK,10/02/2021 12:42,10/02/2021 12:42,Utility Account to Organization Settlement Account,Completed,,-26400,0,TRUE,Utility Account to Organization Settlement Account,887674 - ANCIENT WELLS LTD 1,,
PBA6IS2I14,10/02/2021 09:31,10/02/2021 09:31,Pay Bill from 254710262457 - PETER VIKATSI Acc. Peter V26,Completed,6600,,26400,TRUE,Pay Utility,254710262457 - PETER VIKATSI,,Peter
PBA7IN59DJ,10/02/2021 06:33,10/02/2021 06:33,Pay Bill from 254704995854 - james karanja wairimu Acc. V54,Completed,6600,,19800,TRUE,Pay Utility,254704995854 - james karanja wairimu,,V54
PB90ICJ2NG,09/02/2021 19:30,09/02/2021 19:30,Pay Bill from 254712091662 - BENARD OMONDI ROBY Acc. V16,Completed,6600,,13200,TRUE,Pay Utility,254712091662 - BENARD OMONDI ROBY,,V16
PB95I3083N,09/02/2021 16:55,09/02/2021 16:55,Pay Bill from 254700218502 - GRACE NGURE Acc. v46,Completed,6600,,6600,TRUE,Pay Utility,254700218502 - GRACE NGURE,,v46
PB94HTVPX4,09/02/2021 13:26,09/02/2021 13:26,Utility Account to Organization Settlement Account,Completed,,-26800,0,TRUE,Utility Account to Organization Settlement Account,887674 - ANCIENT WELLS LTD 1,,
PB82GR1EDQ,08/02/2021 15:14,08/02/2021 15:14,Pay Bill Online from 254704783091 - CLINTON MUSEBE KASUTI Acc. v48,Completed,5000,,26800,TRUE,Pay Bill Online,254704783091 - CLINTON MUSEBE KASUTI,,v48
PB84GM5O5C,08/02/2021 13:22,08/02/2021 13:22,Pay Bill from 254790552440 - ANGEL MAIMA Acc. vk3,Completed,5000,,21800,TRUE,Pay Utility,254790552440 - ANGEL MAIMA,,vk3
PB84GKCWAY,08/02/2021 12:40,08/02/2021 12:40,Pay Bill from 0795807227 - Lucy Ncekei Kimathi Acc. V36,Completed,16800,,16800,TRUE,Pay Utility,0795807227 - Lucy Ncekei Kimathi,,V36
PB81G98KRL,08/02/2021 07:57,08/02/2021 07:57,Utility Account to Organization Settlement Account,Completed,,-33000,0,TRUE,Utility Account to Organization Settlement Account,887674 - ANCIENT WELLS LTD 1,,
PB72G3M2XG,07/02/2021 21:18,07/02/2021 21:18,Pay Bill from 254717294709 - CAROLINE WAVINYA NDINDA Acc. V15,Completed,6600,,33000,TRUE,Pay Utility,254717294709 - CAROLINE WAVINYA NDINDA,,V15
PB70FAMHZ6,07/02/2021 11:14,07/02/2021 11:14,Pay Bill from 254722307003 - NIGEL BOMETT Acc. V01,Completed,6600,,26400,TRUE,Pay Utility,254722307003 - NIGEL BOMETT,,V01
PB65EZSQU7,06/02/2021 22:13,06/02/2021 22:13,Pay Bill from 254718818610 - HANNAH NALIAKA Acc. V23,Completed,6600,,19800,TRUE,Pay Utility with OD via STK,254718818610 - HANNAH NALIAKA,,V23
PB62EPUTJU,06/02/2021 19:07,06/02/2021 19:07,Pay Bill from 254713388942 - UKONU CHRISTOPHER OBINNA Acc. V22,Completed,6600,,13200,TRUE,Pay Utility,254713388942 - UKONU CHRISTOPHER OBINNA,,V22
PB66E84ENI,06/02/2021 13:38,06/02/2021 13:38,Pay Bill Online from 254729569271 - MESHACK OBOTTA OBARE Acc. V12,Completed,6600,,6600,TRUE,Pay Bill Online,254729569271 - MESHACK OBOTTA OBARE,,V12
PB67E4ICS1,06/02/2021 12:21,06/02/2021 12:21,Utility Account to Organization Settlement Account,Completed,,-53600,0,TRUE,Utility Account to Organization Settlement Account,887674 - ANCIENT WELLS LTD 1,,
PB58DPNR78,05/02/2021 22:44,05/02/2021 22:44,Pay Bill from 254758951969 - WILKISTER IRAKO HARAMBEE Acc. 37847739,Completed,7000,,53600,TRUE,Pay Utility,254758951969 - WILKISTER IRAKO HARAMBEE,,37847739
PB59DLVSLP,05/02/2021 20:57,05/02/2021 20:57,Pay Bill from 254726465584 - JULIANA MUKELI MUTUNGA Acc. v4,Completed,6600,,46600,TRUE,Pay Utility,254726465584 - JULIANA MUKELI MUTUNGA,,v4
PB58D35VIS,05/02/2021 15:42,05/02/2021 15:42,Pay Bill from 254727457050 - ANDREW SONGORO OSORE Acc. DERRICK V 58,Completed,6600,,40000,TRUE,Pay Utility,254727457050 - ANDREW SONGORO OSORE,,DERRICK
PB53D2NOOR,05/02/2021 15:31,05/02/2021 15:31,Pay Bill from 0714576438 - OCHOLA HESBON OCHIENG Acc. V06,Completed,6600,,33400,TRUE,Pay Utility,0714576438 - OCHOLA HESBON OCHIENG,,V06
PB52CV7BMY,05/02/2021 12:41,05/02/2021 12:41,Pay Bill from 0727542914 - Pascal Ouma Opar Acc. pascalv45,Completed,6600,,26800,TRUE,Pay Utility,0727542914 - Pascal Ouma Opar,,pascalv45
PB59CP1HJZ,05/02/2021 10:18,05/02/2021 10:18,Pay Bill from 254723815832 - SEMEKIA ONDIALA Acc. v38,Completed,6600,,20200,TRUE,Pay Utility,254723815832 - SEMEKIA ONDIALA,,v38
PB54CLGBE0,05/02/2021 08:48,05/02/2021 08:48,Pay Bill from 254720056285 - DAMARIS NDURU Acc. V09,Completed,6600,,13600,TRUE,Pay Utility,254720056285 - DAMARIS NDURU,,V09
PB49CAA3K9,04/02/2021 20:21,04/02/2021 20:21,Pay Bill from 254722578070 - SAMUEL MACHARIA Acc. v42,Completed,7000,,7000,TRUE,Pay Utility,254722578070 - SAMUEL MACHARIA,,v42
PB41C7SJ8H,04/02/2021 19:45,04/02/2021 19:45,Utility Account to Organization Settlement Account,Completed,,-33300,0,TRUE,Utility Account to Organization Settlement Account,887674 - ANCIENT WELLS LTD 1,,
PB40C5HX2Q,04/02/2021 19:14,04/02/2021 19:14,Pay Bill from 254712569636 - BENSON NYAGA Acc. v60,Completed,6600,,33300,TRUE,Pay Utility,254712569636 - BENSON NYAGA,,v60
PB43C39423,04/02/2021 18:41,04/02/2021 18:41,Pay Bill from 254701086112 - CAROLYNE KOKI MULWA Acc. V30,Completed,6600,,26700,TRUE,Pay Utility,254701086112 - CAROLYNE KOKI MULWA,,V30
PB41C27FBT,04/02/2021 18:24,04/02/2021 18:24,Pay Bill from 254703690697 - CATHERINE MURAGE Acc. V21,Completed,13500,,20100,TRUE,Pay Utility,254703690697 - CATHERINE MURAGE,,V21
PB49BNGPCR,04/02/2021 13:02,04/02/2021 13:02,Pay Bill from 0797876668 - PATRICK DOVOI AMURAVU Acc. patrick v37,Completed,6600,,6600,TRUE,Pay Utility,0797876668 - PATRICK DOVOI AMURAVU,,patrick
PB46BFHPAI,04/02/2021 09:50,04/02/2021 09:50,Utility Account to Organization Settlement Account,Completed,,-20450,0,TRUE,Utility Account to Organization Settlement Account,887674 - ANCIENT WELLS LTD 1,,
PB41BA9DWL,04/02/2021 07:10,04/02/2021 07:10,Pay Bill from 254720881746 - LEMMY WANJAU NJIRU Acc. V51,Completed,7000,,20450,TRUE,Pay Utility,254720881746 - LEMMY WANJAU NJIRU,,V51
PB37AS53UL,03/02/2021 17:56,03/02/2021 17:56,Pay Bill from 254722160984 - PENINNAH MUNYWOKI Acc. Anita V27 ,Completed,6600,,13450,TRUE,Pay Utility,254722160984 - PENINNAH MUNYWOKI,,Anita
PB37APW0HN,03/02/2021 17:15,03/02/2021 17:15,Pay Bill from 254723389922 - ANNE WANJIKU NDUNGU Acc. V53,Completed,6850,,6850,TRUE,Pay Utility,254723389922 - ANNE WANJIKU NDUNGU,,V53
PB31ACO7XZ,03/02/2021 12:14,03/02/2021 12:14,Utility Account to Organization Settlement Account,Completed,,-20200,0,TRUE,Utility Account to Organization Settlement Account,887674 - ANCIENT WELLS LTD 1,,
PB31ABLIBF,03/02/2021 11:48,03/02/2021 11:48,Pay Bill from 0746254323 - EPHANTUS OKUMU ODUNDO Acc. v34,Completed,7000,,20200,TRUE,Pay Utility,0746254323 - EPHANTUS OKUMU ODUNDO,,v34
PB289Y7V48,02/02/2021 22:13,02/02/2021 22:13,Pay Bill Online from 254718359438 - AHMAD TAHIR MACHENGO Acc. V11,Completed,6600,,13200,TRUE,Pay Bill Online,254718359438 - AHMAD TAHIR MACHENGO,,V11
PB239O5ZCD,02/02/2021 19:12,02/02/2021 19:12,Pay Bill from 254727729395 - ROBERT OUKO OSORO Acc. V29,Completed,6600,,6600,TRUE,Pay Utility,254727729395 - ROBERT OUKO OSORO,,V29
PB289N3Z6C,02/02/2021 18:57,02/02/2021 18:57,Utility Account to Organization Settlement Account,Completed,,-6600,0,TRUE,Utility Account to Organization Settlement Account,887674 - ANCIENT WELLS LTD 1,,
PB259M5BDZ,02/02/2021 18:43,02/02/2021 18:43,Pay Bill from 254705670064 - margaret wahu wachira Acc. v35,Completed,6600,,6600,TRUE,Pay Utility,254705670064 - margaret wahu wachira,,v35
PB178M346J,01/02/2021 20:43,01/02/2021 20:43,Utility Account to Organization Settlement Account,Completed,,-36450,0,TRUE,Utility Account to Organization Settlement Account,887674 - ANCIENT WELLS LTD 1,,
PB178LPKYJ,01/02/2021 20:37,01/02/2021 20:37,Pay Bill from 254708915764 - GEORGE WAHOME Acc. V18,Completed,6600,,36450,TRUE,Pay Utility,254708915764 - GEORGE WAHOME,,V18
PB128HRZ4G,01/02/2021 19:37,01/02/2021 19:37,Pay Bill from 254799969726 - florence njoki njoroge Acc. V59,Completed,4250,,29850,TRUE,Pay Utility,254799969726 - florence njoki njoroge,,V59
PB128EVYYQ,01/02/2021 18:57,01/02/2021 18:57,Pay Bill from 254703690697 - CATHERINE MURAGE Acc. V21,Completed,4000,,25600,TRUE,Pay Utility,254703690697 - CATHERINE MURAGE,,V21
PB198DZPIZ,01/02/2021 18:44,01/02/2021 18:44,Pay Bill from 254790252785 - CAROLINE KALEKYE KAVITA Acc. v52,Completed,15000,,21600,TRUE,Pay Utility,254790252785 - CAROLINE KALEKYE KAVITA,,v52
PB1581ZOVV,01/02/2021 14:44,01/02/2021 14:44,Pay Bill from 0717042461 - Sharon Nyangasi Shivachi Acc. V55,Completed,6600,,6600,TRUE,Pay Utility,0717042461 - Sharon Nyangasi Shivachi,,V55
PB147YAB48,01/02/2021 13:19,01/02/2021 13:19,Utility Account to Organization Settlement Account,Completed,,-33050,0,TRUE,Utility Account to Organization Settlement Account,887674 - ANCIENT WELLS LTD 1,,
