Receipt No.,Completion Time,Initiation Time,Details,Transaction Status,Paid In,Withdrawn,Balance,Balance Confirmed,Reason Type,Other Party Info,Linked Transaction ID,A/C No.
OLA5ESPY8V,10/12/2020 17:09,10/12/2020 17:09,Pay Bill from 254728912446 - GRACE NJERI Acc. ancient Wells LTD,Completed,40000,,40000,TRUE,Pay Utility,254728912446 - GRACE NJERI,,ancient
OLA3EHQRJP,10/12/2020 13:11,10/12/2020 13:11,Utility Account to Organization Settlement Account,Completed,,-11000,0,TRUE,Utility Account to Organization Settlement Account,887264 - ANCIENT WELLS LTD 2,,
OL97DMITM3,09/12/2020 18:13,09/12/2020 18:13,Pay Bill from 0743263203 - Patrick theuri wachira Acc. U1,Completed,5000,,11000,TRUE,Pay Utility,0743263203 - Patrick theuri wachira,,U1
OL94CRRZ9O,09/12/2020 01:18,09/12/2020 01:18,Pay Bill from 254706011442 - REUBEN MURIUKI Acc. B5,Completed,6000,,6000,TRUE,Pay Utility,254706011442 - REUBEN MURIUKI,,B5
OL70ANX7HU,07/12/2020 13:08,07/12/2020 13:08,Utility Account to Organization Settlement Account,Completed,,-20500,0,TRUE,Utility Account to Organization Settlement Account,887264 - ANCIENT WELLS LTD 2,,
OL5790ZM9H,05/12/2020 23:49,05/12/2020 23:49,Pay Bill from 254705755947 - METRINE REPHAH MATETE Acc. A3,Completed,7000,,20500,TRUE,Pay Utility,254705755947 - METRINE REPHAH MATETE,,A3
OL538XRNIJ,05/12/2020 21:22,05/12/2020 21:22,Pay Bill from 254719109185 - VIOLINE JEROTICH KOROS Acc. u2,Completed,5500,,13500,TRUE,Pay Utility,254719109185 - VIOLINE JEROTICH KOROS,,u2
OL5189WZT3,05/12/2020 14:29,05/12/2020 14:29,Pay Bill from 254724795060 - OKUSIMBA ELIZABETH Acc. B7,Completed,8000,,8000,TRUE,Pay Utility,254724795060 - OKUSIMBA ELIZABETH,,B7
