Receipt No.,Completion Time,Initiation Time,Details,Transaction Status,Paid In,Withdrawn,Balance,Balance Confirmed,Reason Type,Other Party Info,Linked Transaction ID,A/C No.
SAM5Q41W1L,22/01/2024 10:03,22/01/2024 10:03,Utility Account to Organization Settlement Account,Completed,,-16000,0,TRUE,Utility Account to Organization Settlement Account,887674 - ANCIENT WELLS LTD 1,,
SAM6PWSL14,22/01/2024 08:50,22/01/2024 08:50,Pay Bill from 254724***610 - ALINOOR *** Acc. v52,Completed,14000,,16000,TRUE,Pay Utility,254724***610 - ALINOOR ***,,v52
SAM8PKH542,22/01/2024 04:21,22/01/2024 04:21,Pay Bill Online from 254715***283 - alex *** Acc. v7,Completed,2000,,2000,TRUE,Pay Bill Online,254715***283 - alex ***,,v7
SAL9O98R51,21/01/2024 17:16,21/01/2024 17:16,Utility Account to Organization Settlement Account,Completed,,-21500,0,TRUE,Utility Account to Organization Settlement Account,887674 - ANCIENT WELLS LTD 1,,
SAL9O85NNB,21/01/2024 17:08,21/01/2024 17:08,Pay Bill Online from 254741***773 - LENA *** Acc. v54,Completed,17500,,21500,TRUE,Pay Bill Online,254741***773 - LENA ***,,v54
SAL1MQZBDJ,21/01/2024 08:27,21/01/2024 08:27,Pay Bill from 070733***604 - DICKENS *** Acc. v06,Completed,4000,,4000,TRUE,Pay Utility,070733***604 - DICKENS ***,,v06
SAK8KYG36Y,20/01/2024 16:45,20/01/2024 16:45,Utility Account to Organization Settlement Account,Completed,,-4000,0,TRUE,Utility Account to Organization Settlement Account,887674 - ANCIENT WELLS LTD 1,,
SAK2JJR9IA,20/01/2024 09:23,20/01/2024 09:23,Pay Bill from 074326***596 - EMILY *** Acc. V58,Completed,4000,,4000,TRUE,Pay Utility with OD via STK,074326***596 - EMILY ***,,V58
SAI2E3VO96,18/01/2024 15:58,18/01/2024 15:58,Utility Account to Organization Settlement Account,Completed,,-3000,0,TRUE,Utility Account to Organization Settlement Account,887674 - ANCIENT WELLS LTD 1,,
SAI0DQEFRK,18/01/2024 13:57,18/01/2024 13:57,Pay Bill Online from 254799***490 - DANIEL *** Acc. V28,Completed,3000,,3000,TRUE,Pay Bill Online,254799***490 - DANIEL ***,,V28
SAH6BHJUR2,17/01/2024 19:00,17/01/2024 19:00,Utility Account to Organization Settlement Account,Completed,,-5000,0,TRUE,Utility Account to Organization Settlement Account,887674 - ANCIENT WELLS LTD 1,,
SAH5BD7S47,17/01/2024 18:34,17/01/2024 18:34,Pay Bill from 070340***243 - LEVITAN *** Acc. vk3,Completed,5000,,5000,TRUE,Pay Utility,070340***243 - LEVITAN ***,,vk3
SAH097IIZ8,17/01/2024 06:33,17/01/2024 06:33,Utility Account to Organization Settlement Account,Completed,,-7000,0,TRUE,Utility Account to Organization Settlement Account,887674 - ANCIENT WELLS LTD 1,,
SAG68EC2EQ,16/01/2024 19:48,16/01/2024 19:47,Pay Bill from 254720***582 - SHADRACK *** Acc. v01,Completed,7000,,7000,TRUE,Pay Utility,254720***582 - SHADRACK ***,,v01
SAG37Q6PQ3,16/01/2024 17:20,16/01/2024 17:20,Utility Account to Organization Settlement Account,Completed,,-5000,0,TRUE,Utility Account to Organization Settlement Account,887674 - ANCIENT WELLS LTD 1,,
SAG578BSQP,16/01/2024 14:48,16/01/2024 14:48,Pay Bill from 074326***596 - EMILY *** Acc. V58,Completed,5000,,5000,TRUE,Pay Utility with OD via STK,074326***596 - EMILY ***,,V58
SAG26UD2J2,16/01/2024 12:46,16/01/2024 12:46,Utility Account to Organization Settlement Account,Completed,,-7000,0,TRUE,Utility Account to Organization Settlement Account,887674 - ANCIENT WELLS LTD 1,,
SAG36HXQF1,16/01/2024 10:54,16/01/2024 10:54,Pay Bill from 254706***665 - CHRIS *** Acc. V22,Completed,7000,,7000,TRUE,Pay Utility,254706***665 - CHRIS ***,,V22
SAG05UJO70,16/01/2024 06:29,16/01/2024 06:29,Utility Account to Organization Settlement Account,Completed,,-11000,0,TRUE,Utility Account to Organization Settlement Account,887674 - ANCIENT WELLS LTD 1,,
SAF05P93VC,15/01/2024 23:47,15/01/2024 23:47,Pay Bill Online from 254799***490 - DANIEL *** Acc. V28,Completed,4000,,11000,TRUE,Pay Bill Online,254799***490 - DANIEL ***,,V28
SAF44TP6SW,15/01/2024 19:07,15/01/2024 19:07,Pay Bill from 254720***443 - FATUMA *** Acc. V21,Completed,7000,,7000,TRUE,Pay Utility,254720***443 - FATUMA ***,,V21
SAF53V2JEL,15/01/2024 14:50,15/01/2024 14:50,Utility Account to Organization Settlement Account,Completed,,-7100,0,TRUE,Utility Account to Organization Settlement Account,887674 - ANCIENT WELLS LTD 1,,
SAF62XB49M,15/01/2024 09:57,15/01/2024 09:57,Pay Bill from 254701***081 - JOSEPHINE *** Acc. v34,Completed,4000,,7100,TRUE,Pay Utility,254701***081 - JOSEPHINE ***,,v34
SAF72PZR85,15/01/2024 08:47,15/01/2024 08:47,Pay Bill from 254724***238 - Immacurate *** Acc. V45,Completed,3100,,3100,TRUE,Pay Utility,254724***238 - Immacurate ***,,V45
SAD0WXDBGK,13/01/2024 17:34,13/01/2024 17:34,Utility Account to Organization Settlement Account,Completed,,-8500,0,TRUE,Utility Account to Organization Settlement Account,887674 - ANCIENT WELLS LTD 1,,
SAC1TTQVEH,12/01/2024 18:21,12/01/2024 18:21,Pay Bill from 254723***451 - LUKE *** Acc. V54,Completed,8500,,8500,TRUE,Pay Utility,254723***451 - LUKE ***,,V54
SAC2TFPE1I,12/01/2024 16:41,12/01/2024 16:41,Utility Account to Organization Settlement Account,Completed,,-13600,0,TRUE,Utility Account to Organization Settlement Account,887674 - ANCIENT WELLS LTD 1,,
SAC5SO6SGX,12/01/2024 12:44,12/01/2024 12:44,Pay Bill Online from 254720***285 - DAMARIS *** Acc. V18,Completed,6600,,13600,TRUE,Pay Bill Online,254720***285 - DAMARIS ***,,V18
SAC3S1W6UL,12/01/2024 09:18,12/01/2024 09:18,Pay Bill Online from 254720***303 - PAUL *** Acc. V13,Completed,7000,,7000,TRUE,Pay Utility with OD Online,254720***303 - PAUL ***,,V13
SAC5RR1RJT,12/01/2024 07:10,12/01/2024 07:10,Utility Account to Organization Settlement Account,Completed,,-14000,0,TRUE,Utility Account to Organization Settlement Account,887674 - ANCIENT WELLS LTD 1,,
SAB2QIAD5K,11/01/2024 18:18,11/01/2024 18:18,Pay Bill from 254729***258 - Cliff *** Acc. vo5,Completed,7000,,14000,TRUE,Pay Utility,254729***258 - Cliff ***,,vo5
SAB3Q4I0LT,11/01/2024 16:38,11/01/2024 16:38,Pay Bill from 254729***880 - Eunice *** Acc. V33,Completed,7000,,7000,TRUE,Pay Utility,254729***880 - Eunice ***,,V33
SAB6P5KQ3M,11/01/2024 11:31,11/01/2024 11:31,Utility Account to Organization Settlement Account,Completed,,-3500,0,TRUE,Utility Account to Organization Settlement Account,887674 - ANCIENT WELLS LTD 1,,
SAB6OQN77E,11/01/2024 09:17,11/01/2024 09:17,Pay Bill from 254706***908 - joseph *** Acc. V45,Completed,3500,,3500,TRUE,Pay Utility,254706***908 - joseph ***,,V45
SAB2ODVFMW,11/01/2024 06:29,11/01/2024 06:29,Utility Account to Organization Settlement Account,Completed,,-14000,0,TRUE,Utility Account to Organization Settlement Account,887674 - ANCIENT WELLS LTD 1,,
SAA1LWPZI5,10/01/2024 12:12,10/01/2024 12:12,Pay Bill from 254702***335 - IMMACULATE *** Acc. v39,Completed,7000,,14000,TRUE,Pay Utility,254702***335 - IMMACULATE ***,,v39
SAA1LEVQ0J,10/01/2024 09:37,10/01/2024 09:37,Pay Bill from 070434***708 - WENDY *** Acc. V17,Completed,7000,,7000,TRUE,Pay Utility,070434***708 - WENDY ***,,V17
SAA1L1HTRB,10/01/2024 07:12,10/01/2024 07:12,Utility Account to Organization Settlement Account,Completed,,-11500,0,TRUE,Utility Account to Organization Settlement Account,887674 - ANCIENT WELLS LTD 1,,
SA92KU9MLK,09/01/2024 23:39,09/01/2024 23:39,Pay Bill from 011206***814 - JOHN *** Acc. V53,Completed,7000,,11500,TRUE,Pay Utility with OD via STK,011206***814 - JOHN ***,,V53
SA90KRGZ16,09/01/2024 22:37,09/01/2024 22:37,Pay Bill from 254714***566 - IMMACURATE *** Acc. V45,Completed,4500,,4500,TRUE,Pay Utility,254714***566 - IMMACURATE ***,,V45
SA91JMIQMJ,09/01/2024 17:52,09/01/2024 17:52,Utility Account to Organization Settlement Account,Completed,,-17000,0,TRUE,Utility Account to Organization Settlement Account,887674 - ANCIENT WELLS LTD 1,,
SA94JDGQ78,09/01/2024 16:50,09/01/2024 16:50,Pay Bill from 254717***709 - CAROLINE *** Acc. V15,Completed,7000,,17000,TRUE,Pay Utility,254717***709 - CAROLINE ***,,V15
SA91IUGLA1,09/01/2024 14:26,09/01/2024 14:26,Pay Bill Online from 254715***283 - alex *** Acc. v7,Completed,3000,,10000,TRUE,Pay Bill Online,254715***283 - alex ***,,v7
SA90ITT586,09/01/2024 14:21,09/01/2024 14:21,Pay Bill from 011536***438 - zibborah *** Acc. V48,Completed,7000,,7000,TRUE,Pay Utility,011536***438 - zibborah ***,,V48
SA91HROFPX,09/01/2024 07:24,09/01/2024 07:24,Utility Account to Organization Settlement Account,Completed,,-19100,0,TRUE,Utility Account to Organization Settlement Account,887674 - ANCIENT WELLS LTD 1,,
SA91HRNOLT,09/01/2024 07:23,09/01/2024 07:23,Pay Bill from 254722***623 - SUSAN *** Acc. V56,Completed,7000,,19100,TRUE,Pay Utility,254722***623 - SUSAN ***,,V56
SA88H3YP2W,08/01/2024 20:36,08/01/2024 20:36,Pay Bill Online from 254715***283 - alex *** Acc. v7,Completed,1600,,12100,TRUE,Pay Bill Online,254715***283 - alex ***,,v7
SA84GY0YGY,08/01/2024 19:59,08/01/2024 19:59,Pay Bill from 254759***176 - christine *** Acc. vk1,Completed,3500,,10500,TRUE,Pay Utility,254759***176 - christine ***,,vk1
SA81GNHHUX,08/01/2024 19:01,08/01/2024 19:01,Pay Bill from 254707***557 - GRACE *** Acc. V60,Completed,7000,,7000,TRUE,Pay Utility,254707***557 - GRACE ***,,V60
SA81G5D3IL,08/01/2024 17:01,08/01/2024 17:01,Utility Account to Organization Settlement Account,Completed,,-13200,0,TRUE,Utility Account to Organization Settlement Account,887674 - ANCIENT WELLS LTD 1,,
SA81FM5ZPJ,08/01/2024 14:25,08/01/2024 14:25,Pay Bill from 254705***032 - NAOMI *** Acc. v46,Completed,6600,,13200,TRUE,Pay Utility,254705***032 - NAOMI ***,,v46
SA83FIJH8B,08/01/2024 13:55,08/01/2024 13:55,Pay Bill from 254712***662 - BENARD *** Acc. V16,Completed,6600,,6600,TRUE,Pay Utility,254712***662 - BENARD ***,,V16
SA85EH9V4F,08/01/2024 08:28,08/01/2024 08:28,Utility Account to Organization Settlement Account,Completed,,-7000,0,TRUE,Utility Account to Organization Settlement Account,887674 - ANCIENT WELLS LTD 1,,
SA71DP062F,07/01/2024 20:30,07/01/2024 20:30,Pay Bill from 254703***096 - KEVIN *** Acc. V51,Completed,7000,,7000,TRUE,Pay Utility,254703***096 - KEVIN ***,,V51
SA72C8DDN8,07/01/2024 13:45,07/01/2024 13:45,Utility Account to Organization Settlement Account,Completed,,-7000,0,TRUE,Utility Account to Organization Settlement Account,887674 - ANCIENT WELLS LTD 1,,
SA78BNAGJY,07/01/2024 10:05,07/01/2024 10:05,Pay Bill from 254702***689 - ISAIAH *** Acc. V49,Completed,7000,,7000,TRUE,Pay Utility,254702***689 - ISAIAH ***,,V49
SA72BD2P1U,07/01/2024 08:03,07/01/2024 08:03,Utility Account to Organization Settlement Account,Completed,,-6600,0,TRUE,Utility Account to Organization Settlement Account,887674 - ANCIENT WELLS LTD 1,,
SA74B42S7C,07/01/2024 00:07,07/01/2024 00:07,Pay Bill from 079580***227 - Lucy *** Acc. V36 ,Completed,6600,,6600,TRUE,Pay Utility with OD via STK,079580***227 - Lucy ***,,V36
SA60B1U1JS,06/01/2024 23:07,06/01/2024 23:07,Utility Account to Organization Settlement Account,Completed,,-4900,0,TRUE,Utility Account to Organization Settlement Account,887674 - ANCIENT WELLS LTD 1,,
SA60AP2RRY,06/01/2024 20:49,06/01/2024 20:49,Pay Bill from 070447***066 - KISIA *** Acc. vk2,Completed,2400,,4900,TRUE,Pay Utility,070447***066 - KISIA ***,,vk2
SA68ALD7KC,06/01/2024 20:24,06/01/2024 20:24,Pay Bill from 254723***451 - LUKE *** Acc. V54,Completed,2500,,2500,TRUE,Pay Utility with OD via STK,254723***451 - LUKE ***,,V54
SA66AGYL2S,06/01/2024 19:57,06/01/2024 19:57,Utility Account to Organization Settlement Account,Completed,,-8000,0,TRUE,Utility Account to Organization Settlement Account,887674 - ANCIENT WELLS LTD 1,,
SA619UWBJZ,06/01/2024 17:42,06/01/2024 17:42,Pay Bill Online from 254700***152 - ANNAH *** Acc. v09,Completed,1000,,8000,TRUE,Pay Utility with OD Online,254700***152 - ANNAH ***,,v09
SA689T1NEW,06/01/2024 17:29,06/01/2024 17:29,Pay Bill from 254722***253 - DAVID *** Acc. v32,Completed,7000,,7000,TRUE,Pay Utility,254722***253 - DAVID ***,,v32
SA6684TK8W,06/01/2024 08:52,06/01/2024 08:52,Utility Account to Organization Settlement Account,Completed,,-7000,0,TRUE,Utility Account to Organization Settlement Account,887674 - ANCIENT WELLS LTD 1,,
SA557Q0SHH,05/01/2024 23:35,05/01/2024 23:35,Pay Bill from 072938***149 - SYLVIA *** Acc. v30,Completed,7000,,7000,TRUE,Pay Utility,072938***149 - SYLVIA ***,,v30
SA517O8LQP,05/01/2024 22:52,05/01/2024 22:52,Utility Account to Organization Settlement Account,Completed,,-7000,0,TRUE,Utility Account to Organization Settlement Account,887674 - ANCIENT WELLS LTD 1,,
SA537D9QZ3,05/01/2024 20:52,05/01/2024 20:52,Pay Bill Online from 254791***803 - JOHN *** Acc. v14,Completed,7000,,7000,TRUE,Pay Bill Online,254791***803 - JOHN ***,,v14
SA5079F7MK,05/01/2024 20:24,05/01/2024 20:24,Utility Account to Organization Settlement Account,Completed,,-14200,0,TRUE,Utility Account to Organization Settlement Account,887674 - ANCIENT WELLS LTD 1,,
SA51753C0T,05/01/2024 19:55,05/01/2024 19:55,Pay Bill from 072927***890 - HALIMA *** Acc. V03,Completed,7000,,14200,TRUE,Pay Utility,072927***890 - HALIMA ***,,V03
SA576NKC2J,05/01/2024 18:08,05/01/2024 18:08,FSI to Pay Bill by 3033815 - LOOP B2C. Acc. V55 via WEB by LOOP B2C.\TRINITYAPI,Completed,200,,7200,TRUE,FSI to Pay Bill via API,3033815 - LOOP B2C.,,V55
SA516NE0AD,05/01/2024 18:07,05/01/2024 18:07,FSI to Pay Bill by 3033815 - LOOP B2C. Acc. V55 via WEB by LOOP B2C.\TRINITYAPI,Completed,7000,,7000,TRUE,FSI to Pay Bill via API,3033815 - LOOP B2C.,,V55
SA576K6R0X,05/01/2024 17:44,05/01/2024 17:44,Utility Account to Organization Settlement Account,Completed,,-2000,0,TRUE,Utility Account to Organization Settlement Account,887674 - ANCIENT WELLS LTD 1,,
SA5767RWUF,05/01/2024 16:07,05/01/2024 16:07,Pay Bill from 254723***451 - LUKE *** Acc. V54,Completed,2000,,2000,TRUE,Pay Utility with OD via STK,254723***451 - LUKE ***,,V54
SA545ZBQ4I,05/01/2024 14:55,05/01/2024 14:55,Utility Account to Organization Settlement Account,Completed,,-27000,0,TRUE,Utility Account to Organization Settlement Account,887674 - ANCIENT WELLS LTD 1,,
SA515V85J3,05/01/2024 14:20,05/01/2024 14:20,Pay Bill from 074020***174 - Josephine *** Acc. V59,Completed,12000,,27000,TRUE,Pay Utility,074020***174 - Josephine ***,,V59
SA585P8EXS,05/01/2024 13:29,05/01/2024 13:29,Pay Bill from 254705***486 - JOHN *** Acc. v31,Completed,15000,,15000,TRUE,Pay Utility,254705***486 - JOHN ***,,v31
SA564LA0Z6,05/01/2024 06:31,05/01/2024 06:31,Utility Account to Organization Settlement Account,Completed,,-7000,0,TRUE,Utility Account to Organization Settlement Account,887674 - ANCIENT WELLS LTD 1,,
SA404CLWPQ,04/01/2024 22:31,04/01/2024 22:31,Pay Bill from 254799***761 - Samuel *** Acc. V42,Completed,7000,,7000,TRUE,Pay Utility,254799***761 - Samuel ***,,V42
SA4929UEQX,04/01/2024 12:38,04/01/2024 12:38,Utility Account to Organization Settlement Account,Completed,,-7000,0,TRUE,Utility Account to Organization Settlement Account,887674 - ANCIENT WELLS LTD 1,,
SA45262DVB,04/01/2024 12:04,04/01/2024 12:04,Pay Bill Online from 075960***060 - ELVIS *** Acc. V47,Completed,7000,,7000,TRUE,Pay Utility with OD Online,075960***060 - ELVIS ***,,V47
SA491UGAJX,04/01/2024 10:16,04/01/2024 10:16,Utility Account to Organization Settlement Account,Completed,,-107800,0,TRUE,Utility Account to Organization Settlement Account,887674 - ANCIENT WELLS LTD 1,,
SA491QR447,04/01/2024 09:40,04/01/2024 09:40,Pay Bill from 071420***896 - JANET *** Acc. vk4,Completed,3500,,107800,TRUE,Pay Utility,071420***896 - JANET ***,,vk4
SA451Q1LYR,04/01/2024 09:33,04/01/2024 09:33,Pay Bill from 254706***075 - HARON *** Acc. V 38,Completed,7000,,104300,TRUE,Pay Utility with OD via STK,254706***075 - HARON ***,,V
SA30YW4Z6E,03/01/2024 17:06,03/01/2024 17:06,Pay Bill Online from 254705***945 - PATRICK *** Acc. HseB4,Completed,66800,,97300,TRUE,Pay Bill Online,254705***945 - PATRICK ***,,HseB4
SA37YV26N1,03/01/2024 16:57,03/01/2024 16:57,Pay Bill from 254708***289 - BERYLE *** Acc. v02,Completed,17500,,30500,TRUE,Pay Utility,254708***289 - BERYLE ***,,v02
SA34YTNBBQ,03/01/2024 16:45,03/01/2024 16:45,Pay Bill from 254711***648 - KIPLANGAT *** Acc. V37,Completed,13000,,13000,TRUE,Pay Utility,254711***648 - KIPLANGAT ***,,V37
SA33YNK1LT,03/01/2024 15:52,03/01/2024 15:52,Utility Account to Organization Settlement Account,Completed,,-17000,0,TRUE,Utility Account to Organization Settlement Account,887674 - ANCIENT WELLS LTD 1,,
SA35YIB5L1,03/01/2024 15:05,03/01/2024 15:05,Pay Bill from 071474***222 - WILSON *** Acc. v25,Completed,7000,,17000,TRUE,Pay Utility,071474***222 - WILSON ***,,v25
SA38YC37ES,03/01/2024 14:09,03/01/2024 14:09,Pay Bill from 074275***405 - esther *** Acc. V35,Completed,10000,,10000,TRUE,Pay Utility with OD via STK,074275***405 - esther ***,,V35
SA35Y3WIZD,03/01/2024 12:56,03/01/2024 12:56,Utility Account to Organization Settlement Account,Completed,,-8500,0,TRUE,Utility Account to Organization Settlement Account,887674 - ANCIENT WELLS LTD 1,,
SA37XN27CZ,03/01/2024 10:20,03/01/2024 10:20,Pay Bill Online from 254706***390 - ELIZABETH *** Acc. V06,Completed,1000,,8500,TRUE,Pay Bill Online,254706***390 - ELIZABETH ***,,V06
SA30XM2B66,03/01/2024 10:11,03/01/2024 10:11,Pay Bill from 254715***540 - HILLARY *** Acc. v19,Completed,7500,,7500,TRUE,Pay Utility,254715***540 - HILLARY ***,,v19
SA32XHHEBU,03/01/2024 09:25,03/01/2024 09:25,Utility Account to Organization Settlement Account,Completed,,-7000,0,TRUE,Utility Account to Organization Settlement Account,887674 - ANCIENT WELLS LTD 1,,
SA35XG1TKL,03/01/2024 09:10,03/01/2024 09:10,Pay Bill from 254741***886 - TERESIA *** Acc. v50,Completed,7000,,7000,TRUE,Pay Utility,254741***886 - TERESIA ***,,v50
SA29WLC1M1,02/01/2024 20:34,02/01/2024 20:34,Utility Account to Organization Settlement Account,Completed,,-7000,0,TRUE,Utility Account to Organization Settlement Account,887674 - ANCIENT WELLS LTD 1,,
SA23VWOHGX,02/01/2024 17:51,02/01/2024 17:51,Pay Bill from 254740***844 - LINA *** Acc. v29,Completed,7000,,7000,TRUE,Pay Utility,254740***844 - LINA ***,,v29
SA25VDUXMB,02/01/2024 15:09,02/01/2024 15:09,Utility Account to Organization Settlement Account,Completed,,-6600,0,TRUE,Utility Account to Organization Settlement Account,887674 - ANCIENT WELLS LTD 1,,
SA18S8MMVW,01/01/2024 13:11,01/01/2024 13:11,Pay Bill Online from 254726***584 - JULIANA *** Acc. v4,Completed,6600,,6600,TRUE,Pay Bill Online,254726***584 - JULIANA ***,,v4
SA17S1ILK9,01/01/2024 12:01,01/01/2024 12:01,Utility Account to Organization Settlement Account,Completed,,-16000,0,TRUE,Utility Account to Organization Settlement Account,887674 - ANCIENT WELLS LTD 1,,
SA18S0D7Z0,01/01/2024 11:50,01/01/2024 11:50,Pay Bill from 254706***646 - MIRIAM *** Acc. V08,Completed,8500,,16000,TRUE,Pay Utility,254706***646 - MIRIAM ***,,V08
SA13RFBAWX,01/01/2024 07:53,01/01/2024 07:53,Pay Bill from 254720***700 - EUNICE *** Acc. V26,Completed,7500,,7500,TRUE,Pay Utility,254720***700 - EUNICE ***,,V26
