Receipt No.,Completion Time,Initiation Time,Details,Transaction Status,Paid In,Withdrawn,Balance,Balance Confirmed,Reason Type,Other Party Info,Linked Transaction ID,A/C No.
QIE4Z3WYDM,14/09/2022 20:51,14/09/2022 20:51,Pay Bill from 254721623212 - MOSES KARANJA WAMBURA Acc. Z16,Completed,16000,,136900,TRUE,Pay Utility,254721623212 - MOSES KARANJA WAMBURA,,Z16
QIE7YHT7VJ,14/09/2022 17:26,14/09/2022 17:26,Utility Account to Organization Settlement Account,Completed,,-38000,120900,TRUE,Utility Account to Organization Settlement Account,887264 - ANCIENT WELLS LTD 2,,
QIE9YG0IUV,14/09/2022 17:05,14/09/2022 17:05,Pay Bill from 254728912446 - GRACE NJERI KIMANI Acc. ancient wells ,Completed,40000,,158900,TRUE,Pay Utility,254728912446 - GRACE NJERI KIMANI,,ancient
QIE9YDY1ED,14/09/2022 16:39,14/09/2022 16:39,Pay Bill from 254720011245 - GRACE WACHERA MWANGI Acc. Joseph wambugu H 17,Completed,14400,,118900,TRUE,Pay Utility with OD via STK,254720011245 - GRACE WACHERA MWANGI,,Joseph
QIE5YAY9VR,14/09/2022 15:57,14/09/2022 15:57,Utility Account to Organization Settlement Account,Completed,,-10000,104500,TRUE,Utility Account to Organization Settlement Account,887264 - ANCIENT WELLS LTD 2,,
QID5VFXEHZ,13/09/2022 08:18,13/09/2022 08:18,Pay Bill from 254724825611 - PAULINE INDIEKA Acc. D 13,Completed,6000,,114500,TRUE,Pay Utility,254724825611 - PAULINE INDIEKA,,D
QIC1UCU8K1,12/09/2022 16:51,12/09/2022 16:51,Utility Account to Organization Settlement Account,Completed,,-417000,108500,TRUE,Utility Account to Organization Settlement Account,887264 - ANCIENT WELLS LTD 2,,
QIC4U2FY58,12/09/2022 14:36,12/09/2022 14:36,Pay Bill Online from 254723853941 - ELIZABETH MUTIO MUTUKU Acc. house number 12,Completed,16000,,525500,TRUE,Pay Bill Online,254723853941 - ELIZABETH MUTIO MUTUKU,,house
QIC1TQ89OF,12/09/2022 11:54,12/09/2022 11:54,Pay Bill Online from 254723303260 - nely covetti mwenesi Acc. SAVANNAH 102,Completed,2000,,509500,TRUE,Pay Bill Online,254723303260 - nely covetti mwenesi,,SAVANNAH
QIB3S3VEX9,11/09/2022 15:24,11/09/2022 15:24,Pay Bill from 254720213934 - TERRY KAWIRA SALESIO Acc. 20,Completed,4000,,507500,TRUE,Pay Utility,254720213934 - TERRY KAWIRA SALESIO,,20
QIA8PBJT1S,10/09/2022 09:57,10/09/2022 09:57,Pay Bill from 254724312731 - Judith Omadi Acc. hse no.3,Completed,12000,,503500,TRUE,Pay Utility,254724312731 - Judith Omadi,,hse
QIA1P86BE7,10/09/2022 09:06,10/09/2022 09:06,Pay Bill from 254725623227 - MARY ALICE MAINA Acc. B2,Completed,13500,,491500,TRUE,Pay Utility,254725623227 - MARY ALICE MAINA,,B2
QI93ON5M95,09/09/2022 20:17,09/09/2022 20:17,Pay Bill Online from 254703340068 - FAITH NJOROGE Acc. dandora D1,Completed,25500,,478000,TRUE,Pay Bill Online,254703340068 - FAITH NJOROGE,,dandora
QI98O6CVEG,09/09/2022 17:51,09/09/2022 17:51,Pay Bill from 254722314500 - SHARON AKINYI OBIERO Acc. house 1,Completed,12000,,452500,TRUE,Pay Utility,254722314500 - SHARON AKINYI OBIERO,,house
QI98NY89JA,09/09/2022 16:23,09/09/2022 16:23,Pay Bill from 254725014210 - FREDRICK MOUNDE Acc. epz mh,Completed,30000,,440500,TRUE,Pay Utility,254725014210 - FREDRICK MOUNDE,,epz
QI98N8H7YO,09/09/2022 10:39,09/09/2022 10:39,Merchant Pay Utility Received from 7800260 - FAIZ OMAR BASABRA Acc. Nairobi west 12,Completed,77000,,410500,TRUE,Merchant Pay Utility via API,7800260 - FAIZ OMAR BASABRA,,Nairobi
QI83M7KTM3,08/09/2022 18:57,08/09/2022 18:57,Pay Bill from 254706859500 - JULIA NJAMBI WAINAINA Acc. U4,Completed,5500,,333500,TRUE,Pay Utility,254706859500 - JULIA NJAMBI WAINAINA,,U4
QI85M5ZEWR,08/09/2022 18:43,08/09/2022 18:43,Pay Bill Online from 254724362830 - Evan Mwangi Mutungu Acc. House no. 19,Completed,15000,,328000,TRUE,Pay Bill Online,254724362830 - Evan Mwangi Mutungu,,House
QI82LXLDXQ,08/09/2022 17:22,08/09/2022 17:22,Pay Bill from 254726928715 - ELIZAPHAN KAMAU NDUTA Acc. Z2,Completed,18000,,313000,TRUE,Pay Utility,254726928715 - ELIZAPHAN KAMAU NDUTA,,Z2
QI84LJBK58,08/09/2022 14:21,08/09/2022 14:21,Pay Bill from 0791391378 - Sophie Mueni Muvithu Acc. Sophie Mueni Hse no6,Completed,5500,,295000,TRUE,Pay Utility,0791391378 - Sophie Mueni Muvithu,,Sophie
QI81L5M9D1,08/09/2022 11:14,08/09/2022 11:14,Pay Bill from 0115556359 - CHEPNGENO   EDITH Acc. c701,Completed,20000,,289500,TRUE,Pay Utility,0115556359 - CHEPNGENO   EDITH,,c701
QI81L42O91,08/09/2022 10:53,08/09/2022 10:53,Pay Bill from 254721902407 - GEORGE OTIENO NDHAWA Acc. A202,Completed,138000,,269500,TRUE,Pay Utility,254721902407 - GEORGE OTIENO NDHAWA,,A202
QI71JNL3S7,07/09/2022 16:05,07/09/2022 16:05,Pay Bill from 254722711299 - ANNE WANGUI KAMAU Acc. Samvile Hse 11,Completed,15000,,131500,TRUE,Pay Utility,254722711299 - ANNE WANGUI KAMAU,,Samvile
QI62IGVGOW,06/09/2022 22:00,06/09/2022 22:00,Pay Bill from 254720213934 - TERRY KAWIRA SALESIO Acc. 20,Completed,12000,,116500,TRUE,Pay Utility,254720213934 - TERRY KAWIRA SALESIO,,20
QI63HCVWW9,06/09/2022 14:40,06/09/2022 14:40,Pay Bill from 254718167869 - MARK OTIENO Acc. A3,Completed,14000,,104500,TRUE,Pay Utility,254718167869 - MARK OTIENO,,A3
QI59GEQM6Z,05/09/2022 23:50,05/09/2022 23:50,Pay Bill Online from 254722949879 - KAMANDE JOSEPH Acc. 10,Completed,15000,,90500,TRUE,Pay Bill Online,254722949879 - KAMANDE JOSEPH,,10
QI55GCCYSN,05/09/2022 22:10,05/09/2022 22:10,Pay Bill from 0759385844 - ROSEMARY WAMBUI GITAU Acc. B5,Completed,6000,,75500,TRUE,Pay Utility,0759385844 - ROSEMARY WAMBUI GITAU,,B5
QI50G4QI4W,05/09/2022 20:19,05/09/2022 20:19,Utility Account to Organization Settlement Account,Completed,,-500,69500,TRUE,Utility Account to Organization Settlement Account,887264 - ANCIENT WELLS LTD 2,,
QI59G4BFDZ,05/09/2022 20:15,05/09/2022 20:15,Utility Account to Organization Settlement Account,Completed,,-13000,70000,TRUE,Utility Account to Organization Settlement Account,887264 - ANCIENT WELLS LTD 2,,
QI52ENG7EI,05/09/2022 09:28,05/09/2022 09:28,Pay Bill Online from 254723909186 - BRIAN LIBASIA Acc. 18,Completed,16000,,83000,TRUE,Pay Bill Online,254723909186 - BRIAN LIBASIA,,18
QI51ECUYUL,05/09/2022 01:37,05/09/2022 01:37,Pay Bill from 254715807500 - YASSIN ALI JUMA Acc. 4,Completed,14000,,67000,TRUE,Pay Utility,254715807500 - YASSIN ALI JUMA,,4
QI34C9WXYO,03/09/2022 21:59,03/09/2022 21:59,Pay Bill from 254723882311 - VERONICAH WAMBUGU Acc. house number 9,Completed,16000,,53000,TRUE,Pay Utility,254723882311 - VERONICAH WAMBUGU,,house
QI38BB39V8,03/09/2022 15:52,03/09/2022 15:52,Pay Bill from 254722255523 - KELVIN WAMJAU KAMAU Acc. Z14 ,Completed,10000,,37000,TRUE,Pay Utility,254722255523 - KELVIN WAMJAU KAMAU,,Z14
QI166D5DEK,01/09/2022 10:53,01/09/2022 10:53,Pay Bill from 254722627652 - BONIFACE MWAMUTSI CHENGO Acc. Hse D9/10,Completed,11000,,27000,TRUE,Pay Utility,254722627652 - BONIFACE MWAMUTSI CHENGO,,Hse
