Receipt No.,Completion Time,Initiation Time,Details,Transaction Status,Paid In,Withdrawn,Balance,Balance Confirmed,Reason Type,Other Party Info,Linked Transaction ID,A/C No.
SAO6WWF3D6,24/01/2024 08:57,24/01/2024 08:57,Pay Bill from 072977***299 - WAMBUA *** Acc. c1,Completed,2750,,2750,TRUE,Pay Utility,072977***299 - WAMBUA ***,,c1
SAM2Q43OL4,22/01/2024 10:04,22/01/2024 10:04,Utility Account to Organization Settlement Account,Completed,,-11000,0,TRUE,Utility Account to Organization Settlement Account,887075 - ANCIENT WELLS LTD 3,,
SAM9PZOZPZ,22/01/2024 09:20,22/01/2024 09:20,Pay Bill from 254727***830 - CATHERINE *** Acc. A5,Completed,11000,,11000,TRUE,Pay Utility with OD via STK,254727***830 - CATHERINE ***,,A5
SAK7JCNSZF,20/01/2024 08:05,20/01/2024 08:05,Utility Account to Organization Settlement Account,Completed,,-8000,0,TRUE,Utility Account to Organization Settlement Account,887075 - ANCIENT WELLS LTD 3,,
SAK4JAOVQ4,20/01/2024 07:36,20/01/2024 07:36,Pay Bill Online from 071934***205 - Christabel *** Acc. D1,Completed,8000,,8000,TRUE,Pay Bill Online,071934***205 - Christabel ***,,D1
SAH2BHZV3U,17/01/2024 19:02,17/01/2024 19:02,Utility Account to Organization Settlement Account,Completed,,-17000,0,TRUE,Utility Account to Organization Settlement Account,887075 - ANCIENT WELLS LTD 3,,
SAH3AR6ZOV,17/01/2024 15:50,17/01/2024 15:50,Pay Bill from 254727***164 - NICHOLAS *** Acc. G2,Completed,17000,,17000,TRUE,Pay Utility,254727***164 - NICHOLAS ***,,G2
SAH49MBSPY,17/01/2024 09:37,17/01/2024 09:37,Utility Account to Organization Settlement Account,Completed,,-16500,0,TRUE,Utility Account to Organization Settlement Account,887075 - ANCIENT WELLS LTD 3,,
SAG08Z418E,16/01/2024 22:31,16/01/2024 22:31,Pay Bill from 254707***121 - JOHNSTONE *** Acc. b4,Completed,8500,,16500,TRUE,Pay Utility,254707***121 - JOHNSTONE ***,,b4
SAG96MJD3B,16/01/2024 11:35,16/01/2024 11:35,Pay Bill from 254715***408 - JONATHAN *** Acc. G1,Completed,8000,,8000,TRUE,Pay Utility,254715***408 - JONATHAN ***,,G1
SAG763ELI5,16/01/2024 08:33,16/01/2024 08:33,Utility Account to Organization Settlement Account,Completed,,-16000,0,TRUE,Utility Account to Organization Settlement Account,887075 - ANCIENT WELLS LTD 3,,
SAG45SMBZI,16/01/2024 04:35,16/01/2024 04:35,Pay Bill Online from 079991***339 - PETER *** Acc. c5,Completed,1000,,16000,TRUE,Pay Bill Online,079991***339 - PETER ***,,c5
SAF4590TJ2,15/01/2024 20:33,15/01/2024 20:33,Pay Bill from 254724***163 - IRENE *** Acc. A4,Completed,12000,,15000,TRUE,Pay Utility,254724***163 - IRENE ***,,A4
SAF6370ZGA,15/01/2024 11:23,15/01/2024 11:23,Pay Bill from 072977***299 - WAMBUA *** Acc. c1,Completed,3000,,3000,TRUE,Pay Utility,072977***299 - WAMBUA ***,,c1
SAF12Y0DFR,15/01/2024 10:04,15/01/2024 10:04,Utility Account to Organization Settlement Account,Completed,,-27500,0,TRUE,Utility Account to Organization Settlement Account,887075 - ANCIENT WELLS LTD 3,,
SAE8ZAN6QI,14/01/2024 13:23,14/01/2024 13:23,Pay Bill from 074871***970 - judith *** Acc. E5,Completed,8500,,27500,TRUE,Pay Utility,074871***970 - judith ***,,E5
SAE0YOVSQW,14/01/2024 09:33,14/01/2024 09:33,Pay Bill from 074551***938 - MARION *** Acc. HOUSE A2,Completed,3500,,19000,TRUE,Pay Utility,074551***938 - MARION ***,,HOUSE
SAC0TXTSL0,12/01/2024 18:47,12/01/2024 18:47,Pay Bill Online from 254715***357 - ELIZABETH *** Acc. C2,Completed,7500,,15500,TRUE,Pay Bill Online,254715***357 - ELIZABETH ***,,C2
SAC1RNQCML,12/01/2024 05:23,12/01/2024 05:23,Pay Bill from 072057***944 - Ronoh *** Acc. D2,Completed,8000,,8000,TRUE,Pay Utility,072057***944 - Ronoh ***,,D2
SAB4P1NIMA,11/01/2024 10:57,11/01/2024 10:57,Utility Account to Organization Settlement Account,Completed,,-150200,0,TRUE,Utility Account to Organization Settlement Account,887075 - ANCIENT WELLS LTD 3,,
SA93K2SGA7,09/01/2024 19:28,09/01/2024 19:28,Pay Bill from 254708***835 - SUSAN *** Acc. B2,Completed,8000,,150200,TRUE,Pay Utility,254708***835 - SUSAN ***,,B2
SA84FKHBNS,08/01/2024 14:11,08/01/2024 14:11,Pay Bill from 254710***036 - Allan *** Acc. F5,Completed,8500,,142200,TRUE,Pay Utility,254710***036 - Allan ***,,F5
SA76B4NLAM,07/01/2024 00:32,07/01/2024 00:32,Pay Bill from 079156***463 - Lilian *** Acc. F6,Completed,8500,,133700,TRUE,Pay Utility with OD via STK,079156***463 - Lilian ***,,F6
SA54592QC0,05/01/2024 11:07,05/01/2024 11:07,Pay Bill Online from 074028***700 - SERAH *** Acc. c4serahmukulu,Completed,8500,,125200,TRUE,Pay Bill Online,074028***700 - SERAH ***,,c4serahmukulu
SA514W6XJR,05/01/2024 09:06,05/01/2024 09:06,Pay Bill from 254727***857 - PETER *** Acc. Peter Ngundo e6,Completed,8500,,116700,TRUE,Pay Utility,254727***857 - PETER ***,,Peter
SA534NZ30N,05/01/2024 07:29,05/01/2024 07:29,Pay Bill from 254768***417 - PAUL *** Acc. D6,Completed,8500,,108200,TRUE,Pay Utility,254768***417 - PAUL ***,,D6
SA463SHA4Y,04/01/2024 19:42,04/01/2024 19:42,Pay Bill from 074180***396 - JAMES *** Acc. B5,Completed,8500,,99700,TRUE,Pay Utility,074180***396 - JAMES ***,,B5
SA423O3JZI,04/01/2024 19:18,04/01/2024 19:18,Pay Bill Online from 254792***730 - kevin *** Acc. F3,Completed,8000,,91200,TRUE,Pay Bill Online,254792***730 - kevin ***,,F3
SA493ME44H,04/01/2024 19:08,04/01/2024 19:08,Pay Bill from 071934***205 - Christabel *** Acc. D1,Completed,8000,,83200,TRUE,Pay Utility,071934***205 - Christabel ***,,D1
SA423G1OGM,04/01/2024 18:29,04/01/2024 18:29,Pay Bill Online from 254720***157 - BENSON *** Acc. b6,Completed,8500,,75200,TRUE,Pay Bill Online,254720***157 - BENSON ***,,b6
SA4219PAC0,04/01/2024 02:09,04/01/2024 02:09,Pay Bill from 254715***093 - GICHANA *** Acc. E3,Completed,8000,,66700,TRUE,Pay Utility,254715***093 - GICHANA ***,,E3
SA33YSW8MT,03/01/2024 16:39,03/01/2024 16:39,Pay Bill from 071503***019 - Omwenga *** Acc. E1,Completed,8000,,58700,TRUE,Pay Utility,071503***019 - Omwenga ***,,E1
SA38YBNRGM,03/01/2024 14:05,03/01/2024 14:05,Pay Bill from 254790***422 - david *** Acc. g2,Completed,9000,,50700,TRUE,Pay Utility,254790***422 - david ***,,g2
SA29UF859H,02/01/2024 09:35,02/01/2024 09:35,Pay Bill Online from 254792***122 - MWENDWA *** Acc. B1,Completed,8000,,41700,TRUE,Pay Bill Online,254792***122 - MWENDWA ***,,B1
SA15TTYQZH,01/01/2024 22:03,01/01/2024 22:03,Pay Bill from 079801***497 - GODWIN *** Acc. c6,Completed,8500,,33700,TRUE,Pay Utility,079801***497 - GODWIN ***,,c6
SA13SITXWD,01/01/2024 14:53,01/01/2024 14:53,Pay Bill Online from 254720***214 - SAMUEL *** Acc. B3,Completed,16000,,25200,TRUE,Pay Bill Online,254720***214 - SAMUEL ***,,B3
