Receipt No.,Completion Time,Initiation Time,Details,Transaction Status,Paid In,Withdrawn,Balance,Balance Confirmed,Reason Type,Other Party Info,Linked Transaction ID,A/C No.
QH62QRHO30,06/08/2022 07:23,06/08/2022 07:23,Pay Bill from 254701086112 - CAROLYNE KOKI MULWA Acc. V30,Completed,6600,,39600,TRUE,Pay Utility,254701086112 - CAROLYNE KOKI MULWA,,V30
QH53QFAR73,05/08/2022 21:13,05/08/2022 21:13,Pay Bill Online from 254728780393 - DINAH ONGIRI Acc. V39,Completed,7000,,33000,TRUE,Pay Bill Online,254728780393 - DINAH ONGIRI,,V39
QH50Q7VZRY,05/08/2022 19:57,05/08/2022 19:57,Pay Bill from 254743311673 - Maureen Njoki Wambui Acc. v60,Completed,1000,,26000,TRUE,Pay Utility,254743311673 - Maureen Njoki Wambui,,v60
QH51Q4L3LB,05/08/2022 19:29,05/08/2022 19:29,Pay Bill Online from 254740912300 - ADELIDE IMINZA CHAGUSIA Acc. v27,Completed,7000,,25000,TRUE,Pay Bill Online,254740912300 - ADELIDE IMINZA CHAGUSIA,,v27
QH52Q0FT84,05/08/2022 18:55,05/08/2022 18:55,Pay Bill from 254722578070 - SAMUEL MACHARIA Acc. v42,Completed,7000,,18000,TRUE,Pay Utility,254722578070 - SAMUEL MACHARIA,,v42
QH54PTGSQ0,05/08/2022 17:48,05/08/2022 17:48,Pay Bill from 254706920646 - MIRIAM CHEPTOO Acc. V08,Completed,7000,,11000,TRUE,Pay Utility,254706920646 - MIRIAM CHEPTOO,,V08
QH58PSPO8S,05/08/2022 17:40,05/08/2022 17:40,Pay Bill from 254720466443 - FATUMA MOHAMED ABDALLAH Acc. V21,Completed,4000,,4000,TRUE,Pay Utility,254720466443 - FATUMA MOHAMED ABDALLAH,,V21
QH59POUI1B,05/08/2022 16:58,05/08/2022 16:58,Utility Account to Organization Settlement Account,Completed,,-24200,0,TRUE,Utility Account to Organization Settlement Account,887674 - ANCIENT WELLS LTD 1,,
QH52PKNPX6,05/08/2022 16:07,05/08/2022 16:07,Pay Bill Online from 254704995854 - james karanja wairimu Acc. V54,Completed,6600,,24200,TRUE,Pay Bill Online,254704995854 - james karanja wairimu,,V54
QH55P0X23H,05/08/2022 11:53,05/08/2022 11:53,Pay Bill from 254723815832 - SEMEKIA ONDIALA Acc. V38,Completed,6600,,17600,TRUE,Pay Utility,254723815832 - SEMEKIA ONDIALA,,V38
QH54P0SS4O,05/08/2022 11:51,05/08/2022 11:51,Pay Bill Online from 254113615645 - brian litumbi embai Acc. V58,Completed,7000,,11000,TRUE,Pay Bill Online,254113615645 - brian litumbi embai,,V58
QH55OW45XR,05/08/2022 10:48,05/08/2022 10:48,Pay Bill from 254743311673 - Maureen Njoki Wambui Acc. V60,Completed,4000,,4000,TRUE,Pay Utility with OD via STK,254743311673 - Maureen Njoki Wambui,,V60
QH46NEZ5UY,04/08/2022 16:14,04/08/2022 16:14,Utility Account to Organization Settlement Account,Completed,,-7400,0,TRUE,Utility Account to Organization Settlement Account,887674 - ANCIENT WELLS LTD 1,,
QH46MNHMPC,04/08/2022 10:07,04/08/2022 10:07,Pay Bill from 254726702082 - STEPHEN NJUGUNA Acc. V02,Completed,7400,,7400,TRUE,Pay Utility,254726702082 - STEPHEN NJUGUNA,,V02
QH43MLXGLF,04/08/2022 09:45,04/08/2022 09:45,Utility Account to Organization Settlement Account,Completed,,-22200,0,TRUE,Utility Account to Organization Settlement Account,887674 - ANCIENT WELLS LTD 1,,
QH35M8DF7Z,03/08/2022 22:37,03/08/2022 22:37,Pay Bill from 254707183471 - PETINA NEKESA Acc. V23,Completed,6600,,22200,TRUE,Pay Utility,254707183471 - PETINA NEKESA,,V23
QH34M50I4U,03/08/2022 21:32,03/08/2022 21:32,Pay Bill from 254700904994 - HUSSEIN HASSAN LAMA Acc. V43,Completed,7000,,15600,TRUE,Pay Utility,254700904994 - HUSSEIN HASSAN LAMA,,V43
QH35LW944Z,03/08/2022 19:53,03/08/2022 19:53,Pay Bill from 254708018108 - COLLINS CHUMBA IKAAL Acc. v60,Completed,2000,,8600,TRUE,Pay Utility,254708018108 - COLLINS CHUMBA IKAAL,,v60
QH32LTZMLO,03/08/2022 19:33,03/08/2022 19:33,Pay Bill from 254712091662 - BENARD OMONDI ROBY Acc. V16,Completed,6600,,6600,TRUE,Pay Utility,254712091662 - BENARD OMONDI ROBY,,V16
QH39L2KNNF,03/08/2022 14:35,03/08/2022 14:35,Utility Account to Organization Settlement Account,Completed,,-22000,0,TRUE,Utility Account to Organization Settlement Account,887674 - ANCIENT WELLS LTD 1,,
QH34KQYEP0,03/08/2022 12:04,03/08/2022 12:04,Pay Bill from 254723337732 - CHRISTINE AKINYI OCHELE Acc. V14,Completed,15000,,22000,TRUE,Pay Utility,254723337732 - CHRISTINE AKINYI OCHELE,,V14
QH30KOFIZ8,03/08/2022 11:29,03/08/2022 11:29,Pay Bill Online from 254791173224 - FAITH WAMBUI GATHECHA Acc. V29,Completed,7000,,7000,TRUE,Pay Bill Online,254791173224 - FAITH WAMBUI GATHECHA,,V29
QH25JBPNCZ,02/08/2022 17:20,02/08/2022 17:20,Utility Account to Organization Settlement Account,Completed,,-27800,0,TRUE,Utility Account to Organization Settlement Account,887674 - ANCIENT WELLS LTD 1,,
QH17HNGD1R,01/08/2022 19:54,01/08/2022 19:54,Pay Bill from 254725756974 - MARTIN MUGAMBI Acc. v56,Completed,8200,,27800,TRUE,Pay Utility with OD via STK,254725756974 - MARTIN MUGAMBI,,v56
QH10GP6IBY,01/08/2022 13:44,01/08/2022 13:44,FSI to Pay Bill by 714888 - B2C LOOP VIA NCBA Acc. V40 via WEB by B2C LOOP VIA NCBA\Cbainitiator,Completed,6000,,19600,TRUE,FSI to Pay Bill via API,714888 - B2C LOOP VIA NCBA,,V40
QH18GLTP6G,01/08/2022 12:59,01/08/2022 12:59,Pay Bill Online from 254702118125 - ROTICH BETHWEL Acc. V20,Completed,7000,,13600,TRUE,Pay Bill Online,254702118125 - ROTICH BETHWEL,,V20
QH11GISKBD,01/08/2022 12:17,01/08/2022 12:17,Pay Bill from 254715939283 - alex nyamai Acc. v7,Completed,6600,,6600,TRUE,Pay Utility,254715939283 - alex nyamai,,v7
QH19G356UJ,01/08/2022 08:20,01/08/2022 08:20,Utility Account to Organization Settlement Account,Completed,,-38100,0,TRUE,Utility Account to Organization Settlement Account,887674 - ANCIENT WELLS LTD 1,,
QGV6FFRMKM,31/07/2022 19:26,31/07/2022 19:26,Pay Bill from 0706286171 - Ivan Ofweja Katimi Acc. 34029294,Completed,7000,,38100,TRUE,Pay Utility,0706286171 - Ivan Ofweja Katimi,,34029294
QGU5DYL8U9,30/07/2022 23:24,30/07/2022 23:24,Pay Bill from 254719658678 - KELVIN SOMBA MAUNDU Acc. vk6,Completed,3500,,31100,TRUE,Pay Utility,254719658678 - KELVIN SOMBA MAUNDU,,vk6
QGU8C7L27E,30/07/2022 10:07,30/07/2022 10:07,Pay Bill Online from 254710693464 - BENARD OLANDO OKUMU Acc. V59,Completed,7000,,27600,TRUE,Pay Bill Online,254710693464 - BENARD OLANDO OKUMU,,V59
QGS78AX7RH,28/07/2022 12:12,28/07/2022 12:12,Pay Bill from 0768384843 - Augastine   Omeri Acc. V51,Completed,7000,,20600,TRUE,Pay Utility,0768384843 - Augastine   Omeri,,V51
QGQ74O0MZ7,26/07/2022 15:05,26/07/2022 15:05,Pay Bill Online from 254704783091 - CLINTON MUSEBE KASUTI Acc. 887674,Completed,6600,,13600,TRUE,Pay Bill Online,254704783091 - CLINTON MUSEBE KASUTI,,887674
QGQ24ET2DA,26/07/2022 12:52,26/07/2022 12:52,Pay Bill from 254705037274 - Jarden Onyinge Mongare Acc. vk6,Completed,7000,,7000,TRUE,Pay Utility,254705037274 - Jarden Onyinge Mongare,,vk6
QGQ949Z4Y3,26/07/2022 11:39,26/07/2022 11:39,Utility Account to Organization Settlement Account,Completed,,-14000,0,TRUE,Utility Account to Organization Settlement Account,887674 - ANCIENT WELLS LTD 1,,
QGQ649GENA,26/07/2022 11:31,26/07/2022 11:31,Pay Bill Online from 254706427665 - CHRIS KIRIMI Acc. v22,Completed,14000,,14000,TRUE,Pay Bill Online,254706427665 - CHRIS KIRIMI,,v22
QGN9Y3INO7,23/07/2022 16:12,23/07/2022 16:12,Utility Account to Organization Settlement Account,Completed,,-10600,0,TRUE,Utility Account to Organization Settlement Account,887674 - ANCIENT WELLS LTD 1,,
QGM4WW6734,22/07/2022 21:18,22/07/2022 21:18,Pay Bill Online from 0727542914 - Pascal Ouma Opar Acc. pascalv45,Completed,4000,,10600,TRUE,Pay Bill Online,0727542914 - Pascal Ouma Opar,,pascalv45
QGM6WUELA4,22/07/2022 20:55,22/07/2022 20:55,Pay Bill from 254702343078 - JOSEPH EBENYO Acc. V10 jose,Completed,6600,,6600,TRUE,Pay Utility,254702343078 - JOSEPH EBENYO,,V10
QGM9VUH0RT,22/07/2022 13:57,22/07/2022 13:57,Utility Account to Organization Settlement Account,Completed,,-41400,0,TRUE,Utility Account to Organization Settlement Account,887674 - ANCIENT WELLS LTD 1,,
QGM6VKVG4O,22/07/2022 11:35,22/07/2022 11:35,Pay Bill from 254707220622 - EVERLYN SYOMBUA KAKUI Acc. v57,Completed,7000,,41400,TRUE,Pay Utility,254707220622 - EVERLYN SYOMBUA KAKUI,,v57
QGL9TU4DU3,21/07/2022 13:15,21/07/2022 13:15,Pay Bill Online from 254707049818 - LUCKY TSUMA Acc. v19,Completed,6600,,34400,TRUE,Pay Bill Online,254707049818 - LUCKY TSUMA,,v19
QGL0TM1ILO,21/07/2022 11:10,21/07/2022 11:10,Pay Bill from 0727542914 - Pascal Ouma Opar Acc. pascalv45,Completed,3000,,27800,TRUE,Pay Utility,0727542914 - Pascal Ouma Opar,,pascalv45
QGL6TH2THW,21/07/2022 09:50,21/07/2022 09:50,Pay Bill from 254701174081 - JOSEPHINE ODUOR Acc. v34,Completed,4000,,24800,TRUE,Pay Utility,254701174081 - JOSEPHINE ODUOR,,v34
QGK6S6TRAG,20/07/2022 15:52,20/07/2022 15:52,Pay Bill from 254719808077 - ANTHONY KARIUKI Acc. V41,Completed,6600,,20800,TRUE,Pay Utility,254719808077 - ANTHONY KARIUKI,,V41
QGK1RN8I6J,20/07/2022 10:58,20/07/2022 10:58,Pay Bill from 0795807227 - Lucy Ncekei Kimathi Acc. V36 ,Completed,4200,,14200,TRUE,Pay Utility,0795807227 - Lucy Ncekei Kimathi,,V36
QGI4O6SO16,18/07/2022 14:42,18/07/2022 14:42,Pay Bill Online from 254702118125 - ROTICH BETHWEL Acc. V20,Completed,2000,,10000,TRUE,Pay Bill Online,254702118125 - ROTICH BETHWEL,,V20
QGI0NBSCI8,18/07/2022 05:14,18/07/2022 05:14,Pay Bill Online from 254723389922 - ANNE WANJIKU NDUNGU Acc. v53,Completed,8000,,8000,TRUE,Pay Bill Online,254723389922 - ANNE WANJIKU NDUNGU,,v53
QGH6MJUP4G,17/07/2022 17:09,17/07/2022 17:09,Utility Account to Organization Settlement Account,Completed,,-2800,0,TRUE,Utility Account to Organization Settlement Account,887674 - ANCIENT WELLS LTD 1,,
QGH6MA2476,17/07/2022 14:49,17/07/2022 14:49,Pay Bill from 254701261592 - VICTOR MWILU Acc. v37,Completed,2800,,2800,TRUE,Pay Utility with OD via STK,254701261592 - VICTOR MWILU,,v37
QGH6LMF8G4,17/07/2022 07:43,17/07/2022 07:43,Utility Account to Organization Settlement Account,Completed,,-6600,0,TRUE,Utility Account to Organization Settlement Account,887674 - ANCIENT WELLS LTD 1,,
QGG0L667XW,16/07/2022 20:10,16/07/2022 20:10,Pay Bill from 254720056285 - DAMARIS NDURU Acc. V18,Completed,6600,,6600,TRUE,Pay Utility,254720056285 - DAMARIS NDURU,,V18
QGG2KKWY10,16/07/2022 16:34,16/07/2022 16:34,Utility Account to Organization Settlement Account,Completed,,-6500,0,TRUE,Utility Account to Organization Settlement Account,887674 - ANCIENT WELLS LTD 1,,
QGG1JWA5W3,16/07/2022 10:51,16/07/2022 10:51,Pay Bill from 0727266858 - winrose imbuga mudenyo Acc. vk5,Completed,3500,,6500,TRUE,Pay Utility,0727266858 - winrose imbuga mudenyo,,vk5
QGF1IUVBFB,15/07/2022 18:42,15/07/2022 18:42,Pay Bill from 0703406243 - LEVITAN    SHALIMBA Acc. vk3,Completed,3000,,3000,TRUE,Pay Utility,0703406243 - LEVITAN    SHALIMBA,,vk3
QGF9HLMRC5,15/07/2022 08:31,15/07/2022 08:31,Utility Account to Organization Settlement Account,Completed,,-11500,0,TRUE,Utility Account to Organization Settlement Account,887674 - ANCIENT WELLS LTD 1,,
QGF2HJIOYU,15/07/2022 07:49,15/07/2022 07:49,Pay Bill from 254720466443 - FATUMA MOHAMED ABDALLAH Acc. V21,Completed,3500,,11500,TRUE,Pay Utility,254720466443 - FATUMA MOHAMED ABDALLAH,,V21
QGE0GHB39O,14/07/2022 16:22,14/07/2022 16:22,Pay Bill from 0795807227 - Lucy Ncekei Kimathi Acc. V36 ,Completed,5000,,8000,TRUE,Pay Utility,0795807227 - Lucy Ncekei Kimathi,,V36
QGE7FLEYSZ,14/07/2022 08:23,14/07/2022 08:23,Pay Bill from 254701261592 - VICTOR MWILU Acc. v37,Completed,3000,,3000,TRUE,Pay Utility with OD via STK,254701261592 - VICTOR MWILU,,v37
QGD0F4Y62E,13/07/2022 20:24,13/07/2022 20:24,Utility Account to Organization Settlement Account,Completed,,-24000,0,TRUE,Utility Account to Organization Settlement Account,887674 - ANCIENT WELLS LTD 1,,
QGD8F1Z6J2,13/07/2022 19:55,13/07/2022 19:55,Pay Bill from 254723147662 - EMMANUEL ETYANG EKISA Acc. V44,Completed,7000,,24000,TRUE,Pay Utility,254723147662 - EMMANUEL ETYANG EKISA,,V44
QGD0EWC75K,13/07/2022 19:07,13/07/2022 19:07,Pay Bill from 254720230582 - SHADRACK KITAKA NGILA Acc. v01,Completed,7000,,17000,TRUE,Pay Utility,254720230582 - SHADRACK KITAKA NGILA,,v01
QGD9EE8KPN,13/07/2022 15:40,13/07/2022 15:40,Pay Bill from 254757235454 - JUSTUS NDISYA MUSYOKA Acc. 40,Completed,10000,,10000,TRUE,Pay Utility,254757235454 - JUSTUS NDISYA MUSYOKA,,40
QGD9E22TL1,13/07/2022 12:50,13/07/2022 12:50,Utility Account to Organization Settlement Account,Completed,,-14000,0,TRUE,Utility Account to Organization Settlement Account,887674 - ANCIENT WELLS LTD 1,,
QGC3CU8EQX,12/07/2022 18:57,12/07/2022 18:57,Pay Bill Online from 254710693464 - BENARD OLANDO OKUMU Acc. V59,Completed,7000,,14000,TRUE,Pay Utility with OD Online,254710693464 - BENARD OLANDO OKUMU,,V59
QGC5BRKWMX,12/07/2022 10:54,12/07/2022 10:54,Pay Bill from 254719701463 - MARY KANYI KIARIE Acc. v17,Completed,7000,,7000,TRUE,Pay Utility with OD via STK,254719701463 - MARY KANYI KIARIE,,v17
QGC8BPEDF0,12/07/2022 10:23,12/07/2022 10:23,Utility Account to Organization Settlement Account,Completed,,-25600,0,TRUE,Utility Account to Organization Settlement Account,887674 - ANCIENT WELLS LTD 1,,
QGC7BJQXAX,12/07/2022 08:58,12/07/2022 08:58,Pay Bill from 0113907030 - NAOMI NDINDA NZAMALU Acc. v28,Completed,6600,,25600,TRUE,Pay Utility,0113907030 - NAOMI NDINDA NZAMALU,,v28
QGB2AZY3AA,11/07/2022 20:15,11/07/2022 20:15,Pay Bill from 254729358258 - Cliff Ombasa Acc. V05,Completed,5000,,19000,TRUE,Pay Utility,254729358258 - Cliff Ombasa,,V05
QGB3AW39Z9,11/07/2022 19:39,11/07/2022 19:39,Pay Bill from 254729806880 - Eunice Akinyi Were Acc. V33,Completed,7000,,14000,TRUE,Pay Utility,254729806880 - Eunice Akinyi Were,,V33
QGB0AUAGBI,11/07/2022 19:24,11/07/2022 19:24,Pay Bill from 254724581472 - ROSEMARY ADHIAMBO ONGWESO Acc. V3,Completed,7000,,7000,TRUE,Pay Utility,254724581472 - ROSEMARY ADHIAMBO ONGWESO,,V3
QGB5AMBEXP,11/07/2022 18:09,11/07/2022 18:09,Utility Account to Organization Settlement Account,Completed,,-82400,0,TRUE,Utility Account to Organization Settlement Account,887674 - ANCIENT WELLS LTD 1,,
QGA97RQW0R,10/07/2022 10:38,10/07/2022 10:38,Pay Bill from 254720466443 - FATUMA MOHAMED ABDALLAH Acc. V21,Completed,3500,,82400,TRUE,Pay Utility,254720466443 - FATUMA MOHAMED ABDALLAH,,V21
QGA77GTF19,10/07/2022 06:25,10/07/2022 06:25,Pay Bill from 0758457508 - PETER KINGORI KAGUNDA Acc. V06,Completed,7000,,78900,TRUE,Pay Utility,0758457508 - PETER KINGORI KAGUNDA,,V06
QG9672G7I6,09/07/2022 20:16,09/07/2022 20:16,Pay Bill Online from 0791992967 - JOCELYN AKINYI ODONGO Acc. V47,Completed,7200,,71900,TRUE,Pay Bill Online,0791992967 - JOCELYN AKINYI ODONGO,,V47
QG916HPPDP,09/07/2022 16:52,09/07/2022 16:52,Pay Bill from 254724581472 - ROSEMARY ADHIAMBO ONGWESO Acc. VO3,Completed,7000,,64700,TRUE,Pay Utility,254724581472 - ROSEMARY ADHIAMBO ONGWESO,,VO3
QG9068BSWU,09/07/2022 14:53,09/07/2022 14:53,Pay Bill from 254799304833 - ISMAEL RAJAB KITSAO Acc. v52,Completed,7000,,57700,TRUE,Pay Utility,254799304833 - ISMAEL RAJAB KITSAO,,v52
QG894K43N5,08/07/2022 18:11,08/07/2022 18:11,Pay Bill Online from 254729569271 - MESHACK OBOTTA OBARE Acc. V12,Completed,6600,,50700,TRUE,Pay Bill Online,254729569271 - MESHACK OBOTTA OBARE,,V12
QG8143FZT5,08/07/2022 15:00,08/07/2022 15:00,Pay Bill from 254717294709 - CAROLINE WAVINYA NDINDA Acc. v15,Completed,7000,,44100,TRUE,Pay Utility,254717294709 - CAROLINE WAVINYA NDINDA,,v15
QG78232BZ0,07/07/2022 15:53,07/07/2022 15:53,Pay Bill from 254713894468 - RAPHAEL . NTHAMBURI Acc. V26,Completed,9500,,37100,TRUE,Pay Utility,254713894468 - RAPHAEL . NTHAMBURI,,V26
QG7722H5BZ,07/07/2022 15:46,07/07/2022 15:46,Pay Bill Online from 0792514260 - Wilkister Irako Harambee Acc. 37847739,Completed,7000,,27600,TRUE,Pay Bill Online,0792514260 - Wilkister Irako Harambee,,37847739
QG69YZCR51,06/07/2022 16:21,06/07/2022 16:21,Pay Bill from 254703108159 - JOICE OGOLLA Acc. V50,Completed,6600,,20600,TRUE,Pay Utility,254703108159 - JOICE OGOLLA,,V50
QG64YPTAY2,06/07/2022 14:15,06/07/2022 14:15,Pay Bill from 0768384843 - Augastine   Omeri Acc. V51,Completed,7000,,14000,TRUE,Pay Utility,0768384843 - Augastine   Omeri,,V51
QG60YOWGAE,06/07/2022 14:03,06/07/2022 14:03,Pay Bill from 0790659678 - Carlpeters Orwa Agengo Acc. V35,Completed,7000,,7000,TRUE,Pay Utility,0790659678 - Carlpeters Orwa Agengo,,V35
QG69YEGE01,06/07/2022 11:47,06/07/2022 11:47,Utility Account to Organization Settlement Account,Completed,,-54200,0,TRUE,Utility Account to Organization Settlement Account,887674 - ANCIENT WELLS LTD 1,,
QG61Y5KT21,06/07/2022 09:45,06/07/2022 09:45,Pay Bill from 254790128716 - HELLEN NAPHTAL Acc. V11,Completed,7000,,54200,TRUE,Pay Utility,254790128716 - HELLEN NAPHTAL,,V11
QG63Y1YMA7,06/07/2022 08:49,06/07/2022 08:49,Pay Bill Online from 254113615645 - brian litumbi embai Acc. V58,Completed,9500,,47200,TRUE,Pay Bill Online,254113615645 - brian litumbi embai,,V58
QG62XZSFII,06/07/2022 08:13,06/07/2022 08:13,Pay Bill from 254743311673 - Maureen Njoki Wambui Acc. V60,Completed,5000,,37700,TRUE,Pay Utility with OD via STK,254743311673 - Maureen Njoki Wambui,,V60
QG62XX36NY,06/07/2022 07:14,06/07/2022 07:14,Pay Bill Online from 254704995854 - james karanja wairimu Acc. V54,Completed,6600,,32700,TRUE,Pay Bill Online,254704995854 - james karanja wairimu,,V54
QG50XLJJ6M,05/07/2022 20:57,05/07/2022 20:57,Pay Bill from 254708018108 - COLLINS CHUMBA IKAAL Acc. V60,Completed,2000,,26100,TRUE,Pay Utility,254708018108 - COLLINS CHUMBA IKAAL,,V60
QG58XEJUFC,05/07/2022 19:48,05/07/2022 19:48,Pay Bill from 254719658678 - KELVIN SOMBA MAUNDU Acc. vk6,Completed,3500,,24100,TRUE,Pay Utility,254719658678 - KELVIN SOMBA MAUNDU,,vk6
QG51X2JGJH,05/07/2022 18:01,05/07/2022 18:01,Pay Bill from 254723815832 - SEMEKIA ONDIALA Acc. V38,Completed,6600,,20600,TRUE,Pay Utility,254723815832 - SEMEKIA ONDIALA,,V38
QG52WNANK4,05/07/2022 14:57,05/07/2022 14:57,Pay Bill from 254704551142 - KEVIN MORGAN MUTWIRI Acc. V25,Completed,7000,,14000,TRUE,Pay Utility,254704551142 - KEVIN MORGAN MUTWIRI,,V25
QG58WL5EWY,05/07/2022 14:28,05/07/2022 14:28,Pay Bill from 254723771594 - Perpetua Wanjiku Kiboi Acc. V32,Completed,7000,,7000,TRUE,Pay Utility,254723771594 - Perpetua Wanjiku Kiboi,,V32
QG56WGK6JI,05/07/2022 13:29,05/07/2022 13:29,Utility Account to Organization Settlement Account,Completed,,-7000,0,TRUE,Utility Account to Organization Settlement Account,887674 - ANCIENT WELLS LTD 1,,
QG59WG7Q7B,05/07/2022 13:24,05/07/2022 13:24,Pay Bill from 0769858701 - DOLLARS DANIEL CIRHUZA Acc. V09,Completed,7000,,7000,TRUE,Pay Utility,0769858701 - DOLLARS DANIEL CIRHUZA,,V09
QG57W8SYXR,05/07/2022 11:45,05/07/2022 11:45,Utility Account to Organization Settlement Account,Completed,,-30100,0,TRUE,Utility Account to Organization Settlement Account,887674 - ANCIENT WELLS LTD 1,,
QG56W37JJ6,05/07/2022 10:27,05/07/2022 10:27,Pay Bill from 254706920646 - MIRIAM CHEPTOO Acc. V08,Completed,7000,,30100,TRUE,Pay Utility,254706920646 - MIRIAM CHEPTOO,,V08
QG53W2863R,05/07/2022 10:13,05/07/2022 10:13,Pay Bill from 254740912300 - ADELIDE IMINZA CHAGUSIA Acc. v27,Completed,9500,,23100,TRUE,Pay Utility,254740912300 - ADELIDE IMINZA CHAGUSIA,,v27
QG51VUT2SL,05/07/2022 08:18,05/07/2022 08:18,Pay Bill from 254725756974 - MARTIN MUGAMBI Acc. v56,Completed,6600,,13600,TRUE,Pay Utility,254725756974 - MARTIN MUGAMBI,,v56
QG44VDKGBS,04/07/2022 20:21,04/07/2022 20:21,Pay Bill from 0706286171 - Ivan Ofweja Katimi Acc. 34029294,Completed,7000,,7000,TRUE,Pay Utility,0706286171 - Ivan Ofweja Katimi,,34029294
QG45V1QCQT,04/07/2022 18:37,04/07/2022 18:37,Utility Account to Organization Settlement Account,Completed,,-26800,0,TRUE,Utility Account to Organization Settlement Account,887674 - ANCIENT WELLS LTD 1,,
QG44UBYKK4,04/07/2022 13:24,04/07/2022 13:24,Pay Bill from 254725756974 - MARTIN MUGAMBI Acc. v56,Completed,6600,,26800,TRUE,Pay Utility,254725756974 - MARTIN MUGAMBI,,v56
QG42U5H6TK,04/07/2022 11:58,04/07/2022 11:58,Pay Bill from 254712091662 - BENARD OMONDI ROBY Acc. V16,Completed,6600,,20200,TRUE,Pay Utility,254712091662 - BENARD OMONDI ROBY,,V16
QG39TI0TX5,03/07/2022 22:13,03/07/2022 22:13,Pay Bill from 254722578070 - SAMUEL MACHARIA Acc. v42,Completed,7000,,13600,TRUE,Pay Utility,254722578070 - SAMUEL MACHARIA,,v42
QG31T2GNPV,03/07/2022 19:00,03/07/2022 19:00,Pay Bill from 254718818610 - HANNAH NALIAKA Acc. V23,Completed,6600,,6600,TRUE,Pay Utility,254718818610 - HANNAH NALIAKA,,V23
QG37SSLR8F,03/07/2022 17:03,03/07/2022 17:03,Utility Account to Organization Settlement Account,Completed,,-33000,0,TRUE,Utility Account to Organization Settlement Account,887674 - ANCIENT WELLS LTD 1,,
QG35SIKP63,03/07/2022 14:44,03/07/2022 14:44,Pay Bill Online from 254700043446 - JUSTICE MUHOLO AKHAHENDA Acc. v39,Completed,7000,,33000,TRUE,Pay Bill Online,254700043446 - JUSTICE MUHOLO AKHAHENDA,,v39
QG36SF0EYU,03/07/2022 13:53,03/07/2022 13:53,Pay Bill from 254726702082 - STEPHEN NJUGUNA Acc. v02,Completed,7400,,26000,TRUE,Pay Utility,254726702082 - STEPHEN NJUGUNA,,v02
QG20RKM3CG,02/07/2022 21:56,02/07/2022 21:56,Pay Bill from 254726465584 - JULIANA MUKELI MUTUNGA Acc. v4,Completed,6600,,18600,TRUE,Pay Utility,254726465584 - JULIANA MUKELI MUTUNGA,,v4
QG20RHYM2S,02/07/2022 21:15,02/07/2022 21:15,Pay Bill from 254700904994 - HUSSEIN HASSAN LAMA Acc. v43,Completed,12000,,12000,TRUE,Pay Utility,254700904994 - HUSSEIN HASSAN LAMA,,v43
QG24PU1QJS,02/07/2022 09:28,02/07/2022 09:28,Utility Account to Organization Settlement Account,Completed,,-55500,0,TRUE,Utility Account to Organization Settlement Account,887674 - ANCIENT WELLS LTD 1,,
QG29PPLRMJ,02/07/2022 08:15,02/07/2022 08:15,Pay Bill from 254700218502 - GRACE NGURE Acc. v46,Completed,6600,,55500,TRUE,Pay Utility,254700218502 - GRACE NGURE,,v46
QG19P7O05N,01/07/2022 20:17,01/07/2022 20:17,Pay Bill from 254701086112 - CAROLYNE KOKI MULWA Acc. V30,Completed,6600,,48900,TRUE,Pay Utility,254701086112 - CAROLYNE KOKI MULWA,,V30
QG19OXTKJT,01/07/2022 18:51,01/07/2022 18:51,Pay Bill from 254702923950 - SAMUEL KIMANTHI Acc. v49,Completed,7500,,42300,TRUE,Pay Utility,254702923950 - SAMUEL KIMANTHI,,v49
QG17OVIS8N,01/07/2022 18:31,01/07/2022 18:31,Pay Bill from 254791173224 - FAITH WAMBUI GATHECHA Acc. V29,Completed,15000,,34800,TRUE,Pay Utility,254791173224 - FAITH WAMBUI GATHECHA,,V29
QG11OQPPS3,01/07/2022 17:44,01/07/2022 17:44,Pay Bill from 254715939283 - alex nyamai Acc. v07,Completed,12800,,19800,TRUE,Pay Utility,254715939283 - alex nyamai,,v07
QG10NKUZ8E,01/07/2022 08:43,01/07/2022 08:43,Pay Bill from 254702923950 - SAMUEL KIMANTHI Acc. V49,Completed,7000,,7000,TRUE,Pay Utility,254702923950 - SAMUEL KIMANTHI,,V49
QG19NKHA8V,01/07/2022 08:37,01/07/2022 08:37,Utility Account to Organization Settlement Account,Completed,,-13600,0,TRUE,Utility Account to Organization Settlement Account,887674 - ANCIENT WELLS LTD 1,,
