Receipt No.,Completion Time,Initiation Time,Details,Transaction Status,Paid In,Withdrawn,Balance,Balance Confirmed,Reason Type,Other Party Info,Linked Transaction ID,A/C No.
SEE56U75ST,14/05/2024 06:21,14/05/2024 06:21,Pay Bill from 074871***970 - judith *** Acc. E5,Completed,8500,,24500,TRUE,Pay Utility,074871***970 - judith ***,,E5
SED346OSEH,13/05/2024 12:22,13/05/2024 12:22,Pay Bill from 254727***164 - NICHOLAS *** Acc. G2,Completed,8000,,16000,TRUE,Pay Utility,254727***164 - NICHOLAS ***,,G2
SEB4YC03XW,11/05/2024 22:08,11/05/2024 22:08,Pay Bill from 254715***093 - GICHANA *** Acc. E3,Completed,8000,,8000,TRUE,Pay Utility,254715***093 - GICHANA ***,,E3
SEB4VWYE76,11/05/2024 12:31,11/05/2024 12:31,Utility Account to Organization Settlement Account,Completed,,-157000,0,TRUE,Utility Account to Organization Settlement Account,887075 - ANCIENT WELLS LTD 3,,
SEA4T3EXWI,10/05/2024 16:32,10/05/2024 16:32,Pay Bill from 254720***157 - BENSON *** Acc. b6,Completed,8500,,157000,TRUE,Pay Utility with OD via STK,254720***157 - BENSON ***,,b6
SEA0R6VPJC,10/05/2024 05:45,10/05/2024 05:45,Pay Bill from 072057***944 - Ronoh *** Acc. D2,Completed,8000,,148500,TRUE,Pay Utility,072057***944 - Ronoh ***,,D2
SE95NGEDG3,09/05/2024 06:20,09/05/2024 06:20,Pay Bill Online from 254720***214 - SAMUEL *** Acc. B3,Completed,2000,,140500,TRUE,Pay Utility with OD Online,254720***214 - SAMUEL ***,,B3
SE80KKJ9EI,08/05/2024 11:25,08/05/2024 11:25,Pay Bill from 254714***834 - FAITH *** Acc. D4,Completed,8500,,138500,TRUE,Pay Utility with OD via STK,254714***834 - FAITH ***,,D4
SE84KBWOTI,08/05/2024 10:13,08/05/2024 10:13,Pay Bill from 254710***036 - Allan *** Acc. F5,Completed,8500,,130000,TRUE,Pay Utility,254710***036 - Allan ***,,F5
SE70HTGP7Q,07/05/2024 15:47,07/05/2024 15:47,Pay Bill from 254792***730 - kevin *** Acc. F3,Completed,8000,,121500,TRUE,Pay Utility,254792***730 - kevin ***,,F3
SE75GFQ0IZ,07/05/2024 09:04,07/05/2024 09:04,Pay Bill from 079156***463 - Lilian *** Acc. f6,Completed,8500,,113500,TRUE,Pay Utility,079156***463 - Lilian ***,,f6
SE76G7YV80,07/05/2024 07:46,07/05/2024 07:46,Pay Bill from 254708***835 - SUSAN *** Acc. B2,Completed,8000,,105000,TRUE,Pay Utility,254708***835 - SUSAN ***,,B2
SE62FE7X5I,06/05/2024 20:19,06/05/2024 20:19,Pay Bill from 074180***396 - JAMES *** Acc. B5,Completed,8500,,97000,TRUE,Pay Utility,074180***396 - JAMES ***,,B5
SE66F6KJXI,06/05/2024 19:37,06/05/2024 19:37,Pay Bill from 070888***932 - Annfaith *** Acc. C3,Completed,8000,,88500,TRUE,Pay Utility,070888***932 - Annfaith ***,,C3
SE60EW1WQU,06/05/2024 18:46,06/05/2024 18:46,Pay Bill from 074632***646 - OTIENO *** Acc. D6,Completed,8500,,80500,TRUE,Pay Utility,074632***646 - OTIENO ***,,D6
SE67E7MOZ5,06/05/2024 16:13,06/05/2024 16:13,Pay Bill from 254727***857 - PETER *** Acc. Peter Ngundo e6 ,Completed,8500,,72000,TRUE,Pay Utility,254727***857 - PETER ***,,Peter Ngundo e6 
SE53C5DN1T,05/05/2024 22:32,05/05/2024 22:32,Pay Bill from 071934***205 - Christabel *** Acc. D1,Completed,16000,,63500,TRUE,Pay Utility,071934***205 - Christabel ***,,D1
SE539KZL17,05/05/2024 10:41,05/05/2024 10:41,Pay Bill from 254746***971 - gladys *** Acc. E4,Completed,8500,,47500,TRUE,Pay Utility,254746***971 - gladys ***,,E4
SE5194VOB7,05/05/2024 07:55,05/05/2024 07:55,Pay Bill from 254791***895 - Enos *** Acc. D5,Completed,8500,,39000,TRUE,Pay Utility,254791***895 - Enos ***,,D5
SE427C3ZHS,04/05/2024 17:02,04/05/2024 17:02,Pay Bill Online from 074028***700 - SERAH *** Acc. c4serahmukulu,Completed,8500,,30500,TRUE,Pay Bill Online,074028***700 - SERAH ***,,c4serahmukulu
SE436UX5VN,04/05/2024 14:59,04/05/2024 14:59,Business Pay Bill by 998094 - COOP TO PAYBILL Acc. A1 via API,Completed,6000,,22000,TRUE,Business Pay Bill via API,998094 - COOP TO PAYBILL,,A1 via API
SE4269N8PQ,04/05/2024 12:22,04/05/2024 12:22,Pay Bill from 071503***019 - Omwenga *** Acc. E1,Completed,8000,,16000,TRUE,Pay Utility,071503***019 - Omwenga ***,,E1
SE301UKWVG,03/05/2024 08:45,03/05/2024 08:45,Pay Bill Online from 254792***122 - MWENDWA *** Acc. B1,Completed,8000,,8000,TRUE,Pay Bill Online,254792***122 - MWENDWA ***,,B1
SE321KQT8I,03/05/2024 06:45,03/05/2024 06:45,Utility Account to Organization Settlement Account,Completed,,-15000,0,TRUE,Utility Account to Organization Settlement Account,887075 - ANCIENT WELLS LTD 3,,
SE26Z592IC,02/05/2024 17:27,02/05/2024 17:27,Pay Bill Online from 254790***715 - JULIUS *** Acc. C2,Completed,7500,,15000,TRUE,Pay Bill Online,254790***715 - JULIUS ***,,C2
