Receipt No.,Completion Time,Initiation Time,Details,Transaction Status,Paid In,Withdrawn,Balance,Balance Confirmed,Reason Type,Other Party Info,Linked Transaction ID,A/C No.
SBN5ZF3ZST,23/02/2024 22:56,23/02/2024 22:56,Pay Bill from 254743***420 - Margaret *** Acc. FCE,Completed,1400,,27600,TRUE,Pay Utility with OD via STK,254743***420 - Margaret ***,,FCE
SBN4Z6I4WE,23/02/2024 21:23,23/02/2024 21:23,Pay Bill Online from 254728***280 - EMMANUEL *** Acc. IBI,Completed,600,,26200,TRUE,Pay Bill Online,254728***280 - EMMANUEL ***,,IBI
SBN5Z4FJQV,23/02/2024 21:07,23/02/2024 21:07,Business Pay Bill by 488519 - NCBA  Bank M-pesa Acc. DEC via API,Completed,2600,,25600,TRUE,Business Pay Bill via API,488519 - NCBA  Bank M-pesa,,DEC via API
SBN9Z2D6F3,23/02/2024 20:53,23/02/2024 20:53,Pay Bill from 254720***822 - JAMES *** Acc. jgj,Completed,500,,23000,TRUE,Pay Utility,254720***822 - JAMES ***,,jgj
SBN8YW5U8O,23/02/2024 20:15,23/02/2024 20:15,Business Pay Bill by 488519 - NCBA  Bank M-pesa Acc. ICC via API,Completed,600,,22500,TRUE,Business Pay Bill via API,488519 - NCBA  Bank M-pesa,,ICC via API
SBN8Y2YJI6,23/02/2024 17:26,23/02/2024 17:26,Pay Bill from 254714***677 - IMMANUEL *** Acc. KAI,Completed,300,,21900,TRUE,Pay Utility,254714***677 - IMMANUEL ***,,KAI
SBN6XIA61S,23/02/2024 14:32,23/02/2024 14:32,Pay Bill from 254721***307 - SHARLEEN *** Acc. KBC,Completed,600,,21600,TRUE,Pay Utility,254721***307 - SHARLEEN ***,,KBC
SBN2X817YY,23/02/2024 13:05,23/02/2024 13:05,Pay Bill from 254720***502 - JOHN *** Acc. JFA ,Completed,600,,21000,TRUE,Pay Utility,254720***502 - JOHN ***,,JFA 
SBN5WRAKN3,23/02/2024 10:34,23/02/2024 10:34,Pay Bill Online from 254723***064 - ANDREW *** Acc. HBG ,Completed,3000,,20400,TRUE,Pay Bill Online,254723***064 - ANDREW ***,,HBG 
SBM5VYFKOV,22/02/2024 22:52,22/02/2024 22:52,Pay Bill from 011206***814 - JOHN *** Acc. V53,Completed,600,,17400,TRUE,Pay Utility,011206***814 - JOHN ***,,V53
SBM6VPFGMW,22/02/2024 21:15,22/02/2024 21:15,Pay Bill from 254728***256 - NICHOLAS *** Acc. HAD,Completed,400,,16800,TRUE,Pay Utility,254728***256 - NICHOLAS ***,,HAD
SBM2VOX85Q,22/02/2024 21:11,22/02/2024 21:11,Pay Bill Online from 254716***300 - BRIAN *** Acc. HEH,Completed,600,,16400,TRUE,Pay Bill Online,254716***300 - BRIAN ***,,HEH
SBM3V6AHVX,22/02/2024 19:24,22/02/2024 19:24,Business Pay Bill by 488519 - NCBA  Bank M-pesa Acc. DBD via API,Completed,1600,,15800,TRUE,Business Pay Bill via API,488519 - NCBA  Bank M-pesa,,DBD via API
SBM0TTLC54,22/02/2024 13:04,22/02/2024 13:04,Pay Bill Online from 254706***634 - CLINTON *** Acc. FDB,Completed,800,,14200,TRUE,Pay Bill Online,254706***634 - CLINTON ***,,FDB
SBM9TF7P2L,22/02/2024 10:53,22/02/2024 10:53,Pay Bill from 254722***136 - NADI *** Acc. JEA,Completed,3000,,13400,TRUE,Pay Utility,254722***136 - NADI ***,,JEA
SBM5TAZ5X3,22/02/2024 10:13,22/02/2024 10:13,Pay Bill Online from 254718***980 - KAREN *** Acc. FBA,Completed,1200,,10400,TRUE,Pay Bill Online,254718***980 - KAREN ***,,FBA
SBM0T0HN06,22/02/2024 08:27,22/02/2024 08:27,Pay Bill from 254705***030 - ANN *** Acc. jcb,Completed,800,,9200,TRUE,Pay Utility,254705***030 - ANN ***,,jcb
SBM3SWLJQR,22/02/2024 07:43,22/02/2024 07:43,Pay Bill Online from 254728***908 - Teddy *** Acc. DDD,Completed,1400,,8400,TRUE,Pay Bill Online,254728***908 - Teddy ***,,DDD
SBM2SQ6U8Y,22/02/2024 04:31,22/02/2024 04:31,Pay Bill from 070733***604 - DICKENS *** Acc. v06,Completed,600,,7000,TRUE,Pay Utility,070733***604 - DICKENS ***,,v06
SBL2RZEMJK,21/02/2024 19:59,21/02/2024 19:59,Pay Bill from 254727***545 - SERAH *** Acc. KGD,Completed,400,,6400,TRUE,Pay Utility,254727***545 - SERAH ***,,KGD
SBL7RWE7UR,21/02/2024 19:43,21/02/2024 19:43,Pay Bill from 074337***291 - Ann *** Acc. KAD,Completed,1600,,6000,TRUE,Pay Utility,074337***291 - Ann ***,,KAD
SBL8RC9NRK,21/02/2024 17:45,21/02/2024 17:45,Pay Bill from 254706***665 - CHRIS *** Acc. v22,Completed,200,,4400,TRUE,Pay Utility,254706***665 - CHRIS ***,,v22
SBL1QYIPKX,21/02/2024 15:51,21/02/2024 15:51,Pay Bill from 074350***952 - FAITH *** Acc. JGA,Completed,3200,,4200,TRUE,Pay Utility,074350***952 - FAITH ***,,JGA
SBL9QDCZG7,21/02/2024 12:43,21/02/2024 12:43,Pay Bill from 074130***410 - STEVEKEVIN *** Acc. IAC,Completed,400,,1000,TRUE,Pay Utility,074130***410 - STEVEKEVIN ***,,IAC
SBL0QBSNOS,21/02/2024 12:29,21/02/2024 12:29,Pay Bill Online from 254720***158 - AMOS *** Acc. KCG,Completed,600,,600,TRUE,Pay Bill Online,254720***158 - AMOS ***,,KCG
SBL9Q8P1XL,21/02/2024 12:01,21/02/2024 12:01,Utility Account to Organization Settlement Account,Completed,,-6200,0,TRUE,Utility Account to Organization Settlement Account,846783 - ANCIENT WELLS LTD 4,,
SBL3PSH693,21/02/2024 09:29,21/02/2024 09:29,Pay Bill from 254720***007 - BRENDA *** Acc. KAB ,Completed,2200,,6200,TRUE,Pay Utility,254720***007 - BRENDA ***,,KAB 
SBL5PO1Q4F,21/02/2024 08:44,21/02/2024 08:44,Pay Bill from 254710***003 - ALFRED *** Acc. HBH,Completed,800,,4000,TRUE,Pay Utility,254710***003 - ALFRED ***,,HBH
SBL4PN6V40,21/02/2024 08:35,21/02/2024 08:35,Pay Bill Online from 254702***678 - JOHN *** Acc. DEB,Completed,400,,3200,TRUE,Pay Bill Online,254702***678 - JOHN ***,,DEB
SBL3PN1WUR,21/02/2024 08:33,21/02/2024 08:33,Pay Bill Online from 011425***335 - ISAAC *** Acc. HAB,Completed,2800,,2800,TRUE,Pay Bill Online,011425***335 - ISAAC ***,,HAB
SBL0PINFP4,21/02/2024 07:44,21/02/2024 07:44,Utility Account to Organization Settlement Account,Completed,,-14000,0,TRUE,Utility Account to Organization Settlement Account,846783 - ANCIENT WELLS LTD 4,,
SBL7PH9J2P,21/02/2024 07:26,21/02/2024 07:26,Pay Bill from 072253***422 - ANTHONY *** Acc. JBD,Completed,800,,14000,TRUE,Pay Utility with OD via STK,072253***422 - ANTHONY ***,,JBD
SBL6PG2846,21/02/2024 07:08,21/02/2024 07:08,Pay Bill from 254708***289 - BERYLE *** Acc. V02,Completed,400,,13200,TRUE,Pay Utility,254708***289 - BERYLE ***,,V02
SBL0PCH1LE,21/02/2024 05:08,21/02/2024 05:08,Pay Bill from 254791***764 - ISAIAH *** Acc. V49,Completed,600,,12800,TRUE,Pay Utility,254791***764 - ISAIAH ***,,V49
SBK7OWI4VX,20/02/2024 21:02,20/02/2024 21:02,Pay Bill from 254704***557 - BAKARI *** Acc. HDG,Completed,1000,,12200,TRUE,Pay Utility,254704***557 - BAKARI ***,,HDG
SBK7OTR4CB,20/02/2024 20:44,20/02/2024 20:44,Pay Bill Online from 254718***538 - JAMES *** Acc. JBH,Completed,600,,11200,TRUE,Pay Bill Online,254718***538 - JAMES ***,,JBH
SBK2ORMLSA,20/02/2024 20:30,20/02/2024 20:30,Pay Bill Online from 254715***212 - BANCE *** Acc. JFE,Completed,300,,10600,TRUE,Pay Bill Online,254715***212 - BANCE ***,,JFE
SBK4OQ9KGE,20/02/2024 20:22,20/02/2024 20:22,Pay Bill Online from 254711***087 - MUTHIANI *** Acc. IDB ,Completed,4000,,10300,TRUE,Pay Bill Online,254711***087 - MUTHIANI ***,,IDB 
SBK0OQ5K2S,20/02/2024 20:21,20/02/2024 20:21,Pay Bill from 254725***246 - FRANCIS *** Acc. IGI,Completed,600,,6300,TRUE,Pay Utility,254725***246 - FRANCIS ***,,IGI
SBK2ONOMYA,20/02/2024 20:07,20/02/2024 20:07,Pay Bill from 254729***700 - MICAH *** Acc. HFE,Completed,200,,5700,TRUE,Pay Utility,254729***700 - MICAH ***,,HFE
SBK6OLP29A,20/02/2024 19:56,20/02/2024 19:56,Pay Bill from 254758***136 - SCOVIAH *** Acc. JCA,Completed,2000,,5500,TRUE,Pay Utility,254758***136 - SCOVIAH ***,,JCA
SBK6OJ08KK,20/02/2024 19:42,20/02/2024 19:42,Pay Bill Online from 254722***078 - MAUREEN *** Acc. DCD,Completed,1000,,3500,TRUE,Pay Bill Online,254722***078 - MAUREEN ***,,DCD
SBK5OILY5X,20/02/2024 19:40,20/02/2024 19:40,Pay Bill from 254726***163 - HALIMA *** Acc. DDA,Completed,500,,2500,TRUE,Pay Utility,254726***163 - HALIMA ***,,DDA
SBK4OH9LDK,20/02/2024 19:34,20/02/2024 19:34,Pay Bill Online from 072225***105 - SALIM *** Acc. FGF water,Completed,2000,,2000,TRUE,Pay Utility with OD Online,072225***105 - SALIM ***,,FGF water
SBK5MUUVOX,20/02/2024 11:59,20/02/2024 11:59,Utility Account to Organization Settlement Account,Completed,,-14700,0,TRUE,Utility Account to Organization Settlement Account,846783 - ANCIENT WELLS LTD 4,,
SBK7MKA3UH,20/02/2024 10:22,20/02/2024 10:22,Pay Bill Online from 254726***437 - FESTUS *** Acc. IFF,Completed,400,,14700,TRUE,Pay Bill Online,254726***437 - FESTUS ***,,IFF
SBK3M1YZ8D,20/02/2024 07:01,20/02/2024 07:01,Pay Bill from 254710***100 - PHILOMENA *** Acc. KDK,Completed,1000,,14300,TRUE,Pay Utility,254710***100 - PHILOMENA ***,,KDK
SBH6E81OIQ,17/02/2024 18:49,17/02/2024 18:49,Pay Bill from 254720***443 - FATUMA *** Acc. V21,Completed,1000,,13300,TRUE,Pay Utility,254720***443 - FATUMA ***,,V21
SBH3CDTC4D,17/02/2024 10:11,17/02/2024 10:11,Pay Bill from 070115***700 - Anabel *** Acc. jdj,Completed,800,,12300,TRUE,Pay Utility,070115***700 - Anabel ***,,jdj
SBH3C8AMYH,17/02/2024 09:20,17/02/2024 09:20,Pay Bill from 254726***163 - HALIMA *** Acc. DDA,Completed,200,,11500,TRUE,Pay Utility,254726***163 - HALIMA ***,,DDA
SBG5BG3NJD,16/02/2024 21:40,16/02/2024 21:40,Pay Bill Online from 254741***913 - DUNCAN *** Acc. FAE,Completed,900,,11300,TRUE,Pay Bill Online,254741***913 - DUNCAN ***,,FAE
SBG2AFU5S4,16/02/2024 18:07,16/02/2024 18:07,Pay Bill from 254722***480 - PATRICK *** Acc. KGH,Completed,800,,10400,TRUE,Pay Utility,254722***480 - PATRICK ***,,KGH
SBG59ZHGDP,16/02/2024 16:05,16/02/2024 16:05,Pay Bill from 254714***677 - IMMANUEL *** Acc. KAI,Completed,300,,9600,TRUE,Pay Utility,254714***677 - IMMANUEL ***,,KAI
SBG79JCZ2F,16/02/2024 13:47,16/02/2024 13:47,Pay Bill from 254716***682 - JUSTINE *** Acc. HAA,Completed,1000,,9300,TRUE,Pay Utility,254716***682 - JUSTINE ***,,HAA
SBG38T9Y9J,16/02/2024 10:03,16/02/2024 10:03,Pay Bill from 254719***823 - MOSES *** Acc. Jcc,Completed,1500,,8300,TRUE,Pay Utility,254719***823 - MOSES ***,,Jcc
SBG28Q2PRY,16/02/2024 09:33,16/02/2024 09:33,Pay Bill from 254706***075 - HARON *** Acc. v 38,Completed,800,,6800,TRUE,Pay Utility,254706***075 - HARON ***,,v 38
SBF085OWHY,15/02/2024 23:55,15/02/2024 23:55,Pay Bill from 254714***944 - MERCY *** Acc. hff,Completed,600,,6000,TRUE,Pay Utility,254714***944 - MERCY ***,,hff
SBF9714C0P,15/02/2024 18:32,15/02/2024 18:32,Pay Bill from 254717***198 - JIM *** Acc. IGG,Completed,600,,5400,TRUE,Pay Utility,254717***198 - JIM ***,,IGG
SBF65FMG94,15/02/2024 10:36,15/02/2024 10:36,Pay Bill from 254740***844 - LINA *** Acc. v29,Completed,400,,4800,TRUE,Pay Utility,254740***844 - LINA ***,,v29
SBF356RYPL,15/02/2024 09:13,15/02/2024 09:13,Pay Bill from 254714***761 - MARTIN *** Acc. KDI,Completed,500,,4400,TRUE,Pay Utility,254714***761 - MARTIN ***,,KDI
SBE7451DOZ,14/02/2024 20:28,14/02/2024 20:28,Pay Bill Online from 254799***490 - DANIEL *** Acc. V28,Completed,600,,3900,TRUE,Pay Bill Online,254799***490 - DANIEL ***,,V28
SBE52OKPYZ,14/02/2024 14:38,14/02/2024 14:38,Pay Bill from 254722***104 - ERICK *** Acc. HAE,Completed,1900,,3300,TRUE,Pay Utility,254722***104 - ERICK ***,,HAE
SBD2ZLYDKE,13/02/2024 20:27,13/02/2024 20:27,Pay Bill from 254716***517 - BENARD *** Acc. HCB,Completed,1400,,1400,TRUE,Pay Utility,254716***517 - BENARD ***,,HCB
SBD7XRQD21,13/02/2024 12:29,13/02/2024 12:29,Funds Transfer from Utility Account to Working Account,Completed,,-4550,0,TRUE,Business Transfer From Utility Account To MMF Account via API,846783 - ANCIENT WELLS LTD 4,,
SBC7WNUVWT,12/02/2024 23:41,12/02/2024 23:41,Pay Bill from 254724***882 - JOEL *** Acc. fee,Completed,400,,4550,TRUE,Pay Utility,254724***882 - JOEL ***,,fee
SBC9V9HG83,12/02/2024 17:18,12/02/2024 17:18,Pay Bill from 254726***163 - HALIMA *** Acc. DDA,Completed,200,,4150,TRUE,Pay Utility,254726***163 - HALIMA ***,,DDA
SBC3V40QNT,12/02/2024 16:35,12/02/2024 16:35,Pay Bill from 254705***032 - NAOMI *** Acc. v46,Completed,500,,3950,TRUE,Pay Utility,254705***032 - NAOMI ***,,v46
SBC3UZ4LOT,12/02/2024 15:53,12/02/2024 15:53,Pay Bill from 254725***550 - FRANKLINE *** Acc. KAF,Completed,2000,,3450,TRUE,Pay Utility,254725***550 - FRANKLINE ***,,KAF
SBC4UVRIXK,12/02/2024 15:24,12/02/2024 15:24,Pay Bill from 071744***870 - Steven *** Acc. KTA,Completed,800,,1450,TRUE,Pay Utility,071744***870 - Steven ***,,KTA
SBC4UUZSAQ,12/02/2024 15:17,12/02/2024 15:17,Pay Bill from 254700***449 - JOHN *** Acc. HCE,Completed,650,,650,TRUE,Pay Utility,254700***449 - JOHN ***,,HCE
SBC9UH8KS1,12/02/2024 13:21,12/02/2024 13:21,Funds Transfer from Utility Account to Working Account,Completed,,-15850,0,TRUE,Business Transfer From Utility Account To MMF Account via API,846783 - ANCIENT WELLS LTD 4,,
SBC8TO6UT0,12/02/2024 09:03,12/02/2024 09:03,Pay Bill Online from 254799***069 - ALPHONCE *** Acc. IEE,Completed,1500,,15850,TRUE,Pay Bill Online,254799***069 - ALPHONCE ***,,IEE
SBB0SOAQGG,11/02/2024 20:23,11/02/2024 20:23,Pay Bill from 254704***689 - ANTONY *** Acc. ICD,Completed,400,,14350,TRUE,Pay Utility,254704***689 - ANTONY ***,,ICD
SBB3S2Z7KV,11/02/2024 18:18,11/02/2024 18:18,Pay Bill from 254740***741 - MUHINDI *** Acc. HGG,Completed,1000,,13950,TRUE,Pay Utility,254740***741 - MUHINDI ***,,HGG
SBB2RGBNZA,11/02/2024 15:20,11/02/2024 15:20,Pay Bill from 254792***192 - KELVIN *** Acc. ICE,Completed,600,,12950,TRUE,Pay Utility,254792***192 - KELVIN ***,,ICE
SBA6PVCL52,10/02/2024 23:23,10/02/2024 23:23,Pay Bill from 254720***119 - LINDAH *** Acc. kfe,Completed,1500,,12350,TRUE,Pay Utility,254720***119 - LINDAH ***,,kfe
SBA7PSMOZD,10/02/2024 22:38,10/02/2024 22:38,Pay Bill from 254722***235 - AHMED *** Acc. IGD,Completed,1000,,10850,TRUE,Pay Utility,254722***235 - AHMED ***,,IGD
SBA4ON385G,10/02/2024 18:10,10/02/2024 18:10,Pay Bill from 254719***821 - KIPKEMOI *** Acc. JDD,Completed,1500,,9850,TRUE,Pay Utility,254719***821 - KIPKEMOI ***,,JDD
SBA7N6SQA9,10/02/2024 11:42,10/02/2024 11:42,Pay Bill Online from 254720***070 - Michelle *** Acc. JEJ,Completed,1800,,8350,TRUE,Pay Bill Online,254720***070 - Michelle ***,,JEJ
SBA6MM2C6C,10/02/2024 08:36,10/02/2024 08:36,Pay Bill from 072938***149 - SYLVIA *** Acc. v30,Completed,100,,6550,TRUE,Pay Utility,072938***149 - SYLVIA ***,,v30
SBA5MHK4G1,10/02/2024 07:47,10/02/2024 07:47,Pay Bill from 254710***394 - LUCY *** Acc. KBG,Completed,1000,,6450,TRUE,Pay Utility,254710***394 - LUCY ***,,KBG
SBA3M9ER8N,10/02/2024 01:12,10/02/2024 01:12,Pay Bill from 071568***238 - JOANNAH *** Acc. FFA,Completed,600,,5450,TRUE,Pay Utility,071568***238 - JOANNAH ***,,FFA
SB93LXRVR9,09/02/2024 21:37,09/02/2024 21:37,Pay Bill from 074180***396 - JAMES *** Acc. B5,Completed,400,,4850,TRUE,Pay Utility,074180***396 - JAMES ***,,B5
SB95KW07A1,09/02/2024 17:57,09/02/2024 17:57,Pay Bill from 071057***069 - GLADYS *** Acc. HCC,Completed,600,,4450,TRUE,Pay Utility,071057***069 - GLADYS ***,,HCC
SB93KNLGET,09/02/2024 16:59,09/02/2024 16:59,Pay Bill from 254791***895 - Enos *** Acc. D5,Completed,800,,3850,TRUE,Pay Utility,254791***895 - Enos ***,,D5
SB98KNFJSS,09/02/2024 16:57,09/02/2024 16:57,Pay Bill Online from 254714***193 - CHRISTOPHER *** Acc. JGI,Completed,1450,,3050,TRUE,Pay Bill Online,254714***193 - CHRISTOPHER ***,,JGI
SB92KEL980,09/02/2024 15:48,09/02/2024 15:48,Pay Bill from 254712***662 - BENARD *** Acc. V16,Completed,600,,1600,TRUE,Pay Utility,254712***662 - BENARD ***,,V16
SB91K8TM8T,09/02/2024 15:00,09/02/2024 15:00,Pay Bill from 254721***191 - Asmahan *** Acc. IGD,Completed,1000,,1000,TRUE,Pay Utility,254721***191 - Asmahan ***,,IGD
SB99K3O7O1,09/02/2024 14:19,09/02/2024 14:19,Funds Transfer from Utility Account to Working Account,Completed,,-99589,0,TRUE,Business Transfer From Utility Account To MMF Account via API,846783 - ANCIENT WELLS LTD 4,,
SB96K1LAFO,09/02/2024 14:02,09/02/2024 14:02,Pay Bill from 254717***430 - ALFRED *** Acc. V11,Completed,800,,99589,TRUE,Pay Utility,254717***430 - ALFRED ***,,V11
SB93JVK8O1,09/02/2024 13:15,09/02/2024 13:15,Pay Bill Online from 254710***215 - JOAN *** Acc. ifb,Completed,1700,,98789,TRUE,Pay Bill Online,254710***215 - JOAN ***,,ifb
SB85GAST5H,08/02/2024 13:20,08/02/2024 13:20,Pay Bill Online from 254712***871 - PAULA *** Acc. hea ,Completed,800,,97089,TRUE,Pay Bill Online,254712***871 - PAULA ***,,hea 
SB80FYM5H2,08/02/2024 11:37,08/02/2024 11:37,Pay Bill from 071883***251 - MARK *** Acc. kfg,Completed,800,,96289,TRUE,Pay Utility,071883***251 - MARK ***,,kfg
SB88FR36QQ,08/02/2024 10:32,08/02/2024 10:32,Pay Bill Online from 254711***716 - RODGERS *** Acc. IGC,Completed,600,,95489,TRUE,Pay Bill Online,254711***716 - RODGERS ***,,IGC
SB88FKD0O6,08/02/2024 09:31,08/02/2024 09:31,Pay Bill Online from 254720***253 - JIMMY *** Acc. KBD,Completed,200,,94889,TRUE,Pay Bill Online,254720***253 - JIMMY ***,,KBD
SB76ER3Z7A,07/02/2024 21:43,07/02/2024 21:43,Pay Bill from 072438***624 - FATUMA *** Acc. FAB,Completed,800,,94689,TRUE,Pay Utility with OD via STK,072438***624 - FATUMA ***,,FAB
SB79E7T02R,07/02/2024 19:45,07/02/2024 19:45,Pay Bill from 254792***128 - Edwin *** Acc. HBF,Completed,400,,93889,TRUE,Pay Utility,254792***128 - Edwin ***,,HBF
SB76E7DYIK,07/02/2024 19:43,07/02/2024 19:43,Pay Bill from 254757***090 - Laureen *** Acc. KCJ,Completed,1400,,93489,TRUE,Pay Utility,254757***090 - Laureen ***,,KCJ
SB71CO87KF,07/02/2024 13:12,07/02/2024 13:12,Pay Bill Online from 254703***159 - Enock *** Acc. KAE,Completed,400,,92089,TRUE,Pay Bill Online,254703***159 - Enock ***,,KAE
SB72C5THDQ,07/02/2024 10:36,07/02/2024 10:36,Pay Bill from 254729***678 - GRACE *** Acc. DED,Completed,200,,91689,TRUE,Pay Utility,254729***678 - GRACE ***,,DED
SB75C5KHB5,07/02/2024 10:34,07/02/2024 10:34,Pay Bill from 254705***030 - FRIDAH *** Acc. JEH,Completed,2100,,91489,TRUE,Pay Utility,254705***030 - FRIDAH ***,,JEH
SB74C56IZS,07/02/2024 10:31,07/02/2024 10:31,Pay Bill from 254791***803 - JOHN *** Acc. v14,Completed,200,,89389,TRUE,Pay Utility,254791***803 - JOHN ***,,v14
SB76C0TXLQ,07/02/2024 09:53,07/02/2024 09:53,Pay Bill from 254708***464 - MERCY *** Acc. IBB,Completed,500,,89189,TRUE,Pay Utility,254708***464 - MERCY ***,,IBB
SB76BX0S9U,07/02/2024 09:17,07/02/2024 09:17,Pay Bill from 254700***550 - BENARD *** Acc. DBB,Completed,4000,,88689,TRUE,Pay Utility,254700***550 - BENARD ***,,DBB
SB71BK2WN3,07/02/2024 06:52,07/02/2024 06:52,Pay Bill Online from 254792***730 - kevin *** Acc. F3,Completed,600,,84689,TRUE,Pay Bill Online,254792***730 - kevin ***,,F3
SB68B9RTYI,06/02/2024 22:27,06/02/2024 22:27,Pay Bill Online from 254718***397 - JIMMY *** Acc. DCB,Completed,1000,,84089,TRUE,Pay Bill Online,254718***397 - JIMMY ***,,DCB
SB65B805JR,06/02/2024 22:06,06/02/2024 22:06,Pay Bill from 254711***672 - ALLAN *** Acc. IEI,Completed,1000,,83089,TRUE,Pay Utility,254711***672 - ALLAN ***,,IEI
SB63AUERUH,06/02/2024 20:28,06/02/2024 20:28,Pay Bill from 254703***305 - MARTHA *** Acc. iai,Completed,800,,82089,TRUE,Pay Utility,254703***305 - MARTHA ***,,iai
SB64ASCRMU,06/02/2024 20:16,06/02/2024 20:16,Pay Bill Online from 254741***913 - DUNCAN *** Acc. FAE,Completed,1000,,81289,TRUE,Pay Bill Online,254741***913 - DUNCAN ***,,FAE
SB67AM3P0H,06/02/2024 19:44,06/02/2024 19:44,Pay Bill Online from 254724***741 - LAURA *** Acc. KFC,Completed,400,,80289,TRUE,Pay Bill Online,254724***741 - LAURA ***,,KFC
SB63ACVP5Z,06/02/2024 18:59,06/02/2024 18:59,Pay Bill Online from 254729***858 - AMBROSE *** Acc. KEJ,Completed,600,,79889,TRUE,Pay Bill Online,254729***858 - AMBROSE ***,,KEJ
SB619T3LO5,06/02/2024 16:50,06/02/2024 16:50,Pay Bill from 254725***531 - KIPKORIR *** Acc. DFB,Completed,600,,79289,TRUE,Pay Utility,254725***531 - KIPKORIR ***,,DFB
SB679F3XED,06/02/2024 14:51,06/02/2024 14:51,Pay Bill from 254720***822 - JAMES *** Acc. jgj,Completed,500,,78689,TRUE,Pay Utility with OD via STK,254720***822 - JAMES ***,,jgj
SB628XKN0S,06/02/2024 12:26,06/02/2024 12:26,Pay Bill from 254726***163 - HALIMA *** Acc. DDA,Completed,200,,78189,TRUE,Pay Utility,254726***163 - HALIMA ***,,DDA
SB628J3IDQ,06/02/2024 10:22,06/02/2024 10:22,Pay Bill from 071414***211 - KAREN *** Acc. JDF,Completed,1600,,77989,TRUE,Pay Utility,071414***211 - KAREN ***,,JDF
SB6082DD04,06/02/2024 07:40,06/02/2024 07:40,Pay Bill from 254729***933 - FELISTAH *** Acc. IDI,Completed,2000,,76389,TRUE,Pay Utility,254729***933 - FELISTAH ***,,IDI
SB6981RUWL,06/02/2024 07:33,06/02/2024 07:33,Pay Bill from 254708***373 - MUNINI *** Acc. IEB,Completed,600,,74389,TRUE,Pay Utility,254708***373 - MUNINI ***,,IEB
SB507JSIMQ,05/02/2024 21:41,05/02/2024 21:41,Pay Bill Online from 254714***486 - BRIAN *** Acc. KBJ,Completed,400,,73789,TRUE,Pay Bill Online,254714***486 - BRIAN ***,,KBJ
SB5376952J,05/02/2024 20:16,05/02/2024 20:16,Pay Bill from 254715***093 - GICHANA *** Acc. E3,Completed,1000,,73389,TRUE,Pay Utility,254715***093 - GICHANA ***,,E3
SB546UO9WI,05/02/2024 19:19,05/02/2024 19:19,Pay Bill from 254712***818 - OYUGI *** Acc. FCB,Completed,1800,,72389,TRUE,Pay Utility,254712***818 - OYUGI ***,,FCB
SB516RSUYV,05/02/2024 19:05,05/02/2024 19:05,Pay Bill from 254725***547 - MWACHIRO *** Acc. DFC,Completed,1800,,70589,TRUE,Pay Utility,254725***547 - MWACHIRO ***,,DFC
SB556BSJLP,05/02/2024 17:26,05/02/2024 17:26,Pay Bill from 254719***657 - SAMUEL *** Acc. JGA,Completed,3200,,68789,TRUE,Pay Utility,254719***657 - SAMUEL ***,,JGA
SB555UQRCZ,05/02/2024 15:09,05/02/2024 15:09,FSI to Pay Bill by 3033815 - LOOP B2C. Acc. V55 via WEB by LOOP B2C.\TRINITYAPI,Completed,600,,65589,TRUE,FSI to Pay Bill via API,3033815 - LOOP B2C.,,V55 via WEB by LOOP B2C.\TRINITYAPI
SB525OOQUI,05/02/2024 14:18,05/02/2024 14:18,Pay Bill Online from 254716***364 - Wendy *** Acc. ffc,Completed,1000,,64989,TRUE,Pay Bill Online,254716***364 - Wendy ***,,ffc
SB525OLXUO,05/02/2024 14:17,05/02/2024 14:17,Pay Bill from 074167***394 - STANELY *** Acc. V44,Completed,400,,63989,TRUE,Pay Utility,074167***394 - STANELY ***,,V44
SB505C0WMY,05/02/2024 12:36,05/02/2024 12:36,Pay Bill from 254702***907 - FAITH *** Acc. kbe,Completed,400,,63589,TRUE,Pay Utility,254702***907 - FAITH ***,,kbe
SB545BDIQG,05/02/2024 12:31,05/02/2024 12:31,Pay Bill from 254719***942 - NORAH *** Acc. KDA,Completed,1000,,63189,TRUE,Pay Utility,254719***942 - NORAH ***,,KDA
SB5359W197,05/02/2024 12:19,05/02/2024 12:19,Pay Bill from 254796***018 - PEACE *** Acc. Jah,Completed,2000,,62189,TRUE,Pay Utility,254796***018 - PEACE ***,,Jah
SB5654X52W,05/02/2024 11:36,05/02/2024 11:36,Pay Bill from 254701***081 - JOSEPHINE *** Acc. v34,Completed,200,,60189,TRUE,Pay Utility,254701***081 - JOSEPHINE ***,,v34
SB514MOJMP,05/02/2024 08:56,05/02/2024 08:56,Pay Bill from 254703***744 - Esther *** Acc. KEF,Completed,400,,59989,TRUE,Pay Utility,254703***744 - Esther ***,,KEF
SB534LJT9B,05/02/2024 08:45,05/02/2024 08:45,Pay Bill Online from 254715***656 - DENNIS *** Acc. KFA,Completed,400,,59589,TRUE,Pay Bill Online,254715***656 - DENNIS ***,,KFA
SB514DE7CB,05/02/2024 07:14,05/02/2024 07:14,Pay Bill Online from 254710***776 - KELVIN *** Acc. FAD,Completed,1000,,59189,TRUE,Pay Bill Online,254710***776 - KELVIN ***,,FAD
SB47457VZZ,04/02/2024 23:32,04/02/2024 23:32,Pay Bill from 254798***778 - victor *** Acc. DAD,Completed,1300,,58189,TRUE,Pay Utility,254798***778 - victor ***,,DAD
SB444351PQ,04/02/2024 22:46,04/02/2024 22:46,Pay Bill Online from 254721***178 - PHANICE *** Acc. FBF,Completed,400,,56889,TRUE,Pay Bill Online,254721***178 - PHANICE ***,,FBF
SB473FRWKP,04/02/2024 19:37,04/02/2024 19:37,Pay Bill from 254798***621 - MERCY *** Acc. jcj,Completed,800,,56489,TRUE,Pay Utility,254798***621 - MERCY ***,,jcj
SB401R3Q30,04/02/2024 11:46,04/02/2024 11:46,Pay Bill from 254799***200 - PURITY *** Acc. HDC,Completed,1700,,55689,TRUE,Pay Utility,254799***200 - PURITY ***,,HDC
SB481OD140,04/02/2024 11:19,04/02/2024 11:19,Pay Bill from 254711***815 - NAOMI *** Acc. KBA,Completed,1000,,53989,TRUE,Pay Utility,254711***815 - NAOMI ***,,KBA
SB471OD3ZV,04/02/2024 11:19,04/02/2024 11:19,Pay Bill Online from 254721***995 - BERNICE *** Acc. KFK,Completed,800,,52989,TRUE,Pay Bill Online,254721***995 - BERNICE ***,,KFK
SB421JDC2A,04/02/2024 10:30,04/02/2024 10:30,Business Pay Bill by 488519 - NCBA  Bank M-pesa Acc. JCD via API,Completed,600,,52189,TRUE,Business Pay Bill via API,488519 - NCBA  Bank M-pesa,,JCD via API
SB491FNWGR,04/02/2024 09:54,04/02/2024 09:54,Pay Bill from 254743***420 - Margaret *** Acc. fce,Completed,1000,,51589,TRUE,Pay Utility,254743***420 - Margaret ***,,fce
SB37ZREHUT,03/02/2024 22:41,03/02/2024 22:41,Pay Bill Online from 254723***628 - CLINTON *** Acc. hfh,Completed,1000,,50589,TRUE,Pay Bill Online,254723***628 - CLINTON ***,,hfh
SB35ZQH2TL,03/02/2024 22:28,03/02/2024 22:28,FSI to Pay Bill by 3033815 - LOOP B2C. Acc. DCC via WEB by LOOP B2C.\TRINITYAPI,Completed,1000,,49589,TRUE,FSI to Pay Bill via API,3033815 - LOOP B2C.,,DCC via WEB by LOOP B2C.\TRINITYAPI
SB36YQ8Q5W,03/02/2024 18:36,03/02/2024 18:36,Pay Bill Online from 254716***144 - PETER *** Acc. FBB,Completed,600,,48589,TRUE,Pay Bill Online,254716***144 - PETER ***,,FBB
SB30YJSKQS,03/02/2024 17:55,03/02/2024 17:55,Pay Bill from 011412***024 - Sharad *** Acc. KCK,Completed,3200,,47989,TRUE,Pay Utility,011412***024 - Sharad ***,,KCK
SB30Y62562,03/02/2024 16:17,03/02/2024 16:17,Pay Bill from 254725***394 - RACHAEL *** Acc. Jfb,Completed,400,,44789,TRUE,Pay Utility,254725***394 - RACHAEL ***,,Jfb
SB36Y1507O,03/02/2024 15:37,03/02/2024 15:37,Pay Bill from 254714***575 - IAN *** Acc. IBD,Completed,1800,,44389,TRUE,Pay Utility,254714***575 - IAN ***,,IBD
SB30XW0W7Q,03/02/2024 14:57,03/02/2024 14:57,Pay Bill Online from 254742***558 - PEACEMARY *** Acc. jbc,Completed,200,,42589,TRUE,Pay Utility with OD Online,254742***558 - PEACEMARY ***,,jbc
SB32XU4SMA,03/02/2024 14:41,03/02/2024 14:41,Pay Bill from 076890***522 - Jael *** Acc. HEF,Completed,600,,42389,TRUE,Pay Utility,076890***522 - Jael ***,,HEF
SB33XSW0C3,03/02/2024 14:32,03/02/2024 14:32,Pay Bill from 254726***584 - JULIANA *** Acc. v4,Completed,600,,41789,TRUE,Pay Utility,254726***584 - JULIANA ***,,v4
SB36X7LVZE,03/02/2024 11:45,03/02/2024 11:45,Pay Bill Online from 254700***806 - WINNIE *** Acc. JEC,Completed,600,,41189,TRUE,Pay Bill Online,254700***806 - WINNIE ***,,JEC
SB34WX11XE,03/02/2024 10:17,03/02/2024 10:17,Pay Bill from 074337***291 - Ann *** Acc. KAD,Completed,1200,,40589,TRUE,Pay Utility,074337***291 - Ann ***,,KAD
SB31WVR849,03/02/2024 10:06,03/02/2024 10:06,Pay Bill from 254724***046 - GIDEON *** Acc. KFH,Completed,1000,,39389,TRUE,Pay Utility,254724***046 - GIDEON ***,,KFH
SB38WTN01S,03/02/2024 09:47,03/02/2024 09:47,Pay Bill Online from 254715***357 - ELIZABETH *** Acc. C2,Completed,200,,38389,TRUE,Pay Bill Online,254715***357 - ELIZABETH ***,,C2
SB38WLKH4Y,03/02/2024 08:31,03/02/2024 08:31,Pay Bill from 254746***971 - gladys *** Acc. E4,Completed,1000,,38189,TRUE,Pay Utility,254746***971 - gladys ***,,E4
SB38W8ST92,03/02/2024 01:16,03/02/2024 01:16,Pay Bill Online from 254742***013 - HANEST *** Acc. IED,Completed,600,,37189,TRUE,Pay Bill Online,254742***013 - HANEST ***,,IED
SB26VV1922,02/02/2024 21:28,02/02/2024 21:28,Pay Bill Online from 254729***627 - BILLY *** Acc. KFJ,Completed,600,,36589,TRUE,Pay Bill Online,254729***627 - BILLY ***,,KFJ
SB29VKW371,02/02/2024 20:31,02/02/2024 20:31,Pay Bill Online from 254729***719 - JACINTA *** Acc. FFF,Completed,400,,35989,TRUE,Pay Bill Online,254729***719 - JACINTA ***,,FFF
SB28VJRB2I,02/02/2024 20:26,02/02/2024 20:26,Pay Bill from 070656***358 - HARRIET *** Acc. HBA,Completed,400,,35589,TRUE,Pay Utility,070656***358 - HARRIET ***,,HBA
SB21VE05JR,02/02/2024 19:58,02/02/2024 19:58,Pay Bill from 254726***273 - JESSE *** Acc. HCH,Completed,1400,,35189,TRUE,Pay Utility,254726***273 - JESSE ***,,HCH
SB25UIKTUN,02/02/2024 16:57,02/02/2024 16:57,Pay Bill Online from 254792***122 - MWENDWA *** Acc. B1,Completed,600,,33789,TRUE,Pay Bill Online,254792***122 - MWENDWA ***,,B1
SB28UIFIRA,02/02/2024 16:56,02/02/2024 16:56,Pay Bill from 254717***012 - WINFRED *** Acc. IDA,Completed,400,,33189,TRUE,Pay Utility,254717***012 - WINFRED ***,,IDA
SB23TYNJ7V,02/02/2024 14:17,02/02/2024 14:17,Pay Bill Online from 071160***780 - gift *** Acc. DEA,Completed,1200,,32789,TRUE,Pay Bill Online,071160***780 - gift ***,,DEA
SB29TMCQCX,02/02/2024 12:38,02/02/2024 12:38,Utility Account to Organization Settlement Account,Completed,,-5000,31589,TRUE,Utility Account to Organization Settlement Account,846783 - ANCIENT WELLS LTD 4,,
SB29TFLQJJ,02/02/2024 11:41,02/02/2024 11:41,Pay Bill from 254716***398 - HYVENE *** Acc. KDE ,Completed,200,,36589,TRUE,Pay Utility,254716***398 - HYVENE ***,,KDE 
SB27SVBV29,02/02/2024 08:41,02/02/2024 08:41,Pay Bill Online from 254708***223 - DENNIS *** Acc. DCA,Completed,600,,36389,TRUE,Pay Bill Online,254708***223 - DENNIS ***,,DCA
SB15S73ZM5,01/02/2024 21:40,01/02/2024 21:40,Pay Bill from 254718***358 - Job *** Acc. ICF,Completed,1000,,35789,TRUE,Pay Utility,254718***358 - Job ***,,ICF
SB12RTUX7G,01/02/2024 20:12,01/02/2024 20:12,Pay Bill from 254722***705 - ERIC *** Acc. FCF,Completed,1100,,34789,TRUE,Pay Utility,254722***705 - ERIC ***,,FCF
SB19RSMXEF,01/02/2024 20:05,01/02/2024 20:05,Pay Bill Online from 254705***736 - SNAIDA *** Acc. FEC,Completed,800,,33689,TRUE,Pay Bill Online,254705***736 - SNAIDA ***,,FEC
SB10RSCTAE,01/02/2024 20:03,01/02/2024 20:03,Pay Bill from 254727***667 - HILDA *** Acc. JBE,Completed,1000,,32889,TRUE,Pay Utility,254727***667 - HILDA ***,,JBE
SB12RIMAOQ,01/02/2024 19:15,01/02/2024 19:15,Pay Bill from 254717***919 - MARCELINE *** Acc. IAF,Completed,600,,31889,TRUE,Pay Utility,254717***919 - MARCELINE ***,,IAF
SB17QN5W1F,01/02/2024 15:39,01/02/2024 15:39,Pay Bill from 254715***045 - FRIDAH *** Acc. HGC,Completed,5689,,31289,TRUE,Pay Utility,254715***045 - FRIDAH ***,,HGC
SB16QLQTJU,01/02/2024 15:27,01/02/2024 15:27,Pay Bill from 254715***540 - HILLARY *** Acc. V19,Completed,600,,25600,TRUE,Pay Utility,254715***540 - HILLARY ***,,V19
SB11QGF91T,01/02/2024 14:41,01/02/2024 14:41,Pay Bill from 254791***823 - rachel *** Acc. JEG,Completed,200,,25000,TRUE,Pay Utility with OD via STK,254791***823 - rachel ***,,JEG
SB16QADMKK,01/02/2024 13:51,01/02/2024 13:51,Pay Bill from 254704***496 - PETER *** Acc. DFD,Completed,1600,,24800,TRUE,Pay Utility,254704***496 - PETER ***,,DFD
SB18Q7QEJ6,01/02/2024 13:29,01/02/2024 13:29,Pay Bill from 254791***695 - RACHEAL *** Acc. Butcher ,Completed,200,,23200,TRUE,Pay Utility,254791***695 - RACHEAL ***,,Butcher 
SB18Q0KSK4,01/02/2024 12:29,01/02/2024 12:29,Pay Bill from 254720***700 - EUNICE *** Acc. V26,Completed,800,,23000,TRUE,Pay Utility,254720***700 - EUNICE ***,,V26
SB16PHOUKK,01/02/2024 09:41,01/02/2024 09:41,Pay Bill Online from 254707***839 - DENNIS *** Acc. FEF,Completed,800,,22200,TRUE,Pay Bill Online,254707***839 - DENNIS ***,,FEF
SB15PDLEGV,01/02/2024 09:01,01/02/2024 09:01,Pay Bill from 254799***095 - Patricia *** Acc. HBE,Completed,2600,,21400,TRUE,Pay Utility,254799***095 - Patricia ***,,HBE
SB12PBEEUI,01/02/2024 08:39,01/02/2024 08:39,Pay Bill Online from 254795***441 - LEWIS *** Acc. KEB,Completed,400,,18800,TRUE,Pay Bill Online,254795***441 - LEWIS ***,,KEB
SB14OZ5J9M,01/02/2024 03:34,01/02/2024 03:34,Pay Bill from 070288***109 - Edith *** Acc. DDB,Completed,800,,18400,TRUE,Pay Utility,070288***109 - Edith ***,,DDB
