Receipt No.,Completion Time,Initiation Time,Details,Transaction Status,Paid In,Withdrawn,Balance,Balance Confirmed,Reason Type,Other Party Info,Linked Transaction ID,A/C No.
SDL4V8M5SA,21/04/2024 16:46,21/04/2024 16:46,Pay Bill from 254717***709 - CAROLINE *** Acc. v15,Completed,2000,,2000,TRUE,Pay Utility,254717***709 - CAROLINE ***,,v15
SDJ2PV2GDU,19/04/2024 22:49,19/04/2024 22:49,Utility Account to Organization Settlement Account,Completed,,-23600,0,TRUE,Utility Account to Organization Settlement Account,887674 - ANCIENT WELLS LTD 1,,
SDJ1NOY1HH,19/04/2024 13:26,19/04/2024 13:26,Pay Bill Online from 254720***285 - DAMARIS *** Acc. V18,Completed,6600,,23600,TRUE,Pay Bill Online,254720***285 - DAMARIS ***,,V18
SDI9JBQ9H7,18/04/2024 09:10,18/04/2024 09:10,Pay Bill from 254748***485 - PENINAH *** Acc. v31,Completed,7000,,17000,TRUE,Pay Utility,254748***485 - PENINAH ***,,v31
SDI6J5YLU2,18/04/2024 08:14,18/04/2024 08:14,Pay Bill from 254701***081 - JOSEPHINE *** Acc. v34 ,Completed,3000,,10000,TRUE,Pay Utility,254701***081 - JOSEPHINE ***,,v34 
SDH6FYV0WO,17/04/2024 11:14,17/04/2024 11:14,Pay Bill from 074275***405 - esther *** Acc. V35,Completed,7000,,7000,TRUE,Pay Utility with OD via STK,074275***405 - esther ***,,V35
SDG0EJO17A,16/04/2024 20:25,16/04/2024 20:25,Utility Account to Organization Settlement Account,Completed,,-37000,0,TRUE,Utility Account to Organization Settlement Account,887674 - ANCIENT WELLS LTD 1,,
SDG9E8VRUT,16/04/2024 19:25,16/04/2024 19:25,Pay Bill from 254792***995 - ANTHONY *** Acc. V26,Completed,3000,,37000,TRUE,Pay Utility,254792***995 - ANTHONY ***,,V26
SDG7DW6VA5,16/04/2024 18:19,16/04/2024 18:19,Pay Bill from 254729***880 - Eunice *** Acc. V33,Completed,8000,,34000,TRUE,Pay Utility,254729***880 - Eunice ***,,V33
SDG7CZ24N1,16/04/2024 14:12,16/04/2024 14:12,Pay Bill Online from 254791***803 - JOHN *** Acc. v14,Completed,2000,,26000,TRUE,Pay Bill Online,254791***803 - JOHN ***,,v14
SDG2CLD11O,16/04/2024 12:22,16/04/2024 12:22,Pay Bill from 254706***646 - MIRIAM *** Acc. V08,Completed,3500,,24000,TRUE,Pay Utility with OD via STK,254706***646 - MIRIAM ***,,V08
SDG1C2TE63,16/04/2024 09:42,16/04/2024 09:42,Pay Bill from 254701***081 - JOSEPHINE *** Acc. v34 ,Completed,1500,,20500,TRUE,Pay Utility,254701***081 - JOSEPHINE ***,,v34 
SDF492TMJS,15/04/2024 12:30,15/04/2024 12:30,Pay Bill from 254792***995 - ANTHONY *** Acc. V26,Completed,2500,,19000,TRUE,Pay Utility,254792***995 - ANTHONY ***,,V26
SDE77CXQA9,14/04/2024 19:54,14/04/2024 19:54,Pay Bill from 071204***629 - KULOW *** Acc. v32,Completed,7000,,16500,TRUE,Pay Utility,071204***629 - KULOW ***,,v32
SDE05GX1FA,14/04/2024 11:08,14/04/2024 11:08,Pay Bill from 254701***081 - JOSEPHINE *** Acc. v34,Completed,2500,,9500,TRUE,Pay Utility,254701***081 - JOSEPHINE ***,,v34
SDE655DS32,14/04/2024 09:13,14/04/2024 09:13,Pay Bill Online from 254722***623 - SUSAN *** Acc. V56,Completed,7000,,7000,TRUE,Pay Utility with OD Online,254722***623 - SUSAN ***,,V56
SDD72JGR21,13/04/2024 14:19,13/04/2024 14:19,Utility Account to Organization Settlement Account,Completed,,-37800,0,TRUE,Utility Account to Organization Settlement Account,887674 - ANCIENT WELLS LTD 1,,
SDD42B97F0,13/04/2024 13:16,13/04/2024 13:16,Pay Bill from 254705***032 - NAOMI *** Acc. v46,Completed,6600,,37800,TRUE,Pay Utility,254705***032 - NAOMI ***,,v46
SDD41VWMHG,13/04/2024 11:11,13/04/2024 11:11,Pay Bill from 072938***149 - SYLVIA *** Acc. v30,Completed,7200,,31200,TRUE,Pay Utility,072938***149 - SYLVIA ***,,v30
SDC8Z6ZYBM,12/04/2024 19:29,12/04/2024 19:29,Pay Bill Online from 070848***946 - Samson *** Acc. v20,Completed,7000,,24000,TRUE,Pay Bill Online,070848***946 - Samson ***,,v20
SDC6YD0E1E,12/04/2024 16:32,12/04/2024 16:32,Pay Bill from 254706***908 - joseph *** Acc. V47,Completed,3000,,17000,TRUE,Pay Utility,254706***908 - joseph ***,,V47
SDB3W86BRT,11/04/2024 22:34,11/04/2024 22:34,Pay Bill from 254702***335 - IMMACULATE *** Acc. v39,Completed,7000,,14000,TRUE,Pay Utility with OD via STK,254702***335 - IMMACULATE ***,,v39
SDB3VQUI1R,11/04/2024 20:15,11/04/2024 20:15,Pay Bill from 254707***557 - GRACE *** Acc. V60,Completed,7000,,7000,TRUE,Pay Utility,254707***557 - GRACE ***,,V60
SDB4UEEMVS,11/04/2024 15:08,11/04/2024 15:08,Utility Account to Organization Settlement Account,Completed,,-77200,0,TRUE,Utility Account to Organization Settlement Account,887674 - ANCIENT WELLS LTD 1,,
SDB3UBD0OZ,11/04/2024 14:44,11/04/2024 14:44,Pay Bill from 011536***438 - zibborah *** Acc. V48,Completed,7000,,77200,TRUE,Pay Utility,011536***438 - zibborah ***,,V48
SDB2U9Q3KY,11/04/2024 14:31,11/04/2024 14:31,Pay Bill from 074326***596 - EMILY *** Acc. V58,Completed,7000,,70200,TRUE,Pay Utility,074326***596 - EMILY ***,,V58
SDB7U80EMD,11/04/2024 14:17,11/04/2024 14:17,Pay Bill from 011206***814 - JOHN *** Acc. V53,Completed,7000,,63200,TRUE,Pay Utility,011206***814 - JOHN ***,,V53
SDB8U0SEYW,11/04/2024 13:22,11/04/2024 13:22,Pay Bill from 070703***788 - CLIFF *** Acc. V05 ,Completed,9000,,56200,TRUE,Pay Utility,070703***788 - CLIFF ***,,V05 
SDB3TPPYO1,11/04/2024 11:52,11/04/2024 11:52,Pay Bill from 254715***283 - alex *** Acc. V7,Completed,6600,,47200,TRUE,Pay Utility,254715***283 - alex ***,,V7
SDB4TIY2OC,11/04/2024 10:54,11/04/2024 10:54,Pay Bill from 254706***075 - HARON *** Acc. V 38,Completed,7000,,40600,TRUE,Pay Utility,254706***075 - HARON ***,,V 38
SDA2SEXQCY,10/04/2024 21:23,10/04/2024 21:23,Pay Bill from 079580***227 - Lucy *** Acc. V36 ,Completed,6600,,33600,TRUE,Pay Utility,079580***227 - Lucy ***,,V36 
SDA4RT3SUW,10/04/2024 19:12,10/04/2024 19:12,Pay Bill from 254724***238 - Immacurate *** Acc. V45,Completed,2500,,27000,TRUE,Pay Utility,254724***238 - Immacurate ***,,V45
SDA6R3PK1K,10/04/2024 16:29,10/04/2024 16:29,Pay Bill from 254710***084 - LILIAN *** Acc. V54,Completed,9500,,24500,TRUE,Pay Utility,254710***084 - LILIAN ***,,V54
SDA1PO3RHP,10/04/2024 09:24,10/04/2024 09:24,Pay Bill from 254710***084 - LILIAN *** Acc. V54,Completed,8000,,15000,TRUE,Pay Utility,254710***084 - LILIAN ***,,V54
SDA9PMFGFL,10/04/2024 09:09,10/04/2024 09:09,Pay Bill from 070434***708 - WENDY *** Acc. V17,Completed,7000,,7000,TRUE,Pay Utility,070434***708 - WENDY ***,,V17
SD94MUL8EE,09/04/2024 14:06,09/04/2024 14:06,Utility Account to Organization Settlement Account,Completed,,-14000,0,TRUE,Utility Account to Organization Settlement Account,887674 - ANCIENT WELLS LTD 1,,
SD93LXJICZ,09/04/2024 09:30,09/04/2024 09:30,Pay Bill Online from 074572***178 - RODGERS *** Acc. v27,Completed,7000,,14000,TRUE,Pay Bill Online,074572***178 - RODGERS ***,,v27
SD89L2QIOD,08/04/2024 21:06,08/04/2024 21:06,Pay Bill from 254708***289 - BERYLE *** Acc. v02,Completed,7000,,7000,TRUE,Pay Utility,254708***289 - BERYLE ***,,v02
SD89JXZE67,08/04/2024 17:10,08/04/2024 17:10,Utility Account to Organization Settlement Account,Completed,,-71100,0,TRUE,Utility Account to Organization Settlement Account,887674 - ANCIENT WELLS LTD 1,,
SD85JRZ45F,08/04/2024 16:26,08/04/2024 16:26,Pay Bill from 254712***662 - BENARD *** Acc. V16,Completed,6600,,71100,TRUE,Pay Utility,254712***662 - BENARD ***,,V16
SD82J1K30O,08/04/2024 13:01,08/04/2024 13:01,Pay Bill from 254791***764 - ISAIAH *** Acc. V49,Completed,7000,,64500,TRUE,Pay Utility,254791***764 - ISAIAH ***,,V49
SD87IZ5UBX,08/04/2024 12:42,08/04/2024 12:42,Pay Bill from 072729***129 - AISHA *** Acc. V09,Completed,7000,,57500,TRUE,Pay Utility,072729***129 - AISHA ***,,V09
SD89IPDSTV,08/04/2024 11:23,08/04/2024 11:23,Pay Bill from 254701***081 - JOSEPHINE *** Acc. v34,Completed,2000,,50500,TRUE,Pay Utility,254701***081 - JOSEPHINE ***,,v34
SD86IAGRXC,08/04/2024 09:14,08/04/2024 09:14,Pay Bill from 079959***046 - Richard *** Acc. VK5,Completed,3500,,48500,TRUE,Pay Utility,079959***046 - Richard ***,,VK5
SD75HMYW73,07/04/2024 22:13,07/04/2024 22:13,Pay Bill from 254792***995 - ANTHONY *** Acc. V26,Completed,3000,,45000,TRUE,Pay Utility,254792***995 - ANTHONY ***,,V26
SD78FMYEYE,07/04/2024 13:33,07/04/2024 13:33,Pay Bill from 254722***070 - SAMUEL *** Acc. v42,Completed,7000,,42000,TRUE,Pay Utility,254722***070 - SAMUEL ***,,v42
SD61C0QI37,06/04/2024 13:34,06/04/2024 13:34,Pay Bill from 254706***665 - CHRIS *** Acc. v22,Completed,7000,,35000,TRUE,Pay Utility,254706***665 - CHRIS ***,,v22
SD58AEY3JI,05/04/2024 21:58,05/04/2024 21:58,Pay Bill from 071474***222 - WILSON *** Acc. v25,Completed,7000,,28000,TRUE,Pay Utility,071474***222 - WILSON ***,,v25
SD51A4ZVQ5,05/04/2024 20:42,05/04/2024 20:42,Pay Bill from 254706***056 - SHEILA *** Acc. V03,Completed,7000,,21000,TRUE,Pay Utility with OD via STK,254706***056 - SHEILA ***,,V03
SD5291KQC4,05/04/2024 17:10,05/04/2024 17:10,Pay Bill Online from 254720***303 - PAUL *** Acc. V13,Completed,7000,,14000,TRUE,Pay Utility with OD Online,254720***303 - PAUL ***,,V13
SD538KOOZ7,05/04/2024 15:05,05/04/2024 15:05,Pay Bill from 254703***096 - KEVIN *** Acc. v51,Completed,7000,,7000,TRUE,Pay Utility,254703***096 - KEVIN ***,,v51
SD567G0Z1W,05/04/2024 09:43,05/04/2024 09:43,Utility Account to Organization Settlement Account,Completed,,-3500,0,TRUE,Utility Account to Organization Settlement Account,887674 - ANCIENT WELLS LTD 1,,
SD597F9F1R,05/04/2024 09:37,05/04/2024 09:37,Pay Bill from 254795***400 - BONFACE *** Acc. VK6,Completed,3500,,3500,TRUE,Pay Utility,254795***400 - BONFACE ***,,VK6
SD547ESQIQ,05/04/2024 09:33,05/04/2024 09:33,Utility Account to Organization Settlement Account,Completed,,-96000,0,TRUE,Utility Account to Organization Settlement Account,887674 - ANCIENT WELLS LTD 1,,
SD5174RZFD,05/04/2024 07:58,05/04/2024 07:58,Pay Bill from 254717***709 - CAROLINE *** Acc. v15,Completed,1000,,96000,TRUE,Pay Utility,254717***709 - CAROLINE ***,,v15
SD456RMSFH,04/04/2024 23:23,04/04/2024 23:23,Business Pay Bill by 488519 - NCBA  Bank M-pesa Acc. T29 via API,Completed,55000,,95000,TRUE,Business Pay Bill via API,488519 - NCBA  Bank M-pesa,,T29 via API
SD456GFOJ5,04/04/2024 21:17,04/04/2024 21:17,Pay Bill from 254707***777 - SILA *** Acc. V52,Completed,7000,,40000,TRUE,Pay Utility,254707***777 - SILA ***,,V52
SD475TX9HT,04/04/2024 19:12,04/04/2024 19:12,Business Pay Bill by 3033815 - LOOP B2C. Acc. V55 via API,Completed,7000,,33000,TRUE,Business Pay Bill via API,3033815 - LOOP B2C.,,V55 via API
SD4752W8E1,04/04/2024 16:25,04/04/2024 16:25,Pay Bill from 079674***765 - VERONICA *** Acc. V43,Completed,7000,,26000,TRUE,Pay Utility,079674***765 - VERONICA ***,,V43
SD424U0170,04/04/2024 15:15,04/04/2024 15:15,Pay Bill from 254741***886 - TERESIA *** Acc. v50,Completed,7000,,19000,TRUE,Pay Utility,254741***886 - TERESIA ***,,v50
SD424937Z4,04/04/2024 12:30,04/04/2024 12:30,Pay Bill Online from 254791***803 - JOHN *** Acc. v14,Completed,7000,,12000,TRUE,Pay Bill Online,254791***803 - JOHN ***,,v14
SD4446DJVG,04/04/2024 12:08,04/04/2024 12:08,Pay Bill from 074326***596 - EMILY *** Acc. v58,Completed,5000,,5000,TRUE,Pay Utility,074326***596 - EMILY ***,,v58
SD443W4KDW,04/04/2024 10:42,04/04/2024 10:42,Utility Account to Organization Settlement Account,Completed,,-23700,0,TRUE,Utility Account to Organization Settlement Account,887674 - ANCIENT WELLS LTD 1,,
SD473ENNRH,04/04/2024 07:57,04/04/2024 07:57,Pay Bill from 254720***443 - FATUMA *** Acc. V21,Completed,7000,,23700,TRUE,Pay Utility,254720***443 - FATUMA ***,,V21
SD4134RH05,04/04/2024 00:29,04/04/2024 00:29,Pay Bill from 254718***610 - HANNAH *** Acc. V23,Completed,6600,,16700,TRUE,Pay Utility,254718***610 - HANNAH ***,,V23
SD3514ME2H,03/04/2024 15:06,03/04/2024 15:06,Pay Bill Online from 254726***584 - JULIANA *** Acc. v4,Completed,6600,,10100,TRUE,Pay Bill Online,254726***584 - JULIANA ***,,v4
SD37Z9ET5P,03/04/2024 10:56,03/04/2024 10:56,Pay Bill from 071420***896 - JANET *** Acc. vk4,Completed,3500,,3500,TRUE,Pay Utility,071420***896 - JANET ***,,vk4
SD24Y52NFA,02/04/2024 21:53,02/04/2024 21:53,Utility Account to Organization Settlement Account,Completed,,-7000,0,TRUE,Utility Account to Organization Settlement Account,887674 - ANCIENT WELLS LTD 1,,
SD29WS9G4P,02/04/2024 16:56,02/04/2024 16:56,Pay Bill from 254706***262 - cendric *** Acc. V12,Completed,7000,,7000,TRUE,Pay Utility,254706***262 - cendric ***,,V12
SD26VW69IK,02/04/2024 12:44,02/04/2024 12:44,Utility Account to Organization Settlement Account,Completed,,-18500,0,TRUE,Utility Account to Organization Settlement Account,887674 - ANCIENT WELLS LTD 1,,
SD27VN45LN,02/04/2024 11:28,02/04/2024 11:28,Pay Bill from 254701***081 - JOSEPHINE *** Acc. v34,Completed,2500,,18500,TRUE,Pay Utility,254701***081 - JOSEPHINE ***,,v34
SD26VECPHM,02/04/2024 10:13,02/04/2024 10:13,Pay Bill Online from 254717***430 - ALFRED *** Acc. V11,Completed,7000,,16000,TRUE,Pay Bill Online,254717***430 - ALFRED ***,,V11
SD28V49YQY,02/04/2024 08:39,02/04/2024 08:39,Pay Bill from 254715***540 - HILLARY *** Acc. V19,Completed,7500,,9000,TRUE,Pay Utility,254715***540 - HILLARY ***,,V19
SD11TN5NDN,01/04/2024 18:33,01/04/2024 18:33,Pay Bill from 070733***604 - DICKENS *** Acc. v06,Completed,1500,,1500,TRUE,Pay Utility,070733***604 - DICKENS ***,,v06
SD11S1K6F1,01/04/2024 10:55,01/04/2024 10:55,Utility Account to Organization Settlement Account,Completed,,-14000,0,TRUE,Utility Account to Organization Settlement Account,887674 - ANCIENT WELLS LTD 1,,
SD14RYS92Y,01/04/2024 10:31,01/04/2024 10:31,Pay Bill from 074020***174 - Josephine *** Acc. V59,Completed,7000,,14000,TRUE,Pay Utility,074020***174 - Josephine ***,,V59
SD19ROS0KP,01/04/2024 08:55,01/04/2024 08:55,Pay Bill from 070707***137 - samuel *** Acc. V57,Completed,7000,,7000,TRUE,Pay Utility,070707***137 - samuel ***,,V57
