Receipt No.,Completion Time,Initiation Time,Details,Transaction Status,Paid In,Withdrawn,Balance,Balance Confirmed,Reason Type,Other Party Info,Linked Transaction ID,A/C No.
OHA0HNNGTW,10/08/2020 09:41,10/08/2020 09:41,Pay Bill from 0742965163 - Winnie   Naliaka Acc. v 31,Completed,6600,,56800,TRUE,Pay Utility,0742965163 - Winnie   Naliaka,,v
OH97HE083Z,09/08/2020 20:13,09/08/2020 20:13,Pay Bill from 254790610309 - MESHACK CHUMBA Acc. V39,Completed,6900,,50200,TRUE,Pay Utility,254790610309 - MESHACK CHUMBA,,V39
OH99HCQTZZ,09/08/2020 19:46,09/08/2020 19:46,Pay Bill from 254710262457 - PETER VIKATSI Acc. V26,Completed,6600,,43300,TRUE,Pay Utility,254710262457 - PETER VIKATSI,,V26
OH93HA0FND,09/08/2020 18:55,09/08/2020 18:55,Pay Bill Online from 254720723193 - MIKA KEVIN OMONDI Acc. v03,Completed,6600,,36700,TRUE,Pay Bill Online,254720723193 - MIKA KEVIN OMONDI,,v03
OH90H2KUHY,09/08/2020 15:59,09/08/2020 15:59,Pay Bill from 254700218502 - GRACE NGURE Acc. v46,Completed,6600,,30100,TRUE,Pay Utility,254700218502 - GRACE NGURE,,v46
OH84FO7XVY,08/08/2020 09:43,08/08/2020 09:43,Pay Bill from 0797876668 - PATRICK DOVOI AMURAVU Acc. Patrick v37 ,Completed,7000,,23500,TRUE,Pay Utility,0797876668 - PATRICK DOVOI AMURAVU,,Patrick
OH78FIEVIC,07/08/2020 23:15,07/08/2020 23:15,Pay Bill from 0714576438 - OCHOLA HESBON OCHIENG Acc. V06,Completed,6600,,16500,TRUE,Pay Utility,0714576438 - OCHOLA HESBON OCHIENG,,V06
OH73FI8WBJ,07/08/2020 22:55,07/08/2020 22:55,Pay Bill from 254798083394 - LYDIAH AWUOR OKELLO Acc. V34,Completed,3300,,9900,TRUE,Pay Utility,254798083394 - LYDIAH AWUOR OKELLO,,V34
OH77FHH729,07/08/2020 22:02,07/08/2020 22:02,Pay Bill from 254758070694 - naomi ndinda nzamalu Acc. v28,Completed,6600,,6600,TRUE,Pay Utility,254758070694 - naomi ndinda nzamalu,,v28
OH73ERQZLZ,07/08/2020 12:17,07/08/2020 12:17,Utility Account to Organization Settlement Account,Completed,,-78600,0,TRUE,Utility Account to Organization Settlement Account,887674 - ANCIENT WELLS LTD 1,,
OH74EIQZ24,07/08/2020 08:06,07/08/2020 08:06,Pay Bill from 0111503282 - joshua njuguna karanja Acc. v20 joshua,Completed,6700,,78600,TRUE,Pay Utility,0111503282 - joshua njuguna karanja,,v20
OH77EFUSHX,07/08/2020 00:57,07/08/2020 00:57,Pay Bill from 0746130180 - lydia nyevu thoya Acc. V14,Completed,2000,,71900,TRUE,Pay Utility,0746130180 - lydia nyevu thoya,,V14
OH54DC5SC4,05/08/2020 22:58,05/08/2020 22:58,Pay Bill from 254722307003 - NIGEL BOMETT Acc. V01,Completed,6600,,69900,TRUE,Pay Utility,254722307003 - NIGEL BOMETT,,V01
OH58DBXUOW,05/08/2020 22:39,05/08/2020 22:39,Pay Bill from 254712569636 - BENSON NYAGA Acc. v60,Completed,6600,,63300,TRUE,Pay Utility,254712569636 - BENSON NYAGA,,v60
OH56DBT28I,05/08/2020 22:30,05/08/2020 22:30,Pay Bill from 254798083394 - LYDIAH AWUOR OKELLO Acc. V34,Completed,3300,,56700,TRUE,Pay Utility,254798083394 - LYDIAH AWUOR OKELLO,,V34
OH58D9TETO,05/08/2020 21:13,05/08/2020 21:13,Pay Bill from 254708915764 - GEORGE WAHOME Acc. V18,Completed,7000,,53400,TRUE,Pay Utility,254708915764 - GEORGE WAHOME,,V18
OH59D8EADV,05/08/2020 20:38,05/08/2020 20:38,Pay Bill from 254726465584 - JULIANA MUKELI MUTUNGA Acc. V4,Completed,6600,,46400,TRUE,Pay Utility,254726465584 - JULIANA MUKELI MUTUNGA,,V4
OH51D8CVLB,05/08/2020 20:37,05/08/2020 20:37,Pay Bill from 254702921564 - DENNIS MAHERO SHIUNDU Acc. Dennis V21,Completed,6600,,39800,TRUE,Pay Utility,254702921564 - DENNIS MAHERO SHIUNDU,,Dennis
OH59D55YF7,05/08/2020 19:36,05/08/2020 19:36,Pay Bill Online from 254705670064 - margaret wahu wachira Acc. v35,Completed,6200,,33200,TRUE,Pay Bill Online,254705670064 - margaret wahu wachira,,v35
OH52CT3AVW,05/08/2020 15:34,05/08/2020 15:34,Pay Bill Online from 254713498554 - HENRY KINYUA WARUI Acc. V44 Henry Warui,Completed,7200,,27000,TRUE,Pay Bill Online,254713498554 - HENRY KINYUA WARUI,,V44
OH58CM8BIC,05/08/2020 12:35,05/08/2020 12:35,Pay Bill from 254718359438 - AHMAD TAHIR MACHENGO Acc. V11,Completed,6600,,19800,TRUE,Pay Utility,254718359438 - AHMAD TAHIR MACHENGO,,V11
OH58CL60BI,05/08/2020 12:07,05/08/2020 12:07,Pay Bill from 254703311892 - WINNIE ACHIENG' OPEYO Acc. v50,Completed,6600,,13200,TRUE,Pay Utility,254703311892 - WINNIE ACHIENG' OPEYO,,v50
OH53CKC7VL,05/08/2020 11:45,05/08/2020 11:45,Pay Bill from 254799376885 - DERRICK OSORE SONGORO Acc. Derrick V58,Completed,6600,,6600,TRUE,Pay Utility with OD via STK,254799376885 - DERRICK OSORE SONGORO,,Derrick
OH55CK8FE1,05/08/2020 11:42,05/08/2020 11:42,Utility Account to Organization Settlement Account,Completed,,-72900,0,TRUE,Utility Account to Organization Settlement Account,887674 - ANCIENT WELLS LTD 1,,
OH58CGEQOG,05/08/2020 09:59,05/08/2020 09:59,Pay Bill from 254722160984 - PENINNAH MUNYWOKI Acc. Anita v 27.,Completed,7100,,72900,TRUE,Pay Utility,254722160984 - PENINNAH MUNYWOKI,,Anita
OH48C9ALM4,04/08/2020 23:20,04/08/2020 23:20,Pay Bill from 254723815832 - SEMEKIA ONDIALA Acc. v38,Completed,6600,,65800,TRUE,Pay Utility,254723815832 - SEMEKIA ONDIALA,,v38
OH41C7246P,04/08/2020 21:15,04/08/2020 21:15,Pay Bill from 254723737647 - BRIAN MANGADE Acc. V51,Completed,6600,,59200,TRUE,Pay Utility,254723737647 - BRIAN MANGADE,,V51
OH40C5K6RU,04/08/2020 20:34,04/08/2020 20:34,Pay Bill from 254790552440 - ANGEL MAIMA Acc. G3,Completed,5000,,52600,TRUE,Pay Utility,254790552440 - ANGEL MAIMA,,G3
OH40BKU4FK,04/08/2020 12:47,04/08/2020 12:47,Pay Bill from 254718417450 - HARON ASUMA OROKO Acc. haron V 47,Completed,6600,,47600,TRUE,Pay Utility,254718417450 - HARON ASUMA OROKO,,haron
OH46BKFDR0,04/08/2020 12:35,04/08/2020 12:35,Pay Bill from 0795807227 - Lucy Ncekei Kimathi Acc. V36,Completed,7600,,41000,TRUE,Pay Utility,0795807227 - Lucy Ncekei Kimathi,,V36
OH45BGW5PL,04/08/2020 10:58,04/08/2020 10:58,Pay Bill from 0717042461 - Sharon Nyangasi Shivachi Acc. V55,Completed,6600,,33400,TRUE,Pay Utility,0717042461 - Sharon Nyangasi Shivachi,,V55
OH44BDSISG,04/08/2020 09:29,04/08/2020 09:29,Pay Bill from 254723389922 - ANNE WANJIKU Acc. v53,Completed,7000,,26800,TRUE,Pay Utility,254723389922 - ANNE WANJIKU,,v53
OH32B57JHI,03/08/2020 20:28,03/08/2020 20:28,Pay Bill from 254701086112 - CAROLYNE KOKI MULWA Acc. V30,Completed,6600,,19800,TRUE,Pay Utility,254701086112 - CAROLYNE KOKI MULWA,,V30
OH37B40G0L,03/08/2020 20:01,03/08/2020 20:01,Pay Bill from 254725639425 - CHRISPINE OMONDI Acc. V13,Completed,6600,,13200,TRUE,Pay Utility,254725639425 - CHRISPINE OMONDI,,V13
OH39AVOYFZ,03/08/2020 17:23,03/08/2020 17:23,Pay Bill from 254727729395 - ROBERT OUKO OSORO Acc. V29,Completed,6600,,6600,TRUE,Pay Utility,254727729395 - ROBERT OUKO OSORO,,V29
OH32ARKY2Y,03/08/2020 15:45,03/08/2020 15:45,Utility Account to Organization Settlement Account,Completed,,-42100,0,TRUE,Utility Account to Organization Settlement Account,887674 - ANCIENT WELLS LTD 1,,
OH31AJFLU1,03/08/2020 12:06,03/08/2020 12:06,Pay Bill from 0702322105 - hurry ibarasi madede Acc. V52,Completed,6600,,42100,TRUE,Pay Utility,0702322105 - hurry ibarasi madede,,V52
OH269NTYYM,02/08/2020 12:57,02/08/2020 12:57,Pay Bill from 254728991549 - MERCY NDWIGA Acc. V49,Completed,9100,,35500,TRUE,Pay Utility with OD via STK,254728991549 - MERCY NDWIGA,,V49
OH198S5IJV,01/08/2020 14:27,01/08/2020 14:27,Pay Bill from 254720623535 - JOSEPH MUTURI KAMAU Acc. V32,Completed,6600,,26400,TRUE,Pay Utility,254720623535 - JOSEPH MUTURI KAMAU,,V32
