Receipt No.,Completion Time,Initiation Time,Details,Transaction Status,Paid In,Withdrawn,Balance,Balance Confirmed,Reason Type,Other Party Info,Linked Transaction ID,A/C No.
PJJ9G6HK0F,19/10/2021 13:25,19/10/2021 13:25,Pay Bill from 254703573478 - ANTONY MAINA GICHINA Acc. Gichina A5,Completed,14300,,14300,TRUE,Pay Utility,254703573478 - ANTONY MAINA GICHINA,,Gichina
PJG8BKJF6M,16/10/2021 13:04,16/10/2021 13:04,Utility Account to Organization Settlement Account,Completed,,-40000,0,TRUE,Utility Account to Organization Settlement Account,887264 - ANCIENT WELLS LTD 2,,
PJG9B7EQYH,16/10/2021 09:09,16/10/2021 09:09,Pay Bill from 0113698856 - Fredrick Mosoti Mounde Acc. EPZ MH,Completed,30000,,40000,TRUE,Pay Utility,0113698856 - Fredrick Mosoti Mounde,,EPZ
