Receipt No.,Completion Time,Initiation Time,Details,Transaction Status,Paid In,Withdrawn,Balance,Balance Confirmed,Reason Type,Other Party Info,Linked Transaction ID,A/C No.
QJB0O8RWDG,11/10/2022 13:01,11/10/2022 13:01,Pay Bill Online from 0743263203 - Patrick theuri wachira Acc. U1,Completed,5000,,411500,TRUE,Pay Bill Online,0743263203 - Patrick theuri wachira,,U1
QJB9NK0Y8T,11/10/2022 07:02,11/10/2022 07:02,FSI to Pay Bill by 998094 - COOP TO PAYBILL Acc. house no.3 via WEB by COOP TO PAYBILL\COOPAYBILLTRNS,Completed,12000,,406500,TRUE,FSI to Pay Bill via API,998094 - COOP TO PAYBILL,,house
QJ98L6D5L2,09/10/2022 23:08,09/10/2022 23:08,Pay Bill Online from 254722269369 - FAIZ OMAR BASABRA Acc. Nairobi west 12,Completed,70000,,394500,TRUE,Pay Bill Online,254722269369 - FAIZ OMAR BASABRA,,Nairobi
QJ88IPP0Q4,08/10/2022 19:56,08/10/2022 19:56,Pay Bill from 254720867522 - DANIEL WAMBUI Acc. Z15 ,Completed,16000,,324500,TRUE,Pay Utility,254720867522 - DANIEL WAMBUI,,Z15
QJ82IOHC0Q,08/10/2022 19:45,08/10/2022 19:45,Pay Bill Online from 254722729251 - DAVID KIBE NJUGUNA Acc. ZA,Completed,14000,,308500,TRUE,Pay Utility with OD Online,254722729251 - DAVID KIBE NJUGUNA,,ZA
QJ81HOB153,08/10/2022 13:46,08/10/2022 13:46,Pay Bill from 254726928715 - ELIZAPHAN KAMAU NDUTA Acc. Z2,Completed,18000,,294500,TRUE,Pay Utility,254726928715 - ELIZAPHAN KAMAU NDUTA,,Z2
QJ78FNV1FI,07/10/2022 16:37,07/10/2022 16:37,Utility Account to Organization Settlement Account,Completed,,-13000,276500,TRUE,Utility Account to Organization Settlement Account,887264 - ANCIENT WELLS LTD 2,,
QJ76F78IVC,07/10/2022 13:23,07/10/2022 13:23,Pay Bill from 254722314500 - SHARON AKINYI OBIERO Acc. house 1,Completed,12000,,289500,TRUE,Pay Utility,254722314500 - SHARON AKINYI OBIERO,,house
QJ71EZB62N,07/10/2022 11:45,07/10/2022 11:45,Pay Bill from 0115556359 - CHEPNGENO   EDITH Acc. c701,Completed,20000,,277500,TRUE,Pay Utility,0115556359 - CHEPNGENO   EDITH,,c701
QJ60E8XXTI,06/10/2022 22:28,06/10/2022 22:28,Pay Bill from 0759385844 - ROSEMARY WAMBUI GITAU Acc. B5,Completed,6000,,257500,TRUE,Pay Utility,0759385844 - ROSEMARY WAMBUI GITAU,,B5
QJ67CHM2IB,06/10/2022 10:55,06/10/2022 10:55,Pay Bill Online from 254723909186 - BRIAN LIBASIA Acc. 18,Completed,16000,,251500,TRUE,Pay Bill Online,254723909186 - BRIAN LIBASIA,,18
QJ59BXST4T,05/10/2022 23:34,05/10/2022 23:34,Pay Bill Online from 254722949879 - KAMANDE JOSEPH Acc. 10,Completed,15000,,235500,TRUE,Pay Bill Online,254722949879 - KAMANDE JOSEPH,,10
QJ51BSJ43L,05/10/2022 21:29,05/10/2022 21:29,Pay Bill from 254720213934 - TERRY KAWIRA SALESIO Acc. 20,Completed,6000,,220500,TRUE,Pay Utility,254720213934 - TERRY KAWIRA SALESIO,,20
QJ59BGGJCP,05/10/2022 19:33,05/10/2022 19:33,Pay Bill from 254721121502 - ANNE WANGUI KAMAU Acc. Samville 11 Anne,Completed,15000,,214500,TRUE,Pay Utility,254721121502 - ANNE WANGUI KAMAU,,Samville
QJ50AI51NI,05/10/2022 13:53,05/10/2022 13:53,Pay Bill from 254712614146 - SOPHIE MUENI MUVITHU Acc. Sophie Mueni Hse no6,Completed,5500,,199500,TRUE,Pay Utility,254712614146 - SOPHIE MUENI MUVITHU,,Sophie
QJ50A5W9PO,05/10/2022 11:21,05/10/2022 11:21,Pay Bill from 254721392330 - ROSE KENDI Acc. A202 ,Completed,90000,,194000,TRUE,Pay Utility with OD via STK,254721392330 - ROSE KENDI,,A202
QJ429148OQ,04/10/2022 19:18,04/10/2022 19:18,Pay Bill from 254723882311 - VERONICAH WAMBUGU Acc. house number 9,Completed,16000,,104000,TRUE,Pay Utility,254723882311 - VERONICAH WAMBUGU,,house
QJ345A8AEW,03/10/2022 09:53,03/10/2022 09:53,Pay Bill from 0746573434 - Beatrice Omadi Nyandiga Acc. Z13,Completed,16000,,88000,TRUE,Pay Utility,0746573434 - Beatrice Omadi Nyandiga,,Z13
QJ253EAAXZ,02/10/2022 12:35,02/10/2022 12:35,Pay Bill from 254718167869 - MARK OTIENO Acc. A3,Completed,7000,,72000,TRUE,Pay Utility,254718167869 - MARK OTIENO,,A3
QJ161QANQK,01/10/2022 17:01,01/10/2022 17:01,Pay Bill Online from 254723634653 - CHARD MASHANGA Acc. House No 7,Completed,16000,,65000,TRUE,Pay Bill Online,254723634653 - CHARD MASHANGA,,House
