Receipt No.,Completion Time,Initiation Time,Details,Transaction Status,Paid In,Withdrawn,Balance,Balance Confirmed,Reason Type,Other Party Info,Linked Transaction ID,A/C No.
RHL6NDWS46,21/08/2023 09:53,21/08/2023 09:53,Utility Account to Organization Settlement Account,Completed,,-56350,0,TRUE,Utility Account to Organization Settlement Account,846783 - ANCIENT WELLS LTD 4,,
RHK8LNH8TU,20/08/2023 16:20,20/08/2023 16:20,Pay Bill Online from 254713966424 - NDUTI MUTHUI Acc. jed,Completed,1500,,56350,TRUE,Pay Bill Online,254713966424 - NDUTI MUTHUI,,jed
RHJ3I9NF9T,19/08/2023 13:02,19/08/2023 13:02,Pay Bill from 254710248036 - Allan Kimeu Mutua Acc. F5,Completed,1950,,54850,TRUE,Pay Utility,254710248036 - Allan Kimeu Mutua,,F5
RHJ7HQ3UTH,19/08/2023 09:51,19/08/2023 09:51,Pay Bill from 0796929370 - HALIMA BOYA GALMA Acc. DBC,Completed,1000,,52900,TRUE,Pay Utility,0796929370 - HALIMA BOYA GALMA,,DBC
RHI2G48JGY,18/08/2023 17:55,18/08/2023 17:55,Pay Bill from 254720466443 - FATUMA MOHAMED ABDALLAH Acc. V21,Completed,400,,51900,TRUE,Pay Utility,254720466443 - FATUMA MOHAMED ABDALLAH,,V21
RHI1FWSDMV,18/08/2023 16:56,18/08/2023 16:56,Pay Bill from 254722706516 - KORIR ANTHONY Acc. Anthony D3 ,Completed,200,,51500,TRUE,Pay Utility,254722706516 - KORIR ANTHONY,,Anthony
RHI9FOD1ID,18/08/2023 15:39,18/08/2023 15:39,Pay Bill from 254705396032 - NAOMI NYAWIRA NGURE Acc. v46,Completed,700,,51300,TRUE,Pay Utility with OD via STK,254705396032 - NAOMI NYAWIRA NGURE,,v46
RHI0FD4D4Q,18/08/2023 13:51,18/08/2023 13:51,Pay Bill Online from 254714596677 - IMMANUEL BARBOI Acc. KAI,Completed,200,,50600,TRUE,Pay Bill Online,254714596677 - IMMANUEL BARBOI,,KAI
RHI0F6C9YE,18/08/2023 12:46,18/08/2023 12:46,Pay Bill from 254719779657 - SAMUEL NJOROGE Acc. JGA,Completed,600,,50400,TRUE,Pay Utility,254719779657 - SAMUEL NJOROGE,,JGA
RHI2ENRBLQ,18/08/2023 09:38,18/08/2023 09:38,Pay Bill from 0715939681 - alex mwanzia nyamai Acc. V7,Completed,1000,,49800,TRUE,Pay Utility,0715939681 - alex mwanzia nyamai,,V7
RHI9EADVDN,18/08/2023 06:26,18/08/2023 06:26,Pay Bill from 254707715639 - Annastacia Kimeu Acc. JFC ,Completed,2800,,48800,TRUE,Pay Utility,254707715639 - Annastacia Kimeu,,JFC
RHH6E28EUI,17/08/2023 22:20,17/08/2023 22:20,Pay Bill Online from 254710239100 - PHILOMENA WOKI MUTHAMA Acc. KDK,Completed,800,,46000,TRUE,Pay Bill Online,254710239100 - PHILOMENA WOKI MUTHAMA,,KDK
RHH5BX9XHR,17/08/2023 11:09,17/08/2023 11:09,Pay Bill from 254724852503 - GEOFREY YEGO Acc. JFF,Completed,1000,,45200,TRUE,Pay Utility,254724852503 - GEOFREY YEGO,,JFF
RHH8BICC28,17/08/2023 08:28,17/08/2023 08:28,Pay Bill Online from 254720086214 - SAMUEL WANJIKU Acc. B3,Completed,300,,44200,TRUE,Pay Utility with OD Online,254720086214 - SAMUEL WANJIKU,,B3
RHG4A4MK8U,16/08/2023 17:52,16/08/2023 17:52,Pay Bill from 0794630078 - Sylvanus   Kiplangat Acc. IFE,Completed,400,,43900,TRUE,Pay Utility,0794630078 - Sylvanus   Kiplangat,,IFE
RHG1A26KIF,16/08/2023 17:33,16/08/2023 17:33,Pay Bill from 254717909848 - MARY MBULA KATHUKU Acc. FGD,Completed,200,,43500,TRUE,Pay Utility with OD via STK,254717909848 - MARY MBULA KATHUKU,,FGD
RHG59G64CD,16/08/2023 14:03,16/08/2023 14:03,Pay Bill from 254708612464 - MERCY KINANU KIWOTI Acc. IBB,Completed,1000,,43300,TRUE,Pay Utility,254708612464 - MERCY KINANU KIWOTI,,IBB
RHG78AXLDR,16/08/2023 04:58,16/08/2023 04:58,Pay Bill Online from 254720451253 - JIMMY KIOGORA NKIROTE Acc. KBD,Completed,200,,42300,TRUE,Pay Utility with OD Online,254720451253 - JIMMY KIOGORA NKIROTE,,KBD
RHF973C23H,15/08/2023 17:41,15/08/2023 17:41,Pay Bill from 254714597495 - WAMBUA KIOKO Acc. c1,Completed,600,,42100,TRUE,Pay Utility,254714597495 - WAMBUA KIOKO,,c1
RHF8640LCK,15/08/2023 12:06,15/08/2023 12:06,Pay Bill Online from 0740283700 - SERAH MUKULU MULILIA Acc. c4,Completed,1000,,41500,TRUE,Pay Bill Online,0740283700 - SERAH MUKULU MULILIA,,c4
RHF961VZT7,15/08/2023 11:45,15/08/2023 11:45,Pay Bill from 254791341895 - Enos Nyaosi Ayuma Acc. D5,Completed,1000,,40500,TRUE,Pay Utility,254791341895 - Enos Nyaosi Ayuma,,D5
RHF85IMHKQ,15/08/2023 08:25,15/08/2023 08:25,Pay Bill from 0745516938 - MARION REBECCA BARASA Acc. A2,Completed,400,,39500,TRUE,Pay Utility,0745516938 - MARION REBECCA BARASA,,A2
RHF35ENGQJ,15/08/2023 07:32,15/08/2023 07:32,Pay Bill from 254717247817 - NYANGAU HARONI Acc. kbf,Completed,400,,39100,TRUE,Pay Utility,254717247817 - NYANGAU HARONI,,kbf
RHE02LEO68,14/08/2023 08:57,14/08/2023 08:57,Pay Bill from 254726337163 - HALIMA ALI HASSAN Acc. DDA,Completed,250,,38700,TRUE,Pay Utility,254726337163 - HALIMA ALI HASSAN,,DDA
RHE42JBMCI,14/08/2023 08:32,14/08/2023 08:32,Pay Bill Online from 254718253322 - DUNCAN MOCHOGE Acc. JFJ,Completed,1000,,38450,TRUE,Pay Bill Online,254718253322 - DUNCAN MOCHOGE,,JFJ
RHE72HDGQN,14/08/2023 08:08,14/08/2023 08:08,Pay Bill from 0705687898 - JORDAN KIPNGETICH THOMAS KIKWAI Acc. kff,Completed,500,,37450,TRUE,Pay Utility,0705687898 - JORDAN KIPNGETICH THOMAS KIKWAI,,kff
RHD71Q86QP,13/08/2023 19:58,13/08/2023 19:58,Pay Bill from 254728238249 - ESTHER WANGUI KIBUNYI Acc. ICA,Completed,1000,,36950,TRUE,Pay Utility,254728238249 - ESTHER WANGUI KIBUNYI,,ICA
RHD2Z4MGG4,13/08/2023 10:56,13/08/2023 10:56,Pay Bill from 254798609376 - Oliva Wafula Juma Acc. IDF,Completed,400,,35950,TRUE,Pay Utility,254798609376 - Oliva Wafula Juma,,IDF
RHC6YB2ILA,12/08/2023 21:47,12/08/2023 21:47,Pay Bill Online from 254720451253 - JIMMY KIOGORA NKIROTE Acc. KBD,Completed,200,,35550,TRUE,Pay Utility with OD Online,254720451253 - JIMMY KIOGORA NKIROTE,,KBD
RHC0WFSSVQ,12/08/2023 12:39,12/08/2023 12:39,Pay Bill from 0790946220 - Joyce Silvier Ombeyi Acc. IAG,Completed,1000,,35350,TRUE,Pay Utility,0790946220 - Joyce Silvier Ombeyi,,IAG
RHC5VLHYMF,12/08/2023 06:57,12/08/2023 06:57,Pay Bill Online from 254722910078 - MAUREEN MUNYIVA MUTUKU Acc. DCD,Completed,1000,,34350,TRUE,Pay Bill Online,254722910078 - MAUREEN MUNYIVA MUTUKU,,DCD
RHC9VJG8M3,12/08/2023 05:23,12/08/2023 05:23,Pay Bill from 254798524621 - MERCY CHESANG Acc. jcj,Completed,1200,,33350,TRUE,Pay Utility,254798524621 - MERCY CHESANG,,jcj
RHB0TNWZUQ,11/08/2023 14:40,11/08/2023 14:40,Pay Bill Online from 254714596677 - IMMANUEL BARBOI Acc. KAI,Completed,200,,32150,TRUE,Pay Bill Online,254714596677 - IMMANUEL BARBOI,,KAI
RHB4T28Y4C,11/08/2023 11:15,11/08/2023 11:15,Pay Bill from 0748719970 - judith ndunge mwende Acc. E5,Completed,2000,,31950,TRUE,Pay Utility,0748719970 - judith ndunge mwende,,E5
RHB3SDCX2F,11/08/2023 05:11,11/08/2023 05:11,Pay Bill from 0792117969 - TOM ONYANGO OGALO Acc. HFB,Completed,700,,29950,TRUE,Pay Utility,0792117969 - TOM ONYANGO OGALO,,HFB
RHA1RLDD6B,10/08/2023 19:28,10/08/2023 19:28,Pay Bill from 254711742716 - RODGERS KIPLANGAT KORIR Acc. IGC,Completed,200,,29250,TRUE,Pay Utility,254711742716 - RODGERS KIPLANGAT KORIR,,IGC
RHA6R5S6QO,10/08/2023 17:46,10/08/2023 17:46,Pay Bill from 254792712192 - KELVIN MASIBO Acc. ICE,Completed,400,,29050,TRUE,Pay Utility,254792712192 - KELVIN MASIBO,,ICE
RHA7Q9PBC9,10/08/2023 12:52,10/08/2023 12:52,Pay Bill from 254741573910 - VINCENT ODUOR OLIENG Acc. HBC,Completed,1000,,28650,TRUE,Pay Utility,254741573910 - VINCENT ODUOR OLIENG,,HBC
RHA0Q6MVEG,10/08/2023 12:22,10/08/2023 12:22,Pay Bill from 0717441870 - Steven oduor ogutu Acc. KTA,Completed,800,,27650,TRUE,Pay Utility,0717441870 - Steven oduor ogutu,,KTA
RHA7PPL7IV,10/08/2023 09:35,10/08/2023 09:35,Pay Bill from 254721417560 - ANDREW SANDE Acc. JBJ,Completed,800,,26850,TRUE,Pay Utility,254721417560 - ANDREW SANDE,,JBJ
RHA2PF56H4,10/08/2023 07:22,10/08/2023 07:22,Pay Bill from 0713841898 - STACY MAUA KILONZO Acc. v37,Completed,1400,,26050,TRUE,Pay Utility,0713841898 - STACY MAUA KILONZO,,v37
RH93OH8G2L,09/08/2023 19:08,09/08/2023 19:08,Pay Bill Online from 254705846408 - JAMES OUMA Acc. HBH,Completed,1400,,24650,TRUE,Pay Bill Online,254705846408 - JAMES OUMA,,HBH
RH93NNSWZR,09/08/2023 15:14,09/08/2023 15:14,Pay Bill from 254703135064 - KENNEDY GEORGE Acc. V26,Completed,200,,23250,TRUE,Pay Utility,254703135064 - KENNEDY GEORGE,,V26
RH97NAPYAP,09/08/2023 13:10,09/08/2023 13:10,Pay Bill from 254720230582 - SHADRACK KITAKA NGILA Acc. hse,Completed,1400,,23050,TRUE,Pay Utility,254720230582 - SHADRACK KITAKA NGILA,,hse
RH97N7IBPN,09/08/2023 12:38,09/08/2023 12:38,Pay Bill from 254796069018 - PEACE KIMEU Acc. jah,Completed,1400,,21650,TRUE,Pay Utility,254796069018 - PEACE KIMEU,,jah
RH84LRTNT0,08/08/2023 20:28,08/08/2023 20:28,Pay Bill from 0769858701 - DOLLARS DANIEL CIRHUZA Acc. V09,Completed,600,,20250,TRUE,Pay Utility,0769858701 - DOLLARS DANIEL CIRHUZA,,V09
RH87KLGNMZ,08/08/2023 15:14,08/08/2023 15:14,Pay Bill Online from 254710814215 - JOAN NYAMBURA KAMAU Acc. ifb,Completed,800,,19650,TRUE,Pay Bill Online,254710814215 - JOAN NYAMBURA KAMAU,,ifb
RH80KCSIN4,08/08/2023 13:49,08/08/2023 13:49,Pay Bill from 254724882610 - ALINOOR IBRAHIM Acc. v52,Completed,1000,,18850,TRUE,Pay Utility,254724882610 - ALINOOR IBRAHIM,,v52
RH85K0EZAL,08/08/2023 11:47,08/08/2023 11:47,Pay Bill Online from 254724423882 - JOEL GICHURI KARANJA Acc. fee,Completed,1600,,17850,TRUE,Pay Bill Online,254724423882 - JOEL GICHURI KARANJA,,fee
RH82JPEVBC,08/08/2023 09:58,08/08/2023 09:58,Pay Bill from 0715030019 - Omwenga Ong'era Stephen Acc. E1,Completed,800,,16250,TRUE,Pay Utility,0715030019 - Omwenga Ong'era Stephen,,E1
RH85JKFT8T,08/08/2023 09:05,08/08/2023 09:05,Pay Bill from 0791565463 - Lilian Njeri Wakagwi Acc. F6,Completed,800,,15450,TRUE,Pay Utility,0791565463 - Lilian Njeri Wakagwi,,F6
RH84JEQ77Q,08/08/2023 07:58,08/08/2023 07:58,Merchant Pay Utility Received from 6474824 - James Ngugi Mwaniki Acc. JBI,Completed,2400,,14650,TRUE,Merchant Pay Utility via API,6474824 - James Ngugi Mwaniki,,JBI
RH84JCFW9W,08/08/2023 07:26,08/08/2023 07:26,Business Pay Bill by 488519 - NCBA  Bank M-pesa Acc. JCD via API,Completed,400,,12250,TRUE,Business Pay Bill via API,488519 - NCBA  Bank M-pesa,,JCD
RH88J7CKY6,08/08/2023 02:11,08/08/2023 02:11,Pay Bill Online from 254720451253 - JIMMY KIOGORA NKIROTE Acc. KBD,Completed,300,,11850,TRUE,Pay Bill Online,254720451253 - JIMMY KIOGORA NKIROTE,,KBD
RH77I34STZ,07/08/2023 17:59,07/08/2023 17:59,Pay Bill from 254713473646 - AGNETA LICHUNGU Acc. HFA,Completed,1200,,11550,TRUE,Pay Utility,254713473646 - AGNETA LICHUNGU,,HFA
RH75HEQI05,07/08/2023 14:21,07/08/2023 14:21,Pay Bill from 254791023764 - ISAIAH OMODING Acc. V49,Completed,200,,10350,TRUE,Pay Utility,254791023764 - ISAIAH OMODING,,V49
RH71H78CUR,07/08/2023 13:11,07/08/2023 13:11,Pay Bill from 254705641030 - FRIDAH WAENI MUITHYA Acc. JEH,Completed,2000,,10150,TRUE,Pay Utility with OD via STK,254705641030 - FRIDAH WAENI MUITHYA,,JEH
RH73H21KQR,07/08/2023 12:20,07/08/2023 12:20,Pay Bill from 254703276305 - MARTHA MUSYOKA Acc. iai,Completed,1200,,8150,TRUE,Pay Utility,254703276305 - MARTHA MUSYOKA,,iai
RH70GFPMNY,07/08/2023 08:28,07/08/2023 08:28,Pay Bill from 254725754547 - MWACHIRO GEORGE DECHE Acc. DFC,Completed,1400,,6950,TRUE,Pay Utility,254725754547 - MWACHIRO GEORGE DECHE,,DFC
RH74G9K4RI,07/08/2023 06:57,07/08/2023 06:57,Pay Bill from 254700430569 - EDITH   GAKII Acc. DDB,Completed,200,,5550,TRUE,Pay Utility,254700430569 - EDITH   GAKII,,DDB
RH67FYFYGX,06/08/2023 21:47,06/08/2023 21:47,Pay Bill from 254725621394 - RACHAEL WACHIRA Acc. Jfb,Completed,200,,5350,TRUE,Pay Utility,254725621394 - RACHAEL WACHIRA,,Jfb
RH66FSME8O,06/08/2023 20:49,06/08/2023 20:49,Pay Bill Online from 0757699775 - BENARD MUIA MUTUA Acc. HCB,Completed,1400,,5150,TRUE,Pay Utility with OD Online,0757699775 - BENARD MUIA MUTUA,,HCB
RH65FO7TCN,06/08/2023 20:15,06/08/2023 20:15,Pay Bill from 254712974871 - PAULA WANJIKU GATUI Acc. HEA,Completed,600,,3750,TRUE,Pay Utility,254712974871 - PAULA WANJIKU GATUI,,HEA
RH62FKGNRQ,06/08/2023 19:47,06/08/2023 19:47,Pay Bill from 254720814822 - JAMES OTIENO OPAR Acc. jgj,Completed,750,,3150,TRUE,Pay Utility,254720814822 - JAMES OTIENO OPAR,,jgj
RH68FKFAVC,06/08/2023 19:47,06/08/2023 19:47,Pay Bill from 0742599061 - Judy Masese Samwel Acc. hgf,Completed,200,,2400,TRUE,Pay Utility,0742599061 - Judy Masese Samwel,,hgf
RH60F64F4Q,06/08/2023 18:05,06/08/2023 18:05,Pay Bill Online from 254722769473 - SAMSON CHALO Acc. IAB,Completed,1000,,2200,TRUE,Pay Bill Online,254722769473 - SAMSON CHALO,,IAB
RH65F44MS7,06/08/2023 17:49,06/08/2023 17:49,Pay Bill from 254740579741 - MUHINDI MULINYA Acc. HGG,Completed,1200,,1200,TRUE,Pay Utility,254740579741 - MUHINDI MULINYA,,HGG
RH67EHX6AH,06/08/2023 14:20,06/08/2023 14:20,Utility Account to Organization Settlement Account,Completed,,-29950,0,TRUE,Utility Account to Organization Settlement Account,846783 - ANCIENT WELLS LTD 4,,
RH65E5F245,06/08/2023 12:08,06/08/2023 12:08,Pay Bill Online from 254723394064 - ANDREW LAGAT Acc. HBG ,Completed,200,,29950,TRUE,Pay Bill Online,254723394064 - ANDREW LAGAT,,HBG
RH61DSNKHF,06/08/2023 09:41,06/08/2023 09:41,Pay Bill Online from 254702190887 - Nax Ochieng Acc. FDE,Completed,500,,29750,TRUE,Pay Bill Online,254702190887 - Nax Ochieng,,FDE
RH62DQVM32,06/08/2023 09:20,06/08/2023 09:20,Pay Bill Online from 0703634804 - SYLVIA NYAMBURA NJOROGE Acc. KCD,Completed,400,,29250,TRUE,Pay Bill Online,0703634804 - SYLVIA NYAMBURA NJOROGE,,KCD
RH66DE9S3Y,06/08/2023 02:03,06/08/2023 02:03,Pay Bill from 254710635630 - DONNA JESSICA OWANO Acc. KCC,Completed,200,,28850,TRUE,Pay Utility,254710635630 - DONNA JESSICA OWANO,,KCC
RH54D4QHQI,05/08/2023 21:46,05/08/2023 21:46,Pay Bill from 0724386624 - FATUMA ISSE YUSSUF Acc. FAB,Completed,1000,,28650,TRUE,Pay Utility,0724386624 - FATUMA ISSE YUSSUF,,FAB
RH52D2065G,05/08/2023 21:20,05/08/2023 21:20,Pay Bill from 254704303496 - PETER MACHARIA WAIGANJO Acc. DFD,Completed,1600,,27650,TRUE,Pay Utility,254704303496 - PETER MACHARIA WAIGANJO,,DFD
RH59D01XH5,05/08/2023 21:03,05/08/2023 21:03,Utility Account to Organization Settlement Account,Completed,,-5000,26050,TRUE,Utility Account to Organization Settlement Account,846783 - ANCIENT WELLS LTD 4,,
RH50CZSF3M,05/08/2023 21:01,05/08/2023 21:01,Utility Account to Organization Settlement Account,Completed,,-20000,31050,TRUE,Utility Account to Organization Settlement Account,846783 - ANCIENT WELLS LTD 4,,
RH59CGUTTD,05/08/2023 18:59,05/08/2023 18:59,Pay Bill from 254702488841 - JEREMIAH NYANSIKERA Acc. KAK,Completed,500,,51050,TRUE,Pay Utility,254702488841 - JEREMIAH NYANSIKERA,,KAK
RH59CFZMD7,05/08/2023 18:54,05/08/2023 18:54,Pay Bill Online from 254715892656 - DENNIS MUSYOKA MUOKI Acc. KFA,Completed,400,,50550,TRUE,Pay Bill Online,254715892656 - DENNIS MUSYOKA MUOKI,,KFA
RH55CFMDHB,05/08/2023 18:52,05/08/2023 18:52,Pay Bill from 254702488841 - JEREMIAH NYANSIKERA Acc. KAK,Completed,2600,,50150,TRUE,Pay Utility,254702488841 - JEREMIAH NYANSIKERA,,KAK
RH59BXZRS5,05/08/2023 16:40,05/08/2023 16:40,Pay Bill Online from 0722255105 - SALIM OMAR MZEE Acc. FGF water,Completed,400,,47550,TRUE,Pay Utility with OD Online,0722255105 - SALIM OMAR MZEE,,FGF
RH54BT8HFO,05/08/2023 15:57,05/08/2023 15:57,Pay Bill from 254700430569 - EDITH   GAKII Acc. DDB,Completed,1000,,47150,TRUE,Pay Utility,254700430569 - EDITH   GAKII,,DDB
RH50BS3P62,05/08/2023 15:47,05/08/2023 15:47,Pay Bill from 254712283818 - OYUGI OCHIENG Acc. FCB,Completed,500,,46150,TRUE,Pay Utility,254712283818 - OYUGI OCHIENG,,FCB
RH54BNEH2W,05/08/2023 15:03,05/08/2023 15:03,Pay Bill from 254726945691 - JAMES RAMTU Acc. B5,Completed,200,,45650,TRUE,Pay Utility,254726945691 - JAMES RAMTU,,B5
RH57BJDUGX,05/08/2023 14:26,05/08/2023 14:26,Pay Bill from 254719398942 - NORAH WAYUA MUNYAO Acc. KDA,Completed,800,,45450,TRUE,Pay Utility,254719398942 - NORAH WAYUA MUNYAO,,KDA
RH52BEVS2Q,05/08/2023 13:45,05/08/2023 13:45,Pay Bill from 0757714694 - paul mutune musyoka Acc. D6,Completed,1500,,44650,TRUE,Pay Utility,0757714694 - paul mutune musyoka,,D6
RH55BBH1BJ,05/08/2023 13:13,05/08/2023 13:13,Pay Bill Online from 254721465713 - RHODA WAMBUI MWANGI Acc. Jfh,Completed,800,,43150,TRUE,Pay Bill Online,254721465713 - RHODA WAMBUI MWANGI,,Jfh
RH51B3GUND,05/08/2023 11:57,05/08/2023 11:57,Pay Bill Online from 254718911865 - KENNEDY KELI KATUNGII Acc. HDF,Completed,1000,,42350,TRUE,Pay Bill Online,254718911865 - KENNEDY KELI KATUNGII,,HDF
RH52B2P9R8,05/08/2023 11:49,05/08/2023 11:49,Pay Bill from 254743487420 - Margaret Wacu Muia Acc. FCE,Completed,1300,,41350,TRUE,Pay Utility,254743487420 - Margaret Wacu Muia,,FCE
RH57B0JFMF,05/08/2023 11:28,05/08/2023 11:28,Pay Bill from 254792800520 - SELAH NABAI WEKOLA Acc. V17,Completed,500,,40050,TRUE,Pay Utility,254792800520 - SELAH NABAI WEKOLA,,V17
RH52B0EQJM,05/08/2023 11:27,05/08/2023 11:27,Pay Bill from 254700811449 - JOHN MULIMA ENANE Acc. HCE,Completed,1000,,39550,TRUE,Pay Utility,254700811449 - JOHN MULIMA ENANE,,HCE
RH51AZPUCT,05/08/2023 11:21,05/08/2023 11:21,Pay Bill Online from 254722604851 - WILFRED SAKWA Acc. KEE,Completed,200,,38550,TRUE,Pay Bill Online,254722604851 - WILFRED SAKWA,,KEE
RH55A9MV1H,05/08/2023 01:30,05/08/2023 01:30,Pay Bill from 0742624652 - Charity Kaluki Isaac Acc. IEB,Completed,600,,38350,TRUE,Pay Utility,0742624652 - Charity Kaluki Isaac,,IEB
RH48A6K30E,04/08/2023 23:14,04/08/2023 23:14,Pay Bill Online from 254721714178 - PHANICE JEROTICH KIPTOO Acc. FBF,Completed,600,,37750,TRUE,Pay Bill Online,254721714178 - PHANICE JEROTICH KIPTOO,,FBF
RH46A0TNJU,04/08/2023 21:43,04/08/2023 21:43,Pay Bill Online from 254720451253 - JIMMY KIOGORA NKIROTE Acc. KBD,Completed,200,,37150,TRUE,Pay Bill Online,254720451253 - JIMMY KIOGORA NKIROTE,,KBD
RH439BKYA9,04/08/2023 18:46,04/08/2023 18:46,Pay Bill from 254712091662 - BENARD OMONDI ROBY Acc. V16,Completed,600,,36950,TRUE,Pay Utility,254712091662 - BENARD OMONDI ROBY,,V16
RH4195XHF7,04/08/2023 18:08,04/08/2023 18:08,Pay Bill from 254728670882 - SHARAD EDWARD ADALA OLUM Acc. KCK,Completed,1800,,36350,TRUE,Pay Utility,254728670882 - SHARAD EDWARD ADALA OLUM,,KCK
RH4190NKEF,04/08/2023 17:30,04/08/2023 17:30,Pay Bill Online from 254720201157 - BENSON INYANJE MWAKHA Acc. b6,Completed,200,,34550,TRUE,Pay Utility with OD Online,254720201157 - BENSON INYANJE MWAKHA,,b6
RH488I9MM4,04/08/2023 14:47,04/08/2023 14:47,Pay Bill Online from 254714596677 - IMMANUEL BARBOI Acc. KAI,Completed,200,,34350,TRUE,Pay Bill Online,254714596677 - IMMANUEL BARBOI,,KAI
RH418EK38X,04/08/2023 14:11,04/08/2023 14:11,Pay Bill from 254726753273 - JESSE K MURIRMI NJERU Acc. HCH,Completed,600,,34150,TRUE,Pay Utility,254726753273 - JESSE K MURIRMI NJERU,,HCH
RH478A1YG3,04/08/2023 13:29,04/08/2023 13:29,Pay Bill from 254721667039 - ELIAS KIPLAGAT Acc. KAC,Completed,400,,33550,TRUE,Pay Utility,254721667039 - ELIAS KIPLAGAT,,KAC
RH44837UQK,04/08/2023 12:22,04/08/2023 12:22,Pay Bill from 254705396032 - NAOMI NYAWIRA NGURE Acc. v46,Completed,350,,33150,TRUE,Pay Utility,254705396032 - NAOMI NYAWIRA NGURE,,v46
RH427QEVPE,04/08/2023 10:15,04/08/2023 10:15,Pay Bill Online from 254714552193 - CHRISTOPHER OCHIENG Acc. JGI,Completed,1200,,32800,TRUE,Pay Bill Online,254714552193 - CHRISTOPHER OCHIENG,,JGI
RH427E7XDS,04/08/2023 07:55,04/08/2023 07:55,Pay Bill Online from 254721974995 - BERNICE MANGOKA Acc. KFK,Completed,1400,,31600,TRUE,Pay Bill Online,254721974995 - BERNICE MANGOKA,,KFK
RH3871GFB8,03/08/2023 22:16,03/08/2023 22:16,Pay Bill from 254798642778 - victor musyoka Acc. DAD,Completed,1400,,30200,TRUE,Pay Utility,254798642778 - victor musyoka,,DAD
RH366ZPC26,03/08/2023 21:53,03/08/2023 21:53,Pay Bill from 0715806956 - Mercy Jelagat Kalum Acc. FFE,Completed,400,,28800,TRUE,Pay Utility,0715806956 - Mercy Jelagat Kalum,,FFE
RH396QHHOT,03/08/2023 20:29,03/08/2023 20:29,Pay Bill from 254723488259 - WILSON OKITE OKITE Acc. HCA,Completed,1200,,28400,TRUE,Pay Utility,254723488259 - WILSON OKITE OKITE,,HCA
RH376LC8LJ,03/08/2023 19:53,03/08/2023 19:53,Pay Bill Online from 254729796719 - JACINTA WANJIKU NJERI Acc. FFF,Completed,400,,27200,TRUE,Pay Bill Online,254729796719 - JACINTA WANJIKU NJERI,,FFF
RH326GQ1JY,03/08/2023 19:26,03/08/2023 19:26,Pay Bill from 254725478531 - KIPKORIR KUTO Acc. DFB,Completed,400,,26800,TRUE,Pay Utility,254725478531 - KIPKORIR KUTO,,DFB
RH396DBNNN,03/08/2023 19:06,03/08/2023 19:06,Pay Bill from 254718818610 - HANNAH NALIAKA Acc. V23,Completed,400,,26400,TRUE,Pay Utility,254718818610 - HANNAH NALIAKA,,V23
RH326A1ZQY,03/08/2023 18:46,03/08/2023 18:46,Pay Bill from 254716504398 - HYVENE MAYETI Acc. KDE,Completed,250,,26000,TRUE,Pay Utility,254716504398 - HYVENE MAYETI,,KDE
RH375WUB9Z,03/08/2023 17:11,03/08/2023 17:11,Pay Bill from 254702216907 - FAITH MUSA Acc. kbe,Completed,400,,25750,TRUE,Pay Utility,254702216907 - FAITH MUSA,,kbe
RH3053TSAU,03/08/2023 12:34,03/08/2023 12:34,Pay Bill from 254720814822 - JAMES OTIENO OPAR Acc. jgj,Completed,750,,25350,TRUE,Pay Utility,254720814822 - JAMES OTIENO OPAR,,jgj
RH384VT50O,03/08/2023 11:13,03/08/2023 11:13,Pay Bill from 254723341864 - WILLIAM OSIEL WACHUDI Acc. DED,Completed,4200,,24600,TRUE,Pay Utility with OD via STK,254723341864 - WILLIAM OSIEL WACHUDI,,DED
RH384M52RI,03/08/2023 09:33,03/08/2023 09:33,Pay Bill from 254727095667 - HILDA JEPKEMOI KIMELIEL Acc. JBE,Completed,1000,,20400,TRUE,Pay Utility,254727095667 - HILDA JEPKEMOI KIMELIEL,,JBE
RH354KIVFR,03/08/2023 09:14,03/08/2023 09:14,Pay Bill Online from 254706144834 - WILKISTER OSUMO Acc. HGH,Completed,600,,19400,TRUE,Pay Bill Online,254706144834 - WILKISTER OSUMO,,HGH
RH394K5NPR,03/08/2023 09:10,03/08/2023 09:10,Pay Bill from 254728084427 - MARY NABWIRE OKELLO Acc. FDF,Completed,1200,,18800,TRUE,Pay Utility,254728084427 - MARY NABWIRE OKELLO,,FDF
RH324GKRSM,03/08/2023 08:27,03/08/2023 08:27,Pay Bill from 254741791919 - Linet Mongina Maraga Acc. u3,Completed,300,,17600,TRUE,Pay Utility,254741791919 - Linet Mongina Maraga,,u3
RH344D9VYS,03/08/2023 07:43,03/08/2023 07:43,Pay Bill Online from 0718473068 - Dennis Kiptoo Maiyo Acc. FEF,Completed,200,,17300,TRUE,Pay Bill Online,0718473068 - Dennis Kiptoo Maiyo,,FEF
RH2743V1QR,02/08/2023 22:59,02/08/2023 22:59,Pay Bill Online from 254720407659 - FRANCIS CHUMO Acc. KDG,Completed,500,,17100,TRUE,Pay Bill Online,254720407659 - FRANCIS CHUMO,,KDG
RH2340ZES7,02/08/2023 22:06,02/08/2023 22:06,Pay Bill Online from 254729097858 - AMBROSE ADEYA AHAWO Acc. KCF,Completed,1000,,16600,TRUE,Pay Bill Online,254729097858 - AMBROSE ADEYA AHAWO,,KCF
RH253XEU3H,02/08/2023 21:24,02/08/2023 21:24,Pay Bill from 254726337163 - HALIMA ALI HASSAN Acc. DDA,Completed,300,,15600,TRUE,Pay Utility,254726337163 - HALIMA ALI HASSAN,,DDA
RH293H4UUP,02/08/2023 19:25,02/08/2023 19:25,Pay Bill from 0707950214 - Abdirashid Osman Huka Acc. Kej,Completed,200,,15300,TRUE,Pay Utility,0707950214 - Abdirashid Osman Huka,,Kej
RH253DURVB,02/08/2023 19:06,02/08/2023 19:06,Pay Bill Online from 254724821898 - ALLAN GISONI NYANGARESI Acc. DBA,Completed,800,,15100,TRUE,Pay Bill Online,254724821898 - ALLAN GISONI NYANGARESI,,DBA
RH25392AUB,02/08/2023 18:36,02/08/2023 18:36,Pay Bill from 254717690295 - MARCELLA JELIMO Acc. IGE,Completed,400,,14300,TRUE,Pay Utility,254717690295 - MARCELLA JELIMO,,IGE
RH222TTAIO,02/08/2023 16:43,02/08/2023 16:43,Pay Bill from 254720496449 - STANLEY KIPKOECH RONO Acc. FBE,Completed,800,,13900,TRUE,Pay Utility,254720496449 - STANLEY KIPKOECH RONO,,FBE
RH272H3L6N,02/08/2023 14:41,02/08/2023 14:41,Pay Bill Online from 254726465584 - JULIANA MUKELI MUTUNGA Acc. v4,Completed,400,,13100,TRUE,Pay Bill Online,254726465584 - JULIANA MUKELI MUTUNGA,,v4
RH292EDZZZ,02/08/2023 14:14,02/08/2023 14:14,Pay Bill from 254741223822 - Rhoyce Kiptarus Boiyo Acc. FEC,Completed,2000,,12700,TRUE,Pay Utility,254741223822 - Rhoyce Kiptarus Boiyo,,FEC
RH2926KBYV,02/08/2023 12:58,02/08/2023 12:58,Pay Bill from 0748956967 - Selvin Mukami Wanjiru Acc. E4,Completed,400,,10700,TRUE,Pay Utility,0748956967 - Selvin Mukami Wanjiru,,E4
RH20232SUA,02/08/2023 12:22,02/08/2023 12:22,Pay Bill from 254723499628 - CLINTON JOSEPH MUHARI Acc. hfh,Completed,1000,,10300,TRUE,Pay Utility,254723499628 - CLINTON JOSEPH MUHARI,,hfh
RH291OGLWP,02/08/2023 09:52,02/08/2023 09:52,Pay Bill Online from 254742023558 - PEACEMARY NJERI MAINA Acc. jbc,Completed,400,,9300,TRUE,Pay Bill Online,254742023558 - PEACEMARY NJERI MAINA,,jbc
RH20178CTI,02/08/2023 01:42,02/08/2023 01:42,Pay Bill from 254718200582 - GERARD TIROP Acc. DGC,Completed,500,,8900,TRUE,Pay Utility,254718200582 - GERARD TIROP,,DGC
RH1512OZ17,01/08/2023 22:27,01/08/2023 22:27,Pay Bill from 254729450678 - GRACE NDUNGE Acc. fba,Completed,400,,8400,TRUE,Pay Utility,254729450678 - GRACE NDUNGE,,fba
RH1412NRQA,01/08/2023 22:27,01/08/2023 22:27,Pay Bill from 0717042461 - Sharon Nyangasi Shivachi Acc. V55,Completed,400,,8000,TRUE,Pay Utility,0717042461 - Sharon Nyangasi Shivachi,,V55
RH12ZL64UQ,01/08/2023 19:47,01/08/2023 19:47,Pay Bill Online from 254710146965 - BRENDA DORCAS MABONGA Acc. hfg,Completed,1400,,7600,TRUE,Pay Bill Online,254710146965 - BRENDA DORCAS MABONGA,,hfg
RH13ZH0N7V,01/08/2023 19:22,01/08/2023 19:22,Pay Bill Online from 254717809935 - LYDIAH WERU Acc. ffb,Completed,400,,6200,TRUE,Pay Bill Online,254717809935 - LYDIAH WERU,,ffb
RH11ZDG3VD,01/08/2023 19:01,01/08/2023 19:01,Pay Bill Online from 254726292792 - PHILIP MIANO Acc. JEI,Completed,2400,,5800,TRUE,Pay Bill Online,254726292792 - PHILIP MIANO,,JEI
RH19Z5W8U9,01/08/2023 18:12,01/08/2023 18:12,FSI to Pay Bill by 3033815 - NCBA LOOP B2C Acc. V40 via WEB by NCBA LOOP B2C\TRINITYAPI,Completed,600,,3400,TRUE,FSI to Pay Bill via API,3033815 - NCBA LOOP B2C,,V40
RH17YNIWW3,01/08/2023 15:37,01/08/2023 15:37,Pay Bill Online from 254706898046 - STACY AKETCH OCHUKA Acc. KGK,Completed,600,,2800,TRUE,Pay Bill Online,254706898046 - STACY AKETCH OCHUKA,,KGK
RH17YLUBK1,01/08/2023 15:20,01/08/2023 15:20,Pay Bill Online from 254715020357 - ELIZABETH NJERI WARARI Acc. C2,Completed,200,,2200,TRUE,Pay Bill Online,254715020357 - ELIZABETH NJERI WARARI,,C2
RH17Y9FRON,01/08/2023 13:18,01/08/2023 13:18,Pay Bill from 0706563358 - HARRIET NYANCHAMA NYABERI Acc. HBA,Completed,400,,2000,TRUE,Pay Utility,0706563358 - HARRIET NYANCHAMA NYABERI,,HBA
RH18Y4GN9M,01/08/2023 12:28,01/08/2023 12:28,Pay Bill Online from 254741433913 - DUNCAN OMONDI OKETCH Acc. FAE,Completed,600,,1600,TRUE,Pay Bill Online,254741433913 - DUNCAN OMONDI OKETCH,,FAE
RH16XRR5HM,01/08/2023 10:17,01/08/2023 10:17,Pay Bill Online from 254742911013 - HANEST AMIMO Acc. IER,Completed,400,,1000,TRUE,Pay Bill Online,254742911013 - HANEST AMIMO,,IER
RH11XO9ZF5,01/08/2023 09:39,01/08/2023 09:39,Pay Bill Online from 254795510441 - LEWIS MUEMA Acc. KEB,Completed,600,,600,TRUE,Pay Bill Online,254795510441 - LEWIS MUEMA,,KEB
RH15XL7VIF,01/08/2023 09:05,01/08/2023 09:05,Utility Account to Organization Settlement Account,Completed,,-12200,0,TRUE,Utility Account to Organization Settlement Account,846783 - ANCIENT WELLS LTD 4,,
RH10XJ8D1Q,01/08/2023 08:41,01/08/2023 08:41,Pay Bill from 0748045445 - Hellen tsikhabi naphtal Acc. V11,Completed,600,,12200,TRUE,Pay Utility,0748045445 - Hellen tsikhabi naphtal,,V11
RH18XIWKH8,01/08/2023 08:38,01/08/2023 08:38,Pay Bill from 254741968254 - VERONICA MUMBUA MULINGE Acc. V43,Completed,400,,11600,TRUE,Pay Utility,254741968254 - VERONICA MUMBUA MULINGE,,V43
