Receipt No.,Completion Time,Initiation Time,Details,Transaction Status,Paid In,Withdrawn,Balance,Balance Confirmed,Reason Type,Other Party Info,Linked Transaction ID,A/C No.
OBF03H2ZO4,15/02/2020 08:20,15/02/2020 08:20,Pay Bill from 254729569271 - MESHACK OBOTTA OBOTTA OBARE Acc. V12,Completed,6600,,59200,TRUE,Pay Utility,254729569271 - MESHACK OBOTTA OBOTTA OBARE,,V12
OBF63EJPNW,15/02/2020 00:06,15/02/2020 00:06,Pay Bill from 254719808077 - ANTHONY KARIUKI Acc. V41 ANTHONY KARIUKI ,Completed,6600,,52600,TRUE,Pay Utility,254719808077 - ANTHONY KARIUKI,,V41
OBE039UQ3O,14/02/2020 20:22,14/02/2020 20:22,Pay Bill Online from 254720360607 - MARITIM CHEBET Acc. V25,Completed,6600,,46000,TRUE,Pay Bill Online,254720360607 - MARITIM CHEBET,,V25
OBE738Y0GV,14/02/2020 20:01,14/02/2020 20:01,Pay Bill from 254716792941 - MICAL IMBUKWA Acc. MicalV13,Completed,2000,,39400,TRUE,Pay Utility,254716792941 - MICAL IMBUKWA,,MicalV13
OBE22PFPPA,14/02/2020 10:26,14/02/2020 10:26,Pay Bill from 254797665088 - INNOCENT WANAMI Acc. V2,Completed,6600,,37400,TRUE,Pay Utility,254797665088 - INNOCENT WANAMI,,V2
OBD82J4GO8,13/02/2020 22:35,13/02/2020 22:35,Pay Bill from 0758765813 - Filda Anyango Otieno Acc. v34,Completed,3400,,30800,TRUE,Pay Utility,0758765813 - Filda Anyango Otieno,,v34
OBD92A5NKT,13/02/2020 18:19,13/02/2020 18:19,Pay Bill from 254704783091 - CLINTON MUSEBE KASUTI Acc. V48,Completed,6600,,27400,TRUE,Pay Utility,254704783091 - CLINTON MUSEBE KASUTI,,V48
OBD425OYT0,13/02/2020 16:04,13/02/2020 16:04,Pay Bill from 254704480791 - LYDIA OMENO Acc. Samson v33,Completed,7000,,20800,TRUE,Pay Utility with OD via STK,254704480791 - LYDIA OMENO,,Samson
