Receipt No.,Completion Time,Initiation Time,Details,Transaction Status,Paid In,Withdrawn,Balance,Balance Confirmed,Reason Type,Other Party Info,Linked Transaction ID,A/C No.
RDC71ILXTZ,12/4/2023 20:35,12/4/2023 20:35,Pay Bill from 254727457630 - martha osare awinja Acc. V31,Completed,5000,,292300,TRUE,Pay Utility with OD via STK,254727457630 - martha osare awinja,,V31
RDB9XM1CGZ,11/4/2023 19:39,11/4/2023 19:39,Pay Bill from 254729358258 - Cliff Ombasa Acc. V05,Completed,7000,,287300,TRUE,Pay Utility,254729358258 - Cliff Ombasa,,V05
RDB6XLMURS,11/4/2023 19:37,11/4/2023 19:37,Pay Bill from 0769858701 - DOLLARS DANIEL CIRHUZA Acc. V09,Completed,7000,,280300,TRUE,Pay Utility,0769858701 - DOLLARS DANIEL CIRHUZA,,V09
RDB4W7F8C0,11/4/2023 11:55,11/4/2023 11:55,Pay Bill from 254706920646 - MIRIAM CHEPTOO Acc. V08,Completed,6800,,273300,TRUE,Pay Utility with OD via STK,254706920646 - MIRIAM CHEPTOO,,V08
RDA3TSPEON,10/4/2023 13:32,10/4/2023 13:32,Pay Bill from 254701174081 - JOSEPHINE ODUOR Acc. v34,Completed,4500,,266500,TRUE,Pay Utility,254701174081 - JOSEPHINE ODUOR,,v34
RD99R3E5KZ,9/4/2023 12:13,9/4/2023 12:13,Pay Bill from 0795807227 - Lucy Ncekei Kimathi Acc. V36 ,Completed,6600,,262000,TRUE,Pay Utility,0795807227 - Lucy Ncekei Kimathi,,V36
RD94QG08AE,9/4/2023 4:41,9/4/2023 4:41,Pay Bill from 254701261592 - VICTOR MWILU Acc. v37,Completed,3500,,255400,TRUE,Pay Utility with OD via STK,254701261592 - VICTOR MWILU,,v37
RD89PWSF5T,8/4/2023 20:01,8/4/2023 20:01,Pay Bill from 254729806880 - Eunice Akinyi Were Acc. V33,Completed,7000,,251900,TRUE,Pay Utility,254729806880 - Eunice Akinyi Were,,V33
RD85PLZHT3,8/4/2023 18:47,8/4/2023 18:47,Pay Bill from 0111512152 - Pasckaline Wangari Irungu Acc. V59,Completed,7000,,244900,TRUE,Pay Utility,0111512152 - Pasckaline Wangari Irungu,,V59
RD84PEP8UC,8/4/2023 17:48,8/4/2023 17:48,Pay Bill from 254707690557 - GRACE KARWITHA SAFARI Acc. v60,Completed,12600,,237900,TRUE,Pay Utility,254707690557 - GRACE KARWITHA SAFARI,,v60
RD86PAO0JS,8/4/2023 17:12,8/4/2023 17:12,Pay Bill from 254707690557 - GRACE KARWITHA SAFARI Acc. v60,Completed,1400,,225300,TRUE,Pay Utility,254707690557 - GRACE KARWITHA SAFARI,,v60
RD81OJ6W9B,8/4/2023 12:42,8/4/2023 12:42,Pay Bill from 254724525238 - Immacurate Kemunto Ombasa Acc. V45,Completed,1750,,223900,TRUE,Pay Utility,254724525238 - Immacurate Kemunto Ombasa,,V45
RD71N5VFQB,7/4/2023 20:10,7/4/2023 20:10,Pay Bill from 0700408952 - FAITH NDUNGE WILLIAM Acc. v10,Completed,7000,,222150,TRUE,Pay Utility,0700408952 - FAITH NDUNGE WILLIAM,,v10
RD72N5ECLM,7/4/2023 20:07,7/4/2023 20:07,Pay Bill from 254724882610 - ALINOOR IBRAHIM Acc. v53,Completed,7000,,215150,TRUE,Pay Utility,254724882610 - ALINOOR IBRAHIM,,v53
RD73LSEDGV,7/4/2023 13:00,7/4/2023 13:00,Pay Bill from 254706613908 - joseph mbugua karumbi Acc. V45,Completed,1750,,208150,TRUE,Pay Utility with OD via STK,254706613908 - joseph mbugua karumbi,,V45
RD70LSBL4K,7/4/2023 12:59,7/4/2023 12:59,Pay Bill from 254724525238 - Immacurate Kemunto Ombasa Acc. V45,Completed,7000,,206400,TRUE,Pay Utility,254724525238 - Immacurate Kemunto Ombasa,,V45
RD60JDRCHW,6/4/2023 15:50,6/4/2023 15:50,Pay Bill Online from 254740912300 - ADELIDE IMINZA CHAGUSIA Acc. v27,Completed,7000,,199400,TRUE,Pay Bill Online,254740912300 - ADELIDE IMINZA CHAGUSIA,,v27
RD54HUD82O,5/4/2023 22:47,5/4/2023 22:47,Pay Bill from 254722578070 - SAMUEL MACHARIA Acc. V42,Completed,7000,,192400,TRUE,Pay Utility,254722578070 - SAMUEL MACHARIA,,V42
RD54HOVZTI,5/4/2023 21:25,5/4/2023 21:25,Pay Bill from 0714747222 - WILSON KIMANI MWANGI Acc. v25,Completed,7000,,185400,TRUE,Pay Utility with OD via STK,0714747222 - WILSON KIMANI MWANGI,,v25
RD52HJ47KA,5/4/2023 20:34,5/4/2023 20:34,Pay Bill from 254720466443 - FATUMA MOHAMED ABDALLAH Acc. V21,Completed,7000,,178400,TRUE,Pay Utility,254720466443 - FATUMA MOHAMED ABDALLAH,,V21
RD52H1P4QO,5/4/2023 18:41,5/4/2023 18:41,Pay Bill from 254746643113 - camilla namisoo wekola Acc. V17,Completed,7500,,171400,TRUE,Pay Utility with OD via STK,254746643113 - camilla namisoo wekola,,V17
RD50GQ05KS,5/4/2023 17:11,5/4/2023 17:11,Pay Bill from 254723815832 - SEMEKIA ONDIALA Acc. V38,Completed,6600,,163900,TRUE,Pay Utility,254723815832 - SEMEKIA ONDIALA,,V38
RD50GJBXUQ,5/4/2023 16:09,5/4/2023 16:09,Pay Bill from 254723337732 - CHRISTINE AKINYI OCHELE Acc. V14,Completed,7000,,157300,TRUE,Pay Utility,254723337732 - CHRISTINE AKINYI OCHELE,,V14
RD54G5VQYC,5/4/2023 13:51,5/4/2023 13:51,Pay Bill from 0795650610 - Janet Kavata Muandiko Acc. vk4,Completed,3500,,150300,TRUE,Pay Utility,0795650610 - Janet Kavata Muandiko,,vk4
RD52G2BB02,5/4/2023 13:15,5/4/2023 13:15,Pay Bill from 254701086112 - CAROLYNE KOKI MULWA Acc. V30,Completed,6600,,146800,TRUE,Pay Utility,254701086112 - CAROLYNE KOKI MULWA,,V30
RD53FCPT4N,5/4/2023 8:34,5/4/2023 8:34,Pay Bill from 0115365438 - zibborah nzilani maundu Acc. v48,Completed,7000,,140200,TRUE,Pay Utility,0115365438 - zibborah nzilani maundu,,v48
RD47EUEQVH,4/4/2023 21:36,4/4/2023 21:36,Pay Bill Online from 254704995854 - james karanja wairimu Acc. V54,Completed,6600,,133200,TRUE,Pay Bill Online,254704995854 - james karanja wairimu,,V54
RD41DAF93V,4/4/2023 13:43,4/4/2023 13:43,Pay Bill Online from 254799654490 - DANIEL MUTIO MAUNDU Acc. V28,Completed,10000,,126600,TRUE,Pay Bill Online,254799654490 - DANIEL MUTIO MAUNDU,,V28
RD44D94OQS,4/4/2023 13:30,4/4/2023 13:30,Pay Bill from 254706731390 - ELIZABETH Otieno Acc. V06,Completed,7000,,116600,TRUE,Pay Utility,254706731390 - ELIZABETH Otieno,,V06
RD36BYHCRA,3/4/2023 21:02,3/4/2023 21:02,Pay Bill from 0717042461 - Sharon Nyangasi Shivachi Acc. V55,Completed,6600,,109600,TRUE,Pay Utility,0717042461 - Sharon Nyangasi Shivachi,,V55
RD35BH931T,3/4/2023 18:55,3/4/2023 18:55,Pay Bill from 254703232096 - KEVIN MAINA Acc. V51,Completed,7000,,103000,TRUE,Pay Utility,254703232096 - KEVIN MAINA,,V51
RD37AG2V1R,3/4/2023 13:11,3/4/2023 13:11,Pay Bill Online from 254715939283 - alex nyamai Acc. v07,Completed,6600,,96000,TRUE,Pay Bill Online,254715939283 - alex nyamai,,v07
RD249F0GNG,2/4/2023 22:58,2/4/2023 22:58,Pay Bill from 254720002225 - DAVID NDENGWA Acc. V29,Completed,7000,,89400,TRUE,Pay Utility,254720002225 - DAVID NDENGWA,,V29
RD258ZAZCZ,2/4/2023 19:54,2/4/2023 19:54,Pay Bill Online from 254726465584 - JULIANA MUKELI MUTUNGA Acc. v4,Completed,6600,,82400,TRUE,Pay Bill Online,254726465584 - JULIANA MUKELI MUTUNGA,,v4
RD248RBLKC,2/4/2023 18:56,2/4/2023 18:56,Pay Bill from 0746542458 - Hannah   Naliaka Acc. V23,Completed,6600,,75800,TRUE,Pay Utility,0746542458 - Hannah   Naliaka,,V23
RD2186FBCT,2/4/2023 15:47,2/4/2023 15:47,Pay Bill from 254712091662 - BENARD OMONDI ROBY Acc. V16,Completed,6600,,69200,TRUE,Pay Utility,254712091662 - BENARD OMONDI ROBY,,V16
RD2484SN9M,2/4/2023 15:31,2/4/2023 15:31,Pay Bill from 254741968254 - VERONICA MUMBUA MULINGE Acc. V43,Completed,7000,,62600,TRUE,Pay Utility,254741968254 - VERONICA MUMBUA MULINGE,,V43
RD248362AU,2/4/2023 15:14,2/4/2023 15:14,Pay Bill from 254790128716 - HELLEN NAPHTAL Acc. V11,Completed,7000,,55600,TRUE,Pay Utility,254790128716 - HELLEN NAPHTAL,,V11
RD115A9O0D,1/4/2023 14:49,1/4/2023 14:49,Pay Bill from 0707077137 - samuel maundu mwanzia Acc. v57,Completed,14000,,48600,TRUE,Pay Utility,0707077137 - samuel maundu mwanzia,,v57
RD134ONJRL,1/4/2023 11:16,1/4/2023 11:16,Pay Bill Online from 0759605060 - ELVIS MUSA MORARA Acc. V47,Completed,7000,,34600,TRUE,Pay Bill Online,0759605060 - ELVIS MUSA MORARA,,V47
RD1448ZFQ6,1/4/2023 8:28,1/4/2023 8:28,Pay Bill from 254726702082 - STEPHEN NJUGUNA Acc. V02,Completed,7000,,27600,TRUE,Pay Utility,254726702082 - STEPHEN NJUGUNA,,V02
