Receipt No.,Completion Time,Initiation Time,Details,Transaction Status,Paid In,Withdrawn,Balance,Balance Confirmed,Reason Type,Other Party Info,Linked Transaction ID,A/C No.
QCT9GYXHXL,29/03/2022 15:37,29/03/2022 15:37,Utility Account to Organization Settlement Account,Completed,,-146100,0,TRUE,Utility Account to Organization Settlement Account,979524 - ANCIENT WELLS PROPERTY MANAGERS 2,,
QCT8GV57H2,29/03/2022 14:42,29/03/2022 14:42,Pay Bill from 254726753273 - JESSE K MURIRMI NJERU Acc. HCH,Completed,17000,,146100,TRUE,Pay Utility,254726753273 - JESSE K MURIRMI NJERU,,HCH
QCT2GN2TSE,29/03/2022 12:44,29/03/2022 12:44,Pay Bill from 254706898046 - STACY AKETCH OCHUKA Acc. KGK,Completed,5000,,129100,TRUE,Pay Utility,254706898046 - STACY AKETCH OCHUKA,,KGK
QCT4GJBSCS,29/03/2022 11:47,29/03/2022 11:47,Pay Bill Online from 254725381062 - VICTOR MAITHYA Acc. HEG,Completed,3500,,124100,TRUE,Pay Utility with OD Online,254725381062 - VICTOR MAITHYA,,HEG
QCT1GB9WCL,29/03/2022 09:36,29/03/2022 09:36,Pay Bill from 254702061696 - STACY OCHIENG Acc. IGD,Completed,10000,,120600,TRUE,Pay Utility,254702061696 - STACY OCHIENG,,IGD
QCT2G1Y7Y0,29/03/2022 01:38,29/03/2022 01:38,Pay Bill Online from 0758001057 - sahara mohamed edow Acc. IGF,Completed,10000,,110600,TRUE,Pay Bill Online,0758001057 - sahara mohamed edow,,IGF
QCT0G1K472,29/03/2022 00:21,29/03/2022 00:21,Pay Bill from 254721671129 - CHRISPINUS ODHIAMBO Acc. DFD,Completed,20000,,100600,TRUE,Pay Utility,254721671129 - CHRISPINUS ODHIAMBO,,DFD
QCS8G0M9OW,28/03/2022 23:07,28/03/2022 23:07,Pay Bill from 0721130307 - HILLARY NGUNYI MUTINDA Acc. JCH,Completed,16000,,80600,TRUE,Pay Utility,0721130307 - HILLARY NGUNYI MUTINDA,,JCH
QCS6FMACGQ,28/03/2022 19:23,28/03/2022 19:23,Pay Bill from 254720814822 - JAMES OTIENO OPAR Acc. Jgj,Completed,3000,,64600,TRUE,Pay Utility with OD via STK,254720814822 - JAMES OTIENO OPAR,,Jgj
QCS1EWSROL,28/03/2022 14:14,28/03/2022 14:14,Pay Bill from 254705902606 - JOSEPH OTIENO SAGWA Acc. fed,Completed,12000,,61600,TRUE,Pay Utility,254705902606 - JOSEPH OTIENO SAGWA,,fed
QCS0EVWDZA,28/03/2022 14:02,28/03/2022 14:02,Pay Bill from 254704140048 - MAUREEN GACHERI KINYUA Acc. JDD,Completed,15000,,49600,TRUE,Pay Utility,254704140048 - MAUREEN GACHERI KINYUA,,JDD
QCS6EQX300,28/03/2022 12:52,28/03/2022 12:52,Pay Bill from 254710110273 - AGNES NTOITI Acc. jbb,Completed,6600,,34600,TRUE,Pay Utility with OD via STK,254710110273 - AGNES NTOITI,,jbb
QCS8EQTQ9E,28/03/2022 12:51,28/03/2022 12:51,Pay Bill from 0748059595 - Rashid NASSIR Khamis Acc. DDA,Completed,10000,,28000,TRUE,Pay Utility,0748059595 - Rashid NASSIR Khamis,,DDA
QCS7ELX7QB,28/03/2022 11:35,28/03/2022 11:35,Pay Bill from 254724450782 - DENNIS MUSAU Acc. JCB,Completed,15000,,18000,TRUE,Pay Utility,254724450782 - DENNIS MUSAU,,JCB
QCS1EIB9SV,28/03/2022 10:39,28/03/2022 10:39,Pay Bill from 0757259130 - RASHID SUDI MCHOMBO Acc. JAF,Completed,3000,,3000,TRUE,Pay Utility,0757259130 - RASHID SUDI MCHOMBO,,JAF
QCS3EHZ4R1,28/03/2022 10:33,28/03/2022 10:33,Utility Account to Organization Settlement Account,Completed,,-220400,0,TRUE,Utility Account to Organization Settlement Account,979524 - ANCIENT WELLS PROPERTY MANAGERS 2,,
QCS6EE9F0O,28/03/2022 09:32,28/03/2022 09:32,Pay Bill from 0715688238 - JOANNAH ATUHAIRE BANTU Acc. jae,Completed,5000,,220400,TRUE,Pay Utility,0715688238 - JOANNAH ATUHAIRE BANTU,,jae
QCS7EDB4MN,28/03/2022 09:15,28/03/2022 09:15,Pay Bill from 0111788761 - MARIA ZACHARIA JOHN Acc. Faf,Completed,33000,,215400,TRUE,Pay Utility,0111788761 - MARIA ZACHARIA JOHN,,Faf
QCS6E5FCPU,28/03/2022 02:24,28/03/2022 02:24,Pay Bill Online from 0711117122 - Yassir Mwinyi Abdulrazaq Acc. ICE,Completed,2000,,182400,TRUE,Pay Bill Online,0711117122 - Yassir Mwinyi Abdulrazaq,,ICE
QCR5E4BU15,27/03/2022 23:37,27/03/2022 23:37,Pay Bill from 254721417560 - ANDREW SANDE Acc. JBJ,Completed,16000,,180400,TRUE,Pay Utility,254721417560 - ANDREW SANDE,,JBJ
QCR0E34HAW,27/03/2022 22:37,27/03/2022 22:37,Pay Bill from 254703935626 - DAVID NGARI ITA Acc. FCD,Completed,1000,,164400,TRUE,Pay Utility with OD via STK,254703935626 - DAVID NGARI ITA,,FCD
QCR3DFIWZZ,27/03/2022 17:05,27/03/2022 17:05,Pay Bill from 254799946039 - LUIS OTIENO Acc. iae,Completed,8000,,163400,TRUE,Pay Utility,254799946039 - LUIS OTIENO,,iae
QCR4D9YKSA,27/03/2022 15:39,27/03/2022 15:39,Pay Bill from 254721974995 - BERNICE MANGOKA Acc. KFK(1BR),Completed,16000,,155400,TRUE,Pay Utility with OD via STK,254721974995 - BERNICE MANGOKA,,KFK(1BR)
QCR8D2DNHA,27/03/2022 13:37,27/03/2022 13:37,Pay Bill Online from 254714710698 - TABITHA MULEE KYALO Acc. IFD,Completed,11500,,139400,TRUE,Pay Bill Online,254714710698 - TABITHA MULEE KYALO,,IFD
QCR6D2CUN6,27/03/2022 13:36,27/03/2022 13:36,Pay Bill from 254700198550 - BENARD ONYANGO Acc. DBB,Completed,16000,,127900,TRUE,Pay Utility,254700198550 - BENARD ONYANGO,,DBB
QCR4CHNZS4,27/03/2022 02:23,27/03/2022 02:23,Pay Bill Online from 254720451253 - JIMMY KIOGORA NKIROTE Acc. kbd,Completed,1000,,111900,TRUE,Pay Bill Online,254720451253 - JIMMY KIOGORA NKIROTE,,kbd
QCQ9CGF6G9,26/03/2022 23:53,26/03/2022 23:53,Pay Bill from 254703935626 - DAVID NGARI ITA Acc. FCD,Completed,1000,,110900,TRUE,Pay Utility,254703935626 - DAVID NGARI ITA,,FCD
QCQ6C6GC5A,26/03/2022 20:20,26/03/2022 20:20,Pay Bill Online from 254710965167 - KUSA STEPHANIE HAZEL Acc. JDC,Completed,11000,,109900,TRUE,Pay Bill Online,254710965167 - KUSA STEPHANIE HAZEL,,JDC
QCQ8B3Y1M2,26/03/2022 12:13,26/03/2022 12:13,Pay Bill from 254720496449 - STANLEY KIPKOECH RONO Acc. FBE,Completed,10000,,98900,TRUE,Pay Utility,254720496449 - STANLEY KIPKOECH RONO,,FBE
QCQ7B389ID,26/03/2022 12:02,26/03/2022 12:02,Pay Bill Online from 0711117122 - Yassir Mwinyi Abdulrazaq Acc. ICE,Completed,9000,,88900,TRUE,Pay Bill Online,0711117122 - Yassir Mwinyi Abdulrazaq,,ICE
QCQ3AZVBR9,26/03/2022 11:10,26/03/2022 11:10,Pay Bill from 254723954911 - JAMES KILAVI Acc. ICG,Completed,9500,,79900,TRUE,Pay Utility,254723954911 - JAMES KILAVI,,ICG
