Receipt No.,Completion Time,Initiation Time,Details,Transaction Status,Paid In,Withdrawn,Balance,Balance Confirmed,Reason Type,Other Party Info,Linked Transaction ID,A/C No.
OKB4E2PMYC,11/11/2020 08:13,11/11/2020 08:13,Pay Bill from 254721918811 - AHMED ABDI Acc. kaj,Completed,16000,,36000,TRUE,Pay Utility,254721918811 - AHMED ABDI,,kaj
OKB5E0N5Z3,11/11/2020 06:50,11/11/2020 06:50,Pay Bill from 254701006375 - EZRA MAKORI SERETI Acc. HTE,Completed,10000,,20000,TRUE,Pay Utility,254701006375 - EZRA MAKORI SERETI,,HTE
OKB6E0M9II,11/11/2020 06:49,11/11/2020 06:49,Pay Bill from 254701047939 - Cyrus Wahome Acc. KBG,Completed,10000,,10000,TRUE,Pay Utility,254701047939 - Cyrus Wahome,,KBG
OKB1E0HC71,11/11/2020 06:40,11/11/2020 06:40,Utility Account to Organization Settlement Account,Completed,,-66000,0,TRUE,Utility Account to Organization Settlement Account,979524 - ANCIENT WELLS PROPERTY MANAGERS 2,,
OKA3DP6XG5,10/11/2020 19:07,10/11/2020 19:07,Pay Bill from 0746447780 - MERCY KARISA MUTSEMBI Acc. KCG,Completed,10000,,66000,TRUE,Pay Utility,0746447780 - MERCY KARISA MUTSEMBI,,KCG
OKA3DO3XZZ,10/11/2020 18:52,10/11/2020 18:52,Pay Bill from 254728313347 - GEORGE KIMAIGA NYAMORI Acc. ici,Completed,16000,,56000,TRUE,Pay Utility,254728313347 - GEORGE KIMAIGA NYAMORI,,ici
OKA8DH7HAE,10/11/2020 16:53,10/11/2020 16:53,Pay Bill from 254729450678 - GRACE NDUNGE Acc. FBA,Completed,15000,,40000,TRUE,Pay Utility,254729450678 - GRACE NDUNGE,,FBA
OKA9DH0B8Z,10/11/2020 16:49,10/11/2020 16:49,Pay Bill from 254700052170 - EMMANUEL MUTYETU Acc. KBF,Completed,10000,,25000,TRUE,Pay Utility,254700052170 - EMMANUEL MUTYETU,,KBF
OKA2DGMW1I,10/11/2020 16:42,10/11/2020 16:42,Pay Bill Online from 254727554512 - COLLINS KOECH Acc. JDJ,Completed,15000,,15000,TRUE,Pay Bill Online,254727554512 - COLLINS KOECH,,JDJ
OKA4DFW6TO,10/11/2020 16:26,10/11/2020 16:26,Utility Account to Organization Settlement Account,Completed,,-41000,0,TRUE,Utility Account to Organization Settlement Account,979524 - ANCIENT WELLS PROPERTY MANAGERS 2,,
OKA2DBTX2E,10/11/2020 14:54,10/11/2020 14:54,Pay Bill from 0702322105 - hurry ibarasi madede Acc. HDG,Completed,15000,,41000,TRUE,Pay Utility,0702322105 - hurry ibarasi madede,,HDG
OKA7D74X91,10/11/2020 13:04,10/11/2020 13:04,Pay Bill from 254710537468 - DONALDO AMIOL JUAC AKEC Acc. jdg,Completed,2000,,26000,TRUE,Pay Utility,254710537468 - DONALDO AMIOL JUAC AKEC,,jdg
OKA4D5W5FO,10/11/2020 12:34,10/11/2020 12:34,Pay Bill from 254729258441 - ROBERT RONO KULEI Acc. JAB,Completed,15000,,24000,TRUE,Pay Utility,254729258441 - ROBERT RONO KULEI,,JAB
OKA4D28BPU,10/11/2020 11:07,10/11/2020 11:07,Pay Bill from 0758591833 - DORCUS MBULA PETER Acc. HDD,Completed,9000,,9000,TRUE,Pay Utility,0758591833 - DORCUS MBULA PETER,,HDD
OKA2D05J00,10/11/2020 10:17,10/11/2020 10:17,Utility Account to Organization Settlement Account,Completed,,-153700,0,TRUE,Utility Account to Organization Settlement Account,979524 - ANCIENT WELLS PROPERTY MANAGERS 2,,
OKA1CVNXN9,10/11/2020 08:21,10/11/2020 08:21,Pay Bill from 254715597659 - JOYCE KIVAI Acc. IED,Completed,11000,,153700,TRUE,Pay Utility,254715597659 - JOYCE KIVAI,,IED
OK91CPUQQH,09/11/2020 21:47,09/11/2020 21:47,Pay Bill from 254720361605 - DAUD AMBER Acc. IGH,Completed,500,,142700,TRUE,Pay Utility,254720361605 - DAUD AMBER,,IGH
OK94COVFW0,09/11/2020 21:16,09/11/2020 21:16,Pay Bill from 254727648419 - ABDISALAN AHMED Acc. Jbh,Completed,17000,,142200,TRUE,Pay Utility,254727648419 - ABDISALAN AHMED,,Jbh
OK94COSF9Q,09/11/2020 21:13,09/11/2020 21:13,Pay Bill from 254729892526 - PHARIS MICHUKI Acc. JA1,Completed,20000,,125200,TRUE,Pay Utility,254729892526 - PHARIS MICHUKI,,JA1
OK94CLPPII,09/11/2020 20:07,09/11/2020 20:07,Pay Bill Online from 254726877391 - EVERLYNE ATIENO Acc. JGI,Completed,20000,,105200,TRUE,Pay Bill Online,254726877391 - EVERLYNE ATIENO,,JGI
OK93CKDSUP,09/11/2020 19:44,09/11/2020 19:44,Pay Bill from 0722279788 - HARRISON WACIRA MAINA Acc. HAH,Completed,24000,,85200,TRUE,Pay Utility,0722279788 - HARRISON WACIRA MAINA,,HAH
OK94CIZGNU,09/11/2020 19:23,09/11/2020 19:23,Pay Bill from 254719626804 - PAUL NJOROGE Acc. JFI,Completed,20000,,61200,TRUE,Pay Utility,254719626804 - PAUL NJOROGE,,JFI
OK91CGSMXP,09/11/2020 18:52,09/11/2020 18:52,Pay Bill from 254701688732 - Brenda Mwongeli Mawili Acc. jag,Completed,10200,,41200,TRUE,Pay Utility,254701688732 - Brenda Mwongeli Mawili,,jag
OK93CGGV8F,09/11/2020 18:48,09/11/2020 18:48,Pay Bill from 254725255978 - DICKSON OLUOCH Acc. JFF,Completed,10000,,31000,TRUE,Pay Utility,254725255978 - DICKSON OLUOCH,,JFF
OK93CG3WFP,09/11/2020 18:43,09/11/2020 18:43,Pay Bill from 254708442077 - JOHN MUIRURI Acc. Fac,Completed,3000,,21000,TRUE,Pay Utility,254708442077 - JOHN MUIRURI,,Fac
OK97CENSCD,09/11/2020 18:21,09/11/2020 18:21,Pay Bill from 254702190887 - Nax Ochieng Acc. fde,Completed,16000,,18000,TRUE,Pay Utility,254702190887 - Nax Ochieng,,fde
OK95CCQKQT,09/11/2020 17:50,09/11/2020 17:50,Pay Bill from 254725909984 - TIMOTHY ODHIAMBO OWITI Acc. JDE,Completed,2000,,2000,TRUE,Pay Utility with OD via STK,254725909984 - TIMOTHY ODHIAMBO OWITI,,JDE
OK98C43UA4,09/11/2020 15:02,09/11/2020 14:50,Business Transfer from Utility Account to MMF Account via WEB by M-PESA - gwainaina,Completed,,-48500,0,TRUE,Business Transfer from Utility Account to MMF Account via WEB,979524 - ANCIENT WELLS PROPERTY MANAGERS 2,,
OK95C0L3ZT,09/11/2020 13:28,09/11/2020 13:28,Pay Bill from 254717554562 - OMONDI JACK Acc. KCI,Completed,12500,,48500,TRUE,Pay Utility,254717554562 - OMONDI JACK,,KCI
OK93C09LV5,09/11/2020 13:20,09/11/2020 13:20,Pay Bill from 254719285750 - LILIAN ACHIENG ODONGO Acc. IGE,Completed,9000,,36000,TRUE,Pay Utility,254719285750 - LILIAN ACHIENG ODONGO,,IGE
OK95BYRJ09,09/11/2020 12:44,09/11/2020 12:44,Pay Bill from 254702190887 - Nax Ochieng Acc. fde,Completed,15000,,27000,TRUE,Pay Utility,254702190887 - Nax Ochieng,,fde
OK99BX23KZ,09/11/2020 12:03,09/11/2020 12:03,Pay Bill from 254724611087 - Francis Mukindya Muoki Acc. kde,Completed,5000,,12000,TRUE,Pay Utility with OD via STK,254724611087 - Francis Mukindya Muoki,,kde
OK97BQNMTB,09/11/2020 09:28,09/11/2020 09:28,Pay Bill from 254710635630 - DONNA JESSICA OWANO Acc. KCC ,Completed,7000,,7000,TRUE,Pay Utility,254710635630 - DONNA JESSICA OWANO,,KCC
OK90BKSOXO,09/11/2020 00:50,09/11/2020 00:50,Utility Account to Organization Settlement Account,Completed,,-317500,0,TRUE,Utility Account to Organization Settlement Account,979524 - ANCIENT WELLS PROPERTY MANAGERS 2,,
OK94BKS320,09/11/2020 00:43,09/11/2020 00:43,Pay Bill Online from 254714578997 - LINCOLN DAN MEMBA Acc. KAC,Completed,1000,,317500,TRUE,Pay Utility with OD Online,254714578997 - LINCOLN DAN MEMBA,,KAC
OK97BKPMKJ,09/11/2020 00:22,09/11/2020 00:22,Pay Bill from 254791154655 - ELISHA JURA Acc. IAH,Completed,18000,,316500,TRUE,Pay Utility,254791154655 - ELISHA JURA,,IAH
OK93BKNSUV,09/11/2020 00:09,09/11/2020 00:09,Pay Bill from 254725909984 - TIMOTHY ODHIAMBO OWITI Acc. JDE,Completed,8000,,298500,TRUE,Pay Utility with OD via STK,254725909984 - TIMOTHY ODHIAMBO OWITI,,JDE
OK84BIRZ44,08/11/2020 21:40,08/11/2020 21:40,Pay Bill from 254722921132 - JOE MCCRAY MURIUKI KIHIA Acc. IFA,Completed,15000,,290500,TRUE,Pay Utility with OD via STK,254722921132 - JOE MCCRAY MURIUKI KIHIA,,IFA
OK80BGP5BC,08/11/2020 20:39,08/11/2020 20:39,Pay Bill from 254726380203 - SHARON OLENDO Acc. HCA,Completed,18000,,275500,TRUE,Pay Utility,254726380203 - SHARON OLENDO,,HCA
OK86BFG4PK,08/11/2020 20:11,08/11/2020 20:11,Pay Bill from 254729948896 - CAROLINE V MILIZA Acc. Fec,Completed,9000,,257500,TRUE,Pay Utility,254729948896 - CAROLINE V MILIZA,,Fec
OK83B7RG5H,08/11/2020 17:57,08/11/2020 17:57,Pay Bill from 254716369842 - HUMMAM HAMID MOHAMED SAID AMBER Acc. FGC,Completed,500,,248500,TRUE,Pay Utility with OD via STK,254716369842 - HUMMAM HAMID MOHAMED SAID AMBER,,FGC
OK85B6NOOR,08/11/2020 17:35,08/11/2020 17:35,Pay Bill from 254722458136 - NADI GOLICHA Acc. KAA,Completed,10000,,248000,TRUE,Pay Utility,254722458136 - NADI GOLICHA,,KAA
OK89B59SAB,08/11/2020 17:08,08/11/2020 17:08,Pay Bill Online from 254720451253 - JIMMY KIOGORA NKIROTE Acc. JBG,Completed,21000,,238000,TRUE,Pay Bill Online,254720451253 - JIMMY KIOGORA NKIROTE,,JBG
OK88AVMV1I,08/11/2020 13:38,08/11/2020 13:38,Pay Bill from 254703624678 - Zacharia Gesora Omwoyo Acc. igd,Completed,1000,,217000,TRUE,Pay Utility,254703624678 - Zacharia Gesora Omwoyo,,igd
OK88AQ8UHM,08/11/2020 11:21,08/11/2020 11:21,Pay Bill from 254721115404 - Justine Fayuma Okwemba Acc. HAA,Completed,17000,,216000,TRUE,Pay Utility with OD via STK,254721115404 - Justine Fayuma Okwemba,,HAA
OK83AKTUQD,08/11/2020 08:57,08/11/2020 08:57,Pay Bill from 254740579741 - MUHINDI MULINYA Acc. HGG,Completed,15000,,199000,TRUE,Pay Utility,254740579741 - MUHINDI MULINYA,,HGG
OK74AFLAQW,07/11/2020 23:28,07/11/2020 23:28,Pay Bill from 254723954911 - JAMES KILAVI Acc. ICG,Completed,9500,,184000,TRUE,Pay Utility,254723954911 - JAMES KILAVI,,ICG
OK73AFKMEH,07/11/2020 23:26,07/11/2020 23:26,Pay Bill from 254729392595 - WINNIE NASICHE KERE Acc. JBF,Completed,8000,,174500,TRUE,Pay Utility,254729392595 - WINNIE NASICHE KERE,,JBF
OK74A84AZM,07/11/2020 19:45,07/11/2020 19:45,Pay Bill from 254714209770 - PURITY NDUKU KYALO Acc. JEB,Completed,15000,,166500,TRUE,Pay Utility,254714209770 - PURITY NDUKU KYALO,,JEB
OK779MI1HF,07/11/2020 13:05,07/11/2020 13:05,Pay Bill from 254728238249 - ESTHER WANGUI KIBUNYI Acc. ICA,Completed,17000,,151500,TRUE,Pay Utility,254728238249 - ESTHER WANGUI KIBUNYI,,ICA
OK799MHT6B,07/11/2020 13:05,07/11/2020 13:05,Pay Bill from 254708225541 - JUDITH NKATHA SIMBA Acc. icf,Completed,11000,,134500,TRUE,Pay Utility,254708225541 - JUDITH NKATHA SIMBA,,icf
OK749MAR2Y,07/11/2020 13:01,07/11/2020 13:01,Pay Bill Online from 254704033042 - LESLIE KOIKAI Acc. IBD ,Completed,11000,,123500,TRUE,Pay Bill Online,254704033042 - LESLIE KOIKAI,,IBD
OK739KQ9PT,07/11/2020 12:26,07/11/2020 12:26,Pay Bill from 254721852723 - HASSAN MOHAMMED Acc. jaa,Completed,30000,,112500,TRUE,Pay Utility,254721852723 - HASSAN MOHAMMED,,jaa
OK729K4ZVI,07/11/2020 12:13,07/11/2020 12:13,Pay Bill from 0757699775 - BENARD MUIA MUTUA Acc. HCB,Completed,16000,,82500,TRUE,Pay Utility,0757699775 - BENARD MUIA MUTUA,,HCB
OK739K4OND,07/11/2020 12:13,07/11/2020 12:13,Pay Bill from 254724435274 - WINFRED MBINYA MUNUVE Acc. DFB,Completed,1000,,66500,TRUE,Pay Utility,254724435274 - WINFRED MBINYA MUNUVE,,DFB
OK729JAYBE,07/11/2020 11:55,07/11/2020 11:55,Pay Bill Online from 254706549634 - CLINTON OMBASA Acc. FDB,Completed,17000,,65500,TRUE,Pay Bill Online,254706549634 - CLINTON OMBASA,,FDB
OK729J1CPQ,07/11/2020 11:49,07/11/2020 11:49,Pay Bill Online from 254714889853 - EUNICE WAIRIMU MWANGI Acc. KGE,Completed,9000,,48500,TRUE,Pay Bill Online,254714889853 - EUNICE WAIRIMU MWANGI,,KGE
OK719HUQBD,07/11/2020 11:22,07/11/2020 11:22,Pay Bill from 254722910078 - MAUREEN MUNYIVA MUTUKU Acc. DBD,Completed,5000,,39500,TRUE,Pay Utility,254722910078 - MAUREEN MUNYIVA MUTUKU,,DBD
OK769GKLZK,07/11/2020 10:54,07/11/2020 10:54,Pay Bill from 254711271263 - BENSON MWADIME JOSEPH Acc. 1EE,Completed,9000,,34500,TRUE,Pay Utility,254711271263 - BENSON MWADIME JOSEPH,,1EE
OK779GFKO3,07/11/2020 10:50,07/11/2020 10:50,Pay Bill Online from 254717809935 - LYDIAH WERU Acc. IDC,Completed,9500,,25500,TRUE,Pay Bill Online,254717809935 - LYDIAH WERU,,IDC
OK769A8RWA,07/11/2020 08:21,07/11/2020 08:21,Pay Bill from 254723499628 - CLINTON JOSEPH MUHARI Acc. hfh,Completed,16000,,16000,TRUE,Pay Utility,254723499628 - CLINTON JOSEPH MUHARI,,hfh
OK7998U2OL,07/11/2020 07:36,07/11/2020 07:36,Utility Account to Organization Settlement Account,Completed,,-759500,0,TRUE,Utility Account to Organization Settlement Account,979524 - ANCIENT WELLS PROPERTY MANAGERS 2,,
OK61959HYR,06/11/2020 22:22,06/11/2020 22:22,Pay Bill from 254724423882 - JOEL GICHURI KARANJA Acc. Fee,Completed,16000,,759500,TRUE,Pay Utility,254724423882 - JOEL GICHURI KARANJA,,Fee
OK6993D4VJ,06/11/2020 21:16,06/11/2020 21:16,Pay Bill from 254729713741 - ALBANUS MUTISO Acc. JBD,Completed,15000,,743500,TRUE,Pay Utility,254729713741 - ALBANUS MUTISO,,JBD
OK6492OA8G,06/11/2020 20:59,06/11/2020 20:59,Pay Bill from 254713966424 - NDUTI MUTHUI Acc. JED,Completed,15000,,728500,TRUE,Pay Utility,254713966424 - NDUTI MUTHUI,,JED
OK6592HHFZ,06/11/2020 20:55,06/11/2020 20:55,Pay Bill from 254713159153 - GUYO SANKALA Acc. DGD,Completed,20000,,713500,TRUE,Pay Utility,254713159153 - GUYO SANKALA,,DGD
OK6490N638,06/11/2020 20:17,06/11/2020 20:17,Pay Bill from 254718233980 - KAREN ASWANI Acc. HEC,Completed,10500,,693500,TRUE,Pay Utility,254718233980 - KAREN ASWANI,,HEC
OK628ZU46O,06/11/2020 20:03,06/11/2020 20:03,Pay Bill from 254714710698 - TABITHA MULEE KYALO Acc. IFD,Completed,11500,,683000,TRUE,Pay Utility,254714710698 - TABITHA MULEE KYALO,,IFD
OK618ZEB3P,06/11/2020 19:55,06/11/2020 19:55,Pay Bill from 254714138456 - HEZEK ATIANI ATIANI Acc. HEH,Completed,16000,,671500,TRUE,Pay Utility,254714138456 - HEZEK ATIANI ATIANI,,HEH
OK648Z5FC4,06/11/2020 19:51,06/11/2020 19:51,Pay Bill Online from 254724754662 - CHARLES ERUKUDI EKAI Acc. FBE,Completed,16000,,655500,TRUE,Pay Bill Online,254724754662 - CHARLES ERUKUDI EKAI,,FBE
OK618Z4I5B,06/11/2020 19:51,06/11/2020 19:51,Pay Bill Online from 254710382992 - SIMON KAMAU MUIRURI Acc. JCD,Completed,15000,,639500,TRUE,Pay Bill Online,254710382992 - SIMON KAMAU MUIRURI,,JCD
OK688XNM52,06/11/2020 19:28,06/11/2020 19:28,Pay Bill from 254716328009 - IRENE ODHIAMBO Acc. KGG,Completed,9000,,624500,TRUE,Pay Utility,254716328009 - IRENE ODHIAMBO,,KGG
OK608UB3LW,06/11/2020 18:40,06/11/2020 18:40,Pay Bill from 254702764047 - FERDINAND K Acc. KDB,Completed,16000,,615500,TRUE,Pay Utility,254702764047 - FERDINAND K,,KDB
OK608T8GAY,06/11/2020 18:23,06/11/2020 18:23,Pay Bill from 254798674917 - Egbe Okpaga Okpaga Acc. HAD,Completed,9500,,599500,TRUE,Pay Utility,254798674917 - Egbe Okpaga Okpaga,,HAD
OK628T1P5E,06/11/2020 18:21,06/11/2020 18:21,Pay Bill from 254725094113 - BRAXTON LUMWAJI Acc. DDC,Completed,25000,,590000,TRUE,Pay Utility,254725094113 - BRAXTON LUMWAJI,,DDC
OK608RQLZ8,06/11/2020 17:59,06/11/2020 17:59,Pay Bill from 0758029844 - IVY   WITABA Acc. IEI,Completed,16000,,565000,TRUE,Pay Utility,0758029844 - IVY   WITABA,,IEI
OK698K1CSZ,06/11/2020 15:31,06/11/2020 15:31,Pay Bill from 254720583235 - JOHN ODIMA Acc. KGF,Completed,10000,,549000,TRUE,Pay Utility,254720583235 - JOHN ODIMA,,KGF
OK688I1KLU,06/11/2020 14:45,06/11/2020 14:45,Pay Bill from 254724655033 - SUSAN CHIMOTO Acc. KGH,Completed,9500,,539000,TRUE,Pay Utility,254724655033 - SUSAN CHIMOTO,,KGH
OK608HXGZQ,06/11/2020 14:43,06/11/2020 14:43,Pay Bill Online from 254716499837 - ASHA MUSA Acc. jfd,Completed,15000,,529500,TRUE,Pay Bill Online,254716499837 - ASHA MUSA,,jfd
OK688G5YF0,06/11/2020 14:02,06/11/2020 14:02,Pay Bill Online from 254728687482 - KELSEN MWIRIGI MUTIGA Acc. HCE,Completed,10500,,514500,TRUE,Pay Bill Online,254728687482 - KELSEN MWIRIGI MUTIGA,,HCE
OK608F4ARG,06/11/2020 13:39,06/11/2020 13:39,Pay Bill from 254710814215 - JOAN NYAMBURA KAMAU Acc. jci,Completed,20000,,504000,TRUE,Pay Utility,254710814215 - JOAN NYAMBURA KAMAU,,jci
OK688AECKO,06/11/2020 11:48,06/11/2020 11:48,Pay Bill from 254722521028 - CHARLES MONYONCHO Acc. ICB,Completed,17000,,484000,TRUE,Pay Utility,254722521028 - CHARLES MONYONCHO,,ICB
OK6687B2V2,06/11/2020 10:36,06/11/2020 10:36,Pay Bill from 254707315614 - TERESAH WANJIRU KIRAGU Acc. JDI,Completed,24000,,467000,TRUE,Pay Utility,254707315614 - TERESAH WANJIRU KIRAGU,,JDI
OK6186YBS9,06/11/2020 10:28,06/11/2020 10:28,Pay Bill from 254703935626 - DAVID NGARI ITA Acc. FCD,Completed,1000,,443000,TRUE,Pay Utility,254703935626 - DAVID NGARI ITA,,FCD
OK66825RKY,06/11/2020 08:26,06/11/2020 08:26,FSI to Pay Bill by 714888 - B2C LOOP VIA NCBA Acc. JAD via WEB by B2C LOOP VIA NCBA\Cbainitiator,Completed,10000,,442000,TRUE,FSI to Pay Bill via API,714888 - B2C LOOP VIA NCBA,,JAD
OK6780V18T,06/11/2020 07:45,06/11/2020 07:45,Pay Bill Online from 254720044312 - ELIUD KIPKURUI Acc. FCF,Completed,17000,,432000,TRUE,Pay Bill Online,254720044312 - ELIUD KIPKURUI,,FCF
OK647Z5NY0,06/11/2020 06:20,06/11/2020 06:20,Pay Bill from 254724882554 - ALPHONCE WAMBUA NGELI Acc. JDA,Completed,20000,,415000,TRUE,Pay Utility,254724882554 - ALPHONCE WAMBUA NGELI,,JDA
OK697YK5V7,06/11/2020 03:21,06/11/2020 03:21,Pay Bill from 254720868281 - KENNEDY MWELU Acc. KBI,Completed,12500,,395000,TRUE,Pay Utility with OD via STK,254720868281 - KENNEDY MWELU,,KBI
OK547XM1ZG,05/11/2020 22:55,05/11/2020 22:55,Pay Bill from 254714114228 - MWANGO AWINO VIOLET Acc. DCB,Completed,16000,,382500,TRUE,Pay Utility,254714114228 - MWANGO AWINO VIOLET,,DCB
OK577X6ILR,05/11/2020 22:26,05/11/2020 22:26,Pay Bill from 254728364280 - EMMANUEL THUMA OYIER Acc. IDF,Completed,11000,,366500,TRUE,Pay Utility,254728364280 - EMMANUEL THUMA OYIER,,IDF
OK547WS5I4,05/11/2020 22:07,05/11/2020 22:07,Pay Bill from 254708328466 - VENESSA NYARERU Acc. KCD,Completed,12000,,355500,TRUE,Pay Utility with OD via STK,254708328466 - VENESSA NYARERU,,KCD
OK547W4NLM,05/11/2020 21:42,05/11/2020 21:42,Pay Bill from 254708703539 - SUSAN NDUGIRE NDUGIRE Acc. KDA,Completed,17000,,343500,TRUE,Pay Utility,254708703539 - SUSAN NDUGIRE NDUGIRE,,KDA
OK577W4AR7,05/11/2020 21:42,05/11/2020 21:42,Pay Bill from 254722889574 - ALLAN MWANGI Acc. JCG-JOEL MIANO,Completed,10000,,326500,TRUE,Pay Utility,254722889574 - ALLAN MWANGI,,JCG-JOEL
OK537US2XD,05/11/2020 21:03,05/11/2020 21:03,Pay Bill from 254726265855 - SHEM KEVIN OMONDI OTIENO Acc. Kdj,Completed,17000,,316500,TRUE,Pay Utility,254726265855 - SHEM KEVIN OMONDI OTIENO,,Kdj
OK547UD2KW,05/11/2020 20:54,05/11/2020 20:54,Pay Bill from 254719317219 - PHILIP MBOYA Acc. JDH,Completed,16000,,299500,TRUE,Pay Utility with OD via STK,254719317219 - PHILIP MBOYA,,JDH
OK577RLKW5,05/11/2020 20:02,05/11/2020 20:02,Pay Bill from 0757259130 - RASHID SUDI MCHOMBO Acc. JAF,Completed,8000,,283500,TRUE,Pay Utility,0757259130 - RASHID SUDI MCHOMBO,,JAF
OK527RIWIU,05/11/2020 20:01,05/11/2020 20:01,Pay Bill from 254726827817 - ERWIN ADHOK Acc. KBA,Completed,17000,,275500,TRUE,Pay Utility,254726827817 - ERWIN ADHOK,,KBA
OK507OSK8I,05/11/2020 19:21,05/11/2020 19:21,Pay Bill from 254722160762 - DENIS KIBET RONOH Acc. KAG,Completed,10000,,258500,TRUE,Pay Utility,254722160762 - DENIS KIBET RONOH,,KAG
OK547OA3PU,05/11/2020 19:14,05/11/2020 19:14,Pay Bill Online from 254722705077 - ROSALID WAMBUI NJOROGE Acc. FDD,Completed,12000,,248500,TRUE,Pay Bill Online,254722705077 - ROSALID WAMBUI NJOROGE,,FDD
OK537O629Z,05/11/2020 19:13,05/11/2020 19:13,Pay Bill Online from 254715892656 - DENNIS MUSYOKA MUOKI Acc. KFA,Completed,16000,,236500,TRUE,Pay Bill Online,254715892656 - DENNIS MUSYOKA MUOKI,,KFA
OK517LZNH3,05/11/2020 18:44,05/11/2020 18:44,Pay Bill Online from 254758296430 - KIPKIRUI COLLINS Acc. DAB,Completed,16000,,220500,TRUE,Pay Bill Online,254758296430 - KIPKIRUI COLLINS,,DAB
OK537LQAGD,05/11/2020 18:41,05/11/2020 18:41,Pay Bill from 254721465713 - RHODA WAMBUI MWANGI Acc. jfh,Completed,17000,,204500,TRUE,Pay Utility,254721465713 - RHODA WAMBUI MWANGI,,jfh
OK597GRQCL,05/11/2020 17:19,05/11/2020 17:19,Pay Bill from 254722276550 - ISAAC NYAMRER Acc. KGC,Completed,9000,,187500,TRUE,Pay Utility,254722276550 - ISAAC NYAMRER,,KGC
OK577EF3PN,05/11/2020 16:33,05/11/2020 16:33,Pay Bill from 254720107609 - DENNIS OGENDI BARAKE Acc. JAJ ,Completed,15000,,178500,TRUE,Pay Utility with OD via STK,254720107609 - DENNIS OGENDI BARAKE,,JAJ
OK587E93QO,05/11/2020 16:30,05/11/2020 16:30,Pay Bill from 0715688238 - JOANNAH ATUHAIRE BANTU Acc. jae,Completed,9000,,163500,TRUE,Pay Utility,0715688238 - JOANNAH ATUHAIRE BANTU,,jae
OK557CRVRV,05/11/2020 15:57,05/11/2020 15:57,Pay Bill from 254727460527 - KENNETH GACHUHI Acc. HAB,Completed,17000,,154500,TRUE,Pay Utility,254727460527 - KENNETH GACHUHI,,HAB
OK5878YMIY,05/11/2020 14:31,05/11/2020 14:31,Pay Bill from 254711562428 - Lionel Mutune Muoka Acc. KDI,Completed,11000,,137500,TRUE,Pay Utility,254711562428 - Lionel Mutune Muoka,,KDI
OK5875D3NC,05/11/2020 13:08,05/11/2020 13:08,Pay Bill from 254715512742 - SHADRACK OGONJI Acc. KDG,Completed,10000,,126500,TRUE,Pay Utility,254715512742 - SHADRACK OGONJI,,KDG
OK5474MYQG,05/11/2020 12:51,05/11/2020 12:51,Pay Bill from 254714818251 - MERCY AKINYI OMONDI Acc. DFB,Completed,13500,,116500,TRUE,Pay Utility,254714818251 - MERCY AKINYI OMONDI,,DFB
OK5574EL4Z,05/11/2020 12:45,05/11/2020 12:45,Pay Bill Online from 254725385966 - JOSEPH MUYA MARUA Acc. KEE,Completed,7500,,103000,TRUE,Pay Utility with OD Online,254725385966 - JOSEPH MUYA MARUA,,KEE
OK59740MBF,05/11/2020 12:36,05/11/2020 12:36,Pay Bill Online from 254705846408 - JAMES OUMA Acc. HBG,Completed,16000,,95500,TRUE,Pay Bill Online,254705846408 - JAMES OUMA,,HBG
OK5572FOGB,05/11/2020 11:59,05/11/2020 11:59,Pay Bill from 254726593769 - BONFACE BWINA Acc. DEB,Completed,16000,,79500,TRUE,Pay Utility,254726593769 - BONFACE BWINA,,DEB
OK566Z168A,05/11/2020 10:37,05/11/2020 10:37,Pay Bill Online from 254792187144 - HASSAN AHMED HASSAN Acc. KGI,Completed,10000,,63500,TRUE,Pay Bill Online,254792187144 - HASSAN AHMED HASSAN,,KGI
OK596WOKI9,05/11/2020 09:40,05/11/2020 09:40,Pay Bill from 254700627058 - SUSY NABALAYO CHELONGO Acc. dbb,Completed,16000,,53500,TRUE,Pay Utility,254700627058 - SUSY NABALAYO CHELONGO,,dbb
OK566U1ZMM,05/11/2020 08:29,05/11/2020 08:29,Pay Bill Online from 254726313835 - SYLVIA JUMA Acc. hdf,Completed,9500,,37500,TRUE,Pay Bill Online,254726313835 - SYLVIA JUMA,,hdf
OK586SJF28,05/11/2020 07:41,05/11/2020 07:41,Pay Bill from 254728704378 - ELIZABETH KAMENE MUSYIMI Acc. jgj,Completed,16000,,28000,TRUE,Pay Utility,254728704378 - ELIZABETH KAMENE MUSYIMI,,jgj
OK516QEC9T,05/11/2020 01:41,05/11/2020 01:41,Pay Bill from 254707551286 - BENSON NJUGUNA WANGARI Acc. kfi,Completed,12000,,12000,TRUE,Pay Utility,254707551286 - BENSON NJUGUNA WANGARI,,kfi
OK486P7VTU,04/11/2020 22:29,04/11/2020 22:29,Utility Account to Organization Settlement Account,Completed,,-146000,0,TRUE,Utility Account to Organization Settlement Account,979524 - ANCIENT WELLS PROPERTY MANAGERS 2,,
OK466O9OUS,04/11/2020 21:48,04/11/2020 21:48,Pay Bill from 0790924905 - KEVIN   KIDAGISA Acc. IGC,Completed,9000,,146000,TRUE,Pay Utility,0790924905 - KEVIN   KIDAGISA,,IGC
OK476NCQOL,04/11/2020 21:19,04/11/2020 21:19,Pay Bill from 0757777055 - ELIAS WAFULA SIKUKU Acc. JBC,Completed,11000,,137000,TRUE,Pay Utility,0757777055 - ELIAS WAFULA SIKUKU,,JBC
OK466MHP4C,04/11/2020 20:57,04/11/2020 20:57,Pay Bill from 254724364316 - LINET MWENDIA Acc. KEJ,Completed,16000,,126000,TRUE,Pay Utility,254724364316 - LINET MWENDIA,,KEJ
OK476IJ9RD,04/11/2020 19:41,04/11/2020 19:41,Pay Bill from 254714563486 - BRIAN MMATA MUSERA Acc. KBJ,Completed,16000,,110000,TRUE,Pay Utility,254714563486 - BRIAN MMATA MUSERA,,KBJ
OK426IFJBS,04/11/2020 19:40,04/11/2020 19:40,Pay Bill from 254798524621 - MERCY CHESANG Acc. jcj,Completed,16000,,94000,TRUE,Pay Utility,254798524621 - MERCY CHESANG,,jcj
OK466I37NY,04/11/2020 19:34,04/11/2020 19:34,Pay Bill from 254721315975 - JOSEPH NDEGWA Acc. H E B ,Completed,16000,,78000,TRUE,Pay Utility,254721315975 - JOSEPH NDEGWA,,H
OK436F9RCJ,04/11/2020 18:54,04/11/2020 18:54,Pay Bill from 254715742045 - FRIDAH KIEMA Acc. HGC,Completed,9500,,62000,TRUE,Pay Utility with OD via STK,254715742045 - FRIDAH KIEMA,,HGC
OK456E0XLL,04/11/2020 18:37,04/11/2020 18:37,Pay Bill from 0758236605 - Hino Asafa Aila Acc. HDH,Completed,17000,,52500,TRUE,Pay Utility,0758236605 - Hino Asafa Aila,,HDH
OK456D5277,04/11/2020 18:23,04/11/2020 18:23,Pay Bill from 254714156268 - MARY NJOKI KANYIRI Acc. IFC,Completed,9500,,35500,TRUE,Pay Utility,254714156268 - MARY NJOKI KANYIRI,,IFC
OK466AGI7O,04/11/2020 17:38,04/11/2020 17:38,Pay Bill from 254722874715 - PATRCIAH mbesa KIOKO Acc. KBB,Completed,16000,,26000,TRUE,Pay Utility,254722874715 - PATRCIAH mbesa KIOKO,,KBB
OK44673IB4,04/11/2020 16:33,04/11/2020 16:33,Pay Bill from 254708851939 - VENANT MBOGHO Acc. KCH,Completed,10000,,10000,TRUE,Pay Utility with OD via STK,254708851939 - VENANT MBOGHO,,KCH
OK4966GVIH,04/11/2020 16:19,04/11/2020 16:19,Utility Account to Organization Settlement Account,Completed,,-205000,0,TRUE,Utility Account to Organization Settlement Account,979524 - ANCIENT WELLS PROPERTY MANAGERS 2,,
OK4965BF3J,04/11/2020 15:53,04/11/2020 15:53,Pay Bill Online from 254727648782 - EUNICE MUTIO MULE Acc. JEI,Completed,20000,,205000,TRUE,Pay Bill Online,254727648782 - EUNICE MUTIO MULE,,JEI
OK4864PYOU,04/11/2020 15:40,04/11/2020 15:40,Pay Bill from 254792224857 - FRANKLIN MIWO OGUNDA ODHIAMBO Acc. IAG,Completed,9500,,185000,TRUE,Pay Utility,254792224857 - FRANKLIN MIWO OGUNDA ODHIAMBO,,IAG
OK4961EBXJ,04/11/2020 14:23,04/11/2020 14:23,Pay Bill Online from 254714578997 - LINCOLN DAN MEMBA Acc. KAC,Completed,9000,,175500,TRUE,Pay Bill Online,254714578997 - LINCOLN DAN MEMBA,,KAC
OK49609HYD,04/11/2020 13:56,04/11/2020 13:56,Pay Bill from 254728476791 - CAROLE ACHIENG Acc. KCF,Completed,10000,,166500,TRUE,Pay Utility,254728476791 - CAROLE ACHIENG,,KCF
OK495WTCCT,04/11/2020 12:35,04/11/2020 12:35,Pay Bill from 254725771056 - CHARLES MURAGURI Acc. FCE,Completed,15000,,156500,TRUE,Pay Utility,254725771056 - CHARLES MURAGURI,,FCE
OK405WLLTC,04/11/2020 12:30,04/11/2020 12:30,Pay Bill from 254729160700 - MICAH NDUNGI Acc. HFE,Completed,10500,,141500,TRUE,Pay Utility,254729160700 - MICAH NDUNGI,,HFE
OK455UXRBJ,04/11/2020 11:50,04/11/2020 11:50,FSI to Pay Bill by 714888 - B2C LOOP VIA NCBA Acc. FAD via WEB by B2C LOOP VIA NCBA\Cbainitiator,Completed,11000,,131000,TRUE,FSI to Pay Bill via API,714888 - B2C LOOP VIA NCBA,,FAD
OK405THWQG,04/11/2020 11:16,04/11/2020 11:16,Pay Bill from 0769001671 - Wilson Mutangili Wambua Acc. haf,Completed,9500,,120000,TRUE,Pay Utility,0769001671 - Wilson Mutangili Wambua,,haf
OK465RC1TM,04/11/2020 10:22,04/11/2020 10:22,Pay Bill from 254703624678 - Zacharia Gesora Omwoyo Acc. IGD,Completed,8000,,110500,TRUE,Pay Utility,254703624678 - Zacharia Gesora Omwoyo,,IGD
OK415PA8UD,04/11/2020 09:31,04/11/2020 09:31,Pay Bill from 254798022849 - MARTIN BUNDI RUGENDO Acc. KFH,Completed,10000,,102500,TRUE,Pay Utility,254798022849 - MARTIN BUNDI RUGENDO,,KFH
OK395HETJZ,03/11/2020 21:57,03/11/2020 21:57,Pay Bill from 254713115724 - ROTICH JUDITH JUDITH CHERONO Acc. KCK,Completed,17000,,92500,TRUE,Pay Utility,254713115724 - ROTICH JUDITH JUDITH CHERONO,,KCK
OK315H3YCP,03/11/2020 21:46,03/11/2020 21:46,Pay Bill from 254720361605 - DAUD AMBER Acc. IGH,Completed,500,,75500,TRUE,Pay Utility,254720361605 - DAUD AMBER,,IGH
OK385ETJOC,03/11/2020 20:43,03/11/2020 20:43,Pay Bill from 254707669965 - ELVIS MOENGA OKERO Acc. IAE,Completed,9000,,75000,TRUE,Pay Utility,254707669965 - ELVIS MOENGA OKERO,,IAE
OK335ADFB9,03/11/2020 19:24,03/11/2020 19:24,Pay Bill from 254729590734 - PATRICK NDUNGA Acc. IDD,Completed,9500,,66000,TRUE,Pay Utility,254729590734 - PATRICK NDUNGA,,IDD
OK3456W1NM,03/11/2020 18:34,03/11/2020 18:34,Pay Bill Online from 254718299426 - AMOS NGURE MWANGI Acc. HEE,Completed,10500,,56500,TRUE,Pay Bill Online,254718299426 - AMOS NGURE MWANGI,,HEE
OK3452E26A,03/11/2020 17:17,03/11/2020 17:17,Pay Bill from 254700187806 - WINNIE OLIVIA AKOTH Acc. JEC,Completed,10000,,46000,TRUE,Pay Utility,254700187806 - WINNIE OLIVIA AKOTH,,JEC
OK3250UOBM,03/11/2020 16:47,03/11/2020 16:47,Pay Bill from 254712954563 - JOSEPH MUTISO KILONZO Acc. dac,Completed,20000,,36000,TRUE,Pay Utility,254712954563 - JOSEPH MUTISO KILONZO,,dac
OK304V98JE,03/11/2020 14:43,03/11/2020 14:43,Pay Bill Online from 254711724272 - EDMOND ONYANGO OKEWE Acc. FCB,Completed,16000,,16000,TRUE,Pay Bill Online,254711724272 - EDMOND ONYANGO OKEWE,,FCB
OK344V9726,03/11/2020 14:43,03/11/2020 14:43,Utility Account to Organization Settlement Account,Completed,,-106500,0,TRUE,Utility Account to Organization Settlement Account,979524 - ANCIENT WELLS PROPERTY MANAGERS 2,,
OK354UU9EX,03/11/2020 14:33,03/11/2020 14:33,Pay Bill from 254743775372 - SHIKUNDI PURITY KHAOYA Acc. hcd,Completed,9500,,106500,TRUE,Pay Utility,254743775372 - SHIKUNDI PURITY KHAOYA,,hcd
OK344SOU9O,03/11/2020 13:42,03/11/2020 13:42,Pay Bill from 254719398942 - NORAH WAYUA MUNYAO Acc. KDC,Completed,10000,,97000,TRUE,Pay Utility,254719398942 - NORAH WAYUA MUNYAO,,KDC
OK324SKRF8,03/11/2020 13:40,03/11/2020 13:40,Pay Bill from 254724559756 - DUNCAN OMONDI OGOLA Acc. JCE,Completed,20000,,87000,TRUE,Pay Utility,254724559756 - DUNCAN OMONDI OGOLA,,JCE
OK324OBUOE,03/11/2020 11:58,03/11/2020 11:58,Pay Bill from 254721302658 - JACOB BIRUNDU Acc. DDB,Completed,16000,,67000,TRUE,Pay Utility,254721302658 - JACOB BIRUNDU,,DDB
OK344MNEDS,03/11/2020 11:17,03/11/2020 11:17,Pay Bill from 0748059595 - Rashid NASSIR Khamis Acc. DDA,Completed,10000,,51000,TRUE,Pay Utility,0748059595 - Rashid NASSIR Khamis,,DDA
OK394LM4BR,03/11/2020 10:52,03/11/2020 10:52,Pay Bill from 254729796719 - JACINTA WANJIKU NJERI Acc. FFF,Completed,17000,,41000,TRUE,Pay Utility,254729796719 - JACINTA WANJIKU NJERI,,FFF
OK374KGFA7,03/11/2020 10:24,03/11/2020 10:24,Pay Bill from 254712461449 - CAROLINE MUTHONI GICHOHI Acc. fca,Completed,16000,,24000,TRUE,Pay Utility,254712461449 - CAROLINE MUTHONI GICHOHI,,fca
OK304JM9EW,03/11/2020 10:04,03/11/2020 10:04,Pay Bill from 0743248310 - PATRICK STURRIDGE NYONGESA Acc. kaf,Completed,8000,,8000,TRUE,Pay Utility,0743248310 - PATRICK STURRIDGE NYONGESA,,kaf
OK344IX5RM,03/11/2020 09:46,03/11/2020 09:46,Utility Account to Organization Settlement Account,Completed,,-113000,0,TRUE,Utility Account to Organization Settlement Account,979524 - ANCIENT WELLS PROPERTY MANAGERS 2,,
OK394C93QF,03/11/2020 01:05,03/11/2020 01:05,Pay Bill from 254703935626 - DAVID NGARI ITA Acc. FCD,Completed,1000,,113000,TRUE,Pay Utility,254703935626 - DAVID NGARI ITA,,FCD
OK2049F0FM,02/11/2020 21:21,02/11/2020 21:21,Pay Bill from 254720361605 - DAUD AMBER Acc. IGH,Completed,500,,112000,TRUE,Pay Utility,254720361605 - DAUD AMBER,,IGH
OK2546QR6V,02/11/2020 20:19,02/11/2020 20:19,Pay Bill from 254706237502 - STEPHEN WERE Acc. IBA,Completed,7000,,111500,TRUE,Pay Utility,254706237502 - STEPHEN WERE,,IBA
OK2045OWHI,02/11/2020 19:59,02/11/2020 19:59,Pay Bill from 254707370896 - OKECH BRIAN BRIAN Acc. FFA,Completed,17000,,104500,TRUE,Pay Utility,254707370896 - OKECH BRIAN BRIAN,,FFA
OK2145HYJR,02/11/2020 19:55,02/11/2020 19:55,Pay Bill from 254719499823 - MOSES MWANZIA MWANZIA MUTHIANI Acc. Jcc,Completed,8500,,87500,TRUE,Pay Utility with OD via STK,254719499823 - MOSES MWANZIA MWANZIA MUTHIANI,,Jcc
OK2744NRKJ,02/11/2020 19:41,02/11/2020 19:41,Pay Bill from 254722444622 - CHARITY KAGWAINI Acc. FFD,Completed,3500,,79000,TRUE,Pay Utility,254722444622 - CHARITY KAGWAINI,,FFD
OK2644FAJE,02/11/2020 19:37,02/11/2020 19:37,Pay Bill from 254701203464 - ELEMA MAMO ROBA Acc. hcf,Completed,9500,,75500,TRUE,Pay Utility,254701203464 - ELEMA MAMO ROBA,,hcf
OK223V0G3O,02/11/2020 17:03,02/11/2020 17:03,Pay Bill from 254718672924 - LILIAN CHEBET NGENO Acc. KGD,Completed,21000,,66000,TRUE,Pay Utility,254718672924 - LILIAN CHEBET NGENO,,KGD
OK253OJ4NH,02/11/2020 14:36,02/11/2020 14:36,Pay Bill from 254710926340 - DOREEN MUTANU Acc. IBG,Completed,9500,,45000,TRUE,Pay Utility with OD via STK,254710926340 - DOREEN MUTANU,,IBG
OK243KKH04,02/11/2020 13:03,02/11/2020 13:03,Pay Bill from 254700374335 - HYLINE ONDARI Acc. KTE,Completed,9500,,35500,TRUE,Pay Utility,254700374335 - HYLINE ONDARI,,KTE
OK283JG0PA,02/11/2020 12:36,02/11/2020 12:36,Pay Bill from 254708376721 - Millicent Achieng Akuka Acc. KCA,Completed,16000,,26000,TRUE,Pay Utility,254708376721 - Millicent Achieng Akuka,,KCA
OK263HU2KY,02/11/2020 11:57,02/11/2020 11:57,Pay Bill from 254708619274 - BONIFACE MUTUA Acc. IFF,Completed,10000,,10000,TRUE,Pay Utility,254708619274 - BONIFACE MUTUA,,IFF
OK293G587P,02/11/2020 11:16,02/11/2020 11:16,Utility Account to Organization Settlement Account,Completed,,-299000,0,TRUE,Utility Account to Organization Settlement Account,979524 - ANCIENT WELLS PROPERTY MANAGERS 2,,
OK283CZDCS,02/11/2020 09:59,02/11/2020 09:59,Pay Bill from 254707715639 - Annastacia Kimeu Acc. JFC,Completed,11000,,299000,TRUE,Pay Utility,254707715639 - Annastacia Kimeu,,JFC
OK2239DSWW,02/11/2020 08:23,02/11/2020 08:23,Pay Bill from 254725754547 - MWACHIRO GEORGE DECHE Acc. DFC,Completed,23000,,288000,TRUE,Pay Utility,254725754547 - MWACHIRO GEORGE DECHE,,DFC
OK29380Y8V,02/11/2020 07:39,02/11/2020 07:39,Pay Bill from 254722569870 - LUKA KEITANY Acc. JFJ,Completed,15000,,265000,TRUE,Pay Utility,254722569870 - LUKA KEITANY,,JFJ
OK2535PZ4N,02/11/2020 00:54,02/11/2020 00:54,Pay Bill from 254703935626 - DAVID NGARI ITA Acc. FCD,Completed,1500,,250000,TRUE,Pay Utility,254703935626 - DAVID NGARI ITA,,FCD
OK18342JKU,01/11/2020 22:03,01/11/2020 22:03,Pay Bill from 254723605941 - JOHN KARIHA Acc. KDD,Completed,11000,,248500,TRUE,Pay Utility,254723605941 - JOHN KARIHA,,KDD
OK1333T2AB,01/11/2020 21:53,01/11/2020 21:53,Pay Bill from 254722444622 - CHARITY KAGWAINI Acc. FFD,Completed,7500,,237500,TRUE,Pay Utility,254722444622 - CHARITY KAGWAINI,,FFD
OK1933MY5R,01/11/2020 21:46,01/11/2020 21:46,Pay Bill from 254720361605 - DAUD AMBER Acc. IGH,Completed,500,,230000,TRUE,Pay Utility,254720361605 - DAUD AMBER,,IGH
OK1831RL7O,01/11/2020 20:47,01/11/2020 20:47,Pay Bill from 254720511734 - ENOCK KIBET Acc. FDC,Completed,9000,,229500,TRUE,Pay Utility,254720511734 - ENOCK KIBET,,FDC
OK19314CEZ,01/11/2020 20:31,01/11/2020 20:31,Pay Bill from 254719488576 - GEORGE ONYANGO Acc. DAA,Completed,17000,,220500,TRUE,Pay Utility,254719488576 - GEORGE ONYANGO,,DAA
OK14307CNE,01/11/2020 20:10,01/11/2020 20:10,Pay Bill from 254704833344 - LOISE KIMANI Acc. jfa,Completed,20000,,203500,TRUE,Pay Utility,254704833344 - LOISE KIMANI,,jfa
OK122XOTHC,01/11/2020 19:21,01/11/2020 19:21,Pay Bill from 254702355678 - JOHN NJOROGE GICHERU Acc. ITE,Completed,10000,,183500,TRUE,Pay Utility,254702355678 - JOHN NJOROGE GICHERU,,ITE
OK102WC900,01/11/2020 19:00,01/11/2020 19:00,Pay Bill from 254722910078 - MAUREEN MUNYIVA MUTUKU Acc. DBD,Completed,7500,,173500,TRUE,Pay Utility,254722910078 - MAUREEN MUNYIVA MUTUKU,,DBD
OK172TQP37,01/11/2020 18:16,01/11/2020 18:16,Pay Bill from 254723872785 - MARY ANN NJERI NDUNG'U Acc. hed,Completed,9500,,166000,TRUE,Pay Utility,254723872785 - MARY ANN NJERI NDUNG'U,,hed
OK182TFRZK,01/11/2020 18:11,01/11/2020 18:11,Pay Bill from 254720249209 - WILFRED NJUGUNA WANJIRI Acc. DDD,Completed,40000,,156500,TRUE,Pay Utility,254720249209 - WILFRED NJUGUNA WANJIRI,,DDD
OK102P7LT6,01/11/2020 16:43,01/11/2020 16:43,Pay Bill from 254714855708 - KIPLANGAT SITIENEI Acc. FAE,Completed,16000,,116500,TRUE,Pay Utility,254714855708 - KIPLANGAT SITIENEI,,FAE
OK102MYVZQ,01/11/2020 15:53,01/11/2020 15:53,Pay Bill Online from 254715121526 - ROBERT WAINAINA KARIUKI Acc. HAH,Completed,5500,,100500,TRUE,Pay Utility with OD Online,254715121526 - ROBERT WAINAINA KARIUKI,,HAH
OK192E62YB,01/11/2020 12:23,01/11/2020 12:23,Pay Bill Online from 254795510441 - LEWIS MUEMA Acc. KEB,Completed,16000,,95000,TRUE,Pay Bill Online,254795510441 - LEWIS MUEMA,,KEB
OK162B9HFM,01/11/2020 11:05,01/11/2020 11:05,Pay Bill from 254718009051 - STEPHEN OMOLLO Acc. JDF,Completed,17000,,79000,TRUE,Pay Utility with OD via STK,254718009051 - STEPHEN OMOLLO,,JDF
OK1922UBMH,01/11/2020 06:44,01/11/2020 06:44,Pay Bill from 0722389924 - ISSA ISACK GOLLO Acc. DCC For Nov 2020,Completed,20000,,62000,TRUE,Pay Utility,0722389924 - ISSA ISACK GOLLO,,DCC
