Receipt No.,Completion Time,Initiation Time,Details,Transaction Status,Paid In,Withdrawn,Balance,Balance Confirmed,Reason Type,Other Party Info,Linked Transaction ID,A/C No.
QH66QUAOP6,06/08/2022 08:20,06/08/2022 08:20,Utility Account to Organization Settlement Account,Completed,,-195000,0,TRUE,Utility Account to Organization Settlement Account,979524 - ANCIENT WELLS PROPERTY MANAGERS 2,,
QH69QSBIU1,06/08/2022 07:43,06/08/2022 07:43,Pay Bill Online from 254704934557 - BAKARI KITSAKA Acc. HDG,Completed,15000,,195000,TRUE,Pay Bill Online,254704934557 - BAKARI KITSAKA,,HDG
QH54QMF330,05/08/2022 23:35,05/08/2022 23:35,Pay Bill from 254725749776 - BEN KORIR Acc. IDF,Completed,11000,,180000,TRUE,Pay Utility with OD via STK,254725749776 - BEN KORIR,,IDF
QH59QF8RSF,05/08/2022 21:13,05/08/2022 21:13,Pay Bill from 254713281251 - ERIC KIAMA Acc. JDI,Completed,20000,,169000,TRUE,Pay Utility,254713281251 - ERIC KIAMA,,JDI
QH53QDZF9F,05/08/2022 20:58,05/08/2022 20:58,Pay Bill Online from 254713443185 - FRANCIS ODHIAMBO SALU Acc. HGD,Completed,10000,,149000,TRUE,Pay Utility with OD Online,254713443185 - FRANCIS ODHIAMBO SALU,,HGD
QH50Q3FTHK,05/08/2022 19:20,05/08/2022 19:20,Pay Bill Online from 254742911013 - HANEST AMIMO Acc. IEG,Completed,8000,,139000,TRUE,Pay Utility with OD Online,254742911013 - HANEST AMIMO,,IEG
QH58Q0KZ02,05/08/2022 18:56,05/08/2022 18:56,Pay Bill from 254714060203 - PATRICK MWANGOMBE MSAWUCHI Acc. KEI,Completed,12000,,131000,TRUE,Pay Utility,254714060203 - PATRICK MWANGOMBE MSAWUCHI,,KEI
QH59PYFD7F,05/08/2022 18:36,05/08/2022 18:36,Pay Bill Online from 254724587401 - RAPHAEL IRUNGU WAIHURA Acc. KGG,Completed,10000,,119000,TRUE,Pay Bill Online,254724587401 - RAPHAEL IRUNGU WAIHURA,,KGG
QH52PXES4S,05/08/2022 18:27,05/08/2022 18:27,Pay Bill from 254700198550 - BENARD ONYANGO Acc. DBB,Completed,16000,,109000,TRUE,Pay Utility,254700198550 - BENARD ONYANGO,,DBB
QH54PWAM6Y,05/08/2022 18:16,05/08/2022 18:16,Pay Bill from 254729355933 - FELISTAH NJERI WAIRIMU Acc. IDI,Completed,15000,,93000,TRUE,Pay Utility,254729355933 - FELISTAH NJERI WAIRIMU,,IDI
QH57PVEGTH,05/08/2022 18:07,05/08/2022 18:07,Pay Bill from 254712283818 - OYUGI OCHIENG Acc. FCB,Completed,16000,,78000,TRUE,Pay Utility,254712283818 - OYUGI OCHIENG,,FCB
QH54PQGVB0,05/08/2022 17:16,05/08/2022 17:16,Pay Bill from 254725478531 - KIPKORIR KUTO Acc. DFB,Completed,15000,,62000,TRUE,Pay Utility,254725478531 - KIPKORIR KUTO,,DFB
QH54PPDAME,05/08/2022 17:04,05/08/2022 17:04,Pay Bill from 254720375006 - JACOB KANGOGO Acc. IBA,Completed,15000,,47000,TRUE,Pay Utility,254720375006 - JACOB KANGOGO,,IBA
QH59PO2WL5,05/08/2022 16:49,05/08/2022 16:49,Pay Bill Online from 254713966424 - NDUTI MUTHUI Acc. Jed,Completed,15000,,32000,TRUE,Pay Bill Online,254713966424 - NDUTI MUTHUI,,Jed
QH59PLHNLH,05/08/2022 16:18,05/08/2022 16:18,Pay Bill from 254726753273 - JESSE K MURIRMI NJERU Acc. HCH,Completed,17000,,17000,TRUE,Pay Utility,254726753273 - JESSE K MURIRMI NJERU,,HCH
QH58PKG69C,05/08/2022 16:05,05/08/2022 16:05,Utility Account to Organization Settlement Account,Completed,,-322400,0,TRUE,Utility Account to Organization Settlement Account,979524 - ANCIENT WELLS PROPERTY MANAGERS 2,,
QH55PGP3SX,05/08/2022 15:17,05/08/2022 15:17,Pay Bill from 254728670882 - SHARAD EDWARD ADALA OLUM Acc. KCK,Completed,3400,,322400,TRUE,Pay Utility,254728670882 - SHARAD EDWARD ADALA OLUM,,KCK
QH55PEYO49,05/08/2022 14:55,05/08/2022 14:55,Pay Bill Online from 254706549634 - CLINTON OMBASA Acc. FDB,Completed,10000,,319000,TRUE,Pay Bill Online,254706549634 - CLINTON OMBASA,,FDB
QH58PES6TG,05/08/2022 14:53,05/08/2022 14:53,Pay Bill from 0743248310 - PATRICK STURRIDGE NYONGESA Acc. daa,Completed,18000,,309000,TRUE,Pay Utility,0743248310 - PATRICK STURRIDGE NYONGESA,,daa
QH50PE84RW,05/08/2022 14:46,05/08/2022 14:46,Pay Bill from 0711769778 - PROTASIA BONIPHACE MANOSA Acc. IBB,Completed,15000,,291000,TRUE,Pay Utility,0711769778 - PROTASIA BONIPHACE MANOSA,,IBB
QH56PBIIUY,05/08/2022 14:11,05/08/2022 14:11,Pay Bill from 254715636579 - GRACE KALUKI MULI Acc. FDA,Completed,16000,,276000,TRUE,Pay Utility with OD via STK,254715636579 - GRACE KALUKI MULI,,FDA
QH56PBHO0E,05/08/2022 14:11,05/08/2022 14:11,Pay Bill from 254716881682 - JUSTINE FAYUMA OKWEMBA Acc. HAA,Completed,17000,,260000,TRUE,Pay Utility,254716881682 - JUSTINE FAYUMA OKWEMBA,,HAA
QH50P8Q7NQ,05/08/2022 13:36,05/08/2022 13:36,Pay Bill Online from 254706144834 - WILKISTER OSUMO Acc. HFB,Completed,15000,,243000,TRUE,Pay Bill Online,254706144834 - WILKISTER OSUMO,,HFB
QH52P2YUWO,05/08/2022 12:20,05/08/2022 12:20,Pay Bill from 254702216907 - FAITH MUSA Acc. KBE ,Completed,10000,,228000,TRUE,Pay Utility,254702216907 - FAITH MUSA,,KBE
QH53P1A68D,05/08/2022 11:58,05/08/2022 11:58,Pay Bill from 0797758628 - jackline nyamari onyango Acc. ICF,Completed,11000,,218000,TRUE,Pay Utility,0797758628 - jackline nyamari onyango,,ICF
QH51OZCZTL,05/08/2022 11:32,05/08/2022 11:32,Pay Bill from 0724386624 - FATUMA ISSE YUSSUF Acc. FAB,Completed,16000,,207000,TRUE,Pay Utility with OD via STK,0724386624 - FATUMA ISSE YUSSUF,,FAB
QH59OS4TIV,05/08/2022 09:53,05/08/2022 09:53,Pay Bill Online from 254715002789 - ERICK NGUGI MAINA Acc. HAG,Completed,16000,,191000,TRUE,Pay Bill Online,254715002789 - ERICK NGUGI MAINA,,HAG
QH56OLJ4V2,05/08/2022 08:09,05/08/2022 08:09,Pay Bill Online from 0722255105 - SALIM OMAR MZEE Acc. KGE,Completed,10000,,175000,TRUE,Pay Bill Online,0722255105 - SALIM OMAR MZEE,,KGE
QH54OL9RAI,05/08/2022 08:04,05/08/2022 08:04,Pay Bill from 254723929380 - RHODAH K WAMBUA Acc. HEF,Completed,9500,,165000,TRUE,Pay Utility,254723929380 - RHODAH K WAMBUA,,HEF
QH57OG5QP1,05/08/2022 01:10,05/08/2022 01:10,Pay Bill from 254708875278 - ROSEMARY WANJIRU KONYE Acc. HBF,Completed,9000,,155500,TRUE,Pay Utility,254708875278 - ROSEMARY WANJIRU KONYE,,HBF
QH42OEPB9Y,04/08/2022 23:15,04/08/2022 23:15,Pay Bill from 254798844460 - WYCLIFFE ODHIAMBO NYAGOA Acc. KAC,Completed,10000,,146500,TRUE,Pay Utility,254798844460 - WYCLIFFE ODHIAMBO NYAGOA,,KAC
QH49OEGYN3,04/08/2022 23:06,04/08/2022 23:06,Pay Bill from 254700557767 - BAKHITA MWENDE MUANGE Acc. kcb,Completed,16000,,136500,TRUE,Pay Utility,254700557767 - BAKHITA MWENDE MUANGE,,kcb
QH47OB7KGT,04/08/2022 21:48,04/08/2022 21:48,Pay Bill Online from 254725909984 - TIMOTHY ODHIAMBO OWITI Acc. jde,Completed,10000,,120500,TRUE,Pay Bill Online,254725909984 - TIMOTHY ODHIAMBO OWITI,,jde
QH41O5W6GD,04/08/2022 20:38,04/08/2022 20:38,Pay Bill from 0700206427 - Clare Nabalisa Mukasa Acc. HFA,Completed,16000,,110500,TRUE,Pay Utility,0700206427 - Clare Nabalisa Mukasa,,HFA
QH47O3W3WD,04/08/2022 20:19,04/08/2022 20:19,Pay Bill Online from 254718663397 - JIMMY MUNYAO NZIOKI Acc. DCB,Completed,16000,,94500,TRUE,Pay Bill Online,254718663397 - JIMMY MUNYAO NZIOKI,,DCB
QH40O1AIKW,04/08/2022 19:56,04/08/2022 19:56,Pay Bill Online from 254714536026 - LILIAN AWUOR ONYANGO Acc. HDC,Completed,10500,,78500,TRUE,Pay Bill Online,254714536026 - LILIAN AWUOR ONYANGO,,HDC
QH47NZSVRN,04/08/2022 19:43,04/08/2022 19:43,Pay Bill from 254721784820 - YVONNE OKELLO Acc. KGC,Completed,9000,,68000,TRUE,Pay Utility,254721784820 - YVONNE OKELLO,,KGC
QH47NXBH99,04/08/2022 19:22,04/08/2022 19:22,Pay Bill from 254718253322 - DUNCAN MOCHOGE Acc. JFJ,Completed,15000,,59000,TRUE,Pay Utility,254718253322 - DUNCAN MOCHOGE,,JFJ
QH44NSZL20,04/08/2022 18:44,04/08/2022 18:44,Pay Bill from 254741223822 - Rhoyce Kiptarus Boiyo Acc. FEC,Completed,9000,,44000,TRUE,Pay Utility,254741223822 - Rhoyce Kiptarus Boiyo,,FEC
QH42NSBF7I,04/08/2022 18:38,04/08/2022 18:38,Pay Bill Online from 254710202776 - KELVIN KARIMI MACHARIA Acc. FAD,Completed,11000,,35000,TRUE,Pay Bill Online,254710202776 - KELVIN KARIMI MACHARIA,,FAD
QH49NFM70H,04/08/2022 16:22,04/08/2022 16:22,Pay Bill from 0115327960 - JOSEPH WAMBUA MUSYOKA Acc. IBG,Completed,8000,,24000,TRUE,Pay Utility,0115327960 - JOSEPH WAMBUA MUSYOKA,,IBG
QH43N7E59Z,04/08/2022 14:35,04/08/2022 14:35,Pay Bill Online from 254705846408 - JAMES OUMA Acc. HBH,Completed,16000,,16000,TRUE,Pay Bill Online,254705846408 - JAMES OUMA,,HBH
QH40N31F94,04/08/2022 13:38,04/08/2022 13:38,Utility Account to Organization Settlement Account,Completed,,-243000,0,TRUE,Utility Account to Organization Settlement Account,979524 - ANCIENT WELLS PROPERTY MANAGERS 2,,
QH44MZ16B4,04/08/2022 12:46,04/08/2022 12:46,Pay Bill from 0706563358 - HARRIET NYANCHAMA NYABERI Acc. FCC,Completed,9000,,243000,TRUE,Pay Utility,0706563358 - HARRIET NYANCHAMA NYABERI,,FCC
QH40MYXVDW,04/08/2022 12:44,04/08/2022 12:44,Pay Bill from 254720620070 - Michelle Mwihaki Ngaruiya Acc. JEB,Completed,15000,,234000,TRUE,Pay Utility,254720620070 - Michelle Mwihaki Ngaruiya,,JEB
QH47MR2ROZ,04/08/2022 10:57,04/08/2022 10:57,Pay Bill Online from 254722728975 - CURTIS MRIGA OMIDO Acc. IAH,Completed,16000,,219000,TRUE,Pay Bill Online,254722728975 - CURTIS MRIGA OMIDO,,IAH
QH47MMGVMJ,04/08/2022 09:53,04/08/2022 09:53,Pay Bill Online from 254720451253 - JIMMY KIOGORA NKIROTE Acc. KBD,Completed,1500,,203000,TRUE,Pay Bill Online,254720451253 - JIMMY KIOGORA NKIROTE,,KBD
QH44MM6Y64,04/08/2022 09:48,04/08/2022 09:48,Pay Bill from 254701741613 - ELDERKIN AKOSA Acc. IFB,Completed,15000,,201500,TRUE,Pay Utility,254701741613 - ELDERKIN AKOSA,,IFB
QH47MLRV3X,04/08/2022 09:42,04/08/2022 09:42,Pay Bill Online from 254720696119 - DUNCAN OMONDI OKETCH Acc. IAG,Completed,9000,,186500,TRUE,Pay Bill Online,254720696119 - DUNCAN OMONDI OKETCH,,IAG
QH48MLHOYK,04/08/2022 09:38,04/08/2022 09:38,Pay Bill from 254724691303 - FREDRICK OTIENO ONEGE Acc. ICH,Completed,12000,,177500,TRUE,Pay Utility,254724691303 - FREDRICK OTIENO ONEGE,,ICH
QH43MLCY8B,04/08/2022 09:36,04/08/2022 09:36,Pay Bill from 254715256302 - RUTH N NDUMA Acc. IGH ,Completed,15000,,165500,TRUE,Pay Utility,254715256302 - RUTH N NDUMA,,IGH
QH40MFFRQU,04/08/2022 07:57,04/08/2022 07:57,Pay Bill from 254729160700 - MICAH NDUNGI Acc. HFE,Completed,10500,,150500,TRUE,Pay Utility,254729160700 - MICAH NDUNGI,,HFE
QH45MFCQFP,04/08/2022 07:55,04/08/2022 07:55,Pay Bill Online from 254710382992 - SIMON KAMAU MUIRURI Acc. JCD,Completed,15000,,140000,TRUE,Pay Bill Online,254710382992 - SIMON KAMAU MUIRURI,,JCD
QH34M9W5TM,03/08/2022 23:35,03/08/2022 23:35,Pay Bill Online from 254719134037 - KELVIN KITOO Acc. FAA,Completed,16000,,125000,TRUE,Pay Utility with OD Online,254719134037 - KELVIN KITOO,,FAA
QH38M504FM,03/08/2022 21:31,03/08/2022 21:31,Pay Bill Online from 254721417560 - ANDREW SANDE Acc. JBJ,Completed,16000,,109000,TRUE,Pay Bill Online,254721417560 - ANDREW SANDE,,JBJ
QH35M3CHE7,03/08/2022 21:08,03/08/2022 21:08,Pay Bill Online from 0758001057 - sahara mohamed edow Acc. IGF,Completed,10000,,93000,TRUE,Pay Bill Online,0758001057 - sahara mohamed edow,,IGF
QH31LN5FWZ,03/08/2022 18:34,03/08/2022 18:34,Pay Bill Online from 254721974995 - BERNICE MANGOKA Acc. KFK,Completed,16000,,83000,TRUE,Pay Utility with OD Online,254721974995 - BERNICE MANGOKA,,KFK
QH34LHORMS,03/08/2022 17:39,03/08/2022 17:39,Pay Bill from 254723499628 - CLINTON JOSEPH MUHARI Acc. hfh,Completed,16000,,67000,TRUE,Pay Utility,254723499628 - CLINTON JOSEPH MUHARI,,hfh
QH38L7QS1K,03/08/2022 15:42,03/08/2022 15:42,Pay Bill from 254724477912 - SAMUEL MURIMI Acc. HCD,Completed,10000,,51000,TRUE,Pay Utility,254724477912 - SAMUEL MURIMI,,HCD
QH38L79T48,03/08/2022 15:36,03/08/2022 15:36,Pay Bill from 0769714506 - edith      gakii Acc. DDB,Completed,16000,,41000,TRUE,Pay Utility with OD via STK,0769714506 - edith      gakii,,DDB
QH38KSF8RU,03/08/2022 12:23,03/08/2022 12:23,Pay Bill Online from 254708300413 - ROBINSON AYAKO Acc. KEH,Completed,10000,,25000,TRUE,Pay Bill Online,254708300413 - ROBINSON AYAKO,,KEH
QH38KS3SUO,03/08/2022 12:19,03/08/2022 12:19,Pay Bill from 254725771056 - CHARLES MURAGURI Acc. FCE,Completed,15000,,15000,TRUE,Pay Utility,254725771056 - CHARLES MURAGURI,,FCE
QH39KPBFMV,03/08/2022 11:41,03/08/2022 11:41,Utility Account to Organization Settlement Account,Completed,,-286000,0,TRUE,Utility Account to Organization Settlement Account,979524 - ANCIENT WELLS PROPERTY MANAGERS 2,,
QH33KP17CD,03/08/2022 11:37,03/08/2022 11:37,Pay Bill from 254719398942 - NORAH WAYUA MUNYAO Acc. KDA,Completed,16000,,286000,TRUE,Pay Utility,254719398942 - NORAH WAYUA MUNYAO,,KDA
QH37KNDR77,03/08/2022 11:15,03/08/2022 11:15,Pay Bill from 254723017892 - JUDY MUTHEU Acc. ICI,Completed,16000,,270000,TRUE,Pay Utility,254723017892 - JUDY MUTHEU,,ICI
QH34KJ7VYS,03/08/2022 10:17,03/08/2022 10:17,Pay Bill from 254722263593 - GLADYS KAMAU Acc. kcj,Completed,16000,,254000,TRUE,Pay Utility,254722263593 - GLADYS KAMAU,,kcj
QH38KDC4FO,03/08/2022 08:48,03/08/2022 08:48,Pay Bill from 254724852503 - GEOFREY YEGO Acc. JFF,Completed,10000,,238000,TRUE,Pay Utility,254724852503 - GEOFREY YEGO,,JFF
QH33K9TMJT,03/08/2022 07:45,03/08/2022 07:45,Pay Bill Online from 254792584569 - LUCY MWALIMO Acc. IAD,Completed,11000,,228000,TRUE,Pay Bill Online,254792584569 - LUCY MWALIMO,,IAD
QH26K4E5LC,02/08/2022 23:16,02/08/2022 23:16,Pay Bill Online from 254711562428 - Lionel Mutune Muoka Acc. KDI,Completed,11000,,217000,TRUE,Pay Bill Online,254711562428 - Lionel Mutune Muoka,,KDI
QH23K40SZ1,02/08/2022 23:01,02/08/2022 23:01,Pay Bill Online from 254715764212 - BANCE ISHEMINYE Acc. JFE,Completed,3000,,206000,TRUE,Pay Bill Online,254715764212 - BANCE ISHEMINYE,,JFE
QH21K1Q8OH,02/08/2022 21:58,02/08/2022 21:58,Pay Bill Online from 254721714178 - PHANICE JEROTICH KIPTOO Acc. FBF,Completed,16000,,203000,TRUE,Pay Bill Online,254721714178 - PHANICE JEROTICH KIPTOO,,FBF
QH25JZZC3V,02/08/2022 21:28,02/08/2022 21:28,Pay Bill from 254728084427 - MARY NABWIRE OKELLO Acc. FDF,Completed,16000,,187000,TRUE,Pay Utility,254728084427 - MARY NABWIRE OKELLO,,FDF
QH24JX6BJ6,02/08/2022 20:49,02/08/2022 20:49,Pay Bill Online from 254799946039 - LUIS OTIENO Acc. IAE,Completed,8000,,171000,TRUE,Pay Bill Online,254799946039 - LUIS OTIENO,,IAE
QH20JX18GI,02/08/2022 20:48,02/08/2022 20:48,Pay Bill from 254722136450 - MARY EVERLYN Acc. JAI,Completed,20000,,163000,TRUE,Pay Utility,254722136450 - MARY EVERLYN,,JAI
QH29JVLHPB,02/08/2022 20:31,02/08/2022 20:31,Pay Bill Online from 254722258756 - DAVID KEMBOI Acc. HDA,Completed,18000,,143000,TRUE,Pay Utility with OD Online,254722258756 - DAVID KEMBOI,,HDA
QH29JSH11D,02/08/2022 19:59,02/08/2022 19:59,Pay Bill Online from 254714563486 - BRIAN MMATA MUSERA Acc. KBJ,Completed,16000,,125000,TRUE,Pay Bill Online,254714563486 - BRIAN MMATA MUSERA,,KBJ
QH26JQI8ZU,02/08/2022 19:41,02/08/2022 19:41,Pay Bill from 254725754547 - MWACHIRO GEORGE DECHE Acc. DFC,Completed,20000,,109000,TRUE,Pay Utility,254725754547 - MWACHIRO GEORGE DECHE,,DFC
QH28JOQR34,02/08/2022 19:26,02/08/2022 19:26,Pay Bill from 254725062550 - FRANKLINE MASSAM Acc. KAF,Completed,10000,,89000,TRUE,Pay Utility,254725062550 - FRANKLINE MASSAM,,KAF
QH21JHZGKT,02/08/2022 18:25,02/08/2022 18:25,Pay Bill from 0114765287 - JUDELEEN SHILOBELE AHINDUKHA Acc. IEA,Completed,15000,,79000,TRUE,Pay Utility,0114765287 - JUDELEEN SHILOBELE AHINDUKHA,,IEA
QH23JHTHH9,02/08/2022 18:23,02/08/2022 18:23,Pay Bill from 0726465363 - ISAAC KITONGA JOSEPH Acc. IDG,Completed,10000,,64000,TRUE,Pay Utility,0726465363 - ISAAC KITONGA JOSEPH,,IDG
QH26JF8ER8,02/08/2022 17:57,02/08/2022 17:57,Pay Bill Online from 254714855708 - KIPLANGAT SITIENEI Acc. FAE,Completed,16000,,54000,TRUE,Pay Bill Online,254714855708 - KIPLANGAT SITIENEI,,FAE
QH26J6IR92,02/08/2022 16:19,02/08/2022 16:19,Pay Bill Online from 0711117122 - Yassir Mwinyi Abdulrazaq Acc. ICE,Completed,6000,,38000,TRUE,Pay Bill Online,0711117122 - Yassir Mwinyi Abdulrazaq,,ICE
QH28J4T86M,02/08/2022 15:57,02/08/2022 15:57,Pay Bill from 254717726012 - WINFRED MUENI PETER Acc. IDA,Completed,16000,,32000,TRUE,Pay Utility with OD via STK,254717726012 - WINFRED MUENI PETER,,IDA
QH26J4KKZI,02/08/2022 15:54,02/08/2022 15:54,Pay Bill from 254711123196 - JUDITH MUTUA Acc. Fea,Completed,16000,,16000,TRUE,Pay Utility,254711123196 - JUDITH MUTUA,,Fea
QH21J4B5WF,02/08/2022 15:50,02/08/2022 15:50,Utility Account to Organization Settlement Account,Completed,,-114500,0,TRUE,Utility Account to Organization Settlement Account,979524 - ANCIENT WELLS PROPERTY MANAGERS 2,,
QH22J1KXCM,02/08/2022 15:15,02/08/2022 15:15,Pay Bill Online from 254720107609 - DENNIS OGENDI BARAKE Acc. JAJ,Completed,15000,,114500,TRUE,Pay Bill Online,254720107609 - DENNIS OGENDI BARAKE,,JAJ
QH29IUWJFF,02/08/2022 13:46,02/08/2022 13:46,Pay Bill Online from 254792187144 - HASSAN AHMED HASSAN Acc. KGI,Completed,10000,,99500,TRUE,Pay Bill Online,254792187144 - HASSAN AHMED HASSAN,,KGI
QH24IRAB2Q,02/08/2022 12:57,02/08/2022 12:57,Pay Bill Online from 254721465713 - RHODA WAMBUI MWANGI Acc. Jfh,Completed,17000,,89500,TRUE,Pay Bill Online,254721465713 - RHODA WAMBUI MWANGI,,Jfh
QH27IQNJXX,02/08/2022 12:49,02/08/2022 12:49,Pay Bill Online from 254726001437 - FESTUS MUNYIRI MAINA Acc. IFF,Completed,10000,,72500,TRUE,Pay Bill Online,254726001437 - FESTUS MUNYIRI MAINA,,IFF
QH24IP8RUQ,02/08/2022 12:30,02/08/2022 12:30,Pay Bill from 254708079935 - JACKLINE WANJIKO NAMBOSO Acc. f b d,Completed,23000,,62500,TRUE,Pay Utility,254708079935 - JACKLINE WANJIKO NAMBOSO,,f
QH20IJ44S2,02/08/2022 11:05,02/08/2022 11:05,Pay Bill Online from 254706898046 - STACY AKETCH OCHUKA Acc. KGK,Completed,11500,,39500,TRUE,Pay Bill Online,254706898046 - STACY AKETCH OCHUKA,,KGK
QH28IFAV5O,02/08/2022 10:11,02/08/2022 10:11,Pay Bill from 0748059595 - Rashid NASSIR Khamis Acc. DDA,Completed,17000,,28000,TRUE,Pay Utility,0748059595 - Rashid NASSIR Khamis,,DDA
QH24IF0QQY,02/08/2022 10:07,02/08/2022 10:07,Pay Bill from 254719747910 - KEVIN NDERITU GAKINGO Acc. IDD,Completed,11000,,11000,TRUE,Pay Utility,254719747910 - KEVIN NDERITU GAKINGO,,IDD
QH22I8E3RM,02/08/2022 08:25,02/08/2022 08:25,Utility Account to Organization Settlement Account,Completed,,-444000,0,TRUE,Utility Account to Organization Settlement Account,979524 - ANCIENT WELLS PROPERTY MANAGERS 2,,
QH25I7NQKB,02/08/2022 08:13,02/08/2022 08:13,Pay Bill Online from 254725218904 - SALOME MUTHONI MWANGI Acc. KFJ,Completed,15000,,444000,TRUE,Pay Bill Online,254725218904 - SALOME MUTHONI MWANGI,,KFJ
QH26I2EEX0,02/08/2022 03:49,02/08/2022 03:49,Pay Bill from 254720550403 - GRACE WANGONDU Acc. jfi,Completed,20000,,429000,TRUE,Pay Utility,254720550403 - GRACE WANGONDU,,jfi
QH12HY8GXY,01/08/2022 22:11,01/08/2022 22:11,Pay Bill from 254720407659 - FRANCIS CHUMO Acc. KDG,Completed,10000,,409000,TRUE,Pay Utility,254720407659 - FRANCIS CHUMO,,KDG
QH14HU47II,01/08/2022 21:05,01/08/2022 21:05,Pay Bill from 254708570729 - MARY OGOLLA Acc. House no.KAD,Completed,12000,,399000,TRUE,Pay Utility,254708570729 - MARY OGOLLA,,House
QH14HR5EIS,01/08/2022 20:30,01/08/2022 20:30,Pay Bill from 254726013909 - BRENDA OKISA AMUNGA Acc. KCD,Completed,15000,,387000,TRUE,Pay Utility,254726013909 - BRENDA OKISA AMUNGA,,KCD
QH17HPY54R,01/08/2022 20:18,01/08/2022 20:18,Pay Bill from 254724103759 - RICHARD NKAABO Acc. jej,Completed,16000,,372000,TRUE,Pay Utility,254724103759 - RICHARD NKAABO,,jej
QH15H7M93H,01/08/2022 17:35,01/08/2022 17:35,Pay Bill from 254722826454 - CHARLES KARIMI MAITAI Acc. KDC  Keila Nyambura,Completed,10000,,356000,TRUE,Pay Utility,254722826454 - CHARLES KARIMI MAITAI,,KDC
QH13H5DLL1,01/08/2022 17:12,01/08/2022 17:12,Pay Bill from 0717216114 - Felix Njeru Mugambi Acc. kdf,Completed,10000,,346000,TRUE,Pay Utility,0717216114 - Felix Njeru Mugambi,,kdf
QH18GX3510,01/08/2022 15:31,01/08/2022 15:31,Pay Bill from 254727766786 - JOHN MAITHA MULWA Acc. ibh,Completed,15000,,336000,TRUE,Pay Utility,254727766786 - JOHN MAITHA MULWA,,ibh
QH14GPWVK0,01/08/2022 13:54,01/08/2022 13:54,Pay Bill Online from 254704403532 - Mercy Chepchirchir Mary Acc. JBC,Completed,5000,,321000,TRUE,Pay Utility with OD Online,254704403532 - Mercy Chepchirchir Mary,,JBC
QH18GN13J6,01/08/2022 13:16,01/08/2022 13:16,Pay Bill Online from 254728093389 - MOHAMED MUSA ALASOW Acc. KED,Completed,12000,,316000,TRUE,Pay Bill Online,254728093389 - MOHAMED MUSA ALASOW,,KED
QH15GB31QX,01/08/2022 10:26,01/08/2022 10:26,Pay Bill Online from 0796121714 - janet   mwikali Acc. KBC,Completed,10000,,304000,TRUE,Pay Bill Online,0796121714 - janet   mwikali,,KBC
QH18GAYHTM,01/08/2022 10:24,01/08/2022 10:24,Pay Bill from 254798643998 - Judith Mwaniki Acc. KCE,Completed,10000,,294000,TRUE,Pay Utility,254798643998 - Judith Mwaniki,,KCE
QH12GAI698,01/08/2022 10:17,01/08/2022 10:17,Pay Bill from 254718244582 - GRANT WANANGWE Acc. KAH,Completed,10000,,284000,TRUE,Pay Utility,254718244582 - GRANT WANANGWE,,KAH
QH14G63L0I,01/08/2022 09:10,01/08/2022 09:10,Pay Bill from 254726651764 - NICHOLAS MWANZIA Acc. HBE,Completed,10500,,274000,TRUE,Pay Utility with OD via STK,254726651764 - NICHOLAS MWANZIA,,HBE
QH14G12IU2,01/08/2022 07:39,01/08/2022 07:39,Pay Bill from 254702355678 - JOHN NJOROGE GICHERU Acc. ITE,Completed,10000,,263500,TRUE,Pay Utility,254702355678 - JOHN NJOROGE GICHERU,,ITE
QH10G0VF4O,01/08/2022 07:34,01/08/2022 07:34,Pay Bill Online from 254795510441 - LEWIS MUEMA Acc. KEB,Completed,16000,,253500,TRUE,Pay Bill Online,254795510441 - LEWIS MUEMA,,KEB
QGV1FTPQI3,31/07/2022 22:31,31/07/2022 22:31,Pay Bill from 254717801919 - MARCELINE AKINYI Acc. IAF,Completed,10000,,237500,TRUE,Pay Utility,254717801919 - MARCELINE AKINYI,,IAF
QGV9FQZOI1,31/07/2022 21:35,31/07/2022 21:35,Pay Bill Online from 254717809935 - LYDIAH WERU Acc. IEF,Completed,11000,,227500,TRUE,Pay Bill Online,254717809935 - LYDIAH WERU,,IEF
QGV4FQD640,31/07/2022 21:25,31/07/2022 21:25,Pay Bill Online from 254718233980 - KAREN ASWANI Acc. HEC,Completed,10500,,216500,TRUE,Pay Bill Online,254718233980 - KAREN ASWANI,,HEC
QGV9FQ9LPN,31/07/2022 21:24,31/07/2022 21:24,Pay Bill from 254703935626 - DAVID NGARI ITA Acc. FCD,Completed,1000,,206000,TRUE,Pay Utility with OD via STK,254703935626 - DAVID NGARI ITA,,FCD
QGV1F9JPUN,31/07/2022 18:25,31/07/2022 18:25,Pay Bill Online from 254729097858 - AMBROSE ADEYA AHAWO Acc. KCF,Completed,10000,,205000,TRUE,Pay Bill Online,254729097858 - AMBROSE ADEYA AHAWO,,KCF
QGV3F8IQDD,31/07/2022 18:14,31/07/2022 18:14,Pay Bill from 254718513411 - Michelle mwangi Acc. HAD,Completed,10000,,195000,TRUE,Pay Utility,254718513411 - Michelle mwangi,,HAD
QGV3F7O11Z,31/07/2022 18:04,31/07/2022 18:04,Pay Bill from 254722743980 - BENSON MEMUSI KOIKAI Acc. IBD,Completed,11000,,185000,TRUE,Pay Utility,254722743980 - BENSON MEMUSI KOIKAI,,IBD
QGV8F6MAKU,31/07/2022 17:52,31/07/2022 17:52,Pay Bill from 254703555717 - SENGA SALIM Acc. hbb,Completed,5000,,174000,TRUE,Pay Utility,254703555717 - SENGA SALIM,,hbb
QGV4F4IJ6C,31/07/2022 17:27,31/07/2022 17:27,Pay Bill Online from 254703180395 - JANE NYAGUTHII MWAGO Acc. IBE,Completed,8000,,169000,TRUE,Pay Bill Online,254703180395 - JANE NYAGUTHII MWAGO,,IBE
QGV5EZ3A4J,31/07/2022 16:16,31/07/2022 16:16,Pay Bill Online from 254729796719 - JACINTA WANJIKU NJERI Acc. FFF,Completed,17000,,161000,TRUE,Pay Bill Online,254729796719 - JACINTA WANJIKU NJERI,,FFF
QGV3EMZHV9,31/07/2022 13:23,31/07/2022 13:23,Pay Bill Online from 254706784429 - ROSE JEPKOECH RUTTO Acc. IFI,Completed,15000,,144000,TRUE,Pay Bill Online,254706784429 - ROSE JEPKOECH RUTTO,,IFI
QGV6E4HFGU,31/07/2022 07:59,31/07/2022 07:59,Pay Bill from 254741573910 - VINCENT ODUOR OLIENG Acc. HBC,Completed,10000,,129000,TRUE,Pay Utility,254741573910 - VINCENT ODUOR OLIENG,,HBC
QGV4E0PO9W,31/07/2022 02:31,31/07/2022 02:31,Pay Bill Online from 254700187806 - WINNIE OLIVIA AKOTH Acc. jec,Completed,10000,,119000,TRUE,Pay Bill Online,254700187806 - WINNIE OLIVIA AKOTH,,jec
QGU5DXU34R,30/07/2022 22:56,30/07/2022 22:56,Pay Bill Online from 254723901777 - EVANS YEBEI Acc. KCH,Completed,10000,,109000,TRUE,Pay Bill Online,254723901777 - EVANS YEBEI,,KCH
QGU6DTZOBO,30/07/2022 21:36,30/07/2022 21:36,Pay Bill from 254702152790 - Michelle Ndunge Kyalo Acc. IDE,Completed,8000,,99000,TRUE,Pay Utility,254702152790 - Michelle Ndunge Kyalo,,IDE
QGU1D3AEDN,30/07/2022 17:05,30/07/2022 17:05,Pay Bill from 254711650034 - Lucky Ngoya Acc. JAA,Completed,20000,,91000,TRUE,Pay Utility,254711650034 - Lucky Ngoya,,JAA
QGU0CZ5580,30/07/2022 16:15,30/07/2022 16:15,Pay Bill Online from 254726593769 - BONFACE BWINA Acc. DEB,Completed,16000,,71000,TRUE,Pay Bill Online,254726593769 - BONFACE BWINA,,DEB
QGU2CUT5LA,30/07/2022 15:20,30/07/2022 15:20,Pay Bill from 254724201046 - GIDEON NDOLO Acc. kfh,Completed,10000,,55000,TRUE,Pay Utility,254724201046 - GIDEON NDOLO,,kfh
QGU9CQ1WNZ,30/07/2022 14:18,30/07/2022 14:18,Pay Bill from 254723954911 - JAMES KILAVI Acc. ICG,Completed,9500,,45000,TRUE,Pay Utility,254723954911 - JAMES KILAVI,,ICG
QGU9CL0GZ5,30/07/2022 13:13,30/07/2022 13:13,Pay Bill from 254723389177 - NELSON MOI Acc. ibf,Completed,5500,,35500,TRUE,Pay Utility,254723389177 - NELSON MOI,,ibf
QGU2CIS0OK,30/07/2022 12:43,30/07/2022 12:43,Business Pay Bill by 488519 - NCBA  Bank M-pesa Acc. DCC via API,Completed,20000,,30000,TRUE,Business Pay Bill via API,488519 - NCBA  Bank M-pesa,,DCC
QGU6CIQ2E4,30/07/2022 12:42,30/07/2022 12:42,Pay Bill Online from 254706158280 - patience mutheu mbevi Acc. KFC,Completed,10000,,10000,TRUE,Pay Bill Online,254706158280 - patience mutheu mbevi,,KFC
QGU5CEJLCR,30/07/2022 11:46,30/07/2022 11:46,Utility Account to Organization Settlement Account,Completed,,-288500,0,TRUE,Utility Account to Organization Settlement Account,979524 - ANCIENT WELLS PROPERTY MANAGERS 2,,
QGU7C1GGDT,30/07/2022 08:31,30/07/2022 08:31,Pay Bill Online from 254716784364 - Wendy Kemunto Nyandiko Acc. ffc,Completed,9000,,288500,TRUE,Pay Bill Online,254716784364 - Wendy Kemunto Nyandiko,,ffc
QGU7BXK63J,30/07/2022 07:05,30/07/2022 07:05,Pay Bill from 254722910078 - MAUREEN MUNYIVA MUTUKU Acc. DCD,Completed,30000,,279500,TRUE,Pay Utility,254722910078 - MAUREEN MUNYIVA MUTUKU,,DCD
QGT1BT4EET,29/07/2022 23:33,29/07/2022 23:33,Pay Bill from 254703935626 - DAVID NGARI ITA Acc. FCD,Completed,1000,,249500,TRUE,Pay Utility,254703935626 - DAVID NGARI ITA,,FCD
QGT3BFB7A9,29/07/2022 19:50,29/07/2022 19:50,Pay Bill from 254717438676 - SHIHAB THIIRU Acc. IEI,Completed,15000,,248500,TRUE,Pay Utility,254717438676 - SHIHAB THIIRU,,IEI
QGT5BDJOCB,29/07/2022 19:35,29/07/2022 19:35,Pay Bill Online from 254722917617 - MOSES BARBOI Acc. KAI,Completed,12000,,233500,TRUE,Pay Bill Online,254722917617 - MOSES BARBOI,,KAI
QGT9BDA2OT,29/07/2022 19:32,29/07/2022 19:32,Pay Bill Online from 254723411873 - FREDRICK CHERUIYOT Acc. Jbf,Completed,8000,,221500,TRUE,Pay Bill Online,254723411873 - FREDRICK CHERUIYOT,,Jbf
QGT8B4GT3K,29/07/2022 18:14,29/07/2022 18:14,Pay Bill from 254724201046 - GIDEON NDOLO Acc. KFH,Completed,11000,,213500,TRUE,Pay Utility,254724201046 - GIDEON NDOLO,,KFH
QGT6AY4DR8,29/07/2022 17:07,29/07/2022 17:07,Pay Bill Online from 254716315144 - PETER MUNYIRI WAROTERE Acc. FBB,Completed,16000,,202500,TRUE,Pay Bill Online,254716315144 - PETER MUNYIRI WAROTERE,,FBB
QGT8AWBLJU,29/07/2022 16:46,29/07/2022 16:46,Pay Bill Online from 254745661722 - MUHAMEDMALIK GAAL Acc. DEC,Completed,10000,,186500,TRUE,Pay Bill Online,254745661722 - MUHAMEDMALIK GAAL,,DEC
QGT9AVJM93,29/07/2022 16:36,29/07/2022 16:36,Pay Bill from 254703528196 - ERIC GITONGA MUGO Acc. KGJ,Completed,25000,,176500,TRUE,Pay Utility,254703528196 - ERIC GITONGA MUGO,,KGJ
QGT3AV8Y9B,29/07/2022 16:33,29/07/2022 16:33,Pay Bill from 254720739274 - GODFREY ODHIAMBO OYUGI Acc. kae,Completed,2500,,151500,TRUE,Pay Utility,254720739274 - GODFREY ODHIAMBO OYUGI,,kae
QGT6ASQCU0,29/07/2022 16:00,29/07/2022 16:00,Pay Bill from 254710239100 - PHILOMENA WOKI MUTHAMA Acc. KDK,Completed,17000,,149000,TRUE,Pay Utility,254710239100 - PHILOMENA WOKI MUTHAMA,,KDK
QGT2AQH086,29/07/2022 15:30,29/07/2022 15:30,Pay Bill from 254719499823 - MOSES MWANZIA MUTHIANI Acc. Jcc,Completed,10000,,132000,TRUE,Pay Utility,254719499823 - MOSES MWANZIA MUTHIANI,,Jcc
QGT4ALN8E8,29/07/2022 14:24,29/07/2022 14:24,Pay Bill from 254769508804 - Lydia Watiri Irungu Acc. v 31,Completed,17500,,122000,TRUE,Pay Utility,254769508804 - Lydia Watiri Irungu,,v
QGT2AFJSPU,29/07/2022 13:00,29/07/2022 13:00,Pay Bill from 254729258441 - ROBERT RONO KULEI Acc. JAB,Completed,5500,,104500,TRUE,Pay Utility,254729258441 - ROBERT RONO KULEI,,JAB
QGT7ACMP2V,29/07/2022 12:18,29/07/2022 12:18,Pay Bill Online from 254707370896 - OKECH BRIAN BRIAN Acc. FFA,Completed,15000,,99000,TRUE,Pay Bill Online,254707370896 - OKECH BRIAN BRIAN,,FFA
QGS79PDC71,28/07/2022 22:43,28/07/2022 22:43,Pay Bill from 254703935626 - DAVID NGARI ITA Acc. FCD,Completed,1000,,84000,TRUE,Pay Utility with OD via STK,254703935626 - DAVID NGARI ITA,,FCD
QGS299A3CO,28/07/2022 19:19,28/07/2022 19:19,Business Pay Bill by 488519 - NCBA  Bank M-pesa Acc. ICC via API,Completed,9000,,83000,TRUE,Business Pay Bill via API,488519 - NCBA  Bank M-pesa,,ICC
QGS696NXVO,28/07/2022 18:57,28/07/2022 18:57,Pay Bill Online from 0791158325 - WHELDON MARK MASONGO GORI Acc. JAD,Completed,15000,,74000,TRUE,Pay Bill Online,0791158325 - WHELDON MARK MASONGO GORI,,JAD
QGS28R7A0K,28/07/2022 16:05,28/07/2022 16:05,Pay Bill Online from 254727554512 - COLLINS KOECH Acc. JDJ,Completed,15000,,59000,TRUE,Pay Bill Online,254727554512 - COLLINS KOECH,,JDJ
QGS58Q2UEZ,28/07/2022 15:49,28/07/2022 15:49,Pay Bill from 254715865256 - RABECCA NABEA Acc.  JDG,Completed,10000,,44000,TRUE,Pay Utility,254715865256 - RABECCA NABEA,,
QGS58Q03HV,28/07/2022 15:48,28/07/2022 15:48,Pay Bill from 254796848496 - IVY WITABA Acc. JBA,Completed,20000,,34000,TRUE,Pay Utility,254796848496 - IVY WITABA,,JBA
QGS08CCABC,28/07/2022 12:33,28/07/2022 12:33,Pay Bill Online from 254700379039 - MARTIN KIMANI Acc. KCI,Completed,12000,,14000,TRUE,Pay Bill Online,254700379039 - MARTIN KIMANI,,KCI
QGS38BNNKN,28/07/2022 12:23,28/07/2022 12:23,Pay Bill from 254720814822 - JAMES OTIENO OPAR Acc. Jgj,Completed,2000,,2000,TRUE,Pay Utility,254720814822 - JAMES OTIENO OPAR,,Jgj
QGS187P2NV,28/07/2022 11:24,28/07/2022 11:24,Utility Account to Organization Settlement Account,Completed,,-129700,0,TRUE,Utility Account to Organization Settlement Account,979524 - ANCIENT WELLS PROPERTY MANAGERS 2,,
QGS886TKP0,28/07/2022 11:11,28/07/2022 11:11,Pay Bill from 254723606895 - ABDINASI DAHIR Acc. KAB ,Completed,2500,,129700,TRUE,Pay Utility,254723606895 - ABDINASI DAHIR,,KAB
QGS186FT5N,28/07/2022 11:05,28/07/2022 11:05,Pay Bill from 254725326537 - PATRICK KIPLAGAT Acc. KAG,Completed,3000,,127200,TRUE,Pay Utility,254725326537 - PATRICK KIPLAGAT,,KAG
QGS885X56Q,28/07/2022 10:57,28/07/2022 10:57,Pay Bill from 254719439717 - Cecilia Omondi Acc. HFC,Completed,9000,,124200,TRUE,Pay Utility,254719439717 - Cecilia Omondi,,HFC
QGS27YTIZ4,28/07/2022 09:05,28/07/2022 09:05,Pay Bill Online from 254724211857 - OCHUODHO OUMA Acc. KBK,Completed,17000,,115200,TRUE,Pay Bill Online,254724211857 - OCHUODHO OUMA,,KBK
QGR97OFUH1,27/07/2022 22:42,27/07/2022 22:42,Pay Bill from 254724640470 - MICHAEL NYAMU Acc. hae,Completed,3000,,98200,TRUE,Pay Utility with OD via STK,254724640470 - MICHAEL NYAMU,,hae
QGR87LQ96E,27/07/2022 21:41,27/07/2022 21:41,Pay Bill from 254703935626 - DAVID NGARI ITA Acc. FCD,Completed,1000,,95200,TRUE,Pay Utility,254703935626 - DAVID NGARI ITA,,FCD
QGR27K9KWO,27/07/2022 21:19,27/07/2022 21:19,Pay Bill from 254719160860 - CHRISPINUS MUSIKO ODHIAMBO Acc. DFD,Completed,20000,,94200,TRUE,Pay Utility,254719160860 - CHRISPINUS MUSIKO ODHIAMBO,,DFD
QGR978XTKH,27/07/2022 19:22,27/07/2022 19:22,Pay Bill from 0722481884 - ERICK ODHIAMBO MURABULA Acc. hae,Completed,18000,,74200,TRUE,Pay Utility,0722481884 - ERICK ODHIAMBO MURABULA,,hae
QGR66U7P6W,27/07/2022 16:52,27/07/2022 16:52,Pay Bill from 254720496449 - STANLEY KIPKOECH RONO Acc. FBE,Completed,3000,,56200,TRUE,Pay Utility,254720496449 - STANLEY KIPKOECH RONO,,FBE
QGR96TZBF3,27/07/2022 16:49,27/07/2022 16:49,Pay Bill from 254720883049 - SIMON AMUKOCHE Acc. IED,Completed,7200,,53200,TRUE,Pay Utility,254720883049 - SIMON AMUKOCHE,,IED
QGR36KWXF7,27/07/2022 14:42,27/07/2022 14:42,Pay Bill from 254758140048 - ABDULKADIR ABASS DAHIR Acc. KAB,Completed,5500,,46000,TRUE,Pay Utility,254758140048 - ABDULKADIR ABASS DAHIR,,KAB
QGR96F9PBD,27/07/2022 13:20,27/07/2022 13:20,Pay Bill from 0758591833 - DORCUS MBULA PETER Acc. HDD,Completed,9000,,40500,TRUE,Pay Utility,0758591833 - DORCUS MBULA PETER,,HDD
QGR06CCSPC,27/07/2022 12:38,27/07/2022 12:38,Pay Bill from 254114394078 - pascaline iteriteka Acc. JEG,Completed,11000,,31500,TRUE,Pay Utility,254114394078 - pascaline iteriteka,,JEG
QGR56AQRDX,27/07/2022 12:13,27/07/2022 12:13,Pay Bill Online from 254717463608 - DANIEL MUNIU MUGURE Acc. HGE,Completed,10000,,20500,TRUE,Pay Bill Online,254717463608 - DANIEL MUNIU MUGURE,,HGE
QGR460FRGA,27/07/2022 09:32,27/07/2022 09:32,Pay Bill Online from 254707726441 - JOHN OLOO NYAULA Acc. IEH,Completed,10500,,10500,TRUE,Pay Bill Online,254707726441 - JOHN OLOO NYAULA,,IEH
QGR35UUM2T,27/07/2022 07:49,27/07/2022 07:49,Utility Account to Organization Settlement Account,Completed,,-151500,0,TRUE,Utility Account to Organization Settlement Account,979524 - ANCIENT WELLS PROPERTY MANAGERS 2,,
QGQ65KNOPE,26/07/2022 21:16,26/07/2022 21:16,Pay Bill from 254704140048 - MAUREEN GACHERI KINYUA Acc. JDD,Completed,15000,,151500,TRUE,Pay Utility,254704140048 - MAUREEN GACHERI KINYUA,,JDD
QGQ85IYKGA,26/07/2022 20:52,26/07/2022 20:52,Pay Bill from 254700811449 - JOHN MULIMA ENANE Acc. HCE,Completed,10500,,136500,TRUE,Pay Utility,254700811449 - JOHN MULIMA ENANE,,HCE
QGQ35FUZTT,26/07/2022 20:16,26/07/2022 20:16,Pay Bill from 254717909848 - MARY MBULA KATHUKU Acc. FGD,Completed,5000,,126000,TRUE,Pay Utility with OD via STK,254717909848 - MARY MBULA KATHUKU,,FGD
QGQ94UZWUX,26/07/2022 16:44,26/07/2022 16:44,Pay Bill from 254726599835 - LAWRENCE MURIITHI Acc. KDJ,Completed,16000,,121000,TRUE,Pay Utility,254726599835 - LAWRENCE MURIITHI,,KDJ
QGQ24QQ5B0,26/07/2022 15:45,26/07/2022 15:45,Pay Bill from 254715208293 - METHOD AMOLO Acc. Kiosk,Completed,7000,,105000,TRUE,Pay Utility,254715208293 - METHOD AMOLO,,Kiosk
QGQ24NLIY2,26/07/2022 14:59,26/07/2022 14:59,Pay Bill from 254703935626 - DAVID NGARI ITA Acc. FCD,Completed,1000,,98000,TRUE,Pay Utility,254703935626 - DAVID NGARI ITA,,FCD
QGQ64LVOOW,26/07/2022 14:33,26/07/2022 14:33,Pay Bill Online from 254728364280 - EMMANUEL THUMA OYIER Acc. IBI,Completed,16000,,97000,TRUE,Pay Bill Online,254728364280 - EMMANUEL THUMA OYIER,,IBI
QGQ74ISRJV,26/07/2022 13:49,26/07/2022 13:49,Pay Bill Online from 254725385966 - JOSEPH MUYA MARUA Acc. KEE,Completed,10000,,81000,TRUE,Pay Bill Online,254725385966 - JOSEPH MUYA MARUA,,KEE
QGQ04HGFPI,26/07/2022 13:30,26/07/2022 13:30,Pay Bill from 254723341864 - WILLIAM OSIEL WACHUDI Acc. DED,Completed,20000,,71000,TRUE,Pay Utility,254723341864 - WILLIAM OSIEL WACHUDI,,DED
QGQ64FAI3Q,26/07/2022 12:59,26/07/2022 12:59,Pay Bill from 0740488793 - Twince   Korir Acc. DGC,Completed,19000,,51000,TRUE,Pay Utility,0740488793 - Twince   Korir,,DGC
QGQ84DLTW4,26/07/2022 12:34,26/07/2022 12:34,Pay Bill from 254728888511 - HAMISI MIRITI Acc. KAK,Completed,16000,,32000,TRUE,Pay Utility,254728888511 - HAMISI MIRITI,,KAK
QGQ54BSFJD,26/07/2022 12:07,26/07/2022 12:07,Pay Bill from 0721130307 - HILLARY NGUNYI MUTINDA Acc. JCH,Completed,16000,,16000,TRUE,Pay Utility,0721130307 - HILLARY NGUNYI MUTINDA,,JCH
QGQ344GTTL,26/07/2022 10:14,26/07/2022 10:14,Utility Account to Organization Settlement Account,Completed,,-333500,0,TRUE,Utility Account to Organization Settlement Account,979524 - ANCIENT WELLS PROPERTY MANAGERS 2,,
QGQ83UTCWC,26/07/2022 07:09,26/07/2022 07:09,Pay Bill from 254716702294 - DANIEL MULATI Acc. KBB,Completed,9000,,333500,TRUE,Pay Utility,254716702294 - DANIEL MULATI,,KBB
QGP13QNWRP,25/07/2022 22:51,25/07/2022 22:51,Pay Bill Online from 254716579300 - BRIAN KIPKOECH RONO Acc. HEH,Completed,16000,,324500,TRUE,Pay Bill Online,254716579300 - BRIAN KIPKOECH RONO,,HEH
QGP737JKDF,25/07/2022 18:46,25/07/2022 18:46,Pay Bill from 254717909848 - MARY MBULA KATHUKU Acc. FGD,Completed,4000,,308500,TRUE,Pay Utility with OD via STK,254717909848 - MARY MBULA KATHUKU,,FGD
QGP330QAR7,25/07/2022 17:34,25/07/2022 17:34,Pay Bill Online from 0758506934 - Edgar Maxwel Wanguba Acc. IFG,Completed,8000,,304500,TRUE,Pay Bill Online,0758506934 - Edgar Maxwel Wanguba,,IFG
QGP52TXR1X,25/07/2022 16:07,25/07/2022 16:07,Pay Bill from 254729557859 - AUDREY KASINDAHA KASINDAHA Acc. KFB ,Completed,16000,,296500,TRUE,Pay Utility,254729557859 - AUDREY KASINDAHA KASINDAHA,,KFB
QGP32TKB5V,25/07/2022 16:01,25/07/2022 16:01,Pay Bill from 254704111133 - ELVIS OTIENO Acc. HFD,Completed,5000,,280500,TRUE,Pay Utility,254704111133 - ELVIS OTIENO,,HFD
QGP42S325O,25/07/2022 15:40,25/07/2022 15:40,Pay Bill from 254704111133 - ELVIS OTIENO Acc. HFD,Completed,1000,,275500,TRUE,Pay Utility,254704111133 - ELVIS OTIENO,,HFD
QGP82MCXVS,25/07/2022 14:15,25/07/2022 14:15,Pay Bill Online from 254723370004 - LABAN MAINGI WAMBUA Acc. JEF,Completed,15000,,274500,TRUE,Pay Bill Online,254723370004 - LABAN MAINGI WAMBUA,,JEF
QGP423KRWU,25/07/2022 09:32,25/07/2022 09:32,Pay Bill Online from 254701683737 - MICHAEL NGUGI Acc. HDB,Completed,16000,,259500,TRUE,Pay Bill Online,254701683737 - MICHAEL NGUGI,,HDB
QGP61ZSI6I,25/07/2022 08:26,25/07/2022 08:26,Pay Bill from 254713662892 - DAVID JUMA KIPTOCH Acc. JBE,Completed,8500,,243500,TRUE,Pay Utility,254713662892 - DAVID JUMA KIPTOCH,,JBE
QGO6ZH7FHK,24/07/2022 11:28,24/07/2022 11:28,Pay Bill from 0722143918 - STELLA WAIRIMU GITAU Acc. DDC,Completed,41000,,235000,TRUE,Pay Utility,0722143918 - STELLA WAIRIMU GITAU,,DDC
QGO8Z9ZFEA,24/07/2022 09:12,24/07/2022 09:12,Pay Bill from 254743716845 - Winfred Mwikali Nyamai Acc. FEF,Completed,34000,,194000,TRUE,Pay Utility,254743716845 - Winfred Mwikali Nyamai,,FEF
QGN2YMXY5Y,23/07/2022 19:42,23/07/2022 19:42,Pay Bill from 254722444622 - CHARITY KAGWAINI Acc. ffd,Completed,5500,,160000,TRUE,Pay Utility,254722444622 - CHARITY KAGWAINI,,ffd
QGN3Y5DV9B,23/07/2022 16:37,23/07/2022 16:37,Business Pay Bill by 488519 - NCBA  Bank M-pesa Acc. ICC via API,Completed,10000,,154500,TRUE,Business Pay Bill via API,488519 - NCBA  Bank M-pesa,,ICC
QGN3XRMQR3,23/07/2022 13:24,23/07/2022 13:24,Pay Bill from 0720015317 - mohamed maalim hassan Acc. fbc,Completed,9500,,144500,TRUE,Pay Utility,0720015317 - mohamed maalim hassan,,fbc
QGN9XIDN9D,23/07/2022 11:08,23/07/2022 11:08,Pay Bill from 0757259130 - RASHID SUDI MCHOMBO Acc. JAF,Completed,3000,,135000,TRUE,Pay Utility,0757259130 - RASHID SUDI MCHOMBO,,JAF
QGN8X8I2KC,23/07/2022 08:24,23/07/2022 08:24,Pay Bill from 0757259130 - RASHID SUDI MCHOMBO Acc. JAF,Completed,2000,,132000,TRUE,Pay Utility,0757259130 - RASHID SUDI MCHOMBO,,JAF
QGN3X3QPDN,23/07/2022 04:18,23/07/2022 04:18,Pay Bill from 254720496449 - STANLEY KIPKOECH RONO Acc. FBE,Completed,5000,,130000,TRUE,Pay Utility with OD via STK,254720496449 - STANLEY KIPKOECH RONO,,FBE
QGM9X02N4H,22/07/2022 22:32,22/07/2022 22:32,Pay Bill from 254703935626 - DAVID NGARI ITA Acc. FCD,Completed,1000,,125000,TRUE,Pay Utility,254703935626 - DAVID NGARI ITA,,FCD
QGM1WS7153,22/07/2022 20:29,22/07/2022 20:29,Pay Bill Online from 254710965167 - KUSA STEPHANIE HAZEL Acc. JDC,Completed,11000,,124000,TRUE,Pay Bill Online,254710965167 - KUSA STEPHANIE HAZEL,,JDC
QGM2WN1MF4,22/07/2022 19:39,22/07/2022 19:39,Pay Bill from 0757758972 - BETH MUTHONI KASYOKA Acc. DEA,Completed,16000,,113000,TRUE,Pay Utility,0757758972 - BETH MUTHONI KASYOKA,,DEA
QGM6WI130W,22/07/2022 18:55,22/07/2022 18:55,Pay Bill from 0757337421 - HASSAN ISSACK BANTE Acc. KBF,Completed,10000,,97000,TRUE,Pay Utility,0757337421 - HASSAN ISSACK BANTE,,KBF
QGM7W8GD3Z,22/07/2022 17:12,22/07/2022 17:12,Pay Bill from 0722531422 - ANTHONY ITIMU MAINA Acc. JBD,Completed,16000,,87000,TRUE,Pay Utility,0722531422 - ANTHONY ITIMU MAINA,,JBD
QGM0W81YXM,22/07/2022 17:07,22/07/2022 17:07,Pay Bill from 254703555717 - SENGA SALIM Acc. hbb,Completed,2000,,71000,TRUE,Pay Utility,254703555717 - SENGA SALIM,,hbb
QGM1W5YXK7,22/07/2022 16:41,22/07/2022 16:41,Pay Bill from 254720739274 - GODFREY ODHIAMBO OYUGI Acc. kae,Completed,2500,,69000,TRUE,Pay Utility,254720739274 - GODFREY ODHIAMBO OYUGI,,kae
QGM6W014VS,22/07/2022 15:18,22/07/2022 15:18,Pay Bill from 0722950695 - Joshua Mbithi Kivondo Acc. 979524,Completed,10000,,66500,TRUE,Pay Utility,0722950695 - Joshua Mbithi Kivondo,,979524
QGM5VIAUKV,22/07/2022 10:55,22/07/2022 10:55,Pay Bill Online from 254720451253 - JIMMY KIOGORA NKIROTE Acc. KBD,Completed,1000,,56500,TRUE,Pay Utility with OD Online,254720451253 - JIMMY KIOGORA NKIROTE,,KBD
QGL1UDGQKL,21/07/2022 17:47,21/07/2022 17:47,Pay Bill Online from 254716702294 - DANIEL MULATI Acc. KBB,Completed,6000,,55500,TRUE,Pay Bill Online,254716702294 - DANIEL MULATI,,KBB
QGL3U6CPS7,21/07/2022 16:17,21/07/2022 16:17,Pay Bill from 254722458136 - NADI GOLICHA Acc. JEA,Completed,5000,,49500,TRUE,Pay Utility,254722458136 - NADI GOLICHA,,JEA
QGL8U1R2GM,21/07/2022 15:08,21/07/2022 15:08,Pay Bill from 254725111246 - FRANCIS MUUTU MWANGANGI Acc. IGI,Completed,15000,,44500,TRUE,Pay Utility,254725111246 - FRANCIS MUUTU MWANGANGI,,IGI
QGL4TYBVTK,21/07/2022 14:17,21/07/2022 14:17,Pay Bill from 254710110273 - AGNES NTOITI Acc. JBB,Completed,9500,,29500,TRUE,Pay Utility,254710110273 - AGNES NTOITI,,JBB
QGL9TJH48H,21/07/2022 10:29,21/07/2022 10:29,Pay Bill Online from 254715764212 - BANCE ISHEMINYE Acc. JFE,Completed,2000,,20000,TRUE,Pay Bill Online,254715764212 - BANCE ISHEMINYE,,JFE
QGL9TDQPYR,21/07/2022 08:51,21/07/2022 08:51,Pay Bill Online from 254718009051 - STEPHEN OMOLLO Acc. JDF,Completed,8000,,18000,TRUE,Pay Utility with OD Online,254718009051 - STEPHEN OMOLLO,,JDF
QGL8TDLQOU,21/07/2022 08:48,21/07/2022 08:48,Pay Bill from 0718838251 - MARK KINYUA MAINA Acc. kfg,Completed,10000,,10000,TRUE,Pay Utility,0718838251 - MARK KINYUA MAINA,,kfg
QGL7T9R1L5,21/07/2022 07:26,21/07/2022 07:26,Utility Account to Organization Settlement Account,Completed,,-42000,0,TRUE,Utility Account to Organization Settlement Account,979524 - ANCIENT WELLS PROPERTY MANAGERS 2,,
QGK4T569VY,20/07/2022 23:02,20/07/2022 23:02,Pay Bill from 254704111133 - ELVIS OTIENO Acc. HFD,Completed,1000,,42000,TRUE,Pay Utility,254704111133 - ELVIS OTIENO,,HFD
QGK0SD33M6,20/07/2022 17:17,20/07/2022 17:17,Pay Bill from 254725539787 - EVERLYNE MOGAKA Acc. KEF,Completed,10000,,41000,TRUE,Pay Utility,254725539787 - EVERLYNE MOGAKA,,KEF
QGK1RXX0IF,20/07/2022 13:40,20/07/2022 13:40,Pay Bill Online from 254719317219 - PHILIP MBOYA Acc. JDH,Completed,16000,,31000,TRUE,Pay Utility with OD Online,254719317219 - PHILIP MBOYA,,JDH
QGK3RUC90P,20/07/2022 12:47,20/07/2022 12:47,Pay Bill from 254702190887 - Nax Ochieng Acc. FDE,Completed,15000,,15000,TRUE,Pay Utility,254702190887 - Nax Ochieng,,FDE
QGK8RMIK38,20/07/2022 10:47,20/07/2022 10:47,Utility Account to Organization Settlement Account,Completed,,-100000,0,TRUE,Utility Account to Organization Settlement Account,979524 - ANCIENT WELLS PROPERTY MANAGERS 2,,
QGK3RJ8RRP,20/07/2022 09:54,20/07/2022 09:54,Pay Bill from 254724450782 - DENNIS MUSAU Acc. jcb,Completed,15000,,100000,TRUE,Pay Utility,254724450782 - DENNIS MUSAU,,jcb
QGK5RDZIEX,20/07/2022 08:20,20/07/2022 08:20,Pay Bill Online from 254722258107 - JOHN ODIMA ODIMA Acc. KGF,Completed,10000,,85000,TRUE,Pay Bill Online,254722258107 - JOHN ODIMA ODIMA,,KGF
QGJ5QLO545,19/07/2022 18:16,19/07/2022 18:16,Pay Bill from 254729258441 - ROBERT RONO KULEI Acc. JAB,Completed,4000,,75000,TRUE,Pay Utility,254729258441 - ROBERT RONO KULEI,,JAB
QGJ8QJ6G9M,19/07/2022 17:49,19/07/2022 17:49,Pay Bill from 254721884037 - ERIC MISIANI Acc. HCG,Completed,15000,,71000,TRUE,Pay Utility,254721884037 - ERIC MISIANI,,HCG
QGJ9Q67F7D,19/07/2022 14:56,19/07/2022 14:56,Pay Bill Online from 254790549449 - AHMED MOHAMED ABUKAR Acc. HBA,Completed,17000,,56000,TRUE,Pay Bill Online,254790549449 - AHMED MOHAMED ABUKAR,,HBA
QGJ6PSK3FK,19/07/2022 11:36,19/07/2022 11:36,Pay Bill from 254721780448 - EVERLYNE MIDEVA CHOGO Acc. JCA,Completed,20000,,39000,TRUE,Pay Utility,254721780448 - EVERLYNE MIDEVA CHOGO,,JCA
QGJ2PPAXDQ,19/07/2022 10:47,19/07/2022 10:47,Pay Bill from 254723747228 - MORARA ASANYO Acc. pool ,Completed,10000,,19000,TRUE,Pay Utility,254723747228 - MORARA ASANYO,,pool
QGJ6PNU58K,19/07/2022 10:23,19/07/2022 10:23,Pay Bill from 0715688238 - JOANNAH ATUHAIRE BANTU Acc. jae,Completed,9000,,9000,TRUE,Pay Utility,0715688238 - JOANNAH ATUHAIRE BANTU,,jae
QGJ0PIE81Y,19/07/2022 08:52,19/07/2022 08:52,Utility Account to Organization Settlement Account,Completed,,-16000,0,TRUE,Utility Account to Organization Settlement Account,979524 - ANCIENT WELLS PROPERTY MANAGERS 2,,
QGJ9PGFDAF,19/07/2022 08:15,19/07/2022 08:15,Pay Bill Online from 254725248080 - DENNIS KIPROTICH Acc. HDH,Completed,16000,,16000,TRUE,Pay Bill Online,254725248080 - DENNIS KIPROTICH,,HDH
QGI4OGOXC0,18/07/2022 17:00,18/07/2022 17:00,Utility Account to Organization Settlement Account,Completed,,-105500,0,TRUE,Utility Account to Organization Settlement Account,979524 - ANCIENT WELLS PROPERTY MANAGERS 2,,
QGI9O6LCWJ,18/07/2022 14:39,18/07/2022 14:39,Pay Bill from 254722514052 - JOSEPH NDIRANGU Acc. JCF,Completed,5000,,105500,TRUE,Pay Utility,254722514052 - JOSEPH NDIRANGU,,JCF
QGI1NQ2807,18/07/2022 10:37,18/07/2022 10:37,Pay Bill from 254722889574 - ALLAN MWANGI Acc. jcg,Completed,10000,,100500,TRUE,Pay Utility with OD via STK,254722889574 - ALLAN MWANGI,,jcg
QGH6N7BOI8,17/07/2022 21:55,17/07/2022 21:55,Pay Bill from 254703935626 - DAVID NGARI ITA Acc. FCD,Completed,1000,,90500,TRUE,Pay Utility,254703935626 - DAVID NGARI ITA,,FCD
QGH6N5HMWC,17/07/2022 21:20,17/07/2022 21:20,Pay Bill from 254720739274 - GODFREY ODHIAMBO OYUGI Acc. kae ,Completed,2000,,89500,TRUE,Pay Utility,254720739274 - GODFREY ODHIAMBO OYUGI,,kae
QGH1ME878R,17/07/2022 15:50,17/07/2022 15:50,Pay Bill Online from 0757319222 - ATEM KUOL JOHN BOL Acc. FAC,Completed,9000,,87500,TRUE,Pay Bill Online,0757319222 - ATEM KUOL JOHN BOL,,FAC
QGG8LGTUIO,16/07/2022 22:54,16/07/2022 22:54,Pay Bill Online from 254706898046 - STACY AKETCH OCHUKA Acc. KGK,Completed,1500,,78500,TRUE,Pay Bill Online,254706898046 - STACY AKETCH OCHUKA,,KGK
QGG2LG4ZI8,16/07/2022 22:33,16/07/2022 22:33,Pay Bill Online from 254725452946 - GODFREY THIANE KIBAYA Acc. HEE,Completed,10000,,77000,TRUE,Pay Bill Online,254725452946 - GODFREY THIANE KIBAYA,,HEE
QGG9LER3L3,16/07/2022 22:02,16/07/2022 22:02,Pay Bill from 254725909984 - TIMOTHY ODHIAMBO OWITI Acc. JDE,Completed,10000,,67000,TRUE,Pay Utility,254725909984 - TIMOTHY ODHIAMBO OWITI,,JDE
QGG3KYEC1H,16/07/2022 19:01,16/07/2022 19:01,Pay Bill from 254729450678 - GRACE NDUNGE Acc. fba,Completed,10400,,57000,TRUE,Pay Utility with OD via STK,254729450678 - GRACE NDUNGE,,fba
QGG1KGVLUX,16/07/2022 15:40,16/07/2022 15:40,Pay Bill from 254729450678 - GRACE NDUNGE Acc. fba,Completed,9600,,46600,TRUE,Pay Utility with OD via STK,254729450678 - GRACE NDUNGE,,fba
QGG3K9JSTN,16/07/2022 14:00,16/07/2022 14:00,Pay Bill from 254722746480 - PATRICK OPEYWA AURA Acc. KGH,Completed,9500,,37000,TRUE,Pay Utility,254722746480 - PATRICK OPEYWA AURA,,KGH
QGG5K8JGJX,16/07/2022 13:46,16/07/2022 13:46,Pay Bill from 254719779657 - SAMUEL NJOROGE Acc. JGA,Completed,15000,,27500,TRUE,Pay Utility,254719779657 - SAMUEL NJOROGE,,JGA
QGG5K58VIX,16/07/2022 13:01,16/07/2022 13:01,Pay Bill from 254720868281 - KENNEDY MWELU Acc. KBI,Completed,12500,,12500,TRUE,Pay Utility,254720868281 - KENNEDY MWELU,,KBI
QGG3JZJ9V5,16/07/2022 11:39,16/07/2022 11:39,Utility Account to Organization Settlement Account,Completed,,-153600,0,TRUE,Utility Account to Organization Settlement Account,979524 - ANCIENT WELLS PROPERTY MANAGERS 2,,
QGG6JXF73Y,16/07/2022 11:07,16/07/2022 11:07,Pay Bill Online from 254720787158 - AMOS CHELANG'A Acc. KCG,Completed,10000,,153600,TRUE,Pay Bill Online,254720787158 - AMOS CHELANG'A,,KCG
QGG7JS2VE3,16/07/2022 09:46,16/07/2022 09:46,Pay Bill from 254717148989 - ALLAN MUTHONI Acc. HAC,Completed,10000,,143600,TRUE,Pay Utility,254717148989 - ALLAN MUTHONI,,HAC
QGG8JLXGSQ,16/07/2022 07:55,16/07/2022 07:55,Pay Bill from 254722458136 - NADI GOLICHA Acc. JEA,Completed,5000,,133600,TRUE,Pay Utility with OD via STK,254722458136 - NADI GOLICHA,,JEA
QGF7JGB0GF,15/07/2022 23:26,15/07/2022 23:26,Pay Bill from 254710635630 - DONNA JESSICA OWANO Acc. KCC,Completed,10000,,128600,TRUE,Pay Utility,254710635630 - DONNA JESSICA OWANO,,KCC
QGF7JDZ43X,15/07/2022 22:13,15/07/2022 22:13,Pay Bill Online from 254725381062 - VICTOR MAITHYA Acc. HEG,Completed,5000,,118600,TRUE,Pay Utility with OD Online,254725381062 - VICTOR MAITHYA,,HEG
QGF7JDJI67,15/07/2022 22:04,15/07/2022 22:04,Pay Bill from 254703555717 - SENGA SALIM Acc. hbb,Completed,2000,,113600,TRUE,Pay Utility,254703555717 - SENGA SALIM,,hbb
QGF0IWELXM,15/07/2022 18:56,15/07/2022 18:56,Pay Bill from 254708875278 - ROSEMARY WANJIRU KONYE Acc. HBF,Completed,9000,,111600,TRUE,Pay Utility,254708875278 - ROSEMARY WANJIRU KONYE,,HBF
QGF5IPI0WR,15/07/2022 17:50,15/07/2022 17:50,Pay Bill from 0111278177 - Alfred   Kishoin Acc. DAB,Completed,16000,,102600,TRUE,Pay Utility,0111278177 - Alfred   Kishoin,,DAB
QGF4IBWVC0,15/07/2022 15:01,15/07/2022 15:01,Pay Bill Online from 254740117028 - PAULINE KARUNGARI MURIITHI Acc. KAG,Completed,2000,,86600,TRUE,Pay Bill Online,254740117028 - PAULINE KARUNGARI MURIITHI,,KAG
QGF5HZWYV1,15/07/2022 12:13,15/07/2022 12:13,Pay Bill Online from 254799214498 - EMMILY LWAMBA Acc. DDD ,Completed,4100,,84600,TRUE,Pay Bill Online,254799214498 - EMMILY LWAMBA,,DDD
QGF1HQ2E3J,15/07/2022 09:46,15/07/2022 09:46,Pay Bill from 254724878751 - NAOMI CHEPKOECH Acc. FBD,Completed,11000,,80500,TRUE,Pay Utility,254724878751 - NAOMI CHEPKOECH,,FBD
QGF8HHW4XK,15/07/2022 07:07,15/07/2022 07:07,Pay Bill Online from 254711721087 - MUTHIANI KYULE Acc. IDB ,Completed,15000,,69500,TRUE,Pay Bill Online,254711721087 - MUTHIANI KYULE,,IDB
QGE1HAHM4L,14/07/2022 21:41,14/07/2022 21:41,Pay Bill from 254703935626 - DAVID NGARI ITA Acc. FCD,Completed,1000,,54500,TRUE,Pay Utility,254703935626 - DAVID NGARI ITA,,FCD
QGE8H9CVJ0,14/07/2022 21:23,14/07/2022 21:23,Pay Bill from 0790631952 - Guyo Boru Guyo Acc. DBC,Completed,20000,,53500,TRUE,Pay Utility with OD via STK,0790631952 - Guyo Boru Guyo,,DBC
QGE0H59UHW,14/07/2022 20:31,14/07/2022 20:31,Pay Bill from 254726928933 - JOSHUA NDUNDA NZIOKA Acc. KAJ,Completed,7500,,33500,TRUE,Pay Utility,254726928933 - JOSHUA NDUNDA NZIOKA,,KAJ
QGE2GWY3D4,14/07/2022 19:14,14/07/2022 19:14,Pay Bill from 254710106394 - LUCY TONKEI Acc. kbg,Completed,9000,,26000,TRUE,Pay Utility with OD via STK,254710106394 - LUCY TONKEI,,kbg
QGE7GU0SIF,14/07/2022 18:47,14/07/2022 18:47,Pay Bill Online from 254715764212 - BANCE ISHEMINYE Acc. JFE ,Completed,2000,,17000,TRUE,Pay Bill Online,254715764212 - BANCE ISHEMINYE,,JFE
QGE0GTLK68,14/07/2022 18:43,14/07/2022 18:43,Pay Bill from 254726636196 - BETHUEL KEMBOI KURUI Acc. JFD,Completed,15000,,15000,TRUE,Pay Utility with OD via STK,254726636196 - BETHUEL KEMBOI KURUI,,JFD
QGE6GOKXS0,14/07/2022 17:51,14/07/2022 17:51,Utility Account to Organization Settlement Account,Completed,,-41500,0,TRUE,Utility Account to Organization Settlement Account,979524 - ANCIENT WELLS PROPERTY MANAGERS 2,,
QGE2GMTH8U,14/07/2022 17:31,14/07/2022 17:31,Pay Bill from 254722444622 - CHARITY KAGWAINI Acc. ffd,Completed,5500,,41500,TRUE,Pay Utility,254722444622 - CHARITY KAGWAINI,,ffd
QGE5G45EPL,14/07/2022 13:15,14/07/2022 13:15,Pay Bill from 254711123196 - JUDITH MUTUA Acc. Fea,Completed,16000,,36000,TRUE,Pay Utility,254711123196 - JUDITH MUTUA,,Fea
QGE3G13ISR,14/07/2022 12:30,14/07/2022 12:30,Pay Bill Online from 254725381062 - VICTOR MAITHYA Acc. HEG,Completed,8500,,20000,TRUE,Pay Bill Online,254725381062 - VICTOR MAITHYA,,HEG
QGE9FUGONB,14/07/2022 10:51,14/07/2022 10:51,Pay Bill from 254704111133 - ELVIS OTIENO Acc. HFD,Completed,1500,,11500,TRUE,Pay Utility,254704111133 - ELVIS OTIENO,,HFD
QGE0FK2EO0,14/07/2022 07:57,14/07/2022 07:57,Pay Bill from 0769960650 - DORIS WAMARWA MURIUKI Acc. KEC,Completed,10000,,10000,TRUE,Pay Utility,0769960650 - DORIS WAMARWA MURIUKI,,KEC
QGE5FJWGD5,14/07/2022 07:54,14/07/2022 07:54,Utility Account to Organization Settlement Account,Completed,,-73500,0,TRUE,Utility Account to Organization Settlement Account,979524 - ANCIENT WELLS PROPERTY MANAGERS 2,,
QGE0FG3POM,14/07/2022 03:32,14/07/2022 03:32,Pay Bill Online from 0700206427 - Clare Nabalisa Mukasa Acc. HFA,Completed,16000,,73500,TRUE,Pay Bill Online,0700206427 - Clare Nabalisa Mukasa,,HFA
QGD8F72V7Q,13/07/2022 20:48,13/07/2022 20:48,Pay Bill Online from 254720451253 - JIMMY KIOGORA NKIROTE Acc. KBD,Completed,1000,,57500,TRUE,Pay Utility with OD Online,254720451253 - JIMMY KIOGORA NKIROTE,,KBD
QGD4EO2T7I,13/07/2022 17:45,13/07/2022 17:45,Pay Bill from 254719439717 - Cecilia Omondi Acc. HFC,Completed,9000,,56500,TRUE,Pay Utility,254719439717 - Cecilia Omondi,,HFC
QGD2EIL662,13/07/2022 16:40,13/07/2022 16:40,Pay Bill from 254703528196 - ERIC GITONGA MUGO Acc. KGJ,Completed,6500,,47500,TRUE,Pay Utility with OD via STK,254703528196 - ERIC GITONGA MUGO,,KGJ
QGD1E09ZZ3,13/07/2022 12:25,13/07/2022 12:25,Pay Bill from 254720883049 - SIMON AMUKOCHE Acc. IED,Completed,20000,,41000,TRUE,Pay Utility,254720883049 - SIMON AMUKOCHE,,IED
QGD2DTXBM4,13/07/2022 10:53,13/07/2022 10:53,Pay Bill from 254715591919 - JOHN O OCHIENG Acc. HCC ,Completed,5000,,21000,TRUE,Pay Utility,254715591919 - JOHN O OCHIENG,,HCC
QGD4DKREVE,13/07/2022 08:31,13/07/2022 08:31,Pay Bill Online from 254712040302 - EMMANUEL MWARO BARASA Acc. kea,Completed,16000,,16000,TRUE,Pay Bill Online,254712040302 - EMMANUEL MWARO BARASA,,kea
QGD9DIBJ6R,13/07/2022 07:45,13/07/2022 07:45,Utility Account to Organization Settlement Account,Completed,,-45500,0,TRUE,Utility Account to Organization Settlement Account,979524 - ANCIENT WELLS PROPERTY MANAGERS 2,,
QGC5CL24NN,12/07/2022 17:23,12/07/2022 17:23,Pay Bill from 254728259571 - ANNE KASIVA Acc. ieb ,Completed,15000,,45500,TRUE,Pay Utility,254728259571 - ANNE KASIVA,,ieb
QGC8CBODFS,12/07/2022 15:25,12/07/2022 15:25,Pay Bill from 254700290755 - MERCY GOGA Acc. FDD,Completed,6500,,30500,TRUE,Pay Utility,254700290755 - MERCY GOGA,,FDD
QGC8C8IG22,12/07/2022 14:42,12/07/2022 14:42,Pay Bill Online from 254723930071 - AMOS KITAVI KIVITE Acc. JCE,Completed,9000,,24000,TRUE,Pay Bill Online,254723930071 - AMOS KITAVI KIVITE,,JCE
QGC5BT0MT9,12/07/2022 11:14,12/07/2022 11:14,Pay Bill Online from 254720620070 - Michelle Mwihaki Ngaruiya Acc. JEB,Completed,15000,,15000,TRUE,Pay Bill Online,254720620070 - Michelle Mwihaki Ngaruiya,,JEB
QGC3BSMJU3,12/07/2022 11:09,12/07/2022 11:09,Utility Account to Organization Settlement Account,Completed,,-111500,0,TRUE,Utility Account to Organization Settlement Account,979524 - ANCIENT WELLS PROPERTY MANAGERS 2,,
QGC4BPFF3K,12/07/2022 10:24,12/07/2022 10:24,Pay Bill Online from 254715764212 - BANCE ISHEMINYE Acc. JFE ,Completed,4000,,111500,TRUE,Pay Bill Online,254715764212 - BANCE ISHEMINYE,,JFE
QGC0BNP650,12/07/2022 09:59,12/07/2022 09:59,Pay Bill Online from 254718911865 - KENNEDY KELI KATUNGII Acc. HDF,Completed,9000,,107500,TRUE,Pay Bill Online,254718911865 - KENNEDY KELI KATUNGII,,HDF
QGC7BLCOBD,12/07/2022 09:24,12/07/2022 09:24,Pay Bill from 0725806383 - gofrey thiane kibaya Acc. HEE,Completed,10000,,98500,TRUE,Pay Utility,0725806383 - gofrey thiane kibaya,,HEE
QGC0BGE18A,12/07/2022 07:58,12/07/2022 07:58,Pay Bill from 254726705886 - JULIUS NZONGO Acc. HAH,Completed,7500,,88500,TRUE,Pay Utility,254726705886 - JULIUS NZONGO,,HAH
QGC9BE5EKP,12/07/2022 07:00,12/07/2022 07:00,Pay Bill from 254722458136 - NADI GOLICHA Acc. JEA,Completed,5000,,81000,TRUE,Pay Utility,254722458136 - NADI GOLICHA,,JEA
QGB2BB1OKA,11/07/2022 23:49,11/07/2022 23:49,Pay Bill from 254721315975 - JOSEPH NDEGWA Acc. H E B ,Completed,16000,,76000,TRUE,Pay Utility,254721315975 - JOSEPH NDEGWA,,H
QGB1B2N0KP,11/07/2022 20:45,11/07/2022 20:45,Pay Bill from 254706898046 - STACY AKETCH OCHUKA Acc. KGK,Completed,20000,,60000,TRUE,Pay Utility,254706898046 - STACY AKETCH OCHUKA,,KGK
QGB7B17H4H,11/07/2022 20:29,11/07/2022 20:29,Pay Bill from 254703935626 - DAVID NGARI ITA Acc. FCD,Completed,1000,,40000,TRUE,Pay Utility,254703935626 - DAVID NGARI ITA,,FCD
QGB5AG7WEL,11/07/2022 16:59,11/07/2022 16:59,Pay Bill from 0743650673 - Winfred Mbithe Mbete Acc. IEC,Completed,19000,,39000,TRUE,Pay Utility,0743650673 - Winfred Mbithe Mbete,,IEC
QGB1AFBYIX,11/07/2022 16:49,11/07/2022 16:49,Pay Bill Online from 254718772336 - DAVID SERUGO Acc. DCD,Completed,20000,,20000,TRUE,Pay Bill Online,254718772336 - DAVID SERUGO,,DCD
QGB4AAMQG0,11/07/2022 15:48,11/07/2022 15:48,Utility Account to Organization Settlement Account,Completed,,-429400,0,TRUE,Utility Account to Organization Settlement Account,979524 - ANCIENT WELLS PROPERTY MANAGERS 2,,
QGB99YZRKJ,11/07/2022 13:14,11/07/2022 13:14,Pay Bill from 254703555717 - SENGA SALIM Acc. hbb,Completed,5000,,429400,TRUE,Pay Utility,254703555717 - SENGA SALIM,,hbb
QGB79YXHLD,11/07/2022 13:14,11/07/2022 13:14,Pay Bill Online from 254720451253 - JIMMY KIOGORA NKIROTE Acc. KBD,Completed,1000,,424400,TRUE,Pay Utility with OD Online,254720451253 - JIMMY KIOGORA NKIROTE,,KBD
QGB59XTZQD,11/07/2022 12:59,11/07/2022 12:59,Pay Bill from 254707715639 - Annastacia Kimeu Acc. JFC ,Completed,10000,,423400,TRUE,Pay Utility,254707715639 - Annastacia Kimeu,,JFC
QGB19TGGUB,11/07/2022 12:00,11/07/2022 12:00,Pay Bill from 254723747228 - MORARA ASANYO Acc. pool,Completed,22000,,413400,TRUE,Pay Utility,254723747228 - MORARA ASANYO,,pool
QGB79QHQ95,11/07/2022 11:19,11/07/2022 11:19,Pay Bill from 254729450678 - GRACE NDUNGE Acc. Fba,Completed,10000,,391400,TRUE,Pay Utility with OD via STK,254729450678 - GRACE NDUNGE,,Fba
QGB79ORZ2P,11/07/2022 10:54,11/07/2022 10:54,Pay Bill from 254704111133 - ELVIS OTIENO Acc. HFD,Completed,1800,,381400,TRUE,Pay Utility,254704111133 - ELVIS OTIENO,,HFD
QGB79MW699,11/07/2022 10:27,11/07/2022 10:27,Pay Bill Online from 0711117122 - Yassir Mwinyi Abdulrazaq Acc. ICE,Completed,1000,,379600,TRUE,Pay Bill Online,0711117122 - Yassir Mwinyi Abdulrazaq,,ICE
QGB39LH6OL,11/07/2022 10:06,11/07/2022 10:06,Pay Bill from 254726028330 - JOHN WAMBUA Acc. IFH,Completed,15000,,378600,TRUE,Pay Utility,254726028330 - JOHN WAMBUA,,IFH
QGB59CBF71,11/07/2022 07:05,11/07/2022 07:05,Pay Bill from 254726928933 - JOSHUA NDUNDA NZIOKA Acc. KCJ,Completed,8500,,363600,TRUE,Pay Utility with OD via STK,254726928933 - JOSHUA NDUNDA NZIOKA,,KCJ
QGA993QX4T,10/07/2022 21:19,10/07/2022 21:19,Pay Bill Online from 0740422187 - KEVIN MAKATO KUNGA Acc. KEG,Completed,10000,,355100,TRUE,Pay Bill Online,0740422187 - KEVIN MAKATO KUNGA,,KEG
QGA690EPYO,10/07/2022 20:33,10/07/2022 20:33,Pay Bill Online from 254714552193 - CHRISTOPHER OCHIENG Acc. JGI ,Completed,20000,,345100,TRUE,Pay Bill Online,254714552193 - CHRISTOPHER OCHIENG,,JGI
QGA18VHRR1,10/07/2022 19:40,10/07/2022 19:40,Pay Bill Online from 254799371069 - ALPHONCE OCHIENG WAREGA Acc. IEE,Completed,8500,,325100,TRUE,Pay Bill Online,254799371069 - ALPHONCE OCHIENG WAREGA,,IEE
QGA68SFATQ,10/07/2022 19:11,10/07/2022 19:11,Pay Bill from 254702346515 - ELIZABETH ACHIENG NGOME Acc. KDE,Completed,10000,,316600,TRUE,Pay Utility,254702346515 - ELIZABETH ACHIENG NGOME,,KDE
QGA48MNM2C,10/07/2022 18:09,10/07/2022 18:09,Pay Bill from 254708499439 - ROSE NDEDE Acc. HGF,Completed,9000,,306600,TRUE,Pay Utility,254708499439 - ROSE NDEDE,,HGF
QGA888S9AK,10/07/2022 15:06,10/07/2022 15:06,Pay Bill from 0700851010 - Njenga    Kuria Acc. kca,Completed,16000,,297600,TRUE,Pay Utility,0700851010 - Njenga    Kuria,,kca
QGA186KXHH,10/07/2022 14:35,10/07/2022 14:35,Pay Bill from 254718672924 - LILIAN CHEBET NGENO Acc. KGD,Completed,10000,,281600,TRUE,Pay Utility,254718672924 - LILIAN CHEBET NGENO,,KGD
QGA883CW1C,10/07/2022 13:49,10/07/2022 13:49,Pay Bill from 254723328258 - SAMUEL MAINA MURIUKI Acc. IFE,Completed,8000,,271600,TRUE,Pay Utility,254723328258 - SAMUEL MAINA MURIUKI,,IFE
QGA980FHA9,10/07/2022 13:04,10/07/2022 13:04,Pay Bill from 254720814822 - JAMES OTIENO OPAR Acc. Jgj,Completed,2000,,263600,TRUE,Pay Utility with OD via STK,254720814822 - JAMES OTIENO OPAR,,Jgj
QGA77TWZB3,10/07/2022 11:15,10/07/2022 11:15,Pay Bill Online from 254714710698 - TABITHA MULEE KYALO Acc. IFD,Completed,11500,,261600,TRUE,Pay Bill Online,254714710698 - TABITHA MULEE KYALO,,IFD
QGA37PXE1X,10/07/2022 10:07,10/07/2022 10:07,Pay Bill from 254720739274 - GODFREY ODHIAMBO OYUGI Acc. kae,Completed,4000,,250100,TRUE,Pay Utility,254720739274 - GODFREY ODHIAMBO OYUGI,,kae
QGA57PT35V,10/07/2022 10:05,10/07/2022 10:05,Pay Bill from 0757604316 - MOHAMED AYUB MUCHEKE Acc. FCA,Completed,10000,,246100,TRUE,Pay Utility,0757604316 - MOHAMED AYUB MUCHEKE,,FCA
QGA37JPE7V,10/07/2022 08:11,10/07/2022 08:11,Pay Bill Online from 254726292792 - PHILIP MIANO Acc. jei,Completed,21000,,236100,TRUE,Pay Bill Online,254726292792 - PHILIP MIANO,,jei
QGA37FBICZ,10/07/2022 01:31,10/07/2022 01:31,Pay Bill Online from 0711117122 - Yassir Mwinyi Abdulrazaq Acc. ICE,Completed,1000,,215100,TRUE,Pay Bill Online,0711117122 - Yassir Mwinyi Abdulrazaq,,ICE
QG987EA5F2,09/07/2022 23:56,09/07/2022 23:56,Pay Bill from 254703935626 - DAVID NGARI ITA Acc. FCD,Completed,1000,,214100,TRUE,Pay Utility,254703935626 - DAVID NGARI ITA,,FCD
QG967BI0DC,09/07/2022 22:18,09/07/2022 22:18,Pay Bill Online from 254701196539 - GICHURI KARANJA Acc. fee,Completed,16000,,213100,TRUE,Pay Bill Online,254701196539 - GICHURI KARANJA,,fee
QG916XVXIZ,09/07/2022 19:33,09/07/2022 19:33,Pay Bill from 254714536026 - LILIAN AWUOR ONYANGO Acc. HDC,Completed,10500,,197100,TRUE,Pay Utility,254714536026 - LILIAN AWUOR ONYANGO,,HDC
QG976UN9SV,09/07/2022 19:06,09/07/2022 19:06,Pay Bill from 254722458136 - NADI GOLICHA Acc. JEA,Completed,5000,,186600,TRUE,Pay Utility,254722458136 - NADI GOLICHA,,JEA
QG976CAT0Z,09/07/2022 15:45,09/07/2022 15:45,Pay Bill from 254725749776 - BEN KORIR Acc. IDF,Completed,12000,,181600,TRUE,Pay Utility,254725749776 - BEN KORIR,,IDF
QG996AZ3BJ,09/07/2022 15:28,09/07/2022 15:28,Pay Bill Online from 254720107609 - DENNIS OGENDI BARAKE Acc. JAJ,Completed,15000,,169600,TRUE,Pay Bill Online,254720107609 - DENNIS OGENDI BARAKE,,JAJ
QG9466VJ9S,09/07/2022 14:33,09/07/2022 14:33,Pay Bill from 254795023150 - FAITH MORAA SITEMBA Acc. IFC,Completed,8000,,154600,TRUE,Pay Utility with OD via STK,254795023150 - FAITH MORAA SITEMBA,,IFC
QG9161YY1Z,09/07/2022 13:29,09/07/2022 13:29,Pay Bill from 254713205244 - ROBERT OGALO Acc. KBH,Completed,10000,,146600,TRUE,Pay Utility,254713205244 - ROBERT OGALO,,KBH
QG925VVOZQ,09/07/2022 12:07,09/07/2022 12:07,Business Pay Bill by 488519 - NCBA  Bank M-pesa Acc. DAD via API,Completed,20000,,136600,TRUE,Business Pay Bill via API,488519 - NCBA  Bank M-pesa,,DAD
QG925PB02Y,09/07/2022 10:37,09/07/2022 10:37,Pay Bill from 0705687898 - JORDAN KIPNGETICH THOMAS KIKWAI Acc. KFF,Completed,9500,,116600,TRUE,Pay Utility,0705687898 - JORDAN KIPNGETICH THOMAS KIKWAI,,KFF
QG905N4IB4,09/07/2022 10:05,09/07/2022 10:05,Pay Bill Online from 254720451253 - JIMMY KIOGORA NKIROTE Acc. KBD,Completed,1000,,107100,TRUE,Pay Utility with OD Online,254720451253 - JIMMY KIOGORA NKIROTE,,KBD
QG935KME3T,09/07/2022 09:28,09/07/2022 09:28,Pay Bill Online from 254712990240 - GLORY KARIUKI Acc. KAA,Completed,16000,,106100,TRUE,Pay Bill Online,254712990240 - GLORY KARIUKI,,KAA
QG995IEOQR,09/07/2022 08:53,09/07/2022 08:53,Pay Bill from 254700290755 - MERCY GOGA Acc. FDD,Completed,10600,,90100,TRUE,Pay Utility,254700290755 - MERCY GOGA,,FDD
QG935H5IWL,09/07/2022 08:31,09/07/2022 08:31,Pay Bill from 254715636579 - GRACE KALUKI MULI Acc. FDA,Completed,8000,,79500,TRUE,Pay Utility,254715636579 - GRACE KALUKI MULI,,FDA
QG925D6CPG,09/07/2022 06:53,09/07/2022 06:53,Pay Bill Online from 254720451253 - JIMMY KIOGORA NKIROTE Acc. kbd,Completed,1000,,71500,TRUE,Pay Utility with OD Online,254720451253 - JIMMY KIOGORA NKIROTE,,kbd
QG874V1U97,08/07/2022 19:49,08/07/2022 19:49,Pay Bill Online from 254710732381 - JANE ACHIENG MBEKE Acc. HAF,Completed,10000,,70500,TRUE,Pay Bill Online,254710732381 - JANE ACHIENG MBEKE,,HAF
QG874SEY7Z,08/07/2022 19:26,08/07/2022 19:26,Pay Bill from 254718513411 - Michelle mwangi Acc. HAD,Completed,1000,,60500,TRUE,Pay Utility,254718513411 - Michelle mwangi,,HAD
QG834RMVDB,08/07/2022 19:20,08/07/2022 19:20,Pay Bill from 254718513411 - Michelle mwangi Acc. HAD,Completed,15000,,59500,TRUE,Pay Utility,254718513411 - Michelle mwangi,,HAD
QG864HF94C,08/07/2022 17:44,08/07/2022 17:44,Pay Bill from 254798844460 - WYCLIFFE ODHIAMBO NYAGOA Acc. KAC,Completed,10000,,44500,TRUE,Pay Utility,254798844460 - WYCLIFFE ODHIAMBO NYAGOA,,KAC
QG804FVTSI,08/07/2022 17:29,08/07/2022 17:29,Pay Bill Online from 254720044312 - ELIUD KIPKURUI Acc. FCF,Completed,17000,,34500,TRUE,Pay Bill Online,254720044312 - ELIUD KIPKURUI,,FCF
QG844F1C48,08/07/2022 17:20,08/07/2022 17:20,Pay Bill from 254720278119 - LINDAH OGAWO Acc. kfe,Completed,9500,,17500,TRUE,Pay Utility,254720278119 - LINDAH OGAWO,,kfe
QG85458E3B,08/07/2022 15:23,08/07/2022 15:23,Pay Bill from 254720814822 - JAMES OTIENO OPAR Acc. Jgj,Completed,3000,,8000,TRUE,Pay Utility with OD via STK,254720814822 - JAMES OTIENO OPAR,,Jgj
QG803QIV0W,08/07/2022 12:13,08/07/2022 12:13,Pay Bill from 254715591919 - JOHN O OCHIENG Acc. HCC,Completed,5000,,5000,TRUE,Pay Utility,254715591919 - JOHN O OCHIENG,,HCC
QG813NRGLV,08/07/2022 11:35,08/07/2022 11:35,Utility Account to Organization Settlement Account,Completed,,-878900,0,TRUE,Utility Account to Organization Settlement Account,979524 - ANCIENT WELLS PROPERTY MANAGERS 2,,
QG843MZRFC,08/07/2022 11:25,08/07/2022 11:25,Pay Bill from 254701006375 - EZRA MAKORI SERETI Acc. HTA,Completed,10000,,878900,TRUE,Pay Utility with OD via STK,254701006375 - EZRA MAKORI SERETI,,HTA
QG853KCDTX,08/07/2022 10:49,08/07/2022 10:49,FSI to Pay Bill by 998094 - COOP TO PAYBILL Acc. KDH via WEB by COOP TO PAYBILL\COOPAYBILLTRNS,Completed,10000,,868900,TRUE,FSI to Pay Bill via API,998094 - COOP TO PAYBILL,,KDH
QG873IO9JT,08/07/2022 10:25,08/07/2022 10:25,Pay Bill from 254711123196 - JUDITH MUTUA Acc. Fea,Completed,25000,,858900,TRUE,Pay Utility,254711123196 - JUDITH MUTUA,,Fea
QG863IMYAY,08/07/2022 10:25,08/07/2022 10:25,Pay Bill from 254795534849 - PURITY NJERU Acc. feb,Completed,15000,,833900,TRUE,Pay Utility with OD via STK,254795534849 - PURITY NJERU,,feb
QG803HTXJO,08/07/2022 10:14,08/07/2022 10:14,Pay Bill Online from 0711117122 - Yassir Mwinyi Abdulrazaq Acc. ICE,Completed,3000,,818900,TRUE,Pay Bill Online,0711117122 - Yassir Mwinyi Abdulrazaq,,ICE
QG803GK7M2,08/07/2022 09:56,08/07/2022 09:56,Pay Bill from 254725062550 - FRANKLINE MASSAM Acc. kAF,Completed,10000,,815900,TRUE,Pay Utility,254725062550 - FRANKLINE MASSAM,,kAF
QG813G03OZ,08/07/2022 09:48,08/07/2022 09:48,Pay Bill from 254723605941 - JOHN KARIHA Acc. KDD,Completed,22000,,805900,TRUE,Pay Utility,254723605941 - JOHN KARIHA,,KDD
QG74345SM2,07/07/2022 23:43,07/07/2022 23:43,Pay Bill Online from 254720451253 - JIMMY KIOGORA NKIROTE Acc. kbd,Completed,1500,,783900,TRUE,Pay Bill Online,254720451253 - JIMMY KIOGORA NKIROTE,,kbd
QG763405EK,07/07/2022 23:33,07/07/2022 23:33,Pay Bill from 254712954563 - JOSEPH MUTISO KILONZO Acc. DAC,Completed,20000,,782400,TRUE,Pay Utility,254712954563 - JOSEPH MUTISO KILONZO,,DAC
QG7930BP0P,07/07/2022 21:47,07/07/2022 21:47,Pay Bill from 254703935626 - DAVID NGARI ITA Acc. FCD,Completed,1000,,762400,TRUE,Pay Utility,254703935626 - DAVID NGARI ITA,,FCD
QG732OI93H,07/07/2022 19:34,07/07/2022 19:34,Pay Bill from 0724134105 - HILDA JEPKEMOI KIMELIEL Acc. JBH,Completed,16000,,761400,TRUE,Pay Utility,0724134105 - HILDA JEPKEMOI KIMELIEL,,JBH
QG782KRM8Y,07/07/2022 19:03,07/07/2022 19:03,Pay Bill from 254726172957 - VINCENT OLIENG' Acc. HBC,Completed,10000,,745400,TRUE,Pay Utility,254726172957 - VINCENT OLIENG',,HBC
QG7328QE3Z,07/07/2022 17:03,07/07/2022 17:03,Pay Bill from 254714814264 - PATRICIA NZOMO Acc. Hbg,Completed,16000,,735400,TRUE,Pay Utility with OD via STK,254714814264 - PATRICIA NZOMO,,Hbg
QG7326EKYR,07/07/2022 16:36,07/07/2022 16:36,Pay Bill from 0726465363 - ISAAC KITONGA JOSEPH Acc. IDG,Completed,10000,,719400,TRUE,Pay Utility,0726465363 - ISAAC KITONGA JOSEPH,,IDG
QG7125GTOZ,07/07/2022 16:24,07/07/2022 16:24,Pay Bill Online from 254713966424 - NDUTI MUTHUI Acc. Jed ,Completed,15000,,709400,TRUE,Pay Bill Online,254713966424 - NDUTI MUTHUI,,Jed
QG791VW96P,07/07/2022 14:19,07/07/2022 14:19,Pay Bill Online from 254706549634 - CLINTON OMBASA Acc. FDB,Completed,7000,,694400,TRUE,Pay Bill Online,254706549634 - CLINTON OMBASA,,FDB
QG751RXNYH,07/07/2022 13:28,07/07/2022 13:28,Pay Bill from 254713281251 - ERIC KIAMA Acc. JDI,Completed,20000,,687400,TRUE,Pay Utility,254713281251 - ERIC KIAMA,,JDI
QG751M13NZ,07/07/2022 12:10,07/07/2022 12:10,Pay Bill from 254729541871 - ROBERT KULEI Acc. JAB,Completed,15000,,667400,TRUE,Pay Utility,254729541871 - ROBERT KULEI,,JAB
QG771ERQH7,07/07/2022 10:30,07/07/2022 10:30,Pay Bill from 0717441870 - Steven oduor ogutu Acc. KTA,Completed,9500,,652400,TRUE,Pay Utility,0717441870 - Steven oduor ogutu,,KTA
QG751EHFIZ,07/07/2022 10:26,07/07/2022 10:26,Pay Bill Online from 0769918050 - newton   mutethia Acc. JBG,Completed,10000,,642900,TRUE,Pay Bill Online,0769918050 - newton   mutethia,,JBG
QG771E6KJ7,07/07/2022 10:22,07/07/2022 10:22,Pay Bill from 254701741613 - ELDERKIN AKOSA Acc. IFB,Completed,15000,,632900,TRUE,Pay Utility,254701741613 - ELDERKIN AKOSA,,IFB
QG771BXX1N,07/07/2022 09:51,07/07/2022 09:51,Pay Bill Online from 254722769473 - SAMSON CHALO Acc. IAB,Completed,15000,,617900,TRUE,Pay Bill Online,254722769473 - SAMSON CHALO,,IAB
QG711AEBVT,07/07/2022 09:28,07/07/2022 09:28,Pay Bill Online from 254707726441 - JOHN OLOO NYAULA Acc. IEH,Completed,4500,,602900,TRUE,Pay Bill Online,254707726441 - JOHN OLOO NYAULA,,IEH
QG7118K903,07/07/2022 09:00,07/07/2022 09:00,Pay Bill from 254720802644 - MESHACK MAXWELL GANDA Acc. HAB,Completed,15000,,598400,TRUE,Pay Utility,254720802644 - MESHACK MAXWELL GANDA,,HAB
QG7714ERXX,07/07/2022 07:48,07/07/2022 07:48,Pay Bill Online from 254797160610 - JAMES MWANIKI Acc. JBI,Completed,20000,,583400,TRUE,Pay Bill Online,254797160610 - JAMES MWANIKI,,JBI
QG79123RUL,07/07/2022 06:43,07/07/2022 06:43,Pay Bill from 254724103759 - RICHARD NKAABO Acc. jej,Completed,16000,,563400,TRUE,Pay Utility with OD via STK,254724103759 - RICHARD NKAABO,,jej
QG72111UOA,07/07/2022 05:06,07/07/2022 05:06,Pay Bill from 254722521028 - CHARLES MONYONCHO Acc. ICB,Completed,17000,,547400,TRUE,Pay Utility,254722521028 - CHARLES MONYONCHO,,ICB
QG79ZZLK17,07/07/2022 00:26,07/07/2022 00:26,Pay Bill Online from 254720451253 - JIMMY KIOGORA NKIROTE Acc. kbd,Completed,4000,,530400,TRUE,Pay Utility with OD Online,254720451253 - JIMMY KIOGORA NKIROTE,,kbd
QG65ZZ5DP7,06/07/2022 23:52,06/07/2022 23:52,Pay Bill Online from 254725218904 - SALOME MUTHONI MWANGI Acc. KFJ,Completed,15000,,526400,TRUE,Pay Bill Online,254725218904 - SALOME MUTHONI MWANGI,,KFJ
QG68ZXTOX4,06/07/2022 22:51,06/07/2022 22:51,Pay Bill from 254724504339 - JACKSON OBWAKA Acc. fda,Completed,8000,,511400,TRUE,Pay Utility,254724504339 - JACKSON OBWAKA,,fda
QG65ZR8O4R,06/07/2022 20:56,06/07/2022 20:56,Pay Bill from 254710110273 - AGNES NTOITI Acc. Jbb,Completed,5000,,503400,TRUE,Pay Utility,254710110273 - AGNES NTOITI,,Jbb
QG62ZMSRVE,06/07/2022 20:11,06/07/2022 20:11,Pay Bill Online from 254724821898 - ALLAN GISONI NYANGARESI Acc. DBA,Completed,16000,,498400,TRUE,Pay Bill Online,254724821898 - ALLAN GISONI NYANGARESI,,DBA
QG68ZCXYKY,06/07/2022 18:46,06/07/2022 18:46,Pay Bill from 254716056537 - KIRUI KIPLANGAT HILLARY Acc. JCJ,Completed,16000,,482400,TRUE,Pay Utility,254716056537 - KIRUI KIPLANGAT HILLARY,,JCJ
QG66ZCE1L8,06/07/2022 18:41,06/07/2022 18:41,Pay Bill from 0769118645 - kennedy kipkurui korir Acc. IGC,Completed,9000,,466400,TRUE,Pay Utility,0769118645 - kennedy kipkurui korir,,IGC
QG64ZA3WPE,06/07/2022 18:19,06/07/2022 18:19,Pay Bill from 254725549603 - ELIZABETH OKELLO Acc. IDC,Completed,9500,,457400,TRUE,Pay Utility,254725549603 - ELIZABETH OKELLO,,IDC
QG64Z9GSII,06/07/2022 18:12,06/07/2022 18:12,Pay Bill from 0797758628 - jackline nyamari onyango Acc. ICF,Completed,11000,,447900,TRUE,Pay Utility,0797758628 - jackline nyamari onyango,,ICF
QG67Z8R0RZ,06/07/2022 18:05,06/07/2022 18:05,Pay Bill from 254728238249 - ESTHER WANGUI KIBUNYI Acc. ICA,Completed,17000,,436900,TRUE,Pay Utility with OD via STK,254728238249 - ESTHER WANGUI KIBUNYI,,ICA
QG67Z8BX05,06/07/2022 18:01,06/07/2022 18:01,Pay Bill Online from 254705846408 - JAMES OUMA Acc. HBH,Completed,16000,,419900,TRUE,Pay Bill Online,254705846408 - JAMES OUMA,,HBH
QG63Z5SHU3,06/07/2022 17:35,06/07/2022 17:35,Pay Bill from 254719779657 - SAMUEL NJOROGE Acc. JGA,Completed,5000,,403900,TRUE,Pay Utility with OD via STK,254719779657 - SAMUEL NJOROGE,,JGA
QG61YZN8DD,06/07/2022 16:24,06/07/2022 16:24,Pay Bill Online from 0757699775 - BENARD MUIA MUTUA Acc. HCB,Completed,16000,,398900,TRUE,Pay Bill Online,0757699775 - BENARD MUIA MUTUA,,HCB
QG68YXUG8W,06/07/2022 16:01,06/07/2022 16:01,Pay Bill from 254723966777 - BONIFACE MUTHAKA NGANGA Acc. IEC,Completed,9000,,382900,TRUE,Pay Utility,254723966777 - BONIFACE MUTHAKA NGANGA,,IEC
QG60YSHB32,06/07/2022 14:50,06/07/2022 14:50,Pay Bill from 254720814822 - JAMES OTIENO OPAR Acc. Jgj,Completed,3500,,373900,TRUE,Pay Utility with OD via STK,254720814822 - JAMES OTIENO OPAR,,Jgj
QG64YRVFNY,06/07/2022 14:42,06/07/2022 14:42,Pay Bill from 254725754547 - MWACHIRO GEORGE DECHE Acc. DFC,Completed,20000,,370400,TRUE,Pay Utility,254725754547 - MWACHIRO GEORGE DECHE,,DFC
QG68YP7SGS,06/07/2022 14:07,06/07/2022 14:07,Pay Bill from 254712974871 - PAULA WANJIKU GATUI Acc. hea,Completed,16000,,350400,TRUE,Pay Utility,254712974871 - PAULA WANJIKU GATUI,,hea
QG67YMAPHJ,06/07/2022 13:30,06/07/2022 13:30,Pay Bill from 254723017892 - JUDY MUTHEU Acc. ICI,Completed,16000,,334400,TRUE,Pay Utility,254723017892 - JUDY MUTHEU,,ICI
QG67YM9OMB,06/07/2022 13:29,06/07/2022 13:29,Pay Bill Online from 0722255105 - SALIM OMAR MZEE Acc. KGE,Completed,10000,,318400,TRUE,Pay Utility with OD Online,0722255105 - SALIM OMAR MZEE,,KGE
QG67YLA7BT,06/07/2022 13:17,06/07/2022 13:17,Pay Bill from 254710110273 - AGNES NTOITI Acc. JBB,Completed,4800,,308400,TRUE,Pay Utility with OD via STK,254710110273 - AGNES NTOITI,,JBB
QG65YL5XFR,06/07/2022 13:15,06/07/2022 13:15,Pay Bill from 0111788761 - MARIA ZACHARIA JOHN Acc. FAF,Completed,16000,,303600,TRUE,Pay Utility,0111788761 - MARIA ZACHARIA JOHN,,FAF
QG60YKZ0AG,06/07/2022 13:13,06/07/2022 13:13,Pay Bill from 254723499628 - CLINTON JOSEPH MUHARI Acc. hfh,Completed,16000,,287600,TRUE,Pay Utility,254723499628 - CLINTON JOSEPH MUHARI,,hfh
QG69YJSIUZ,06/07/2022 12:58,06/07/2022 12:58,Pay Bill Online from 254715764212 - BANCE ISHEMINYE Acc. JFE ,Completed,3000,,271600,TRUE,Pay Bill Online,254715764212 - BANCE ISHEMINYE,,JFE
QG67YJOH2L,06/07/2022 12:56,06/07/2022 12:56,Pay Bill Online from 254710146965 - BRENDA DORCAS MABONGA Acc. hfg,Completed,15000,,268600,TRUE,Pay Bill Online,254710146965 - BRENDA DORCAS MABONGA,,hfg
QG67YIXHVJ,06/07/2022 12:46,06/07/2022 12:46,Pay Bill from 0711769778 - PROTASIA BONIPHACE MANOSA Acc. IBB,Completed,15000,,253600,TRUE,Pay Utility,0711769778 - PROTASIA BONIPHACE MANOSA,,IBB
QG62YCK6Z0,06/07/2022 11:21,06/07/2022 11:21,Pay Bill from 254700198550 - BENARD ONYANGO Acc. DBB,Completed,16000,,238600,TRUE,Pay Utility,254700198550 - BENARD ONYANGO,,DBB
QG65Y2SC7H,06/07/2022 09:02,06/07/2022 09:02,Pay Bill Online from 254710382992 - SIMON KAMAU MUIRURI Acc. JCD,Completed,15000,,222600,TRUE,Pay Bill Online,254710382992 - SIMON KAMAU MUIRURI,,JCD
QG63Y0JSI9,06/07/2022 08:26,06/07/2022 08:26,Pay Bill from 0716115127 - MOHAMED SHEIKH ABDI Acc. FFE,Completed,15000,,207600,TRUE,Pay Utility,0716115127 - MOHAMED SHEIKH ABDI,,FFE
QG60Y03IDW,06/07/2022 08:18,06/07/2022 08:18,Pay Bill Online from 254706549634 - CLINTON OMBASA Acc. FDB,Completed,10000,,192600,TRUE,Pay Bill Online,254706549634 - CLINTON OMBASA,,FDB
QG59XT9FIP,05/07/2022 23:56,05/07/2022 23:56,Pay Bill Online from 254711562428 - Lionel Mutune Muoka Acc. KDI,Completed,11000,,182600,TRUE,Pay Bill Online,254711562428 - Lionel Mutune Muoka,,KDI
QG58XRM98Y,05/07/2022 22:42,05/07/2022 22:42,Pay Bill from 254743243622 - fridah waeni muithya Acc. JEH,Completed,16000,,171600,TRUE,Pay Utility,254743243622 - fridah waeni muithya,,JEH
QG58XQ5XXS,05/07/2022 22:06,05/07/2022 22:06,Pay Bill Online from 254715002789 - ERICK NGUGI MAINA Acc. HAG,Completed,16000,,155600,TRUE,Pay Bill Online,254715002789 - ERICK NGUGI MAINA,,HAG
QG51XP5413,05/07/2022 21:48,05/07/2022 21:48,Pay Bill Online from 254714563486 - BRIAN MMATA MUSERA Acc. KBJ,Completed,16000,,139600,TRUE,Pay Utility with OD Online,254714563486 - BRIAN MMATA MUSERA,,KBJ
QG56XP0AIA,05/07/2022 21:45,05/07/2022 21:45,Pay Bill from 0115702401 - John Kamau Kanyiri Acc. HFF,Completed,9600,,123600,TRUE,Pay Utility,0115702401 - John Kamau Kanyiri,,HFF
QG51XOUH11,05/07/2022 21:43,05/07/2022 21:43,Pay Bill from 254796069018 - PEACE KIMEU Acc. JAH,Completed,16000,,114000,TRUE,Pay Utility,254796069018 - PEACE KIMEU,,JAH
QG55XMZ28F,05/07/2022 21:15,05/07/2022 21:15,Pay Bill Online from 254718663397 - JIMMY MUNYAO NZIOKI Acc. DCB,Completed,16000,,98000,TRUE,Pay Bill Online,254718663397 - JIMMY MUNYAO NZIOKI,,DCB
QG52XMDN6U,05/07/2022 21:07,05/07/2022 21:07,Pay Bill Online from 254721714178 - PHANICE JEROTICH KIPTOO Acc. FBF,Completed,16000,,82000,TRUE,Pay Bill Online,254721714178 - PHANICE JEROTICH KIPTOO,,FBF
QG57XGMZ9H,05/07/2022 20:07,05/07/2022 20:07,Pay Bill from 254718284151 - EVERLINE MATHEKA Acc. DFA,Completed,15000,,66000,TRUE,Pay Utility,254718284151 - EVERLINE MATHEKA,,DFA
QG58XFVJ46,05/07/2022 19:59,05/07/2022 19:59,Pay Bill from 254701112397 - ELEMA GODANA DIBA Acc. FCA,Completed,10000,,51000,TRUE,Pay Utility,254701112397 - ELEMA GODANA DIBA,,FCA
QG59XBMM4H,05/07/2022 19:24,05/07/2022 19:24,Pay Bill Online from 254706144834 - WILKISTER OSUMO Acc. HFB,Completed,15000,,41000,TRUE,Pay Bill Online,254706144834 - WILKISTER OSUMO,,HFB
QG51X6AUUH,05/07/2022 18:38,05/07/2022 18:38,Pay Bill Online from 254725385966 - JOSEPH MUYA MARUA Acc. KEE,Completed,10000,,26000,TRUE,Pay Bill Online,254725385966 - JOSEPH MUYA MARUA,,KEE
QG50X370OI,05/07/2022 18:08,05/07/2022 18:08,Pay Bill from 254702764047 - FERDINAND K Acc. KDB,Completed,16000,,16000,TRUE,Pay Utility,254702764047 - FERDINAND K,,KDB
QG51WZYZ87,05/07/2022 17:35,05/07/2022 17:35,Utility Account to Organization Settlement Account,Completed,,-664400,0,TRUE,Utility Account to Organization Settlement Account,979524 - ANCIENT WELLS PROPERTY MANAGERS 2,,
QG54WZU822,05/07/2022 17:33,05/07/2022 17:33,Pay Bill Online from 0796121714 - janet   mwikali Acc. KBC,Completed,10000,,664400,TRUE,Pay Bill Online,0796121714 - janet   mwikali,,KBC
QG56WZTOEW,05/07/2022 17:33,05/07/2022 17:33,Pay Bill from 254716702294 - DANIEL MULATI Acc. KBB,Completed,6000,,654400,TRUE,Pay Utility,254716702294 - DANIEL MULATI,,KBB
QG53WWO0IH,05/07/2022 16:58,05/07/2022 16:58,Pay Bill Online from 254792584569 - LUCY MWALIMO Acc. IAD,Completed,11000,,648400,TRUE,Pay Bill Online,254792584569 - LUCY MWALIMO,,IAD
QG55WRBEQ5,05/07/2022 15:51,05/07/2022 15:51,Pay Bill from 254726085680 - FRANCIS JUMA MWANDA Acc. JEE,Completed,10000,,637400,TRUE,Pay Utility,254726085680 - FRANCIS JUMA MWANDA,,JEE
QG57WRB877,05/07/2022 15:51,05/07/2022 15:51,Pay Bill from 254726039536 - MERCY MESHACK Acc. FDC,Completed,18000,,627400,TRUE,Pay Utility,254726039536 - MERCY MESHACK,,FDC
QG50WONO5M,05/07/2022 15:16,05/07/2022 15:16,Pay Bill from 0724386624 - FATUMA ISSE YUSSUF Acc. FAB,Completed,16000,,609400,TRUE,Pay Utility with OD via STK,0724386624 - FATUMA ISSE YUSSUF,,FAB
QG51WMVNOT,05/07/2022 14:52,05/07/2022 14:52,FSI to Pay Bill by 998094 - COOP TO PAYBILL Acc. KAG via WEB by COOP TO PAYBILL\COOPAYBILLTRNS,Completed,5000,,593400,TRUE,FSI to Pay Bill via API,998094 - COOP TO PAYBILL,,KAG
QG50WMB9V0,05/07/2022 14:44,05/07/2022 14:44,Pay Bill Online from 254721974995 - BERNICE MANGOKA Acc. KFK,Completed,16000,,588400,TRUE,Pay Bill Online,254721974995 - BERNICE MANGOKA,,KFK
QG55WLTBKR,05/07/2022 14:37,05/07/2022 14:37,Pay Bill from 254728084427 - MARY NABWIRE OKELLO Acc. FDF,Completed,16000,,572400,TRUE,Pay Utility,254728084427 - MARY NABWIRE OKELLO,,FDF
QG53WL1SID,05/07/2022 14:27,05/07/2022 14:27,Pay Bill Online from 254728897908 - Teddy Allan Onyango Acc. DDD,Completed,15900,,556400,TRUE,Pay Bill Online,254728897908 - Teddy Allan Onyango,,DDD
QG58WHCVZ6,05/07/2022 13:39,05/07/2022 13:39,Pay Bill from 254700557767 - BAKHITA MWENDE MUANGE Acc. KCB,Completed,16000,,540500,TRUE,Pay Utility,254700557767 - BAKHITA MWENDE MUANGE,,KCB
QG55WG8YBJ,05/07/2022 13:25,05/07/2022 13:25,Pay Bill from 254729355933 - FELISTAH NJERI WAIRIMU Acc. IDI,Completed,15000,,524500,TRUE,Pay Utility with OD via STK,254729355933 - FELISTAH NJERI WAIRIMU,,IDI
QG55WEM11P,05/07/2022 13:03,05/07/2022 13:03,Pay Bill Online from 254710202776 - KELVIN KARIMI MACHARIA Acc. FAD,Completed,11000,,509500,TRUE,Pay Bill Online,254710202776 - KELVIN KARIMI MACHARIA,,FAD
QG54WEGLFG,05/07/2022 13:02,05/07/2022 13:02,Pay Bill Online from 254720696119 - DUNCAN OMONDI OKETCH Acc. IAG,Completed,9000,,498500,TRUE,Pay Bill Online,254720696119 - DUNCAN OMONDI OKETCH,,IAG
QG57WCC2WR,05/07/2022 12:33,05/07/2022 12:33,Pay Bill from 254718244582 - GRANT WANANGWE Acc. KAH,Completed,10000,,489500,TRUE,Pay Utility,254718244582 - GRANT WANANGWE,,KAH
QG56WC0XZO,05/07/2022 12:29,05/07/2022 12:29,Pay Bill from 254728670882 - SHARAD EDWARD ADALA OLUM Acc. KCK,Completed,15000,,479500,TRUE,Pay Utility,254728670882 - SHARAD EDWARD ADALA OLUM,,KCK
QG56WBPWM4,05/07/2022 12:25,05/07/2022 12:25,Pay Bill from 254724852503 - GEOFREY YEGO Acc. JFF,Completed,10000,,464500,TRUE,Pay Utility,254724852503 - GEOFREY YEGO,,JFF
QG51W7OJ4F,05/07/2022 11:30,05/07/2022 11:30,Pay Bill Online from 0722255105 - SALIM OMAR MZEE Acc. KGE,Completed,10000,,454500,TRUE,Pay Bill Online,0722255105 - SALIM OMAR MZEE,,KGE
QG52W6NUAQ,05/07/2022 11:16,05/07/2022 11:16,Pay Bill Online from 254726292792 - PHILIP MIANO Acc. jei,Completed,20000,,444500,TRUE,Pay Bill Online,254726292792 - PHILIP MIANO,,jei
QG54W43MW6,05/07/2022 10:40,05/07/2022 10:40,Pay Bill Online from 254724882554 - ALPHONCE WAMBUA NGELI Acc. JDA ,Completed,20000,,424500,TRUE,Pay Bill Online,254724882554 - ALPHONCE WAMBUA NGELI,,JDA
QG55W0X901,05/07/2022 09:55,05/07/2022 09:55,Pay Bill from 254723488259 - WILSON OKITE OKITE Acc. HCA,Completed,15000,,404500,TRUE,Pay Utility,254723488259 - WILSON OKITE OKITE,,HCA
QG53W04AHP,05/07/2022 09:43,05/07/2022 09:43,Pay Bill Online from 254726001437 - FESTUS MUNYIRI MAINA Acc. IFF,Completed,10000,,389500,TRUE,Pay Bill Online,254726001437 - FESTUS MUNYIRI MAINA,,IFF
QG50VWW4C4,05/07/2022 08:53,05/07/2022 08:53,Pay Bill from 254719398942 - NORAH WAYUA MUNYAO Acc. KDA,Completed,16000,,379500,TRUE,Pay Utility,254719398942 - NORAH WAYUA MUNYAO,,KDA
QG52VWH0A2,05/07/2022 08:46,05/07/2022 08:46,Pay Bill from 254712283818 - OYUGI OCHIENG Acc. FCB,Completed,16000,,363500,TRUE,Pay Utility,254712283818 - OYUGI OCHIENG,,FCB
QG52VVY9P2,05/07/2022 08:38,05/07/2022 08:38,Pay Bill Online from 254718138578 - PAULINE KIOKO Acc. KFD,Completed,12000,,347500,TRUE,Pay Bill Online,254718138578 - PAULINE KIOKO,,KFD
QG40VN1NZ2,04/07/2022 22:49,04/07/2022 22:49,Pay Bill from 254729160700 - MICAH NDUNGI Acc. HFE,Completed,10500,,335500,TRUE,Pay Utility,254729160700 - MICAH NDUNGI,,HFE
QG47VLCTFJ,04/07/2022 22:05,04/07/2022 22:05,Pay Bill from 254722136450 - MARY EVERLYN Acc. JAI,Completed,20000,,325000,TRUE,Pay Utility,254722136450 - MARY EVERLYN,,JAI
QG41VJ3NJB,04/07/2022 21:27,04/07/2022 21:27,Pay Bill from 254703935626 - DAVID NGARI ITA Acc. FCD,Completed,1000,,305000,TRUE,Pay Utility,254703935626 - DAVID NGARI ITA,,FCD
QG49VIM33R,04/07/2022 21:20,04/07/2022 21:20,Pay Bill Online from 254721465713 - RHODA WAMBUI MWANGI Acc. Jfh,Completed,17000,,304000,TRUE,Pay Bill Online,254721465713 - RHODA WAMBUI MWANGI,,Jfh
QG40VFMVVU,04/07/2022 20:43,04/07/2022 20:43,Pay Bill from 254714060203 - PATRICK MWANGOMBE MSAWUCHI Acc. KEI,Completed,12000,,287000,TRUE,Pay Utility,254714060203 - PATRICK MWANGOMBE MSAWUCHI,,KEI
QG41VEIH9R,04/07/2022 20:30,04/07/2022 20:30,Pay Bill from 254724691303 - FREDRICK OTIENO ONEGE Acc. ICH,Completed,20000,,275000,TRUE,Pay Utility,254724691303 - FREDRICK OTIENO ONEGE,,ICH
QG49V8YED9,04/07/2022 19:40,04/07/2022 19:40,Pay Bill from 254741223822 - Rhoyce Kiptarus Boiyo Acc. FEC,Completed,9000,,255000,TRUE,Pay Utility with OD via STK,254741223822 - Rhoyce Kiptarus Boiyo,,FEC
QG42V8V6JC,04/07/2022 19:40,04/07/2022 19:40,Pay Bill from 254720814822 - JAMES OTIENO OPAR Acc. Jgj,Completed,4500,,246000,TRUE,Pay Utility with OD via STK,254720814822 - JAMES OTIENO OPAR,,Jgj
QG49V8J4V1,04/07/2022 19:36,04/07/2022 19:36,Pay Bill from 0746419751 - Faith Nduku Musa Acc. KBE ,Completed,10000,,241500,TRUE,Pay Utility,0746419751 - Faith Nduku Musa,,KBE
QG44V7M67Q,04/07/2022 19:28,04/07/2022 19:28,Pay Bill Online from 254742911013 - HANEST AMIMO Acc. IEG,Completed,8000,,231500,TRUE,Pay Bill Online,254742911013 - HANEST AMIMO,,IEG
QG45V5O6KJ,04/07/2022 19:12,04/07/2022 19:12,Pay Bill from 254724477912 - SAMUEL MURIMI Acc. HCD,Completed,10000,,223500,TRUE,Pay Utility with OD via STK,254724477912 - SAMUEL MURIMI,,HCD
QG40UUY7XG,04/07/2022 17:27,04/07/2022 17:27,Pay Bill from 254798844460 - WYCLIFFE ODHIAMBO NYAGOA Acc. KAC,Completed,10000,,213500,TRUE,Pay Utility,254798844460 - WYCLIFFE ODHIAMBO NYAGOA,,KAC
QG42UQFGPK,04/07/2022 16:34,04/07/2022 16:34,Pay Bill from 254703555717 - SENGA SALIM Acc. hbb,Completed,2000,,203500,TRUE,Pay Utility,254703555717 - SENGA SALIM,,hbb
QG42UQ45I4,04/07/2022 16:30,04/07/2022 16:30,Pay Bill from 254710635630 - DONNA JESSICA OWANO Acc. KCC,Completed,10000,,201500,TRUE,Pay Utility,254710635630 - DONNA JESSICA OWANO,,KCC
QG48UOOTM4,04/07/2022 16:12,04/07/2022 16:12,Pay Bill from 254722263593 - GLADYS KAMAU Acc. Kcj,Completed,17000,,191500,TRUE,Pay Utility,254722263593 - GLADYS KAMAU,,Kcj
QG46UODZ5E,04/07/2022 16:08,04/07/2022 16:08,Pay Bill Online from 254792187144 - HASSAN AHMED HASSAN Acc. KGI,Completed,10000,,174500,TRUE,Pay Bill Online,254792187144 - HASSAN AHMED HASSAN,,KGI
QG46UJTOCM,04/07/2022 15:07,04/07/2022 15:07,Pay Bill from 254791318982 - ADULLAHI HASSAN Acc. JCI,Completed,20000,,164500,TRUE,Pay Utility,254791318982 - ADULLAHI HASSAN,,JCI
QG46UEARLY,04/07/2022 13:54,04/07/2022 13:54,Pay Bill from 254716881682 - JUSTINE FAYUMA OKWEMBA Acc. HAA,Completed,17000,,144500,TRUE,Pay Utility,254716881682 - JUSTINE FAYUMA OKWEMBA,,HAA
QG42UBBJHO,04/07/2022 13:16,04/07/2022 13:16,Pay Bill Online from 0711117122 - Yassir Mwinyi Abdulrazaq Acc. ICE,Completed,4000,,127500,TRUE,Pay Bill Online,0711117122 - Yassir Mwinyi Abdulrazaq,,ICE
QG40UASWJ6,04/07/2022 13:09,04/07/2022 13:09,Pay Bill from 254715742045 - FRIDAH KIEMA Acc. HGC,Completed,9500,,123500,TRUE,Pay Utility,254715742045 - FRIDAH KIEMA,,HGC
QG47U7AMSP,04/07/2022 12:22,04/07/2022 12:22,Pay Bill from 254708570729 - MARY OGOLLA Acc. house no.KAD,Completed,12000,,114000,TRUE,Pay Utility,254708570729 - MARY OGOLLA,,house
QG47U5RI7F,04/07/2022 12:02,04/07/2022 12:02,FSI to Pay Bill by 998094 - COOP TO PAYBILL Acc. KFH via WEB by COOP TO PAYBILL\COOPAYBILLTRNS,Completed,10000,,102000,TRUE,FSI to Pay Bill via API,998094 - COOP TO PAYBILL,,KFH
QG41TZDFH7,04/07/2022 10:33,04/07/2022 10:33,Pay Bill Online from 254728093389 - MOHAMED MUSA ALASOW Acc. KED ,Completed,12000,,92000,TRUE,Pay Bill Online,254728093389 - MOHAMED MUSA ALASOW,,KED
QG46TYU2Z6,04/07/2022 10:25,04/07/2022 10:25,Pay Bill from 254721302658 - JACOB BIRUNDU Acc. HDE,Completed,10000,,80000,TRUE,Pay Utility,254721302658 - JACOB BIRUNDU,,HDE
QG46TYNV72,04/07/2022 10:23,04/07/2022 10:23,Pay Bill from 0706563358 - HARRIET NYANCHAMA NYABERI Acc. FCC,Completed,9000,,70000,TRUE,Pay Utility,0706563358 - HARRIET NYANCHAMA NYABERI,,FCC
QG45TXCC3V,04/07/2022 10:04,04/07/2022 10:04,Pay Bill Online from 254713443185 - FRANCIS ODHIAMBO SALU Acc. HGD,Completed,10000,,61000,TRUE,Pay Bill Online,254713443185 - FRANCIS ODHIAMBO SALU,,HGD
QG44TW5TE0,04/07/2022 09:47,04/07/2022 09:47,Pay Bill Online from 254722258756 - DAVID KEMBOI Acc. HDA,Completed,18000,,51000,TRUE,Pay Bill Online,254722258756 - DAVID KEMBOI,,HDA
QG43TTT70T,04/07/2022 09:11,04/07/2022 09:11,Pay Bill Online from 254712187712 - JUDELEEN SHILOBELE AHINDUKHA Acc. IEA,Completed,15000,,33000,TRUE,Pay Utility with OD Online,254712187712 - JUDELEEN SHILOBELE AHINDUKHA,,IEA
QG44TT47OG,04/07/2022 09:00,04/07/2022 09:00,Pay Bill from 254717148989 - ALLAN MUTHONI Acc. HAC,Completed,10000,,18000,TRUE,Pay Utility,254717148989 - ALLAN MUTHONI,,HAC
QG43TSTWR3,04/07/2022 08:56,04/07/2022 08:56,Pay Bill from 254728854349 - JOSEPH MUSYOKA Acc. IBG,Completed,8000,,8000,TRUE,Pay Utility,254728854349 - JOSEPH MUSYOKA,,IBG
QG48TRG736,04/07/2022 08:33,04/07/2022 08:33,Utility Account to Organization Settlement Account,Completed,,-236000,0,TRUE,Utility Account to Organization Settlement Account,979524 - ANCIENT WELLS PROPERTY MANAGERS 2,,
QG48TP8IX0,04/07/2022 07:52,04/07/2022 07:52,Business Pay Bill by 488519 - NCBA  Bank M-pesa Acc. DCC via API,Completed,20000,,236000,TRUE,Business Pay Bill via API,488519 - NCBA  Bank M-pesa,,DCC
QG44TM2ZC4,04/07/2022 05:39,04/07/2022 05:39,Pay Bill Online from 254722728975 - CURTIS MRIGA OMIDO Acc. IAH,Completed,16000,,216000,TRUE,Pay Bill Online,254722728975 - CURTIS MRIGA OMIDO,,IAH
QG37TETCDZ,03/07/2022 21:14,03/07/2022 21:14,Pay Bill from 0757758972 - BETH MUTHONI KASYOKA Acc. DEA,Completed,16000,,200000,TRUE,Pay Utility,0757758972 - BETH MUTHONI KASYOKA,,DEA
QG30TD8CVC,03/07/2022 20:51,03/07/2022 20:51,Pay Bill from 254703935626 - DAVID NGARI ITA Acc. FCD,Completed,1000,,184000,TRUE,Pay Utility,254703935626 - DAVID NGARI ITA,,FCD
QG39T4PVYV,03/07/2022 19:22,03/07/2022 19:22,Pay Bill Online from 254726116777 - MARY NDUTA GOSHO Acc. JDB ,Completed,15000,,183000,TRUE,Pay Bill Online,254726116777 - MARY NDUTA GOSHO,,JDB
QG37T290YX,03/07/2022 18:58,03/07/2022 18:58,Pay Bill Online from 254721663113 - BEATRICE KIMINZA MUNYOKI Acc. KEJ,Completed,15000,,168000,TRUE,Pay Utility with OD Online,254721663113 - BEATRICE KIMINZA MUNYOKI,,KEJ
QG37STMK1R,03/07/2022 17:17,03/07/2022 17:17,Pay Bill from 0746622973 - SPOTT   THILO Acc. IGD,Completed,10000,,153000,TRUE,Pay Utility,0746622973 - SPOTT   THILO,,IGD
QG35ST1DXV,03/07/2022 17:09,03/07/2022 17:09,Pay Bill from 254718253322 - DUNCAN MOCHOGE Acc. JFJ,Completed,15000,,143000,TRUE,Pay Utility,254718253322 - DUNCAN MOCHOGE,,JFJ
QG33SSE995,03/07/2022 17:01,03/07/2022 17:01,Pay Bill from 254703555717 - SENGA SALIM Acc. hbb,Completed,2000,,128000,TRUE,Pay Utility,254703555717 - SENGA SALIM,,hbb
QG32SBBAHU,03/07/2022 12:57,03/07/2022 12:57,Pay Bill from 254710239100 - PHILOMENA WOKI MUTHAMA Acc. KDK,Completed,17000,,126000,TRUE,Pay Utility,254710239100 - PHILOMENA WOKI MUTHAMA,,KDK
QG33SA3L15,03/07/2022 12:38,03/07/2022 12:38,Pay Bill from 0757604316 - MOHAMED AYUB MUCHEKE Acc. FCA,Completed,6000,,109000,TRUE,Pay Utility,0757604316 - MOHAMED AYUB MUCHEKE,,FCA
QG23RKCABD,02/07/2022 21:51,02/07/2022 21:51,Pay Bill from 254703935626 - DAVID NGARI ITA Acc. FCD,Completed,1000,,103000,TRUE,Pay Utility,254703935626 - DAVID NGARI ITA,,FCD
QG24RGOGU6,02/07/2022 20:59,02/07/2022 20:59,Pay Bill Online from 254700187806 - WINNIE OLIVIA AKOTH Acc. jec,Completed,10000,,102000,TRUE,Pay Bill Online,254700187806 - WINNIE OLIVIA AKOTH,,jec
QG22RB09O6,02/07/2022 20:00,02/07/2022 20:00,Pay Bill from 254702152790 - Michelle Ndunge Kyalo Acc. IDE,Completed,8000,,92000,TRUE,Pay Utility,254702152790 - Michelle Ndunge Kyalo,,IDE
QG22R8BVJG,02/07/2022 19:36,02/07/2022 19:36,Pay Bill from 254725749776 - BEN KORIR Acc. IDF,Completed,11000,,84000,TRUE,Pay Utility,254725749776 - BEN KORIR,,IDF
QG23R26PW1,02/07/2022 18:44,02/07/2022 18:44,Pay Bill Online from 254717809935 - LYDIAH WERU Acc. IEF,Completed,11000,,73000,TRUE,Pay Bill Online,254717809935 - LYDIAH WERU,,IEF
QG20QURG8S,02/07/2022 17:29,02/07/2022 17:29,Pay Bill Online from 254722514052 - JOSEPH NDIRANGU Acc. JCF,Completed,2000,,62000,TRUE,Pay Bill Online,254722514052 - JOSEPH NDIRANGU,,JCF
QG24QSFSVQ,02/07/2022 17:02,02/07/2022 17:02,Pay Bill from 254726013909 - BRENDA OKISA AMUNGA Acc. KCD,Completed,20000,,60000,TRUE,Pay Utility,254726013909 - BRENDA OKISA AMUNGA,,KCD
QG24QRL6PO,02/07/2022 16:53,02/07/2022 16:53,Pay Bill Online from 254708300413 - ROBINSON AYAKO Acc. KEH,Completed,10000,,40000,TRUE,Pay Bill Online,254708300413 - ROBINSON AYAKO,,KEH
QG23QMACMV,02/07/2022 15:46,02/07/2022 15:46,Pay Bill from 254725478531 - KIPKORIR KUTO Acc. DFB,Completed,15000,,30000,TRUE,Pay Utility,254725478531 - KIPKORIR KUTO,,DFB
QG22QH2NSQ,02/07/2022 14:38,02/07/2022 14:38,FSI to Pay Bill by 998094 - COOP TO PAYBILL Acc. Hdg via WEB by COOP TO PAYBILL\COOPAYBILLTRNS,Completed,15000,,15000,TRUE,FSI to Pay Bill via API,998094 - COOP TO PAYBILL,,Hdg
QG25QE9DTJ,02/07/2022 14:02,02/07/2022 14:02,Utility Account to Organization Settlement Account,Completed,,-221500,0,TRUE,Utility Account to Organization Settlement Account,979524 - ANCIENT WELLS PROPERTY MANAGERS 2,,
QG28QBAM3G,02/07/2022 13:24,02/07/2022 13:24,Pay Bill Online from 254719134037 - KELVIN KITOO Acc. FAA,Completed,16000,,221500,TRUE,Pay Bill Online,254719134037 - KELVIN KITOO,,FAA
QG20Q3WTA0,02/07/2022 11:46,02/07/2022 11:46,Pay Bill Online from 254799946039 - LUIS OTIENO Acc. IAE,Completed,8000,,205500,TRUE,Pay Bill Online,254799946039 - LUIS OTIENO,,IAE
QG23Q1869D,02/07/2022 11:09,02/07/2022 11:09,Pay Bill Online from 254714855708 - KIPLANGAT SITIENEI Acc. FAE,Completed,16000,,197500,TRUE,Pay Bill Online,254714855708 - KIPLANGAT SITIENEI,,FAE
QG27PQXNHX,02/07/2022 08:39,02/07/2022 08:39,Pay Bill Online from 254702355678 - JOHN NJOROGE GICHERU Acc. ITE,Completed,10000,,181500,TRUE,Pay Bill Online,254702355678 - JOHN NJOROGE GICHERU,,ITE
QG25PNMXJX,02/07/2022 07:35,02/07/2022 07:35,Pay Bill from 254723929380 - RHODAH K WAMBUA Acc. HEF,Completed,9500,,171500,TRUE,Pay Utility,254723929380 - RHODAH K WAMBUA,,HEF
QG21PK9SIL,02/07/2022 02:01,02/07/2022 02:01,Pay Bill from 254703555717 - SENGA SALIM Acc. hbb,Completed,2000,,162000,TRUE,Pay Utility,254703555717 - SENGA SALIM,,hbb
QG12PJ07ZG,01/07/2022 23:50,01/07/2022 23:50,Pay Bill Online from 254745661722 - MUHAMEDMALIK GAAL Acc. DEC,Completed,9000,,160000,TRUE,Pay Bill Online,254745661722 - MUHAMEDMALIK GAAL,,DEC
QG17PGO87R,01/07/2022 22:23,01/07/2022 22:23,Pay Bill from 254720375006 - JACOB KANGOGO Acc. IBA,Completed,15000,,151000,TRUE,Pay Utility,254720375006 - JACOB KANGOGO,,IBA
QG10PA5KXW,01/07/2022 20:43,01/07/2022 20:43,Pay Bill from 254723901777 - EVANS YEBEI Acc. kch,Completed,10000,,136000,TRUE,Pay Utility,254723901777 - EVANS YEBEI,,kch
QG18P1T4ZY,01/07/2022 19:25,01/07/2022 19:25,Pay Bill from 254720550403 - GRACE WANGONDU Acc. jfi,Completed,20000,,126000,TRUE,Pay Utility,254720550403 - GRACE WANGONDU,,jfi
QG17P0SL35,01/07/2022 19:17,01/07/2022 19:17,Pay Bill from 254719747910 - KEVIN NDERITU GAKINGO Acc. iDD,Completed,11000,,106000,TRUE,Pay Utility,254719747910 - KEVIN NDERITU GAKINGO,,iDD
QG19OYORR3,01/07/2022 18:59,01/07/2022 18:59,Pay Bill from 0769714506 - edith      gakii Acc. DDB,Completed,16000,,95000,TRUE,Pay Utility with OD via STK,0769714506 - edith      gakii,,DDB
QG15OXVHL9,01/07/2022 18:52,01/07/2022 18:52,Pay Bill from 0748059595 - Rashid NASSIR Khamis Acc. DDA,Completed,15000,,79000,TRUE,Pay Utility,0748059595 - Rashid NASSIR Khamis,,DDA
QG17OSQSND,01/07/2022 18:05,01/07/2022 18:05,Pay Bill Online from 254745661722 - MUHAMEDMALIK GAAL Acc. DEC,Completed,10000,,64000,TRUE,Pay Bill Online,254745661722 - MUHAMEDMALIK GAAL,,DEC
QG12OHZV00,01/07/2022 16:06,01/07/2022 16:06,Pay Bill from 254717726012 - WINFRED MUENI PETER Acc. IDA,Completed,16000,,54000,TRUE,Pay Utility with OD via STK,254717726012 - WINFRED MUENI PETER,,IDA
QG11OHG75H,01/07/2022 15:59,01/07/2022 15:59,Pay Bill Online from 254706158280 - patience mutheu mbevi Acc. KFC,Completed,10000,,38000,TRUE,Pay Bill Online,254706158280 - patience mutheu mbevi,,KFC
QG16OGRFCM,01/07/2022 15:50,01/07/2022 15:50,Pay Bill Online from 254715764212 - BANCE ISHEMINYE Acc. JFE ,Completed,2000,,28000,TRUE,Pay Bill Online,254715764212 - BANCE ISHEMINYE,,JFE
QG11OFI1ZX,01/07/2022 15:35,01/07/2022 15:35,Pay Bill from 254722263593 - GLADYS KAMAU Acc. KCJ,Completed,16000,,26000,TRUE,Pay Utility,254722263593 - GLADYS KAMAU,,KCJ
QG17ODK9OH,01/07/2022 15:10,01/07/2022 15:10,Pay Bill from 254114394078 - pascaline iteriteka Acc. JEG,Completed,10000,,10000,TRUE,Pay Utility,254114394078 - pascaline iteriteka,,JEG
QG11OATKIP,01/07/2022 14:35,01/07/2022 14:35,Utility Account to Organization Settlement Account,Completed,,-324600,0,TRUE,Utility Account to Organization Settlement Account,979524 - ANCIENT WELLS PROPERTY MANAGERS 2,,
QG16O7EGKA,01/07/2022 13:51,01/07/2022 13:51,Pay Bill from 254796848496 - IVY WITABA Acc. JBA,Completed,20000,,324600,TRUE,Pay Utility,254796848496 - IVY WITABA,,JBA
QG19O3TW01,01/07/2022 13:06,01/07/2022 13:06,Pay Bill Online from 254795510441 - LEWIS MUEMA Acc. KEB,Completed,16000,,304600,TRUE,Pay Bill Online,254795510441 - LEWIS MUEMA,,KEB
QG14O0SQ6A,01/07/2022 12:26,01/07/2022 12:26,Pay Bill from 254705902606 - JOSEPH OTIENO SAGWA Acc. fed,Completed,11000,,288600,TRUE,Pay Utility,254705902606 - JOSEPH OTIENO SAGWA,,fed
QG16NVY5IA,01/07/2022 11:21,01/07/2022 11:21,Pay Bill from 254725771056 - CHARLES MURAGURI Acc. FCE,Completed,15000,,277600,TRUE,Pay Utility,254725771056 - CHARLES MURAGURI,,FCE
QG19NVEPAL,01/07/2022 11:13,01/07/2022 11:13,Pay Bill from 254711650034 - Lucky Ngoya Acc. JAA,Completed,19600,,262600,TRUE,Pay Utility,254711650034 - Lucky Ngoya,,JAA
QG10NRE2OA,01/07/2022 10:19,01/07/2022 10:19,Pay Bill from 254717438676 - SHIHAB THIIRU Acc. IEI,Completed,15000,,243000,TRUE,Pay Utility,254717438676 - SHIHAB THIIRU,,IEI
QG10NPV4SO,01/07/2022 09:57,01/07/2022 09:57,Pay Bill from 254727766786 - JOHN MAITHA MULWA Acc. ibh,Completed,25000,,228000,TRUE,Pay Utility,254727766786 - JOHN MAITHA MULWA,,ibh
QG14NIGELW,01/07/2022 08:03,01/07/2022 08:03,Pay Bill from 0717216114 - Felix Njeru Mugambi Acc. kdf,Completed,10000,,203000,TRUE,Pay Utility,0717216114 - Felix Njeru Mugambi,,kdf
QG12NC74OW,01/07/2022 00:50,01/07/2022 00:50,Pay Bill from 254726753273 - JESSE K MURIRMI NJERU Acc. HCH,Completed,17000,,193000,TRUE,Pay Utility,254726753273 - JESSE K MURIRMI NJERU,,HCH
