Receipt No.,Completion Time,Initiation Time,Details,Transaction Status,Paid In,Withdrawn,Balance,Balance Confirmed,Reason Type,Other Party Info,Linked Transaction ID,A/C No.
RLL2TSTNWG,21/12/2023 21:01,21/12/2023 21:01,Merchant Pay Utility Received from 7245661 -  OCHIENG CHEMIST  Acc. HFD,Completed,1000,,42000,TRUE,Merchant Pay Utility via API,7245661 -  OCHIENG CHEMIST ,,HFD
RLL6TF1KN8,21/12/2023 19:35,21/12/2023 19:35,Pay Bill from 254769***105 - GEORGE *** Acc. JAG,Completed,10000,,41000,TRUE,Pay Utility,254769***105 - GEORGE ***,,JAG
RLL3SR8N8T,21/12/2023 17:03,21/12/2023 17:03,Pay Bill Online from 254710***992 - SIMON *** Acc. JCD,Completed,15000,,31000,TRUE,Pay Bill Online,254710***992 - SIMON ***,,JCD
RLL2S1M50G,21/12/2023 13:25,21/12/2023 13:25,Pay Bill from 254797***450 - JOHN *** Acc. FAF,Completed,16000,,16000,TRUE,Pay Utility,254797***450 - JOHN ***,,FAF
RLL3S07Q25,21/12/2023 13:13,21/12/2023 13:13,Utility Account to Organization Settlement Account,Completed,,-111700,0,TRUE,Utility Account to Organization Settlement Account,979524 - ANCIENT WELLS PROPERTY MANAGERS 2,,
RLL3RXMOIJ,21/12/2023 12:51,21/12/2023 12:51,Pay Bill Online from 254723***777 - EVANS *** Acc. kch,Completed,5000,,111700,TRUE,Pay Utility with OD Online,254723***777 - EVANS ***,,kch
RLL4RKL6B4,21/12/2023 10:56,21/12/2023 10:56,Pay Bill Online from 254722***107 - JOHN *** Acc. KGF,Completed,10000,,106700,TRUE,Pay Bill Online,254722***107 - JOHN ***,,KGF
RLL4RF53KE,21/12/2023 10:08,21/12/2023 10:08,Pay Bill Online from 254714***486 - BRIAN *** Acc. KBJ,Completed,6000,,96700,TRUE,Pay Bill Online,254714***486 - BRIAN ***,,KBJ
RLL7R7YRXJ,21/12/2023 09:00,21/12/2023 09:00,Pay Bill from 254711***263 - BENSON *** Acc. HFC,Completed,9000,,90700,TRUE,Pay Utility,254711***263 - BENSON ***,,HFC
RLK0QNS5DU,20/12/2023 22:34,20/12/2023 22:34,Pay Bill Online from 254711***087 - MUTHIANI *** Acc. IDB,Completed,15000,,81700,TRUE,Pay Bill Online,254711***087 - MUTHIANI ***,,IDB
RLK9QM2013,20/12/2023 22:11,20/12/2023 22:11,Merchant Pay Utility Received from 7245661 -  OCHIENG CHEMIST  Acc. HFD,Completed,700,,66700,TRUE,Merchant Pay Utility via API,7245661 -  OCHIENG CHEMIST ,,HFD
RLK5PXR9QP,20/12/2023 19:19,20/12/2023 19:19,Pay Bill Online from 254701***737 - MICHAEL *** Acc. HDB,Completed,16000,,66000,TRUE,Pay Bill Online,254701***737 - MICHAEL ***,,HDB
RLK4PJ09JM,20/12/2023 17:48,20/12/2023 17:48,Pay Bill Online from 254718***538 - JAMES *** Acc. JBH,Completed,16000,,50000,TRUE,Pay Bill Online,254718***538 - JAMES ***,,JBH
RLK1PBDEO9,20/12/2023 16:50,20/12/2023 16:50,Pay Bill from 254714***944 - MERCY *** Acc. hff,Completed,10000,,34000,TRUE,Pay Utility,254714***944 - MERCY ***,,hff
RLK8OJK55K,20/12/2023 12:46,20/12/2023 12:46,Pay Bill Online from 254728***775 - Faith *** Acc. JAC,Completed,8000,,24000,TRUE,Pay Bill Online,254728***775 - Faith ***,,JAC
RLK4OBF1GW,20/12/2023 11:32,20/12/2023 11:32,Pay Bill Online from 254712***681 - DENNIS *** Acc. HAG,Completed,16000,,16000,TRUE,Pay Bill Online,254712***681 - DENNIS ***,,HAG
RLK8NZSL56,20/12/2023 09:46,20/12/2023 09:46,Utility Account to Organization Settlement Account,Completed,,-86000,0,TRUE,Utility Account to Organization Settlement Account,979524 - ANCIENT WELLS PROPERTY MANAGERS 2,,
RLJ2N7OD78,19/12/2023 21:48,19/12/2023 21:48,Merchant Pay Utility Received from 7245661 -  OCHIENG CHEMIST  Acc. HFD,Completed,1000,,86000,TRUE,Merchant Pay Utility via API,7245661 -  OCHIENG CHEMIST ,,HFD
RLJ2MPOD08,19/12/2023 19:40,19/12/2023 19:40,Pay Bill Online from 254724***857 - OCHUODHO *** Acc. KBK,Completed,17000,,85000,TRUE,Pay Bill Online,254724***857 - OCHUODHO ***,,KBK
RLJ6M9M45E,19/12/2023 18:05,19/12/2023 18:05,Pay Bill Online from 254726***777 - MARY *** Acc. JDB,Completed,15000,,68000,TRUE,Pay Utility with OD Online,254726***777 - MARY ***,,JDB
RLJ9LSK627,19/12/2023 15:48,19/12/2023 15:48,Pay Bill from 254703***626 - DAVID *** Acc. FCD,Completed,1000,,53000,TRUE,Pay Utility with OD via STK,254703***626 - DAVID ***,,FCD
RLJ6LAGAA4,19/12/2023 13:07,19/12/2023 13:07,Pay Bill from 254704***133 - ELVIS *** Acc. HFD,Completed,1000,,52000,TRUE,Pay Utility,254704***133 - ELVIS ***,,HFD
RLJ9L8WDHN,19/12/2023 12:53,19/12/2023 12:53,Pay Bill from 254720***119 - LINDAH *** Acc. kfe,Completed,10000,,51000,TRUE,Pay Utility,254720***119 - LINDAH ***,,kfe
RLJ9L436ZF,19/12/2023 12:09,19/12/2023 12:09,Pay Bill from 074378***968 - Dallias *** Acc. hbb,Completed,2000,,41000,TRUE,Pay Utility,074378***968 - Dallias ***,,hbb
RLJ5KHW9UH,19/12/2023 08:39,19/12/2023 08:39,Pay Bill Online from 254710***776 - KELVIN *** Acc. FAD,Completed,8000,,39000,TRUE,Pay Bill Online,254710***776 - KELVIN ***,,FAD
RLJ8KESNLW,19/12/2023 08:05,19/12/2023 08:05,Pay Bill from 254717***848 - MARY *** Acc. FGD,Completed,9000,,31000,TRUE,Pay Utility with OD via STK,254717***848 - MARY ***,,FGD
RLI2JOUF2W,18/12/2023 20:36,18/12/2023 20:36,Pay Bill from 254716***300 - BRIAN *** Acc. HEH,Completed,16000,,22000,TRUE,Pay Utility,254716***300 - BRIAN ***,,HEH
RLI0IZ3X24,18/12/2023 18:00,18/12/2023 18:00,Pay Bill Online from 254704***133 - ELVIS *** Acc. HFD,Completed,2000,,6000,TRUE,Pay Bill Online,254704***133 - ELVIS ***,,HFD
RLI9INQUBV,18/12/2023 16:33,18/12/2023 16:33,Pay Bill from 254796***496 - IVY *** Acc. FAA,Completed,4000,,4000,TRUE,Pay Utility,254796***496 - IVY ***,,FAA
RLI3IDXB5N,18/12/2023 15:06,18/12/2023 15:06,Utility Account to Organization Settlement Account,Completed,,-612400,0,TRUE,Utility Account to Organization Settlement Account,979524 - ANCIENT WELLS PROPERTY MANAGERS 2,,
RLI0I5CMYY,18/12/2023 13:51,18/12/2023 13:51,Pay Bill Online from 254703***395 - JANE *** Acc. IBE,Completed,8000,,612400,TRUE,Pay Bill Online,254703***395 - JANE ***,,IBE
RLI6HWTGR0,18/12/2023 12:36,18/12/2023 12:36,Pay Bill from 072541***312 - faith *** Acc. KGC,Completed,5000,,604400,TRUE,Pay Utility,072541***312 - faith ***,,KGC
RLI1HIUABZ,18/12/2023 10:28,18/12/2023 10:28,Merchant Pay Utility Received from 7245661 -  OCHIENG CHEMIST  Acc. HFD,Completed,1000,,599400,TRUE,Merchant Pay Utility via API,7245661 -  OCHIENG CHEMIST ,,HFD
RLI8H5AW6S,18/12/2023 08:14,18/12/2023 08:14,Pay Bill from 254722***136 - NADI *** Acc. JEA,Completed,3000,,598400,TRUE,Pay Utility with OD via STK,254722***136 - NADI ***,,JEA
RLH9EJU943,17/12/2023 10:59,17/12/2023 10:59,Pay Bill from 254718***145 - KITEMI *** Acc. KGD,Completed,10000,,595400,TRUE,Pay Utility,254718***145 - KITEMI ***,,KGD
RLG0DONCNU,16/12/2023 22:11,16/12/2023 22:11,Business Pay Bill by 488519 - NCBA  Bank M-pesa Acc. ICC via API,Completed,9000,,585400,TRUE,Business Pay Bill via API,488519 - NCBA  Bank M-pesa,,ICC
RLG3DHIPUP,16/12/2023 21:04,16/12/2023 21:04,Pay Bill from 254703***626 - DAVID *** Acc. FCD,Completed,1000,,576400,TRUE,Pay Utility,254703***626 - DAVID ***,,FCD
RLG1D7SBMP,16/12/2023 19:59,16/12/2023 19:59,Pay Bill from 254728***249 - ESTHER *** Acc. ICA,Completed,17000,,575400,TRUE,Pay Utility,254728***249 - ESTHER ***,,ICA
RLG5D7IVDD,16/12/2023 19:57,16/12/2023 19:57,Pay Bill Online from 254710***381 - JANE *** Acc. HAF,Completed,10000,,558400,TRUE,Pay Bill Online,254710***381 - JANE ***,,HAF
RLG0CG14X4,16/12/2023 17:02,16/12/2023 17:02,Utility Account to Organization Settlement Account,Completed,,-200000,548400,TRUE,Utility Account to Organization Settlement Account,979524 - ANCIENT WELLS PROPERTY MANAGERS 2,,
RLG9C6ECUF,16/12/2023 15:42,16/12/2023 15:42,Pay Bill Online from 254720***253 - JIMMY *** Acc. KBD,Completed,1000,,748400,TRUE,Pay Utility with OD Online,254720***253 - JIMMY ***,,KBD
RLG5BM9ULH,16/12/2023 12:49,16/12/2023 12:49,Pay Bill from 254720***502 - JOHN *** Acc. JFA,Completed,2000,,747400,TRUE,Pay Utility,254720***502 - JOHN ***,,JFA
RLG1ANG0E3,16/12/2023 06:48,16/12/2023 06:48,Pay Bill from 254719***657 - SAMUEL *** Acc. JGA,Completed,6000,,745400,TRUE,Pay Utility,254719***657 - SAMUEL ***,,JGA
RLG6AMSB6Y,16/12/2023 06:32,16/12/2023 06:32,Pay Bill from 075725***130 - RASHID *** Acc. JAF,Completed,1000,,739400,TRUE,Pay Utility,075725***130 - RASHID ***,,JAF
RLG0ALXYNY,16/12/2023 06:00,16/12/2023 06:00,Pay Bill Online from 254722***078 - MAUREEN *** Acc. DCD,Completed,7000,,738400,TRUE,Pay Utility with OD Online,254722***078 - MAUREEN ***,,DCD
RLF39N1JWT,15/12/2023 19:14,15/12/2023 19:14,Pay Bill from 254722***480 - PATRICK *** Acc. KGH,Completed,9500,,731400,TRUE,Pay Utility,254722***480 - PATRICK ***,,KGH
RLF496Q9OU,15/12/2023 17:34,15/12/2023 17:34,Pay Bill Online from 254723***071 - AMOS *** Acc. JCE,Completed,9000,,721900,TRUE,Pay Bill Online,254723***071 - AMOS ***,,JCE
RLF68YH74Q,15/12/2023 16:32,15/12/2023 16:32,Utility Account to Organization Settlement Account,Completed,,-100000,712900,TRUE,Utility Account to Organization Settlement Account,979524 - ANCIENT WELLS PROPERTY MANAGERS 2,,
RLF28ARYX0,15/12/2023 13:10,15/12/2023 13:10,Pay Bill from 254799***755 - CAROLINE *** Acc. IEF,Completed,12000,,812900,TRUE,Pay Utility,254799***755 - CAROLINE ***,,IEF
RLF47ZNWIE,15/12/2023 11:32,15/12/2023 11:32,Pay Bill Online from 254725***946 - GODFREY *** Acc. HEE,Completed,5000,,800900,TRUE,Pay Bill Online,254725***946 - GODFREY ***,,HEE
RLF27ZKTB0,15/12/2023 11:31,15/12/2023 11:31,Utility Account to Organization Settlement Account,Completed,,-200000,795900,TRUE,Utility Account to Organization Settlement Account,979524 - ANCIENT WELLS PROPERTY MANAGERS 2,,
RLF57W0ZPL,15/12/2023 11:00,15/12/2023 11:00,Business Pay Bill by 488519 - NCBA  Bank M-pesa Acc. hab via API,Completed,16000,,995900,TRUE,Business Pay Bill via API,488519 - NCBA  Bank M-pesa,,hab
RLF37SVQE7,15/12/2023 10:31,15/12/2023 10:31,Pay Bill Online from 254799***749 - KENNEDY *** Acc. DDD,Completed,4100,,979900,TRUE,Pay Bill Online,254799***749 - KENNEDY ***,,DDD
RLF07NDK02,15/12/2023 09:40,15/12/2023 09:40,Pay Bill from 079053***272 - BARNABAS *** Acc. FGC,Completed,3000,,975800,TRUE,Pay Utility,079053***272 - BARNABAS ***,,FGC
RLF17N1P41,15/12/2023 09:37,15/12/2023 09:37,Pay Bill from 254723***533 - ADDAH *** Acc. IEG,Completed,11000,,972800,TRUE,Pay Utility,254723***533 - ADDAH ***,,IEG
RLF87HICFE,15/12/2023 08:41,15/12/2023 08:41,Pay Bill from 079137***873 - Joseph *** Acc. HAH,Completed,16000,,961800,TRUE,Pay Utility with OD via STK,079137***873 - Joseph ***,,HAH
RLF079B6Z2,15/12/2023 06:54,15/12/2023 06:54,Pay Bill from 254710***394 - LUCY *** Acc. KBG,Completed,1000,,945800,TRUE,Pay Utility,254710***394 - LUCY ***,,KBG
RLE1735Q69,14/12/2023 23:38,14/12/2023 23:38,Pay Bill Online from 079053***272 - BARNABAS *** Acc. FGC,Completed,5000,,944800,TRUE,Pay Bill Online,079053***272 - BARNABAS ***,,FGC
RLE35M7X01,14/12/2023 16:32,14/12/2023 16:32,Pay Bill from 254727***667 - HILDA *** Acc. JBE,Completed,5000,,939800,TRUE,Pay Utility,254727***667 - HILDA ***,,JBE
RLE34GT08B,14/12/2023 10:21,14/12/2023 10:21,Utility Account to Organization Settlement Account,Completed,,-200000,934800,TRUE,Utility Account to Organization Settlement Account,979524 - ANCIENT WELLS PROPERTY MANAGERS 2,,
RLD22YLYP6,13/12/2023 19:00,13/12/2023 19:00,Pay Bill from 254720***007 - BRENDA *** Acc. KAB ,Completed,16000,,1134800,TRUE,Pay Utility,254720***007 - BRENDA ***,,KAB
RLD929MWEF,13/12/2023 16:01,13/12/2023 16:01,Pay Bill from 254727***667 - HILDA *** Acc. JBE,Completed,4000,,1118800,TRUE,Pay Utility,254727***667 - HILDA ***,,JBE
RLD01Z42W6,13/12/2023 14:26,13/12/2023 14:26,Pay Bill from 254722***724 - Cosmas *** Acc. KAG,Completed,20000,,1114800,TRUE,Pay Utility,254722***724 - Cosmas ***,,KAG
RLD01UY4ZG,13/12/2023 13:49,13/12/2023 13:49,Pay Bill from 254700***449 - JOHN *** Acc. HCE,Completed,10500,,1094800,TRUE,Pay Utility,254700***449 - JOHN ***,,HCE
RLD11O9VDN,13/12/2023 12:46,13/12/2023 12:46,Pay Bill from 254707***639 - Annastacia *** Acc. JFC ,Completed,10000,,1084300,TRUE,Pay Utility,254707***639 - Annastacia ***,,JFC
RLD81FY7FG,13/12/2023 11:29,13/12/2023 11:29,Pay Bill Online from 254720***253 - JIMMY *** Acc. KBD,Completed,1000,,1074300,TRUE,Pay Utility with OD Online,254720***253 - JIMMY ***,,KBD
RLD71DYB9J,13/12/2023 11:11,13/12/2023 11:11,Pay Bill from 254711***333 - JOSEPH *** Acc. KBH,Completed,6000,,1073300,TRUE,Pay Utility,254711***333 - JOSEPH ***,,KBH
RLD31804N7,13/12/2023 10:17,13/12/2023 10:17,Pay Bill Online from 254728***775 - Faith *** Acc. JAC,Completed,3000,,1067300,TRUE,Pay Bill Online,254728***775 - Faith ***,,JAC
RLD7ZPJFR1,13/12/2023 06:39,13/12/2023 06:39,Pay Bill from 254703***196 - ERIC *** Acc. KGJ,Completed,6500,,1064300,TRUE,Pay Utility,254703***196 - ERIC ***,,KGJ
RLC3ZISGB5,12/12/2023 23:10,12/12/2023 23:10,Pay Bill from 254720***103 - NJENGA *** Acc. kca,Completed,16000,,1057800,TRUE,Pay Utility,254720***103 - NJENGA ***,,kca
RLC6ZDZP9E,12/12/2023 21:57,12/12/2023 21:57,Pay Bill Online from 254715***212 - BANCE *** Acc. JFE,Completed,1000,,1041800,TRUE,Pay Bill Online,254715***212 - BANCE ***,,JFE
RLC4Z2U1IS,12/12/2023 20:22,12/12/2023 20:22,Pay Bill from 254720***822 - JAMES *** Acc. jgj,Completed,9500,,1040800,TRUE,Pay Utility with OD via STK,254720***822 - JAMES ***,,jgj
RLC0YZMKCM,12/12/2023 20:01,12/12/2023 20:01,Pay Bill from 254724***882 - JOEL *** Acc. fee,Completed,16000,,1031300,TRUE,Pay Utility,254724***882 - JOEL ***,,fee
RLC0YT0BL0,12/12/2023 19:22,12/12/2023 19:22,Pay Bill from 254717***596 - NICHOLAS *** Acc. hcf,Completed,9000,,1015300,TRUE,Pay Utility,254717***596 - NICHOLAS ***,,hcf
RLC1YQ45A7,12/12/2023 19:06,12/12/2023 19:06,Pay Bill from 254714***053 - ANTHONY *** Acc. JBD,Completed,10000,,1006300,TRUE,Pay Utility,254714***053 - ANTHONY ***,,JBD
RLC7YNZ3CP,12/12/2023 18:54,12/12/2023 18:54,Pay Bill Online from 254715***656 - DENNIS *** Acc. kfa,Completed,6000,,996300,TRUE,Pay Bill Online,254715***656 - DENNIS ***,,kfa
RLC2XLFWWO,12/12/2023 13:37,12/12/2023 13:37,Pay Bill from 254721***810 - MARY *** Acc. KEC,Completed,10000,,990300,TRUE,Pay Utility,254721***810 - MARY ***,,KEC
RLC9XKLJID,12/12/2023 13:30,12/12/2023 13:30,Pay Bill from 254113***239 - WILLIAM *** Acc. JAE,Completed,16000,,980300,TRUE,Pay Utility,254113***239 - WILLIAM ***,,JAE
RLC6XKCD4E,12/12/2023 13:28,12/12/2023 13:28,Pay Bill Online from 254720***253 - JIMMY *** Acc. KBD,Completed,1000,,964300,TRUE,Pay Bill Online,254720***253 - JIMMY ***,,KBD
RLC5XFTXCX,12/12/2023 12:48,12/12/2023 12:48,Pay Bill from 254705***606 - JOSEPH *** Acc. fed,Completed,12000,,963300,TRUE,Pay Utility,254705***606 - JOSEPH ***,,fed
RLC7WQQ4GD,12/12/2023 08:54,12/12/2023 08:54,Pay Bill from 254710***394 - LUCY *** Acc. KBG,Completed,1000,,951300,TRUE,Pay Utility with OD via STK,254710***394 - LUCY ***,,KBG
RLC6WMF8Y0,12/12/2023 08:07,12/12/2023 08:07,Pay Bill from 254713***755 - OLO *** Acc. HBD,Completed,10000,,950300,TRUE,Pay Utility,254713***755 - OLO ***,,HBD
RLC9WCMU0D,12/12/2023 00:46,12/12/2023 00:46,Pay Bill from 075705***882 - FAITH *** Acc. HDF ,Completed,9000,,940300,TRUE,Pay Utility,075705***882 - FAITH ***,,HDF
RLB0W19R6K,11/12/2023 21:17,11/12/2023 21:17,Pay Bill from 254796***496 - IVY *** Acc. FAA,Completed,4000,,931300,TRUE,Pay Utility,254796***496 - IVY ***,,FAA
RLB2VXD1ZE,11/12/2023 20:47,11/12/2023 20:47,Pay Bill Online from 254712***240 - GLORY *** Acc. KAA,Completed,16000,,927300,TRUE,Pay Utility with OD Online,254712***240 - GLORY ***,,KAA
RLB8U3WD5A,11/12/2023 12:46,11/12/2023 12:46,Pay Bill from 254703***963 - WYCLIFF *** Acc. IBC,Completed,9000,,911300,TRUE,Pay Utility with OD via STK,254703***963 - WYCLIFF ***,,IBC
RLB0U34K9Y,11/12/2023 12:39,11/12/2023 12:39,Pay Bill from 072541***312 - faith *** Acc. KGC,Completed,2000,,902300,TRUE,Pay Utility,072541***312 - faith ***,,KGC
RLB7U2ATTH,11/12/2023 12:31,11/12/2023 12:31,Pay Bill Online from 254720***253 - JIMMY *** Acc. KBD,Completed,5000,,900300,TRUE,Pay Bill Online,254720***253 - JIMMY ***,,KBD
RLB9U1UAUX,11/12/2023 12:27,11/12/2023 12:27,Pay Bill from 254796***018 - PEACE *** Acc. JEE,Completed,20000,,895300,TRUE,Pay Utility with OD via STK,254796***018 - PEACE ***,,JEE
RLB0TMKQJY,11/12/2023 10:07,11/12/2023 10:07,Pay Bill from 254719***823 - MOSES *** Acc. Jcc,Completed,12000,,875300,TRUE,Pay Utility,254719***823 - MOSES ***,,Jcc
RLB4TD8V1M,11/12/2023 08:32,11/12/2023 08:32,Pay Bill Online from 254715***656 - DENNIS *** Acc. kfa,Completed,5000,,863300,TRUE,Pay Bill Online,254715***656 - DENNIS ***,,kfa
RLB9T6E4DN,11/12/2023 07:05,11/12/2023 07:05,Pay Bill from 254748***777 - SAGE *** Acc. IAD,Completed,11000,,858300,TRUE,Pay Utility,254748***777 - SAGE ***,,IAD
RLA4SXTYPA,10/12/2023 22:25,10/12/2023 22:25,Pay Bill Online from 254719***219 - PHILIP *** Acc. JDH,Completed,21000,,847300,TRUE,Pay Utility with OD Online,254719***219 - PHILIP ***,,JDH
RLA9SXRN4T,10/12/2023 22:23,10/12/2023 22:23,Pay Bill from 254716***384 - GREGORY *** Acc. DAD,Completed,20000,,826300,TRUE,Pay Utility,254716***384 - GREGORY ***,,DAD
RLA3S60R2P,10/12/2023 18:38,10/12/2023 18:38,Pay Bill from 074378***968 - Dallias *** Acc. hbb,Completed,3000,,806300,TRUE,Pay Utility,074378***968 - Dallias ***,,hbb
RLA5S1C3YR,10/12/2023 18:04,10/12/2023 18:04,Pay Bill from 254720***502 - JOHN *** Acc. JFA,Completed,3000,,803300,TRUE,Pay Utility,254720***502 - JOHN ***,,JFA
RLA9RVIJ9P,10/12/2023 17:17,10/12/2023 17:17,Merchant Pay Utility Received from 6227093 -     RACHAEL WANZA MUIA      Acc. wines,Completed,5400,,800300,TRUE,Merchant Pay Utility via API,6227093 -     RACHAEL WANZA MUIA     ,,wines
RLA9RV5KGP,10/12/2023 17:14,10/12/2023 17:14,Merchant Pay Utility Received from 6227093 -     RACHAEL WANZA MUIA      Acc. wines,Completed,600,,794900,TRUE,Merchant Pay Utility via API,6227093 -     RACHAEL WANZA MUIA     ,,wines
RLA0RPRA0G,10/12/2023 16:30,10/12/2023 16:30,Pay Bill from 254792***192 - KELVIN *** Acc. ICE,Completed,9000,,794300,TRUE,Pay Utility,254792***192 - KELVIN ***,,ICE
RLA8RC7A4I,10/12/2023 14:29,10/12/2023 14:29,Pay Bill from 254740***741 - MUHINDI *** Acc. 846783,Completed,15000,,785300,TRUE,Pay Utility,254740***741 - MUHINDI ***,,846783
RLA9RBCK1N,10/12/2023 14:21,10/12/2023 14:21,Pay Bill from 254713***244 - ROBERT *** Acc. HFB,Completed,16000,,770300,TRUE,Pay Utility,254713***244 - ROBERT ***,,HFB
RLA6R04ITS,10/12/2023 12:32,10/12/2023 12:32,Pay Bill from 254710***391 - CHEPKOECH *** Acc. KAH,Completed,10000,,754300,TRUE,Pay Utility,254710***391 - CHEPKOECH ***,,KAH
RLA8QOAE5O,10/12/2023 10:27,10/12/2023 10:27,Pay Bill from 254741***910 - VINCENT *** Acc. HBC,Completed,10000,,744300,TRUE,Pay Utility,254741***910 - VINCENT ***,,HBC
RL92O48A1K,09/12/2023 14:40,09/12/2023 14:40,Pay Bill from 254720***609 - DENNIS *** Acc. JAJ,Completed,3000,,734300,TRUE,Pay Utility,254720***609 - DENNIS ***,,JAJ
RL98O3Z5U6,09/12/2023 14:38,09/12/2023 14:38,Pay Bill Online from 254720***253 - JIMMY *** Acc. KBD,Completed,1500,,731300,TRUE,Pay Utility with OD Online,254720***253 - JIMMY ***,,KBD
RL93O2PU4D,09/12/2023 14:27,09/12/2023 14:27,Pay Bill Online from 254720***253 - JIMMY *** Acc. KBD,Completed,500,,729800,TRUE,Pay Utility with OD Online,254720***253 - JIMMY ***,,KBD
RL94NZVSCA,09/12/2023 14:04,09/12/2023 14:04,Utility Account to Organization Settlement Account,Completed,,-400000,729300,TRUE,Utility Account to Organization Settlement Account,979524 - ANCIENT WELLS PROPERTY MANAGERS 2,,
RL99NZNQ6V,09/12/2023 14:02,09/12/2023 14:02,Pay Bill from 079144***135 - HADIJA *** Acc. HTA,Completed,9000,,1129300,TRUE,Pay Utility,079144***135 - HADIJA ***,,HTA
RL93NY8GED,09/12/2023 13:50,09/12/2023 13:50,Pay Bill Online from 254720***253 - JIMMY *** Acc. KBD,Completed,6000,,1120300,TRUE,Pay Utility with OD Online,254720***253 - JIMMY ***,,KBD
RL91NXE7FT,09/12/2023 13:44,09/12/2023 13:44,Pay Bill from 254723***228 - MORARA *** Acc. pool ,Completed,22000,,1114300,TRUE,Pay Utility with OD via STK,254723***228 - MORARA ***,,pool
RL93NU5735,09/12/2023 13:17,09/12/2023 13:17,Pay Bill from 254726***933 - JOSHUA *** Acc. KAJ,Completed,13000,,1092300,TRUE,Pay Utility with OD via STK,254726***933 - JOSHUA ***,,KAJ
RL97NQ0IAP,09/12/2023 12:42,09/12/2023 12:42,Pay Bill from 254710***100 - PHILOMENA *** Acc. KDK,Completed,17000,,1079300,TRUE,Pay Utility,254710***100 - PHILOMENA ***,,KDK
RL92NOQ5ZO,09/12/2023 12:31,09/12/2023 12:31,Pay Bill from 071744***870 - Steven *** Acc. KTA,Completed,9500,,1062300,TRUE,Pay Utility,071744***870 - Steven ***,,KTA
RL94NGXQRY,09/12/2023 11:23,09/12/2023 11:23,Pay Bill from 254726***273 - JESSE *** Acc. HCH,Completed,17000,,1052800,TRUE,Pay Utility,254726***273 - JESSE ***,,HCH
RL90N76QR6,09/12/2023 09:58,09/12/2023 09:58,Pay Bill Online from 254725***946 - GODFREY *** Acc. HEE,Completed,10000,,1035800,TRUE,Pay Bill Online,254725***946 - GODFREY ***,,HEE
RL97N280IB,09/12/2023 09:10,09/12/2023 09:10,Pay Bill from 254719***657 - SAMUEL *** Acc. JGA,Completed,4000,,1025800,TRUE,Pay Utility,254719***657 - SAMUEL ***,,JGA
RL94MZ9JXG,09/12/2023 08:41,09/12/2023 08:41,Pay Bill Online from 254722***078 - MAUREEN *** Acc. DCD,Completed,5500,,1021800,TRUE,Pay Bill Online,254722***078 - MAUREEN ***,,DCD
RL83M0WI7T,08/12/2023 20:23,08/12/2023 20:23,Pay Bill Online from 254714***193 - CHRISTOPHER *** Acc. JGI ,Completed,20500,,1016300,TRUE,Pay Bill Online,254714***193 - CHRISTOPHER ***,,JGI
RL86M0DOBG,08/12/2023 20:20,08/12/2023 20:20,Pay Bill from 254725***246 - FRANCIS *** Acc. IGI,Completed,15000,,995800,TRUE,Pay Utility,254725***246 - FRANCIS ***,,IGI
RL89LRAVOL,08/12/2023 19:28,08/12/2023 19:28,Pay Bill from 254721***448 - EVERLYNE *** Acc. JCA,Completed,10000,,980800,TRUE,Pay Utility,254721***448 - EVERLYNE ***,,JCA
RL84L21WDK,08/12/2023 16:50,08/12/2023 16:50,Pay Bill Online from 254713***424 - NDUTI *** Acc. jed,Completed,15000,,970800,TRUE,Pay Bill Online,254713***424 - NDUTI ***,,jed
RL89KRLFQF,08/12/2023 15:23,08/12/2023 15:23,Pay Bill Online from 254718***322 - DUNCAN *** Acc. JFJ,Completed,15000,,955800,TRUE,Pay Utility with OD Online,254718***322 - DUNCAN ***,,JFJ
RL81KNPG5R,08/12/2023 14:49,08/12/2023 14:49,Utility Account to Organization Settlement Account,Completed,,-400000,940800,TRUE,Utility Account to Organization Settlement Account,979524 - ANCIENT WELLS PROPERTY MANAGERS 2,,
RL86KIEW3O,08/12/2023 14:05,08/12/2023 14:05,Pay Bill from 254758***136 - SCOVIAH *** Acc. JCA,Completed,10000,,1340800,TRUE,Pay Utility,254758***136 - SCOVIAH ***,,JCA
RL88KHLHN0,08/12/2023 13:58,08/12/2023 13:58,Pay Bill Online from 254741***957 - Mercy *** Acc. JCB,Completed,2000,,1330800,TRUE,Pay Bill Online,254741***957 - Mercy ***,,JCB
RL81K8PUPN,08/12/2023 12:43,08/12/2023 12:43,Pay Bill Online from 254712***302 - EMMANUEL *** Acc. KEA,Completed,16000,,1328800,TRUE,Pay Bill Online,254712***302 - EMMANUEL ***,,KEA
RL83K41CDD,08/12/2023 12:02,08/12/2023 12:02,Pay Bill from 079094***220 - Joyce *** Acc. IAG,Completed,7900,,1312800,TRUE,Pay Utility with OD via STK,079094***220 - Joyce ***,,IAG
RL86K3OZA4,08/12/2023 11:59,08/12/2023 11:59,Pay Bill from 254720***502 - JOHN *** Acc. JFA,Completed,5000,,1304900,TRUE,Pay Utility,254720***502 - JOHN ***,,JFA
RL80JWJBUO,08/12/2023 10:56,08/12/2023 10:56,Pay Bill from 254717***198 - JIM *** Acc. IGG,Completed,9000,,1299900,TRUE,Pay Utility,254717***198 - JIM ***,,IGG
RL82JV9PA8,08/12/2023 10:45,08/12/2023 10:45,Pay Bill Online from 254710***965 - BRENDA *** Acc. hfg,Completed,15000,,1290900,TRUE,Pay Bill Online,254710***965 - BRENDA ***,,hfg
RL85JUMI8D,08/12/2023 10:40,08/12/2023 10:40,Pay Bill from 071568***238 - JOANNAH *** Acc. FFA,Completed,15000,,1275900,TRUE,Pay Utility,071568***238 - JOANNAH ***,,FFA
RL86JS9YJC,08/12/2023 10:19,08/12/2023 10:19,Pay Bill Online from 254799***069 - ALPHONCE *** Acc. IEE,Completed,8500,,1260900,TRUE,Pay Bill Online,254799***069 - ALPHONCE ***,,IEE
RL81JH6DBP,08/12/2023 08:34,08/12/2023 08:34,Pay Bill Online from 070640***366 - LUCY *** Acc. KDB,Completed,19000,,1252400,TRUE,Pay Bill Online,070640***366 - LUCY ***,,KDB
RL85JF529Z,08/12/2023 08:13,08/12/2023 08:13,Pay Bill from 254717***817 - NYANGAU *** Acc. jba,Completed,17000,,1233400,TRUE,Pay Utility,254717***817 - NYANGAU ***,,jba
RL85JBP2VR,08/12/2023 07:34,08/12/2023 07:34,Pay Bill from 254724***912 - SAMUEL *** Acc. HCD,Completed,10000,,1216400,TRUE,Pay Utility,254724***912 - SAMUEL ***,,HCD
RL82J59H20,08/12/2023 03:11,08/12/2023 03:11,Pay Bill Online from 254715***212 - BANCE *** Acc. JFE,Completed,1000,,1206400,TRUE,Pay Bill Online,254715***212 - BANCE ***,,JFE
RL77J1VZ9H,07/12/2023 23:31,07/12/2023 23:31,Pay Bill Online from 254726***792 - PHILIP *** Acc. JEI,Completed,20000,,1205400,TRUE,Pay Bill Online,254726***792 - PHILIP ***,,JEI
RL71IXNU1V,07/12/2023 22:15,07/12/2023 22:15,Pay Bill Online from 254714***486 - BRIAN *** Acc. KBJ,Completed,10000,,1185400,TRUE,Pay Utility with OD Online,254714***486 - BRIAN ***,,KBJ
RL75IGIR65,07/12/2023 20:02,07/12/2023 20:02,Pay Bill from 254721***975 - JOSEPH *** Acc. H E B,Completed,16000,,1175400,TRUE,Pay Utility,254721***975 - JOSEPH ***,,H
RL79I9LV7X,07/12/2023 19:24,07/12/2023 19:24,Pay Bill from 254710***394 - LUCY *** Acc. KBG,Completed,7000,,1159400,TRUE,Pay Utility,254710***394 - LUCY ***,,KBG
RL71I3HHP1,07/12/2023 18:52,07/12/2023 18:52,Pay Bill from 254711***333 - JOSEPH *** Acc. KBH,Completed,5000,,1152400,TRUE,Pay Utility,254711***333 - JOSEPH ***,,KBH
RL78I0QWSE,07/12/2023 18:37,07/12/2023 18:37,Pay Bill from 254722***235 - AHMED *** Acc. IGD,Completed,10000,,1147400,TRUE,Pay Utility with OD via STK,254722***235 - AHMED ***,,IGD
RL73HYVWTF,07/12/2023 18:25,07/12/2023 18:25,Pay Bill from 254706***081 - FATUMA *** Acc. HED,Completed,9000,,1137400,TRUE,Pay Utility,254706***081 - FATUMA ***,,HED
RL76HOLMPW,07/12/2023 17:16,07/12/2023 17:16,Pay Bill from 254726***330 - JOHN *** Acc. IFH,Completed,15000,,1128400,TRUE,Pay Utility,254726***330 - JOHN ***,,IFH
RL75HKCDCL,07/12/2023 16:42,07/12/2023 16:42,Pay Bill from 072541***312 - faith *** Acc. KGC,Completed,8000,,1113400,TRUE,Pay Utility,072541***312 - faith ***,,KGC
RL78HH9IRA,07/12/2023 16:17,07/12/2023 16:17,Pay Bill from 079912***666 - ERIC *** Acc. JDI,Completed,20000,,1105400,TRUE,Pay Utility,079912***666 - ERIC ***,,JDI
RL73HH8MHR,07/12/2023 16:16,07/12/2023 16:16,Pay Bill from 254700***767 - BAKHITA *** Acc. kcb,Completed,16000,,1085400,TRUE,Pay Utility,254700***767 - BAKHITA ***,,kcb
RL74HC3QFG,07/12/2023 15:32,07/12/2023 15:32,Pay Bill from 254704***689 - ANTONY *** Acc. ICD,Completed,11000,,1069400,TRUE,Pay Utility,254704***689 - ANTONY ***,,ICD
RL75HBUW7D,07/12/2023 15:30,07/12/2023 15:30,Pay Bill from 076995***691 - ANNA *** Acc. IFD,Completed,17500,,1058400,TRUE,Pay Utility,076995***691 - ANNA ***,,IFD
RL70H3BU8Q,07/12/2023 14:15,07/12/2023 14:15,Pay Bill from 254703***626 - DAVID *** Acc. FCD,Completed,4000,,1040900,TRUE,Pay Utility,254703***626 - DAVID ***,,FCD
RL79GSQ7J3,07/12/2023 12:45,07/12/2023 12:45,Pay Bill from 254721***818 - SAIDA *** Acc. JEA,Completed,17000,,1036900,TRUE,Pay Utility,254721***818 - SAIDA ***,,JEA
RL72GRYPYG,07/12/2023 12:38,07/12/2023 12:38,Pay Bill from 254726***163 - HALIMA *** Acc. DDA,Completed,25000,,1019900,TRUE,Pay Utility,254726***163 - HALIMA ***,,DDA
RL74GN99H0,07/12/2023 11:56,07/12/2023 11:56,Pay Bill Online from 011425***335 - ISAAC *** Acc. HAB,Completed,33000,,994900,TRUE,Pay Bill Online,011425***335 - ISAAC ***,,HAB
RL72GN227W,07/12/2023 11:54,07/12/2023 11:54,Pay Bill from 254729***441 - ROBERT *** Acc. JFI,Completed,20000,,961900,TRUE,Pay Utility,254729***441 - ROBERT ***,,JFI
RL79GMDGBL,07/12/2023 11:48,07/12/2023 11:48,Pay Bill Online from 254715***656 - DENNIS *** Acc. kfa,Completed,5000,,941900,TRUE,Pay Bill Online,254715***656 - DENNIS ***,,kfa
RL78GHYCUO,07/12/2023 11:09,07/12/2023 11:09,Pay Bill from 254722***320 - ASHA *** Acc. DAB,Completed,5500,,936900,TRUE,Pay Utility,254722***320 - ASHA ***,,DAB
RL73GHHRGF,07/12/2023 11:05,07/12/2023 11:05,Pay Bill from 254714***761 - MARTIN *** Acc. Kdi,Completed,11000,,931400,TRUE,Pay Utility,254714***761 - MARTIN ***,,Kdi
RL77GEICRF,07/12/2023 10:39,07/12/2023 10:39,Pay Bill Online from 254757***672 - BRIAN *** Acc. KDD,Completed,12000,,920400,TRUE,Pay Bill Online,254757***672 - BRIAN ***,,KDD
RL79G48ANX,07/12/2023 09:04,07/12/2023 09:04,Pay Bill from 254722***028 - CHARLES *** Acc. JDA,Completed,20000,,908400,TRUE,Pay Utility,254722***028 - CHARLES ***,,JDA
RL74G2DHTW,07/12/2023 08:45,07/12/2023 08:45,Merchant Pay Utility Received from 7245661 -  OCHIENG CHEMIST  Acc. HFD,Completed,1000,,888400,TRUE,Merchant Pay Utility via API,7245661 -  OCHIENG CHEMIST ,,HFD
RL71G1TSP7,07/12/2023 08:40,07/12/2023 08:40,Pay Bill from 254796***941 - PAUL *** Acc. HBE,Completed,10000,,887400,TRUE,Pay Utility,254796***941 - PAUL ***,,HBE
RL77G0KF8D,07/12/2023 08:27,07/12/2023 08:27,Pay Bill from 254722***622 - CHARITY *** Acc. ffd,Completed,11000,,877400,TRUE,Pay Utility,254722***622 - CHARITY ***,,ffd
RL76FXUDKK,07/12/2023 07:58,07/12/2023 07:58,Pay Bill Online from 254797***610 - JAMES *** Acc. JBI,Completed,20000,,866400,TRUE,Pay Bill Online,254797***610 - JAMES ***,,JBI
RL72FSMJJO,07/12/2023 06:44,07/12/2023 06:44,Pay Bill from 254741***957 - Mercy *** Acc. JCB,Completed,29000,,846400,TRUE,Pay Utility,254741***957 - Mercy ***,,JCB
RL76FP2WXO,07/12/2023 02:22,07/12/2023 02:22,Pay Bill from 254708***377 - ALEX *** Acc. FDA,Completed,20000,,817400,TRUE,Pay Utility,254708***377 - ALEX ***,,FDA
RL70FOYXZO,07/12/2023 02:11,07/12/2023 02:11,Pay Bill Online from 254711***716 - RODGERS *** Acc. IGC,Completed,9000,,797400,TRUE,Pay Bill Online,254711***716 - RODGERS ***,,IGC
RL65FD8WNT,06/12/2023 21:37,06/12/2023 21:37,Pay Bill Online from 254710***215 - JOAN *** Acc. ifb,Completed,15000,,788400,TRUE,Pay Bill Online,254710***215 - JOAN ***,,ifb
RL60FAPWNU,06/12/2023 21:15,06/12/2023 21:15,Pay Bill from 254725***550 - FRANKLINE *** Acc. KAF,Completed,10000,,773400,TRUE,Pay Utility,254725***550 - FRANKLINE ***,,KAF
RL61F8EPYP,06/12/2023 20:58,06/12/2023 20:58,Pay Bill from 254725***394 - RACHAEL *** Acc. Jfb,Completed,15000,,763400,TRUE,Pay Utility,254725***394 - RACHAEL ***,,Jfb
RL63F2NPOJ,06/12/2023 20:19,06/12/2023 20:19,Pay Bill Online from 254707***544 - CALEB *** Acc. KCJ,Completed,16000,,748400,TRUE,Pay Bill Online,254707***544 - CALEB ***,,KCJ
RL65EZ07FJ,06/12/2023 19:57,06/12/2023 19:57,Pay Bill Online from 254706***834 - WILKISTER *** Acc. HGH,Completed,15000,,732400,TRUE,Pay Utility with OD Online,254706***834 - WILKISTER ***,,HGH
RL64EOCE8C,06/12/2023 19:01,06/12/2023 19:01,Pay Bill from 079104***201 - Catherine *** Acc. HCC,Completed,10000,,717400,TRUE,Pay Utility,079104***201 - Catherine ***,,HCC
RL62EGJAGM,06/12/2023 18:17,06/12/2023 18:17,Pay Bill Online from 076991***050 - newton *** Acc. JBG,Completed,10000,,707400,TRUE,Pay Bill Online,076991***050 - newton ***,,JBG
RL60EFQ8MA,06/12/2023 18:12,06/12/2023 18:12,Pay Bill from 254705***201 - NZIOKA *** Acc. JDG,Completed,10000,,697400,TRUE,Pay Utility,254705***201 - NZIOKA ***,,JDG
RL63E7BXAN,06/12/2023 17:17,06/12/2023 17:17,Pay Bill from 254796***018 - PEACE *** Acc. JAH ,Completed,16000,,687400,TRUE,Pay Utility,254796***018 - PEACE ***,,JAH
RL69DW7N3B,06/12/2023 15:58,06/12/2023 15:58,Pay Bill from 254715***045 - FRIDAH *** Acc. HGC,Completed,9500,,671400,TRUE,Pay Utility,254715***045 - FRIDAH ***,,HGC
RL62DP6WGA,06/12/2023 14:58,06/12/2023 14:58,Pay Bill from 254792***128 - Edwin *** Acc. HBF,Completed,9000,,661900,TRUE,Pay Utility,254792***128 - Edwin ***,,HBF
RL61DKCJVV,06/12/2023 14:17,06/12/2023 14:17,Pay Bill from 254703***305 - MARTHA *** Acc. Aia,Completed,15000,,652900,TRUE,Pay Utility,254703***305 - MARTHA ***,,Aia
RL67DHGU51,06/12/2023 13:54,06/12/2023 13:54,Pay Bill from 254721***039 - ELIAS *** Acc. KAC,Completed,500,,637900,TRUE,Pay Utility with OD via STK,254721***039 - ELIAS ***,,KAC
RL62DF8KOM,06/12/2023 13:36,06/12/2023 13:36,Pay Bill Online from 254720***070 - Michelle *** Acc. JEJ,Completed,15000,,637400,TRUE,Pay Bill Online,254720***070 - Michelle ***,,JEJ
RL63DBVK3F,06/12/2023 13:08,06/12/2023 13:08,Pay Bill from 071414***211 - KAREN *** Acc. JDF,Completed,6000,,622400,TRUE,Pay Utility,071414***211 - KAREN ***,,JDF
RL66DAJALI,06/12/2023 12:57,06/12/2023 12:57,Pay Bill from 254704***496 - PETER *** Acc. DFD,Completed,20000,,616400,TRUE,Pay Utility,254704***496 - PETER ***,,DFD
RL63D90U47,06/12/2023 12:44,06/12/2023 12:44,Pay Bill from 074378***968 - Dallias *** Acc. hbb,Completed,4000,,596400,TRUE,Pay Utility,074378***968 - Dallias ***,,hbb
RL69D7JOEH,06/12/2023 12:31,06/12/2023 12:31,Pay Bill Online from 075769***775 - BENARD *** Acc. HCB,Completed,16000,,592400,TRUE,Pay Bill Online,075769***775 - BENARD ***,,HCB
RL69D4O913,06/12/2023 12:06,06/12/2023 12:06,Pay Bill Online from 254720***253 - JIMMY *** Acc. KBD,Completed,1000,,576400,TRUE,Pay Utility with OD Online,254720***253 - JIMMY ***,,KBD
RL69D41ZT7,06/12/2023 12:01,06/12/2023 12:01,Pay Bill from 254798***621 - MERCY *** Acc. jcj,Completed,16000,,575400,TRUE,Pay Utility,254798***621 - MERCY ***,,jcj
RL63D3QMDB,06/12/2023 11:58,06/12/2023 11:58,Pay Bill from 254721***039 - ELIAS *** Acc. KAC,Completed,10500,,559400,TRUE,Pay Utility with OD via STK,254721***039 - ELIAS ***,,KAC
RL66D30DEI,06/12/2023 11:51,06/12/2023 11:51,Pay Bill from 071060***910 - Peninah *** Acc. FCC,Completed,9000,,548900,TRUE,Pay Utility,071060***910 - Peninah ***,,FCC
RL65D1YC2X,06/12/2023 11:42,06/12/2023 11:42,Pay Bill from 254711***729 - DAVID *** Acc. HFA,Completed,16000,,539900,TRUE,Pay Utility,254711***729 - DAVID ***,,HFA
RL61D0WXPX,06/12/2023 11:33,06/12/2023 11:33,Pay Bill Online from 254729***858 - AMBROSE *** Acc. KEJ,Completed,16000,,523900,TRUE,Pay Bill Online,254729***858 - AMBROSE ***,,KEJ
RL61D0STRJ,06/12/2023 11:32,06/12/2023 11:32,Pay Bill Online from 254703***159 - Enock *** Acc. KAE,Completed,10000,,507900,TRUE,Pay Bill Online,254703***159 - Enock ***,,KAE
RL69D0GOWJ,06/12/2023 11:29,06/12/2023 11:29,Pay Bill Online from 254723***873 - FREDRICK *** Acc. jbf,Completed,8000,,497900,TRUE,Pay Bill Online,254723***873 - FREDRICK ***,,jbf
RL63CYLC9P,06/12/2023 11:12,06/12/2023 11:12,Pay Bill from 076841***584 - Faith *** Acc. IDF,Completed,11000,,489900,TRUE,Pay Utility,076841***584 - Faith ***,,IDF
RL66CQQW7S,06/12/2023 10:03,06/12/2023 10:03,Pay Bill Online from 254722***473 - SAMSON *** Acc. IAB,Completed,15000,,478900,TRUE,Pay Utility with OD Online,254722***473 - SAMSON ***,,IAB
RL66CPV18O,06/12/2023 09:55,06/12/2023 09:55,Pay Bill from 254725***531 - KIPKORIR *** Acc. DFB,Completed,15000,,463900,TRUE,Pay Utility,254725***531 - KIPKORIR ***,,DFB
RL67CH5HF1,06/12/2023 08:33,06/12/2023 08:33,Pay Bill from 254721***713 - RHODA *** Acc. Jfh,Completed,17000,,448900,TRUE,Pay Utility,254721***713 - RHODA ***,,Jfh
RL68CH0EGY,06/12/2023 08:31,06/12/2023 08:31,Pay Bill Online from 254718***397 - JIMMY *** Acc. DCB,Completed,16000,,431900,TRUE,Pay Bill Online,254718***397 - JIMMY ***,,DCB
RL68CCT01Y,06/12/2023 07:46,06/12/2023 07:46,Pay Bill Online from 254720***158 - AMOS *** Acc. KCG,Completed,10000,,415900,TRUE,Pay Bill Online,254720***158 - AMOS ***,,KCG
RL65C8JYFH,06/12/2023 06:47,06/12/2023 06:47,Pay Bill Online from 254720***253 - JIMMY *** Acc. KBD,Completed,1000,,405900,TRUE,Pay Utility with OD Online,254720***253 - JIMMY ***,,KBD
RL69C7MY31,06/12/2023 06:27,06/12/2023 06:27,Pay Bill from 254700***550 - BENARD *** Acc. DBB,Completed,16000,,404900,TRUE,Pay Utility,254700***550 - BENARD ***,,DBB
RL64C7FSMA,06/12/2023 06:21,06/12/2023 06:21,Pay Bill Online from 254795***849 - PURITY *** Acc. kbb,Completed,16000,,388900,TRUE,Pay Bill Online,254795***849 - PURITY ***,,kbb
RL58C2LOJK,05/12/2023 23:53,05/12/2023 23:53,Pay Bill Online from 074150***311 - ALLAN *** Acc. DBA,Completed,16000,,372900,TRUE,Pay Bill Online,074150***311 - ALLAN ***,,DBA
RL52C08GLU,05/12/2023 22:52,05/12/2023 22:52,Pay Bill Online from 254721***178 - PHANICE *** Acc. FBF,Completed,16000,,356900,TRUE,Pay Bill Online,254721***178 - PHANICE ***,,FBF
RL54BY4DJ8,05/12/2023 22:20,05/12/2023 22:20,Pay Bill from 070728***361 - JOSEPHIN *** Acc. HGD,Completed,9000,,340900,TRUE,Pay Utility,070728***361 - JOSEPHIN ***,,HGD
RL54BXA5AA,05/12/2023 22:09,05/12/2023 22:09,Pay Bill from 254719***910 - KEVIN *** Acc. iDD,Completed,11000,,331900,TRUE,Pay Utility,254719***910 - KEVIN ***,,iDD
RL58BVN7UG,05/12/2023 21:52,05/12/2023 21:52,Pay Bill from 254711***049 - OYUGI *** Acc. FCB,Completed,16000,,320900,TRUE,Pay Utility,254711***049 - OYUGI ***,,FCB
RL58BU7PDC,05/12/2023 21:38,05/12/2023 21:38,Pay Bill from 254797***402 - Tiberius *** Acc. KFC,Completed,9000,,304900,TRUE,Pay Utility,254797***402 - Tiberius ***,,KFC
RL56BQ1RKG,05/12/2023 21:03,05/12/2023 21:03,Pay Bill from 254724***849 - Ann *** Acc. HDA,Completed,16000,,295900,TRUE,Pay Utility,254724***849 - Ann ***,,HDA
RL55BPT5PP,05/12/2023 21:01,05/12/2023 21:01,Pay Bill from 074262***652 - Charity *** Acc. IEB,Completed,15000,,279900,TRUE,Pay Utility,074262***652 - Charity ***,,IEB
RL53BIHSA9,05/12/2023 20:13,05/12/2023 20:13,Pay Bill Online from 254700***039 - MARTIN *** Acc. ICB,Completed,16000,,264900,TRUE,Pay Bill Online,254700***039 - MARTIN ***,,ICB
RL54BG9SA0,05/12/2023 19:59,05/12/2023 19:59,Pay Bill Online from 254710***992 - SIMON *** Acc. JCD,Completed,15000,,248900,TRUE,Pay Bill Online,254710***992 - SIMON ***,,JCD
RL55BE29ZJ,05/12/2023 19:47,05/12/2023 19:47,Pay Bill from 074584***319 - CHRISTOPHE *** Acc. DAA,Completed,16000,,233900,TRUE,Pay Utility,074584***319 - CHRISTOPHE ***,,DAA
RL50BAYF7I,05/12/2023 19:30,05/12/2023 19:30,Pay Bill from 079812***865 - Purity *** Acc. HDC,Completed,10500,,217900,TRUE,Pay Utility,079812***865 - Purity ***,,HDC
RL54B9NXE4,05/12/2023 19:24,05/12/2023 19:24,Pay Bill from 072438***624 - FATUMA *** Acc. FAB,Completed,16000,,207400,TRUE,Pay Utility with OD via STK,072438***624 - FATUMA ***,,FAB
RL50B86ORO,05/12/2023 19:16,05/12/2023 19:16,Pay Bill from 254711***672 - ALLAN *** Acc. IEI,Completed,15000,,191400,TRUE,Pay Utility,254711***672 - ALLAN ***,,IEI
RL54B04TU0,05/12/2023 18:34,05/12/2023 18:34,Pay Bill from 254719***657 - SAMUEL *** Acc. JGA,Completed,10000,,176400,TRUE,Pay Utility,254719***657 - SAMUEL ***,,JGA
RL51ATFWPZ,05/12/2023 17:51,05/12/2023 17:51,Pay Bill Online from 254728***908 - Teddy *** Acc. DDD,Completed,15900,,166400,TRUE,Pay Bill Online,254728***908 - Teddy ***,,DDD
RL52AQYJR6,05/12/2023 17:34,05/12/2023 17:34,Pay Bill Online from 072225***105 - SALIM *** Acc. FGF,Completed,16000,,150500,TRUE,Pay Utility with OD Online,072225***105 - SALIM ***,,FGF
RL58AQ19XY,05/12/2023 17:27,05/12/2023 17:27,Pay Bill Online from 254719***821 - KIPKEMOI *** Acc. JDD,Completed,15000,,134500,TRUE,Pay Bill Online,254719***821 - KIPKEMOI ***,,JDD
RL52ALOUQ6,05/12/2023 16:55,05/12/2023 16:55,Pay Bill from 254706***439 - SOPHIA *** Acc. FAC,Completed,9000,,119500,TRUE,Pay Utility,254706***439 - SOPHIA ***,,FAC
RL52AF6VGE,05/12/2023 16:02,05/12/2023 16:02,Pay Bill Online from 254715***212 - BANCE *** Acc. JFE,Completed,9000,,110500,TRUE,Pay Bill Online,254715***212 - BANCE ***,,JFE
RL56A81N7M,05/12/2023 15:00,05/12/2023 15:00,Pay Bill from 254700***569 - EDITH *** Acc. DDB,Completed,16000,,101500,TRUE,Pay Utility with OD via STK,254700***569 - EDITH ***,,DDB
RL599WHF6P,05/12/2023 13:23,05/12/2023 13:23,Pay Bill Online from 254742***013 - HANEST *** Acc. IED,Completed,11000,,85500,TRUE,Pay Bill Online,254742***013 - HANEST ***,,IED
RL519VT0J3,05/12/2023 13:17,05/12/2023 13:17,Pay Bill from 254723***777 - BONIFACE *** Acc. IDG,Completed,9500,,74500,TRUE,Pay Utility,254723***777 - BONIFACE ***,,IDG
RL579EKPW7,05/12/2023 10:47,05/12/2023 10:47,Pay Bill Online from 254710***776 - KELVIN *** Acc. FAD,Completed,12000,,65000,TRUE,Pay Bill Online,254710***776 - KELVIN ***,,FAD
RL589EEIGW,05/12/2023 10:45,05/12/2023 10:45,Pay Bill from 254711***196 - JUDITH *** Acc. Fea,Completed,16000,,53000,TRUE,Pay Utility,254711***196 - JUDITH ***,,Fea
RL5597VHN3,05/12/2023 09:48,05/12/2023 09:48,Pay Bill from 254724***503 - GEOFREY *** Acc. JFF,Completed,10000,,37000,TRUE,Pay Utility,254724***503 - GEOFREY ***,,JFF
RL51950A57,05/12/2023 09:22,05/12/2023 09:22,Pay Bill from 074337***291 - Ann *** Acc. KAD,Completed,11000,,27000,TRUE,Pay Utility,074337***291 - Ann ***,,KAD
RL589488R2,05/12/2023 09:14,05/12/2023 09:14,Pay Bill from 254719***942 - NORAH *** Acc. KDA,Completed,16000,,16000,TRUE,Pay Utility,254719***942 - NORAH ***,,KDA
RL5193038N,05/12/2023 09:03,05/12/2023 09:03,Utility Account to Organization Settlement Account,Completed,,-274500,0,TRUE,Utility Account to Organization Settlement Account,979524 - ANCIENT WELLS PROPERTY MANAGERS 2,,
RL57910Z8T,05/12/2023 08:44,05/12/2023 08:44,Pay Bill from 254705***030 - FRIDAH *** Acc. JEH,Completed,16000,,274500,TRUE,Pay Utility,254705***030 - FRIDAH ***,,JEH
RL578VIFIH,05/12/2023 07:46,05/12/2023 07:46,Pay Bill Online from 254725***904 - SALOME *** Acc. KFJ,Completed,15000,,258500,TRUE,Pay Bill Online,254725***904 - SALOME ***,,KFJ
RL468KIZ8C,04/12/2023 23:17,04/12/2023 23:17,Pay Bill from 254723***911 - JAMES *** Acc. ICG,Completed,9500,,243500,TRUE,Pay Utility,254723***911 - JAMES ***,,ICG
RL468JUI88,04/12/2023 23:02,04/12/2023 23:02,Pay Bill Online from 254702***678 - JOHN *** Acc. DEB,Completed,16000,,234000,TRUE,Pay Bill Online,254702***678 - JOHN ***,,DEB
RL428AP7ZW,04/12/2023 21:11,04/12/2023 21:11,Pay Bill from 254724***046 - GIDEON *** Acc. KFH,Completed,8000,,218000,TRUE,Pay Utility,254724***046 - GIDEON ***,,KFH
RL49883LRR,04/12/2023 20:51,04/12/2023 20:51,Pay Bill from 254701***397 - ELEMA *** Acc. FCA,Completed,10000,,210000,TRUE,Pay Utility,254701***397 - ELEMA ***,,FCA
RL4886Y96A,04/12/2023 20:43,04/12/2023 20:43,Pay Bill from 254796***496 - IVY *** Acc. FAA,Completed,8000,,200000,TRUE,Pay Utility,254796***496 - IVY ***,,FAA
RL457Z7O07,04/12/2023 19:53,04/12/2023 19:53,Pay Bill from 074020***174 - Josephine *** Acc. Ifg,Completed,9000,,192000,TRUE,Pay Utility,074020***174 - Josephine ***,,Ifg
RL487VKZR8,04/12/2023 19:33,04/12/2023 19:33,Pay Bill from 079009***091 - Daisy *** Acc. KFI,Completed,12000,,183000,TRUE,Pay Utility,079009***091 - Daisy ***,,KFI
RL447TRR5E,04/12/2023 19:24,04/12/2023 19:24,Pay Bill from 254729***859 - AUDREY *** Acc. KFB,Completed,16000,,171000,TRUE,Pay Utility,254729***859 - AUDREY ***,,KFB
RL437AK76N,04/12/2023 17:31,04/12/2023 17:31,Pay Bill from 254720***502 - JOHN *** Acc. JFA,Completed,5000,,155000,TRUE,Pay Utility,254720***502 - JOHN ***,,JFA
RL416XN8WJ,04/12/2023 15:50,04/12/2023 15:50,Pay Bill Online from 254729***700 - MICAH *** Acc. HFE,Completed,10500,,150000,TRUE,Pay Bill Online,254729***700 - MICAH ***,,HFE
RL456WN2RP,04/12/2023 15:41,04/12/2023 15:41,Pay Bill from 254718***358 - Job *** Acc. ICF,Completed,23000,,139500,TRUE,Pay Utility,254718***358 - Job ***,,ICF
RL446MWDQ0,04/12/2023 14:16,04/12/2023 14:16,Pay Bill from 254725***537 - PATRICK *** Acc. Keh,Completed,13500,,116500,TRUE,Pay Utility,254725***537 - PATRICK ***,,Keh
RL486L6T24,04/12/2023 14:02,04/12/2023 14:02,Pay Bill from 074378***968 - Dallias *** Acc. hbb,Completed,5000,,103000,TRUE,Pay Utility,074378***968 - Dallias ***,,hbb
RL466EMANQ,04/12/2023 13:07,04/12/2023 13:07,Pay Bill from 074130***410 - STEVEKEVIN *** Acc. IAC,Completed,9000,,98000,TRUE,Pay Utility,074130***410 - STEVEKEVIN ***,,IAC
RL466E6RK8,04/12/2023 13:04,04/12/2023 13:04,Pay Bill from 070656***358 - HARRIET *** Acc. HBA,Completed,16000,,89000,TRUE,Pay Utility,070656***358 - HARRIET ***,,HBA
RL496DQPQX,04/12/2023 13:00,04/12/2023 13:00,Pay Bill Online from 254720***253 - JIMMY *** Acc. KBD,Completed,1000,,73000,TRUE,Pay Utility with OD Online,254720***253 - JIMMY ***,,KBD
RL4667Q5T8,04/12/2023 12:08,04/12/2023 12:08,Pay Bill from 254721***481 - MARTIN *** Acc. DFA,Completed,16000,,72000,TRUE,Pay Utility,254721***481 - MARTIN ***,,DFA
RL4764B2M7,04/12/2023 11:37,04/12/2023 11:37,Pay Bill Online from 254716***144 - PETER *** Acc. FBB,Completed,16000,,56000,TRUE,Pay Bill Online,254716***144 - PETER ***,,FBB
RL45628A63,04/12/2023 11:18,04/12/2023 11:18,Pay Bill from 254728***882 - SHARAD *** Acc. KCK,Completed,15000,,40000,TRUE,Pay Utility,254728***882 - SHARAD ***,,KCK
RL475WB2VB,04/12/2023 10:25,04/12/2023 10:25,Pay Bill from 074548***142 - Daisy *** Acc. FGE,Completed,15000,,25000,TRUE,Pay Utility with OD via STK,074548***142 - Daisy ***,,FGE
RL405UIJEY,04/12/2023 10:10,04/12/2023 10:10,Pay Bill from 254703***744 - Esther *** Acc. KEF,Completed,10000,,10000,TRUE,Pay Utility,254703***744 - Esther ***,,KEF
RL405NTQOI,04/12/2023 09:06,04/12/2023 09:06,Utility Account to Organization Settlement Account,Completed,,-233002,0,TRUE,Utility Account to Organization Settlement Account,979524 - ANCIENT WELLS PROPERTY MANAGERS 2,,
RL455K0QNV,04/12/2023 08:27,04/12/2023 08:27,Pay Bill from 254703***626 - DAVID *** Acc. FCD,Completed,5000,,233002,TRUE,Pay Utility,254703***626 - DAVID ***,,FCD
RL425JPHS8,04/12/2023 08:24,04/12/2023 08:24,Pay Bill Online from 254702***887 - Nax *** Acc. FDE,Completed,22000,,228002,TRUE,Pay Bill Online,254702***887 - Nax ***,,FDE
RL4159DPEP,04/12/2023 03:44,04/12/2023 03:44,Pay Bill from 254743***420 - Margaret *** Acc. fce,Completed,15000,,206002,TRUE,Pay Utility,254743***420 - Margaret ***,,fce
RL465832BW,04/12/2023 01:07,04/12/2023 01:07,Pay Bill Online from 254720***659 - FRANCIS *** Acc. kdg,Completed,10000,,191002,TRUE,Pay Bill Online,254720***659 - FRANCIS ***,,kdg
RL3756U6E1,03/12/2023 23:52,03/12/2023 23:52,Business Pay Bill by 998094 - COOP TO PAYBILL Acc. Hea via API,Completed,16000,,181002,TRUE,Business Pay Bill via API,998094 - COOP TO PAYBILL,,Hea
RL3055L1IK,03/12/2023 23:11,03/12/2023 23:11,Pay Bill from 254723***628 - CLINTON *** Acc. hfh,Completed,16000,,165002,TRUE,Pay Utility,254723***628 - CLINTON ***,,hfh
RL38512050,03/12/2023 21:54,03/12/2023 21:54,Pay Bill from 254728***256 - NICHOLAS *** Acc. HAD,Completed,10000,,149002,TRUE,Pay Utility,254728***256 - NICHOLAS ***,,HAD
RL324WXDGY,03/12/2023 21:10,03/12/2023 21:10,Pay Bill Online from 254723***777 - EVANS *** Acc. KCH,Completed,10000,,139002,TRUE,Pay Utility with OD Online,254723***777 - EVANS ***,,KCH
RL394VMYCB,03/12/2023 20:59,03/12/2023 20:59,Pay Bill Online from 254721***294 - GRACE *** Acc. IGH,Completed,15000,,129002,TRUE,Pay Bill Online,254721***294 - GRACE ***,,IGH
RL374ITZMJ,03/12/2023 19:29,03/12/2023 19:29,Pay Bill from 254716***682 - JUSTINE *** Acc. HAA,Completed,17000,,114002,TRUE,Pay Utility,254716***682 - JUSTINE ***,,HAA
RL374IM2IN,03/12/2023 19:28,03/12/2023 19:28,Pay Bill from 254716***682 - JUSTINE *** Acc. Ahh,Completed,2,,97002,TRUE,Pay Utility,254716***682 - JUSTINE ***,,Ahh
RL3442APJE,03/12/2023 17:40,03/12/2023 17:40,Pay Bill from 254795***751 - caroline *** Acc. KBF,Completed,9000,,97000,TRUE,Pay Utility,254795***751 - caroline ***,,KBF
RL353UV227,03/12/2023 16:41,03/12/2023 16:41,Pay Bill Online from 254726***437 - FESTUS *** Acc. IFF,Completed,10000,,88000,TRUE,Pay Bill Online,254726***437 - FESTUS ***,,IFF
RL312YU843,03/12/2023 11:48,03/12/2023 11:48,Pay Bill from 254717***324 - Christine *** Acc. KDF,Completed,10000,,78000,TRUE,Pay Utility,254717***324 - Christine ***,,KDF
RL332YLQPZ,03/12/2023 11:46,03/12/2023 11:46,Pay Bill Online from 254721***995 - BERNICE *** Acc. KFK,Completed,16000,,68000,TRUE,Pay Bill Online,254721***995 - BERNICE ***,,KFK
RL342XI21S,03/12/2023 11:34,03/12/2023 11:34,Pay Bill from 254723***864 - WILLIAM *** Acc. DED,Completed,20000,,52000,TRUE,Pay Utility with OD via STK,254723***864 - WILLIAM ***,,DED
RL392VAX7V,03/12/2023 11:11,03/12/2023 11:11,Pay Bill Online from 254707***839 - DENNIS *** Acc. FEF,Completed,16000,,32000,TRUE,Pay Bill Online,254707***839 - DENNIS ***,,FEF
RL302TXQDM,03/12/2023 10:57,03/12/2023 10:57,Pay Bill from 254728***427 - MARY *** Acc. FDF,Completed,16000,,16000,TRUE,Pay Utility,254728***427 - MARY ***,,FDF
RL352QYNTB,03/12/2023 10:27,03/12/2023 10:27,Utility Account to Organization Settlement Account,Completed,,-136000,0,TRUE,Utility Account to Organization Settlement Account,979524 - ANCIENT WELLS PROPERTY MANAGERS 2,,
RL362PWEXA,03/12/2023 10:16,03/12/2023 10:16,Pay Bill from 254729***750 - DERRICK *** Acc. DAC,Completed,20000,,136000,TRUE,Pay Utility,254729***750 - DERRICK ***,,DAC
RL332J5TRV,03/12/2023 09:06,03/12/2023 09:06,Pay Bill Online from 254720***253 - JIMMY *** Acc. KBD,Completed,1000,,116000,TRUE,Pay Utility with OD Online,254720***253 - JIMMY ***,,KBD
RL392HQEXR,03/12/2023 08:50,03/12/2023 08:50,Pay Bill from 074065***285 - DOMINIC *** Acc. kdc,Completed,10000,,115000,TRUE,Pay Utility,074065***285 - DOMINIC ***,,kdc
RL291QS6Y9,02/12/2023 21:14,02/12/2023 21:14,Pay Bill Online from 254702***515 - ELIZABETH *** Acc. ICH,Completed,16000,,105000,TRUE,Pay Bill Online,254702***515 - ELIZABETH ***,,ICH
RL29ZWXTI7,02/12/2023 18:15,02/12/2023 18:15,Pay Bill from 254723***380 - RHODAH *** Acc. HEG,Completed,15000,,89000,TRUE,Pay Utility,254723***380 - RHODAH ***,,HEG
RL28ZWSASA,02/12/2023 18:14,02/12/2023 18:14,Pay Bill from 254702***907 - FAITH *** Acc. kbe,Completed,10000,,74000,TRUE,Pay Utility,254702***907 - FAITH ***,,kbe
RL26ZE8G2G,02/12/2023 15:59,02/12/2023 15:59,Pay Bill Online from 254792***144 - HASSAN *** Acc. KGI,Completed,10000,,64000,TRUE,Pay Bill Online,254792***144 - HASSAN ***,,KGI
RL25YYSRUH,02/12/2023 13:53,02/12/2023 13:53,Pay Bill from 079895***042 - fridah *** Acc. HGE,Completed,9000,,54000,TRUE,Pay Utility,079895***042 - fridah ***,,HGE
RL29YY1EGF,02/12/2023 13:47,02/12/2023 13:47,Pay Bill from 254714***203 - PATRICK *** Acc. KEI,Completed,12000,,45000,TRUE,Pay Utility,254714***203 - PATRICK ***,,KEI
RL29YV7KK7,02/12/2023 13:24,02/12/2023 13:24,Pay Bill Online from 254706***634 - CLINTON *** Acc. FDB,Completed,17000,,33000,TRUE,Pay Bill Online,254706***634 - CLINTON ***,,FDB
RL29XZS4C7,02/12/2023 08:47,02/12/2023 08:47,Pay Bill from 254708***464 - MERCY *** Acc. IBB,Completed,16000,,16000,TRUE,Pay Utility,254708***464 - MERCY ***,,IBB
RL22XSCML6,02/12/2023 07:24,02/12/2023 07:24,Utility Account to Organization Settlement Account,Completed,,-251600,0,TRUE,Utility Account to Organization Settlement Account,979524 - ANCIENT WELLS PROPERTY MANAGERS 2,,
RL10XJ3Q9K,01/12/2023 23:43,01/12/2023 23:43,Pay Bill Online from 254728***775 - Faith *** Acc. JAC,Completed,500,,251600,TRUE,Pay Bill Online,254728***775 - Faith ***,,JAC
RL16XEGEUO,01/12/2023 22:18,01/12/2023 22:18,Pay Bill from 254722***450 - MARY *** Acc. JAI,Completed,20000,,251100,TRUE,Pay Utility,254722***450 - MARY ***,,JAI
RL11XCEKVV,01/12/2023 21:55,01/12/2023 21:55,Pay Bill from 254791***982 - ADULLAHI *** Acc. JCI,Completed,20000,,231100,TRUE,Pay Utility,254791***982 - ADULLAHI ***,,JCI
RL17X7057P,01/12/2023 21:08,01/12/2023 21:08,Pay Bill from 254745***401 - mirriam *** Acc. KCI,Completed,11000,,211100,TRUE,Pay Utility,254745***401 - mirriam ***,,KCI
RL19X1XO67,01/12/2023 20:33,01/12/2023 20:33,Pay Bill Online from 254720***253 - JIMMY *** Acc. KBD,Completed,100,,200100,TRUE,Pay Utility with OD Online,254720***253 - JIMMY ***,,KBD
RL15WKAN3R,01/12/2023 18:55,01/12/2023 18:55,FSI to Pay Bill by 576777 - I&M BANK LTD - BANK TO TILL Acc. IDI via WEB by I&M BANK LTD - BANK TO TILL\B2BUser1,Completed,15000,,200000,TRUE,FSI to Pay Bill via API,576777 - I&M BANK LTD - BANK TO TILL,,IDI
RL10WJZMI4,01/12/2023 18:53,01/12/2023 18:53,Pay Bill from 254722***705 - ERIC *** Acc. FCF,Completed,16000,,185000,TRUE,Pay Utility,254722***705 - ERIC ***,,FCF
RL15WHO2GT,01/12/2023 18:41,01/12/2023 18:41,Pay Bill Online from 254705***736 - SNAIDA *** Acc. FEC,Completed,9000,,169000,TRUE,Pay Bill Online,254705***736 - SNAIDA ***,,FEC
RL11W5W0DT,01/12/2023 17:27,01/12/2023 17:27,Pay Bill from 074591***020 - PAUL *** Acc. IFC,Completed,8000,,160000,TRUE,Pay Utility,074591***020 - PAUL ***,,IFC
RL11W4LIGZ,01/12/2023 17:18,01/12/2023 17:18,Pay Bill from 075760***316 - MOHAMED *** Acc. FCA,Completed,6000,,152000,TRUE,Pay Utility,075760***316 - MOHAMED ***,,FCA
RL17W4C3QP,01/12/2023 17:16,01/12/2023 17:16,Pay Bill from 254791***823 - rachel *** Acc. JEG,Completed,9000,,146000,TRUE,Pay Utility,254791***823 - rachel ***,,JEG
RL17W2ITFL,01/12/2023 17:03,01/12/2023 17:03,Pay Bill from 254717***012 - WINFRED *** Acc. IDA,Completed,16000,,137000,TRUE,Pay Utility,254717***012 - WINFRED ***,,IDA
RL12VXWSJO,01/12/2023 16:28,01/12/2023 16:28,Pay Bill from 254711***815 - NAOMI *** Acc. KBA,Completed,18500,,121000,TRUE,Pay Utility,254711***815 - NAOMI ***,,KBA
RL14VWVCJY,01/12/2023 16:20,01/12/2023 16:20,Pay Bill from 254712***486 - JACKLINE *** Acc. ked,Completed,11000,,102500,TRUE,Pay Utility,254712***486 - JACKLINE ***,,ked
RL11VG85VP,01/12/2023 14:02,01/12/2023 14:02,Pay Bill from 074378***968 - Dallias *** Acc. hbb,Completed,3000,,91500,TRUE,Pay Utility,074378***968 - Dallias ***,,hbb
RL11V3OZAX,01/12/2023 12:17,01/12/2023 12:17,Pay Bill from 254722***052 - JOSEPH *** Acc. JCF,Completed,3000,,88500,TRUE,Pay Utility,254722***052 - JOSEPH ***,,JCF
RL14V3LMG6,01/12/2023 12:16,01/12/2023 12:16,Pay Bill from 254726***835 - LAWRENCE *** Acc. kdj,Completed,16000,,85500,TRUE,Pay Utility,254726***835 - LAWRENCE ***,,kdj
RL15V0ZT9L,01/12/2023 11:53,01/12/2023 11:53,Pay Bill Online from 254729***719 - JACINTA *** Acc. FFF,Completed,17000,,69500,TRUE,Pay Bill Online,254729***719 - JACINTA ***,,FFF
RL19UZ08L5,01/12/2023 11:36,01/12/2023 11:36,Pay Bill from 254724***488 - NICHOLAS *** Acc. JDE,Completed,9500,,52500,TRUE,Pay Utility,254724***488 - NICHOLAS ***,,JDE
RL16UV3AJS,01/12/2023 11:01,01/12/2023 11:01,Pay Bill from 074325***188 - NANCY *** Acc. KFD,Completed,12000,,43000,TRUE,Pay Utility,074325***188 - NANCY ***,,KFD
RL14UTEX62,01/12/2023 10:47,01/12/2023 10:47,Pay Bill Online from 254717***935 - LYDIAH *** Acc. FFB ,Completed,15000,,31000,TRUE,Pay Bill Online,254717***935 - LYDIAH ***,,FFB
RL10USJBUW,01/12/2023 10:39,01/12/2023 10:39,Pay Bill Online from 254795***441 - LEWIS *** Acc. KEB,Completed,16000,,16000,TRUE,Pay Bill Online,254795***441 - LEWIS ***,,KEB
RL14ULES42,01/12/2023 09:35,01/12/2023 09:35,Utility Account to Organization Settlement Account,Completed,,-109500,0,TRUE,Utility Account to Organization Settlement Account,979524 - ANCIENT WELLS PROPERTY MANAGERS 2,,
RL18UI9NMG,01/12/2023 09:06,01/12/2023 09:06,Pay Bill from 011532***960 - JOSEPH *** Acc. IBG,Completed,8000,,109500,TRUE,Pay Utility,011532***960 - JOSEPH ***,,IBG
RL16UHK1FI,01/12/2023 08:59,01/12/2023 08:59,Pay Bill from 254716***398 - HYVENE *** Acc. KDE,Completed,10000,,101500,TRUE,Pay Utility,254716***398 - HYVENE ***,,KDE
RL18U7I2PQ,01/12/2023 07:08,01/12/2023 07:08,Pay Bill Online from 254723***064 - ANDREW *** Acc. HBG ,Completed,16000,,91500,TRUE,Pay Bill Online,254723***064 - ANDREW ***,,HBG
RL17U70KNH,01/12/2023 07:00,01/12/2023 07:00,Pay Bill from 074547***241 - Tonny *** Acc. IDC,Completed,9500,,75500,TRUE,Pay Utility,074547***241 - Tonny ***,,IDC
