Receipt No.,Completion Time,Initiation Time,Details,Transaction Status,Paid In,Withdrawn,Balance,Balance Confirmed,Reason Type,Other Party Info,Linked Transaction ID,A/C No.
OFM463SWVO,22/06/2020 18:48,22/06/2020 18:48,Pay Bill from 254716286387 - George oduor Agwa Acc. B7,Completed,6100,,6100,TRUE,Pay Utility,254716286387 - George oduor Agwa,,B7
OFK741BZZL,20/06/2020 15:06,20/06/2020 15:06,Utility Account to Organization Settlement Account,Completed,,-2000,0,TRUE,Utility Account to Organization Settlement Account,887264 - ANCIENT WELLS LTD 2,,
OFK53QWX4R,20/06/2020 10:05,20/06/2020 10:05,Pay Bill from 254723174583 - BRIAN ODHIAMBO OUMA Acc. b3,Completed,2000,,2000,TRUE,Pay Utility,254723174583 - BRIAN ODHIAMBO OUMA,,b3
OFJ72XWPI7,19/06/2020 12:34,19/06/2020 12:34,Utility Account to Organization Settlement Account,Completed,,-5000,0,TRUE,Utility Account to Organization Settlement Account,887264 - ANCIENT WELLS LTD 2,,
OFI22LX146,18/06/2020 21:52,18/06/2020 21:52,Pay Bill from 254741791919 - Linet Mongina Maraga Acc. linet,Completed,5000,,5000,TRUE,Pay Utility with OD via STK,254741791919 - Linet Mongina Maraga,,linet
OFH211IP98,17/06/2020 11:52,17/06/2020 11:52,Utility Account to Organization Settlement Account,Completed,,-5000,0,TRUE,Utility Account to Organization Settlement Account,887264 - ANCIENT WELLS LTD 2,,
OFF7YHKMPT,15/06/2020 16:16,15/06/2020 16:16,Pay Bill from 254712900502 - ANTONIA JERUTO LEKITARY Acc. u6,Completed,5000,,5000,TRUE,Pay Utility,254712900502 - ANTONIA JERUTO LEKITARY,,u6
OFB7UKD0H7,11/06/2020 08:54,11/06/2020 08:54,Utility Account to Organization Settlement Account,Completed,,-4000,0,TRUE,Utility Account to Organization Settlement Account,887264 - ANCIENT WELLS LTD 2,,
OFB5UJW8SD,11/06/2020 08:36,11/06/2020 08:36,Pay Bill from 254723174583 - BRIAN ODHIAMBO OUMA Acc. b3,Completed,4000,,4000,TRUE,Pay Utility,254723174583 - BRIAN ODHIAMBO OUMA,,b3
OF92SZPWES,09/06/2020 13:00,09/06/2020 13:00,Utility Account to Organization Settlement Account,Completed,,-53500,0,TRUE,Utility Account to Organization Settlement Account,887264 - ANCIENT WELLS LTD 2,,
OF96SYQK9O,09/06/2020 12:32,09/06/2020 12:32,Pay Bill from 254726524831 - ANDREW ODHIAMBO Acc. Andrew odhiambo ,Completed,14000,,53500,TRUE,Pay Utility,254726524831 - ANDREW ODHIAMBO,,Andrew
OF67QV4HXV,06/06/2020 20:02,06/06/2020 20:02,Pay Bill from 254715979027 - NICHOLAS MWANGI Acc. Leah b2,Completed,14500,,39500,TRUE,Pay Utility with OD via STK,254715979027 - NICHOLAS MWANGI,,Leah
OF68QGALOQ,06/06/2020 14:21,06/06/2020 14:21,Pay Bill from 254725014210 - FREDRICK MOUNDE Acc. EPZ MH,Completed,25000,,25000,TRUE,Pay Utility,254725014210 - FREDRICK MOUNDE,,EPZ
OF68QANVLM,06/06/2020 11:43,06/06/2020 11:43,Utility Account to Organization Settlement Account,Completed,,-43055,0,TRUE,Utility Account to Organization Settlement Account,887264 - ANCIENT WELLS LTD 2,,
OF56PIH58S,05/06/2020 13:58,05/06/2020 13:58,Pay Bill from 254720537967 - PIUS WAMBUA Acc. U4,Completed,12500,,43055,TRUE,Pay Utility with OD via STK,254720537967 - PIUS WAMBUA,,U4
OF59PC8G21,05/06/2020 10:58,05/06/2020 10:58,Pay Bill from 0743263203 - Patrick theuri wachira Acc. U1,Completed,5555,,30555,TRUE,Pay Utility,0743263203 - Patrick theuri wachira,,U1
OF53P57X9J,05/06/2020 02:27,05/06/2020 02:27,FSI to Pay Bill by 714888 - B2C LOOP VIA NCBA Acc. KiambuYard via WEB by B2C LOOP VIA NCBA\Cbainitiator,Completed,25000,,25000,TRUE,FSI to Pay Bill via API,714888 - B2C LOOP VIA NCBA,,KiambuYard
OF31NYUEW3,03/06/2020 17:37,03/06/2020 17:37,Utility Account to Organization Settlement Account,Completed,,-6000,0,TRUE,Utility Account to Organization Settlement Account,887264 - ANCIENT WELLS LTD 2,,
