Receipt No.,Completion Time,Initiation Time,Details,Transaction Status,Paid In,Withdrawn,Balance,Balance Confirmed,Reason Type,Other Party Info,Linked Transaction ID,A/C No.
OH80GIQ1MC,08/08/2020 21:26,08/08/2020 21:26,Pay Bill from 254714209770 - PURITY NDUKU KYALO Acc. JEB,Completed,1000,,11700,TRUE,Pay Utility,254714209770 - PURITY NDUKU KYALO,,JEB
OH87GF8K0N,08/08/2020 20:01,08/08/2020 20:01,Pay Bill from 0748355912 - tobias    katana Acc. IED,Completed,400,,10700,TRUE,Pay Utility,0748355912 - tobias    katana,,IED
OH89GECPRP,08/08/2020 19:45,08/08/2020 19:45,Pay Bill from 254728849248 - ISABELA KARIMI KIOGORA Acc. FAB,Completed,1000,,10300,TRUE,Pay Utility,254728849248 - ISABELA KARIMI KIOGORA,,FAB
OH80G7VXCQ,08/08/2020 17:53,08/08/2020 17:53,Pay Bill Online from 254711184244 - KIPROP FESTUS Acc. Festus Kiprop C1p,Completed,400,,9300,TRUE,Pay Bill Online,254711184244 - KIPROP FESTUS,,Festus
OH80FZU5C8,08/08/2020 14:50,08/08/2020 14:50,Pay Bill from 254708669783 - SYLVIA EVA OLENDO Acc. HCA,Completed,1200,,8900,TRUE,Pay Utility,254708669783 - SYLVIA EVA OLENDO,,HCA
OH82FUPHFK,08/08/2020 12:37,08/08/2020 12:37,Pay Bill from 254720041583 - KIPROTICH YEGON Acc. HBD,Completed,5000,,7700,TRUE,Pay Utility,254720041583 - KIPROTICH YEGON,,HBD
OH85FJ0E8T,08/08/2020 02:39,08/08/2020 02:39,Pay Bill from 254726337163 - HALIMA ALI HASSAN Acc. DDA,Completed,500,,2700,TRUE,Pay Utility,254726337163 - HALIMA ALI HASSAN,,DDA
OH75FHUP71,07/08/2020 22:22,07/08/2020 22:22,Pay Bill from 254721510646 - ANTHONY IRUNGU KARIUKI Acc. v41,Completed,600,,2200,TRUE,Pay Utility,254721510646 - ANTHONY IRUNGU KARIUKI,,v41
OH71FFFCE5,07/08/2020 20:51,07/08/2020 20:51,Pay Bill from 254718818610 - HANNAH NALIAKA Acc. V23,Completed,200,,1600,TRUE,Pay Utility,254718818610 - HANNAH NALIAKA,,V23
OH76FF84MM,07/08/2020 20:45,07/08/2020 20:45,Pay Bill from 254702921564 - DENNIS MAHERO SHIUNDU Acc. Dennis V21,Completed,600,,1400,TRUE,Pay Utility,254702921564 - DENNIS MAHERO SHIUNDU,,Dennis
OH77FBLSV1,07/08/2020 19:29,07/08/2020 19:29,Pay Bill from 0715688238 - JOANNAH ATUHAIRE BANTU Acc. jae,Completed,200,,800,TRUE,Pay Utility,0715688238 - JOANNAH ATUHAIRE BANTU,,jae
OH74F43VS8,07/08/2020 17:14,07/08/2020 17:14,Pay Bill Online from 254704033042 - LESLIE KOIKAI Acc. IDC,Completed,200,,600,TRUE,Pay Bill Online,254704033042 - LESLIE KOIKAI,,IDC
OH79F3ZRB3,07/08/2020 17:11,07/08/2020 17:11,Pay Bill from 254712561678 - SAMUEL ADIYO OGODO Acc. KAE,Completed,400,,400,TRUE,Pay Utility,254712561678 - SAMUEL ADIYO OGODO,,KAE
OH72F17HZ2,07/08/2020 16:12,07/08/2020 16:12,Utility Account to Organization Settlement Account,Completed,,-113200,0,TRUE,Utility Account to Organization Settlement Account,846783 - ANCIENT WELLS LTD 4,,
OH72EYK63A,07/08/2020 15:09,07/08/2020 15:09,Pay Bill from 254724655033 - SUSAN CHIMOTO Acc. KGH,Completed,600,,113200,TRUE,Pay Utility,254724655033 - SUSAN CHIMOTO,,KGH
OH79EX0G33,07/08/2020 14:32,07/08/2020 14:32,Pay Bill from 254707837281 - BRYAN SONGORO ONDARE Acc. V58,Completed,1400,,112600,TRUE,Pay Utility,254707837281 - BRYAN SONGORO ONDARE,,V58
OH78EQ0I0K,07/08/2020 11:32,07/08/2020 11:32,Pay Bill from 0790273411 - MUHAMEDMALIK   GAAL Acc. FDF,Completed,4000,,111200,TRUE,Pay Utility with OD via STK,0790273411 - MUHAMEDMALIK   GAAL,,FDF
OH74EMWP6A,07/08/2020 10:12,07/08/2020 10:12,Pay Bill Online from 254704033042 - LESLIE KOIKAI Acc. IBD,Completed,800,,107200,TRUE,Pay Bill Online,254704033042 - LESLIE KOIKAI,,IBD
OH78EJMRJC,07/08/2020 08:36,07/08/2020 08:36,Pay Bill from 254798146452 - VALARY ODHIAMBO Acc. JEE,Completed,1000,,106400,TRUE,Pay Utility,254798146452 - VALARY ODHIAMBO,,JEE
OH70EHSP4M,07/08/2020 07:25,07/08/2020 07:25,Pay Bill from 254718138578 - PAULINE KIOKO Acc. KFD,Completed,12000,,105400,TRUE,Pay Utility,254718138578 - PAULINE KIOKO,,KFD
OH69ECY1N5,06/08/2020 21:17,06/08/2020 21:17,Pay Bill from 254707049818 - LUCKY TSUMA Acc. v19,Completed,200,,93400,TRUE,Pay Utility,254707049818 - LUCKY TSUMA,,v19
OH64ECMR72,06/08/2020 21:08,06/08/2020 21:08,Pay Bill from 254726001708 - MARTHA ATIENO ATIENO OSALO Acc. IBI,Completed,1100,,93200,TRUE,Pay Utility,254726001708 - MARTHA ATIENO ATIENO OSALO,,IBI
OH68E1OF72,06/08/2020 17:35,06/08/2020 17:35,Pay Bill from 254713388942 - UKONU CHRISTOPHER OBINNA Acc. V22,Completed,6600,,92100,TRUE,Pay Utility,254713388942 - UKONU CHRISTOPHER OBINNA,,V22
OH69E1AZ5T,06/08/2020 17:27,06/08/2020 17:27,Pay Bill from 254707237792 - BRENDA WACHIRA Acc. jbc,Completed,800,,85500,TRUE,Pay Utility with OD via STK,254707237792 - BRENDA WACHIRA,,jbc
OH64DW1OQI,06/08/2020 15:23,06/08/2020 15:23,Pay Bill from 254713115724 - ROTICH JUDITH JUDITH CHERONO Acc. KCK,Completed,800,,84700,TRUE,Pay Utility,254713115724 - ROTICH JUDITH JUDITH CHERONO,,KCK
OH62DR4WTC,06/08/2020 13:15,06/08/2020 13:15,Pay Bill from 254701196539 - GICHURI KARANJA Acc. fee,Completed,800,,83900,TRUE,Pay Utility,254701196539 - GICHURI KARANJA,,fee
OH69DQOSSF,06/08/2020 13:04,06/08/2020 13:04,Pay Bill from 254725754547 - MWACHIRO GEORGE DECHE Acc. DFC,Completed,1800,,83100,TRUE,Pay Utility,254725754547 - MWACHIRO GEORGE DECHE,,DFC
OH67DN8NUZ,06/08/2020 11:33,06/08/2020 11:33,Pay Bill from 254700745283 - WINFRED MUTHEU NYAMAI Acc. E5,Completed,600,,81300,TRUE,Pay Utility,254700745283 - WINFRED MUTHEU NYAMAI,,E5
OH67DK4401,06/08/2020 10:11,06/08/2020 10:11,Pay Bill from 254705452947 - PURITY NJOKI CHAI Acc. purityc3,Completed,800,,80700,TRUE,Pay Utility,254705452947 - PURITY NJOKI CHAI,,purityc3
OH69DHRK0R,06/08/2020 09:03,06/08/2020 09:03,Pay Bill from 254722997392 - ISAAC MUKONAMBI MATUMBUFU Acc. JAH ,Completed,3000,,79900,TRUE,Pay Utility,254722997392 - ISAAC MUKONAMBI MATUMBUFU,,JAH
OH68DGFB8U,06/08/2020 08:20,06/08/2020 08:20,Pay Bill from 254726676041 - TOBIAS ORINA Acc. KAD,Completed,400,,76900,TRUE,Pay Utility,254726676041 - TOBIAS ORINA,,KAD
OH60DELNQ8,06/08/2020 06:56,06/08/2020 06:56,Pay Bill from 254729948896 - CAROLINE V MILIZA Acc. Fec,Completed,1000,,76500,TRUE,Pay Utility,254729948896 - CAROLINE V MILIZA,,Fec
OH61DCYGOH,06/08/2020 01:01,06/08/2020 01:01,Pay Bill from 254721302658 - JACOB BIRUNDU Acc. DDB,Completed,600,,75500,TRUE,Pay Utility,254721302658 - JACOB BIRUNDU,,DDB
OH56DC5DRQ,05/08/2020 22:57,05/08/2020 22:57,Pay Bill from 254722307003 - NIGEL BOMETT Acc. V01,Completed,600,,74900,TRUE,Pay Utility,254722307003 - NIGEL BOMETT,,V01
OH52DBYTRI,05/08/2020 22:41,05/08/2020 22:41,Pay Bill from 254712569636 - BENSON NYAGA Acc. v60,Completed,400,,74300,TRUE,Pay Utility,254712569636 - BENSON NYAGA,,v60
OH52DBSMSA,05/08/2020 22:29,05/08/2020 22:29,Pay Bill from 254718233980 - KAREN ASWANI Acc. HEC,Completed,600,,73900,TRUE,Pay Utility,254718233980 - KAREN ASWANI,,HEC
OH53DBQ0E9,05/08/2020 22:24,05/08/2020 22:24,Pay Bill Online from 254720044312 - ELIUD KIPKURUI Acc. FCF,Completed,1200,,73300,TRUE,Pay Utility with OD Online,254720044312 - ELIUD KIPKURUI,,FCF
OH54DA0AUQ,05/08/2020 21:19,05/08/2020 21:19,Pay Bill from 254708915764 - GEORGE WAHOME Acc. v18,Completed,200,,72100,TRUE,Pay Utility,254708915764 - GEORGE WAHOME,,v18
OH50D95OIQ,05/08/2020 20:56,05/08/2020 20:56,Pay Bill Online from 254705846408 - JAMES OUMA Acc. HBG,Completed,200,,71900,TRUE,Pay Bill Online,254705846408 - JAMES OUMA,,HBG
OH53D8JTKJ,05/08/2020 20:41,05/08/2020 20:41,Pay Bill from 254705445188 - SHEILA KIPKEMBOI Acc. D5,Completed,400,,71700,TRUE,Pay Utility,254705445188 - SHEILA KIPKEMBOI,,D5
OH57D57YR1,05/08/2020 19:37,05/08/2020 19:37,Pay Bill Online from 254705670064 - margaret wahu wachira Acc. v35,Completed,600,,71300,TRUE,Pay Bill Online,254705670064 - margaret wahu wachira,,v35
OH51D3S7VT,05/08/2020 19:14,05/08/2020 19:14,Pay Bill from 254710814215 - JOAN NYAMBURA KAMAU Acc. jci,Completed,600,,70700,TRUE,Pay Utility,254710814215 - JOAN NYAMBURA KAMAU,,jci
OH54CZ90ZI,05/08/2020 17:54,05/08/2020 17:54,Pay Bill from 254798524621 - MERCY CHESANG Acc. jcj,Completed,800,,70100,TRUE,Pay Utility,254798524621 - MERCY CHESANG,,jcj
OH51CVJ347,05/08/2020 16:34,05/08/2020 16:34,Pay Bill from 254728238249 - ESTHER WANGUI KIBUNYI Acc. ICA,Completed,1400,,69300,TRUE,Pay Utility,254728238249 - ESTHER WANGUI KIBUNYI,,ICA
OH58CUXDHI,05/08/2020 16:20,05/08/2020 16:20,Pay Bill from 254719398942 - NORAH WAYUA MUNYAO Acc. KDC,Completed,800,,67900,TRUE,Pay Utility,254719398942 - NORAH WAYUA MUNYAO,,KDC
OH59CT5H8X,05/08/2020 15:36,05/08/2020 15:36,Pay Bill Online from 254713498554 - HENRY KINYUA WARUI Acc. V44 Henry Warui,Completed,400,,67100,TRUE,Pay Bill Online,254713498554 - HENRY KINYUA WARUI,,V44
OH51CNQU41,05/08/2020 13:15,05/08/2020 13:15,Pay Bill from 254725771056 - CHARLES MURAGURI Acc. FCC,Completed,1400,,66700,TRUE,Pay Utility,254725771056 - CHARLES MURAGURI,,FCC
OH58CMA7PW,05/08/2020 12:36,05/08/2020 12:36,Pay Bill from 254718359438 - AHMAD TAHIR MACHENGO Acc. V11,Completed,400,,65300,TRUE,Pay Utility,254718359438 - AHMAD TAHIR MACHENGO,,V11
OH51CLB6BZ,05/08/2020 12:11,05/08/2020 12:11,Pay Bill from 254703311892 - WINNIE ACHIENG' OPEYO Acc. v50,Completed,400,,64900,TRUE,Pay Utility,254703311892 - WINNIE ACHIENG' OPEYO,,v50
OH59CIVDT1,05/08/2020 11:06,05/08/2020 11:06,Pay Bill from 254792976771 - DANIEL MUTHAMA NDUNDA Acc. F1,Completed,400,,64500,TRUE,Pay Utility with OD via STK,254792976771 - DANIEL MUTHAMA NDUNDA,,F1
OH55CH8ID7,05/08/2020 10:23,05/08/2020 10:23,Pay Bill from 254713159153 - GUYO SANKALA Acc. DGD,Completed,2600,,64100,TRUE,Pay Utility,254713159153 - GUYO SANKALA,,DGD
OH42C7FV20,04/08/2020 21:28,04/08/2020 21:28,Pay Bill Online from 0743369961 - SALOME WANGARI KIBUGI Acc. KGD,Completed,200,,61500,TRUE,Pay Bill Online,0743369961 - SALOME WANGARI KIBUGI,,KGD
OH48C4MUVY,04/08/2020 20:13,04/08/2020 20:13,Pay Bill Online from 254711724272 - EDMOND ONYANGO OKEWE Acc. FCE,Completed,1000,,61300,TRUE,Pay Bill Online,254711724272 - EDMOND ONYANGO OKEWE,,FCE
OH43C4FRWN,04/08/2020 20:09,04/08/2020 20:09,Pay Bill from 254725094113 - BRAXTON LUMWAJI Acc. DDC,Completed,2400,,60300,TRUE,Pay Utility,254725094113 - BRAXTON LUMWAJI,,DDC
OH45C1MOM9,04/08/2020 19:18,04/08/2020 19:18,Pay Bill Online from 254711877988 - PATRICK KONZI Acc. b4,Completed,400,,57900,TRUE,Pay Bill Online,254711877988 - PATRICK KONZI,,b4
OH43BZLZBF,04/08/2020 18:43,04/08/2020 18:43,Pay Bill from 0769001671 - Wilson Mutangili Wambua Acc. haf,Completed,400,,57500,TRUE,Pay Utility,0769001671 - Wilson Mutangili Wambua,,haf
OH44BXTV3C,04/08/2020 18:09,04/08/2020 18:09,Pay Bill from 254723929380 - RHODAH K WAMBUA Acc. HEF,Completed,1200,,57100,TRUE,Pay Utility,254723929380 - RHODAH K WAMBUA,,HEF
OH45BWHNJN,04/08/2020 17:42,04/08/2020 17:42,Pay Bill Online from 254716499837 - ASHA MUSA Acc. JFD,Completed,800,,55900,TRUE,Pay Bill Online,254716499837 - ASHA MUSA,,JFD
OH45BWD095,04/08/2020 17:40,04/08/2020 17:40,Pay Bill from 254714114228 - MWANGO AWINO VIOLET Acc. DCB,Completed,600,,55100,TRUE,Pay Utility,254714114228 - MWANGO AWINO VIOLET,,DCB
OH44BQOBK2,04/08/2020 15:24,04/08/2020 15:24,Pay Bill from 254726611493 - Cornelius Kimeli Acc. HAG,Completed,1800,,54500,TRUE,Pay Utility,254726611493 - Cornelius Kimeli,,HAG
OH48BP8TZ0,04/08/2020 14:46,04/08/2020 14:46,Pay Bill from 254700347490 - PERIS NYAGUTHII MAINA Acc. JBB,Completed,200,,52700,TRUE,Pay Utility,254700347490 - PERIS NYAGUTHII MAINA,,JBB
OH48BN22NC,04/08/2020 13:47,04/08/2020 13:47,Pay Bill Online from 254726313835 - SYLVIA JUMA Acc. hdf,Completed,400,,52500,TRUE,Pay Bill Online,254726313835 - SYLVIA JUMA,,hdf
OH43BLJ3TF,04/08/2020 13:06,04/08/2020 13:06,Pay Bill from 254721539716 - OCTAVIAN MWANYALO Acc. C6,Completed,400,,52100,TRUE,Pay Utility,254721539716 - OCTAVIAN MWANYALO,,C6
OH47BKVBUJ,04/08/2020 12:48,04/08/2020 12:48,Pay Bill from 254718417450 - HARON ASUMA OROKO Acc. haron V 47,Completed,400,,51700,TRUE,Pay Utility,254718417450 - HARON ASUMA OROKO,,haron
OH49BKI5B9,04/08/2020 12:37,04/08/2020 12:37,Pay Bill from 0795807227 - Lucy Ncekei Kimathi Acc. V36,Completed,400,,51300,TRUE,Pay Utility,0795807227 - Lucy Ncekei Kimathi,,V36
OH43BGYPHF,04/08/2020 11:00,04/08/2020 11:00,Pay Bill from 0717042461 - Sharon Nyangasi Shivachi Acc. V55,Completed,200,,50900,TRUE,Pay Utility,0717042461 - Sharon Nyangasi Shivachi,,V55
OH46BG29V2,04/08/2020 10:35,04/08/2020 10:35,Pay Bill from 254724882554 - ALPHONCE WAMBUA NGELI Acc. JDA,Completed,2000,,50700,TRUE,Pay Utility,254724882554 - ALPHONCE WAMBUA NGELI,,JDA
OH42BDVJM6,04/08/2020 09:31,04/08/2020 09:31,Pay Bill from 254723389922 - ANNE WANJIKU Acc. v53,Completed,200,,48700,TRUE,Pay Utility,254723389922 - ANNE WANJIKU,,v53
OH44BD5OW4,04/08/2020 09:09,04/08/2020 09:09,Pay Bill from 0717216114 - Felix Njeru Mugambi Acc. KDF,Completed,1000,,48500,TRUE,Pay Utility,0717216114 - Felix Njeru Mugambi,,KDF
OH43BB3NV9,04/08/2020 07:56,04/08/2020 07:56,Pay Bill from 0743248310 - PATRICK STURRIDGE NYONGESA Acc. kaf,Completed,1600,,47500,TRUE,Pay Utility,0743248310 - PATRICK STURRIDGE NYONGESA,,kaf
OH35B7VA29,03/08/2020 21:53,03/08/2020 21:53,Pay Bill Online from 254715892656 - DENNIS MUSYOKA MUOKI Acc. KFA,Completed,600,,45900,TRUE,Pay Bill Online,254715892656 - DENNIS MUSYOKA MUOKI,,KFA
OH31B6RLSN,03/08/2020 21:10,03/08/2020 21:10,Pay Bill from 254721465713 - RHODA WAMBUI MWANGI Acc. jfh,Completed,1000,,45300,TRUE,Pay Utility,254721465713 - RHODA WAMBUI MWANGI,,jfh
OH38B5V420,03/08/2020 20:44,03/08/2020 20:44,Pay Bill from 0792933158 - mary wamaitha maina Acc. kdh,Completed,800,,44300,TRUE,Pay Utility,0792933158 - mary wamaitha maina,,kdh
OH32B04CZA,03/08/2020 18:51,03/08/2020 18:51,Pay Bill from 254708786932 - ZUBEDAH MOHAMMED Acc. IAG,Completed,600,,43500,TRUE,Pay Utility,254708786932 - ZUBEDAH MOHAMMED,,IAG
OH30AVRWOQ,03/08/2020 17:25,03/08/2020 17:25,Pay Bill from 254727729395 - ROBERT OUKO OSORO Acc. V29,Completed,400,,42900,TRUE,Pay Utility,254727729395 - ROBERT OUKO OSORO,,V29
OH36AQYPW4,03/08/2020 15:30,03/08/2020 15:30,Pay Bill from 254703147783 - LYDIAH NJOKI MUCHIRI Acc. Hge,Completed,9000,,42500,TRUE,Pay Utility,254703147783 - LYDIAH NJOKI MUCHIRI,,Hge
OH30AMTVS0,03/08/2020 13:39,03/08/2020 13:39,Pay Bill from 254723872785 - MARY ANN NJERI NDUNG'U Acc. hed,Completed,400,,33500,TRUE,Pay Utility,254723872785 - MARY ANN NJERI NDUNG'U,,hed
OH31AL72VZ,03/08/2020 12:54,03/08/2020 12:54,Pay Bill from 254707669965 - ELVIS MOENGA OKERO Acc. IAE,Completed,400,,33100,TRUE,Pay Utility,254707669965 - ELVIS MOENGA OKERO,,IAE
OH33AK0HKL,03/08/2020 12:22,03/08/2020 12:22,Pay Bill from 254797665088 - INNOCENT WANAMI Acc. v2,Completed,1800,,32700,TRUE,Pay Utility,254797665088 - INNOCENT WANAMI,,v2
OH33AG8T2N,03/08/2020 10:39,03/08/2020 10:39,Pay Bill Online from 254724754662 - CHARLES ERUKUDI EKAI Acc. FBE,Completed,1200,,30900,TRUE,Pay Bill Online,254724754662 - CHARLES ERUKUDI EKAI,,FBE
OH35ACDV4F,03/08/2020 08:41,03/08/2020 08:41,Pay Bill from 254714552193 - CHRISTOPHER OCHIENG Acc. JGI,Completed,1000,,29700,TRUE,Pay Utility,254714552193 - CHRISTOPHER OCHIENG,,JGI
OH34ABGD2W,03/08/2020 08:07,03/08/2020 08:07,Pay Bill from 0742965163 - Winnie   Naliaka Acc. v31,Completed,1400,,28700,TRUE,Pay Utility,0742965163 - Winnie   Naliaka,,v31
OH32A9TV1C,03/08/2020 06:09,03/08/2020 06:09,Pay Bill from 254724953672 - MERCY MBETI Acc. JCA,Completed,2400,,27300,TRUE,Pay Utility,254724953672 - MERCY MBETI,,JCA
OH34A9TFE2,03/08/2020 06:07,03/08/2020 06:07,Pay Bill from 254712187712 - JUDELEEN AHINDUKHA SHILOBELE Acc. IGG,Completed,2000,,24900,TRUE,Pay Utility,254712187712 - JUDELEEN AHINDUKHA SHILOBELE,,IGG
OH32A9KEZ4,03/08/2020 03:30,03/08/2020 03:30,Pay Bill from 254716587875 - PATRICIA WAITHERA MAINA Acc. v24,Completed,1000,,22900,TRUE,Pay Utility,254716587875 - PATRICIA WAITHERA MAINA,,v24
OH24A6ZKLM,02/08/2020 21:08,02/08/2020 21:08,Pay Bill from 254729796719 - JACINTA WANJIKU NJERI Acc. FFF,Completed,400,,21900,TRUE,Pay Utility,254729796719 - JACINTA WANJIKU NJERI,,FFF
OH25A6X1FP,02/08/2020 21:05,02/08/2020 21:05,Pay Bill from 254700829103 - ABADIR KEDIR Acc. HBH,Completed,2200,,21500,TRUE,Pay Utility,254700829103 - ABADIR KEDIR,,HBH
OH24A6GFFM,02/08/2020 20:51,02/08/2020 20:51,Pay Bill from 254724871526 - JOHN KAGUONGO Acc. D2 ,Completed,400,,19300,TRUE,Pay Utility,254724871526 - JOHN KAGUONGO,,D2
OH22A5XDN8,02/08/2020 20:35,02/08/2020 20:35,Pay Bill from 254740579741 - MUHINDI MULINYA Acc. HGG,Completed,2000,,18900,TRUE,Pay Utility with OD via STK,254740579741 - MUHINDI MULINYA,,HGG
OH20A5WL5M,02/08/2020 20:35,02/08/2020 20:35,Pay Bill from 254722444622 - CHARITY KAGWAINI Acc. FFD,Completed,200,,16900,TRUE,Pay Utility,254722444622 - CHARITY KAGWAINI,,FFD
OH219YR2LD,02/08/2020 17:59,02/08/2020 17:59,Pay Bill from 254728476791 - CAROLE ACHIENG Acc. KCF,Completed,1400,,16700,TRUE,Pay Utility,254728476791 - CAROLE ACHIENG,,KCF
OH239M68YT,02/08/2020 12:06,02/08/2020 12:06,Pay Bill from 254714855708 - KIPLANGAT SITIENEI Acc. FAE,Completed,1000,,15300,TRUE,Pay Utility,254714855708 - KIPLANGAT SITIENEI,,FAE
OH209LG1XA,02/08/2020 11:44,02/08/2020 11:44,Pay Bill Online from 254795983642 - OBED MOGAKA Acc. F6 OBED ,Completed,400,,14300,TRUE,Pay Bill Online,254795983642 - OBED MOGAKA,,F6
OH239L3Q1N,02/08/2020 11:32,02/08/2020 11:32,Pay Bill from 254728788938 - MOHAMED ISSAK ADAN Acc. jaa,Completed,300,,13900,TRUE,Pay Utility,254728788938 - MOHAMED ISSAK ADAN,,jaa
OH219L1KEL,02/08/2020 11:30,02/08/2020 11:30,Pay Bill from 254728788938 - MOHAMED ISSAK ADAN Acc. jaa,Completed,3500,,13600,TRUE,Pay Utility,254728788938 - MOHAMED ISSAK ADAN,,jaa
OH269L013W,02/08/2020 11:29,02/08/2020 11:29,Pay Bill from 254704995854 - james karanja wairimu Acc. V54,Completed,200,,10100,TRUE,Pay Utility,254704995854 - james karanja wairimu,,V54
OH219K5W69,02/08/2020 11:02,02/08/2020 11:02,Pay Bill from 254717672307 - LIZZY AWUOR OBONYO Acc. HAE,Completed,200,,9900,TRUE,Pay Utility,254717672307 - LIZZY AWUOR OBONYO,,HAE
OH229K05EO,02/08/2020 10:56,02/08/2020 10:56,Pay Bill from 254791910715 - BOAZ OMAE MORARO Acc. ICC,Completed,200,,9700,TRUE,Pay Utility,254791910715 - BOAZ OMAE MORARO,,ICC
OH209I51IY,02/08/2020 09:54,02/08/2020 09:54,Pay Bill from 254723772794 - EMELDA OBONG' Acc. HDE,Completed,1800,,9500,TRUE,Pay Utility,254723772794 - EMELDA OBONG',,HDE
OH239DTT2V,02/08/2020 05:36,02/08/2020 05:36,Pay Bill from 254716784364 - Wendy Kemunto Nyandiko Acc. ffc,Completed,600,,7700,TRUE,Pay Utility,254716784364 - Wendy Kemunto Nyandiko,,ffc
OH139C4C15,01/08/2020 22:07,01/08/2020 22:07,Pay Bill from 254715949223 - JAMES ONYANGO Acc. KAG,Completed,500,,7100,TRUE,Pay Utility,254715949223 - JAMES ONYANGO,,KAG
OH199A1FPJ,01/08/2020 20:48,01/08/2020 20:48,Pay Bill from 254713249370 - ROBERT OGUTU OGONYI Acc. JGA,Completed,4000,,6600,TRUE,Pay Utility,254713249370 - ROBERT OGUTU OGONYI,,JGA
OH1598JXKB,01/08/2020 20:12,01/08/2020 20:12,Pay Bill from 254717726012 - WINFRED MUENI PETER Acc. IDD,Completed,400,,2600,TRUE,Pay Utility,254717726012 - WINFRED MUENI PETER,,IDD
OH1390NVYB,01/08/2020 17:49,01/08/2020 17:49,Pay Bill from 254708328466 - VENESSA NYARERU Acc. kcd,Completed,400,,2200,TRUE,Pay Utility,254708328466 - VENESSA NYARERU,,kcd
OH1190883X,01/08/2020 17:40,01/08/2020 17:40,Pay Bill from 254745643971 - bervon kaburu kiruthu Acc. jfc,Completed,800,,1800,TRUE,Pay Utility,254745643971 - bervon kaburu kiruthu,,jfc
OH128YW3QE,01/08/2020 17:12,01/08/2020 17:12,Pay Bill from 0759422988 - IVY   WITABA Acc. ieg,Completed,1000,,1000,TRUE,Pay Utility,0759422988 - IVY   WITABA,,ieg
OH168WWGG2,01/08/2020 16:27,01/08/2020 16:27,Utility Account to Organization Settlement Account,Completed,,-22700,0,TRUE,Utility Account to Organization Settlement Account,846783 - ANCIENT WELLS LTD 4,,
OH138TLA4V,01/08/2020 15:04,01/08/2020 15:04,Pay Bill from 254711397174 - JASEL HOPE ANTONINA Acc. kef,Completed,600,,22700,TRUE,Pay Utility,254711397174 - JASEL HOPE ANTONINA,,kef
OH108SKKOA,01/08/2020 14:38,01/08/2020 14:38,Pay Bill Online from 254795510441 - LEWIS MUEMA Acc. KFC,Completed,400,,22100,TRUE,Pay Bill Online,254795510441 - LEWIS MUEMA,,KFC
OH198S6UF7,01/08/2020 14:28,01/08/2020 14:28,Pay Bill Online from 254725248080 - DENNIS KIPROTICH Acc. IBE,Completed,1400,,21700,TRUE,Pay Bill Online,254725248080 - DENNIS KIPROTICH,,IBE
OH168R89MC,01/08/2020 14:03,01/08/2020 14:03,Pay Bill from 254727575146 - SUSAN NJERI KIBE Acc. KEC,Completed,200,,20300,TRUE,Pay Utility,254727575146 - SUSAN NJERI KIBE,,KEC
OH178QFZI5,01/08/2020 13:43,01/08/2020 13:43,Pay Bill from 254712954563 - JOSEPH MUTISO KILONZO Acc. dac,Completed,800,,20100,TRUE,Pay Utility,254712954563 - JOSEPH MUTISO KILONZO,,dac
OH178M228P,01/08/2020 11:46,01/08/2020 11:46,Pay Bill from 254719626804 - PAUL NJOROGE Acc. JFI,Completed,1200,,19300,TRUE,Pay Utility,254719626804 - PAUL NJOROGE,,JFI
OH188JEIJK,01/08/2020 10:33,01/08/2020 10:33,Pay Bill from 254711271263 - BENSON MWADIME JOSEPH Acc. 1EE,Completed,400,,18100,TRUE,Pay Utility,254711271263 - BENSON MWADIME JOSEPH,,1EE
