Receipt No.,Completion Time,Initiation Time,Details,Transaction Status,Paid In,Withdrawn,Balance,Balance Confirmed,Reason Type,Other Party Info,Linked Transaction ID,A/C No.
QFA6H9330O,10/06/2022 08:57,10/06/2022 08:57,Utility Account to Organization Settlement Account,Completed,,-25000,0,TRUE,Utility Account to Organization Settlement Account,887075 - ANCIENT WELLS LTD 3,,
QF99FB4IW9,09/06/2022 09:40,09/06/2022 09:40,Pay Bill from 254726945691 - JAMES RAMTU Acc. B5,Completed,8500,,25000,TRUE,Pay Utility,254726945691 - JAMES RAMTU,,B5
QF89ETK55L,08/06/2022 21:03,08/06/2022 21:03,Pay Bill from 0743437540 - Susan Nduta Muiruri Acc. B2,Completed,8000,,16500,TRUE,Pay Utility with OD via STK,0743437540 - Susan Nduta Muiruri,,B2
QF89EI7ZP5,08/06/2022 19:06,08/06/2022 19:06,Pay Bill Online from 254711877988 - PATRICK KONZI Acc. b4,Completed,500,,8500,TRUE,Pay Utility with OD Online,254711877988 - PATRICK KONZI,,b4
QF86EBQ7NU,08/06/2022 18:05,08/06/2022 18:05,Pay Bill from 254721539716 - OCTAVIAN MWANYALO Acc. C6,Completed,8000,,8000,TRUE,Pay Utility,254721539716 - OCTAVIAN MWANYALO,,C6
QF82E588PW,08/06/2022 16:53,08/06/2022 16:53,Utility Account to Organization Settlement Account,Completed,,-66500,0,TRUE,Utility Account to Organization Settlement Account,887075 - ANCIENT WELLS LTD 3,,
QF85E00MV3,08/06/2022 15:44,08/06/2022 15:44,Pay Bill Online from 254711877988 - PATRICK KONZI Acc. b4,Completed,8000,,66500,TRUE,Pay Utility with OD Online,254711877988 - PATRICK KONZI,,b4
QF89DR1VO3,08/06/2022 13:37,08/06/2022 13:37,Pay Bill from 0704120519 - Mildred   Adhiambo Acc. G1,Completed,8000,,58500,TRUE,Pay Utility,0704120519 - Mildred   Adhiambo,,G1
QF76CTNQW4,07/06/2022 21:02,07/06/2022 21:02,Pay Bill from 0720571944 - Ronoh   Benard Acc. D2,Completed,8000,,50500,TRUE,Pay Utility,0720571944 - Ronoh   Benard,,D2
QF73CEDVG7,07/06/2022 18:31,07/06/2022 18:31,Pay Bill Online from 254720439955 - GEOPHRY OKOTH Acc. D6,Completed,8500,,42500,TRUE,Pay Bill Online,254720439955 - GEOPHRY OKOTH,,D6
QF60AKSCEQ,06/06/2022 19:34,06/06/2022 19:34,Pay Bill from 254706248362 - BERYL HUMA Acc. E5,Completed,8500,,34000,TRUE,Pay Utility,254706248362 - BERYL HUMA,,E5
QF629CTHD2,06/06/2022 10:30,06/06/2022 10:30,Pay Bill from 254710248036 - Allan Kimeu Mutua Acc. F5,Completed,8500,,25500,TRUE,Pay Utility,254710248036 - Allan Kimeu Mutua,,F5
QF568FO9YQ,05/06/2022 18:56,05/06/2022 18:56,Pay Bill from 254714419834 - FAITH MWIKALI MUTHAMA Acc. d4,Completed,8500,,17000,TRUE,Pay Utility,254714419834 - FAITH MWIKALI MUTHAMA,,d4
QF466RCJJ8,04/06/2022 20:13,04/06/2022 20:13,Pay Bill Online from 254720201157 - BENSON INYANJE MWAKHA Acc. b6,Completed,8500,,8500,TRUE,Pay Bill Online,254720201157 - BENSON INYANJE MWAKHA,,b6
QF456LFZB7,04/06/2022 19:20,04/06/2022 19:20,Utility Account to Organization Settlement Account,Completed,,-113700,0,TRUE,Utility Account to Organization Settlement Account,887075 - ANCIENT WELLS LTD 3,,
QF446EU2XE,04/06/2022 18:20,04/06/2022 18:20,Pay Bill from 254717465142 - EPHANTUS IRURA Acc. C4 muriithi,Completed,8500,,113700,TRUE,Pay Utility,254717465142 - EPHANTUS IRURA,,C4
QF4660MBMA,04/06/2022 15:31,04/06/2022 15:31,Pay Bill from 254722706516 - KORIR ANTHONY Acc. Anthony D 3,Completed,8000,,105200,TRUE,Pay Utility,254722706516 - KORIR ANTHONY,,Anthony
QF495TZT8D,04/06/2022 14:02,04/06/2022 14:02,Pay Bill from 254727585857 - PETER MUOKI NGUNDO Acc. Peter Ngundo e6,Completed,8500,,97200,TRUE,Pay Utility with OD via STK,254727585857 - PETER MUOKI NGUNDO,,Peter
QF475CUM9T,04/06/2022 09:59,04/06/2022 09:59,Pay Bill from 0791565463 - Lilian Njeri Wakagwi Acc. F6,Completed,8500,,88700,TRUE,Pay Utility,0791565463 - Lilian Njeri Wakagwi,,F6
QF48565AUC,04/06/2022 08:06,04/06/2022 08:06,Pay Bill from 254713229967 - John Mugabo Simba Acc. E4,Completed,3000,,80200,TRUE,Pay Utility,254713229967 - John Mugabo Simba,,E4
QF394W2MOF,03/06/2022 21:46,03/06/2022 21:46,Pay Bill from 0719349205 - Christabel Gakii Munene Acc. D1,Completed,8000,,77200,TRUE,Pay Utility,0719349205 - Christabel Gakii Munene,,D1
QF344IIRWA,03/06/2022 19:19,03/06/2022 19:19,Pay Bill Online from 254703176849 - ROYAL MUYA Acc. F2,Completed,5000,,69200,TRUE,Pay Bill Online,254703176849 - ROYAL MUYA,,F2
QF393Y0QC9,03/06/2022 15:34,03/06/2022 15:34,Pay Bill from 0799912339 - PETER KAMAU MURIU Acc. C5,Completed,8500,,64200,TRUE,Pay Utility,0799912339 - PETER KAMAU MURIU,,C5
QF2523Z91F,02/06/2022 17:03,02/06/2022 17:03,Pay Bill from 0715030019 - Omwenga Ong'era Stephen Acc. E1,Completed,8000,,55700,TRUE,Pay Utility,0715030019 - Omwenga Ong'era Stephen,,E1
QF281PRQX6,02/06/2022 13:42,02/06/2022 13:42,Pay Bill from 254720086214 - SAMUEL WANJIKU Acc. B3,Completed,8000,,47700,TRUE,Pay Utility,254720086214 - SAMUEL WANJIKU,,B3
QF2318OBLD,02/06/2022 09:27,02/06/2022 09:27,Pay Bill from 0114093036 - Cecillia Njeri Githui Acc. c3,Completed,16000,,39700,TRUE,Pay Utility,0114093036 - Cecillia Njeri Githui,,c3
QF2816C4YQ,02/06/2022 08:47,02/06/2022 08:47,Pay Bill from 254713701237 - Michael Wanjala Acc. G2,Completed,8000,,23700,TRUE,Pay Utility with OD via STK,254713701237 - Michael Wanjala,,G2
