Receipt No.,Completion Time,Initiation Time,Details,Transaction Status,Paid In,Withdrawn,Balance,Balance Confirmed,Reason Type,Other Party Info,Linked Transaction ID,A/C No.
QD24O5WA5I,02/04/2022 07:08,02/04/2022 07:08,Utility Account to Organization Settlement Account,Completed,,-41500,0,TRUE,Utility Account to Organization Settlement Account,887264 - ANCIENT WELLS LTD 2,,
QD17NHU10L,01/04/2022 19:02,01/04/2022 19:02,Pay Bill Online from 254723303260 - nely covetti mwenesi Acc. Savannah 102,Completed,36000,,41500,TRUE,Pay Bill Online,254723303260 - nely covetti mwenesi,,Savannah
QD16N6QF4W,01/04/2022 17:06,01/04/2022 17:06,Pay Bill from 254706859500 - JULIA NJAMBI WAINAINA Acc. U4,Completed,5500,,5500,TRUE,Pay Utility,254706859500 - JULIA NJAMBI WAINAINA,,U4
QD19MD8HTZ,01/04/2022 10:27,01/04/2022 10:27,Utility Account to Organization Settlement Account,Completed,,-13000,0,TRUE,Utility Account to Organization Settlement Account,887264 - ANCIENT WELLS LTD 2,,
QD10M3K5LE,01/04/2022 07:52,01/04/2022 07:52,Pay Bill from 254718736574 - PATRICK LUMUMBA AGAN Acc. 369S,Completed,13000,,13000,TRUE,Pay Utility,254718736574 - PATRICK LUMUMBA AGAN,,369S
