Receipt No.,Completion Time,Initiation Time,Details,Transaction Status,Paid In,Withdrawn,Balance,Balance Confirmed,Reason Type,Other Party Info,Linked Transaction ID,A/C No.
OFP48BR7J2,25/06/2020 10:55,25/06/2020 10:55,Pay Bill from 254710381003 - ALFRED KISHOIN Acc. IBC,Completed,2000,,204000,TRUE,Pay Utility,254710381003 - ALFRED KISHOIN,,IBC
OFP48AQWFS,25/06/2020 10:23,25/06/2020 10:23,Pay Bill from 254729279767 - ZAKAYO KIMUTAI A NGENO Acc. DFA,Completed,16000,,202000,TRUE,Pay Utility,254729279767 - ZAKAYO KIMUTAI A NGENO,,DFA
OFP2887MWU,25/06/2020 08:57,25/06/2020 08:57,Pay Bill from 254722910078 - MAUREEN MUNYIVA MUTUKU Acc. DBD,Completed,10500,,186000,TRUE,Pay Utility,254722910078 - MAUREEN MUNYIVA MUTUKU,,DBD
OFP285G3IM,25/06/2020 06:18,25/06/2020 06:18,Pay Bill from 254716369842 - HUMMAM HAMID MOHAMED SAID AMBER Acc. FGC,Completed,3500,,175500,TRUE,Pay Utility,254716369842 - HUMMAM HAMID MOHAMED SAID AMBER,,FGC
OFO0808NKG,24/06/2020 19:56,24/06/2020 19:56,Pay Bill Online from 254724211857 - OCHUODHO OUMA Acc. KBK Rent,Completed,17000,,172000,TRUE,Pay Bill Online,254724211857 - OCHUODHO OUMA,,KBK
OFO97UJUZD,24/06/2020 18:09,24/06/2020 18:09,Pay Bill from 254713662892 - DAVID JUMA KIPTOCH Acc. JBE,Completed,8500,,155000,TRUE,Pay Utility,254713662892 - DAVID JUMA KIPTOCH,,JBE
OFO87H06DA,24/06/2020 12:05,24/06/2020 12:05,Pay Bill from 0719661832 - CHARLES KINYANJUI NGARUIYA Acc. KBH,Completed,23000,,146500,TRUE,Pay Utility,0719661832 - CHARLES KINYANJUI NGARUIYA,,KBH
OFO67BTF0O,24/06/2020 09:22,24/06/2020 09:22,Pay Bill from 254728849248 - ISABELA KARIMI KIOGORA Acc. FAB,Completed,13000,,123500,TRUE,Pay Utility,254728849248 - ISABELA KARIMI KIOGORA,,FAB
OFN46RR3W4,23/06/2020 15:45,23/06/2020 15:45,Pay Bill from 254708225541 - JUDITH NKATHA SIMBA Acc. ICF,Completed,14000,,110500,TRUE,Pay Utility with OD via STK,254708225541 - JUDITH NKATHA SIMBA,,ICF
OFN36RBN6F,23/06/2020 15:32,23/06/2020 15:32,FSI to Pay Bill by 714888 - B2C LOOP VIA NCBA Acc. JAD via WEB by B2C LOOP VIA NCBA\Cbainitiator,Completed,16000,,96500,TRUE,FSI to Pay Bill via API,714888 - B2C LOOP VIA NCBA,,JAD
OFN26O9YKE,23/06/2020 14:00,23/06/2020 14:00,Pay Bill from 254724777705 - COLLINS AKASA Acc. KEG ,Completed,6000,,80500,TRUE,Pay Utility,254724777705 - COLLINS AKASA,,KEG
OFN56KLRF1,23/06/2020 12:07,23/06/2020 12:07,Pay Bill from 254729713741 - ALBANUS MUTISO Acc. JBD,Completed,16000,,74500,TRUE,Pay Utility,254729713741 - ALBANUS MUTISO,,JBD
OFM46A1ZV6,22/06/2020 21:29,22/06/2020 21:29,Pay Bill from 254726928933 - JOSHUA NDUNDA NZIOKA Acc. KCJ,Completed,2500,,58500,TRUE,Pay Utility with OD via STK,254726928933 - JOSHUA NDUNDA NZIOKA,,KCJ
OFM368UXHT,22/06/2020 20:43,22/06/2020 20:43,Pay Bill from 254727332450 - SALAH OSMAN ROBOW Acc. jba,Completed,22000,,56000,TRUE,Pay Utility,254727332450 - SALAH OSMAN ROBOW,,jba
OFM464OER4,22/06/2020 19:05,22/06/2020 19:05,Pay Bill from 254715774019 - BONIFACE BARAKO KATELO Acc. HGF,Completed,9000,,34000,TRUE,Pay Utility,254715774019 - BONIFACE BARAKO KATELO,,HGF
OFM15UWPLN,22/06/2020 15:10,22/06/2020 15:10,Pay Bill from 254722244406 - NOAH MELI Acc. Jac,Completed,10000,,25000,TRUE,Pay Utility,254722244406 - NOAH MELI,,Jac
OFM45UR1TW,22/06/2020 15:05,22/06/2020 15:05,Pay Bill from 254722569870 - LUKA KEITANY Acc. jfj,Completed,15000,,15000,TRUE,Pay Utility,254722569870 - LUKA KEITANY,,jfj
OFM25PJEQS,22/06/2020 12:28,22/06/2020 12:28,Utility Account to Organization Settlement Account,Completed,,-179000,0,TRUE,Utility Account to Organization Settlement Account,979524 - ANCIENT WELLS PROPERTY MANAGERS 2,,
OFM45NO674,22/06/2020 11:32,22/06/2020 11:32,Pay Bill from 254710370277 - MAYAKA NYABOKE BRIGED Acc. KFF,Completed,6000,,179000,TRUE,Pay Utility,254710370277 - MAYAKA NYABOKE BRIGED,,KFF
OFM25NM5KW,22/06/2020 11:30,22/06/2020 11:30,Pay Bill from 254719499823 - MOSES MWANZIA MUTHIANI Acc. JCC,Completed,10000,,173000,TRUE,Pay Utility with OD via STK,254719499823 - MOSES MWANZIA MUTHIANI,,JCC
OFM85FHRJ0,22/06/2020 01:18,22/06/2020 01:18,Pay Bill from 254721417560 - ANDREW SANDE Acc. JBJ,Completed,16000,,163000,TRUE,Pay Utility,254721417560 - ANDREW SANDE,,JBJ
OFL44WE4O6,21/06/2020 13:52,21/06/2020 13:52,Pay Bill from 254724611087 - Francis Mukindya Muoki Acc. Kde,Completed,5000,,147000,TRUE,Pay Utility,254724611087 - Francis Mukindya Muoki,,Kde
OFL74SPG8V,21/06/2020 12:02,21/06/2020 12:02,Pay Bill from 254720707838 - SHADRACK KIPCHUMBA Acc. KDI,Completed,5000,,142000,TRUE,Pay Utility with OD via STK,254720707838 - SHADRACK KIPCHUMBA,,KDI
OFK541NV8N,20/06/2020 15:15,20/06/2020 15:15,Pay Bill from 254725059213 - BRENDA MSHAI Acc. HCF,Completed,20000,,137000,TRUE,Pay Utility,254725059213 - BRENDA MSHAI,,HCF
OFK63W7EAK,20/06/2020 12:44,20/06/2020 12:44,Pay Bill from 254726676041 - TOBIAS ORINA Acc. KAD,Completed,22000,,117000,TRUE,Pay Utility,254726676041 - TOBIAS ORINA,,KAD
OFK93SJM4D,20/06/2020 10:56,20/06/2020 10:56,Pay Bill from 254704597694 - JANET MWENGA Acc. Jcd,Completed,18000,,95000,TRUE,Pay Utility,254704597694 - JANET MWENGA,,Jcd
OFK93REFPZ,20/06/2020 10:20,20/06/2020 10:20,Pay Bill from 254795449800 - MARTHA WANJIRU NJUGUNA Acc. HGD,Completed,500,,77000,TRUE,Pay Utility,254795449800 - MARTHA WANJIRU NJUGUNA,,HGD
OFK23QT2ZM,20/06/2020 10:02,20/06/2020 10:02,Pay Bill from 254712187712 - JUDELEEN AHINDUKHA SHILOBELE Acc. IGG,Completed,7500,,76500,TRUE,Pay Utility,254712187712 - JUDELEEN AHINDUKHA SHILOBELE,,IGG
OFJ532MPTT,19/06/2020 14:52,19/06/2020 14:52,Pay Bill Online from 254713831946 - KEVIN WAMBUA Acc. IAA,Completed,5000,,69000,TRUE,Pay Utility with OD Online,254713831946 - KEVIN WAMBUA,,IAA
OFJ732344V,19/06/2020 14:36,19/06/2020 14:36,Pay Bill from 0746736111 - juliet   kitondo Acc. IFH,Completed,33000,,64000,TRUE,Pay Utility,0746736111 - juliet   kitondo,,IFH
OFJ030C1D6,19/06/2020 13:45,19/06/2020 13:45,Pay Bill Online from 254726116777 - MARY NDUTA GOSHO Acc. JDB,Completed,15000,,31000,TRUE,Pay Bill Online,254726116777 - MARY NDUTA GOSHO,,JDB
OFJ82V2AZS,19/06/2020 11:09,19/06/2020 11:09,Pay Bill from 254741311105 - Simon Odala Wabwire Acc. KAC,Completed,2500,,16000,TRUE,Pay Utility,254741311105 - Simon Odala Wabwire,,KAC
OFI72H3PFP,18/06/2020 19:27,18/06/2020 19:27,Pay Bill from 254716369842 - HUMMAM HAMID MOHAMED SAID AMBER Acc. FGC,Completed,4000,,13500,TRUE,Pay Utility,254716369842 - HUMMAM HAMID MOHAMED SAID AMBER,,FGC
OFI02F1MLY,18/06/2020 18:49,18/06/2020 18:49,Pay Bill from 254711397174 - JASEL HOPE ANTONINA Acc. kef,Completed,4000,,9500,TRUE,Pay Utility,254711397174 - JASEL HOPE ANTONINA,,kef
OFI12B9AFT,18/06/2020 17:29,18/06/2020 17:29,Pay Bill from 254724702305 - MARY MATHENGE Acc. KAC,Completed,2500,,5500,TRUE,Pay Utility,254724702305 - MARY MATHENGE,,KAC
OFI629R3L4,18/06/2020 16:55,18/06/2020 16:55,FSI to Pay Bill by 714888 - B2C LOOP VIA NCBA Acc. JAD via WEB by B2C LOOP VIA NCBA\Cbainitiator,Completed,3000,,3000,TRUE,FSI to Pay Bill via API,714888 - B2C LOOP VIA NCBA,,JAD
OFI424L19C,18/06/2020 14:32,18/06/2020 14:32,Utility Account to Organization Settlement Account,Completed,,-10000,0,TRUE,Utility Account to Organization Settlement Account,979524 - ANCIENT WELLS PROPERTY MANAGERS 2,,
OFI221UUN6,18/06/2020 13:13,18/06/2020 13:13,Pay Bill from 254726676041 - TOBIAS ORINA Acc. KAD,Completed,10000,,10000,TRUE,Pay Utility,254726676041 - TOBIAS ORINA,,KAD
OFI620M624,18/06/2020 12:37,18/06/2020 12:37,Utility Account to Organization Settlement Account,Completed,,-87000,0,TRUE,Utility Account to Organization Settlement Account,979524 - ANCIENT WELLS PROPERTY MANAGERS 2,,
OFH91OS0LZ,17/06/2020 22:08,17/06/2020 22:08,Pay Bill from 254798146452 - VALARY ODHIAMBO Acc. JEE,Completed,10000,,87000,TRUE,Pay Utility,254798146452 - VALARY ODHIAMBO,,JEE
OFH1ZYKZNJ,17/06/2020 10:21,17/06/2020 10:21,Pay Bill from 0705448526 - HASSAN HAJIR MURSAL Acc. kbj,Completed,16000,,77000,TRUE,Pay Utility,0705448526 - HASSAN HAJIR MURSAL,,kbj
OFH2ZWK4H4,17/06/2020 09:14,17/06/2020 09:14,Pay Bill from 254703935626 - DAVID NGARI ITA Acc. FCD,Completed,9000,,61000,TRUE,Pay Utility,254703935626 - DAVID NGARI ITA,,FCD
OFG5ZOBSCZ,16/06/2020 20:09,16/06/2020 20:09,Pay Bill from 0748059595 - Rashid NASSIR Khamis Acc. DDA,Completed,5000,,52000,TRUE,Pay Utility,0748059595 - Rashid NASSIR Khamis,,DDA
OFG1ZNN5VT,16/06/2020 19:53,16/06/2020 19:53,Pay Bill from 0722950695 - Joshua Mbithi Kivondo Acc. Dca,Completed,15000,,47000,TRUE,Pay Utility,0722950695 - Joshua Mbithi Kivondo,,Dca
OFG3ZMQPCX,16/06/2020 19:34,16/06/2020 19:34,Pay Bill from 254720927770 - CHRISTOPHER MWANGE Acc. HFC,Completed,10000,,32000,TRUE,Pay Utility with OD via STK,254720927770 - CHRISTOPHER MWANGE,,HFC
OFG9Z9YNV7,16/06/2020 14:36,16/06/2020 14:36,Pay Bill Online from 254729425253 - FATUMA MOHAMMED MWAJASI Acc. HBB,Completed,7000,,22000,TRUE,Pay Utility with OD Online,254729425253 - FATUMA MOHAMMED MWAJASI,,HBB
OFG4Z9LMZ2,16/06/2020 14:25,16/06/2020 14:25,Pay Bill from 254729258441 - ROBERT RONO KULEI Acc. JAB,Completed,15000,,15000,TRUE,Pay Utility,254729258441 - ROBERT RONO KULEI,,JAB
OFG2Z18JK4,16/06/2020 10:10,16/06/2020 10:10,Utility Account to Organization Settlement Account,Completed,,-123000,0,TRUE,Utility Account to Organization Settlement Account,979524 - ANCIENT WELLS PROPERTY MANAGERS 2,,
OFG3YZZ185,16/06/2020 09:28,16/06/2020 09:28,Pay Bill Online from 254724398579 - PETER DAVID OWINO OLENDI Acc.  ,Completed,10500,,123000,TRUE,Pay Bill Online,254724398579 - PETER DAVID OWINO OLENDI,,
OFG8YY7OGI,16/06/2020 08:22,16/06/2020 08:22,Pay Bill from 254700627058 - SUSY NABALAYO CHELONGO Acc. dbb,Completed,16000,,112500,TRUE,Pay Utility,254700627058 - SUSY NABALAYO CHELONGO,,dbb
OFG4YX8CZ2,16/06/2020 07:35,16/06/2020 07:35,Pay Bill from 254710370277 - MAYAKA NYABOKE BRIGED Acc. HBA,Completed,17000,,96500,TRUE,Pay Utility,254710370277 - MAYAKA NYABOKE BRIGED,,HBA
OFF7YQYUDP,15/06/2020 19:45,15/06/2020 19:45,Pay Bill from 254727003033 - MARTIN NJUGUNA NYINGI Acc. JEG,Completed,1500,,79500,TRUE,Pay Utility,254727003033 - MARTIN NJUGUNA NYINGI,,JEG
OFF1YMLTUF,15/06/2020 18:14,15/06/2020 18:14,Pay Bill from 254720795510 - JONAH KIPKEMBOI ROTICH Acc. KAK,Completed,17000,,78000,TRUE,Pay Utility,254720795510 - JONAH KIPKEMBOI ROTICH,,KAK
OFF8YI17F8,15/06/2020 16:28,15/06/2020 16:28,Pay Bill from 254706135188 - GABRIELLA EMMY Acc. JDD,Completed,4000,,61000,TRUE,Pay Utility,254706135188 - GABRIELLA EMMY,,JDD
OFF5YHPWON,15/06/2020 16:20,15/06/2020 16:20,Pay Bill Online from 254728103722 - YASSIR MWINYI ABDULRAZAQ Acc. ICE,Completed,6000,,57000,TRUE,Pay Bill Online,254728103722 - YASSIR MWINYI ABDULRAZAQ,,ICE
OFF2YDLN88,15/06/2020 14:24,15/06/2020 14:24,Pay Bill from 254702654503 - LARRY OMBAKA Acc. KFF,Completed,3000,,51000,TRUE,Pay Utility with OD via STK,254702654503 - LARRY OMBAKA,,KFF
OFF0Y9EECW,15/06/2020 12:20,15/06/2020 12:20,Pay Bill from 254706159636 - titus omondi abuodha Acc. HBC,Completed,9000,,48000,TRUE,Pay Utility,254706159636 - titus omondi abuodha,,HBC
OFF9Y964OR,15/06/2020 12:13,15/06/2020 12:13,Pay Bill from 254726227698 - Victor Omondi Acc. JDC ,Completed,5000,,39000,TRUE,Pay Utility,254726227698 - Victor Omondi,,JDC
OFF2Y8EERU,15/06/2020 11:50,15/06/2020 11:50,Pay Bill from 254710537468 - DONALDO AMIOL JUAC AKEC Acc. jdg,Completed,5000,,34000,TRUE,Pay Utility,254710537468 - DONALDO AMIOL JUAC AKEC,,jdg
OFF7Y6PDT5,15/06/2020 10:59,15/06/2020 10:59,Pay Bill from 254726405755 - EDWARD NGONGE Acc. dgc,Completed,29000,,29000,TRUE,Pay Utility,254726405755 - EDWARD NGONGE,,dgc
OFE2XYHNVO,14/06/2020 21:41,14/06/2020 21:41,Utility Account to Organization Settlement Account,Completed,,-204500,0,TRUE,Utility Account to Organization Settlement Account,979524 - ANCIENT WELLS PROPERTY MANAGERS 2,,
OFE6XMEXW2,14/06/2020 16:08,14/06/2020 16:08,Pay Bill from 254713966424 - NDUTI MUTHUI Acc. jed,Completed,15000,,204500,TRUE,Pay Utility,254713966424 - NDUTI MUTHUI,,jed
OFE6XE6I78,14/06/2020 11:58,14/06/2020 11:58,Pay Bill Online from 254725248080 - DENNIS KIPROTICH Acc. IBE,Completed,9500,,189500,TRUE,Pay Bill Online,254725248080 - DENNIS KIPROTICH,,IBE
OFE2X9QP3G,14/06/2020 09:26,14/06/2020 09:26,Pay Bill from 254726928933 - JOSHUA NDUNDA NZIOKA Acc. KCJ,Completed,12000,,180000,TRUE,Pay Utility with OD via STK,254726928933 - JOSHUA NDUNDA NZIOKA,,KCJ
OFE9X7Q4H7,14/06/2020 07:59,14/06/2020 07:59,Pay Bill from 254791154655 - ELISHA JURA Acc. IAH,Completed,18000,,168000,TRUE,Pay Utility,254791154655 - ELISHA JURA,,IAH
OFE9X5UEYX,14/06/2020 01:00,14/06/2020 01:00,Pay Bill from 254716369842 - HUMMAM HAMID MOHAMED SAID AMBER Acc. FGC,Completed,1000,,150000,TRUE,Pay Utility with OD via STK,254716369842 - HUMMAM HAMID MOHAMED SAID AMBER,,FGC
OFD7X54R9J,13/06/2020 22:30,13/06/2020 22:30,Pay Bill from 254715326205 - GEORGE MURANGIRI KOBIA Acc. FBB,Completed,17000,,149000,TRUE,Pay Utility,254715326205 - GEORGE MURANGIRI KOBIA,,FBB
OFD8X27J9S,13/06/2020 20:19,13/06/2020 20:19,Pay Bill from 254715764212 - BANCE ISHEMINYE Acc. JFE ,Completed,5000,,132000,TRUE,Pay Utility,254715764212 - BANCE ISHEMINYE,,JFE
OFD8WVFI0W,13/06/2020 17:51,13/06/2020 17:51,Pay Bill from 254720458054 - ROBERT BETT Acc. ICH,Completed,10000,,127000,TRUE,Pay Utility,254720458054 - ROBERT BETT,,ICH
OFD7WSCFNR,13/06/2020 16:39,13/06/2020 16:39,Pay Bill from 0790273411 - MUHAMEDMALIK   GAAL Acc. FDF,Completed,16000,,117000,TRUE,Pay Utility,0790273411 - MUHAMEDMALIK   GAAL,,FDF
OFD8WP0786,13/06/2020 15:12,13/06/2020 15:12,Pay Bill from 254722249092 - MARIAM ABDULLAHI Acc. KEH,Completed,8000,,101000,TRUE,Pay Utility,254722249092 - MARIAM ABDULLAHI,,KEH
OFD9WJ3OZL,13/06/2020 12:23,13/06/2020 12:23,Pay Bill from 254790799823 - HINO ASAFA AILA Acc. FGE,Completed,32000,,93000,TRUE,Pay Utility,254790799823 - HINO ASAFA AILA,,FGE
OFD4WH9X0S,13/06/2020 11:27,13/06/2020 11:27,Pay Bill from 254724680704 - PATRICK MWANDO Acc. fbf,Completed,17000,,61000,TRUE,Pay Utility,254724680704 - PATRICK MWANDO,,fbf
OFD7WA9C31,13/06/2020 06:38,13/06/2020 06:38,Pay Bill from 254721894887 - EDMOND NYAMWEYA Acc. dad ,Completed,20000,,44000,TRUE,Pay Utility,254721894887 - EDMOND NYAMWEYA,,dad
OFC5W49KTL,12/06/2020 19:41,12/06/2020 19:41,Pay Bill from 254718292893 - HERINE ELSEBA ATIENO Acc. IFI,Completed,5000,,24000,TRUE,Pay Utility,254718292893 - HERINE ELSEBA ATIENO,,IFI
OFC4W35MNO,12/06/2020 19:17,12/06/2020 19:17,Pay Bill Online from 254722170279 - GEOFFREY GETUI Acc. FDE,Completed,16000,,19000,TRUE,Pay Bill Online,254722170279 - GEOFFREY GETUI,,FDE
OFC2W27KH4,12/06/2020 18:58,12/06/2020 18:58,Pay Bill from 254710381003 - ALFRED KISHOIN Acc. IBC ,Completed,3000,,3000,TRUE,Pay Utility,254710381003 - ALFRED KISHOIN,,IBC
OFC1VLIPM9,12/06/2020 11:43,12/06/2020 11:43,Utility Account to Organization Settlement Account,Completed,,-111000,0,TRUE,Utility Account to Organization Settlement Account,979524 - ANCIENT WELLS PROPERTY MANAGERS 2,,
OFB5V92XLJ,11/06/2020 20:16,11/06/2020 20:16,Pay Bill from 254714710698 - TABITHA MULEE KYALO Acc. IFE,Completed,9000,,111000,TRUE,Pay Utility,254714710698 - TABITHA MULEE KYALO,,IFE
OFB9V3YP47,11/06/2020 18:24,11/06/2020 18:24,Pay Bill from 254703375006 - KEN RODGERS Acc. DBA,Completed,5000,,102000,TRUE,Pay Utility with OD via STK,254703375006 - KEN RODGERS,,DBA
OFB3V0CNJX,11/06/2020 17:03,11/06/2020 17:03,Pay Bill from 254700052170 - EMMANUEL MUTYETU Acc. KBF,Completed,10000,,97000,TRUE,Pay Utility,254700052170 - EMMANUEL MUTYETU,,KBF
OFB6UVKOD8,11/06/2020 14:51,11/06/2020 14:51,Pay Bill from 254711397174 - JASEL HOPE ANTONINA Acc. kef,Completed,6000,,87000,TRUE,Pay Utility,254711397174 - JASEL HOPE ANTONINA,,kef
OFB1UQEYUR,11/06/2020 12:13,11/06/2020 12:13,Pay Bill from 254725255978 - DICKSON OLUOCH Acc. JFF,Completed,10000,,81000,TRUE,Pay Utility,254725255978 - DICKSON OLUOCH,,JFF
OFB3UPKPHB,11/06/2020 11:47,11/06/2020 11:47,Pay Bill from 254726380203 - SHARON OLENDO Acc. HCA,Completed,18000,,71000,TRUE,Pay Utility,254726380203 - SHARON OLENDO,,HCA
OFB0UOA5XI,11/06/2020 11:06,11/06/2020 11:06,Pay Bill from 254710814215 - JOAN NYAMBURA KAMAU Acc. jci,Completed,20000,,53000,TRUE,Pay Utility,254710814215 - JOAN NYAMBURA KAMAU,,jci
OFA8UGKE2G,10/06/2020 23:17,10/06/2020 23:17,Pay Bill from 254701047939 - Cyrus Wahome Acc. kbg,Completed,10000,,33000,TRUE,Pay Utility,254701047939 - Cyrus Wahome,,kbg
OFA4UFUYPK,10/06/2020 22:05,10/06/2020 22:05,Pay Bill from 254710635630 - DONNA JESSICA OWANO Acc. KCC,Completed,5500,,23000,TRUE,Pay Utility,254710635630 - DONNA JESSICA OWANO,,KCC
OFA8UAPTRW,10/06/2020 19:16,10/06/2020 19:16,Pay Bill from 254707627754 - HUSSEIN NOOR Acc. IFG,Completed,9500,,17500,TRUE,Pay Utility,254707627754 - HUSSEIN NOOR,,IFG
OFA0U9VBOK,10/06/2020 18:59,10/06/2020 18:59,Pay Bill from 254703375006 - KEN RODGERS Acc. DBA,Completed,8000,,8000,TRUE,Pay Utility with OD via STK,254703375006 - KEN RODGERS,,DBA
OFA0U9NLU2,10/06/2020 18:55,10/06/2020 18:55,Utility Account to Organization Settlement Account,Completed,,-270000,0,TRUE,Utility Account to Organization Settlement Account,979524 - ANCIENT WELLS PROPERTY MANAGERS 2,,
OFA5U4P0TH,10/06/2020 17:10,10/06/2020 17:10,Pay Bill Online from 254729425253 - FATUMA MOHAMMED MWAJASI Acc. HBB,Completed,5000,,270000,TRUE,Pay Utility with OD Online,254729425253 - FATUMA MOHAMMED MWAJASI,,HBB
OFA3U4C6KB,10/06/2020 17:01,10/06/2020 17:01,Pay Bill from 254725385966 - JOSEPH MUYA MARUA Acc. KEE,Completed,10000,,265000,TRUE,Pay Utility,254725385966 - JOSEPH MUYA MARUA,,KEE
OFA0TZOZTI,10/06/2020 14:57,10/06/2020 14:57,Pay Bill from 0703549682 - MILCAH KANINI BERNARD Acc. JDF,Completed,8000,,255000,TRUE,Pay Utility,0703549682 - MILCAH KANINI BERNARD,,JDF
OFA3TYPBWH,10/06/2020 14:28,10/06/2020 14:28,Pay Bill Online from 254706549634 - CLINTON OMBASA Acc. FDB,Completed,17000,,247000,TRUE,Pay Bill Online,254706549634 - CLINTON OMBASA,,FDB
OFA4TWHO1G,10/06/2020 13:22,10/06/2020 13:22,Pay Bill from 254740579741 - MUHINDI MULINYA Acc. HGG,Completed,15000,,230000,TRUE,Pay Utility,254740579741 - MUHINDI MULINYA,,HGG
OFA1TUMBOZ,10/06/2020 12:25,10/06/2020 12:25,Pay Bill Online from 254706898046 - STACY AKETCH OCHUKA Acc. KED,Completed,25000,,215000,TRUE,Pay Bill Online,254706898046 - STACY AKETCH OCHUKA,,KED
OFA0TTJXX2,10/06/2020 11:53,10/06/2020 11:53,Pay Bill from 0715688238 - JOANNAH ATUHAIRE BANTU Acc. JAE,Completed,9000,,190000,TRUE,Pay Utility,0715688238 - JOANNAH ATUHAIRE BANTU,,JAE
OFA7TT6O77,10/06/2020 11:41,10/06/2020 11:41,Pay Bill from 0719834515 - Ibsa   Usman Acc. HBH,Completed,18000,,181000,TRUE,Pay Utility,0719834515 - Ibsa   Usman,,HBH
OFA7TQPVLF,10/06/2020 10:24,10/06/2020 10:24,Pay Bill from 254710635630 - DONNA JESSICA OWANO Acc. KCC,Completed,4500,,163000,TRUE,Pay Utility,254710635630 - DONNA JESSICA OWANO,,KCC
OFA2TP4XN8,10/06/2020 09:31,10/06/2020 09:31,Pay Bill from 254716863301 - PRISCILLAH WANJIRU Acc. ICD,Completed,11000,,158500,TRUE,Pay Utility,254716863301 - PRISCILLAH WANJIRU,,ICD
OFA1TN7R9L,10/06/2020 08:14,10/06/2020 08:14,Pay Bill Online from 254728687482 - KELSEN MWIRIGI MUTIGA Acc. HCE,Completed,10500,,147500,TRUE,Pay Bill Online,254728687482 - KELSEN MWIRIGI MUTIGA,,HCE
OFA0TME5YQ,10/06/2020 07:28,10/06/2020 07:28,Pay Bill from 254799178757 - Fabrice Nzeyimana Acc. HBF,Completed,5000,,137000,TRUE,Pay Utility,254799178757 - Fabrice Nzeyimana,,HBF
OF93TKPD8D,09/06/2020 23:34,09/06/2020 23:34,Pay Bill from 254726611493 - Cornelius Kimeli Acc. HAG,Completed,16000,,132000,TRUE,Pay Utility,254726611493 - Cornelius Kimeli,,HAG
OF96TDXB32,09/06/2020 18:56,09/06/2020 18:56,Pay Bill from 254798500940 - Paaul Oduor Acc. kfj,Completed,15000,,116000,TRUE,Pay Utility,254798500940 - Paaul Oduor,,kfj
OF92TBIU6I,09/06/2020 18:08,09/06/2020 18:08,Pay Bill from 254722910078 - MAUREEN MUNYIVA MUTUKU Acc. DBD,Completed,17500,,101000,TRUE,Pay Utility,254722910078 - MAUREEN MUNYIVA MUTUKU,,DBD
OF91T7USC5,09/06/2020 16:47,09/06/2020 16:47,Pay Bill from 254718032128 - ABIGAEL ADENYA Acc. JDD,Completed,12000,,83500,TRUE,Pay Utility,254718032128 - ABIGAEL ADENYA,,JDD
OF95T6X94J,09/06/2020 16:24,09/06/2020 16:24,Pay Bill from 254721320216 - PAULINE WANJA NJUNGUNA Acc. HDC,Completed,10500,,71500,TRUE,Pay Utility,254721320216 - PAULINE WANJA NJUNGUNA,,HDC
OF97T43989,09/06/2020 15:07,09/06/2020 15:07,Pay Bill from 254718772336 - DAVID SERUGO Acc. FBA,Completed,17000,,61000,TRUE,Pay Utility,254718772336 - DAVID SERUGO,,FBA
OF91T32CG9,09/06/2020 14:37,09/06/2020 14:37,Pay Bill from 254705207723 - LATIFA ALI BAKARI JUMA Acc. KFI,Completed,3000,,44000,TRUE,Pay Utility,254705207723 - LATIFA ALI BAKARI JUMA,,KFI
OF97T0RKA1,09/06/2020 13:30,09/06/2020 13:30,FSI to Pay Bill by 100401 - 100401HFC Acc. JEJ via WEB by 100401HFC\hfcappinit,Completed,16000,,41000,TRUE,FSI to Pay Bill via API,100401 - 100401HFC,,JEJ
OF93T0NLW3,09/06/2020 13:27,09/06/2020 13:27,Pay Bill from 254729392595 - WINNIE NASICHE KERE Acc. JBF,Completed,8000,,25000,TRUE,Pay Utility,254729392595 - WINNIE NASICHE KERE,,JBF
OF96SR90J8,09/06/2020 08:33,09/06/2020 08:33,Pay Bill from 254721918811 - AHMED ABDI Acc. kaj,Completed,16000,,17000,TRUE,Pay Utility,254721918811 - AHMED ABDI,,kaj
OF88SOCL12,08/06/2020 22:57,08/06/2020 22:57,Pay Bill from 254716369842 - HUMMAM HAMID MOHAMED SAID AMBER Acc. FGC,Completed,1000,,1000,TRUE,Pay Utility,254716369842 - HUMMAM HAMID MOHAMED SAID AMBER,,FGC
OF88SNKVDS,08/06/2020 21:46,08/06/2020 21:46,Utility Account to Organization Settlement Account,Completed,,-320900,0,TRUE,Utility Account to Organization Settlement Account,979524 - ANCIENT WELLS PROPERTY MANAGERS 2,,
OF87SCR9CT,08/06/2020 17:06,08/06/2020 17:06,Pay Bill from 254791910715 - BOAZ OMAE MORARO Acc. ICC,Completed,9000,,320900,TRUE,Pay Utility with OD via STK,254791910715 - BOAZ OMAE MORARO,,ICC
OF86S9W368,08/06/2020 15:53,08/06/2020 15:53,Pay Bill from 254727648419 - ABDISALAN AHMED Acc. Jbh ,Completed,17000,,311900,TRUE,Pay Utility,254727648419 - ABDISALAN AHMED,,Jbh
OF86S8I7NC,08/06/2020 15:14,08/06/2020 15:14,Pay Bill Online from 0757699775 - BENARD MUIA MUTUA Acc. HCB,Completed,16000,,294900,TRUE,Pay Bill Online,0757699775 - BENARD MUIA MUTUA,,HCB
OF80S85I9C,08/06/2020 15:04,08/06/2020 15:04,Pay Bill Online from 254714889853 - EUNICE WAIRIMU MWANGI Acc. KGE,Completed,9000,,278900,TRUE,Pay Bill Online,254714889853 - EUNICE WAIRIMU MWANGI,,KGE
OF88S74J8C,08/06/2020 14:34,08/06/2020 14:34,Pay Bill from 254723071630 - KENNEDY KARANJA NJOROGE Acc. JBI,Completed,20000,,269900,TRUE,Pay Utility,254723071630 - KENNEDY KARANJA NJOROGE,,JBI
OF80S6OO08,08/06/2020 14:21,08/06/2020 14:21,Pay Bill from 254714415313 - anastasia muthoni kimani Acc. IBH,Completed,8000,,249900,TRUE,Pay Utility,254714415313 - anastasia muthoni kimani,,IBH
OF85S68I05,08/06/2020 14:08,08/06/2020 14:08,Pay Bill from 254724777705 - COLLINS AKASA Acc. KEG ,Completed,7000,,241900,TRUE,Pay Utility,254724777705 - COLLINS AKASA,,KEG
OF89S3OUV3,08/06/2020 12:54,08/06/2020 12:54,Pay Bill from 254721115404 - Justine Fayuma Okwemba Acc. HAA,Completed,17000,,234900,TRUE,Pay Utility,254721115404 - Justine Fayuma Okwemba,,HAA
OF83S0D007,08/06/2020 11:15,08/06/2020 11:15,Pay Bill from 254714818251 - MERCY AKINYI OMONDI Acc. dfb,Completed,15000,,217900,TRUE,Pay Utility,254714818251 - MERCY AKINYI OMONDI,,dfb
OF88RWLYVI,08/06/2020 09:16,08/06/2020 09:16,Pay Bill from 254729948896 - CAROLINE V MILIZA Acc. Fec,Completed,9000,,202900,TRUE,Pay Utility,254729948896 - CAROLINE V MILIZA,,Fec
OF83RW7EJ9,08/06/2020 09:01,08/06/2020 09:01,Pay Bill from 254723026840 - HARRISON MAINA Acc. KAI,Completed,12500,,193900,TRUE,Pay Utility,254723026840 - HARRISON MAINA,,KAI
OF79RQMH8J,07/06/2020 20:49,07/06/2020 20:49,Pay Bill from 254712275450 - Faith muthoni mukundi Acc. IAF,Completed,11000,,181400,TRUE,Pay Utility with OD via STK,254712275450 - Faith muthoni mukundi,,IAF
OF73RQLBRL,07/06/2020 20:48,07/06/2020 20:48,Pay Bill from 254722458136 - NADI GOLICHA Acc. KAA,Completed,17000,,170400,TRUE,Pay Utility,254722458136 - NADI GOLICHA,,KAA
OF73RJFNO5,07/06/2020 17:49,07/06/2020 17:49,Pay Bill from 254725094113 - BRAXTON LUMWAJI Acc. DDC,Completed,20000,,153400,TRUE,Pay Utility,254725094113 - BRAXTON LUMWAJI,,DDC
OF76RJ6PNG,07/06/2020 17:43,07/06/2020 17:43,Pay Bill from 254725815806 - WILFRED OGAYE Acc. DCD House No. ,Completed,20000,,133400,TRUE,Pay Utility,254725815806 - WILFRED OGAYE,,DCD
OF71RCNBAD,07/06/2020 14:46,07/06/2020 14:46,Pay Bill from 254724655033 - SUSAN CHIMOTO Acc. KGH,Completed,9500,,113400,TRUE,Pay Utility,254724655033 - SUSAN CHIMOTO,,KGH
OF73R7ZHIJ,07/06/2020 12:24,07/06/2020 12:24,Pay Bill from 254717554562 - OMONDI JACK Acc. KCI,Completed,12500,,103900,TRUE,Pay Utility,254717554562 - OMONDI JACK,,KCI
OF77R5Z3GL,07/06/2020 11:20,07/06/2020 11:20,Pay Bill from 254704111133 - ELVIS OTIENO Acc. HFE,Completed,1000,,91400,TRUE,Pay Utility,254704111133 - ELVIS OTIENO,,HFE
OF70R4KEJ6,07/06/2020 10:35,07/06/2020 10:35,Pay Bill from 254704111133 - ELVIS OTIENO Acc. HFE,Completed,3400,,90400,TRUE,Pay Utility,254704111133 - ELVIS OTIENO,,HFE
OF68QYRCTA,06/06/2020 23:53,06/06/2020 23:53,Pay Bill from 254725074792 - CAROLINE KURI Acc. KCA,Completed,17000,,87000,TRUE,Pay Utility,254725074792 - CAROLINE KURI,,KCA
OF64QV8ICY,06/06/2020 20:05,06/06/2020 20:05,Pay Bill from 254704111133 - ELVIS OTIENO Acc. HFE,Completed,10000,,70000,TRUE,Pay Utility,254704111133 - ELVIS OTIENO,,HFE
OF66QRY2SO,06/06/2020 18:51,06/06/2020 18:51,Pay Bill from 254716918015 - SADDAM HAMID AMBER Acc. HFB,Completed,5000,,60000,TRUE,Pay Utility,254716918015 - SADDAM HAMID AMBER,,HFB
OF60QOZSNY,06/06/2020 17:55,06/06/2020 17:55,Pay Bill from 254715597659 - JOYCE KIVAI Acc. IED,Completed,11000,,55000,TRUE,Pay Utility,254715597659 - JOYCE KIVAI,,IED
OF69QLY6X9,06/06/2020 16:51,06/06/2020 16:51,Pay Bill from 254705163028 - VICTORIA MUTHONI NJIRU Acc. IFD,Completed,11000,,44000,TRUE,Pay Utility,254705163028 - VICTORIA MUTHONI NJIRU,,IFD
OF66QLEID4,06/06/2020 16:39,06/06/2020 16:39,Pay Bill from 254706159636 - titus omondi abuodha Acc. HBC,Completed,3000,,33000,TRUE,Pay Utility,254706159636 - titus omondi abuodha,,HBC
OF67QKWPKJ,06/06/2020 16:27,06/06/2020 16:27,Pay Bill from 254708851939 - VENANT MBOGHO Acc. kch,Completed,10000,,30000,TRUE,Pay Utility with OD via STK,254708851939 - VENANT MBOGHO,,kch
OF62QK8REC,06/06/2020 16:12,06/06/2020 16:12,Pay Bill from 254726170938 - ANNE CHEBET TALLAM Acc. HFF,Completed,20000,,20000,TRUE,Pay Utility,254726170938 - ANNE CHEBET TALLAM,,HFF
OF61QJOWZF,06/06/2020 15:58,06/06/2020 15:58,Utility Account to Organization Settlement Account,Completed,,-547500,0,TRUE,Utility Account to Organization Settlement Account,979524 - ANCIENT WELLS PROPERTY MANAGERS 2,,
OF61QJLJJ7,06/06/2020 15:56,06/06/2020 15:56,Pay Bill Online from 254724754662 - CHARLES ERUKUDI EKAI Acc. FBE,Completed,16000,,547500,TRUE,Pay Bill Online,254724754662 - CHARLES ERUKUDI EKAI,,FBE
OF62QHMCRS,06/06/2020 14:58,06/06/2020 14:58,Pay Bill from 254792946676 - ESTHER KAMAU Acc. hab,Completed,16000,,531500,TRUE,Pay Utility,254792946676 - ESTHER KAMAU,,hab
OF64QHAN6C,06/06/2020 14:49,06/06/2020 14:49,Pay Bill from 254728610675 - RUTH WAKOLI KISABULI Acc. KGC,Completed,9000,,515500,TRUE,Pay Utility,254728610675 - RUTH WAKOLI KISABULI,,KGC
OF69QE8F79,06/06/2020 13:24,06/06/2020 13:24,Pay Bill from 254716328009 - IRENE ODHIAMBO Acc. KGG,Completed,9000,,506500,TRUE,Pay Utility,254716328009 - IRENE ODHIAMBO,,KGG
OF68QDXNIA,06/06/2020 13:16,06/06/2020 13:16,FSI to Pay Bill by 714888 - B2C LOOP VIA NCBA Acc. JAD via WEB by B2C LOOP VIA NCBA\Cbainitiator,Completed,13000,,497500,TRUE,FSI to Pay Bill via API,714888 - B2C LOOP VIA NCBA,,JAD
OF61QDXHRP,06/06/2020 13:16,06/06/2020 13:16,Pay Bill from 254798674917 - Egbe Okpaga Okpaga Acc. HAD,Completed,9500,,484500,TRUE,Pay Utility,254798674917 - Egbe Okpaga Okpaga,,HAD
OF69QDHC0V,06/06/2020 13:03,06/06/2020 13:03,Pay Bill from 254720249209 - WILFRED NJUGUNA WANJIRI Acc. DDD,Completed,20000,,475000,TRUE,Pay Utility,254720249209 - WILFRED NJUGUNA WANJIRI,,DDD
OF65QBG3R7,06/06/2020 12:05,06/06/2020 12:05,Pay Bill from 254725754547 - MWACHIRO GEORGE DECHE Acc. DFC,Completed,23000,,455000,TRUE,Pay Utility,254725754547 - MWACHIRO GEORGE DECHE,,DFC
OF69QB4XNR,06/06/2020 11:56,06/06/2020 11:56,Pay Bill from 0758591833 - DORCUS MBULA PETER Acc. JEF,Completed,7000,,432000,TRUE,Pay Utility,0758591833 - DORCUS MBULA PETER,,JEF
OF63QB1B7H,06/06/2020 11:53,06/06/2020 11:53,Pay Bill from 254710926340 - DOREEN MUTANU Acc. IBG,Completed,9500,,425000,TRUE,Pay Utility with OD via STK,254710926340 - DOREEN MUTANU,,IBG
OF60Q9LB08,06/06/2020 11:11,06/06/2020 11:11,Pay Bill from 0768391388 - VENANTIUS OKURUT EMOIT Acc. DED,Completed,20000,,415500,TRUE,Pay Utility,0768391388 - VENANTIUS OKURUT EMOIT,,DED
OF61Q8NGUD,06/06/2020 10:44,06/06/2020 10:44,Pay Bill from 254724611087 - Francis Mukindya Muoki Acc. KDE,Completed,5000,,395500,TRUE,Pay Utility,254724611087 - Francis Mukindya Muoki,,KDE
OF66Q80MU0,06/06/2020 10:24,06/06/2020 10:24,Pay Bill from 254713461026 - FLORENCE MUCOKI Acc. 846783,Completed,13500,,390500,TRUE,Pay Utility,254713461026 - FLORENCE MUCOKI,,846783
OF63Q55ZGB,06/06/2020 08:51,06/06/2020 08:51,Pay Bill from 254708328466 - VENESSA NYARERU Acc. KCD,Completed,4000,,377000,TRUE,Pay Utility with OD via STK,254708328466 - VENESSA NYARERU,,KCD
OF66Q4M8VU,06/06/2020 08:31,06/06/2020 08:31,Pay Bill from 254721315975 - JOSEPH NDEGWA Acc. H E B,Completed,16000,,373000,TRUE,Pay Utility,254721315975 - JOSEPH NDEGWA,,H
OF68Q4K3XC,06/06/2020 08:28,06/06/2020 08:28,Pay Bill from 0740344195 - GEORGE ODHIAMBO ONYANGO Acc. DAA,Completed,17000,,357000,TRUE,Pay Utility,0740344195 - GEORGE ODHIAMBO ONYANGO,,DAA
OF68Q3ITZM,06/06/2020 07:43,06/06/2020 07:43,Pay Bill from 254721383378 - JAMES MBITHI KILAVI Acc. ICG,Completed,9500,,340000,TRUE,Pay Utility,254721383378 - JAMES MBITHI KILAVI,,ICG
OF52Q1WT8Q,05/06/2020 23:52,05/06/2020 23:52,Pay Bill from 254715764212 - BANCE ISHEMINYE Acc. JFE ,Completed,6000,,330500,TRUE,Pay Utility,254715764212 - BANCE ISHEMINYE,,JFE
OF53Q1L28P,05/06/2020 22:46,05/06/2020 22:46,Pay Bill Online from 254720787158 - AMOS CHELANG'A Acc. KFK,Completed,16000,,324500,TRUE,Pay Bill Online,254720787158 - AMOS CHELANG'A,,KFK
OF59Q1C415,05/06/2020 22:18,05/06/2020 22:18,Pay Bill from 254722258107 - JOHN ODIMA ODIMA Acc. KGF,Completed,10000,,308500,TRUE,Pay Utility,254722258107 - JOHN ODIMA ODIMA,,KGF
OF56Q196HC,05/06/2020 22:11,05/06/2020 22:11,Pay Bill from 254714209770 - PURITY NDUKU KYALO Acc. JEB,Completed,15000,,298500,TRUE,Pay Utility,254714209770 - PURITY NDUKU KYALO,,JEB
OF52Q0VV5O,05/06/2020 21:46,05/06/2020 21:46,Pay Bill from 254722874715 - PATRCIAH mbesa KIOKO Acc. KBB,Completed,16000,,283500,TRUE,Pay Utility,254722874715 - PATRCIAH mbesa KIOKO,,KBB
OF51Q05XTD,05/06/2020 21:09,05/06/2020 21:09,Pay Bill from 254727003033 - MARTIN NJUGUNA NYINGI Acc. FGD,Completed,10000,,267500,TRUE,Pay Utility,254727003033 - MARTIN NJUGUNA NYINGI,,FGD
OF56PZ1RM6,05/06/2020 20:26,05/06/2020 20:26,Pay Bill Online from 254726827817 - ERWIN ADHOK Acc. KBA,Completed,17000,,257500,TRUE,Pay Bill Online,254726827817 - ERWIN ADHOK,,KBA
OF51PYO9LD,05/06/2020 20:14,05/06/2020 20:14,Pay Bill Online from 254720044312 - ELIUD KIPKURUI Acc. FCF,Completed,17000,,240500,TRUE,Pay Utility with OD Online,254720044312 - ELIUD KIPKURUI,,FCF
OF59PYGN4H,05/06/2020 20:07,05/06/2020 20:07,Pay Bill from 254712954563 - JOSEPH MUTISO KILONZO Acc. DAC,Completed,20000,,223500,TRUE,Pay Utility,254712954563 - JOSEPH MUTISO KILONZO,,DAC
OF56PXWYFC,05/06/2020 19:51,05/06/2020 19:51,Pay Bill from 254792187144 - HASSAN AHMED HASSAN Acc. KGI,Completed,10000,,203500,TRUE,Pay Utility,254792187144 - HASSAN AHMED HASSAN,,KGI
OF54PW6542,05/06/2020 19:12,05/06/2020 19:12,Pay Bill from 254790280339 - BANTURA GIBSON Acc. IBA,Completed,11000,,193500,TRUE,Pay Utility,254790280339 - BANTURA GIBSON,,IBA
OF53PVU1S3,05/06/2020 19:05,05/06/2020 19:05,Pay Bill from 254725412378 - JOYCE JEPCHIRCHIR KEITANY Acc. JFJ,Completed,15000,,182500,TRUE,Pay Utility,254725412378 - JOYCE JEPCHIRCHIR KEITANY,,JFJ
OF54PTN30Y,05/06/2020 18:24,05/06/2020 18:24,Pay Bill from 254798524621 - MERCY CHESANG Acc. JCJ,Completed,16000,,167500,TRUE,Pay Utility,254798524621 - MERCY CHESANG,,JCJ
OF59PTC283,05/06/2020 18:18,05/06/2020 18:18,Pay Bill from 254715774019 - BONIFACE BARAKO KATELO Acc. hgf,Completed,9000,,151500,TRUE,Pay Utility,254715774019 - BONIFACE BARAKO KATELO,,hgf
OF54PSNKPS,05/06/2020 18:05,05/06/2020 18:05,Pay Bill from 254708703539 - SUSAN NDUGIRE NDUGIRE Acc. kda,Completed,17000,,142500,TRUE,Pay Utility,254708703539 - SUSAN NDUGIRE NDUGIRE,,kda
OF58PSBTDC,05/06/2020 17:58,05/06/2020 17:58,Pay Bill from 254720868281 - KENNEDY MWELU Acc. KBI,Completed,12500,,125500,TRUE,Pay Utility with OD via STK,254720868281 - KENNEDY MWELU,,KBI
OF53PRLBKJ,05/06/2020 17:44,05/06/2020 17:44,Pay Bill from 254745643971 - bervon kaburu kiruthu Acc. jfc,Completed,10000,,113000,TRUE,Pay Utility with OD via STK,254745643971 - bervon kaburu kiruthu,,jfc
OF59PRG5U1,05/06/2020 17:41,05/06/2020 17:41,Pay Bill from 254714114228 - MWANGO AWINO VIOLET Acc. DCB,Completed,16000,,103000,TRUE,Pay Utility,254714114228 - MWANGO AWINO VIOLET,,DCB
OF58POPSGA,05/06/2020 16:42,05/06/2020 16:42,Pay Bill from 254724567821 - ALEX MANDA Acc. ITE,Completed,10000,,87000,TRUE,Pay Utility,254724567821 - ALEX MANDA,,ITE
OF54PN7RGG,05/06/2020 16:06,05/06/2020 16:06,Pay Bill from 254715259756 - SYNTHIA OTIENO Acc. FBC,Completed,9500,,77000,TRUE,Pay Utility,254715259756 - SYNTHIA OTIENO,,FBC
OF50PN0ZV6,05/06/2020 16:01,05/06/2020 16:01,Pay Bill from 254702764047 - FERDINAND K Acc. KDB,Completed,16000,,67500,TRUE,Pay Utility,254702764047 - FERDINAND K,,KDB
OF53PMDWXD,05/06/2020 15:45,05/06/2020 15:45,Pay Bill from 254726001708 - MARTHA ATIENO ATIENO OSALO Acc. IBI,Completed,17000,,51500,TRUE,Pay Utility,254726001708 - MARTHA ATIENO ATIENO OSALO,,IBI
OF53PKLFUH,05/06/2020 14:57,05/06/2020 14:57,Pay Bill from 254727081581 - RUTH MORAGWA ORINA Acc. jce,Completed,9000,,34500,TRUE,Pay Utility,254727081581 - RUTH MORAGWA ORINA,,jce
OF57PJC3QH,05/06/2020 14:22,05/06/2020 14:22,Pay Bill Online from 254717809935 - LYDIAH WERU Acc. IDC,Completed,9500,,25500,TRUE,Pay Bill Online,254717809935 - LYDIAH WERU,,IDC
OF55PJ7IV5,05/06/2020 14:19,05/06/2020 14:19,Pay Bill from 254721911181 - UBAH ALINOOR Acc. HGD,Completed,16000,,16000,TRUE,Pay Utility,254721911181 - UBAH ALINOOR,,HGD
OF51PHZA0T,05/06/2020 13:44,05/06/2020 13:44,Utility Account to Organization Settlement Account,Completed,,-412500,0,TRUE,Utility Account to Organization Settlement Account,979524 - ANCIENT WELLS PROPERTY MANAGERS 2,,
OF59PFZKQN,05/06/2020 12:47,05/06/2020 12:47,Pay Bill from 254719398942 - NORAH WAYUA MUNYAO Acc. KDC,Completed,10000,,412500,TRUE,Pay Utility,254719398942 - NORAH WAYUA MUNYAO,,KDC
OF53PE58M9,05/06/2020 11:54,05/06/2020 11:54,Pay Bill from 0729704534 - HABIBA MOHAMED SIGALA Acc. IFG,Completed,9000,,402500,TRUE,Pay Utility,0729704534 - HABIBA MOHAMED SIGALA,,IFG
OF56PE0VGA,05/06/2020 11:50,05/06/2020 11:50,Pay Bill from 254711271263 - BENSON MWADIME JOSEPH Acc. 1EE,Completed,9000,,393500,TRUE,Pay Utility,254711271263 - BENSON MWADIME JOSEPH,,1EE
OF53PC74FP,05/06/2020 10:57,05/06/2020 10:57,Pay Bill from 0759422988 - IVY   WITABA Acc. ieg,Completed,9000,,384500,TRUE,Pay Utility,0759422988 - IVY   WITABA,,ieg
OF56PAZNMQ,05/06/2020 10:20,05/06/2020 10:20,Pay Bill Online from 254722705077 - ROSALID WAMBUI NJOROGE Acc. FDD,Completed,12000,,375500,TRUE,Pay Bill Online,254722705077 - ROSALID WAMBUI NJOROGE,,FDD
OF59PAMRR3,05/06/2020 10:09,05/06/2020 10:09,Pay Bill from 254721465713 - RHODA WAMBUI MWANGI Acc. jfh,Completed,17000,,363500,TRUE,Pay Utility,254721465713 - RHODA WAMBUI MWANGI,,jfh
OF51PABPTV,05/06/2020 10:00,05/06/2020 10:00,Pay Bill from 254713159153 - GUYO SANKALA Acc. DGD,Completed,20000,,346500,TRUE,Pay Utility,254713159153 - GUYO SANKALA,,DGD
OF59P8SA3P,05/06/2020 09:09,05/06/2020 09:09,Pay Bill from 254719626804 - PAUL NJOROGE Acc. JFI,Completed,20000,,326500,TRUE,Pay Utility,254719626804 - PAUL NJOROGE,,JFI
OF59P7J1KR,05/06/2020 08:23,05/06/2020 08:23,Pay Bill from 254723929380 - RHODAH K WAMBUA Acc. HEF,Completed,9500,,306500,TRUE,Pay Utility,254723929380 - RHODAH K WAMBUA,,HEF
OF55P6X8Y9,05/06/2020 07:59,05/06/2020 07:59,Pay Bill from 0743369961 - SALOME WANGARI KIBUGI Acc. KGD,Completed,10000,,297000,TRUE,Pay Utility,0743369961 - SALOME WANGARI KIBUGI,,KGD
OF47P4PUJT,04/06/2020 22:53,04/06/2020 22:53,Pay Bill from 254707315614 - TERESAH WANJIRU KIRAGU Acc. JDI,Completed,24000,,287000,TRUE,Pay Utility,254707315614 - TERESAH WANJIRU KIRAGU,,JDI
OF43P2MR2F,04/06/2020 20:39,04/06/2020 20:39,Pay Bill from 254725771056 - CHARLES MURAGURI Acc. FCC,Completed,9000,,263000,TRUE,Pay Utility,254725771056 - CHARLES MURAGURI,,FCC
OF40P27RP4,04/06/2020 20:24,04/06/2020 20:24,Pay Bill from 254716045947 - LILIAN OLOO Acc. FBD,Completed,11000,,254000,TRUE,Pay Utility,254716045947 - LILIAN OLOO,,FBD
OF42P0YWD8,04/06/2020 19:46,04/06/2020 19:46,Pay Bill from 254729160700 - MICAH NDUNGI Acc. IDG,Completed,9500,,243000,TRUE,Pay Utility,254729160700 - MICAH NDUNGI,,IDG
OF41P0RTKP,04/06/2020 19:41,04/06/2020 19:41,Pay Bill from 254718138578 - PAULINE KIOKO Acc. KFD,Completed,12000,,233500,TRUE,Pay Utility,254718138578 - PAULINE KIOKO,,KFD
OF49OZUVDV,04/06/2020 19:20,04/06/2020 19:20,Pay Bill from 254748104979 - JAMES GITHOGORI NGARI Acc. kfb,Completed,19000,,221500,TRUE,Pay Utility,254748104979 - JAMES GITHOGORI NGARI,,kfb
OF49OYPI2V,04/06/2020 18:56,04/06/2020 18:56,Pay Bill from 254724364316 - LINET MWENDIA Acc. KEJ,Completed,16000,,202500,TRUE,Pay Utility,254724364316 - LINET MWENDIA,,KEJ
OF42OY1R9C,04/06/2020 18:43,04/06/2020 18:43,Pay Bill Online from 254715892656 - DENNIS MUSYOKA MUOKI Acc. KFA,Completed,16000,,186500,TRUE,Pay Bill Online,254715892656 - DENNIS MUSYOKA MUOKI,,KFA
OF43OV88KR,04/06/2020 17:49,04/06/2020 17:49,Pay Bill from 254722521028 - CHARLES MONYONCHO Acc. HCC,Completed,10500,,170500,TRUE,Pay Utility,254722521028 - CHARLES MONYONCHO,,HCC
OF47OV2W2L,04/06/2020 17:45,04/06/2020 17:45,Pay Bill from 254724882554 - ALPHONCE WAMBUA NGELI Acc. JDA,Completed,20000,,160000,TRUE,Pay Utility,254724882554 - ALPHONCE WAMBUA NGELI,,JDA
OF44OUJOOI,04/06/2020 17:34,04/06/2020 17:34,Pay Bill from 254714156268 - MARY NJOKI KANYIRI Acc. IFC,Completed,9500,,140000,TRUE,Pay Utility,254714156268 - MARY NJOKI KANYIRI,,IFC
OF47OUDFYL,04/06/2020 17:30,04/06/2020 17:30,Pay Bill from 254729796719 - JACINTA WANJIKU NJERI Acc. FFF,Completed,17000,,130500,TRUE,Pay Utility,254729796719 - JACINTA WANJIKU NJERI,,FFF
OF46OTYC2K,04/06/2020 17:21,04/06/2020 17:21,Pay Bill from 254708619274 - BONIFACE MUTUA Acc. IFF,Completed,10000,,113500,TRUE,Pay Utility,254708619274 - BONIFACE MUTUA,,IFF
OF44OSEV5M,04/06/2020 16:46,04/06/2020 16:46,Pay Bill from 254722743980 - BENSON MEMUSI MEMUSI KOIKAI Acc. IBD,Completed,31000,,103500,TRUE,Pay Utility,254722743980 - BENSON MEMUSI MEMUSI KOIKAI,,IBD
OF41OQNDRN,04/06/2020 16:02,04/06/2020 16:02,Pay Bill from 254714855708 - KIPLANGAT SITIENEI Acc. FAE,Completed,16000,,72500,TRUE,Pay Utility,254714855708 - KIPLANGAT SITIENEI,,FAE
OF43OOI93P,04/06/2020 15:04,04/06/2020 15:04,Pay Bill from 254720107609 - DENNIS OGENDI BARAKE Acc. JAJ,Completed,15000,,56500,TRUE,Pay Utility with OD via STK,254720107609 - DENNIS OGENDI BARAKE,,JAJ
OF45OOEV7Z,04/06/2020 15:01,04/06/2020 15:01,Pay Bill from 254718233980 - KAREN ASWANI Acc. HEC,Completed,10500,,41500,TRUE,Pay Utility,254718233980 - KAREN ASWANI,,HEC
OF41OOD505,04/06/2020 15:00,04/06/2020 15:00,Pay Bill from 254728364280 - EMMANUEL THUMA OYIER Acc. IDF,Completed,11000,,31000,TRUE,Pay Utility,254728364280 - EMMANUEL THUMA OYIER,,IDF
OF45ON15QV,04/06/2020 14:22,04/06/2020 14:22,Pay Bill from 254721538323 - ISSA ISACK GOLLO Acc. DCC FOR JUNE,Completed,20000,,20000,TRUE,Pay Utility,254721538323 - ISSA ISACK GOLLO,,DCC
OF46OMD30O,04/06/2020 14:02,04/06/2020 14:02,Utility Account to Organization Settlement Account,Completed,,-197000,0,TRUE,Utility Account to Organization Settlement Account,979524 - ANCIENT WELLS PROPERTY MANAGERS 2,,
OF40OM69QS,04/06/2020 13:57,04/06/2020 13:57,Pay Bill from 254720671702 - DENIS RONOH Acc. HBD,Completed,5000,,197000,TRUE,Pay Utility,254720671702 - DENIS RONOH,,HBD
OF43OLSQ1X,04/06/2020 13:46,04/06/2020 13:46,Pay Bill from 254716499837 - ASHA MUSA Acc. JFD,Completed,15000,,192000,TRUE,Pay Utility,254716499837 - ASHA MUSA,,JFD
OF40OK8Y8Q,04/06/2020 13:00,04/06/2020 13:00,Pay Bill from 254792891094 - WINNIE ODHIAMBO Acc. HFD,Completed,9500,,177000,TRUE,Pay Utility,254792891094 - WINNIE ODHIAMBO,,HFD
OF49ODMUOB,04/06/2020 09:38,04/06/2020 09:38,Pay Bill from 254710202776 - KELVIN KARIMI MACHARIA Acc. FAD,Completed,11000,,167500,TRUE,Pay Utility,254710202776 - KELVIN KARIMI MACHARIA,,FAD
OF38O6G15Q,03/06/2020 20:28,03/06/2020 20:28,Pay Bill from 254701196539 - GICHURI KARANJA Acc. fee,Completed,16000,,156500,TRUE,Pay Utility,254701196539 - GICHURI KARANJA,,fee
OF31O5WZI7,03/06/2020 20:10,03/06/2020 20:10,Pay Bill from 254713831946 - KEVIN WAMBUA Acc. IAA,Completed,15000,,140500,TRUE,Pay Utility,254713831946 - KEVIN WAMBUA,,IAA
OF36O5LVQY,03/06/2020 20:00,03/06/2020 20:00,Pay Bill from 254700627058 - SUSY NABALAYO CHELONGO Acc. dbb,Completed,16000,,125500,TRUE,Pay Utility,254700627058 - SUSY NABALAYO CHELONGO,,dbb
OF38O2XPCW,03/06/2020 18:57,03/06/2020 18:57,Pay Bill from 254721302658 - JACOB BIRUNDU Acc. DDB,Completed,16000,,109500,TRUE,Pay Utility,254721302658 - JACOB BIRUNDU,,DDB
OF33O0PHWF,03/06/2020 18:15,03/06/2020 18:15,Pay Bill from 254706237502 - STEPHEN WERE Acc. IBA,Completed,7000,,93500,TRUE,Pay Utility,254706237502 - STEPHEN WERE,,IBA
OF39O0LZQX,03/06/2020 18:13,03/06/2020 18:13,Pay Bill from 254722458136 - NADI GOLICHA Acc. KAA,Completed,17000,,86500,TRUE,Pay Utility,254722458136 - NADI GOLICHA,,KAA
OF30NXSTUW,03/06/2020 17:15,03/06/2020 17:15,Pay Bill from 0743732208 - NAOMY KALEKYE MULWA Acc. KAE,Completed,10000,,69500,TRUE,Pay Utility,0743732208 - NAOMY KALEKYE MULWA,,KAE
OF39NXQB3X,03/06/2020 17:14,03/06/2020 17:14,Pay Bill from 0769001671 - Wilson Mutangili Wambua Acc. HAF,Completed,9500,,59500,TRUE,Pay Utility,0769001671 - Wilson Mutangili Wambua,,HAF
OF36NWEVJC,03/06/2020 16:44,03/06/2020 16:44,Pay Bill from 0705721558 - patrick Sturridge Nyongesa Acc. Kaf,Completed,13000,,50000,TRUE,Pay Utility with OD via STK,0705721558 - patrick Sturridge Nyongesa,,Kaf
OF31NVWO51,03/06/2020 16:31,03/06/2020 16:31,Pay Bill from 254723447035 - JOHN MWANGI Acc. KBE,Completed,10000,,37000,TRUE,Pay Utility,254723447035 - JOHN MWANGI,,KBE
OF32NU3HKY,03/06/2020 15:45,03/06/2020 15:45,Pay Bill from 254727416242 - JOAN GICHOMO Acc. DEC,Completed,20000,,27000,TRUE,Pay Utility,254727416242 - JOAN GICHOMO,,DEC
OF32NS39PO,03/06/2020 14:49,03/06/2020 14:49,Pay Bill from 0748059595 - Rashid NASSIR Khamis Acc. DDA,Completed,7000,,7000,TRUE,Pay Utility,0748059595 - Rashid NASSIR Khamis,,DDA
OF34NRC5X4,03/06/2020 14:28,03/06/2020 14:28,Utility Account to Organization Settlement Account,Completed,,-181000,0,TRUE,Utility Account to Organization Settlement Account,979524 - ANCIENT WELLS PROPERTY MANAGERS 2,,
OF33NR14JT,03/06/2020 14:19,03/06/2020 14:19,Pay Bill from 254729371750 - DERRICK OTANGA Acc. FEF,Completed,17000,,181000,TRUE,Pay Utility,254729371750 - DERRICK OTANGA,,FEF
OF33NP5FI7,03/06/2020 13:24,03/06/2020 13:24,Pay Bill from 254724777705 - COLLINS AKASA Acc. KEG ,Completed,3000,,164000,TRUE,Pay Utility,254724777705 - COLLINS AKASA,,KEG
OF30NMDH6E,03/06/2020 12:00,03/06/2020 12:00,Pay Bill from 254700374335 - HYLINE ONDARI Acc. KTE,Completed,9500,,161000,TRUE,Pay Utility,254700374335 - HYLINE ONDARI,,KTE
OF36NIPCE4,03/06/2020 10:07,03/06/2020 10:07,Pay Bill from 254728704378 - ELIZABETH KAMENE MUSYIMI Acc. jgj,Completed,16000,,151500,TRUE,Pay Utility,254728704378 - ELIZABETH KAMENE MUSYIMI,,jgj
OF32NHZ1U6,03/06/2020 09:43,03/06/2020 09:43,Pay Bill Online from 254726313835 - SYLVIA JUMA Acc. HDF,Completed,9500,,135500,TRUE,Pay Bill Online,254726313835 - SYLVIA JUMA,,HDF
OF33NHNTCJ,03/06/2020 09:32,03/06/2020 09:32,Pay Bill from 254722997392 - ISAAC MUKONAMBI MATUMBUFU Acc. JAH ,Completed,18000,,126000,TRUE,Pay Utility,254722997392 - ISAAC MUKONAMBI MATUMBUFU,,JAH
OF32NGYVZS,03/06/2020 09:09,03/06/2020 09:09,Pay Bill from 254714060203 - PATRICK MWANGOMBE MSAWUCHI Acc. KEI,Completed,12000,,108000,TRUE,Pay Utility,254714060203 - PATRICK MWANGOMBE MSAWUCHI,,KEI
OF35NGVTKB,03/06/2020 09:06,03/06/2020 09:06,Pay Bill Online from 254715121526 - ROBERT WAINAINA KARIUKI Acc. HAH,Completed,18000,,96000,TRUE,Pay Bill Online,254715121526 - ROBERT WAINAINA KARIUKI,,HAH
OF37NF5UEP,03/06/2020 07:57,03/06/2020 07:57,Pay Bill from 254718299426 - AMOS NGURE MWANGI Acc. HEE,Completed,10500,,78000,TRUE,Pay Utility,254718299426 - AMOS NGURE MWANGI,,HEE
OF36NE9N7K,03/06/2020 07:05,03/06/2020 07:05,Pay Bill from 254707370896 - OKECH BRIAN BRIAN Acc. KBC,Completed,10000,,67500,TRUE,Pay Utility,254707370896 - OKECH BRIAN BRIAN,,KBC
OF23NCP3BJ,02/06/2020 22:10,02/06/2020 22:10,Pay Bill from 254726593769 - BONFACE BWINA Acc. DEB,Completed,16000,,57500,TRUE,Pay Utility,254726593769 - BONFACE BWINA,,DEB
OF27N8O4UD,02/06/2020 19:29,02/06/2020 19:29,Pay Bill from 254701006375 - EZRA MAKORI SERETI Acc. IFB,Completed,16000,,41500,TRUE,Pay Utility with OD via STK,254701006375 - EZRA MAKORI SERETI,,IFB
OF21N6WL8V,02/06/2020 18:51,02/06/2020 18:51,Pay Bill from 254723499628 - CLINTON JOSEPH MUHARI Acc. hfh,Completed,16000,,25500,TRUE,Pay Utility,254723499628 - CLINTON JOSEPH MUHARI,,hfh
OF24N49SZA,02/06/2020 18:00,02/06/2020 18:00,Pay Bill from 254723872785 - MARY ANN NJERI NDUNG'U Acc. hed,Completed,9500,,9500,TRUE,Pay Utility,254723872785 - MARY ANN NJERI NDUNG'U,,hed
OF26N49RC6,02/06/2020 18:00,02/06/2020 18:00,Utility Account to Organization Settlement Account,Completed,,-182000,0,TRUE,Utility Account to Organization Settlement Account,979524 - ANCIENT WELLS PROPERTY MANAGERS 2,,
OF25N3PFWR,02/06/2020 17:48,02/06/2020 17:48,Pay Bill from 254717672307 - LIZZY AWUOR OBONYO Acc. HAE,Completed,11000,,182000,TRUE,Pay Utility,254717672307 - LIZZY AWUOR OBONYO,,HAE
OF21N3L3QZ,02/06/2020 17:46,02/06/2020 17:46,Pay Bill from 0717216114 - Felix Njeru Mugambi Acc. KDF,Completed,10000,,171000,TRUE,Pay Utility,0717216114 - Felix Njeru Mugambi,,KDF
OF26N2ZPPG,02/06/2020 17:34,02/06/2020 17:34,Pay Bill from 254798643998 - Judith Mwaniki Acc. KCE,Completed,10000,,161000,TRUE,Pay Utility,254798643998 - Judith Mwaniki,,KCE
OF20N25I20,02/06/2020 17:16,02/06/2020 17:16,Pay Bill from 254717171860 - ANDREW LENNA GACHERI Acc. JCC,Completed,10000,,151000,TRUE,Pay Utility,254717171860 - ANDREW LENNA GACHERI,,JCC
OF27MYWGJ9,02/06/2020 15:58,02/06/2020 15:58,Pay Bill from 254725111246 - FRANCIS MWANGANGI Acc. IGI,Completed,15000,,141000,TRUE,Pay Utility,254725111246 - FRANCIS MWANGANGI,,IGI
OF22MSJEU4,02/06/2020 13:00,02/06/2020 13:00,Pay Bill Online from 254711724272 - EDMOND ONYANGO OKEWE Acc. FCE,Completed,15000,,126000,TRUE,Pay Bill Online,254711724272 - EDMOND ONYANGO OKEWE,,FCE
OF25MS04U1,02/06/2020 12:44,02/06/2020 12:44,Pay Bill from 254722824718 - LILIAN MACKENZIE Acc. HCF,Completed,19000,,111000,TRUE,Pay Utility,254722824718 - LILIAN MACKENZIE,,HCF
OF28MRTIL6,02/06/2020 12:39,02/06/2020 12:39,Pay Bill from 0758826849 -  Norah Awala Anyango Acc. IDH,Completed,34000,,92000,TRUE,Pay Utility,0758826849 -  Norah Awala Anyango,,IDH
OF29MMZPX7,02/06/2020 10:10,02/06/2020 10:10,Pay Bill from 254722444622 - CHARITY KAGWAINI Acc. FFD,Completed,11000,,58000,TRUE,Pay Utility,254722444622 - CHARITY KAGWAINI,,FFD
OF15MCQK69,01/06/2020 19:16,01/06/2020 19:16,Pay Bill from 0715251159 - mediatrix davvy malo Acc. AIC,Completed,10000,,47000,TRUE,Pay Utility with OD via STK,0715251159 - mediatrix davvy malo,,AIC
OF17MAXA8T,01/06/2020 18:37,01/06/2020 18:37,Pay Bill Online from 254714578997 - LINCOLN DAN MEMBA Acc. KAC,Completed,5000,,37000,TRUE,Pay Bill Online,254714578997 - LINCOLN DAN MEMBA,,KAC
OF11MA37IL,01/06/2020 18:20,01/06/2020 18:20,Pay Bill from 254713115724 - ROTICH JUDITH JUDITH CHERONO Acc. KCK,Completed,17000,,32000,TRUE,Pay Utility,254713115724 - ROTICH JUDITH JUDITH CHERONO,,KCK
OF18M9N11M,01/06/2020 18:10,01/06/2020 18:10,Pay Bill from 254700347490 - PERIS NYAGUTHII MAINA Acc. JBB,Completed,15000,,15000,TRUE,Pay Utility,254700347490 - PERIS NYAGUTHII MAINA,,JBB
OF12M6353I,01/06/2020 16:48,01/06/2020 16:48,Utility Account to Organization Settlement Account,Completed,,-314000,0,TRUE,Utility Account to Organization Settlement Account,979524 - ANCIENT WELLS PROPERTY MANAGERS 2,,
OF16M6229U,01/06/2020 16:48,01/06/2020 16:48,Pay Bill from 254717726012 - WINFRED MUENI PETER Acc. IDD,Completed,12000,,314000,TRUE,Pay Utility,254717726012 - WINFRED MUENI PETER,,IDD
OF17M61U5N,01/06/2020 16:48,01/06/2020 16:48,Pay Bill from 254704833344 - LOISE KIMANI Acc. jfa,Completed,15000,,302000,TRUE,Pay Utility,254704833344 - LOISE KIMANI,,jfa
OF14M4A1EI,01/06/2020 16:00,01/06/2020 16:00,Pay Bill from 254707669965 - ELVIS MOENGA OKERO Acc. IAE,Completed,9000,,287000,TRUE,Pay Utility,254707669965 - ELVIS MOENGA OKERO,,IAE
OF16M2J85U,01/06/2020 15:09,01/06/2020 15:09,Pay Bill from 254728238249 - ESTHER WANGUI KIBUNYI Acc. ICA,Completed,12000,,278000,TRUE,Pay Utility with OD via STK,254728238249 - ESTHER WANGUI KIBUNYI,,ICA
OF13M0SUDZ,01/06/2020 14:17,01/06/2020 14:17,Pay Bill from 254726265855 - SHEM KEVIN OMONDI OTIENO Acc. 17000,Completed,17000,,266000,TRUE,Pay Utility,254726265855 - SHEM KEVIN OMONDI OTIENO,,17000
OF17LWS91V,01/06/2020 12:10,01/06/2020 12:10,Pay Bill from 254798061803 - Kaltuma Mohamed Acc. jcg,Completed,10000,,249000,TRUE,Pay Utility,254798061803 - Kaltuma Mohamed,,jcg
OF17LTJ4IL,01/06/2020 10:28,01/06/2020 10:28,Pay Bill Online from 254795510441 - LEWIS MUEMA Acc. KFC,Completed,10000,,239000,TRUE,Pay Bill Online,254795510441 - LEWIS MUEMA,,KFC
OF13LRWYN1,01/06/2020 09:35,01/06/2020 09:35,Pay Bill from 254720432844 - Charles Gichuru Acc. JDE,Completed,21000,,229000,TRUE,Pay Utility,254720432844 - Charles Gichuru,,JDE
OF19LRA37B,01/06/2020 09:12,01/06/2020 09:12,Pay Bill from 254716784364 - Wendy Kemunto Nyandiko Acc. FFC,Completed,9000,,208000,TRUE,Pay Utility,254716784364 - Wendy Kemunto Nyandiko,,FFC
