Receipt No.,Completion Time,Initiation Time,Details,Transaction Status,Paid In,Withdrawn,Balance,Balance Confirmed,Reason Type,Other Party Info,Linked Transaction ID,A/C No.
SFE3H556L9,14/06/2024 16:49,14/06/2024 16:49,Utility Account to Organization Settlement Account,Completed,,-7000,0,TRUE,Utility Account to Organization Settlement Account,887674 - ANCIENT WELLS LTD 1,,
SFE8GZEF9Y,14/06/2024 16:07,14/06/2024 16:07,Pay Bill Online from 074572***178 - RODGERS *** Acc. v27,Completed,7000,,7000,TRUE,Pay Utility with OD Online,074572***178 - RODGERS ***,,v27
SFD7EK65DJ,13/06/2024 20:43,13/06/2024 20:43,Utility Account to Organization Settlement Account,Completed,,-7000,0,TRUE,Utility Account to Organization Settlement Account,887674 - ANCIENT WELLS LTD 1,,
SFD3CBCZLH,13/06/2024 11:35,13/06/2024 11:35,Pay Bill from 070434***708 - WENDY *** Acc. V17,Completed,7000,,7000,TRUE,Pay Utility,070434***708 - WENDY ***,,V17
SFD5BQ91UX,13/06/2024 08:27,13/06/2024 08:27,Utility Account to Organization Settlement Account,Completed,,-4500,0,TRUE,Utility Account to Organization Settlement Account,887674 - ANCIENT WELLS LTD 1,,
SFD7BF6GK9,13/06/2024 05:41,13/06/2024 05:41,Pay Bill from 254701***081 - JOSEPHINE *** Acc. v34 ,Completed,4500,,4500,TRUE,Pay Utility,254701***081 - JOSEPHINE ***,,v34 
SFC59JHB3V,12/06/2024 16:08,12/06/2024 16:08,Utility Account to Organization Settlement Account,Completed,,-1000,0,TRUE,Utility Account to Organization Settlement Account,887674 - ANCIENT WELLS LTD 1,,
SFC68ROP8Y,12/06/2024 12:21,12/06/2024 12:21,Pay Bill from 070733***604 - DICKENS *** Acc. v06,Completed,1000,,1000,TRUE,Pay Utility,070733***604 - DICKENS ***,,v06
SFC78OB7ZR,12/06/2024 11:53,12/06/2024 11:53,Utility Account to Organization Settlement Account,Completed,,-7000,0,TRUE,Utility Account to Organization Settlement Account,887674 - ANCIENT WELLS LTD 1,,
SFC08FDAHW,12/06/2024 10:36,12/06/2024 10:36,Pay Bill from 254748***485 - PENINAH *** Acc. v31,Completed,7000,,7000,TRUE,Pay Utility,254748***485 - PENINAH ***,,v31
SFA93NOO9L,10/06/2024 21:37,10/06/2024 21:37,Utility Account to Organization Settlement Account,Completed,,-17000,0,TRUE,Utility Account to Organization Settlement Account,887674 - ANCIENT WELLS LTD 1,,
SFA920M6RR,10/06/2024 15:39,10/06/2024 15:39,Pay Bill from 254729***880 - Eunice *** Acc. V33,Completed,7000,,17000,TRUE,Pay Utility,254729***880 - Eunice ***,,V33
SFA91LZIDL,10/06/2024 13:44,10/06/2024 13:44,Pay Bill Online from 070848***946 - Samson *** Acc. v20,Completed,7000,,10000,TRUE,Pay Bill Online,070848***946 - Samson ***,,v20
SFA415IU32,10/06/2024 11:35,10/06/2024 11:35,Pay Bill from 254717***709 - CAROLINE *** Acc. v15,Completed,3000,,3000,TRUE,Pay Utility,254717***709 - CAROLINE ***,,v15
SF94X3QXTU,09/06/2024 14:18,09/06/2024 14:18,Utility Account to Organization Settlement Account,Completed,,-4000,0,TRUE,Utility Account to Organization Settlement Account,887674 - ANCIENT WELLS LTD 1,,
SF90VS5KBU,09/06/2024 03:30,09/06/2024 03:30,Pay Bill from 070733***604 - DICKENS *** Acc. v06,Completed,3000,,4000,TRUE,Pay Utility,070733***604 - DICKENS ***,,v06
SF83UIQUJZ,08/06/2024 18:36,08/06/2024 18:36,Pay Bill from 254717***709 - CAROLINE *** Acc. v15,Completed,1000,,1000,TRUE,Pay Utility,254717***709 - CAROLINE ***,,v15
SF83UFGJQH,08/06/2024 18:18,08/06/2024 18:18,Utility Account to Organization Settlement Account,Completed,,-31500,0,TRUE,Utility Account to Organization Settlement Account,887674 - ANCIENT WELLS LTD 1,,
SF85U0Y5TR,08/06/2024 16:47,08/06/2024 16:47,Pay Bill from 254707***777 - SILA *** Acc. V19,Completed,17500,,31500,TRUE,Pay Utility,254707***777 - SILA ***,,V19
SF87T2PHDB,08/06/2024 12:35,08/06/2024 12:35,Pay Bill from 254729***258 - Cliff *** Acc. v05,Completed,7000,,14000,TRUE,Pay Utility,254729***258 - Cliff ***,,v05
SF80SWUPT6,08/06/2024 11:50,08/06/2024 11:50,Pay Bill from 071204***629 - KULOW *** Acc. v32,Completed,7000,,7000,TRUE,Pay Utility,071204***629 - KULOW ***,,v32
SF71R65GZH,07/06/2024 20:02,07/06/2024 20:02,Utility Account to Organization Settlement Account,Completed,,-13600,0,TRUE,Utility Account to Organization Settlement Account,887674 - ANCIENT WELLS LTD 1,,
SF73QZMB63,07/06/2024 19:29,07/06/2024 19:29,Pay Bill from 254708***289 - BERYLE *** Acc. V02,Completed,7000,,13600,TRUE,Pay Utility,254708***289 - BERYLE ***,,V02
SF76Q54YGG,07/06/2024 16:38,07/06/2024 16:38,Pay Bill from 254712***662 - BENARD *** Acc. V16,Completed,6600,,6600,TRUE,Pay Utility,254712***662 - BENARD ***,,V16
SF77PQBSW5,07/06/2024 14:46,07/06/2024 14:46,Utility Account to Organization Settlement Account,Completed,,-12000,0,TRUE,Utility Account to Organization Settlement Account,887674 - ANCIENT WELLS LTD 1,,
SF75OYF1ER,07/06/2024 11:09,07/06/2024 11:09,Pay Bill Online from 254791***803 - JOHN *** Acc. v14,Completed,5000,,12000,TRUE,Pay Utility with OD Online,254791***803 - JOHN ***,,v14
SF72OJ3M18,07/06/2024 09:00,07/06/2024 09:00,Pay Bill from 254706***075 - HARON *** Acc. V38,Completed,7000,,7000,TRUE,Pay Utility,254706***075 - HARON ***,,V38
SF62N1REX4,06/06/2024 19:15,06/06/2024 19:15,Utility Account to Organization Settlement Account,Completed,,-7000,0,TRUE,Utility Account to Organization Settlement Account,887674 - ANCIENT WELLS LTD 1,,
SF64MULIDK,06/06/2024 18:41,06/06/2024 18:41,Pay Bill from 072938***149 - SYLVIA *** Acc. v30,Completed,7000,,7000,TRUE,Pay Utility,072938***149 - SYLVIA ***,,v30
SF65M740LL,06/06/2024 16:13,06/06/2024 16:13,Utility Account to Organization Settlement Account,Completed,,-19500,0,TRUE,Utility Account to Organization Settlement Account,887674 - ANCIENT WELLS LTD 1,,
SF60LA73RW,06/06/2024 11:54,06/06/2024 11:54,Pay Bill from 254706***665 - CHRIS *** Acc. V22,Completed,4000,,19500,TRUE,Pay Utility,254706***665 - CHRIS ***,,V22
SF60K9NZ2Q,06/06/2024 04:07,06/06/2024 04:07,Pay Bill from 070733***604 - DICKENS *** Acc. v06,Completed,1500,,15500,TRUE,Pay Utility,070733***604 - DICKENS ***,,v06
SF53K30TI3,05/06/2024 22:40,05/06/2024 22:40,Pay Bill from 254722***070 - SAMUEL *** Acc. v42,Completed,7000,,14000,TRUE,Pay Utility,254722***070 - SAMUEL ***,,v42
SF57JSZVNV,05/06/2024 21:07,05/06/2024 21:07,Pay Bill from 071474***222 - WILSON *** Acc. v25,Completed,7000,,7000,TRUE,Pay Utility,071474***222 - WILSON ***,,v25
SF57ITS4NF,05/06/2024 18:05,05/06/2024 18:05,Utility Account to Organization Settlement Account,Completed,,-6600,0,TRUE,Utility Account to Organization Settlement Account,887674 - ANCIENT WELLS LTD 1,,
SF52HUKGS6,05/06/2024 13:47,05/06/2024 13:47,Pay Bill from 079580***227 - Lucy *** Acc. V36 ,Completed,6600,,6600,TRUE,Pay Utility with OD via STK,079580***227 - Lucy ***,,V36 
SF50H98JUW,05/06/2024 10:57,05/06/2024 10:57,Utility Account to Organization Settlement Account,Completed,,-6600,0,TRUE,Utility Account to Organization Settlement Account,887674 - ANCIENT WELLS LTD 1,,
SF57GDVGLF,05/06/2024 00:42,05/06/2024 00:42,Pay Bill from 254718***610 - HANNAH *** Acc. V23,Completed,6600,,6600,TRUE,Pay Utility,254718***610 - HANNAH ***,,V23
SF39BN9KOR,03/06/2024 19:22,03/06/2024 19:22,Utility Account to Organization Settlement Account,Completed,,-32100,0,TRUE,Utility Account to Organization Settlement Account,887674 - ANCIENT WELLS LTD 1,,
SF35BJUM71,03/06/2024 19:07,03/06/2024 19:07,Pay Bill from 072927***890 - HALIMA *** Acc. V09,Completed,8000,,32100,TRUE,Pay Utility,072927***890 - HALIMA ***,,V09
SF33B8PCEX,03/06/2024 18:10,03/06/2024 18:10,Pay Bill from 254702***689 - ISAIAH *** Acc. V35,Completed,17500,,24100,TRUE,Pay Utility,254702***689 - ISAIAH ***,,V35
SF33A7X8EB,03/06/2024 13:40,03/06/2024 13:40,Pay Bill from 254726***584 - JULIANA *** Acc. v4,Completed,6514,,6600,TRUE,Pay Utility,254726***584 - JULIANA ***,,v4
SF33A7KPGP,03/06/2024 13:37,03/06/2024 13:37,Pay Bill from 254726***584 - JULIANA *** Acc. v4,Completed,86,,86,TRUE,Pay Utility,254726***584 - JULIANA ***,,v4
SF37A4U5AN,03/06/2024 13:17,03/06/2024 13:17,Utility Account to Organization Settlement Account,Completed,,-55000,0,TRUE,Utility Account to Organization Settlement Account,887674 - ANCIENT WELLS LTD 1,,
SF379O8CDB,03/06/2024 11:04,03/06/2024 11:04,Pay Bill Online from 254715***488 - Mercy *** Acc. T29,Completed,55000,,55000,TRUE,Pay Bill Online,254715***488 - Mercy ***,,T29
SF339AWFON,03/06/2024 09:10,03/06/2024 09:10,Utility Account to Organization Settlement Account,Completed,,-3500,0,TRUE,Utility Account to Organization Settlement Account,887674 - ANCIENT WELLS LTD 1,,
SF236ACDAH,02/06/2024 12:07,02/06/2024 12:07,Pay Bill from 071420***896 - JANET *** Acc. vk4,Completed,3500,,3500,TRUE,Pay Utility,071420***896 - JANET ***,,vk4
SF154K6ICP,01/06/2024 20:01,01/06/2024 20:01,Utility Account to Organization Settlement Account,Completed,,-7000,0,TRUE,Utility Account to Organization Settlement Account,887674 - ANCIENT WELLS LTD 1,,
SF144K4VQE,01/06/2024 20:01,01/06/2024 20:01,Pay Bill from 254706***056 - SHEILA *** Acc. V03,Completed,7000,,7000,TRUE,Pay Utility with OD via STK,254706***056 - SHEILA ***,,V03
SF123024GM,01/06/2024 14:02,01/06/2024 14:02,Utility Account to Organization Settlement Account,Completed,,-8000,0,TRUE,Utility Account to Organization Settlement Account,887674 - ANCIENT WELLS LTD 1,,
SF152R62N5,01/06/2024 12:55,01/06/2024 12:55,Pay Bill from 070733***604 - DICKENS *** Acc. v06,Completed,2000,,8000,TRUE,Pay Utility,070733***604 - DICKENS ***,,v06
SF141W781K,01/06/2024 08:39,01/06/2024 08:39,Pay Bill from 254701***081 - JOSEPHINE *** Acc. v34,Completed,6000,,6000,TRUE,Pay Utility,254701***081 - JOSEPHINE ***,,v34
