Receipt No.,Completion Time,Initiation Time,Details,Transaction Status,Paid In,Withdrawn,Balance,Balance Confirmed,Reason Type,Other Party Info,Linked Transaction ID,A/C No.
ODM3NFU7NF,22/04/2020 13:30,22/04/2020 13:30,Pay Bill from 254721268633 - JOSEPH OLENDI Acc. hbe,Completed,5000,,12000,TRUE,Pay Utility with OD via STK,254721268633 - JOSEPH OLENDI,,hbe
ODM1N6WNPR,22/04/2020 07:45,22/04/2020 07:45,Pay Bill from 254715764212 - BANCE ISHEMINYE Acc. JFE,Completed,7000,,7000,TRUE,Pay Utility,254715764212 - BANCE ISHEMINYE,,JFE
ODL4MNBEIQ,21/04/2020 12:52,21/04/2020 12:52,Utility Account to Organization Settlement Account,Completed,,-83500,0,TRUE,Utility Account to Organization Settlement Account,979524 - ANCIENT WELLS PROPERTY MANAGERS 2,,
ODK4M5UVS8,20/04/2020 17:38,20/04/2020 17:38,Pay Bill from 254705419958 - MOHAMED ABDALLA MOHAMED Acc. JCF,Completed,9000,,83500,TRUE,Pay Utility,254705419958 - MOHAMED ABDALLA MOHAMED,,JCF
ODK3LP9VV1,20/04/2020 09:05,20/04/2020 09:05,Pay Bill from 0748059595 - Rashid NASSIR Khamis Acc. DDA,Completed,6500,,74500,TRUE,Pay Utility with OD via STK,0748059595 - Rashid NASSIR Khamis,,DDA
ODJ5L50G2L,19/04/2020 12:43,19/04/2020 12:43,Pay Bill from 254703375006 - KEN RODGERS Acc. DBA,Completed,7000,,68000,TRUE,Pay Utility,254703375006 - KEN RODGERS,,DBA
ODI8KTW9C6,18/04/2020 20:00,18/04/2020 20:00,Pay Bill from 254716369842 - HUMMAM HAMID MOHAMED SAID AMBER Acc. FGC,Completed,3000,,61000,TRUE,Pay Utility,254716369842 - HUMMAM HAMID MOHAMED SAID AMBER,,FGC
ODI6KLR468,18/04/2020 16:39,18/04/2020 16:39,Pay Bill from 254704597694 - JANET MWENGA Acc. jcd,Completed,13000,,58000,TRUE,Pay Utility with OD via STK,254704597694 - JANET MWENGA,,jcd
ODI8KJ2AOS,18/04/2020 15:25,18/04/2020 15:25,Pay Bill from 254791315477 - VERAH MIRERI Acc. JEC,Completed,10000,,45000,TRUE,Pay Utility,254791315477 - VERAH MIRERI,,JEC
ODI8KI1XL0,18/04/2020 14:56,18/04/2020 14:56,Pay Bill from 254714774979 - ALICE KALEKYE MUTUA Acc. JFB,Completed,15000,,35000,TRUE,Pay Utility,254714774979 - ALICE KALEKYE MUTUA,,JFB
ODI0KFDIEU,18/04/2020 13:33,18/04/2020 13:33,Pay Bill from 254719626804 - PAUL NJOROGE Acc. JFI,Completed,20000,,20000,TRUE,Pay Utility,254719626804 - PAUL NJOROGE,,JFI
ODI7KEDBYZ,18/04/2020 13:01,18/04/2020 13:01,Utility Account to Organization Settlement Account,Completed,,-56000,0,TRUE,Utility Account to Organization Settlement Account,979524 - ANCIENT WELLS PROPERTY MANAGERS 2,,
ODH9JZZPCX,17/04/2020 19:11,17/04/2020 19:11,Pay Bill from 254716369842 - HUMMAM HAMID MOHAMED SAID AMBER Acc. FGC,Completed,1500,,56000,TRUE,Pay Utility with OD via STK,254716369842 - HUMMAM HAMID MOHAMED SAID AMBER,,FGC
ODH2JX3SJA,17/04/2020 18:08,17/04/2020 18:08,Pay Bill from 254721675709 - OSCAR MUTISO Acc. HFC,Completed,10000,,54500,TRUE,Pay Utility,254721675709 - OSCAR MUTISO,,HFC
ODH0JBCFOY,17/04/2020 00:38,17/04/2020 00:38,Pay Bill from 254715326205 - GEORGE MURANGIRI KOBIA Acc. FBB,Completed,17000,,44500,TRUE,Pay Utility,254715326205 - GEORGE MURANGIRI KOBIA,,FBB
