Receipt No.,Completion Time,Initiation Time,Details,Transaction Status,Paid In,Withdrawn,Balance,Balance Confirmed,Reason Type,Other Party Info,Linked Transaction ID,A/C No.
OJ566UPKK0,05/10/2020 08:48,05/10/2020 08:48,Pay Bill from 0743263203 - Patrick theuri wachira Acc. U1,Completed,5000,,5000,TRUE,Pay Utility,0743263203 - Patrick theuri wachira,,U1
OJ4267LTXG,04/10/2020 15:32,04/10/2020 15:32,Utility Account to Organization Settlement Account,Completed,,-6000,0,TRUE,Utility Account to Organization Settlement Account,887264 - ANCIENT WELLS LTD 2,,
OJ364VHFEK,03/10/2020 12:44,03/10/2020 12:44,Pay Bill from 254706011442 - REUBEN MURIUKI Acc. B5,Completed,6000,,6000,TRUE,Pay Utility,254706011442 - REUBEN MURIUKI,,B5
OJ284DZXL2,02/10/2020 21:47,02/10/2020 21:47,Utility Account to Organization Settlement Account,Completed,,-6000,0,TRUE,Utility Account to Organization Settlement Account,887264 - ANCIENT WELLS LTD 2,,
OJ203N9ATG,02/10/2020 12:35,02/10/2020 12:35,Pay Bill from 254723174583 - BRIAN ODHIAMBO OUMA Acc. b3,Completed,6000,,6000,TRUE,Pay Utility,254723174583 - BRIAN ODHIAMBO OUMA,,b3
