Receipt No.,Completion Time,Initiation Time,Details,Transaction Status,Paid In,Withdrawn,Balance,Balance Confirmed,Reason Type,Other Party Info,Linked Transaction ID,A/C No.
QK294R8O7J,02/11/2022 18:27,02/11/2022 18:27,Pay Bill from 254714419834 - FAITH MWIKALI MUTHAMA Acc. d4,Completed,8500,,66500,TRUE,Pay Utility,254714419834 - FAITH MWIKALI MUTHAMA,,d4
QK284N3ADA,02/11/2022 17:51,02/11/2022 17:51,Pay Bill from 0720571944 - Ronoh   Benard Acc. D2,Completed,10000,,58000,TRUE,Pay Utility,0720571944 - Ronoh   Benard,,D2
QK243YP732,02/11/2022 13:09,02/11/2022 13:09,Pay Bill from 0793999724 - JALEEL    MWERO Acc. A2,Completed,7500,,48000,TRUE,Pay Utility,0793999724 - JALEEL    MWERO,,A2
QJV5ZLDG0P,31/10/2022 21:34,31/10/2022 21:34,Pay Bill from 254722706516 - KORIR ANTHONY Acc. Anthony D 3,Completed,8000,,40500,TRUE,Pay Utility,254722706516 - KORIR ANTHONY,,Anthony
QJV3ZKU5KX,31/10/2022 21:26,31/10/2022 21:26,Pay Bill from 0719349205 - Christabel Gakii Munene Acc. D1,Completed,8000,,32500,TRUE,Pay Utility,0719349205 - Christabel Gakii Munene,,D1
QJU6VWLY80,30/10/2022 12:18,30/10/2022 12:18,Pay Bill from 254715197906 - KIPKOECH CHARLES Acc. e2,Completed,8000,,24500,TRUE,Pay Utility,254715197906 - KIPKOECH CHARLES,,e2
QJT6V5XE12,29/10/2022 21:57,29/10/2022 21:57,Pay Bill Online from 254706248362 - BERYL HUMA Acc. E5,Completed,8500,,16500,TRUE,Pay Bill Online,254706248362 - BERYL HUMA,,E5
QJS4RZSMOS,28/10/2022 17:43,28/10/2022 17:43,Pay Bill Online from 254706298810 - Morgan Mudengani Kisarago Acc. f1,Completed,8000,,8000,TRUE,Pay Bill Online,254706298810 - Morgan Mudengani Kisarago,,f1
QJS9QTBURB,28/10/2022 08:53,28/10/2022 08:53,Utility Account to Organization Settlement Account,Completed,,-12000,0,TRUE,Utility Account to Organization Settlement Account,887075 - ANCIENT WELLS LTD 3,,
QJR4P6BJVC,27/10/2022 14:08,27/10/2022 14:08,Pay Bill Online from 254722444929 - LIZ KIHARA Acc. g3,Completed,8000,,12000,TRUE,Pay Bill Online,254722444929 - LIZ KIHARA,,g3
QJR7ONDFQB,27/10/2022 09:59,27/10/2022 09:59,Pay Bill from 254704541323 - CAROLYNE JEPCHUMBA Acc. F3,Completed,4000,,4000,TRUE,Pay Utility,254704541323 - CAROLYNE JEPCHUMBA,,F3
QJO9HQ9DVN,24/10/2022 08:10,24/10/2022 08:10,Utility Account to Organization Settlement Account,Completed,,-3600,0,TRUE,Utility Account to Organization Settlement Account,887075 - ANCIENT WELLS LTD 3,,
QJM4F3H4PU,22/10/2022 19:50,22/10/2022 19:50,Pay Bill Online from 254720062144 - CAROLINE AMONDI OKELO Acc. f4,Completed,3600,,3600,TRUE,Pay Utility with OD Online,254720062144 - CAROLINE AMONDI OKELO,,f4
QJM2ECUWPY,22/10/2022 15:40,22/10/2022 15:40,Utility Account to Organization Settlement Account,Completed,,-45500,0,TRUE,Utility Account to Organization Settlement Account,887075 - ANCIENT WELLS LTD 3,,
QJL2CD9YFO,21/10/2022 17:46,21/10/2022 17:46,Pay Bill from 254726432241 - STEPHEN MAYABI Acc. A1,Completed,7500,,45500,TRUE,Pay Utility,254726432241 - STEPHEN MAYABI,,A1
QJJ66ZMNEQ,19/10/2022 10:30,19/10/2022 10:30,Pay Bill from 254711428856 - JAPHETH OTSIENO BARASA Acc. Japheth Barasa A5,Completed,11000,,38000,TRUE,Pay Utility,254711428856 - JAPHETH OTSIENO BARASA,,Japheth
QJI25GSCBA,18/10/2022 15:49,18/10/2022 15:49,Pay Bill from 254713229967 - John Mugabo Simba Acc. E4,Completed,3500,,27000,TRUE,Pay Utility,254713229967 - John Mugabo Simba,,E4
QJF9Z05JYB,15/10/2022 22:39,15/10/2022 22:39,Pay Bill Online from 254720062144 - CAROLINE AMONDI OKELO Acc. f4,Completed,3500,,23500,TRUE,Pay Bill Online,254720062144 - CAROLINE AMONDI OKELO,,f4
QJD5TT6BHN,13/10/2022 19:10,13/10/2022 19:10,Pay Bill from 254724018163 - IRENE MUENI WILLY Acc. A4,Completed,12000,,20000,TRUE,Pay Utility,254724018163 - IRENE MUENI WILLY,,A4
QJC0RZ1MG4,12/10/2022 22:07,12/10/2022 22:07,Pay Bill from 254714597495 - WAMBUA KIOKO Acc. c1,Completed,8000,,8000,TRUE,Pay Utility,254714597495 - WAMBUA KIOKO,,c1
QJC0QHPYQM,12/10/2022 12:34,12/10/2022 12:34,Utility Account to Organization Settlement Account,Completed,,-279100,0,TRUE,Utility Account to Organization Settlement Account,887075 - ANCIENT WELLS LTD 3,,
QJA3M5OZNT,10/10/2022 14:21,10/10/2022 14:21,Pay Bill Online from 254711877988 - PATRICK KONZI Acc. b4,Completed,8500,,279100,TRUE,Pay Utility with OD Online,254711877988 - PATRICK KONZI,,b4
QJA1LBQNE1,10/10/2022 07:24,10/10/2022 07:24,Pay Bill Online from 254703176849 - ROYAL MUYA Acc. F2,Completed,200,,270600,TRUE,Pay Utility with OD Online,254703176849 - ROYAL MUYA,,F2
QJA6LA1QGC,10/10/2022 06:32,10/10/2022 06:32,Pay Bill from 254720086214 - SAMUEL WANJIKU Acc. B3,Completed,8000,,270400,TRUE,Pay Utility with OD via STK,254720086214 - SAMUEL WANJIKU,,B3
QJ82HNQLYG,08/10/2022 13:40,08/10/2022 13:40,Pay Bill from 254713229967 - John Mugabo Simba Acc. E4,Completed,5000,,262400,TRUE,Pay Utility,254713229967 - John Mugabo Simba,,E4
QJ80HNKIC0,08/10/2022 13:38,08/10/2022 13:38,Pay Bill from 0704120519 - Mildred   Adhiambo Acc. G1,Completed,8000,,257400,TRUE,Pay Utility,0704120519 - Mildred   Adhiambo,,G1
QJ83HF4IPJ,08/10/2022 11:56,08/10/2022 11:56,Pay Bill Online from 0799912339 - PETER KAMAU MURIU Acc. C5,Completed,8500,,249400,TRUE,Pay Bill Online,0799912339 - PETER KAMAU MURIU,,C5
QJ88H3YD06,08/10/2022 09:33,08/10/2022 09:33,Pay Bill from 254713062617 - ISAAC KIPROTICH INCHERE Acc. F3,Completed,17000,,240900,TRUE,Pay Utility,254713062617 - ISAAC KIPROTICH INCHERE,,F3
QJ72GM459Q,07/10/2022 21:51,07/10/2022 21:51,Pay Bill from 0743437540 - Susan Nduta Muiruri Acc. B2,Completed,8000,,223900,TRUE,Pay Utility,0743437540 - Susan Nduta Muiruri,,B2
QJ73F490OB,07/10/2022 12:47,07/10/2022 12:47,Pay Bill from 254722706516 - KORIR ANTHONY Acc. Anthony D 3,Completed,8000,,215900,TRUE,Pay Utility,254722706516 - KORIR ANTHONY,,Anthony
QJ72EUPSN2,07/10/2022 10:47,07/10/2022 10:47,Pay Bill from 254727585857 - PETER MUOKI NGUNDO Acc. Peter Ngundo e6 ,Completed,8500,,207900,TRUE,Pay Utility with OD via STK,254727585857 - PETER MUOKI NGUNDO,,Peter
QJ70ER84FW,07/10/2022 10:02,07/10/2022 10:02,Pay Bill from 0791565463 - Lilian Njeri Wakagwi Acc. F6,Completed,8500,,199400,TRUE,Pay Utility with OD via STK,0791565463 - Lilian Njeri Wakagwi,,F6
QJ69E9SR9R,06/10/2022 22:52,06/10/2022 22:52,Pay Bill from 254710248036 - Allan Kimeu Mutua Acc. F5,Completed,8500,,190900,TRUE,Pay Utility,254710248036 - Allan Kimeu Mutua,,F5
QJ64DR6170,06/10/2022 19:15,06/10/2022 19:15,Pay Bill from 0114093036 - Cecillia Njeri Githui Acc. c3,Completed,8000,,182400,TRUE,Pay Utility,0114093036 - Cecillia Njeri Githui,,c3
QJ67DGEBD5,06/10/2022 17:50,06/10/2022 17:50,Pay Bill Online from 254720201157 - BENSON INYANJE MWAKHA Acc. b6,Completed,8500,,174400,TRUE,Pay Bill Online,254720201157 - BENSON INYANJE MWAKHA,,b6
QJ60CBFPLQ,06/10/2022 09:32,06/10/2022 09:32,Pay Bill from 254726945691 - JAMES RAMTU Acc. B5,Completed,8500,,165900,TRUE,Pay Utility,254726945691 - JAMES RAMTU,,B5
QJ62C9K59M,06/10/2022 09:06,06/10/2022 09:06,Pay Bill Online from 254703176849 - ROYAL MUYA Acc. F2,Completed,8000,,157400,TRUE,Pay Bill Online,254703176849 - ROYAL MUYA,,F2
QJ66C8P376,06/10/2022 08:53,06/10/2022 08:53,Pay Bill from 254715764093 - GICHANA GOVAN Acc. ACC E3,Completed,21000,,149400,TRUE,Pay Utility,254715764093 - GICHANA GOVAN,,ACC
QJ64BYA4XW,06/10/2022 00:01,06/10/2022 00:01,Pay Bill from 254711428856 - JAPHETH OTSIENO BARASA Acc. Japheth Barasa A5,Completed,11000,,128400,TRUE,Pay Utility,254711428856 - JAPHETH OTSIENO BARASA,,Japheth
QJ58BTNHKS,05/10/2022 21:45,05/10/2022 21:45,Pay Bill from 254715020357 - ELIZABETH NJERI WARARI Acc. C2 Elizabeth,Completed,7500,,117400,TRUE,Pay Utility,254715020357 - ELIZABETH NJERI WARARI,,C2
QJ55BKDUEH,05/10/2022 20:04,05/10/2022 20:04,Pay Bill from 254726645592 - Ephantus Muriithi Irura Acc. c4 muriithi,Completed,8500,,109900,TRUE,Pay Utility,254726645592 - Ephantus Muriithi Irura,,c4
QJ55B2872F,05/10/2022 17:42,05/10/2022 17:42,Pay Bill from 0715030019 - Omwenga Ong'era Stephen Acc. E1,Completed,8000,,101400,TRUE,Pay Utility,0715030019 - Omwenga Ong'era Stephen,,E1
QJ56AE483M,05/10/2022 13:05,05/10/2022 13:05,Pay Bill Online from 254720062144 - CAROLINE AMONDI OKELO Acc. f4,Completed,3400,,93400,TRUE,Pay Utility with OD Online,254720062144 - CAROLINE AMONDI OKELO,,f4
QJ4197DIVD,04/10/2022 20:08,04/10/2022 20:08,Pay Bill from 254721539716 - OCTAVIAN MWANYALO Acc. C6,Completed,8000,,90000,TRUE,Pay Utility,254721539716 - OCTAVIAN MWANYALO,,C6
QJ4081Q7O4,04/10/2022 13:11,04/10/2022 13:11,Pay Bill from 254791341895 - Enos Nyaosi Ayuma Acc. D5,Completed,8500,,82000,TRUE,Pay Utility,254791341895 - Enos Nyaosi Ayuma,,D5
QJ427KZZ3W,04/10/2022 09:34,04/10/2022 09:34,Pay Bill from 0720571944 - Ronoh   Benard Acc. D2,Completed,8000,,73500,TRUE,Pay Utility,0720571944 - Ronoh   Benard,,D2
QJ427A72R4,04/10/2022 06:23,04/10/2022 06:23,Pay Bill from 0719349205 - Christabel Gakii Munene Acc. D1,Completed,8000,,65500,TRUE,Pay Utility,0719349205 - Christabel Gakii Munene,,D1
QJ33761TAZ,03/10/2022 22:47,03/10/2022 22:47,Pay Bill from 254706722732 - NAOMY ACHIENG OYUGI Acc. E5,Completed,8500,,57500,TRUE,Pay Utility,254706722732 - NAOMY ACHIENG OYUGI,,E5
QJ18ZNKPVY,01/10/2022 09:32,01/10/2022 09:32,Pay Bill from 254714419834 - FAITH MWIKALI MUTHAMA Acc. d4,Completed,8500,,49000,TRUE,Pay Utility with OD via STK,254714419834 - FAITH MWIKALI MUTHAMA,,d4
QJ19ZKES8T,01/10/2022 08:48,01/10/2022 08:48,Pay Bill from 254720439955 - GEOPHRY OKOTH Acc. D6,Completed,8500,,40500,TRUE,Pay Utility,254720439955 - GEOPHRY OKOTH,,D6
