Receipt No.,Completion Time,Initiation Time,Details,Transaction Status,Paid In,Withdrawn,Balance,Balance Confirmed,Reason Type,Other Party Info,Linked Transaction ID,A/C No.
RIB5G9613F,11/09/2023 00:29,11/09/2023 00:29,Pay Bill from 254707801121 - JOHNSTONE MUTHUI MUTHAMI Acc. b4,Completed,8500,,179000,TRUE,Pay Utility,254707801121 - JOHNSTONE MUTHUI MUTHAMI,,b4
RIA9DI4DXN,10/09/2023 03:24,10/09/2023 03:24,Pay Bill Online from 0799912339 - PETER KAMAU MURIU Acc. c5,Completed,8500,,170500,TRUE,Pay Bill Online,0799912339 - PETER KAMAU MURIU,,c5
RI94CPY5EY,09/09/2023 19:25,09/09/2023 19:25,Pay Bill from 254708989835 - SUSAN NDUTA Acc. B2,Completed,8000,,162000,TRUE,Pay Utility,254708989835 - SUSAN NDUTA,,B2
RI99BKHTHZ,09/09/2023 14:06,09/09/2023 14:06,Pay Bill from 0791565463 - Lilian Njeri Wakagwi Acc. F6,Completed,8500,,154000,TRUE,Pay Utility,0791565463 - Lilian Njeri Wakagwi,,F6
RI848MIQBO,08/09/2023 15:05,08/09/2023 15:05,Pay Bill from 254727585857 - PETER MUOKI NGUNDO Acc. peter Ngundo e6 ,Completed,8500,,145500,TRUE,Pay Utility with OD via STK,254727585857 - PETER MUOKI NGUNDO,,peter
RI8677GKRY,08/09/2023 02:00,08/09/2023 02:00,Pay Bill from 254710248036 - Allan Kimeu Mutua Acc. F5,Completed,8500,,137000,TRUE,Pay Utility,254710248036 - Allan Kimeu Mutua,,F5
RI756YDHH3,07/09/2023 21:24,07/09/2023 21:24,Pay Bill from 254714419834 - FAITH MWIKALI MUTHAMA Acc. d4,Completed,8500,,128500,TRUE,Pay Utility,254714419834 - FAITH MWIKALI MUTHAMA,,d4
RI706K3OL6,07/09/2023 19:33,07/09/2023 19:33,Pay Bill Online from 0740283700 - SERAH MUKULU MULILIA Acc. c4serahmukulu,Completed,8500,,120000,TRUE,Pay Bill Online,0740283700 - SERAH MUKULU MULILIA,,c4serahmukulu
RI7756YU7Z,07/09/2023 12:49,07/09/2023 12:49,Pay Bill Online from 254720201157 - BENSON INYANJE MWAKHA Acc. b6,Completed,8500,,111500,TRUE,Pay Bill Online,254720201157 - BENSON INYANJE MWAKHA,,b6
RI6243OFJC,06/09/2023 23:00,06/09/2023 23:00,Pay Bill from 0715030019 - Omwenga Ong'era Stephen Acc. E1,Completed,8000,,103000,TRUE,Pay Utility,0715030019 - Omwenga Ong'era Stephen,,E1
RI6914YQXL,06/09/2023 05:43,06/09/2023 05:43,Pay Bill from 254792607730 - kevin kipchirchir Acc. F3,Completed,8000,,95000,TRUE,Pay Utility,254792607730 - kevin kipchirchir,,F3
RI53ZR6MFN,05/09/2023 21:06,05/09/2023 21:06,Pay Bill from 254726945691 - JAMES RAMTU Acc. B5,Completed,8500,,87000,TRUE,Pay Utility,254726945691 - JAMES RAMTU,,B5
RI53ZBLZVZ,05/09/2023 19:22,05/09/2023 19:22,Pay Bill from 254704740197 - CECILIA NJERI GITHUI Acc. C3,Completed,12000,,78500,TRUE,Pay Utility,254704740197 - CECILIA NJERI GITHUI,,C3
RI57XL54S1,05/09/2023 10:30,05/09/2023 10:30,Business Pay Bill by 998094 - COOP TO PAYBILL Acc. A1 via API,Completed,10000,,66500,TRUE,Business Pay Bill via API,998094 - COOP TO PAYBILL,,A1
RI45WUZNUP,04/09/2023 22:46,04/09/2023 22:46,Pay Bill from 254791341895 - Enos Nyaosi Ayuma Acc. D5,Completed,8500,,56500,TRUE,Pay Utility,254791341895 - Enos Nyaosi Ayuma,,D5
RI43UI59OR,04/09/2023 10:48,04/09/2023 10:48,Pay Bill from 0748956967 - Selvin Mukami Wanjiru Acc. E4,Completed,8500,,48000,TRUE,Pay Utility,0748956967 - Selvin Mukami Wanjiru,,E4
RI32TLNHAW,03/09/2023 21:50,03/09/2023 21:50,Pay Bill from 0757714694 - paul mutune musyoka Acc. D6,Completed,8500,,39500,TRUE,Pay Utility,0757714694 - paul mutune musyoka,,D6
RI34T0WOYU,03/09/2023 19:07,03/09/2023 19:07,Pay Bill from 254715764093 - GICHANA GOVAN Acc. E3,Completed,8000,,31000,TRUE,Pay Utility,254715764093 - GICHANA GOVAN,,E3
RI39SXTJZ5,03/09/2023 18:46,03/09/2023 18:46,Pay Bill from 0719349205 - Christabel Gakii Munene Acc. D1,Completed,8000,,23000,TRUE,Pay Utility,0719349205 - Christabel Gakii Munene,,D1
RI27PTJ9JB,02/09/2023 18:16,02/09/2023 18:16,Pay Bill Online from 254715020357 - ELIZABETH NJERI WARARI Acc. C2,Completed,7500,,15000,TRUE,Pay Bill Online,254715020357 - ELIZABETH NJERI WARARI,,C2
RI13MXAPIP,01/09/2023 19:32,01/09/2023 19:32,Pay Bill from 0745516938 - MARION REBECCA BARASA Acc. house number A2,Completed,7500,,7500,TRUE,Pay Utility,0745516938 - MARION REBECCA BARASA,,house
RI11LJA5ER,01/09/2023 12:58,01/09/2023 12:58,Utility Account to Organization Settlement Account,Completed,,-8000,0,TRUE,Utility Account to Organization Settlement Account,887075 - ANCIENT WELLS LTD 3,,
RI19KTLN2J,01/09/2023 08:42,01/09/2023 08:42,Pay Bill Online from 254792281122 - MWENDWA MUTUNGA Acc. B1,Completed,8000,,8000,TRUE,Pay Bill Online,254792281122 - MWENDWA MUTUNGA,,B1
