Receipt No.,Completion Time,Initiation Time,Details,Transaction Status,Paid In,Withdrawn,Balance,Balance Confirmed,Reason Type,Other Party Info,Linked Transaction ID,A/C No.
PH71B5QBQH,07/08/2021 10:09,07/08/2021 10:09,Pay Bill Online from 0757699775 - BENARD MUIA MUTUA Acc. HCB,Completed,16000,,16000,TRUE,Pay Bill Online,0757699775 - BENARD MUIA MUTUA,,HCB
PH77B3IY6F,07/08/2021 09:23,07/08/2021 09:23,Utility Account to Organization Settlement Account,Completed,,-780400,0,TRUE,Utility Account to Organization Settlement Account,979524 - ANCIENT WELLS PROPERTY MANAGERS 2,,
PH72B2TOY2,07/08/2021 09:07,07/08/2021 09:07,Pay Bill from 254729713741 - ALBANUS MUTISO Acc. JBD,Completed,15000,,780400,TRUE,Pay Utility,254729713741 - ALBANUS MUTISO,,JBD
PH74AYCCEW,07/08/2021 06:54,07/08/2021 06:54,Pay Bill from 254708328466 - VENESSA NYARERU Acc. KCD,Completed,6000,,765400,TRUE,Pay Utility,254708328466 - VENESSA NYARERU,,KCD
PH78AXXL4W,07/08/2021 06:24,07/08/2021 06:24,Pay Bill from 0113760256 - francis mukindya muoki Acc. dfb,Completed,10000,,759400,TRUE,Pay Utility,0113760256 - francis mukindya muoki,,dfb
PH68ASSIQ8,06/08/2021 21:21,06/08/2021 21:21,Pay Bill from 254712461449 - CAROLINE MUTHONI GICHOHI Acc. fca,Completed,16000,,749400,TRUE,Pay Utility,254712461449 - CAROLINE MUTHONI GICHOHI,,fca
PH63ASNE4J,06/08/2021 21:19,06/08/2021 21:19,Pay Bill from 254718233980 - KAREN ASWANI Acc. HEC,Completed,10500,,733400,TRUE,Pay Utility,254718233980 - KAREN ASWANI,,HEC
PH66ASLX6I,06/08/2021 21:18,06/08/2021 21:18,Pay Bill from 254714578986 - EZEKIEL MULUNGYE Acc. HAC,Completed,10000,,722900,TRUE,Pay Utility,254714578986 - EZEKIEL MULUNGYE,,HAC
PH63AP094P,06/08/2021 20:18,06/08/2021 20:18,Pay Bill from 0792933158 - mary wamaitha maina Acc. kdh,Completed,10000,,712900,TRUE,Pay Utility,0792933158 - mary wamaitha maina,,kdh
PH66ALHMJC,06/08/2021 19:33,06/08/2021 19:33,Pay Bill Online from 254707315614 - TERESAH WANJIRU KIRAGU Acc. JDI,Completed,24000,,702900,TRUE,Pay Bill Online,254707315614 - TERESAH WANJIRU KIRAGU,,JDI
PH67AF5T0N,06/08/2021 18:16,06/08/2021 18:16,Pay Bill from 254723747228 - MORARA ASANYO Acc. pool,Completed,200,,678900,TRUE,Pay Utility,254723747228 - MORARA ASANYO,,pool
PH68A5Z21A,06/08/2021 15:53,06/08/2021 15:53,Pay Bill from 254712954563 - JOSEPH MUTISO KILONZO Acc. dac,Completed,20000,,678700,TRUE,Pay Utility,254712954563 - JOSEPH MUTISO KILONZO,,dac
PH61A5U9X9,06/08/2021 15:50,06/08/2021 15:50,Pay Bill from 254708376721 - Millicent Achieng Akuka Acc. KCA,Completed,10000,,658700,TRUE,Pay Utility,254708376721 - Millicent Achieng Akuka,,KCA
PH63A3Y06F,06/08/2021 15:15,06/08/2021 15:15,Pay Bill Online from 254720381965 - JAMES NGUGI MWANIKI Acc. JBI,Completed,20000,,648700,TRUE,Pay Bill Online,254720381965 - JAMES NGUGI MWANIKI,,JBI
PH69A2TPQH,06/08/2021 14:54,06/08/2021 14:54,Pay Bill Online from 0724386624 - FATUMA ISSE YUSSUF Acc. FAB,Completed,16000,,628700,TRUE,Pay Bill Online,0724386624 - FATUMA ISSE YUSSUF,,FAB
PH60A1JQNG,06/08/2021 14:30,06/08/2021 14:30,Pay Bill from 254702764047 - FERDINAND K Acc. KDB,Completed,16000,,612700,TRUE,Pay Utility,254702764047 - FERDINAND K,,KDB
PH699W55AX,06/08/2021 12:48,06/08/2021 12:48,Pay Bill from 254729541871 - ROBERT KULEI Acc. JAB,Completed,10000,,596700,TRUE,Pay Utility,254729541871 - ROBERT KULEI,,JAB
PH609UPGD2,06/08/2021 12:20,06/08/2021 12:20,Pay Bill from 254700788416 - MERCY KASILI Acc. IFE,Completed,8000,,586700,TRUE,Pay Utility,254700788416 - MERCY KASILI,,IFE
PH619UMVPJ,06/08/2021 12:19,06/08/2021 12:19,Pay Bill from 254710605251 - PAULINE OCHIENG Acc. HDC,Completed,10000,,578700,TRUE,Pay Utility,254710605251 - PAULINE OCHIENG,,HDC
PH649RFNR8,06/08/2021 11:17,06/08/2021 11:17,Pay Bill from 254725753814 - CARLYNE CHEPNGENO Acc. Ifc,Completed,8000,,568700,TRUE,Pay Utility,254725753814 - CARLYNE CHEPNGENO,,Ifc
PH609PWQQW,06/08/2021 10:47,06/08/2021 10:47,Pay Bill from 254726178084 - CHRISTOPHER OCHIENG Acc. ffe,Completed,15000,,560700,TRUE,Pay Utility,254726178084 - CHRISTOPHER OCHIENG,,ffe
PH679NZZBJ,06/08/2021 10:09,06/08/2021 10:09,Pay Bill from 254728238249 - ESTHER WANGUI KIBUNYI Acc. ICA,Completed,17000,,545700,TRUE,Pay Utility,254728238249 - ESTHER WANGUI KIBUNYI,,ICA
PH649KB2YS,06/08/2021 08:50,06/08/2021 08:50,Pay Bill from 254720868281 - KENNEDY MWELU Acc. KBI,Completed,12500,,528700,TRUE,Pay Utility,254720868281 - KENNEDY MWELU,,KBI
PH669K1N4E,06/08/2021 08:44,06/08/2021 08:44,Pay Bill Online from 254706549634 - CLINTON OMBASA Acc. FDB,Completed,17000,,516200,TRUE,Pay Bill Online,254706549634 - CLINTON OMBASA,,FDB
PH619JS3VB,06/08/2021 08:38,06/08/2021 08:38,Pay Bill Online from 254729590734 - PATRICK NDUNGA Acc. IDD,Completed,10000,,499200,TRUE,Pay Bill Online,254729590734 - PATRICK NDUNGA,,IDD
PH669JHK88,06/08/2021 08:31,06/08/2021 08:31,Pay Bill Online from 254722769473 - SAMSON CHALO Acc. IAB,Completed,15000,,489200,TRUE,Pay Utility with OD Online,254722769473 - SAMSON CHALO,,IAB
PH649H03FU,06/08/2021 07:19,06/08/2021 07:19,Pay Bill Online from 254715764212 - BANCE ISHEMINYE Acc. JFE ,Completed,3000,,474200,TRUE,Pay Bill Online,254715764212 - BANCE ISHEMINYE,,JFE
PH689GI8DY,06/08/2021 06:59,06/08/2021 06:59,Pay Bill Online from 254703550369 - ANASTASIA jepkoech Acc. KAG,Completed,10000,,471200,TRUE,Pay Bill Online,254703550369 - ANASTASIA jepkoech,,KAG
PH699FLWFR,06/08/2021 05:51,06/08/2021 05:51,Pay Bill from 254701112397 - ELEMA GODANA DIBA Acc. IAD,Completed,10000,,461200,TRUE,Pay Utility,254701112397 - ELEMA GODANA DIBA,,IAD
PH519EFBNJ,05/08/2021 23:53,05/08/2021 23:53,Pay Bill from 254703555717 - SENGA SALIM Acc. hbb,Completed,2000,,451200,TRUE,Pay Utility,254703555717 - SENGA SALIM,,hbb
PH599DZDIB,05/08/2021 23:12,05/08/2021 23:12,Pay Bill Online from 254711562428 - Lionel Mutune Muoka Acc. KDI,Completed,11000,,449200,TRUE,Pay Bill Online,254711562428 - Lionel Mutune Muoka,,KDI
PH579DHNCX,05/08/2021 22:42,05/08/2021 22:42,Pay Bill from 254726028330 - JOHN WAMBUA Acc. IFH,Completed,15000,,438200,TRUE,Pay Utility with OD via STK,254726028330 - JOHN WAMBUA,,IFH
PH599D2MLH,05/08/2021 22:23,05/08/2021 22:23,Pay Bill from 254796292434 - ANTONINA HAYA Acc. HED,Completed,9000,,423200,TRUE,Pay Utility,254796292434 - ANTONINA HAYA,,HED
PH579B4N87,05/08/2021 21:29,05/08/2021 21:29,Pay Bill from 254722874715 - PATRCIAH mbesa KIOKO Acc. KBB,Completed,16000,,414200,TRUE,Pay Utility,254722874715 - PATRCIAH mbesa KIOKO,,KBB
PH549B26JW,05/08/2021 21:28,05/08/2021 21:28,Pay Bill from 254704833344 - LOISE KIMANI Acc. jfa,Completed,20000,,398200,TRUE,Pay Utility,254704833344 - LOISE KIMANI,,jfa
PH5197RQLV,05/08/2021 20:30,05/08/2021 20:30,Pay Bill from 254702346515 - ELIZABETH ACHIENG NGOME Acc. KDE,Completed,10000,,378200,TRUE,Pay Utility,254702346515 - ELIZABETH ACHIENG NGOME,,KDE
PH54979FLS,05/08/2021 20:22,05/08/2021 20:22,Pay Bill from 254717140158 - Peter Wanjiru Acc. HFB,Completed,15000,,368200,TRUE,Pay Utility,254717140158 - Peter Wanjiru,,HFB
PH52971J88,05/08/2021 20:19,05/08/2021 20:19,Pay Bill from 254717909848 - MARY MBULA KATHUKU Acc. FGD,Completed,9000,,353200,TRUE,Pay Utility,254717909848 - MARY MBULA KATHUKU,,FGD
PH5296KJ6M,05/08/2021 20:12,05/08/2021 20:12,Pay Bill from 254724953672 - MERCY MBETI Acc. JCA,Completed,20000,,344200,TRUE,Pay Utility,254724953672 - MERCY MBETI,,JCA
PH5194DPR3,05/08/2021 19:44,05/08/2021 19:44,Pay Bill from 254711706815 - NAOMI WANYONYI Acc. KBA,Completed,16000,,324200,TRUE,Pay Utility,254711706815 - NAOMI WANYONYI,,KBA
PH5393DNUZ,05/08/2021 19:33,05/08/2021 19:33,Pay Bill Online from 254798022849 - MARTIN BUNDI RUGENDO Acc. KFH,Completed,10000,,308200,TRUE,Pay Bill Online,254798022849 - MARTIN BUNDI RUGENDO,,KFH
PH5192IPRZ,05/08/2021 19:23,05/08/2021 19:23,Pay Bill Online from 254715002789 - ERICK NGUGI MAINA Acc. HAG,Completed,16000,,298200,TRUE,Pay Bill Online,254715002789 - ERICK NGUGI MAINA,,HAG
PH5890E0LO,05/08/2021 18:59,05/08/2021 18:59,Pay Bill from 0757721640 - PURITY KANYUA NJERU Acc. hdg,Completed,15000,,282200,TRUE,Pay Utility,0757721640 - PURITY KANYUA NJERU,,hdg
PH548ZH3CY,05/08/2021 18:48,05/08/2021 18:48,Pay Bill from 254790627132 - Everline Mutave Kiio Acc. IGG,Completed,8000,,267200,TRUE,Pay Utility,254790627132 - Everline Mutave Kiio,,IGG
PH598YBX9T,05/08/2021 18:33,05/08/2021 18:33,Pay Bill from 254727515326 - HARRISON WACIRA MAINA Acc. HAH,Completed,16000,,259200,TRUE,Pay Utility,254727515326 - HARRISON WACIRA MAINA,,HAH
PH528XTO9E,05/08/2021 18:27,05/08/2021 18:27,Pay Bill from 0792441884 - CORNELIA CONRAD MVULA Acc. IBB,Completed,15000,,243200,TRUE,Pay Utility,0792441884 - CORNELIA CONRAD MVULA,,IBB
PH558XAIAL,05/08/2021 18:19,05/08/2021 18:19,Pay Bill from 254740306063 - susan wanja thurui Acc. Acc..hfg,Completed,15000,,228200,TRUE,Pay Utility,254740306063 - susan wanja thurui,,Acc..hfg
PH548VCRYM,05/08/2021 17:52,05/08/2021 17:52,Pay Bill from 254715259756 - SYNTHIA OTIENO Acc. FBC,Completed,3000,,213200,TRUE,Pay Utility with OD via STK,254715259756 - SYNTHIA OTIENO,,FBC
PH598UYXYP,05/08/2021 17:46,05/08/2021 17:46,Pay Bill from 254726636196 - BETHUEL KEMBOI KURUI Acc. JFD,Completed,15000,,210200,TRUE,Pay Utility,254726636196 - BETHUEL KEMBOI KURUI,,JFD
PH538UM3IR,05/08/2021 17:41,05/08/2021 17:41,Pay Bill from 254723643548 - KEVIN OUKO Acc. FDD,Completed,11000,,195200,TRUE,Pay Utility with OD via STK,254723643548 - KEVIN OUKO,,FDD
PH568TGGH0,05/08/2021 17:23,05/08/2021 17:23,Pay Bill from 0743248310 - PATRICK STURRIDGE NYONGESA Acc. Daa,Completed,16000,,184200,TRUE,Pay Utility,0743248310 - PATRICK STURRIDGE NYONGESA,,Daa
PH538PRHT7,05/08/2021 16:20,05/08/2021 16:20,Pay Bill Online from 254713966424 - NDUTI MUTHUI Acc. JED,Completed,15000,,168200,TRUE,Pay Bill Online,254713966424 - NDUTI MUTHUI,,JED
PH548PESBS,05/08/2021 16:14,05/08/2021 16:14,Pay Bill Online from 254720451253 - JIMMY KIOGORA NKIROTE Acc. JBG,Completed,10000,,153200,TRUE,Pay Utility with OD Online,254720451253 - JIMMY KIOGORA NKIROTE,,JBG
PH578N5MQN,05/08/2021 15:31,05/08/2021 15:31,Pay Bill Online from 254742911013 - HANEST AMIMO Acc. IEG,Completed,8000,,143200,TRUE,Pay Utility with OD Online,254742911013 - HANEST AMIMO,,IEG
PH568MRT3W,05/08/2021 15:24,05/08/2021 15:24,Pay Bill Online from 254708703539 - SUSAN NDUGIRE NDUGIRE Acc. KDA,Completed,17000,,135200,TRUE,Pay Bill Online,254708703539 - SUSAN NDUGIRE NDUGIRE,,KDA
PH558MRN37,05/08/2021 15:23,05/08/2021 15:23,Pay Bill from 254723747228 - MORARA ASANYO Acc. pool,Completed,22200,,118200,TRUE,Pay Utility,254723747228 - MORARA ASANYO,,pool
PH528KUZ1S,05/08/2021 14:46,05/08/2021 14:46,Pay Bill from 254729371750 - DERRICK OTANGA Acc. FEF,Completed,17000,,96000,TRUE,Pay Utility,254729371750 - DERRICK OTANGA,,FEF
PH588F8804,05/08/2021 12:58,05/08/2021 12:58,Pay Bill from 254720351482 - Cheruiyot Langat Brian Acc. dfa,Completed,15000,,79000,TRUE,Pay Utility with OD via STK,254720351482 - Cheruiyot Langat Brian,,dfa
PH508EK5RQ,05/08/2021 12:45,05/08/2021 12:45,Pay Bill Online from 254722728975 - CURTIS MRIGA OMIDO Acc. IAH,Completed,16000,,64000,TRUE,Pay Bill Online,254722728975 - CURTIS MRIGA OMIDO,,IAH
PH588AQUFE,05/08/2021 11:29,05/08/2021 11:29,Pay Bill from 254728042989 - PATRICK OMONDI Acc. IFI,Completed,15000,,48000,TRUE,Pay Utility with OD via STK,254728042989 - PATRICK OMONDI,,IFI
PH5088O1CM,05/08/2021 10:47,05/08/2021 10:47,Pay Bill Online from 254718911865 - KENNEDY KELI KATUNGII Acc. HDF,Completed,9000,,33000,TRUE,Pay Bill Online,254718911865 - KENNEDY KELI KATUNGII,,HDF
PH5987L067,05/08/2021 10:26,05/08/2021 10:26,Pay Bill from 254705914766 - RAKEL WANJIKU GICHIRA Acc. JDG,Completed,16000,,24000,TRUE,Pay Utility,254705914766 - RAKEL WANJIKU GICHIRA,,JDG
PH5883R4U6,05/08/2021 09:04,05/08/2021 09:04,Pay Bill from 0703236529 - MARGARET WANJIRU WANJOHI Acc. IAE,Completed,8000,,8000,TRUE,Pay Utility,0703236529 - MARGARET WANJIRU WANJOHI,,IAE
PH53824ILP,05/08/2021 08:25,05/08/2021 08:25,Utility Account to Organization Settlement Account,Completed,,-156000,0,TRUE,Utility Account to Organization Settlement Account,979524 - ANCIENT WELLS PROPERTY MANAGERS 2,,
PH5581LQV3,05/08/2021 08:12,05/08/2021 08:12,Pay Bill from 254725771056 - CHARLES MURAGURI Acc. FCE,Completed,15000,,156000,TRUE,Pay Utility,254725771056 - CHARLES MURAGURI,,FCE
PH55804SG9,05/08/2021 07:28,05/08/2021 07:28,Pay Bill from 254723929380 - RHODAH K WAMBUA Acc. HEF,Completed,9500,,141000,TRUE,Pay Utility,254723929380 - RHODAH K WAMBUA,,HEF
PH527Y7K8G,05/08/2021 04:41,05/08/2021 04:41,Pay Bill Online from 254720451253 - JIMMY KIOGORA NKIROTE Acc. KBD,Completed,2000,,131500,TRUE,Pay Utility with OD Online,254720451253 - JIMMY KIOGORA NKIROTE,,KBD
PH537XTCVL,05/08/2021 02:50,05/08/2021 02:50,Pay Bill from 254729160700 - MICAH NDUNGI Acc. HFE,Completed,10500,,129500,TRUE,Pay Utility,254729160700 - MICAH NDUNGI,,HFE
PH477WXWDF,04/08/2021 23:52,04/08/2021 23:52,Pay Bill from 254728670882 - SHARAD EDWARD ADALA OLUM Acc. KCK,Completed,15000,,119000,TRUE,Pay Utility,254728670882 - SHARAD EDWARD ADALA OLUM,,KCK
PH447W4RAE,04/08/2021 22:46,04/08/2021 22:46,Pay Bill from 254716702294 - DANIEL MULATI Acc. KBE,Completed,16000,,104000,TRUE,Pay Utility,254716702294 - DANIEL MULATI,,KBE
PH417VNMSZ,04/08/2021 22:24,04/08/2021 22:24,Pay Bill Online from 254710382992 - SIMON KAMAU MUIRURI Acc. JCD,Completed,15000,,88000,TRUE,Pay Bill Online,254710382992 - SIMON KAMAU MUIRURI,,JCD
PH417S2JYB,04/08/2021 20:54,04/08/2021 20:54,Pay Bill from 254707160543 - NAOMI MWIKALI MUTHUI Acc. IEC,Completed,8000,,73000,TRUE,Pay Utility,254707160543 - NAOMI MWIKALI MUTHUI,,IEC
PH477R8QXV,04/08/2021 20:40,04/08/2021 20:40,Pay Bill from 254724865383 - LUCY ODUOL Acc. KFE,Completed,9500,,65000,TRUE,Pay Utility,254724865383 - LUCY ODUOL,,KFE
PH407QQ178,04/08/2021 20:32,04/08/2021 20:32,Pay Bill from 254724466518 - EUNICE NDUTA Acc. KFF,Completed,9500,,55500,TRUE,Pay Utility,254724466518 - EUNICE NDUTA,,KFF
PH487ODM2U,04/08/2021 19:58,04/08/2021 19:58,Pay Bill from 0748059595 - Rashid NASSIR Khamis Acc. DDA,Completed,7000,,46000,TRUE,Pay Utility,0748059595 - Rashid NASSIR Khamis,,DDA
PH417GNGP9,04/08/2021 18:24,04/08/2021 18:24,Pay Bill from 254716581384 - GREGORY KILUNGYA Acc. DAD,Completed,20000,,39000,TRUE,Pay Utility,254716581384 - GREGORY KILUNGYA,,DAD
PH457GK6N3,04/08/2021 18:23,04/08/2021 18:23,Pay Bill from 254720511734 - ENOCK KIBET Acc. FDC,Completed,9000,,19000,TRUE,Pay Utility,254720511734 - ENOCK KIBET,,FDC
PH447FQ0LA,04/08/2021 18:12,04/08/2021 18:12,Pay Bill Online from 0796121714 - janet   mwikali Acc. KEC,Completed,10000,,10000,TRUE,Pay Bill Online,0796121714 - janet   mwikali,,KEC
PH437DNVTP,04/08/2021 17:43,04/08/2021 17:43,Utility Account to Organization Settlement Account,Completed,,-158000,0,TRUE,Utility Account to Organization Settlement Account,979524 - ANCIENT WELLS PROPERTY MANAGERS 2,,
PH4979T0MH,04/08/2021 16:42,04/08/2021 16:42,Pay Bill from 254701027615 - JAMES KIPKURUI KEMBOI Acc. HAB,Completed,15000,,158000,TRUE,Pay Utility with OD via STK,254701027615 - JAMES KIPKURUI KEMBOI,,HAB
PH4574PNH9,04/08/2021 15:08,04/08/2021 15:08,Pay Bill from 254719398942 - NORAH WAYUA MUNYAO Acc. KDC,Completed,10000,,143000,TRUE,Pay Utility,254719398942 - NORAH WAYUA MUNYAO,,KDC
PH4270LKZO,04/08/2021 13:49,04/08/2021 13:49,Pay Bill Online from 254706898046 - STACY AKETCH OCHUKA Acc. KGK,Completed,15000,,133000,TRUE,Pay Bill Online,254706898046 - STACY AKETCH OCHUKA,,KGK
PH4670GJTA,04/08/2021 13:46,04/08/2021 13:46,Pay Bill from 254726687555 - ELIUD MUTHURE MICHENI Acc. KAI,Completed,12000,,118000,TRUE,Pay Utility,254726687555 - ELIUD MUTHURE MICHENI,,KAI
PH466ZYC36,04/08/2021 13:37,04/08/2021 13:37,Pay Bill from 254729355933 - FELISTAH NJERI WAIRIMU Acc. IDI,Completed,15000,,106000,TRUE,Pay Utility with OD via STK,254729355933 - FELISTAH NJERI WAIRIMU,,IDI
PH456UQV8J,04/08/2021 11:57,04/08/2021 11:57,Pay Bill from 254722136450 - MARY EVERLYN Acc. JAI,Completed,20000,,91000,TRUE,Pay Utility with OD via STK,254722136450 - MARY EVERLYN,,JAI
PH466R4838,04/08/2021 10:46,04/08/2021 10:46,Pay Bill from 254793977738 - SARAFINA JEROP SERONEI Acc. FEA,Completed,10000,,71000,TRUE,Pay Utility,254793977738 - SARAFINA JEROP SERONEI,,FEA
PH456QMK33,04/08/2021 10:37,04/08/2021 10:37,Pay Bill from 254728854349 - JOSEPH MUSYOKA Acc.  IBG,Completed,8000,,61000,TRUE,Pay Utility,254728854349 - JOSEPH MUSYOKA,,
PH436P3YU5,04/08/2021 10:07,04/08/2021 10:07,Pay Bill from 254706158280 - patience mutheu mbevi Acc. KFC,Completed,10000,,53000,TRUE,Pay Utility with OD via STK,254706158280 - patience mutheu mbevi,,KFC
PH446OSI4Y,04/08/2021 10:00,04/08/2021 10:00,Pay Bill from 254723499628 - CLINTON JOSEPH MUHARI Acc. hfh,Completed,16000,,43000,TRUE,Pay Utility,254723499628 - CLINTON JOSEPH MUHARI,,hfh
PH496OMSOZ,04/08/2021 09:57,04/08/2021 09:57,Pay Bill from 254726977770 - STEPHEN MUIRURI MATHENGE Acc. HBG,Completed,16000,,27000,TRUE,Pay Utility,254726977770 - STEPHEN MUIRURI MATHENGE,,HBG
PH446NLLBM,04/08/2021 09:36,04/08/2021 09:36,FSI to Pay Bill by 714888 - B2C LOOP VIA NCBA Acc. FAD via WEB by B2C LOOP VIA NCBA\Cbainitiator,Completed,11000,,11000,TRUE,FSI to Pay Bill via API,714888 - B2C LOOP VIA NCBA,,FAD
PH406LSASW,04/08/2021 08:56,04/08/2021 08:56,Utility Account to Organization Settlement Account,Completed,,-187400,0,TRUE,Utility Account to Organization Settlement Account,979524 - ANCIENT WELLS PROPERTY MANAGERS 2,,
PH456L2AN3,04/08/2021 08:39,04/08/2021 08:39,Pay Bill from 254722444622 - CHARITY KAGWAINI Acc. ffd,Completed,11000,,187400,TRUE,Pay Utility,254722444622 - CHARITY KAGWAINI,,ffd
PH476KWBDP,04/08/2021 08:35,04/08/2021 08:35,Pay Bill from 0702488412 - SAMUEL MUTUA ANNASTACIA Acc. JEI,Completed,20000,,176400,TRUE,Pay Utility,0702488412 - SAMUEL MUTUA ANNASTACIA,,JEI
PH306EO9IY,03/08/2021 23:02,03/08/2021 23:02,Pay Bill from 254700187806 - WINNIE OLIVIA AKOTH Acc. Jec,Completed,10000,,156400,TRUE,Pay Utility,254700187806 - WINNIE OLIVIA AKOTH,,Jec
PH376CQWXX,03/08/2021 21:48,03/08/2021 21:48,Pay Bill Online from 254798844460 - WYCLIFFE ODHIAMBO NYAGOA Acc. KAC,Completed,10000,,146400,TRUE,Pay Bill Online,254798844460 - WYCLIFFE ODHIAMBO NYAGOA,,KAC
PH356CII7T,03/08/2021 21:43,03/08/2021 21:43,Pay Bill from 254728476791 - CAROLE ACHIENG Acc. KCF,Completed,5900,,136400,TRUE,Pay Utility,254728476791 - CAROLE ACHIENG,,KCF
PH3668AORQ,03/08/2021 20:27,03/08/2021 20:27,Pay Bill from 254715742045 - FRIDAH KIEMA Acc. HGC ,Completed,9500,,130500,TRUE,Pay Utility with OD via STK,254715742045 - FRIDAH KIEMA,,HGC
PH3860M3LQ,03/08/2021 18:52,03/08/2021 18:52,Pay Bill from 0745378455 - harriet nyanchama nyaberi Acc. FCC,Completed,9000,,121000,TRUE,Pay Utility,0745378455 - harriet nyanchama nyaberi,,FCC
PH375ZQ3XZ,03/08/2021 18:41,03/08/2021 18:41,Pay Bill from 254714250131 - NELSON ODHONG OMBUYA Acc. DCC,Completed,21000,,112000,TRUE,Pay Utility with OD via STK,254714250131 - NELSON ODHONG OMBUYA,,DCC
PH345XRUTA,03/08/2021 18:15,03/08/2021 18:15,Pay Bill Online from 254720696119 - DUNCAN OMONDI OKETCH Acc. IAG,Completed,9000,,91000,TRUE,Pay Bill Online,254720696119 - DUNCAN OMONDI OKETCH,,IAG
PH385P5ZJY,03/08/2021 15:55,03/08/2021 15:55,Pay Bill from 254719779657 - SAMUEL NJOROGE Acc. JGA,Completed,20000,,82000,TRUE,Pay Utility with OD via STK,254719779657 - SAMUEL NJOROGE,,JGA
PH375KD013,03/08/2021 14:22,03/08/2021 14:22,Pay Bill from 254716056537 - KIRUI KIPLANGAT HILLARY Acc. JCJ,Completed,16000,,62000,TRUE,Pay Utility,254716056537 - KIRUI KIPLANGAT HILLARY,,JCJ
PH395I0LZ5,03/08/2021 13:37,03/08/2021 13:37,Pay Bill from 254724852503 - GEOFREY YEGO Acc. JFF,Completed,10000,,46000,TRUE,Pay Utility,254724852503 - GEOFREY YEGO,,JFF
PH385G780C,03/08/2021 13:02,03/08/2021 13:02,Pay Bill Online from 254708225541 - JUDITH NKATHA SIMBA Acc. HDH,Completed,16000,,36000,TRUE,Pay Bill Online,254708225541 - JUDITH NKATHA SIMBA,,HDH
PH345EAOP6,03/08/2021 12:25,03/08/2021 12:25,Pay Bill from 0758826849 -  Norah Awala Anyango Acc. JEA,Completed,20000,,20000,TRUE,Pay Utility with OD via STK,0758826849 -  Norah Awala Anyango,,JEA
PH365DZAPS,03/08/2021 12:19,03/08/2021 12:19,Utility Account to Organization Settlement Account,Completed,,-62000,0,TRUE,Utility Account to Organization Settlement Account,979524 - ANCIENT WELLS PROPERTY MANAGERS 2,,
PH35598TCH,03/08/2021 10:45,03/08/2021 10:45,Pay Bill Online from 254792187144 - HASSAN AHMED HASSAN Acc. KGI,Completed,10000,,62000,TRUE,Pay Bill Online,254792187144 - HASSAN AHMED HASSAN,,KGI
PH3258MXQ8,03/08/2021 10:33,03/08/2021 10:33,Pay Bill from 254710381003 - ALFRED KISHOIN Acc. DAB,Completed,27000,,52000,TRUE,Pay Utility,254710381003 - ALFRED KISHOIN,,DAB
PH3957EGFH,03/08/2021 10:08,03/08/2021 10:08,Pay Bill Online from 254710814215 - JOAN NYAMBURA KAMAU Acc. ifb,Completed,15000,,25000,TRUE,Pay Bill Online,254710814215 - JOAN NYAMBURA KAMAU,,ifb
PH3650UHKO,03/08/2021 07:38,03/08/2021 07:38,Pay Bill from 254726172957 - VINCENT OLIENG' Acc. HBC,Completed,10000,,10000,TRUE,Pay Utility,254726172957 - VINCENT OLIENG',,HBC
PH3850UAYE,03/08/2021 07:38,03/08/2021 07:38,Utility Account to Organization Settlement Account,Completed,,-173000,0,TRUE,Utility Account to Organization Settlement Account,979524 - ANCIENT WELLS PROPERTY MANAGERS 2,,
PH3650GZUU,03/08/2021 07:26,03/08/2021 07:26,Pay Bill from 254717726012 - WINFRED MUENI PETER Acc. IDA,Completed,16000,,173000,TRUE,Pay Utility,254717726012 - WINFRED MUENI PETER,,IDA
PH214XU4QJ,02/08/2021 23:56,02/08/2021 23:56,Pay Bill from 254703555717 - SENGA SALIM Acc. hbb,Completed,2000,,157000,TRUE,Pay Utility,254703555717 - SENGA SALIM,,hbb
PH254XJ2VV,02/08/2021 23:17,02/08/2021 23:17,Pay Bill from 254703935626 - DAVID NGARI ITA Acc. FCD,Completed,1000,,155000,TRUE,Pay Utility with OD via STK,254703935626 - DAVID NGARI ITA,,FCD
PH264VSAOO,02/08/2021 21:54,02/08/2021 21:54,Pay Bill Online from 254715892656 - DENNIS MUSYOKA MUOKI Acc. KFA,Completed,16000,,154000,TRUE,Pay Bill Online,254715892656 - DENNIS MUSYOKA MUOKI,,KFA
PH244V6PQW,02/08/2021 21:38,02/08/2021 21:38,Pay Bill from 254704934557 - BAKARI KITSAKA Acc. JAD,Completed,15000,,138000,TRUE,Pay Utility,254704934557 - BAKARI KITSAKA,,JAD
PH224UM9UM,02/08/2021 21:25,02/08/2021 21:25,Pay Bill from 254702152790 - Michelle Ndunge Kyalo Acc. IDE,Completed,8000,,123000,TRUE,Pay Utility,254702152790 - Michelle Ndunge Kyalo,,IDE
PH204PVU9G,02/08/2021 20:05,02/08/2021 20:05,Pay Bill from 254719285750 - LILIAN ACHIENG ODONGO Acc. IGE,Completed,9000,,115000,TRUE,Pay Utility,254719285750 - LILIAN ACHIENG ODONGO,,IGE
PH254L1X83,02/08/2021 19:06,02/08/2021 19:06,Pay Bill from 0768254361 - millicent nyasuguta bundi Acc. ICB,Completed,17000,,106000,TRUE,Pay Utility,0768254361 - millicent nyasuguta bundi,,ICB
PH234KXKHJ,02/08/2021 19:05,02/08/2021 19:05,Pay Bill from 254722775231 - BETHWEL KIBET RONO Acc. IFF,Completed,10000,,89000,TRUE,Pay Utility,254722775231 - BETHWEL KIBET RONO,,IFF
PH254GR6ZR,02/08/2021 18:12,02/08/2021 18:12,Pay Bill from 254714060203 - PATRICK MWANGOMBE MSAWUCHI Acc. KEI,Completed,12000,,79000,TRUE,Pay Utility,254714060203 - PATRICK MWANGOMBE MSAWUCHI,,KEI
PH294E9PR5,02/08/2021 17:36,02/08/2021 17:36,Pay Bill from 254769102712 - VALARIA VUTALE AZENGA Acc. KAD,Completed,11000,,67000,TRUE,Pay Utility,254769102712 - VALARIA VUTALE AZENGA,,KAD
PH234DVB81,02/08/2021 17:30,02/08/2021 17:30,Pay Bill from 254725385966 - JOSEPH MUYA MARUA Acc. KEE,Completed,10000,,56000,TRUE,Pay Utility,254725385966 - JOSEPH MUYA MARUA,,KEE
PH234CJXSH,02/08/2021 17:09,02/08/2021 17:09,Pay Bill from 254728888511 - HAMISI MIRITI Acc. KAK,Completed,16000,,46000,TRUE,Pay Utility,254728888511 - HAMISI MIRITI,,KAK
PH224BM3DY,02/08/2021 16:54,02/08/2021 16:54,Pay Bill from 0113473583 - GERARD   HAVYARIMANA Acc. KAH,Completed,10000,,30000,TRUE,Pay Utility,0113473583 - GERARD   HAVYARIMANA,,KAH
PH27487ZW1,02/08/2021 15:53,02/08/2021 15:53,Pay Bill Online from 254717053159 - FREDRICK NYATIKA Acc. IEF,Completed,11000,,20000,TRUE,Pay Bill Online,254717053159 - FREDRICK NYATIKA,,IEF
PH2942GTZX,02/08/2021 14:04,02/08/2021 14:04,Pay Bill Online from 254716784364 - Wendy Kemunto Nyandiko Acc. FFC,Completed,9000,,9000,TRUE,Pay Bill Online,254716784364 - Wendy Kemunto Nyandiko,,FFC
PH2940Q58B,02/08/2021 13:32,02/08/2021 13:32,Utility Account to Organization Settlement Account,Completed,,-84000,0,TRUE,Utility Account to Organization Settlement Account,979524 - ANCIENT WELLS PROPERTY MANAGERS 2,,
PH263YTKJQ,02/08/2021 12:57,02/08/2021 12:57,Pay Bill from 254703180395 - JANE NYAGUTHII MWAGO Acc. IBE,Completed,8000,,84000,TRUE,Pay Utility,254703180395 - JANE NYAGUTHII MWAGO,,IBE
PH213V7HWL,02/08/2021 11:48,02/08/2021 11:48,Pay Bill from 0721130307 - HILLARY NGUNYI MUTINDA Acc. JCH,Completed,16500,,76000,TRUE,Pay Utility,0721130307 - HILLARY NGUNYI MUTINDA,,JCH
PH293U9RUF,02/08/2021 11:30,02/08/2021 11:30,Pay Bill from 254718284151 - EVERLINE MATHEKA Acc. JAG,Completed,9000,,59500,TRUE,Pay Utility,254718284151 - EVERLINE MATHEKA,,JAG
PH213T9B1N,02/08/2021 11:10,02/08/2021 11:10,Pay Bill from 254721302658 - JACOB BIRUNDU Acc. DDB,Completed,16000,,50500,TRUE,Pay Utility,254721302658 - JACOB BIRUNDU,,DDB
PH233SKX8V,02/08/2021 10:57,02/08/2021 10:57,Pay Bill from 254720375006 - JACOB KANGOGO Acc. IBA,Completed,15000,,34500,TRUE,Pay Utility,254720375006 - JACOB KANGOGO,,IBA
PH223PY48S,02/08/2021 10:06,02/08/2021 10:06,Pay Bill Online from 254714563486 - BRIAN MMATA MUSERA Acc. KBJ,Completed,16000,,19500,TRUE,Pay Bill Online,254714563486 - BRIAN MMATA MUSERA,,KBJ
PH283PKGPO,02/08/2021 09:58,02/08/2021 09:58,Pay Bill from 254725381062 - VICTOR MAITHYA Acc. HEG,Completed,3500,,3500,TRUE,Pay Utility,254725381062 - VICTOR MAITHYA,,HEG
PH213M74EB,02/08/2021 08:48,02/08/2021 08:48,Utility Account to Organization Settlement Account,Completed,,-358500,0,TRUE,Utility Account to Organization Settlement Account,979524 - ANCIENT WELLS PROPERTY MANAGERS 2,,
PH173EWVHP,01/08/2021 22:26,01/08/2021 22:26,Pay Bill Online from 254717780356 - ALFRED MAIRURA Acc. FAF,Completed,16000,,358500,TRUE,Pay Bill Online,254717780356 - ALFRED MAIRURA,,FAF
PH173EMFAD,01/08/2021 22:14,01/08/2021 22:14,Pay Bill from 254703935626 - DAVID NGARI ITA Acc. FCD,Completed,1000,,342500,TRUE,Pay Utility with OD via STK,254703935626 - DAVID NGARI ITA,,FCD
PH123DEY9Y,01/08/2021 21:37,01/08/2021 21:37,Pay Bill Online from 254717809935 - LYDIAH WERU Acc. IDC,Completed,9500,,341500,TRUE,Pay Bill Online,254717809935 - LYDIAH WERU,,IDC
PH1939Q817,01/08/2021 20:24,01/08/2021 20:24,Pay Bill from 254702355678 - JOHN NJOROGE GICHERU Acc. ITE,Completed,10000,,332000,TRUE,Pay Utility,254702355678 - JOHN NJOROGE GICHERU,,ITE
PH103731T2,01/08/2021 19:44,01/08/2021 19:44,Pay Bill from 254707226192 - NICHOLUS MAINGI MWANTHI Acc. HBF,Completed,9000,,322000,TRUE,Pay Utility,254707226192 - NICHOLUS MAINGI MWANTHI,,HBF
PH14311FDQ,01/08/2021 18:24,01/08/2021 18:24,Pay Bill from 254726753273 - JESSE K MURIRMI NJERU Acc. HCH,Completed,17000,,313000,TRUE,Pay Utility,254726753273 - JESSE K MURIRMI NJERU,,HCH
PH162WGTEI,01/08/2021 17:10,01/08/2021 17:10,Pay Bill from 254712974871 - PAULA WANJIKU GATUI Acc. HEA,Completed,16000,,296000,TRUE,Pay Utility,254712974871 - PAULA WANJIKU GATUI,,HEA
PH172SMQ81,01/08/2021 16:03,01/08/2021 16:03,Pay Bill from 254728901013 - ALEX MOSE ARWASA Acc. HGD,Completed,10000,,280000,TRUE,Pay Utility,254728901013 - ALEX MOSE ARWASA,,HGD
PH172OYH0P,01/08/2021 14:53,01/08/2021 14:53,Pay Bill Online from 254704682516 - Winnie Akinyi Omollo Acc. FDA,Completed,16000,,270000,TRUE,Pay Bill Online,254704682516 - Winnie Akinyi Omollo,,FDA
PH162O2ED6,01/08/2021 14:36,01/08/2021 14:36,Pay Bill from 254721315975 - JOSEPH NDEGWA Acc. H E B,Completed,16000,,254000,TRUE,Pay Utility,254721315975 - JOSEPH NDEGWA,,H
PH102N9FIS,01/08/2021 14:20,01/08/2021 14:20,Pay Bill Online from 254722514052 - JOSEPH NDIRANGU Acc. JCF,Completed,8000,,238000,TRUE,Pay Bill Online,254722514052 - JOSEPH NDIRANGU,,JCF
PH102J221Y,01/08/2021 12:53,01/08/2021 12:53,Pay Bill from 254716315144 - PETER MUNYIRI WAROTERE Acc. FBB,Completed,16000,,230000,TRUE,Pay Utility,254716315144 - PETER MUNYIRI WAROTERE,,FBB
PH122IRB9A,01/08/2021 12:46,01/08/2021 12:46,Pay Bill Online from 254795510441 - LEWIS MUEMA Acc. KEB,Completed,16000,,214000,TRUE,Pay Bill Online,254795510441 - LEWIS MUEMA,,KEB
PH142IFHAW,01/08/2021 12:39,01/08/2021 12:39,Pay Bill from 254710239100 - PHILOMENA WOKI MUTHAMA Acc. KDK,Completed,17000,,198000,TRUE,Pay Utility,254710239100 - PHILOMENA WOKI MUTHAMA,,KDK
PH142GWSJC,01/08/2021 12:06,01/08/2021 12:06,Pay Bill from 254722604851 - WILFRED SAKWA Acc. IDG,Completed,10000,,181000,TRUE,Pay Utility,254722604851 - WILFRED SAKWA,,IDG
PH132FIRDD,01/08/2021 11:34,01/08/2021 11:34,Pay Bill from 254714855708 - KIPLANGAT SITIENEI Acc. FAE,Completed,16000,,171000,TRUE,Pay Utility,254714855708 - KIPLANGAT SITIENEI,,FAE
PH102FGL56,01/08/2021 11:32,01/08/2021 11:32,Pay Bill from 254721465713 - RHODA WAMBUI MWANGI Acc. Jfh,Completed,17000,,155000,TRUE,Pay Utility,254721465713 - RHODA WAMBUI MWANGI,,Jfh
PH152CIY3V,01/08/2021 10:24,01/08/2021 10:24,Pay Bill from 254729796719 - JACINTA WANJIKU NJERI Acc. FFF,Completed,17000,,138000,TRUE,Pay Utility,254729796719 - JACINTA WANJIKU NJERI,,FFF
PH1623J8FY,01/08/2021 01:15,01/08/2021 01:15,Pay Bill from 254723488259 - WILSON OKITE OKITE Acc. HCA,Completed,15000,,121000,TRUE,Pay Utility,254723488259 - WILSON OKITE OKITE,,HCA
