Receipt No.,Completion Time,Initiation Time,Details,Transaction Status,Paid In,Withdrawn,Balance,Balance Confirmed,Reason Type,Other Party Info,Linked Transaction ID,A/C No.
SEU6V2R9AM,30/05/2024 17:08,30/05/2024 17:08,Pay Bill from 254715***624 - MARGARET *** Acc. z 12,Completed,16000,,16000,TRUE,Pay Utility,254715***624 - MARGARET ***,,z 12
SES6NM4P70,28/05/2024 16:17,28/05/2024 16:17,Utility Account to Organization Settlement Account,Completed,,-10000,0,TRUE,Utility Account to Organization Settlement Account,887264 - ANCIENT WELLS LTD 2,,
SES4M3NMCC,28/05/2024 08:27,28/05/2024 08:27,Pay Bill from 254726***831 - ANDREW *** Acc. Andrew odhiambo ,Completed,10000,,10000,TRUE,Pay Utility,254726***831 - ANDREW ***,,Andrew odhiambo 
SER1L4CRS9,27/05/2024 20:18,27/05/2024 20:18,Utility Account to Organization Settlement Account,Completed,,-16000,0,TRUE,Utility Account to Organization Settlement Account,887264 - ANCIENT WELLS LTD 2,,
SEQ6H49UJM,26/05/2024 18:58,26/05/2024 18:58,Business Pay Bill by 998094 - COOP TO PAYBILL Acc. Z11 via API,Completed,16000,,16000,TRUE,Business Pay Bill via API,998094 - COOP TO PAYBILL,,Z11 via API
SEO7AL15B9,24/05/2024 20:42,24/05/2024 20:42,Utility Account to Organization Settlement Account,Completed,,-168500,0,TRUE,Utility Account to Organization Settlement Account,887264 - ANCIENT WELLS LTD 2,,
SEO28YYTA2,24/05/2024 14:25,24/05/2024 14:25,Pay Bill Online from 254723***186 - BRIAN *** Acc. Z18,Completed,32000,,168500,TRUE,Pay Bill Online,254723***186 - BRIAN ***,,Z18
SEN85ZK1L6,23/05/2024 17:22,23/05/2024 17:22,Pay Bill Online from 254724***830 - Evan *** Acc. House no. 19,Completed,15000,,136500,TRUE,Pay Bill Online,254724***830 - Evan ***,,House no. 19
SEM517Q77R,22/05/2024 11:13,22/05/2024 11:13,Pay Bill from 254721***492 - MICHAEL *** Acc. Uu4,Completed,5500,,121500,TRUE,Pay Utility,254721***492 - MICHAEL ***,,Uu4
SEL1Z5M7MP,21/05/2024 22:11,21/05/2024 22:11,Pay Bill Online from 254722***369 - FAIZ *** Acc. Nairobi west 12,Completed,70000,,116000,TRUE,Pay Bill Online,254722***369 - FAIZ ***,,Nairobi west 12
SEK5TBLFLN,20/05/2024 12:00,20/05/2024 12:00,Pay Bill from 254726***866 - JOSEPH *** Acc. Shop 1 saika,Completed,7500,,46000,TRUE,Pay Utility,254726***866 - JOSEPH ***,,Shop 1 saika
SEI6MYH8JQ,18/05/2024 15:18,18/05/2024 15:18,Pay Bill from 254726***715 - ELIZAPHAN *** Acc. Z2,Completed,16000,,38500,TRUE,Pay Utility,254726***715 - ELIZAPHAN ***,,Z2
SEG7HI1UL5,16/05/2024 23:28,16/05/2024 23:28,Pay Bill Online from 254796***225 - Martin *** Acc. z8,Completed,16000,,22500,TRUE,Pay Utility with OD Online,254796***225 - Martin ***,,z8
SEG5GEF45B,16/05/2024 18:16,16/05/2024 18:16,Pay Bill from 074552***615 - COLLINS *** Acc. U6,Completed,6500,,6500,TRUE,Pay Utility,074552***615 - COLLINS ***,,U6
SEG8EMGGGO,16/05/2024 09:35,16/05/2024 09:35,Utility Account to Organization Settlement Account,Completed,,-38000,0,TRUE,Utility Account to Organization Settlement Account,887264 - ANCIENT WELLS LTD 2,,
SEF6DYMR3C,15/05/2024 23:34,15/05/2024 23:34,Pay Bill Online from 075844***469 - Tecla *** Acc. z6,Completed,17000,,38000,TRUE,Pay Bill Online,075844***469 - Tecla ***,,z6
SEF6AY6HNG,15/05/2024 09:26,15/05/2024 09:26,Pay Bill from 074326***203 - Patrick *** Acc. U1,Completed,5000,,21000,TRUE,Pay Utility,074326***203 - Patrick ***,,U1
SEF6ARW048,15/05/2024 08:24,15/05/2024 08:24,Pay Bill from 254720***522 - DANIEL *** Acc. Z15 ,Completed,16000,,16000,TRUE,Pay Utility,254720***522 - DANIEL ***,,Z15 
SEE0AAKWEY,14/05/2024 23:17,14/05/2024 23:17,Utility Account to Organization Settlement Account,Completed,,-40000,0,TRUE,Utility Account to Organization Settlement Account,887264 - ANCIENT WELLS LTD 2,,
SEE58Z2QEZ,14/05/2024 17:40,14/05/2024 17:40,Pay Bill from 254728***446 - GRACE *** Acc. ancient well ,Completed,40000,,40000,TRUE,Pay Utility,254728***446 - GRACE ***,,ancient well 
SED16KXIAT,13/05/2024 22:27,13/05/2024 22:27,Utility Account to Organization Settlement Account,Completed,,-124000,0,TRUE,Utility Account to Organization Settlement Account,887264 - ANCIENT WELLS LTD 2,,
SED33J9ZST,13/05/2024 09:09,13/05/2024 09:09,Pay Bill from 254722***500 - SHARON *** Acc. hse 1 zimma,Completed,12000,,124000,TRUE,Pay Utility,254722***500 - SHARON ***,,hse 1 zimma
SED03E15CK,13/05/2024 08:21,13/05/2024 08:21,Pay Bill from 254729***163 - BEATRICE *** Acc. z13,Completed,2000,,112000,TRUE,Pay Utility with OD via STK,254729***163 - BEATRICE ***,,z13
SED9367HE7,13/05/2024 06:50,13/05/2024 06:50,Pay Bill Online from 254728***930 - DOREEN *** Acc.  ,Completed,5000,,110000,TRUE,Pay Bill Online,254728***930 - DOREEN ***,, 
SEC21O0KCK,12/05/2024 17:29,12/05/2024 17:29,Pay Bill Online from 254715***633 - FIONA *** Acc. Z16,Completed,6000,,105000,TRUE,Pay Bill Online,254715***633 - FIONA ***,,Z16
SEB1W5JG63,11/05/2024 13:35,11/05/2024 13:35,Business Pay Bill by 998094 - COOP TO PAYBILL Acc. hse no.3 via API,Completed,12000,,99000,TRUE,Business Pay Bill via API,998094 - COOP TO PAYBILL,,hse no.3 via API
SEB4V51ENA,11/05/2024 08:35,11/05/2024 08:35,Pay Bill Online from 254711***176 - ANTONY *** Acc. Z17,Completed,16000,,87000,TRUE,Pay Bill Online,254711***176 - ANTONY ***,,Z17
SEA5ULE36L,10/05/2024 22:21,10/05/2024 22:21,Pay Bill from 254741***919 - Linet *** Acc. u3,Completed,5000,,71000,TRUE,Pay Utility,254741***919 - Linet ***,,u3
SEA3RLOEN9,10/05/2024 09:22,10/05/2024 09:22,Pay Bill Online from 075938***844 - ROSEMARY *** Acc. B2,Completed,6000,,66000,TRUE,Pay Bill Online,075938***844 - ROSEMARY ***,,B2
SEA5RI5CIP,10/05/2024 08:48,10/05/2024 08:48,Pay Bill from 254725***210 - FREDRICK *** Acc. EPZ MH ,Completed,35000,,60000,TRUE,Pay Utility,254725***210 - FREDRICK ***,,EPZ MH 
SE89MFYTJ5,08/05/2024 19:19,08/05/2024 19:19,Pay Bill from 254720***873 - SARAH *** Acc. u3,Completed,5000,,25000,TRUE,Pay Utility,254720***873 - SARAH ***,,u3
SE82LY0BRO,08/05/2024 17:41,08/05/2024 17:41,Pay Bill Online from 254723***941 - ELIZABETH *** Acc. house z4,Completed,20000,,20000,TRUE,Pay Bill Online,254723***941 - ELIZABETH ***,,house z4
SE87LT38J7,08/05/2024 17:10,08/05/2024 17:10,Utility Account to Organization Settlement Account,Completed,,-204000,0,TRUE,Utility Account to Organization Settlement Account,887264 - ANCIENT WELLS LTD 2,,
SE84JLWH6E,08/05/2024 00:10,08/05/2024 00:10,Pay Bill Online from 254718***869 - MARK *** Acc. A3,Completed,7000,,204000,TRUE,Pay Bill Online,254718***869 - MARK ***,,A3
SE75JF83EV,07/05/2024 22:00,07/05/2024 22:00,Pay Bill Online from 254715***633 - FIONA *** Acc. Z16,Completed,10000,,197000,TRUE,Pay Bill Online,254715***633 - FIONA ***,,Z16
SE77IUYSZR,07/05/2024 19:34,07/05/2024 19:34,Pay Bill from 254722***566 - DANIEL *** Acc. UMOJA H101,Completed,30000,,187000,TRUE,Pay Utility,254722***566 - DANIEL ***,,UMOJA H101
SE76IQWSQQ,07/05/2024 19:14,07/05/2024 19:14,Pay Bill from 254722***698 - Allan *** Acc. B3,Completed,6000,,157000,TRUE,Pay Utility,254722***698 - Allan ***,,B3
SE79GCNZO9,07/05/2024 08:35,07/05/2024 08:35,Pay Bill from 254728***985 - VIRGINIAH *** Acc. B7,Completed,6000,,151000,TRUE,Pay Utility,254728***985 - VIRGINIAH ***,,B7
SE62EG5VAQ,06/05/2024 17:13,06/05/2024 17:13,Pay Bill Online from 254712***161 - ANGELA *** Acc. A202 Ndemi,Completed,90000,,145000,TRUE,Pay Bill Online,254712***161 - ANGELA ***,,A202 Ndemi
SE63CVG4L9,06/05/2024 09:57,06/05/2024 09:57,Pay Bill from 070359***003 - starlin *** Acc. 102,Completed,37000,,55000,TRUE,Pay Utility,070359***003 - starlin ***,,102
SE62CHZZ0I,06/05/2024 07:47,06/05/2024 07:47,Pay Bill from 254729***163 - BEATRICE *** Acc. z13,Completed,2000,,18000,TRUE,Pay Utility,254729***163 - BEATRICE ***,,z13
SE3725448T,03/05/2024 10:19,03/05/2024 10:19,Pay Bill from 254723***311 - VERONICAH *** Acc. house no 9,Completed,16000,,16000,TRUE,Pay Utility,254723***311 - VERONICAH ***,,house no 9
