Receipt No.,Completion Time,Initiation Time,Details,Transaction Status,Paid In,Withdrawn,Balance,Balance Confirmed,Reason Type,Other Party Info,Linked Transaction ID,A/C No.
QAP34QM1PP,25/01/2022 14:55,25/01/2022 14:55,Pay Bill from 254713497971 - GERISHON NDUNG'U KOMU Acc. HGH,Completed,17000,,237500,TRUE,Pay Utility,254713497971 - GERISHON NDUNG'U KOMU,,HGH
QAP04MY2IK,25/01/2022 13:52,25/01/2022 13:52,Pay Bill from 0796797612 - Daisy Dianaressa Naliaka Acc. JBF,Completed,7200,,220500,TRUE,Pay Utility,0796797612 - Daisy Dianaressa Naliaka,,JBF
QAP84MN9ZK,25/01/2022 13:47,25/01/2022 13:47,Pay Bill from 0796797612 - Daisy Dianaressa Naliaka Acc. JBF,Completed,800,,213300,TRUE,Pay Utility,0796797612 - Daisy Dianaressa Naliaka,,JBF
QAP34AMCJL,25/01/2022 10:18,25/01/2022 10:18,Pay Bill from 254713662892 - DAVID JUMA KIPTOCH Acc. JBE,Completed,8500,,212500,TRUE,Pay Utility,254713662892 - DAVID JUMA KIPTOCH,,JBE
QAO43WEEY2,24/01/2022 21:53,24/01/2022 21:53,Pay Bill from 254719499823 - MOSES MWANZIA MUTHIANI Acc. Jcc,Completed,3000,,204000,TRUE,Pay Utility with OD via STK,254719499823 - MOSES MWANZIA MUTHIANI,,Jcc
QAO22O36M0,24/01/2022 10:57,24/01/2022 10:57,Pay Bill Online from 254701683737 - MICHAEL NGUGI Acc. HDB,Completed,16000,,201000,TRUE,Pay Bill Online,254701683737 - MICHAEL NGUGI,,HDB
QAO32CEZRN,24/01/2022 06:30,24/01/2022 06:30,Pay Bill from 0743248310 - PATRICK STURRIDGE NYONGESA Acc. Daa,Completed,18000,,185000,TRUE,Pay Utility,0743248310 - PATRICK STURRIDGE NYONGESA,,Daa
QAN71TXK5J,23/01/2022 18:42,23/01/2022 18:42,Pay Bill from 0726465363 - ISAAC KITONGA JOSEPH Acc. idg,Completed,21000,,167000,TRUE,Pay Utility,0726465363 - ISAAC KITONGA JOSEPH,,idg
QAN11D67VD,23/01/2022 14:16,23/01/2022 14:16,Pay Bill from 254704934557 - BAKARI KITSAKA Acc. JEI,Completed,20000,,146000,TRUE,Pay Utility,254704934557 - BAKARI KITSAKA,,JEI
QAN61CSL5E,23/01/2022 14:10,23/01/2022 14:10,Pay Bill from 254722514052 - JOSEPH NDIRANGU Acc. JCF,Completed,8000,,126000,TRUE,Pay Utility,254722514052 - JOSEPH NDIRANGU,,JCF
QAN9165YF3,23/01/2022 12:04,23/01/2022 12:04,Pay Bill from 0796797612 - Daisy Dianaressa Naliaka Acc. JBF,Completed,8000,,118000,TRUE,Pay Utility,0796797612 - Daisy Dianaressa Naliaka,,JBF
QAN1ZYRYFL,23/01/2022 09:28,23/01/2022 09:28,Pay Bill from 254722714951 - JOSEPH MUTIGA NDIRANGU Acc. JCF,Completed,8000,,110000,TRUE,Pay Utility,254722714951 - JOSEPH MUTIGA NDIRANGU,,JCF
QAM7ZO8LEZ,22/01/2022 22:05,22/01/2022 22:05,Pay Bill from 254703935626 - DAVID NGARI ITA Acc. FCD,Completed,1000,,102000,TRUE,Pay Utility,254703935626 - DAVID NGARI ITA,,FCD
QAM6ZLOEL6,22/01/2022 21:18,22/01/2022 21:18,Pay Bill from 0722950695 - Joshua Mbithi Kivondo Acc. Dca ,Completed,10000,,101000,TRUE,Pay Utility,0722950695 - Joshua Mbithi Kivondo,,Dca
QAM4ZJLKWM,22/01/2022 20:47,22/01/2022 20:47,Pay Bill from 0792933158 - mary wamaitha maina Acc. kdh,Completed,8000,,91000,TRUE,Pay Utility,0792933158 - mary wamaitha maina,,kdh
QAM1ZH0MXT,22/01/2022 20:16,22/01/2022 20:16,Pay Bill from 254740579741 - MUHINDI MULINYA Acc. HGG,Completed,5000,,83000,TRUE,Pay Utility with OD via STK,254740579741 - MUHINDI MULINYA,,HGG
QAM7Z5N6YJ,22/01/2022 18:11,22/01/2022 18:11,Pay Bill from 254796848496 - IVY WITABA Acc. JBA,Completed,10000,,78000,TRUE,Pay Utility,254796848496 - IVY WITABA,,JBA
QAM1Z5LQSB,22/01/2022 18:10,22/01/2022 18:10,Pay Bill Online from 254710965167 - KUSA STEPHANIE HAZEL Acc. JDC,Completed,11000,,68000,TRUE,Pay Bill Online,254710965167 - KUSA STEPHANIE HAZEL,,JDC
QAM1Z18ZP7,22/01/2022 17:17,22/01/2022 17:17,Pay Bill from 0724110456 - Fredrick Otieno Onege Acc. ICH,Completed,16000,,57000,TRUE,Pay Utility,0724110456 - Fredrick Otieno Onege,,ICH
QAM9YY9OOJ,22/01/2022 16:36,22/01/2022 16:36,Pay Bill from 254703555717 - SENGA SALIM Acc. hbb,Completed,2000,,41000,TRUE,Pay Utility,254703555717 - SENGA SALIM,,hbb
QAM7YR1F2D,22/01/2022 14:45,22/01/2022 14:45,Pay Bill from 0718838251 - MARK KINYUA MAINA Acc. kfg,Completed,10000,,39000,TRUE,Pay Utility,0718838251 - MARK KINYUA MAINA,,kfg
QAM8YH8UOA,22/01/2022 12:06,22/01/2022 12:06,Pay Bill from 254720029066 - EVANS CHERUYOT ROTICH Acc. KFI,Completed,19000,,29000,TRUE,Pay Utility,254720029066 - EVANS CHERUYOT ROTICH,,KFI
QAM8YCSYIW,22/01/2022 10:50,22/01/2022 10:50,Pay Bill from 254725539787 - EVERLYNE MOGAKA Acc. KEF,Completed,10000,,10000,TRUE,Pay Utility,254725539787 - EVERLYNE MOGAKA,,KEF
QAM4YANFKM,22/01/2022 10:12,22/01/2022 10:12,Utility Account to Organization Settlement Account,Completed,,-108000,0,TRUE,Utility Account to Organization Settlement Account,979524 - ANCIENT WELLS PROPERTY MANAGERS 2,,
QAM4Y5VVLC,22/01/2022 08:39,22/01/2022 08:39,Pay Bill from 254722910078 - MAUREEN MUNYIVA MUTUKU Acc. DBD,Completed,5000,,108000,TRUE,Pay Utility,254722910078 - MAUREEN MUNYIVA MUTUKU,,DBD
QAL0XX1WVA,21/01/2022 22:02,21/01/2022 22:02,Pay Bill from 254726928933 - JOSHUA NDUNDA NZIOKA Acc. KCJ,Completed,7000,,103000,TRUE,Pay Utility,254726928933 - JOSHUA NDUNDA NZIOKA,,KCJ
QAL8X5GDDI,21/01/2022 16:04,21/01/2022 16:04,Pay Bill from 254710635630 - DONNA JESSICA OWANO Acc. KCC,Completed,3000,,96000,TRUE,Pay Utility,254710635630 - DONNA JESSICA OWANO,,KCC
QAL9X1MY59,21/01/2022 15:01,21/01/2022 15:01,Pay Bill from 254703528196 - ERIC GITONGA MUGO Acc. KGJ,Completed,10000,,93000,TRUE,Pay Utility with OD via STK,254703528196 - ERIC GITONGA MUGO,,KGJ
QAL4X1A33E,21/01/2022 14:55,21/01/2022 14:55,Pay Bill from 254710635630 - DONNA JESSICA OWANO Acc. KCC,Completed,7000,,83000,TRUE,Pay Utility,254710635630 - DONNA JESSICA OWANO,,KCC
QAL7WD9A0D,21/01/2022 07:28,21/01/2022 07:28,Pay Bill Online from 254722258756 - DAVID KEMBOI Acc. HDA,Completed,18000,,76000,TRUE,Pay Bill Online,254722258756 - DAVID KEMBOI,,HDA
QAL2WCYC66,21/01/2022 07:19,21/01/2022 07:19,Pay Bill from 254729557859 - AUDREY KASINDAHA KASINDAHA Acc. KFB,Completed,16000,,58000,TRUE,Pay Utility,254729557859 - AUDREY KASINDAHA KASINDAHA,,KFB
QAL5WBCAPZ,21/01/2022 05:28,21/01/2022 05:28,Pay Bill Online from 254720451253 - JIMMY KIOGORA NKIROTE Acc. kbd,Completed,3000,,42000,TRUE,Pay Utility with OD Online,254720451253 - JIMMY KIOGORA NKIROTE,,kbd
QAK3VV149H,20/01/2022 19:21,20/01/2022 19:21,Pay Bill Online from 254720787158 - AMOS CHELANG'A Acc. KFK,Completed,16000,,39000,TRUE,Pay Bill Online,254720787158 - AMOS CHELANG'A,,KFK
QAK5VK72EL,20/01/2022 17:11,20/01/2022 17:11,Pay Bill from 254722136450 - MARY EVERLYN Acc. JAI,Completed,5000,,23000,TRUE,Pay Utility with OD via STK,254722136450 - MARY EVERLYN,,JAI
QAK3VIJOPB,20/01/2022 16:46,20/01/2022 16:46,Pay Bill from 254758140048 - ABDULKADIR ABASS DAHIR Acc. KAB,Completed,16000,,18000,TRUE,Pay Utility,254758140048 - ABDULKADIR ABASS DAHIR,,KAB
QAK9VI7O31,20/01/2022 16:41,20/01/2022 16:41,Pay Bill Online from 254720451253 - JIMMY KIOGORA NKIROTE Acc. kbd,Completed,2000,,2000,TRUE,Pay Utility with OD Online,254720451253 - JIMMY KIOGORA NKIROTE,,kbd
QAK7V2PJ7N,20/01/2022 12:18,20/01/2022 12:18,Utility Account to Organization Settlement Account,Completed,,-53500,0,TRUE,Utility Account to Organization Settlement Account,979524 - ANCIENT WELLS PROPERTY MANAGERS 2,,
QAK5V1SWLH,20/01/2022 12:02,20/01/2022 12:02,Pay Bill from 254723954911 - JAMES KILAVI Acc. ICG,Completed,9500,,53500,TRUE,Pay Utility,254723954911 - JAMES KILAVI,,ICG
QAK1UYFHLT,20/01/2022 11:02,20/01/2022 11:02,Pay Bill from 0722531422 - ANTHONY ITIMU MAINA Acc. JBD,Completed,11000,,44000,TRUE,Pay Utility,0722531422 - ANTHONY ITIMU MAINA,,JBD
QAK9UVVU8J,20/01/2022 10:16,20/01/2022 10:16,Pay Bill Online from 254720451253 - JIMMY KIOGORA NKIROTE Acc. KBD,Completed,12000,,33000,TRUE,Pay Utility with OD Online,254720451253 - JIMMY KIOGORA NKIROTE,,KBD
QAK9ULZ3SR,20/01/2022 04:50,20/01/2022 04:50,Pay Bill Online from 254704403532 - Mercy Chepchirchir Mary Acc. JBC,Completed,5000,,21000,TRUE,Pay Utility with OD Online,254704403532 - Mercy Chepchirchir Mary,,JBC
QAJ5UJASGH,19/01/2022 22:29,19/01/2022 22:29,Pay Bill from 254703935626 - DAVID NGARI ITA Acc. FCD,Completed,1000,,16000,TRUE,Pay Utility with OD via STK,254703935626 - DAVID NGARI ITA,,FCD
QAJ8TYHX28,19/01/2022 17:51,19/01/2022 17:51,Pay Bill from 254725111246 - FRANCIS MUUTU MWANGANGI Acc. IGI,Completed,15000,,15000,TRUE,Pay Utility,254725111246 - FRANCIS MUUTU MWANGANGI,,IGI
QAJ5TFJIQN,19/01/2022 12:49,19/01/2022 12:49,Utility Account to Organization Settlement Account,Completed,,-300600,0,TRUE,Utility Account to Organization Settlement Account,979524 - ANCIENT WELLS PROPERTY MANAGERS 2,,
QAJ9SZ99Y9,19/01/2022 07:21,19/01/2022 07:21,Pay Bill from 254717747775 - QADRA SHEIKH ABDULLAHI Acc. jci,Completed,7000,,300600,TRUE,Pay Utility,254717747775 - QADRA SHEIKH ABDULLAHI,,jci
QAI1SVE0YJ,18/01/2022 22:49,18/01/2022 22:49,Pay Bill from 254710110273 - AGNES NTOITI Acc. JBB,Completed,9500,,293600,TRUE,Pay Utility,254710110273 - AGNES NTOITI,,JBB
QAI1SJM3PT,18/01/2022 19:31,18/01/2022 19:31,Pay Bill from 0722531422 - ANTHONY ITIMU MAINA Acc. JBD,Completed,5000,,284100,TRUE,Pay Utility,0722531422 - ANTHONY ITIMU MAINA,,JBD
QAI5SCULJF,18/01/2022 18:17,18/01/2022 18:17,Pay Bill from 0799586884 - Eric Mutethia Thiaine Acc. HEE,Completed,16000,,279100,TRUE,Pay Utility,0799586884 - Eric Mutethia Thiaine,,HEE
QAI7S2SV2L,18/01/2022 15:51,18/01/2022 15:51,Pay Bill from 0759217545 - Angela Syombua Lole Acc. HDE,Completed,10000,,263100,TRUE,Pay Utility,0759217545 - Angela Syombua Lole,,HDE
QAI0S0XEJG,18/01/2022 15:19,18/01/2022 15:19,Pay Bill from 254717726012 - WINFRED MUENI PETER Acc. IDA,Completed,16000,,253100,TRUE,Pay Utility,254717726012 - WINFRED MUENI PETER,,IDA
QAI7RP71RP,18/01/2022 11:56,18/01/2022 11:56,Pay Bill from 254704111133 - ELVIS OTIENO Acc. HFD,Completed,3300,,237100,TRUE,Pay Utility,254704111133 - ELVIS OTIENO,,HFD
QAI6RJ8GX8,18/01/2022 10:06,18/01/2022 10:06,Pay Bill from 254722458136 - NADI GOLICHA Acc. KAA,Completed,10000,,233800,TRUE,Pay Utility with OD via STK,254722458136 - NADI GOLICHA,,KAA
QAI2RIWV22,18/01/2022 10:00,18/01/2022 10:00,Pay Bill from 254704111133 - ELVIS OTIENO Acc. HFD,Completed,2300,,223800,TRUE,Pay Utility,254704111133 - ELVIS OTIENO,,HFD
QAH4R8P6TO,17/01/2022 23:12,17/01/2022 23:12,Pay Bill from 0748059595 - Rashid NASSIR Khamis Acc. DDA,Completed,4000,,221500,TRUE,Pay Utility,0748059595 - Rashid NASSIR Khamis,,DDA
QAH3R7YWJJ,17/01/2022 22:33,17/01/2022 22:33,Pay Bill Online from 254711721087 - MUTHIANI KYULE Acc. IDB ,Completed,15000,,217500,TRUE,Pay Bill Online,254711721087 - MUTHIANI KYULE,,IDB
QAH0R7Y0GQ,17/01/2022 22:33,17/01/2022 22:33,Pay Bill from 254704111133 - ELVIS OTIENO Acc. HFD,Completed,3000,,202500,TRUE,Pay Utility,254704111133 - ELVIS OTIENO,,HFD
QAH2R31DS0,17/01/2022 20:44,17/01/2022 20:44,Pay Bill from 254720249209 - WILFRED NJUGUNA WANJIRA Acc. DDD,Completed,20000,,199500,TRUE,Pay Utility,254720249209 - WILFRED NJUGUNA WANJIRA,,DDD
QAH7QYCTOH,17/01/2022 19:45,17/01/2022 19:45,Pay Bill from 254720278119 - LINDAH OGAWO Acc. KFE,Completed,8000,,179500,TRUE,Pay Utility with OD via STK,254720278119 - LINDAH OGAWO,,KFE
QAH3QVGG09,17/01/2022 19:14,17/01/2022 19:14,Pay Bill Online from 254726593769 - BONFACE BWINA Acc. DEB,Completed,6000,,171500,TRUE,Pay Utility with OD Online,254726593769 - BONFACE BWINA,,DEB
QAH8QTUE04,17/01/2022 18:57,17/01/2022 18:57,Pay Bill Online from 254718663397 - JIMMY MUNYAO NZIOKI Acc. DCB,Completed,33000,,165500,TRUE,Pay Bill Online,254718663397 - JIMMY MUNYAO NZIOKI,,DCB
QAH3QTBIDV,17/01/2022 18:51,17/01/2022 18:51,Pay Bill from 254701047939 - Cyrus Wahome Acc. JAH,Completed,16000,,132500,TRUE,Pay Utility,254701047939 - Cyrus Wahome,,JAH
QAH0QNPKUQ,17/01/2022 17:41,17/01/2022 17:41,Pay Bill from 254703555717 - SENGA SALIM Acc. hbb,Completed,3000,,116500,TRUE,Pay Utility,254703555717 - SENGA SALIM,,hbb
QAH2PO3YK6,17/01/2022 06:34,17/01/2022 06:34,Pay Bill from 0743248310 - PATRICK STURRIDGE NYONGESA Acc. daa,Completed,3000,,113500,TRUE,Pay Utility,0743248310 - PATRICK STURRIDGE NYONGESA,,daa
QAH2PN6TH2,17/01/2022 03:46,17/01/2022 03:46,Pay Bill Online from 254722258107 - JOHN ODIMA ODIMA Acc. KGF,Completed,10000,,110500,TRUE,Pay Bill Online,254722258107 - JOHN ODIMA ODIMA,,KGF
QAG6PLUPBO,16/01/2022 23:21,16/01/2022 23:21,Pay Bill from 254726116777 - MARY NDUTA GOSHO Acc. JDB ,Completed,15000,,100500,TRUE,Pay Utility with OD via STK,254726116777 - MARY NDUTA GOSHO,,JDB
QAG1PJARSH,16/01/2022 21:47,16/01/2022 21:47,Pay Bill from 254703935626 - DAVID NGARI ITA Acc. FCD,Completed,1000,,85500,TRUE,Pay Utility,254703935626 - DAVID NGARI ITA,,FCD
QAG8PDOLVE,16/01/2022 20:13,16/01/2022 20:13,Pay Bill from 254798674917 - Egbe Okpaga Okpaga Acc. HAD,Completed,9500,,84500,TRUE,Pay Utility,254798674917 - Egbe Okpaga Okpaga,,HAD
QAG2OUZNPK,16/01/2022 15:59,16/01/2022 15:59,Pay Bill from 254721355361 - DAVID WAMBUA MBITHI Acc. DEA,Completed,33000,,75000,TRUE,Pay Utility,254721355361 - DAVID WAMBUA MBITHI,,DEA
QAF8NI1FR4,15/01/2022 18:15,15/01/2022 18:15,Pay Bill Online from 254715764212 - BANCE ISHEMINYE Acc. JFE ,Completed,6000,,42000,TRUE,Pay Bill Online,254715764212 - BANCE ISHEMINYE,,JFE
QAF5NE9MHF,15/01/2022 17:29,15/01/2022 17:29,Pay Bill Online from 254790549449 - AHMED MOHAMED ABUKAR Acc. HBA,Completed,17000,,36000,TRUE,Pay Bill Online,254790549449 - AHMED MOHAMED ABUKAR,,HBA
QAF0N72J3Q,15/01/2022 15:43,15/01/2022 15:43,Pay Bill from 0740507437 - JOY KAARI KAMENCU Acc. FAC,Completed,9000,,19000,TRUE,Pay Utility,0740507437 - JOY KAARI KAMENCU,,FAC
QAF0N5SIFQ,15/01/2022 15:24,15/01/2022 15:24,Pay Bill from 0757686548 - IRENE NTHENYA MBIU Acc. JDG,Completed,10000,,10000,TRUE,Pay Utility,0757686548 - IRENE NTHENYA MBIU,,JDG
QAF0MSJG9Q,15/01/2022 11:57,15/01/2022 11:57,Utility Account to Organization Settlement Account,Completed,,-173000,0,TRUE,Utility Account to Organization Settlement Account,979524 - ANCIENT WELLS PROPERTY MANAGERS 2,,
QAF0MH0KAQ,15/01/2022 08:29,15/01/2022 08:29,Pay Bill from 254722910078 - MAUREEN MUNYIVA MUTUKU Acc. DBD,Completed,5000,,173000,TRUE,Pay Utility,254722910078 - MAUREEN MUNYIVA MUTUKU,,DBD
QAF5MGATDF,15/01/2022 08:13,15/01/2022 08:13,Pay Bill from 254729371750 - DERRICK OTANGA Acc. FEF,Completed,17000,,168000,TRUE,Pay Utility,254729371750 - DERRICK OTANGA,,FEF
QAE3MACYIH,14/01/2022 23:20,14/01/2022 23:20,Pay Bill from 254704111133 - ELVIS OTIENO Acc. HFD,Completed,1400,,151000,TRUE,Pay Utility,254704111133 - ELVIS OTIENO,,HFD
QAE3LZXYMX,14/01/2022 20:06,14/01/2022 20:06,Pay Bill from 254722458136 - NADI GOLICHA Acc. KAA,Completed,7000,,149600,TRUE,Pay Utility,254722458136 - NADI GOLICHA,,KAA
QAE7LMT8HP,14/01/2022 17:40,14/01/2022 17:40,Pay Bill from 254718672924 - LILIAN CHEBET NGENO Acc. KGD,Completed,10000,,142600,TRUE,Pay Utility,254718672924 - LILIAN CHEBET NGENO,,KGD
QAE6LFR3QY,14/01/2022 15:55,14/01/2022 15:55,Pay Bill from 254702190887 - Nax Ochieng Acc. FDE,Completed,15000,,132600,TRUE,Pay Utility,254702190887 - Nax Ochieng,,FDE
QAE6LE5HJK,14/01/2022 15:29,14/01/2022 15:29,Pay Bill from 254704111133 - ELVIS OTIENO Acc. HFD,Completed,2000,,117600,TRUE,Pay Utility,254704111133 - ELVIS OTIENO,,HFD
QAE1LCAL6B,14/01/2022 14:58,14/01/2022 14:58,Pay Bill from 254115949784 - JOHN MAITHA MULWA Acc. IBH,Completed,25000,,115600,TRUE,Pay Utility,254115949784 - JOHN MAITHA MULWA,,IBH
QAE2L72RA0,14/01/2022 13:32,14/01/2022 13:32,Pay Bill from 254719779657 - SAMUEL NJOROGE Acc. JGA,Completed,10000,,90600,TRUE,Pay Utility,254719779657 - SAMUEL NJOROGE,,JGA
QAE0L0L4UE,14/01/2022 11:40,14/01/2022 11:40,Pay Bill from 254714814264 - PATRICIA NZOMO Acc. Hbg,Completed,16000,,80600,TRUE,Pay Utility,254714814264 - PATRICIA NZOMO,,Hbg
QAE6KTADO0,14/01/2022 09:29,14/01/2022 09:29,Pay Bill Online from 254706549634 - CLINTON OMBASA Acc. FDB,Completed,6000,,64600,TRUE,Pay Utility with OD Online,254706549634 - CLINTON OMBASA,,FDB
QAE3KR5L69,14/01/2022 08:47,14/01/2022 08:47,Pay Bill from 254799287000 - Godfrey odhiambo oyugi Acc. kae,Completed,3000,,58600,TRUE,Pay Utility,254799287000 - Godfrey odhiambo oyugi,,kae
QAD4KJP65E,13/01/2022 22:52,13/01/2022 22:52,Pay Bill Online from 254724590178 - Silvanus Ongiri Acc. HAE,Completed,10000,,55600,TRUE,Pay Bill Online,254724590178 - Silvanus Ongiri,,HAE
QAD6KJ1ROK,13/01/2022 22:29,13/01/2022 22:29,Pay Bill from 254704111133 - ELVIS OTIENO Acc. HFD,Completed,4000,,45600,TRUE,Pay Utility,254704111133 - ELVIS OTIENO,,HFD
QAD9KGUN2X,13/01/2022 21:38,13/01/2022 21:38,Pay Bill from 254726928933 - JOSHUA NDUNDA NZIOKA Acc. KCJ,Completed,10000,,41600,TRUE,Pay Utility with OD via STK,254726928933 - JOSHUA NDUNDA NZIOKA,,KCJ
QAD6K35ISC,13/01/2022 18:51,13/01/2022 18:51,Pay Bill Online from 254799214498 - EMMILY LWAMBA Acc. KCF ,Completed,4100,,31600,TRUE,Pay Bill Online,254799214498 - EMMILY LWAMBA,,KCF
QAD4K10KGW,13/01/2022 18:25,13/01/2022 18:25,Pay Bill Online from 0700206427 - Clare Nabalisa Mukasa Acc. HFA,Completed,16000,,27500,TRUE,Pay Bill Online,0700206427 - Clare Nabalisa Mukasa,,HFA
QAD6JDPGTO,13/01/2022 12:02,13/01/2022 12:02,Pay Bill Online from 254714710698 - TABITHA MULEE KYALO Acc. IFD,Completed,11500,,11500,TRUE,Pay Bill Online,254714710698 - TABITHA MULEE KYALO,,IFD
QAD9J3Q65Z,13/01/2022 08:59,13/01/2022 08:59,Utility Account to Organization Settlement Account,Completed,,-340500,0,TRUE,Utility Account to Organization Settlement Account,979524 - ANCIENT WELLS PROPERTY MANAGERS 2,,
QAD2J3AHOE,13/01/2022 08:49,13/01/2022 08:49,Pay Bill from 254717909848 - MARY MBULA KATHUKU Acc. FGD,Completed,9000,,340500,TRUE,Pay Utility with OD via STK,254717909848 - MARY MBULA KATHUKU,,FGD
QAC6IWKJ9I,12/01/2022 23:42,12/01/2022 23:42,Pay Bill Online from 0114735826 - PETER POCHI MAKACHA Acc. 1ac,Completed,8000,,331500,TRUE,Pay Bill Online,0114735826 - PETER POCHI MAKACHA,,1ac
QAC7IVCLJV,12/01/2022 22:37,12/01/2022 22:37,Pay Bill from 254704111133 - ELVIS OTIENO Acc. HFD,Completed,4000,,323500,TRUE,Pay Utility,254704111133 - ELVIS OTIENO,,HFD
QAC5IO8VC7,12/01/2022 20:26,12/01/2022 20:26,Pay Bill from 254724655033 - SUSAN CHIMOTO Acc. KGH,Completed,9500,,319500,TRUE,Pay Utility,254724655033 - SUSAN CHIMOTO,,KGH
QAC0IDZI1K,12/01/2022 18:34,12/01/2022 18:34,Pay Bill from 0757259130 - RASHID SUDI MCHOMBO Acc. JAF,Completed,8000,,310000,TRUE,Pay Utility,0757259130 - RASHID SUDI MCHOMBO,,JAF
QAC6IB3UXQ,12/01/2022 17:57,12/01/2022 17:57,Pay Bill from 0759217545 - Angela Syombua Lole Acc. HDE,Completed,10000,,302000,TRUE,Pay Utility,0759217545 - Angela Syombua Lole,,HDE
QAC9I6OJMZ,12/01/2022 16:52,12/01/2022 16:52,Pay Bill from 254720496449 - STANLEY KIPKOECH RONO Acc. FBE,Completed,16000,,292000,TRUE,Pay Utility,254720496449 - STANLEY KIPKOECH RONO,,FBE
QAC5HR8AKX,12/01/2022 12:23,12/01/2022 12:23,Pay Bill Online from 254722921132 - JOE MCCRAY MURIUKI KIHIA Acc. IFA,Completed,15000,,276000,TRUE,Pay Utility with OD Online,254722921132 - JOE MCCRAY MURIUKI KIHIA,,IFA
QAC1HR2W6H,12/01/2022 12:20,12/01/2022 12:20,Pay Bill from 254703555717 - SENGA SALIM Acc. hbb,Completed,2000,,261000,TRUE,Pay Utility,254703555717 - SENGA SALIM,,hbb
QAC7HQE1NV,12/01/2022 12:08,12/01/2022 12:08,Pay Bill from 254798844460 - WYCLIFFE ODHIAMBO NYAGOA Acc. KAC,Completed,10000,,259000,TRUE,Pay Utility,254798844460 - WYCLIFFE ODHIAMBO NYAGOA,,KAC
QAC0HMJJ4Y,12/01/2022 10:58,12/01/2022 10:58,Pay Bill Online from 254705846408 - JAMES OUMA Acc. HBH,Completed,16000,,249000,TRUE,Pay Bill Online,254705846408 - JAMES OUMA,,HBH
QAC2HKTB6Y,12/01/2022 10:27,12/01/2022 10:27,Pay Bill from 254710106394 - LUCY TONKEI Acc. KBG,Completed,9000,,233000,TRUE,Pay Utility with OD via STK,254710106394 - LUCY TONKEI,,KBG
QAC2HIPZ6Q,12/01/2022 09:48,12/01/2022 09:48,Pay Bill from 0758591833 - DORCUS MBULA PETER Acc. HDD,Completed,9000,,224000,TRUE,Pay Utility,0758591833 - DORCUS MBULA PETER,,HDD
QAC2HDSTT6,12/01/2022 08:08,12/01/2022 08:08,Pay Bill from 254722889574 - ALLAN MWANGI Acc. jcg,Completed,10000,,215000,TRUE,Pay Utility,254722889574 - ALLAN MWANGI,,jcg
QAB9GQI5HH,11/01/2022 18:26,11/01/2022 18:26,Pay Bill from 254799036148 - HYCENT BOREH Acc. HAC,Completed,3000,,205000,TRUE,Pay Utility,254799036148 - HYCENT BOREH,,HAC
QAB8G5PM8M,11/01/2022 12:45,11/01/2022 12:45,Pay Bill from 254718549308 - EDWIN KORIR Acc. KDC,Completed,21000,,202000,TRUE,Pay Utility,254718549308 - EDWIN KORIR,,KDC
QAB1G0MMG5,11/01/2022 11:15,11/01/2022 11:15,Pay Bill from 254796069018 - PEACE KIMEU Acc. HDG,Completed,31000,,181000,TRUE,Pay Utility,254796069018 - PEACE KIMEU,,HDG
QAB5G0LU8P,11/01/2022 11:15,11/01/2022 11:15,Pay Bill from 254743243622 - fridah waeni muithya Acc. JEH,Completed,33000,,150000,TRUE,Pay Utility,254743243622 - fridah waeni muithya,,JEH
QAB5G0IMZJ,11/01/2022 11:13,11/01/2022 11:13,Pay Bill from 0727767977 - Amos Kipkemboi Kiplagat Acc. IBI,Completed,9000,,117000,TRUE,Pay Utility,0727767977 - Amos Kipkemboi Kiplagat,,IBI
QAB9FX6YHJ,11/01/2022 10:15,11/01/2022 10:15,Pay Bill from 0746934144 - Rosemary Wangui Muiruri Acc. ICD,Completed,11000,,108000,TRUE,Pay Utility,0746934144 - Rosemary Wangui Muiruri,,ICD
QAB6FVX9IU,11/01/2022 09:51,11/01/2022 09:51,Pay Bill from 0740123933 - MAVIN AYOO OMONDI Acc. IGE,Completed,8000,,97000,TRUE,Pay Utility,0740123933 - MAVIN AYOO OMONDI,,IGE
QAB1FUY4P3,11/01/2022 09:33,11/01/2022 09:33,Pay Bill from 254723259734 - SALOME NJERI NGURE Acc. KCD,Completed,4000,,89000,TRUE,Pay Utility,254723259734 - SALOME NJERI NGURE,,KCD
QAB5FU066N,11/01/2022 09:15,11/01/2022 09:15,Pay Bill from 0715688238 - JOANNAH ATUHAIRE BANTU Acc. JAE,Completed,9000,,85000,TRUE,Pay Utility,0715688238 - JOANNAH ATUHAIRE BANTU,,JAE
QAB1FT3JRD,11/01/2022 08:57,11/01/2022 08:57,Pay Bill from 254716958353 - EVERYNE MURUMWA BUTICHI Acc. JBH,Completed,16000,,76000,TRUE,Pay Utility,254716958353 - EVERYNE MURUMWA BUTICHI,,JBH
QAA6FF6YM4,10/01/2022 20:45,10/01/2022 20:45,Pay Bill from 0790631952 - Guyo Boru Guyo Acc. Dbc,Completed,20000,,60000,TRUE,Pay Utility with OD via STK,0790631952 - Guyo Boru Guyo,,Dbc
QAA0F9CF2M,10/01/2022 19:37,10/01/2022 19:37,Pay Bill Online from 254718772336 - DAVID SERUGO Acc. DCD,Completed,20000,,40000,TRUE,Pay Bill Online,254718772336 - DAVID SERUGO,,DCD
QAA2ESPL40,10/01/2022 16:05,10/01/2022 16:05,Pay Bill from 254729713741 - ALBANUS MUTISO Acc. DDC,Completed,20000,,20000,TRUE,Pay Utility with OD via STK,254729713741 - ALBANUS MUTISO,,DDC
QAA6EO6RZU,10/01/2022 14:52,10/01/2022 14:52,Utility Account to Organization Settlement Account,Completed,,-652400,0,TRUE,Utility Account to Organization Settlement Account,979524 - ANCIENT WELLS PROPERTY MANAGERS 2,,
QAA7ELW7UN,10/01/2022 14:14,10/01/2022 14:14,Pay Bill Online from 254715764212 - BANCE ISHEMINYE Acc. JFE ,Completed,4000,,652400,TRUE,Pay Bill Online,254715764212 - BANCE ISHEMINYE,,JFE
QAA8ELID34,10/01/2022 14:08,10/01/2022 14:08,Pay Bill from 254724952183 - MICHAEL WAMBUA MWOVE Acc. FEA,Completed,16000,,648400,TRUE,Pay Utility,254724952183 - MICHAEL WAMBUA MWOVE,,FEA
QAA9EI8RO3,10/01/2022 13:14,10/01/2022 13:14,Pay Bill from 254714322848 - Melance Nkurunziza Acc. JEG,Completed,4000,,632400,TRUE,Pay Utility,254714322848 - Melance Nkurunziza,,JEG
QAA8EI80US,10/01/2022 13:14,10/01/2022 13:14,Pay Bill from 254722136450 - MARY EVERLYN Acc. JAI,Completed,15000,,628400,TRUE,Pay Utility with OD via STK,254722136450 - MARY EVERLYN,,JAI
QAA1EHFLNV,10/01/2022 13:00,10/01/2022 13:00,Pay Bill from 254701196539 - GICHURI KARANJA Acc. 979524,Completed,16000,,613400,TRUE,Pay Utility,254701196539 - GICHURI KARANJA,,979524
QAA1EE5WNX,10/01/2022 12:05,10/01/2022 12:05,Pay Bill from 0113558990 - jesca atieno okoth Acc. kcg,Completed,13000,,597400,TRUE,Pay Utility,0113558990 - jesca atieno okoth,,kcg
QAA3EC0O9T,10/01/2022 11:28,10/01/2022 11:28,Pay Bill Online from 254723930071 - AMOS KITAVI KIVITE Acc. JCE,Completed,9000,,584400,TRUE,Pay Bill Online,254723930071 - AMOS KITAVI KIVITE,,JCE
QAA8E9M4UE,10/01/2022 10:47,10/01/2022 10:47,Pay Bill from 254707715639 - Annastacia Kimeu Acc. JFC,Completed,10000,,575400,TRUE,Pay Utility,254707715639 - Annastacia Kimeu,,JFC
QAA2E6QEIE,10/01/2022 09:57,10/01/2022 09:57,Pay Bill Online from 0740422187 - KEVIN MAKATO KUNGA Acc. KEG,Completed,10000,,565400,TRUE,Pay Utility with OD Online,0740422187 - KEVIN MAKATO KUNGA,,KEG
QAA5E6FANR,10/01/2022 09:52,10/01/2022 09:52,Pay Bill Online from 254723370004 - LABAN MAINGI WAMBUA Acc. JEF,Completed,8000,,555400,TRUE,Pay Bill Online,254723370004 - LABAN MAINGI WAMBUA,,JEF
QAA9E2MPLZ,10/01/2022 08:41,10/01/2022 08:41,Pay Bill from 254715208293 - METHOD AMOLO Acc. Kiosk,Completed,3000,,547400,TRUE,Pay Utility,254715208293 - METHOD AMOLO,,Kiosk
QA96D8P81Q,09/01/2022 17:09,09/01/2022 17:09,Pay Bill from 0758741326 - ABDULLAHI ISACK BANTE Acc. KBF,Completed,10000,,544400,TRUE,Pay Utility,0758741326 - ABDULLAHI ISACK BANTE,,KBF
QA91D8IYK3,09/01/2022 17:07,09/01/2022 17:06,Pay Bill from 254799036148 - HYCENT BOREH Acc. HAC,Completed,11000,,534400,TRUE,Pay Utility with OD via STK,254799036148 - HYCENT BOREH,,HAC
QA97CH8J9H,09/01/2022 08:25,09/01/2022 08:25,Pay Bill from 0746078348 - GERALD ODHIAMBO OWIYO Acc. KDC,Completed,11000,,523400,TRUE,Pay Utility,0746078348 - GERALD ODHIAMBO OWIYO,,KDC
QA86C353IU,08/01/2022 20:22,08/01/2022 20:22,Pay Bill from 254726039536 - MERCY MESHACK Acc. FDC,Completed,9000,,512400,TRUE,Pay Utility,254726039536 - MERCY MESHACK,,FDC
QA82C2HYIY,08/01/2022 20:15,08/01/2022 20:15,Pay Bill from 254728238249 - ESTHER WANGUI KIBUNYI Acc. ICA,Completed,17000,,503400,TRUE,Pay Utility,254728238249 - ESTHER WANGUI KIBUNYI,,ICA
QA89BN9CCH,08/01/2022 17:15,08/01/2022 17:15,Pay Bill from 254726337163 - HALIMA ALI HASSAN Acc. DDA,Completed,8000,,486400,TRUE,Pay Utility,254726337163 - HALIMA ALI HASSAN,,DDA
QA84B2E2E6,08/01/2022 11:35,08/01/2022 11:35,Pay Bill Online from 254797601911 - JORAM MASAI KILONZO Acc. KTE,Completed,9500,,478400,TRUE,Pay Bill Online,254797601911 - JORAM MASAI KILONZO,,KTE
QA88AUKCWE,08/01/2022 09:14,08/01/2022 09:14,Pay Bill from 254724891554 - BETH MUIRURI Acc. H F B,Completed,15000,,468900,TRUE,Pay Utility,254724891554 - BETH MUIRURI,,H
QA82AS9AQE,08/01/2022 08:26,08/01/2022 08:26,Pay Bill Online from 254797160610 - JAMES MWANIKI Acc. JBI,Completed,20000,,453900,TRUE,Pay Bill Online,254797160610 - JAMES MWANIKI,,JBI
QA85ARWIWL,08/01/2022 08:17,08/01/2022 08:17,Pay Bill Online from 254718009051 - STEPHEN OMOLLO Acc. JDF,Completed,8000,,433900,TRUE,Pay Bill Online,254718009051 - STEPHEN OMOLLO,,JDF
QA83AOY3NT,08/01/2022 06:37,08/01/2022 06:37,Pay Bill from 254708499439 - ROSE NDEDE Acc. HGF,Completed,9000,,425900,TRUE,Pay Utility with OD via STK,254708499439 - ROSE NDEDE,,HGF
QA72AJT36K,07/01/2022 21:53,07/01/2022 21:53,Pay Bill Online from 254729112434 - CHARITY MUTHONI MUIRURI Acc. JCD,Completed,15000,,416900,TRUE,Pay Bill Online,254729112434 - CHARITY MUTHONI MUIRURI,,JCD
QA79AJQXJH,07/01/2022 21:52,07/01/2022 21:52,Pay Bill from 254740579741 - MUHINDI MULINYA Acc. HGG,Completed,10000,,401900,TRUE,Pay Utility,254740579741 - MUHINDI MULINYA,,HGG
QA719ZOGOX,07/01/2022 17:36,07/01/2022 17:36,Pay Bill Online from 254710146965 - BRENDA DORCAS MABONGA Acc. HFG,Completed,15000,,391900,TRUE,Pay Bill Online,254710146965 - BRENDA DORCAS MABONGA,,HFG
QA759Q6MR5,07/01/2022 15:06,07/01/2022 15:06,Pay Bill from 0795068880 - Patrick   Kiplagat Acc. KAG,Completed,10300,,376900,TRUE,Pay Utility,0795068880 - Patrick   Kiplagat,,KAG
QA769OO0MW,07/01/2022 14:40,07/01/2022 14:40,Pay Bill from 254703555717 - SENGA SALIM Acc. hbb,Completed,5000,,366600,TRUE,Pay Utility,254703555717 - SENGA SALIM,,hbb
QA719MU0FP,07/01/2022 14:09,07/01/2022 14:09,Pay Bill from 0769118645 - kennedy kipkurui korir Acc. IGC,Completed,9000,,361600,TRUE,Pay Utility,0769118645 - kennedy kipkurui korir,,IGC
QA779MLMSP,07/01/2022 14:05,07/01/2022 14:05,Pay Bill from 254722910078 - MAUREEN MUNYIVA MUTUKU Acc. DBD,Completed,10000,,352600,TRUE,Pay Utility,254722910078 - MAUREEN MUNYIVA MUTUKU,,DBD
QA729MA3D0,07/01/2022 14:00,07/01/2022 14:00,Pay Bill Online from 254790627132 - Everline Mutave Kiio Acc. IGG,Completed,8000,,342600,TRUE,Pay Utility with OD Online,254790627132 - Everline Mutave Kiio,,IGG
QA729EJQEA,07/01/2022 11:46,07/01/2022 11:46,Pay Bill from 254720868281 - KENNEDY MWELU Acc. KBI,Completed,12500,,334600,TRUE,Pay Utility with OD via STK,254720868281 - KENNEDY MWELU,,KBI
QA789B76LO,07/01/2022 10:47,07/01/2022 10:47,Pay Bill from 254716581384 - GREGORY KILUNGYA Acc. DAD,Completed,20000,,322100,TRUE,Pay Utility,254716581384 - GREGORY KILUNGYA,,DAD
QA7798JAO7,07/01/2022 09:59,07/01/2022 09:59,Pay Bill from 254720814822 - JAMES OTIENO OPAR Acc. Jgj,Completed,1000,,302100,TRUE,Pay Utility with OD via STK,254720814822 - JAMES OTIENO OPAR,,Jgj
QA7294K5RC,07/01/2022 08:42,07/01/2022 08:42,Pay Bill from 0711769778 - PROTASIA BONIPHACE MANOSA Acc. IBB,Completed,15000,,301100,TRUE,Pay Utility,0711769778 - PROTASIA BONIPHACE MANOSA,,IBB
QA7890YRIA,07/01/2022 07:09,07/01/2022 07:09,Pay Bill from 254701006375 - EZRA MAKORI SERETI Acc. HTA,Completed,10000,,286100,TRUE,Pay Utility,254701006375 - EZRA MAKORI SERETI,,HTA
QA7890Q896,07/01/2022 07:00,07/01/2022 07:00,Pay Bill Online from 254723747228 - MORARA ASANYO Acc. P00L,Completed,22600,,276100,TRUE,Pay Bill Online,254723747228 - MORARA ASANYO,,P00L
QA638VGY9F,06/01/2022 21:52,06/01/2022 21:52,Pay Bill Online from 254713966424 - NDUTI MUTHUI Acc. JED,Completed,15000,,253500,TRUE,Pay Bill Online,254713966424 - NDUTI MUTHUI,,JED
QA688VCUOI,06/01/2022 21:50,06/01/2022 21:50,Pay Bill from 254703935626 - DAVID NGARI ITA Acc. FCD,Completed,1000,,238500,TRUE,Pay Utility,254703935626 - DAVID NGARI ITA,,FCD
QA648SMYQG,06/01/2022 21:00,06/01/2022 21:00,Pay Bill from 254799371069 - ALPHONCE OCHIENG WAREGA Acc. IEE,Completed,8500,,237500,TRUE,Pay Utility,254799371069 - ALPHONCE OCHIENG WAREGA,,IEE
QA688SIA1S,06/01/2022 20:58,06/01/2022 20:58,Pay Bill from 254729590734 - PATRICK NDUNGA Acc. IDD,Completed,10000,,229000,TRUE,Pay Utility,254729590734 - PATRICK NDUNGA,,IDD
QA678QERSJ,06/01/2022 20:29,06/01/2022 20:29,Pay Bill from 254719779657 - SAMUEL NJOROGE Acc. JGA,Completed,10000,,219000,TRUE,Pay Utility,254719779657 - SAMUEL NJOROGE,,JGA
QA648PFSZ8,06/01/2022 20:16,06/01/2022 20:16,Pay Bill from 254726687555 - ELIUD MUTHURE MICHENI Acc. KAI,Completed,12000,,209000,TRUE,Pay Utility,254726687555 - ELIUD MUTHURE MICHENI,,KAI
QA658NYQSL,06/01/2022 19:59,06/01/2022 19:59,Pay Bill Online from 254726636196 - BETHUEL KEMBOI KURUI Acc. JFD,Completed,15000,,197000,TRUE,Pay Utility with OD Online,254726636196 - BETHUEL KEMBOI KURUI,,JFD
QA648JIJUA,06/01/2022 19:12,06/01/2022 19:12,Pay Bill Online from 254715892656 - DENNIS MUSYOKA MUOKI Acc. KFA,Completed,16000,,182000,TRUE,Pay Bill Online,254715892656 - DENNIS MUSYOKA MUOKI,,KFA
QA608G9HBE,06/01/2022 18:36,06/01/2022 18:36,Pay Bill from 254796848496 - IVY WITABA Acc. JBA,Completed,10000,,166000,TRUE,Pay Utility,254796848496 - IVY WITABA,,JBA
QA6688KB4A,06/01/2022 16:51,06/01/2022 16:51,Pay Bill Online from 254710814215 - JOAN NYAMBURA KAMAU Acc. ifb,Completed,15000,,156000,TRUE,Pay Bill Online,254710814215 - JOAN NYAMBURA KAMAU,,ifb
QA6887RDOE,06/01/2022 16:38,06/01/2022 16:38,Pay Bill from 0791158325 - WHELDON MARK MASONGO GORI Acc. HBD,Completed,10000,,141000,TRUE,Pay Utility,0791158325 - WHELDON MARK MASONGO GORI,,HBD
QA6687O2OQ,06/01/2022 16:37,06/01/2022 16:37,Pay Bill Online from 254710732381 - JANE ACHIENG MBEKE Acc. HAF,Completed,10000,,131000,TRUE,Pay Bill Online,254710732381 - JANE ACHIENG MBEKE,,HAF
QA6987KQUN,06/01/2022 16:35,06/01/2022 16:35,Pay Bill from 254729160700 - MICAH NDUNGI Acc. HFE,Completed,10500,,121000,TRUE,Pay Utility,254729160700 - MICAH NDUNGI,,HFE
QA6487I01K,06/01/2022 16:34,06/01/2022 16:34,Pay Bill Online from 254720044312 - ELIUD KIPKURUI Acc. FCF,Completed,8000,,110500,TRUE,Pay Utility with OD Online,254720044312 - ELIUD KIPKURUI,,FCF
QA6087D20A,06/01/2022 16:32,06/01/2022 16:32,Pay Bill Online from 254715002789 - ERICK NGUGI MAINA Acc. HAG,Completed,16000,,102500,TRUE,Pay Bill Online,254715002789 - ERICK NGUGI MAINA,,HAG
QA65877YNV,06/01/2022 16:30,06/01/2022 16:30,Pay Bill from 254799287000 - Godfrey odhiambo oyugi Acc. kae,Completed,7000,,86500,TRUE,Pay Utility with OD via STK,254799287000 - Godfrey odhiambo oyugi,,kae
QA628746QG,06/01/2022 16:28,06/01/2022 16:28,Pay Bill from 254706158280 - patience mutheu mbevi Acc. KFC,Completed,10000,,79500,TRUE,Pay Utility with OD via STK,254706158280 - patience mutheu mbevi,,KFC
QA6786VBKV,06/01/2022 16:24,06/01/2022 16:24,Pay Bill from 254713205244 - ROBERT OGALO Acc. KBH,Completed,10000,,69500,TRUE,Pay Utility,254713205244 - ROBERT OGALO,,KBH
QA6385TFN3,06/01/2022 16:07,06/01/2022 16:07,Pay Bill from 0115054975 - faith syovata joseph Acc. IBC,Completed,9500,,59500,TRUE,Pay Utility,0115054975 - faith syovata joseph,,IBC
QA6782S7JD,06/01/2022 15:15,06/01/2022 15:15,Pay Bill from 254713281251 - ERIC KIAMA Acc. JDI,Completed,20000,,50000,TRUE,Pay Utility,254713281251 - ERIC KIAMA,,JDI
QA697QXZZ3,06/01/2022 11:52,06/01/2022 11:52,Pay Bill from 254707244987 - CALVINCE OCHIENG ODHIAMBO Acc. JEE,Completed,10000,,30000,TRUE,Pay Utility,254707244987 - CALVINCE OCHIENG ODHIAMBO,,JEE
QA617O2F6R,06/01/2022 11:02,06/01/2022 11:02,Pay Bill from 254712954563 - JOSEPH MUTISO KILONZO Acc. DAC,Completed,20000,,20000,TRUE,Pay Utility,254712954563 - JOSEPH MUTISO KILONZO,,DAC
QA607JSIVM,06/01/2022 09:45,06/01/2022 09:45,Utility Account to Organization Settlement Account,Completed,,-740600,0,TRUE,Utility Account to Organization Settlement Account,979524 - ANCIENT WELLS PROPERTY MANAGERS 2,,
QA647G1B40,06/01/2022 08:30,06/01/2022 08:30,Pay Bill from 254703453863 - EMILY MUNANIE MALUKI Acc. KEC,Completed,10000,,740600,TRUE,Pay Utility,254703453863 - EMILY MUNANIE MALUKI,,KEC
QA5979ZBBL,05/01/2022 23:14,05/01/2022 23:14,Pay Bill from 0706563358 - HARRIET NYANCHAMA NYABERI Acc. FCC,Completed,9000,,730600,TRUE,Pay Utility,0706563358 - HARRIET NYANCHAMA NYABERI,,FCC
QA5279ILZC,05/01/2022 22:51,05/01/2022 22:51,Pay Bill from 0790060038 - HILARY       ONYANGO Acc. IEF,Completed,11000,,721600,TRUE,Pay Utility with OD via STK,0790060038 - HILARY       ONYANGO,,IEF
QA5278GVCI,05/01/2022 22:16,05/01/2022 22:16,Pay Bill from 254795023150 - FAITH MORAA SITEMBA Acc. IFC,Completed,8000,,710600,TRUE,Pay Utility,254795023150 - FAITH MORAA SITEMBA,,IFC
QA5676319K,05/01/2022 21:24,05/01/2022 21:24,Pay Bill Online from 254714563486 - BRIAN MMATA MUSERA Acc. KBJ,Completed,16000,,702600,TRUE,Pay Bill Online,254714563486 - BRIAN MMATA MUSERA,,KBJ
QA5475CXRA,05/01/2022 21:11,05/01/2022 21:11,Pay Bill from 254721115404 - Justine Fayuma Okwemba Acc. HAA,Completed,17000,,686600,TRUE,Pay Utility,254721115404 - Justine Fayuma Okwemba,,HAA
QA5473Z2S4,05/01/2022 20:50,05/01/2022 20:50,Pay Bill from 254710239100 - PHILOMENA WOKI MUTHAMA Acc. KDK,Completed,17000,,669600,TRUE,Pay Utility,254710239100 - PHILOMENA WOKI MUTHAMA,,KDK
QA5073VJYQ,05/01/2022 20:49,05/01/2022 20:49,Pay Bill from 0722925798 - ifrah abukar adan Acc. IEI,Completed,15000,,652600,TRUE,Pay Utility,0722925798 - ifrah abukar adan,,IEI
QA5371PM6R,05/01/2022 20:20,05/01/2022 20:20,Pay Bill from 254723328258 - SAMUEL MAINA MURIUKI Acc. IFE,Completed,8000,,637600,TRUE,Pay Utility,254723328258 - SAMUEL MAINA MURIUKI,,IFE
QA5071NKWW,05/01/2022 20:19,05/01/2022 20:19,Pay Bill from 0701309665 - jackline mwende kiio Acc. HBE,Completed,10500,,629600,TRUE,Pay Utility,0701309665 - jackline mwende kiio,,HBE
QA5270Q2AW,05/01/2022 20:08,05/01/2022 20:08,Pay Bill from 254720375006 - JACOB KANGOGO Acc. IBA,Completed,15000,,619100,TRUE,Pay Utility with OD via STK,254720375006 - JACOB KANGOGO,,IBA
QA576ZL70X,05/01/2022 19:55,05/01/2022 19:55,Pay Bill Online from 254714250131 - NELSON ODHONG OMBUYA Acc. DCC,Completed,20000,,604100,TRUE,Pay Bill Online,254714250131 - NELSON ODHONG OMBUYA,,DCC
QA596ZKVEN,05/01/2022 19:55,05/01/2022 19:55,Pay Bill from 254720802644 - MESHACK MAXWELL GANDA Acc. HAB,Completed,15000,,584100,TRUE,Pay Utility,254720802644 - MESHACK MAXWELL GANDA,,HAB
QA516Z0HFX,05/01/2022 19:49,05/01/2022 19:49,Pay Bill from 254712461449 - CAROLINE MUTHONI GICHOHI Acc. fca,Completed,16000,,569100,TRUE,Pay Utility,254712461449 - CAROLINE MUTHONI GICHOHI,,fca
QA516YZM77,05/01/2022 19:48,05/01/2022 19:48,Pay Bill from 254721315975 - JOSEPH NDEGWA Acc. HE B,Completed,16000,,553100,TRUE,Pay Utility,254721315975 - JOSEPH NDEGWA,,HE
QA516W77BN,05/01/2022 19:20,05/01/2022 19:20,Pay Bill from 254701112397 - ELEMA GODANA DIBA Acc. IAD,Completed,10000,,537100,TRUE,Pay Utility,254701112397 - ELEMA GODANA DIBA,,IAD
QA536U2CFD,05/01/2022 18:58,05/01/2022 18:58,Pay Bill from 254720814822 - JAMES OTIENO OPAR Acc. Jgj,Completed,1000,,527100,TRUE,Pay Utility,254720814822 - JAMES OTIENO OPAR,,Jgj
QA576S1PVL,05/01/2022 18:34,05/01/2022 18:34,Pay Bill from 254722569870 - LUKA KEITANY Acc. jfj,Completed,15000,,526100,TRUE,Pay Utility,254722569870 - LUKA KEITANY,,jfj
QA566OU5IS,05/01/2022 17:53,05/01/2022 17:53,Pay Bill from 254722521028 - CHARLES MONYONCHO Acc. ICB,Completed,17000,,511100,TRUE,Pay Utility,254722521028 - CHARLES MONYONCHO,,ICB
QA576L75IZ,05/01/2022 17:03,05/01/2022 17:03,Pay Bill from 0715273095 - Stacy Aketch Ochuka Acc. KGK,Completed,15000,,494100,TRUE,Pay Utility,0715273095 - Stacy Aketch Ochuka,,KGK
QA526IYRWK,05/01/2022 16:29,05/01/2022 16:29,Pay Bill from 0746622973 - SPOTT   THILO Acc. 1gd,Completed,10000,,479100,TRUE,Pay Utility,0746622973 - SPOTT   THILO,,1gd
QA506FWMQE,05/01/2022 15:39,05/01/2022 15:39,Pay Bill from 254726028330 - JOHN WAMBUA Acc. IFH,Completed,15000,,469100,TRUE,Pay Utility,254726028330 - JOHN WAMBUA,,IFH
QA596EA7IT,05/01/2022 15:12,05/01/2022 15:12,Pay Bill from 254728084427 - MARY NABWIRE OKELLO Acc. FDF,Completed,16000,,454100,TRUE,Pay Utility,254728084427 - MARY NABWIRE OKELLO,,FDF
QA586E0SSM,05/01/2022 15:07,05/01/2022 15:07,Pay Bill from 254728670882 - SHARAD EDWARD ADALA OLUM Acc. KCK,Completed,15000,,438100,TRUE,Pay Utility,254728670882 - SHARAD EDWARD ADALA OLUM,,KCK
QA556BD5FF,05/01/2022 14:23,05/01/2022 14:23,Pay Bill from 254728042989 - PATRICK OMONDI Acc. IFI,Completed,15000,,423100,TRUE,Pay Utility with OD via STK,254728042989 - PATRICK OMONDI,,IFI
QA5669488G,05/01/2022 13:46,05/01/2022 13:46,Pay Bill Online from 254714536026 - LILIAN AWUOR ONYANGO Acc. HDC,Completed,10500,,408100,TRUE,Pay Bill Online,254714536026 - LILIAN AWUOR ONYANGO,,HDC
QA5367TPPL,05/01/2022 13:25,05/01/2022 13:25,Pay Bill from 254718233980 - KAREN ASWANI Acc. HEC,Completed,10500,,397600,TRUE,Pay Utility,254718233980 - KAREN ASWANI,,HEC
QA5466TD5A,05/01/2022 13:08,05/01/2022 13:08,Pay Bill from 254724821898 - ALLAN GISONI NYANGARESI Acc. DBA,Completed,16000,,387100,TRUE,Pay Utility,254724821898 - ALLAN GISONI NYANGARESI,,DBA
QA5065QV8E,05/01/2022 12:50,05/01/2022 12:50,Pay Bill Online from 254792187144 - HASSAN AHMED HASSAN Acc. KGI,Completed,10000,,371100,TRUE,Pay Bill Online,254792187144 - HASSAN AHMED HASSAN,,KGI
QA5162XXY3,05/01/2022 12:03,05/01/2022 12:03,Pay Bill from 0700851010 - Njenga    Kuria Acc. kCA,Completed,33000,,361100,TRUE,Pay Utility,0700851010 - Njenga    Kuria,,kCA
QA54612IK2,05/01/2022 11:31,05/01/2022 11:31,Pay Bill Online from 254722854426 - OLIVE WANJIKU MACHAMBA Acc. JBG,Completed,10000,,328100,TRUE,Pay Bill Online,254722854426 - OLIVE WANJIKU MACHAMBA,,JBG
QA5860NR7U,05/01/2022 11:24,05/01/2022 11:24,Pay Bill from 254720814822 - JAMES OTIENO OPAR Acc. Jgj,Completed,1000,,318100,TRUE,Pay Utility with OD via STK,254720814822 - JAMES OTIENO OPAR,,Jgj
QA535VC8YN,05/01/2022 09:52,05/01/2022 09:52,Pay Bill from 254716702294 - DANIEL MULATI Acc. KBB,Completed,16000,,317100,TRUE,Pay Utility,254716702294 - DANIEL MULATI,,KBB
QA525UDNMO,05/01/2022 09:34,05/01/2022 09:34,Pay Bill from 254720814822 - JAMES OTIENO OPAR Acc. Jgj,Completed,1500,,301100,TRUE,Pay Utility with OD via STK,254720814822 - JAMES OTIENO OPAR,,Jgj
QA595U19V3,05/01/2022 09:28,05/01/2022 09:28,Pay Bill from 254719398942 - NORAH WAYUA MUNYAO Acc. KDA,Completed,16000,,299600,TRUE,Pay Utility,254719398942 - NORAH WAYUA MUNYAO,,KDA
QA515TLM7H,05/01/2022 09:20,05/01/2022 09:20,Pay Bill from 254700557767 - BAKHITA MWENDE MUANGE Acc. KCB ,Completed,16000,,283600,TRUE,Pay Utility,254700557767 - BAKHITA MWENDE MUANGE,,KCB
QA555TI1P7,05/01/2022 09:18,05/01/2022 09:18,Pay Bill from 254702266191 - IRINE MOMBO Acc. FEC ,Completed,9000,,267600,TRUE,Pay Utility,254702266191 - IRINE MOMBO,,FEC
QA525SRTY4,05/01/2022 09:04,05/01/2022 09:04,Pay Bill from 254724450782 - DENNIS MUSAU Acc. jcb,Completed,15000,,258600,TRUE,Pay Utility,254724450782 - DENNIS MUSAU,,jcb
QA545PD5VU,05/01/2022 07:51,05/01/2022 07:51,Pay Bill from 254723929380 - RHODAH K WAMBUA Acc. HEF,Completed,9500,,243600,TRUE,Pay Utility,254723929380 - RHODAH K WAMBUA,,HEF
QA595MGQPP,05/01/2022 04:17,05/01/2022 04:17,Pay Bill from 254703935626 - DAVID NGARI ITA Acc. FCD,Completed,1000,,234100,TRUE,Pay Utility,254703935626 - DAVID NGARI ITA,,FCD
QA555M8FDR,05/01/2022 02:42,05/01/2022 02:42,Pay Bill from 254723488259 - WILSON OKITE OKITE Acc. HCA,Completed,13600,,233100,TRUE,Pay Utility with OD via STK,254723488259 - WILSON OKITE OKITE,,HCA
QA505LY1TA,05/01/2022 01:10,05/01/2022 01:10,Pay Bill from 254111542144 - GAI MANYOK REECH Acc. KGG,Completed,10000,,219500,TRUE,Pay Utility,254111542144 - GAI MANYOK REECH,,KGG
QA495KFC4D,04/01/2022 22:51,04/01/2022 22:51,Pay Bill Online from 254717985596 - NICHOLAS KIPKOECH BUTIA Acc. hcf,Completed,9000,,209500,TRUE,Pay Bill Online,254717985596 - NICHOLAS KIPKOECH BUTIA,,hcf
QA465IJ8AG,04/01/2022 21:55,04/01/2022 21:55,Pay Bill from 254705902606 - JOSEPH OTIENO SAGWA Acc. fed,Completed,31000,,200500,TRUE,Pay Utility,254705902606 - JOSEPH OTIENO SAGWA,,fed
QA425GPROU,04/01/2022 21:20,04/01/2022 21:20,Pay Bill from 254722444622 - CHARITY KAGWAINI Acc. ffd,Completed,10000,,169500,TRUE,Pay Utility,254722444622 - CHARITY KAGWAINI,,ffd
QA4054FE48,04/01/2022 18:51,04/01/2022 18:51,Pay Bill from 254712974871 - PAULA WANJIKU GATUI Acc. HEA,Completed,16000,,159500,TRUE,Pay Utility,254712974871 - PAULA WANJIKU GATUI,,HEA
QA454YM10T,04/01/2022 17:37,04/01/2022 17:37,Pay Bill from 254714060203 - PATRICK MWANGOMBE MSAWUCHI Acc. KEI,Completed,12000,,143500,TRUE,Pay Utility,254714060203 - PATRICK MWANGOMBE MSAWUCHI,,KEI
QA404QLI3I,04/01/2022 15:34,04/01/2022 15:34,Pay Bill from 254725381062 - VICTOR MAITHYA Acc. HEG,Completed,2500,,131500,TRUE,Pay Utility with OD via STK,254725381062 - VICTOR MAITHYA,,HEG
QA484NDDKA,04/01/2022 14:41,04/01/2022 14:41,Pay Bill from 254728854349 - JOSEPH MUSYOKA Acc. IBG,Completed,8000,,129000,TRUE,Pay Utility,254728854349 - JOSEPH MUSYOKA,,IBG
QA474F4MDT,04/01/2022 12:25,04/01/2022 12:25,Pay Bill Online from 0796121714 - janet   mwikali Acc. KBC,Completed,10000,,121000,TRUE,Pay Bill Online,0796121714 - janet   mwikali,,KBC
QA454CPY69,04/01/2022 11:46,04/01/2022 11:46,Pay Bill from 254722992162 - JAEL MWANDILOH Acc. DCB,Completed,16000,,111000,TRUE,Pay Utility,254722992162 - JAEL MWANDILOH,,DCB
QA474BBGQ9,04/01/2022 11:22,04/01/2022 11:22,Pay Bill from 254728259571 - ANNE KASIVA Acc. ieb,Completed,15000,,95000,TRUE,Pay Utility,254728259571 - ANNE KASIVA,,ieb
QA4749IQKF,04/01/2022 10:52,04/01/2022 10:52,Pay Bill from 254723499628 - CLINTON JOSEPH MUHARI Acc. hfh,Completed,16000,,80000,TRUE,Pay Utility,254723499628 - CLINTON JOSEPH MUHARI,,hfh
QA4449568C,04/01/2022 10:46,04/01/2022 10:46,Pay Bill Online from 0724386624 - FATUMA ISSE YUSSUF Acc. FAB,Completed,16000,,64000,TRUE,Pay Utility with OD Online,0724386624 - FATUMA ISSE YUSSUF,,FAB
QA4148OU7D,04/01/2022 10:38,04/01/2022 10:38,Pay Bill from 254716056537 - KIRUI KIPLANGAT HILLARY Acc. JCJ,Completed,16000,,48000,TRUE,Pay Utility,254716056537 - KIRUI KIPLANGAT HILLARY,,JCJ
QA4147NH19,04/01/2022 10:21,04/01/2022 10:21,Pay Bill Online from 254714552193 - CHRISTOPHER OCHIENG Acc. JGI ,Completed,19500,,32000,TRUE,Pay Bill Online,254714552193 - CHRISTOPHER OCHIENG,,JGI
QA4243RX5A,04/01/2022 09:13,04/01/2022 09:13,Pay Bill from 254725381062 - VICTOR MAITHYA Acc. HEG,Completed,12500,,12500,TRUE,Pay Utility with OD via STK,254725381062 - VICTOR MAITHYA,,HEG
QA4842PX72,04/01/2022 08:52,04/01/2022 08:52,Utility Account to Organization Settlement Account,Completed,,-190900,0,TRUE,Utility Account to Organization Settlement Account,979524 - ANCIENT WELLS PROPERTY MANAGERS 2,,
QA423XEM8C,04/01/2022 06:07,04/01/2022 06:07,Pay Bill from 254718284151 - EVERLINE MATHEKA Acc. JAG,Completed,9000,,190900,TRUE,Pay Utility,254718284151 - EVERLINE MATHEKA,,JAG
QA383UTR68,03/01/2022 22:44,03/01/2022 22:44,Pay Bill from 254723966777 - BONIFACE MUTHAKA NGANGA Acc. IEC,Completed,9000,,181900,TRUE,Pay Utility,254723966777 - BONIFACE MUTHAKA NGANGA,,IEC
QA353TUGW5,03/01/2022 22:13,03/01/2022 22:13,Pay Bill from 254703935626 - DAVID NGARI ITA Acc. FCD,Completed,1000,,172900,TRUE,Pay Utility with OD via STK,254703935626 - DAVID NGARI ITA,,FCD
QA333TJAZ7,03/01/2022 22:04,03/01/2022 22:04,Pay Bill Online from 254721465713 - RHODA WAMBUI MWANGI Acc. Jfh,Completed,17000,,171900,TRUE,Pay Bill Online,254721465713 - RHODA WAMBUI MWANGI,,Jfh
QA333QR2UP,03/01/2022 21:08,03/01/2022 21:08,Pay Bill from 254724953672 - MERCY MBETI Acc. JCA,Completed,20000,,154900,TRUE,Pay Utility,254724953672 - MERCY MBETI,,JCA
QA373OBMJN,03/01/2022 20:32,03/01/2022 20:32,Pay Bill Online from 254704682516 - Winnie Akinyi Omollo Acc. FDA,Completed,16000,,134900,TRUE,Pay Bill Online,254704682516 - Winnie Akinyi Omollo,,FDA
QA393MJ7OT,03/01/2022 20:10,03/01/2022 20:10,Pay Bill from 254704934557 - BAKARI KITSAKA Acc. JAD,Completed,15000,,118900,TRUE,Pay Utility,254704934557 - BAKARI KITSAKA,,JAD
QA303LVIR0,03/01/2022 20:03,03/01/2022 20:03,Pay Bill from 254724477912 - SAMUEL MURIMI Acc. HCD,Completed,10000,,103900,TRUE,Pay Utility with OD via STK,254724477912 - SAMUEL MURIMI,,HCD
QA303L1EWO,03/01/2022 19:53,03/01/2022 19:53,Pay Bill Online from 254713404029 - ANNE ISEUNA Acc. DED,Completed,20000,,93900,TRUE,Pay Bill Online,254713404029 - ANNE ISEUNA,,DED
QA383K0B9K,03/01/2022 19:42,03/01/2022 19:42,Pay Bill from 0705569029 - phillip nyongesa wamocha Acc. DGC,Completed,20000,,73900,TRUE,Pay Utility,0705569029 - phillip nyongesa wamocha,,DGC
QA323FD7C2,03/01/2022 18:53,03/01/2022 18:53,Pay Bill from 254723488259 - WILSON OKITE OKITE Acc. HCA,Completed,1400,,53900,TRUE,Pay Utility,254723488259 - WILSON OKITE OKITE,,HCA
QA393F2YNR,03/01/2022 18:50,03/01/2022 18:50,Pay Bill from 254724466518 - EUNICE NDUTA Acc. KFF,Completed,9500,,52500,TRUE,Pay Utility,254724466518 - EUNICE NDUTA,,KFF
QA3634M37M,03/01/2022 16:28,03/01/2022 16:28,Pay Bill from 254798643998 - Judith Mwaniki Acc. kce,Completed,10000,,43000,TRUE,Pay Utility,254798643998 - Judith Mwaniki,,kce
QA3830Y2PY,03/01/2022 15:30,03/01/2022 15:30,Pay Bill from 254720814822 - JAMES OTIENO OPAR Acc. Jgj,Completed,1000,,33000,TRUE,Pay Utility,254720814822 - JAMES OTIENO OPAR,,Jgj
QA3130XC85,03/01/2022 15:30,03/01/2022 15:30,Pay Bill from 254704833344 - LOISE KIMANI Acc. jfa,Completed,20000,,32000,TRUE,Pay Utility,254704833344 - LOISE KIMANI,,jfa
QA382WU17Q,03/01/2022 14:23,03/01/2022 14:23,Pay Bill Online from 254718911865 - KENNEDY KELI KATUNGII Acc. HDF,Completed,9000,,12000,TRUE,Pay Utility with OD Online,254718911865 - KENNEDY KELI KATUNGII,,HDF
QA302QGOOI,03/01/2022 12:39,03/01/2022 12:39,Pay Bill from 254720814822 - JAMES OTIENO OPAR Acc. Jgj,Completed,3000,,3000,TRUE,Pay Utility,254720814822 - JAMES OTIENO OPAR,,Jgj
QA302GNFHM,03/01/2022 09:53,03/01/2022 09:53,Utility Account to Organization Settlement Account,Completed,,-436500,0,TRUE,Utility Account to Organization Settlement Account,979524 - ANCIENT WELLS PROPERTY MANAGERS 2,,
QA372DVAOR,03/01/2022 09:01,03/01/2022 09:01,Pay Bill Online from 254725218904 - SALOME MUTHONI MWANGI Acc. KFJ,Completed,15000,,436500,TRUE,Pay Bill Online,254725218904 - SALOME MUTHONI MWANGI,,KFJ
QA372BHS2R,03/01/2022 08:09,03/01/2022 08:09,Pay Bill Online from 254718138578 - PAULINE KIOKO Acc. KFD,Completed,14000,,421500,TRUE,Pay Bill Online,254718138578 - PAULINE KIOKO,,KFD
QA382A8A7G,03/01/2022 07:35,03/01/2022 07:35,Pay Bill Online from 254742911013 - HANEST AMIMO Acc. IEG,Completed,8000,,407500,TRUE,Pay Utility with OD Online,254742911013 - HANEST AMIMO,,IEG
QA3427KRNU,03/01/2022 00:43,03/01/2022 00:43,Pay Bill Online from 0711117122 - Yassir Mwinyi Abdulrazaq Acc. ICE,Completed,2000,,399500,TRUE,Pay Bill Online,0711117122 - Yassir Mwinyi Abdulrazaq,,ICE
QA2022KLPA,02/01/2022 21:13,02/01/2022 21:13,Pay Bill from 0727099332 - Veronica Cheruto Choge Acc. kcg,Completed,3000,,397500,TRUE,Pay Utility,0727099332 - Veronica Cheruto Choge,,kcg
QA2321U3IT,02/01/2022 20:58,02/01/2022 20:58,Pay Bill from 254716000009 - EVANS KIPROTICH YEBEI Acc. KCH,Completed,10000,,394500,TRUE,Pay Utility with OD via STK,254716000009 - EVANS KIPROTICH YEBEI,,KCH
QA2421L1E0,02/01/2022 20:54,02/01/2022 20:54,Pay Bill Online from 254717809935 - LYDIAH WERU Acc. IDC,Completed,9500,,384500,TRUE,Pay Bill Online,254717809935 - LYDIAH WERU,,IDC
QA221X9BTO,02/01/2022 19:49,02/01/2022 19:49,Pay Bill from 254727515326 - HARRISON WACIRA MAINA Acc. HAH,Completed,16000,,375000,TRUE,Pay Utility,254727515326 - HARRISON WACIRA MAINA,,HAH
QA261SXGPI,02/01/2022 18:57,02/01/2022 18:57,Pay Bill Online from 254719134037 - KELVIN KITOO Acc. FAA,Completed,16000,,359000,TRUE,Pay Bill Online,254719134037 - KELVIN KITOO,,FAA
QA231SVTLX,02/01/2022 18:56,02/01/2022 18:56,Pay Bill from 254702346515 - ELIZABETH ACHIENG NGOME Acc. KDE,Completed,10000,,343000,TRUE,Pay Utility,254702346515 - ELIZABETH ACHIENG NGOME,,KDE
QA261MGR14,02/01/2022 17:19,02/01/2022 17:19,Pay Bill Online from 0757699775 - BENARD MUIA MUTUA Acc. HCB,Completed,16000,,333000,TRUE,Pay Bill Online,0757699775 - BENARD MUIA MUTUA,,HCB
QA261H2HJA,02/01/2022 15:48,02/01/2022 15:48,Pay Bill from 254799036148 - HYCENT BOREH Acc. HAC,Completed,7000,,317000,TRUE,Pay Utility with OD via STK,254799036148 - HYCENT BOREH,,HAC
QA261GZXHE,02/01/2022 15:47,02/01/2022 15:47,Pay Bill from 254729355933 - FELISTAH NJERI WAIRIMU Acc. IDI,Completed,15000,,310000,TRUE,Pay Utility,254729355933 - FELISTAH NJERI WAIRIMU,,IDI
QA261B0G62,02/01/2022 14:00,02/01/2022 14:00,Pay Bill Online from 0718838251 - MARK KINYUA MAINA Acc. kfg,Completed,10000,,295000,TRUE,Pay Bill Online,0718838251 - MARK KINYUA MAINA,,kfg
QA2818POPK,02/01/2022 13:16,02/01/2022 13:16,Pay Bill from 254700430569 - EDITH   GAKII Acc. FCB,Completed,16000,,285000,TRUE,Pay Utility,254700430569 - EDITH   GAKII,,FCB
QA2917F9AR,02/01/2022 12:50,02/01/2022 12:50,Pay Bill from 254725478531 - KIPKORIR KUTO Acc. FDB,Completed,15000,,269000,TRUE,Pay Utility,254725478531 - KIPKORIR KUTO,,FDB
QA27ZTFIW3,02/01/2022 07:13,02/01/2022 07:13,Pay Bill Online from 254722728975 - CURTIS MRIGA OMIDO Acc. IAH,Completed,16000,,254000,TRUE,Pay Bill Online,254722728975 - CURTIS MRIGA OMIDO,,IAH
QA10ZODE7C,01/01/2022 21:46,01/01/2022 21:46,Pay Bill Online from 254707226192 - NICHOLUS MAINGI MWANTHI Acc. HBF,Completed,9000,,238000,TRUE,Pay Bill Online,254707226192 - NICHOLUS MAINGI MWANTHI,,HBF
QA18ZHGPAA,01/01/2022 19:44,01/01/2022 19:44,Pay Bill from 254703555717 - SENGA SALIM Acc. hbb,Completed,5000,,229000,TRUE,Pay Utility,254703555717 - SENGA SALIM,,hbb
QA10ZFHX00,01/01/2022 19:18,01/01/2022 19:18,Pay Bill Online from 254722769473 - SAMSON CHALO Acc. IAB,Completed,15000,,224000,TRUE,Pay Bill Online,254722769473 - SAMSON CHALO,,IAB
QA11ZAX89B,01/01/2022 18:10,01/01/2022 18:10,Pay Bill Online from 254712187712 - JUDELEEN AHINDUKHA SHILOBELE Acc. IEA,Completed,17000,,209000,TRUE,Pay Bill Online,254712187712 - JUDELEEN AHINDUKHA SHILOBELE,,IEA
QA11Z3CYNJ,01/01/2022 16:01,01/01/2022 16:01,Pay Bill from 254708570729 - MARY OGOLLA Acc. KAD,Completed,12000,,192000,TRUE,Pay Utility,254708570729 - MARY OGOLLA,,KAD
QA15Z2DXOX,01/01/2022 15:43,01/01/2022 15:43,Pay Bill from 254720814822 - JAMES OTIENO OPAR Acc. Jgj,Completed,6500,,180000,TRUE,Pay Utility with OD via STK,254720814822 - JAMES OTIENO OPAR,,Jgj
QA13YV75XD,01/01/2022 13:38,01/01/2022 13:38,Pay Bill from 254715742045 - FRIDAH KIEMA Acc. HGC,Completed,9500,,173500,TRUE,Pay Utility with OD via STK,254715742045 - FRIDAH KIEMA,,HGC
QA12YS21PM,01/01/2022 12:42,01/01/2022 12:42,Pay Bill Online from 254716784364 - Wendy Kemunto Nyandiko Acc. FFC,Completed,9000,,164000,TRUE,Pay Bill Online,254716784364 - Wendy Kemunto Nyandiko,,FFC
QA19YI0PXT,01/01/2022 09:39,01/01/2022 09:39,Pay Bill Online from 254798022849 - MARTIN BUNDI RUGENDO Acc. KFH,Completed,10000,,155000,TRUE,Pay Bill Online,254798022849 - MARTIN BUNDI RUGENDO,,KFH
QA15YD7IUD,01/01/2022 07:45,01/01/2022 07:45,Pay Bill Online from 254795510441 - LEWIS MUEMA Acc. KEB,Completed,16000,,145000,TRUE,Pay Bill Online,254795510441 - LEWIS MUEMA,,KEB
QA15Y8BPAH,01/01/2022 01:05,01/01/2022 01:05,Pay Bill from 254725381062 - VICTOR MAITHYA Acc. HEG,Completed,5000,,129000,TRUE,Pay Utility,254725381062 - VICTOR MAITHYA,,HEG
