Receipt No.,Completion Time,Initiation Time,Details,Transaction Status,Paid In,Withdrawn,Balance,Balance Confirmed,Reason Type,Other Party Info,Linked Transaction ID,A/C No.
OF40OBC04E,04/06/2020 08:14,04/06/2020 08:14,Pay Bill from 254707237792 - BRENDA WACHIRA Acc. JBC,Completed,400,,12700,TRUE,Pay Utility,254707237792 - BRENDA WACHIRA,,JBC
OF36O8868C,03/06/2020 21:54,03/06/2020 21:54,Pay Bill Online from 254720787158 - AMOS CHELANG'A Acc. KFK,Completed,1600,,12300,TRUE,Pay Bill Online,254720787158 - AMOS CHELANG'A,,KFK
OF33O33D4L,03/06/2020 19:00,03/06/2020 19:00,Pay Bill from 254721302658 - JACOB BIRUNDU Acc. DDB,Completed,400,,10700,TRUE,Pay Utility with OD via STK,254721302658 - JACOB BIRUNDU,,DDB
OF39O2QF3T,03/06/2020 18:53,03/06/2020 18:53,Pay Bill from 254716045947 - LILIAN OLOO Acc. FBD,Completed,700,,10300,TRUE,Pay Utility,254716045947 - LILIAN OLOO,,FBD
OF34O1EW0S,03/06/2020 18:28,03/06/2020 18:28,Pay Bill from 254703147783 - LYDIAH NJOKI MUCHIRI Acc. Hge,Completed,9000,,9600,TRUE,Pay Utility,254703147783 - LYDIAH NJOKI MUCHIRI,,Hge
OF31O0RNI9,03/06/2020 18:16,03/06/2020 18:16,Pay Bill from 254706237502 - STEPHEN WERE Acc. IBA,Completed,600,,600,TRUE,Pay Utility,254706237502 - STEPHEN WERE,,IBA
OF33NYVC6R,03/06/2020 17:38,03/06/2020 17:38,Utility Account to Organization Settlement Account,Completed,,-39100,0,TRUE,Utility Account to Organization Settlement Account,846783 - ANCIENT WELLS LTD 4,,
OF33NXSNTR,03/06/2020 17:15,03/06/2020 17:15,Pay Bill from 0769001671 - Wilson Mutangili Wambua Acc. haf,Completed,400,,39100,TRUE,Pay Utility,0769001671 - Wilson Mutangili Wambua,,haf
OF39NR47MB,03/06/2020 14:21,03/06/2020 14:21,Pay Bill from 254729371750 - DERRICK OTANGA Acc. FEF,Completed,1000,,38700,TRUE,Pay Utility,254729371750 - DERRICK OTANGA,,FEF
OF38NN4T68,03/06/2020 12:23,03/06/2020 12:23,Pay Bill from 254795418073 - WINNIE OWILLI BEVERLY Acc. HAC,Completed,600,,37700,TRUE,Pay Utility,254795418073 - WINNIE OWILLI BEVERLY,,HAC
OF38NN2H5S,03/06/2020 12:21,03/06/2020 12:21,Pay Bill from 254703311892 - WINNIE ACHIENG' OPEYO Acc. v50,Completed,200,,37100,TRUE,Pay Utility,254703311892 - WINNIE ACHIENG' OPEYO,,v50
OF37NMHWE9,03/06/2020 12:04,03/06/2020 12:04,Pay Bill from 254700374335 - HYLINE ONDARI Acc. KTE,Completed,800,,36900,TRUE,Pay Utility,254700374335 - HYLINE ONDARI,,KTE
OF34NI06XY,03/06/2020 09:44,03/06/2020 09:44,Pay Bill Online from 254726313835 - SYLVIA JUMA Acc. Hdf,Completed,400,,36100,TRUE,Pay Bill Online,254726313835 - SYLVIA JUMA,,Hdf
OF32NHMYNI,03/06/2020 09:31,03/06/2020 09:31,Pay Bill from 254722997392 - ISAAC MUKONAMBI MATUMBUFU Acc. JAH ,Completed,2000,,35700,TRUE,Pay Utility,254722997392 - ISAAC MUKONAMBI MATUMBUFU,,JAH
OF30NFC7YO,03/06/2020 08:05,03/06/2020 08:05,Pay Bill from 254707370896 - OKECH BRIAN BRIAN Acc. KBC,Completed,1000,,33700,TRUE,Pay Utility,254707370896 - OKECH BRIAN BRIAN,,KBC
OF33NEZH9F,03/06/2020 07:49,03/06/2020 07:49,Pay Bill from 254720458054 - ROBERT BETT Acc. ICH,Completed,1800,,32700,TRUE,Pay Utility,254720458054 - ROBERT BETT,,ICH
OF21NCYT5X,02/06/2020 22:39,02/06/2020 22:39,Pay Bill from 254726337163 - HALIMA ALI HASSAN Acc. DDA,Completed,200,,30900,TRUE,Pay Utility,254726337163 - HALIMA ALI HASSAN,,DDA
OF28NBTQQS,02/06/2020 21:14,02/06/2020 21:14,Pay Bill from 254722874715 - PATRCIAH mbesa KIOKO Acc. KBB,Completed,400,,30700,TRUE,Pay Utility,254722874715 - PATRCIAH mbesa KIOKO,,KBB
OF28NBGW2O,02/06/2020 20:57,02/06/2020 20:57,Pay Bill from 0715251159 - mediatrix davvy malo Acc. AIC,Completed,200,,30300,TRUE,Pay Utility,0715251159 - mediatrix davvy malo,,AIC
OF29N7WNNB,02/06/2020 19:11,02/06/2020 19:11,Pay Bill from 254701006375 - EZRA MAKORI SERETI Acc. IFB,Completed,600,,30100,TRUE,Pay Utility,254701006375 - EZRA MAKORI SERETI,,IFB
OF26N5RVWI,02/06/2020 18:29,02/06/2020 18:29,Pay Bill from 254710262457 - PETER VIKATSI Acc. Peter V26,Completed,800,,29500,TRUE,Pay Utility,254710262457 - PETER VIKATSI,,Peter
OF23N5D93Z,02/06/2020 18:22,02/06/2020 18:22,Pay Bill from 254722521028 - CHARLES MONYONCHO Acc. HCC,Completed,2600,,28700,TRUE,Pay Utility,254722521028 - CHARLES MONYONCHO,,HCC
OF22N4B1EO,02/06/2020 18:01,02/06/2020 18:01,Pay Bill from 254723872785 - MARY ANN NJERI NDUNG'U Acc. hed,Completed,400,,26100,TRUE,Pay Utility,254723872785 - MARY ANN NJERI NDUNG'U,,hed
OF21N3MQE3,02/06/2020 17:47,02/06/2020 17:47,Pay Bill from 0717216114 - Felix Njeru Mugambi Acc. KDF,Completed,1000,,25700,TRUE,Pay Utility,0717216114 - Felix Njeru Mugambi,,KDF
OF23N32UNH,02/06/2020 17:35,02/06/2020 17:35,Pay Bill from 254798643998 - Judith Mwaniki Acc. KCE,Completed,1200,,24700,TRUE,Pay Utility,254798643998 - Judith Mwaniki,,KCE
OF20MX077Q,02/06/2020 15:08,02/06/2020 15:08,Pay Bill from 254726380203 - SHARON OLENDO Acc. HCA,Completed,800,,23500,TRUE,Pay Utility,254726380203 - SHARON OLENDO,,HCA
OF29MSKI65,02/06/2020 13:01,02/06/2020 13:01,Pay Bill Online from 254711724272 - EDMOND ONYANGO OKEWE Acc. FCE,Completed,1000,,22700,TRUE,Pay Bill Online,254711724272 - EDMOND ONYANGO OKEWE,,FCE
OF21MRVRVD,02/06/2020 12:41,02/06/2020 12:41,Pay Bill from 0758826849 -  Norah Awala Anyango Acc. IDH,Completed,1500,,21700,TRUE,Pay Utility,0758826849 -  Norah Awala Anyango,,IDH
OF27MRS8TD,02/06/2020 12:38,02/06/2020 12:38,Pay Bill from 254704833344 - LOISE KIMANI Acc. jfa,Completed,1000,,20200,TRUE,Pay Utility,254704833344 - LOISE KIMANI,,jfa
OF25MN1B7B,02/06/2020 10:11,02/06/2020 10:11,Pay Bill from 254722444622 - CHARITY KAGWAINI Acc. FFD,Completed,200,,19200,TRUE,Pay Utility,254722444622 - CHARITY KAGWAINI,,FFD
OF15ME3A29,01/06/2020 19:51,01/06/2020 19:51,Pay Bill from 254711397174 - JASEL HOPE ANTONINA Acc. kef,Completed,100,,19000,TRUE,Pay Utility,254711397174 - JASEL HOPE ANTONINA,,kef
OF12M9OFRK,01/06/2020 18:11,01/06/2020 18:11,Pay Bill from 254700347490 - PERIS NYAGUTHII MAINA Acc. JBB,Completed,200,,18900,TRUE,Pay Utility,254700347490 - PERIS NYAGUTHII MAINA,,JBB
OF14M2PUW8,01/06/2020 15:14,01/06/2020 15:14,Pay Bill from 254712091662 - BENARD OMONDI ROBY Acc. V16,Completed,400,,18700,TRUE,Pay Utility,254712091662 - BENARD OMONDI ROBY,,V16
OF10M1WT24,01/06/2020 14:50,01/06/2020 14:50,Pay Bill from 254727298633 - KENNEDY OMONDI NYAGAYA Acc. JDH ,Completed,1000,,18300,TRUE,Pay Utility,254727298633 - KENNEDY OMONDI NYAGAYA,,JDH
OF12M0QMN4,01/06/2020 14:15,01/06/2020 14:15,Pay Bill from 254726265855 - SHEM KEVIN OMONDI OTIENO Acc. kdj,Completed,400,,17300,TRUE,Pay Utility,254726265855 - SHEM KEVIN OMONDI OTIENO,,kdj
OF10LYWMH4,01/06/2020 13:17,01/06/2020 13:17,Pay Bill from 254705419958 - MOHAMED ABDALLA MOHAMED Acc. JCF,Completed,200,,16900,TRUE,Pay Utility,254705419958 - MOHAMED ABDALLA MOHAMED,,JCF
OF17LWPATP,01/06/2020 12:07,01/06/2020 12:07,Pay Bill from 254798061803 - Kaltuma Mohamed Acc. jcg,Completed,1000,,16700,TRUE,Pay Utility,254798061803 - Kaltuma Mohamed,,jcg
OF15LV58NH,01/06/2020 11:19,01/06/2020 11:19,Pay Bill from 254729736327 - DARLYNE MAIMA Acc. V59,Completed,600,,15700,TRUE,Pay Utility,254729736327 - DARLYNE MAIMA,,V59
OF18LTLAVG,01/06/2020 10:30,01/06/2020 10:30,Pay Bill Online from 254795510441 - LEWIS MUEMA Acc. KFC,Completed,400,,15100,TRUE,Pay Bill Online,254795510441 - LEWIS MUEMA,,KFC
OF13LTB7OL,01/06/2020 10:21,01/06/2020 10:21,Pay Bill from 254728476791 - CAROLE ACHIENG Acc. KCF,Completed,800,,14700,TRUE,Pay Utility,254728476791 - CAROLE ACHIENG,,KCF
OEV7LMNHQN,31/05/2020 22:31,31/05/2020 22:31,Pay Bill from 254722136450 - MARY EVERLYN Acc. FAF,Completed,400,,13900,TRUE,Pay Utility,254722136450 - MARY EVERLYN,,FAF
OEV9LLY9EP,31/05/2020 21:34,31/05/2020 21:34,Pay Bill from 254708786932 - ZUBEDAH MOHAMMED Acc. IAG,Completed,800,,13500,TRUE,Pay Utility,254708786932 - ZUBEDAH MOHAMMED,,IAG
OEV9LB1VAZ,31/05/2020 16:27,31/05/2020 16:27,Pay Bill from 254708225541 - JUDITH NKATHA SIMBA Acc. ICF,Completed,1000,,12700,TRUE,Pay Utility,254708225541 - JUDITH NKATHA SIMBA,,ICF
OEV4L8OHOA,31/05/2020 15:19,31/05/2020 15:19,Pay Bill from 254722986239 - CLAIRE IRENE WANGARI NJERI Acc. FFE,Completed,400,,11700,TRUE,Pay Utility,254722986239 - CLAIRE IRENE WANGARI NJERI,,FFE
OEV8L17KOK,31/05/2020 11:24,31/05/2020 11:24,Pay Bill from 254724777705 - COLLINS AKASA Acc. KEG ,Completed,200,,11300,TRUE,Pay Utility,254724777705 - COLLINS AKASA,,KEG
OEV8KZQJ5S,31/05/2020 10:35,31/05/2020 10:35,Pay Bill from 254727729395 - ROBERT OUKO OSORO Acc. V29,Completed,400,,11100,TRUE,Pay Utility,254727729395 - ROBERT OUKO OSORO,,V29
OEU0KS1NIA,30/05/2020 21:13,30/05/2020 21:13,Pay Bill from 254718359438 - AHMAD TAHIR MACHENGO Acc. V11,Completed,400,,10700,TRUE,Pay Utility,254718359438 - AHMAD TAHIR MACHENGO,,V11
OEU9KKXN71,30/05/2020 18:12,30/05/2020 18:12,Pay Bill Online from 254703528196 - ERIC GITONGA MUGO Acc. KGJ,Completed,400,,10300,TRUE,Pay Bill Online,254703528196 - ERIC GITONGA MUGO,,KGJ
OEU1KJVPFB,30/05/2020 17:51,30/05/2020 17:51,Pay Bill from 254700627058 - SUSY NABALAYO CHELONGO Acc. dbb,Completed,1000,,9900,TRUE,Pay Utility,254700627058 - SUSY NABALAYO CHELONGO,,dbb
OEU8K9VP3K,30/05/2020 13:43,30/05/2020 13:43,Pay Bill from 0792933158 - mary wamaitha maina Acc. 846783,Completed,600,,8900,TRUE,Pay Utility,0792933158 - mary wamaitha maina,,846783
OEU4K32HWK,30/05/2020 10:28,30/05/2020 10:28,Pay Bill from 0742658849 - Winfridah   Namiba Acc. Pascal V45,Completed,1200,,8300,TRUE,Pay Utility,0742658849 - Winfridah   Namiba,,Pascal
OEU5K02SF5,30/05/2020 08:47,30/05/2020 08:47,Pay Bill from 254726337163 - HALIMA ALI HASSAN Acc. DDA,Completed,200,,7100,TRUE,Pay Utility,254726337163 - HALIMA ALI HASSAN,,DDA
OEU0JZE3ZY,30/05/2020 08:20,30/05/2020 08:20,Pay Bill from 254706958937 - NANCY NAMWATIKHO WAMALWA Acc. JDE,Completed,1400,,6900,TRUE,Pay Utility,254706958937 - NANCY NAMWATIKHO WAMALWA,,JDE
OET2JVDM20,29/05/2020 21:12,29/05/2020 21:12,Pay Bill from 254727575146 - SUSAN NJERI KIBE Acc. KEC,Completed,400,,5500,TRUE,Pay Utility,254727575146 - SUSAN NJERI KIBE,,KEC
OET9JS33U1,29/05/2020 19:23,29/05/2020 19:23,Pay Bill from 254708437712 - ISAAC MAHUGU BIHENGOTO Acc. KDG,Completed,1000,,5100,TRUE,Pay Utility,254708437712 - ISAAC MAHUGU BIHENGOTO,,KDG
OET9JRIY33,29/05/2020 19:10,29/05/2020 19:10,Pay Bill from 254715949223 - JAMES ONYANGO Acc. KAG,Completed,400,,4100,TRUE,Pay Utility,254715949223 - JAMES ONYANGO,,KAG
OET3JEHOV3,29/05/2020 14:00,29/05/2020 14:00,Pay Bill Online from 254713498554 - HENRY KINYUA WARUI Acc. Henry Warui V44,Completed,700,,3700,TRUE,Pay Bill Online,254713498554 - HENRY KINYUA WARUI,,Henry
OET9JB24UN,29/05/2020 12:18,29/05/2020 12:18,Pay Bill from 254726753273 - JESSE K MURIRMI NJERU Acc. HCH,Completed,2800,,3000,TRUE,Pay Utility,254726753273 - JESSE K MURIRMI NJERU,,HCH
OET4J27L8W,29/05/2020 06:19,29/05/2020 06:19,Pay Bill Online from 254720723193 - MIKA KEVIN OMONDI Acc. v03,Completed,200,,200,TRUE,Pay Bill Online,254720723193 - MIKA KEVIN OMONDI,,v03
