Receipt No.,Completion Time,Initiation Time,Details,Transaction Status,Paid In,Withdrawn,Balance,Balance Confirmed,Reason Type,Other Party Info,Linked Transaction ID,A/C No.
PGR7U01A1F,27/07/2021 09:06,27/07/2021 09:06,Pay Bill from 254791206178 - LORINE MUGANDA Acc. FBD,Completed,11000,,45000,TRUE,Pay Utility,254791206178 - LORINE MUGANDA,,FBD
PGQ6TSUJKK,26/07/2021 23:26,26/07/2021 23:26,Pay Bill from 254703935626 - DAVID NGARI ITA Acc. FCD,Completed,1000,,34000,TRUE,Pay Utility with OD via STK,254703935626 - DAVID NGARI ITA,,FCD
PGQ1SZG27D,26/07/2021 14:39,26/07/2021 14:39,Pay Bill from 254715338158 - REBECCA MUTHONI KARIUKI Acc. JAC,Completed,13000,,33000,TRUE,Pay Utility,254715338158 - REBECCA MUTHONI KARIUKI,,JAC
PGQ2SWWEYW,26/07/2021 13:52,26/07/2021 13:52,Pay Bill from 254796848496 - IVY WITABA Acc. JBA,Completed,20000,,20000,TRUE,Pay Utility,254796848496 - IVY WITABA,,JBA
PGQ8SS5EAI,26/07/2021 12:25,26/07/2021 12:25,Utility Account to Organization Settlement Account,Completed,,-65000,0,TRUE,Utility Account to Organization Settlement Account,979524 - ANCIENT WELLS PROPERTY MANAGERS 2,,
PGQ3SNZYNF,26/07/2021 11:06,26/07/2021 11:06,Pay Bill from 254728313347 - GEORGE KIMAIGA NYAMORI Acc. ici,Completed,16000,,65000,TRUE,Pay Utility,254728313347 - GEORGE KIMAIGA NYAMORI,,ici
PGQ5SBX3SH,26/07/2021 00:15,26/07/2021 00:15,Pay Bill from 0748059595 - Rashid NASSIR Khamis Acc. DDA,Completed,3000,,49000,TRUE,Pay Utility,0748059595 - Rashid NASSIR Khamis,,DDA
PGP1S996OP,25/07/2021 21:37,25/07/2021 21:37,Pay Bill from 254703935626 - DAVID NGARI ITA Acc. FCD,Completed,1000,,46000,TRUE,Pay Utility,254703935626 - DAVID NGARI ITA,,FCD
PGP4RTEOD2,25/07/2021 17:20,25/07/2021 17:20,Merchant Pay Utility Received from 7671697 - REBECCA MUTHONI KARIUKI Acc. KAF,Completed,10000,,45000,TRUE,Merchant Pay Utility via API,7671697 - REBECCA MUTHONI KARIUKI,,KAF
PGP3RE1D8P,25/07/2021 12:08,25/07/2021 12:08,Pay Bill from 254722276550 - ISAAC NYAMRER Acc. kgc ,Completed,18000,,35000,TRUE,Pay Utility,254722276550 - ISAAC NYAMRER,,kgc
PGO4R1423C,24/07/2021 23:41,24/07/2021 23:41,Pay Bill from 254703935626 - DAVID NGARI ITA Acc. FCD,Completed,1000,,17000,TRUE,Pay Utility,254703935626 - DAVID NGARI ITA,,FCD
PGO8QRXYU8,24/07/2021 19:45,24/07/2021 19:45,Pay Bill Online from 254712370657 - MARVIN NYANGAU Acc. KAJ,Completed,16000,,16000,TRUE,Pay Bill Online,254712370657 - MARVIN NYANGAU,,KAJ
PGO6QG47KI,24/07/2021 17:03,24/07/2021 17:03,Utility Account to Organization Settlement Account,Completed,,-21000,0,TRUE,Utility Account to Organization Settlement Account,979524 - ANCIENT WELLS PROPERTY MANAGERS 2,,
PGO7QCWKDT,24/07/2021 16:09,24/07/2021 16:09,Pay Bill Online from 254717463608 - DANIEL MUNIU MUGURE Acc. HGE,Completed,10000,,21000,TRUE,Pay Utility with OD Online,254717463608 - DANIEL MUNIU MUGURE,,HGE
PGO6Q6RFAM,24/07/2021 14:14,24/07/2021 14:14,Pay Bill from 254728364280 - EMMANUEL THUMA OYIER Acc. IDF,Completed,11000,,11000,TRUE,Pay Utility,254728364280 - EMMANUEL THUMA OYIER,,IDF
PGO6Q0NT3A,24/07/2021 12:18,24/07/2021 12:18,Utility Account to Organization Settlement Account,Completed,,-124500,0,TRUE,Utility Account to Organization Settlement Account,979524 - ANCIENT WELLS PROPERTY MANAGERS 2,,
PGO6PVDP6Q,24/07/2021 10:35,24/07/2021 10:35,Pay Bill from 254729541871 - ROBERT KULEI Acc. JAB,Completed,5000,,124500,TRUE,Pay Utility,254729541871 - ROBERT KULEI,,JAB
PGO2PT6C32,24/07/2021 09:50,24/07/2021 09:50,Pay Bill from 254704111133 - ELVIS OTIENO Acc. HFD,Completed,1000,,119500,TRUE,Pay Utility,254704111133 - ELVIS OTIENO,,HFD
PGO7PSSBBT,24/07/2021 09:41,24/07/2021 09:41,Pay Bill Online from 0700206427 - Clare Nabalisa Mukasa Acc. HFA,Completed,6000,,118500,TRUE,Pay Bill Online,0700206427 - Clare Nabalisa Mukasa,,HFA
PGO1PSBUTD,24/07/2021 09:32,24/07/2021 09:32,Pay Bill from 254722564580 - GLENN KISIANG'ANI Acc. DBB,Completed,2900,,112500,TRUE,Pay Utility,254722564580 - GLENN KISIANG'ANI,,DBB
PGO3PPI1Q3,24/07/2021 08:26,24/07/2021 08:26,Pay Bill from 254713662892 - DAVID JUMA KIPTOCH Acc. JBE,Completed,8500,,109600,TRUE,Pay Utility,254713662892 - DAVID JUMA KIPTOCH,,JBE
PGO7POLLQF,24/07/2021 08:03,24/07/2021 08:03,Pay Bill Online from 254701683737 - MICHAEL NGUGI Acc. HDB,Completed,16000,,101100,TRUE,Pay Bill Online,254701683737 - MICHAEL NGUGI,,HDB
PGO9POK8BL,24/07/2021 08:02,24/07/2021 08:02,Pay Bill Online from 254700379039 - MARTIN KIMANI Acc. KCI,Completed,12000,,85100,TRUE,Pay Bill Online,254700379039 - MARTIN KIMANI,,KCI
PGN7PJX3KH,23/07/2021 22:55,23/07/2021 22:55,Pay Bill Online from 254720703769 - MOHAMED ABUKAR SIYAD Acc. HBA,Completed,17000,,73100,TRUE,Pay Bill Online,254720703769 - MOHAMED ABUKAR SIYAD,,HBA
PGN5PD7X1B,23/07/2021 20:14,23/07/2021 20:14,Pay Bill from 0758506934 - Edgar Maxwel Wanguba Acc. IFG,Completed,8000,,56100,TRUE,Pay Utility,0758506934 - Edgar Maxwel Wanguba,,IFG
PGN9P4M6HF,23/07/2021 18:25,23/07/2021 18:25,Pay Bill from 254704111133 - ELVIS OTIENO Acc. HFD,Completed,1100,,48100,TRUE,Pay Utility,254704111133 - ELVIS OTIENO,,HFD
PGN1O3XX21,23/07/2021 01:07,23/07/2021 01:07,Pay Bill from 254703555717 - SENGA SALIM Acc. hbb,Completed,2000,,47000,TRUE,Pay Utility,254703555717 - SENGA SALIM,,hbb
PGM2NW9PGC,22/07/2021 20:18,22/07/2021 20:18,Pay Bill from 254710965167 - KUSA STEPHANIE HAZEL Acc. JDC,Completed,11000,,45000,TRUE,Pay Utility,254710965167 - KUSA STEPHANIE HAZEL,,JDC
PGM5NSXZGF,22/07/2021 19:33,22/07/2021 19:33,Pay Bill Online from 0711117122 - Yassir Mwinyi Abdulrazaq Acc. ICE,Completed,2000,,34000,TRUE,Pay Bill Online,0711117122 - Yassir Mwinyi Abdulrazaq,,ICE
PGM8NPBFWW,22/07/2021 18:50,22/07/2021 18:50,Pay Bill Online from 254728886864 - MOULINE ONYANGO Acc. IAA,Completed,32000,,32000,TRUE,Pay Bill Online,254728886864 - MOULINE ONYANGO,,IAA
PGM7NOZKWN,22/07/2021 18:46,22/07/2021 18:46,Utility Account to Organization Settlement Account,Completed,,-112100,0,TRUE,Utility Account to Organization Settlement Account,979524 - ANCIENT WELLS PROPERTY MANAGERS 2,,
PGM1NMGLT5,22/07/2021 18:11,22/07/2021 18:11,Pay Bill from 254729450678 - GRACE NDUNGE Acc. fba,Completed,1500,,112100,TRUE,Pay Utility with OD via STK,254729450678 - GRACE NDUNGE,,fba
PGM1NG061Z,22/07/2021 16:27,22/07/2021 16:27,Pay Bill Online from 254722921132 - JOE MCCRAY MURIUKI KIHIA Acc. IFA,Completed,15000,,110600,TRUE,Pay Utility with OD Online,254722921132 - JOE MCCRAY MURIUKI KIHIA,,IFA
PGM6NCXBC0,22/07/2021 15:28,22/07/2021 15:28,Pay Bill from 254717069074 - EMMILY IMARI LWAMBA Acc. KCF,Completed,4100,,95600,TRUE,Pay Utility,254717069074 - EMMILY IMARI LWAMBA,,KCF
PGM3NCJ2ZH,22/07/2021 15:20,22/07/2021 15:20,Pay Bill from 254722910078 - MAUREEN MUNYIVA MUTUKU Acc. DBD,Completed,20000,,91500,TRUE,Pay Utility,254722910078 - MAUREEN MUNYIVA MUTUKU,,DBD
PGM9NA2A81,22/07/2021 14:32,22/07/2021 14:32,Pay Bill from 254724611087 - Francis Mukindya Muoki Acc. dfb,Completed,2000,,71500,TRUE,Pay Utility,254724611087 - Francis Mukindya Muoki,,dfb
PGM0MP9TBO,22/07/2021 06:54,22/07/2021 06:54,Pay Bill from 254720883049 - SIMON AMUKOCHE Acc. IED,Completed,11000,,69500,TRUE,Pay Utility,254720883049 - SIMON AMUKOCHE,,IED
PGL2MIA35O,21/07/2021 20:56,21/07/2021 20:56,Pay Bill from 254722458136 - NADI GOLICHA Acc. KAA,Completed,10000,,58500,TRUE,Pay Utility,254722458136 - NADI GOLICHA,,KAA
PGL6M5G9JU,21/07/2021 17:59,21/07/2021 17:59,Pay Bill from 254729450678 - GRACE NDUNGE Acc. fba,Completed,13500,,48500,TRUE,Pay Utility with OD via STK,254729450678 - GRACE NDUNGE,,fba
PGL6LR6462,21/07/2021 13:37,21/07/2021 13:37,Pay Bill from 254723954911 - JAMES KILAVI Acc. ICG,Completed,9500,,35000,TRUE,Pay Utility,254723954911 - JAMES KILAVI,,ICG
PGL2LOO7O2,21/07/2021 12:50,21/07/2021 12:50,Pay Bill Online from 254720451253 - JIMMY KIOGORA NKIROTE Acc. kbd,Completed,2000,,25500,TRUE,Pay Utility with OD Online,254720451253 - JIMMY KIOGORA NKIROTE,,kbd
PGL3LDAVH1,21/07/2021 08:54,21/07/2021 08:54,Pay Bill from 254724810512 - BENARDET mwelu Ochieng Acc. IEH,Completed,23500,,23500,TRUE,Pay Utility,254724810512 - BENARDET mwelu Ochieng,,IEH
PGL0LD3SGO,21/07/2021 08:49,21/07/2021 08:49,Utility Account to Organization Settlement Account,Completed,,-20000,0,TRUE,Utility Account to Organization Settlement Account,979524 - ANCIENT WELLS PROPERTY MANAGERS 2,,
PGL2LA38DC,21/07/2021 07:18,21/07/2021 07:18,Pay Bill Online from 254719317219 - PHILIP MBOYA Acc. JDH,Completed,16000,,20000,TRUE,Pay Bill Online,254719317219 - PHILIP MBOYA,,JDH
PGK4KSN3B4,20/07/2021 18:21,20/07/2021 18:21,Pay Bill from 0748059595 - Rashid NASSIR Khamis Acc. DDA,Completed,4000,,4000,TRUE,Pay Utility with OD via STK,0748059595 - Rashid NASSIR Khamis,,DDA
PGK2KI0SME,20/07/2021 15:11,20/07/2021 15:11,Utility Account to Organization Settlement Account,Completed,,-17000,0,TRUE,Utility Account to Organization Settlement Account,979524 - ANCIENT WELLS PROPERTY MANAGERS 2,,
PGJ1JUJL1B,19/07/2021 23:22,19/07/2021 23:22,Pay Bill from 254703935626 - DAVID NGARI ITA Acc. FCD,Completed,1000,,17000,TRUE,Pay Utility with OD via STK,254703935626 - DAVID NGARI ITA,,FCD
PGJ6JS23M2,19/07/2021 21:35,19/07/2021 21:35,Pay Bill Online from 254720451253 - JIMMY KIOGORA NKIROTE Acc. KBD,Completed,4000,,16000,TRUE,Pay Utility with OD Online,254720451253 - JIMMY KIOGORA NKIROTE,,KBD
PGJ4JB0E64,19/07/2021 17:21,19/07/2021 17:21,Pay Bill from 254723605941 - JOHN KARIHA Acc. KDD,Completed,2000,,12000,TRUE,Pay Utility,254723605941 - JOHN KARIHA,,KDD
PGJ1JAIPPT,19/07/2021 17:14,19/07/2021 17:14,Pay Bill from 254798146452 - VALARY ODHIAMBO Acc. JEE,Completed,10000,,10000,TRUE,Pay Utility with OD via STK,254798146452 - VALARY ODHIAMBO,,JEE
PGJ5J9N6KD,19/07/2021 17:00,19/07/2021 17:00,Utility Account to Organization Settlement Account,Completed,,-39000,0,TRUE,Utility Account to Organization Settlement Account,979524 - ANCIENT WELLS PROPERTY MANAGERS 2,,
PGJ3J9G92N,19/07/2021 16:56,19/07/2021 16:56,Pay Bill from 0722950695 - Joshua Mbithi Kivondo Acc. Dca ,Completed,18000,,39000,TRUE,Pay Utility,0722950695 - Joshua Mbithi Kivondo,,Dca
PGJ3J22ZQ9,19/07/2021 14:43,19/07/2021 14:43,Pay Bill from 254703555717 - SENGA SALIM Acc. hbb,Completed,3000,,21000,TRUE,Pay Utility,254703555717 - SENGA SALIM,,hbb
PGJ6J018TO,19/07/2021 14:04,19/07/2021 14:04,Pay Bill from 254724611087 - Francis Mukindya Muoki Acc. dfb,Completed,2000,,18000,TRUE,Pay Utility with OD via STK,254724611087 - Francis Mukindya Muoki,,dfb
PGJ8IU4ZHE,19/07/2021 12:14,19/07/2021 12:14,Pay Bill from 254723843982 - MOSES KIPCHIRCHIR ROTICH Acc. IEE,Completed,14000,,16000,TRUE,Pay Utility,254723843982 - MOSES KIPCHIRCHIR ROTICH,,IEE
PGJ0ISJ316,19/07/2021 11:42,19/07/2021 11:42,Pay Bill from 254703555717 - SENGA SALIM Acc. hbb,Completed,2000,,2000,TRUE,Pay Utility,254703555717 - SENGA SALIM,,hbb
PGJ3IP4ZRJ,19/07/2021 10:35,19/07/2021 10:35,Utility Account to Organization Settlement Account,Completed,,-27000,0,TRUE,Utility Account to Organization Settlement Account,979524 - ANCIENT WELLS PROPERTY MANAGERS 2,,
PGI2ICT98Q,18/07/2021 21:37,18/07/2021 21:37,Pay Bill from 254703935626 - DAVID NGARI ITA Acc. FCD,Completed,1000,,27000,TRUE,Pay Utility,254703935626 - DAVID NGARI ITA,,FCD
PGI5I8UAW7,18/07/2021 20:12,18/07/2021 20:12,Pay Bill from 254718672924 - LILIAN CHEBET NGENO Acc. KGD,Completed,10000,,26000,TRUE,Pay Utility,254718672924 - LILIAN CHEBET NGENO,,KGD
PGI5HHDD69,18/07/2021 11:37,18/07/2021 11:37,Pay Bill from 254701047939 - Cyrus Wahome Acc. JAH,Completed,16000,,16000,TRUE,Pay Utility,254701047939 - Cyrus Wahome,,JAH
PGI4HG471E,18/07/2021 11:06,18/07/2021 11:06,Utility Account to Organization Settlement Account,Completed,,-37500,0,TRUE,Utility Account to Organization Settlement Account,979524 - ANCIENT WELLS PROPERTY MANAGERS 2,,
PGH4H5KCKU,17/07/2021 23:11,17/07/2021 23:11,Pay Bill from 254725381062 - VICTOR MAITHYA Acc. HEG,Completed,4000,,37500,TRUE,Pay Utility,254725381062 - VICTOR MAITHYA,,HEG
PGH7GYYB61,17/07/2021 20:16,17/07/2021 20:16,Pay Bill from 254725539787 - EVERLYNE MOGAKA Acc. KEF,Completed,10000,,33500,TRUE,Pay Utility,254725539787 - EVERLYNE MOGAKA,,KEF
PGH4GSSUB6,17/07/2021 18:57,17/07/2021 18:57,Pay Bill from 254700382442 - EVERLYNE MWENDE MUMO Acc. FGC,Completed,14500,,23500,TRUE,Pay Utility,254700382442 - EVERLYNE MWENDE MUMO,,FGC
PGH5GSIPOT,17/07/2021 18:54,17/07/2021 18:54,Pay Bill from 0700206427 - Clare Nabalisa Mukasa Acc. HFA,Completed,9000,,9000,TRUE,Pay Utility,0700206427 - Clare Nabalisa Mukasa,,HFA
PGH2GFBMLM,17/07/2021 15:25,17/07/2021 15:25,Utility Account to Organization Settlement Account,Completed,,-35000,0,TRUE,Utility Account to Organization Settlement Account,979524 - ANCIENT WELLS PROPERTY MANAGERS 2,,
PGH5G8MVFX,17/07/2021 13:20,17/07/2021 13:20,Pay Bill from 254795449800 - MARTHA WANJIRU NJUGUNA Acc. FEB,Completed,10000,,35000,TRUE,Pay Utility,254795449800 - MARTHA WANJIRU NJUGUNA,,FEB
PGH1G8FRRN,17/07/2021 13:16,17/07/2021 13:16,Pay Bill from 254795449800 - MARTHA WANJIRU NJUGUNA Acc. FEB,Completed,10000,,25000,TRUE,Pay Utility,254795449800 - MARTHA WANJIRU NJUGUNA,,FEB
PGH5G7C4PL,17/07/2021 12:55,17/07/2021 12:55,Pay Bill from 254711721087 - MUTHIANI KYULE Acc. IDB,Completed,15000,,15000,TRUE,Pay Utility,254711721087 - MUTHIANI KYULE,,IDB
PGH8FUGMVO,17/07/2021 08:28,17/07/2021 08:28,Utility Account to Organization Settlement Account,Completed,,-25500,0,TRUE,Utility Account to Organization Settlement Account,979524 - ANCIENT WELLS PROPERTY MANAGERS 2,,
PGG0FPBVPS,16/07/2021 23:14,16/07/2021 23:14,Pay Bill from 254714774979 - ALICE KALEKYE MUTUA Acc. JCH,Completed,17000,,25500,TRUE,Pay Utility,254714774979 - ALICE KALEKYE MUTUA,,JCH
PGG4F7VJUW,16/07/2021 18:06,16/07/2021 18:06,Pay Bill from 254723389177 - NELSON MOI Acc. ibf,Completed,4500,,8500,TRUE,Pay Utility,254723389177 - NELSON MOI,,ibf
PGG5EQVH2F,16/07/2021 13:19,16/07/2021 13:19,Pay Bill Online from 254715764212 - BANCE ISHEMINYE Acc. JFE,Completed,4000,,4000,TRUE,Pay Bill Online,254715764212 - BANCE ISHEMINYE,,JFE
PGG8EPTV3G,16/07/2021 12:59,16/07/2021 12:59,Utility Account to Organization Settlement Account,Completed,,-23500,0,TRUE,Utility Account to Organization Settlement Account,979524 - ANCIENT WELLS PROPERTY MANAGERS 2,,
PGG4EPABMW,16/07/2021 12:49,16/07/2021 12:49,Pay Bill from 254798674917 - Egbe Okpaga Okpaga Acc. HAD,Completed,9500,,23500,TRUE,Pay Utility,254798674917 - Egbe Okpaga Okpaga,,HAD
PGG8ELW3YY,16/07/2021 11:44,16/07/2021 11:44,Pay Bill from 0790924905 - KEVIN   KIDAGISA Acc. IGC,Completed,9000,,14000,TRUE,Pay Utility with OD via STK,0790924905 - KEVIN   KIDAGISA,,IGC
PGG2EDS7GO,16/07/2021 09:00,16/07/2021 09:00,Pay Bill from 0111278177 - Alfred   Kishoin Acc. IBC,Completed,5000,,5000,TRUE,Pay Utility,0111278177 - Alfred   Kishoin,,IBC
PGF3DNNOV9,15/07/2021 17:33,15/07/2021 17:33,Utility Account to Organization Settlement Account,Completed,,-98900,0,TRUE,Utility Account to Organization Settlement Account,979524 - ANCIENT WELLS PROPERTY MANAGERS 2,,
PGF2DH9AR6,15/07/2021 15:44,15/07/2021 15:44,Pay Bill from 254704111133 - ELVIS OTIENO Acc. HFD,Completed,1900,,98900,TRUE,Pay Utility,254704111133 - ELVIS OTIENO,,HFD
PGF3D9L339,15/07/2021 13:18,15/07/2021 13:18,Pay Bill from 254704111133 - ELVIS OTIENO Acc. HFD,Completed,4300,,97000,TRUE,Pay Utility,254704111133 - ELVIS OTIENO,,HFD
PGF9D810B1,15/07/2021 12:48,15/07/2021 12:48,Pay Bill from 254719626804 - PAUL NJOROGE CYRUS Acc. JFI,Completed,20000,,92700,TRUE,Pay Utility,254719626804 - PAUL NJOROGE CYRUS,,JFI
PGF5D6UY4X,15/07/2021 12:25,15/07/2021 12:25,Pay Bill from 254724611087 - Francis Mukindya Muoki Acc. dfb,Completed,3000,,72700,TRUE,Pay Utility with OD via STK,254724611087 - Francis Mukindya Muoki,,dfb
PGF6D30ZF0,15/07/2021 11:08,15/07/2021 11:08,Pay Bill Online from 254718772336 - DAVID SERUGO Acc. DCD,Completed,20000,,69700,TRUE,Pay Bill Online,254718772336 - DAVID SERUGO,,DCD
PGF2CT2RNE,15/07/2021 07:11,15/07/2021 07:11,Pay Bill from 254719439717 - Cecilia Omondi Acc. hfc,Completed,9000,,49700,TRUE,Pay Utility,254719439717 - Cecilia Omondi,,hfc
PGE4CDWZWU,14/07/2021 18:59,14/07/2021 18:59,Pay Bill from 254710635630 - DONNA JESSICA OWANO Acc. KCC,Completed,10000,,40700,TRUE,Pay Utility,254710635630 - DONNA JESSICA OWANO,,KCC
PGE5C0D181,14/07/2021 15:26,14/07/2021 15:26,Pay Bill from 254710110273 - AGNES NTOITI Acc. JBB,Completed,14700,,30700,TRUE,Pay Utility,254710110273 - AGNES NTOITI,,JBB
PGE8BIPTZU,14/07/2021 09:32,14/07/2021 09:32,Pay Bill from 254722992162 - JAEL MWANDILOH Acc. DCB,Completed,16000,,16000,TRUE,Pay Utility,254722992162 - JAEL MWANDILOH,,DCB
PGE2BH30I8,14/07/2021 08:55,14/07/2021 08:55,Utility Account to Organization Settlement Account,Completed,,-65000,0,TRUE,Utility Account to Organization Settlement Account,979524 - ANCIENT WELLS PROPERTY MANAGERS 2,,
PGD6BASULG,13/07/2021 23:18,13/07/2021 23:18,Pay Bill from 254703375006 - KEN RODGERS Acc. DBA,Completed,17000,,65000,TRUE,Pay Utility,254703375006 - KEN RODGERS,,DBA
PGD7AP7EOR,13/07/2021 16:48,13/07/2021 16:48,Pay Bill Online from 254722249092 - MARIAM ABDULLAHI Acc. KEH,Completed,10000,,48000,TRUE,Pay Utility with OD Online,254722249092 - MARIAM ABDULLAHI,,KEH
PGD1ANCDCB,13/07/2021 16:16,13/07/2021 16:16,Pay Bill from 254703555717 - SENGA SALIM Acc. hbb,Completed,2000,,38000,TRUE,Pay Utility,254703555717 - SENGA SALIM,,hbb
PGD7AMEE1V,13/07/2021 15:59,13/07/2021 15:59,Pay Bill from 254727766786 - JOHN MAITHA MULWA Acc. IBH,Completed,15000,,36000,TRUE,Pay Utility,254727766786 - JOHN MAITHA MULWA,,IBH
PGD1A966MN,13/07/2021 11:41,13/07/2021 11:41,Pay Bill from 0748059595 - Rashid NASSIR Khamis Acc. DDA,Completed,2000,,21000,TRUE,Pay Utility,0748059595 - Rashid NASSIR Khamis,,DDA
PGD4A4LWXY,13/07/2021 10:10,13/07/2021 10:10,Pay Bill Online from 254795035877 - Eliza Ntinyari Nkirote Acc. JBG,Completed,10000,,19000,TRUE,Pay Bill Online,254795035877 - Eliza Ntinyari Nkirote,,JBG
PGD6A0QRXA,13/07/2021 08:47,13/07/2021 08:47,Pay Bill from 0758591833 - DORCUS MBULA PETER Acc. HDD,Completed,9000,,9000,TRUE,Pay Utility,0758591833 - DORCUS MBULA PETER,,HDD
PGD5A0228D,13/07/2021 08:31,13/07/2021 08:31,Utility Account to Organization Settlement Account,Completed,,-122000,0,TRUE,Utility Account to Organization Settlement Account,979524 - ANCIENT WELLS PROPERTY MANAGERS 2,,
PGD39ZQU9T,13/07/2021 08:23,13/07/2021 08:23,Pay Bill from 254725381062 - VICTOR MAITHYA Acc. HEG,Completed,7500,,122000,TRUE,Pay Utility,254725381062 - VICTOR MAITHYA,,HEG
PGD89VBLWO,13/07/2021 00:10,13/07/2021 00:10,Pay Bill Online from 0711117122 - Yassir Mwinyi Abdulrazaq Acc. ICE,Completed,2000,,114500,TRUE,Pay Bill Online,0711117122 - Yassir Mwinyi Abdulrazaq,,ICE
PGC99M21K5,12/07/2021 19:36,12/07/2021 19:36,Pay Bill from 0740422187 - KEVIN MAKATO KUNGA Acc. KEG,Completed,10000,,112500,TRUE,Pay Utility,0740422187 - KEVIN MAKATO KUNGA,,KEG
PGC09B8638,12/07/2021 17:11,12/07/2021 17:11,Pay Bill from 0743248310 - PATRICK STURRIDGE NYONGESA Acc. DAA,Completed,17000,,102500,TRUE,Pay Utility,0743248310 - PATRICK STURRIDGE NYONGESA,,DAA
PGC497Q4DK,12/07/2021 16:10,12/07/2021 16:10,Pay Bill Online from 254717053159 - FREDRICK NYATIKA Acc. IEF,Completed,17500,,85500,TRUE,Pay Utility with OD Online,254717053159 - FREDRICK NYATIKA,,IEF
PGC590XLVL,12/07/2021 13:59,12/07/2021 13:59,Pay Bill from 254796848496 - IVY WITABA Acc. JBA,Completed,20000,,68000,TRUE,Pay Utility,254796848496 - IVY WITABA,,JBA
PGC58VNFWV,12/07/2021 12:15,12/07/2021 12:15,Pay Bill from 254710537468 - DONALDO AMIOL JUAC AKEC Acc. jdg,Completed,23000,,48000,TRUE,Pay Utility,254710537468 - DONALDO AMIOL JUAC AKEC,,jdg
PGC28RQ7A4,12/07/2021 10:54,12/07/2021 10:54,Pay Bill from 254702190887 - Nax Ochieng Acc. FDE,Completed,15000,,25000,TRUE,Pay Utility,254702190887 - Nax Ochieng,,FDE
PGC58OWSYT,12/07/2021 09:53,12/07/2021 09:53,Pay Bill from 254722258107 - JOHN ODIMA ODIMA Acc. KGF,Completed,10000,,10000,TRUE,Pay Utility,254722258107 - JOHN ODIMA ODIMA,,KGF
PGC58NM453,12/07/2021 09:24,12/07/2021 09:24,Utility Account to Organization Settlement Account,Completed,,-108500,0,TRUE,Utility Account to Organization Settlement Account,979524 - ANCIENT WELLS PROPERTY MANAGERS 2,,
PGB38BLC79,11/07/2021 20:27,11/07/2021 20:27,Pay Bill Online from 254726877391 - EVERLYNE ATIENO Acc. JGI,Completed,20000,,108500,TRUE,Pay Bill Online,254726877391 - EVERLYNE ATIENO,,JGI
PGB07H6Z7I,11/07/2021 10:56,11/07/2021 10:56,Pay Bill from 254797601911 - JORAM MASAI KILONZO Acc. KTE,Completed,9500,,88500,TRUE,Pay Utility,254797601911 - JORAM MASAI KILONZO,,KTE
PGB978UCEN,11/07/2021 06:43,11/07/2021 06:43,Pay Bill from 254716566379 - PAMELA LEMA Acc. hbb,Completed,2000,,79000,TRUE,Pay Utility,254716566379 - PAMELA LEMA,,hbb
PGA06OIJCG,10/07/2021 17:42,10/07/2021 17:42,Pay Bill Online from 254706549634 - CLINTON OMBASA Acc. FDB,Completed,17000,,77000,TRUE,Pay Bill Online,254706549634 - CLINTON OMBASA,,FDB
PGA76G4L0Z,10/07/2021 15:23,10/07/2021 15:23,Pay Bill from 254728681775 - Faith Abigael Acc. IAF,Completed,9000,,60000,TRUE,Pay Utility,254728681775 - Faith Abigael,,IAF
PGA163C0VJ,10/07/2021 11:21,10/07/2021 11:21,Pay Bill from 254700052170 - EMMANUEL MUTYETU Acc. KBF,Completed,10000,,51000,TRUE,Pay Utility,254700052170 - EMMANUEL MUTYETU,,KBF
PGA962N201,10/07/2021 11:07,10/07/2021 11:07,Pay Bill from 254714939164 - JEREMIAH SAKONGU Acc. kdj,Completed,9000,,41000,TRUE,Pay Utility,254714939164 - JEREMIAH SAKONGU,,kdj
PGA362B0LD,10/07/2021 11:01,10/07/2021 11:01,Pay Bill Online from 254712370657 - MARVIN NYANGAU Acc. KAJ,Completed,16000,,32000,TRUE,Pay Bill Online,254712370657 - MARVIN NYANGAU,,KAJ
PGA5624I9B,10/07/2021 10:57,10/07/2021 10:57,Pay Bill from 254724423882 - JOEL GICHURI KARANJA Acc. fee,Completed,16000,,16000,TRUE,Pay Utility,254724423882 - JOEL GICHURI KARANJA,,fee
PGA15WQ2WJ,10/07/2021 09:03,10/07/2021 09:03,Utility Account to Organization Settlement Account,Completed,,-337400,0,TRUE,Utility Account to Organization Settlement Account,979524 - ANCIENT WELLS PROPERTY MANAGERS 2,,
PGA25VXZ44,10/07/2021 08:44,10/07/2021 08:44,Pay Bill from 254768687118 - mitchelle chepkemoi Acc. HFF,Completed,9500,,337400,TRUE,Pay Utility,254768687118 - mitchelle chepkemoi,,HFF
PGA35S8NBX,10/07/2021 06:11,10/07/2021 06:11,Pay Bill Online from 254726116777 - MARY NDUTA GOSHO Acc. JDB,Completed,15000,,327900,TRUE,Pay Utility with OD Online,254726116777 - MARY NDUTA GOSHO,,JDB
PG905Q0J82,09/07/2021 22:53,09/07/2021 22:53,Pay Bill from 254729392595 - WINNIE NASICHE KERE Acc. JBF,Completed,8000,,312900,TRUE,Pay Utility,254729392595 - WINNIE NASICHE KERE,,JBF
PG955P58BL,09/07/2021 22:11,09/07/2021 22:11,Pay Bill from 254726928933 - JOSHUA NDUNDA NZIOKA Acc. KCJ,Completed,18000,,304900,TRUE,Pay Utility,254726928933 - JOSHUA NDUNDA NZIOKA,,KCJ
PG945DHON2,09/07/2021 18:55,09/07/2021 18:55,Pay Bill from 254798643998 - Judith Mwaniki Acc. kce,Completed,10000,,286900,TRUE,Pay Utility with OD via STK,254798643998 - Judith Mwaniki,,kce
PG9958OR3H,09/07/2021 17:52,09/07/2021 17:52,Pay Bill from 254791318982 - ADULLAHI HASSAN Acc. JCI,Completed,20000,,276900,TRUE,Pay Utility,254791318982 - ADULLAHI HASSAN,,JCI
PG9553DDWJ,09/07/2021 16:30,09/07/2021 16:30,Pay Bill from 254740579741 - MUHINDI MULINYA Acc. HGG,Completed,15000,,256900,TRUE,Pay Utility,254740579741 - MUHINDI MULINYA,,HGG
PG9750TLWP,09/07/2021 15:46,09/07/2021 15:46,Pay Bill from 254724882554 - ALPHONCE WAMBUA NGELI Acc. JDA,Completed,20000,,241900,TRUE,Pay Utility,254724882554 - ALPHONCE WAMBUA NGELI,,JDA
PG974ZG4U3,09/07/2021 15:21,09/07/2021 15:21,Pay Bill from 254724611087 - Francis Mukindya Muoki Acc. dfb,Completed,2000,,221900,TRUE,Pay Utility,254724611087 - Francis Mukindya Muoki,,dfb
PG924UO38S,09/07/2021 13:52,09/07/2021 13:52,Pay Bill from 254700385346 - JESCA ATIENO OKOTH Acc. jeh,Completed,16000,,219900,TRUE,Pay Utility,254700385346 - JESCA ATIENO OKOTH,,jeh
PG934RJ9FT,09/07/2021 12:52,09/07/2021 12:52,Pay Bill from 254727515326 - HARRISON WACIRA MAINA Acc. HAH,Completed,16000,,203900,TRUE,Pay Utility,254727515326 - HARRISON WACIRA MAINA,,HAH
PG904F22SO,09/07/2021 08:31,09/07/2021 08:31,Pay Bill from 254707315614 - TERESAH WANJIRU KIRAGU Acc. JDI,Completed,24000,,187900,TRUE,Pay Utility,254707315614 - TERESAH WANJIRU KIRAGU,,JDI
PG914CRZ1R,09/07/2021 07:22,09/07/2021 07:22,Pay Bill from 254703555717 - SENGA SALIM Acc. hbb,Completed,3000,,163900,TRUE,Pay Utility,254703555717 - SENGA SALIM,,hbb
PG924CKWBI,09/07/2021 07:14,09/07/2021 07:14,Pay Bill from 254725094113 - BRAXTON LUMWAJI Acc. DDC,Completed,14500,,160900,TRUE,Pay Utility,254725094113 - BRAXTON LUMWAJI,,DDC
PG944B6H10,09/07/2021 04:52,09/07/2021 04:52,Pay Bill from 254713205244 - ROBERT OGALO Acc. KBH,Completed,10000,,146400,TRUE,Pay Utility,254713205244 - ROBERT OGALO,,KBH
PG8144BH69,08/07/2021 20:25,08/07/2021 20:25,Pay Bill from 254713159153 - GUYO SANKALA Acc. DGD,Completed,20000,,136400,TRUE,Pay Utility,254713159153 - GUYO SANKALA,,DGD
PG8743IZT3,08/07/2021 20:12,08/07/2021 20:12,Pay Bill from 0718838251 - MARK KINYUA MAINA Acc. kfg,Completed,10000,,116400,TRUE,Pay Utility,0718838251 - MARK KINYUA MAINA,,kfg
PG8241Y2DI,08/07/2021 19:48,08/07/2021 19:48,Pay Bill from 0759217545 - Angela Syombua Lole Acc. HDE,Completed,10000,,106400,TRUE,Pay Utility,0759217545 - Angela Syombua Lole,,HDE
PG893YUFTD,08/07/2021 19:09,08/07/2021 19:09,Pay Bill from 254722889574 - ALLAN MWANGI Acc. jcg,Completed,10000,,96400,TRUE,Pay Utility with OD via STK,254722889574 - ALLAN MWANGI,,jcg
PG853QWZ77,08/07/2021 17:22,08/07/2021 17:22,Pay Bill from 254722564580 - GLENN KISIANG'ANI Acc. DBB,Completed,16000,,86400,TRUE,Pay Utility,254722564580 - GLENN KISIANG'ANI,,DBB
PG813O7VF1,08/07/2021 16:38,08/07/2021 16:38,Pay Bill from 254723605941 - JOHN KARIHA Acc. KDD,Completed,8400,,70400,TRUE,Pay Utility,254723605941 - JOHN KARIHA,,KDD
PG883D12JK,08/07/2021 13:05,08/07/2021 13:05,Pay Bill from 254721115404 - Justine Fayuma Okwemba Acc. HAA,Completed,17000,,62000,TRUE,Pay Utility,254721115404 - Justine Fayuma Okwemba,,HAA
PG873AUG2B,08/07/2021 12:22,08/07/2021 12:22,Pay Bill from 0740507437 - JOY KAARI KAMENCU Acc. FAC,Completed,9000,,45000,TRUE,Pay Utility,0740507437 - JOY KAARI KAMENCU,,FAC
PG8438J6O4,08/07/2021 11:34,08/07/2021 11:34,Pay Bill Online from 254715764212 - BANCE ISHEMINYE Acc. JFE,Completed,6000,,36000,TRUE,Pay Bill Online,254715764212 - BANCE ISHEMINYE,,JFE
PG8138C07B,08/07/2021 11:30,08/07/2021 11:30,Pay Bill from 254727300915 - EUNICE NJERI Acc. KFF,Completed,9500,,30000,TRUE,Pay Utility,254727300915 - EUNICE NJERI,,KFF
PG832YMZ05,08/07/2021 07:49,08/07/2021 07:49,FSI to Pay Bill by 714888 - B2C LOOP VIA NCBA Acc. FAD via WEB by B2C LOOP VIA NCBA\Cbainitiator,Completed,11000,,20500,TRUE,FSI to Pay Bill via API,714888 - B2C LOOP VIA NCBA,,FAD
PG852YAFZ9,08/07/2021 07:37,08/07/2021 07:37,Pay Bill from 0769001671 - Wilson Mutangili Wambua Acc. haf,Completed,9500,,9500,TRUE,Pay Utility,0769001671 - Wilson Mutangili Wambua,,haf
PG802XFNVG,08/07/2021 07:03,08/07/2021 07:03,Utility Account to Organization Settlement Account,Completed,,-239500,0,TRUE,Utility Account to Organization Settlement Account,979524 - ANCIENT WELLS PROPERTY MANAGERS 2,,
PG702V4G70,07/07/2021 23:37,07/07/2021 23:37,Pay Bill from 254724590178 - Silvanus Ongiri Acc. HAE,Completed,10000,,239500,TRUE,Pay Utility,254724590178 - Silvanus Ongiri,,HAE
PG702TG5EO,07/07/2021 22:01,07/07/2021 22:01,Pay Bill from 0790631952 - Guyo Boru Guyo Acc. DBC,Completed,20000,,229500,TRUE,Pay Utility,0790631952 - Guyo Boru Guyo,,DBC
PG792QD7E7,07/07/2021 20:49,07/07/2021 20:49,Pay Bill from 254723901777 - EVANS YEBEI Acc. KCH,Completed,10000,,209500,TRUE,Pay Utility with OD via STK,254723901777 - EVANS YEBEI,,KCH
PG722MET4G,07/07/2021 19:47,07/07/2021 19:47,Pay Bill Online from 254705951407 - CAROLINE WAITHIRA KAMAU Acc. IDH,Completed,15000,,199500,TRUE,Pay Bill Online,254705951407 - CAROLINE WAITHIRA KAMAU,,IDH
PG712JW3JB,07/07/2021 19:16,07/07/2021 19:16,Pay Bill Online from 254703550369 - ANASTASIA jepkoech Acc. KAG,Completed,10000,,184500,TRUE,Pay Bill Online,254703550369 - ANASTASIA jepkoech,,KAG
PG782IA2PQ,07/07/2021 18:57,07/07/2021 18:57,Pay Bill from 0743248310 - PATRICK STURRIDGE NYONGESA Acc. kaf,Completed,8000,,174500,TRUE,Pay Utility,0743248310 - PATRICK STURRIDGE NYONGESA,,kaf
PG712HY7X3,07/07/2021 18:54,07/07/2021 18:54,Pay Bill Online from 254748666537 - LABAN MACHARIA GITAU Acc. ICC,Completed,9000,,166500,TRUE,Pay Bill Online,254748666537 - LABAN MACHARIA GITAU,,ICC
PG702DEU2E,07/07/2021 17:55,07/07/2021 17:55,Pay Bill from 254722775231 - BETHWEL KIBET RONO Acc. IFF,Completed,21000,,157500,TRUE,Pay Utility,254722775231 - BETHWEL KIBET RONO,,IFF
PG752D7OY5,07/07/2021 17:52,07/07/2021 17:52,Pay Bill Online from 254724282299 - KEVIN OGUTU Acc. KDG,Completed,10000,,136500,TRUE,Pay Bill Online,254724282299 - KEVIN OGUTU,,KDG
PG771ROFMD,07/07/2021 11:12,07/07/2021 11:12,Pay Bill from 254728687482 - KELSEN MWIRIGI MUTIGA Acc. HCE,Completed,10500,,126500,TRUE,Pay Utility,254728687482 - KELSEN MWIRIGI MUTIGA,,HCE
PG761NTP0S,07/07/2021 09:53,07/07/2021 09:53,Pay Bill Online from 254705846408 - JAMES OUMA Acc. HBH,Completed,16000,,116000,TRUE,Pay Utility with OD Online,254705846408 - JAMES OUMA,,HBH
PG731M3BAB,07/07/2021 09:15,07/07/2021 09:15,Pay Bill from 254728259571 - ANNE KASIVA Acc. ieb,Completed,15000,,100000,TRUE,Pay Utility,254728259571 - ANNE KASIVA,,ieb
PG771KHBUX,07/07/2021 08:37,07/07/2021 08:37,Pay Bill from 254718009051 - STEPHEN OMOLLO Acc. JDF,Completed,8000,,85000,TRUE,Pay Utility with OD via STK,254718009051 - STEPHEN OMOLLO,,JDF
PG781K9HQK,07/07/2021 08:32,07/07/2021 08:32,Pay Bill from 254725771056 - CHARLES MURAGURI Acc. FCE,Completed,15000,,77000,TRUE,Pay Utility,254725771056 - CHARLES MURAGURI,,FCE
PG751JD15B,07/07/2021 08:09,07/07/2021 08:09,Pay Bill from 254722569870 - LUKA KEITANY Acc. jfj,Completed,15000,,62000,TRUE,Pay Utility,254722569870 - LUKA KEITANY,,jfj
PG711HCYGB,07/07/2021 07:03,07/07/2021 07:03,Pay Bill from 254728238249 - ESTHER WANGUI KIBUNYI Acc. ICA,Completed,17000,,47000,TRUE,Pay Utility,254728238249 - ESTHER WANGUI KIBUNYI,,ICA
PG791HCKCR,07/07/2021 07:02,07/07/2021 07:02,Pay Bill from 254714578986 - EZEKIEL MULUNGYE Acc. HAC,Completed,10000,,30000,TRUE,Pay Utility,254714578986 - EZEKIEL MULUNGYE,,HAC
PG741GUJNA,07/07/2021 06:34,07/07/2021 06:34,Pay Bill from 254704833344 - LOISE KIMANI Acc. jfa,Completed,20000,,20000,TRUE,Pay Utility with OD via STK,254704833344 - LOISE KIMANI,,jfa
PG791GJ4JP,07/07/2021 06:06,07/07/2021 06:06,Utility Account to Organization Settlement Account,Completed,,-420500,0,TRUE,Utility Account to Organization Settlement Account,979524 - ANCIENT WELLS PROPERTY MANAGERS 2,,
PG731GD1WP,07/07/2021 05:40,07/07/2021 05:40,Pay Bill from 254708499439 - ROSE NDEDE Acc. HGF,Completed,9000,,420500,TRUE,Pay Utility,254708499439 - ROSE NDEDE,,HGF
PG691EQQRF,06/07/2021 22:48,06/07/2021 22:48,Pay Bill from 0757259130 - RASHID SUDI MCHOMBO Acc. JAF,Completed,8000,,411500,TRUE,Pay Utility,0757259130 - RASHID SUDI MCHOMBO,,JAF
PG631EOFZT,06/07/2021 22:44,06/07/2021 22:44,Pay Bill from 254716581384 - GREGORY KILUNGYA Acc. DAD,Completed,20000,,403500,TRUE,Pay Utility,254716581384 - GREGORY KILUNGYA,,DAD
PG641E8FK6,06/07/2021 22:20,06/07/2021 22:20,Pay Bill from 254729948896 - CAROLINE V MILIZA Acc. Fec,Completed,9000,,383500,TRUE,Pay Utility,254729948896 - CAROLINE V MILIZA,,Fec
PG671CCDEZ,06/07/2021 21:23,06/07/2021 21:23,Pay Bill from 254724655033 - SUSAN CHIMOTO Acc. KGH,Completed,9500,,374500,TRUE,Pay Utility,254724655033 - SUSAN CHIMOTO,,KGH
PG621BQU1I,06/07/2021 21:10,06/07/2021 21:10,Pay Bill from 254729713741 - ALBANUS MUTISO Acc. JBD,Completed,15000,,365000,TRUE,Pay Utility,254729713741 - ALBANUS MUTISO,,JBD
PG681AYJLS,06/07/2021 20:54,06/07/2021 20:54,Pay Bill from 254790627132 - Everline Mutave Kiio Acc. IGG,Completed,8000,,350000,TRUE,Pay Utility with OD via STK,254790627132 - Everline Mutave Kiio,,IGG
PG611A5H35,06/07/2021 20:40,06/07/2021 20:40,Pay Bill Online from 254722769473 - SAMSON CHALO Acc. IAB,Completed,15000,,342000,TRUE,Pay Bill Online,254722769473 - SAMSON CHALO,,IAB
PG6218649Y,06/07/2021 20:08,06/07/2021 20:08,Pay Bill from 254724006242 - JOAN CHEBET Acc. JEG,Completed,9000,,327000,TRUE,Pay Utility,254724006242 - JOAN CHEBET,,JEG
PG6014HGKM,06/07/2021 19:21,06/07/2021 19:21,Pay Bill Online from 254718911865 - KENNEDY KELI KATUNGII Acc. HDF,Completed,9000,,318000,TRUE,Pay Bill Online,254718911865 - KENNEDY KELI KATUNGII,,HDF
PG60ZXBPMY,06/07/2021 17:51,06/07/2021 17:51,Pay Bill from 254725753814 - CARLYNE CHEPNGENO Acc. IFC,Completed,8000,,309000,TRUE,Pay Utility,254725753814 - CARLYNE CHEPNGENO,,IFC
PG63ZWEEML,06/07/2021 17:38,06/07/2021 17:38,Pay Bill from 254719779657 - SAMUEL NJOROGE Acc. JGA,Completed,20000,,301000,TRUE,Pay Utility,254719779657 - SAMUEL NJOROGE,,JGA
PG69ZVODBP,06/07/2021 17:28,06/07/2021 17:28,Pay Bill from 254724103759 - RICHARD NKAABO Acc. jej,Completed,16000,,281000,TRUE,Pay Utility with OD via STK,254724103759 - RICHARD NKAABO,,jej
PG68ZTJV0E,06/07/2021 16:54,06/07/2021 16:54,Pay Bill from 254717909848 - MARY MBULA KATHUKU Acc. FGD,Completed,9000,,265000,TRUE,Pay Utility,254717909848 - MARY MBULA KATHUKU,,FGD
PG69ZRM1JP,06/07/2021 16:22,06/07/2021 16:22,Pay Bill Online from 254710382992 - SIMON KAMAU MUIRURI Acc. JCD,Completed,15000,,256000,TRUE,Pay Bill Online,254710382992 - SIMON KAMAU MUIRURI,,JCD
PG60ZQRJBW,06/07/2021 16:07,06/07/2021 16:07,Pay Bill Online from 254723930071 - AMOS KITAVI KIVITE Acc. JCE,Completed,9000,,241000,TRUE,Pay Bill Online,254723930071 - AMOS KITAVI KIVITE,,JCE
PG62ZQ4GOW,06/07/2021 15:55,06/07/2021 15:55,Pay Bill from 254725754547 - MWACHIRO GEORGE DECHE Acc. DFC,Completed,20000,,232000,TRUE,Pay Utility,254725754547 - MWACHIRO GEORGE DECHE,,DFC
PG62ZOK1CU,06/07/2021 15:26,06/07/2021 15:26,Pay Bill from 254723643548 - KEVIN OUKO Acc. FDD,Completed,11000,,212000,TRUE,Pay Utility,254723643548 - KEVIN OUKO,,FDD
PG62ZN7YIU,06/07/2021 15:01,06/07/2021 15:01,Pay Bill from 254713281251 - ERIC KIAMA Acc. FAA,Completed,16000,,201000,TRUE,Pay Utility,254713281251 - ERIC KIAMA,,FAA
PG60ZLN736,06/07/2021 14:30,06/07/2021 14:30,Pay Bill Online from 254708703539 - SUSAN NDUGIRE NDUGIRE Acc. Kda,Completed,17000,,185000,TRUE,Pay Bill Online,254708703539 - SUSAN NDUGIRE NDUGIRE,,Kda
PG67ZHFL09,06/07/2021 13:09,06/07/2021 13:09,Pay Bill from 254713966424 - NDUTI MUTHUI Acc. jed,Completed,15000,,168000,TRUE,Pay Utility,254713966424 - NDUTI MUTHUI,,jed
PG69ZG62BT,06/07/2021 12:45,06/07/2021 12:45,Pay Bill from 254727411231 - OBADIAH MASWAI Acc. JGJ,Completed,15000,,153000,TRUE,Pay Utility,254727411231 - OBADIAH MASWAI,,JGJ
PG62ZFXPV8,06/07/2021 12:40,06/07/2021 12:40,Pay Bill from 254712954563 - JOSEPH MUTISO KILONZO Acc. dac,Completed,20000,,138000,TRUE,Pay Utility,254712954563 - JOSEPH MUTISO KILONZO,,dac
PG62ZFW96U,06/07/2021 12:40,06/07/2021 12:40,Pay Bill from 254707715639 - Annastacia Kimeu Acc. JFC,Completed,10000,,118000,TRUE,Pay Utility,254707715639 - Annastacia Kimeu,,JFC
PG62ZE7HEU,06/07/2021 12:06,06/07/2021 12:06,Pay Bill from 254717985596 - NICHOLAS KIPKOECH BUTIA Acc. hcf,Completed,9000,,108000,TRUE,Pay Utility,254717985596 - NICHOLAS KIPKOECH BUTIA,,hcf
PG65ZCJN29,06/07/2021 11:32,06/07/2021 11:32,Pay Bill from 254720029066 - EVANS CHERUYOT ROTICH Acc. KFI,Completed,5000,,99000,TRUE,Pay Utility,254720029066 - EVANS CHERUYOT ROTICH,,KFI
PG61ZCEU3R,06/07/2021 11:30,06/07/2021 11:30,Pay Bill from 254708328466 - VENESSA NYARERU Acc. kcd,Completed,12000,,94000,TRUE,Pay Utility,254708328466 - VENESSA NYARERU,,kcd
PG60ZC2AT2,06/07/2021 11:23,06/07/2021 11:23,Pay Bill from 254717073670 - ROBINSON NGONYO Acc. fgc,Completed,18000,,82000,TRUE,Pay Utility,254717073670 - ROBINSON NGONYO,,fgc
PG64ZAHRPK,06/07/2021 10:51,06/07/2021 10:51,Pay Bill from 254726172957 - VINCENT OLIENG' Acc. HBC,Completed,10000,,64000,TRUE,Pay Utility,254726172957 - VINCENT OLIENG',,HBC
PG60Z98QC0,06/07/2021 10:26,06/07/2021 10:26,Pay Bill from 254700788416 - MERCY KASILI Acc. IFE,Completed,8000,,54000,TRUE,Pay Utility,254700788416 - MERCY KASILI,,IFE
PG60Z8XSWY,06/07/2021 10:19,06/07/2021 10:19,Pay Bill from 254706158280 - patience mutheu mbevi Acc. KFC,Completed,10000,,46000,TRUE,Pay Utility,254706158280 - patience mutheu mbevi,,KFC
PG66Z80UEY,06/07/2021 10:00,06/07/2021 10:00,Pay Bill from 254702346515 - ELIZABETH ACHIENG NGOME Acc. KDE,Completed,10000,,36000,TRUE,Pay Utility,254702346515 - ELIZABETH ACHIENG NGOME,,KDE
PG64Z7YQV6,06/07/2021 09:59,06/07/2021 09:59,Pay Bill from 0792933158 - mary wamaitha maina Acc. kdh,Completed,10000,,26000,TRUE,Pay Utility,0792933158 - mary wamaitha maina,,kdh
PG60Z7XZCI,06/07/2021 09:59,06/07/2021 09:59,Pay Bill from 254702764047 - FERDINAND K Acc. KDB,Completed,16000,,16000,TRUE,Pay Utility,254702764047 - FERDINAND K,,KDB
PG60Z1463Q,06/07/2021 07:02,06/07/2021 07:02,Utility Account to Organization Settlement Account,Completed,,-378000,0,TRUE,Utility Account to Organization Settlement Account,979524 - ANCIENT WELLS PROPERTY MANAGERS 2,,
PG55YZ373X,05/07/2021 23:40,05/07/2021 23:40,Pay Bill Online from 254717780356 - ALFRED MAIRURA Acc. FAF,Completed,16000,,378000,TRUE,Pay Utility with OD Online,254717780356 - ALFRED MAIRURA,,FAF
PG59YYXTP9,05/07/2021 23:21,05/07/2021 23:21,Pay Bill from 254703935626 - DAVID NGARI ITA Acc. FCD,Completed,1000,,362000,TRUE,Pay Utility,254703935626 - DAVID NGARI ITA,,FCD
PG54YXUG5G,05/07/2021 22:13,05/07/2021 22:13,Pay Bill Online from 254720381965 - JAMES NGUGI MWANIKI Acc. JBI,Completed,20000,,361000,TRUE,Pay Bill Online,254720381965 - JAMES NGUGI MWANIKI,,JBI
PG54YXG57Y,05/07/2021 21:59,05/07/2021 21:59,Pay Bill Online from 254710814215 - JOAN NYAMBURA KAMAU Acc. ifb,Completed,15000,,341000,TRUE,Pay Bill Online,254710814215 - JOAN NYAMBURA KAMAU,,ifb
PG58YWW30W,05/07/2021 21:43,05/07/2021 21:43,Pay Bill from 254701027615 - JAMES KIPKURUI KEMBOI Acc. HAB,Completed,15000,,326000,TRUE,Pay Utility with OD via STK,254701027615 - JAMES KIPKURUI KEMBOI,,HAB
PG52YWJDC2,05/07/2021 21:33,05/07/2021 21:33,Pay Bill from 254728670882 - SHARAD EDWARD ADALA OLUM Acc. KCK,Completed,15000,,311000,TRUE,Pay Utility,254728670882 - SHARAD EDWARD ADALA OLUM,,KCK
PG54YTVC3A,05/07/2021 20:39,05/07/2021 20:39,Pay Bill Online from 254792187144 - HASSAN AHMED HASSAN Acc. KGI,Completed,10000,,296000,TRUE,Pay Bill Online,254792187144 - HASSAN AHMED HASSAN,,KGI
PG57YQFT53,05/07/2021 19:48,05/07/2021 19:48,Pay Bill from 0703236529 - MARGARET WANJIRU WANJOHI Acc. IAE,Completed,8000,,286000,TRUE,Pay Utility,0703236529 - MARGARET WANJIRU WANJOHI,,IAE
PG53YQ4LWV,05/07/2021 19:44,05/07/2021 19:44,Pay Bill from 254720351482 - Cheruiyot Langat Brian Acc. dfa,Completed,15000,,278000,TRUE,Pay Utility,254720351482 - Cheruiyot Langat Brian,,dfa
PG55YOBNDF,05/07/2021 19:22,05/07/2021 19:22,Pay Bill Online from 254715002789 - ERICK NGUGI MAINA Acc. HAG,Completed,16000,,263000,TRUE,Pay Bill Online,254715002789 - ERICK NGUGI MAINA,,HAG
PG50YNDGPY,05/07/2021 19:11,05/07/2021 19:11,Pay Bill Online from 254715892656 - DENNIS MUSYOKA MUOKI Acc. KFA,Completed,16000,,247000,TRUE,Pay Bill Online,254715892656 - DENNIS MUSYOKA MUOKI,,KFA
PG51YMKRAN,05/07/2021 19:02,05/07/2021 19:02,Pay Bill from 254717140158 - Peter Wanjiru Acc. HFB,Completed,15000,,231000,TRUE,Pay Utility,254717140158 - Peter Wanjiru,,HFB
PG52YLUQJM,05/07/2021 18:54,05/07/2021 18:54,Pay Bill from 254729355933 - FELISTAH NJERI WAIRIMU Acc. IDI,Completed,15000,,216000,TRUE,Pay Utility,254729355933 - FELISTAH NJERI WAIRIMU,,IDI
PG59YKXXIL,05/07/2021 18:43,05/07/2021 18:43,Pay Bill from 254715728688 - NAOMI HAGERERA JACOB Acc. DGC,Completed,10000,,201000,TRUE,Pay Utility,254715728688 - NAOMI HAGERERA JACOB,,DGC
PG52YHAQH8,05/07/2021 17:56,05/07/2021 17:56,Pay Bill from 254716056537 - KIRUI KIPLANGAT HILLARY Acc. JCJ,Completed,16000,,191000,TRUE,Pay Utility,254716056537 - KIRUI KIPLANGAT HILLARY,,JCJ
PG58YH1RBS,05/07/2021 17:52,05/07/2021 17:52,Pay Bill Online from 254722521028 - CHARLES MONYONCHO Acc. ICB,Completed,17000,,175000,TRUE,Pay Bill Online,254722521028 - CHARLES MONYONCHO,,ICB
PG51YGGF0F,05/07/2021 17:44,05/07/2021 17:44,Pay Bill from 254728042989 - PATRICK OMONDI Acc. IFI,Completed,15000,,158000,TRUE,Pay Utility with OD via STK,254728042989 - PATRICK OMONDI,,IFI
PG59YB2X1N,05/07/2021 16:20,05/07/2021 16:20,Pay Bill from 254729258441 - ROBERT RONO KULEI Acc. JAB,Completed,10000,,143000,TRUE,Pay Utility,254729258441 - ROBERT RONO KULEI,,JAB
PG59Y6E4M9,05/07/2021 14:54,05/07/2021 14:54,Pay Bill from 0722925798 - ifrah abukar adan Acc. IEI,Completed,15000,,133000,TRUE,Pay Utility,0722925798 - ifrah abukar adan,,IEI
PG52Y5E5IQ,05/07/2021 14:35,05/07/2021 14:35,Pay Bill from 254726636196 - BETHUEL KEMBOI KURUI Acc. JFD,Completed,15000,,118000,TRUE,Pay Utility,254726636196 - BETHUEL KEMBOI KURUI,,JFD
PG56Y4UD50,05/07/2021 14:24,05/07/2021 14:24,Pay Bill from 0711117122 - Yassir Mwinyi Abdulrazaq Acc. ICE,Completed,5000,,103000,TRUE,Pay Utility,0711117122 - Yassir Mwinyi Abdulrazaq,,ICE
PG59Y2DM1R,05/07/2021 13:39,05/07/2021 13:39,Pay Bill Online from 254714563486 - BRIAN MMATA MUSERA Acc. KBJ,Completed,16000,,98000,TRUE,Pay Utility with OD Online,254714563486 - BRIAN MMATA MUSERA,,KBJ
PG53Y1ODPV,05/07/2021 13:26,05/07/2021 13:26,Pay Bill from 254720511734 - ENOCK KIBET Acc. FDC,Completed,9000,,82000,TRUE,Pay Utility,254720511734 - ENOCK KIBET,,FDC
PG53Y0DRLD,05/07/2021 13:03,05/07/2021 13:03,Pay Bill from 254701006375 - EZRA MAKORI SERETI Acc. HTE,Completed,10000,,73000,TRUE,Pay Utility,254701006375 - EZRA MAKORI SERETI,,HTE
PG53XZ7AVH,05/07/2021 12:41,05/07/2021 12:41,Pay Bill from 254723747228 - MORARA ASANYO Acc. pool,Completed,12000,,63000,TRUE,Pay Utility,254723747228 - MORARA ASANYO,,pool
PG58XUCCYM,05/07/2021 11:07,05/07/2021 11:07,Pay Bill from 254726028330 - JOHN WAMBUA Acc. IFH,Completed,15000,,51000,TRUE,Pay Utility,254726028330 - JOHN WAMBUA,,IFH
PG57XSTWKZ,05/07/2021 10:37,05/07/2021 10:37,Pay Bill Online from 254708225541 - JUDITH NKATHA SIMBA Acc. HDH,Completed,16000,,36000,TRUE,Pay Bill Online,254708225541 - JUDITH NKATHA SIMBA,,HDH
PG57XRRIM5,05/07/2021 10:16,05/07/2021 10:16,Pay Bill from 254729590734 - PATRICK NDUNGA Acc. IDD,Completed,10000,,20000,TRUE,Pay Utility,254729590734 - PATRICK NDUNGA,,IDD
PG53XRPNAZ,05/07/2021 10:15,05/07/2021 10:15,Pay Bill from 254719398942 - NORAH WAYUA MUNYAO Acc. KDC,Completed,10000,,10000,TRUE,Pay Utility,254719398942 - NORAH WAYUA MUNYAO,,KDC
PG53XOC73J,05/07/2021 09:05,05/07/2021 09:05,Utility Account to Organization Settlement Account,Completed,,-498500,0,TRUE,Utility Account to Organization Settlement Account,979524 - ANCIENT WELLS PROPERTY MANAGERS 2,,
PG54XLHP4O,05/07/2021 07:56,05/07/2021 07:56,Pay Bill from 254721852723 - HASSAN ABDINOOR MOHAMED Acc. jaa,Completed,14000,,498500,TRUE,Pay Utility,254721852723 - HASSAN ABDINOOR MOHAMED,,jaa
PG48XHR8DA,04/07/2021 23:16,04/07/2021 23:16,Pay Bill from 254703935626 - DAVID NGARI ITA Acc. FCD,Completed,1000,,484500,TRUE,Pay Utility,254703935626 - DAVID NGARI ITA,,FCD
PG43XEYS6D,04/07/2021 21:17,04/07/2021 21:17,Pay Bill from 254729160700 - MICAH NDUNGI Acc. HFE,Completed,10500,,483500,TRUE,Pay Utility,254729160700 - MICAH NDUNGI,,HFE
PG49XBQNMJ,04/07/2021 20:13,04/07/2021 20:13,Pay Bill Online from 254714710698 - TABITHA MULEE KYALO Acc. IFD,Completed,11500,,473000,TRUE,Pay Bill Online,254714710698 - TABITHA MULEE KYALO,,IFD
PG45XAUDTP,04/07/2021 19:59,04/07/2021 19:59,Pay Bill from 0792441884 - CORNELIA CONRAD MVULA Acc. IBB,Completed,15000,,461500,TRUE,Pay Utility,0792441884 - CORNELIA CONRAD MVULA,,IBB
PG45X4PPTT,04/07/2021 18:34,04/07/2021 18:34,Pay Bill from 254721315975 - JOSEPH NDEGWA Acc. HEB,Completed,16000,,446500,TRUE,Pay Utility,254721315975 - JOSEPH NDEGWA,,HEB
PG48X4GTWE,04/07/2021 18:31,04/07/2021 18:31,Pay Bill from 254701112397 - ELEMA GODANA DIBA Acc. IAD,Completed,10000,,430500,TRUE,Pay Utility,254701112397 - ELEMA GODANA DIBA,,IAD
PG41X38DU9,04/07/2021 18:12,04/07/2021 18:12,Pay Bill from 0745378455 - harriet nyanchama nyaberi Acc. FCC,Completed,9000,,420500,TRUE,Pay Utility,0745378455 - harriet nyanchama nyaberi,,FCC
PG42X2VJE8,04/07/2021 18:07,04/07/2021 18:07,Pay Bill from 254720868281 - KENNEDY MWELU Acc. KBI,Completed,12500,,411500,TRUE,Pay Utility,254720868281 - KENNEDY MWELU,,KBI
PG43WY3U5T,04/07/2021 16:46,04/07/2021 16:46,Pay Bill from 0724266795 - CAROLINE MUTHONI GICHOHI Acc. fca,Completed,16000,,399000,TRUE,Pay Utility,0724266795 - CAROLINE MUTHONI GICHOHI,,fca
PG46WWQ33K,04/07/2021 16:21,04/07/2021 16:21,Pay Bill from 254714814264 - PATRICIA NZOMO Acc. Hcc,Completed,10000,,383000,TRUE,Pay Utility,254714814264 - PATRICIA NZOMO,,Hcc
PG42WUH6PW,04/07/2021 15:37,04/07/2021 15:37,Pay Bill Online from 254717809935 - LYDIAH WERU Acc. IDC,Completed,9500,,373000,TRUE,Pay Bill Online,254717809935 - LYDIAH WERU,,IDC
PG42WTRD8S,04/07/2021 15:23,04/07/2021 15:23,Pay Bill Online from 254742911013 - HANEST AMIMO Acc. IEG,Completed,8000,,363500,TRUE,Pay Bill Online,254742911013 - HANEST AMIMO,,IEG
PG48WTIMZM,04/07/2021 15:19,04/07/2021 15:19,Pay Bill from 254740306063 - susan wanja thurui Acc. Acc..hfg,Completed,15000,,355500,TRUE,Pay Utility,254740306063 - susan wanja thurui,,Acc..hfg
PG49WRRZOT,04/07/2021 14:44,04/07/2021 14:44,Pay Bill from 254748903322 - MARILYN MKAWUGHANGA KIRIGHO Acc. ICD,Completed,9000,,340500,TRUE,Pay Utility,254748903322 - MARILYN MKAWUGHANGA KIRIGHO,,ICD
PG49WQLE2T,04/07/2021 14:21,04/07/2021 14:21,Pay Bill from 254708376721 - Millicent Achieng Akuka Acc. KCA,Completed,16000,,331500,TRUE,Pay Utility,254708376721 - Millicent Achieng Akuka,,KCA
PG41WJJOSJ,04/07/2021 11:47,04/07/2021 11:47,Pay Bill from 254723499628 - CLINTON JOSEPH MUHARI Acc. hfh,Completed,16000,,315500,TRUE,Pay Utility,254723499628 - CLINTON JOSEPH MUHARI,,hfh
PG49W9CGLJ,04/07/2021 07:22,04/07/2021 07:22,Pay Bill from 254722940643 - HERBERT MAVIAH ISWEKA Acc. HCG,Completed,18000,,299500,TRUE,Pay Utility with OD via STK,254722940643 - HERBERT MAVIAH ISWEKA,,HCG
PG45W91HR9,04/07/2021 07:06,04/07/2021 07:06,Pay Bill from 254702355678 - JOHN NJOROGE GICHERU Acc. ITE,Completed,10000,,281500,TRUE,Pay Utility,254702355678 - JOHN NJOROGE GICHERU,,ITE
PG33W652HL,03/07/2021 22:35,03/07/2021 22:35,Pay Bill Online from 0796121714 - janet   mwikali Acc. KEC,Completed,10000,,271500,TRUE,Pay Bill Online,0796121714 - janet   mwikali,,KEC
PG31W5WVB5,03/07/2021 22:24,03/07/2021 22:24,Pay Bill from 254716479709 - PAUL MUSYOKI Acc. IEC,Completed,8000,,261500,TRUE,Pay Utility,254716479709 - PAUL MUSYOKI,,IEC
PG33W5FMAT,03/07/2021 22:07,03/07/2021 22:07,Pay Bill from 254720278119 - LINDAH OGAWO Acc. KFE,Completed,9500,,253500,TRUE,Pay Utility,254720278119 - LINDAH OGAWO,,KFE
PG31W27ACN,03/07/2021 20:51,03/07/2021 20:51,Pay Bill from 0715688238 - JOANNAH ATUHAIRE BANTU Acc. jae,Completed,9000,,244000,TRUE,Pay Utility,0715688238 - JOANNAH ATUHAIRE BANTU,,jae
PG39VZ3UL9,03/07/2021 20:01,03/07/2021 20:01,Pay Bill from 254719285750 - LILIAN ACHIENG ODONGO Acc. IGE,Completed,9000,,235000,TRUE,Pay Utility,254719285750 - LILIAN ACHIENG ODONGO,,IGE
PG39VS5PN7,03/07/2021 18:36,03/07/2021 18:36,Pay Bill Online from 0757699775 - BENARD MUIA MUTUA Acc. HCB,Completed,16000,,226000,TRUE,Pay Bill Online,0757699775 - BENARD MUIA MUTUA,,HCB
PG35VPCB15,03/07/2021 17:59,03/07/2021 17:59,Pay Bill from 0748059595 - Rashid NASSIR Khamis Acc. DDA,Completed,12000,,210000,TRUE,Pay Utility,0748059595 - Rashid NASSIR Khamis,,DDA
PG38VOI8ZM,03/07/2021 17:47,03/07/2021 17:47,Pay Bill from 254726178084 - CHRISTOPHER OCHIENG Acc. FFE,Completed,16000,,198000,TRUE,Pay Utility,254726178084 - CHRISTOPHER OCHIENG,,FFE
PG37VNF5MB,03/07/2021 17:31,03/07/2021 17:31,Pay Bill from 254726753273 - JESSE K MURIRMI NJERU Acc. HCH,Completed,17000,,182000,TRUE,Pay Utility,254726753273 - JESSE K MURIRMI NJERU,,HCH
PG36VJ98EU,03/07/2021 16:25,03/07/2021 16:25,Pay Bill from 254704934557 - BAKARI KITSAKA Acc. JAD,Completed,31000,,165000,TRUE,Pay Utility,254704934557 - BAKARI KITSAKA,,JAD
PG32VHG6OI,03/07/2021 15:54,03/07/2021 15:54,Pay Bill Online from 0724386624 - FATUMA ISSE YUSSUF Acc. FAB,Completed,16000,,134000,TRUE,Pay Bill Online,0724386624 - FATUMA ISSE YUSSUF,,FAB
PG36VFR5LW,03/07/2021 15:24,03/07/2021 15:24,Pay Bill from 254714939164 - JEREMIAH SAKONGU Acc. Kdj,Completed,9000,,118000,TRUE,Pay Utility,254714939164 - JEREMIAH SAKONGU,,Kdj
PG30VE8BUQ,03/07/2021 14:57,03/07/2021 14:57,Pay Bill from 0113473583 - GERARD   HAVYARIMANA Acc. KAH,Completed,10000,,109000,TRUE,Pay Utility,0113473583 - GERARD   HAVYARIMANA,,KAH
PG33VBIUMB,03/07/2021 14:08,03/07/2021 14:08,Pay Bill from 254707370896 - OKECH BRIAN BRIAN Acc. FFA,Completed,15000,,99000,TRUE,Pay Utility,254707370896 - OKECH BRIAN BRIAN,,FFA
PG31VB3AM9,03/07/2021 14:00,03/07/2021 14:00,Pay Bill from 254726977770 - STEPHEN MUIRURI MATHENGE Acc. HBG,Completed,16000,,84000,TRUE,Pay Utility,254726977770 - STEPHEN MUIRURI MATHENGE,,HBG
PG36VAW8FA,03/07/2021 13:56,03/07/2021 13:56,Pay Bill from 254719499823 - MOSES MWANZIA MUTHIANI Acc. Jcc,Completed,3000,,68000,TRUE,Pay Utility,254719499823 - MOSES MWANZIA MUTHIANI,,Jcc
PG34V7ZOAW,03/07/2021 13:03,03/07/2021 13:03,Pay Bill Online from 254704682516 - Winnie Akinyi Omollo Acc. FDA,Completed,16000,,65000,TRUE,Pay Bill Online,254704682516 - Winnie Akinyi Omollo,,FDA
PG32V5LA6O,03/07/2021 12:18,03/07/2021 12:18,Pay Bill from 254700187806 - WINNIE OLIVIA AKOTH Acc. jec,Completed,10000,,49000,TRUE,Pay Utility,254700187806 - WINNIE OLIVIA AKOTH,,jec
PG35V47G6B,03/07/2021 11:52,03/07/2021 11:52,Pay Bill from 254712187712 - JUDELEEN AHINDUKHA SHILOBELE Acc. IEA,Completed,19000,,39000,TRUE,Pay Utility,254712187712 - JUDELEEN AHINDUKHA SHILOBELE,,IEA
PG38V3UZT0,03/07/2021 11:46,03/07/2021 11:46,Pay Bill from 254716702294 - DANIEL MULATI Acc. KBE,Completed,20000,,20000,TRUE,Pay Utility,254716702294 - DANIEL MULATI,,KBE
PG37V15JND,03/07/2021 10:54,03/07/2021 10:54,Utility Account to Organization Settlement Account,Completed,,-114500,0,TRUE,Utility Account to Organization Settlement Account,979524 - ANCIENT WELLS PROPERTY MANAGERS 2,,
PG39UWHRB7,03/07/2021 09:20,03/07/2021 09:20,Pay Bill from 254796848496 - IVY WITABA Acc. JBA,Completed,11000,,114500,TRUE,Pay Utility,254796848496 - IVY WITABA,,JBA
PG32UUXY9G,03/07/2021 08:45,03/07/2021 08:45,Pay Bill from 254716315144 - PETER MUNYIRI WAROTERE Acc. FBB,Completed,16000,,103500,TRUE,Pay Utility,254716315144 - PETER MUNYIRI WAROTERE,,FBB
PG31UUSDJV,03/07/2021 08:41,03/07/2021 08:41,Pay Bill from 254715742045 - FRIDAH KIEMA Acc. HGC,Completed,9500,,87500,TRUE,Pay Utility with OD via STK,254715742045 - FRIDAH KIEMA,,HGC
PG30USIVQ2,03/07/2021 07:42,03/07/2021 07:42,Pay Bill from 254727648419 - ABDISALAN AHMED Acc. Jbh,Completed,17000,,78000,TRUE,Pay Utility,254727648419 - ABDISALAN AHMED,,Jbh
PG30US76W2,03/07/2021 07:31,03/07/2021 07:31,Pay Bill from 254718138578 - PAULINE KIOKO Acc. KFD,Completed,12000,,61000,TRUE,Pay Utility,254718138578 - PAULINE KIOKO,,KFD
PG29UMWTBP,02/07/2021 21:45,02/07/2021 21:45,Pay Bill from 254726687555 - ELIUD MUTHURE MICHENI Acc. KAI,Completed,12000,,49000,TRUE,Pay Utility,254726687555 - ELIUD MUTHURE MICHENI,,KAI
PG23UKQPD9,02/07/2021 20:57,02/07/2021 20:57,Pay Bill from 254796261716 - CHRISTINE WAMBUI Acc. ICH,Completed,15000,,37000,TRUE,Pay Utility,254796261716 - CHRISTINE WAMBUI,,ICH
PG27UK8U1D,02/07/2021 20:48,02/07/2021 20:48,Pay Bill from 254713334156 - hellen akinyi oyugi Acc. KEE,Completed,10000,,22000,TRUE,Pay Utility,254713334156 - hellen akinyi oyugi,,KEE
PG27UEHDNF,02/07/2021 19:26,02/07/2021 19:26,Pay Bill Online from 254757143627 - PETER AMOLLO HAYA Acc. 979524,Completed,9000,,12000,TRUE,Pay Bill Online,254757143627 - PETER AMOLLO HAYA,,979524
PG21U6WAZN,02/07/2021 17:52,02/07/2021 17:52,Pay Bill Online from 254720451253 - JIMMY KIOGORA NKIROTE Acc. KBD,Completed,3000,,3000,TRUE,Pay Utility with OD Online,254720451253 - JIMMY KIOGORA NKIROTE,,KBD
PG27U25SKR,02/07/2021 16:41,02/07/2021 16:41,Utility Account to Organization Settlement Account,Completed,,-206500,0,TRUE,Utility Account to Organization Settlement Account,979524 - ANCIENT WELLS PROPERTY MANAGERS 2,,
PG29TXV67D,02/07/2021 15:27,02/07/2021 15:27,Pay Bill from 254722874715 - PATRCIAH mbesa KIOKO Acc. KBB,Completed,16000,,206500,TRUE,Pay Utility,254722874715 - PATRCIAH mbesa KIOKO,,KBB
PG22TUQAPC,02/07/2021 14:31,02/07/2021 14:31,Pay Bill from 0758826849 -  Norah Awala Anyango Acc. JEA ,Completed,15000,,190500,TRUE,Pay Utility,0758826849 -  Norah Awala Anyango,,JEA
PG25TTXUE5,02/07/2021 14:16,02/07/2021 14:16,Pay Bill from 254722136450 - MARY EVERLYN Acc. JAI,Completed,20000,,175500,TRUE,Pay Utility,254722136450 - MARY EVERLYN,,JAI
PG27TTD70J,02/07/2021 14:06,02/07/2021 14:06,Pay Bill from 254718284151 - EVERLINE MATHEKA Acc. JAG,Completed,9000,,155500,TRUE,Pay Utility,254718284151 - EVERLINE MATHEKA,,JAG
PG28TR8GQ2,02/07/2021 13:27,02/07/2021 13:27,Pay Bill from 0757055487 - Pauline Achieng Ochieng Acc. HDC,Completed,10000,,146500,TRUE,Pay Utility,0757055487 - Pauline Achieng Ochieng,,HDC
PG27TMGFY1,02/07/2021 11:56,02/07/2021 11:56,Pay Bill from 254725094113 - BRAXTON LUMWAJI Acc. DDC,Completed,30000,,136500,TRUE,Pay Utility,254725094113 - BRAXTON LUMWAJI,,DDC
PG24TMDQEK,02/07/2021 11:55,02/07/2021 11:55,Pay Bill from 0713284902 - Julia Naliaka william Makhacha Acc. Iac,Completed,8000,,106500,TRUE,Pay Utility,0713284902 - Julia Naliaka william Makhacha,,Iac
PG20TJIPKE,02/07/2021 10:59,02/07/2021 10:59,Pay Bill from 254713404029 - ANNE ISEUNA Acc. DED,Completed,20000,,98500,TRUE,Pay Utility,254713404029 - ANNE ISEUNA,,DED
PG23TIMUPJ,02/07/2021 10:41,02/07/2021 10:41,Pay Bill from 254720375006 - JACOB KANGOGO Acc. IBA,Completed,15000,,78500,TRUE,Pay Utility,254720375006 - JACOB KANGOGO,,IBA
PG20TD43VA,02/07/2021 08:45,02/07/2021 08:45,Pay Bill from 254728854349 - JOSEPH MUSYOKA Acc. IBG,Completed,8000,,63500,TRUE,Pay Utility,254728854349 - JOSEPH MUSYOKA,,IBG
PG27TBUX3V,02/07/2021 08:15,02/07/2021 08:15,Pay Bill from 254729371750 - DERRICK OTANGA Acc. FEF,Completed,17000,,55500,TRUE,Pay Utility,254729371750 - DERRICK OTANGA,,FEF
PG26TAUCGE,02/07/2021 07:47,02/07/2021 07:47,Pay Bill from 254723929380 - RHODAH K WAMBUA Acc. HEF,Completed,9500,,38500,TRUE,Pay Utility,254723929380 - RHODAH K WAMBUA,,HEF
PG20TAETMQ,02/07/2021 07:34,02/07/2021 07:34,Pay Bill Online from 254707226192 - NICHOLUS MAINGI MWANTHI Acc. HBF,Completed,9000,,29000,TRUE,Pay Bill Online,254707226192 - NICHOLUS MAINGI MWANTHI,,HBF
PG24TA5IBG,02/07/2021 07:25,02/07/2021 07:25,Pay Bill from 254724953672 - MERCY MBETI Acc. JCA,Completed,20000,,20000,TRUE,Pay Utility,254724953672 - MERCY MBETI,,JCA
PG22T9RTT4,02/07/2021 07:11,02/07/2021 07:11,Utility Account to Organization Settlement Account,Completed,,-162500,0,TRUE,Utility Account to Organization Settlement Account,979524 - ANCIENT WELLS PROPERTY MANAGERS 2,,
PG20T9IE3W,02/07/2021 07:00,02/07/2021 07:00,Pay Bill Online from 254718299426 - AMOS NGURE MWANGI Acc. HEE,Completed,10500,,162500,TRUE,Pay Bill Online,254718299426 - AMOS NGURE MWANGI,,HEE
PG21T9EZOF,02/07/2021 06:55,02/07/2021 06:55,Pay Bill Online from 254722728975 - CURTIS MRIGA OMIDO Acc. IAH,Completed,16000,,152000,TRUE,Pay Bill Online,254722728975 - CURTIS MRIGA OMIDO,,IAH
PG20T8QN9U,02/07/2021 06:08,02/07/2021 06:08,Pay Bill Online from 254716328009 - IRENE ODHIAMBO Acc. KGG,Completed,9000,,136000,TRUE,Pay Bill Online,254716328009 - IRENE ODHIAMBO,,KGG
PG11T6JNKT,01/07/2021 22:39,01/07/2021 22:39,Pay Bill from 254703935626 - DAVID NGARI ITA Acc. FCD,Completed,1000,,127000,TRUE,Pay Utility with OD via STK,254703935626 - DAVID NGARI ITA,,FCD
PG18T6BQUG,01/07/2021 22:28,01/07/2021 22:28,Pay Bill from 254716784364 - Wendy Kemunto Nyandiko Acc. ffc,Completed,9000,,126000,TRUE,Pay Utility,254716784364 - Wendy Kemunto Nyandiko,,ffc
PG16T69IOA,01/07/2021 22:25,01/07/2021 22:25,Pay Bill from 254722444622 - CHARITY KAGWAINI Acc. ffd,Completed,11000,,117000,TRUE,Pay Utility,254722444622 - CHARITY KAGWAINI,,ffd
PG16T5EOX6,01/07/2021 21:53,01/07/2021 21:53,Pay Bill Online from 254720044312 - ELIUD KIPKURUI Acc. FCF,Completed,17000,,106000,TRUE,Pay Bill Online,254720044312 - ELIUD KIPKURUI,,FCF
PG19T2B43F,01/07/2021 20:43,01/07/2021 20:43,Pay Bill Online from 254723370004 - LABAN MAINGI WAMBUA Acc. JEF,Completed,8000,,89000,TRUE,Pay Bill Online,254723370004 - LABAN MAINGI WAMBUA,,JEF
PG17SXS175,01/07/2021 19:36,01/07/2021 19:36,Pay Bill from 254710239100 - PHILOMENA WOKI MUTHAMA Acc. KDK,Completed,17000,,81000,TRUE,Pay Utility,254710239100 - PHILOMENA WOKI MUTHAMA,,KDK
PG12SX24KU,01/07/2021 19:28,01/07/2021 19:28,Pay Bill Online from 254711123196 - JUDITH MUTUA Acc. FEA,Completed,16000,,64000,TRUE,Pay Bill Online,254711123196 - JUDITH MUTUA,,FEA
PG10SUFY3K,01/07/2021 18:57,01/07/2021 18:57,Pay Bill from 254717726012 - WINFRED MUENI PETER Acc. IDA,Completed,16000,,48000,TRUE,Pay Utility with OD via STK,254717726012 - WINFRED MUENI PETER,,IDA
PG12SQ4OY6,01/07/2021 18:01,01/07/2021 18:01,Pay Bill Online from 254725218904 - SALOME MUTHONI MWANGI Acc. KFJ,Completed,15000,,32000,TRUE,Pay Bill Online,254725218904 - SALOME MUTHONI MWANGI,,KFJ
PG10SP9GXE,01/07/2021 17:49,01/07/2021 17:49,Pay Bill from 254721977151 - MIRIAM KIKOLYA Acc. KEA,Completed,6000,,17000,TRUE,Pay Utility,254721977151 - MIRIAM KIKOLYA,,KEA
PG10SM89Y4,01/07/2021 17:03,01/07/2021 17:03,Pay Bill Online from 254711562428 - Lionel Mutune Muoka Acc. KDI,Completed,11000,,11000,TRUE,Pay Bill Online,254711562428 - Lionel Mutune Muoka,,KDI
PG15SJBG5L,01/07/2021 16:14,01/07/2021 16:14,Utility Account to Organization Settlement Account,Completed,,-63500,0,TRUE,Utility Account to Organization Settlement Account,979524 - ANCIENT WELLS PROPERTY MANAGERS 2,,
PG15SHHG93,01/07/2021 15:41,01/07/2021 15:41,Pay Bill from 254721302658 - JACOB BIRUNDU Acc. DDB,Completed,24000,,63500,TRUE,Pay Utility,254721302658 - JACOB BIRUNDU,,DDB
PG17SFSDYJ,01/07/2021 15:09,01/07/2021 15:09,Pay Bill from 254724611087 - Francis Mukindya Muoki Acc. dfb,Completed,2500,,39500,TRUE,Pay Utility with OD via STK,254724611087 - Francis Mukindya Muoki,,dfb
PG18SFG0OA,01/07/2021 15:02,01/07/2021 15:02,Pay Bill from 0797758628 - jackline nyamari onyango Acc. ICF,Completed,11000,,37000,TRUE,Pay Utility,0797758628 - jackline nyamari onyango,,ICF
PG17SEE1D7,01/07/2021 14:42,01/07/2021 14:42,Pay Bill from 254724852503 - GEOFREY YEGO Acc. JFF,Completed,10000,,26000,TRUE,Pay Utility,254724852503 - GEOFREY YEGO,,JFF
PG13SDZQ1Z,01/07/2021 14:34,01/07/2021 14:34,Pay Bill from 254714855708 - KIPLANGAT SITIENEI Acc. FAE,Completed,16000,,16000,TRUE,Pay Utility,254714855708 - KIPLANGAT SITIENEI,,FAE
PG19SAOA57,01/07/2021 13:31,01/07/2021 13:31,Utility Account to Organization Settlement Account,Completed,,-47000,0,TRUE,Utility Account to Organization Settlement Account,979524 - ANCIENT WELLS PROPERTY MANAGERS 2,,
PG13SAGE2D,01/07/2021 13:27,01/07/2021 13:27,Pay Bill Online from 254711724272 - EDMOND ONYANGO OKEWE Acc. FCB,Completed,16000,,47000,TRUE,Pay Bill Online,254711724272 - EDMOND ONYANGO OKEWE,,FCB
PG18S2UGM0,01/07/2021 10:55,01/07/2021 10:55,Pay Bill Online from 254798022849 - MARTIN BUNDI RUGENDO Acc. KFH,Completed,10000,,31000,TRUE,Pay Bill Online,254798022849 - MARTIN BUNDI RUGENDO,,KFH
PG13RXN2CB,01/07/2021 09:05,01/07/2021 09:05,Pay Bill from 254726039536 - MERCY MESHACK Acc. JBC,Completed,11000,,21000,TRUE,Pay Utility,254726039536 - MERCY MESHACK,,JBC
PG12RVXE6G,01/07/2021 08:24,01/07/2021 08:24,Pay Bill from 254722604851 - WILFRED SAKWA Acc. IDG,Completed,10000,,10000,TRUE,Pay Utility,254722604851 - WILFRED SAKWA,,IDG
PG10RVOF08,01/07/2021 08:18,01/07/2021 08:18,Utility Account to Organization Settlement Account,Completed,,-192000,0,TRUE,Utility Account to Organization Settlement Account,979524 - ANCIENT WELLS PROPERTY MANAGERS 2,,
PG12RVLIH8,01/07/2021 08:16,01/07/2021 08:16,Pay Bill from 254719439717 - Cecilia Omondi Acc. hfc,Completed,9000,,192000,TRUE,Pay Utility,254719439717 - Cecilia Omondi,,hfc
PG17RV7OCV,01/07/2021 08:06,01/07/2021 08:06,Pay Bill Online from 254795510441 - LEWIS MUEMA Acc. KEB,Completed,16000,,183000,TRUE,Pay Bill Online,254795510441 - LEWIS MUEMA,,KEB
