Receipt No.,Completion Time,Initiation Time,Details,Transaction Status,Paid In,Withdrawn,Balance,Balance Confirmed,Reason Type,Other Party Info,Linked Transaction ID,A/C No.
SEE17UFLAN,14/05/2024 12:16,14/05/2024 12:16,Pay Bill Online from 074572***178 - RODGERS *** Acc. v27,Completed,7000,,7000,TRUE,Pay Utility with OD Online,074572***178 - RODGERS ***,,v27
SEE07LOR2E,14/05/2024 11:03,14/05/2024 11:03,Utility Account to Organization Settlement Account,Completed,,-8000,0,TRUE,Utility Account to Organization Settlement Account,887674 - ANCIENT WELLS LTD 1,,
SEE4798DCU,14/05/2024 09:15,14/05/2024 09:15,Pay Bill from 254701***081 - JOSEPHINE *** Acc. v34,Completed,1000,,8000,TRUE,Pay Utility,254701***081 - JOSEPHINE ***,,v34
SEE16YSY59,14/05/2024 07:32,14/05/2024 07:32,Pay Bill from 254729***880 - Eunice *** Acc. V33,Completed,6000,,7000,TRUE,Pay Utility,254729***880 - Eunice ***,,V33
SED46LYEEA,13/05/2024 22:43,13/05/2024 22:43,Pay Bill from 254717***709 - CAROLINE *** Acc. v15,Completed,1000,,1000,TRUE,Pay Utility,254717***709 - CAROLINE ***,,v15
SED06KZ4FK,13/05/2024 22:27,13/05/2024 22:27,Utility Account to Organization Settlement Account,Completed,,-22100,0,TRUE,Utility Account to Organization Settlement Account,887674 - ANCIENT WELLS LTD 1,,
SED36HHEVX,13/05/2024 21:47,13/05/2024 21:47,Pay Bill from 254724***238 - Immacurate *** Acc. V45,Completed,500,,22100,TRUE,Pay Utility,254724***238 - Immacurate ***,,V45
SED26FBOI8,13/05/2024 21:28,13/05/2024 21:28,Pay Bill from 079580***227 - Lucy *** Acc. V36 ,Completed,6600,,21600,TRUE,Pay Utility with OD via STK,079580***227 - Lucy ***,,V36 
SED06EAB40,13/05/2024 21:19,13/05/2024 21:19,Pay Bill from 254724***238 - Immacurate *** Acc. V45,Completed,4500,,15000,TRUE,Pay Utility,254724***238 - Immacurate ***,,V45
SED96AMXB7,13/05/2024 20:52,13/05/2024 20:52,Pay Bill from 254758***392 - ZIBBORAH *** Acc. v48,Completed,7000,,10500,TRUE,Pay Utility,254758***392 - ZIBBORAH ***,,v48
SED45A1KLW,13/05/2024 17:27,13/05/2024 17:27,Pay Bill from 254706***908 - joseph *** Acc. V45,Completed,3500,,3500,TRUE,Pay Utility,254706***908 - joseph ***,,V45
SED64TD2V2,13/05/2024 15:19,13/05/2024 15:19,Utility Account to Organization Settlement Account,Completed,,-1500,0,TRUE,Utility Account to Organization Settlement Account,887674 - ANCIENT WELLS LTD 1,,
SED74LA0P7,13/05/2024 14:14,13/05/2024 14:14,Pay Bill from 254792***995 - ANTHONY *** Acc. V26,Completed,1500,,1500,TRUE,Pay Utility,254792***995 - ANTHONY ***,,V26
SED23WUMI2,13/05/2024 11:03,13/05/2024 11:03,Utility Account to Organization Settlement Account,Completed,,-12600,0,TRUE,Utility Account to Organization Settlement Account,887674 - ANCIENT WELLS LTD 1,,
SEC12WM2EJ,12/05/2024 22:41,12/05/2024 22:41,Pay Bill from 254724***110 - ALI *** Acc. V32,Completed,7000,,12600,TRUE,Pay Utility,254724***110 - ALI ***,,V32
SEC52I7WKL,12/05/2024 20:31,12/05/2024 20:31,Pay Bill from 254729***258 - Cliff *** Acc. V05,Completed,5000,,5600,TRUE,Pay Utility,254729***258 - Cliff ***,,V05
SEC82HXSP8,12/05/2024 20:29,12/05/2024 20:29,Pay Bill from 254729***880 - Eunice *** Acc. V33,Completed,600,,600,TRUE,Pay Utility with OD via STK,254729***880 - Eunice ***,,V33
SEC01OZ4PQ,12/05/2024 17:36,12/05/2024 17:36,Utility Account to Organization Settlement Account,Completed,,-15600,0,TRUE,Utility Account to Organization Settlement Account,887674 - ANCIENT WELLS LTD 1,,
SEC6Z2O73U,12/05/2024 09:34,12/05/2024 09:34,Pay Bill Online from 254720***285 - DAMARIS *** Acc. V18,Completed,6600,,15600,TRUE,Pay Bill Online,254720***285 - DAMARIS ***,,V18
SEB0Y1TJTS,11/05/2024 20:46,11/05/2024 20:46,Pay Bill from 074084***752 - RICHARD *** Acc. VK5,Completed,2000,,9000,TRUE,Pay Utility,074084***752 - RICHARD ***,,VK5
SEB1XWEKFH,11/05/2024 20:13,11/05/2024 20:13,Pay Bill from 254707***557 - GRACE *** Acc. V60,Completed,7000,,7000,TRUE,Pay Utility with OD via STK,254707***557 - GRACE ***,,V60
SEB2VWUOG4,11/05/2024 12:30,11/05/2024 12:30,Utility Account to Organization Settlement Account,Completed,,-15000,0,TRUE,Utility Account to Organization Settlement Account,887674 - ANCIENT WELLS LTD 1,,
SEB2VHP59A,11/05/2024 10:28,11/05/2024 10:28,Pay Bill from 254717***709 - CAROLINE *** Acc. v15,Completed,1000,,15000,TRUE,Pay Utility,254717***709 - CAROLINE ***,,v15
SEA6UOQNVM,10/05/2024 23:18,10/05/2024 23:18,Pay Bill from 070434***708 - WENDY *** Acc. V17,Completed,7000,,14000,TRUE,Pay Utility,070434***708 - WENDY ***,,V17
SEA3SZBC8T,10/05/2024 16:01,10/05/2024 16:01,Pay Bill Online from 075960***060 - ELVIS *** Acc. V47,Completed,7000,,7000,TRUE,Pay Bill Online,075960***060 - ELVIS ***,,V47
SEA8SPEU8I,10/05/2024 14:45,10/05/2024 14:45,Utility Account to Organization Settlement Account,Completed,,-15600,0,TRUE,Utility Account to Organization Settlement Account,887674 - ANCIENT WELLS LTD 1,,
SEA9S123J1,10/05/2024 11:34,10/05/2024 11:34,Pay Bill from 254720***443 - FATUMA *** Acc. V21,Completed,8000,,15600,TRUE,Pay Utility,254720***443 - FATUMA ***,,V21
SEA3R6KCBR,10/05/2024 05:19,10/05/2024 05:19,Pay Bill from 070733***604 - DICKENS *** Acc. v06,Completed,1000,,7600,TRUE,Pay Utility,070733***604 - DICKENS ***,,v06
SE97QVC7H9,09/05/2024 22:14,09/05/2024 22:14,Pay Bill from 254712***662 - BENARD *** Acc. V16,Completed,6600,,6600,TRUE,Pay Utility,254712***662 - BENARD ***,,V16
SE93PTZXA1,09/05/2024 18:19,09/05/2024 18:19,Utility Account to Organization Settlement Account,Completed,,-24500,0,TRUE,Utility Account to Organization Settlement Account,887674 - ANCIENT WELLS LTD 1,,
SE99PSX4OP,09/05/2024 18:13,09/05/2024 18:13,Pay Bill from 254727***371 - PETER *** Acc. V51,Completed,7000,,24500,TRUE,Pay Utility,254727***371 - PETER ***,,V51
SE99PRBO8T,09/05/2024 18:04,09/05/2024 18:04,Pay Bill from 254706***075 - HARON *** Acc. v38,Completed,7000,,17500,TRUE,Pay Utility,254706***075 - HARON ***,,v38
SE93PJLMLZ,09/05/2024 17:16,09/05/2024 17:16,Pay Bill from 071420***896 - JANET *** Acc. vk4,Completed,3500,,10500,TRUE,Pay Utility,071420***896 - JANET ***,,vk4
SE94OR6F1G,09/05/2024 13:45,09/05/2024 13:45,Pay Bill from 254710***084 - LILIAN *** Acc. V54,Completed,7000,,7000,TRUE,Pay Utility,254710***084 - LILIAN ***,,V54
SE80N9DXKW,08/05/2024 23:32,08/05/2024 23:32,Utility Account to Organization Settlement Account,Completed,,-7000,0,TRUE,Utility Account to Organization Settlement Account,887674 - ANCIENT WELLS LTD 1,,
SE84N81V8I,08/05/2024 23:01,08/05/2024 23:01,Pay Bill from 011206***814 - JOHN *** Acc. V53,Completed,7000,,7000,TRUE,Pay Utility with OD via STK,011206***814 - JOHN ***,,V53
SE89LSWNPP,08/05/2024 17:09,08/05/2024 17:09,Utility Account to Organization Settlement Account,Completed,,-7000,0,TRUE,Utility Account to Organization Settlement Account,887674 - ANCIENT WELLS LTD 1,,
SE82K1O3U4,08/05/2024 08:39,08/05/2024 08:39,Pay Bill from 254708***289 - BERYLE *** Acc. v02,Completed,7000,,7000,TRUE,Pay Utility,254708***289 - BERYLE ***,,v02
SE87JTIDS5,08/05/2024 07:07,08/05/2024 07:07,Utility Account to Organization Settlement Account,Completed,,-26000,0,TRUE,Utility Account to Organization Settlement Account,887674 - ANCIENT WELLS LTD 1,,
SE73JDZMCR,07/05/2024 21:47,07/05/2024 21:47,Pay Bill from 254748***485 - PENINAH *** Acc. v31,Completed,7000,,26000,TRUE,Pay Utility,254748***485 - PENINAH ***,,v31
SE75HU6AIJ,07/05/2024 15:52,07/05/2024 15:52,Pay Bill from 254797***834 - PETRONILA *** Acc. CK1,Completed,4000,,19000,TRUE,Pay Utility,254797***834 - PETRONILA ***,,CK1
SE74HEL8Z4,07/05/2024 13:51,07/05/2024 13:51,Pay Bill from 254702***689 - ISAIAH *** Acc. 49V,Completed,7000,,15000,TRUE,Pay Utility,254702***689 - ISAIAH ***,,49V
SE71GZZZTV,07/05/2024 11:58,07/05/2024 11:58,Pay Bill from 254792***995 - ANTHONY *** Acc. V26,Completed,1000,,8000,TRUE,Pay Utility,254792***995 - ANTHONY ***,,V26
SE74GLQ8U8,07/05/2024 09:59,07/05/2024 09:59,Pay Bill from 072729***129 - AISHA *** Acc. V09,Completed,7000,,7000,TRUE,Pay Utility,072729***129 - AISHA ***,,V09
SE71GB3QB9,07/05/2024 08:20,07/05/2024 08:20,Utility Account to Organization Settlement Account,Completed,,-10500,0,TRUE,Utility Account to Organization Settlement Account,887674 - ANCIENT WELLS LTD 1,,
SE76GA14IC,07/05/2024 08:09,07/05/2024 08:09,Pay Bill Online from 254720***303 - PAUL *** Acc. V13,Completed,7000,,10500,TRUE,Pay Bill Online,254720***303 - PAUL ***,,V13
SE79G3QFCH,07/05/2024 06:43,07/05/2024 06:43,Pay Bill from 254795***400 - BONFACE *** Acc. VK6,Completed,3500,,3500,TRUE,Pay Utility,254795***400 - BONFACE ***,,VK6
SE64FTG5JK,06/05/2024 22:21,06/05/2024 22:21,Utility Account to Organization Settlement Account,Completed,,-7000,0,TRUE,Utility Account to Organization Settlement Account,887674 - ANCIENT WELLS LTD 1,,
SE68F5G2DC,06/05/2024 19:31,06/05/2024 19:31,Pay Bill Online from 070848***946 - Samson *** Acc. v20,Completed,7000,,7000,TRUE,Pay Bill Online,070848***946 - Samson ***,,v20
SE66DSB7I4,06/05/2024 14:16,06/05/2024 14:16,Utility Account to Organization Settlement Account,Completed,,-86100,0,TRUE,Utility Account to Organization Settlement Account,887674 - ANCIENT WELLS LTD 1,,
SE66DKT8UQ,06/05/2024 13:20,06/05/2024 13:20,Pay Bill Online from 254791***803 - JOHN *** Acc. v14,Completed,5000,,86100,TRUE,Pay Utility with OD Online,254791***803 - JOHN ***,,v14
SE64DIYRT8,06/05/2024 13:06,06/05/2024 13:06,Pay Bill Online from 254705***945 - PATRICK *** Acc. B4,Completed,67600,,81100,TRUE,Pay Bill Online,254705***945 - PATRICK ***,,B4
SE69D9JGY3,06/05/2024 11:53,06/05/2024 11:53,Pay Bill from 072938***149 - SYLVIA *** Acc. v30,Completed,6500,,13500,TRUE,Pay Utility,072938***149 - SYLVIA ***,,v30
SE69CY2SX5,06/05/2024 10:19,06/05/2024 10:19,Business Pay Bill by 3033815 - LOOP B2C. Acc. V55 via API,Completed,7000,,7000,TRUE,Business Pay Bill via API,3033815 - LOOP B2C.,,V55 via API
SE53A0B8GX,05/05/2024 13:02,05/05/2024 13:02,Utility Account to Organization Settlement Account,Completed,,-14000,0,TRUE,Utility Account to Organization Settlement Account,887674 - ANCIENT WELLS LTD 1,,
SE559SPQR5,05/05/2024 11:54,05/05/2024 11:54,Pay Bill from 254722***070 - SAMUEL *** Acc. v42,Completed,7000,,14000,TRUE,Pay Utility,254722***070 - SAMUEL ***,,v42
SE579MAWJ5,05/05/2024 10:54,05/05/2024 10:54,Pay Bill from 254717***430 - ALFRED *** Acc. V11,Completed,7000,,7000,TRUE,Pay Utility,254717***430 - ALFRED ***,,V11
SE438TCC7F,04/05/2024 23:19,04/05/2024 23:19,Utility Account to Organization Settlement Account,Completed,,-13600,0,TRUE,Utility Account to Organization Settlement Account,887674 - ANCIENT WELLS LTD 1,,
SE428B77MC,04/05/2024 20:20,04/05/2024 20:20,Pay Bill from 254718***610 - HANNAH *** Acc. V23,Completed,6600,,13600,TRUE,Pay Utility,254718***610 - HANNAH ***,,V23
SE4265IJ9U,04/05/2024 11:49,04/05/2024 11:49,Pay Bill from 254706***665 - CHRIS *** Acc. V22,Completed,7000,,7000,TRUE,Pay Utility,254706***665 - CHRIS ***,,V22
SE405OTIBS,04/05/2024 09:31,04/05/2024 09:31,Utility Account to Organization Settlement Account,Completed,,-14000,0,TRUE,Utility Account to Organization Settlement Account,887674 - ANCIENT WELLS LTD 1,,
SE415HJ5YV,04/05/2024 08:19,04/05/2024 08:19,Pay Bill from 071474***222 - WILSON *** Acc. v25,Completed,7000,,14000,TRUE,Pay Utility,071474***222 - WILSON ***,,v25
SE313T5WH5,03/05/2024 17:49,03/05/2024 17:49,Pay Bill from 254741***886 - TERESIA *** Acc. v50,Completed,7000,,7000,TRUE,Pay Utility,254741***886 - TERESIA ***,,v50
SE352BK43Z,03/05/2024 11:13,03/05/2024 11:13,Utility Account to Organization Settlement Account,Completed,,-13100,0,TRUE,Utility Account to Organization Settlement Account,887674 - ANCIENT WELLS LTD 1,,
SE3020O8A6,03/05/2024 09:41,03/05/2024 09:41,Pay Bill from 254726***584 - JULIANA *** Acc. v4,Completed,6600,,13100,TRUE,Pay Utility,254726***584 - JULIANA ***,,v4
SE301Z1JY0,03/05/2024 09:26,03/05/2024 09:26,Pay Bill from 254715***540 - HILLARY *** Acc. v19,Completed,6500,,6500,TRUE,Pay Utility,254715***540 - HILLARY ***,,v19
SE361KJ9WK,03/05/2024 06:41,03/05/2024 06:41,Utility Account to Organization Settlement Account,Completed,,-7000,0,TRUE,Utility Account to Organization Settlement Account,887674 - ANCIENT WELLS LTD 1,,
SE27Z051SX,02/05/2024 16:52,02/05/2024 16:52,Pay Bill from 254706***262 - cendric *** Acc. V12,Completed,7000,,7000,TRUE,Pay Utility,254706***262 - cendric ***,,V12
SE20XRKONS,02/05/2024 11:02,02/05/2024 11:02,Utility Account to Organization Settlement Account,Completed,,-13000,0,TRUE,Utility Account to Organization Settlement Account,887674 - ANCIENT WELLS LTD 1,,
SE12WTMA68,01/05/2024 22:57,01/05/2024 22:57,Pay Bill from 254792***995 - ANTHONY *** Acc. V26,Completed,5000,,13000,TRUE,Pay Utility,254792***995 - ANTHONY ***,,V26
SE17WTLKSR,01/05/2024 22:57,01/05/2024 22:57,Pay Bill from 070707***137 - samuel *** Acc. V57,Completed,7000,,8000,TRUE,Pay Utility,070707***137 - samuel ***,,V57
SE14VQHS7A,01/05/2024 18:13,01/05/2024 18:13,Pay Bill from 254792***995 - ANTHONY *** Acc. V26,Completed,1000,,1000,TRUE,Pay Utility,254792***995 - ANTHONY ***,,V26
SE12VGBH9I,01/05/2024 17:06,01/05/2024 17:06,Utility Account to Organization Settlement Account,Completed,,-20600,0,TRUE,Utility Account to Organization Settlement Account,887674 - ANCIENT WELLS LTD 1,,
SE19UR8ASV,01/05/2024 13:51,01/05/2024 13:51,Pay Bill from 254706***056 - SHEILA *** Acc. V03,Completed,7000,,20600,TRUE,Pay Utility,254706***056 - SHEILA ***,,V03
SE15TGNP57,01/05/2024 04:09,01/05/2024 04:09,Pay Bill from 079674***765 - VERONICA *** Acc. V43,Completed,7000,,13600,TRUE,Pay Utility,079674***765 - VERONICA ***,,V43
