Receipt No.,Completion Time,Initiation Time,Details,Transaction Status,Paid In,Withdrawn,Balance,Balance Confirmed,Reason Type,Other Party Info,Linked Transaction ID,A/C No.
OLG5MDKZBT,16/12/2020 17:54,16/12/2020 17:54,Pay Bill from 254722564580 - GLENN KISIANG'ANI Acc. DBB,Completed,5000,,21000,TRUE,Pay Utility,254722564580 - GLENN KISIANG'ANI,,DBB
OLG9MCJJS9,16/12/2020 17:36,16/12/2020 17:36,Pay Bill from 254708225541 - JUDITH NKATHA SIMBA Acc. ICF,Completed,7000,,16000,TRUE,Pay Utility with OD via STK,254708225541 - JUDITH NKATHA SIMBA,,ICF
OLG0M4YZLO,16/12/2020 14:59,16/12/2020 14:59,Pay Bill Online from 254703624678 - Zacharia Gesora Omwoyo Acc. igd ,Completed,9000,,9000,TRUE,Pay Bill Online,254703624678 - Zacharia Gesora Omwoyo,,igd
OLG5LUPI4R,16/12/2020 11:07,16/12/2020 11:07,Utility Account to Organization Settlement Account,Completed,,-25000,0,TRUE,Utility Account to Organization Settlement Account,979524 - ANCIENT WELLS PROPERTY MANAGERS 2,,
OLG1LRWJS9,16/12/2020 10:04,16/12/2020 10:04,Pay Bill from 254114321800 - KAWA KOUL TONG NGOR Acc. DP7,Completed,15000,,25000,TRUE,Pay Utility,254114321800 - KAWA KOUL TONG NGOR,,DP7
OLF2LHK8X8,15/12/2020 21:52,15/12/2020 21:52,Pay Bill from 254701006375 - EZRA MAKORI SERETI Acc. HTE,Completed,10000,,10000,TRUE,Pay Utility,254701006375 - EZRA MAKORI SERETI,,HTE
OLF7L6CBMP,15/12/2020 18:42,15/12/2020 18:42,Utility Account to Organization Settlement Account,Completed,,-41000,0,TRUE,Utility Account to Organization Settlement Account,979524 - ANCIENT WELLS PROPERTY MANAGERS 2,,
OLF2L0PWZO,15/12/2020 17:05,15/12/2020 17:05,Pay Bill Online from 254729425253 - FATUMA MOHAMMED MWAJASI Acc. HBB,Completed,4000,,41000,TRUE,Pay Bill Online,254729425253 - FATUMA MOHAMMED MWAJASI,,HBB
OLF1KOSCYN,15/12/2020 12:42,15/12/2020 12:42,Pay Bill from 254720927770 - CHRISTOPHER MWANGE Acc. HFC,Completed,10000,,37000,TRUE,Pay Utility with OD via STK,254720927770 - CHRISTOPHER MWANGE,,HFC
OLF0KLSNT4,15/12/2020 11:35,15/12/2020 11:35,Pay Bill from 0746447780 - MERCY KARISA MUTSEMBI Acc. KCG,Completed,10000,,27000,TRUE,Pay Utility,0746447780 - MERCY KARISA MUTSEMBI,,KCG
OLF0KLJ08M,15/12/2020 11:29,15/12/2020 11:29,Pay Bill from 254710635630 - DONNA JESSICA OWANO Acc. KCC,Completed,7000,,17000,TRUE,Pay Utility,254710635630 - DONNA JESSICA OWANO,,KCC
OLF1KG8ND1,15/12/2020 09:27,15/12/2020 09:27,Pay Bill from 0723409745 - Kelvin Kitonga Mutyetu Acc. kbf,Completed,5000,,10000,TRUE,Pay Utility,0723409745 - Kelvin Kitonga Mutyetu,,kbf
OLF5KAQJJL,15/12/2020 06:00,15/12/2020 06:00,Pay Bill from 254722458136 - NADI GOLICHA Acc. KAA,Completed,4000,,5000,TRUE,Pay Utility,254722458136 - NADI GOLICHA,,KAA
OLE5K61WXD,14/12/2020 20:57,14/12/2020 20:57,Pay Bill from 254720361605 - DAUD AMBER Acc. IGH,Completed,1000,,1000,TRUE,Pay Utility,254720361605 - DAUD AMBER,,IGH
OLE6JCGPHM,14/12/2020 11:19,14/12/2020 11:19,Utility Account to Organization Settlement Account,Completed,,-149500,0,TRUE,Utility Account to Organization Settlement Account,979524 - ANCIENT WELLS PROPERTY MANAGERS 2,,
