Receipt No.,Completion Time,Initiation Time,Details,Transaction Status,Paid In,Withdrawn,Balance,Balance Confirmed,Reason Type,Other Party Info,Linked Transaction ID,A/C No.
PBA7IN59DJ,10/02/2021 06:33,10/02/2021 06:33,Pay Bill from 254704995854 - james karanja wairimu Acc. V54,Completed,6600,,19800,TRUE,Pay Utility,254704995854 - james karanja wairimu,,V54
PB90ICJ2NG,09/02/2021 19:30,09/02/2021 19:30,Pay Bill from 254712091662 - BENARD OMONDI ROBY Acc. V16,Completed,6600,,13200,TRUE,Pay Utility,254712091662 - BENARD OMONDI ROBY,,V16
PB95I3083N,09/02/2021 16:55,09/02/2021 16:55,Pay Bill from 254700218502 - GRACE NGURE Acc. v46,Completed,6600,,6600,TRUE,Pay Utility,254700218502 - GRACE NGURE,,v46
PB94HTVPX4,09/02/2021 13:26,09/02/2021 13:26,Utility Account to Organization Settlement Account,Completed,,-26800,0,TRUE,Utility Account to Organization Settlement Account,887674 - ANCIENT WELLS LTD 1,,
PB82GR1EDQ,08/02/2021 15:14,08/02/2021 15:14,Pay Bill Online from 254704783091 - CLINTON MUSEBE KASUTI Acc. v48,Completed,5000,,26800,TRUE,Pay Bill Online,254704783091 - CLINTON MUSEBE KASUTI,,v48
PB84GM5O5C,08/02/2021 13:22,08/02/2021 13:22,Pay Bill from 254790552440 - ANGEL MAIMA Acc. vk3,Completed,5000,,21800,TRUE,Pay Utility,254790552440 - ANGEL MAIMA,,vk3
PB84GKCWAY,08/02/2021 12:40,08/02/2021 12:40,Pay Bill from 0795807227 - Lucy Ncekei Kimathi Acc. V36,Completed,16800,,16800,TRUE,Pay Utility,0795807227 - Lucy Ncekei Kimathi,,V36
PB81G98KRL,08/02/2021 07:57,08/02/2021 07:57,Utility Account to Organization Settlement Account,Completed,,-33000,0,TRUE,Utility Account to Organization Settlement Account,887674 - ANCIENT WELLS LTD 1,,
PB72G3M2XG,07/02/2021 21:18,07/02/2021 21:18,Pay Bill from 254717294709 - CAROLINE WAVINYA NDINDA Acc. V15,Completed,6600,,33000,TRUE,Pay Utility,254717294709 - CAROLINE WAVINYA NDINDA,,V15
PB70FAMHZ6,07/02/2021 11:14,07/02/2021 11:14,Pay Bill from 254722307003 - NIGEL BOMETT Acc. V01,Completed,6600,,26400,TRUE,Pay Utility,254722307003 - NIGEL BOMETT,,V01
