Receipt No.,Completion Time,Initiation Time,Transaction Status,Details,Paid In,Withdrawn,Balance,Reason Type,Other Party Info,Balance Confirmed,Linked Transaction ID,VABE
PK4272KX0U,03/11/17 15:32,03/11/17 15:32,Completed,Pay Bill Online from 0745378455 - harriet nyanchama nyaberi Acc. FCC,9000,,158500,Pay Bill Online,0745378455 - harriet nyanchama nyaberi,TRUE,FCC,
PK40704TB4,03/11/17 14:49,03/11/17 14:49,Completed,Pay Bill from 254727955151 - NKONGE MAURICE Acc. Fge ,15000,,149500,Pay Utility,254727955151 - NKONGE MAURICE,TRUE,Fge,
PK406ZAMSO,03/11/17 14:34,03/11/17 14:34,Completed,Pay Bill from 254704481218 - Asenath Kivunga Mwakio Acc. KDG,10000,,134500,Pay Utility,254704481218 - Asenath Kivunga Mwakio,TRUE,KDG,
PK486QJL24,03/11/17 12:01,03/11/17 12:01,Completed,Pay Bill from 254728854349 - JOSEPH MUSYOKA Acc. IBG,8000,,124500,Pay Utility,254728854349 - JOSEPH MUSYOKA,TRUE,IBG,
PK486NKGI0,03/11/17 11:07,03/11/17 11:07,Completed,Pay Bill from 254724611087 - Francis Mukindya Muoki Acc. dfb,4000,,116500,Pay Utility,254724611087 - Francis Mukindya Muoki,TRUE,dfb,
PK496NHXF5,03/11/17 11:06,03/11/17 11:06,Completed,Pay Bill from 254714814264 - PATRICIA NZOMO Acc. Hcc,10000,,112500,Pay Utility,254714814264 - PATRICIA NZOMO,TRUE,Hcc,
PK426N0ETA,03/11/17 10:57,03/11/17 10:57,Completed,Pay Bill from 254713159153 - GUYO SANKALA Acc. DGD,20000,,102500,Pay Utility,254713159153 - GUYO SANKALA,TRUE,DGD,
PK486MXHCS,03/11/17 10:56,03/11/17 10:56,Completed,Pay Bill Online from 254708225541 - JUDITH NKATHA SIMBA Acc. HDH,16000,,82500,Pay Bill Online,254708225541 - JUDITH NKATHA SIMBA,TRUE,HDH,
PK446MN4CM,03/11/17 10:50,03/11/17 10:50,Completed,Pay Bill Online from 0796121714 - janet   mwikali Acc. KBC,10000,,66500,Pay Bill Online,0796121714 - janet   mwikali,TRUE,KBC,
PK466LG2V0,03/11/17 10:29,03/11/17 10:29,Completed,Pay Bill from 254726687555 - ELIUD MUTHURE MICHENI Acc. KAI,12000,,56500,Pay Utility,254726687555 - ELIUD MUTHURE MICHENI,TRUE,KAI,
PK466KX2R8,03/11/17 10:19,03/11/17 10:19,Completed,Pay Bill Online from 0724386624 - FATUMA ISSE YUSSUF Acc. FAB,16000,,44500,Pay Utility with OD Online,0724386624 - FATUMA ISSE YUSSUF,TRUE,FAB,
PK446JZHZM,03/11/17 10:01,03/11/17 10:01,Completed,Pay Bill from 254720029066 - EVANS CHERUYOT ROTICH Acc. KFI,8000,,28500,Pay Utility,254720029066 - EVANS CHERUYOT ROTICH,TRUE,KFI,
PK416IOCPV,03/11/17 09:37,03/11/17 09:37,Completed,Pay Bill from 254719398942 - NORAH WAYUA MUNYAO Acc. KDC,10000,,20500,Pay Utility,254719398942 - NORAH WAYUA MUNYAO,TRUE,KDC,
PK486HLBM6,03/11/17 09:16,03/11/17 09:16,Completed,Pay Bill from 254729160700 - MICAH NDUNGI Acc. HFE,10500,,10500,Pay Utility,254729160700 - MICAH NDUNGI,TRUE,HFE,
PK466FJUH4,03/11/17 08:34,03/11/17 08:34,Completed,Utility Account to Organization Settlement Account,,-190000,0,Utility Account to Organization Settlement Account,979524 - ANCIENT WELLS PROPERTY MANAGERS 2,TRUE,,
PK436EHXJT,03/11/17 08:12,03/11/17 08:12,Completed,Pay Bill from 254791206178 - LORINE MUGANDA Acc. FBD,11000,,190000,Pay Utility,254791206178 - LORINE MUGANDA,TRUE,FBD,
PK466DHIGQ,03/11/17 07:48,03/11/17 07:48,Completed,Pay Bill Online from 254723370004 - LABAN MAINGI WAMBUA Acc. JEF,8000,,179000,Pay Utility with OD Online,254723370004 - LABAN MAINGI WAMBUA,TRUE,JEF,
PK446CZQVO,03/11/17 07:35,03/11/17 07:35,Completed,Pay Bill Online from 254717053159 - FREDRICK NYATIKA Acc. IEF,11000,,171000,Pay Bill Online,254717053159 - FREDRICK NYATIKA,TRUE,IEF,
PK416CVJP3,03/11/17 07:32,03/11/17 07:32,Completed,Pay Bill Online from 0794582647 - PETER POCHI MAKHACHA Acc. IAC,10000,,160000,Pay Bill Online,0794582647 - PETER POCHI MAKHACHA,TRUE,IAC,
PK33636LTD,02/11/17 20:54,02/11/17 20:54,Completed,Pay Bill from 254708570729 - MARY OGOLLA Acc. KAD,12000,,150000,Pay Utility,254708570729 - MARY OGOLLA,TRUE,KAD,
PK31632LHR,02/11/17 20:52,02/11/17 20:52,Completed,Pay Bill from 254704111133 - ELVIS OTIENO Acc. HFD,1000,,138000,Pay Utility,254704111133 - ELVIS OTIENO,TRUE,HFD,
PK3060DOS4,02/11/17 20:14,02/11/17 20:14,Completed,Pay Bill from 254723605941 - JOHN KARIHA Acc. kdd,6000,,137000,Pay Utility,254723605941 - JOHN KARIHA,TRUE,kdd,
PK386079H4,02/11/17 20:12,02/11/17 20:12,Completed,Pay Bill Online from 254722921132 - JOE MCCRAY MURIUKI KIHIA Acc. IFA,15000,,131000,Pay Utility with OD Online,254722921132 - JOE MCCRAY MURIUKI KIHIA,TRUE,IFA,
PK375W298B,02/11/17 19:25,02/11/17 19:25,Completed,Pay Bill from 254728670882 - SHARAD EDWARD ADALA OLUM Acc. KCK,15000,,116000,Pay Utility,254728670882 - SHARAD EDWARD ADALA OLUM,TRUE,KCK,
PK335M0OJD,02/11/17 17:34,02/11/17 17:34,Completed,Pay Bill from 254721852723 - HASSAN ABDINOOR MOHAMED Acc. jaa,19000,,101000,Pay Utility,254721852723 - HASSAN ABDINOOR MOHAMED,TRUE,jaa,
PK355HZ10R,02/11/17 16:35,02/11/17 16:35,Completed,Pay Bill from 254700430569 - EDITH   GAKII Acc. FCB,16000,,82000,Pay Utility,254700430569 - EDITH   GAKII,TRUE,FCB,
PK325GTPNE,02/11/17 16:17,02/11/17 16:17,Completed,Pay Bill from 254723499628 - CLINTON JOSEPH MUHARI Acc. hfh,16000,,66000,Pay Utility with OD via STK,254723499628 - CLINTON JOSEPH MUHARI,TRUE,hfh,
PK375FVTL1,02/11/17 16:01,02/11/17 16:01,Completed,Pay Bill Online from 254718138578 - PAULINE KIOKO Acc. KFD,14000,,50000,Pay Bill Online,254718138578 - PAULINE KIOKO,TRUE,KFD,
PK305DMWJY,02/11/17 15:23,02/11/17 15:23,Completed,Pay Bill Online from 254712187712 - JUDELEEN AHINDUKHA SHILOBELE Acc. IEA,16000,,36000,Pay Bill Online,254712187712 - JUDELEEN AHINDUKHA SHILOBELE,TRUE,IEA,
PK31512GXT,02/11/17 11:44,02/11/17 11:44,Completed,Pay Bill from 254722136450 - MARY EVERLYN Acc. JAI,20000,,20000,Pay Utility,254722136450 - MARY EVERLYN,TRUE,JAI,
PK314ZYJ09,02/11/17 11:24,02/11/17 11:24,Completed,Utility Account to Organization Settlement Account,,-545200,0,Utility Account to Organization Settlement Account,979524 - ANCIENT WELLS PROPERTY MANAGERS 2,TRUE,,
PK304TG0AG,02/11/17 09:23,02/11/17 09:23,Completed,Pay Bill from 254715742045 - FRIDAH KIEMA Acc. HGC,9500,,545200,Pay Utility,254715742045 - FRIDAH KIEMA,TRUE,HGC,
PK334SSD91,02/11/17 09:10,02/11/17 09:10,Completed,Pay Bill from 254703555717 - SENGA SALIM Acc. hbb,7000,,535700,Pay Utility,254703555717 - SENGA SALIM,TRUE,hbb,
PK334S55DD,02/11/17 08:57,02/11/17 08:57,Completed,Pay Bill from 254726172957 - VINCENT OLIENG' Acc. HBC,10000,,528700,Pay Utility,254726172957 - VINCENT OLIENG',TRUE,HBC,
PK354L6VC1,02/11/17 02:22,02/11/17 02:22,Completed,Pay Bill Online from 254720451253 - JIMMY KIOGORA NKIROTE Acc. KBD,10000,,518700,Pay Bill Online,254720451253 - JIMMY KIOGORA NKIROTE,TRUE,KBD,
PK264IXA24,01/11/17 22:28,01/11/17 22:28,Completed,Pay Bill Online from 254720451253 - JIMMY KIOGORA NKIROTE Acc. KBD,7500,,508700,Pay Bill Online,254720451253 - JIMMY KIOGORA NKIROTE,TRUE,KBD,
PK274IG7Y3,01/11/17 22:12,01/11/17 22:12,Completed,Pay Bill from 254796292434 - ANTONINA HAYA Acc. HED,6000,,501200,Pay Utility,254796292434 - ANTONINA HAYA,TRUE,HED,
PK214HMHPB,01/11/17 21:50,01/11/17 21:50,Completed,Pay Bill from 254720351482 - Cheruiyot Langat Brian Acc. dfa,15000,,495200,Pay Utility with OD via STK,254720351482 - Cheruiyot Langat Brian,TRUE,dfa,
PK234BB705,01/11/17 20:07,01/11/17 20:07,Completed,Pay Bill from 254719285750 - LILIAN ACHIENG ODONGO Acc. IGE,9000,,480200,Pay Utility,254719285750 - LILIAN ACHIENG ODONGO,TRUE,IGE,
PK284AK856,01/11/17 19:58,01/11/17 19:58,Completed,Pay Bill from 254704934557 - BAKARI KITSAKA Acc. JAD,15000,,471200,Pay Utility,254704934557 - BAKARI KITSAKA,TRUE,JAD,
PK224517PA,01/11/17 19:00,01/11/17 19:00,Completed,Pay Bill from 254702144275 - CAROLYNE MAKENA KARIA Acc. JFB,15000,,456200,Pay Utility,254702144275 - CAROLYNE MAKENA KARIA,TRUE,JFB,
PK2242LXGG,01/11/17 18:35,01/11/17 18:35,Completed,Pay Bill from 254720496449 - STANLEY KIPKOECH RONO Acc. FBE,16000,,441200,Pay Utility,254720496449 - STANLEY KIPKOECH RONO,TRUE,FBE,
PK273Y03NJ,01/11/17 17:41,01/11/17 17:41,Completed,Pay Bill from 254726651764 - NICHOLAS MWANZIA Acc. HBE,22000,,425200,Pay Utility,254726651764 - NICHOLAS MWANZIA,TRUE,HBE,
PK203TI0M8,01/11/17 16:37,01/11/17 16:37,Completed,Pay Bill from 0797758628 - jackline nyamari onyango Acc. ICF,11000,,403200,Pay Utility,0797758628 - jackline nyamari onyango,TRUE,ICF,
PK213SF5WN,01/11/17 16:20,01/11/17 16:20,Completed,Pay Bill from 254704403532 - Mercy Chepchirchir Mary Acc. JBC,11000,,392200,Pay Utility with OD via STK,254704403532 - Mercy Chepchirchir Mary,TRUE,JBC,
PK293Q4FU1,01/11/17 15:41,01/11/17 15:41,Completed,Pay Bill from 0113473583 - GERARD   HAVYARIMANA Acc. HEE,22000,,381200,Pay Utility,0113473583 - GERARD   HAVYARIMANA,TRUE,HEE,
PK243PB8JI,01/11/17 15:27,01/11/17 15:27,Completed,Pay Bill from 254701006375 - EZRA MAKORI SERETI Acc. HTE,10000,,359200,Pay Utility,254701006375 - EZRA MAKORI SERETI,TRUE,HTE,
PK263MNQWA,01/11/17 14:41,01/11/17 14:41,Completed,Pay Bill from 0722925798 - ifrah abukar adan Acc. IEI,15000,,349200,Pay Utility,0722925798 - ifrah abukar adan,TRUE,IEI,
PK203LYQTM,01/11/17 14:29,01/11/17 14:29,Completed,Pay Bill from 254799287000 - Godfrey odhiambo oyugi Acc. Kae,200,,334200,Pay Utility,254799287000 - Godfrey odhiambo oyugi,TRUE,Kae,
PK233KDAVL,01/11/17 14:01,01/11/17 14:01,Completed,Pay Bill Online from 254700187806 - WINNIE OLIVIA AKOTH Acc. JEC,10000,,334000,Pay Bill Online,254700187806 - WINNIE OLIVIA AKOTH,TRUE,JEC,
PK263HGBDG,01/11/17 13:12,01/11/17 13:12,Completed,Pay Bill from 254722992162 - JAEL MWANDILOH Acc. DCB,10000,,324000,Pay Utility,254722992162 - JAEL MWANDILOH,TRUE,DCB,
PK203DA3Q0,01/11/17 11:59,01/11/17 11:59,Completed,Pay Bill from 254724852503 - GEOFREY YEGO Acc. JFF,10000,,314000,Pay Utility,254724852503 - GEOFREY YEGO,TRUE,JFF,
PK233B1F53,01/11/17 11:19,01/11/17 11:19,Completed,Pay Bill from 254740579741 - MUHINDI MULINYA Acc. HGG,15000,,304000,Pay Utility,254740579741 - MUHINDI MULINYA,TRUE,HGG,
PK223AMH6E,01/11/17 11:11,01/11/17 11:11,Completed,Pay Bill from 254724952183 - MICHAEL WAMBUA MWOVE Acc. FEA,16000,,289000,Pay Utility,254724952183 - MICHAEL WAMBUA MWOVE,TRUE,FEA,
PK23398B89,01/11/17 10:46,01/11/17 10:46,Completed,Pay Bill from 254712974871 - PAULA WANJIKU GATUI Acc. hea,16000,,273000,Pay Utility,254712974871 - PAULA WANJIKU GATUI,TRUE,hea,
PK2731JC4N,01/11/17 08:17,01/11/17 08:17,Completed,Pay Bill from 254722444622 - CHARITY KAGWAINI Acc. ffd,11000,,257000,Pay Utility,254722444622 - CHARITY KAGWAINI,TRUE,ffd,
PK2730EPDR,01/11/17 07:51,01/11/17 07:51,Completed,Pay Bill from 0715273095 - Stacy Aketch Ochuka Acc. KGK,15000,,246000,Pay Utility,0715273095 - Stacy Aketch Ochuka,TRUE,KGK,
PK222Z6TK0,01/11/17 07:19,01/11/17 07:19,Completed,Pay Bill Online from 254722728975 - CURTIS MRIGA OMIDO Acc. IAH,16000,,231000,Pay Bill Online,254722728975 - CURTIS MRIGA OMIDO,TRUE,IAH,
PK212XWJDR,01/11/17 06:33,01/11/17 06:33,Completed,Pay Bill Online from 254715764212 - BANCE ISHEMINYE Acc. JFE ,5000,,215000,Pay Bill Online,254715764212 - BANCE ISHEMINYE,TRUE,JFE,
PK102VFL6K,31/10/17 23:10,31/10/17 23:10,Completed,Pay Bill from 254725771056 - CHARLES MURAGURI Acc. FCE,15000,,210000,Pay Utility,254725771056 - CHARLES MURAGURI,TRUE,FCE,
PK172VCPC5,31/10/17 23:05,31/10/17 23:05,Completed,Pay Bill Online from 254742911013 - HANEST AMIMO Acc. IEG,8000,,195000,Pay Bill Online,254742911013 - HANEST AMIMO,TRUE,IEG,
PK122VAT1O,31/10/17 23:02,31/10/17 23:02,Completed,Pay Bill Online from 254722258756 - DAVID KEMBOI Acc. HDA,18000,,187000,Pay Bill Online,254722258756 - DAVID KEMBOI,TRUE,HDA,
PK102RGZ6O,31/10/17 21:13,31/10/17 21:13,Completed,Pay Bill Online from 254707226192 - NICHOLUS MAINGI MWANTHI Acc. HBF,9000,,169000,Pay Bill Online,254707226192 - NICHOLUS MAINGI MWANTHI,TRUE,HBF,
PK112QKQVB,31/10/17 20:58,31/10/17 20:58,Completed,Pay Bill from 254799946039 - LUIS OTIENO Acc. IAE,8000,,160000,Pay Utility,254799946039 - LUIS OTIENO,TRUE,IAE,
PK162NLC6W,31/10/17 20:14,31/10/17 20:14,Completed,Pay Bill from 254724477912 - SAMUEL MURIMI Acc. HCD,10000,,152000,Pay Utility with OD via STK,254724477912 - SAMUEL MURIMI,TRUE,HCD,
PK172MG2CX,31/10/17 20:00,31/10/17 20:00,Completed,Pay Bill Online from 254725385966 - JOSEPH MUYA MARUA Acc. KEE,10000,,142000,Pay Utility with OD Online,254725385966 - JOSEPH MUYA MARUA,TRUE,KEE,
PK112J5K19,31/10/17 19:23,31/10/17 19:23,Completed,Pay Bill from 254710239100 - PHILOMENA WOKI MUTHAMA Acc. KDK,17000,,132000,Pay Utility,254710239100 - PHILOMENA WOKI MUTHAMA,TRUE,KDK,
PK192FJVR5,31/10/17 18:47,31/10/17 18:47,Completed,Pay Bill from 0717216114 - Felix Njeru Mugambi Acc. Kdf,10000,,115000,Pay Utility,0717216114 - Felix Njeru Mugambi,TRUE,Kdf,
PK142EFKXU,31/10/17 18:35,31/10/17 18:35,Completed,Pay Bill from 254721417560 - ANDREW SANDE Acc. JBJ,16000,,105000,Pay Utility,254721417560 - ANDREW SANDE,TRUE,JBJ,
PK152ACM6X,31/10/17 17:47,31/10/17 17:47,Completed,Pay Bill from 254728901013 - ALEX MOSE ARWASA Acc. HGD,10000,,89000,Pay Utility,254728901013 - ALEX MOSE ARWASA,TRUE,HGD,
PK1028M332,31/10/17 17:23,31/10/17 17:23,Completed,Pay Bill Online from 254714855708 - KIPLANGAT SITIENEI Acc. FAE,16000,,79000,Pay Bill Online,254714855708 - KIPLANGAT SITIENEI,TRUE,FAE,
PK11289647,31/10/17 17:18,31/10/17 17:18,Completed,Pay Bill Online from 254724005780 - IVY MARGARET OGOLA Acc. FFB,20000,,63000,Pay Bill Online,254724005780 - IVY MARGARET OGOLA,TRUE,FFB,
PK1322I95R,31/10/17 15:47,31/10/17 15:47,Completed,Pay Bill Online from 254728093389 - MOHAMED MUSA ALASOW Acc. KED ,12000,,43000,Pay Bill Online,254728093389 - MOHAMED MUSA ALASOW,TRUE,KED,
PK1622AFSO,31/10/17 15:43,31/10/17 15:43,Completed,Pay Bill from 254704833344 - LOISE KIMANI Acc. jfa,20000,,31000,Pay Utility,254704833344 - LOISE KIMANI,TRUE,jfa,
PK1720ZSKH,31/10/17 15:21,31/10/17 15:21,Completed,Pay Bill Online from 254704033042 - LESLIE KOIKAI Acc. IBD,11000,,11000,Pay Bill Online,254704033042 - LESLIE KOIKAI,TRUE,IBD,
PK1620PK1S,31/10/17 15:16,31/10/17 15:16,Completed,Utility Account to Organization Settlement Account,,-142000,0,Utility Account to Organization Settlement Account,979524 - ANCIENT WELLS PROPERTY MANAGERS 2,TRUE,,
PK101XBR9Y,31/10/17 14:17,31/10/17 14:17,Completed,Pay Bill from 254726753273 - JESSE K MURIRMI NJERU Acc. HCH,17000,,142000,Pay Utility,254726753273 - JESSE K MURIRMI NJERU,TRUE,HCH,
PK181VQE06,31/10/17 13:49,31/10/17 13:49,Completed,Pay Bill from 254724953672 - MERCY MBETI Acc. JCA,20000,,125000,Pay Utility,254724953672 - MERCY MBETI,TRUE,JCA,
PK111QRFVL,31/10/17 12:24,31/10/17 12:24,Completed,Pay Bill from 254720375006 - JACOB KANGOGO Acc. IBA,15000,,105000,Pay Utility,254720375006 - JACOB KANGOGO,TRUE,IBA,
PK111MEH4X,31/10/17 11:05,31/10/17 11:05,Completed,Pay Bill Online from 254722604851 - WILFRED SAKWA Acc. IDG,10000,,90000,Pay Bill Online,254722604851 - WILFRED SAKWA,TRUE,IDG,
PK151LU5ZD,31/10/17 10:55,31/10/17 10:55,Completed,Pay Bill from 254729796719 - JACINTA WANJIKU NJERI Acc. FFF,17000,,80000,Pay Utility,254729796719 - JACINTA WANJIKU NJERI,TRUE,FFF,
PK121KYWOG,31/10/17 10:39,31/10/17 10:39,Completed,Pay Bill from 254717726012 - WINFRED MUENI PETER Acc. IDA,16000,,63000,Pay Utility,254717726012 - WINFRED MUENI PETER,TRUE,IDA,
PK181KNO0K,31/10/17 10:34,31/10/17 10:34,Completed,Pay Bill Online from 254795510441 - LEWIS MUEMA Acc. KEB,16000,,47000,Pay Bill Online,254795510441 - LEWIS MUEMA,TRUE,KEB,
PK131FZFL1,31/10/17 09:06,31/10/17 09:06,Completed,Pay Bill Online from 254725218904 - SALOME MUTHONI MWANGI Acc. KFJ,15000,,31000,Pay Bill Online,254725218904 - SALOME MUTHONI MWANGI,TRUE,KFJ,
PK171DWOTN,31/10/17 08:24,31/10/17 08:24,Completed,Pay Bill Online from 254704682516 - Winnie Akinyi Omollo Acc. FDA,16000,,16000,Pay Bill Online,254704682516 - Winnie Akinyi Omollo,TRUE,FDA,
PK131AYDX7,31/10/17 07:13,31/10/17 07:13,Completed,Utility Account to Organization Settlement Account,,-102500,0,Utility Account to Organization Settlement Account,979524 - ANCIENT WELLS PROPERTY MANAGERS 2,TRUE,,
PK101A5Q8K,31/10/17 06:47,31/10/17 06:47,Completed,Pay Bill Online from 254717809935 - LYDIAH WERU Acc. IDC,9500,,102500,Pay Bill Online,254717809935 - LYDIAH WERU,TRUE,IDC,
PK131A2D3J,31/10/17 06:44,31/10/17 06:44,Completed,Pay Bill from 254743329119 - Bevaline Khayi Wekesa Acc. DGC,20000,,93000,Pay Utility with OD via STK,254743329119 - Bevaline Khayi Wekesa,TRUE,DGC,
PK1619V92O,31/10/17 06:36,31/10/17 06:36,Completed,Pay Bill from 254718284151 - EVERLINE MATHEKA Acc. JAG,9000,,73000,Pay Utility,254718284151 - EVERLINE MATHEKA,TRUE,JAG,
PK1618DMEI,31/10/17 03:34,31/10/17 03:34,Completed,Pay Bill from 254725381062 - VICTOR MAITHYA Acc. HEG,3000,,64000,Pay Utility,254725381062 - VICTOR MAITHYA,TRUE,HEG,
PJV013W6G2,30/10/17 21:39,30/10/17 21:39,Completed,Pay Bill Online from 254726001437 - FESTUS MUNYIRI MAINA Acc. IFF,10000,,61000,Pay Bill Online,254726001437 - FESTUS MUNYIRI MAINA,TRUE,IFF,
PJV1ZWHS6D,30/10/17 19:38,30/10/17 19:38,Completed,Pay Bill from 0759217545 - Angela Syombua Lole Acc. HDE,10000,,51000,Pay Utility,0759217545 - Angela Syombua Lole,TRUE,HDE,
PJV6ZQZ7YY,30/10/17 18:34,30/10/17 18:34,Completed,Pay Bill from 254721852723 - HASSAN ABDINOOR MOHAMED Acc. jaa,10000,,41000,Pay Utility,254721852723 - HASSAN ABDINOOR MOHAMED,TRUE,jaa,
PJV0ZFAENS,30/10/17 15:31,30/10/17 15:31,Completed,Pay Bill from 254721465713 - RHODA WAMBUI MWANGI Acc. Jfh,17000,,31000,Pay Utility,254721465713 - RHODA WAMBUI MWANGI,TRUE,Jfh,
PJV4ZBFS1O,30/10/17 14:23,30/10/17 14:23,Completed,Pay Bill from 254700557767 - BAKHITA MWENDE MUANGE Acc. KCB,14000,,14000,Pay Utility,254700557767 - BAKHITA MWENDE MUANGE,TRUE,KCB,
PJV8Z9VX8C,30/10/17 13:56,30/10/17 13:56,Completed,Utility Account to Organization Settlement Account,,-307900,0,Utility Account to Organization Settlement Account,979524 - ANCIENT WELLS PROPERTY MANAGERS 2,TRUE,,
PJV5Z6ANZ1,30/10/17 12:48,30/10/17 12:48,Completed,"Pay Bill from 254725754547 - MWACHIRO GEORGE DECHE Acc. DFC",20000,,307900,Pay Utility,254725754547 - MWACHIRO GEORGE DECHE,TRUE,"DFC",
PJV3Z5YYJV,30/10/17 12:41,30/10/17 12:41,Completed,Pay Bill from 254728888511 - HAMISI MIRITI Acc. KAK,16000,,287900,Pay Utility,254728888511 - HAMISI MIRITI,TRUE,KAK,
PJV7Z0RTOH,30/10/17 10:54,30/10/17 10:54,Completed,Pay Bill from 254714060203 - PATRICK MWANGOMBE MSAWUCHI Acc. KEI,12000,,271900,Pay Utility,254714060203 - PATRICK MWANGOMBE MSAWUCHI,TRUE,KEI,
PJV1YOVGLF,30/10/17 01:17,30/10/17 01:17,Completed,Pay Bill Online from 0711117122 - Yassir Mwinyi Abdulrazaq Acc. ICE,2000,,259900,Pay Bill Online,0711117122 - Yassir Mwinyi Abdulrazaq,TRUE,ICE,
PJU2YJLRZQ,29/10/17 21:20,29/10/17 21:20,Completed,Pay Bill Online from 254720696119 - DUNCAN OMONDI OKETCH Acc. IAG,9000,,257900,Pay Bill Online,254720696119 - DUNCAN OMONDI OKETCH,TRUE,IAG,
PJU4YGSKVK,29/10/17 20:32,29/10/17 20:32,Completed,Pay Bill from 254720931300 - ESTHER WANJIRU NDUNGO Acc. KGE,9000,,248900,Pay Utility,254720931300 - ESTHER WANJIRU NDUNGO,TRUE,KGE,
PJU6Y83OKW,29/10/17 18:52,29/10/17 18:52,Completed,Pay Bill from 254717801919 - MARCELINE AKINYI Acc. IAF,21000,,239900,Pay Utility,254717801919 - MARCELINE AKINYI,TRUE,IAF,
PJU4Y55CSA,29/10/17 18:20,29/10/17 18:20,Completed,Pay Bill Online from 254727554512 - COLLINS KOECH Acc. JDJ,15000,,218900,Pay Bill Online,254727554512 - COLLINS KOECH,TRUE,JDJ,
PJU6XXFJIS,29/10/17 16:40,29/10/17 16:40,Completed,Pay Bill Online from 254712370657 - MARVIN NYANGAU Acc. KAJ,16000,,203900,Pay Bill Online,254712370657 - MARVIN NYANGAU,TRUE,KAJ,
PJU1XUWUM9,29/10/17 16:04,29/10/17 16:04,Completed,Pay Bill from 254702355678 - JOHN NJOROGE GICHERU Acc. ITE,10000,,187900,Pay Utility,254702355678 - JOHN NJOROGE GICHERU,TRUE,ITE,
PJU2XJX7PU,29/10/17 13:20,29/10/17 13:20,Completed,Pay Bill from 254723488259 - WILSON OKITE OKITE Acc. HCA,15000,,177900,Pay Utility,254723488259 - WILSON OKITE OKITE,TRUE,HCA,
PJU8XIRCA8,29/10/17 13:02,29/10/17 13:02,Completed,Pay Bill from 254799287000 - Godfrey odhiambo oyugi Acc. KAE,11000,,162900,Pay Utility,254799287000 - Godfrey odhiambo oyugi,TRUE,KAE,
PJU1XC9SFJ,29/10/17 11:17,29/10/17 11:17,Completed,Pay Bill from 254702764047 - FERDINAND K Acc. KDB,16000,,151900,Pay Utility,254702764047 - FERDINAND K,TRUE,KDB,
PJU0X4VR14,29/10/17 09:14,29/10/17 09:14,Completed,Pay Bill Online from 254726593769 - BONFACE BWINA Acc. DEB,16000,,135900,Pay Bill Online,254726593769 - BONFACE BWINA,TRUE,DEB,
PJU5X25D6L,29/10/17 08:20,29/10/17 08:20,Completed,Pay Bill Online from 254725909984 - TIMOTHY ODHIAMBO OWITI Acc. JDE,10000,,119900,Pay Bill Online,254725909984 - TIMOTHY ODHIAMBO OWITI,TRUE,JDE,
PJU2X1M5N8,29/10/17 08:08,29/10/17 08:08,Completed,Pay Bill from 254707370896 - OKECH BRIAN BRIAN Acc. FFA,15000,,109900,Pay Utility,254707370896 - OKECH BRIAN BRIAN,TRUE,FFA,
PJU4WZYGT8,29/10/17 07:25,29/10/17 07:25,Completed,Pay Bill Online from 254716784364 - Wendy Kemunto Nyandiko Acc. FFC,9000,,94900,Pay Bill Online,254716784364 - Wendy Kemunto Nyandiko,TRUE,FFC,
PJU9WX7MYV,29/10/17 02:40,29/10/17 02:40,Completed,Pay Bill Online from 254728897908 - Teddy Allan Onyango Acc. KCF,5900,,85900,Pay Bill Online,254728897908 - Teddy Allan Onyango,TRUE,KCF,
PJT3WSNBL3,28/10/17 21:44,28/10/17 21:44,Completed,Pay Bill Online from 254728364280 - EMMANUEL THUMA OYIER Acc. IDF,11000,,80000,Pay Bill Online,254728364280 - EMMANUEL THUMA OYIER,TRUE,IDF,
PJT5WSK415,28/10/17 21:42,28/10/17 21:42,Completed,Pay Bill from 254703375006 - KEN RODGERS Acc. DBA,14000,,69000,Pay Utility,254703375006 - KEN RODGERS,TRUE,DBA,
PJT0WITO2K,28/10/17 19:21,28/10/17 19:21,Completed,Pay Bill from 254716315144 - PETER MUNYIRI WAROTERE Acc. FBB,16000,,55000,Pay Utility,254716315144 - PETER MUNYIRI WAROTERE,TRUE,FBB,
PJT2WGSPFG,28/10/17 19:00,28/10/17 19:00,Completed,Pay Bill from 0769001671 - Wilson Mutangili Wambua Acc. haf,5000,,39000,Pay Utility,0769001671 - Wilson Mutangili Wambua,TRUE,haf,
PJT0WE3HTK,28/10/17 18:33,28/10/17 18:33,Completed,Pay Bill from 254701683737 - MICHAEL NGUGI Acc. HDB,16000,,34000,Pay Utility,254701683737 - MICHAEL NGUGI,TRUE,HDB,
PJT7WB46TF,28/10/17 17:59,28/10/17 17:59,Completed,Pay Bill Online from 254724211857 - OCHUODHO OUMA Acc. KBK,17000,,18000,Pay Bill Online,254724211857 - OCHUODHO OUMA,TRUE,KBK,
PJT8W6HW0G,28/10/17 16:57,28/10/17 16:57,Completed,Pay Bill from 254704111133 - ELVIS OTIENO Acc. HFD,1000,,1000,Pay Utility,254704111133 - ELVIS OTIENO,TRUE,HFD,
PJT3W2B4PJ,28/10/17 15:51,28/10/17 15:51,Completed,Utility Account to Organization Settlement Account,,-87100,0,Utility Account to Organization Settlement Account,979524 - ANCIENT WELLS PROPERTY MANAGERS 2,TRUE,,
PJT4VZNQJA,28/10/17 15:06,28/10/17 15:06,Completed,Pay Bill from 254703180395 - JANE NYAGUTHII MWAGO Acc. IBE,8000,,87100,Pay Utility,254703180395 - JANE NYAGUTHII MWAGO,TRUE,IBE,
PJT4VYGPPS,28/10/17 14:46,28/10/17 14:46,Completed,Pay Bill from 254719134037 - KELVIN KITOO Acc. FAA,16000,,79100,Pay Utility,254719134037 - KELVIN KITOO,TRUE,FAA,
PJT5VVO5SL,28/10/17 13:58,28/10/17 13:58,Completed,Pay Bill Online from 254714710698 - TABITHA MULEE KYALO Acc. IFD,11500,,63100,Pay Bill Online,254714710698 - TABITHA MULEE KYALO,TRUE,IFD,
PJT1VR169R,28/10/17 12:38,28/10/17 12:38,Completed,Pay Bill from 254725111246 - FRANCIS MUUTU MWANGANGI Acc. IGI ,15000,,51600,Pay Utility,254725111246 - FRANCIS MUUTU MWANGANGI,TRUE,IGI,
PJT2VPUH8Q,28/10/17 12:16,28/10/17 12:16,Completed,Pay Bill from 254702190887 - Nax Ochieng Acc. FDE DOOR PEN,600,,36600,Pay Utility,254702190887 - Nax Ochieng,TRUE,FDE,
PJT1VIZTAN,28/10/17 10:11,28/10/17 10:11,Completed,Pay Bill from 254705122840 - RICHU MWANGI GATURAGA Acc. DEA,16000,,36000,Pay Utility,254705122840 - RICHU MWANGI GATURAGA,TRUE,DEA,
PJT8VIR4TE,28/10/17 10:07,28/10/17 10:07,Completed,Pay Bill from 254724103759 - RICHARD NKAABO Acc. JEJ,20000,,20000,Pay Utility,254724103759 - RICHARD NKAABO,TRUE,JEJ,
PJT1VGUW1V,28/10/17 09:30,28/10/17 09:30,Completed,Utility Account to Organization Settlement Account,,-57500,0,Utility Account to Organization Settlement Account,979524 - ANCIENT WELLS PROPERTY MANAGERS 2,TRUE,,
PJS9V2YH5Z,27/10/17 21:14,27/10/17 21:14,Completed,Pay Bill Online from 254705951407 - CAROLINE WAITHIRA KAMAU Acc. IDH,13500,,57500,Pay Bill Online,254705951407 - CAROLINE WAITHIRA KAMAU,TRUE,IDH,
PJS0UQV23I,27/10/17 18:42,27/10/17 18:42,Completed,Pay Bill from 254799287000 - Godfrey odhiambo oyugi Acc. kae,10000,,44000,Pay Utility,254799287000 - Godfrey odhiambo oyugi,TRUE,kae,
PJS8UEKXMY,27/10/17 15:43,27/10/17 15:43,Completed,Pay Bill from 254729450678 - GRACE NDUNGE Acc. fba,7000,,34000,Pay Utility,254729450678 - GRACE NDUNGE,TRUE,fba,
PJS2U6OMQE,27/10/17 13:21,27/10/17 13:21,Completed,Pay Bill from 254720029066 - EVANS CHERUYOT ROTICH Acc. KFI,3000,,27000,Pay Utility,254720029066 - EVANS CHERUYOT ROTICH,TRUE,KFI,
PJS7U05MJV,27/10/17 11:19,27/10/17 11:19,Completed,Pay Bill Online from 0700206427 - Clare Nabalisa Mukasa Acc. HFA,20000,,24000,Pay Bill Online,0700206427 - Clare Nabalisa Mukasa,TRUE,HFA,
PJS7TYIGX7,27/10/17 10:48,27/10/17 10:48,Completed,Pay Bill from 254725381062 - VICTOR MAITHYA Acc. HEG,4000,,4000,Pay Utility,254725381062 - VICTOR MAITHYA,TRUE,HEG,
PJS8TR536S,27/10/17 08:17,27/10/17 08:17,Completed,Utility Account to Organization Settlement Account,,-225000,0,Utility Account to Organization Settlement Account,979524 - ANCIENT WELLS PROPERTY MANAGERS 2,TRUE,,
PJS5TO42LP,27/10/17 06:51,27/10/17 06:51,Completed,Pay Bill from 254710965167 - KUSA STEPHANIE HAZEL Acc. JDC,11000,,225000,Pay Utility,254710965167 - KUSA STEPHANIE HAZEL,TRUE,JDC,
PJR3TL8QDL,26/10/17 23:33,26/10/17 23:33,Completed,Pay Bill from 254721671129 - CHRISPINUS ODHIAMBO Acc. DFD,20000,,214000,Pay Utility,254721671129 - CHRISPINUS ODHIAMBO,TRUE,DFD,
PJR1TCGFB3,26/10/17 20:01,26/10/17 20:01,Completed,Pay Bill from 254705902606 - JOSEPH OTIENO SAGWA Acc. fed,12000,,194000,Pay Utility,254705902606 - JOSEPH OTIENO SAGWA,TRUE,fed,
PJR9TCDOB5,26/10/17 20:00,26/10/17 20:00,Completed,Pay Bill Online from 254700379039 - MARTIN KIMANI Acc. KCI,12000,,182000,Pay Bill Online,254700379039 - MARTIN KIMANI,TRUE,KCI,
PJR5TA9QTR,26/10/17 19:35,26/10/17 19:35,Completed,Pay Bill from 254702527778 - PAULINE MUKAMI MUNYI Acc. HEH,16000,,170000,Pay Utility,254702527778 - PAULINE MUKAMI MUNYI,TRUE,HEH,
PJR6T2SA6Q,26/10/17 18:16,26/10/17 18:16,Completed,Pay Bill from 254729450678 - GRACE NDUNGE Acc. fba,8000,,154000,Pay Utility with OD via STK,254729450678 - GRACE NDUNGE,TRUE,fba,
PJR3SZWUF3,26/10/17 17:39,26/10/17 17:39,Completed,Pay Bill from 254769514863 - CAROL KHAUSA MAKHACHA Acc. 1ac,4000,,146000,Pay Utility,254769514863 - CAROL KHAUSA MAKHACHA,TRUE,1ac,
PJR6SWYXTK,26/10/17 16:56,26/10/17 16:56,Completed,Pay Bill from 254711706815 - NAOMI WANYONYI Acc. KBA,18000,,142000,Pay Utility,254711706815 - NAOMI WANYONYI,TRUE,KBA,
PJR0SFC0BE,26/10/17 11:41,26/10/17 11:41,Completed,Pay Bill from 0742952242 - Isaac tuitoek cheserem Acc. Ibi,20000,,124000,Pay Utility,0742952242 - Isaac tuitoek cheserem,TRUE,Ibi,
PJQ3RWQ3PF,25/10/17 21:48,25/10/17 21:48,Completed,Pay Bill Online from 0758506934 - Edgar Maxwel Wanguba Acc. IFG,8000,,104000,Pay Bill Online,0758506934 - Edgar Maxwel Wanguba,TRUE,IFG,
PJQ5RTU6QH,25/10/17 20:52,25/10/17 20:52,Completed,Pay Bill from 254719439717 - Cecilia Omondi Acc. HFC,9000,,96000,Pay Utility,254719439717 - Cecilia Omondi,TRUE,HFC,
PJQ7RNM4WJ,25/10/17 19:30,25/10/17 19:30,Completed,Pay Bill Online from 0700206427 - Clare Nabalisa Mukasa Acc. HFA,16000,,87000,Pay Utility with OD Online,0700206427 - Clare Nabalisa Mukasa,TRUE,HFA,
PJQ8R7ZM3E,25/10/17 16:08,25/10/17 16:08,Completed,Pay Bill Online from 254707726441 - JOHN OLOO NYAULA Acc. IEH,31000,,71000,Pay Bill Online,254707726441 - JOHN OLOO NYAULA,TRUE,IEH,
PJQ2R7SOVK,25/10/17 16:05,25/10/17 16:05,Completed,Pay Bill from 254722910078 - MAUREEN MUNYIVA MUTUKU Acc. DBD,25000,,40000,Pay Utility,254722910078 - MAUREEN MUNYIVA MUTUKU,TRUE,DBD,
PJQ4QWBE8S,25/10/17 12:36,25/10/17 12:36,Completed,Pay Bill from 254704140048 - MAUREEN GACHERI KINYUA Acc. JDD,15000,,15000,Pay Utility,254704140048 - MAUREEN GACHERI KINYUA,TRUE,JDD,
PJQ1QPCPDF,25/10/17 10:22,25/10/17 10:22,Completed,Utility Account to Organization Settlement Account,,-10000,0,Utility Account to Organization Settlement Account,979524 - ANCIENT WELLS PROPERTY MANAGERS 2,TRUE,,
PJQ7QMGDZ5,25/10/17 09:25,25/10/17 09:25,Completed,Pay Bill Online from 254717463608 - DANIEL MUNIU MUGURE Acc. HGE,10000,,10000,Pay Bill Online,254717463608 - DANIEL MUNIU MUGURE,TRUE,HGE,
PJQ2QMFBQ2,25/10/17 09:24,25/10/17 09:24,Completed,Utility Account to Organization Settlement Account,,-93500,0,Utility Account to Organization Settlement Account,979524 - ANCIENT WELLS PROPERTY MANAGERS 2,TRUE,,
PJP8Q9H7G8,24/10/17 21:10,24/10/17 21:10,Completed,Pay Bill from 254703528196 - ERIC GITONGA MUGO Acc. KGJ,11000,,93500,Pay Utility,254703528196 - ERIC GITONGA MUGO,TRUE,KGJ,
PJP8PNXICW,24/10/17 16:18,24/10/17 16:18,Completed,Pay Bill from 254713497971 - GERISHON NDUNG'U KOMU Acc. HGH,17000,,82500,Pay Utility,254713497971 - GERISHON NDUNG'U KOMU,TRUE,HGH,
PJP2PNR0LQ,24/10/17 16:14,24/10/17 16:14,Completed,Merchant Pay Utility Received from 7040090 - Amina Haji Salah Acc. JEH,10000,,65500,Merchant Pay Utility via API,7040090 - Amina Haji Salah,TRUE,JEH,
PJP9PNA4HF,24/10/17 16:06,24/10/17 16:06,Completed,Pay Bill from 254722458136 - NADI GOLICHA Acc. KAA,11000,,55500,Pay Utility with OD via STK,254722458136 - NADI GOLICHA,TRUE,KAA,
PJP8PJ0Q8A,24/10/17 14:46,24/10/17 14:46,Completed,Pay Bill from 254798146452 - VALARY ODHIAMBO Acc. JEE,10000,,44500,Pay Utility,254798146452 - VALARY ODHIAMBO,TRUE,JEE,
PJP3PHFAL5,24/10/17 14:15,24/10/17 14:15,Completed,Pay Bill Online from 254719317219 - PHILIP MBOYA Acc. JDH,16000,,34500,Pay Utility with OD Online,254719317219 - PHILIP MBOYA,TRUE,JDH,
PJP9PBXIRF,24/10/17 12:33,24/10/17 12:33,Completed,Pay Bill from 0721130307 - HILLARY NGUNYI MUTINDA Acc. JCH,16000,,18500,Pay Utility,0721130307 - HILLARY NGUNYI MUTINDA,TRUE,JCH,
PJP6PADFSU,24/10/17 12:03,24/10/17 12:03,Completed,Pay Bill from 0715688238 - JOANNAH ATUHAIRE BANTU Acc. jae,2500,,2500,Pay Utility,0715688238 - JOANNAH ATUHAIRE BANTU,TRUE,jae,
PJP1OYGC69,24/10/17 07:55,24/10/17 07:55,Completed,Utility Account to Organization Settlement Account,,-99500,0,Utility Account to Organization Settlement Account,979524 - ANCIENT WELLS PROPERTY MANAGERS 2,TRUE,,
PJP2OVVHEA,24/10/17 06:26,24/10/17 06:26,Completed,Pay Bill from 254716715043 - HANNAH WATETU GACHAGUA Acc. IAI,15000,,99500,Pay Utility with OD via STK,254716715043 - HANNAH WATETU GACHAGUA,TRUE,IAI,
PJO7OC6KTL,23/10/17 17:50,23/10/17 17:50,Completed,Pay Bill from 254710110273 - AGNES NTOITI Acc. JBB,5000,,84500,Pay Utility with OD via STK,254710110273 - AGNES NTOITI,TRUE,JBB,
PJO3NZ8V7T,23/10/17 14:04,23/10/17 14:04,Completed,Pay Bill from 254728788938 - MOHAMED ISSAK ADAN Acc. jaa,6000,,79500,Pay Utility with OD via STK,254728788938 - MOHAMED ISSAK ADAN,TRUE,jaa,
PJO2NXAFUQ,23/10/17 13:27,23/10/17 13:27,Completed,Pay Bill Online from 254723901777 - EVANS YEBEI Acc. KCH,10000,,73500,Pay Bill Online,254723901777 - EVANS YEBEI,TRUE,KCH,
PJO4NQQZZO,23/10/17 11:08,23/10/17 11:08,Completed,Pay Bill from 254717606114 - KELVIN TONDO NGUMBAO Acc. HCE,11000,,63500,Pay Utility,254717606114 - KELVIN TONDO NGUMBAO,TRUE,HCE,
PJO8NPU0GY,23/10/17 10:48,23/10/17 10:48,Completed,Pay Bill Online from 254714536026 - LILIAN AWUOR ONYANGO Acc. HDC ,22000,,52500,Pay Bill Online,254714536026 - LILIAN AWUOR ONYANGO,TRUE,HDC,
PJN3NAZKQ9,22/10/17 21:38,22/10/17 21:38,Completed,Pay Bill from 0113803309 - DORRIS MUENI MUTIE Acc. FBC,9500,,30500,Pay Utility,0113803309 - DORRIS MUENI MUTIE,TRUE,FBC,
PJN6N36T8M,22/10/17 19:35,22/10/17 19:35,Completed,Pay Bill from 0718838251 - MARK KINYUA MAINA Acc. kfg,10000,,21000,Pay Utility,0718838251 - MARK KINYUA MAINA,TRUE,kfg,
PJN0ML9NGE,22/10/17 15:27,22/10/17 15:27,Completed,Pay Bill from 254704403532 - Mercy Chepchirchir Mary Acc. Jbc,11000,,11000,Pay Utility,254704403532 - Mercy Chepchirchir Mary,TRUE,Jbc,
PJN6M11UY8,22/10/17 09:26,22/10/17 09:26,Completed,Utility Account to Organization Settlement Account,,-111500,0,Utility Account to Organization Settlement Account,979524 - ANCIENT WELLS PROPERTY MANAGERS 2,TRUE,,
PJN6LZSWAK,22/10/17 09:00,22/10/17 09:00,Completed,Pay Bill from 254713662892 - DAVID JUMA KIPTOCH Acc. JBE,8500,,111500,Pay Utility,254713662892 - DAVID JUMA KIPTOCH,TRUE,JBE,
PJN8LUXDSI,22/10/17 06:52,22/10/17 06:52,Completed,Pay Bill Online from 254720451253 - JIMMY KIOGORA NKIROTE Acc. KBD,2500,,103000,Pay Utility with OD Online,254720451253 - JIMMY KIOGORA NKIROTE,TRUE,KBD,
PJM6L3LBI2,21/10/17 16:45,21/10/17 16:45,Completed,Pay Bill from 254728681775 - Faith Abigael Acc. JAC,7500,,100500,Pay Utility,254728681775 - Faith Abigael,TRUE,JAC,
PJM4KZZ3CE,21/10/17 15:43,21/10/17 15:43,Completed,Pay Bill Online from 254720787158 - AMOS CHELANG'A Acc. KFK,32000,,93000,Pay Bill Online,254720787158 - AMOS CHELANG'A,TRUE,KFK,
PJM0KVXFBU,21/10/17 14:29,21/10/17 14:29,Completed,Pay Bill from 254729371750 - DERRICK OTANGA Acc. FEF,17000,,61000,Pay Utility,254729371750 - DERRICK OTANGA,TRUE,FEF,
PJM1KUT97L,21/10/17 14:08,21/10/17 14:08,Completed,Pay Bill from 0111501429 - James Mwaura Mwangi Acc. IBI,7000,,44000,Pay Utility,0111501429 - James Mwaura Mwangi,TRUE,IBI,
PJM8KSZFV4,21/10/17 13:34,21/10/17 13:34,Completed,Pay Bill from 254728681775 - Faith Abigael Acc. JAC,10000,,37000,Pay Utility,254728681775 - Faith Abigael,TRUE,JAC,
PJM9KSPVE1,21/10/17 13:30,21/10/17 13:30,Completed,Pay Bill from 254728681775 - Faith Abigael Acc. IAF,9000,,27000,Pay Utility,254728681775 - Faith Abigael,TRUE,IAF,
PJM2KNW408,21/10/17 11:56,21/10/17 11:56,Completed,Pay Bill from 0740507437 - JOY KAARI KAMENCU Acc. FAC,9000,,18000,Pay Utility,0740507437 - JOY KAARI KAMENCU,TRUE,FAC,
PJM3KE0DQP,21/10/17 08:35,21/10/17 08:35,Completed,Pay Bill from 254717909848 - MARY MBULA KATHUKU Acc. FGD,9000,,9000,Pay Utility,254717909848 - MARY MBULA KATHUKU,TRUE,FGD,
PJM2KAZK98,21/10/17 07:15,21/10/17 07:15,Completed,Utility Account to Organization Settlement Account,,-41000,0,Utility Account to Organization Settlement Account,979524 - ANCIENT WELLS PROPERTY MANAGERS 2,TRUE,,
PJM8K99YJM,21/10/17 05:41,21/10/17 05:41,Completed,Pay Bill from 0715688238 - JOANNAH ATUHAIRE BANTU Acc. jae,2000,,41000,Pay Utility,0715688238 - JOANNAH ATUHAIRE BANTU,TRUE,jae,
PJL5JIIIFH,20/10/17 16:18,20/10/17 16:18,Completed,Pay Bill from 0792933158 - mary wamaitha maina Acc. kdh,10000,,39000,Pay Utility,0792933158 - mary wamaitha maina,TRUE,kdh,
PJL4J89L6G,20/10/17 13:07,20/10/17 13:07,Completed,Pay Bill from 254795449800 - MARTHA WANJIRU NJUGUNA Acc. FEB,15000,,29000,Pay Utility,254795449800 - MARTHA WANJIRU NJUGUNA,TRUE,FEB,
PJL9J6EWW1,20/10/17 12:32,20/10/17 12:32,Completed,Pay Bill from 254724611087 - Francis Mukindya Muoki Acc. dfb,4500,,14000,Pay Utility,254724611087 - Francis Mukindya Muoki,TRUE,dfb,
PJL9J4X7ND,20/10/17 12:03,20/10/17 12:03,Completed,Pay Bill from 254723954911 - JAMES KILAVI Acc. ICG,9500,,9500,Pay Utility,254723954911 - JAMES KILAVI,TRUE,ICG,
PJL6J4J7W0,20/10/17 11:56,20/10/17 11:56,Completed,Utility Account to Organization Settlement Account,,-17000,0,Utility Account to Organization Settlement Account,979524 - ANCIENT WELLS PROPERTY MANAGERS 2,TRUE,,
PJL8IX36CQ,20/10/17 09:29,20/10/17 09:29,Completed,Pay Bill from 0722950695 - Joshua Mbithi Kivondo Acc. Dca,17000,,17000,Pay Utility,0722950695 - Joshua Mbithi Kivondo,TRUE,Dca,
PJL7IT9UPL,20/10/17 08:03,20/10/17 08:03,Completed,Utility Account to Organization Settlement Account,,-35000,0,Utility Account to Organization Settlement Account,979524 - ANCIENT WELLS PROPERTY MANAGERS 2,TRUE,,
PJL9IRHBYH,20/10/17 07:10,20/10/17 07:10,Completed,Pay Bill from 254700531269 - FRANCIS GITAU MACHARIA Acc. ICC,15000,,35000,Pay Utility with OD via STK,254700531269 - FRANCIS GITAU MACHARIA,TRUE,ICC,
PJK1HN660J,19/10/17 12:41,19/10/17 12:41,Completed,Pay Bill from 254701047939 - Cyrus Wahome Acc. JAH,16000,,20000,Pay Utility,254701047939 - Cyrus Wahome,TRUE,JAH,
PJK5HJ89TX,19/10/17 11:25,19/10/17 11:25,Completed,Pay Bill from 254704111133 - ELVIS OTIENO Acc. HFD,2000,,4000,Pay Utility,254704111133 - ELVIS OTIENO,TRUE,HFD,
PJK8HGKVYA,19/10/17 10:33,19/10/17 10:33,Completed,Pay Bill Online from 254710202776 - KELVIN KARIMI MACHARIA Acc. FAD,2000,,2000,Pay Bill Online,254710202776 - KELVIN KARIMI MACHARIA,TRUE,FAD,
PJK8HDZ59E,19/10/17 09:41,19/10/17 09:41,Completed,Utility Account to Organization Settlement Account,,-10000,0,Utility Account to Organization Settlement Account,979524 - ANCIENT WELLS PROPERTY MANAGERS 2,TRUE,,
PJK2HAA6FE,19/10/17 08:19,19/10/17 08:19,Completed,Pay Bill from 254719499823 - MOSES MWANZIA MUTHIANI Acc. Jcc,7000,,10000,Pay Utility,254719499823 - MOSES MWANZIA MUTHIANI,TRUE,Jcc,
PJJ3GZA36N,18/10/17 20:29,18/10/17 20:29,Completed,Pay Bill Online from 254720451253 - JIMMY KIOGORA NKIROTE Acc. KBD,3000,,3000,Pay Utility with OD Online,254720451253 - JIMMY KIOGORA NKIROTE,TRUE,KBD,
PJJ6GP6J0K,18/10/17 18:30,18/10/17 18:30,Completed,Utility Account to Organization Settlement Account,,-34000,0,Utility Account to Organization Settlement Account,979524 - ANCIENT WELLS PROPERTY MANAGERS 2,TRUE,,
PJJ1GD4YS1,18/10/17 15:28,18/10/17 15:28,Completed,Pay Bill from 254722136450 - MARY EVERLYN Acc. JAI,7200,,34000,Pay Utility with OD via STK,254722136450 - MARY EVERLYN,TRUE,JAI,
PJJ3GCFFP5,18/10/17 15:15,18/10/17 15:15,Completed,Pay Bill from 254722136450 - MARY EVERLYN Acc. JAI,800,,26800,Pay Utility,254722136450 - MARY EVERLYN,TRUE,JAI,
PJJ7GCEGO5,18/10/17 15:15,18/10/17 15:15,Completed,Pay Bill from 254729557859 - AUDREY KASINDAHA KASINDAHA Acc. KFB,16000,,26000,Pay Utility,254729557859 - AUDREY KASINDAHA KASINDAHA,TRUE,KFB,
PJJ5G3ZKVZ,18/10/17 12:38,18/10/17 12:38,Completed,Pay Bill from 254725539787 - EVERLYNE MOGAKA Acc. KEF,10000,,10000,Pay Utility,254725539787 - EVERLYNE MOGAKA,TRUE,KEF,
PJJ5G0ERVH,18/10/17 11:29,18/10/17 11:29,Completed,Utility Account to Organization Settlement Account,,-5000,0,Utility Account to Organization Settlement Account,979524 - ANCIENT WELLS PROPERTY MANAGERS 2,TRUE,,
PJI9FG1K61,17/10/17 20:38,17/10/17 20:38,Completed,Pay Bill from 254721944520 - NANCY KARIHA Acc. KDD,5000,,5000,Pay Utility,254721944520 - NANCY KARIHA,TRUE,KDD,
PJI2F7Z2K8,17/10/17 18:58,17/10/17 18:58,Completed,Utility Account to Organization Settlement Account,,-66200,0,Utility Account to Organization Settlement Account,979524 - ANCIENT WELLS PROPERTY MANAGERS 2,TRUE,,
PJI7EUCZI3,17/10/17 15:44,17/10/17 15:44,Completed,Pay Bill from 254716715043 - HANNAH WATETU GACHAGUA Acc. IAI,3700,,66200,Pay Utility,254716715043 - HANNAH WATETU GACHAGUA,TRUE,IAI,
PJI7EKSFA5,17/10/17 12:48,17/10/17 12:48,Completed,Pay Bill from 254710110273 - AGNES NTOITI Acc. JBB,10000,,62500,Pay Utility with OD via STK,254710110273 - AGNES NTOITI,TRUE,JBB,
PJI9EGDGHD,17/10/17 11:24,17/10/17 11:24,Completed,Pay Bill from 254703555717 - SENGA SALIM Acc. hbb,5000,,52500,Pay Utility,254703555717 - SENGA SALIM,TRUE,hbb,
PJI8EEVU6S,17/10/17 10:55,17/10/17 10:55,Completed,Pay Bill from 254728313347 - GEORGE KIMAIGA NYAMORI Acc. ici,16000,,47500,Pay Utility with OD via STK,254728313347 - GEORGE KIMAIGA NYAMORI,TRUE,ici,
PJI1EDZRDT,17/10/17 10:38,17/10/17 10:38,Completed,Pay Bill Online from 254722921132 - JOE MCCRAY MURIUKI KIHIA Acc. IFA,15000,,31500,Pay Utility with OD Online,254722921132 - JOE MCCRAY MURIUKI KIHIA,TRUE,IFA,
PJI1E9F4N1,17/10/17 09:06,17/10/17 09:06,Completed,Pay Bill from 254725381062 - VICTOR MAITHYA Acc. HEG,6000,,16500,Pay Utility with OD via STK,254725381062 - VICTOR MAITHYA,TRUE,HEG,
PJI9E4HFIV,17/10/17 06:59,17/10/17 06:59,Completed,Pay Bill Online from 254715764212 - BANCE ISHEMINYE Acc. JFE,2000,,10500,Pay Utility with OD Online,254715764212 - BANCE ISHEMINYE,TRUE,JFE,
PJH0CNI7A0,16/10/17 01:20,16/10/17 01:20,Completed,Pay Bill from 254723389177 - NELSON MOI Acc. ibf,8500,,8500,Pay Utility,254723389177 - NELSON MOI,TRUE,ibf,
PJG0BJI70K,15/10/17 12:46,15/10/17 12:46,Completed,Utility Account to Organization Settlement Account,,-176400,0,Utility Account to Organization Settlement Account,979524 - ANCIENT WELLS PROPERTY MANAGERS 2,TRUE,,
PJG2B7NMZO,15/10/17 09:14,15/10/17 09:14,Completed,Pay Bill from 254722458136 - NADI GOLICHA Acc. KAA,5500,,176400,Pay Utility with OD via STK,254722458136 - NADI GOLICHA,TRUE,KAA,
PJG6B7KI4G,15/10/17 09:12,15/10/17 09:12,Completed,Pay Bill from 254722458136 - NADI GOLICHA Acc. KAA,500,,170900,Pay Utility,254722458136 - NADI GOLICHA,TRUE,KAA,
PJG2B7BY90,15/10/17 09:08,15/10/17 09:08,Completed,Pay Bill from 254724655033 - SUSAN CHIMOTO Acc. KGH,9500,,170400,Pay Utility,254724655033 - SUSAN CHIMOTO,TRUE,KGH,
PJG9B0MZ5B,15/10/17 03:50,15/10/17 03:50,Completed,Pay Bill from 254720883049 - SIMON AMUKOCHE Acc. IED,11000,,160900,Pay Utility,254720883049 - SIMON AMUKOCHE,TRUE,IED,
PJF8AYV38M,14/10/17 22:51,14/10/17 22:51,Completed,Pay Bill from 0748059595 - Rashid NASSIR Khamis Acc. DDA,8000,,149900,Pay Utility with OD via STK,0748059595 - Rashid NASSIR Khamis,TRUE,DDA,
PJF8AXFA6E,14/10/17 21:59,14/10/17 21:59,Completed,Pay Bill from 254722992162 - JAEL MWANDILOH Acc. DCB,5000,,141900,Pay Utility,254722992162 - JAEL MWANDILOH,TRUE,DCB,
PJF9AM1OKR,14/10/17 19:11,14/10/17 19:11,Completed,Pay Bill from 254722992162 - JAEL MWANDILOH Acc. DCB,10000,,136900,Pay Utility,254722992162 - JAEL MWANDILOH,TRUE,DCB,
PJF3AHJQSX,14/10/17 18:23,14/10/17 18:23,Completed,Pay Bill from 254728084427 - MARY NABWIRE OKELLO Acc. FDF,41000,,126900,Pay Utility,254728084427 - MARY NABWIRE OKELLO,TRUE,FDF,
PJF0AFM31E,14/10/17 17:59,14/10/17 17:59,Completed,Pay Bill from 254726116777 - MARY NDUTA GOSHO Acc. JDB,15000,,85900,Pay Utility,254726116777 - MARY NDUTA GOSHO,TRUE,JDB,
PJF1A3WR1D,14/10/17 14:58,14/10/17 14:58,Completed,Pay Bill Online from 254722258107 - JOHN ODIMA ODIMA Acc. KGF,10000,,70900,Pay Bill Online,254722258107 - JOHN ODIMA ODIMA,TRUE,KGF,
PJF5A3NMK7,14/10/17 14:53,14/10/17 14:53,Completed,Pay Bill from 254716715043 - HANNAH WATETU GACHAGUA Acc. IAI,19800,,60900,Pay Utility with OD via STK,254716715043 - HANNAH WATETU GACHAGUA,TRUE,IAI,
PJF3A2MAJF,14/10/17 14:35,14/10/17 14:35,Completed,Pay Bill from 254796848496 - IVY WITABA Acc. JBA,20000,,41100,Pay Utility,254796848496 - IVY WITABA,TRUE,JBA,
PJF29Z4XEM,14/10/17 13:34,14/10/17 13:34,Completed,Pay Bill from 254799214498 - EMMILY LWAMBA Acc. KCF,4100,,21100,Pay Utility,254799214498 - EMMILY LWAMBA,TRUE,KCF,
PJF69SUK8Q,14/10/17 11:39,14/10/17 11:39,Completed,Pay Bill from 254724103759 - RICHARD NKAABO Acc. jej,6000,,17000,Pay Utility,254724103759 - RICHARD NKAABO,TRUE,jej,
PJF09J55VG,14/10/17 08:25,14/10/17 08:25,Completed,Pay Bill from 254726039536 - MERCY MESHACK Acc. JBC,11000,,11000,Pay Utility,254726039536 - MERCY MESHACK,TRUE,JBC,
PJF89FCS6S,14/10/17 06:28,14/10/17 06:28,Completed,Utility Account to Organization Settlement Account,,-60700,0,Utility Account to Organization Settlement Account,979524 - ANCIENT WELLS PROPERTY MANAGERS 2,TRUE,,
PJE18BPEBR,13/10/17 12:22,13/10/17 12:22,Completed,Pay Bill from 254798643998 - Judith Mwaniki Acc. kce,10000,,60700,Pay Utility with OD via STK,254798643998 - Judith Mwaniki,TRUE,kce,
PJE287KA98,13/10/17 11:02,13/10/17 11:02,Completed,Pay Bill from 254702190887 - Nax Ochieng Acc. FDE,15000,,50700,Pay Utility,254702190887 - Nax Ochieng,TRUE,FDE,
PJE1836RDT,13/10/17 09:36,13/10/17 09:36,Completed,Pay Bill from 254704111133 - ELVIS OTIENO Acc. HFD,2000,,35700,Pay Utility,254704111133 - ELVIS OTIENO,TRUE,HFD,
PJD17TEZD3,12/10/17 22:33,12/10/17 22:33,Completed,Pay Bill from 254704481218 - Asenath Kivunga Mwakio Acc. KDG,10000,,33700,Pay Utility,254704481218 - Asenath Kivunga Mwakio,TRUE,KDG,
PJD57FHG3H,12/10/17 18:52,12/10/17 18:52,Completed,Pay Bill from 0799028632 - WILSON MUTANGILI WAMBUA Acc. haf,4500,,23700,Pay Utility,0799028632 - WILSON MUTANGILI WAMBUA,TRUE,haf,
PJD37EUIQ3,12/10/17 18:45,12/10/17 18:45,Completed,Pay Bill from 0743248310 - PATRICK STURRIDGE NYONGESA Acc. daa,3000,,19200,Pay Utility,0743248310 - PATRICK STURRIDGE NYONGESA,TRUE,daa,
PJD27E1RPI,12/10/17 18:36,12/10/17 18:36,Completed,Pay Bill from 254723699555 - DIANA NYAIREGI GICHIA Acc. FBF- Window pane ,200,,16200,Pay Utility,254723699555 - DIANA NYAIREGI GICHIA,TRUE,FBF-,
PJD471E99E,12/10/17 15:25,12/10/17 15:25,Completed,Merchant Pay Utility Received from 7040090 - Amina Haji Salah Acc. JEH,6000,,16000,Merchant Pay Utility via API,7040090 - Amina Haji Salah,TRUE,JEH,
PJD66WEW0W,12/10/17 13:53,12/10/17 13:53,Completed,Pay Bill Online from 254727766786 - JOHN MAITHA MULWA Acc. IBH,10000,,10000,Pay Bill Online,254727766786 - JOHN MAITHA MULWA,TRUE,IBH,
PJD26S0Y0O,12/10/17 12:34,12/10/17 12:34,Completed,Utility Account to Organization Settlement Account,,-75500,0,Utility Account to Organization Settlement Account,979524 - ANCIENT WELLS PROPERTY MANAGERS 2,TRUE,,
PJD76QNSSL,12/10/17 12:08,12/10/17 12:08,Completed,Pay Bill Online from 254728886864 - MOULINE ONYANGO Acc. IAA,16000,,75500,Pay Bill Online,254728886864 - MOULINE ONYANGO,TRUE,IAA,
PJD06OVEL4,12/10/17 11:34,12/10/17 11:34,Completed,Pay Bill from 0723409745 - Kelvin Kitonga Mutyetu Acc. kbf,4000,,59500,Pay Utility with OD via STK,0723409745 - Kelvin Kitonga Mutyetu,TRUE,kbf,
PJD06NN9J0,12/10/17 11:11,12/10/17 11:11,Completed,Pay Bill Online from 254705846408 - JAMES OUMA Acc. HBH,16000,,55500,Pay Bill Online,254705846408 - JAMES OUMA,TRUE,HBH,
PJD96JJYJH,12/10/17 09:53,12/10/17 09:53,Completed,Pay Bill from 254726170938 - ANNE CHEBET TALLAM Acc. hff,9500,,39500,Pay Utility,254726170938 - ANNE CHEBET TALLAM,TRUE,hff,
PJD66FZNQG,12/10/17 08:40,12/10/17 08:40,Completed,Pay Bill from 254715338158 - REBECCA MUTHONI KARIUKI Acc. JCB,15000,,30000,Pay Utility with OD via STK,254715338158 - REBECCA MUTHONI KARIUKI,TRUE,JCB,
PJD66E6PN2,12/10/17 07:59,12/10/17 07:59,Completed,Pay Bill Online from 254711721087 - MUTHIANI KYULE Acc. IDB,15000,,15000,Pay Bill Online,254711721087 - MUTHIANI KYULE,TRUE,IDB,
PJD66BLPE4,12/10/17 06:34,12/10/17 06:34,Completed,Utility Account to Organization Settlement Account,,-70000,0,Utility Account to Organization Settlement Account,979524 - ANCIENT WELLS PROPERTY MANAGERS 2,TRUE,,
PJC269YXXM,11/10/17 23:54,11/10/17 23:54,Completed,Pay Bill from 254791318982 - ADULLAHI HASSAN Acc. JCI,20000,,70000,Pay Utility,254791318982 - ADULLAHI HASSAN,TRUE,JCI,
PJC569K2V7,11/10/17 23:07,11/10/17 23:07,Completed,Pay Bill from 254798844460 - WYCLIFFE ODHIAMBO NYAGOA Acc. KAC,10000,,50000,Pay Utility,254798844460 - WYCLIFFE ODHIAMBO NYAGOA,TRUE,KAC,
PJC9697P1V,11/10/17 22:44,11/10/17 22:44,Completed,Pay Bill Online from 254720451253 - JIMMY KIOGORA NKIROTE Acc. KBD,3000,,40000,Pay Bill Online,254720451253 - JIMMY KIOGORA NKIROTE,TRUE,KBD,
PJC55Y71XP,11/10/17 19:18,11/10/17 19:18,Completed,Pay Bill from 254700382442 - EVERLYNE MWENDE MUMO Acc. FGC,9000,,37000,Pay Utility,254700382442 - EVERLYNE MWENDE MUMO,TRUE,FGC,
PJC25F8WIE,11/10/17 14:51,11/10/17 14:51,Completed,Pay Bill from 254710635630 - DONNA JESSICA OWANO Acc. KCC,10000,,28000,Pay Utility,254710635630 - DONNA JESSICA OWANO,TRUE,KCC,
PJC25BGQVS,11/10/17 13:45,11/10/17 13:45,Completed,Pay Bill Online from 254720451253 - JIMMY KIOGORA NKIROTE Acc. JBG,10000,,18000,Pay Bill Online,254720451253 - JIMMY KIOGORA NKIROTE,TRUE,JBG,
PJC04YWN98,11/10/17 10:02,11/10/17 10:02,Completed,Pay Bill from 254740657547 - WINNIE KERE Acc. JBF,8000,,8000,Pay Utility,254740657547 - WINNIE KERE,TRUE,JBF,
PJC24XJRX6,11/10/17 09:36,11/10/17 09:36,Completed,Utility Account to Organization Settlement Account,,-490850,0,Utility Account to Organization Settlement Account,979524 - ANCIENT WELLS PROPERTY MANAGERS 2,TRUE,,
PJC04VO2G8,11/10/17 09:01,11/10/17 09:01,Completed,Pay Bill from 254725381062 - VICTOR MAITHYA Acc. HEG,4950,,490850,Pay Utility with OD via STK,254725381062 - VICTOR MAITHYA,TRUE,HEG,
PJC04SXII4,11/10/17 08:04,11/10/17 08:04,Completed,FSI to Pay Bill by 714888 - B2C LOOP VIA NCBA Acc. FAD via WEB by B2C LOOP VIA NCBA\Cbainitiator,5000,,485900,FSI to Pay Bill via API,714888 - B2C LOOP VIA NCBA,TRUE,FAD,
PJB14ID4H5,10/10/17 20:37,10/10/17 20:37,Completed,Pay Bill from 0790631952 - Guyo Boru Guyo Acc. DBC,20000,,480900,Pay Utility with OD via STK,0790631952 - Guyo Boru Guyo,TRUE,DBC,
PJB94ERNTR,10/10/17 19:46,10/10/17 19:46,Completed,Pay Bill from 254716958353 - EVERYNE MURUMWA BUTICHI Acc. JBH,16000,,460900,Pay Utility,254716958353 - EVERYNE MURUMWA BUTICHI,TRUE,JBH,
PJB2414IB4,10/10/17 16:52,10/10/17 16:52,Completed,Pay Bill from 254704111133 - ELVIS OTIENO Acc. HFD,2000,,444900,Pay Utility,254704111133 - ELVIS OTIENO,TRUE,HFD,
PJB83MBBMY,10/10/17 12:39,10/10/17 12:39,Completed,Pay Bill from 254703555717 - SENGA SALIM Acc. hbb,4000,,442900,Pay Utility,254703555717 - SENGA SALIM,TRUE,hbb,
PJB03GOKSY,10/10/17 10:58,10/10/17 10:58,Completed,Pay Bill from 254720496449 - STANLEY KIPKOECH RONO Acc. FBE,16000,,438900,Pay Utility,254720496449 - STANLEY KIPKOECH RONO,TRUE,FBE,
PJB635V8GI,10/10/17 06:44,10/10/17 06:44,Completed,Pay Bill from 254723747228 - MORARA ASANYO Acc. pool,11900,,422900,Pay Utility,254723747228 - MORARA ASANYO,TRUE,pool,
PJA83028UU,09/10/17 21:09,09/10/17 21:09,Completed,Pay Bill from 0743248310 - PATRICK STURRIDGE NYONGESA Acc. daa,8000,,411000,Pay Utility,0743248310 - PATRICK STURRIDGE NYONGESA,TRUE,daa,
PJA61ZA5IW,09/10/17 10:42,09/10/17 10:42,Completed,Pay Bill from 254723930071 - AMOS KITAVI KIVITE Acc. JCE,9000,,403000,Pay Utility,254723930071 - AMOS KITAVI KIVITE,TRUE,JCE,
PJA61YUSDU,09/10/17 10:33,09/10/17 10:33,Completed,Pay Bill from 254706322764 - GEORGE OUMA OCHOLA Acc. JDF,8000,,394000,Pay Utility,254706322764 - GEORGE OUMA OCHOLA,TRUE,JDF,
PJA21O9J72,09/10/17 00:31,09/10/17 00:31,Completed,Pay Bill Online from 0711117122 - Yassir Mwinyi Abdulrazaq Acc. ICE,3000,,386000,Pay Bill Online,0711117122 - Yassir Mwinyi Abdulrazaq,TRUE,ICE,
PJ9415A0BM,08/10/17 18:06,08/10/17 18:06,Completed,Pay Bill from 254723699555 - DIANA NYAIREGI GICHIA Acc. FBF,27500,,383000,Pay Utility with OD via STK,254723699555 - DIANA NYAIREGI GICHIA,TRUE,FBF,
PJ96ZRNORK,08/10/17 14:37,08/10/17 14:37,Completed,Pay Bill Online from 254790549449 - ABUKAR MOHAMED Acc. HBA,17000,,355500,Pay Bill Online,254790549449 - ABUKAR MOHAMED,TRUE,HBA,
PJ92ZOSABY,08/10/17 13:49,08/10/17 13:49,Completed,Pay Bill from 254710106394 - LUCY TONKEI Acc. KBG,9000,,338500,Pay Utility,254710106394 - LUCY TONKEI,TRUE,KBG,
PJ94ZNPVSM,08/10/17 13:31,08/10/17 13:31,Completed,Pay Bill from 254719779657 - SAMUEL NJOROGE Acc. JGA,8000,,329500,Pay Utility,254719779657 - SAMUEL NJOROGE,TRUE,JGA,
PJ99Z2H74T,08/10/17 05:43,08/10/17 05:43,Completed,Pay Bill Online from 254722276550 - ISAAC NYAMRER Acc. KGC,9000,,321500,Pay Bill Online,254722276550 - ISAAC NYAMRER,TRUE,KGC,
PJ95Z17X2H,08/10/17 00:36,08/10/17 00:36,Completed,Pay Bill from 254724590178 - Silvanus Ongiri Acc. HAE,10000,,312500,Pay Utility,254724590178 - Silvanus Ongiri,TRUE,HAE,
PJ88Z04BEY,07/10/17 23:02,07/10/17 23:02,Completed,Pay Bill Online from 254718772336 - DAVID SERUGO Acc. DCD,20000,,302500,Pay Bill Online,254718772336 - DAVID SERUGO,TRUE,DCD,
PJ80YZKMMM,07/10/17 22:36,07/10/17 22:36,Completed,Pay Bill from 254726928933 - JOSHUA NDUNDA NZIOKA Acc. KCJ,16000,,282500,Pay Utility,254726928933 - JOSHUA NDUNDA NZIOKA,TRUE,KCJ,
PJ81YXV3OB,07/10/17 21:45,07/10/17 21:45,Completed,Pay Bill from 0740422187 - KEVIN MAKATO KUNGA Acc. KEG,10000,,266500,Pay Utility,0740422187 - KEVIN MAKATO KUNGA,TRUE,KEG,
PJ81YSD6TL,07/10/17 20:12,07/10/17 20:12,Completed,Pay Bill from 254720107609 - DENNIS OGENDI BARAKE Acc. JAJ,15000,,256500,Pay Utility,254720107609 - DENNIS OGENDI BARAKE,TRUE,JAJ,
PJ87YQB7JP,07/10/17 19:46,07/10/17 19:46,Completed,Pay Bill from 254707715639 - Annastacia Kimeu Acc. JFC,10000,,241500,Pay Utility with OD via STK,254707715639 - Annastacia Kimeu,TRUE,JFC,
PJ82YP1E0S,07/10/17 19:31,07/10/17 19:31,Completed,Pay Bill from 254708499439 - ROSE NDEDE Acc. HGF,9000,,231500,Pay Utility,254708499439 - ROSE NDEDE,TRUE,HGF,
PJ81YO67R3,07/10/17 19:22,07/10/17 19:22,Completed,Pay Bill from 254721977151 - MIRIAM KIKOLYA Acc. KEA,4500,,222500,Pay Utility with OD via STK,254721977151 - MIRIAM KIKOLYA,TRUE,KEA,
PJ89YLS0D3,07/10/17 18:56,07/10/17 18:56,Completed,Pay Bill from 254758140048 - ABDULKADIR ABASS DAHIR Acc. KAB,16000,,218000,Pay Utility,254758140048 - ABDULKADIR ABASS DAHIR,TRUE,KAB,
PJ82YBKJBW,07/10/17 16:46,07/10/17 16:46,Completed,Pay Bill from 0757259130 - RASHID SUDI MCHOMBO Acc. JAF,8000,,202000,Pay Utility,0757259130 - RASHID SUDI MCHOMBO,TRUE,JAF,
PJ85YASMW9,07/10/17 16:34,07/10/17 16:34,Completed,Pay Bill Online from 254722249092 - MARIAM ABDULLAHI Acc. KEH,11000,,194000,Pay Utility with OD Online,254722249092 - MARIAM ABDULLAHI,TRUE,KEH,
PJ84YAIY4O,07/10/17 16:30,07/10/17 16:30,Completed,Pay Bill from 254703528196 - ERIC GITONGA MUGO Acc. KGJ,9000,,183000,Pay Utility with OD via STK,254703528196 - ERIC GITONGA MUGO,TRUE,KGJ,
PJ84Y9Q3NO,07/10/17 16:18,07/10/17 16:18,Completed,Pay Bill from 254710381003 - ALFRED KISHOIN Acc. DAB,16000,,174000,Pay Utility,254710381003 - ALFRED KISHOIN,TRUE,DAB,
PJ84Y7F6V6,07/10/17 15:41,07/10/17 15:41,Completed,Pay Bill from 254721115404 - Justine Fayuma Okwemba Acc. HAA,17000,,158000,Pay Utility with OD via STK,254721115404 - Justine Fayuma Okwemba,TRUE,HAA,
PJ83Y28WQ1,07/10/17 14:16,07/10/17 14:16,Completed,Pay Bill from 254727515326 - HARRISON WACIRA MAINA Acc. HAH,16000,,141000,Pay Utility,254727515326 - HARRISON WACIRA MAINA,TRUE,HAH,
PJ87Y15WOB,07/10/17 13:58,07/10/17 13:58,Completed,Pay Bill from 254713159153 - GUYO SANKALA Acc. DGD ,20000,,125000,Pay Utility,254713159153 - GUYO SANKALA,TRUE,DGD,
PJ81XVAC41,07/10/17 12:19,07/10/17 12:19,Completed,Pay Bill from 254729258441 - ROBERT RONO KULEI Acc. JAB,10000,,105000,Pay Utility,254729258441 - ROBERT RONO KULEI,TRUE,JAB,
PJ83XUF3IJ,07/10/17 12:05,07/10/17 12:05,Completed,Pay Bill from 254703935626 - DAVID NGARI ITA Acc. FCD,20700,,95000,Pay Utility,254703935626 - DAVID NGARI ITA,TRUE,FCD,
PJ80XU9YI6,07/10/17 12:02,07/10/17 12:02,Completed,Pay Bill from 254703935626 - DAVID NGARI ITA Acc. FCD,2300,,74300,Pay Utility,254703935626 - DAVID NGARI ITA,TRUE,FCD,
PJ88XSJ14S,07/10/17 11:32,07/10/17 11:32,Completed,Pay Bill from 254722569870 - LUKA KEITANY Acc. jfj,15000,,72000,Pay Utility,254722569870 - LUKA KEITANY,TRUE,jfj,
PJ83XS31IP,07/10/17 11:24,07/10/17 11:24,Completed,Pay Bill from 254795023150 - FAITH MORAA SITEMBA Acc. IFC,8000,,57000,Pay Utility,254795023150 - FAITH MORAA SITEMBA,TRUE,IFC,
PJ88XQ3Y02,07/10/17 10:50,07/10/17 10:50,Completed,Pay Bill Online from 254715764212 - BANCE ISHEMINYE Acc. JFE ,4000,,49000,Pay Bill Online,254715764212 - BANCE ISHEMINYE,TRUE,JFE,
PJ81XKBCC3,07/10/17 09:04,07/10/17 09:04,Completed,Pay Bill Online from 254722769473 - SAMSON CHALO Acc. IAB,15000,,45000,Pay Bill Online,254722769473 - SAMSON CHALO,TRUE,IAB,
PJ80XIXFKQ,07/10/17 08:35,07/10/17 08:35,Completed,Pay Bill from 254795449800 - MARTHA WANJIRU NJUGUNA Acc. FEB,15000,,30000,Pay Utility,254795449800 - MARTHA WANJIRU NJUGUNA,TRUE,FEB,
PJ84XIWVEG,07/10/17 08:35,07/10/17 08:35,Completed,Pay Bill from 254725771056 - CHARLES MURAGURI Acc. FCE,15000,,15000,Pay Utility,254725771056 - CHARLES MURAGURI,TRUE,FCE,
PJ80XI6QE8,07/10/17 08:20,07/10/17 08:20,Completed,Utility Account to Organization Settlement Account,,-533900,0,Utility Account to Organization Settlement Account,979524 - ANCIENT WELLS PROPERTY MANAGERS 2,TRUE,,
PJ83XEJ4JJ,07/10/17 06:27,07/10/17 06:27,Completed,Pay Bill from 254729713741 - ALBANUS MUTISO Acc. DDC,20000,,533900,Pay Utility,254729713741 - ALBANUS MUTISO,TRUE,DDC,
PJ75XCCT3L,06/10/17 23:00,06/10/17 23:00,Completed,Pay Bill from 0758591833 - DORCUS MBULA PETER Acc. HDD,9000,,513900,Pay Utility,0758591833 - DORCUS MBULA PETER,TRUE,HDD,
PJ75X57H7L,06/10/17 20:16,06/10/17 20:16,Completed,Pay Bill Online from 254705951407 - CAROLINE WAITHIRA KAMAU Acc. IDH,10500,,504900,Pay Utility with OD Online,254705951407 - CAROLINE WAITHIRA KAMAU,TRUE,IDH,
PJ72X3DOTU,06/10/17 19:52,06/10/17 19:52,Completed,Pay Bill from 0715688238 - JOANNAH ATUHAIRE BANTU Acc. jae,4500,,494400,Pay Utility,0715688238 - JOANNAH ATUHAIRE BANTU,TRUE,jae,
PJ79X32RK9,06/10/17 19:48,06/10/17 19:48,Completed,Pay Bill from 254729948896 - CAROLINE V MILIZA Acc. Fec,8000,,489900,Pay Utility,254729948896 - CAROLINE V MILIZA,TRUE,Fec,
PJ70X2U3Y8,06/10/17 19:45,06/10/17 19:45,Completed,Pay Bill from 254706158280 - patience mutheu mbevi Acc. KFC,10000,,481900,Pay Utility with OD via STK,254706158280 - patience mutheu mbevi,TRUE,KFC,
PJ79WZOEWH,06/10/17 19:10,06/10/17 19:10,Completed,Pay Bill Online from 254700050190 - ANGELA GATHONI NDEGWA Acc. KCD,12000,,471900,Pay Bill Online,254700050190 - ANGELA GATHONI NDEGWA,TRUE,KCD,
PJ79WUH4UB,06/10/17 18:11,06/10/17 18:11,Completed,Pay Bill from 0759888028 - ROBERT OKOTH OGALO Acc. KBH,10000,,459900,Pay Utility,0759888028 - ROBERT OKOTH OGALO,TRUE,KBH,
PJ78WUDDIC,06/10/17 18:10,06/10/17 18:10,Completed,Pay Bill from 0748059595 - Rashid NASSIR Khamis Acc. DDA,8000,,449900,Pay Utility,0748059595 - Rashid NASSIR Khamis,TRUE,DDA,
PJ71WS4ZTD,06/10/17 17:41,06/10/17 17:41,Completed,Pay Bill from 254720868281 - KENNEDY MWELU Acc. KBI,12500,,441900,Pay Utility,254720868281 - KENNEDY MWELU,TRUE,KBI,
PJ77WQFT19,06/10/17 17:17,06/10/17 17:17,Completed,Pay Bill from 254722136450 - MARY EVERLYN Acc. JAI,12000,,429400,Pay Utility with OD via STK,254722136450 - MARY EVERLYN,TRUE,JAI,
PJ72WGDKTC,06/10/17 14:31,06/10/17 14:31,Completed,Pay Bill from 254724611087 - Francis Mukindya Muoki Acc. dfb,4000,,417400,Pay Utility with OD via STK,254724611087 - Francis Mukindya Muoki,TRUE,dfb,
PJ77WF7S5P,06/10/17 14:11,06/10/17 14:11,Completed,Pay Bill from 254717985596 - NICHOLAS KIPKOECH BUTIA Acc. hcf,9000,,413400,Pay Utility,254717985596 - NICHOLAS KIPKOECH BUTIA,TRUE,hcf,
PJ73W9V2C7,06/10/17 12:38,06/10/17 12:38,Completed,Pay Bill Online from 0757699775 - BENARD MUIA MUTUA Acc. HCB,16000,,404400,Pay Bill Online,0757699775 - BENARD MUIA MUTUA,TRUE,HCB,
PJ77W86G1J,06/10/17 12:09,06/10/17 12:09,Completed,Pay Bill from 254728259571 - ANNE KASIVA Acc. ieb,15000,,388400,Pay Utility,254728259571 - ANNE KASIVA,TRUE,ieb,
PJ73W5IV43,06/10/17 11:20,06/10/17 11:20,Completed,Pay Bill from 254712954563 - JOSEPH MUTISO KILONZO Acc. Dac,20000,,373400,Pay Utility,254712954563 - JOSEPH MUTISO KILONZO,TRUE,Dac,
PJ71VR8LY5,06/10/17 00:29,06/10/17 00:29,Completed,Pay Bill Online from 254723643548 - KEVIN OUKO Acc. FDD,11000,,353400,Pay Bill Online,254723643548 - KEVIN OUKO,TRUE,FDD,
PJ69VQOC0V,05/10/17 23:18,05/10/17 23:18,Completed,Pay Bill from 254721315975 - JOSEPH NDEGWA Acc. HEB,16000,,342400,Pay Utility,254721315975 - JOSEPH NDEGWA,TRUE,HEB,
PJ69VMNZD5,05/10/17 21:08,05/10/17 21:08,Completed,Pay Bill from 254729590734 - PATRICK NDUNGA Acc. IDD,10000,,326400,Pay Utility,254729590734 - PATRICK NDUNGA,TRUE,IDD,
PJ60VJZ5VE,05/10/17 20:25,05/10/17 20:25,Completed,Pay Bill Online from 254797601911 - JORAM MASAI KILONZO Acc. KTE,9500,,316400,Pay Bill Online,254797601911 - JORAM MASAI KILONZO,TRUE,KTE,
PJ68VHC9H2,05/10/17 19:50,05/10/17 19:50,Completed,Pay Bill Online from 254720044312 - ELIUD KIPKURUI Acc. FCF,17000,,306900,Pay Bill Online,254720044312 - ELIUD KIPKURUI,TRUE,FCF,
PJ62V8Q4H6,05/10/17 18:13,05/10/17 18:13,Completed,Pay Bill from 254726636196 - BETHUEL KEMBOI KURUI Acc. JFD,15000,,289900,Pay Utility,254726636196 - BETHUEL KEMBOI KURUI,TRUE,JFD,
PJ62V8J2AC,05/10/17 18:10,05/10/17 18:10,Completed,Pay Bill from 254726977770 - STEPHEN MUIRURI MATHENGE Acc. KAE,9500,,274900,Pay Utility,254726977770 - STEPHEN MUIRURI MATHENGE,TRUE,KAE,
PJ62V8GJSK,05/10/17 18:09,05/10/17 18:09,Completed,Pay Bill from 254726977770 - STEPHEN MUIRURI MATHENGE Acc. HBG,16000,,265400,Pay Utility,254726977770 - STEPHEN MUIRURI MATHENGE,TRUE,HBG,
PJ69V6AT8P,05/10/17 17:41,05/10/17 17:41,Completed,Pay Bill from 254703453863 - EMILY MUNANIE MALUKI Acc. KEC,10000,,249400,Pay Utility,254703453863 - EMILY MUNANIE MALUKI,TRUE,KEC,
PJ60V58BX2,05/10/17 17:26,05/10/17 17:26,Completed,Pay Bill from 254725909984 - TIMOTHY ODHIAMBO OWITI Acc. JDE,12000,,239400,Pay Utility,254725909984 - TIMOTHY ODHIAMBO OWITI,TRUE,JDE,
PJ64UZV7EW,05/10/17 16:02,05/10/17 16:02,Completed,Pay Bill from 254713281251 - ERIC KIAMA Acc. JDI,20000,,227400,Pay Utility,254713281251 - ERIC KIAMA,TRUE,JDI,
PJ61UZI02B,05/10/17 15:56,05/10/17 15:56,Completed,Pay Bill from 254716702294 - DANIEL MULATI Acc. KBE,10000,,207400,Pay Utility,254716702294 - DANIEL MULATI,TRUE,KBE,
PJ69UZ8BH3,05/10/17 15:51,05/10/17 15:51,Completed,Pay Bill Online from 254717053159 - FREDRICK NYATIKA Acc. IEF,11000,,197400,Pay Bill Online,254717053159 - FREDRICK NYATIKA,TRUE,IEF,
PJ62UVONEK,05/10/17 14:50,05/10/17 14:50,Completed,Pay Bill from 0795068880 - Patrick   Kiplagat Acc. KAG,10000,,186400,Pay Utility,0795068880 - Patrick   Kiplagat,TRUE,KAG,
PJ65USK31X,05/10/17 13:55,05/10/17 13:55,Completed,Pay Bill Online from 254723370004 - LABAN MAINGI WAMBUA Acc. JEF,8000,,176400,Pay Utility with OD Online,254723370004 - LABAN MAINGI WAMBUA,TRUE,JEF,
PJ65UQUBZ3,05/10/17 13:26,05/10/17 13:26,Completed,Pay Bill from 0722925798 - ifrah abukar adan Acc. IEI,15000,,168400,Pay Utility,0722925798 - ifrah abukar adan,TRUE,IEI,
PJ69UQJEZP,05/10/17 13:21,05/10/17 13:21,Completed,Pay Bill Online from 254728897908 - Teddy Allan Onyango Acc. KCF,5900,,153400,Pay Bill Online,254728897908 - Teddy Allan Onyango,TRUE,KCF,
PJ66UQABAO,05/10/17 13:16,05/10/17 13:16,Completed,Pay Bill from 254724882554 - ALPHONCE WAMBUA NGELI Acc. JDA,20000,,147500,Pay Utility,254724882554 - ALPHONCE WAMBUA NGELI,TRUE,JDA,
PJ61UPQW17,05/10/17 13:07,05/10/17 13:07,Completed,Pay Bill Online from 254706549634 - CLINTON OMBASA Acc. FDB,17000,,127500,Pay Bill Online,254706549634 - CLINTON OMBASA,TRUE,FDB,
PJ68UM20UE,05/10/17 12:02,05/10/17 12:02,Completed,Pay Bill from 254724466518 - EUNICE NDUTA Acc. KFF,9500,,110500,Pay Utility,254724466518 - EUNICE NDUTA,TRUE,KFF,
PJ63UHOLZ1,05/10/17 10:44,05/10/17 10:44,Completed,Pay Bill from 254708703539 - SUSAN NDUGIRE NDUGIRE Acc. KDA,17000,,101000,Pay Utility,254708703539 - SUSAN NDUGIRE NDUGIRE,TRUE,KDA,
PJ65UDQCSV,05/10/17 09:30,05/10/17 09:30,Completed,Pay Bill Online from 254710382992 - SIMON KAMAU MUIRURI Acc. JCD,15000,,84000,Pay Bill Online,254710382992 - SIMON KAMAU MUIRURI,TRUE,JCD,
PJ63UDENSP,05/10/17 09:24,05/10/17 09:24,Completed,Pay Bill from 254726687555 - ELIUD MUTHURE MICHENI Acc. KAI,12000,,69000,Pay Utility,254726687555 - ELIUD MUTHURE MICHENI,TRUE,KAI,
PJ68UBDLOY,05/10/17 08:43,05/10/17 08:43,Completed,Pay Bill from 254716581384 - GREGORY KILUNGYA Acc. DAD,20000,,57000,Pay Utility,254716581384 - GREGORY KILUNGYA,TRUE,DAD,
PJ60UB9FK0,05/10/17 08:41,05/10/17 08:41,Completed,Pay Bill from 254720351482 - Cheruiyot Langat Brian Acc. dfa,15000,,37000,Pay Utility with OD via STK,254720351482 - Cheruiyot Langat Brian,TRUE,dfa,
PJ62U9XZ8C,05/10/17 08:13,05/10/17 08:13,Completed,Pay Bill from 254719779657 - SAMUEL NJOROGE Acc. JGA,12000,,22000,Pay Utility,254719779657 - SAMUEL NJOROGE,TRUE,JGA,
PJ65U95U65,05/10/17 07:55,05/10/17 07:55,Completed,Pay Bill from 254702346515 - ELIZABETH ACHIENG NGOME Acc. KDE,10000,,10000,Pay Utility,254702346515 - ELIZABETH ACHIENG NGOME,TRUE,KDE,
PJ67U85WJD,05/10/17 07:28,05/10/17 07:28,Completed,Utility Account to Organization Settlement Account,,-233500,0,Utility Account to Organization Settlement Account,979524 - ANCIENT WELLS PROPERTY MANAGERS 2,TRUE,,
PJ66U82NQC,05/10/17 07:26,05/10/17 07:26,Completed,Pay Bill Online from 254797160610 - JAMES MWANIKI Acc. JBI,20000,,233500,Pay Bill Online,254797160610 - JAMES MWANIKI,TRUE,JBI,
PJ65U7VBAB,05/10/17 07:20,05/10/17 07:20,Completed,Pay Bill Online from 254715764212 - BANCE ISHEMINYE Acc. JFE ,4000,,213500,Pay Bill Online,254715764212 - BANCE ISHEMINYE,TRUE,JFE,
PJ63U7DLWP,05/10/17 07:04,05/10/17 07:03,Completed,Pay Bill from 254718233980 - KAREN ASWANI Acc. HEC,10500,,209500,Pay Utility,254718233980 - KAREN ASWANI,TRUE,HEC,
PJ62U5F31S,05/10/17 01:20,05/10/17 01:20,Completed,Pay Bill from 254728670882 - SHARAD EDWARD ADALA OLUM Acc. KCK,15000,,199000,Pay Utility,254728670882 - SHARAD EDWARD ADALA OLUM,TRUE,KCK,
PJ62U55DNQ,05/10/17 00:14,05/10/17 00:14,Completed,Pay Bill from 254712461449 - CAROLINE MUTHONI GICHOHI Acc. fca,16000,,184000,Pay Utility,254712461449 - CAROLINE MUTHONI GICHOHI,TRUE,fca,
PJ55U4K3AN,04/10/17 23:09,04/10/17 23:09,Completed,Pay Bill from 254703935626 - DAVID NGARI ITA Acc. FCD,1000,,168000,Pay Utility with OD via STK,254703935626 - DAVID NGARI ITA,TRUE,FCD,
PJ52U2T1GE,04/10/17 21:55,04/10/17 21:55,Completed,Pay Bill Online from 254714552193 - CHRISTOPHER OCHIENG Acc. JGI ,20500,,167000,Pay Bill Online,254714552193 - CHRISTOPHER OCHIENG,TRUE,JGI,
PJ50U2E73Y,04/10/17 21:44,04/10/17 21:44,Completed,Pay Bill from 254799371069 - ALPHONCE OCHIENG WAREGA Acc. IEE,8500,,146500,Pay Utility,254799371069 - ALPHONCE OCHIENG WAREGA,TRUE,IEE,
PJ52U1BHI0,04/10/17 21:20,04/10/17 21:20,Completed,Pay Bill from 254714250131 - NELSON ODHONG OMBUYA Acc. DCC,20000,,138000,Pay Utility,254714250131 - NELSON ODHONG OMBUYA,TRUE,DCC,
PJ54TZPSY8,04/10/17 20:51,04/10/17 20:51,Completed,Pay Bill Online from 254718138578 - PAULINE KIOKO Acc. KFD,12000,,118000,Pay Bill Online,254718138578 - PAULINE KIOKO,TRUE,KFD,
PJ59TZJ70T,04/10/17 20:48,04/10/17 20:48,Completed,Pay Bill from 254742911013 - HANEST AMIMO Acc. IEG,8000,,106000,Pay Utility with OD via STK,254742911013 - HANEST AMIMO,TRUE,IEG,
PJ56TWYIXA,04/10/17 20:10,04/10/17 20:10,Completed,Pay Bill from 254717726012 - WINFRED MUENI PETER Acc. IDA,16000,,98000,Pay Utility,254717726012 - WINFRED MUENI PETER,TRUE,IDA,
PJ53TVS64F,04/10/17 19:55,04/10/17 19:55,Completed,Pay Bill from 254722521028 - CHARLES MONYONCHO Acc. ICB,17000,,82000,Pay Utility,254722521028 - CHARLES MONYONCHO,TRUE,ICB,
PJ59TTU2QX,04/10/17 19:31,04/10/17 19:31,Completed,Pay Bill from 254728042989 - PATRICK OMONDI Acc. IFI,15000,,65000,Pay Utility with OD via STK,254728042989 - PATRICK OMONDI,TRUE,IFI,
PJ58TSUEE8,04/10/17 19:21,04/10/17 19:21,Completed,Pay Bill from 254790627132 - Everline Mutave Kiio Acc. IGG,8000,,50000,Pay Utility,254790627132 - Everline Mutave Kiio,TRUE,IGG,
PJ56TNMAJ8,04/10/17 18:24,04/10/17 18:24,Completed,Pay Bill Online from 254725218904 - SALOME MUTHONI MWANGI Acc. KFJ,15000,,42000,Pay Bill Online,254725218904 - SALOME MUTHONI MWANGI,TRUE,KFJ,
PJ57TIGLFD,04/10/17 17:13,04/10/17 17:13,Completed,Pay Bill from 0727455001 - Winnie Akoth Ouma Acc. HEE,11000,,27000,Pay Utility,0727455001 - Winnie Akoth Ouma,TRUE,HEE,
PJ57TFUJIL,04/10/17 16:32,04/10/17 16:32,Completed,Pay Bill from 254712974871 - PAULA WANJIKU GATUI Acc. hea,16000,,16000,Pay Utility,254712974871 - PAULA WANJIKU GATUI,TRUE,hea,
PJ50TF4QME,04/10/17 16:19,04/10/17 16:19,Completed,Utility Account to Organization Settlement Account,,-504418,0,Utility Account to Organization Settlement Account,979524 - ANCIENT WELLS PROPERTY MANAGERS 2,TRUE,,
PJ51TF426F,04/10/17 16:19,04/10/17 16:19,Completed,Pay Bill Online from 254711123196 - JUDITH MUTUA Acc. FEA,16000,,504418,Pay Bill Online,254711123196 - JUDITH MUTUA,TRUE,FEA,
PJ52TECO9Y,04/10/17 16:06,04/10/17 16:06,Completed,Pay Bill Online from 254713966424 - NDUTI MUTHUI Acc. Jed,15000,,488418,Pay Bill Online,254713966424 - NDUTI MUTHUI,TRUE,Jed,
PJ50TDQ19C,04/10/17 15:54,04/10/17 15:54,Completed,Pay Bill Online from 254715892656 - DENNIS MUSYOKA MUOKI Acc. KFA,16000,,473418,Pay Bill Online,254715892656 - DENNIS MUSYOKA MUOKI,TRUE,KFA,
PJ51TCOSRL,04/10/17 15:36,04/10/17 15:36,Completed,Pay Bill from 254721465713 - RHODA WAMBUI MWANGI Acc. jfh,17000,,457418,Pay Utility,254721465713 - RHODA WAMBUI MWANGI,TRUE,jfh,
PJ58TCGLXM,04/10/17 15:32,04/10/17 15:32,Completed,Pay Bill from 254768687118 - mitchelle chepkemoi Acc. HFF,9500,,440418,Pay Utility,254768687118 - mitchelle chepkemoi,TRUE,HFF,
PJ51TADW7P,04/10/17 14:53,04/10/17 14:53,Completed,Pay Bill from 0792441884 - CORNELIA CONRAD MVULA Acc. IBB,15000,,430918,Pay Utility,0792441884 - CORNELIA CONRAD MVULA,TRUE,IBB,
PJ59T5LIHJ,04/10/17 13:29,04/10/17 13:29,Completed,Pay Bill from 254723901777 - EVANS YEBEI Acc. KCH,10000,,415918,Pay Utility,254723901777 - EVANS YEBEI,TRUE,KCH,
PJ57T5GJBH,04/10/17 13:27,04/10/17 13:27,Completed,Pay Bill from 254728238249 - ESTHER WANGUI KIBUNYI Acc. ICA,17000,,405918,Pay Utility,254728238249 - ESTHER WANGUI KIBUNYI,TRUE,ICA,
PJ53T3HDN3,04/10/17 12:53,04/10/17 12:53,Completed,Pay Bill Online from 254792187144 - HASSAN AHMED HASSAN Acc. KGI,10000,,388918,Pay Bill Online,254792187144 - HASSAN AHMED HASSAN,TRUE,KGI,
PJ55T32CVD,04/10/17 12:46,04/10/17 12:46,Completed,Pay Bill Online from 254722728975 - CURTIS MRIGA OMIDO Acc. IAH,16000,,378918,Pay Bill Online,254722728975 - CURTIS MRIGA OMIDO,TRUE,IAH,
PJ58T06TVS,04/10/17 11:55,04/10/17 11:55,Completed,Pay Bill from 254719398942 - NORAH WAYUA MUNYAO Acc. KDC,10000,,362918,Pay Utility,254719398942 - NORAH WAYUA MUNYAO,TRUE,KDC,
PJ56SWG6XG,04/10/17 10:47,04/10/17 10:47,Completed,Pay Bill Online from 254715002789 - ERICK NGUGI MAINA Acc. HAG,16000,,352918,Pay Bill Online,254715002789 - ERICK NGUGI MAINA,TRUE,HAG,
PJ51SW00QP,04/10/17 10:39,04/10/17 10:39,Completed,Pay Bill Online from 254713404029 - ANNE ISEUNA Acc. DED,20000,,336918,Pay Bill Online,254713404029 - ANNE ISEUNA,TRUE,DED,
PJ53SQTI43,04/10/17 09:03,04/10/17 09:03,Completed,Pay Bill from 254721944520 - NANCY KARIHA Acc. KDD,7000,,316918,Pay Utility,254721944520 - NANCY KARIHA,TRUE,KDD,
PJ58SOV12C,04/10/17 08:22,04/10/17 08:22,Completed,Pay Bill from 254723499628 - CLINTON JOSEPH MUHARI Acc. hfh,16000,,309918,Pay Utility with OD via STK,254723499628 - CLINTON JOSEPH MUHARI,TRUE,hfh,
PJ54SM7GYW,04/10/17 07:14,04/10/17 07:14,Completed,Pay Bill from 254723929380 - RHODAH K WAMBUA Acc. HEF,9500,,293918,Pay Utility,254723929380 - RHODAH K WAMBUA,TRUE,HEF,
PJ40SHI30Y,03/10/17 21:53,03/10/17 21:53,Completed,Pay Bill from 254717140158 - Peter Wanjiru Acc. HFB,15000,,284418,Pay Utility with OD via STK,254717140158 - Peter Wanjiru,TRUE,HFB,
PJ46SHD3OG,03/10/17 21:49,03/10/17 21:49,Completed,Pay Bill from 254718672924 - LILIAN CHEBET NGENO Acc. KGD,10000,,269418,Pay Utility,254718672924 - LILIAN CHEBET NGENO,TRUE,KGD,
PJ48SH794I,03/10/17 21:45,03/10/17 21:45,Completed,Pay Bill from 254729355933 - FELISTAH NJERI WAIRIMU Acc. IDI,15000,,259418,Pay Utility,254729355933 - FELISTAH NJERI WAIRIMU,TRUE,IDI,
PJ41SETK6T,03/10/17 20:57,03/10/17 20:57,Completed,Pay Bill from 254720278119 - LINDAH OGAWO Acc. KFE,9500,,244418,Pay Utility,254720278119 - LINDAH OGAWO,TRUE,KFE,
PJ49SEOVUR,03/10/17 20:55,03/10/17 20:55,Completed,Pay Bill from 254729160700 - MICAH NDUNGI Acc. HFE,10500,,234918,Pay Utility,254729160700 - MICAH NDUNGI,TRUE,HFE,
PJ47SEGIBF,03/10/17 20:51,03/10/17 20:51,Completed,Pay Bill from 254729858484 - ANTONY CHEGE Acc. KCA,16000,,224418,Pay Utility,254729858484 - ANTONY CHEGE,TRUE,KCA,
PJ45SB7B17,03/10/17 20:03,03/10/17 20:03,Completed,Pay Bill Online from 0724386624 - FATUMA ISSE YUSSUF Acc. FAB,16000,,208418,Pay Bill Online,0724386624 - FATUMA ISSE YUSSUF,TRUE,FAB,
PJ44SARCWU,03/10/17 19:58,03/10/17 19:58,Completed,Pay Bill Online from 254718911865 - KENNEDY KELI KATUNGII Acc. HDF,9000,,192418,Pay Bill Online,254718911865 - KENNEDY KELI KATUNGII,TRUE,HDF,
PJ43S7EIOH,03/10/17 19:19,03/10/17 19:19,Completed,Pay Bill from 0115054975 - faith syovata joseph Acc. IBC,9500,,183418,Pay Utility,0115054975 - faith syovata joseph,TRUE,IBC,
PJ49S6RK8Z,03/10/17 19:12,03/10/17 19:12,Completed,Pay Bill Online from 254798022849 - MARTIN BUNDI RUGENDO Acc. KFH,10000,,173918,Pay Bill Online,254798022849 - MARTIN BUNDI RUGENDO,TRUE,KFH,
PJ46S5VAKM,03/10/17 19:03,03/10/17 19:03,Completed,Pay Bill from 254716056537 - KIRUI KIPLANGAT HILLARY Acc. JCJ,16000,,163918,Pay Utility,254716056537 - KIRUI KIPLANGAT HILLARY,TRUE,JCJ,
PJ43S5L3K1,03/10/17 19:00,03/10/17 19:00,Completed,Pay Bill from 254723966777 - BONIFACE MUTHAKA NGANGA Acc. IEC,9000,,147918,Pay Utility,254723966777 - BONIFACE MUTHAKA NGANGA,TRUE,IEC,
PJ44S4XJU0,03/10/17 18:54,03/10/17 18:54,Completed,Pay Bill Online from 254714563486 - BRIAN MMATA MUSERA Acc. KBJ,16000,,138918,Pay Bill Online,254714563486 - BRIAN MMATA MUSERA,TRUE,KBJ,
PJ41S485WJ,03/10/17 18:47,03/10/17 18:47,Completed,Pay Bill from 254722444622 - CHARITY KAGWAINI Acc. FFD,11000,,122918,Pay Utility,254722444622 - CHARITY KAGWAINI,TRUE,FFD,
PJ42S2J4U4,03/10/17 18:30,03/10/17 18:30,Completed,Pay Bill from 254719499823 - MOSES MWANZIA MUTHIANI Acc. Jcc,1500,,111918,Pay Utility,254719499823 - MOSES MWANZIA MUTHIANI,TRUE,Jcc,
PJ41S18IER,03/10/17 18:14,03/10/17 18:14,Completed,Pay Bill from 254702152790 - Michelle Ndunge Kyalo Acc. IDE,8000,,110418,Pay Utility,254702152790 - Michelle Ndunge Kyalo,TRUE,IDE,
PJ42S003MY,03/10/17 17:59,03/10/17 17:59,Completed,Pay Bill from 254715742045 - FRIDAH KIEMA Acc. HGC,9500,,102418,Pay Utility,254715742045 - FRIDAH KIEMA,TRUE,HGC,
PJ49RXBT4P,03/10/17 17:24,03/10/17 17:24,Completed,Pay Bill Online from 0711117122 - Yassir Mwinyi Abdulrazaq Acc. ICE,5000,,92918,Pay Bill Online,0711117122 - Yassir Mwinyi Abdulrazaq,TRUE,ICE,
PJ43RX0QX9,03/10/17 17:20,03/10/17 17:20,Completed,Pay Bill from 254723328258 - SAMUEL MAINA MURIUKI Acc. IFE,8000,,87918,Pay Utility,254723328258 - SAMUEL MAINA MURIUKI,TRUE,IFE,
PJ49RWZ3OX,03/10/17 17:19,03/10/17 17:19,Completed,Pay Bill from 254701112397 - ELEMA GODANA DIBA Acc. IAD,10000,,79918,Pay Utility,254701112397 - ELEMA GODANA DIBA,TRUE,IAD,
PJ44RQ8X2I,03/10/17 15:31,03/10/17 15:31,Completed,Pay Bill from 254702355678 - JOHN NJOROGE GICHERU Acc. ITE,3918,,69918,Pay Utility,254702355678 - JOHN NJOROGE GICHERU,TRUE,ITE,
PJ42RP99DO,03/10/17 15:14,03/10/17 15:14,Completed,Pay Bill from 254720802644 - MESHACK MAXWELL GANDA Acc. HAB,15000,,66000,Pay Utility,254720802644 - MESHACK MAXWELL GANDA,TRUE,HAB,
PJ41RO0EK1,03/10/17 14:52,03/10/17 14:52,Completed,Pay Bill Online from 254708225541 - JUDITH NKATHA SIMBA Acc. HDH,16000,,51000,Pay Bill Online,254708225541 - JUDITH NKATHA SIMBA,TRUE,HDH,
PJ48RMXSFI,03/10/17 14:34,03/10/17 14:34,Completed,Pay Bill from 254722889574 - ALLAN MWANGI Acc. JCG,10000,,35000,Pay Utility with OD via STK,254722889574 - ALLAN MWANGI,TRUE,JCG,
PJ42RM13C2,03/10/17 14:18,03/10/17 14:18,Completed,Pay Bill from 254727955151 - NKONGE MAURICE Acc. Fge,15000,,25000,Pay Utility,254727955151 - NKONGE MAURICE,TRUE,Fge,
PJ44RKS10I,03/10/17 13:56,03/10/17 13:56,Completed,Pay Bill from 254714814264 - PATRICIA NZOMO Acc. Hcc,10000,,10000,Pay Utility,254714814264 - PATRICIA NZOMO,TRUE,Hcc,
PJ44RFUR0U,03/10/17 12:31,03/10/17 12:31,Completed,Utility Account to Organization Settlement Account,,-9000,0,Utility Account to Organization Settlement Account,979524 - ANCIENT WELLS PROPERTY MANAGERS 2,TRUE,,
PJ49R2Z1C7,03/10/17 08:31,03/10/17 08:31,Completed,Pay Bill from 0745378455 - harriet nyanchama nyaberi Acc. FCC,9000,,9000,Pay Utility,0745378455 - harriet nyanchama nyaberi,TRUE,FCC,
PJ45R0EC43,03/10/17 07:29,03/10/17 07:29,Completed,Utility Account to Organization Settlement Account,,-253582,0,Utility Account to Organization Settlement Account,979524 - ANCIENT WELLS PROPERTY MANAGERS 2,TRUE,,
PJ34QWWXQA,02/10/17 23:07,02/10/17 23:07,Completed,Pay Bill from 254701196539 - GICHURI KARANJA Acc. Fee,16000,,253582,Pay Utility,254701196539 - GICHURI KARANJA,TRUE,Fee,
PJ35QWPHO1,02/10/17 22:52,02/10/17 22:52,Completed,Pay Bill from 254799946039 - LUIS OTIENO Acc. IAE,8000,,237582,Pay Utility,254799946039 - LUIS OTIENO,TRUE,IAE,
PJ35QWIW3J,02/10/17 22:41,02/10/17 22:41,Completed,Pay Bill from 254704833344 - LOISE KIMANI Acc. jfa,20000,,229582,Pay Utility,254704833344 - LOISE KIMANI,TRUE,jfa,
PJ38QT9R1Q,02/10/17 21:04,02/10/17 21:04,Completed,Pay Bill from 254719285750 - LILIAN ACHIENG ODONGO Acc. IGE,9000,,209582,Pay Utility,254719285750 - LILIAN ACHIENG ODONGO,TRUE,IGE,
PJ38QT3WA8,02/10/17 21:01,02/10/17 21:01,Completed,Pay Bill from 254714578986 - EZEKIEL MULUNGYE Acc. HAC,10000,,200582,Pay Utility,254714578986 - EZEKIEL MULUNGYE,TRUE,HAC,
PJ34QT20Y8,02/10/17 21:00,02/10/17 21:00,Completed,Pay Bill from 254700385346 - JESCA ATIENO OKOTH Acc. kcg,10000,,190582,Pay Utility,254700385346 - JESCA ATIENO OKOTH,TRUE,kcg,
PJ35QRB5WT,02/10/17 20:30,02/10/17 20:30,Completed,Pay Bill from 254702355678 - JOHN NJOROGE GICHERU Acc. Tithe ,6082,,180582,Pay Utility,254702355678 - JOHN NJOROGE GICHERU,TRUE,Tithe,
PJ36QN2DU2,02/10/17 19:26,02/10/17 19:26,Completed,Pay Bill from 254723488259 - WILSON OKITE OKITE Acc. HCA,15000,,174500,Pay Utility,254723488259 - WILSON OKITE OKITE,TRUE,HCA,
PJ34QMNVFW,02/10/17 19:21,02/10/17 19:21,Completed,Pay Bill from 254703555717 - SENGA SALIM Acc. hbb,7000,,159500,Pay Utility,254703555717 - SENGA SALIM,TRUE,hbb,
PJ39QL3R2Z,02/10/17 19:01,02/10/17 19:01,Completed,Pay Bill from 254700430569 - EDITH   GAKII Acc. FCB,16000,,152500,Pay Utility,254700430569 - EDITH   GAKII,TRUE,FCB,
PJ38QCAYY2,02/10/17 16:59,02/10/17 16:59,Completed,Pay Bill from 0797758628 - jackline nyamari onyango Acc. ICF,11000,,136500,Pay Utility,0797758628 - jackline nyamari onyango,TRUE,ICF,
PJ38QA1FAQ,02/10/17 16:22,02/10/17 16:22,Completed,Pay Bill from 254711706815 - NAOMI WANYONYI Acc. KBA,14000,,125500,Pay Utility with OD via STK,254711706815 - NAOMI WANYONYI,TRUE,KBA,
PJ34Q2U5IS,02/10/17 14:20,02/10/17 14:20,Completed,Pay Bill from 254725754547 - MWACHIRO GEORGE DECHE Acc. DFC,20000,,111500,Pay Utility,254725754547 - MWACHIRO GEORGE DECHE,TRUE,DFC,
PJ39Q2OOWB,02/10/17 14:18,02/10/17 14:18,Completed,Pay Bill Online from 0796121714 - janet   mwikali Acc. KBC,10000,,91500,Pay Bill Online,0796121714 - janet   mwikali,TRUE,KBC,
PJ32Q1BQOO,02/10/17 13:54,02/10/17 13:54,Completed,Pay Bill Online from 254728364280 - EMMANUEL THUMA OYIER Acc. IDF,11000,,81500,Pay Bill Online,254728364280 - EMMANUEL THUMA OYIER,TRUE,IDF,
PJ33PY9K41,02/10/17 12:58,02/10/17 12:58,Completed,Pay Bill Online from 254714855708 - KIPLANGAT SITIENEI Acc. FAE,16000,,70500,Pay Bill Online,254714855708 - KIPLANGAT SITIENEI,TRUE,FAE,
PJ23PDX1NN,01/10/17 22:08,01/10/17 22:08,Completed,Pay Bill from 254701006375 - EZRA MAKORI SERETI Acc. HTE,10000,,54500,Pay Utility,254701006375 - EZRA MAKORI SERETI,TRUE,HTE,
PJ21PDTIJR,01/10/17 22:05,01/10/17 22:05,Completed,Pay Bill from 254703935626 - DAVID NGARI ITA Acc. FCD,1000,,44500,Pay Utility,254703935626 - DAVID NGARI ITA,TRUE,FCD,
PJ26OXD3CQ,01/10/17 18:14,01/10/17 18:14,Completed,Pay Bill from 254702764047 - FERDINAND K Acc. KDB,16000,,43500,Pay Utility,254702764047 - FERDINAND K,TRUE,KDB,
PJ26OURSBG,01/10/17 17:40,01/10/17 17:40,Completed,Pay Bill from 254718284151 - EVERLINE MATHEKA Acc. JAG,9000,,27500,Pay Utility,254718284151 - EVERLINE MATHEKA,TRUE,JAG,
PJ27OUF01H,01/10/17 17:35,01/10/17 17:35,Completed,Pay Bill Online from 254741433913 - DUNCAN OMONDI OKETCH Acc. IAG,9000,,18500,Pay Bill Online,254741433913 - DUNCAN OMONDI OKETCH,TRUE,IAG,
PJ24OJDDJ6,01/10/17 14:49,01/10/17 14:49,Completed,Pay Bill Online from 254717809935 - LYDIAH WERU Acc. IDC,9500,,9500,Pay Bill Online,254717809935 - LYDIAH WERU,TRUE,IDC,
PJ29OFQK1D,01/10/17 13:53,01/10/17 13:53,Completed,Utility Account to Organization Settlement Account,,-121200,0,Utility Account to Organization Settlement Account,979524 - ANCIENT WELLS PROPERTY MANAGERS 2,TRUE,,
PJ27O91053,01/10/17 12:05,01/10/17 12:05,Completed,Pay Bill Online from 254796292434 - ANTONINA HAYA Acc. HED,12000,,121200,Pay Bill Online,254796292434 - ANTONINA HAYA,TRUE,HED,
PJ21O71PQX,01/10/17 11:32,01/10/17 11:32,Completed,Pay Bill Online from 254710814215 - JOAN NYAMBURA KAMAU Acc. IFB,16200,,109200,Pay Bill Online,254710814215 - JOAN NYAMBURA KAMAU,TRUE,IFB,
PJ22O6I8VK,01/10/17 11:23,01/10/17 11:23,Completed,Pay Bill Online from 254712187712 - JUDELEEN AHINDUKHA SHILOBELE Acc. IEA,16000,,93000,Pay Bill Online,254712187712 - JUDELEEN AHINDUKHA SHILOBELE,TRUE,IEA,
PJ25O1J3SP,01/10/17 09:58,01/10/17 09:58,Completed,Pay Bill from 254728854349 - JOSEPH MUSYOKA Acc. IBG,8000,,77000,Pay Utility,254728854349 - JOSEPH MUSYOKA,TRUE,IBG,
PJ27NYZM0D,01/10/17 09:12,01/10/17 09:12,Completed,Pay Bill Online from 254704682516 - Winnie Akinyi Omollo Acc. FDA,16000,,69000,Pay Bill Online,254704682516 - Winnie Akinyi Omollo,TRUE,FDA,
PJ26NY98IY,01/10/17 08:58,01/10/17 08:58,Completed,Pay Bill from 254726753273 - JESSE K MURIRMI NJERU Acc. HCH,17500,,53000,Pay Utility,254726753273 - JESSE K MURIRMI NJERU,TRUE,HCH,
PJ20NY3BHC,01/10/17 08:55,01/10/17 08:55,Completed,Pay Bill Online from 254720451253 - JIMMY KIOGORA NKIROTE Acc. KBD,3000,,35500,Pay Utility with OD Online,254720451253 - JIMMY KIOGORA NKIROTE,TRUE,KBD,
PJ28NXLCOK,01/10/17 08:45,01/10/17 08:45,Completed,Pay Bill from 254726178084 - CHRISTOPHER OCHIENG Acc. ffe,15000,,32500,Pay Utility,254726178084 - CHRISTOPHER OCHIENG,TRUE,ffe,
PJ29NWMGS3,01/10/17 08:25,01/10/17 08:25,Completed,Pay Bill Online from 254726001437 - FESTUS MUNYIRI MAINA Acc. JAC PAINTING,2500,,17500,Pay Bill Online,254726001437 - FESTUS MUNYIRI MAINA,TRUE,JAC,
PJ23NSNE19,01/10/17 06:22,01/10/17 06:22,Completed,Pay Bill Online from 254706898046 - STACY AKETCH OCHUKA Acc. KGK,15000,,15000,Pay Bill Online,254706898046 - STACY AKETCH OCHUKA,TRUE,KGK,
PJ27NSJEMB,01/10/17 06:13,01/10/17 06:13,Completed,Utility Account to Organization Settlement Account,,-194000,0,Utility Account to Organization Settlement Account,979524 - ANCIENT WELLS PROPERTY MANAGERS 2,TRUE,,
PJ13NQ9SL1,30/09/17 23:01,30/09/17 23:01,Completed,Pay Bill from 254720375006 - JACOB KANGOGO Acc. IBA,15000,,194000,Pay Utility,254720375006 - JACOB KANGOGO,TRUE,IBA,
PJ14NJBB5K,30/09/17 20:22,30/09/17 20:22,Completed,Pay Bill from 254710239100 - PHILOMENA WOKI MUTHAMA Acc. KDK,17000,,179000,Pay Utility,254710239100 - PHILOMENA WOKI MUTHAMA,TRUE,KDK,
PJ14NJ2RFI,30/09/17 20:18,30/09/17 20:18,Completed,Pay Bill Online from 254728093389 - MOHAMED MUSA ALASOW Acc. KED ,12000,,162000,Pay Bill Online,254728093389 - MOHAMED MUSA ALASOW,TRUE,KED,
PJ17NE7PM1,30/09/17 19:19,30/09/17 19:19,Completed,Pay Bill from 254729796719 - JACINTA WANJIKU NJERI Acc. FFF,17000,,150000,Pay Utility,254729796719 - JACINTA WANJIKU NJERI,TRUE,FFF,
PJ19NBW7Q5,30/09/17 18:55,30/09/17 18:55,Completed,Pay Bill from 254704934557 - BAKARI KITSAKA Acc. JAD,15000,,133000,Pay Utility,254704934557 - BAKARI KITSAKA,TRUE,JAD,
PJ18NAKY6A,30/09/17 18:42,30/09/17 18:42,Completed,Pay Bill from 254728685098 - AIDID ISSA ABDI Acc. fdf,1000,,118000,Pay Utility with OD via STK,254728685098 - AIDID ISSA ABDI,TRUE,fdf,
PJ17N9RN9B,30/09/17 18:33,30/09/17 18:33,Completed,Pay Bill from 254707370896 - OKECH BRIAN BRIAN Acc. FFA,15000,,117000,Pay Utility,254707370896 - OKECH BRIAN BRIAN,TRUE,FFA,
PJ19N9MWIF,30/09/17 18:31,30/09/17 18:31,Completed,Pay Bill from 254726028330 - JOHN WAMBUA Acc. IFH,15000,,102000,Pay Utility,254726028330 - JOHN WAMBUA,TRUE,IFH,
PJ13N9MIF1,30/09/17 18:31,30/09/17 18:31,Completed,Pay Bill from 254721302658 - JACOB BIRUNDU Acc. DDB,16000,,87000,Pay Utility,254721302658 - JACOB BIRUNDU,TRUE,DDB,
PJ11N8HGEX,30/09/17 18:18,30/09/17 18:18,Completed,Pay Bill Online from 254727554512 - COLLINS KOECH Acc. JDJ,15000,,71000,Pay Bill Online,254727554512 - COLLINS KOECH,TRUE,JDJ,
PJ19N37BW3,30/09/17 17:10,30/09/17 17:10,Completed,Pay Bill Online from 254717780356 - ALFRED MAIRURA Acc. FAF,16000,,56000,Pay Bill Online,254717780356 - ALFRED MAIRURA,TRUE,FAF,
PJ11N24FE3,30/09/17 16:55,30/09/17 16:55,Completed,Pay Bill Online from 254722604851 - WILFRED SAKWA Acc. IDG,10000,,40000,Pay Bill Online,254722604851 - WILFRED SAKWA,TRUE,IDG,
PJ14MSEDXE,30/09/17 14:18,30/09/17 14:18,Completed,Pay Bill from 254724852503 - GEOFREY YEGO Acc. JFF,10000,,30000,Pay Utility,254724852503 - GEOFREY YEGO,TRUE,JFF,
PJ18MQQECS,30/09/17 13:50,30/09/17 13:50,Completed,Pay Bill from 0758826849 -  Norah Awala Anyango Acc. JEA,20000,,20000,Pay Utility with OD via STK,0758826849 -  Norah Awala Anyango,TRUE,JEA,
PJ13MMT6EF,30/09/17 12:44,30/09/17 12:44,Completed,Utility Account to Organization Settlement Account,,-113000,0,Utility Account to Organization Settlement Account,979524 - ANCIENT WELLS PROPERTY MANAGERS 2,TRUE,,
PJ12MIURMS,30/09/17 11:35,30/09/17 11:35,Completed,Pay Bill from 254740579741 - MUHINDI MULINYA Acc. HGG,27000,,113000,Pay Utility,254740579741 - MUHINDI MULINYA,TRUE,HGG,
PJ14MI4HM6,30/09/17 11:22,30/09/17 11:22,Completed,Pay Bill Online from 254795510441 - LEWIS MUEMA Acc. KEB,16000,,86000,Pay Bill Online,254795510441 - LEWIS MUEMA,TRUE,KEB,
PJ10MHSKQM,30/09/17 11:16,30/09/17 11:16,Completed,Pay Bill Online from 254711562428 - Lionel Mutune Muoka Acc. KDI,11000,,70000,Pay Bill Online,254711562428 - Lionel Mutune Muoka,TRUE,KDI,
PJ12MDZXOU,30/09/17 10:08,30/09/17 10:08,Completed,Pay Bill from 254703180395 - JANE NYAGUTHII MWAGO Acc. IBE,8000,,59000,Pay Utility,254703180395 - JANE NYAGUTHII MWAGO,TRUE,IBE,
PJ12MCIUHI,30/09/17 09:41,30/09/17 09:41,Completed,Pay Bill Online from 254726001437 - FESTUS MUNYIRI MAINA Acc. JAC,11000,,51000,Pay Bill Online,254726001437 - FESTUS MUNYIRI MAINA,TRUE,JAC,
PJ17M8WVQ3,30/09/17 08:30,30/09/17 08:30,Completed,Pay Bill from 254716315144 - PETER MUNYIRI WAROTERE Acc. FBB,16000,,40000,Pay Utility,254716315144 - PETER MUNYIRI WAROTERE,TRUE,FBB,
PJ17M71ESZ,30/09/17 07:48,30/09/17 07:48,Completed,Pay Bill from 254728901013 - ALEX MOSE ARWASA Acc. HGD,10000,,24000,Pay Utility with OD via STK,254728901013 - ALEX MOSE ARWASA,TRUE,HGD,
PJ18M6LC5M,30/09/17 07:36,30/09/17 07:36,Completed,Pay Bill from 254729541871 - ROBERT KULEI Acc. JAB,5000,,14000,Pay Utility,254729541871 - ROBERT KULEI,TRUE,JAB,
PJ18M6LB1W,30/09/17 07:36,30/09/17 07:36,Completed,Pay Bill Online from 254707226192 - NICHOLUS MAINGI MWANTHI Acc. HBF,9000,,9000,Pay Bill Online,254707226192 - NICHOLUS MAINGI MWANTHI,TRUE,HBF,
PJ18M4HTYC,30/09/17 06:13,30/09/17 06:13,Completed,Utility Account to Organization Settlement Account,,-148500,0,Utility Account to Organization Settlement Account,979524 - ANCIENT WELLS PROPERTY MANAGERS 2,TRUE,,