Account Holder:,ANCIENT WELLS LTD 1
Short Code:,887674
Account:,Utility Account
Time Period:,From,01-11-2023 00:00:00,To,10-11-2023 23:59:59
Operator:,ROBERT,Organization:,ANCIENT WELLS LTD 1,Date of Report:,10-11-2023 17:53:04
Opening Balance:,0.00,Closing Balance:,12500.00,Total Paid In:,352200.00,Total Withdrawn:,-341200.00
Receipt No.,Completion Time,Initiation Time,Details,Transaction Status,Paid In,Withdrawn,Balance,Balance Confirmed,Reason Type,Other Party Info,Linked Transaction ID,A/C No.
RKA5YI6NOP,10-11-2023 16:55:08,10-11-2023 16:55:08,Pay Bill from 254729358258 - Cliff Ombasa Acc. v05,Completed,5500.00,,12500.00,true,Pay Utility,254729358258 - Cliff Ombasa,,v05
RKA7XYZ5RX,10-11-2023 14:13:22,10-11-2023 14:13:22,Pay Bill from 0115365438 - zibborah nzilani maundu Acc. V48,Completed,7000.00,,7000.00,true,Pay Utility,0115365438 - zibborah nzilani maundu,,V48
RKA6XD4OGG,10-11-2023 10:56:58,10-11-2023 10:56:58,Utility Account to Organization Settlement Account,Completed,,-16500.00,0.00,true,Utility Account to Organization Settlement Account,887674 - ANCIENT WELLS LTD 1,,
RKA4XCCA70,10-11-2023 10:49:45,10-11-2023 10:49:45,Pay Bill from 254702495335 - IMMACULATE ATIENO KAGORO Acc. V39,Completed,7000.00,,16500.00,true,Pay Utility,254702495335 - IMMACULATE ATIENO KAGORO,,V39
RKA9X3KC65,10-11-2023 09:26:35,10-11-2023 09:26:35,Pay Bill from 254717294709 - CAROLINE WAVINYA NDINDA Acc. v15,Completed,1000.00,,9500.00,true,Pay Utility,254717294709 - CAROLINE WAVINYA NDINDA,,v15
RK96WHIOS2,09-11-2023 22:47:31,09-11-2023 22:47:31,Pay Bill from 254700686102 - ROSE ADHIAMBO OBARE Acc. V12,Completed,1500.00,,8500.00,true,Pay Utility,254700686102 - ROSE ADHIAMBO OBARE,,V12
RK99WH5ZEB,09-11-2023 22:41:34,09-11-2023 22:41:34,Pay Bill from 0112066814 - JOHN AMBAISI ANUNDA Acc. V53,Completed,7000.00,,7000.00,true,Pay Utility with OD via STK,0112066814 - JOHN AMBAISI ANUNDA,,V53
RK93TWDHTD,09-11-2023 09:53:07,09-11-2023 09:53:07,Utility Account to Organization Settlement Account,Completed,,-2100.00,0.00,true,Utility Account to Organization Settlement Account,887674 - ANCIENT WELLS LTD 1,,
RK94TOBQ7C,09-11-2023 08:27:34,09-11-2023 08:27:34,Pay Bill Online from 254715939283 - alex nyamai Acc. v7,Completed,2100.00,,2100.00,true,Pay Bill Online,254715939283 - alex nyamai,,v7
RK85S12PCH,08-11-2023 17:16:16,08-11-2023 17:16:16,Utility Account to Organization Settlement Account,Completed,,-12000.00,0.00,true,Utility Account to Organization Settlement Account,887674 - ANCIENT WELLS LTD 1,,
RK88S06BQW,08-11-2023 17:09:23,08-11-2023 17:09:23,Pay Bill from 254724227777 - ANTONY IRUNGU KARIUKI Acc. V41,Completed,12000.00,,12000.00,true,Pay Utility,254724227777 - ANTONY IRUNGU KARIUKI,,V41
RK81QQ1APX,08-11-2023 10:01:46,08-11-2023 10:01:46,Utility Account to Organization Settlement Account,Completed,,-14600.00,0.00,true,Utility Account to Organization Settlement Account,887674 - ANCIENT WELLS LTD 1,,
RK89QGWQXL,08-11-2023 08:23:12,08-11-2023 08:23:12,Pay Bill from 254717294709 - CAROLINE WAVINYA NDINDA Acc. v15,Completed,1000.00,,14600.00,true,Pay Utility,254717294709 - CAROLINE WAVINYA NDINDA,,v15
RK77Q06EBZ,07-11-2023 22:05:31,07-11-2023 22:05:31,Pay Bill from 254712091662 - BENARD OMONDI ROBY Acc. V16,Completed,6600.00,,13600.00,true,Pay Utility,254712091662 - BENARD OMONDI ROBY,,V16
RK73PFX4ND,07-11-2023 19:26:37,07-11-2023 19:26:37,FSI to Pay Bill by 3033815 - LOOP B2C. Acc. V55 via WEB by LOOP B2C.\TRINITYAPI,Completed,7000.00,,7000.00,true,FSI to Pay Bill via API,3033815 - LOOP B2C.,,V55
RK78NZLPWW,07-11-2023 12:45:59,07-11-2023 12:45:59,Utility Account to Organization Settlement Account,Completed,,-6600.00,0.00,true,Utility Account to Organization Settlement Account,887674 - ANCIENT WELLS LTD 1,,
RK74N97S20,07-11-2023 08:26:24,07-11-2023 08:26:24,Pay Bill from 254705396032 - NAOMI NYAWIRA NGURE Acc. v46,Completed,6600.00,,6600.00,true,Pay Utility,254705396032 - NAOMI NYAWIRA NGURE,,v46
RK60MRWHZ2,06-11-2023 22:12:41,06-11-2023 22:12:41,Utility Account to Organization Settlement Account,Completed,,-20000.00,0.00,true,Utility Account to Organization Settlement Account,887674 - ANCIENT WELLS LTD 1,,
RK63ME6MB3,06-11-2023 20:07:57,06-11-2023 20:07:57,Pay Bill Online from 254720057303 - PAUL NJOROGE KIMANI Acc. V13,Completed,7000.00,,20000.00,true,Pay Utility with OD Online,254720057303 - PAUL NJOROGE KIMANI,,V13
RK69KSFSAX,06-11-2023 13:02:00,06-11-2023 13:02:00,Pay Bill from 254717294709 - CAROLINE WAVINYA NDINDA Acc. v15,Completed,1000.00,,13000.00,true,Pay Utility,254717294709 - CAROLINE WAVINYA NDINDA,,v15
RK61KNKDPP,06-11-2023 12:17:50,06-11-2023 12:17:50,Pay Bill from 254701174081 - JOSEPHINE ODUOR Acc. v34,Completed,5000.00,,12000.00,true,Pay Utility,254701174081 - JOSEPHINE ODUOR,,v34
RK65K5HNG9,06-11-2023 09:25:37,06-11-2023 09:25:37,Pay Bill Online from 254706427665 - CHRIS KIRIMI Acc. v22,Completed,7000.00,,7000.00,true,Pay Bill Online,254706427665 - CHRIS KIRIMI,,v22
RK60JRU59A,06-11-2023 06:30:41,06-11-2023 06:30:41,Utility Account to Organization Settlement Account,Completed,,-49000.00,0.00,true,Utility Account to Organization Settlement Account,887674 - ANCIENT WELLS LTD 1,,
RK51JKYE9P,05-11-2023 22:40:11,05-11-2023 22:40:11,Pay Bill from 254722578070 - SAMUEL MACHARIA Acc. v42,Completed,7000.00,,49000.00,true,Pay Utility,254722578070 - SAMUEL MACHARIA,,v42
RK50JJS4EG,05-11-2023 22:17:55,05-11-2023 22:17:55,Pay Bill Online from 254722808623 - SUSAN OCHIENG' Acc. v56,Completed,7000.00,,42000.00,true,Pay Bill Online,254722808623 - SUSAN OCHIENG',,v56
RK59JHVGDD,05-11-2023 21:50:27,05-11-2023 21:50:27,Pay Bill from 254741472886 - TERESIA NGINA MWANGI Acc. v50,Completed,7000.00,,35000.00,true,Pay Utility,254741472886 - TERESIA NGINA MWANGI,,v50
RK52JBVI7G,05-11-2023 20:47:19,05-11-2023 20:47:19,Pay Bill from 254703232096 - KEVIN MAINA Acc. V51,Completed,7000.00,,28000.00,true,Pay Utility,254703232096 - KEVIN MAINA,,V51
RK52J7DJ7C,05-11-2023 20:11:03,05-11-2023 20:11:03,Pay Bill from 0729382149 - SYLVIA NABALAYO MASABULE Acc. v30,Completed,7000.00,,21000.00,true,Pay Utility,0729382149 - SYLVIA NABALAYO MASABULE,,v30
RK50J4C1WM,05-11-2023 19:49:24,05-11-2023 19:49:23,Pay Bill Online from 0759605060 - ELVIS MUSA MORARA Acc. V47,Completed,7000.00,,14000.00,true,Pay Bill Online,0759605060 - ELVIS MUSA MORARA,,V47
RK59IJ2ZEB,05-11-2023 17:29:23,05-11-2023 17:29:23,Pay Bill from 0729277890 - HALIMA MOHAMED EDIN Acc. V03,Completed,7000.00,,7000.00,true,Pay Utility,0729277890 - HALIMA MOHAMED EDIN,,V03
RK58IIWS2A,05-11-2023 17:28:06,05-11-2023 17:28:06,Utility Account to Organization Settlement Account,Completed,,-7000.00,0.00,true,Utility Account to Organization Settlement Account,887674 - ANCIENT WELLS LTD 1,,
RK50I5YXYQ,05-11-2023 15:40:39,05-11-2023 15:40:39,Pay Bill from 254791023764 - ISAIAH OMODING Acc. V49,Completed,7000.00,,7000.00,true,Pay Utility,254791023764 - ISAIAH OMODING,,V49
RK55HTKZOZ,05-11-2023 13:50:21,05-11-2023 13:50:21,Utility Account to Organization Settlement Account,Completed,,-27200.00,0.00,true,Utility Account to Organization Settlement Account,887674 - ANCIENT WELLS LTD 1,,
RK54HLBTBK,05-11-2023 12:29:47,05-11-2023 12:29:47,Pay Bill from 0795807227 - Lucy Ncekei Kimathi Acc. V36 ,Completed,6600.00,,27200.00,true,Pay Utility with OD via STK,0795807227 - Lucy Ncekei Kimathi,,V36
RK57H0YM6D,05-11-2023 08:52:04,05-11-2023 08:52:04,Pay Bill from 254722219253 - DAVID NJOGU Acc. v32,Completed,7000.00,,20600.00,true,Pay Utility,254722219253 - DAVID NJOGU,,v32
RK43GJJ32J,04-11-2023 22:48:17,04-11-2023 22:48:17,Pay Bill from 0746542458 - Hannah   Naliaka Acc. V23,Completed,6600.00,,13600.00,true,Pay Utility,0746542458 - Hannah   Naliaka,,V23
RK47FGOWX7,04-11-2023 18:01:29,04-11-2023 18:01:29,Pay Bill from 0714747222 - WILSON KIMANI MWANGI Acc. V25,Completed,7000.00,,7000.00,true,Pay Utility,0714747222 - WILSON KIMANI MWANGI,,V25
RK42EFVM3W,04-11-2023 13:18:50,04-11-2023 13:18:50,Utility Account to Organization Settlement Account,Completed,,-12000.00,0.00,true,Utility Account to Organization Settlement Account,887674 - ANCIENT WELLS LTD 1,,
RK42E4IVX2,04-11-2023 11:40:56,04-11-2023 11:40:56,Pay Bill Online from 254710470983 - WINNIE AKINYI OBARE Acc. V12,Completed,1500.00,,12000.00,true,Pay Bill Online,254710470983 - WINNIE AKINYI OBARE,,V12
RK48E3WMTS,04-11-2023 11:35:36,04-11-2023 11:35:36,Pay Bill from 0769858701 - DOLLARS DANIEL CIRHUZA Acc. V09,Completed,7000.00,,10500.00,true,Pay Utility,0769858701 - DOLLARS DANIEL CIRHUZA,,V09
RK44E3WXV6,04-11-2023 11:35:31,04-11-2023 11:35:31,Pay Bill from 254706613908 - joseph mbugua karumbi Acc. V45,Completed,3500.00,,3500.00,true,Pay Utility,254706613908 - joseph mbugua karumbi,,V45
RK30BD58US,03-11-2023 14:42:54,03-11-2023 14:42:54,Utility Account to Organization Settlement Account,Completed,,-32500.00,0.00,true,Utility Account to Organization Settlement Account,887674 - ANCIENT WELLS LTD 1,,
RK35AXV3W1,03-11-2023 12:31:33,03-11-2023 12:31:33,Pay Bill from 254799511755 - CAROLINE BOSIRE Acc. V59,Completed,14000.00,,32500.00,true,Pay Utility,254799511755 - CAROLINE BOSIRE,,V59
RK259BKED3,02-11-2023 19:58:32,02-11-2023 19:58:32,Pay Bill from 0714206896 - JANET KAVATA MUANDIKO Acc. vk4,Completed,3500.00,,18500.00,true,Pay Utility,0714206896 - JANET KAVATA MUANDIKO,,vk4
RK2596S6DN,02-11-2023 19:30:17,02-11-2023 19:30:16,Pay Bill from 0743262596 - EMILY ADHIAMBO OTIENO Acc. V58,Completed,5000.00,,15000.00,true,Pay Utility with OD via STK,0743262596 - EMILY ADHIAMBO OTIENO,,V58
RK268MJWZA,02-11-2023 17:30:56,02-11-2023 17:30:56,Pay Bill from 254715309540 - HILLARY   AKHANYISI Acc. V19,Completed,10000.00,,10000.00,true,Pay Utility,254715309540 - HILLARY   AKHANYISI,,V19
RK2180N8O3,02-11-2023 14:29:23,02-11-2023 14:29:23,Utility Account to Organization Settlement Account,Completed,,-91000.00,0.00,true,Utility Account to Organization Settlement Account,887674 - ANCIENT WELLS LTD 1,,
RK207KF2J2,02-11-2023 12:06:27,02-11-2023 12:06:27,Pay Bill Online from 254791251803 - JOHN PAUL OGWANGI Acc. V14,Completed,7000.00,,91000.00,true,Pay Bill Online,254791251803 - JOHN PAUL OGWANGI,,V14
RK267IE318,02-11-2023 11:47:17,02-11-2023 11:47:17,Pay Bill from 0796741765 - VERONICA MUMBUA MULINGE Acc. V43,Completed,7000.00,,84000.00,true,Pay Utility,0796741765 - VERONICA MUMBUA MULINGE,,V43
RK277FAAKZ,02-11-2023 11:18:17,02-11-2023 11:18:17,Pay Bill from 254706287075 - HARON MWANDAWA Acc. v38,Completed,7000.00,,77000.00,true,Pay Utility,254706287075 - HARON MWANDAWA,,v38
RK25765B0V,02-11-2023 09:53:36,02-11-2023 09:53:36,Pay Bill Online from 254721356250 - DAVID MURIUKI Acc. B7,Completed,70000.00,,70000.00,true,Pay Utility with OD Online,254721356250 - DAVID MURIUKI,,B7
RK256O5ZK5,02-11-2023 05:45:29,02-11-2023 05:45:29,Utility Account to Organization Settlement Account,Completed,,-49200.00,0.00,true,Utility Account to Organization Settlement Account,887674 - ANCIENT WELLS LTD 1,,
RK196F5V1B,01-11-2023 22:10:25,01-11-2023 22:10:25,Pay Bill from 0707077137 - samuel maundu mwanzia Acc. V57,Completed,7000.00,,49200.00,true,Pay Utility,0707077137 - samuel maundu mwanzia,,V57
RK146BMYTC,01-11-2023 21:33:35,01-11-2023 21:33:35,Pay Bill from 254790128716 - HELLEN NAPHTAL Acc. V11,Completed,14000.00,,42200.00,true,Pay Utility,254790128716 - HELLEN NAPHTAL,,V11
RK1463T1LE,01-11-2023 20:32:32,01-11-2023 20:32:32,Pay Bill from 254726702082 - STEPHEN WAHINYA NJUGUNA Acc. V02,Completed,7000.00,,28200.00,true,Pay Utility,254726702082 - STEPHEN WAHINYA NJUGUNA,,V02
RK12617TUY,01-11-2023 20:15:41,01-11-2023 20:15:41,Pay Bill Online from 254702118125 - ROTICH BETHWEL Acc. V20,Completed,7000.00,,21200.00,true,Pay Bill Online,254702118125 - ROTICH BETHWEL,,V20
RK115SFG5R,01-11-2023 19:25:43,01-11-2023 19:25:43,Pay Bill from 254740157844 - LINA WANGUI MWANIKI Acc. v29,Completed,7600.00,,14200.00,true,Pay Utility,254740157844 - LINA WANGUI MWANIKI,,v29
RK145C3URC,01-11-2023 17:55:36,01-11-2023 17:55:36,Pay Bill Online from 254726465584 - JULIANA MUKELI MUTUNGA Acc. v4,Completed,6600.00,,6600.00,true,Pay Bill Online,254726465584 - JULIANA MUKELI MUTUNGA,,v4
RK163OE15O,01-11-2023 09:19:16,01-11-2023 09:19:16,Utility Account to Organization Settlement Account,Completed,,-1500.00,0.00,true,Utility Account to Organization Settlement Account,887674 - ANCIENT WELLS LTD 1,,