Receipt No.,Completion Time,Initiation Time,Details,Transaction Status,Paid In,Withdrawn,Balance,Balance Confirmed,Reason Type,Other Party Info,Linked Transaction ID,A/C No.
PG904IEDR4,09/07/2021 09:48,09/07/2021 09:48,FSI to Pay Bill by 714888 - B2C LOOP VIA NCBA Acc. v40 via WEB by B2C LOOP VIA NCBA\Cbainitiator,Completed,6600,,6600,TRUE,FSI to Pay Bill via API,714888 - B2C LOOP VIA NCBA,,v40
PG732LW8NH,07/07/2021 19:40,07/07/2021 19:40,Utility Account to Organization Settlement Account,Completed,,-24900,0,TRUE,Utility Account to Organization Settlement Account,887674 - ANCIENT WELLS LTD 1,,
PG7722224F,07/07/2021 14:38,07/07/2021 14:38,Pay Bill from 254790610309 - MESHACK CHUMBA Acc. V39,Completed,6600,,24900,TRUE,Pay Utility,254790610309 - MESHACK CHUMBA,,V39
PG7320ZQGT,07/07/2021 14:17,07/07/2021 14:17,Pay Bill from 254706920646 - MIRIAM CHEPTOO Acc. V08,Completed,7000,,18300,TRUE,Pay Utility,254706920646 - MIRIAM CHEPTOO,,V08
PG751YKSKH,07/07/2021 13:31,07/07/2021 13:31,Pay Bill from 254719701463 - MARY KANYI KIARIE Acc. V17,Completed,7800,,11300,TRUE,Pay Utility,254719701463 - MARY KANYI KIARIE,,V17
PG761PMRF6,07/07/2021 10:30,07/07/2021 10:30,Pay Bill from 254701174081 - JOSEPHINE ODUOR Acc. v34,Completed,3500,,3500,TRUE,Pay Utility,254701174081 - JOSEPHINE ODUOR,,v34
PG751IUZZV,07/07/2021 07:56,07/07/2021 07:56,Utility Account to Organization Settlement Account,Completed,,-6600,0,TRUE,Utility Account to Organization Settlement Account,887674 - ANCIENT WELLS LTD 1,,
PG621EH2VM,06/07/2021 22:32,06/07/2021 22:32,Pay Bill Online from 254705670064 - margaret wahu wachira Acc. v35,Completed,6600,,6600,TRUE,Pay Bill Online,254705670064 - margaret wahu wachira,,v35
PG6515TMLH,06/07/2021 19:36,06/07/2021 19:36,Utility Account to Organization Settlement Account,Completed,,-7500,0,TRUE,Utility Account to Organization Settlement Account,887674 - ANCIENT WELLS LTD 1,,
PG6914AVLR,06/07/2021 19:18,06/07/2021 19:18,Pay Bill from 0702360376 - Bonface aganga nyamongo Acc. vk4,Completed,5500,,7500,TRUE,Pay Utility,0702360376 - Bonface aganga nyamongo,,vk4
PG6710ZW77,06/07/2021 18:40,06/07/2021 18:40,Pay Bill from 0701762102 - KELVIN SOMBA MAUNDU Acc. VK6,Completed,2000,,2000,TRUE,Pay Utility with OD via STK,0701762102 - KELVIN SOMBA MAUNDU,,VK6
PG60ZTTISQ,06/07/2021 16:59,06/07/2021 16:59,Utility Account to Organization Settlement Account,Completed,,-13200,0,TRUE,Utility Account to Organization Settlement Account,887674 - ANCIENT WELLS LTD 1,,
PG67ZP51PB,06/07/2021 15:37,06/07/2021 15:37,Pay Bill from 254726465584 - JULIANA MUKELI MUTUNGA Acc. v4,Completed,6600,,13200,TRUE,Pay Utility,254726465584 - JULIANA MUKELI MUTUNGA,,v4
PG68ZCA8JO,06/07/2021 11:27,06/07/2021 11:27,Pay Bill Online from 254704995854 - james karanja wairimu Acc. V54,Completed,6600,,6600,TRUE,Pay Bill Online,254704995854 - james karanja wairimu,,V54
PG68ZBV00G,06/07/2021 11:19,06/07/2021 11:19,Utility Account to Organization Settlement Account,Completed,,-28900,0,TRUE,Utility Account to Organization Settlement Account,887674 - ANCIENT WELLS LTD 1,,
PG65Z90G1T,06/07/2021 10:21,06/07/2021 10:21,Pay Bill from 254703690697 - CATHERINE MURAGE Acc. V21,Completed,7000,,28900,TRUE,Pay Utility,254703690697 - CATHERINE MURAGE,,V21
PG66Z8ZBWK,06/07/2021 10:20,06/07/2021 10:20,Pay Bill from 254719701463 - MARY KANYI KIARIE Acc. V17,Completed,8700,,21900,TRUE,Pay Utility with OD via STK,254719701463 - MARY KANYI KIARIE,,V17
PG63Z8IIYP,06/07/2021 10:11,06/07/2021 10:11,Pay Bill from 254722307003 - NIGEL BOMETT Acc. V01,Completed,6600,,13200,TRUE,Pay Utility,254722307003 - NIGEL BOMETT,,V01
PG60Z7UU08,06/07/2021 09:57,06/07/2021 09:57,Pay Bill from 0717042461 - Sharon Nyangasi Shivachi Acc. v55,Completed,6600,,6600,TRUE,Pay Utility,0717042461 - Sharon Nyangasi Shivachi,,v55
PG69Z43XTP,06/07/2021 08:33,06/07/2021 08:33,Utility Account to Organization Settlement Account,Completed,,-27200,0,TRUE,Utility Account to Organization Settlement Account,887674 - ANCIENT WELLS LTD 1,,
PG59YXPP1L,05/07/2021 22:08,05/07/2021 22:08,Pay Bill from 254720056285 - DAMARIS NDURU Acc. V09,Completed,6600,,27200,TRUE,Pay Utility,254720056285 - DAMARIS NDURU,,V09
PG51YWAA0F,05/07/2021 21:27,05/07/2021 21:27,Pay Bill from 254758951969 - WILKISTER IRAKO HARAMBEE Acc. 37847739,Completed,7000,,20600,TRUE,Pay Utility,254758951969 - WILKISTER IRAKO HARAMBEE,,37847739
PG53YQA6HP,05/07/2021 19:46,05/07/2021 19:46,Pay Bill from 254712091662 - BENARD OMONDI ROBY Acc. V16,Completed,6600,,13600,TRUE,Pay Utility,254712091662 - BENARD OMONDI ROBY,,V16
PG52YPHYNY,05/07/2021 19:36,05/07/2021 19:36,Pay Bill from 254722578070 - SAMUEL MACHARIA Acc. v42,Completed,7000,,7000,TRUE,Pay Utility,254722578070 - SAMUEL MACHARIA,,v42
PG52YCEX86,05/07/2021 16:42,05/07/2021 16:42,Utility Account to Organization Settlement Account,Completed,,-55100,0,TRUE,Utility Account to Organization Settlement Account,887674 - ANCIENT WELLS LTD 1,,
PG57Y5UJOF,05/07/2021 14:43,05/07/2021 14:43,Pay Bill from 254723389922 - ANNE WANJIKU NDUNGU Acc. v53,Completed,6700,,55100,TRUE,Pay Utility,254723389922 - ANNE WANJIKU NDUNGU,,v53
PG56XZFNGY,05/07/2021 12:45,05/07/2021 12:45,Pay Bill from 254703108159 - JOICE OGOLLA Acc. V50,Completed,6600,,48400,TRUE,Pay Utility,254703108159 - JOICE OGOLLA,,V50
PG56XTJC1M,05/07/2021 10:51,05/07/2021 10:51,Pay Bill from 254713916352 - WINFRED KATUNGWA NDALA Acc. V30,Completed,6600,,41800,TRUE,Pay Utility,254713916352 - WINFRED KATUNGWA NDALA,,V30
PG50XNUE3M,05/07/2021 08:54,05/07/2021 08:54,Pay Bill from 254723815832 - SEMEKIA ONDIALA Acc. v38,Completed,6600,,35200,TRUE,Pay Utility,254723815832 - SEMEKIA ONDIALA,,v38
PG55XL6QGN,05/07/2021 07:46,05/07/2021 07:46,Pay Bill from 254717294709 - CAROLINE WAVINYA NDINDA Acc. V15,Completed,7000,,28600,TRUE,Pay Utility,254717294709 - CAROLINE WAVINYA NDINDA,,V15
PG45X9LF75,04/07/2021 19:40,04/07/2021 19:40,Pay Bill from 254722382654 - EDITH WANJIKU MWANGI Acc. V02 ,Completed,7000,,21600,TRUE,Pay Utility,254722382654 - EDITH WANJIKU MWANGI,,V02
PG45X9D55P,04/07/2021 19:37,04/07/2021 19:37,Pay Bill from 254707881909 - MARGARET NGIMA NDUNG'U Acc. v17,Completed,1000,,14600,TRUE,Pay Utility with OD via STK,254707881909 - MARGARET NGIMA NDUNG'U,,v17
PG31W055FJ,03/07/2021 20:16,03/07/2021 20:16,Pay Bill from 254718818610 - HANNAH NALIAKA Acc. V23,Completed,6600,,13600,TRUE,Pay Utility,254718818610 - HANNAH NALIAKA,,V23
PG32VD7F6U,03/07/2021 14:38,03/07/2021 14:38,Pay Bill Online from 254706427665 - CHRIS KIRIMI Acc. V22,Completed,7000,,7000,TRUE,Pay Bill Online,254706427665 - CHRIS KIRIMI,,V22
PG38V96F3Y,03/07/2021 13:25,03/07/2021 13:25,Utility Account to Organization Settlement Account,Completed,,-20200,0,TRUE,Utility Account to Organization Settlement Account,887674 - ANCIENT WELLS LTD 1,,
PG36UXUJY0,03/07/2021 09:49,03/07/2021 09:49,Pay Bill from 0758457508 - PETER KINGORI KAGUNDA Acc. V06,Completed,7000,,20200,TRUE,Pay Utility,0758457508 - PETER KINGORI KAGUNDA,,V06
PG20UMJVD0,02/07/2021 21:35,02/07/2021 21:35,Pay Bill from 254708915764 - GEORGE WAHOME Acc. V18,Completed,6600,,13200,TRUE,Pay Utility,254708915764 - GEORGE WAHOME,,V18
PG29UKHZY3,02/07/2021 20:52,02/07/2021 20:52,Pay Bill from 254718359438 - AHMAD TAHIR MACHENGO Acc. V11,Completed,6600,,6600,TRUE,Pay Utility,254718359438 - AHMAD TAHIR MACHENGO,,V11
PG28TTJ3U8,02/07/2021 14:09,02/07/2021 14:09,Utility Account to Organization Settlement Account,Completed,,-16700,0,TRUE,Utility Account to Organization Settlement Account,887674 - ANCIENT WELLS LTD 1,,
PG24TRPKLW,02/07/2021 13:36,02/07/2021 13:36,Pay Bill from 254727729395 - ROBERT OUKO OSORO Acc. V29,Completed,6600,,16700,TRUE,Pay Utility,254727729395 - ROBERT OUKO OSORO,,V29
PG21T9728L,02/07/2021 06:43,02/07/2021 06:43,Pay Bill from 254715939283 - alex nyamai Acc. alex v07,Completed,10100,,10100,TRUE,Pay Utility,254715939283 - alex nyamai,,alex
PG13SBTQLN,01/07/2021 13:52,01/07/2021 13:52,Utility Account to Organization Settlement Account,Completed,,-23500,0,TRUE,Utility Account to Organization Settlement Account,887674 - ANCIENT WELLS LTD 1,,
PG11S92057,01/07/2021 13:00,01/07/2021 13:00,Pay Bill from 254720881746 - LEMMY WANJAU NJIRU Acc. V51,Completed,7000,,23500,TRUE,Pay Utility,254720881746 - LEMMY WANJAU NJIRU,,V51
PG14S8JWRU,01/07/2021 12:50,01/07/2021 12:50,Pay Bill Online from 254725639425 - CHRISPINE OMONDI Acc. V13,Completed,3000,,16500,TRUE,Pay Bill Online,254725639425 - CHRISPINE OMONDI,,V13
PG11S3BHYN,01/07/2021 11:05,01/07/2021 11:05,Pay Bill Online from 254725639425 - CHRISPINE OMONDI Acc. V13,Completed,2400,,13500,TRUE,Pay Bill Online,254725639425 - CHRISPINE OMONDI,,V13
PG13S245MH,01/07/2021 10:40,01/07/2021 10:40,Pay Bill Online from 254725639425 - CHRISPINE OMONDI Acc. V13,Completed,4100,,11100,TRUE,Pay Bill Online,254725639425 - CHRISPINE OMONDI,,V13
PG12RYLCYY,01/07/2021 09:26,01/07/2021 09:26,Pay Bill from 254700904994 - HUSSEIN HASSAN LAMA Acc. v43,Completed,7000,,7000,TRUE,Pay Utility,254700904994 - HUSSEIN HASSAN LAMA,,v43
PG12RYC01S,01/07/2021 09:21,01/07/2021 09:21,Utility Account to Organization Settlement Account,Completed,,-13200,0,TRUE,Utility Account to Organization Settlement Account,887674 - ANCIENT WELLS LTD 1,,
PG18RXYYEQ,01/07/2021 09:13,01/07/2021 09:13,Pay Bill from 254707049818 - LUCKY TSUMA Acc. V19,Completed,6600,,13200,TRUE,Pay Utility,254707049818 - LUCKY TSUMA,,V19
PG19RWCSPF,01/07/2021 08:35,01/07/2021 08:35,Pay Bill from 254720623535 - JOSEPH MUTURI KAMAU Acc. V32,Completed,6600,,6600,TRUE,Pay Utility,254720623535 - JOSEPH MUTURI KAMAU,,V32
