Receipt No.,Completion Time,Initiation Time,Details,Transaction Status,Paid In,Withdrawn,Balance,Balance Confirmed,Reason Type,Other Party Info,Linked Transaction ID,A/C No.
OE68Z5UNB4,06/05/2020 16:04,06/05/2020 16:04,Pay Bill from 254703246217 - AMBROSE ADOCHE MIRASI Acc. D4,Completed,8500,,116000,TRUE,Pay Utility,254703246217 - AMBROSE ADOCHE MIRASI,,D4
OE69Z0LU3P,06/05/2020 13:43,06/05/2020 13:43,Pay Bill from 0799912339 - PETER KAMAU MURIU Acc. C5,Completed,9000,,107500,TRUE,Pay Utility,0799912339 - PETER KAMAU MURIU,,C5
OE61YQUAZL,06/05/2020 08:48,06/05/2020 08:48,Pay Bill from 254711903617 - Grace Njeri Thuo Acc. Njenga 701,Completed,13000,,98500,TRUE,Pay Utility,254711903617 - Grace Njeri Thuo,,Njenga
OE62YNO4FM,06/05/2020 03:36,06/05/2020 03:36,Pay Bill from 254703176849 - ROYAL MUYA Acc. House F2,Completed,6000,,85500,TRUE,Pay Utility,254703176849 - ROYAL MUYA,,House
OE58YA3IL2,05/05/2020 16:43,05/05/2020 16:43,Pay Bill from 254711712240 - LEON WOMWENE BWAYO Acc. 102,Completed,13000,,79500,TRUE,Pay Utility,254711712240 - LEON WOMWENE BWAYO,,102
OE59Y31K8D,05/05/2020 13:38,05/05/2020 13:38,Pay Bill from 254711460336 - DAVID SILLA MUTUKU Acc. samuel kamau 903,Completed,8000,,66500,TRUE,Pay Utility,254711460336 - DAVID SILLA MUTUKU,,samuel
OE51Y04WQP,05/05/2020 12:13,05/05/2020 12:13,Pay Bill from 254701230271 - SHEILA MUYUKA MMASI Acc. 301,Completed,13000,,58500,TRUE,Pay Utility,254701230271 - SHEILA MUYUKA MMASI,,301
OE56XZCGQ4,05/05/2020 11:49,05/05/2020 11:49,Pay Bill from 254700007703 - RITA LESOROGOL Acc. Ritahnashangairm901,Completed,8000,,45500,TRUE,Pay Utility,254700007703 - RITA LESOROGOL,,Ritahnashangairm901
OE49XL1SQF,04/05/2020 19:02,04/05/2020 19:02,Pay Bill from 254700745283 - WINFRED MUTHEU NYAMAI Acc. E5,Completed,8000,,37500,TRUE,Pay Utility,254700745283 - WINFRED MUTHEU NYAMAI,,E5
OE48XGWC28,04/05/2020 17:39,04/05/2020 17:39,Pay Bill from 254710269475 - SAMUEL M KIMANTHI Acc. Nicholas Room302,Completed,13000,,29500,TRUE,Pay Utility,254710269475 - SAMUEL M KIMANTHI,,Nicholas
OE48X9YURU,04/05/2020 14:53,04/05/2020 14:53,Pay Bill Online from 254711877988 - PATRICK KONZI Acc. b4,Completed,8500,,16500,TRUE,Pay Bill Online,254711877988 - PATRICK KONZI,,b4
OE40X63W0Q,04/05/2020 13:06,04/05/2020 13:06,Pay Bill from 254721539716 - OCTAVIAN MWANYALO Acc. C6,Completed,8000,,8000,TRUE,Pay Utility,254721539716 - OCTAVIAN MWANYALO,,C6
OE42WZH8LE,04/05/2020 09:50,04/05/2020 09:50,Utility Account to Organization Settlement Account,Completed,,-156500,0,TRUE,Utility Account to Organization Settlement Account,887075 - ANCIENT WELLS LTD 3,,
OE33WO4M2J,03/05/2020 18:47,03/05/2020 18:47,Pay Bill from 254705445188 - SHEILA KIPKEMBOI Acc. D5,Completed,8500,,156500,TRUE,Pay Utility,254705445188 - SHEILA KIPKEMBOI,,D5
OE34WGTMRS,03/05/2020 15:50,03/05/2020 15:50,Pay Bill from 254723892997 - TERRY MUTHONI WAMAITHA Acc. terry101,Completed,32000,,148000,TRUE,Pay Utility,254723892997 - TERRY MUTHONI WAMAITHA,,terry101
OE30WBZDWW,03/05/2020 13:18,03/05/2020 13:18,Pay Bill from 254727294481 - BENJAMIN MWENDWA Acc. House No. D6- BEN,Completed,8000,,116000,TRUE,Pay Utility,254727294481 - BENJAMIN MWENDWA,,House
OE34WBJ7HS,03/05/2020 13:03,03/05/2020 13:03,Pay Bill from 254724871526 - JOHN KAGUONGO Acc. D2 John Kaguongo ,Completed,8000,,108000,TRUE,Pay Utility,254724871526 - JOHN KAGUONGO,,D2
OE24VXVKOU,02/05/2020 20:30,02/05/2020 20:30,Pay Bill from 254717897455 - VIOLA OCHIENO Acc. E3,Completed,8000,,100000,TRUE,Pay Utility,254717897455 - VIOLA OCHIENO,,E3
OE22VHO4VU,02/05/2020 13:47,02/05/2020 13:47,Pay Bill Online from 254711184244 - KIPROP FESTUS Acc. Festus Kiprop C1p,Completed,8000,,92000,TRUE,Pay Bill Online,254711184244 - KIPROP FESTUS,,Festus
OE12V2DCHW,01/05/2020 20:58,01/05/2020 20:58,Pay Bill Online from 254702172427 - OKINDA OCHOLLAH Acc. Okinda Ochollah G1,Completed,8000,,84000,TRUE,Pay Bill Online,254702172427 - OKINDA OCHOLLAH,,Okinda
OE12V07W9S,01/05/2020 19:39,01/05/2020 19:39,Pay Bill Online from 254795983642 - OBED MOGAKA Acc. F6 OBED ,Completed,8500,,76000,TRUE,Pay Bill Online,254795983642 - OBED MOGAKA,,F6
OE13UW6N89,01/05/2020 18:09,01/05/2020 18:09,Pay Bill from 254724395251 - ZENA ANYANGO ORWAYA Acc. 202,Completed,15000,,67500,TRUE,Pay Utility,254724395251 - ZENA ANYANGO ORWAYA,,202
OE15UOJ8O5,01/05/2020 15:06,01/05/2020 15:06,Pay Bill from 254722395959 - THEOPHILUS MUSYOKA Acc. 601,Completed,15000,,52500,TRUE,Pay Utility,254722395959 - THEOPHILUS MUSYOKA,,601
OE17UO5MIN,01/05/2020 14:56,01/05/2020 14:56,Pay Bill from 254710269475 - SAMUEL M KIMANTHI Acc. Michael KIILU Rm802,Completed,15000,,37500,TRUE,Pay Utility with OD via STK,254710269475 - SAMUEL M KIMANTHI,,Michael
OE13UJOII9,01/05/2020 12:47,01/05/2020 12:47,Pay Bill from 254717465142 - EPHANTUS IRURA Acc. C4 MURIITHI,Completed,2500,,22500,TRUE,Pay Utility,254717465142 - EPHANTUS IRURA,,C4
OE17UEZZ85,01/05/2020 10:28,01/05/2020 10:28,Pay Bill from 254727275562 - ANTONNY OTIENO Acc. E1,Completed,12500,,20000,TRUE,Pay Utility,254727275562 - ANTONNY OTIENO,,E1
ODU6TI6WTW,30/04/2020 10:47,30/04/2020 10:47,Pay Bill from 0741067845 - jullian ellside  lion davids Acc. A2,Completed,7500,,7500,TRUE,Pay Utility,0741067845 - jullian ellside  lion davids,,A2
