Receipt No.,Completion Time,Initiation Time,Details,Transaction Status,Paid In,Withdrawn,Balance,Balance Confirmed,Reason Type,Other Party Info,Linked Transaction ID,A/C No.
PAI8Q9MOOS,18/01/2021 07:33,18/01/2021 07:33,Pay Bill from 254720881746 - LEMMY WANJAU NJIRU Acc. v51,Completed,7500,,14100,TRUE,Pay Utility,254720881746 - LEMMY WANJAU NJIRU,,v51
PAH7Q78Z97,17/01/2021 23:06,17/01/2021 23:06,Pay Bill from 254721510646 - ANTHONY IRUNGU KARIUKI Acc. V41,Completed,6600,,6600,TRUE,Pay Utility,254721510646 - ANTHONY IRUNGU KARIUKI,,V41
PAF4NW6TZE,15/01/2021 22:03,15/01/2021 22:03,Utility Account to Organization Settlement Account,Completed,,-6200,0,TRUE,Utility Account to Organization Settlement Account,887674 - ANCIENT WELLS LTD 1,,
PAF9NVHQTX,15/01/2021 21:41,15/01/2021 21:41,Pay Bill from 254797665088 - INNOCENT WANAMI Acc. V2,Completed,6200,,6200,TRUE,Pay Utility,254797665088 - INNOCENT WANAMI,,V2
PAD6KOKCQY,13/01/2021 09:30,13/01/2021 09:30,Utility Account to Organization Settlement Account,Completed,,-1100,0,TRUE,Utility Account to Organization Settlement Account,887674 - ANCIENT WELLS LTD 1,,
PAC6JHTL9Q,12/01/2021 08:32,12/01/2021 08:32,Pay Bill Online from 254715939283 - alex nyamai Acc. alexv07,Completed,1100,,1100,TRUE,Pay Bill Online,254715939283 - alex nyamai,,alexv07
PAB2JDNEE4,11/01/2021 22:44,11/01/2021 22:44,Utility Account to Organization Settlement Account,Completed,,-27200,0,TRUE,Utility Account to Organization Settlement Account,887674 - ANCIENT WELLS LTD 1,,
PAB5J979E7,11/01/2021 20:28,11/01/2021 20:28,Pay Bill from 254712091662 - BENARD OMONDI ROBY Acc. V16,Completed,6600,,27200,TRUE,Pay Utility,254712091662 - BENARD OMONDI ROBY,,V16
PAB1IX4MOF,11/01/2021 17:00,11/01/2021 17:00,Pay Bill from 254703108159 - JOICE OGOLLA Acc. V50,Completed,6600,,20600,TRUE,Pay Utility,254703108159 - JOICE OGOLLA,,V50
PAB5IWZ4JH,11/01/2021 16:57,11/01/2021 16:57,Pay Bill from 254703108159 - JOICE OGOLLA Acc. V50,Completed,400,,14000,TRUE,Pay Utility,254703108159 - JOICE OGOLLA,,V50
PAB6IEYX9S,11/01/2021 09:36,11/01/2021 09:36,Pay Bill from 254710262457 - PETER VIKATSI Acc. V26 ,Completed,6600,,13600,TRUE,Pay Utility,254710262457 - PETER VIKATSI,,V26
PAB9IEL0KL,11/01/2021 09:26,11/01/2021 09:26,Pay Bill Online from 254720360607 - MARITIM SUSAN CHEBET Acc. V49,Completed,7000,,7000,TRUE,Pay Bill Online,254720360607 - MARITIM SUSAN CHEBET,,V49
PAB8IE5Z3S,11/01/2021 09:15,11/01/2021 09:15,Utility Account to Organization Settlement Account,Completed,,-26100,0,TRUE,Utility Account to Organization Settlement Account,887674 - ANCIENT WELLS LTD 1,,
PAA6I3TH2M,10/01/2021 20:16,10/01/2021 20:16,Pay Bill Online from 254715939283 - alex nyamai Acc. alexv07,Completed,1000,,26100,TRUE,Pay Bill Online,254715939283 - alex nyamai,,alexv07
PAA3HI2RUT,10/01/2021 12:31,10/01/2021 12:31,Pay Bill from 254758070694 - naomi ndinda nzamalu Acc. v28,Completed,6600,,25100,TRUE,Pay Utility,254758070694 - naomi ndinda nzamalu,,v28
PA92H198U2,09/01/2021 20:16,09/01/2021 20:16,Pay Bill from 254715939283 - alex nyamai Acc. alexv07,Completed,4500,,18500,TRUE,Pay Utility,254715939283 - alex nyamai,,alexv07
PA99GUMOBV,09/01/2021 18:31,09/01/2021 18:31,Pay Bill from 254702921564 - DENNIS MAHERO SHIUNDU Acc. Dennis v21,Completed,400,,14000,TRUE,Pay Utility,254702921564 - DENNIS MAHERO SHIUNDU,,Dennis
PA91GSBRG3,09/01/2021 17:51,09/01/2021 17:51,Pay Bill from 0711494312 - CALVIN MAKWAKA AMULIOTO Acc. V08,Completed,7000,,13600,TRUE,Pay Utility,0711494312 - CALVIN MAKWAKA AMULIOTO,,V08
PA92GRYIGQ,09/01/2021 17:45,09/01/2021 17:45,Pay Bill from 254700218502 - GRACE NGURE Acc. V46,Completed,6600,,6600,TRUE,Pay Utility,254700218502 - GRACE NGURE,,V46
PA82FFTJC2,08/01/2021 15:55,08/01/2021 15:55,Utility Account to Organization Settlement Account,Completed,,-6600,0,TRUE,Utility Account to Organization Settlement Account,887674 - ANCIENT WELLS LTD 1,,
PA89FAQPXF,08/01/2021 13:51,08/01/2021 13:51,Pay Bill from 254713388942 - UKONU CHRISTOPHER OBINNA Acc. V22,Completed,6600,,6600,TRUE,Pay Utility,254713388942 - UKONU CHRISTOPHER OBINNA,,V22
PA84EYZTE8,08/01/2021 08:53,08/01/2021 08:53,Utility Account to Organization Settlement Account,Completed,,-32400,0,TRUE,Utility Account to Organization Settlement Account,887674 - ANCIENT WELLS LTD 1,,
PA72ETB02Q,07/01/2021 22:11,07/01/2021 22:11,Pay Bill Online from 254704995854 - james karanja wairimu Acc. V54,Completed,6600,,32400,TRUE,Pay Bill Online,254704995854 - james karanja wairimu,,V54
PA74E2M7SG,07/01/2021 12:35,07/01/2021 12:35,Pay Bill from 254712566336 - Edwin osore songoro Acc. Derrick V58,Completed,600,,25800,TRUE,Pay Utility,254712566336 - Edwin osore songoro,,Derrick
PA77DZY4ZB,07/01/2021 11:28,07/01/2021 11:28,Pay Bill from 254790552440 - ANGEL MAIMA Acc. vk3,Completed,5000,,25200,TRUE,Pay Utility with OD via STK,254790552440 - ANGEL MAIMA,,vk3
PA75DXNG1J,07/01/2021 10:31,07/01/2021 10:31,Pay Bill from 254727457050 - ANDREW SONGORO OSORE Acc. DERRICK  V58,Completed,6600,,20200,TRUE,Pay Utility,254727457050 - ANDREW SONGORO OSORE,,DERRICK
PA75DWQ56X,07/01/2021 10:08,07/01/2021 10:08,Pay Bill from 254705670064 - margaret wahu wachira Acc. v35 ,Completed,6600,,13600,TRUE,Pay Utility,254705670064 - margaret wahu wachira,,v35
PA67DBTWCZ,06/01/2021 18:26,06/01/2021 18:26,Pay Bill from 254717294709 - CAROLINE WAVINYA NDINDA Acc. V15,Completed,7000,,7000,TRUE,Pay Utility,254717294709 - CAROLINE WAVINYA NDINDA,,V15
PA62D5BJYK,06/01/2021 16:19,06/01/2021 16:19,Utility Account to Organization Settlement Account,Completed,,-23200,0,TRUE,Utility Account to Organization Settlement Account,887674 - ANCIENT WELLS LTD 1,,
PA68CVQQH6,06/01/2021 12:35,06/01/2021 12:35,Pay Bill from 254727311076 - ALICE WANJIRU KINUNGI Acc. v51,Completed,10000,,23200,TRUE,Pay Utility,254727311076 - ALICE WANJIRU KINUNGI,,v51
PA66CVMV5U,06/01/2021 12:32,06/01/2021 12:32,Pay Bill from 0797876668 - PATRICK DOVOI AMURAVU Acc. patrick v37,Completed,6600,,13200,TRUE,Pay Utility,0797876668 - PATRICK DOVOI AMURAVU,,patrick
PA60CLW0P0,06/01/2021 08:35,06/01/2021 08:35,Pay Bill from 254720056285 - DAMARIS NDURU Acc. V09,Completed,6600,,6600,TRUE,Pay Utility,254720056285 - DAMARIS NDURU,,V09
PA64CJ0YKY,06/01/2021 06:46,06/01/2021 06:46,Utility Account to Organization Settlement Account,Completed,,-40000,0,TRUE,Utility Account to Organization Settlement Account,887674 - ANCIENT WELLS LTD 1,,
PA60CID890,06/01/2021 05:17,06/01/2021 05:17,Pay Bill from 254722307003 - NIGEL BOMETT Acc. V01,Completed,6600,,40000,TRUE,Pay Utility,254722307003 - NIGEL BOMETT,,V01
PA59CC05XH,05/01/2021 20:22,05/01/2021 20:22,Pay Bill from 254726465584 - JULIANA MUKELI MUTUNGA Acc. v4,Completed,6600,,33400,TRUE,Pay Utility,254726465584 - JULIANA MUKELI MUTUNGA,,v4
PA50C61VB4,05/01/2021 18:52,05/01/2021 18:52,Pay Bill from 254758951969 - WILKISTER IRAKO HARAMBEE Acc. 37847739,Completed,7000,,26800,TRUE,Pay Utility,254758951969 - WILKISTER IRAKO HARAMBEE,,37847739
PA58C5J322,05/01/2021 18:44,05/01/2021 18:44,Pay Bill from 254701086112 - CAROLYNE KOKI MULWA Acc. V30,Completed,6600,,19800,TRUE,Pay Utility,254701086112 - CAROLYNE KOKI MULWA,,V30
PA55BZEVB3,05/01/2021 16:53,05/01/2021 16:53,Pay Bill from 0717042461 - Sharon Nyangasi Shivachi Acc. V55,Completed,6600,,13200,TRUE,Pay Utility,0717042461 - Sharon Nyangasi Shivachi,,V55
PA55BQCXYJ,05/01/2021 13:29,05/01/2021 13:29,Pay Bill from 254708915764 - GEORGE WAHOME Acc. V18,Completed,6600,,6600,TRUE,Pay Utility,254708915764 - GEORGE WAHOME,,V18
PA55BA7V9H,05/01/2021 05:36,05/01/2021 05:36,Utility Account to Organization Settlement Account,Completed,,-26800,0,TRUE,Utility Account to Organization Settlement Account,887674 - ANCIENT WELLS LTD 1,,
PA47B72GU1,04/01/2021 21:35,04/01/2021 21:35,Pay Bill from 254723815832 - SEMEKIA ONDIALA Acc. v38,Completed,6600,,26800,TRUE,Pay Utility,254723815832 - SEMEKIA ONDIALA,,v38
PA43B1J417,04/01/2021 19:47,04/01/2021 19:47,Pay Bill from 254722578070 - SAMUEL MACHARIA Acc. V42,Completed,7000,,20200,TRUE,Pay Utility,254722578070 - SAMUEL MACHARIA,,V42
PA40ATT5KC,04/01/2021 17:45,04/01/2021 17:45,Pay Bill from 254727729395 - ROBERT OUKO OSORO Acc. V29,Completed,6600,,13200,TRUE,Pay Utility,254727729395 - ROBERT OUKO OSORO,,V29
PA45ALTBNV,04/01/2021 15:00,04/01/2021 15:00,Pay Bill from 0714576438 - OCHOLA HESBON OCHIENG Acc. V06,Completed,6600,,6600,TRUE,Pay Utility,0714576438 - OCHOLA HESBON OCHIENG,,V06
PA42A4SDNY,04/01/2021 08:32,04/01/2021 08:32,Utility Account to Organization Settlement Account,Completed,,-13200,0,TRUE,Utility Account to Organization Settlement Account,887674 - ANCIENT WELLS LTD 1,,
PA3693FNO2,03/01/2021 10:02,03/01/2021 10:02,Pay Bill Online from 254725639425 - CHRISPINE OMONDI Acc. V13,Completed,6600,,13200,TRUE,Pay Bill Online,254725639425 - CHRISPINE OMONDI,,V13
PA268ERD9K,02/01/2021 16:34,02/01/2021 16:34,Pay Bill from 254722160984 - PENINNAH MUNYWOKI Acc. Anita V27,Completed,6600,,6600,TRUE,Pay Utility,254722160984 - PENINNAH MUNYWOKI,,Anita
PA187BCRJ2,01/01/2021 16:41,01/01/2021 16:41,Utility Account to Organization Settlement Account,Completed,,-6600,0,TRUE,Utility Account to Organization Settlement Account,887674 - ANCIENT WELLS LTD 1,,
PA1275W562,01/01/2021 14:32,01/01/2021 14:32,Pay Bill from 254718818610 - HANNAH NALIAKA Acc. V23,Completed,6600,,6600,TRUE,Pay Utility,254718818610 - HANNAH NALIAKA,,V23
PA136SZ3YR,01/01/2021 09:23,01/01/2021 09:23,Utility Account to Organization Settlement Account,Completed,,-13200,0,TRUE,Utility Account to Organization Settlement Account,887674 - ANCIENT WELLS LTD 1,,
