Receipt No.,Completion Time,Initiation Time,Details,Transaction Status,Paid In,Withdrawn,Balance,Balance Confirmed,Reason Type,Other Party Info,Linked Transaction ID,A/C No.
SAP31Q5ZSX,25/01/2024 11:20,25/01/2024 11:20,Utility Account to Organization Settlement Account,Completed,,-10000,67500,TRUE,Utility Account to Organization Settlement Account,887264 - ANCIENT WELLS LTD 2,,
SAO0YEV4IY,24/01/2024 17:04,24/01/2024 17:04,Pay Bill from 254720***934 - TERRY *** Acc. z20 ,Completed,16000,,77500,TRUE,Pay Utility,254720***934 - TERRY ***,,z20
SAO9XUX9EZ,24/01/2024 14:08,24/01/2024 14:08,Business Pay Bill by 998094 - COOP TO PAYBILL Acc. Z11 via API,Completed,16000,,61500,TRUE,Business Pay Bill via API,998094 - COOP TO PAYBILL,,Z11
SAO6X43I6C,24/01/2024 10:11,24/01/2024 10:11,Utility Account to Organization Settlement Account,Completed,,-10000,45500,TRUE,Utility Account to Organization Settlement Account,887264 - ANCIENT WELLS LTD 2,,
SAO9WNS8YJ,24/01/2024 07:15,24/01/2024 07:15,Utility Account to Organization Settlement Account,Completed,,-10000,55500,TRUE,Utility Account to Organization Settlement Account,887264 - ANCIENT WELLS LTD 2,,
SAN7VT7Y29,23/01/2024 19:56,23/01/2024 19:56,Utility Account to Organization Settlement Account,Completed,,-30000,65500,TRUE,Utility Account to Organization Settlement Account,887264 - ANCIENT WELLS LTD 2,,
SAN9TGTRZN,23/01/2024 08:34,23/01/2024 08:34,Pay Bill from 254728***930 - DOREEN *** Acc. Z10,Completed,4000,,95500,TRUE,Pay Utility with OD via STK,254728***930 - DOREEN ***,,Z10
SAM5RW610T,22/01/2024 18:41,22/01/2024 18:41,Pay Bill from 254721***492 - MICHAEL *** Acc. Uu4,Completed,5500,,91500,TRUE,Pay Utility,254721***492 - MICHAEL ***,,Uu4
SAL9PCSGUN,21/01/2024 22:09,21/01/2024 22:09,Utility Account to Organization Settlement Account,Completed,,-15000,86000,TRUE,Utility Account to Organization Settlement Account,887264 - ANCIENT WELLS LTD 2,,
SAL6NZO66W,21/01/2024 15:57,21/01/2024 15:57,Pay Bill Online from 254720***854 - KAMILA *** Acc. 102,Completed,86000,,101000,TRUE,Pay Bill Online,254720***854 - KAMILA ***,,102
SAK5M88BNX,20/01/2024 21:47,20/01/2024 21:47,Pay Bill Online from 254724***830 - Evan *** Acc. House no. 19,Completed,15000,,15000,TRUE,Pay Bill Online,254724***830 - Evan ***,,House
SAJ1FT0RIH,19/01/2024 05:18,19/01/2024 05:18,Utility Account to Organization Settlement Account,Completed,,-10000,0,TRUE,Utility Account to Organization Settlement Account,887264 - ANCIENT WELLS LTD 2,,
SAJ6FQZI48,19/01/2024 01:10,19/01/2024 01:10,Pay Bill from 254729***163 - BEATRICE *** Acc. z13,Completed,5000,,10000,TRUE,Pay Utility with OD via STK,254729***163 - BEATRICE ***,,z13
SAI3ESQPPZ,18/01/2024 18:58,18/01/2024 18:58,Pay Bill from 254728***930 - DOREEN *** Acc. Z10,Completed,5000,,5000,TRUE,Pay Utility,254728***930 - DOREEN ***,,Z10
SAI7DCXVB7,18/01/2024 11:56,18/01/2024 11:56,Utility Account to Organization Settlement Account,Completed,,-6000,0,TRUE,Utility Account to Organization Settlement Account,887264 - ANCIENT WELLS LTD 2,,
SAH2C6DF2Y,17/01/2024 21:36,17/01/2024 21:36,Pay Bill from 254728***985 - VIRGINIAH *** Acc. B7,Completed,6000,,6000,TRUE,Pay Utility,254728***985 - VIRGINIAH ***,,B7
SAH8AVRR5I,17/01/2024 16:29,17/01/2024 16:29,Utility Account to Organization Settlement Account,Completed,,-16000,0,TRUE,Utility Account to Organization Settlement Account,887264 - ANCIENT WELLS LTD 2,,
SAH0AAW6L6,17/01/2024 13:24,17/01/2024 13:24,Pay Bill Online from 254723***941 - ELIZABETH *** Acc. house z12,Completed,16000,,16000,TRUE,Pay Bill Online,254723***941 - ELIZABETH ***,,house
SAH49M63R2,17/01/2024 09:36,17/01/2024 09:36,Utility Account to Organization Settlement Account,Completed,,-16000,0,TRUE,Utility Account to Organization Settlement Account,887264 - ANCIENT WELLS LTD 2,,
SAG66IYUEE,16/01/2024 11:03,16/01/2024 11:03,Pay Bill from 079896***287 - Mary *** Acc. Z14,Completed,16000,,16000,TRUE,Pay Utility,079896***287 - Mary ***,,Z14
SAF93V481R,15/01/2024 14:51,15/01/2024 14:51,Utility Account to Organization Settlement Account,Completed,,-17500,0,TRUE,Utility Account to Organization Settlement Account,887264 - ANCIENT WELLS LTD 2,,
SAF43ALBEA,15/01/2024 11:54,15/01/2024 11:54,Pay Bill Online from 254796***225 - Martin *** Acc. z8,Completed,15500,,17500,TRUE,Pay Utility with OD Online,254796***225 - Martin ***,,z8
SAF939SWJN,15/01/2024 11:47,15/01/2024 11:47,Pay Bill Online from 254715***633 - FIONA *** Acc. Z16,Completed,2000,,2000,TRUE,Pay Bill Online,254715***633 - FIONA ***,,Z16
SAF639K216,15/01/2024 11:45,15/01/2024 11:45,Utility Account to Organization Settlement Account,Completed,,-335650,0,TRUE,Utility Account to Organization Settlement Account,887264 - ANCIENT WELLS LTD 2,,
SAE3215ITN,14/01/2024 21:22,14/01/2024 21:22,Pay Bill from 254724***611 - PAULINE *** Acc. D13,Completed,6000,,335650,TRUE,Pay Utility,254724***611 - PAULINE ***,,D13
SAE2ZTO1B2,14/01/2024 16:12,14/01/2024 16:12,Utility Account to Organization Settlement Account,Completed,,-37000,329650,TRUE,Utility Account to Organization Settlement Account,887264 - ANCIENT WELLS LTD 2,,
SAE7ZK6CI1,14/01/2024 14:49,14/01/2024 14:49,Pay Bill from 254728***446 - GRACE *** Acc. ancient well ,Completed,40000,,366650,TRUE,Pay Utility with OD via STK,254728***446 - GRACE ***,,ancient
SAD6WVPGSE,13/01/2024 17:22,13/01/2024 17:22,Pay Bill from 254720***522 - DANIEL *** Acc. Z15 ,Completed,16000,,326650,TRUE,Pay Utility,254720***522 - DANIEL ***,,Z15
SAD4V9XC0Y,13/01/2024 08:54,13/01/2024 08:54,Pay Bill Online from 254722***369 - FAIZ *** Acc. Nairobi west 12,Completed,70000,,310650,TRUE,Pay Bill Online,254722***369 - FAIZ ***,,Nairobi
SAC2SR36US,12/01/2024 13:10,12/01/2024 13:10,Pay Bill from 254728***930 - DOREEN *** Acc. Z10,Completed,10000,,240650,TRUE,Pay Utility,254728***930 - DOREEN ***,,Z10
SAC7RNW8BB,12/01/2024 05:36,12/01/2024 05:36,Pay Bill Online from 254715***633 - FIONA *** Acc. Z16,Completed,2000,,230650,TRUE,Pay Bill Online,254715***633 - FIONA ***,,Z16
SAB7R9HAWR,11/01/2024 21:10,11/01/2024 21:10,Business Pay Bill by 998094 - COOP TO PAYBILL Acc. 2 via API,Completed,20000,,228650,TRUE,Business Pay Bill via API,998094 - COOP TO PAYBILL,,2
SAB4QK8GG8,11/01/2024 18:31,11/01/2024 18:31,Pay Bill from 074552***615 - COLLINS *** Acc. U6,Completed,5500,,208650,TRUE,Pay Utility,074552***615 - COLLINS ***,,U6
SAB7PEGYH1,11/01/2024 12:50,11/01/2024 12:50,Utility Account to Organization Settlement Account,Completed,,-110000,203150,TRUE,Utility Account to Organization Settlement Account,887264 - ANCIENT WELLS LTD 2,,
SAA9NHOU4L,10/01/2024 19:28,10/01/2024 19:28,Pay Bill from 011407***813 - David *** Acc. D8,Completed,5500,,313150,TRUE,Pay Utility,011407***813 - David ***,,D8
SAA3LAIZSB,10/01/2024 08:56,10/01/2024 08:56,Pay Bill from 254729***163 - BEATRICE *** Acc. z13,Completed,10000,,307650,TRUE,Pay Utility with OD via STK,254729***163 - BEATRICE ***,,z13
SA93KFLOUN,09/01/2024 20:43,09/01/2024 20:43,Pay Bill from 254726***866 - JOSEPH *** Acc. Shop 1 saika,Completed,7500,,297650,TRUE,Pay Utility with OD via STK,254726***866 - JOSEPH ***,,Shop
SA90IPPDFE,09/01/2024 13:55,09/01/2024 13:55,Business Pay Bill by 998094 - COOP TO PAYBILL Acc. hse no.3 via API,Completed,12000,,290150,TRUE,Business Pay Bill via API,998094 - COOP TO PAYBILL,,hse
SA92HPRZP8,09/01/2024 06:52,09/01/2024 06:52,Pay Bill Online from 254711***176 - ANTONY *** Acc. Z17,Completed,16000,,278150,TRUE,Pay Bill Online,254711***176 - ANTONY ***,,Z17
SA81HGM10P,08/01/2024 22:35,08/01/2024 22:35,Pay Bill from 254720***537 - MARY *** Acc. 6,Completed,16000,,262150,TRUE,Pay Utility,254720***537 - MARY ***,,6
SA80H8ZEUQ,08/01/2024 21:14,08/01/2024 21:14,Pay Bill Online from 254725***942 - SAMSON *** Acc. Z4,Completed,15000,,246150,TRUE,Pay Bill Online,254725***942 - SAMSON ***,,Z4
SA77COK4ZH,07/01/2024 16:10,07/01/2024 16:10,Pay Bill Online from 254715***633 - FIONA *** Acc. Z16,Completed,12000,,231150,TRUE,Pay Bill Online,254715***633 - FIONA ***,,Z16
SA79C85RC5,07/01/2024 13:43,07/01/2024 13:43,Pay Bill from 254726***715 - ELIZAPHAN *** Acc. Z2,Completed,16000,,219150,TRUE,Pay Utility with OD via STK,254726***715 - ELIZAPHAN ***,,Z2
SA64B3BUTU,06/01/2024 23:43,06/01/2024 23:43,Pay Bill Online from 254718***869 - MARK *** Acc. A3,Completed,7000,,203150,TRUE,Pay Bill Online,254718***869 - MARK ***,,A3
SA66A4ELBQ,06/01/2024 18:45,06/01/2024 18:45,Pay Bill from 074326***203 - Patrick *** Acc. u1,Completed,5000,,196150,TRUE,Pay Utility,074326***203 - Patrick ***,,u1
SA689XS7GU,06/01/2024 18:02,06/01/2024 18:02,Pay Bill Online from 254712***161 - ANGELA *** Acc. A202,Completed,90000,,191150,TRUE,Pay Bill Online,254712***161 - ANGELA ***,,A202
SA5570BLLF,05/01/2024 19:27,05/01/2024 19:27,Pay Bill from 074080***913 - Odhiambo *** Acc. D11,Completed,2000,,101150,TRUE,Pay Utility,074080***913 - Odhiambo ***,,D11
SA575UA6GF,05/01/2024 14:12,05/01/2024 14:12,Pay Bill Online from 254723***653 - CHARD *** Acc. House No 7,Completed,16000,,99150,TRUE,Pay Bill Online,254723***653 - CHARD ***,,House
SA595CXL0D,05/01/2024 11:41,05/01/2024 11:41,Utility Account to Organization Settlement Account,Completed,,-30000,83150,TRUE,Utility Account to Organization Settlement Account,887264 - ANCIENT WELLS LTD 2,,
SA554U06H3,05/01/2024 08:43,05/01/2024 08:43,Pay Bill from 011369***856 - Fredrick *** Acc. EPZ MH ,Completed,35000,,113150,TRUE,Pay Utility,011369***856 - Fredrick ***,,EPZ
SA584KX8DK,05/01/2024 06:18,05/01/2024 06:18,Pay Bill Online from 254745***921 - LAUREEN *** Acc. B3,Completed,6000,,78150,TRUE,Pay Bill Online,254745***921 - LAUREEN ***,,B3
SA474BLITT,04/01/2024 22:16,04/01/2024 22:16,Pay Bill from 254707***400 - SUSAN *** Acc. D7,Completed,5500,,72150,TRUE,Pay Utility,254707***400 - SUSAN ***,,D7
SA433MUMVZ,04/01/2024 19:11,04/01/2024 19:11,Pay Bill from 254723***311 - VERONICAH *** Acc. house no 9,Completed,16000,,66650,TRUE,Pay Utility,254723***311 - VERONICAH ***,,house
SA412TRXFP,04/01/2024 15:36,04/01/2024 15:36,Pay Bill Online from 254723***186 - BRIAN *** Acc. 18,Completed,16000,,50650,TRUE,Pay Bill Online,254723***186 - BRIAN ***,,18
SA25WPPTQX,02/01/2024 21:09,02/01/2024 21:09,Pay Bill from 254707***808 - AGNES *** Acc. D11,Completed,1500,,34650,TRUE,Pay Utility,254707***808 - AGNES ***,,D11
SA27UXE3B1,02/01/2024 12:35,02/01/2024 12:35,Pay Bill from 254722***500 - SHARON *** Acc. z1,Completed,12000,,33150,TRUE,Pay Utility,254722***500 - SHARON ***,,z1
SA12TDCHDI,01/01/2024 19:28,01/01/2024 19:28,Pay Bill from 254705***845 - DENNIS *** Acc. n2,Completed,5650,,21150,TRUE,Pay Utility,254705***845 - DENNIS ***,,n2
SA19SZ2TZP,01/01/2024 17:32,01/01/2024 17:32,Pay Bill from 254707***808 - AGNES *** Acc. D10,Completed,9500,,15500,TRUE,Pay Utility,254707***808 - AGNES ***,,D10
