Receipt No.,Completion Time,Initiation Time,Details,Transaction Status,Paid In,Withdrawn,Balance,Balance Confirmed,Reason Type,Other Party Info,Linked Transaction ID,A/C No.
PC84G82T86,08/03/2021 11:07,08/03/2021 11:07,Utility Account to Organization Settlement Account,Completed,,-24500,0,TRUE,Utility Account to Organization Settlement Account,887075 - ANCIENT WELLS LTD 3,,
PC72FWTATM,07/03/2021 23:33,07/03/2021 23:33,Pay Bill Online from 254711184244 - KIPROP FESTUS Acc. Festus Kiprop C1p,Completed,8000,,24500,TRUE,Pay Bill Online,254711184244 - KIPROP FESTUS,,Festus
PC72FA12S6,07/03/2021 15:21,07/03/2021 15:21,Pay Bill from 0799912339 - PETER KAMAU MURIU Acc. C5,Completed,8500,,16500,TRUE,Pay Utility,0799912339 - PETER KAMAU MURIU,,C5
PC73F74YRB,07/03/2021 14:18,07/03/2021 14:18,Pay Bill from 254701339690 - ASHA BAGANWA NDAHIRU Acc. F3,Completed,8000,,8000,TRUE,Pay Utility,254701339690 - ASHA BAGANWA NDAHIRU,,F3
PC61DDXFTD,06/03/2021 06:54,06/03/2021 06:54,Utility Account to Organization Settlement Account,Completed,,-25000,0,TRUE,Utility Account to Organization Settlement Account,887075 - ANCIENT WELLS LTD 3,,
PC56D9CNQS,05/03/2021 21:42,05/03/2021 21:42,Pay Bill from 254721539716 - OCTAVIAN MWANYALO Acc. C6,Completed,8000,,25000,TRUE,Pay Utility,254721539716 - OCTAVIAN MWANYALO,,C6
PC52D8VOWO,05/03/2021 21:31,05/03/2021 21:31,Pay Bill from 254711877988 - PATRICK KONZI Acc. b4,Completed,8500,,17000,TRUE,Pay Utility,254711877988 - PATRICK KONZI,,b4
PC58D72HTA,05/03/2021 20:53,05/03/2021 20:53,Pay Bill from 254725085735 - MATTHEW MULI MUTUKU Acc. mercymuli b6p,Completed,8500,,8500,TRUE,Pay Utility,254725085735 - MATTHEW MULI MUTUKU,,mercymuli
PC55D6RV8P,05/03/2021 20:47,05/03/2021 20:47,Utility Account to Organization Settlement Account,Completed,,-13000,0,TRUE,Utility Account to Organization Settlement Account,887075 - ANCIENT WELLS LTD 3,,
PC51CZWUYN,05/03/2021 19:08,05/03/2021 19:08,Pay Bill Online from 254703176849 - ROYAL MUYA Acc. F2,Completed,5000,,13000,TRUE,Pay Utility with OD Online,254703176849 - ROYAL MUYA,,F2
PC53CEMJFV,05/03/2021 12:23,05/03/2021 12:23,Pay Bill from 254701330588 - EDGER WAFULA BUTALI Acc. D1,Completed,8000,,8000,TRUE,Pay Utility,254701330588 - EDGER WAFULA BUTALI,,D1
PC54C7JAN8,05/03/2021 09:42,05/03/2021 09:42,Utility Account to Organization Settlement Account,Completed,,-8500,0,TRUE,Utility Account to Organization Settlement Account,887075 - ANCIENT WELLS LTD 3,,
PC49C02O15,04/03/2021 23:45,04/03/2021 23:45,Pay Bill from 254717465142 - EPHANTUS IRURA Acc. C4 MURIITHI,Completed,8500,,8500,TRUE,Pay Utility,254717465142 - EPHANTUS IRURA,,C4
PC43BQPEY3,04/03/2021 19:37,04/03/2021 19:37,Utility Account to Organization Settlement Account,Completed,,-17000,0,TRUE,Utility Account to Organization Settlement Account,887075 - ANCIENT WELLS LTD 3,,
PC44AVPAUS,04/03/2021 09:15,04/03/2021 09:15,Pay Bill from 254728664261 - LEVIN INGATI NYONJE Acc. B5,Completed,8500,,17000,TRUE,Pay Utility,254728664261 - LEVIN INGATI NYONJE,,B5
PC35ALUULX,03/03/2021 21:14,03/03/2021 21:14,Pay Bill from 254703246217 - AMBROSE ADOCHE MIRASI Acc. D4,Completed,8500,,8500,TRUE,Pay Utility,254703246217 - AMBROSE ADOCHE MIRASI,,D4
PC349V36H8,03/03/2021 13:24,03/03/2021 13:24,Utility Account to Organization Settlement Account,Completed,,-13500,0,TRUE,Utility Account to Organization Settlement Account,887075 - ANCIENT WELLS LTD 3,,
PC268WX2T2,02/03/2021 17:58,02/03/2021 17:58,Pay Bill from 254724871526 - JOHN KAGUONGO Acc. D5 John Kaguongo ,Completed,8500,,13500,TRUE,Pay Utility,254724871526 - JOHN KAGUONGO,,D5
PC288VHTE4,02/03/2021 17:33,02/03/2021 17:33,Pay Bill Online from 254715020357 - ELIZABETH NJERI WARARI Acc. C2,Completed,5000,,5000,TRUE,Pay Bill Online,254715020357 - ELIZABETH NJERI WARARI,,C2
PC278N0Z65,02/03/2021 14:33,02/03/2021 14:33,Utility Account to Organization Settlement Account,Completed,,-16500,0,TRUE,Utility Account to Organization Settlement Account,887075 - ANCIENT WELLS LTD 3,,
PC117N2GVH,01/03/2021 18:14,01/03/2021 18:14,Pay Bill from 254715144865 - CAROL JULIET MUGOYA Acc. E2 CAROL JULIET ,Completed,8000,,16500,TRUE,Pay Utility,254715144865 - CAROL JULIET MUGOYA,,E2
PC137MI1PZ,01/03/2021 18:04,01/03/2021 18:04,Pay Bill Online from 254795983642 - OBED MOGAKA Acc. F6 OBED ,Completed,8500,,8500,TRUE,Pay Bill Online,254795983642 - OBED MOGAKA,,F6
PC197DJ4E7,01/03/2021 15:04,01/03/2021 15:04,Utility Account to Organization Settlement Account,Completed,,-7500,0,TRUE,Utility Account to Organization Settlement Account,887075 - ANCIENT WELLS LTD 3,,
