Receipt No.,Completion Time,Initiation Time,Details,Transaction Status,Paid In,Withdrawn,Balance,Balance Confirmed,Reason Type,Other Party Info,Linked Transaction ID,A/C No.
SC96H2VRRM,09/03/2024 10:59,09/03/2024 10:59,Pay Bill from 254729***880 - Eunice *** Acc. V33,Completed,7000,,7000,TRUE,Pay Utility,254729***880 - Eunice ***,,V33
SC88EW77DA,08/03/2024 18:08,08/03/2024 18:08,Utility Account to Organization Settlement Account,Completed,,-14000,0,TRUE,Utility Account to Organization Settlement Account,887674 - ANCIENT WELLS LTD 1,,
SC83D3W7FD,08/03/2024 09:51,08/03/2024 09:51,Pay Bill Online from 254720***303 - PAUL *** Acc. V13,Completed,7000,,14000,TRUE,Pay Utility with OD Online,254720***303 - PAUL ***,,V13
SC88D1NEUC,08/03/2024 09:31,08/03/2024 09:31,Pay Bill from 254717***430 - ALFRED *** Acc. V11,Completed,7000,,7000,TRUE,Pay Utility,254717***430 - ALFRED ***,,V11
SC80CUQ9PI,08/03/2024 08:28,08/03/2024 08:28,Utility Account to Organization Settlement Account,Completed,,-1000,0,TRUE,Utility Account to Organization Settlement Account,887674 - ANCIENT WELLS LTD 1,,
SC80CLYS7I,08/03/2024 06:45,08/03/2024 06:45,Pay Bill from 254717***709 - CAROLINE *** Acc. v15,Completed,1000,,1000,TRUE,Pay Utility,254717***709 - CAROLINE ***,,v15
SC79B0D92J,07/03/2024 17:36,07/03/2024 17:36,Utility Account to Organization Settlement Account,Completed,,-7000,0,TRUE,Utility Account to Organization Settlement Account,887674 - ANCIENT WELLS LTD 1,,
SC789WJUVC,07/03/2024 12:20,07/03/2024 12:20,Pay Bill Online from 254791***803 - JOHN *** Acc. v14,Completed,7000,,7000,TRUE,Pay Bill Online,254791***803 - JOHN ***,,v14
SC739OIYOJ,07/03/2024 11:13,07/03/2024 11:13,Utility Account to Organization Settlement Account,Completed,,-6600,0,TRUE,Utility Account to Organization Settlement Account,887674 - ANCIENT WELLS LTD 1,,
SC729855JQ,07/03/2024 08:50,07/03/2024 08:50,Pay Bill Online from 254720***285 - DAMARIS *** Acc. V18,Completed,6600,,6600,TRUE,Pay Bill Online,254720***285 - DAMARIS ***,,V18
SC708XR9MQ,07/03/2024 06:57,07/03/2024 06:57,Utility Account to Organization Settlement Account,Completed,,-14400,0,TRUE,Utility Account to Organization Settlement Account,887674 - ANCIENT WELLS LTD 1,,
SC688N089A,06/03/2024 22:52,06/03/2024 22:52,Pay Bill from 072938***149 - SYLVIA *** Acc. v30,Completed,7000,,14400,TRUE,Pay Utility,072938***149 - SYLVIA ***,,v30
SC628MU9PS,06/03/2024 22:50,06/03/2024 22:50,Pay Bill from 254712***662 - BENARD *** Acc. V16,Completed,800,,7400,TRUE,Pay Utility,254712***662 - BENARD ***,,V16
SC608MP12C,06/03/2024 22:48,06/03/2024 22:48,Pay Bill from 254712***662 - BENARD *** Acc. V16,Completed,6600,,6600,TRUE,Pay Utility,254712***662 - BENARD ***,,V16
SC628KE5RI,06/03/2024 22:18,06/03/2024 22:18,Utility Account to Organization Settlement Account,Completed,,-14000,0,TRUE,Utility Account to Organization Settlement Account,887674 - ANCIENT WELLS LTD 1,,
SC698BVVEJ,06/03/2024 21:06,06/03/2024 21:06,Pay Bill from 254708***289 - BERYLE *** Acc. v02,Completed,7000,,14000,TRUE,Pay Utility,254708***289 - BERYLE ***,,v02
SC64718B16,06/03/2024 16:35,06/03/2024 16:35,Pay Bill from 254741***773 - LENA *** Acc. V54,Completed,7000,,7000,TRUE,Pay Utility,254741***773 - LENA ***,,V54
SC62714UFK,06/03/2024 16:34,06/03/2024 16:34,Utility Account to Organization Settlement Account,Completed,,-15600,0,TRUE,Utility Account to Organization Settlement Account,887674 - ANCIENT WELLS LTD 1,,
SC696KYASB,06/03/2024 14:22,06/03/2024 14:22,Pay Bill from 254705***032 - NAOMI *** Acc. v46,Completed,6600,,15600,TRUE,Pay Utility,254705***032 - NAOMI ***,,v46
SC615PIW3X,06/03/2024 10:11,06/03/2024 10:11,Pay Bill from 254720***700 - EUNICE *** Acc. V26,Completed,2000,,9000,TRUE,Pay Utility,254720***700 - EUNICE ***,,V26
SC605AOW4A,06/03/2024 07:56,06/03/2024 07:56,Business Pay Bill by 3033815 - LOOP B2C. Acc. V55 via API,Completed,7000,,7000,TRUE,Business Pay Bill via API,3033815 - LOOP B2C.,,V55 via API
SC6058UF20,06/03/2024 07:36,06/03/2024 07:36,Utility Account to Organization Settlement Account,Completed,,-14000,0,TRUE,Utility Account to Organization Settlement Account,887674 - ANCIENT WELLS LTD 1,,
SC553XM0VV,05/03/2024 19:01,05/03/2024 19:01,Pay Bill from 072729***129 - AISHA *** Acc. V09,Completed,7000,,14000,TRUE,Pay Utility,072729***129 - AISHA ***,,V09
SC533X1P9R,05/03/2024 18:58,05/03/2024 18:58,Pay Bill from 254706***075 - HARON *** Acc. V 38,Completed,7000,,7000,TRUE,Pay Utility,254706***075 - HARON ***,,V 38
SC582QTFSI,05/03/2024 14:01,05/03/2024 14:01,Utility Account to Organization Settlement Account,Completed,,-14000,0,TRUE,Utility Account to Organization Settlement Account,887674 - ANCIENT WELLS LTD 1,,
SC592BLBNV,05/03/2024 12:04,05/03/2024 12:04,Pay Bill from 071474***222 - WILSON *** Acc. v25,Completed,7000,,14000,TRUE,Pay Utility,071474***222 - WILSON ***,,v25
SC551VAP4J,05/03/2024 09:54,05/03/2024 09:54,Pay Bill from 254706***262 - cendric *** Acc. V12,Completed,7000,,7000,TRUE,Pay Utility,254706***262 - cendric ***,,V12
SC501DNRLU,05/03/2024 07:03,05/03/2024 07:03,Utility Account to Organization Settlement Account,Completed,,-14000,0,TRUE,Utility Account to Organization Settlement Account,887674 - ANCIENT WELLS LTD 1,,
SC48ZY70QQ,04/03/2024 21:39,04/03/2024 21:39,Pay Bill from 254727***371 - PETER *** Acc. V51,Completed,7000,,14000,TRUE,Pay Utility,254727***371 - PETER ***,,V51
SC48YSO61A,04/03/2024 17:40,04/03/2024 17:40,Pay Bill from 254741***886 - TERESIA *** Acc. V50,Completed,7000,,7000,TRUE,Pay Utility,254741***886 - TERESIA ***,,V50
SC40Y117AM,04/03/2024 14:14,04/03/2024 14:14,Utility Account to Organization Settlement Account,Completed,,-51200,0,TRUE,Utility Account to Organization Settlement Account,887674 - ANCIENT WELLS LTD 1,,
SC49XXLLCJ,04/03/2024 13:49,04/03/2024 13:49,Pay Bill from 254715***540 - HILLARY *** Acc. v19,Completed,7500,,51200,TRUE,Pay Utility,254715***540 - HILLARY ***,,v19
SC40XB8BLG,04/03/2024 10:58,04/03/2024 10:58,Pay Bill from 254726***584 - JULIANA *** Acc. v4,Completed,6600,,43700,TRUE,Pay Utility,254726***584 - JULIANA ***,,v4
SC48X7HLVY,04/03/2024 10:29,04/03/2024 10:29,Pay Bill from 079674***765 - VERONICA *** Acc. V43,Completed,7000,,37100,TRUE,Pay Utility,079674***765 - VERONICA ***,,V43
SC36TH9KII,03/03/2024 09:33,03/03/2024 09:33,Pay Bill from 071420***896 - JANET *** Acc. vk4,Completed,3500,,30100,TRUE,Pay Utility,071420***896 - JANET ***,,vk4
SC30TBJT34,03/03/2024 08:36,03/03/2024 08:36,Pay Bill from 079959***046 - Richard *** Acc. VK5,Completed,2500,,26600,TRUE,Pay Utility,079959***046 - Richard ***,,VK5
SC21SLX8KB,02/03/2024 21:29,02/03/2024 21:29,Pay Bill from 254718***610 - HANNAH *** Acc. V23,Completed,6600,,24100,TRUE,Pay Utility,254718***610 - HANNAH ***,,V23
SC25QSPRR7,02/03/2024 14:46,02/03/2024 14:46,Pay Bill from 254713***431 - MAULID *** Acc. V3,Completed,17500,,17500,TRUE,Pay Utility,254713***431 - MAULID ***,,V3
SC27PFEXFF,02/03/2024 08:10,02/03/2024 08:10,Utility Account to Organization Settlement Account,Completed,,-13600,0,TRUE,Utility Account to Organization Settlement Account,887674 - ANCIENT WELLS LTD 1,,
SC18OTQJI2,01/03/2024 21:45,01/03/2024 21:45,Business Pay Bill by 3033815 - LOOP B2C. Acc. V40 via API,Completed,6600,,13600,TRUE,Business Pay Bill via API,3033815 - LOOP B2C.,,V40 via API
SC17O0HWRR,01/03/2024 18:59,01/03/2024 18:59,Pay Bill Online from 070848***946 - Samson *** Acc. V20,Completed,7000,,7000,TRUE,Pay Bill Online,070848***946 - Samson ***,,V20
SC10M1UIX6,01/03/2024 10:33,01/03/2024 10:33,Utility Account to Organization Settlement Account,Completed,,-32500,0,TRUE,Utility Account to Organization Settlement Account,887674 - ANCIENT WELLS LTD 1,,
SC12LMSVGO,01/03/2024 08:24,01/03/2024 08:24,Pay Bill from 070707***137 - samuel *** Acc. V57,Completed,7000,,32500,TRUE,Pay Utility,070707***137 - samuel ***,,V57
SC12LL06XQ,01/03/2024 08:06,01/03/2024 08:06,Pay Bill from 254722***070 - SAMUEL *** Acc. v42,Completed,7000,,25500,TRUE,Pay Utility,254722***070 - SAMUEL ***,,v42
