Receipt No.,Completion Time,Initiation Time,Details,Transaction Status,Paid In,Withdrawn,Balance,Balance Confirmed,Reason Type,Other Party Info,Linked Transaction ID,A/C No.
REN77LKZ95,23/05/2023 04:49,23/05/2023 04:49,Pay Bill Online from 254720451253 - JIMMY KIOGORA NKIROTE Acc. Jbg,Completed,1000,,29000,TRUE,Pay Utility with OD Online,254720451253 - JIMMY KIOGORA NKIROTE,,Jbg
REM060NKY2,22/05/2023 14:43,22/05/2023 14:43,Pay Bill Online from 0769918050 - newton   mutethia Acc. JBG,Completed,10000,,28000,TRUE,Pay Bill Online,0769918050 - newton   mutethia,,JBG
REM65U4F2U,22/05/2023 13:34,22/05/2023 13:34,Pay Bill Online from 254722928051 - GILBERT K NGETUNY Acc. JBH,Completed,2000,,18000,TRUE,Pay Bill Online,254722928051 - GILBERT K NGETUNY,,JBH
REM75SIADN,22/05/2023 13:17,22/05/2023 13:17,Pay Bill Online from 254719317219 - PHILIP MBOYA Acc. JDH,Completed,16000,,16000,TRUE,Pay Bill Online,254719317219 - PHILIP MBOYA,,JDH
REM85I0RG2,22/05/2023 11:21,22/05/2023 11:21,Utility Account to Organization Settlement Account,Completed,,-57000,0,TRUE,Utility Account to Organization Settlement Account,979524 - ANCIENT WELLS PROPERTY MANAGERS 2,,
REM24X9BTG,22/05/2023 06:59,22/05/2023 06:59,Pay Bill from 0705687898 - JORDAN KIPNGETICH THOMAS KIKWAI Acc. kff,Completed,5000,,57000,TRUE,Pay Utility,0705687898 - JORDAN KIPNGETICH THOMAS KIKWAI,,kff
REM84VQXU4,22/05/2023 06:20,22/05/2023 06:20,Pay Bill from 0720015317 - mohamed maalim hassan Acc. ffa,Completed,17000,,52000,TRUE,Pay Utility,0720015317 - mohamed maalim hassan,,ffa
REM34TMRQ5,22/05/2023 02:21,22/05/2023 02:21,Pay Bill from 0792933158 - mary wamaitha maina Acc. DGD,Completed,20000,,35000,TRUE,Pay Utility,0792933158 - mary wamaitha maina,,DGD
REL04Q825K,21/05/2023 22:43,21/05/2023 22:43,Pay Bill from 254703935626 - DAVID NGARI ITA Acc. FCD,Completed,1000,,15000,TRUE,Pay Utility,254703935626 - DAVID NGARI ITA,,FCD
REL43V10OK,21/05/2023 17:46,21/05/2023 17:46,Pay Bill from 254722458136 - NADI GOLICHA Acc. JEA,Completed,10000,,14000,TRUE,Pay Utility,254722458136 - NADI GOLICHA,,JEA
REL12TZPNR,21/05/2023 10:59,21/05/2023 10:59,Pay Bill from 254799520265 - SYLVIA KIRINGA NJERI Acc. IAD,Completed,4000,,4000,TRUE,Pay Utility,254799520265 - SYLVIA KIRINGA NJERI,,IAD
REL82S8WO4,21/05/2023 10:37,21/05/2023 10:37,Utility Account to Organization Settlement Account,Completed,,-69010,0,TRUE,Utility Account to Organization Settlement Account,979524 - ANCIENT WELLS PROPERTY MANAGERS 2,,
REL22QG3SW,21/05/2023 10:14,21/05/2023 10:14,Pay Bill from 0705687898 - JORDAN KIPNGETICH THOMAS KIKWAI Acc. kff,Completed,2000,,69010,TRUE,Pay Utility,0705687898 - JORDAN KIPNGETICH THOMAS KIKWAI,,kff
REL72B0DU1,21/05/2023 04:24,21/05/2023 04:24,Pay Bill from 254720465220 - ROBERT GITATA GICHOHI Acc. bob,Completed,10,,67010,TRUE,Pay Utility,254720465220 - ROBERT GITATA GICHOHI,,bob
REK824VAII,20/05/2023 22:22,20/05/2023 22:22,Pay Bill from 0790631952 - Guyo Boru Guyo Acc. DBC,Completed,20000,,67000,TRUE,Pay Utility with OD via STK,0790631952 - Guyo Boru Guyo,,DBC
REK01ME9R2,20/05/2023 19:34,20/05/2023 19:34,Pay Bill from 254722862886 - LENA C CHEREKWENY Acc. JBH,Completed,3000,,47000,TRUE,Pay Utility,254722862886 - LENA C CHEREKWENY,,JBH
REK61HIXIY,20/05/2023 19:05,20/05/2023 19:05,Pay Bill from 254796848496 - IVY WITABA Acc. JBA,Completed,5000,,44000,TRUE,Pay Utility,254796848496 - IVY WITABA,,JBA
REJ3YBMK2J,19/05/2023 23:20,19/05/2023 23:20,Pay Bill from 0722531422 - ANTHONY ITIMU MAINA Acc. JBD,Completed,10000,,39000,TRUE,Pay Utility,0722531422 - ANTHONY ITIMU MAINA,,JBD
REJ2XVLY3A,19/05/2023 20:04,19/05/2023 20:04,Pay Bill Online from 254711721087 - MUTHIANI KYULE Acc. IDB,Completed,15000,,29000,TRUE,Pay Bill Online,254711721087 - MUTHIANI KYULE,,IDB
REJ4XIIJ2E,19/05/2023 18:41,19/05/2023 18:41,Pay Bill Online from 254715764212 - BANCE ISHEMINYE Acc. JFE ,Completed,2000,,14000,TRUE,Pay Bill Online,254715764212 - BANCE ISHEMINYE,,JFE
REJ6W2GDHQ,19/05/2023 10:04,19/05/2023 10:04,Pay Bill from 254728854349 - JOSEPH MUSYOKA Acc. IBG,Completed,8000,,12000,TRUE,Pay Utility with OD via STK,254728854349 - JOSEPH MUSYOKA,,IBG
REJ4VZB0KM,19/05/2023 09:28,19/05/2023 09:28,Pay Bill from 0705687898 - JORDAN KIPNGETICH THOMAS KIKWAI Acc. kff,Completed,4000,,4000,TRUE,Pay Utility,0705687898 - JORDAN KIPNGETICH THOMAS KIKWAI,,kff
REJ6VLZJ7I,19/05/2023 05:08,19/05/2023 05:08,Utility Account to Organization Settlement Account,Completed,,-293800,0,TRUE,Utility Account to Organization Settlement Account,979524 - ANCIENT WELLS PROPERTY MANAGERS 2,,
REI8VIBQJS,18/05/2023 23:04,18/05/2023 23:04,Pay Bill from 254719499823 - MOSES MWANZIA MUTHIANI Acc. Jcc,Completed,10000,,293800,TRUE,Pay Utility,254719499823 - MOSES MWANZIA MUTHIANI,,Jcc
REI3VGO5F7,18/05/2023 22:23,18/05/2023 22:23,Pay Bill Online from 254720451253 - JIMMY KIOGORA NKIROTE Acc. KBD,Completed,1000,,283800,TRUE,Pay Utility with OD Online,254720451253 - JIMMY KIOGORA NKIROTE,,KBD
REI1TSE9UV,18/05/2023 13:36,18/05/2023 13:36,Pay Bill from 0758591833 - DORCUS MBULA PETER Acc. HDD,Completed,9000,,282800,TRUE,Pay Utility,0758591833 - DORCUS MBULA PETER,,HDD
REI2TBW05A,18/05/2023 10:32,18/05/2023 10:32,Pay Bill Online from 254722910078 - MAUREEN MUNYIVA MUTUKU Acc. DCD,Completed,5000,,273800,TRUE,Pay Bill Online,254722910078 - MAUREEN MUNYIVA MUTUKU,,DCD
REH0SO2TGQ,17/05/2023 22:31,17/05/2023 22:31,Pay Bill from 254717909848 - MARY MBULA KATHUKU Acc. FGD,Completed,9000,,268800,TRUE,Pay Utility with OD via STK,254717909848 - MARY MBULA KATHUKU,,FGD
REH8S7SH8K,17/05/2023 19:46,17/05/2023 19:46,Pay Bill Online from 254706549634 - CLINTON OMBASA Acc. FDB,Completed,7000,,259800,TRUE,Pay Bill Online,254706549634 - CLINTON OMBASA,,FDB
REH4S39QZS,17/05/2023 19:17,17/05/2023 19:17,Pay Bill Online from 254702346515 - ELIZABETH ACHIENG NGOME Acc. ICH,Completed,500,,252800,TRUE,Pay Bill Online,254702346515 - ELIZABETH ACHIENG NGOME,,ICH
REH2QPIB7U,17/05/2023 11:30,17/05/2023 11:30,Pay Bill from 0719637249 - grace nyambura mwaura Acc. IAD,Completed,1000,,252300,TRUE,Pay Utility,0719637249 - grace nyambura mwaura,,IAD
REH1QNDDJR,17/05/2023 11:06,17/05/2023 11:06,Pay Bill from 0745318652 - Hesbon Otieno Onyango Acc. JDF,Completed,8000,,251300,TRUE,Pay Utility,0745318652 - Hesbon Otieno Onyango,,JDF
REH0QIRZE0,17/05/2023 10:13,17/05/2023 10:13,Pay Bill from 254740579741 - MUHINDI MULINYA Acc. HGG,Completed,14000,,243300,TRUE,Pay Utility,254740579741 - MUHINDI MULINYA,,HGG
REH8QHYYM0,17/05/2023 10:04,17/05/2023 10:04,Pay Bill from 254722862886 - LENA C CHEREKWENY Acc. JBH,Completed,3000,,229300,TRUE,Pay Utility,254722862886 - LENA C CHEREKWENY,,JBH
REH6QG6X96,17/05/2023 09:43,17/05/2023 09:43,Pay Bill from 254723699555 - DIANA NYAIREGI GICHIA Acc. IGH,Completed,15000,,226300,TRUE,Pay Utility,254723699555 - DIANA NYAIREGI GICHIA,,IGH
REH2Q9Z1YC,17/05/2023 08:28,17/05/2023 08:28,Pay Bill from 254720931007 - BRENDA NASIMIYU NYONGESA Acc. KAB,Completed,12400,,211300,TRUE,Pay Utility,254720931007 - BRENDA NASIMIYU NYONGESA,,KAB
REG8PPVNQ8,16/05/2023 20:53,16/05/2023 20:53,Pay Bill from 254703935626 - DAVID NGARI ITA Acc. FCD,Completed,1000,,198900,TRUE,Pay Utility with OD via STK,254703935626 - DAVID NGARI ITA,,FCD
REG1P7BHBZ,16/05/2023 18:41,16/05/2023 18:41,Pay Bill from 254729557859 - AUDREY KASINDAHA KASINDAHA Acc. KFB,Completed,1500,,197900,TRUE,Pay Utility with OD via STK,254729557859 - AUDREY KASINDAHA KASINDAHA,,KFB
REG2OV4LNE,16/05/2023 17:06,16/05/2023 17:06,Pay Bill from 254722746480 - PATRICK OPEYWA AURA Acc. KGH,Completed,9500,,196400,TRUE,Pay Utility,254722746480 - PATRICK OPEYWA AURA,,KGH
REG8OR0M8M,16/05/2023 16:28,16/05/2023 16:28,Pay Bill Online from 254720787158 - AMOS CHELANG'A Acc. KCG,Completed,10000,,186900,TRUE,Pay Utility with OD Online,254720787158 - AMOS CHELANG'A,,KCG
REG2OKNFFU,16/05/2023 15:22,16/05/2023 15:22,Pay Bill from 254729258441 - ROBERT RONO KULEI Acc. JAB,Completed,10000,,176900,TRUE,Pay Utility,254729258441 - ROBERT RONO KULEI,,JAB
REG9OEP4DJ,16/05/2023 14:18,16/05/2023 14:18,Pay Bill from 254720978285 - PETER KYALO KIIO Acc. DBD,Completed,15000,,166900,TRUE,Pay Utility,254720978285 - PETER KYALO KIIO,,DBD
REG0OA6Q0E,16/05/2023 13:31,16/05/2023 13:31,Pay Bill from 254723389177 - NELSON MOI Acc. ibf,Completed,3000,,151900,TRUE,Pay Utility,254723389177 - NELSON MOI,,ibf
REG8NZ9ZWY,16/05/2023 11:32,16/05/2023 11:32,Pay Bill from 254728238249 - ESTHER WANGUI KIBUNYI Acc. ICA,Completed,17000,,148900,TRUE,Pay Utility,254728238249 - ESTHER WANGUI KIBUNYI,,ICA
REF2MHKSMS,15/05/2023 18:56,15/05/2023 18:56,Pay Bill Online from 254799214497 - ANDREW MUTHAMI NDIANG'UI Acc. DDD,Completed,4100,,116900,TRUE,Pay Bill Online,254799214497 - ANDREW MUTHAMI NDIANG'UI,,DDD
REF4LZIG7M,15/05/2023 16:34,15/05/2023 16:34,Pay Bill from 254717747775 - QADRA SHEIKH ABDULLAHI Acc. jci,Completed,16000,,112800,TRUE,Pay Utility,254717747775 - QADRA SHEIKH ABDULLAHI,,jci
REF5LQYTQT,15/05/2023 15:06,15/05/2023 15:06,Pay Bill Online from 254722928051 - GILBERT K NGETUNY Acc. JBH,Completed,1000,,96800,TRUE,Pay Bill Online,254722928051 - GILBERT K NGETUNY,,JBH
REF2LM8YP2,15/05/2023 14:16,15/05/2023 14:16,Pay Bill from 254712359847 - ROSEMARY DAYO KILUMBE Acc. KGE,Completed,9000,,95800,TRUE,Pay Utility,254712359847 - ROSEMARY DAYO KILUMBE,,KGE
REF2LE6GZA,15/05/2023 12:54,15/05/2023 12:54,Pay Bill from 254707715639 - Annastacia Kimeu Acc. JFC ,Completed,10000,,86800,TRUE,Pay Utility with OD via STK,254707715639 - Annastacia Kimeu,,JFC
REF9KQV1IX,15/05/2023 08:33,15/05/2023 08:33,Pay Bill from 254703528196 - ERIC GITONGA MUGO Acc. KGJ,Completed,15000,,76800,TRUE,Pay Utility,254703528196 - ERIC GITONGA MUGO,,KGJ
REE4KEZSSE,14/05/2023 23:18,14/05/2023 23:18,Pay Bill from 254707653264 - KELVIN MWANGI MUCHORI Acc. HDE,Completed,10500,,61800,TRUE,Pay Utility,254707653264 - KELVIN MWANGI MUCHORI,,HDE
REE3K36AHR,14/05/2023 20:28,14/05/2023 20:28,Pay Bill from 254713637424 - ROY KARANJA MBURU Acc. KFI,Completed,12000,,51300,TRUE,Pay Utility,254713637424 - ROY KARANJA MBURU,,KFI
REE3JR8XND,14/05/2023 18:58,14/05/2023 18:58,Pay Bill from 0743789968 - Dallias Thanare Githara Acc. hbb,Completed,4000,,39300,TRUE,Pay Utility,0743789968 - Dallias Thanare Githara,,hbb
REE5IY1UN9,14/05/2023 14:28,14/05/2023 14:28,Pay Bill from 254710635630 - DONNA JESSICA OWANO Acc. KCC,Completed,10000,,35300,TRUE,Pay Utility,254710635630 - DONNA JESSICA OWANO,,KCC
REE9ILXYCV,14/05/2023 12:11,14/05/2023 12:11,Pay Bill Online from 0740422187 - KEVIN MAKATO KUNGA Acc. KEG,Completed,10000,,25300,TRUE,Pay Bill Online,0740422187 - KEVIN MAKATO KUNGA,,KEG
REE7IJD6SN,14/05/2023 11:39,14/05/2023 11:39,Pay Bill from 254720814822 - JAMES OTIENO OPAR Acc. jgj,Completed,2000,,15300,TRUE,Pay Utility with OD via STK,254720814822 - JAMES OTIENO OPAR,,jgj
REE8I3YF1C,14/05/2023 08:22,14/05/2023 08:22,Pay Bill from 254720814822 - JAMES OTIENO OPAR Acc. jgj,Completed,1500,,13300,TRUE,Pay Utility with OD via STK,254720814822 - JAMES OTIENO OPAR,,jgj
REE7HW39N3,14/05/2023 02:26,14/05/2023 02:26,Pay Bill Online from 254720451253 - JIMMY KIOGORA NKIROTE Acc. KBD,Completed,1000,,11800,TRUE,Pay Bill Online,254720451253 - JIMMY KIOGORA NKIROTE,,KBD
REE4HU63S0,14/05/2023 00:32,14/05/2023 00:32,Pay Bill from 254703935626 - DAVID NGARI ITA Acc. FCD,Completed,1000,,10800,TRUE,Pay Utility with OD via STK,254703935626 - DAVID NGARI ITA,,FCD
RED9HOVACZ,13/05/2023 22:13,13/05/2023 22:13,Merchant Pay Utility Received from 7245661 -  OCHIENG CHEMIST  Acc. HFD,Completed,800,,9800,TRUE,Merchant Pay Utility via API,7245661 -  OCHIENG CHEMIST ,,HFD
RED5H7B4Z1,13/05/2023 19:37,13/05/2023 19:37,Pay Bill from 254717247817 - NYANGAU HARONI Acc. kbf,Completed,9000,,9000,TRUE,Pay Utility,254717247817 - NYANGAU HARONI,,kbf
RED2GTM12M,13/05/2023 18:05,13/05/2023 18:05,Utility Account to Organization Settlement Account,Completed,,-469400,0,TRUE,Utility Account to Organization Settlement Account,979524 - ANCIENT WELLS PROPERTY MANAGERS 2,,
RED6GE81R0,13/05/2023 15:53,13/05/2023 15:53,Pay Bill from 0720599684 - CHEMUTAI   JACKLINE Acc. HAB,Completed,15000,,469400,TRUE,Pay Utility,0720599684 - CHEMUTAI   JACKLINE,,HAB
RED8G3DU4W,13/05/2023 14:08,13/05/2023 14:08,Pay Bill from 254722862886 - LENA C CHEREKWENY Acc. JBH,Completed,2000,,454400,TRUE,Pay Utility,254722862886 - LENA C CHEREKWENY,,JBH
RED5FVLECR,13/05/2023 12:52,13/05/2023 12:52,Pay Bill from 254707435553 - VENALD PETER ODHIAMBO ALOO Acc. IEG,Completed,9000,,452400,TRUE,Pay Utility with OD via STK,254707435553 - VENALD PETER ODHIAMBO ALOO,,IEG
RED6FAD6SO,13/05/2023 09:04,13/05/2023 09:04,Pay Bill from 254702488841 - JEREMIAH NYANSIKERA Acc. KAK,Completed,25000,,443400,TRUE,Pay Utility,254702488841 - JEREMIAH NYANSIKERA,,KAK
RED1F3VYA3,13/05/2023 07:38,13/05/2023 07:38,Pay Bill Online from 254722910078 - MAUREEN MUNYIVA MUTUKU Acc. DCD,Completed,10000,,418400,TRUE,Pay Bill Online,254722910078 - MAUREEN MUNYIVA MUTUKU,,DCD
REC8EUR0UC,12/05/2023 23:34,12/05/2023 23:34,Pay Bill from 0748059595 - Rashid NASSIR Khamis Acc. DDA,Completed,5000,,408400,TRUE,Pay Utility,0748059595 - Rashid NASSIR Khamis,,DDA
REC4EOIC2O,12/05/2023 21:37,12/05/2023 21:37,Pay Bill Online from 254758054136 - SCOVIAH DAYO Acc. JCA,Completed,20000,,403400,TRUE,Pay Bill Online,254758054136 - SCOVIAH DAYO,,JCA
REC5EF9QQZ,12/05/2023 20:14,12/05/2023 20:14,Pay Bill Online from 254712187712 - JUDELEEN SHILOBELE AHINDUKHA Acc. IEA,Completed,15000,,383400,TRUE,Pay Bill Online,254712187712 - JUDELEEN SHILOBELE AHINDUKHA,,IEA
REC6ED62QK,12/05/2023 19:59,12/05/2023 19:59,Pay Bill from 254720278119 - LINDAH OGAWO Acc. kfe,Completed,10000,,368400,TRUE,Pay Utility,254720278119 - LINDAH OGAWO,,kfe
REC3ED2L8Z,12/05/2023 19:58,12/05/2023 19:58,Pay Bill from 254720814822 - JAMES OTIENO OPAR Acc. jgj,Completed,2500,,358400,TRUE,Pay Utility,254720814822 - JAMES OTIENO OPAR,,jgj
REC9E653ND,12/05/2023 19:14,12/05/2023 19:14,Pay Bill Online from 254704143476 - DICKSON MZUNGU Acc. JCB,Completed,15000,,355900,TRUE,Pay Bill Online,254704143476 - DICKSON MZUNGU,,JCB
REC6E28AIO,12/05/2023 18:50,12/05/2023 18:50,Pay Bill Online from 254726292792 - PHILIP MIANO Acc. JEI,Completed,20000,,340900,TRUE,Pay Bill Online,254726292792 - PHILIP MIANO,,JEI
REC9DJSVQ7,12/05/2023 16:21,12/05/2023 16:21,Pay Bill from 0743789968 - Dallias Thanare Githara Acc. hbb,Completed,3000,,320900,TRUE,Pay Utility,0743789968 - Dallias Thanare Githara,,hbb
REC9DAX51H,12/05/2023 14:50,12/05/2023 14:50,Pay Bill from 0708931111 - NJENGA   KURIA Acc. kca,Completed,16000,,317900,TRUE,Pay Utility,0708931111 - NJENGA   KURIA,,kca
REB0BZVNTQ,11/05/2023 23:30,11/05/2023 23:30,Pay Bill from 254703935626 - DAVID NGARI ITA Acc. FCD,Completed,1000,,301900,TRUE,Pay Utility,254703935626 - DAVID NGARI ITA,,FCD
REB5BNZZPV,11/05/2023 20:40,11/05/2023 20:40,Pay Bill from 254796848496 - IVY WITABA Acc. JBA,Completed,5000,,300900,TRUE,Pay Utility,254796848496 - IVY WITABA,,JBA
REB2BE19YI,11/05/2023 19:28,11/05/2023 19:28,Pay Bill from 254711300306 - RAYMOND OMENKE Acc. KBG,Completed,5000,,295900,TRUE,Pay Utility with OD via STK,254711300306 - RAYMOND OMENKE,,KBG
REB5B50THN,11/05/2023 18:30,11/05/2023 18:30,Pay Bill from 254702764047 - FERDINAND K Acc. KDB,Completed,16000,,290900,TRUE,Pay Utility,254702764047 - FERDINAND K,,KDB
REB4B2MJ9Q,11/05/2023 18:12,11/05/2023 18:12,Pay Bill from 254723774861 - NGENO C NAOM Acc. JDD,Completed,15000,,274900,TRUE,Pay Utility,254723774861 - NGENO C NAOM,,JDD
REB6AKGKUU,11/05/2023 15:27,11/05/2023 15:27,Pay Bill from 254724952183 - MICHAEL WAMBUA MWOVE Acc. FEA,Completed,10000,,259900,TRUE,Pay Utility,254724952183 - MICHAEL WAMBUA MWOVE,,FEA
REB4AJWT1S,11/05/2023 15:22,11/05/2023 15:22,Pay Bill Online from 254768226767 - Rahma Ahmed Bidu Acc. HBD ,Completed,10000,,249900,TRUE,Pay Bill Online,254768226767 - Rahma Ahmed Bidu,,HBD
REB2A0L7Y0,11/05/2023 11:58,11/05/2023 11:58,Pay Bill from 254724423882 - JOEL GICHURI KARANJA Acc. fee,Completed,16000,,239900,TRUE,Pay Utility,254724423882 - JOEL GICHURI KARANJA,,fee
REB69WNJZS,11/05/2023 11:15,11/05/2023 11:15,Pay Bill Online from 254720451253 - JIMMY KIOGORA NKIROTE Acc. KBD,Completed,1000,,223900,TRUE,Pay Utility with OD Online,254720451253 - JIMMY KIOGORA NKIROTE,,KBD
REB29WNBIE,11/05/2023 11:14,11/05/2023 11:14,Pay Bill from 254795079977 - COLLINS BOB OMOLLO Acc. IGG,Completed,3000,,222900,TRUE,Pay Utility,254795079977 - COLLINS BOB OMOLLO,,IGG
REB49VSXTE,11/05/2023 11:05,11/05/2023 11:05,Pay Bill from 254729371750 - DERRICK OTANGA Acc. DAC ,Completed,20000,,219900,TRUE,Pay Utility,254729371750 - DERRICK OTANGA,,DAC
REB29RHMDY,11/05/2023 10:17,11/05/2023 10:17,Pay Bill from 254723747228 - MORARA ASANYO Acc. pool ,Completed,22000,,199900,TRUE,Pay Utility,254723747228 - MORARA ASANYO,,pool
REB29OELNQ,11/05/2023 09:42,11/05/2023 09:42,Pay Bill from 0715806956 - Mercy Jelagat Kalum Acc. FFE,Completed,15000,,177900,TRUE,Pay Utility,0715806956 - Mercy Jelagat Kalum,,FFE
REB29NU5GE,11/05/2023 09:36,11/05/2023 09:36,Pay Bill Online from 254720451253 - JIMMY KIOGORA NKIROTE Acc. KBD,Completed,1000,,162900,TRUE,Pay Utility with OD Online,254720451253 - JIMMY KIOGORA NKIROTE,,KBD
REB999OZO3,11/05/2023 04:40,11/05/2023 04:40,Pay Bill Online from 254720451253 - JIMMY KIOGORA NKIROTE Acc. KBD,Completed,3000,,161900,TRUE,Pay Utility with OD Online,254720451253 - JIMMY KIOGORA NKIROTE,,KBD
REA396QYIZ,10/05/2023 23:19,10/05/2023 23:19,Pay Bill from 0111788761 - MARIA ZACHARIA JOHN Acc. FGC,Completed,8900,,158900,TRUE,Pay Utility,0111788761 - MARIA ZACHARIA JOHN,,FGC
REA5919J3J,10/05/2023 21:36,10/05/2023 21:36,Pay Bill from 254711271263 - BENSON MWADIME JOSEPH Acc. HFC,Completed,9000,,150000,TRUE,Pay Utility,254711271263 - BENSON MWADIME JOSEPH,,HFC
REA68XW5R6,10/05/2023 21:01,10/05/2023 21:01,Pay Bill Online from 254720451253 - JIMMY KIOGORA NKIROTE Acc. KBD,Completed,3000,,141000,TRUE,Pay Utility with OD Online,254720451253 - JIMMY KIOGORA NKIROTE,,KBD
REA08WWUKI,10/05/2023 20:52,10/05/2023 20:52,Pay Bill from 254724201046 - GIDEON NDOLO Acc. KFH,Completed,7000,,138000,TRUE,Pay Utility,254724201046 - GIDEON NDOLO,,KFH
REA18QM3Q1,10/05/2023 20:02,10/05/2023 20:02,Pay Bill from 254712990240 - GLORY KARIUKI Acc. KAA,Completed,16000,,131000,TRUE,Pay Utility with OD via STK,254712990240 - GLORY KARIUKI,,KAA
REA68PZQX4,10/05/2023 19:57,10/05/2023 19:57,Pay Bill Online from 254743916064 - KAI AIKENY IDOKO Acc. ibc,Completed,9500,,115000,TRUE,Pay Bill Online,254743916064 - KAI AIKENY IDOKO,,ibc
REA78KJ5JB,10/05/2023 19:21,10/05/2023 19:21,Pay Bill Online from 254712040302 - EMMANUEL MWARO BARASA Acc. KEA,Completed,16000,,105500,TRUE,Pay Bill Online,254712040302 - EMMANUEL MWARO BARASA,,KEA
REA986UOD3,10/05/2023 17:48,10/05/2023 17:48,Pay Bill from 254710239100 - PHILOMENA WOKI MUTHAMA Acc. KDK,Completed,17000,,89500,TRUE,Pay Utility,254710239100 - PHILOMENA WOKI MUTHAMA,,KDK
REA586BA2X,10/05/2023 17:44,10/05/2023 17:44,Pay Bill from 254718911865 - KENNEDY KELI KATUNGII Acc. HDF,Completed,9000,,72500,TRUE,Pay Utility with OD via STK,254718911865 - KENNEDY KELI KATUNGII,,HDF
REA581FGZZ,10/05/2023 17:03,10/05/2023 17:03,Pay Bill Online from 254799371069 - ALPHONCE OCHIENG WAREGA Acc. IEE,Completed,8500,,63500,TRUE,Pay Bill Online,254799371069 - ALPHONCE OCHIENG WAREGA,,IEE
REA37UFOEX,10/05/2023 15:56,10/05/2023 15:56,Pay Bill Online from 254723930071 - AMOS KITAVI KIVITE Acc. JCE,Completed,9000,,55000,TRUE,Pay Bill Online,254723930071 - AMOS KITAVI KIVITE,,JCE
REA27NCH2Q,10/05/2023 14:42,10/05/2023 14:42,Pay Bill from 254722826454 - CHARLES KARIMI MAITAI Acc. KDC Keila,Completed,10000,,46000,TRUE,Pay Utility,254722826454 - CHARLES KARIMI MAITAI,,KDC
REA67K76Q0,10/05/2023 14:09,10/05/2023 14:09,Pay Bill Online from 254716579300 - BRIAN KIPKOECH RONO Acc. HEH,Completed,16000,,36000,TRUE,Pay Bill Online,254716579300 - BRIAN KIPKOECH RONO,,HEH
REA97JHRFJ,10/05/2023 14:02,10/05/2023 14:02,Pay Bill from 254722444622 - CHARITY KAGWAINI Acc. ffd,Completed,5000,,20000,TRUE,Pay Utility,254722444622 - CHARITY KAGWAINI,,ffd
REA47IGZJY,10/05/2023 13:52,10/05/2023 13:52,Pay Bill Online from 254710146965 - BRENDA DORCAS MABONGA Acc. hfg,Completed,15000,,15000,TRUE,Pay Bill Online,254710146965 - BRENDA DORCAS MABONGA,,hfg
REA57AKU5N,10/05/2023 12:33,10/05/2023 12:33,Utility Account to Organization Settlement Account,Completed,,-211500,0,TRUE,Utility Account to Organization Settlement Account,979524 - ANCIENT WELLS PROPERTY MANAGERS 2,,
REA77A8H7X,10/05/2023 12:29,10/05/2023 12:29,Pay Bill Online from 254722921132 - JOE MCCRAY MURIUKI KIHIA Acc. IFA,Completed,15000,,211500,TRUE,Pay Utility with OD Online,254722921132 - JOE MCCRAY MURIUKI KIHIA,,IFA
REA677DIDS,10/05/2023 11:59,10/05/2023 11:59,Pay Bill Online from 254722769473 - SAMSON CHALO Acc. IAB,Completed,15000,,196500,TRUE,Pay Bill Online,254722769473 - SAMSON CHALO,,IAB
REA27786W2,10/05/2023 11:57,10/05/2023 11:57,Pay Bill Online from 254715892656 - DENNIS MUSYOKA MUOKI Acc. kfa,Completed,4000,,181500,TRUE,Pay Bill Online,254715892656 - DENNIS MUSYOKA MUOKI,,kfa
REA776SC6N,10/05/2023 11:53,10/05/2023 11:53,Pay Bill from 254720814822 - JAMES OTIENO OPAR Acc. jgj,Completed,2000,,177500,TRUE,Pay Utility,254720814822 - JAMES OTIENO OPAR,,jgj
REA1767L23,10/05/2023 11:46,10/05/2023 11:46,Pay Bill from 254791086424 - Martha Achieng Arodi Acc. FDC,Completed,9000,,175500,TRUE,Pay Utility,254791086424 - Martha Achieng Arodi,,FDC
REA975IDBZ,10/05/2023 11:39,10/05/2023 11:39,Pay Bill from 254716581384 - GREGORY KILUNGYA Acc. DAD,Completed,20000,,166500,TRUE,Pay Utility,254716581384 - GREGORY KILUNGYA,,DAD
REA06YQM1Q,10/05/2023 10:26,10/05/2023 10:26,Pay Bill Online from 254711706815 - NAOMI WANYONYI Acc. KBA,Completed,25000,,146500,TRUE,Pay Bill Online,254711706815 - NAOMI WANYONYI,,KBA
REA16XI0EZ,10/05/2023 10:13,10/05/2023 10:13,Pay Bill Online from 254720107609 - DENNIS OGENDI BARAKE Acc. JAJ,Completed,15000,,121500,TRUE,Pay Bill Online,254720107609 - DENNIS OGENDI BARAKE,,JAJ
REA36WNWZP,10/05/2023 10:04,10/05/2023 10:04,Pay Bill Online from 254742911013 - HANEST AMIMO Acc. IED,Completed,11000,,106500,TRUE,Pay Bill Online,254742911013 - HANEST AMIMO,,IED
REA26V7WZQ,10/05/2023 09:48,10/05/2023 09:48,Merchant Pay Utility Received from 7245661 -  OCHIENG CHEMIST  Acc. HFD,Completed,1000,,95500,TRUE,Merchant Pay Utility via API,7245661 -  OCHIENG CHEMIST ,,HFD
REA86U47XS,10/05/2023 09:36,10/05/2023 09:36,Pay Bill from 254724435274 - WINFRED MBINYA MUNUVE Acc. DDC,Completed,4000,,94500,TRUE,Pay Utility,254724435274 - WINFRED MBINYA MUNUVE,,DDC
REA36TDCZN,10/05/2023 09:29,10/05/2023 09:29,Pay Bill from 254713205244 - ROBERT OGALO Acc. HFB,Completed,16000,,90500,TRUE,Pay Utility,254713205244 - ROBERT OGALO,,HFB
REA66T38QY,10/05/2023 09:25,10/05/2023 09:25,Pay Bill Online from 0757758972 - BETH MUTHONI KASYOKA Acc. 4000,Completed,4000,,74500,TRUE,Pay Bill Online,0757758972 - BETH MUTHONI KASYOKA,,4000
REA36IWINB,10/05/2023 07:13,10/05/2023 07:13,Pay Bill from 0717441870 - Steven oduor ogutu Acc. KTA,Completed,9500,,70500,TRUE,Pay Utility,0717441870 - Steven oduor ogutu,,KTA
REA96HXT8L,10/05/2023 06:54,10/05/2023 06:54,Pay Bill from 0705402025 - patrick kioko mutuku Acc. kce,Completed,10000,,61000,TRUE,Pay Utility,0705402025 - patrick kioko mutuku,,kce
REA06EHW7O,10/05/2023 01:24,10/05/2023 01:24,Pay Bill from 254703935626 - DAVID NGARI ITA Acc. FCD,Completed,1000,,51000,TRUE,Pay Utility,254703935626 - DAVID NGARI ITA,,FCD
RE9769PUMZ,09/05/2023 22:17,09/05/2023 22:17,Pay Bill Online from 254717985596 - NICHOLAS KIPKOECH BUTIA Acc. hcf,Completed,9000,,50000,TRUE,Pay Bill Online,254717985596 - NICHOLAS KIPKOECH BUTIA,,hcf
RE955V229V,09/05/2023 19:57,09/05/2023 19:57,Pay Bill from 254727144033 - JOHN NYAREGA NYAKUNDI Acc. FAF,Completed,16000,,41000,TRUE,Pay Utility with OD via STK,254727144033 - JOHN NYAREGA NYAKUNDI,,FAF
RE995D0TIT,09/05/2023 17:59,09/05/2023 17:59,Pay Bill from 254719779657 - SAMUEL NJOROGE Acc. JGA,Completed,5000,,25000,TRUE,Pay Utility,254719779657 - SAMUEL NJOROGE,,JGA
RE965BWW3I,09/05/2023 17:50,09/05/2023 17:50,Pay Bill from 0794630078 - Sylvanus   Kiplangat Acc. IFE,Completed,7000,,20000,TRUE,Pay Utility,0794630078 - Sylvanus   Kiplangat,,IFE
RE985BOFUS,09/05/2023 17:48,09/05/2023 17:48,Pay Bill Online from 254723411873 - FREDRICK CHERUIYOT Acc. JBF,Completed,8000,,13000,TRUE,Pay Bill Online,254723411873 - FREDRICK CHERUIYOT,,JBF
RE96599396,09/05/2023 17:29,09/05/2023 17:29,Pay Bill from 254726337163 - HALIMA ALI HASSAN Acc. DDA,Completed,5000,,5000,TRUE,Pay Utility with OD via STK,254726337163 - HALIMA ALI HASSAN,,DDA
RE944ZX7WS,09/05/2023 16:06,09/05/2023 16:06,Utility Account to Organization Settlement Account,Completed,,-417000,0,TRUE,Utility Account to Organization Settlement Account,979524 - ANCIENT WELLS PROPERTY MANAGERS 2,,
RE994ZBNQF,09/05/2023 16:01,09/05/2023 16:01,Pay Bill Online from 254799735661 - ALBRIGHT SUNGUTI Acc. JEB,Completed,15000,,417000,TRUE,Pay Bill Online,254799735661 - ALBRIGHT SUNGUTI,,JEB
RE944SHHN0,09/05/2023 14:52,09/05/2023 14:52,Pay Bill from 0769118645 - kennedy kipkurui korir Acc. IGC ,Completed,9000,,402000,TRUE,Pay Utility,0769118645 - kennedy kipkurui korir,,IGC
RE954MCOF3,09/05/2023 13:51,09/05/2023 13:51,Pay Bill from 254713470992 - NICHOLUS K MUTHOKA Acc. JAA,Completed,6500,,393000,TRUE,Pay Utility,254713470992 - NICHOLUS K MUTHOKA,,JAA
RE964HDSH2,09/05/2023 13:04,09/05/2023 13:04,Pay Bill from 254715591919 - JOHN O OCHIENG Acc. JFA ,Completed,3000,,386500,TRUE,Pay Utility,254715591919 - JOHN O OCHIENG,,JFA
RE974FUK6H,09/05/2023 12:49,09/05/2023 12:49,Merchant Pay Utility Received from 7245661 -  OCHIENG CHEMIST  Acc. HFD,Completed,1000,,383500,TRUE,Merchant Pay Utility via API,7245661 -  OCHIENG CHEMIST ,,HFD
RE954EK5TX,09/05/2023 12:36,09/05/2023 12:36,Pay Bill Online from 254718138578 - PAULINE KIOKO Acc. KFD,Completed,12000,,382500,TRUE,Pay Bill Online,254718138578 - PAULINE KIOKO,,KFD
RE914DXITJ,09/05/2023 12:30,09/05/2023 12:30,Pay Bill Online from 254727425310 - DENNIS KIPKOECH CHERUIYOT Acc. JAG,Completed,10000,,370500,TRUE,Pay Utility with OD Online,254727425310 - DENNIS KIPKOECH CHERUIYOT,,JAG
RE92464NOQ,09/05/2023 11:10,09/05/2023 11:10,Pay Bill from 0719637249 - grace nyambura mwaura Acc. IAD,Completed,4000,,360500,TRUE,Pay Utility,0719637249 - grace nyambura mwaura,,IAD
RE954592A5,09/05/2023 11:01,09/05/2023 11:01,Pay Bill from 0757259130 - RASHID SUDI MCHOMBO Acc. JAF,Completed,6000,,356500,TRUE,Pay Utility,0757259130 - RASHID SUDI MCHOMBO,,JAF
RE964559C6,09/05/2023 11:00,09/05/2023 11:00,Pay Bill from 254721315975 - JOSEPH NDEGWA Acc. HEB,Completed,16000,,350500,TRUE,Pay Utility,254721315975 - JOSEPH NDEGWA,,HEB
RE98435UTW,09/05/2023 10:40,09/05/2023 10:40,Pay Bill Online from 254715764212 - BANCE ISHEMINYE Acc. JFE ,Completed,8000,,334500,TRUE,Pay Bill Online,254715764212 - BANCE ISHEMINYE,,JFE
RE9640ARKA,09/05/2023 10:10,09/05/2023 10:10,Pay Bill from 254721667039 - ELIAS KIPLAGAT Acc. KAC,Completed,11000,,326500,TRUE,Pay Utility,254721667039 - ELIAS KIPLAGAT,,KAC
RE913VEZFX,09/05/2023 09:20,09/05/2023 09:20,Pay Bill Online from 254726116777 - MARY NDUTA GOSHO Acc. JDB ,Completed,15000,,315500,TRUE,Pay Bill Online,254726116777 - MARY NDUTA GOSHO,,JDB
RE933S0ALL,09/05/2023 08:43,09/05/2023 08:43,Pay Bill from 254726028330 - JOHN WAMBUA Acc. IFH,Completed,15000,,300500,TRUE,Pay Utility,254726028330 - JOHN WAMBUA,,IFH
RE933RZZ5N,09/05/2023 08:43,09/05/2023 08:43,Pay Bill from 254722862886 - LENA C CHEREKWENY Acc. JBH,Completed,4000,,285500,TRUE,Pay Utility,254722862886 - LENA C CHEREKWENY,,JBH
RE953R8XUJ,09/05/2023 08:34,09/05/2023 08:34,Pay Bill from 254718245568 - NADI GOLICHA Acc. JEA,Completed,10000,,281500,TRUE,Pay Utility,254718245568 - NADI GOLICHA,,JEA
RE953FXF3L,09/05/2023 00:04,09/05/2023 00:04,Pay Bill from 254703935626 - DAVID NGARI ITA Acc. FCD,Completed,1000,,271500,TRUE,Pay Utility,254703935626 - DAVID NGARI ITA,,FCD
RE8736XXIT,08/05/2023 21:11,08/05/2023 21:11,Pay Bill from 254725621394 - RACHAEL WACHIRA Acc. Jfb,Completed,15000,,270500,TRUE,Pay Utility,254725621394 - RACHAEL WACHIRA,,Jfb
RE892XDIKX,08/05/2023 19:55,08/05/2023 19:55,Pay Bill from 254799188200 - PURITY KURUI Acc. HDC,Completed,10500,,255500,TRUE,Pay Utility,254799188200 - PURITY KURUI,,HDC
RE882SWTZ2,08/05/2023 19:26,08/05/2023 19:26,Pay Bill Online from 254745661722 - MUHAMEDMALIK GAAL Acc. IAH,Completed,22000,,245000,TRUE,Pay Bill Online,254745661722 - MUHAMEDMALIK GAAL,,IAH
RE862FW7CI,08/05/2023 18:02,08/05/2023 18:02,Pay Bill Online from 254792187144 - HASSAN AHMED HASSAN Acc. KGI,Completed,10000,,223000,TRUE,Pay Bill Online,254792187144 - HASSAN AHMED HASSAN,,KGI
RE85280MSP,08/05/2023 17:00,08/05/2023 17:00,Pay Bill from 254725478531 - KIPKORIR KUTO Acc. DFB,Completed,15000,,213000,TRUE,Pay Utility,254725478531 - KIPKORIR KUTO,,DFB
RE8924SEBF,08/05/2023 16:33,08/05/2023 16:33,Pay Bill Online from 254720696119 - DUNCAN OMONDI OKETCH Acc. FAE,Completed,15000,,198000,TRUE,Pay Bill Online,254720696119 - DUNCAN OMONDI OKETCH,,FAE
RE811WO9UZ,08/05/2023 15:17,08/05/2023 15:17,Pay Bill from 254712367486 - JACKLINE JUMA Acc. KED,Completed,11000,,183000,TRUE,Pay Utility,254712367486 - JACKLINE JUMA,,KED
RE861W3XAW,08/05/2023 15:11,08/05/2023 15:11,Pay Bill from 254722572104 - ERICK MURABULA Acc. hae,Completed,10000,,172000,TRUE,Pay Utility,254722572104 - ERICK MURABULA,,hae
RE8916V4LL,08/05/2023 11:05,08/05/2023 11:05,Pay Bill from 254796069018 - PEACE KIMEU Acc. JAH,Completed,16000,,162000,TRUE,Pay Utility,254796069018 - PEACE KIMEU,,JAH
RE8515IFK1,08/05/2023 10:51,08/05/2023 10:51,Pay Bill Online from 254799805832 - NATHANIEl MAMBO MBITHI Acc. KBH,Completed,10000,,146000,TRUE,Pay Bill Online,254799805832 - NATHANIEl MAMBO MBITHI,,KBH
RE8113VVCX,08/05/2023 10:34,08/05/2023 10:34,Pay Bill from 0791379873 - Joseph Kyalo Sila Acc. HAH,Completed,16000,,136000,TRUE,Pay Utility,0791379873 - Joseph Kyalo Sila,,HAH
RE84ZY9T48,08/05/2023 09:36,08/05/2023 09:36,Pay Bill from 0791168610 - MARY NYABOKE MARITA Acc. KDD,Completed,12000,,120000,TRUE,Pay Utility,0791168610 - MARY NYABOKE MARITA,,KDD
RE85ZRL9XF,08/05/2023 08:21,08/05/2023 08:21,Pay Bill from 254705641030 - FRIDAH WAENI MUITHYA Acc. JEH,Completed,16000,,108000,TRUE,Pay Utility,254705641030 - FRIDAH WAENI MUITHYA,,JEH
RE78ZCKAJ2,07/05/2023 21:59,07/05/2023 21:59,Pay Bill from 0743248310 - PATRICK STURRIDGE NYONGESA Acc. daa,Completed,20000,,92000,TRUE,Pay Utility,0743248310 - PATRICK STURRIDGE NYONGESA,,daa
RE76ZCG7SI,07/05/2023 21:57,07/05/2023 21:57,Pay Bill from 254703935626 - DAVID NGARI ITA Acc. FCD,Completed,1000,,72000,TRUE,Pay Utility,254703935626 - DAVID NGARI ITA,,FCD
RE72ZC9704,07/05/2023 21:54,07/05/2023 21:54,Pay Bill from 254729355933 - FELISTAH NJERI WAIRIMU Acc. IDI,Completed,15000,,71000,TRUE,Pay Utility,254729355933 - FELISTAH NJERI WAIRIMU,,IDI
RE76ZC01KS,07/05/2023 21:51,07/05/2023 21:51,Pay Bill from 254723488259 - WILSON OKITE OKITE Acc. hca,Completed,15000,,56000,TRUE,Pay Utility,254723488259 - WILSON OKITE OKITE,,hca
RE77YYR5PH,07/05/2023 19:44,07/05/2023 19:44,Pay Bill from 0715688238 - JOANNAH ATUHAIRE BANTU Acc. jae,Completed,9000,,41000,TRUE,Pay Utility with OD via STK,0715688238 - JOANNAH ATUHAIRE BANTU,,jae
RE77YAPR0L,07/05/2023 16:31,07/05/2023 16:31,Pay Bill from 254716167517 - BENARD MUTUA Acc. Hcb,Completed,16000,,32000,TRUE,Pay Utility,254716167517 - BENARD MUTUA,,Hcb
RE71Y0M1AJ,07/05/2023 14:52,07/05/2023 14:52,Pay Bill from 254700557767 - BAKHITA MWENDE MUANGE Acc. kcb,Completed,16000,,16000,TRUE,Pay Utility,254700557767 - BAKHITA MWENDE MUANGE,,kcb
RE76XKGZI4,07/05/2023 11:55,07/05/2023 11:55,Utility Account to Organization Settlement Account,Completed,,-48000,0,TRUE,Utility Account to Organization Settlement Account,979524 - ANCIENT WELLS PROPERTY MANAGERS 2,,
RE79X7M3GD,07/05/2023 09:18,07/05/2023 09:18,Pay Bill from 254722862886 - LENA C CHEREKWENY Acc. jbh,Completed,2000,,48000,TRUE,Pay Utility,254722862886 - LENA C CHEREKWENY,,jbh
RE77WZB4OB,07/05/2023 07:16,07/05/2023 07:16,Pay Bill from 0740208174 - Josephine adhiambo koyi Acc. ifg,Completed,9000,,46000,TRUE,Pay Utility,0740208174 - Josephine adhiambo koyi,,ifg
RE76WYPH5S,07/05/2023 07:01,07/05/2023 07:01,Pay Bill Online from 0757076363 - Ifrah Adan Hassan Acc. IGF,Completed,20000,,37000,TRUE,Pay Bill Online,0757076363 - Ifrah Adan Hassan,,IGF
RE60WRC9QY,06/05/2023 22:53,06/05/2023 22:53,Pay Bill from 254716056537 - KIRUI KIPLANGAT HILLARY Acc. JCJ,Completed,16000,,17000,TRUE,Pay Utility with OD via STK,254716056537 - KIRUI KIPLANGAT HILLARY,,JCJ
RE69W7PR9J,06/05/2023 19:38,06/05/2023 19:38,Merchant Pay Utility Received from 7245661 -  OCHIENG CHEMIST  Acc. HFD,Completed,1000,,1000,TRUE,Merchant Pay Utility via API,7245661 -  OCHIENG CHEMIST ,,HFD
RE66VTDZ62,06/05/2023 18:04,06/05/2023 18:04,Utility Account to Organization Settlement Account,Completed,,-151000,0,TRUE,Utility Account to Organization Settlement Account,979524 - ANCIENT WELLS PROPERTY MANAGERS 2,,
RE68VQOZE8,06/05/2023 17:43,06/05/2023 17:43,Pay Bill Online from 254799946039 - LUIS OTIENO Acc. IAE,Completed,6000,,151000,TRUE,Pay Bill Online,254799946039 - LUIS OTIENO,,IAE
RE62VK9ZL6,06/05/2023 16:51,06/05/2023 16:51,Pay Bill Online from 0722255105 - SALIM OMAR MZEE Acc. FGF,Completed,16000,,145000,TRUE,Pay Bill Online,0722255105 - SALIM OMAR MZEE,,FGF
RE66VHOEXC,06/05/2023 16:29,06/05/2023 16:29,Pay Bill from 254722521028 - CHARLES MONYONCHO Acc. JDA,Completed,20000,,129000,TRUE,Pay Utility,254722521028 - CHARLES MONYONCHO,,JDA
RE69VBMTUL,06/05/2023 15:34,06/05/2023 15:34,Pay Bill from 254722617724 - Cosmas Leitich Kiptoo Acc. KAG,Completed,10000,,109000,TRUE,Pay Utility with OD via STK,254722617724 - Cosmas Leitich Kiptoo,,KAG
RE68V1NXVE,06/05/2023 14:01,06/05/2023 14:01,Pay Bill Online from 0724386624 - FATUMA ISSE YUSSUF Acc. FAB,Completed,16000,,99000,TRUE,Pay Utility with OD Online,0724386624 - FATUMA ISSE YUSSUF,,FAB
RE63USWYAJ,06/05/2023 12:38,06/05/2023 12:38,Pay Bill Online from 254714552193 - CHRISTOPHER OCHIENG Acc. JGI ,Completed,20500,,83000,TRUE,Pay Bill Online,254714552193 - CHRISTOPHER OCHIENG,,JGI
RE60UR7HQS,06/05/2023 12:21,06/05/2023 12:21,Pay Bill from 254707461196 - DAMARICE KARIUKI Acc. fbc,Completed,9500,,62500,TRUE,Pay Utility,254707461196 - DAMARICE KARIUKI,,fbc
RE68UPVYSK,06/05/2023 12:08,06/05/2023 12:08,Pay Bill from 254720814822 - JAMES OTIENO OPAR Acc. jgj,Completed,3000,,53000,TRUE,Pay Utility,254720814822 - JAMES OTIENO OPAR,,jgj
RE64UPN6ZK,06/05/2023 12:05,06/05/2023 12:05,Pay Bill from 254723966777 - BONIFACE MUTHAKA NGANGA Acc. IDG,Completed,10000,,50000,TRUE,Pay Utility,254723966777 - BONIFACE MUTHAKA NGANGA,,IDG
RE67UMQNEH,06/05/2023 11:36,06/05/2023 11:36,Pay Bill Online from 254710732381 - JANE ACHIENG MBEKE Acc. HAF,Completed,10000,,40000,TRUE,Pay Bill Online,254710732381 - JANE ACHIENG MBEKE,,HAF
RE60UIYA80,06/05/2023 10:57,06/05/2023 10:57,Pay Bill Online from 254710814215 - JOAN NYAMBURA KAMAU Acc. ifb,Completed,15000,,30000,TRUE,Pay Bill Online,254710814215 - JOAN NYAMBURA KAMAU,,ifb
RE61UBBCBL,06/05/2023 09:39,06/05/2023 09:39,Pay Bill Online from 254718253322 - DUNCAN MOCHOGE Acc. JFJ,Completed,15000,,15000,TRUE,Pay Bill Online,254718253322 - DUNCAN MOCHOGE,,JFJ
RE67U5WYD3,06/05/2023 08:40,06/05/2023 08:40,Utility Account to Organization Settlement Account,Completed,,-307500,0,TRUE,Utility Account to Organization Settlement Account,979524 - ANCIENT WELLS PROPERTY MANAGERS 2,,
RE64U3C5ZY,06/05/2023 08:09,06/05/2023 08:09,Pay Bill Online from 254722910078 - MAUREEN MUNYIVA MUTUKU Acc. DCD,Completed,2000,,307500,TRUE,Pay Bill Online,254722910078 - MAUREEN MUNYIVA MUTUKU,,DCD
RE62TXFSKC,06/05/2023 05:51,06/05/2023 05:51,Pay Bill Online from 254707726441 - JOHN OLOO NYAULA Acc. IEH,Completed,10000,,305500,TRUE,Pay Bill Online,254707726441 - JOHN OLOO NYAULA,,IEH
RE69TVOLHH,06/05/2023 01:57,06/05/2023 01:57,Pay Bill from 254723499628 - CLINTON JOSEPH MUHARI Acc. hfh,Completed,16000,,295500,TRUE,Pay Utility,254723499628 - CLINTON JOSEPH MUHARI,,hfh
RE51TP173B,05/05/2023 22:06,05/05/2023 22:06,Business Pay Bill by 488519 - NCBA  Bank M-pesa Acc. HGH via API,Completed,15000,,279500,TRUE,Business Pay Bill via API,488519 - NCBA  Bank M-pesa,,HGH
RE52TNERR2,05/05/2023 21:46,05/05/2023 21:46,Pay Bill from 254703935626 - DAVID NGARI ITA Acc. FCD,Completed,1000,,264500,TRUE,Pay Utility,254703935626 - DAVID NGARI ITA,,FCD
RE58TLCFV0,05/05/2023 21:24,05/05/2023 21:24,Pay Bill from 254712283818 - OYUGI OCHIENG Acc. FCB,Completed,16000,,263500,TRUE,Pay Utility,254712283818 - OYUGI OCHIENG,,FCB
RE56TKD4W8,05/05/2023 21:14,05/05/2023 21:14,Pay Bill Online from 254724821898 - ALLAN GISONI NYANGARESI Acc. DBA,Completed,16000,,247500,TRUE,Pay Bill Online,254724821898 - ALLAN GISONI NYANGARESI,,DBA
RE52TJR8RM,05/05/2023 21:09,05/05/2023 21:09,Pay Bill Online from 254721714178 - PHANICE JEROTICH KIPTOO Acc. FBF,Completed,16000,,231500,TRUE,Pay Bill Online,254721714178 - PHANICE JEROTICH KIPTOO,,FBF
RE55TIR9N9,05/05/2023 21:00,05/05/2023 21:00,Pay Bill Online from 0768727221 - ERICK FORESTER BUYUKA Acc. IAC,Completed,9000,,215500,TRUE,Pay Bill Online,0768727221 - ERICK FORESTER BUYUKA,,IAC
RE55TCR3CH,05/05/2023 20:13,05/05/2023 20:13,Pay Bill from 0742599061 - Judy Masese Samwel Acc. HGF,Completed,9500,,206500,TRUE,Pay Utility,0742599061 - Judy Masese Samwel,,HGF
RE54T96AGY,05/05/2023 19:49,05/05/2023 19:49,Pay Bill from 254700198550 - BENARD ONYANGO Acc. DBB,Completed,16000,,197000,TRUE,Pay Utility,254700198550 - BENARD ONYANGO,,DBB
RE59T6VKFX,05/05/2023 19:35,05/05/2023 19:35,Pay Bill Online from 254705846408 - JAMES OUMA Acc. HBH,Completed,16000,,181000,TRUE,Pay Bill Online,254705846408 - JAMES OUMA,,HBH
RE53T2FFI9,05/05/2023 19:08,05/05/2023 19:08,Pay Bill from 254724477912 - SAMUEL MURIMI Acc. HCD,Completed,10000,,165000,TRUE,Pay Utility,254724477912 - SAMUEL MURIMI,,HCD
RE51T1V92J,05/05/2023 19:05,05/05/2023 19:05,Pay Bill from 254721784820 - YVONNE OKELLO Acc. IEC,Completed,9000,,155000,TRUE,Pay Utility,254721784820 - YVONNE OKELLO,,IEC
RE59SY5W4V,05/05/2023 18:42,05/05/2023 18:42,Pay Bill Online from 254715892656 - DENNIS MUSYOKA MUOKI Acc. kfa,Completed,2000,,146000,TRUE,Pay Bill Online,254715892656 - DENNIS MUSYOKA MUOKI,,kfa
RE54STRLJK,05/05/2023 18:12,05/05/2023 18:12,Pay Bill from 254716881682 - JUSTINE FAYUMA OKWEMBA Acc. HAA,Completed,17000,,144000,TRUE,Pay Utility,254716881682 - JUSTINE FAYUMA OKWEMBA,,HAA
RE50SGNYYK,05/05/2023 16:29,05/05/2023 16:29,Pay Bill Online from 254713966424 - NDUTI MUTHUI Acc. Jed ,Completed,15000,,127000,TRUE,Pay Bill Online,254713966424 - NDUTI MUTHUI,,Jed
RE54S9J5BM,05/05/2023 15:23,05/05/2023 15:23,Pay Bill from 254743487420 - Margaret Wacu Muia Acc. HGD,Completed,10000,,112000,TRUE,Pay Utility,254743487420 - Margaret Wacu Muia,,HGD
RE50S6LFO6,05/05/2023 14:55,05/05/2023 14:55,Pay Bill from 254723389177 - NELSON MOI Acc. ibf,Completed,5000,,102000,TRUE,Pay Utility,254723389177 - NELSON MOI,,ibf
RE51S31CVL,05/05/2023 14:20,05/05/2023 14:20,Pay Bill from 254719398942 - NORAH WAYUA MUNYAO Acc. KDA,Completed,16000,,97000,TRUE,Pay Utility,254719398942 - NORAH WAYUA MUNYAO,,KDA
RE50S084C8,05/05/2023 13:53,05/05/2023 13:53,Pay Bill Online from 254797160610 - JAMES MWANIKI Acc. JBI,Completed,20000,,81000,TRUE,Pay Bill Online,254797160610 - JAMES MWANIKI,,JBI
RE53RXR8DF,05/05/2023 13:31,05/05/2023 13:31,Pay Bill from 254703276305 - MARTHA MUSYOKA Acc. IAI,Completed,15000,,61000,TRUE,Pay Utility,254703276305 - MARTHA MUSYOKA,,IAI
RE56RWE26K,05/05/2023 13:18,05/05/2023 13:18,Pay Bill from 254722714951 - JOSEPH MUTIGA NDIRANGU Acc. JCF,Completed,10000,,46000,TRUE,Pay Utility,254722714951 - JOSEPH MUTIGA NDIRANGU,,JCF
RE55RPAZN5,05/05/2023 12:06,05/05/2023 12:06,Pay Bill Online from 254705425553 - ALEX MATHENGE Acc. JFD,Completed,15000,,36000,TRUE,Pay Bill Online,254705425553 - ALEX MATHENGE,,JFD
RE55RLF9LR,05/05/2023 11:27,05/05/2023 11:27,Pay Bill from 254719747910 - KEVIN NDERITU GAKINGO Acc. IDD,Completed,11000,,21000,TRUE,Pay Utility,254719747910 - KEVIN NDERITU GAKINGO,,IDD
RE55RKHNR1,05/05/2023 11:18,05/05/2023 11:18,Pay Bill from 254702216907 - FAITH MUSA Acc. kbe,Completed,10000,,10000,TRUE,Pay Utility,254702216907 - FAITH MUSA,,kbe
RE59RBQW1H,05/05/2023 09:46,05/05/2023 09:46,Utility Account to Organization Settlement Account,Completed,,-304000,0,TRUE,Utility Account to Organization Settlement Account,979524 - ANCIENT WELLS PROPERTY MANAGERS 2,,
RE50RA01ZM,05/05/2023 09:28,05/05/2023 09:28,Pay Bill Online from 0708143086 - Bonface Asigo Yanguza Acc. IAG,Completed,9000,,304000,TRUE,Pay Bill Online,0708143086 - Bonface Asigo Yanguza,,IAG
RE57R9WK27,05/05/2023 09:27,05/05/2023 09:27,Pay Bill Online from 254706898046 - STACY AKETCH OCHUKA Acc. KGK,Completed,15000,,295000,TRUE,Pay Bill Online,254706898046 - STACY AKETCH OCHUKA,,KGK
RE55R73QTN,05/05/2023 08:56,05/05/2023 08:56,Pay Bill Online from 254711507729 - DAVID ANYONGE MALIJAMBO Acc. HFA,Completed,16000,,280000,TRUE,Pay Bill Online,254711507729 - DAVID ANYONGE MALIJAMBO,,HFA
RE50R5PIPU,05/05/2023 08:41,05/05/2023 08:41,Pay Bill Online from 254710382992 - SIMON KAMAU MUIRURI Acc. JCD,Completed,15000,,264000,TRUE,Pay Bill Online,254710382992 - SIMON KAMAU MUIRURI,,JCD
RE50QZXK1K,05/05/2023 07:22,05/05/2023 07:22,Pay Bill Online from 254705951407 - CAROLINE WAITHIRA KAMAU Acc. IDH,Completed,9000,,249000,TRUE,Pay Bill Online,254705951407 - CAROLINE WAITHIRA KAMAU,,IDH
RE55QW19RF,05/05/2023 03:17,05/05/2023 03:17,Pay Bill from 0743789968 - Dallias Thanare Githara Acc. hbb,Completed,4000,,240000,TRUE,Pay Utility,0743789968 - Dallias Thanare Githara,,hbb
RE52QUO0DE,05/05/2023 00:34,05/05/2023 00:34,Pay Bill Online from 254745391294 - Faith Moraa Sitemba Acc. IFC,Completed,8000,,236000,TRUE,Pay Bill Online,254745391294 - Faith Moraa Sitemba,,IFC
RE55QUKXN3,05/05/2023 00:28,05/05/2023 00:28,Pay Bill from 254703935626 - DAVID NGARI ITA Acc. FCD,Completed,1000,,228000,TRUE,Pay Utility with OD via STK,254703935626 - DAVID NGARI ITA,,FCD
RE54QUFBRA,05/05/2023 00:19,05/05/2023 00:19,Pay Bill Online from 254701315532 - JAMES BAKER OTIENO Acc. ICH,Completed,16000,,227000,TRUE,Pay Bill Online,254701315532 - JAMES BAKER OTIENO,,ICH
RE44QLUPL6,04/05/2023 21:23,04/05/2023 21:23,Pay Bill Online from 254718663397 - JIMMY MUNYAO NZIOKI Acc. DCB,Completed,16000,,211000,TRUE,Pay Utility with OD Online,254718663397 - JIMMY MUNYAO NZIOKI,,DCB
RE44QKTDY2,04/05/2023 21:12,04/05/2023 21:12,Pay Bill Online from 254718513411 - Michelle mwangi Acc. Had,Completed,10000,,195000,TRUE,Pay Bill Online,254718513411 - Michelle mwangi,,Had
RE45QK337L,04/05/2023 21:05,04/05/2023 21:05,Pay Bill from 254720814822 - JAMES OTIENO OPAR Acc. jgj,Completed,4000,,185000,TRUE,Pay Utility with OD via STK,254720814822 - JAMES OTIENO OPAR,,jgj
RE43QJFSXR,04/05/2023 20:59,04/05/2023 20:59,Pay Bill from 254708910373 - MUNINI ISAAC Acc. IEB,Completed,15000,,181000,TRUE,Pay Utility,254708910373 - MUNINI ISAAC,,IEB
RE42QATMXC,04/05/2023 19:53,04/05/2023 19:53,Pay Bill from 254728670882 - SHARAD EDWARD ADALA OLUM Acc. KCK,Completed,15000,,166000,TRUE,Pay Utility,254728670882 - SHARAD EDWARD ADALA OLUM,,KCK
RE44PRYAS0,04/05/2023 17:47,04/05/2023 17:47,Pay Bill from 254717063324 - Christine Murugi Nyaga Acc. KDF,Completed,10000,,151000,TRUE,Pay Utility,254717063324 - Christine Murugi Nyaga,,KDF
RE48PKKAMG,04/05/2023 16:45,04/05/2023 16:45,Pay Bill Online from 254720620070 - Michelle Mwihaki Ngaruiya Acc. JEJ,Completed,15000,,141000,TRUE,Pay Bill Online,254720620070 - Michelle Mwihaki Ngaruiya,,JEJ
RE44P7VPII,04/05/2023 14:40,04/05/2023 14:40,Pay Bill from 254710357391 - CHEPKOECH VALENTINE Acc. KAH ,Completed,10000,,126000,TRUE,Pay Utility,254710357391 - CHEPKOECH VALENTINE,,KAH
RE41P608WF,04/05/2023 14:21,04/05/2023 14:21,Pay Bill from 254717148989 - ALLAN MUTHONI Acc. HAC,Completed,10000,,116000,TRUE,Pay Utility,254717148989 - ALLAN MUTHONI,,HAC
RE43P1DDQ5,04/05/2023 13:36,04/05/2023 13:36,Pay Bill Online from 254721465713 - RHODA WAMBUI MWANGI Acc. Jfh,Completed,17000,,106000,TRUE,Pay Bill Online,254721465713 - RHODA WAMBUI MWANGI,,Jfh
RE43P019RL,04/05/2023 13:23,04/05/2023 13:23,Pay Bill from 254704166365 - JOAN WANJIRU NDIRANGU Acc. KDH,Completed,10000,,89000,TRUE,Pay Utility,254704166365 - JOAN WANJIRU NDIRANGU,,KDH
RE49OZKKQT,04/05/2023 13:18,04/05/2023 13:18,Pay Bill from 0799122666 - ERIC WAWERU KIAMA Acc. JDI,Completed,20000,,79000,TRUE,Pay Utility,0799122666 - ERIC WAWERU KIAMA,,JDI
RE44OXKNLI,04/05/2023 12:58,04/05/2023 12:58,Pay Bill Online from 254721974995 - BERNICE MANGOKA Acc. KFK,Completed,16000,,59000,TRUE,Pay Bill Online,254721974995 - BERNICE MANGOKA,,KFK
RE49OURUDZ,04/05/2023 12:30,04/05/2023 12:30,Pay Bill from 254715591919 - JOHN O OCHIENG Acc. JFA,Completed,12000,,43000,TRUE,Pay Utility,254715591919 - JOHN O OCHIENG,,JFA
RE45OS0H0L,04/05/2023 12:01,04/05/2023 12:01,Pay Bill Online from 254742023558 - PEACEMARY NJERI MAINA Acc. JBC,Completed,11000,,31000,TRUE,Pay Bill Online,254742023558 - PEACEMARY NJERI MAINA,,JBC
RE40ORKYFK,04/05/2023 11:56,04/05/2023 11:56,Pay Bill Online from 254707966839 - DENNIS KIPTOO MAIYO Acc. KFC,Completed,10000,,20000,TRUE,Pay Bill Online,254707966839 - DENNIS KIPTOO MAIYO,,KFC
RE43ONCMOD,04/05/2023 11:11,04/05/2023 11:11,Pay Bill from 254701112397 - ELEMA GODANA DIBA Acc. FCA,Completed,10000,,10000,TRUE,Pay Utility,254701112397 - ELEMA GODANA DIBA,,FCA
RE44OJ19CO,04/05/2023 10:24,04/05/2023 10:24,Utility Account to Organization Settlement Account,Completed,,-271500,0,TRUE,Utility Account to Organization Settlement Account,979524 - ANCIENT WELLS PROPERTY MANAGERS 2,,
RE46OIHXVS,04/05/2023 10:19,04/05/2023 10:19,Pay Bill from 254725771056 - CHARLES MURAGURI Acc. FCE,Completed,15000,,271500,TRUE,Pay Utility,254725771056 - CHARLES MURAGURI,,FCE
RE41OG52LD,04/05/2023 09:54,04/05/2023 09:54,Pay Bill Online from 254111303204 - JAMES MUEMA KIKUVI Acc. JFI,Completed,10500,,256500,TRUE,Pay Utility with OD Online,254111303204 - JAMES MUEMA KIKUVI,,JFI
RE42O8RXFK,04/05/2023 08:31,04/05/2023 08:31,Pay Bill from 254796640269 - TABITHA NJERI MAINA Acc. JEE,Completed,10000,,246000,TRUE,Pay Utility,254796640269 - TABITHA NJERI MAINA,,JEE
RE48O3TNLI,04/05/2023 07:22,04/05/2023 07:22,Pay Bill Online from 254723394064 - ANDREW LAGAT Acc. HBG,Completed,16000,,236000,TRUE,Pay Bill Online,254723394064 - ANDREW LAGAT,,HBG
RE48O115DO,04/05/2023 06:02,04/05/2023 06:02,Pay Bill from 254729160700 - MICAH NDUNGI Acc. HFE,Completed,10500,,220000,TRUE,Pay Utility,254729160700 - MICAH NDUNGI,,HFE
RE44NYE6UM,04/05/2023 00:38,04/05/2023 00:38,Pay Bill Online from 254729097858 - AMBROSE ADEYA AHAWO Acc. KCF,Completed,10000,,209500,TRUE,Pay Bill Online,254729097858 - AMBROSE ADEYA AHAWO,,KCF
RE37NX0JUH,03/05/2023 23:31,03/05/2023 23:31,Pay Bill from 254703935626 - DAVID NGARI ITA Acc. FCD,Completed,1000,,199500,TRUE,Pay Utility,254703935626 - DAVID NGARI ITA,,FCD
RE37NMF5YN,03/05/2023 20:52,03/05/2023 20:52,FSI to Pay Bill by 998094 - COOP TO PAYBILL Acc. HEA via WEB by COOP TO PAYBILL\COOPAYBILLTRNS,Completed,16000,,198500,TRUE,FSI to Pay Bill via API,998094 - COOP TO PAYBILL,,HEA
RE38NFTQ9G,03/05/2023 20:00,03/05/2023 20:00,Pay Bill from 254725062550 - FRANKLINE MASSAM Acc. KAF,Completed,10000,,182500,TRUE,Pay Utility,254725062550 - FRANKLINE MASSAM,,KAF
RE32NFR2NM,03/05/2023 19:59,03/05/2023 19:59,Pay Bill Online from 254726001437 - FESTUS MUNYIRI MAINA Acc. IFF,Completed,10000,,172500,TRUE,Pay Bill Online,254726001437 - FESTUS MUNYIRI MAINA,,IFF
RE33NC5AFN,03/05/2023 19:35,03/05/2023 19:35,Pay Bill from 254796878941 - PAUL KYALO MUENDO Acc. HBE,Completed,10000,,162500,TRUE,Pay Utility,254796878941 - PAUL KYALO MUENDO,,HBE
RE31MXWB5N,03/05/2023 18:03,03/05/2023 18:03,Pay Bill Online from 254720451253 - JIMMY KIOGORA NKIROTE Acc. KBD,Completed,1000,,152500,TRUE,Pay Utility with OD Online,254720451253 - JIMMY KIOGORA NKIROTE,,KBD
RE30MU10QQ,03/05/2023 17:33,03/05/2023 17:33,Pay Bill from 254729233120 - ABDIRAHMAN MOHAMUD ABDULLAHI Acc. HTE,Completed,9000,,151500,TRUE,Pay Utility with OD via STK,254729233120 - ABDIRAHMAN MOHAMUD ABDULLAHI,,HTE
RE33MR8A8X,03/05/2023 17:10,03/05/2023 17:10,Pay Bill from 254717726012 - WINFRED MUENI PETER Acc. IDA,Completed,16000,,142500,TRUE,Pay Utility,254717726012 - WINFRED MUENI PETER,,IDA
RE30MEW8F4,03/05/2023 15:13,03/05/2023 15:13,Pay Bill from 254722889574 - ALLAN MWANGI Acc. JCG,Completed,20000,,126500,TRUE,Pay Utility,254722889574 - ALLAN MWANGI,,JCG
RE36MCCVJU,03/05/2023 14:48,03/05/2023 14:48,Pay Bill Online from 254725218904 - SALOME MUTHONI MWANGI Acc. KFJ,Completed,15000,,106500,TRUE,Pay Bill Online,254725218904 - SALOME MUTHONI MWANGI,,KFJ
RE33M6JGGT,03/05/2023 13:51,03/05/2023 13:51,Pay Bill Online from 254722136450 - MARY EVERLYN Acc. JAI,Completed,20000,,91500,TRUE,Pay Bill Online,254722136450 - MARY EVERLYN,,JAI
RE32M536A6,03/05/2023 13:36,03/05/2023 13:36,Pay Bill from 254704303496 - PETER MACHARIA WAIGANJO Acc. DFD,Completed,20000,,71500,TRUE,Pay Utility,254704303496 - PETER MACHARIA WAIGANJO,,DFD
RE33LV3CDN,03/05/2023 11:55,03/05/2023 11:55,Pay Bill Online from 254710202776 - KELVIN KARIMI MACHARIA Acc. FAD,Completed,11000,,51500,TRUE,Pay Bill Online,254710202776 - KELVIN KARIMI MACHARIA,,FAD
RE38LQKGD2,03/05/2023 11:06,03/05/2023 11:06,Pay Bill from 0113450723 - Mercy Kinanu Kiwoti Acc. IBB,Completed,16000,,40500,TRUE,Pay Utility,0113450723 - Mercy Kinanu Kiwoti,,IBB
RE37LOWFTL,03/05/2023 10:48,03/05/2023 10:48,Pay Bill from 0701151700 - Anabel Mwikali Gichuru Acc. JDJ,Completed,15000,,24500,TRUE,Pay Utility,0701151700 - Anabel Mwikali Gichuru,,JDJ
RE33LJNMYT,03/05/2023 09:52,03/05/2023 09:52,Pay Bill Online from 0757319222 - ATEM KUOL JOHN BOL Acc. FAC,Completed,9500,,9500,TRUE,Pay Bill Online,0757319222 - ATEM KUOL JOHN BOL,,FAC
RE35LB83RF,03/05/2023 08:15,03/05/2023 08:15,Utility Account to Organization Settlement Account,Completed,,-466400,0,TRUE,Utility Account to Organization Settlement Account,979524 - ANCIENT WELLS PROPERTY MANAGERS 2,,
RE35LAB5PD,03/05/2023 08:03,03/05/2023 08:03,Pay Bill Online from 254719134037 - KELVIN KITOO Acc. FAA,Completed,16000,,466400,TRUE,Pay Bill Online,254719134037 - KELVIN KITOO,,FAA
RE35L8AILR,03/05/2023 07:31,03/05/2023 07:31,Pay Bill from 254723929380 - RHODAH K WAMBUA Acc. HEG,Completed,15000,,450400,TRUE,Pay Utility,254723929380 - RHODAH K WAMBUA,,HEG
RE22L1XOLM,02/05/2023 23:44,02/05/2023 23:44,Pay Bill from 0706563358 - HARRIET NYANCHAMA NYABERI Acc. HBA,Completed,16000,,435400,TRUE,Pay Utility,0706563358 - HARRIET NYANCHAMA NYABERI,,HBA
RE23L01T2Z,02/05/2023 22:43,02/05/2023 22:43,Pay Bill Online from 254716315144 - PETER MUNYIRI WAROTERE Acc. FBB,Completed,16000,,419400,TRUE,Pay Bill Online,254716315144 - PETER MUNYIRI WAROTERE,,FBB
RE22KU7K1E,02/05/2023 21:17,02/05/2023 21:17,Pay Bill Online from 254720407659 - FRANCIS CHUMO Acc. KDG,Completed,10000,,403400,TRUE,Pay Bill Online,254720407659 - FRANCIS CHUMO,,KDG
RE29K71RUJ,02/05/2023 18:24,02/05/2023 18:24,Pay Bill from 254724852503 - GEOFREY YEGO Acc. JFF,Completed,10000,,393400,TRUE,Pay Utility,254724852503 - GEOFREY YEGO,,JFF
RE24JZ33WC,02/05/2023 17:23,02/05/2023 17:23,Pay Bill from 254720496449 - STANLEY KIPKOECH RONO Acc. FBE,Completed,15000,,383400,TRUE,Pay Utility,254720496449 - STANLEY KIPKOECH RONO,,FBE
RE21JUR7KD,02/05/2023 16:46,02/05/2023 16:46,Pay Bill Online from 254720451253 - JIMMY KIOGORA NKIROTE Acc. KBD,Completed,1000,,368400,TRUE,Pay Utility with OD Online,254720451253 - JIMMY KIOGORA NKIROTE,,KBD
RE26JQPD94,02/05/2023 16:07,02/05/2023 16:07,Pay Bill from 254726753273 - JESSE K MURIRMI NJERU Acc. HCH,Completed,17000,,367400,TRUE,Pay Utility,254726753273 - JESSE K MURIRMI NJERU,,HCH
RE24JOLLVS,02/05/2023 15:46,02/05/2023 15:46,Pay Bill from 254743283477 - FAITH JEPCHIRCHIR Acc. IGE,Completed,9000,,350400,TRUE,Pay Utility,254743283477 - FAITH JEPCHIRCHIR,,IGE
RE25JN45B3,02/05/2023 15:31,02/05/2023 15:31,Pay Bill from 254741223822 - Rhoyce Kiptarus Boiyo Acc. FEC,Completed,9000,,341400,TRUE,Pay Utility,254741223822 - Rhoyce Kiptarus Boiyo,,FEC
RE27JMY57P,02/05/2023 15:29,02/05/2023 15:29,Pay Bill Online from 254713404029 - ANNE ISEUNA Acc. DED,Completed,20000,,332400,TRUE,Pay Bill Online,254713404029 - ANNE ISEUNA,,DED
RE25JL2MCT,02/05/2023 15:10,02/05/2023 15:10,Pay Bill from 254719499823 - MOSES MWANZIA MUTHIANI Acc. Jcc,Completed,9000,,312400,TRUE,Pay Utility with OD via STK,254719499823 - MOSES MWANZIA MUTHIANI,,Jcc
RE20JID1KY,02/05/2023 14:42,02/05/2023 14:42,Pay Bill from 254724862849 - Ann Fresiah Kinyua Acc. HDA,Completed,16000,,303400,TRUE,Pay Utility,254724862849 - Ann Fresiah Kinyua,,HDA
RE29JEV5A5,02/05/2023 14:06,02/05/2023 14:06,Pay Bill from 254114394078 - pascaline iteriteka Acc. JEG,Completed,6000,,287400,TRUE,Pay Utility,254114394078 - pascaline iteriteka,,JEG
RE23JBCVNR,02/05/2023 13:31,02/05/2023 13:31,Pay Bill from 254701112397 - ELEMA GODANA DIBA Acc. FCA,Completed,6000,,281400,TRUE,Pay Utility,254701112397 - ELEMA GODANA DIBA,,FCA
RE21JAIBSZ,02/05/2023 13:22,02/05/2023 13:22,Pay Bill Online from 254729796719 - JACINTA WANJIKU NJERI Acc. FFF,Completed,17000,,275400,TRUE,Pay Bill Online,254729796719 - JACINTA WANJIKU NJERI,,FFF
RE29J93ZWV,02/05/2023 13:08,02/05/2023 13:08,Pay Bill Online from 254723370004 - LABAN MAINGI WAMBUA Acc. JEF,Completed,2000,,258400,TRUE,Pay Utility with OD Online,254723370004 - LABAN MAINGI WAMBUA,,JEF
RE20J8838E,02/05/2023 12:58,02/05/2023 12:58,Pay Bill from 254729450678 - GRACE NDUNGE Acc. fba,Completed,6000,,256400,TRUE,Pay Utility with OD via STK,254729450678 - GRACE NDUNGE,,fba
RE25J7UFGX,02/05/2023 12:55,02/05/2023 12:55,Pay Bill Online from 254700187806 - WINNIE OLIVIA AKOTH Acc. JEC,Completed,10000,,250400,TRUE,Pay Bill Online,254700187806 - WINNIE OLIVIA AKOTH,,JEC
RE23J3WO6T,02/05/2023 12:13,02/05/2023 12:13,Pay Bill from 254708570729 - MARY OGOLLA Acc. house no.KAD,Completed,12000,,240400,TRUE,Pay Utility,254708570729 - MARY OGOLLA,,house
RE28J1H7CW,02/05/2023 11:47,02/05/2023 11:47,Pay Bill from 254724379488 - NICHOLAS KOOME Acc. JDE,Completed,9500,,228400,TRUE,Pay Utility,254724379488 - NICHOLAS KOOME,,JDE
RE29IZE7CD,02/05/2023 11:24,02/05/2023 11:24,Pay Bill from 254714060203 - PATRICK MWANGOMBE MSAWUCHI Acc. KEI,Completed,12000,,218900,TRUE,Pay Utility,254714060203 - PATRICK MWANGOMBE MSAWUCHI,,KEI
RE20IWIRX2,02/05/2023 10:52,02/05/2023 10:52,Pay Bill from 254723389177 - NELSON MOI Acc. ibf,Completed,3000,,206900,TRUE,Pay Utility,254723389177 - NELSON MOI,,ibf
RE25IVHJHN,02/05/2023 10:41,02/05/2023 10:41,Pay Bill Online from 254113678329 - LESLIE NAINI KOIKAI Acc. IBD ,Completed,11000,,203900,TRUE,Pay Bill Online,254113678329 - LESLIE NAINI KOIKAI,,IBD
RE29ITYYGN,02/05/2023 10:24,02/05/2023 10:24,Pay Bill Online from 254702190887 - Nax Ochieng Acc. FDE,Completed,15000,,192900,TRUE,Pay Bill Online,254702190887 - Nax Ochieng,,FDE
RE26ISD0MU,02/05/2023 10:06,02/05/2023 10:06,Pay Bill from 254720375006 - JACOB KANGOGO Acc. IBA,Completed,15000,,177900,TRUE,Pay Utility,254720375006 - JACOB KANGOGO,,IBA
RE25IJ19WB,02/05/2023 08:18,02/05/2023 08:18,Pay Bill Online from 254706549634 - CLINTON OMBASA Acc. FDB,Completed,10000,,162900,TRUE,Pay Bill Online,254706549634 - CLINTON OMBASA,,FDB
RE29IH1JD1,02/05/2023 07:50,02/05/2023 07:50,Pay Bill from 254745338401 - mirriam ngina jane Acc. KGC ,Completed,9000,,152900,TRUE,Pay Utility,254745338401 - mirriam ngina jane,,KGC
RE27IDCF59,02/05/2023 06:28,02/05/2023 06:28,Pay Bill Online from 254720451253 - JIMMY KIOGORA NKIROTE Acc. KBD,Completed,1000,,143900,TRUE,Pay Bill Online,254720451253 - JIMMY KIOGORA NKIROTE,,KBD
RE22IBC6EQ,02/05/2023 01:37,02/05/2023 01:37,Pay Bill from 254703935626 - DAVID NGARI ITA Acc. FCD,Completed,1000,,142900,TRUE,Pay Utility,254703935626 - DAVID NGARI ITA,,FCD
RE25IAWPH3,02/05/2023 00:47,02/05/2023 00:47,Pay Bill Online from 254728055159 - LEE NDUATI FRANCIS Acc. FEF,Completed,16000,,141900,TRUE,Pay Bill Online,254728055159 - LEE NDUATI FRANCIS,,FEF
RE17I918D3,01/05/2023 23:08,01/05/2023 23:08,Pay Bill Online from 254721417560 - ANDREW SANDE Acc. JBJ,Completed,16000,,125900,TRUE,Pay Bill Online,254721417560 - ANDREW SANDE,,JBJ
RE19HYAHC9,01/05/2023 20:31,01/05/2023 20:31,Pay Bill from 254708875278 - ROSEMARY WANJIRU KONYE Acc. HBF ,Completed,9000,,109900,TRUE,Pay Utility,254708875278 - ROSEMARY WANJIRU KONYE,,HBF
RE11HJ133D,01/05/2023 18:38,01/05/2023 18:38,Pay Bill Online from 254714710698 - TABITHA MULEE KYALO Acc. IFD,Completed,11500,,100900,TRUE,Pay Bill Online,254714710698 - TABITHA MULEE KYALO,,IFD
RE15HHD3XR,01/05/2023 18:25,01/05/2023 18:25,Pay Bill from 254729450678 - GRACE NDUNGE Acc. fba,Completed,2000,,89400,TRUE,Pay Utility with OD via STK,254729450678 - GRACE NDUNGE,,fba
RE18HEKKBG,01/05/2023 18:03,01/05/2023 18:03,Pay Bill from 254728084427 - MARY NABWIRE OKELLO Acc. FDF,Completed,16000,,87400,TRUE,Pay Utility,254728084427 - MARY NABWIRE OKELLO,,FDF
RE13H6C7FL,01/05/2023 16:51,01/05/2023 16:51,Pay Bill from 254700430569 - EDITH   GAKII Acc. DDB,Completed,16000,,71400,TRUE,Pay Utility,254700430569 - EDITH   GAKII,,DDB
RE11H5PSDN,01/05/2023 16:45,01/05/2023 16:45,Pay Bill Online from 254700518930 - RENE EMMANUEL AURA Acc. fbd,Completed,7900,,55400,TRUE,Pay Bill Online,254700518930 - RENE EMMANUEL AURA,,fbd
RE13H43S6P,01/05/2023 16:29,01/05/2023 16:29,Pay Bill from 254714180761 - MARTIN MBAU Acc. kdi,Completed,11500,,47500,TRUE,Pay Utility,254714180761 - MARTIN MBAU,,kdi
RE17GU5SH1,01/05/2023 14:48,01/05/2023 14:48,Pay Bill Online from 254795510441 - LEWIS MUEMA Acc. KEB,Completed,16000,,36000,TRUE,Pay Bill Online,254795510441 - LEWIS MUEMA,,KEB
RE10GO2IZU,01/05/2023 13:45,01/05/2023 13:45,Pay Bill from 254717801919 - MARCELINE AKINYI Acc. IAF,Completed,10000,,20000,TRUE,Pay Utility,254717801919 - MARCELINE AKINYI,,IAF
RE18GM9FK6,01/05/2023 13:27,01/05/2023 13:27,Pay Bill from 254796848496 - IVY WITABA Acc. JBA,Completed,10000,,10000,TRUE,Pay Utility,254796848496 - IVY WITABA,,JBA
RE16GK83ZE,01/05/2023 13:06,01/05/2023 13:06,Utility Account to Organization Settlement Account,Completed,,-330000,0,TRUE,Utility Account to Organization Settlement Account,979524 - ANCIENT WELLS PROPERTY MANAGERS 2,,
RE14GJQE2W,01/05/2023 13:01,01/05/2023 13:01,Pay Bill Online from 254716011092 - BRIAN OPIYO OMONDI Acc. icb,Completed,16000,,330000,TRUE,Pay Bill Online,254716011092 - BRIAN OPIYO OMONDI,,icb
RE13GGRMHF,01/05/2023 12:29,01/05/2023 12:29,Pay Bill from 254725754547 - MWACHIRO GEORGE DECHE Acc. DFC,Completed,20000,,314000,TRUE,Pay Utility,254725754547 - MWACHIRO GEORGE DECHE,,DFC
RE10GG19JY,01/05/2023 12:21,01/05/2023 12:21,Pay Bill from 0745472241 - Tonny Nyachieo Onsinyo Acc. idc,Completed,9500,,294000,TRUE,Pay Utility,0745472241 - Tonny Nyachieo Onsinyo,,idc
RE14GCRZRW,01/05/2023 11:46,01/05/2023 11:46,Pay Bill from 254715636579 - GRACE KALUKI MULI Acc. FDA ,Completed,16000,,284500,TRUE,Pay Utility,254715636579 - GRACE KALUKI MULI,,FDA
RE13FTUSNX,01/05/2023 07:59,01/05/2023 07:59,Pay Bill from 0743248310 - PATRICK STURRIDGE NYONGESA Acc. daa,Completed,2000,,268500,TRUE,Pay Utility,0743248310 - PATRICK STURRIDGE NYONGESA,,daa
