Receipt No.,Completion Time,Initiation Time,Details,Transaction Status,Paid In,Withdrawn,Balance,Balance Confirmed,Reason Type,Other Party Info,Linked Transaction ID,A/C No.
PL34JMA1RA,03/12/2021 10:21,03/12/2021 10:21,Pay Bill from 0704120519 - Mildred   Adhiambo Acc. G1,Completed,8000,,41500,TRUE,Pay Utility,0704120519 - Mildred   Adhiambo,,G1
PL33JLS4TR,03/12/2021 10:12,03/12/2021 10:12,Pay Bill Online from 254724871526 - JOHN KAGUONGO Acc. D5 JOHN KAGUONGO,Completed,8500,,33500,TRUE,Pay Bill Online,254724871526 - JOHN KAGUONGO,,D5
PL27J7Q0TL,02/12/2021 22:20,02/12/2021 22:20,Pay Bill Online from 254715144865 - CAROL JULIET MUGOYA Acc. Carol Juliet E2,Completed,8000,,25000,TRUE,Pay Bill Online,254715144865 - CAROL JULIET MUGOYA,,Carol
PL29IP6ADR,02/12/2021 18:19,02/12/2021 18:19,Pay Bill from 254714419834 - FAITH MWIKALI MUTHAMA Acc. D4,Completed,8500,,17000,TRUE,Pay Utility,254714419834 - FAITH MWIKALI MUTHAMA,,D4
PL21IG81G7,02/12/2021 16:21,02/12/2021 16:21,Pay Bill from 254728664261 - LEVIN INGATI NYONJE Acc. B5,Completed,8500,,8500,TRUE,Pay Utility,254728664261 - LEVIN INGATI NYONJE,,B5
PL10G9GMRA,01/12/2021 12:29,01/12/2021 12:29,Utility Account to Organization Settlement Account,Completed,,-13000,0,TRUE,Utility Account to Organization Settlement Account,887075 - ANCIENT WELLS LTD 3,,
PKU1EQX11B,30/11/2021 15:06,30/11/2021 15:06,Pay Bill from 254720086214 - SAMUEL WANJIKU Acc. B3,Completed,13000,,13000,TRUE,Pay Utility with OD via STK,254720086214 - SAMUEL WANJIKU,,B3
PKS5BH09J9,28/11/2021 15:05,28/11/2021 15:05,Utility Account to Organization Settlement Account,Completed,,-16000,0,TRUE,Utility Account to Organization Settlement Account,887075 - ANCIENT WELLS LTD 3,,
PKS7BCOVLN,28/11/2021 13:52,28/11/2021 13:52,Pay Bill from 254713701237 - Michael Wanjala Acc. G2,Completed,8000,,16000,TRUE,Pay Utility,254713701237 - Michael Wanjala,,G2
PKS0BA2L9M,28/11/2021 13:05,28/11/2021 13:05,Pay Bill Online from 254727725587 - IVY MACHARIA Acc. B2,Completed,8000,,8000,TRUE,Pay Bill Online,254727725587 - IVY MACHARIA,,B2
PKM211N1JM,22/11/2021 13:00,22/11/2021 13:00,Utility Account to Organization Settlement Account,Completed,,-11000,0,TRUE,Utility Account to Organization Settlement Account,887075 - ANCIENT WELLS LTD 3,,
PKL8Z8N926,21/11/2021 20:16,21/11/2021 20:16,Pay Bill from 254711428856 - JAPHETH OTSIENO BARASA Acc. Japheth Barasa A5,Completed,11000,,11000,TRUE,Pay Utility,254711428856 - JAPHETH OTSIENO BARASA,,Japheth
PKK5WTI8ET,20/11/2021 13:04,20/11/2021 13:04,Utility Account to Organization Settlement Account,Completed,,-5000,0,TRUE,Utility Account to Organization Settlement Account,887075 - ANCIENT WELLS LTD 3,,
PKK7WLNFVZ,20/11/2021 10:56,20/11/2021 10:56,Pay Bill from 254713229967 - John Mugabo Simba Acc. E4,Completed,5000,,5000,TRUE,Pay Utility,254713229967 - John Mugabo Simba,,E4
PKG1PW9PM3,16/11/2021 10:46,16/11/2021 10:46,Utility Account to Organization Settlement Account,Completed,,-3000,0,TRUE,Utility Account to Organization Settlement Account,887075 - ANCIENT WELLS LTD 3,,
PKG0PP039S,16/11/2021 08:16,16/11/2021 08:16,Pay Bill from 254713229967 - John Mugabo Simba Acc. E4,Completed,3000,,3000,TRUE,Pay Utility,254713229967 - John Mugabo Simba,,E4
PKF9PJIFOX,15/11/2021 23:17,15/11/2021 23:17,Utility Account to Organization Settlement Account,Completed,,-3000,0,TRUE,Utility Account to Organization Settlement Account,887075 - ANCIENT WELLS LTD 3,,
PKF4OZ6540,15/11/2021 17:45,15/11/2021 17:45,Pay Bill from 254703176849 - ROYAL MUYA Acc. F2,Completed,3000,,3000,TRUE,Pay Utility,254703176849 - ROYAL MUYA,,F2
PKE2MZ1QGM,14/11/2021 12:21,14/11/2021 12:21,Utility Account to Organization Settlement Account,Completed,,-14500,0,TRUE,Utility Account to Organization Settlement Account,887075 - ANCIENT WELLS LTD 3,,
PKD6LYPW7C,13/11/2021 17:51,13/11/2021 17:51,Pay Bill from 0799912339 - PETER KAMAU MURIU Acc. C5,Completed,7000,,14500,TRUE,Pay Utility,0799912339 - PETER KAMAU MURIU,,C5
PKD5LVQVOH,13/11/2021 17:08,13/11/2021 17:08,Pay Bill from 254726432241 - STEPHEN MAYABI Acc. A1,Completed,7500,,7500,TRUE,Pay Utility with OD via STK,254726432241 - STEPHEN MAYABI,,A1
PKC9K7APJ3,12/11/2021 16:53,12/11/2021 16:53,Utility Account to Organization Settlement Account,Completed,,-8500,0,TRUE,Utility Account to Organization Settlement Account,887075 - ANCIENT WELLS LTD 3,,
PKC6JZ05HA,12/11/2021 14:30,12/11/2021 14:30,Pay Bill from 254790837715 - JULIUS MWASHUMBE MAGHANGA Acc. F5,Completed,8500,,8500,TRUE,Pay Utility,254790837715 - JULIUS MWASHUMBE MAGHANGA,,F5
PKC7JNYMWR,12/11/2021 11:08,12/11/2021 11:08,Utility Account to Organization Settlement Account,Completed,,-5000,0,TRUE,Utility Account to Organization Settlement Account,887075 - ANCIENT WELLS LTD 3,,
PKB5ILRQ1R,11/11/2021 16:51,11/11/2021 16:51,Pay Bill from 254703176849 - ROYAL MUYA Acc. F2,Completed,5000,,5000,TRUE,Pay Utility,254703176849 - ROYAL MUYA,,F2
PKB6HV0XS2,11/11/2021 08:26,11/11/2021 08:26,Utility Account to Organization Settlement Account,Completed,,-39500,0,TRUE,Utility Account to Organization Settlement Account,887075 - ANCIENT WELLS LTD 3,,
PKA1H19B1R,10/11/2021 16:55,10/11/2021 16:55,Pay Bill Online from 0793999724 - JALEEL    MWERO Acc. A2,Completed,7500,,39500,TRUE,Pay Bill Online,0793999724 - JALEEL    MWERO,,A2
PK93FJMG8X,09/11/2021 17:48,09/11/2021 17:48,Pay Bill Online from 254715020357 - ELIZABETH NJERI WARARI Acc. C2,Completed,7500,,32000,TRUE,Pay Bill Online,254715020357 - ELIZABETH NJERI WARARI,,C2
PK95FBCTO9,09/11/2021 15:34,09/11/2021 15:34,Pay Bill from 254721539716 - OCTAVIAN MWANYALO Acc. C6,Completed,8000,,24500,TRUE,Pay Utility,254721539716 - OCTAVIAN MWANYALO,,C6
PK94F81EQU,09/11/2021 14:32,09/11/2021 14:32,Pay Bill from 254727585857 - PETER MUOKI NGUNDO Acc. peter muoki e6,Completed,8500,,16500,TRUE,Pay Utility,254727585857 - PETER MUOKI NGUNDO,,peter
PK92F49IAG,09/11/2021 13:24,09/11/2021 13:24,Pay Bill from 254717577871 - KELVIN MUTUMA KINYUA Acc. B1,Completed,8000,,8000,TRUE,Pay Utility,254717577871 - KELVIN MUTUMA KINYUA,,B1
PK96EXHR50,09/11/2021 11:18,09/11/2021 11:18,Utility Account to Organization Settlement Account,Completed,,-8000,0,TRUE,Utility Account to Organization Settlement Account,887075 - ANCIENT WELLS LTD 3,,
PK89DWQ4DV,08/11/2021 17:30,08/11/2021 17:30,Pay Bill from 0702590087 - edel njoki kimani Acc. F3,Completed,8000,,8000,TRUE,Pay Utility,0702590087 - edel njoki kimani,,F3
PK85D6UAKV,08/11/2021 09:55,08/11/2021 09:55,Utility Account to Organization Settlement Account,Completed,,-20000,0,TRUE,Utility Account to Organization Settlement Account,887075 - ANCIENT WELLS LTD 3,,
PK89D46XTJ,08/11/2021 09:04,08/11/2021 09:04,Pay Bill from 254792976771 - DANIEL MUTHAMA NDUNDA Acc. F1,Completed,8000,,20000,TRUE,Pay Utility,254792976771 - DANIEL MUTHAMA NDUNDA,,F1
PK78CTVN6C,07/11/2021 21:49,07/11/2021 21:49,Pay Bill from 254714851955 - SALIM ASMAN MUSUNGULE Acc. Christopher,Completed,12000,,12000,TRUE,Pay Utility,254714851955 - SALIM ASMAN MUSUNGULE,,Christopher
PK5487W6AQ,05/11/2021 09:53,05/11/2021 09:53,Utility Account to Organization Settlement Account,Completed,,-25000,0,TRUE,Utility Account to Organization Settlement Account,887075 - ANCIENT WELLS LTD 3,,
PK5886G5FI,05/11/2021 09:26,05/11/2021 09:26,Pay Bill from 0704120519 - Mildred   Adhiambo Acc. G1,Completed,8000,,25000,TRUE,Pay Utility,0704120519 - Mildred   Adhiambo,,G1
PK507XW756,05/11/2021 01:28,05/11/2021 01:28,Pay Bill from 0748180183 - STEPHEN KYALO MUALUKO Acc. B6,Completed,8500,,17000,TRUE,Pay Utility,0748180183 - STEPHEN KYALO MUALUKO,,B6
PK497T8KRN,04/11/2021 21:25,04/11/2021 21:25,Pay Bill Online from 254711877988 - PATRICK KONZI Acc. b4,Completed,8500,,8500,TRUE,Pay Bill Online,254711877988 - PATRICK KONZI,,b4
PK427F284Q,04/11/2021 18:32,04/11/2021 18:32,Utility Account to Organization Settlement Account,Completed,,-8500,0,TRUE,Utility Account to Organization Settlement Account,887075 - ANCIENT WELLS LTD 3,,
PK416QZ2Z7,04/11/2021 12:09,04/11/2021 12:09,Pay Bill from 254717465142 - EPHANTUS IRURA Acc. c4 muriithi,Completed,8500,,8500,TRUE,Pay Utility,254717465142 - EPHANTUS IRURA,,c4
PK476FNSFP,04/11/2021 08:37,04/11/2021 08:37,Utility Account to Organization Settlement Account,Completed,,-28000,0,TRUE,Utility Account to Organization Settlement Account,887075 - ANCIENT WELLS LTD 3,,
PK3568EZLL,03/11/2021 23:07,03/11/2021 23:07,Pay Bill Online from 254720062144 - CAROLINE AMONDI OKELO Acc. f4,Completed,12000,,28000,TRUE,Pay Bill Online,254720062144 - CAROLINE AMONDI OKELO,,f4
PK335EI349,03/11/2021 15:38,03/11/2021 15:38,Pay Bill Online from 254704213191 - VALENTINE WAVINYA Acc. e3,Completed,8000,,16000,TRUE,Pay Bill Online,254704213191 - VALENTINE WAVINYA,,e3
PK314SFIDX,03/11/2021 09:03,03/11/2021 09:03,Pay Bill Online from 254714597495 - WAMBUA KIOKO Acc. C1,Completed,8000,,8000,TRUE,Pay Bill Online,254714597495 - WAMBUA KIOKO,,C1
PK2446RNUE,02/11/2021 19:17,02/11/2021 19:17,Utility Account to Organization Settlement Account,Completed,,-16500,0,TRUE,Utility Account to Organization Settlement Account,887075 - ANCIENT WELLS LTD 3,,
PK203D3HCM,02/11/2021 11:56,02/11/2021 11:56,Pay Bill Online from 254724871526 - JOHN KAGUONGO Acc. D5 JOHN KAGUONGO,Completed,8500,,16500,TRUE,Pay Bill Online,254724871526 - JOHN KAGUONGO,,D5
PK122RA350,01/11/2021 21:10,01/11/2021 21:10,Pay Bill from 0715030019 - Omwenga Ong'era Stephen Acc. E1,Completed,8000,,8000,TRUE,Pay Utility,0715030019 - Omwenga Ong'era Stephen,,E1
PK1920FBBF,01/11/2021 15:11,01/11/2021 15:11,Utility Account to Organization Settlement Account,Completed,,-8500,0,TRUE,Utility Account to Organization Settlement Account,887075 - ANCIENT WELLS LTD 3,,
PK111I3243,01/11/2021 09:46,01/11/2021 09:46,Pay Bill from 254714419834 - FAITH MWIKALI MUTHAMA Acc. D4,Completed,8500,,8500,TRUE,Pay Utility,254714419834 - FAITH MWIKALI MUTHAMA,,D4
PK111G4RK3,01/11/2021 09:09,01/11/2021 09:09,Utility Account to Organization Settlement Account,Completed,,-11900,0,TRUE,Utility Account to Organization Settlement Account,887075 - ANCIENT WELLS LTD 3,,
