Receipt No.,Completion Time,Initiation Time,Details,Transaction Status,Paid In,Withdrawn,Balance,Balance Confirmed,Reason Type,Other Party Info,Linked Transaction ID,A/C No.
RDK9KVRYH5,20/4/2023 00:46:22,20/4/2023 00:46:22,Pay Bill from 254728208930 - DOREEN MAKENA Acc. Z10,Completed,5000,,136000,TRUE,Pay Utility with OD via STK,254728208930 - DOREEN MAKENA,,Z10
RDI7I2QG5F,18/4/2023 23:32:24,18/4/2023 23:32:24,Utility Account to Organization Settlement Account,Completed,,-37000,131000,TRUE,Utility Account to Organization Settlement Account,887264 - ANCIENT WELLS LTD 2,,
RDI1I2MW2P,18/4/2023 23:28:25,18/4/2023 23:28:25,Pay Bill from 254728912446 - GRACE NJERI KIMANI Acc. ancient well ,Completed,40000,,168000,TRUE,Pay Utility,254728912446 - GRACE NJERI KIMANI,,ancient
RDH9EUREW7,17/4/2023 19:53:22,17/4/2023 19:53:22,Pay Bill from 254728479985 - VIRGINIAH MUHIA Acc. B7,Completed,6000,,128000,TRUE,Pay Utility,254728479985 - VIRGINIAH MUHIA,,B7
RDH8DOUVAA,17/4/2023 13:49:09,17/4/2023 13:49:09,Pay Bill Online from 0798280554 - Joseph Wambugu Macharia Acc. house number 17,Completed,16000,,122000,TRUE,Pay Bill Online,0798280554 - Joseph Wambugu Macharia,,house
RDF4A3QASM,15/4/2023 23:11:23,15/4/2023 23:11:23,Pay Bill from 254729140163 - BEATRICE OMADI NYANDIGA Acc. Z13,Completed,10000,,106000,TRUE,Pay Utility with OD via STK,254729140163 - BEATRICE OMADI NYANDIGA,,Z13
RDF49MF5YE,15/4/2023 19:56:20,15/4/2023 19:56:20,Utility Account to Organization Settlement Account,Completed,,-150000,96000,TRUE,Utility Account to Organization Settlement Account,887264 - ANCIENT WELLS LTD 2,,
RDF39JMZTJ,15/4/2023 19:38:15,15/4/2023 19:38:15,Pay Bill from 254721226492 - MICHAEL OKEYO CURTIS Acc. uu4,Completed,5500,,246000,TRUE,Pay Utility with OD via STK,254721226492 - MICHAEL OKEYO CURTIS,,uu4
RDE176S24T,14/4/2023 22:22:39,14/4/2023 22:22:39,Utility Account to Organization Settlement Account,Completed,,-18000,240500,TRUE,Utility Account to Organization Settlement Account,887264 - ANCIENT WELLS LTD 2,,
RDD14IU7IJ,13/4/2023 23:27:55,13/4/2023 23:27:55,Pay Bill Online from 254722269369 - FAIZ OMAR BASABRA Acc. Nairobi west12,Completed,70000,,258500,TRUE,Pay Bill Online,254722269369 - FAIZ OMAR BASABRA,,Nairobi
RDD442GY4E,13/4/2023 19:59:21,13/4/2023 19:59:21,Utility Account to Organization Settlement Account,Completed,,-33000,188500,TRUE,Utility Account to Organization Settlement Account,887264 - ANCIENT WELLS LTD 2,,
RDC9Z4BL71,12/4/2023 13:11,12/4/2023 13:11,Utility Account to Organization Settlement Account,Completed,,-160000,221500,TRUE,Utility Account to Organization Settlement Account,887264 - ANCIENT WELLS LTD 2,,
RDC8YVOQR6,12/4/2023 11:34,12/4/2023 11:34,Pay Bill from 254725014210 - FREDRICK MOUNDE Acc. epz mh,Completed,30000,,381500,TRUE,Pay Utility,254725014210 - FREDRICK MOUNDE,,epz
RDC1YD6QFH,12/4/2023 7:49,12/4/2023 7:48,Pay Bill Online from 254796931225 - Martin Nyaga Gikang'a Acc. z8,Completed,16000,,351500,TRUE,Pay Utility with OD Online,254796931225 - Martin Nyaga Gikang'a,,z8
RDB5W1JE3B,11/4/2023 10:49,11/4/2023 10:49,Pay Bill from 254720867522 - DANIEL WAMBUI Acc. Z15 ,Completed,16000,,335500,TRUE,Pay Utility,254720867522 - DANIEL WAMBUI,,Z15
RDA5VCCIUH,10/4/2023 22:15,10/4/2023 22:15,FSI to Pay Bill by 998094 - COOP TO PAYBILL Acc. hse no.3  via WEB by COOP TO PAYBILL\COOPAYBILLTRNS,Completed,12000,,319500,TRUE,FSI to Pay Bill via API,998094 - COOP TO PAYBILL,,hse
RDA7UL5IHV,10/4/2023 18:20,10/4/2023 18:20,Pay Bill from 0115556359 - CHEPNGENO   EDITH Acc. C701,Completed,20000,,307500,TRUE,Pay Utility,0115556359 - CHEPNGENO   EDITH,,C701
RDA9U3ZDY9,10/4/2023 15:34,10/4/2023 15:34,Pay Bill from 0745528615 - COLLINS OCHIENG ONYANGO Acc. U6,Completed,5000,,287500,TRUE,Pay Utility,0745528615 - COLLINS OCHIENG ONYANGO,,U6
RDA4TIAMVY,10/4/2023 11:35,10/4/2023 11:35,Pay Bill from 0743263203 - Patrick theuri wachira Acc. u1,Completed,5000,,282500,TRUE,Pay Utility,0743263203 - Patrick theuri wachira,,u1
RD82Q5PYN4,8/4/2023 21:24,8/4/2023 21:24,Pay Bill from 254714033354 - George njoroge Acc. z11,Completed,16000,,277500,TRUE,Pay Utility,254714033354 - George njoroge,,z11
RD86OOCDCQ,8/4/2023 13:35,8/4/2023 13:35,Pay Bill from 254723853941 - ELIZABETH MUTIO MUTUKU Acc. house number 12,Completed,20000,,261500,TRUE,Pay Utility,254723853941 - ELIZABETH MUTIO MUTUKU,,house
RD76NEY53W,7/4/2023 21:30,7/4/2023 21:30,Pay Bill from 0759385844 - ROSEMARY WAMBUI GITAU Acc. b5,Completed,6000,,241500,TRUE,Pay Utility,0759385844 - ROSEMARY WAMBUI GITAU,,b5
RD65KSURT1,6/4/2023 23:41,6/4/2023 23:41,Pay Bill from 254720084537 - MARY NDUKU WAMBUA Acc. 5,Completed,16000,,235500,TRUE,Pay Utility,254720084537 - MARY NDUKU WAMBUA,,5
RD67JB9Z5N,6/4/2023 15:25,6/4/2023 15:25,Pay Bill from 254745713921 - LAUREEN WANJIRU MAINA Acc. B3,Completed,6000,,219500,TRUE,Pay Utility,254745713921 - LAUREEN WANJIRU MAINA,,B3
RD66IQ23CA,6/4/2023 11:50,6/4/2023 11:50,Pay Bill from 254722314500 - SHARON AKINYI OBIERO Acc. Hse 1,Completed,12000,,213500,TRUE,Pay Utility,254722314500 - SHARON AKINYI OBIERO,,Hse
RD60I6Q2B2,6/4/2023 8:16,6/4/2023 8:16,Pay Bill from 254721392330 - ROSE KENDI MUTEGI Acc. A202 ,Completed,90000,,201500,TRUE,Pay Utility,254721392330 - ROSE KENDI MUTEGI,,A202
RD56HBCNOY,5/4/2023 19:40,5/4/2023 19:40,Pay Bill from 254797632111 - ISAAC MACHARIA Acc. D5,Completed,11000,,111500,TRUE,Pay Utility,254797632111 - ISAAC MACHARIA,,D5
RD51H0CTXZ,5/4/2023 18:32,5/4/2023 18:32,Utility Account to Organization Settlement Account,Completed,,-15000,100500,TRUE,Utility Account to Organization Settlement Account,887264 - ANCIENT WELLS LTD 2,,
RD54F1U2RO,5/4/2023 0:14,5/4/2023 0:14,Pay Bill Online from 254718167869 - MARK OTIENO Acc. A3,Completed,7000,,115500,TRUE,Pay Bill Online,254718167869 - MARK OTIENO,,A3
RD47DITB0L,4/4/2023 15:10,4/4/2023 15:10,Pay Bill from 254723634653 - CHARD MASHANGA Acc. House Number 7,Completed,16000,,108500,TRUE,Pay Utility,254723634653 - CHARD MASHANGA,,House
RD47D3HVZX,4/4/2023 12:32,4/4/2023 12:32,Pay Bill Online from 254723909186 - BRIAN LIBASIA Acc. 18,Completed,16000,,92500,TRUE,Pay Bill Online,254723909186 - BRIAN LIBASIA,,18
RD47CEZ9YN,4/4/2023 7:53,4/4/2023 7:53,Pay Bill from 254723882311 - VERONICAH WAMBUGU Acc. House number 9,Completed,16000,,76500,TRUE,Pay Utility,254723882311 - VERONICAH WAMBUGU,,House
RD116JWU1N,1/4/2023 20:56,1/4/2023 20:56,Pay Bill Online from 254715776633 - FIONA KIMANI Acc. Z16,Completed,16000,,60500,TRUE,Pay Utility with OD Online,254715776633 - FIONA KIMANI,,Z16
RD1065CYAS,1/4/2023 19:11,1/4/2023 19:11,Pay Bill from 254726731040 - ISAAC NDUNGU Acc. D 8,Completed,6000,,44500,TRUE,Pay Utility,254726731040 - ISAAC NDUNGU,,D
RD115ESUKJ,1/4/2023 15:33,1/4/2023 15:33,Pay Bill from 254715979027 - NICHOLAS MWANGI Acc. Leah b3,Completed,15000,,38500,TRUE,Pay Utility,254715979027 - NICHOLAS MWANGI,,Leah
RD124FPLGG,1/4/2023 9:44,1/4/2023 9:44,Pay Bill from 0115818416 - dennis   spence Acc. n2,Completed,5500,,23500,TRUE,Pay Utility,0115818416 - dennis   spence,,n2
