Receipt No.,Completion Time,Initiation Time,Details,Transaction Status,Paid In,Withdrawn,Balance,Balance Confirmed,Reason Type,Other Party Info,Linked Transaction ID,A/C No.
SBQ38NB4HZ,26/02/2024 14:48,26/02/2024 14:48,Pay Bill from 254768***429 - WINFRED *** Acc. V31,Completed,9300,,13300,TRUE,Pay Utility,254768***429 - WINFRED ***,,V31
SBQ5852F37,26/02/2024 12:12,26/02/2024 12:12,Pay Bill from 254701***081 - JOSEPHINE *** Acc. v34,Completed,2000,,4000,TRUE,Pay Utility,254701***081 - JOSEPHINE ***,,v34
SBQ080I72A,26/02/2024 11:32,26/02/2024 11:32,Pay Bill from 254717***709 - CAROLINE *** Acc. V15,Completed,2000,,2000,TRUE,Pay Utility,254717***709 - CAROLINE ***,,V15
SBP66WXIZC,25/02/2024 21:51,25/02/2024 21:51,Utility Account to Organization Settlement Account,Completed,,-7000,0,TRUE,Utility Account to Organization Settlement Account,887674 - ANCIENT WELLS LTD 1,,
SBP763TTD7,25/02/2024 18:33,25/02/2024 18:33,Pay Bill from 074167***394 - STANELY *** Acc. V44,Completed,7000,,7000,TRUE,Pay Utility,074167***394 - STANELY ***,,V44
SBP346OMIT,25/02/2024 07:37,25/02/2024 07:37,Utility Account to Organization Settlement Account,Completed,,-9000,0,TRUE,Utility Account to Organization Settlement Account,887674 - ANCIENT WELLS LTD 1,,
SBP7468RFR,25/02/2024 07:29,25/02/2024 07:29,Pay Bill from 070733***604 - DICKENS *** Acc. v06,Completed,2000,,9000,TRUE,Pay Utility,070733***604 - DICKENS ***,,v06
SBP245UYHW,25/02/2024 07:22,25/02/2024 07:22,Pay Bill Online from 074572***178 - RODGERS *** Acc. v27,Completed,7000,,7000,TRUE,Pay Utility with OD Online,074572***178 - RODGERS ***,,v27
SBM6SRKDR6,22/02/2024 06:12,22/02/2024 06:12,Utility Account to Organization Settlement Account,Completed,,-6600,0,TRUE,Utility Account to Organization Settlement Account,887674 - ANCIENT WELLS LTD 1,,
SBL8SLAFS6,21/02/2024 23:02,21/02/2024 23:02,Pay Bill from 254724***777 - ANTONY *** Acc. V41,Completed,6600,,6600,TRUE,Pay Utility,254724***777 - ANTONY ***,,V41
SBK2MILL6O,20/02/2024 10:06,20/02/2024 10:06,Utility Account to Organization Settlement Account,Completed,,-5000,0,TRUE,Utility Account to Organization Settlement Account,887674 - ANCIENT WELLS LTD 1,,
SBJ1JKNKNB,19/02/2024 12:23,19/02/2024 12:23,Pay Bill from 254717***709 - CAROLINE *** Acc. V15,Completed,5000,,5000,TRUE,Pay Utility,254717***709 - CAROLINE ***,,V15
SBJ3JDCVX5,19/02/2024 11:18,19/02/2024 11:18,Utility Account to Organization Settlement Account,Completed,,-24700,0,TRUE,Utility Account to Organization Settlement Account,887674 - ANCIENT WELLS LTD 1,,
SBI0GR4YI6,18/02/2024 15:03,18/02/2024 15:03,Pay Bill from 254724***238 - Immacurate *** Acc. V45,Completed,3000,,24700,TRUE,Pay Utility,254724***238 - Immacurate ***,,V45
SBI8FHBRTO,18/02/2024 07:13,18/02/2024 07:13,Pay Bill from 254720***582 - SHADRACK *** Acc. v01,Completed,7000,,21700,TRUE,Pay Utility,254720***582 - SHADRACK ***,,v01
SBI4FF1E18,18/02/2024 05:37,18/02/2024 05:37,Pay Bill from 070733***604 - DICKENS *** Acc. v06,Completed,1000,,14700,TRUE,Pay Utility,070733***604 - DICKENS ***,,v06
SBH1EPMBK9,17/02/2024 20:21,17/02/2024 20:21,Pay Bill from 070340***243 - LEVITAN *** Acc. vk3,Completed,3200,,13700,TRUE,Pay Utility,070340***243 - LEVITAN ***,,vk3
SBH2E7QFCS,17/02/2024 18:47,17/02/2024 18:47,Pay Bill from 254720***443 - FATUMA *** Acc. V21,Completed,7000,,10500,TRUE,Pay Utility,254720***443 - FATUMA ***,,V21
SBH3D1SXDP,17/02/2024 13:32,17/02/2024 13:32,Pay Bill from 254706***646 - MIRIAM *** Acc. V08,Completed,3500,,3500,TRUE,Pay Utility with OD via STK,254706***646 - MIRIAM ***,,V08
SBG7B4D9NR,16/02/2024 20:21,16/02/2024 20:21,Utility Account to Organization Settlement Account,Completed,,-9000,0,TRUE,Utility Account to Organization Settlement Account,887674 - ANCIENT WELLS LTD 1,,
SBG98QOK01,16/02/2024 09:39,16/02/2024 09:39,Pay Bill from 074326***596 - EMILY *** Acc. V58,Completed,2000,,9000,TRUE,Pay Utility,074326***596 - EMILY ***,,V58
SBE544DK95,14/02/2024 20:24,14/02/2024 20:24,Pay Bill Online from 254799***490 - DANIEL *** Acc. V28,Completed,7000,,7000,TRUE,Pay Bill Online,254799***490 - DANIEL ***,,V28
SBC1W90JSD,12/02/2024 20:49,12/02/2024 20:49,Funds Transfer from Utility Account to Working Account,Completed,,-7000,0,TRUE,Business Transfer From Utility Account To MMF Account via API,887674 - ANCIENT WELLS LTD 1,,
SBC1W08ZI3,12/02/2024 19:57,12/02/2024 19:57,Pay Bill from 070434***708 - WENDY *** Acc. V17,Completed,7000,,7000,TRUE,Pay Utility,070434***708 - WENDY ***,,V17
SBC9V9E2YT,12/02/2024 17:18,12/02/2024 17:18,Funds Transfer from Utility Account to Working Account,Completed,,-6600,0,TRUE,Business Transfer From Utility Account To MMF Account via API,887674 - ANCIENT WELLS LTD 1,,
SBC9V3S91R,12/02/2024 16:33,12/02/2024 16:33,Pay Bill from 254705***032 - NAOMI *** Acc. v46,Completed,6600,,6600,TRUE,Pay Utility,254705***032 - NAOMI ***,,v46
SBC5UGXD8P,12/02/2024 13:18,12/02/2024 13:18,Funds Transfer from Utility Account to Working Account,Completed,,-3000,0,TRUE,Business Transfer From Utility Account To MMF Account via API,887674 - ANCIENT WELLS LTD 1,,
SBC6TYWKUG,12/02/2024 10:43,12/02/2024 10:43,Pay Bill from 254701***081 - JOSEPHINE *** Acc. v34,Completed,2000,,3000,TRUE,Pay Utility,254701***081 - JOSEPHINE ***,,v34
SBC0TDKN00,12/02/2024 06:59,12/02/2024 06:59,Pay Bill from 070733***604 - DICKENS *** Acc. v06,Completed,1000,,1000,TRUE,Pay Utility,070733***604 - DICKENS ***,,v06
SBB9RE7RYZ,11/02/2024 15:02,11/02/2024 15:02,Funds Transfer from Utility Account to Working Account,Completed,,-30700,0,TRUE,Business Transfer From Utility Account To MMF Account via API,887674 - ANCIENT WELLS LTD 1,,
SBB4QUVYZI,11/02/2024 12:14,11/02/2024 12:14,Pay Bill from 254715***283 - alex *** Acc. v7,Completed,6600,,30700,TRUE,Pay Utility,254715***283 - alex ***,,v7
SBB6QC0EUO,11/02/2024 09:05,11/02/2024 09:05,Pay Bill from 074326***596 - EMILY *** Acc. V58,Completed,3500,,24100,TRUE,Pay Utility with OD via STK,074326***596 - EMILY ***,,V58
SBA4PT61GW,10/02/2024 22:46,10/02/2024 22:46,Pay Bill from 079580***227 - Lucy *** Acc. V36 ,Completed,6600,,20600,TRUE,Pay Utility,079580***227 - Lucy ***,,V36 
SBA7P050YN,10/02/2024 19:23,10/02/2024 19:23,Pay Bill from 254729***880 - Eunice *** Acc. V33,Completed,7000,,14000,TRUE,Pay Utility,254729***880 - Eunice ***,,V33
SBA0OZ4DEA,10/02/2024 19:19,10/02/2024 19:19,Pay Bill from 254706***075 - HARON *** Acc. v 38,Completed,7000,,7000,TRUE,Pay Utility with OD via STK,254706***075 - HARON ***,,v 38
SBA3N3JSCN,10/02/2024 11:14,10/02/2024 11:14,Funds Transfer from Utility Account to Working Account,Completed,,-7000,0,TRUE,Business Transfer From Utility Account To MMF Account via API,887674 - ANCIENT WELLS LTD 1,,
SBA7MZUZ91,10/02/2024 10:43,10/02/2024 10:43,Pay Bill from 011536***438 - zibborah *** Acc. V48,Completed,7000,,7000,TRUE,Pay Utility,011536***438 - zibborah ***,,V48
SBA6MN0092,10/02/2024 08:46,10/02/2024 08:46,Funds Transfer from Utility Account to Working Account,Completed,,-117000,0,TRUE,Business Transfer From Utility Account To MMF Account via API,887674 - ANCIENT WELLS LTD 1,,
SB96LZQ0ZO,09/02/2024 21:54,09/02/2024 21:54,Pay Bill from 254707***557 - GRACE *** Acc. V60,Completed,7000,,117000,TRUE,Pay Utility,254707***557 - GRACE ***,,V60
SB94LRKXTE,09/02/2024 20:53,09/02/2024 20:53,Pay Bill Online from 254715***488 - Mercy *** Acc. T29,Completed,110000,,110000,TRUE,Pay Bill Online,254715***488 - Mercy ***,,T29
SB93LD395H,09/02/2024 19:33,09/02/2024 19:33,Funds Transfer from Utility Account to Working Account,Completed,,-21600,0,TRUE,Business Transfer From Utility Account To MMF Account via API,887674 - ANCIENT WELLS LTD 1,,
SB94KEEWWM,09/02/2024 15:46,09/02/2024 15:46,Pay Bill from 254712***662 - BENARD *** Acc. V16,Completed,6600,,21600,TRUE,Pay Utility,254712***662 - BENARD ***,,V16
SB93KDQD0V,09/02/2024 15:41,09/02/2024 15:41,Pay Bill from 070703***788 - CLIFF *** Acc. v05,Completed,8000,,15000,TRUE,Pay Utility,070703***788 - CLIFF ***,,v05
SB94K9HMZQ,09/02/2024 15:06,09/02/2024 15:06,Pay Bill from 011206***814 - JOHN *** Acc. V53,Completed,7000,,7000,TRUE,Pay Utility,011206***814 - JOHN ***,,V53
SB93JR2RG7,09/02/2024 12:38,09/02/2024 12:38,Funds Transfer from Utility Account to Working Account,Completed,,-9000,0,TRUE,Business Transfer From Utility Account To MMF Account via API,887674 - ANCIENT WELLS LTD 1,,
SB84I1UQ36,08/02/2024 20:36,08/02/2024 20:36,Pay Bill from 254717***430 - ALFRED *** Acc. V11,Completed,7000,,9000,TRUE,Pay Utility,254717***430 - ALFRED ***,,V11
SB81GTYHWX,08/02/2024 16:00,08/02/2024 16:00,Pay Bill from 254706***646 - MIRIAM *** Acc. V08,Completed,2000,,2000,TRUE,Pay Utility with OD via STK,254706***646 - MIRIAM ***,,V08
SB89GG30IL,08/02/2024 14:02,08/02/2024 14:02,Funds Transfer from Utility Account to Working Account,Completed,,-39500,0,TRUE,Business Transfer From Utility Account To MMF Account via API,887674 - ANCIENT WELLS LTD 1,,
SB88G7XXCC,08/02/2024 12:56,08/02/2024 12:56,Pay Bill from 072927***890 - HALIMA *** Acc. v03,Completed,7000,,39500,TRUE,Pay Utility,072927***890 - HALIMA ***,,v03
SB86F2T0SM,08/02/2024 04:05,08/02/2024 04:05,Pay Bill from 070733***604 - DICKENS *** Acc. v06,Completed,1000,,32500,TRUE,Pay Utility,070733***604 - DICKENS ***,,v06
SB75EB42JZ,07/02/2024 20:01,07/02/2024 20:01,Business Pay Bill by 998094 - COOP TO PAYBILL Acc. 7000 via API,Completed,7000,,31500,TRUE,Business Pay Bill via API,998094 - COOP TO PAYBILL,,7000 via API
SB72CJCDGK,07/02/2024 12:31,07/02/2024 12:31,Pay Bill from 254703***096 - KEVIN *** Acc. V51,Completed,7000,,24500,TRUE,Pay Utility,254703***096 - KEVIN ***,,V51
SB76C9B1C6,07/02/2024 11:06,07/02/2024 11:06,Pay Bill from 254702***335 - IMMACULATE *** Acc. V39,Completed,7000,,17500,TRUE,Pay Utility,254702***335 - IMMACULATE ***,,V39
SB78C50UNS,07/02/2024 10:29,07/02/2024 10:29,Pay Bill from 254791***803 - JOHN *** Acc. V14,Completed,7000,,10500,TRUE,Pay Utility,254791***803 - JOHN ***,,V14
SB70BJS83G,07/02/2024 06:46,07/02/2024 06:46,Pay Bill from 254795***400 - BONFACE *** Acc. VK6,Completed,3500,,3500,TRUE,Pay Utility,254795***400 - BONFACE ***,,VK6
SB68AN12P2,06/02/2024 19:49,06/02/2024 19:49,Utility Account to Organization Settlement Account,Completed,,-38100,0,TRUE,Utility Account to Organization Settlement Account,887674 - ANCIENT WELLS LTD 1,,
SB65A9ZI4T,06/02/2024 18:42,06/02/2024 18:42,Pay Bill from 254718***610 - HANNAH *** Acc. V23,Completed,6600,,38100,TRUE,Pay Utility,254718***610 - HANNAH ***,,V23
SB698PJT5N,06/02/2024 11:18,06/02/2024 11:18,Pay Bill from 254706***908 - joseph *** Acc. V45,Completed,3500,,31500,TRUE,Pay Utility,254706***908 - joseph ***,,V45
SB597S1B4X,05/02/2024 23:31,05/02/2024 23:31,Pay Bill from 072938***149 - SYLVIA *** Acc. v30,Completed,7000,,28000,TRUE,Pay Utility,072938***149 - SYLVIA ***,,v30
SB597QA13R,05/02/2024 22:54,05/02/2024 22:54,Pay Bill Online from 254720***303 - PAUL *** Acc. V13,Completed,7000,,21000,TRUE,Pay Utility with OD Online,254720***303 - PAUL ***,,V13
SB557NER9F,05/02/2024 22:14,05/02/2024 22:14,Pay Bill Online from 254791***764 - ISAIAH *** Acc. V49,Completed,7000,,14000,TRUE,Pay Bill Online,254791***764 - ISAIAH ***,,V49
SB557K6V9R,05/02/2024 21:45,05/02/2024 21:45,Pay Bill from 254722***070 - SAMUEL *** Acc. v42,Completed,7000,,7000,TRUE,Pay Utility,254722***070 - SAMUEL ***,,v42
SB526UZQO6,05/02/2024 19:21,05/02/2024 19:21,Utility Account to Organization Settlement Account,Completed,,-39300,0,TRUE,Utility Account to Organization Settlement Account,887674 - ANCIENT WELLS LTD 1,,
SB576BLHEX,05/02/2024 17:25,05/02/2024 17:25,Pay Bill from 254704***467 - CHEPKIRUI *** Acc. V37,Completed,7000,,39300,TRUE,Pay Utility,254704***467 - CHEPKIRUI ***,,V37
SB5564U5R3,05/02/2024 16:34,05/02/2024 16:34,Pay Bill from 254706***262 - cendric *** Acc. V12,Completed,17500,,32300,TRUE,Pay Utility,254706***262 - cendric ***,,V12
SB555UJBNH,05/02/2024 15:08,05/02/2024 15:08,FSI to Pay Bill by 3033815 - LOOP B2C. Acc. V55 via WEB by LOOP B2C.\TRINITYAPI,Completed,6800,,14800,TRUE,FSI to Pay Bill via API,3033815 - LOOP B2C.,,V55 via WEB by LOOP B2C.\TRINITYAPI
SB5554JQP1,05/02/2024 11:33,05/02/2024 11:33,Pay Bill from 254701***081 - JOSEPHINE *** Acc. v34,Completed,1000,,8000,TRUE,Pay Utility,254701***081 - JOSEPHINE ***,,v34
SB574S4Y0H,05/02/2024 09:46,05/02/2024 09:46,Pay Bill from 071474***222 - WILSON *** Acc. v25,Completed,7000,,7000,TRUE,Pay Utility,071474***222 - WILSON ***,,v25
SB564NMLM4,05/02/2024 09:04,05/02/2024 09:04,Utility Account to Organization Settlement Account,Completed,,-9000,0,TRUE,Utility Account to Organization Settlement Account,887674 - ANCIENT WELLS LTD 1,,
SB564EXCL2,05/02/2024 07:34,05/02/2024 07:34,Pay Bill from 070733***604 - DICKENS *** Acc. v6,Completed,2000,,9000,TRUE,Pay Utility,070733***604 - DICKENS ***,,v6
SB554EACPZ,05/02/2024 07:26,05/02/2024 07:26,Pay Bill from 254741***886 - TERESIA *** Acc. v50,Completed,7000,,7000,TRUE,Pay Utility,254741***886 - TERESIA ***,,v50
SB492RIS45,04/02/2024 16:57,04/02/2024 16:57,Utility Account to Organization Settlement Account,Completed,,-13601,0,TRUE,Utility Account to Organization Settlement Account,887674 - ANCIENT WELLS LTD 1,,
SB492OOQTJ,04/02/2024 16:35,04/02/2024 16:35,Pay Bill from 254708***289 - BERYLE *** Acc. v02,Completed,7000,,13601,TRUE,Pay Utility,254708***289 - BERYLE ***,,v02
SB402KTK3Q,04/02/2024 16:04,04/02/2024 16:04,Pay Bill from 254708***289 - BERYLE *** Acc. v02,Completed,1,,6601,TRUE,Pay Utility,254708***289 - BERYLE ***,,v02
SB32ZRKA00,03/02/2024 22:43,03/02/2024 22:43,Pay Bill Online from 254720***285 - DAMARIS *** Acc. V18,Completed,6600,,6600,TRUE,Pay Bill Online,254720***285 - DAMARIS ***,,V18
SB39ZIVSOX,03/02/2024 21:16,03/02/2024 21:16,Utility Account to Organization Settlement Account,Completed,,-17500,0,TRUE,Utility Account to Organization Settlement Account,887674 - ANCIENT WELLS LTD 1,,
SB39YRVGW9,03/02/2024 18:45,03/02/2024 18:45,Pay Bill from 070848***946 - Samson *** Acc. v20,Completed,17500,,17500,TRUE,Pay Utility,070848***946 - Samson ***,,v20
SB30YPDJ2W,03/02/2024 18:30,03/02/2024 18:30,Utility Account to Organization Settlement Account,Completed,,-6600,0,TRUE,Utility Account to Organization Settlement Account,887674 - ANCIENT WELLS LTD 1,,
SB35XSRU9D,03/02/2024 14:31,03/02/2024 14:31,Pay Bill from 254726***584 - JULIANA *** Acc. v4,Completed,6600,,6600,TRUE,Pay Utility,254726***584 - JULIANA ***,,v4
SB23URAGH3,02/02/2024 17:56,02/02/2024 17:56,Utility Account to Organization Settlement Account,Completed,,-38500,0,TRUE,Utility Account to Organization Settlement Account,887674 - ANCIENT WELLS LTD 1,,
SB22UGR39C,02/02/2024 16:43,02/02/2024 16:43,Pay Bill from 254758***143 - mohamed *** Acc. v58,Completed,17500,,38500,TRUE,Pay Utility,254758***143 - mohamed ***,,v58
SB28UCFBG4,02/02/2024 16:10,02/02/2024 16:10,Pay Bill from 072729***129 - AISHA *** Acc. V20,Completed,17500,,21000,TRUE,Pay Utility,072729***129 - AISHA ***,,V20
SB26TPYC8S,02/02/2024 13:08,02/02/2024 13:08,Pay Bill from 071420***896 - JANET *** Acc. vk4,Completed,3500,,3500,TRUE,Pay Utility,071420***896 - JANET ***,,vk4
SB10RBVNJE,01/02/2024 18:38,01/02/2024 18:38,Utility Account to Organization Settlement Account,Completed,,-26500,0,TRUE,Utility Account to Organization Settlement Account,887674 - ANCIENT WELLS LTD 1,,
SB10R9PWEI,01/02/2024 18:25,01/02/2024 18:25,Pay Bill from 074020***174 - Josephine *** Acc. V59,Completed,7000,,26500,TRUE,Pay Utility,074020***174 - Josephine ***,,V59
SB19QLTZV7,01/02/2024 15:28,01/02/2024 15:28,Pay Bill from 254715***540 - HILLARY *** Acc. v19,Completed,7500,,19500,TRUE,Pay Utility,254715***540 - HILLARY ***,,v19
SB18Q09BVG,01/02/2024 12:27,01/02/2024 12:27,Pay Bill from 254720***700 - EUNICE *** Acc. V26,Completed,12000,,12000,TRUE,Pay Utility,254720***700 - EUNICE ***,,V26
SB11PSA3ZF,01/02/2024 11:16,01/02/2024 11:16,Utility Account to Organization Settlement Account,Completed,,-15600,0,TRUE,Utility Account to Organization Settlement Account,887674 - ANCIENT WELLS LTD 1,,
SB17PBHX5B,01/02/2024 08:40,01/02/2024 08:40,Pay Bill from 070707***137 - samuel *** Acc. V57,Completed,7000,,15600,TRUE,Pay Utility,070707***137 - samuel ***,,V57
