Receipt No.,Completion Time,Initiation Time,Details,Transaction Status,Paid In,Withdrawn,Balance,Balance Confirmed,Reason Type,Other Party Info,Linked Transaction ID,A/C No.
QGA67ZWMZK,10/07/2022 12:55,10/07/2022 12:55,"Pay Bill from 254722314892 - MOSES MWANGI GACHARI Acc. D5,d6",Completed,10000,,245500,TRUE,Pay Utility,254722314892 - MOSES MWANGI GACHARI,,"D5,d6"
QG9559RT5P,09/07/2022 00:03,09/07/2022 00:03,Pay Bill from 254722269369 - FAIZ OMAR BASABRA Acc. NAIROBI WEST 12 ,Completed,70000,,235500,TRUE,Pay Utility,254722269369 - FAIZ OMAR BASABRA,,NAIROBI
QG853UW3OX,08/07/2022 13:11,08/07/2022 13:11,Pay Bill from 254726928715 - ELIZAPHAN KAMAU NDUTA Acc. Z2,Completed,32000,,165500,TRUE,Pay Utility,254726928715 - ELIZAPHAN KAMAU NDUTA,,Z2
QG732UQ2LH,07/07/2022 20:33,07/07/2022 20:33,Pay Bill Online from 254722599866 - ASIYO OCHUODHO Acc. 4,Completed,14000,,133500,TRUE,Pay Bill Online,254722599866 - ASIYO OCHUODHO,,4
QG711HEJPF,07/07/2022 11:07,07/07/2022 11:07,Pay Bill from 0115556359 - CHEPNGENO   EDITH Acc. c701,Completed,20000,,119500,TRUE,Pay Utility,0115556359 - CHEPNGENO   EDITH,,c701
QG63Z5TT87,06/07/2022 17:35,06/07/2022 17:35,Pay Bill Online from 254723853941 - ELIZABETH MUTIO MUTUKU Acc. house number 12,Completed,16000,,99500,TRUE,Pay Bill Online,254723853941 - ELIZABETH MUTIO MUTUKU,,house
QG62YHIJ72,06/07/2022 12:28,06/07/2022 12:28,Pay Bill from 254722711299 - ANNE WANGUI KAMAU Acc. Samville No 11,Completed,15000,,83500,TRUE,Pay Utility,254722711299 - ANNE WANGUI KAMAU,,Samville
QG68YD39C2,06/07/2022 11:28,06/07/2022 11:28,Pay Bill from 254706859500 - JULIA NJAMBI WAINAINA Acc. u2u4,Completed,11000,,68500,TRUE,Pay Utility,254706859500 - JULIA NJAMBI WAINAINA,,u2u4
QG59X5SGIT,05/07/2022 18:33,05/07/2022 18:33,Pay Bill from 254723882311 - VERONICAH WAMBUGU Acc. 9,Completed,16000,,57500,TRUE,Pay Utility,254723882311 - VERONICAH WAMBUGU,,9
QG59WXXHNL,05/07/2022 17:12,05/07/2022 17:12,Pay Bill Online from 254723909186 - BRIAN LIBASIA Acc. 18,Completed,16000,,41500,TRUE,Pay Bill Online,254723909186 - BRIAN LIBASIA,,18
QG24QZSWM6,02/07/2022 18:22,02/07/2022 18:22,Pay Bill Online from 254723174583 - BRIAN ODHIAMBO OUMA Acc. B3,Completed,4500,,25500,TRUE,Pay Utility with OD Online,254723174583 - BRIAN ODHIAMBO OUMA,,B3
QG23Q461TR,02/07/2022 11:49,02/07/2022 11:49,Pay Bill from 0700616526 - Lionel Uchechukwu Kibathi Acc. Leah b2,Completed,15000,,21000,TRUE,Pay Utility with OD via STK,0700616526 - Lionel Uchechukwu Kibathi,,Leah
QG12O3XWVE,01/07/2022 13:08,01/07/2022 13:08,Pay Bill from 0759385844 - ROSEMARY WAMBUI GITAU Acc. B5,Completed,6000,,6000,TRUE,Pay Utility with OD via STK,0759385844 - ROSEMARY WAMBUI GITAU,,B5
