Receipt No.,Completion Time,Initiation Time,Details,Transaction Status,Paid In,Withdrawn,Balance,Balance Confirmed,Reason Type,Other Party Info,Linked Transaction ID,A/C No.
PHQ24A9QYE,26/08/2021 22:01,26/08/2021 22:01,Pay Bill from 254713701237 - Michael Wanjala Acc. G2,Completed,8000,,26000,TRUE,Pay Utility,254713701237 - Michael Wanjala,,G2
PHQ342TDYB,26/08/2021 19:49,26/08/2021 19:49,Pay Bill Online from 254715144865 - CAROL JULIET MUGOYA Acc. E2 Carol juliet,Completed,8000,,18000,TRUE,Pay Bill Online,254715144865 - CAROL JULIET MUGOYA,,E2
PHQ63G852W,26/08/2021 13:59,26/08/2021 13:59,Pay Bill from 254715122543 - francis ntwiki mukiti Acc. D4,Completed,10000,,10000,TRUE,Pay Utility,254715122543 - francis ntwiki mukiti,,D4
PHQ02VZOYO,26/08/2021 06:27,26/08/2021 06:27,Utility Account to Organization Settlement Account,Completed,,-1000,0,TRUE,Utility Account to Organization Settlement Account,887075 - ANCIENT WELLS LTD 3,,
PHP92TM6VT,25/08/2021 22:48,25/08/2021 22:48,Merchant Pay Utility Received from 708689 - PALACE      BUTCHERY  2 Acc. CHRISTOPHER,Completed,1000,,1000,TRUE,Merchant Pay Utility via API,708689 - PALACE      BUTCHERY  2,,CHRISTOPHER
PHP61YW4XM,25/08/2021 14:05,25/08/2021 14:05,Utility Account to Organization Settlement Account,Completed,,-8000,0,TRUE,Utility Account to Organization Settlement Account,887075 - ANCIENT WELLS LTD 3,,
PHP91TSTU7,25/08/2021 12:26,25/08/2021 12:26,Pay Bill Online from 254727725587 - IVY MACHARIA Acc. B2,Completed,8000,,8000,TRUE,Pay Bill Online,254727725587 - IVY MACHARIA,,B2
PHO8ZXARVC,24/08/2021 18:19,24/08/2021 18:19,Utility Account to Organization Settlement Account,Completed,,-1000,0,TRUE,Utility Account to Organization Settlement Account,887075 - ANCIENT WELLS LTD 3,,
PHO3ZRWRZR,24/08/2021 16:55,24/08/2021 16:55,Pay Bill from 254704213191 - VALENTINE WAVINYA Acc. e3,Completed,1000,,1000,TRUE,Pay Utility,254704213191 - VALENTINE WAVINYA,,e3
PHN1XWKKKL,23/08/2021 11:22,23/08/2021 11:22,Utility Account to Organization Settlement Account,Completed,,-2500,0,TRUE,Utility Account to Organization Settlement Account,887075 - ANCIENT WELLS LTD 3,,
PHM3XJY25F,22/08/2021 23:55,22/08/2021 23:55,Pay Bill from 254748354739 - Valary Bhoke Mwita Acc. G3,Completed,2500,,2500,TRUE,Pay Utility,254748354739 - Valary Bhoke Mwita,,G3
PHM7WEE3N1,22/08/2021 09:02,22/08/2021 09:02,Utility Account to Organization Settlement Account,Completed,,-15000,0,TRUE,Utility Account to Organization Settlement Account,887075 - ANCIENT WELLS LTD 3,,
PHL4W81AW6,21/08/2021 22:48,21/08/2021 22:48,Pay Bill Online from 254720201580 - CHRISTOPHER OTUOMA Acc. CHRISTOPHER,Completed,2000,,15000,TRUE,Pay Bill Online,254720201580 - CHRISTOPHER OTUOMA,,CHRISTOPHER
PHL0VMR0VO,21/08/2021 16:51,21/08/2021 16:51,Pay Bill from 0711239204 - shichenga wawire mark Acc. D2,Completed,8000,,13000,TRUE,Pay Utility,0711239204 - shichenga wawire mark,,D2
PHL0VMC0QO,21/08/2021 16:44,21/08/2021 16:44,Pay Bill Online from 254720062144 - CAROLINE AMONDI OKELO Acc. f4,Completed,5000,,5000,TRUE,Pay Utility with OD Online,254720062144 - CAROLINE AMONDI OKELO,,f4
PHJ9RZ4AUD,19/08/2021 06:38,19/08/2021 06:38,Utility Account to Organization Settlement Account,Completed,,-1000,0,TRUE,Utility Account to Organization Settlement Account,887075 - ANCIENT WELLS LTD 3,,
PHI5RWN7NN,18/08/2021 22:40,18/08/2021 22:40,Merchant Pay Utility Received from 708689 - PALACE      BUTCHERY  2 Acc. CHRISTOPHER,Completed,1000,,1000,TRUE,Merchant Pay Utility via API,708689 - PALACE      BUTCHERY  2,,CHRISTOPHER
PHI8RB8ZD4,18/08/2021 16:48,18/08/2021 16:48,Utility Account to Organization Settlement Account,Completed,,-21000,0,TRUE,Utility Account to Organization Settlement Account,887075 - ANCIENT WELLS LTD 3,,
PHI4RAOFYE,18/08/2021 16:37,18/08/2021 16:37,Pay Bill from 254711428856 - JAPHETH OTSIENO BARASA Acc. Japheth Barasa A5,Completed,11000,,21000,TRUE,Pay Utility,254711428856 - JAPHETH OTSIENO BARASA,,Japheth
PHI1R9YQ73,18/08/2021 16:24,18/08/2021 16:24,Pay Bill from 254704658943 - IRENE MUTHUI Acc. E5,Completed,9000,,10000,TRUE,Pay Utility,254704658943 - IRENE MUTHUI,,E5
PHI0R7IPT4,18/08/2021 15:36,18/08/2021 15:36,Pay Bill Online from 254703176849 - ROYAL MUYA Acc. F2,Completed,1000,,1000,TRUE,Pay Bill Online,254703176849 - ROYAL MUYA,,F2
PHH0Q0RFOI,17/08/2021 17:48,17/08/2021 17:48,Utility Account to Organization Settlement Account,Completed,,-6000,0,TRUE,Utility Account to Organization Settlement Account,887075 - ANCIENT WELLS LTD 3,,
PHH3PU0EV3,17/08/2021 15:44,17/08/2021 15:44,Pay Bill Online from 254720062144 - CAROLINE AMONDI OKELO Acc. f4,Completed,6000,,6000,TRUE,Pay Bill Online,254720062144 - CAROLINE AMONDI OKELO,,f4
PHH7PM55QJ,17/08/2021 13:04,17/08/2021 13:04,Utility Account to Organization Settlement Account,Completed,,-18500,0,TRUE,Utility Account to Organization Settlement Account,887075 - ANCIENT WELLS LTD 3,,
PHH9PIPJ1L,17/08/2021 11:53,17/08/2021 11:53,Pay Bill Online from 254703176849 - ROYAL MUYA Acc. F2,Completed,3000,,18500,TRUE,Pay Bill Online,254703176849 - ROYAL MUYA,,F2
PHG2P3BQHK,16/08/2021 22:06,16/08/2021 22:06,Pay Bill from 254713295711 - JAMES CHEGE KAMAU Acc. A2,Completed,7000,,15500,TRUE,Pay Utility,254713295711 - JAMES CHEGE KAMAU,,A2
PHG0OOROA6,16/08/2021 18:20,16/08/2021 18:20,Pay Bill from 0799912339 - PETER KAMAU MURIU Acc. c5,Completed,8500,,8500,TRUE,Pay Utility,0799912339 - PETER KAMAU MURIU,,c5
PHF7N4FN5R,15/08/2021 16:38,15/08/2021 16:38,Utility Account to Organization Settlement Account,Completed,,-1000,0,TRUE,Utility Account to Organization Settlement Account,887075 - ANCIENT WELLS LTD 3,,
PHD3KWOOJJ,13/08/2021 23:10,13/08/2021 23:10,Merchant Pay Utility Received from 708689 - PALACE      BUTCHERY  2 Acc. CHRISTOPHER,Completed,1000,,1000,TRUE,Merchant Pay Utility via API,708689 - PALACE      BUTCHERY  2,,CHRISTOPHER
PHD4KNF0X8,13/08/2021 19:45,13/08/2021 19:45,Utility Account to Organization Settlement Account,Completed,,-7500,0,TRUE,Utility Account to Organization Settlement Account,887075 - ANCIENT WELLS LTD 3,,
PHD9K4S0B1,13/08/2021 15:10,13/08/2021 15:10,Pay Bill from 254726432241 - STEPHEN MAYABI Acc. A,Completed,7500,,7500,TRUE,Pay Utility with OD via STK,254726432241 - STEPHEN MAYABI,,A
PHD7JOPJSR,13/08/2021 09:48,13/08/2021 09:48,Utility Account to Organization Settlement Account,Completed,,-15000,0,TRUE,Utility Account to Organization Settlement Account,887075 - ANCIENT WELLS LTD 3,,
PHD9JL0PRR,13/08/2021 08:21,13/08/2021 08:21,Pay Bill from 254729110577 - GREGORY ONESMUS KIMANTHI Acc. d6,Completed,15000,,15000,TRUE,Pay Utility,254729110577 - GREGORY ONESMUS KIMANTHI,,d6
PHB7H243AV,11/08/2021 12:05,11/08/2021 12:05,Utility Account to Organization Settlement Account,Completed,,-14000,0,TRUE,Utility Account to Organization Settlement Account,887075 - ANCIENT WELLS LTD 3,,
PHA2GN4LKI,10/08/2021 23:07,10/08/2021 23:07,Merchant Pay Utility Received from 708689 - PALACE      BUTCHERY  2 Acc. CHRISTOPHER,Completed,1000,,14000,TRUE,Merchant Pay Utility via API,708689 - PALACE      BUTCHERY  2,,CHRISTOPHER
PHA9GL6BUP,10/08/2021 21:42,10/08/2021 21:42,Pay Bill from 254701339690 - ASHA BAGANWA NDAHIRU Acc. F3,Completed,8000,,13000,TRUE,Pay Utility,254701339690 - ASHA BAGANWA NDAHIRU,,F3
PHA6G2Z77Y,10/08/2021 17:11,10/08/2021 17:11,Pay Bill from 254704213191 - VALENTINE WAVINYA Acc. e3,Completed,5000,,5000,TRUE,Pay Utility,254704213191 - VALENTINE WAVINYA,,e3
PHA7FR2NLJ,10/08/2021 13:28,10/08/2021 13:28,Utility Account to Organization Settlement Account,Completed,,-8500,0,TRUE,Utility Account to Organization Settlement Account,887075 - ANCIENT WELLS LTD 3,,
PHA8FPENM4,10/08/2021 12:55,10/08/2021 12:55,Pay Bill from 254790837715 - JULIUS MWASHUMBE MAGHANGA Acc. F5,Completed,8500,,8500,TRUE,Pay Utility,254790837715 - JULIUS MWASHUMBE MAGHANGA,,F5
PHA3FB4LO3,10/08/2021 07:48,10/08/2021 07:48,Utility Account to Organization Settlement Account,Completed,,-9000,0,TRUE,Utility Account to Organization Settlement Account,887075 - ANCIENT WELLS LTD 3,,
PH99F77MOJ,09/08/2021 23:02,09/08/2021 23:02,Merchant Pay Utility Received from 708689 - PALACE      BUTCHERY  2 Acc. CHRISTOPHER,Completed,1000,,9000,TRUE,Merchant Pay Utility via API,708689 - PALACE      BUTCHERY  2,,CHRISTOPHER
PH97EQ8FG3,09/08/2021 18:05,09/08/2021 18:05,Pay Bill from 254721539716 - OCTAVIAN MWANYALO Acc. C6,Completed,8000,,8000,TRUE,Pay Utility,254721539716 - OCTAVIAN MWANYALO,,C6
PH95EB9D8Z,09/08/2021 13:36,09/08/2021 13:36,Utility Account to Organization Settlement Account,Completed,,-6000,0,TRUE,Utility Account to Organization Settlement Account,887075 - ANCIENT WELLS LTD 3,,
PH90EAVV36,09/08/2021 13:29,09/08/2021 13:29,Pay Bill Online from 254720062144 - CAROLINE AMONDI OKELO Acc. f4,Completed,6000,,6000,TRUE,Pay Bill Online,254720062144 - CAROLINE AMONDI OKELO,,f4
PH92DZHLVK,09/08/2021 09:49,09/08/2021 09:49,Utility Account to Organization Settlement Account,Completed,,-22500,0,TRUE,Utility Account to Organization Settlement Account,887075 - ANCIENT WELLS LTD 3,,
PH97DY2IMN,09/08/2021 09:20,09/08/2021 09:20,Pay Bill from 254748354739 - Valary Bhoke Mwita Acc. G3,Completed,9000,,22500,TRUE,Pay Utility,254748354739 - Valary Bhoke Mwita,,G3
PH93DTPTM5,09/08/2021 07:35,09/08/2021 07:35,Pay Bill from 254713229967 - John Mugabo Simba Acc. E4,Completed,8500,,13500,TRUE,Pay Utility,254713229967 - John Mugabo Simba,,E4
PH80D34SCK,08/08/2021 15:59,08/08/2021 15:59,Pay Bill Online from 254703176849 - ROYAL MUYA Acc. F2,Completed,4000,,5000,TRUE,Pay Utility with OD Online,254703176849 - ROYAL MUYA,,F2
PH73CD2TP7,07/08/2021 22:43,07/08/2021 22:43,Merchant Pay Utility Received from 708689 - PALACE      BUTCHERY  2 Acc. CHRISTOPHER,Completed,1000,,1000,TRUE,Merchant Pay Utility via API,708689 - PALACE      BUTCHERY  2,,CHRISTOPHER
PH66A891RG,06/08/2021 16:33,06/08/2021 16:33,Utility Account to Organization Settlement Account,Completed,,-45500,0,TRUE,Utility Account to Organization Settlement Account,887075 - ANCIENT WELLS LTD 3,,
PH65A4ZGA5,06/08/2021 15:35,06/08/2021 15:35,Pay Bill from 254701379512 - veronicah minoo mwanza Acc. C3,Completed,8000,,45500,TRUE,Pay Utility,254701379512 - veronicah minoo mwanza,,C3
PH60A2HQJ6,06/08/2021 14:48,06/08/2021 14:48,Pay Bill from 254792976771 - DANIEL MUTHAMA NDUNDA Acc. F1,Completed,8000,,37500,TRUE,Pay Utility,254792976771 - DANIEL MUTHAMA NDUNDA,,F1
PH689EXNT0,06/08/2021 01:38,06/08/2021 01:38,Merchant Pay Utility Received from 708689 - PALACE      BUTCHERY  2 Acc. CHRISTOPHER,Completed,4000,,29500,TRUE,Merchant Pay Utility via API,708689 - PALACE      BUTCHERY  2,,CHRISTOPHER
PH559538TB,05/08/2021 19:53,05/08/2021 19:53,Pay Bill Online from 254711877988 - PATRICK KONZI Acc. b4,Completed,8500,,25500,TRUE,Pay Bill Online,254711877988 - PATRICK KONZI,,b4
PH598J1DY9,05/08/2021 14:11,05/08/2021 14:11,Pay Bill from 254791273726 - JULLIET WINNIE OTIENO Acc. G1,Completed,8000,,17000,TRUE,Pay Utility,254791273726 - JULLIET WINNIE OTIENO,,G1
PH447WN3FY,04/08/2021 23:22,04/08/2021 23:22,Merchant Pay Utility Received from 708689 - PALACE      BUTCHERY  2 Acc. CHRISTOPHER,Completed,1000,,9000,TRUE,Merchant Pay Utility via API,708689 - PALACE      BUTCHERY  2,,CHRISTOPHER
PH40778UM6,04/08/2021 15:56,04/08/2021 15:56,Pay Bill from 254701330588 - EDGER WAFULA BUTALI Acc. D1,Completed,8000,,8000,TRUE,Pay Utility,254701330588 - EDGER WAFULA BUTALI,,D1
PH486NNQZ0,04/08/2021 09:37,04/08/2021 09:37,Utility Account to Organization Settlement Account,Completed,,-21000,0,TRUE,Utility Account to Organization Settlement Account,887075 - ANCIENT WELLS LTD 3,,
PH476KA4DJ,04/08/2021 08:20,04/08/2021 08:20,Pay Bill from 254717577871 - KELVIN MUTUMA KINYUA Acc. B1,Completed,13000,,21000,TRUE,Pay Utility,254717577871 - KELVIN MUTUMA KINYUA,,B1
PH345YKW5I,03/08/2021 18:26,03/08/2021 18:26,Pay Bill Online from 254714597495 - WAMBUA KIOKO Acc. C1,Completed,8000,,8000,TRUE,Pay Bill Online,254714597495 - WAMBUA KIOKO,,C1
PH345PS6UU,03/08/2021 16:07,03/08/2021 16:07,Utility Account to Organization Settlement Account,Completed,,-8500,0,TRUE,Utility Account to Organization Settlement Account,887075 - ANCIENT WELLS LTD 3,,
PH335ETI11,03/08/2021 12:35,03/08/2021 12:35,Pay Bill from 254717465142 - EPHANTUS IRURA Acc. c4 muriithi,Completed,8500,,8500,TRUE,Pay Utility,254717465142 - EPHANTUS IRURA,,c4
PH374Z7NY9,03/08/2021 06:27,03/08/2021 06:27,Utility Account to Organization Settlement Account,Completed,,-42000,0,TRUE,Utility Account to Organization Settlement Account,887075 - ANCIENT WELLS LTD 3,,
PH264WXDY0,02/08/2021 22:36,02/08/2021 22:36,Merchant Pay Utility Received from 708689 - PALACE      BUTCHERY  2 Acc. CHRISTOPHER,Completed,1000,,42000,TRUE,Merchant Pay Utility via API,708689 - PALACE      BUTCHERY  2,,CHRISTOPHER
PH294RU9LD,02/08/2021 20:34,02/08/2021 20:34,Pay Bill from 254713295711 - JAMES CHEGE KAMAU Acc. A2,Completed,14000,,41000,TRUE,Pay Utility,254713295711 - JAMES CHEGE KAMAU,,A2
PH274OTST3,02/08/2021 19:51,02/08/2021 19:51,Pay Bill from 254722706516 - KORIR ANTHONY Acc. Anthony D 3,Completed,8000,,27000,TRUE,Pay Utility,254722706516 - KORIR ANTHONY,,Anthony
PH274L7OWJ,02/08/2021 19:08,02/08/2021 19:08,Pay Bill from 254717577871 - KELVIN MUTUMA KINYUA Acc. B1,Completed,3000,,19000,TRUE,Pay Utility,254717577871 - KELVIN MUTUMA KINYUA,,B1
PH284F0YO6,02/08/2021 17:47,02/08/2021 17:47,Pay Bill from 254727585857 - PETER MUOKI NGUNDO Acc. Peter muoki e6,Completed,8500,,16000,TRUE,Pay Utility,254727585857 - PETER MUOKI NGUNDO,,Peter
PH253V7VWV,02/08/2021 11:48,02/08/2021 11:48,Pay Bill Online from 254715020357 - ELIZABETH NJERI WARARI Acc. C2,Completed,7500,,7500,TRUE,Pay Bill Online,254715020357 - ELIZABETH NJERI WARARI,,C2
PH263T8IIA,02/08/2021 11:10,02/08/2021 11:10,Utility Account to Organization Settlement Account,Completed,,-8500,0,TRUE,Utility Account to Organization Settlement Account,887075 - ANCIENT WELLS LTD 3,,
PH233JY903,02/08/2021 07:53,02/08/2021 07:53,Pay Bill Online from 254795983642 - OBED MOGAKA Acc. F6 OBED ,Completed,8500,,8500,TRUE,Pay Bill Online,254795983642 - OBED MOGAKA,,F6
PH193A9OHB,01/08/2021 20:33,01/08/2021 20:33,Utility Account to Organization Settlement Account,Completed,,-17000,0,TRUE,Utility Account to Organization Settlement Account,887075 - ANCIENT WELLS LTD 3,,
PH152PNZR3,01/08/2021 15:06,01/08/2021 15:06,Pay Bill Online from 254724871526 - JOHN KAGUONGO Acc. D5 JOHN KAGUONGO,Completed,8500,,17000,TRUE,Pay Bill Online,254724871526 - JOHN KAGUONGO,,D5
PH112GGE67,01/08/2021 11:55,01/08/2021 11:55,Pay Bill from 254728664261 - LEVIN INGATI NYONJE Acc. B5,Completed,8500,,8500,TRUE,Pay Utility,254728664261 - LEVIN INGATI NYONJE,,B5
PH1229OKM0,01/08/2021 09:17,01/08/2021 09:17,Utility Account to Organization Settlement Account,Completed,,-1000,0,TRUE,Utility Account to Organization Settlement Account,887075 - ANCIENT WELLS LTD 3,,
PH15234HH7,01/08/2021 00:06,01/08/2021 00:06,Merchant Pay Utility Received from 708689 - PALACE      BUTCHERY  2 Acc. CHRISTOPHER,Completed,1000,,1000,TRUE,Merchant Pay Utility via API,708689 - PALACE      BUTCHERY  2,,CHRISTOPHER
