Receipt No.,Completion Time,Initiation Time,Details,Transaction Status,Paid In,Withdrawn,Balance,Balance Confirmed,Reason Type,Other Party Info,Linked Transaction ID,A/C No.
SJN927NPTD,23/10/2024 00:31,23/10/2024 00:31,Pay Bill Online from 254720***253 - JIMMY *** Acc. kbd,Completed,200,,1600,TRUE,Pay Utility with OD Online,254720***253 - JIMMY ***,,kbd
SJM21TO7Q0,22/10/2024 21:10,22/10/2024 21:10,Pay Bill Online from 071580***956 - Mercy *** Acc. FFE,Completed,600,,1400,TRUE,Pay Bill Online,071580***956 - Mercy ***,,FFE
SJM71K5LPF,22/10/2024 20:15,22/10/2024 20:15,Pay Bill Online from 079009***091 - Daisy *** Acc. KFI,Completed,800,,800,TRUE,Pay Bill Online,079009***091 - Daisy ***,,KFI
SJL9U49J4D,21/10/2024 11:08,21/10/2024 11:08,Utility Account to Organization Settlement Account,Completed,,-9200,0,TRUE,Utility Account to Organization Settlement Account,846783 - ANCIENT WELLS LTD 4,,
SJJ1M393SB,19/10/2024 10:35,19/10/2024 10:35,Pay Bill from 254726***163 - HALIMA *** Acc. DDA,Completed,400,,9200,TRUE,Pay Utility,254726***163 - HALIMA ***,,DDA
SJJ7LYNM8T,19/10/2024 10:00,19/10/2024 10:00,Pay Bill from 072143***195 - KIPKOECH *** Acc. E2,Completed,1500,,8800,TRUE,Pay Utility,072143***195 - KIPKOECH ***,,E2
SJJ2LND4VU,19/10/2024 08:28,19/10/2024 08:28,Pay Bill Online from 070197***456 - FAITH *** Acc. ICH,Completed,1000,,7300,TRUE,Pay Bill Online,070197***456 - FAITH ***,,ICH
SJJ8LGIKRG,19/10/2024 07:23,19/10/2024 07:23,Pay Bill from 254720***119 - LINDAH *** Acc. kfe,Completed,1000,,6300,TRUE,Pay Utility,254720***119 - LINDAH ***,,kfe
SJI7H5MIBT,18/10/2024 06:24,18/10/2024 06:24,Pay Bill from 254722***136 - NADI *** Acc. JEA,Completed,1500,,5300,TRUE,Pay Utility,254722***136 - NADI ***,,JEA
SJH0GTFH44,17/10/2024 22:10,17/10/2024 22:10,Pay Bill from 254717***596 - NICHOLAS *** Acc. hcf,Completed,700,,3800,TRUE,Pay Utility,254717***596 - NICHOLAS ***,,hcf
SJH7D71VWD,17/10/2024 07:15,17/10/2024 07:15,Pay Bill from 011127***177 - Alfred *** Acc. HBH,Completed,2600,,3100,TRUE,Pay Utility,011127***177 - Alfred ***,,HBH
SJH6CXTWO6,17/10/2024 00:12,17/10/2024 00:12,Pay Bill Online from 070115***700 - Anabel *** Acc. jdj,Completed,500,,500,TRUE,Pay Bill Online,070115***700 - Anabel ***,,jdj
SJG0CW50CO,16/10/2024 23:20,16/10/2024 23:20,Utility Account to Organization Settlement Account,Completed,,-800,0,TRUE,Utility Account to Organization Settlement Account,846783 - ANCIENT WELLS LTD 4,,
SJG8BMYIVW,16/10/2024 18:20,16/10/2024 18:20,Pay Bill from 254722***480 - PATRICK *** Acc. KGH,Completed,400,,800,TRUE,Pay Utility with OD via STK,254722***480 - PATRICK ***,,KGH
SJG9BHCYHN,16/10/2024 17:51,16/10/2024 17:51,Pay Bill Online from 254720***965 - JAMES *** Acc. JBI,Completed,400,,400,TRUE,Pay Bill Online,254720***965 - JAMES ***,,JBI
SJG09N9YFK,16/10/2024 09:50,16/10/2024 09:50,Utility Account to Organization Settlement Account,Completed,,-1700,0,TRUE,Utility Account to Organization Settlement Account,846783 - ANCIENT WELLS LTD 4,,
SJG79KNICF,16/10/2024 09:28,16/10/2024 09:28,Pay Bill from 079432***423 - BENARD *** Acc. Hcb,Completed,1400,,1700,TRUE,Pay Utility,079432***423 - BENARD ***,,Hcb
SJF78PJVPT,15/10/2024 21:59,15/10/2024 21:59,Pay Bill from 254720***443 - FATUMA *** Acc. V21,Completed,300,,300,TRUE,Pay Utility,254720***443 - FATUMA ***,,V21
SJF97R709J,15/10/2024 18:49,15/10/2024 18:49,Utility Account to Organization Settlement Account,Completed,,-2200,0,TRUE,Utility Account to Organization Settlement Account,846783 - ANCIENT WELLS LTD 4,,
SJF977TIWV,15/10/2024 17:09,15/10/2024 17:09,Pay Bill from 254706***560 - ALEX *** Acc. hbd,Completed,600,,2200,TRUE,Pay Utility,254706***560 - ALEX ***,,hbd
SJF464V13Y,15/10/2024 12:31,15/10/2024 12:31,Pay Bill Online from 254720***103 - NJENGA *** Acc. kca,Completed,1000,,1600,TRUE,Pay Bill Online,254720***103 - NJENGA ***,,kca
SJF85Y3MYA,15/10/2024 11:38,15/10/2024 11:38,Pay Bill from 254722***077 - AMOS *** Acc. DEA,Completed,600,,600,TRUE,Pay Utility,254722***077 - AMOS ***,,DEA
SJF85AZMLU,15/10/2024 08:31,15/10/2024 08:31,Utility Account to Organization Settlement Account,Completed,,-1000,0,TRUE,Utility Account to Organization Settlement Account,846783 - ANCIENT WELLS LTD 4,,
SJE7ZYBQ0L,14/10/2024 07:08,14/10/2024 07:08,Pay Bill from 071503***019 - Omwenga *** Acc. E1,Completed,1000,,1000,TRUE,Pay Utility,071503***019 - Omwenga ***,,E1
SJD4XX5WT2,13/10/2024 16:08,13/10/2024 16:08,Utility Account to Organization Settlement Account,Completed,,-6300,0,TRUE,Utility Account to Organization Settlement Account,846783 - ANCIENT WELLS LTD 4,,
SJD1XLFHKZ,13/10/2024 14:42,13/10/2024 14:42,Merchant Pay Utility Received from 6474824 - James Ngugi Mwaniki Acc. jbi,Completed,1300,,6300,TRUE,Merchant Pay Utility via API,6474824 - James Ngugi Mwaniki,,jbi
SJD9WO39CJ,13/10/2024 10:08,13/10/2024 10:08,Pay Bill from 071474***222 - WILSON *** Acc. v25,Completed,400,,5000,TRUE,Pay Utility,071474***222 - WILSON ***,,v25
SJC3VQPGJV,12/10/2024 22:06,12/10/2024 22:06,Pay Bill from 254725***547 - MWACHIRO *** Acc. DFC,Completed,2000,,4600,TRUE,Pay Utility,254725***547 - MWACHIRO ***,,DFC
SJC2VP56WI,12/10/2024 21:52,12/10/2024 21:52,Pay Bill from 254725***094 - ABDISALAN *** Acc. IBA,Completed,2600,,2600,TRUE,Pay Utility,254725***094 - ABDISALAN ***,,IBA
SJC6VB9MF8,12/10/2024 20:24,12/10/2024 20:24,Utility Account to Organization Settlement Account,Completed,,-5600,0,TRUE,Utility Account to Organization Settlement Account,846783 - ANCIENT WELLS LTD 4,,
SJC8V7ERCW,12/10/2024 20:04,12/10/2024 20:04,Pay Bill from 254719***821 - KIPKEMOI *** Acc. JDD,Completed,1000,,5600,TRUE,Pay Utility,254719***821 - KIPKEMOI ***,,JDD
SJC6V1B2R4,12/10/2024 19:36,12/10/2024 19:36,Pay Bill Online from 254721***299 - WESLEY *** Acc. kbc,Completed,1000,,4600,TRUE,Pay Bill Online,254721***299 - WESLEY ***,,kbc
SJC6TRW0LW,12/10/2024 15:24,12/10/2024 15:24,Pay Bill from 254710***394 - LUCY *** Acc. KBG,Completed,500,,3600,TRUE,Pay Utility,254710***394 - LUCY ***,,KBG
SJC8THG4QQ,12/10/2024 14:11,12/10/2024 14:11,Pay Bill from 254799***200 - PURITY *** Acc. HDC,Completed,800,,3100,TRUE,Pay Utility,254799***200 - PURITY ***,,HDC
SJC6TBLP6O,12/10/2024 13:31,12/10/2024 13:31,Pay Bill from 254791***982 - ADULLAHI *** Acc. JCI,Completed,1800,,2300,TRUE,Pay Utility,254791***982 - ADULLAHI ***,,JCI
SJC8T0SXK8,12/10/2024 12:12,12/10/2024 12:12,Pay Bill Online from 254715***212 - BANCE *** Acc. JFE,Completed,500,,500,TRUE,Pay Bill Online,254715***212 - BANCE ***,,JFE
SJC6STQ4SQ,12/10/2024 11:18,12/10/2024 11:18,Utility Account to Organization Settlement Account,Completed,,-5200,0,TRUE,Utility Account to Organization Settlement Account,846783 - ANCIENT WELLS LTD 4,,
SJC0STBHEQ,12/10/2024 11:15,12/10/2024 11:15,Pay Bill from 079063***952 - Guyo *** Acc. DBC,Completed,3200,,5200,TRUE,Pay Utility,079063***952 - Guyo ***,,DBC
SJC9RXRSSB,12/10/2024 06:11,12/10/2024 06:11,Pay Bill from 254757***090 - Laureen *** Acc. KCJ,Completed,1200,,2000,TRUE,Pay Utility,254757***090 - Laureen ***,,KCJ
SJB6RE0DCK,11/10/2024 21:08,11/10/2024 21:08,Pay Bill from 075705***882 - FAITH *** Acc. HDF,Completed,800,,800,TRUE,Pay Utility,075705***882 - FAITH ***,,HDF
SJB1P4PO99,11/10/2024 13:19,11/10/2024 13:19,Utility Account to Organization Settlement Account,Completed,,-107480,0,TRUE,Utility Account to Organization Settlement Account,846783 - ANCIENT WELLS LTD 4,,
SJA1N20HD1,10/10/2024 20:28,10/10/2024 20:28,Pay Bill Online from 254720***253 - JIMMY *** Acc. kbd,Completed,200,,107480,TRUE,Pay Bill Online,254720***253 - JIMMY ***,,kbd
SJA4N0RP40,10/10/2024 20:21,10/10/2024 20:21,Business Pay Bill by 998094 - COOP TO PAYBILL Acc. JEI via API,Completed,2800,,107280,TRUE,Business Pay Bill via API,998094 - COOP TO PAYBILL,,JEI via API
SJA9KG5IDR,10/10/2024 10:39,10/10/2024 10:39,Pay Bill Online from 254720***609 - DENNIS *** Acc. JAJ,Completed,400,,104480,TRUE,Pay Bill Online,254720***609 - DENNIS ***,,JAJ
SJ92JIW2NS,09/10/2024 23:27,09/10/2024 23:27,Pay Bill Online from 254799***490 - DANIEL *** Acc. V28,Completed,1000,,104080,TRUE,Pay Bill Online,254799***490 - DANIEL ***,,V28
SJ94IW8OVQ,09/10/2024 20:12,09/10/2024 20:12,Pay Bill Online from 254720***253 - JIMMY *** Acc. kbd,Completed,100,,103080,TRUE,Pay Bill Online,254720***253 - JIMMY ***,,kbd
SJ97IMSOGJ,09/10/2024 19:28,09/10/2024 19:28,Pay Bill from 254706***075 - HARON *** Acc. V 38,Completed,600,,102980,TRUE,Pay Utility,254706***075 - HARON ***,,V 38
SJ94HY8BOU,09/10/2024 17:33,09/10/2024 17:33,Pay Bill from 254710***394 - LUCY *** Acc. KBG,Completed,1000,,102380,TRUE,Pay Utility,254710***394 - LUCY ***,,KBG
SJ94HMH6VG,09/10/2024 16:20,09/10/2024 16:20,Pay Bill from 011568***585 - Sophia *** Acc. FAC,Completed,1200,,101380,TRUE,Pay Utility,011568***585 - Sophia ***,,FAC
SJ90HEYU9Q,09/10/2024 15:27,09/10/2024 15:27,Pay Bill from 254717***817 - NYANGAU *** Acc. jba,Completed,1400,,100180,TRUE,Pay Utility,254717***817 - NYANGAU ***,,jba
SJ98GGFPH4,09/10/2024 11:10,09/10/2024 11:10,Pay Bill Online from 254799***492 - HIRANI *** Acc. JDB,Completed,1600,,98780,TRUE,Pay Bill Online,254799***492 - HIRANI ***,,JDB
SJ85F9X337,08/10/2024 22:21,08/10/2024 22:21,Pay Bill from 254725***531 - KIPKORIR *** Acc. DFB,Completed,600,,97180,TRUE,Pay Utility,254725***531 - KIPKORIR ***,,DFB
SJ86ESRUZW,08/10/2024 20:16,08/10/2024 20:16,Pay Bill from 254706***646 - MIRIAM *** Acc. v08,Completed,1280,,96580,TRUE,Pay Utility,254706***646 - MIRIAM ***,,v08
SJ80ECWRKA,08/10/2024 19:03,08/10/2024 19:03,Pay Bill Online from 254715***283 - alex *** Acc. v7,Completed,600,,95300,TRUE,Pay Bill Online,254715***283 - alex ***,,v7
SJ80DZMDHK,08/10/2024 18:01,08/10/2024 18:01,Pay Bill from 254726***330 - JOHN *** Acc. IFH,Completed,1600,,94700,TRUE,Pay Utility,254726***330 - JOHN ***,,IFH
SJ86DEDHFO,08/10/2024 15:49,08/10/2024 15:49,Pay Bill from 071414***211 - KAREN *** Acc. JDF,Completed,1000,,93100,TRUE,Pay Utility,071414***211 - KAREN ***,,JDF
SJ80D9JQCQ,08/10/2024 15:14,08/10/2024 15:14,Pay Bill Online from 254713***424 - NDUTI *** Acc. jed,Completed,2000,,92100,TRUE,Pay Bill Online,254713***424 - NDUTI ***,,jed
SJ82D9425E,08/10/2024 15:10,08/10/2024 15:10,Pay Bill from 254708***464 - MERCY *** Acc. IBB,Completed,1500,,90100,TRUE,Pay Utility,254708***464 - MERCY ***,,IBB
SJ88CDWRIQ,08/10/2024 11:20,08/10/2024 11:20,Pay Bill Online from 070848***946 - Samson *** Acc. v20,Completed,1200,,88600,TRUE,Pay Bill Online,070848***946 - Samson ***,,v20
SJ82C8P3QI,08/10/2024 10:39,08/10/2024 10:39,Pay Bill Online from 254728***282 - ALI *** Acc. FGF WATER,Completed,450,,87400,TRUE,Pay Bill Online,254728***282 - ALI ***,,FGF WATER
SJ85BZUHJX,08/10/2024 09:29,08/10/2024 09:29,Pay Bill from 074871***970 - judith *** Acc. E5,Completed,1600,,86950,TRUE,Pay Utility,074871***970 - judith ***,,E5
SJ84BQR76W,08/10/2024 08:14,08/10/2024 08:14,Pay Bill Online from 254717***935 - LYDIAH *** Acc. ffb,Completed,600,,85350,TRUE,Pay Bill Online,254717***935 - LYDIAH ***,,ffb
SJ83BIBBVB,08/10/2024 06:48,08/10/2024 06:48,Pay Bill from 254701***613 - ELDERKIN *** Acc. IFB,Completed,1600,,84750,TRUE,Pay Utility,254701***613 - ELDERKIN ***,,IFB
SJ75B3CYVT,07/10/2024 21:50,07/10/2024 21:50,Pay Bill from 254700***767 - BAKHITA *** Acc. kcb,Completed,700,,83150,TRUE,Pay Utility,254700***767 - BAKHITA ***,,kcb
SJ73B2UDKR,07/10/2024 21:45,07/10/2024 21:45,Pay Bill Online from 254718***397 - JIMMY *** Acc. DCB,Completed,800,,82450,TRUE,Pay Utility with OD Online,254718***397 - JIMMY ***,,DCB
SJ7596IJA3,07/10/2024 15:23,07/10/2024 15:23,Pay Bill from 254724***882 - JOEL *** Acc. fee,Completed,600,,81650,TRUE,Pay Utility,254724***882 - JOEL ***,,fee
SJ708H2F5S,07/10/2024 12:23,07/10/2024 12:23,Pay Bill from 254705***736 - SNAIDA *** Acc. HBC,Completed,1200,,81050,TRUE,Pay Utility,254705***736 - SNAIDA ***,,HBC
SJ747ZDUHC,07/10/2024 10:07,07/10/2024 10:07,Pay Bill from 254726***584 - JULIANA *** Acc. v4,Completed,600,,79850,TRUE,Pay Utility,254726***584 - JULIANA ***,,v4
SJ757WDX73,07/10/2024 09:44,07/10/2024 09:44,Pay Bill from 254712***662 - BENARD *** Acc. V16,Completed,600,,79250,TRUE,Pay Utility,254712***662 - BENARD ***,,V16
SJ757RYLAL,07/10/2024 09:08,07/10/2024 09:08,Pay Bill Online from 254722***338 - DANIEL *** Acc. KAA,Completed,200,,78650,TRUE,Pay Bill Online,254722***338 - DANIEL ***,,KAA
SJ777L7NJF,07/10/2024 08:13,07/10/2024 08:13,Pay Bill Online from 254711***087 - MUTHIANI *** Acc. idb,Completed,3000,,78450,TRUE,Pay Bill Online,254711***087 - MUTHIANI ***,,idb
SJ6570M0ZL,06/10/2024 22:23,06/10/2024 22:23,Pay Bill from 070706***921 - LYDIA *** Acc. KBE ,Completed,400,,75450,TRUE,Pay Utility,070706***921 - LYDIA ***,,KBE 
SJ686E4S6U,06/10/2024 19:44,06/10/2024 19:44,Pay Bill from 254722***070 - SAMUEL *** Acc. v42,Completed,400,,75050,TRUE,Pay Utility,254722***070 - SAMUEL ***,,v42
SJ675QTRR3,06/10/2024 17:51,06/10/2024 17:51,Pay Bill from 074553***423 - Nadi *** Acc. JEA,Completed,1500,,74650,TRUE,Pay Utility,074553***423 - Nadi ***,,JEA
SJ61517NO1,06/10/2024 15:09,06/10/2024 15:09,Pay Bill from 254705***030 - FRIDAH *** Acc. JEH,Completed,2000,,73150,TRUE,Pay Utility,254705***030 - FRIDAH ***,,JEH
SJ694C8A1J,06/10/2024 12:08,06/10/2024 12:08,Pay Bill from 254796***018 - PEACE *** Acc. jah,Completed,1400,,71150,TRUE,Pay Utility,254796***018 - PEACE ***,,jah
SJ693ZQ7J9,06/10/2024 10:24,06/10/2024 10:24,Pay Bill Online from 254792***128 - Edwin *** Acc. HBF,Completed,600,,69750,TRUE,Pay Bill Online,254792***128 - Edwin ***,,HBF
SJ623YXOKI,06/10/2024 10:17,06/10/2024 10:17,Pay Bill Online from 254712***464 - MERCY *** Acc. HFG,Completed,1000,,69150,TRUE,Pay Bill Online,254712***464 - MERCY ***,,HFG
SJ61373XFP,06/10/2024 00:34,06/10/2024 00:34,Pay Bill Online from 254720***253 - JIMMY *** Acc. kbd,Completed,200,,68150,TRUE,Pay Utility with OD Online,254720***253 - JIMMY ***,,kbd
SJ522VX4VQ,05/10/2024 21:46,05/10/2024 21:46,Pay Bill from 254701***750 - gillian *** Acc. ICG,Completed,200,,67950,TRUE,Pay Utility,254701***750 - gillian ***,,ICG
SJ572VNJ6B,05/10/2024 21:44,05/10/2024 21:44,Pay Bill Online from 071150***447 - Gabriel *** Acc. FDC,Completed,1000,,67750,TRUE,Pay Bill Online,071150***447 - Gabriel ***,,FDC
SJ552UD3YN,05/10/2024 21:35,05/10/2024 21:35,Pay Bill Online from 254715***656 - DENNIS *** Acc. KFA,Completed,400,,66750,TRUE,Pay Utility with OD Online,254715***656 - DENNIS ***,,KFA
SJ582OPAUW,05/10/2024 20:59,05/10/2024 20:59,Pay Bill Online from 254721***178 - PHANICE *** Acc. FBF,Completed,1000,,66350,TRUE,Pay Bill Online,254721***178 - PHANICE ***,,FBF
SJ572LZIGF,05/10/2024 20:44,05/10/2024 20:44,Pay Bill from 074262***652 - Charity *** Acc. IEB,Completed,600,,65350,TRUE,Pay Utility,074262***652 - Charity ***,,IEB
SJ562HG5IS,05/10/2024 20:21,05/10/2024 20:21,Pay Bill Online from 254711***716 - RODGERS *** Acc. IGC,Completed,600,,64750,TRUE,Pay Bill Online,254711***716 - RODGERS ***,,IGC
SJ532A620D,05/10/2024 19:48,05/10/2024 19:48,Pay Bill from 011412***024 - Sharad *** Acc. KCK,Completed,3000,,64150,TRUE,Pay Utility,011412***024 - Sharad ***,,KCK
SJ5624D36I,05/10/2024 19:24,05/10/2024 19:24,Pay Bill from 254746***269 - IAN *** Acc. KDC,Completed,1000,,61150,TRUE,Pay Utility,254746***269 - IAN ***,,KDC
SJ561PINMM,05/10/2024 18:23,05/10/2024 18:23,Pay Bill Online from 076802***575 - DOREEN *** Acc. HCD,Completed,500,,60150,TRUE,Pay Bill Online,076802***575 - DOREEN ***,,HCD
SJ541HI86O,05/10/2024 17:42,05/10/2024 17:42,Pay Bill Online from 254716***144 - PETER *** Acc. FBB,Completed,800,,59650,TRUE,Pay Bill Online,254716***144 - PETER ***,,FBB
SJ57ZZFJ53,05/10/2024 15:56,05/10/2024 15:56,Pay Bill Online from 254729***858 - AMBROSE *** Acc. KEJ,Completed,1000,,58850,TRUE,Pay Bill Online,254729***858 - AMBROSE ***,,KEJ
SJ54ZHL7L8,05/10/2024 14:02,05/10/2024 14:02,Pay Bill from 254704***496 - PETER *** Acc. DFD,Completed,2000,,57850,TRUE,Pay Utility,254704***496 - PETER ***,,DFD
SJ56Z1KTNI,05/10/2024 12:16,05/10/2024 12:16,Pay Bill from 254700***478 - GABRIEL *** Acc. FFC,Completed,200,,55850,TRUE,Pay Utility,254700***478 - GABRIEL ***,,FFC
SJ57YW1SFR,05/10/2024 11:36,05/10/2024 11:36,Pay Bill from 254720***822 - JAMES *** Acc. jgj,Completed,700,,55650,TRUE,Pay Utility with OD via STK,254720***822 - JAMES ***,,jgj
SJ55YVFG6D,05/10/2024 11:32,05/10/2024 11:32,Pay Bill Online from 070728***361 - JOSEPHIN *** Acc. IFD,Completed,200,,54950,TRUE,Pay Bill Online,070728***361 - JOSEPHIN ***,,IFD
SJ55YI8T5L,05/10/2024 09:54,05/10/2024 09:54,Pay Bill Online from 071883***251 - MARK *** Acc. kfg,Completed,1000,,54750,TRUE,Pay Bill Online,071883***251 - MARK ***,,kfg
SJ52Y2IQ2U,05/10/2024 07:46,05/10/2024 07:46,Pay Bill Online from 254721***713 - RHODA *** Acc. Jfh,Completed,1200,,53750,TRUE,Pay Bill Online,254721***713 - RHODA ***,,Jfh
SJ52Y0O4FA,05/10/2024 07:27,05/10/2024 07:27,Pay Bill from 254712***818 - OYUGI *** Acc. FCB,Completed,2600,,52550,TRUE,Pay Utility,254712***818 - OYUGI ***,,FCB
SJ50XQ6E3I,05/10/2024 00:27,05/10/2024 00:27,Pay Bill from 254700***550 - BENARD *** Acc. DBB,Completed,1000,,49950,TRUE,Pay Utility,254700***550 - BENARD ***,,DBB
SJ57XPR29V,05/10/2024 00:13,05/10/2024 00:13,Pay Bill from 254703***305 - MARTHA *** Acc. iai,Completed,600,,48950,TRUE,Pay Utility,254703***305 - MARTHA ***,,iai
SJ40XKTTZY,04/10/2024 22:38,04/10/2024 22:38,Pay Bill from 254799***719 - Anjeline *** Acc. FCA,Completed,2500,,48350,TRUE,Pay Utility,254799***719 - Anjeline ***,,FCA
SJ48XKOLZK,04/10/2024 22:36,04/10/2024 22:36,Pay Bill from 254726***835 - LAWRENCE *** Acc. KDJ,Completed,1400,,45850,TRUE,Pay Utility,254726***835 - LAWRENCE ***,,KDJ
SJ44X9HA96,04/10/2024 21:05,04/10/2024 21:05,Pay Bill Online from 071883***251 - MARK *** Acc. kfg,Completed,800,,44450,TRUE,Pay Bill Online,071883***251 - MARK ***,,kfg
SJ40X4RBJG,04/10/2024 20:38,04/10/2024 20:38,Pay Bill from 254708***289 - BERYLE *** Acc. v02,Completed,400,,43650,TRUE,Pay Utility,254708***289 - BERYLE ***,,v02
SJ41WTK2SF,04/10/2024 19:44,04/10/2024 19:44,Pay Bill Online from 254718***980 - KAREN *** Acc. FBA,Completed,1000,,43250,TRUE,Pay Utility with OD Online,254718***980 - KAREN ***,,FBA
SJ42WTCD1K,04/10/2024 19:43,04/10/2024 19:43,Pay Bill from 254700***449 - JOHN *** Acc. HCE,Completed,350,,42250,TRUE,Pay Utility,254700***449 - JOHN ***,,HCE
SJ44VTPQXK,04/10/2024 16:53,04/10/2024 16:53,Pay Bill from 254720***502 - JOHN *** Acc. JFA ,Completed,400,,41900,TRUE,Pay Utility,254720***502 - JOHN ***,,JFA 
SJ41VIY3OB,04/10/2024 15:43,04/10/2024 15:43,Pay Bill Online from 254712***871 - PAULA *** Acc. hea,Completed,800,,41500,TRUE,Pay Bill Online,254712***871 - PAULA ***,,hea
SJ49VGH7CL,04/10/2024 15:27,04/10/2024 15:27,Pay Bill from 254792***122 - MWENDWA *** Acc. B1,Completed,2200,,40700,TRUE,Pay Utility,254792***122 - MWENDWA ***,,B1
SJ43UN3YCV,04/10/2024 11:55,04/10/2024 11:55,Pay Bill Online from 254720***253 - JIMMY *** Acc. kbd,Completed,200,,38500,TRUE,Pay Bill Online,254720***253 - JIMMY ***,,kbd
SJ47UMXSDL,04/10/2024 11:53,04/10/2024 11:53,Pay Bill from 074547***241 - Tonny *** Acc. IDC,Completed,500,,38300,TRUE,Pay Utility,074547***241 - Tonny ***,,IDC
SJ46U261JS,04/10/2024 09:16,04/10/2024 09:16,Pay Bill from 254721***885 - QUINTER *** Acc. KGC,Completed,500,,37800,TRUE,Pay Utility,254721***885 - QUINTER ***,,KGC
SJ41U0GFKZ,04/10/2024 09:02,04/10/2024 09:02,Pay Bill from 254793***218 - STEPHEN *** Acc. IBE,Completed,200,,37300,TRUE,Pay Utility,254793***218 - STEPHEN ***,,IBE
SJ41TWUD43,04/10/2024 08:33,04/10/2024 08:33,Pay Bill from 254704***133 - ELVIS *** Acc. HFD,Completed,500,,37100,TRUE,Pay Utility,254704***133 - ELVIS ***,,HFD
SJ47TVAPQB,04/10/2024 08:20,04/10/2024 08:20,Pay Bill Online from 254720***285 - DAMARIS *** Acc. V18,Completed,1000,,36600,TRUE,Pay Bill Online,254720***285 - DAMARIS ***,,V18
SJ32TB33AG,03/10/2024 22:56,03/10/2024 22:56,Pay Bill from 254722***705 - ERIC *** Acc. FCF,Completed,1200,,35600,TRUE,Pay Utility,254722***705 - ERIC ***,,FCF
SJ31TAIQVR,03/10/2024 22:48,03/10/2024 22:48,Pay Bill Online from 254720***253 - JIMMY *** Acc. kbd,Completed,300,,34400,TRUE,Pay Utility with OD Online,254720***253 - JIMMY ***,,kbd
SJ35T5GNHZ,03/10/2024 21:53,03/10/2024 21:53,Pay Bill Online from 074635***450 - Alice *** Acc. FBC,Completed,200,,34100,TRUE,Pay Bill Online,074635***450 - Alice ***,,FBC
SJ36SV46GG,03/10/2024 20:45,03/10/2024 20:45,Pay Bill from 074546***503 - HAWO *** Acc. KGK,Completed,1800,,33900,TRUE,Pay Utility,074546***503 - HAWO ***,,KGK
SJ35SEGM05,03/10/2024 19:26,03/10/2024 19:26,Pay Bill from 254727***545 - SERAH *** Acc. KDG,Completed,200,,32100,TRUE,Pay Utility,254727***545 - SERAH ***,,KDG
SJ33RSMYKH,03/10/2024 17:49,03/10/2024 17:49,Pay Bill Online from 254729***719 - JACINTA *** Acc. FFF,Completed,600,,31900,TRUE,Pay Bill Online,254729***719 - JACINTA ***,,FFF
SJ34RIRDF4,03/10/2024 16:49,03/10/2024 16:49,Pay Bill Online from 070640***366 - LUCY *** Acc. KDB,Completed,1200,,31300,TRUE,Pay Bill Online,070640***366 - LUCY ***,,KDB
SJ32RG3QSW,03/10/2024 16:31,03/10/2024 16:31,Pay Bill from 254717***919 - MARCELINE *** Acc. IAF,Completed,200,,30100,TRUE,Pay Utility,254717***919 - MARCELINE ***,,IAF
SJ31R3USB7,03/10/2024 15:02,03/10/2024 15:02,Pay Bill from 071515***284 - Clifford *** Acc. ICI,Completed,400,,29900,TRUE,Pay Utility,071515***284 - Clifford ***,,ICI
SJ31QXN8FL,03/10/2024 14:18,03/10/2024 14:18,Pay Bill from 254720***822 - JAMES *** Acc. jgj,Completed,800,,29500,TRUE,Pay Utility with OD via STK,254720***822 - JAMES ***,,jgj
SJ32QXHS3U,03/10/2024 14:17,03/10/2024 14:17,Pay Bill Online from 254708***223 - DENNIS *** Acc. DCA,Completed,1000,,28700,TRUE,Pay Bill Online,254708***223 - DENNIS ***,,DCA
SJ32QEJNRS,03/10/2024 12:03,03/10/2024 12:03,Pay Bill from 254707***639 - Annastacia *** Acc. JFC ,Completed,2200,,27700,TRUE,Pay Utility,254707***639 - Annastacia ***,,JFC 
SJ35Q3TLYR,03/10/2024 10:41,03/10/2024 10:41,Pay Bill from 254791***764 - ISAIAH *** Acc. KGI,Completed,200,,25500,TRUE,Pay Utility,254791***764 - ISAIAH ***,,KGI
SJ34PLNL5E,03/10/2024 08:19,03/10/2024 08:19,Pay Bill Online from 254722***473 - SAMSON *** Acc. IAB,Completed,1000,,25300,TRUE,Pay Utility with OD Online,254722***473 - SAMSON ***,,IAB
SJ36P7Y4AG,03/10/2024 03:57,03/10/2024 03:57,Pay Bill Online from 254720***070 - Michelle *** Acc. JEJ,Completed,1000,,24300,TRUE,Pay Bill Online,254720***070 - Michelle ***,,JEJ
SJ35P4PV3R,03/10/2024 00:00,03/10/2024 00:00,Pay Bill from 254718***610 - HANNAH *** Acc. V23,Completed,200,,23300,TRUE,Pay Utility,254718***610 - HANNAH ***,,V23
SJ23O7FDZ9,02/10/2024 19:34,02/10/2024 19:34,Pay Bill from 254798***778 - victor *** Acc. DAD,Completed,1000,,23100,TRUE,Pay Utility,254798***778 - victor ***,,DAD
SJ23NH09CR,02/10/2024 17:35,02/10/2024 17:35,Pay Bill from 254706***262 - cendric *** Acc. V12 ,Completed,600,,22100,TRUE,Pay Utility,254706***262 - cendric ***,,V12 
SJ24N01JRO,02/10/2024 15:47,02/10/2024 15:47,Pay Bill from 074337***291 - Ann *** Acc. DGC,Completed,400,,21500,TRUE,Pay Utility,074337***291 - Ann ***,,DGC
SJ28MRK4QE,02/10/2024 14:46,02/10/2024 14:46,Pay Bill Online from 254791***019 - CLAUDIA *** Acc. iee,Completed,400,,21100,TRUE,Pay Bill Online,254791***019 - CLAUDIA ***,,iee
SJ25MN6VC1,02/10/2024 14:15,02/10/2024 14:15,Pay Bill from 254703***744 - Esther *** Acc. KEF,Completed,400,,20700,TRUE,Pay Utility,254703***744 - Esther ***,,KEF
SJ20M0X72Q,02/10/2024 11:34,02/10/2024 11:34,Pay Bill Online from 254791***803 - JOHN *** Acc. v14,Completed,500,,20300,TRUE,Pay Bill Online,254791***803 - JOHN ***,,v14
SJ23LHZWQH,02/10/2024 09:06,02/10/2024 09:06,Pay Bill from 254722***450 - MARY *** Acc. JAI,Completed,400,,19800,TRUE,Pay Utility with OD via STK,254722***450 - MARY ***,,JAI
SJ21L55AE1,02/10/2024 07:12,02/10/2024 07:12,Pay Bill from 254724***544 - MERCYLINE *** Acc. HCG,Completed,2200,,19400,TRUE,Pay Utility,254724***544 - MERCYLINE ***,,HCG
SJ21KXE2NT,02/10/2024 01:31,02/10/2024 01:31,Pay Bill from 254718***358 - Job *** Acc. ICF,Completed,200,,17200,TRUE,Pay Utility,254718***358 - Job ***,,ICF
SJ26KVRQ3Y,02/10/2024 00:34,02/10/2024 00:34,Pay Bill from 070288***109 - Edith *** Acc. DDB,Completed,1000,,17000,TRUE,Pay Utility,070288***109 - Edith ***,,DDB
SJ16K7O03W,01/10/2024 20:21,01/10/2024 20:21,Pay Bill Online from 254710***992 - SIMON *** Acc. JCD,Completed,200,,16000,TRUE,Pay Bill Online,254710***992 - SIMON ***,,JCD
SJ11JWC8BJ,01/10/2024 19:28,01/10/2024 19:28,Pay Bill from 071042***289 - Fatuma *** Acc. V21,Completed,500,,15800,TRUE,Pay Utility,071042***289 - Fatuma ***,,V21
SJ14JJDO5Y,01/10/2024 18:35,01/10/2024 18:35,Pay Bill from 254727***475 - NAOMI *** Acc. DAB,Completed,400,,15300,TRUE,Pay Utility,254727***475 - NAOMI ***,,DAB
SJ12J02TPM,01/10/2024 16:51,01/10/2024 16:51,Pay Bill Online from 254741***913 - DUNCAN *** Acc. FAE,Completed,600,,14900,TRUE,Pay Bill Online,254741***913 - DUNCAN ***,,FAE
SJ17IZ5QPD,01/10/2024 16:45,01/10/2024 16:45,Pay Bill from 074325***188 - NANCY *** Acc. KFD,Completed,200,,14300,TRUE,Pay Utility,074325***188 - NANCY ***,,KFD
SJ14ICKQQ2,01/10/2024 14:05,01/10/2024 14:05,Pay Bill from 070656***358 - HARRIET *** Acc. HBA,Completed,800,,14100,TRUE,Pay Utility,070656***358 - HARRIET ***,,HBA
SJ12HYBHP8,01/10/2024 12:26,01/10/2024 12:26,Pay Bill from 254798***621 - MERCY *** Acc. jcj,Completed,1400,,13300,TRUE,Pay Utility,254798***621 - MERCY ***,,jcj
SJ15HXHG6V,01/10/2024 12:20,01/10/2024 12:20,Pay Bill from 254716***398 - HYVENE *** Acc. KDE ,Completed,200,,11900,TRUE,Pay Utility,254716***398 - HYVENE ***,,KDE 
SJ14HVXWDI,01/10/2024 12:08,01/10/2024 12:08,Pay Bill from 254722***937 - Carlos *** Acc. KCF,Completed,700,,11700,TRUE,Pay Utility,254722***937 - Carlos ***,,KCF
SJ18HVWI9Q,01/10/2024 12:07,01/10/2024 12:07,Pay Bill Online from 011425***335 - ISAAC *** Acc. HAB ,Completed,3000,,11000,TRUE,Pay Bill Online,011425***335 - ISAAC ***,,HAB 
SJ11HJES8F,01/10/2024 10:32,01/10/2024 10:32,Pay Bill Online from 254715***001 - EMMANUEL *** Acc. kbb,Completed,800,,8000,TRUE,Pay Bill Online,254715***001 - EMMANUEL ***,,kbb
SJ11HF0NUV,01/10/2024 09:58,01/10/2024 09:58,Pay Bill Online from 254711***729 - DAVID *** Acc. HFA,Completed,2200,,7200,TRUE,Pay Bill Online,254711***729 - DAVID ***,,HFA
SJ16H5AKXG,01/10/2024 08:40,01/10/2024 08:40,Pay Bill from 254712***486 - JACKLINE *** Acc. ked,Completed,400,,5000,TRUE,Pay Utility,254712***486 - JACKLINE ***,,ked
SJ15H3324B,01/10/2024 08:21,01/10/2024 08:21,Pay Bill Online from 254795***441 - LEWIS *** Acc. KEB,Completed,400,,4600,TRUE,Pay Bill Online,254795***441 - LEWIS ***,,KEB
SJ12H2R52E,01/10/2024 08:19,01/10/2024 08:19,Pay Bill Online from 254706***056 - SHEILA *** Acc. V03,Completed,400,,4200,TRUE,Pay Utility with OD Online,254706***056 - SHEILA ***,,V03
SJ10H2FCI6,01/10/2024 08:16,01/10/2024 08:16,Pay Bill Online from 254707***839 - DENNIS *** Acc. FEF,Completed,800,,3800,TRUE,Pay Bill Online,254707***839 - DENNIS ***,,FEF
SJ17GXUM9R,01/10/2024 07:35,01/10/2024 07:35,Pay Bill from 254710***100 - PHILOMENA *** Acc. KDK,Completed,1000,,3000,TRUE,Pay Utility,254710***100 - PHILOMENA ***,,KDK
SJ11GWPOHH,01/10/2024 07:24,01/10/2024 07:24,Pay Bill from 254723***380 - RHODAH *** Acc. HEG,Completed,1600,,2000,TRUE,Pay Utility,254723***380 - RHODAH ***,,HEG
SJ15GU0X1Z,01/10/2024 06:53,01/10/2024 06:53,Pay Bill from 079137***873 - Joseph *** Acc. HAH,Completed,400,,400,TRUE,Pay Utility,079137***873 - Joseph ***,,HAH
