Receipt No.,Completion Time,Initiation Time,Details,Transaction Status,Paid In,Withdrawn,Balance,Balance Confirmed,Reason Type,Other Party Info,Linked Transaction ID,A/C No.
OH40BKU4FK,04/08/2020 12:47,04/08/2020 12:47,Pay Bill from 254718417450 - HARON ASUMA OROKO Acc. haron V 47,Completed,6600,,47600,TRUE,Pay Utility,254718417450 - HARON ASUMA OROKO,,haron
OH46BKFDR0,04/08/2020 12:35,04/08/2020 12:35,Pay Bill from 0795807227 - Lucy Ncekei Kimathi Acc. V36,Completed,7600,,41000,TRUE,Pay Utility,0795807227 - Lucy Ncekei Kimathi,,V36
OH45BGW5PL,04/08/2020 10:58,04/08/2020 10:58,Pay Bill from 0717042461 - Sharon Nyangasi Shivachi Acc. V55,Completed,6600,,33400,TRUE,Pay Utility,0717042461 - Sharon Nyangasi Shivachi,,V55
OH44BDSISG,04/08/2020 09:29,04/08/2020 09:29,Pay Bill from 254723389922 - ANNE WANJIKU Acc. v53,Completed,7000,,26800,TRUE,Pay Utility,254723389922 - ANNE WANJIKU,,v53
OH32B57JHI,03/08/2020 20:28,03/08/2020 20:28,Pay Bill from 254701086112 - CAROLYNE KOKI MULWA Acc. V30,Completed,6600,,19800,TRUE,Pay Utility,254701086112 - CAROLYNE KOKI MULWA,,V30
OH37B40G0L,03/08/2020 20:01,03/08/2020 20:01,Pay Bill from 254725639425 - CHRISPINE OMONDI Acc. V13,Completed,6600,,13200,TRUE,Pay Utility,254725639425 - CHRISPINE OMONDI,,V13
OH39AVOYFZ,03/08/2020 17:23,03/08/2020 17:23,Pay Bill from 254727729395 - ROBERT OUKO OSORO Acc. V29,Completed,6600,,6600,TRUE,Pay Utility,254727729395 - ROBERT OUKO OSORO,,V29
OH32ARKY2Y,03/08/2020 15:45,03/08/2020 15:45,Utility Account to Organization Settlement Account,Completed,,-42100,0,TRUE,Utility Account to Organization Settlement Account,887674 - ANCIENT WELLS LTD 1,,
OH31AJFLU1,03/08/2020 12:06,03/08/2020 12:06,Pay Bill from 0702322105 - hurry ibarasi madede Acc. V52,Completed,6600,,42100,TRUE,Pay Utility,0702322105 - hurry ibarasi madede,,V52
OH269NTYYM,02/08/2020 12:57,02/08/2020 12:57,Pay Bill from 254728991549 - MERCY NDWIGA Acc. V49,Completed,9100,,35500,TRUE,Pay Utility with OD via STK,254728991549 - MERCY NDWIGA,,V49
