Receipt No.,Completion Time,Initiation Time,Details,Transaction Status,Paid In,Withdrawn,Balance,Balance Confirmed,Reason Type,Other Party Info,Linked Transaction ID,A/C No.
RLB8TDB8JS,11/12/2023 08:33,11/12/2023 08:33,Utility Account to Organization Settlement Account,Completed,,-106500,0,TRUE,Utility Account to Organization Settlement Account,887674 - ANCIENT WELLS LTD 1,,
RLB0TB1U0E,11/12/2023 08:08,11/12/2023 08:08,Pay Bill Online from 254715***283 - alex *** Acc. v7,Completed,1100,,106500,TRUE,Pay Bill Online,254715***283 - alex ***,,v7
RLA3T0K0UJ,10/12/2023 23:50,10/12/2023 23:50,Pay Bill from 011206***814 - JOHN *** Acc. V53,Completed,7000,,105400,TRUE,Pay Utility with OD via STK,011206***814 - JOHN ***,,V53
RLA1S0I9M9,10/12/2023 17:57,10/12/2023 17:57,Pay Bill from 254724***238 - Immacurate *** Acc. V45,Completed,1400,,98400,TRUE,Pay Utility,254724***238 - Immacurate ***,,V45
RLA1RAWEPN,10/12/2023 14:17,10/12/2023 14:17,Pay Bill from 254706***646 - MIRIAM *** Acc. V08,Completed,7500,,97000,TRUE,Pay Utility with OD via STK,254706***646 - MIRIAM ***,,V08
RLA5R8U80R,10/12/2023 13:58,10/12/2023 13:58,Pay Bill from 254724***238 - Immacurate *** Acc. V45,Completed,5000,,89500,TRUE,Pay Utility,254724***238 - Immacurate ***,,V45
RLA4R1MB80,10/12/2023 12:48,10/12/2023 12:48,Business Pay Bill by 488519 - NCBA  Bank M-pesa Acc. T29 via API,Completed,65000,,84500,TRUE,Business Pay Bill via API,488519 - NCBA  Bank M-pesa,,T29
RL93P5XWHB,09/12/2023 19:11,09/12/2023 19:11,Pay Bill from 254706***390 - ELIZABETH *** Acc. V06,Completed,2000,,19500,TRUE,Pay Utility,254706***390 - ELIZABETH ***,,V06
RL95OX4YRN,09/12/2023 18:21,09/12/2023 18:21,Pay Bill from 254706***908 - joseph *** Acc. V45,Completed,3500,,17500,TRUE,Pay Utility,254706***908 - joseph ***,,V45
RL97OCF7AT,09/12/2023 15:47,09/12/2023 15:47,Pay Bill from 254729***258 - Cliff *** Acc. vo5,Completed,7000,,14000,TRUE,Pay Utility,254729***258 - Cliff ***,,vo5
RL98OAS4T8,09/12/2023 15:34,09/12/2023 15:34,Pay Bill from 254706***075 - HARON *** Acc. V38,Completed,7000,,7000,TRUE,Pay Utility with OD via STK,254706***075 - HARON ***,,V38
RL91NUUB2Z,09/12/2023 13:23,09/12/2023 13:23,Utility Account to Organization Settlement Account,Completed,,-44050,0,TRUE,Utility Account to Organization Settlement Account,887674 - ANCIENT WELLS LTD 1,,
RL90N7VNSS,09/12/2023 10:04,09/12/2023 10:04,Pay Bill from 254702***335 - IMMACULATE *** Acc. v39,Completed,7000,,44050,TRUE,Pay Utility,254702***335 - IMMACULATE ***,,v39
RL95MZS2I5,09/12/2023 08:46,09/12/2023 08:46,Pay Bill from 254707***557 - GRACE *** Acc. V60,Completed,7000,,37050,TRUE,Pay Utility,254707***557 - GRACE ***,,V60
RL86LC9NTW,08/12/2023 18:03,08/12/2023 18:03,Pay Bill from 254722***776 - BEATRICE *** Acc. Kbb 961B,Completed,50,,30050,TRUE,Pay Utility,254722***776 - BEATRICE ***,,Kbb
RL89KSUFDN,08/12/2023 15:34,08/12/2023 15:34,Pay Bill from 070434***708 - WENDY *** Acc. V17,Completed,7000,,30000,TRUE,Pay Utility,070434***708 - WENDY ***,,V17
RL84KJWWSI,08/12/2023 14:17,08/12/2023 14:17,Pay Bill from 011536***438 - zibborah *** Acc. V48,Completed,7000,,23000,TRUE,Pay Utility,011536***438 - zibborah ***,,V48
RL82JYNZWO,08/12/2023 11:14,08/12/2023 11:14,Pay Bill Online from 254725***063 - MILLICENT *** Acc. v56,Completed,7000,,16000,TRUE,Pay Bill Online,254725***063 - MILLICENT ***,,v56
RL84JREZHW,08/12/2023 10:12,08/12/2023 10:12,Pay Bill Online from 254720***303 - PAUL *** Acc. V13,Completed,7000,,9000,TRUE,Pay Bill Online,254720***303 - PAUL ***,,V13
RL77J0CJSJ,07/12/2023 22:56,07/12/2023 22:56,Pay Bill from 254717***709 - CAROLINE *** Acc. v15 ,Completed,2000,,2000,TRUE,Pay Utility,254717***709 - CAROLINE ***,,v15
RL73HRXPJR,07/12/2023 17:40,07/12/2023 17:40,Utility Account to Organization Settlement Account,Completed,,-49600,0,TRUE,Utility Account to Organization Settlement Account,887674 - ANCIENT WELLS LTD 1,,
RL76H20DDQ,07/12/2023 14:03,07/12/2023 14:03,Pay Bill from 254759***176 - christine *** Acc. vk1,Completed,3500,,49600,TRUE,Pay Utility,254759***176 - christine ***,,vk1
RL79G7NZFX,07/12/2023 09:37,07/12/2023 09:37,Pay Bill from 074804***445 - Hellen *** Acc. V11,Completed,7000,,46100,TRUE,Pay Utility,074804***445 - Hellen ***,,V11
RL78FSV2ZW,07/12/2023 06:49,07/12/2023 06:49,Pay Bill from 254795***400 - BONFACE *** Acc. VK6,Completed,3500,,39100,TRUE,Pay Utility,254795***400 - BONFACE ***,,VK6
RL65FJKI5D,06/12/2023 22:52,06/12/2023 22:52,Pay Bill from 079580***227 - Lucy *** Acc. V36 ,Completed,6600,,35600,TRUE,Pay Utility,079580***227 - Lucy ***,,V36
RL67E6IBPN,06/12/2023 17:12,06/12/2023 17:12,Pay Bill from 254727***943 - JARED *** Acc. V12,Completed,15000,,29000,TRUE,Pay Utility,254727***943 - JARED ***,,V12
RL67DQI2NF,06/12/2023 15:09,06/12/2023 15:09,Pay Bill from 254702***689 - ISAIAH *** Acc. V49,Completed,7000,,14000,TRUE,Pay Utility,254702***689 - ISAIAH ***,,V49
RL67D4ILPV,06/12/2023 12:05,06/12/2023 12:05,FSI to Pay Bill by 3033815 - LOOP B2C. Acc. V55 via WEB by LOOP B2C.\TRINITYAPI,Completed,7000,,7000,TRUE,FSI to Pay Bill via API,3033815 - LOOP B2C.,,V55
RL68CM9YME,06/12/2023 09:22,06/12/2023 09:22,Utility Account to Organization Settlement Account,Completed,,-38000,0,TRUE,Utility Account to Organization Settlement Account,887674 - ANCIENT WELLS LTD 1,,
RL51BXQKBF,05/12/2023 22:15,05/12/2023 22:15,Pay Bill from 254799***761 - Samuel *** Acc. V42,Completed,7000,,38000,TRUE,Pay Utility,254799***761 - Samuel ***,,V42
RL54BQZIBI,05/12/2023 21:10,05/12/2023 21:10,Pay Bill from 072927***890 - HALIMA *** Acc. V03,Completed,7000,,31000,TRUE,Pay Utility,072927***890 - HALIMA ***,,V03
RL53BGGY6P,05/12/2023 20:01,05/12/2023 20:01,Pay Bill from 072938***149 - SYLVIA *** Acc. v30,Completed,7000,,24000,TRUE,Pay Utility,072938***149 - SYLVIA ***,,v30
RL519NCAAH,05/12/2023 12:04,05/12/2023 12:04,Pay Bill from 254720***700 - EUNICE *** Acc. V26,Completed,17000,,17000,TRUE,Pay Utility,254720***700 - EUNICE ***,,V26
RL448J3EQE,04/12/2023 22:46,04/12/2023 22:46,Utility Account to Organization Settlement Account,Completed,,-99100,0,TRUE,Utility Account to Organization Settlement Account,887674 - ANCIENT WELLS LTD 1,,
RL478DJG9R,04/12/2023 21:35,04/12/2023 21:35,Pay Bill from 254703***096 - KEVIN *** Acc. V51,Completed,7000,,99100,TRUE,Pay Utility,254703***096 - KEVIN ***,,V51
RL4686FU1Q,04/12/2023 20:39,04/12/2023 20:39,Pay Bill from 254722***253 - DAVID *** Acc. v32,Completed,7000,,92100,TRUE,Pay Utility,254722***253 - DAVID ***,,v32
RL467ZC60Q,04/12/2023 19:54,04/12/2023 19:54,Pay Bill from 071420***896 - JANET *** Acc. vk4,Completed,3500,,85100,TRUE,Pay Utility,071420***896 - JANET ***,,vk4
RL427WA6NY,04/12/2023 19:37,04/12/2023 19:37,Pay Bill Online from 254705***945 - PATRICK *** Acc. Hse no B4,Completed,68600,,81600,TRUE,Pay Bill Online,254705***945 - PATRICK ***,,Hse
RL447VFUDI,04/12/2023 19:32,04/12/2023 19:32,Pay Bill from 254718***610 - HANNAH *** Acc. V23,Completed,6600,,13000,TRUE,Pay Utility,254718***610 - HANNAH ***,,V23
RL417G3SSJ,04/12/2023 18:08,04/12/2023 18:08,Pay Bill from 254740***844 - LINA *** Acc. v29,Completed,6400,,6400,TRUE,Pay Utility,254740***844 - LINA ***,,v29
RL446LCUUK,04/12/2023 14:03,04/12/2023 14:03,Utility Account to Organization Settlement Account,Completed,,-15400,0,TRUE,Utility Account to Organization Settlement Account,887674 - ANCIENT WELLS LTD 1,,
RL40676E8Y,04/12/2023 12:03,04/12/2023 12:03,Pay Bill from 071474***222 - WILSON *** Acc. v25,Completed,7000,,15400,TRUE,Pay Utility,071474***222 - WILSON ***,,v25
RL47659DO5,04/12/2023 11:46,04/12/2023 11:46,Pay Bill from 254715***540 - HILLARY *** Acc. V19,Completed,8400,,8400,TRUE,Pay Utility,254715***540 - HILLARY ***,,V19
RL343WKP5O,03/12/2023 16:55,03/12/2023 16:55,Utility Account to Organization Settlement Account,Completed,,-7000,0,TRUE,Utility Account to Organization Settlement Account,887674 - ANCIENT WELLS LTD 1,,
RL372YTWV9,03/12/2023 11:48,03/12/2023 11:48,Pay Bill Online from 075960***060 - ELVIS *** Acc. V47,Completed,7000,,7000,TRUE,Pay Bill Online,075960***060 - ELVIS ***,,V47
RL2214VK92,02/12/2023 19:01,02/12/2023 19:01,Utility Account to Organization Settlement Account,Completed,,-7000,0,TRUE,Utility Account to Organization Settlement Account,887674 - ANCIENT WELLS LTD 1,,
RL29ZCJHZV,02/12/2023 15:46,02/12/2023 15:46,Pay Bill from 254729***880 - Eunice *** Acc. V33,Completed,7000,,7000,TRUE,Pay Utility,254729***880 - Eunice ***,,V33
RL24Z1J7FM,02/12/2023 14:15,02/12/2023 14:15,Utility Account to Organization Settlement Account,Completed,,-8000,0,TRUE,Utility Account to Organization Settlement Account,887674 - ANCIENT WELLS LTD 1,,
RL29YJUTTN,02/12/2023 11:47,02/12/2023 11:47,Pay Bill from 254717***709 - CAROLINE *** Acc. v15,Completed,1000,,8000,TRUE,Pay Utility,254717***709 - CAROLINE ***,,v15
RL21Y1IAKX,02/12/2023 09:04,02/12/2023 09:04,Pay Bill Online from 254791***803 - JOHN *** Acc. 7000,Completed,7000,,7000,TRUE,Pay Bill Online,254791***803 - JOHN ***,,7000
RL19XHWME1,01/12/2023 23:13,01/12/2023 23:13,Utility Account to Organization Settlement Account,Completed,,-5000,0,TRUE,Utility Account to Organization Settlement Account,887674 - ANCIENT WELLS LTD 1,,
RL17WOW9UZ,01/12/2023 19:18,01/12/2023 19:18,Pay Bill Online from 254702***125 - ROTICH *** Acc. V20,Completed,5000,,5000,TRUE,Pay Bill Online,254702***125 - ROTICH ***,,V20
RL14VG9TAE,01/12/2023 14:02,01/12/2023 14:02,Utility Account to Organization Settlement Account,Completed,,-28600,0,TRUE,Utility Account to Organization Settlement Account,887674 - ANCIENT WELLS LTD 1,,
RL12VBO5MY,01/12/2023 13:25,01/12/2023 13:25,Pay Bill from 070707***137 - samuel *** Acc. V57,Completed,7000,,28600,TRUE,Pay Utility,070707***137 - samuel ***,,V57
RL12V8AOBS,01/12/2023 12:57,01/12/2023 12:57,Pay Bill from 079674***765 - VERONICA *** Acc. V43,Completed,7000,,21600,TRUE,Pay Utility,079674***765 - VERONICA ***,,V43
RL19V0DTC9,01/12/2023 11:48,01/12/2023 11:48,Pay Bill Online from 254726***584 - JULIANA *** Acc. v4,Completed,6600,,14600,TRUE,Pay Bill Online,254726***584 - JULIANA ***,,v4
RL14UZBWHO,01/12/2023 11:38,01/12/2023 11:38,Pay Bill from 254741***886 - TERESIA *** Acc. v50,Completed,7000,,8000,TRUE,Pay Utility,254741***886 - TERESIA ***,,v50
RL11UOJ6SJ,01/12/2023 10:04,01/12/2023 10:04,Pay Bill from 254717***709 - CAROLINE *** Acc. v15,Completed,1000,,1000,TRUE,Pay Utility,254717***709 - CAROLINE ***,,v15
RL12U5Z9US,01/12/2023 06:42,01/12/2023 06:42,Utility Account to Organization Settlement Account,Completed,,-3500,0,TRUE,Utility Account to Organization Settlement Account,887674 - ANCIENT WELLS LTD 1,,
