Receipt No.,Completion Time,Initiation Time,Details,Transaction Status,Paid In,Withdrawn,Balance,Balance Confirmed,Reason Type,Other Party Info,Linked Transaction ID,A/C No.
PL31K0L3W5,03/12/2021 14:17,03/12/2021 14:17,Pay Bill from 254714419834 - FAITH MWIKALI MUTHAMA Acc. D4,Completed,800,,8500,TRUE,Pay Utility,254714419834 - FAITH MWIKALI MUTHAMA,,D4
PL38K03JMY,03/12/2021 14:09,03/12/2021 14:09,Pay Bill Online from 254713966424 - NDUTI MUTHUI Acc. Jed,Completed,1000,,7700,TRUE,Pay Bill Online,254713966424 - NDUTI MUTHUI,,Jed
PL30JY1W7C,03/12/2021 13:37,03/12/2021 13:37,Pay Bill from 254714710840 - RACHAEL WANJIRU NJOROGE Acc. ITE,Completed,600,,6700,TRUE,Pay Utility,254714710840 - RACHAEL WANJIRU NJOROGE,,ITE
PL38JO8EIA,03/12/2021 10:54,03/12/2021 10:54,Pay Bill from 254742395038 - PETER MTALAKI CHRISTOPHER Acc. V25,Completed,100,,6100,TRUE,Pay Utility,254742395038 - PETER MTALAKI CHRISTOPHER,,V25
PL31JO0D37,03/12/2021 10:50,03/12/2021 10:50,Pay Bill from 254742395038 - PETER MTALAKI CHRISTOPHER Acc. V25,Completed,100,,6000,TRUE,Pay Utility,254742395038 - PETER MTALAKI CHRISTOPHER,,V25
PL35JNXF55,03/12/2021 10:49,03/12/2021 10:49,Pay Bill from 254742395038 - PETER MTALAKI CHRISTOPHER Acc. V25,Completed,100,,5900,TRUE,Pay Utility,254742395038 - PETER MTALAKI CHRISTOPHER,,V25
PL32JHQVN6,03/12/2021 09:00,03/12/2021 09:00,Pay Bill Online from 254706354035 - MOSES MUOKA Acc. V03,Completed,400,,5800,TRUE,Pay Utility with OD Online,254706354035 - MOSES MUOKA,,V03
PL38JCRR4E,03/12/2021 07:04,03/12/2021 07:04,Pay Bill Online from 0796121714 - janet   mwikali Acc. KBC,Completed,400,,5400,TRUE,Pay Bill Online,0796121714 - janet   mwikali,,KBC
PL23J7VY0H,02/12/2021 22:25,02/12/2021 22:25,Pay Bill from 254716315144 - PETER MUNYIRI WAROTERE Acc. FBB,Completed,600,,5000,TRUE,Pay Utility,254716315144 - PETER MUNYIRI WAROTERE,,FBB
PL27IXUT11,02/12/2021 19:46,02/12/2021 19:46,Pay Bill from 254799287000 - Godfrey odhiambo oyugi Acc. kae,Completed,100,,4400,TRUE,Pay Utility with OD via STK,254799287000 - Godfrey odhiambo oyugi,,kae
PL22ISOD7M,02/12/2021 18:55,02/12/2021 18:55,Pay Bill from 254704934557 - BAKARI KITSAKA Acc. JAD,Completed,1200,,4300,TRUE,Pay Utility,254704934557 - BAKARI KITSAKA,,JAD
PL23IMVCL9,02/12/2021 17:52,02/12/2021 17:52,Pay Bill from 254798146452 - VALARY ODHIAMBO Acc. JEE,Completed,2500,,3100,TRUE,Pay Utility,254798146452 - VALARY ODHIAMBO,,JEE
PL26IH5C1I,02/12/2021 16:35,02/12/2021 16:35,Pay Bill from 0797758628 - jackline nyamari onyango Acc. ICF,Completed,600,,600,TRUE,Pay Utility,0797758628 - jackline nyamari onyango,,ICF
PL20IG4OQ2,02/12/2021 16:20,02/12/2021 16:20,Utility Account to Organization Settlement Account,Completed,,-9800,0,TRUE,Utility Account to Organization Settlement Account,846783 - ANCIENT WELLS LTD 4,,
PL28I6KIO2,02/12/2021 13:44,02/12/2021 13:44,Pay Bill Online from 254720787158 - AMOS CHELANG'A Acc. KFK,Completed,200,,9800,TRUE,Pay Bill Online,254720787158 - AMOS CHELANG'A,,KFK
PL24I659H4,02/12/2021 13:37,02/12/2021 13:37,Pay Bill Online from 254797601911 - JORAM MASAI KILONZO Acc. KTE,Completed,600,,9600,TRUE,Pay Bill Online,254797601911 - JORAM MASAI KILONZO,,KTE
PL24I4NQEY,02/12/2021 13:12,02/12/2021 13:12,Pay Bill Online from 254790627132 - Everline Mutave Kiio Acc. IGG,Completed,400,,9000,TRUE,Pay Bill Online,254790627132 - Everline Mutave Kiio,,IGG
PL25I2RW5B,02/12/2021 12:40,02/12/2021 12:40,Pay Bill Online from 254708225541 - JUDITH NKATHA SIMBA Acc. HDH,Completed,800,,8600,TRUE,Pay Bill Online,254708225541 - JUDITH NKATHA SIMBA,,HDH
PL20HWB4ZQ,02/12/2021 10:47,02/12/2021 10:47,Pay Bill from 254798844460 - WYCLIFFE ODHIAMBO NYAGOA Acc. KAC,Completed,600,,7800,TRUE,Pay Utility,254798844460 - WYCLIFFE ODHIAMBO NYAGOA,,KAC
PL26HVXKP0,02/12/2021 10:40,02/12/2021 10:40,Pay Bill from 0715273095 - Stacy Aketch Ochuka Acc. KGK,Completed,800,,7200,TRUE,Pay Utility,0715273095 - Stacy Aketch Ochuka,,KGK
PL28HUWDJW,02/12/2021 10:22,02/12/2021 10:22,Pay Bill from 254715939283 - alex nyamai Acc. v07,Completed,600,,6400,TRUE,Pay Utility,254715939283 - alex nyamai,,v07
PL22HUHOC2,02/12/2021 10:15,02/12/2021 10:15,Pay Bill from 254718284151 - EVERLINE MATHEKA Acc. JAG,Completed,400,,5800,TRUE,Pay Utility,254718284151 - EVERLINE MATHEKA,,JAG
PL24HRI0EI,02/12/2021 09:20,02/12/2021 09:20,Pay Bill from 254742395038 - PETER MTALAKI CHRISTOPHER Acc. V25,Completed,100,,5400,TRUE,Pay Utility,254742395038 - PETER MTALAKI CHRISTOPHER,,V25
PL25HRF5YH,02/12/2021 09:19,02/12/2021 09:19,Pay Bill from 254742395038 - PETER MTALAKI CHRISTOPHER Acc. V25,Completed,100,,5300,TRUE,Pay Utility,254742395038 - PETER MTALAKI CHRISTOPHER,,V25
PL25HR560F,02/12/2021 09:14,02/12/2021 09:14,Pay Bill from 254724952183 - MICHAEL WAMBUA MWOVE Acc. Fea,Completed,2000,,5200,TRUE,Pay Utility,254724952183 - MICHAEL WAMBUA MWOVE,,Fea
PL24HQA0I8,02/12/2021 08:57,02/12/2021 08:57,Pay Bill from 0717042461 - Sharon Nyangasi Shivachi Acc. V55,Completed,200,,3200,TRUE,Pay Utility,0717042461 - Sharon Nyangasi Shivachi,,V55
PL20HPCCTA,02/12/2021 08:39,02/12/2021 08:39,Pay Bill Online from 254716784364 - Wendy Kemunto Nyandiko Acc. FFC,Completed,800,,3000,TRUE,Pay Bill Online,254716784364 - Wendy Kemunto Nyandiko,,FFC
PL20HOZVY4,02/12/2021 08:32,02/12/2021 08:32,Pay Bill Online from 254742911013 - HANEST AMIMO Acc. IEG,Completed,600,,2200,TRUE,Pay Bill Online,254742911013 - HANEST AMIMO,,IEG
PL26HLH3NU,02/12/2021 07:07,02/12/2021 07:07,Pay Bill Online from 254714855708 - KIPLANGAT SITIENEI Acc. FAE,Completed,1000,,1600,TRUE,Pay Bill Online,254714855708 - KIPLANGAT SITIENEI,,FAE
PL17H7L50H,01/12/2021 20:06,01/12/2021 20:06,Pay Bill from 0715688238 - JOANNAH ATUHAIRE BANTU Acc. jae,Completed,600,,600,TRUE,Pay Utility,0715688238 - JOANNAH ATUHAIRE BANTU,,jae
PL14H603TE,01/12/2021 19:50,01/12/2021 19:50,Utility Account to Organization Settlement Account,Completed,,-10700,0,TRUE,Utility Account to Organization Settlement Account,846783 - ANCIENT WELLS LTD 4,,
PL10H5WQ6E,01/12/2021 19:49,01/12/2021 19:49,Pay Bill from 0727542914 - Pascal Ouma Opar Acc. pascalv45,Completed,400,,10700,TRUE,Pay Utility,0727542914 - Pascal Ouma Opar,,pascalv45
PL12H5PWI0,01/12/2021 19:47,01/12/2021 19:47,Pay Bill from 254720802644 - MESHACK MAXWELL GANDA Acc. HAB,Completed,400,,10300,TRUE,Pay Utility,254720802644 - MESHACK MAXWELL GANDA,,HAB
PL15H4JJ6F,01/12/2021 19:35,01/12/2021 19:35,Pay Bill from 254726977770 - STEPHEN MUIRURI MATHENGE Acc. KAF,Completed,800,,9900,TRUE,Pay Utility,254726977770 - STEPHEN MUIRURI MATHENGE,,KAF
PL16GZQ6FS,01/12/2021 18:50,01/12/2021 18:50,Pay Bill from 0717216114 - Felix Njeru Mugambi Acc. Kdf,Completed,1000,,9100,TRUE,Pay Utility,0717216114 - Felix Njeru Mugambi,,Kdf
PL12GYXSQ0,01/12/2021 18:43,01/12/2021 18:43,Pay Bill Online from 254714536026 - LILIAN AWUOR ONYANGO Acc. HDC,Completed,200,,8100,TRUE,Pay Bill Online,254714536026 - LILIAN AWUOR ONYANGO,,HDC
PL19GX3IYP,01/12/2021 18:23,01/12/2021 18:23,Pay Bill from 254707370896 - OKECH BRIAN BRIAN Acc. FFA,Completed,1000,,7900,TRUE,Pay Utility,254707370896 - OKECH BRIAN BRIAN,,FFA
PL13GU9FRV,01/12/2021 17:50,01/12/2021 17:50,Pay Bill from 254725771056 - CHARLES MURAGURI Acc. FCE,Completed,800,,6900,TRUE,Pay Utility,254725771056 - CHARLES MURAGURI,,FCE
PL10GRFBI8,01/12/2021 17:14,01/12/2021 17:14,Pay Bill from 254712614146 - SOPHIE MUENI MUVITHU Acc. Sophie Mueni-Hse No6,Completed,300,,6100,TRUE,Pay Utility,254712614146 - SOPHIE MUENI MUVITHU,,Sophie
PL16GOWTD2,01/12/2021 16:39,01/12/2021 16:39,Pay Bill from 254729541871 - ROBERT KULEI Acc. JAB,Completed,600,,5800,TRUE,Pay Utility,254729541871 - ROBERT KULEI,,JAB
PL10GOUG6S,01/12/2021 16:38,01/12/2021 16:38,Pay Bill from 254703690697 - CATHERINE MURAGE Acc. V21,Completed,200,,5200,TRUE,Pay Utility,254703690697 - CATHERINE MURAGE,,V21
PL12GNKUTE,01/12/2021 16:19,01/12/2021 16:19,Pay Bill Online from 254707226192 - NICHOLUS MAINGI MWANTHI Acc. HBF,Completed,600,,5000,TRUE,Pay Bill Online,254707226192 - NICHOLUS MAINGI MWANTHI,,HBF
PL14GMM8LU,01/12/2021 16:04,01/12/2021 16:04,Pay Bill Online from 254722604851 - WILFRED SAKWA Acc. IDG,Completed,800,,4400,TRUE,Pay Bill Online,254722604851 - WILFRED SAKWA,,IDG
PL11GKF9Q5,01/12/2021 15:29,01/12/2021 15:29,Pay Bill from 254115949784 - JOHN MAITHA MULWA Acc. ibh,Completed,3600,,3600,TRUE,Pay Utility,254115949784 - JOHN MAITHA MULWA,,ibh
PL15GIM8I3,01/12/2021 14:59,01/12/2021 14:59,Utility Account to Organization Settlement Account,Completed,,-2000,0,TRUE,Utility Account to Organization Settlement Account,846783 - ANCIENT WELLS LTD 4,,
PL14GFKXKK,01/12/2021 14:09,01/12/2021 14:09,Pay Bill from 254740579741 - MUHINDI MULINYA Acc. HGG,Completed,2000,,2000,TRUE,Pay Utility,254740579741 - MUHINDI MULINYA,,HGG
PL10G9IVME,01/12/2021 12:30,01/12/2021 12:30,Utility Account to Organization Settlement Account,Completed,,-23000,0,TRUE,Utility Account to Organization Settlement Account,846783 - ANCIENT WELLS LTD 4,,
PL12G2UZM2,01/12/2021 10:36,01/12/2021 10:36,Pay Bill from 254729796719 - JACINTA WANJIKU NJERI Acc. FFF,Completed,600,,23000,TRUE,Pay Utility,254729796719 - JACINTA WANJIKU NJERI,,FFF
PL14G16EWU,01/12/2021 10:07,01/12/2021 10:07,Pay Bill from 254726337163 - HALIMA ALI HASSAN Acc. DDA,Completed,500,,22400,TRUE,Pay Utility,254726337163 - HALIMA ALI HASSAN,,DDA
PL16FWXQ9Q,01/12/2021 08:53,01/12/2021 08:53,Pay Bill Online from 254700187806 - WINNIE OLIVIA AKOTH Acc. jec,Completed,800,,21900,TRUE,Pay Bill Online,254700187806 - WINNIE OLIVIA AKOTH,,jec
PL18FV4AI0,01/12/2021 08:17,01/12/2021 08:17,Pay Bill Online from 254795510441 - LEWIS MUEMA Acc. KEB,Completed,400,,21100,TRUE,Pay Bill Online,254795510441 - LEWIS MUEMA,,KEB
PL12FU2RSK,01/12/2021 07:55,01/12/2021 07:54,Pay Bill from 254742395038 - PETER MTALAKI CHRISTOPHER Acc. V25,Completed,100,,20700,TRUE,Pay Utility,254742395038 - PETER MTALAKI CHRISTOPHER,,V25
PL19FU0O7D,01/12/2021 07:53,01/12/2021 07:53,Pay Bill from 254742395038 - PETER MTALAKI CHRISTOPHER Acc. V25,Completed,100,,20600,TRUE,Pay Utility,254742395038 - PETER MTALAKI CHRISTOPHER,,V25
PL11FRX5A1,01/12/2021 06:55,01/12/2021 06:55,Pay Bill Online from 254717809935 - LYDIAH WERU Acc. idc,Completed,600,,20500,TRUE,Pay Bill Online,254717809935 - LYDIAH WERU,,idc
PL15FORLUN,01/12/2021 00:17,01/12/2021 00:17,Pay Bill from 254703180395 - JANE NYAGUTHII MWAGO Acc. IBE,Completed,200,,19900,TRUE,Pay Utility,254703180395 - JANE NYAGUTHII MWAGO,,IBE
PKU0FM1YRG,30/11/2021 22:00,30/11/2021 22:00,Pay Bill Online from 254728364280 - EMMANUEL THUMA OYIER Acc. IDF,Completed,700,,19700,TRUE,Pay Bill Online,254728364280 - EMMANUEL THUMA OYIER,,IDF
PKU8FG2MQC,30/11/2021 20:23,30/11/2021 20:23,Pay Bill from 254798643998 - Judith Mwaniki Acc. kce,Completed,200,,19000,TRUE,Pay Utility with OD via STK,254798643998 - Judith Mwaniki,,kce
PKU8FB3JNC,30/11/2021 19:28,30/11/2021 19:28,Pay Bill from 254705122840 - RICHU MWANGI GATURAGA Acc. DEA,Completed,2600,,18800,TRUE,Pay Utility,254705122840 - RICHU MWANGI GATURAGA,,DEA
PKU1F8RWKT,30/11/2021 19:05,30/11/2021 19:05,Pay Bill from 254720351482 - Cheruiyot Langat Brian Acc. dfa,Completed,600,,16200,TRUE,Pay Utility,254720351482 - Cheruiyot Langat Brian,,dfa
PKU0F3JXZA,30/11/2021 18:10,30/11/2021 18:10,Pay Bill from 254718417450 - HARON ASUMA OROKO Acc. haron v47 ,Completed,400,,15600,TRUE,Pay Utility,254718417450 - HARON ASUMA OROKO,,haron
PKU5ER5UBN,30/11/2021 15:09,30/11/2021 15:09,Pay Bill from 254703147783 - LYDIAH NJOKI MUCHIRI Acc. Jeb,Completed,15000,,15200,TRUE,Pay Utility,254703147783 - LYDIAH NJOKI MUCHIRI,,Jeb
PKU2EMLSTI,30/11/2021 13:53,30/11/2021 13:53,Pay Bill Online from 254713498554 - HENRY KINYUA WARUI Acc. V 44 Henry Warui,Completed,200,,200,TRUE,Pay Bill Online,254713498554 - HENRY KINYUA WARUI,,V
PKU7EK3P4L,30/11/2021 13:12,30/11/2021 13:12,Utility Account to Organization Settlement Account,Completed,,-5700,0,TRUE,Utility Account to Organization Settlement Account,846783 - ANCIENT WELLS LTD 4,,
PKU4EAYS5S,30/11/2021 10:28,30/11/2021 10:28,Pay Bill from 254725385966 - JOSEPH MUYA MARUA Acc. KEE,Completed,500,,5700,TRUE,Pay Utility,254725385966 - JOSEPH MUYA MARUA,,KEE
PKU4E042FO,30/11/2021 03:28,30/11/2021 03:28,Pay Bill from 0712917575 - Derrick Osore Songoro Acc. V58,Completed,200,,5200,TRUE,Pay Utility,0712917575 - Derrick Osore Songoro,,V58
PKT8DNOHVK,29/11/2021 19:37,29/11/2021 19:37,Pay Bill from 254705902606 - JOSEPH OTIENO SAGWA Acc. fed,Completed,800,,5000,TRUE,Pay Utility,254705902606 - JOSEPH OTIENO SAGWA,,fed
PKT2DHGECA,29/11/2021 18:32,29/11/2021 18:32,Pay Bill Online from 254713404029 - ANNE ISEUNA Acc. DED,Completed,3000,,4200,TRUE,Pay Utility with OD Online,254713404029 - ANNE ISEUNA,,DED
PKT5DDGK9T,29/11/2021 17:43,29/11/2021 17:43,Pay Bill from 254729450678 - GRACE NDUNGE Acc. fba,Completed,400,,1200,TRUE,Pay Utility with OD via STK,254729450678 - GRACE NDUNGE,,fba
PKT3DAHS7X,29/11/2021 17:02,29/11/2021 17:02,Pay Bill Online from 254702118125 - ROTICH BETHWEL Acc. V20,Completed,200,,800,TRUE,Pay Bill Online,254702118125 - ROTICH BETHWEL,,V20
PKT8D0F11I,29/11/2021 14:17,29/11/2021 14:17,Pay Bill from 254702527778 - PAULINE MUKAMI MUNYI Acc. HEH,Completed,600,,600,TRUE,Pay Utility,254702527778 - PAULINE MUKAMI MUNYI,,HEH
PKT1CSH0TZ,29/11/2021 12:00,29/11/2021 12:00,Utility Account to Organization Settlement Account,Completed,,-200,0,TRUE,Utility Account to Organization Settlement Account,846783 - ANCIENT WELLS LTD 4,,
PKT1CPPMV1,29/11/2021 11:11,29/11/2021 11:11,Pay Bill from 254722136450 - MARY EVERLYN Acc. JAI,Completed,200,,200,TRUE,Pay Utility,254722136450 - MARY EVERLYN,,JAI
PKT2CL6RPQ,29/11/2021 09:49,29/11/2021 09:49,Utility Account to Organization Settlement Account,Completed,,-9000,0,TRUE,Utility Account to Organization Settlement Account,846783 - ANCIENT WELLS LTD 4,,
PKT0CGDUO0,29/11/2021 08:12,29/11/2021 08:12,Pay Bill from 254700890378 - MERCY KIMORI Acc. JDI,Completed,1400,,9000,TRUE,Pay Utility,254700890378 - MERCY KIMORI,,JDI
PKS3BV4QUV,28/11/2021 18:40,28/11/2021 18:40,Pay Bill from 254700218502 - GRACE NGURE Acc. v46,Completed,800,,7600,TRUE,Pay Utility,254700218502 - GRACE NGURE,,v46
PKS9BG3W0R,28/11/2021 14:51,28/11/2021 14:51,Pay Bill Online from 254724211857 - OCHUODHO OUMA Acc. KBK,Completed,3000,,6800,TRUE,Pay Bill Online,254724211857 - OCHUODHO OUMA,,KBK
PKS9BETDLL,28/11/2021 14:29,28/11/2021 14:29,Pay Bill from 254702343078 - JOSEPH EBENYO Acc. V10 Josee,Completed,400,,3800,TRUE,Pay Utility,254702343078 - JOSEPH EBENYO,,V10
PKS0BA3AMO,28/11/2021 13:05,28/11/2021 13:05,Pay Bill Online from 254727725587 - IVY MACHARIA Acc. B2,Completed,400,,3400,TRUE,Pay Bill Online,254727725587 - IVY MACHARIA,,B2
PKS5ATESD1,28/11/2021 06:30,28/11/2021 06:30,FSI to Pay Bill by 714888 - B2C LOOP VIA NCBA Acc. KCF via WEB by B2C LOOP VIA NCBA\Cbainitiator,Completed,1600,,3000,TRUE,FSI to Pay Bill via API,714888 - B2C LOOP VIA NCBA,,KCF
PKR8AP7A6A,27/11/2021 22:16,27/11/2021 22:16,Pay Bill from 254721671129 - CHRISPINUS ODHIAMBO Acc. DFD,Completed,1400,,1400,TRUE,Pay Utility,254721671129 - CHRISPINUS ODHIAMBO,,DFD
PKR8AEAAM2,27/11/2021 19:30,27/11/2021 19:30,Utility Account to Organization Settlement Account,Completed,,-2150,0,TRUE,Utility Account to Organization Settlement Account,846783 - ANCIENT WELLS LTD 4,,
PKR6A6QQX0,27/11/2021 18:07,27/11/2021 18:07,Pay Bill from 254799287000 - Godfrey odhiambo oyugi Acc. kae,Completed,150,,2150,TRUE,Pay Utility,254799287000 - Godfrey odhiambo oyugi,,kae
PKR19T7GJV,27/11/2021 14:53,27/11/2021 14:53,Pay Bill from 0705569029 - phillip nyongesa wamocha Acc. DGC,Completed,2000,,2000,TRUE,Pay Utility,0705569029 - phillip nyongesa wamocha,,DGC
PKR19QGMWL,27/11/2021 14:10,27/11/2021 14:10,Utility Account to Organization Settlement Account,Completed,,-2600,0,TRUE,Utility Account to Organization Settlement Account,846783 - ANCIENT WELLS LTD 4,,
PKR59Q4DRV,27/11/2021 14:05,27/11/2021 14:05,Pay Bill Online from 254717780356 - ALFRED MAIRURA Acc. FAF,Completed,1000,,2600,TRUE,Pay Bill Online,254717780356 - ALFRED MAIRURA,,FAF
PKR19BN7OH,27/11/2021 10:02,27/11/2021 10:02,Pay Bill from 254700557767 - BAKHITA MWENDE MUANGE Acc. KCB,Completed,1000,,1600,TRUE,Pay Utility,254700557767 - BAKHITA MWENDE MUANGE,,KCB
PKR5999229,27/11/2021 09:18,27/11/2021 09:18,Pay Bill from 254704140048 - MAUREEN GACHERI KINYUA Acc. JDD,Completed,600,,600,TRUE,Pay Utility,254704140048 - MAUREEN GACHERI KINYUA,,JDD
PKR7931ETV,27/11/2021 06:37,27/11/2021 06:37,Utility Account to Organization Settlement Account,Completed,,-1600,0,TRUE,Utility Account to Organization Settlement Account,846783 - ANCIENT WELLS LTD 4,,
PKQ78VQC6J,26/11/2021 21:12,26/11/2021 21:12,Pay Bill from 254714060203 - PATRICK MWANGOMBE MSAWUCHI Acc. KEI,Completed,200,,1600,TRUE,Pay Utility,254714060203 - PATRICK MWANGOMBE MSAWUCHI,,KEI
PKQ38I1ZD3,26/11/2021 18:29,26/11/2021 18:29,Pay Bill Online from 254700379039 - MARTIN KIMANI Acc. KCI,Completed,800,,1400,TRUE,Pay Bill Online,254700379039 - MARTIN KIMANI,,KCI
PKQ98HQBOD,26/11/2021 18:26,26/11/2021 18:26,Pay Bill Online from 254717463608 - DANIEL MUNIU MUGURE Acc. HGE,Completed,600,,600,TRUE,Pay Bill Online,254717463608 - DANIEL MUNIU MUGURE,,HGE
PKQ6812L18,26/11/2021 14:22,26/11/2021 14:22,Utility Account to Organization Settlement Account,Completed,,-9000,0,TRUE,Utility Account to Organization Settlement Account,846783 - ANCIENT WELLS LTD 4,,
PKQ97W9867,26/11/2021 13:01,26/11/2021 13:01,Pay Bill from 0721130307 - HILLARY NGUNYI MUTINDA Acc. JCH,Completed,1400,,9000,TRUE,Pay Utility,0721130307 - HILLARY NGUNYI MUTINDA,,JCH
PKQ77O3YFJ,26/11/2021 10:37,26/11/2021 10:37,Pay Bill from 0724110456 - Fredrick Otieno Onege Acc. ICH,Completed,2000,,7600,TRUE,Pay Utility,0724110456 - Fredrick Otieno Onege,,ICH
PKQ77NM3XT,26/11/2021 10:28,26/11/2021 10:28,Pay Bill Online from 254705951407 - CAROLINE WAITHIRA KAMAU Acc. IDH,Completed,500,,5600,TRUE,Pay Bill Online,254705951407 - CAROLINE WAITHIRA KAMAU,,IDH
PKQ57HJZST,26/11/2021 08:32,26/11/2021 08:32,Pay Bill from 254723389177 - NELSON MOI Acc. ibf,Completed,600,,5100,TRUE,Pay Utility,254723389177 - NELSON MOI,,ibf
PKQ07CNAH6,26/11/2021 05:48,26/11/2021 05:48,Pay Bill from 0757259130 - RASHID SUDI MCHOMBO Acc. JAF,Completed,800,,4500,TRUE,Pay Utility,0757259130 - RASHID SUDI MCHOMBO,,JAF
PKP5751Q9R,25/11/2021 20:46,25/11/2021 20:46,FSI to Pay Bill by 714888 - B2C LOOP VIA NCBA Acc. DCC via WEB by B2C LOOP VIA NCBA\Cbainitiator,Completed,1000,,3700,TRUE,FSI to Pay Bill via API,714888 - B2C LOOP VIA NCBA,,DCC
PKP36SEYHT,25/11/2021 18:20,25/11/2021 18:20,Pay Bill from 254717726012 - WINFRED MUENI PETER Acc. IDA,Completed,1000,,2700,TRUE,Pay Utility with OD via STK,254717726012 - WINFRED MUENI PETER,,IDA
PKP56O1CX9,25/11/2021 17:23,25/11/2021 17:23,Pay Bill Online from 254707049818 - LUCKY TSUMA Acc. 200,Completed,200,,1700,TRUE,Pay Bill Online,254707049818 - LUCKY TSUMA,,200
PKP86GHV7G,25/11/2021 15:22,25/11/2021 15:22,Pay Bill from 254713497971 - GERISHON NDUNG'U KOMU Acc. HGH,Completed,400,,1500,TRUE,Pay Utility with OD via STK,254713497971 - GERISHON NDUNG'U KOMU,,HGH
PKP068O3TU,25/11/2021 13:05,25/11/2021 13:05,Pay Bill from 254726687555 - ELIUD MUTHURE MICHENI Acc. KAI,Completed,800,,1100,TRUE,Pay Utility,254726687555 - ELIUD MUTHURE MICHENI,,KAI
PKP461H780,25/11/2021 10:56,25/11/2021 10:56,Pay Bill from 0718838251 - MARK KINYUA MAINA Acc. kfg,Completed,300,,300,TRUE,Pay Utility,0718838251 - MARK KINYUA MAINA,,kfg
PKP15Z7TQJ,25/11/2021 10:15,25/11/2021 10:15,Utility Account to Organization Settlement Account,Completed,,-10900,0,TRUE,Utility Account to Organization Settlement Account,846783 - ANCIENT WELLS LTD 4,,
PKP85X7NZK,25/11/2021 09:38,25/11/2021 09:38,Pay Bill from 254703690697 - CATHERINE MURAGE Acc. V21,Completed,500,,10900,TRUE,Pay Utility,254703690697 - CATHERINE MURAGE,,V21
PKP05QWPWA,25/11/2021 07:23,25/11/2021 07:23,Pay Bill Online from 0758506934 - Edgar Maxwel Wanguba Acc. IFG,Completed,1000,,10400,TRUE,Pay Bill Online,0758506934 - Edgar Maxwel Wanguba,,IFG
PKP35P5TFJ,25/11/2021 06:13,25/11/2021 06:13,Pay Bill Online from 254719317219 - PHILIP MBOYA Acc. JDH,Completed,400,,9400,TRUE,Pay Utility with OD Online,254719317219 - PHILIP MBOYA,,JDH
PKP85NNWVO,25/11/2021 00:21,25/11/2021 00:21,Pay Bill Online from 254715002789 - ERICK NGUGI MAINA Acc. HAG,Completed,1200,,9000,TRUE,Pay Bill Online,254715002789 - ERICK NGUGI MAINA,,HAG
PKO25H3IUO,24/11/2021 20:48,24/11/2021 20:48,Pay Bill from 254701261592 - VICTOR MWILU Acc. V37,Completed,200,,7800,TRUE,Pay Utility,254701261592 - VICTOR MWILU,,V37
PKO855DBR2,24/11/2021 18:40,24/11/2021 18:40,Pay Bill from 254715742045 - FRIDAH KIEMA Acc. HGC ,Completed,2600,,7600,TRUE,Pay Utility with OD via STK,254715742045 - FRIDAH KIEMA,,HGC
PKO051BPMG,24/11/2021 17:52,24/11/2021 17:52,Pay Bill from 254728042989 - PATRICK OMONDI Acc. IFI,Completed,600,,5000,TRUE,Pay Utility with OD via STK,254728042989 - PATRICK OMONDI,,IFI
PKO84T6XYM,24/11/2021 15:50,24/11/2021 15:50,Pay Bill from 254713662892 - DAVID JUMA KIPTOCH Acc. JBE,Completed,600,,4400,TRUE,Pay Utility,254713662892 - DAVID JUMA KIPTOCH,,JBE
PKO24RDE7W,24/11/2021 15:18,24/11/2021 15:18,Pay Bill Online from 254701683737 - MICHAEL NGUGI Acc. HDB,Completed,600,,3800,TRUE,Pay Bill Online,254701683737 - MICHAEL NGUGI,,HDB
PKO14PJ23D,24/11/2021 14:46,24/11/2021 14:46,Pay Bill Online from 254720044312 - ELIUD KIPKURUI Acc. FCF,Completed,3000,,3200,TRUE,Pay Utility with OD Online,254720044312 - ELIUD KIPKURUI,,FCF
PKO44MCPBA,24/11/2021 13:51,24/11/2021 13:51,Pay Bill from 254723328258 - SAMUEL MAINA MURIUKI Acc. IFE,Completed,200,,200,TRUE,Pay Utility,254723328258 - SAMUEL MAINA MURIUKI,,IFE
PKO24M27VG,24/11/2021 13:47,24/11/2021 13:47,Utility Account to Organization Settlement Account,Completed,,-3000,0,TRUE,Utility Account to Organization Settlement Account,846783 - ANCIENT WELLS LTD 4,,
PKO04DP1PC,24/11/2021 11:25,24/11/2021 11:25,Pay Bill Online from 0757699775 - BENARD MUIA MUTUA Acc. HCB,Completed,1600,,3000,TRUE,Pay Utility with OD Online,0757699775 - BENARD MUIA MUTUA,,HCB
PKO24D2IFA,24/11/2021 11:14,24/11/2021 11:14,Pay Bill Online from 254704783091 - CLINTON MUSEBE KASUTI Acc. V48,Completed,400,,1400,TRUE,Pay Bill Online,254704783091 - CLINTON MUSEBE KASUTI,,V48
PKO240DK1E,24/11/2021 07:01,24/11/2021 07:01,Pay Bill Online from 254710965167 - KUSA STEPHANIE HAZEL Acc. JDC,Completed,200,,1000,TRUE,Pay Bill Online,254710965167 - KUSA STEPHANIE HAZEL,,JDC
PKO53XM665,24/11/2021 00:04,24/11/2021 00:04,Pay Bill Online from 254741433913 - DUNCAN OMONDI OKETCH Acc. IAG,Completed,800,,800,TRUE,Pay Bill Online,254741433913 - DUNCAN OMONDI OKETCH,,IAG
PKN33LI51F,23/11/2021 19:45,23/11/2021 19:45,Utility Account to Organization Settlement Account,Completed,,-2600,0,TRUE,Utility Account to Organization Settlement Account,846783 - ANCIENT WELLS LTD 4,,
PKN03K9KL2,23/11/2021 19:32,23/11/2021 19:32,Pay Bill from 254791206178 - LORINE MUGANDA Acc. FBD,Completed,600,,2600,TRUE,Pay Utility,254791206178 - LORINE MUGANDA,,FBD
PKN63EG9HM,23/11/2021 18:34,23/11/2021 18:34,Pay Bill from 254796848496 - IVY WITABA Acc. JBA,Completed,2000,,2000,TRUE,Pay Utility,254796848496 - IVY WITABA,,JBA
PKM011TRKM,22/11/2021 13:03,22/11/2021 13:03,Utility Account to Organization Settlement Account,Completed,,-10000,0,TRUE,Utility Account to Organization Settlement Account,846783 - ANCIENT WELLS LTD 4,,
PKM2ZL415Q,22/11/2021 08:04,22/11/2021 08:04,Pay Bill from 254701006375 - EZRA MAKORI SERETI Acc. HTE,Completed,600,,10000,TRUE,Pay Utility with OD via STK,254701006375 - EZRA MAKORI SERETI,,HTE
PKL1ZG983P,21/11/2021 23:49,21/11/2021 23:49,Pay Bill from 254710106394 - LUCY TONKEI Acc. KBG,Completed,200,,9400,TRUE,Pay Utility,254710106394 - LUCY TONKEI,,KBG
PKL6YEX3VQ,21/11/2021 12:35,21/11/2021 12:35,Pay Bill from 254726636196 - BETHUEL KEMBOI KURUI Acc. JFD,Completed,400,,9200,TRUE,Pay Utility,254726636196 - BETHUEL KEMBOI KURUI,,JFD
PKL4Y6L6GQ,21/11/2021 09:41,21/11/2021 09:41,Pay Bill Online from 254704682516 - Winnie Akinyi Omollo Acc. FDA,Completed,200,,8800,TRUE,Pay Bill Online,254704682516 - Winnie Akinyi Omollo,,FDA
PKL1Y6GPV9,21/11/2021 09:38,21/11/2021 09:38,Pay Bill from 0792129617 - Antony Ng'ang'a Muthaka Acc. IEC,Completed,400,,8600,TRUE,Pay Utility,0792129617 - Antony Ng'ang'a Muthaka,,IEC
PKL4Y3R2MQ,21/11/2021 08:40,21/11/2021 08:40,Pay Bill Online from 254711721087 - MUTHIANI KYULE Acc. IDB ,Completed,3000,,8200,TRUE,Pay Bill Online,254711721087 - MUTHIANI KYULE,,IDB
PKL5Y3PTSB,21/11/2021 08:39,21/11/2021 08:39,Pay Bill Online from 254729569271 - MESHACK OBOTTA OBARE Acc. V12,Completed,300,,5200,TRUE,Pay Bill Online,254729569271 - MESHACK OBOTTA OBARE,,V12
PKK3XV9RXF,20/11/2021 22:09,20/11/2021 22:09,Pay Bill from 254720230582 - SHADRACK KITAKA NGILA Acc. hse,Completed,200,,4900,TRUE,Pay Utility,254720230582 - SHADRACK KITAKA NGILA,,hse
PKK3XSMDXT,20/11/2021 21:10,20/11/2021 21:10,Pay Bill from 254726928933 - JOSHUA NDUNDA NZIOKA Acc. KCJ,Completed,2700,,4700,TRUE,Pay Utility with OD via STK,254726928933 - JOSHUA NDUNDA NZIOKA,,KCJ
PKK2XR3RNO,20/11/2021 20:44,20/11/2021 20:44,Pay Bill from 254702346515 - ELIZABETH ACHIENG NGOME Acc. KDE,Completed,200,,2000,TRUE,Pay Utility,254702346515 - ELIZABETH ACHIENG NGOME,,KDE
PKK6XO6C3S,20/11/2021 20:05,20/11/2021 20:05,Pay Bill Online from 254726001437 - FESTUS MUNYIRI MAINA Acc. IFF,Completed,400,,1800,TRUE,Pay Bill Online,254726001437 - FESTUS MUNYIRI MAINA,,IFF
PKK9XJV0TH,20/11/2021 19:14,20/11/2021 19:14,Pay Bill from 254728084427 - MARY NABWIRE OKELLO Acc. FDF,Completed,1400,,1400,TRUE,Pay Utility,254728084427 - MARY NABWIRE OKELLO,,FDF
PKK1X2ISEB,20/11/2021 15:25,20/11/2021 15:25,Utility Account to Organization Settlement Account,Completed,,-4600,0,TRUE,Utility Account to Organization Settlement Account,846783 - ANCIENT WELLS LTD 4,,
PKK2X25HZA,20/11/2021 15:19,20/11/2021 15:19,Pay Bill from 254758951969 - WILKISTER IRAKO HARAMBEE Acc. 37847739,Completed,1200,,4600,TRUE,Pay Utility,254758951969 - WILKISTER IRAKO HARAMBEE,,37847739
PKK4X0MINI,20/11/2021 14:56,20/11/2021 14:56,Pay Bill from 254706920646 - MIRIAM CHEPTOO Acc. V08,Completed,900,,3400,TRUE,Pay Utility with OD via STK,254706920646 - MIRIAM CHEPTOO,,V08
PKK1WW13ZX,20/11/2021 13:44,20/11/2021 13:44,Pay Bill from 0722925798 - ifrah abukar adan Acc. IEI,Completed,2500,,2500,TRUE,Pay Utility,0722925798 - ifrah abukar adan,,IEI
PKK3WTKGHT,20/11/2021 13:05,20/11/2021 13:05,Utility Account to Organization Settlement Account,Completed,,-11800,0,TRUE,Utility Account to Organization Settlement Account,846783 - ANCIENT WELLS LTD 4,,
PKK9WTAKGH,20/11/2021 13:01,20/11/2021 13:01,Pay Bill from 254700430569 - EDITH   GAKII Acc. FCB,Completed,1000,,11800,TRUE,Pay Utility,254700430569 - EDITH   GAKII,,FCB
PKK1WQKNEL,20/11/2021 12:17,20/11/2021 12:17,Pay Bill from 254722992162 - JAEL MWANDILOH Acc. DCB,Completed,1200,,10800,TRUE,Pay Utility,254722992162 - JAEL MWANDILOH,,DCB
PKK2WQJ2XK,20/11/2021 12:16,20/11/2021 12:16,Pay Bill from 254725111246 - FRANCIS MUUTU MWANGANGI Acc. IGI,Completed,600,,9600,TRUE,Pay Utility,254725111246 - FRANCIS MUUTU MWANGANGI,,IGI
PKK4WNT5HS,20/11/2021 11:31,20/11/2021 11:31,Pay Bill from 0768178399 - SUSY NABALAYO CHELONGO Acc. dbb,Completed,1500,,9000,TRUE,Pay Utility,0768178399 - SUSY NABALAYO CHELONGO,,dbb
PKK1WNCZRH,20/11/2021 11:24,20/11/2021 11:24,Pay Bill Online from 254714552193 - CHRISTOPHER OCHIENG Acc. JGI,Completed,2700,,7500,TRUE,Pay Bill Online,254714552193 - CHRISTOPHER OCHIENG,,JGI
PKK2WCFZPI,20/11/2021 08:09,20/11/2021 08:09,Pay Bill from 254722458136 - NADI GOLICHA Acc. KAA,Completed,800,,4800,TRUE,Pay Utility,254722458136 - NADI GOLICHA,,KAA
PKK3WAM74D,20/11/2021 07:24,20/11/2021 07:24,Pay Bill from 254700382442 - EVERLYNE MWENDE MUMO Acc. FGC,Completed,200,,4000,TRUE,Pay Utility,254700382442 - EVERLYNE MWENDE MUMO,,FGC
PKK4WA0HH8,20/11/2021 07:05,20/11/2021 07:05,Pay Bill Online from 254728093389 - MOHAMED MUSA ALASOW Acc. KED ,Completed,400,,3800,TRUE,Pay Bill Online,254728093389 - MOHAMED MUSA ALASOW,,KED
PKK3W7BXWD,20/11/2021 00:36,20/11/2021 00:36,Merchant Pay Utility Received from 7040090 - Amina Haji Salah Acc. JEH,Completed,800,,3400,TRUE,Merchant Pay Utility via API,7040090 - Amina Haji Salah,,JEH
PKJ9W6IS5P,19/11/2021 23:27,19/11/2021 23:27,Pay Bill from 254719285750 - LILIAN ACHIENG ODONGO Acc. IGE,Completed,400,,2600,TRUE,Pay Utility,254719285750 - LILIAN ACHIENG ODONGO,,IGE
PKJ6W0NCXG,19/11/2021 20:56,19/11/2021 20:56,Pay Bill from 254759390371 - RHINUS MUTWIRI KINYURU Acc. v26,Completed,400,,2200,TRUE,Pay Utility,254759390371 - RHINUS MUTWIRI KINYURU,,v26
PKJ8VY0KX0,19/11/2021 20:20,19/11/2021 20:20,Pay Bill from 254722954532 - PAMPHIL CHORONGO Acc. v60,Completed,600,,1800,TRUE,Pay Utility,254722954532 - PAMPHIL CHORONGO,,v60
PKJ0VOZE0Q,19/11/2021 18:41,19/11/2021 18:41,Pay Bill Online from 0740422187 - KEVIN MAKATO KUNGA Acc. KEG,Completed,1200,,1200,TRUE,Pay Bill Online,0740422187 - KEVIN MAKATO KUNGA,,KEG
PKJ0VLA7LU,19/11/2021 17:57,19/11/2021 17:57,Utility Account to Organization Settlement Account,Completed,,-8700,0,TRUE,Utility Account to Organization Settlement Account,846783 - ANCIENT WELLS LTD 4,,
PKJ5VKVBU7,19/11/2021 17:52,19/11/2021 17:52,Pay Bill from 254703147783 - LYDIAH NJOKI MUCHIRI Acc. Jeb,Completed,600,,8700,TRUE,Pay Utility,254703147783 - LYDIAH NJOKI MUCHIRI,,Jeb
PKJ5VKUYDR,19/11/2021 17:52,19/11/2021 17:52,Pay Bill from 254720931300 - ESTHER WANJIRU NDUNGO Acc. KGE,Completed,1200,,8100,TRUE,Pay Utility,254720931300 - ESTHER WANJIRU NDUNGO,,KGE
PKJ0VJPJSI,19/11/2021 17:37,19/11/2021 17:37,Pay Bill Online from 254705846408 - JAMES OUMA Acc. HBH,Completed,1200,,6900,TRUE,Pay Bill Online,254705846408 - JAMES OUMA,,HBH
PKJ1VIBRN1,19/11/2021 17:19,19/11/2021 17:19,Pay Bill from 254728888511 - HAMISI MIRITI Acc. KAK,Completed,200,,5700,TRUE,Pay Utility,254728888511 - HAMISI MIRITI,,KAK
PKJ4VFQPDY,19/11/2021 16:42,19/11/2021 16:42,Pay Bill from 254722648389 - SUDI MOSES Acc. V31,Completed,200,,5500,TRUE,Pay Utility,254722648389 - SUDI MOSES,,V31
PKJ4VFG2MS,19/11/2021 16:38,19/11/2021 16:38,Pay Bill Online from 254717053159 - FREDRICK NYATIKA Acc. IEF,Completed,600,,5300,TRUE,Pay Bill Online,254717053159 - FREDRICK NYATIKA,,IEF
PKJ6VFAW4O,19/11/2021 16:35,19/11/2021 16:35,Pay Bill Online from 254706427665 - CHRIS KIRIMI Acc. v22,Completed,100,,4700,TRUE,Pay Bill Online,254706427665 - CHRIS KIRIMI,,v22
PKJ8VF52RI,19/11/2021 16:33,19/11/2021 16:33,Pay Bill Online from 254706427665 - CHRIS KIRIMI Acc. V22,Completed,100,,4600,TRUE,Pay Bill Online,254706427665 - CHRIS KIRIMI,,V22
PKJ1VEUDHB,19/11/2021 16:29,19/11/2021 16:29,Pay Bill Online from 254715764212 - BANCE ISHEMINYE Acc. JFE ,Completed,500,,4500,TRUE,Pay Bill Online,254715764212 - BANCE ISHEMINYE,,JFE
PKJ2VECX7K,19/11/2021 16:21,19/11/2021 16:21,Pay Bill Online from 254723930071 - AMOS KITAVI KIVITE Acc. JCE,Completed,600,,4000,TRUE,Pay Bill Online,254723930071 - AMOS KITAVI KIVITE,,JCE
PKJ7VDLOA3,19/11/2021 16:10,19/11/2021 16:10,Pay Bill from 254728901013 - ALEX MOSE ARWASA Acc. hgd,Completed,400,,3400,TRUE,Pay Utility with OD via STK,254728901013 - ALEX MOSE ARWASA,,hgd
PKJ2VDI5NM,19/11/2021 16:08,19/11/2021 16:08,Pay Bill from 254720249209 - WILFRED NJUGUNA WANJIRA Acc. DDD,Completed,2000,,3000,TRUE,Pay Utility,254720249209 - WILFRED NJUGUNA WANJIRA,,DDD
PKJ8V9J5PE,19/11/2021 15:04,19/11/2021 15:04,Pay Bill from 254703176849 - ROYAL MUYA Acc. F2,Completed,1000,,1000,TRUE,Pay Utility with OD via STK,254703176849 - ROYAL MUYA,,F2
PKJ2UZW5FU,19/11/2021 12:27,19/11/2021 12:27,Utility Account to Organization Settlement Account,Completed,,-10600,0,TRUE,Utility Account to Organization Settlement Account,846783 - ANCIENT WELLS LTD 4,,
PKJ5UNROG5,19/11/2021 08:56,19/11/2021 08:56,Pay Bill from 254710381003 - ALFRED KISHOIN Acc. DAB,Completed,1500,,10600,TRUE,Pay Utility,254710381003 - ALFRED KISHOIN,,DAB
PKJ4ULNN5M,19/11/2021 08:15,19/11/2021 08:15,Pay Bill from 254724852503 - GEOFREY YEGO Acc. JFF,Completed,400,,9100,TRUE,Pay Utility,254724852503 - GEOFREY YEGO,,JFF
PKI0UBTHHG,18/11/2021 21:21,18/11/2021 21:21,Pay Bill from 254722569870 - LUKA KEITANY Acc. jfj,Completed,400,,8700,TRUE,Pay Utility,254722569870 - LUKA KEITANY,,jfj
PKI0U5WQZW,18/11/2021 19:56,18/11/2021 19:56,Pay Bill Online from 254720062144 - CAROLINE AMONDI OKELO Acc. f4,Completed,8300,,8300,TRUE,Pay Utility with OD Online,254720062144 - CAROLINE AMONDI OKELO,,f4
PKH8SJHB08,17/11/2021 20:20,17/11/2021 20:20,Utility Account to Organization Settlement Account,Completed,,-1000,0,TRUE,Utility Account to Organization Settlement Account,846783 - ANCIENT WELLS LTD 4,,
PKH8SCNIDE,17/11/2021 19:04,17/11/2021 19:04,Pay Bill from 254723295023 - Murugan Achudhanantham Acc. HBA,Completed,600,,1000,TRUE,Pay Utility,254723295023 - Murugan Achudhanantham,,HBA
PKH2S62VO6,17/11/2021 17:48,17/11/2021 17:48,Pay Bill from 254798643998 - Judith Mwaniki Acc. kce,Completed,400,,400,TRUE,Pay Utility with OD via STK,254798643998 - Judith Mwaniki,,kce
PKG6QIE77O,16/11/2021 17:26,16/11/2021 17:26,Utility Account to Organization Settlement Account,Completed,,-200,0,TRUE,Utility Account to Organization Settlement Account,846783 - ANCIENT WELLS LTD 4,,
PKG2Q20DSI,16/11/2021 12:36,16/11/2021 12:36,Pay Bill from 254722514052 - JOSEPH NDIRANGU Acc. JCF,Completed,200,,200,TRUE,Pay Utility,254722514052 - JOSEPH NDIRANGU,,JCF
PKF7PJIV31,15/11/2021 23:18,15/11/2021 23:18,Utility Account to Organization Settlement Account,Completed,,-4800,0,TRUE,Utility Account to Organization Settlement Account,846783 - ANCIENT WELLS LTD 4,,
PKF7PJFRAL,15/11/2021 23:12,15/11/2021 23:12,Pay Bill Online from 254720062144 - CAROLINE AMONDI OKELO Acc. f4,Completed,600,,4800,TRUE,Pay Bill Online,254720062144 - CAROLINE AMONDI OKELO,,f4
PKF0PJAO3E,15/11/2021 23:02,15/11/2021 23:02,Pay Bill from 0717042461 - Sharon Nyangasi Shivachi Acc. V55,Completed,200,,4200,TRUE,Pay Utility,0717042461 - Sharon Nyangasi Shivachi,,V55
PKF6P0CXWY,15/11/2021 18:01,15/11/2021 18:01,Pay Bill Online from 254718911865 - KENNEDY KELI KATUNGII Acc. HDF,Completed,1000,,4000,TRUE,Pay Bill Online,254718911865 - KENNEDY KELI KATUNGII,,HDF
PKF5ODRE0H,15/11/2021 11:31,15/11/2021 11:31,Pay Bill from 254727585857 - PETER MUOKI NGUNDO Acc. Peter muoki e6,Completed,700,,3000,TRUE,Pay Utility,254727585857 - PETER MUOKI NGUNDO,,Peter
PKF8OCV7U4,15/11/2021 11:14,15/11/2021 11:14,Pay Bill Online from 0794582647 - PETER POCHI MAKHACHA Acc. 1AC,Completed,1700,,2300,TRUE,Pay Bill Online,0794582647 - PETER POCHI MAKHACHA,,1AC
PKD1MB3285,13/11/2021 20:19,13/11/2021 20:19,Pay Bill from 254720278119 - LINDAH OGAWO Acc. KFE,Completed,600,,600,TRUE,Pay Utility with OD via STK,254720278119 - LINDAH OGAWO,,KFE
PKD3LDJ3FH,13/11/2021 11:57,13/11/2021 11:57,Utility Account to Organization Settlement Account,Completed,,-1400,0,TRUE,Utility Account to Organization Settlement Account,846783 - ANCIENT WELLS LTD 4,,
PKC7JZ4V5X,12/11/2021 14:32,12/11/2021 14:32,Pay Bill from 254790837715 - JULIUS MWASHUMBE MAGHANGA Acc. F5,Completed,600,,1400,TRUE,Pay Utility,254790837715 - JULIUS MWASHUMBE MAGHANGA,,F5
PKC5JS3BRR,12/11/2021 12:26,12/11/2021 12:26,Pay Bill from 254724655033 - SUSAN CHIMOTO Acc. KGH,Completed,400,,800,TRUE,Pay Utility,254724655033 - SUSAN CHIMOTO,,KGH
PKC4JS1I4O,12/11/2021 12:26,12/11/2021 12:26,Pay Bill from 254722514052 - JOSEPH NDIRANGU Acc. JCF,Completed,400,,400,TRUE,Pay Utility,254722514052 - JOSEPH NDIRANGU,,JCF
PKC6JOF170,12/11/2021 11:17,12/11/2021 11:17,Utility Account to Organization Settlement Account,Completed,,-4700,0,TRUE,Utility Account to Organization Settlement Account,846783 - ANCIENT WELLS LTD 4,,
PKB4J31344,11/11/2021 20:30,11/11/2021 20:30,Pay Bill from 254713229967 - John Mugabo Simba Acc. E4,Completed,1400,,4700,TRUE,Pay Utility,254713229967 - John Mugabo Simba,,E4
PKB8IQVVC0,11/11/2021 18:06,11/11/2021 18:06,Pay Bill from 254704111133 - ELVIS OTIENO Acc. HFD,Completed,500,,3300,TRUE,Pay Utility,254704111133 - ELVIS OTIENO,,HFD
PKB6I7S96I,11/11/2021 12:38,11/11/2021 12:38,Pay Bill from 254702044732 - GUYATU OLLO GALGALO Acc. DGD,Completed,2400,,2800,TRUE,Pay Utility,254702044732 - GUYATU OLLO GALGALO,,DGD
PKB9I5EYZX,11/11/2021 11:53,11/11/2021 11:53,Pay Bill from 254720056285 - DAMARIS NDURU Acc. V09,Completed,400,,400,TRUE,Pay Utility,254720056285 - DAMARIS NDURU,,V09
PKB8HV1YH8,11/11/2021 08:27,11/11/2021 08:27,Utility Account to Organization Settlement Account,Completed,,-10600,0,TRUE,Utility Account to Organization Settlement Account,846783 - ANCIENT WELLS LTD 4,,
PKA2HOJ2T6,10/11/2021 22:55,10/11/2021 22:55,Pay Bill from 254704111133 - ELVIS OTIENO Acc. HFD,Completed,700,,10600,TRUE,Pay Utility,254704111133 - ELVIS OTIENO,,HFD
PKA4HOC7GI,10/11/2021 22:46,10/11/2021 22:46,Pay Bill from 254791318982 - ADULLAHI HASSAN Acc. JCI,Completed,1800,,9900,TRUE,Pay Utility,254791318982 - ADULLAHI HASSAN,,JCI
PKA3HKDFUX,10/11/2021 21:03,10/11/2021 21:03,Pay Bill from 254708499439 - ROSE NDEDE Acc. HGF,Completed,500,,8100,TRUE,Pay Utility with OD via STK,254708499439 - ROSE NDEDE,,HGF
PKA3HEV295,10/11/2021 19:45,10/11/2021 19:45,Pay Bill from 254706158280 - patience mutheu mbevi Acc. KFC,Completed,400,,7600,TRUE,Pay Utility,254706158280 - patience mutheu mbevi,,KFC
PKA3HBYGH3,10/11/2021 19:12,10/11/2021 19:12,Pay Bill from 254798674917 - Egbe Okpaga Okpaga Acc. HAD,Completed,400,,7200,TRUE,Pay Utility,254798674917 - Egbe Okpaga Okpaga,,HAD
PKA1H8J59X,10/11/2021 18:35,10/11/2021 18:35,Pay Bill from 254718242028 - PAULINA NYAMWITHIA Acc. KCA,Completed,1200,,6800,TRUE,Pay Utility,254718242028 - PAULINA NYAMWITHIA,,KCA
PKA8H1BHVG,10/11/2021 16:56,10/11/2021 16:56,Pay Bill Online from 0793999724 - JALEEL    MWERO Acc. A2,Completed,1000,,5600,TRUE,Pay Bill Online,0793999724 - JALEEL    MWERO,,A2
PKA1GV1DCN,10/11/2021 15:04,10/11/2021 15:04,Pay Bill from 0758591833 - DORCUS MBULA PETER Acc. HDD,Completed,1000,,4600,TRUE,Pay Utility with OD via STK,0758591833 - DORCUS MBULA PETER,,HDD
PKA2GNQJTO,10/11/2021 12:51,10/11/2021 12:51,Pay Bill from 0792933158 - mary wamaitha maina Acc. kdh,Completed,400,,3600,TRUE,Pay Utility,0792933158 - mary wamaitha maina,,kdh
PKA0GCAON0,10/11/2021 09:09,10/11/2021 09:09,Pay Bill from 254726432241 - STEPHEN MAYABI Acc. A1,Completed,600,,3200,TRUE,Pay Utility with OD via STK,254726432241 - STEPHEN MAYABI,,A1
PK98FYG6UW,09/11/2021 20:43,09/11/2021 20:43,Pay Bill from 254720107609 - DENNIS OGENDI BARAKE Acc. JAJ,Completed,800,,2600,TRUE,Pay Utility,254720107609 - DENNIS OGENDI BARAKE,,JAJ
PK94FJF4PG,09/11/2021 17:45,09/11/2021 17:45,Pay Bill from 254713205244 - ROBERT OGALO Acc. KBH,Completed,400,,1800,TRUE,Pay Utility,254713205244 - ROBERT OGALO,,KBH
PK94FBKYPY,09/11/2021 15:38,09/11/2021 15:38,Pay Bill from 254721539716 - OCTAVIAN MWANYALO Acc. C6,Completed,400,,1400,TRUE,Pay Utility,254721539716 - OCTAVIAN MWANYALO,,C6
PK93F7HWLV,09/11/2021 14:22,09/11/2021 14:22,Pay Bill Online from 254722769473 - SAMSON CHALO Acc. IAB,Completed,1000,,1000,TRUE,Pay Utility with OD Online,254722769473 - SAMSON CHALO,,IAB
PK92EXMCTC,09/11/2021 11:20,09/11/2021 11:20,Utility Account to Organization Settlement Account,Completed,,-8300,0,TRUE,Utility Account to Organization Settlement Account,846783 - ANCIENT WELLS LTD 4,,
PK82E8CLB6,08/11/2021 19:42,08/11/2021 19:42,Pay Bill from 254717140158 - Peter Wanjiru Acc. HFB,Completed,1800,,8300,TRUE,Pay Utility,254717140158 - Peter Wanjiru,,HFB
PK86E1VYFG,08/11/2021 18:36,08/11/2021 18:36,Pay Bill from 0795068880 - Patrick   Kiplagat Acc. Kag,Completed,1000,,6500,TRUE,Pay Utility,0795068880 - Patrick   Kiplagat,,Kag
PK84DWSTLQ,08/11/2021 17:31,08/11/2021 17:31,Pay Bill from 0702590087 - edel njoki kimani Acc. F3,Completed,1000,,5500,TRUE,Pay Utility,0702590087 - edel njoki kimani,,F3
PK84DTLX6C,08/11/2021 16:43,08/11/2021 16:43,Pay Bill Online from 254718359438 - AHMAD TAHIR MACHENGO Acc. V11,Completed,400,,4500,TRUE,Pay Bill Online,254718359438 - AHMAD TAHIR MACHENGO,,V11
PK80DRY574,08/11/2021 16:15,08/11/2021 16:15,Pay Bill from 254717577871 - KELVIN MUTUMA KINYUA Acc. B1,Completed,400,,4100,TRUE,Pay Utility,254717577871 - KELVIN MUTUMA KINYUA,,B1
PK85DRN0TX,08/11/2021 16:10,08/11/2021 16:10,Pay Bill Online from 254713966424 - NDUTI MUTHUI Acc. jed,Completed,600,,3700,TRUE,Pay Bill Online,254713966424 - NDUTI MUTHUI,,jed
PK88DQ3B3C,08/11/2021 15:43,08/11/2021 15:43,Pay Bill from 254701196539 - GICHURI KARANJA Acc. Fee,Completed,400,,3100,TRUE,Pay Utility,254701196539 - GICHURI KARANJA,,Fee
PK80DJYCS4,08/11/2021 13:52,08/11/2021 13:52,Pay Bill Online from 254706549634 - CLINTON OMBASA Acc. FDB,Completed,600,,2700,TRUE,Pay Bill Online,254706549634 - CLINTON OMBASA,,FDB
PK84DENJ82,08/11/2021 12:18,08/11/2021 12:18,Pay Bill from 254724466518 - EUNICE NDUTA Acc. kff,Completed,600,,2100,TRUE,Pay Utility,254724466518 - EUNICE NDUTA,,kff
PK89DCVRGP,08/11/2021 11:46,08/11/2021 11:46,Pay Bill from 254729713741 - ALBANUS MUTISO Acc. DDC,Completed,1500,,1500,TRUE,Pay Utility,254729713741 - ALBANUS MUTISO,,DDC
PK89D6WNJL,08/11/2021 09:56,08/11/2021 09:56,Utility Account to Organization Settlement Account,Completed,,-13800,0,TRUE,Utility Account to Organization Settlement Account,846783 - ANCIENT WELLS LTD 4,,
PK85D0NAFJ,08/11/2021 07:45,08/11/2021 07:45,Pay Bill from 254724882554 - ALPHONCE WAMBUA NGELI Acc. JDA,Completed,1600,,13800,TRUE,Pay Utility,254724882554 - ALPHONCE WAMBUA NGELI,,JDA
PK87CZ0343,08/11/2021 06:57,08/11/2021 06:57,Pay Bill from 254701379512 - veronicah minoo mwanza Acc. C3,Completed,9000,,12200,TRUE,Pay Utility,254701379512 - veronicah minoo mwanza,,C3
PK71CVLEY9,07/11/2021 22:50,07/11/2021 22:50,Pay Bill from 254790627132 - Everline Mutave Kiio Acc. IGG,Completed,200,,3200,TRUE,Pay Utility,254790627132 - Everline Mutave Kiio,,IGG
PK73BMC99P,07/11/2021 09:32,07/11/2021 09:32,Pay Bill Online from 254797160610 - JAMES MWANIKI Acc. JBI,Completed,2600,,3000,TRUE,Pay Bill Online,254797160610 - JAMES MWANIKI,,JBI
PK61B9TBJH,06/11/2021 21:25,06/11/2021 21:25,Pay Bill from 254718233980 - KAREN ASWANI Acc. HEC,Completed,400,,400,TRUE,Pay Utility,254718233980 - KAREN ASWANI,,HEC
PK66AGSS54,06/11/2021 14:59,06/11/2021 14:59,Utility Account to Organization Settlement Account,Completed,,-61190,0,TRUE,Utility Account to Organization Settlement Account,846783 - ANCIENT WELLS LTD 4,,
PK66AB1TW8,06/11/2021 13:30,06/11/2021 13:30,Pay Bill from 254703108159 - JOICE OGOLLA Acc. V50,Completed,400,,61190,TRUE,Pay Utility,254703108159 - JOICE OGOLLA,,V50
PK61A75QOJ,06/11/2021 12:28,06/11/2021 12:28,Pay Bill from 254740657547 - WINNIE KERE Acc. JBF,Completed,500,,60790,TRUE,Pay Utility,254740657547 - WINNIE KERE,,JBF
PK62A6KO4S,06/11/2021 12:19,06/11/2021 12:19,Pay Bill from 254716702294 - DANIEL MULATI Acc. KBE,Completed,400,,60290,TRUE,Pay Utility,254716702294 - DANIEL MULATI,,KBE
PK69A3AO1L,06/11/2021 11:25,06/11/2021 11:25,Pay Bill from 254726465584 - JULIANA MUKELI MUTUNGA Acc. v4,Completed,600,,59890,TRUE,Pay Utility,254726465584 - JULIANA MUKELI MUTUNGA,,v4
PK63A2PQEL,06/11/2021 11:15,06/11/2021 11:15,Pay Bill from 254723643548 - KEVIN OUKO Acc. FDD,Completed,1000,,59290,TRUE,Pay Utility,254723643548 - KEVIN OUKO,,FDD
PK69A1VVN3,06/11/2021 11:01,06/11/2021 11:01,Pay Bill from 0711769778 - PROTASIA BONIPHACE MANOSA Acc. IBB,Completed,1400,,58290,TRUE,Pay Utility,0711769778 - PROTASIA BONIPHACE MANOSA,,IBB
PK699VBXNR,06/11/2021 09:05,06/11/2021 09:05,Pay Bill from 254729358258 - Cliff Ombasa Acc. V05,Completed,1600,,56890,TRUE,Pay Utility,254729358258 - Cliff Ombasa,,V05
PK699O30XF,06/11/2021 03:11,06/11/2021 03:11,Pay Bill Online from 254704995854 - james karanja wairimu Acc. V54,Completed,100,,55290,TRUE,Pay Bill Online,254704995854 - james karanja wairimu,,V54
PK689O2FXK,06/11/2021 03:08,06/11/2021 03:08,Pay Bill Online from 254704995854 - james karanja wairimu Acc. V54,Completed,100,,55190,TRUE,Pay Bill Online,254704995854 - james karanja wairimu,,V54
PK589LJ1SA,05/11/2021 22:39,05/11/2021 22:39,Pay Bill from 254723538366 - VERONICAH SHIYENJI Acc. V40,Completed,400,,55090,TRUE,Pay Utility,254723538366 - VERONICAH SHIYENJI,,V40
PK509K2JFU,05/11/2021 21:57,05/11/2021 21:57,Pay Bill from 254718672924 - LILIAN CHEBET NGENO Acc. KGD,Completed,100,,54690,TRUE,Pay Utility,254718672924 - LILIAN CHEBET NGENO,,KGD
PK569K1SQM,05/11/2021 21:56,05/11/2021 21:56,Pay Bill from 254718672924 - LILIAN CHEBET NGENO Acc. KGD,Completed,90,,54590,TRUE,Pay Utility,254718672924 - LILIAN CHEBET NGENO,,KGD
PK519JZWVZ,05/11/2021 21:55,05/11/2021 21:55,Pay Bill from 254718672924 - LILIAN CHEBET NGENO Acc. KGD,Completed,100,,54500,TRUE,Pay Utility,254718672924 - LILIAN CHEBET NGENO,,KGD
PK509J219A,05/11/2021 21:35,05/11/2021 21:35,Pay Bill from 254721302658 - JACOB BIRUNDU Acc. DDB,Completed,400,,54400,TRUE,Pay Utility,254721302658 - JACOB BIRUNDU,,DDB
PK539I6G4F,05/11/2021 21:18,05/11/2021 21:18,Pay Bill from 254729948896 - CAROLINE V MILIZA Acc. Fec,Completed,400,,54000,TRUE,Pay Utility,254729948896 - CAROLINE V MILIZA,,Fec
PK599A90JR,05/11/2021 19:32,05/11/2021 19:32,Pay Bill Online from 254714563486 - BRIAN MMATA MUSERA Acc. KBJ,Completed,400,,53600,TRUE,Pay Bill Online,254714563486 - BRIAN MMATA MUSERA,,KBJ
PK5899HU0I,05/11/2021 19:24,05/11/2021 19:24,Pay Bill from 0115054975 - faith syovata joseph Acc. IBC,Completed,600,,53200,TRUE,Pay Utility,0115054975 - faith syovata joseph,,IBC
PK5297ZA0Q,05/11/2021 19:09,05/11/2021 19:09,Pay Bill from 254722578070 - SAMUEL MACHARIA Acc. v42,Completed,600,,52600,TRUE,Pay Utility,254722578070 - SAMUEL MACHARIA,,v42
PK5094A9X0,05/11/2021 18:32,05/11/2021 18:32,Business Pay Bill by 488519 - NCBA  Bank M-pesa Acc. JCD via API,Completed,400,,52000,TRUE,Business Pay Bill via API,488519 - NCBA  Bank M-pesa,,JCD
PK558QP2SB,05/11/2021 15:21,05/11/2021 15:21,Pay Bill from 254798524621 - MERCY CHESANG Acc. jcj,Completed,2200,,51600,TRUE,Pay Utility,254798524621 - MERCY CHESANG,,jcj
PK518NHO8L,05/11/2021 14:27,05/11/2021 14:27,Pay Bill Online from 254708703539 - SUSAN NDUGIRE NDUGIRE Acc. kda,Completed,200,,49400,TRUE,Pay Bill Online,254708703539 - SUSAN NDUGIRE NDUGIRE,,kda
PK528K54AK,05/11/2021 13:31,05/11/2021 13:31,Pay Bill Online from 254711562428 - Lionel Mutune Muoka Acc. KDI,Completed,600,,49200,TRUE,Pay Bill Online,254711562428 - Lionel Mutune Muoka,,KDI
PK5786RAOR,05/11/2021 09:31,05/11/2021 09:31,Pay Bill from 0704120519 - Mildred   Adhiambo Acc. G1,Completed,400,,48600,TRUE,Pay Utility,0704120519 - Mildred   Adhiambo,,G1
PK5581F2G3,05/11/2021 07:38,05/11/2021 07:38,Pay Bill from 254723815832 - SEMEKIA ONDIALA Acc. v38,Completed,600,,48200,TRUE,Pay Utility,254723815832 - SEMEKIA ONDIALA,,v38
PK477X3WTX,04/11/2021 23:35,04/11/2021 23:35,Pay Bill from 254703935626 - DAVID NGARI ITA Acc. FCD,Completed,200,,47600,TRUE,Pay Utility,254703935626 - DAVID NGARI ITA,,FCD
PK497TFNWX,04/11/2021 21:29,04/11/2021 21:29,Pay Bill Online from 254713404029 - ANNE ISEUNA Acc. DED,Completed,2600,,47400,TRUE,Pay Bill Online,254713404029 - ANNE ISEUNA,,DED
PK497TA47R,04/11/2021 21:26,04/11/2021 21:26,Pay Bill Online from 254711877988 - PATRICK KONZI Acc. b4,Completed,1200,,44800,TRUE,Pay Bill Online,254711877988 - PATRICK KONZI,,b4
PK497MVAI1,04/11/2021 19:53,04/11/2021 19:53,Pay Bill from 254716702294 - DANIEL MULATI Acc. KBE,Completed,1000,,43600,TRUE,Pay Utility,254716702294 - DANIEL MULATI,,KBE
PK457MIR8X,04/11/2021 19:49,04/11/2021 19:49,Pay Bill from 254729355933 - FELISTAH NJERI WAIRIMU Acc. IDI,Completed,1500,,42600,TRUE,Pay Utility,254729355933 - FELISTAH NJERI WAIRIMU,,IDI
PK407CZWOU,04/11/2021 18:08,04/11/2021 18:08,Pay Bill Online from 254710202776 - KELVIN KARIMI MACHARIA Acc. FAD,Completed,400,,41100,TRUE,Pay Bill Online,254710202776 - KELVIN KARIMI MACHARIA,,FAD
PK4778WOGZ,04/11/2021 17:14,04/11/2021 17:14,Pay Bill from 254702152790 - Michelle Ndunge Kyalo Acc. IDE,Completed,200,,40700,TRUE,Pay Utility,254702152790 - Michelle Ndunge Kyalo,,IDE
PK43733ZUP,04/11/2021 15:42,04/11/2021 15:42,Pay Bill Online from 254710814215 - JOAN NYAMBURA KAMAU Acc. ifb,Completed,800,,40500,TRUE,Pay Bill Online,254710814215 - JOAN NYAMBURA KAMAU,,ifb
PK4672NG1M,04/11/2021 15:34,04/11/2021 15:34,Pay Bill Online from 0745378455 - harriet nyanchama nyaberi Acc. FCC,Completed,600,,39700,TRUE,Pay Bill Online,0745378455 - harriet nyanchama nyaberi,,FCC
PK466ZLY0A,04/11/2021 14:40,04/11/2021 14:40,Pay Bill from 0712917575 - Derrick Osore Songoro Acc. V58,Completed,600,,39100,TRUE,Pay Utility,0712917575 - Derrick Osore Songoro,,V58
PK486SZAE0,04/11/2021 12:45,04/11/2021 12:45,Pay Bill from 254713501053 - SUDI MOSES Acc. V31,Completed,400,,38500,TRUE,Pay Utility,254713501053 - SUDI MOSES,,V31
PK416R8XDT,04/11/2021 12:14,04/11/2021 12:14,Pay Bill from 254717465142 - EPHANTUS IRURA Acc. c4 muriithi,Completed,400,,38100,TRUE,Pay Utility,254717465142 - EPHANTUS IRURA,,c4
PK436NOSMZ,04/11/2021 11:09,04/11/2021 11:09,Pay Bill from 254714814264 - PATRICIA NZOMO Acc. Hcc,Completed,500,,37700,TRUE,Pay Utility,254714814264 - PATRICIA NZOMO,,Hcc
PK406N23HE,04/11/2021 10:58,04/11/2021 10:58,Pay Bill Online from 254708225541 - JUDITH NKATHA SIMBA Acc. HDH,Completed,700,,37200,TRUE,Pay Bill Online,254708225541 - JUDITH NKATHA SIMBA,,HDH
PK456KYDSJ,04/11/2021 10:20,04/11/2021 10:20,Pay Bill Online from 0724386624 - FATUMA ISSE YUSSUF Acc. FAB,Completed,1000,,36500,TRUE,Pay Utility with OD Online,0724386624 - FATUMA ISSE YUSSUF,,FAB
PK486IQ9YU,04/11/2021 09:38,04/11/2021 09:38,Pay Bill from 254719398942 - NORAH WAYUA MUNYAO Acc. KDC,Completed,1000,,35500,TRUE,Pay Utility,254719398942 - NORAH WAYUA MUNYAO,,KDC
PK406HPZYS,04/11/2021 09:18,04/11/2021 09:18,Pay Bill Online from 254702118125 - ROTICH BETHWEL Acc. V20,Completed,100,,34500,TRUE,Pay Bill Online,254702118125 - ROTICH BETHWEL,,V20
PK456D5SL7,04/11/2021 07:40,04/11/2021 07:40,Pay Bill from 254723929380 - RHODAH K WAMBUA Acc. HEF,Completed,1000,,34400,TRUE,Pay Utility,254723929380 - RHODAH K WAMBUA,,HEF
PK3662VE3A,03/11/2021 20:49,03/11/2021 20:49,Pay Bill from 254708570729 - MARY OGOLLA Acc. KAD,Completed,600,,33400,TRUE,Pay Utility,254708570729 - MARY OGOLLA,,KAD
PK3460DY8S,03/11/2021 20:14,03/11/2021 20:14,Pay Bill Online from 254722921132 - JOE MCCRAY MURIUKI KIHIA Acc. IFA,Completed,600,,32800,TRUE,Pay Utility with OD Online,254722921132 - JOE MCCRAY MURIUKI KIHIA,,IFA
PK315XHSXZ,03/11/2021 19:40,03/11/2021 19:40,Pay Bill Online from 254706354035 - MOSES MUOKA Acc. V03,Completed,400,,32200,TRUE,Pay Bill Online,254706354035 - MOSES MUOKA,,V03
PK355WASWX,03/11/2021 19:27,03/11/2021 19:27,Pay Bill from 254728670882 - SHARAD EDWARD ADALA OLUM Acc. KCK,Completed,600,,31800,TRUE,Pay Utility,254728670882 - SHARAD EDWARD ADALA OLUM,,KCK
PK395I5PSD,03/11/2021 16:38,03/11/2021 16:38,Pay Bill from 254712091662 - BENARD OMONDI ROBY Acc. V16,Completed,800,,31200,TRUE,Pay Utility,254712091662 - BENARD OMONDI ROBY,,V16
PK325GZ9AM,03/11/2021 16:20,03/11/2021 16:20,Pay Bill from 254723499628 - CLINTON JOSEPH MUHARI Acc. hfh,Completed,800,,30400,TRUE,Pay Utility with OD via STK,254723499628 - CLINTON JOSEPH MUHARI,,hfh
PK335FU73X,03/11/2021 16:01,03/11/2021 16:01,Pay Bill Online from 254718138578 - PAULINE KIOKO Acc. KFD,Completed,400,,29600,TRUE,Pay Bill Online,254718138578 - PAULINE KIOKO,,KFD
PK325DDGNW,03/11/2021 15:18,03/11/2021 15:18,Pay Bill Online from 254715892656 - DENNIS MUSYOKA MUOKI Acc. KFA,Completed,400,,29200,TRUE,Pay Bill Online,254715892656 - DENNIS MUSYOKA MUOKI,,KFA
PK3152ALNP,03/11/2021 12:06,03/11/2021 12:06,Pay Bill from 254701047939 - Cyrus Wahome Acc. JAH,Completed,1400,,28800,TRUE,Pay Utility,254701047939 - Cyrus Wahome,,JAH
PK3050DJMQ,03/11/2021 11:31,03/11/2021 11:31,Pay Bill from 254714710840 - RACHAEL WANJIRU NJOROGE Acc. ITE,Completed,400,,27400,TRUE,Pay Utility,254714710840 - RACHAEL WANJIRU NJOROGE,,ITE
PK314XGNL9,03/11/2021 10:38,03/11/2021 10:38,Pay Bill from 254706859500 - JULIA NJAMBI WAINAINA Acc. U4,Completed,1950,,27000,TRUE,Pay Utility,254706859500 - JULIA NJAMBI WAINAINA,,U4
PK354SGGY7,03/11/2021 09:04,03/11/2021 09:04,Pay Bill Online from 254714597495 - WAMBUA KIOKO Acc. C1,Completed,800,,25050,TRUE,Pay Bill Online,254714597495 - WAMBUA KIOKO,,C1
PK364S9R80,03/11/2021 09:00,03/11/2021 09:00,Pay Bill from 254726172957 - VINCENT OLIENG' Acc. HBC,Completed,600,,24250,TRUE,Pay Utility,254726172957 - VINCENT OLIENG',,HBC
PK234IFA3D,02/11/2021 22:11,02/11/2021 22:11,Pay Bill from 254796292434 - ANTONINA HAYA Acc. HED,Completed,2000,,23650,TRUE,Pay Utility,254796292434 - ANTONINA HAYA,,HED
PK204HOMLW,02/11/2021 21:51,02/11/2021 21:51,Pay Bill from 254720351482 - Cheruiyot Langat Brian Acc. dfa,Completed,1000,,21650,TRUE,Pay Utility with OD via STK,254720351482 - Cheruiyot Langat Brian,,dfa
PK254GZXXJ,02/11/2021 21:36,02/11/2021 21:36,Pay Bill Online from 254717780356 - ALFRED MAIRURA Acc. FAF,Completed,1500,,20650,TRUE,Pay Utility with OD Online,254717780356 - ALFRED MAIRURA,,FAF
PK224FD500,02/11/2021 21:04,02/11/2021 21:04,Pay Bill Online from 254720451253 - JIMMY KIOGORA NKIROTE Acc. kbd,Completed,250,,19150,TRUE,Pay Bill Online,254720451253 - JIMMY KIOGORA NKIROTE,,kbd
PK294B1TT5,02/11/2021 20:04,02/11/2021 20:04,Pay Bill from 254704934557 - BAKARI KITSAKA Acc. JAD,Completed,800,,18900,TRUE,Pay Utility,254704934557 - BAKARI KITSAKA,,JAD
PK2547RFWZ,02/11/2021 19:27,02/11/2021 19:27,Pay Bill from 0757721640 - PURITY KANYUA NJERU Acc. hdg,Completed,400,,18100,TRUE,Pay Utility,0757721640 - PURITY KANYUA NJERU,,hdg
PK2044YYJK,02/11/2021 18:59,02/11/2021 18:59,Pay Bill from 254713701237 - Michael Wanjala Acc. G2,Completed,400,,17700,TRUE,Pay Utility,254713701237 - Michael Wanjala,,G2
PK203WE024,02/11/2021 17:19,02/11/2021 17:19,Pay Bill from 254718417450 - HARON ASUMA OROKO Acc. haron v47 ,Completed,200,,17300,TRUE,Pay Utility,254718417450 - HARON ASUMA OROKO,,haron
PK233TNABR,02/11/2021 16:39,02/11/2021 16:39,Pay Bill from 0797758628 - jackline nyamari onyango Acc. ICF,Completed,600,,17100,TRUE,Pay Utility,0797758628 - jackline nyamari onyango,,ICF
PK243MXCYA,02/11/2021 14:46,02/11/2021 14:46,Pay Bill from 0722925798 - ifrah abukar adan Acc. IEI,Completed,300,,16500,TRUE,Pay Utility,0722925798 - ifrah abukar adan,,IEI
PK293KFZUB,02/11/2021 14:03,02/11/2021 14:03,Pay Bill Online from 254700187806 - WINNIE OLIVIA AKOTH Acc. JEC,Completed,600,,16200,TRUE,Pay Bill Online,254700187806 - WINNIE OLIVIA AKOTH,,JEC
PK273D0EQB,02/11/2021 11:54,02/11/2021 11:54,Pay Bill from 254724952183 - MICHAEL WAMBUA MWOVE Acc. FEA,Completed,1000,,15600,TRUE,Pay Utility,254724952183 - MICHAEL WAMBUA MWOVE,,FEA
PK223B3QZO,02/11/2021 11:20,02/11/2021 11:20,Pay Bill from 254740579741 - MUHINDI MULINYA Acc. HGG,Completed,2000,,14600,TRUE,Pay Utility,254740579741 - MUHINDI MULINYA,,HGG
PK2739AUV9,02/11/2021 10:47,02/11/2021 10:47,Pay Bill from 254712974871 - PAULA WANJIKU GATUI Acc. hea,Completed,600,,12600,TRUE,Pay Utility,254712974871 - PAULA WANJIKU GATUI,,hea
PK2831U2ZM,02/11/2021 08:23,02/11/2021 08:23,Business Pay Bill by 488519 - NCBA  Bank M-pesa Acc. V18 via API,Completed,400,,12000,TRUE,Business Pay Bill via API,488519 - NCBA  Bank M-pesa,,V18
PK2331TC8F,02/11/2021 08:23,02/11/2021 08:23,Pay Bill from 254797601911 - JORAM MASAI KILONZO Acc. KTE,Completed,600,,11600,TRUE,Pay Utility,254797601911 - JORAM MASAI KILONZO,,KTE
PK2331OXHF,02/11/2021 08:20,02/11/2021 08:20,Pay Bill from 254722444622 - CHARITY KAGWAINI Acc. ffd,Completed,100,,11000,TRUE,Pay Utility,254722444622 - CHARITY KAGWAINI,,ffd
PK282WI1B4,02/11/2021 01:51,02/11/2021 01:51,Pay Bill from 254726337163 - HALIMA ALI HASSAN Acc. DDA,Completed,600,,10900,TRUE,Pay Utility,254726337163 - HALIMA ALI HASSAN,,DDA
PK152VUI45,01/11/2021 23:44,01/11/2021 23:44,Pay Bill from 254718818610 - HANNAH NALIAKA Acc. V23,Completed,400,,10300,TRUE,Pay Utility,254718818610 - HANNAH NALIAKA,,V23
PK102VG9XE,01/11/2021 23:11,01/11/2021 23:11,Pay Bill from 254725771056 - CHARLES MURAGURI Acc. FCE,Completed,800,,9900,TRUE,Pay Utility,254725771056 - CHARLES MURAGURI,,FCE
PK162VD57I,01/11/2021 23:06,01/11/2021 23:06,Pay Bill Online from 254742911013 - HANEST AMIMO Acc. IEG,Completed,400,,9100,TRUE,Pay Bill Online,254742911013 - HANEST AMIMO,,IEG
PK132VBCUR,01/11/2021 23:03,01/11/2021 23:03,Pay Bill Online from 254722258756 - DAVID KEMBOI Acc. HDA,Completed,600,,8700,TRUE,Pay Bill Online,254722258756 - DAVID KEMBOI,,HDA
PK132RIYG1,01/11/2021 21:14,01/11/2021 21:14,Pay Bill Online from 254707226192 - NICHOLUS MAINGI MWANTHI Acc. HBF,Completed,600,,8100,TRUE,Pay Bill Online,254707226192 - NICHOLUS MAINGI MWANTHI,,HBF
PK152RE71T,01/11/2021 21:12,01/11/2021 21:12,Pay Bill from 0715030019 - Omwenga Ong'era Stephen Acc. E1,Completed,600,,7500,TRUE,Pay Utility,0715030019 - Omwenga Ong'era Stephen,,E1
PK112R9I9L,01/11/2021 21:09,01/11/2021 21:09,Pay Bill from 254741791919 - Linet Mongina Maraga Acc. u3,Completed,1500,,6900,TRUE,Pay Utility,254741791919 - Linet Mongina Maraga,,u3
PK152R3XTB,01/11/2021 21:07,01/11/2021 21:07,Pay Bill from 254799946039 - LUIS OTIENO Acc. IAE,Completed,1000,,5400,TRUE,Pay Utility,254799946039 - LUIS OTIENO,,IAE
PK152NZ0DH,01/11/2021 20:19,01/11/2021 20:19,Pay Bill Online from 254714250131 - NELSON ODHONG OMBUYA Acc. DCC,Completed,1000,,4400,TRUE,Pay Bill Online,254714250131 - NELSON ODHONG OMBUYA,,DCC
PK152JE6YF,01/11/2021 19:25,01/11/2021 19:25,Pay Bill from 254710239100 - PHILOMENA WOKI MUTHAMA Acc. KDK,Completed,600,,3400,TRUE,Pay Utility,254710239100 - PHILOMENA WOKI MUTHAMA,,KDK
PK102GW6ZY,01/11/2021 19:00,01/11/2021 19:00,Pay Bill from 254728664261 - LEVIN INGATI NYONJE Acc. B5,Completed,200,,2800,TRUE,Pay Utility,254728664261 - LEVIN INGATI NYONJE,,B5
PK122FOK60,01/11/2021 18:48,01/11/2021 18:48,Pay Bill from 0717216114 - Felix Njeru Mugambi Acc. Kdf,Completed,600,,2600,TRUE,Pay Utility,0717216114 - Felix Njeru Mugambi,,Kdf
PK1628MVNU,01/11/2021 17:23,01/11/2021 17:23,Pay Bill Online from 254714855708 - KIPLANGAT SITIENEI Acc. FAE,Completed,1000,,2000,TRUE,Pay Bill Online,254714855708 - KIPLANGAT SITIENEI,,FAE
PK1528DSTZ,01/11/2021 17:20,01/11/2021 17:20,Pay Bill Online from 254724005780 - IVY MARGARET OGOLA Acc. FFB,Completed,600,,1000,TRUE,Pay Bill Online,254724005780 - IVY MARGARET OGOLA,,FFB
PK1128CMDT,01/11/2021 17:19,01/11/2021 17:19,Pay Bill Online from 254715144865 - CAROL JULIET MUGOYA Acc. E2,Completed,400,,400,TRUE,Pay Bill Online,254715144865 - CAROL JULIET MUGOYA,,E2
PK1422T3YY,01/11/2021 15:52,01/11/2021 15:52,Utility Account to Organization Settlement Account,Completed,,-13750,0,TRUE,Utility Account to Organization Settlement Account,846783 - ANCIENT WELLS LTD 4,,
PK1322ESAR,01/11/2021 15:46,01/11/2021 15:46,Pay Bill from 254704833344 - LOISE KIMANI Acc. jfa,Completed,1000,,13750,TRUE,Pay Utility,254704833344 - LOISE KIMANI,,jfa
PK14211EVA,01/11/2021 15:22,01/11/2021 15:22,Pay Bill Online from 254704033042 - LESLIE KOIKAI Acc. IBD,Completed,900,,12750,TRUE,Pay Utility with OD Online,254704033042 - LESLIE KOIKAI,,IBD
PK151XGAMN,01/11/2021 14:19,01/11/2021 14:19,Pay Bill from 254726753273 - JESSE K MURIRMI NJERU Acc. HCH ,Completed,800,,11850,TRUE,Pay Utility,254726753273 - JESSE K MURIRMI NJERU,,HCH
PK171VTXB7,01/11/2021 13:51,01/11/2021 13:51,Pay Bill from 254724953672 - MERCY MBETI Acc. JCA,Completed,2400,,11050,TRUE,Pay Utility,254724953672 - MERCY MBETI,,JCA
PK161QW82C,01/11/2021 12:26,01/11/2021 12:26,Pay Bill from 254720375006 - JACOB KANGOGO Acc. IBA,Completed,600,,8650,TRUE,Pay Utility,254720375006 - JACOB KANGOGO,,IBA
PK191M5G73,01/11/2021 11:01,01/11/2021 11:01,Pay Bill from 254712614146 - SOPHIE MUENI MUVITHU Acc. Sophie Mueni-U6 ,Completed,450,,8050,TRUE,Pay Utility,254712614146 - SOPHIE MUENI MUVITHU,,Sophie
PK101LWRU4,01/11/2021 10:56,01/11/2021 10:56,Pay Bill from 254729796719 - JACINTA WANJIKU NJERI Acc. FFF,Completed,400,,7600,TRUE,Pay Utility,254729796719 - JACINTA WANJIKU NJERI,,FFF
PK191KMZPV,01/11/2021 10:33,01/11/2021 10:33,Pay Bill Online from 254795510441 - LEWIS MUEMA Acc. KEB,Completed,400,,7200,TRUE,Pay Bill Online,254795510441 - LEWIS MUEMA,,KEB
PK131HBK81,01/11/2021 09:32,01/11/2021 09:32,Pay Bill from 0759217545 - Angela Syombua Lole Acc. HDE,Completed,1000,,6800,TRUE,Pay Utility,0759217545 - Angela Syombua Lole,,HDE
PK111BBLK7,01/11/2021 07:23,01/11/2021 07:23,Pay Bill Online from 254726593769 - BONFACE BWINA Acc. DEB,Completed,700,,5800,TRUE,Pay Bill Online,254726593769 - BONFACE BWINA,,DEB
PK191A6E7B,01/11/2021 06:48,01/11/2021 06:48,Pay Bill from 254743329119 - Bevaline Khayi Wekesa Acc. DGC,Completed,2500,,5100,TRUE,Pay Utility with OD via STK,254743329119 - Bevaline Khayi Wekesa,,DGC
PK111A6EHX,01/11/2021 06:48,01/11/2021 06:48,Pay Bill Online from 254717809935 - LYDIAH WERU Acc. idc,Completed,600,,2600,TRUE,Pay Bill Online,254717809935 - LYDIAH WERU,,idc
PK1419WN54,01/11/2021 06:37,01/11/2021 06:37,Pay Bill from 254718284151 - EVERLINE MATHEKA Acc. JAG,Completed,400,,2000,TRUE,Pay Utility,254718284151 - EVERLINE MATHEKA,,JAG
