Receipt No.,Completion Time,Initiation Time,Details,Transaction Status,Paid In,Withdrawn,Balance,Balance Confirmed,Reason Type,Other Party Info,Linked Transaction ID,A/C No.
PC36A56B6S,03/03/2021 17:01,03/03/2021 17:01,Pay Bill Online from 254711562428 - Lionel Mutune Muoka Acc. KDI,Completed,11000,,102000,TRUE,Pay Bill Online,254711562428 - Lionel Mutune Muoka,,KDI
PC38A2DR0G,03/03/2021 16:04,03/03/2021 16:04,Pay Bill from 254701112397 - ELEMA GODANA DIBA Acc. IAD,Completed,10000,,91000,TRUE,Pay Utility,254701112397 - ELEMA GODANA DIBA,,IAD
PC30A28TJM,03/03/2021 16:01,03/03/2021 16:01,Pay Bill from 254720351482 - Cheruiyot Langat Brian Acc. dfa,Completed,15000,,81000,TRUE,Pay Utility,254720351482 - Cheruiyot Langat Brian,,dfa
PC37A1BLRR,03/03/2021 15:41,03/03/2021 15:41,Pay Bill from 254728681775 - Faith Abigael Acc. IAF,Completed,7000,,66000,TRUE,Pay Utility,254728681775 - Faith Abigael,,IAF
PC369ZZ4NA,03/03/2021 15:11,03/03/2021 15:11,Pay Bill from 254795023150 - FAITH MORAA SITEMBA Acc. IFC,Completed,8000,,59000,TRUE,Pay Utility,254795023150 - FAITH MORAA SITEMBA,,IFC
PC329X1R20,03/03/2021 14:06,03/03/2021 14:06,Pay Bill from 254714060203 - PATRICK MWANGOMBE MSAWUCHI Acc. KEI,Completed,12000,,51000,TRUE,Pay Utility,254714060203 - PATRICK MWANGOMBE MSAWUCHI,,KEI
PC359WK2D9,03/03/2021 13:55,03/03/2021 13:55,Pay Bill from 254719398942 - NORAH WAYUA MUNYAO Acc. KDC,Completed,10000,,39000,TRUE,Pay Utility,254719398942 - NORAH WAYUA MUNYAO,,KDC
PC339UFQSP,03/03/2021 13:10,03/03/2021 13:10,Pay Bill from 254748903322 - MARILYN MKAWUGHANGA KIRIGHO Acc. ICD,Completed,19000,,29000,TRUE,Pay Utility,254748903322 - MARILYN MKAWUGHANGA KIRIGHO,,ICD
PC359SIKWN,03/03/2021 12:28,03/03/2021 12:28,Pay Bill from 254713140050 - DIANA MBEJA Acc. KAE,Completed,10000,,10000,TRUE,Pay Utility,254713140050 - DIANA MBEJA,,KAE
PC369S60TY,03/03/2021 12:20,03/03/2021 12:20,Utility Account to Organization Settlement Account,Completed,,-216200,0,TRUE,Utility Account to Organization Settlement Account,979524 - ANCIENT WELLS PROPERTY MANAGERS 2,,
PC389RKSCW,03/03/2021 12:07,03/03/2021 12:07,Pay Bill from 0703236529 - MARGARET WANJIRU WANJOHI Acc. IAE,Completed,8000,,216200,TRUE,Pay Utility,0703236529 - MARGARET WANJIRU WANJOHI,,IAE
PC379QZ4DZ,03/03/2021 11:54,03/03/2021 11:54,Pay Bill from 0758826849 -  Norah Awala Anyango Acc. JEA,Completed,20000,,208200,TRUE,Pay Utility,0758826849 -  Norah Awala Anyango,,JEA
PC329PTADQ,03/03/2021 11:28,03/03/2021 11:28,Pay Bill from 254727648419 - ABDISALAN AHMED Acc. Jbh,Completed,3000,,188200,TRUE,Pay Utility,254727648419 - ABDISALAN AHMED,,Jbh
PC339PPDKB,03/03/2021 11:26,03/03/2021 11:26,Pay Bill from 254703147783 - LYDIAH NJOKI MUCHIRI Acc. Hge,Completed,500,,185200,TRUE,Pay Utility,254703147783 - LYDIAH NJOKI MUCHIRI,,Hge
PC359POAQV,03/03/2021 11:25,03/03/2021 11:25,Pay Bill from 254703147783 - LYDIAH NJOKI MUCHIRI Acc. Hge,Completed,9000,,184700,TRUE,Pay Utility,254703147783 - LYDIAH NJOKI MUCHIRI,,Hge
PC329OT87A,03/03/2021 11:06,03/03/2021 11:06,Pay Bill from 0722950695 - Joshua Mbithi Kivondo Acc. Dca,Completed,34000,,175700,TRUE,Pay Utility,0722950695 - Joshua Mbithi Kivondo,,Dca
PC379NUHI5,03/03/2021 10:44,03/03/2021 10:44,Pay Bill from 254722136450 - MARY EVERLYN Acc. JAI,Completed,20000,,141700,TRUE,Pay Utility,254722136450 - MARY EVERLYN,,JAI
PC349MXJRE,03/03/2021 10:24,03/03/2021 10:24,Pay Bill from 254728854349 - JOSEPH MUSYOKA Acc. IBG,Completed,8000,,121700,TRUE,Pay Utility,254728854349 - JOSEPH MUSYOKA,,IBG
PC309IHEX4,03/03/2021 08:36,03/03/2021 08:36,Pay Bill from 254719499823 - MOSES MWANZIA MUTHIANI Acc. Jcc,Completed,3200,,113700,TRUE,Pay Utility,254719499823 - MOSES MWANZIA MUTHIANI,,Jcc
PC259AO5Q1,02/03/2021 21:30,02/03/2021 21:30,Pay Bill from 254708619274 - BONIFACE MUTUA Acc. JFB,Completed,14000,,110500,TRUE,Pay Utility,254708619274 - BONIFACE MUTUA,,JFB
PC2497BZUW,02/03/2021 20:26,02/03/2021 20:26,Pay Bill from 254719285750 - LILIAN ACHIENG ODONGO Acc. IGE,Completed,9000,,96500,TRUE,Pay Utility,254719285750 - LILIAN ACHIENG ODONGO,,IGE
PC2897503E,02/03/2021 20:23,02/03/2021 20:23,Pay Bill Online from 254726001437 - FESTUS MUNYIRI MAINA Acc. IFF,Completed,10000,,87500,TRUE,Pay Bill Online,254726001437 - FESTUS MUNYIRI MAINA,,IFF
PC2493M4G0,02/03/2021 19:34,02/03/2021 19:34,Pay Bill Online from 254711724272 - EDMOND ONYANGO OKEWE Acc. FCB,Completed,16000,,77500,TRUE,Pay Bill Online,254711724272 - EDMOND ONYANGO OKEWE,,FCB
PC2091T286,02/03/2021 19:11,02/03/2021 19:11,Pay Bill Online from 254724211857 - OCHUODHO OUMA Acc. KBK,Completed,17000,,61500,TRUE,Pay Bill Online,254724211857 - OCHUODHO OUMA,,KBK
PC21910DQH,02/03/2021 19:01,02/03/2021 19:01,Pay Bill from 254704833344 - LOISE KIMANI Acc. jfa,Completed,20000,,44500,TRUE,Pay Utility,254704833344 - LOISE KIMANI,,jfa
PC298SWCN1,02/03/2021 16:43,02/03/2021 16:43,Pay Bill from 254742911013 - HANEST AMIMO Acc. IEG,Completed,8000,,24500,TRUE,Pay Utility,254742911013 - HANEST AMIMO,,IEG
PC218Q8M0H,02/03/2021 15:46,02/03/2021 15:46,Pay Bill from 254722787600 - NGUGI FRANCIS Acc. DP8,Completed,16500,,16500,TRUE,Pay Utility,254722787600 - NGUGI FRANCIS,,DP8
PC258PZIK9,02/03/2021 15:40,02/03/2021 15:40,Utility Account to Organization Settlement Account,Completed,,-128500,0,TRUE,Utility Account to Organization Settlement Account,979524 - ANCIENT WELLS PROPERTY MANAGERS 2,,
PC258PLB5Z,02/03/2021 15:32,02/03/2021 15:32,Pay Bill Online from 254725385966 - JOSEPH MUYA MARUA Acc. KEE,Completed,10000,,128500,TRUE,Pay Bill Online,254725385966 - JOSEPH MUYA MARUA,,KEE
PC288OYBQU,02/03/2021 15:17,02/03/2021 15:17,Pay Bill from 254715742045 - FRIDAH KIEMA Acc. HGC,Completed,9500,,118500,TRUE,Pay Utility with OD via STK,254715742045 - FRIDAH KIEMA,,HGC
PC218OU6N5,02/03/2021 15:14,02/03/2021 15:14,Pay Bill from 254791318982 - ADULLAHI HASSAN Acc. jci,Completed,20000,,109000,TRUE,Pay Utility,254791318982 - ADULLAHI HASSAN,,jci
PC298I3PO1,02/03/2021 12:44,02/03/2021 12:44,Pay Bill from 254720931300 - ESTHER WANJIRU NDUNGO Acc. KGE,Completed,9000,,89000,TRUE,Pay Utility,254720931300 - ESTHER WANJIRU NDUNGO,,KGE
PC248HO9AG,02/03/2021 12:34,02/03/2021 12:34,Pay Bill from 254717726012 - WINFRED MUENI PETER Acc. IDA,Completed,16000,,80000,TRUE,Pay Utility,254717726012 - WINFRED MUENI PETER,,IDA
PC238BOLCR,02/03/2021 10:17,02/03/2021 10:17,Pay Bill from 254714814264 - PATRICIA NZOMO Acc. Hcc,Completed,10000,,64000,TRUE,Pay Utility,254714814264 - PATRICIA NZOMO,,Hcc
PC248BLWRU,02/03/2021 10:15,02/03/2021 10:15,Pay Bill from 254702355678 - JOHN NJOROGE GICHERU Acc. ITE ,Completed,10000,,54000,TRUE,Pay Utility,254702355678 - JOHN NJOROGE GICHERU,,ITE
PC2889AL9Q,02/03/2021 09:21,02/03/2021 09:21,Pay Bill from 254714855708 - KIPLANGAT SITIENEI Acc. FAE,Completed,16000,,44000,TRUE,Pay Utility,254714855708 - KIPLANGAT SITIENEI,,FAE
PC21838DUT,02/03/2021 02:32,02/03/2021 02:32,Pay Bill from 254703935626 - DAVID NGARI ITA Acc. FCD,Completed,1000,,28000,TRUE,Pay Utility,254703935626 - DAVID NGARI ITA,,FCD
PC1582BJ05,01/03/2021 23:11,01/03/2021 23:11,Pay Bill from 254726380203 - SHARON OLENDO Acc. HCA,Completed,27000,,27000,TRUE,Pay Utility,254726380203 - SHARON OLENDO,,HCA
PC18812G6A,01/03/2021 22:06,01/03/2021 22:06,Utility Account to Organization Settlement Account,Completed,,-133000,0,TRUE,Utility Account to Organization Settlement Account,979524 - ANCIENT WELLS PROPERTY MANAGERS 2,,
PC12807250,01/03/2021 21:40,01/03/2021 21:40,Pay Bill from 254702152790 - Michelle Ndunge Kyalo Acc. IDE,Completed,8000,,133000,TRUE,Pay Utility,254702152790 - Michelle Ndunge Kyalo,,IDE
PC12805X1K,01/03/2021 21:39,01/03/2021 21:39,Pay Bill Online from 254718299426 - AMOS NGURE MWANGI Acc. HEE,Completed,10500,,125000,TRUE,Pay Bill Online,254718299426 - AMOS NGURE MWANGI,,HEE
PC177YTVFV,01/03/2021 21:08,01/03/2021 21:08,Pay Bill from 254707226192 - NICHOLUS MAINGI MWANTHI Acc. HBF,Completed,9000,,114500,TRUE,Pay Utility,254707226192 - NICHOLUS MAINGI MWANTHI,,HBF
PC137VNMEB,01/03/2021 20:13,01/03/2021 20:13,Pay Bill from 254700374335 - HYLINE ONDARI Acc. KTE,Completed,9500,,105500,TRUE,Pay Utility,254700374335 - HYLINE ONDARI,,KTE
PC117VJ23J,01/03/2021 20:11,01/03/2021 20:11,Pay Bill from 254728670882 - SHARAD EDWARD ADALA OLUM Acc. KCK,Completed,15000,,96000,TRUE,Pay Utility,254728670882 - SHARAD EDWARD ADALA OLUM,,KCK
PC117VCVN7,01/03/2021 20:09,01/03/2021 20:09,Pay Bill Online from 254795510441 - LEWIS MUEMA Acc. KEB,Completed,16000,,81000,TRUE,Pay Bill Online,254795510441 - LEWIS MUEMA,,KEB
PC187U17H6,01/03/2021 19:50,01/03/2021 19:50,Pay Bill from 254726753273 - JESSE K MURIRMI NJERU Acc. HCH,Completed,17000,,65000,TRUE,Pay Utility,254726753273 - JESSE K MURIRMI NJERU,,HCH
PC127OCDF6,01/03/2021 18:34,01/03/2021 18:34,Pay Bill from 254720375006 - JACOB KANGOGO Acc. IBA,Completed,15000,,48000,TRUE,Pay Utility,254720375006 - JACOB KANGOGO,,IBA
PC107NP01E,01/03/2021 18:24,01/03/2021 18:24,Pay Bill from 254722521028 - CHARLES MONYONCHO Acc. ICB,Completed,17000,,33000,TRUE,Pay Utility,254722521028 - CHARLES MONYONCHO,,ICB
PC127JI8K0,01/03/2021 17:11,01/03/2021 17:11,Pay Bill from 254721302658 - JACOB BIRUNDU Acc. DDB,Completed,16000,,16000,TRUE,Pay Utility,254721302658 - JACOB BIRUNDU,,DDB
PC157J0P4Z,01/03/2021 17:02,01/03/2021 17:02,Utility Account to Organization Settlement Account,Completed,,-148500,0,TRUE,Utility Account to Organization Settlement Account,979524 - ANCIENT WELLS PROPERTY MANAGERS 2,,
PC177IM0WN,01/03/2021 16:54,01/03/2021 16:54,Pay Bill from 254705902606 - JOSEPH OTIENO SAGWA Acc. FED,Completed,14000,,148500,TRUE,Pay Utility,254705902606 - JOSEPH OTIENO SAGWA,,FED
PC1676ZMXS,01/03/2021 12:39,01/03/2021 12:39,Pay Bill from 254721852723 - HASSAN ABDINOOR MOHAMED Acc. jja,Completed,8000,,134500,TRUE,Pay Utility,254721852723 - HASSAN ABDINOOR MOHAMED,,jja
PC12756K3G,01/03/2021 11:58,01/03/2021 11:58,Pay Bill from 0722389924 - ISSA ISACK GOLLO Acc. DCC For March 2021 ,Completed,20000,,126500,TRUE,Pay Utility,0722389924 - ISSA ISACK GOLLO,,DCC
PC1472X3EK,01/03/2021 11:07,01/03/2021 11:07,Pay Bill from 254719210828 - BELLAH ATIENO OUMA Acc. DAB,Completed,33000,,106500,TRUE,Pay Utility with OD via STK,254719210828 - BELLAH ATIENO OUMA,,DAB
PC1372AE23,01/03/2021 10:53,01/03/2021 10:53,Pay Bill from 254729371750 - DERRICK OTANGA Acc. FEF,Completed,17000,,73500,TRUE,Pay Utility,254729371750 - DERRICK OTANGA,,FEF
PC177158HJ,01/03/2021 10:28,01/03/2021 10:28,Pay Bill from 254708786932 - ZUBEDAH MOHAMMED Acc. IAG,Completed,9500,,56500,TRUE,Pay Utility,254708786932 - ZUBEDAH MOHAMMED,,IAG
PC106YJ0SS,01/03/2021 09:27,01/03/2021 09:27,Pay Bill from 254724953672 - MERCY MBETI Acc. JCA,Completed,20000,,47000,TRUE,Pay Utility,254724953672 - MERCY MBETI,,JCA
PC106TGHEI,01/03/2021 06:48,01/03/2021 06:48,Pay Bill from 254724005780 - IVY MARGARET OGOLA Acc. FFB,Completed,15000,,27000,TRUE,Pay Utility,254724005780 - IVY MARGARET OGOLA,,FFB
PC176SDRVR,01/03/2021 04:05,01/03/2021 04:05,Pay Bill from 254703935626 - DAVID NGARI ITA Acc. FCD,Completed,1000,,12000,TRUE,Pay Utility,254703935626 - DAVID NGARI ITA,,FCD
PC146RTLJ2,01/03/2021 01:27,01/03/2021 01:27,Pay Bill from 254728364280 - EMMANUEL THUMA OYIER Acc. IDF,Completed,11000,,11000,TRUE,Pay Utility,254728364280 - EMMANUEL THUMA OYIER,,IDF
PBS16QOUV9,28/02/2021 22:50,28/02/2021 22:50,Utility Account to Organization Settlement Account,Completed,,-124500,0,TRUE,Utility Account to Organization Settlement Account,979524 - ANCIENT WELLS PROPERTY MANAGERS 2,,
PBS06QIB86,28/02/2021 22:39,28/02/2021 22:39,Pay Bill from 254711706815 - NAOMI WANYONYI Acc. KBA,Completed,16000,,124500,TRUE,Pay Utility,254711706815 - NAOMI WANYONYI,,KBA
PBS86OW998,28/02/2021 21:41,28/02/2021 21:41,Pay Bill from 254707370896 - OKECH BRIAN BRIAN Acc. FFA,Completed,15000,,108500,TRUE,Pay Utility,254707370896 - OKECH BRIAN BRIAN,,FFA
PBS36M0YBP,28/02/2021 20:34,28/02/2021 20:34,Pay Bill from 254700557767 - BAKHITA MWENDE MUANGE Acc. KCB ,Completed,16000,,93500,TRUE,Pay Utility,254700557767 - BAKHITA MWENDE MUANGE,,KCB
PBS36KWVYP,28/02/2021 20:14,28/02/2021 20:14,Pay Bill from 254704140048 - MAUREEN GACHERI KINYUA Acc. JDD,Completed,15000,,77500,TRUE,Pay Utility,254704140048 - MAUREEN GACHERI KINYUA,,JDD
PBS76JEA6R,28/02/2021 19:49,28/02/2021 19:49,Pay Bill from 0740507437 - JOY KAARI KAMENCU Acc. FAC,Completed,9000,,62500,TRUE,Pay Utility,0740507437 - JOY KAARI KAMENCU,,FAC
PBS16GNVUZ,28/02/2021 19:10,28/02/2021 19:10,Pay Bill from 254701683737 - MICHAEL NGUGI Acc. HDB,Completed,16000,,53500,TRUE,Pay Utility,254701683737 - MICHAEL NGUGI,,HDB
PBS06GHCP4,28/02/2021 19:07,28/02/2021 19:07,Pay Bill from 254718233980 - KAREN ASWANI Acc. HEC,Completed,10500,,37500,TRUE,Pay Utility,254718233980 - KAREN ASWANI,,HEC
PBS96GDJ2N,28/02/2021 19:05,28/02/2021 19:05,Pay Bill Online from 254705951407 - CAROLINE WAITHIRA KAMAU Acc. IDH,Completed,16000,,27000,TRUE,Pay Utility with OD Online,254705951407 - CAROLINE WAITHIRA KAMAU,,IDH
PBS768S1SL,28/02/2021 16:44,28/02/2021 16:44,Pay Bill from 254722600685 - STANLEY AFONDO SIALI Acc. KDG,Completed,3000,,11000,TRUE,Pay Utility,254722600685 - STANLEY AFONDO SIALI,,KDG
PBS666JTW4,28/02/2021 15:57,28/02/2021 15:57,Pay Bill from 254700788416 - MERCY KASILI Acc. IFE,Completed,8000,,8000,TRUE,Pay Utility,254700788416 - MERCY KASILI,,IFE
PBS665UCQW,28/02/2021 15:41,28/02/2021 15:41,Utility Account to Organization Settlement Account,Completed,,-238000,0,TRUE,Utility Account to Organization Settlement Account,979524 - ANCIENT WELLS PROPERTY MANAGERS 2,,
PBS8618ND2,28/02/2021 14:01,28/02/2021 14:01,Pay Bill from 254729796719 - JACINTA WANJIKU NJERI Acc. FFF,Completed,17000,,238000,TRUE,Pay Utility,254729796719 - JACINTA WANJIKU NJERI,,FFF
PBS46117U4,28/02/2021 13:57,28/02/2021 13:57,Pay Bill from 254726593769 - BONFACE BWINA Acc. DEB,Completed,16000,,221000,TRUE,Pay Utility,254726593769 - BONFACE BWINA,,DEB
PBS85WHRES,28/02/2021 12:06,28/02/2021 12:06,Pay Bill Online from 254712370657 - MARVIN NYANGAU Acc. KAJ,Completed,16000,,205000,TRUE,Pay Bill Online,254712370657 - MARVIN NYANGAU,,KAJ
PBS85VFU20,28/02/2021 11:39,28/02/2021 11:39,Pay Bill from 254728103722 - YASSIR MWINYI ABDULRAZAQ Acc. ICE,Completed,5000,,189000,TRUE,Pay Utility,254728103722 - YASSIR MWINYI ABDULRAZAQ,,ICE
PBS45URIMM,28/02/2021 11:21,28/02/2021 11:21,Pay Bill from 254714037688 - MALCOLM FORUM ODUOR JUMA Acc. JAD,Completed,16000,,184000,TRUE,Pay Utility,254714037688 - MALCOLM FORUM ODUOR JUMA,,JAD
PBS05UI1LK,28/02/2021 11:14,28/02/2021 11:14,Pay Bill from 0758506934 - Edgar Maxwel Wanguba Acc. IFG,Completed,8000,,168000,TRUE,Pay Utility,0758506934 - Edgar Maxwel Wanguba,,IFG
PBS35U6C3H,28/02/2021 11:06,28/02/2021 11:06,Pay Bill from 254703528196 - ERIC GITONGA MUGO Acc. KGJ,Completed,15000,,160000,TRUE,Pay Utility,254703528196 - ERIC GITONGA MUGO,,KGJ
PBS95NA5C9,28/02/2021 07:57,28/02/2021 07:57,Pay Bill from 0792933158 - mary wamaitha maina Acc. kdh,Completed,10000,,145000,TRUE,Pay Utility,0792933158 - mary wamaitha maina,,kdh
PBS15N66E7,28/02/2021 07:53,28/02/2021 07:53,Pay Bill from 254716784364 - Wendy Kemunto Nyandiko Acc. FFC,Completed,9000,,135000,TRUE,Pay Utility,254716784364 - Wendy Kemunto Nyandiko,,FFC
PBS05L50N6,28/02/2021 03:30,28/02/2021 03:30,Pay Bill from 254703935626 - DAVID NGARI ITA Acc. FCD,Completed,1000,,126000,TRUE,Pay Utility with OD via STK,254703935626 - DAVID NGARI ITA,,FCD
PBR959DS77,27/02/2021 19:27,27/02/2021 19:27,Pay Bill Online from 254715400042 - BETHUEL WACHITE Acc. HFG,Completed,15000,,125000,TRUE,Pay Bill Online,254715400042 - BETHUEL WACHITE,,HFG
PBR256PQLO,27/02/2021 18:50,27/02/2021 18:50,Pay Bill from 254726729220 - MOSAGWE PETER ONGWAE Acc. FAF,Completed,23000,,110000,TRUE,Pay Utility,254726729220 - MOSAGWE PETER ONGWAE,,FAF
PBR64X7JGW,27/02/2021 15:58,27/02/2021 15:58,Pay Bill from 254700833330 - RITAH NTHAMBI MUTHAMA Acc. kab,Completed,16000,,87000,TRUE,Pay Utility,254700833330 - RITAH NTHAMBI MUTHAMA,,kab
PBR84POCOO,27/02/2021 13:22,27/02/2021 13:22,Pay Bill from 254715728688 - NAOMI HAGERERA JACOB Acc. DGC,Completed,20000,,71000,TRUE,Pay Utility with OD via STK,254715728688 - NAOMI HAGERERA JACOB,,DGC
PBR44P5OMO,27/02/2021 13:11,27/02/2021 13:11,Pay Bill from 0797095478 - TABITHA AKINYI OCHIENG Acc. HGD,Completed,9000,,51000,TRUE,Pay Utility,0797095478 - TABITHA AKINYI OCHIENG,,HGD
PBR64LX7E2,27/02/2021 12:01,27/02/2021 12:01,Pay Bill Online from 254726082666 - DRUSSILA MUTHEU MUTUNGA Acc. KAH,Completed,400,,42000,TRUE,Pay Bill Online,254726082666 - DRUSSILA MUTHEU MUTUNGA,,KAH
PBR64GCL80,27/02/2021 09:57,27/02/2021 09:57,Pay Bill from 254722910078 - MAUREEN MUNYIVA MUTUKU Acc. DBD,Completed,1600,,41600,TRUE,Pay Utility,254722910078 - MAUREEN MUNYIVA MUTUKU,,DBD
PBR64FQUTW,27/02/2021 09:43,27/02/2021 09:43,Pay Bill from 254722965785 - HENRY THOMAS ONDERI Acc. JCB,Completed,30000,,40000,TRUE,Pay Utility with OD via STK,254722965785 - HENRY THOMAS ONDERI,,JCB
PBR94DIWBB,27/02/2021 08:49,27/02/2021 08:49,Pay Bill from 0717216114 - Felix Njeru Mugambi Acc. kdf,Completed,10000,,10000,TRUE,Pay Utility,0717216114 - Felix Njeru Mugambi,,kdf
PBR14D00IL,27/02/2021 08:35,27/02/2021 08:35,Utility Account to Organization Settlement Account,Completed,,-67000,0,TRUE,Utility Account to Organization Settlement Account,979524 - ANCIENT WELLS PROPERTY MANAGERS 2,,
PBQ33ZM2EH,26/02/2021 19:50,26/02/2021 19:50,Pay Bill from 254703555717 - SENGA SALIM Acc. hbb,Completed,1000,,67000,TRUE,Pay Utility,254703555717 - SENGA SALIM,,hbb
PBQ63VM1M2,26/02/2021 18:56,26/02/2021 18:56,Pay Bill from 254704481218 - Asenath Kivunga Mwakio Acc. kdg,Completed,18000,,66000,TRUE,Pay Utility,254704481218 - Asenath Kivunga Mwakio,,kdg
PBQ53PLBSH,26/02/2021 17:13,26/02/2021 17:13,Pay Bill from 254716315144 - PETER MUNYIRI WAROTERE Acc. FBB,Completed,33000,,48000,TRUE,Pay Utility,254716315144 - PETER MUNYIRI WAROTERE,,FBB
PBQ13PBS7R,26/02/2021 17:07,26/02/2021 17:07,Pay Bill from 0722925798 - ifrah abukar adan Acc. IEI,Completed,15000,,15000,TRUE,Pay Utility,0722925798 - ifrah abukar adan,,IEI
PBQ33OMS79,26/02/2021 16:54,26/02/2021 16:54,Utility Account to Organization Settlement Account,Completed,,-117700,0,TRUE,Utility Account to Organization Settlement Account,979524 - ANCIENT WELLS PROPERTY MANAGERS 2,,
PBQ43NB28C,26/02/2021 16:26,26/02/2021 16:26,Pay Bill from 254716045947 - LILIAN OLOO Acc. fbd,Completed,11200,,117700,TRUE,Pay Utility,254716045947 - LILIAN OLOO,,fbd
PBQ53KXJU5,26/02/2021 15:34,26/02/2021 15:34,Pay Bill from 254725111246 - FRANCIS MUUTU MWANGANGI Acc. IGI,Completed,15000,,106500,TRUE,Pay Utility,254725111246 - FRANCIS MUUTU MWANGANGI,,IGI
PBQ63IZ9NI,26/02/2021 14:49,26/02/2021 14:49,Pay Bill from 0748059595 - Rashid NASSIR Khamis Acc. DDA,Completed,4000,,91500,TRUE,Pay Utility,0748059595 - Rashid NASSIR Khamis,,DDA
PBQ13I2MER,26/02/2021 14:28,26/02/2021 14:28,Pay Bill Online from 254757840728 - SETH OMONDI ODONDI Acc. DFD ,Completed,20000,,87500,TRUE,Pay Bill Online,254757840728 - SETH OMONDI ODONDI,,DFD
PBQ23FBIVY,26/02/2021 13:26,26/02/2021 13:26,Pay Bill from 254703180395 - JANE NYAGUTHII MWAGO Acc. IBE,Completed,8000,,67500,TRUE,Pay Utility,254703180395 - JANE NYAGUTHII MWAGO,,IBE
PBQ23BI7YO,26/02/2021 11:57,26/02/2021 11:57,Pay Bill from 254724367519 - BELLAMY ANG'ONG'A GUFWOLI Acc. KAI,Completed,12000,,59500,TRUE,Pay Utility,254724367519 - BELLAMY ANG'ONG'A GUFWOLI,,KAI
PBQ63AUU6W,26/02/2021 11:41,26/02/2021 11:41,Pay Bill from 254724559756 - DUNCAN OMONDI OGOLA Acc. HBE,Completed,10000,,47500,TRUE,Pay Utility,254724559756 - DUNCAN OMONDI OGOLA,,HBE
PBQ63A5152,26/02/2021 11:24,26/02/2021 11:24,Pay Bill from 254700890378 - MERCY KIMORI Acc. FAA,Completed,16000,,37500,TRUE,Pay Utility,254700890378 - MERCY KIMORI,,FAA
PBQ737649D,26/02/2021 10:15,26/02/2021 10:15,Pay Bill from 254703935626 - DAVID NGARI ITA Acc. FCD,Completed,1000,,21500,TRUE,Pay Utility with OD via STK,254703935626 - DAVID NGARI ITA,,FCD
PBQ73763UN,26/02/2021 10:15,26/02/2021 10:15,Pay Bill from 254724882554 - ALPHONCE WAMBUA NGELI Acc. JDA,Completed,20000,,20500,TRUE,Pay Utility,254724882554 - ALPHONCE WAMBUA NGELI,,JDA
PBQ92Z94BX,26/02/2021 01:43,26/02/2021 01:43,Pay Bill from 254714138456 - HEZEK ATIANI ATIANI Acc. HEH,Completed,500,,500,TRUE,Pay Utility with OD via STK,254714138456 - HEZEK ATIANI ATIANI,,HEH
PBP12OO3B7,25/02/2021 19:33,25/02/2021 19:33,Utility Account to Organization Settlement Account,Completed,,-51080,0,TRUE,Utility Account to Organization Settlement Account,979524 - ANCIENT WELLS PROPERTY MANAGERS 2,,
PBP92JNTUV,25/02/2021 18:22,25/02/2021 18:22,Pay Bill from 254728313347 - GEORGE KIMAIGA NYAMORI Acc. ici,Completed,16000,,51080,TRUE,Pay Utility,254728313347 - GEORGE KIMAIGA NYAMORI,,ici
PBP32FB6S1,25/02/2021 17:05,25/02/2021 17:05,Pay Bill from 0721130307 - HILLARY NGUNYI MUTINDA Acc. KBC,Completed,16080,,35080,TRUE,Pay Utility,0721130307 - HILLARY NGUNYI MUTINDA,,KBC
PBP42ERGVY,25/02/2021 16:54,25/02/2021 16:54,Pay Bill Online from 254722258756 - DAVID KEMBOI Acc. HDA,Completed,18000,,19000,TRUE,Pay Bill Online,254722258756 - DAVID KEMBOI,,HDA
PBP62ELKZ4,25/02/2021 16:51,25/02/2021 16:51,Pay Bill from 254703935626 - DAVID NGARI ITA Acc. FCD,Completed,1000,,1000,TRUE,Pay Utility,254703935626 - DAVID NGARI ITA,,FCD
PBP220KMUI,25/02/2021 11:20,25/02/2021 11:20,Utility Account to Organization Settlement Account,Completed,,-44500,0,TRUE,Utility Account to Organization Settlement Account,979524 - ANCIENT WELLS PROPERTY MANAGERS 2,,
PBP61YOETE,25/02/2021 10:34,25/02/2021 10:34,Pay Bill from 254728888511 - HAMISI MIRITI Acc. KAK,Completed,16000,,44500,TRUE,Pay Utility,254728888511 - HAMISI MIRITI,,KAK
PBO31PLGCX,24/02/2021 23:52,24/02/2021 23:52,Pay Bill from 254703375006 - KEN RODGERS Acc. DBA,Completed,2000,,28500,TRUE,Pay Utility,254703375006 - KEN RODGERS,,DBA
PBO31NAITR,24/02/2021 21:37,24/02/2021 21:37,Pay Bill Online from 254720451253 - JIMMY KIOGORA NKIROTE Acc. KBD,Completed,2000,,26500,TRUE,Pay Utility with OD Online,254720451253 - JIMMY KIOGORA NKIROTE,,KBD
PBO81JLJLC,24/02/2021 20:19,24/02/2021 20:19,Pay Bill from 254721417560 - ANDREW SANDE Acc. JBJ,Completed,16000,,24500,TRUE,Pay Utility,254721417560 - ANDREW SANDE,,JBJ
PBO61HX7QW,24/02/2021 19:52,24/02/2021 19:52,Pay Bill from 254713662892 - DAVID JUMA KIPTOCH Acc. JBE,Completed,8500,,8500,TRUE,Pay Utility,254713662892 - DAVID JUMA KIPTOCH,,JBE
PBO6ZWEV9A,24/02/2021 12:43,24/02/2021 12:43,Utility Account to Organization Settlement Account,Completed,,-6000,0,TRUE,Utility Account to Organization Settlement Account,979524 - ANCIENT WELLS PROPERTY MANAGERS 2,,
PBO3ZSISQD,24/02/2021 11:07,24/02/2021 11:07,Pay Bill Online from 254718593194 - HURRY IBARASI MADEDE Acc. HDG,Completed,5000,,6000,TRUE,Pay Bill Online,254718593194 - HURRY IBARASI MADEDE,,HDG
PBO0ZQM4NK,24/02/2021 10:19,24/02/2021 10:19,Pay Bill from 254720410834 - BARBARA SYOMBUA MUTUKU Acc. ICF,Completed,1000,,1000,TRUE,Pay Utility,254720410834 - BARBARA SYOMBUA MUTUKU,,ICF
PBO9ZM93CN,24/02/2021 08:20,24/02/2021 08:20,Utility Account to Organization Settlement Account,Completed,,-29000,0,TRUE,Utility Account to Organization Settlement Account,979524 - ANCIENT WELLS PROPERTY MANAGERS 2,,
PBN2ZHAFE6,23/02/2021 22:23,23/02/2021 22:23,Pay Bill from 254726928933 - JOSHUA NDUNDA NZIOKA Acc. KCJ,Completed,7000,,29000,TRUE,Pay Utility,254726928933 - JOSHUA NDUNDA NZIOKA,,KCJ
PBN4YS5BCY,23/02/2021 14:05,23/02/2021 14:05,Pay Bill Online from 254728886864 - MOULINE ONYANGO Acc. IAA,Completed,16000,,22000,TRUE,Pay Bill Online,254728886864 - MOULINE ONYANGO,,IAA
PBN8YOFKMI,23/02/2021 12:37,23/02/2021 12:37,Pay Bill from 254703555717 - SENGA SALIM Acc. hbb,Completed,2000,,6000,TRUE,Pay Utility,254703555717 - SENGA SALIM,,hbb
PBN7YJAJCD,23/02/2021 10:28,23/02/2021 10:28,Pay Bill from 254727648419 - ABDISALAN AHMED Acc. Jbh,Completed,4000,,4000,TRUE,Pay Utility,254727648419 - ABDISALAN AHMED,,Jbh
PBN6YJ0TBI,23/02/2021 10:21,23/02/2021 10:21,Utility Account to Organization Settlement Account,Completed,,-15000,0,TRUE,Utility Account to Organization Settlement Account,979524 - ANCIENT WELLS PROPERTY MANAGERS 2,,
PBN0YIQ1GU,23/02/2021 10:14,23/02/2021 10:14,Pay Bill from 254729258441 - ROBERT RONO KULEI Acc. JAB,Completed,15000,,15000,TRUE,Pay Utility,254729258441 - ROBERT RONO KULEI,,JAB
PBM2XYCK76,22/02/2021 18:21,22/02/2021 18:21,Utility Account to Organization Settlement Account,Completed,,-71800,0,TRUE,Utility Account to Organization Settlement Account,979524 - ANCIENT WELLS PROPERTY MANAGERS 2,,
PBM6XUHLQE,22/02/2021 17:11,22/02/2021 17:11,Pay Bill from 254741846455 - SAMMY MUTATI NGUTHU Acc. JEJ,Completed,33000,,71800,TRUE,Pay Utility,254741846455 - SAMMY MUTATI NGUTHU,,JEJ
PBM2XRJW1A,22/02/2021 16:10,22/02/2021 16:10,Pay Bill from 254714774979 - ALICE KALEKYE MUTUA Acc. JCH,Completed,18800,,38800,TRUE,Pay Utility,254714774979 - ALICE KALEKYE MUTUA,,JCH
PBM9XG0SS9,22/02/2021 11:32,22/02/2021 11:32,Pay Bill from 0796121714 - janet   mwikali Acc. KEC,Completed,10000,,20000,TRUE,Pay Utility,0796121714 - janet   mwikali,,KEC
PBM5XAZ1I3,22/02/2021 09:23,22/02/2021 09:23,Pay Bill from 0797095478 - TABITHA AKINYI OCHIENG Acc. HGD,Completed,10000,,10000,TRUE,Pay Utility with OD via STK,0797095478 - TABITHA AKINYI OCHIENG,,HGD
PBM4XAFXJ4,22/02/2021 09:08,22/02/2021 09:08,Utility Account to Organization Settlement Account,Completed,,-27500,0,TRUE,Utility Account to Organization Settlement Account,979524 - ANCIENT WELLS PROPERTY MANAGERS 2,,
PBM5XADVZ3,22/02/2021 09:06,22/02/2021 09:06,Pay Bill from 254710537468 - DONALDO AMIOL JUAC AKEC Acc. jdg,Completed,3500,,27500,TRUE,Pay Utility,254710537468 - DONALDO AMIOL JUAC AKEC,,jdg
PBL1WFRQZL,21/02/2021 13:34,21/02/2021 13:34,Pay Bill from 254728103722 - YASSIR MWINYI ABDULRAZAQ Acc. ICE,Completed,3000,,24000,TRUE,Pay Utility,254728103722 - YASSIR MWINYI ABDULRAZAQ,,ICE
PBK7VMV9CR,20/02/2021 18:12,20/02/2021 18:12,Pay Bill from 254720029066 - EVANS CHERUYOT ROTICH Acc. KFI,Completed,4000,,21000,TRUE,Pay Utility,254720029066 - EVANS CHERUYOT ROTICH,,KFI
PBK8VMCE3G,20/02/2021 18:03,20/02/2021 18:03,Pay Bill from 254790549449 - ABUKAR MOHAMED Acc. HBA,Completed,17000,,17000,TRUE,Pay Utility,254790549449 - ABUKAR MOHAMED,,HBA
PBK4VF0SIM,20/02/2021 15:39,20/02/2021 15:39,Utility Account to Organization Settlement Account,Completed,,-10000,0,TRUE,Utility Account to Organization Settlement Account,979524 - ANCIENT WELLS PROPERTY MANAGERS 2,,
PBK8V5FRA0,20/02/2021 12:10,20/02/2021 12:10,Pay Bill from 0706923133 - alfred ogetii mairura Acc. faf,Completed,10000,,10000,TRUE,Pay Utility,0706923133 - alfred ogetii mairura,,faf
PBK9UYFS2Z,20/02/2021 09:23,20/02/2021 09:23,Utility Account to Organization Settlement Account,Completed,,-44000,0,TRUE,Utility Account to Organization Settlement Account,979524 - ANCIENT WELLS PROPERTY MANAGERS 2,,
PBK7UX3L0Z,20/02/2021 08:47,20/02/2021 08:47,Pay Bill from 0759217545 - Angela Syombua Lole Acc. HDE,Completed,10000,,44000,TRUE,Pay Utility,0759217545 - Angela Syombua Lole,,HDE
PBJ3UHOTDF,19/02/2021 19:18,19/02/2021 19:18,Pay Bill from 0111278177 - Alfred   Kishoin Acc. IBC,Completed,10000,,34000,TRUE,Pay Utility,0111278177 - Alfred   Kishoin,,IBC
PBJ3U5D4WJ,19/02/2021 15:29,19/02/2021 15:29,Pay Bill from 254720029066 - EVANS CHERUYOT ROTICH Acc. KFI,Completed,4000,,24000,TRUE,Pay Utility,254720029066 - EVANS CHERUYOT ROTICH,,KFI
PBJ3U1MK1J,19/02/2021 14:01,19/02/2021 14:01,Pay Bill from 0746447780 - MERCY KARISA MUTSEMBI Acc. KCG,Completed,10000,,20000,TRUE,Pay Utility,0746447780 - MERCY KARISA MUTSEMBI,,KCG
PBJ1TYFEVN,19/02/2021 12:46,19/02/2021 12:46,Pay Bill from 254722244406 - NOAH MELI Acc. Jac,Completed,10000,,10000,TRUE,Pay Utility,254722244406 - NOAH MELI,,Jac
PBJ6TXFUY0,19/02/2021 12:22,19/02/2021 12:22,Utility Account to Organization Settlement Account,Completed,,-74800,0,TRUE,Utility Account to Organization Settlement Account,979524 - ANCIENT WELLS PROPERTY MANAGERS 2,,
PBJ3TWKPKR,19/02/2021 12:01,19/02/2021 12:01,Pay Bill from 254719499823 - MOSES MWANZIA MUTHIANI Acc. Jcc,Completed,6800,,74800,TRUE,Pay Utility with OD via STK,254719499823 - MOSES MWANZIA MUTHIANI,,Jcc
PBJ3TLMTGL,19/02/2021 06:38,19/02/2021 06:38,Pay Bill Online from 254720451253 - JIMMY KIOGORA NKIROTE Acc. KBD,Completed,4000,,68000,TRUE,Pay Utility with OD Online,254720451253 - JIMMY KIOGORA NKIROTE,,KBD
PBJ5TK2TS7,19/02/2021 01:11,19/02/2021 01:11,Pay Bill from 254703555717 - SENGA SALIM Acc. hbb,Completed,1000,,64000,TRUE,Pay Utility,254703555717 - SENGA SALIM,,hbb
PBI0TAGV1I,18/02/2021 19:36,18/02/2021 19:36,Pay Bill from 254726028330 - JOHN WAMBUA Acc. IFH,Completed,31000,,63000,TRUE,Pay Utility,254726028330 - JOHN WAMBUA,,IFH
PBI9T6IDI5,18/02/2021 18:41,18/02/2021 18:41,Pay Bill from 254722910078 - MAUREEN MUNYIVA MUTUKU Acc. DBD,Completed,1000,,32000,TRUE,Pay Utility,254722910078 - MAUREEN MUNYIVA MUTUKU,,DBD
PBI9T13JX9,18/02/2021 17:03,18/02/2021 17:03,Pay Bill from 254722458136 - NADI GOLICHA Acc. KAA,Completed,17000,,31000,TRUE,Pay Utility,254722458136 - NADI GOLICHA,,KAA
PBI3SYVKBJ,18/02/2021 16:14,18/02/2021 16:14,Pay Bill from 0748059595 - Rashid NASSIR Khamis Acc. DDA,Completed,4000,,14000,TRUE,Pay Utility,0748059595 - Rashid NASSIR Khamis,,DDA
PBI2SL2EHU,18/02/2021 10:36,18/02/2021 10:36,Pay Bill Online from 254722249092 - MARIAM ABDULLAHI Acc. KEH,Completed,10000,,10000,TRUE,Pay Utility with OD Online,254722249092 - MARIAM ABDULLAHI,,KEH
PBI6SHSUGC,18/02/2021 09:12,18/02/2021 09:12,Utility Account to Organization Settlement Account,Completed,,-36000,0,TRUE,Utility Account to Organization Settlement Account,979524 - ANCIENT WELLS PROPERTY MANAGERS 2,,
PBI0SH4EHK,18/02/2021 08:52,18/02/2021 08:52,Pay Bill from 254701112397 - ELEMA GODANA DIBA Acc. IAD,Completed,3000,,36000,TRUE,Pay Utility,254701112397 - ELEMA GODANA DIBA,,IAD
PBH2S8X2CY,17/02/2021 21:39,17/02/2021 21:39,Pay Bill from 254726928933 - JOSHUA NDUNDA NZIOKA Acc. KCJ,Completed,10000,,33000,TRUE,Pay Utility,254726928933 - JOSHUA NDUNDA NZIOKA,,KCJ
PBH8S8AN0E,17/02/2021 21:23,17/02/2021 21:23,Pay Bill from 254718672924 - LILIAN CHEBET NGENO Acc. KGD,Completed,10000,,23000,TRUE,Pay Utility,254718672924 - LILIAN CHEBET NGENO,,KGD
PBH7S0M4CL,17/02/2021 19:20,17/02/2021 19:20,Pay Bill from 254708499439 - ROSE NDEDE Acc. HGF,Completed,12000,,13000,TRUE,Pay Utility,254708499439 - ROSE NDEDE,,HGF
PBH9RP8JCX,17/02/2021 15:47,17/02/2021 15:47,Pay Bill from 254703555717 - SENGA SALIM Acc. hbb,Completed,1000,,1000,TRUE,Pay Utility,254703555717 - SENGA SALIM,,hbb
PBH1R7HDRP,17/02/2021 08:20,17/02/2021 08:20,Utility Account to Organization Settlement Account,Completed,,-16500,0,TRUE,Utility Account to Organization Settlement Account,979524 - ANCIENT WELLS PROPERTY MANAGERS 2,,
PBH5R58IRF,17/02/2021 06:45,17/02/2021 06:45,Pay Bill Online from 254720451253 - JIMMY KIOGORA NKIROTE Acc. KBD,Completed,6000,,16500,TRUE,Pay Bill Online,254720451253 - JIMMY KIOGORA NKIROTE,,KBD
PBG6R1IF0A,16/02/2021 21:37,16/02/2021 21:37,Pay Bill Online from 254714552193 - CHRISTOPHER OCHIENG Acc. JGI,Completed,2000,,10500,TRUE,Pay Bill Online,254714552193 - CHRISTOPHER OCHIENG,,JGI
PBG5QTE7J5,16/02/2021 19:18,16/02/2021 19:18,Pay Bill from 254722136450 - MARY EVERLYN Acc. JAI,Completed,8500,,8500,TRUE,Pay Utility with OD via STK,254722136450 - MARY EVERLYN,,JAI
PBG3Q9TU6X,16/02/2021 12:26,16/02/2021 12:26,Utility Account to Organization Settlement Account,Completed,,-28000,0,TRUE,Utility Account to Organization Settlement Account,979524 - ANCIENT WELLS PROPERTY MANAGERS 2,,
PBG9PZPPQD,16/02/2021 08:00,16/02/2021 08:00,Pay Bill from 254791345279 - Dickson Oduor Oluoch Acc. Jff,Completed,10000,,28000,TRUE,Pay Utility,254791345279 - Dickson Oduor Oluoch,,Jff
PBF9P9TBGT,15/02/2021 15:28,15/02/2021 15:28,Pay Bill from 254791154655 - ELISHA JURA Acc. IAH,Completed,18000,,18000,TRUE,Pay Utility,254791154655 - ELISHA JURA,,IAH
PBF1P69DFD,15/02/2021 14:05,15/02/2021 14:05,Utility Account to Organization Settlement Account,Completed,,-157500,0,TRUE,Utility Account to Organization Settlement Account,979524 - ANCIENT WELLS PROPERTY MANAGERS 2,,
PBF9P520UH,15/02/2021 13:37,15/02/2021 13:37,Pay Bill from 254722387899 - ADAN ALI Acc. Jba,Completed,22000,,157500,TRUE,Pay Utility,254722387899 - ADAN ALI,,Jba
PBF1P2YIDT,15/02/2021 12:48,15/02/2021 12:48,Pay Bill from 254727648419 - ABDISALAN AHMED Acc. Jbh,Completed,10000,,135500,TRUE,Pay Utility,254727648419 - ABDISALAN AHMED,,Jbh
PBF1P146X7,15/02/2021 12:04,15/02/2021 12:04,Pay Bill from 254798146452 - VALARY ODHIAMBO Acc. JEE,Completed,10000,,125500,TRUE,Pay Utility,254798146452 - VALARY ODHIAMBO,,JEE
PBF5P0TPI3,15/02/2021 11:57,15/02/2021 11:57,Pay Bill from 254714138456 - HEZEK ATIANI ATIANI Acc. HEH,Completed,14000,,115500,TRUE,Pay Utility with OD via STK,254714138456 - HEZEK ATIANI ATIANI,,HEH
PBF5OWSLNR,15/02/2021 10:20,15/02/2021 10:20,Pay Bill from 254719626804 - PAUL NJOROGE CYRUS Acc. JFI,Completed,20000,,101500,TRUE,Pay Utility,254719626804 - PAUL NJOROGE CYRUS,,JFI
PBE5O3BZXJ,14/02/2021 15:28,14/02/2021 15:28,Pay Bill from 254795449800 - MARTHA WANJIRU NJUGUNA Acc. FEB,Completed,15000,,81500,TRUE,Pay Utility,254795449800 - MARTHA WANJIRU NJUGUNA,,FEB
PBE3NSTEYF,14/02/2021 11:14,14/02/2021 11:14,Pay Bill from 254790799823 - HINO ASAFA AILA Acc. hdh,Completed,17000,,66500,TRUE,Pay Utility,254790799823 - HINO ASAFA AILA,,hdh
PBD5NDJFN7,13/02/2021 20:18,13/02/2021 20:18,Pay Bill from 254703555717 - SENGA SALIM Acc. hbb,Completed,2000,,49500,TRUE,Pay Utility,254703555717 - SENGA SALIM,,hbb
PBD1N4KIN3,13/02/2021 18:02,13/02/2021 18:02,Pay Bill from 254726178084 - CHRISTOPHER OCHIENG Acc. FFE,Completed,15000,,47500,TRUE,Pay Utility,254726178084 - CHRISTOPHER OCHIENG,,FFE
PBD5N1R2GV,13/02/2021 17:14,13/02/2021 17:14,Pay Bill from 0719834515 - Ibsa   Usman Acc. HBH,Completed,18000,,32500,TRUE,Pay Utility,0719834515 - Ibsa   Usman,,HBH
PBD6N1JTRW,13/02/2021 17:10,13/02/2021 17:10,Pay Bill from 0721130307 - HILLARY NGUNYI MUTINDA Acc. KBC,Completed,5000,,14500,TRUE,Pay Utility,0721130307 - HILLARY NGUNYI MUTINDA,,KBC
PBD0MUWITE,13/02/2021 14:57,13/02/2021 14:57,Pay Bill from 254723954911 - JAMES KILAVI Acc. ICG,Completed,9500,,9500,TRUE,Pay Utility,254723954911 - JAMES KILAVI,,ICG
PBD3MP17FD,13/02/2021 12:53,13/02/2021 12:53,Utility Account to Organization Settlement Account,Completed,,-88100,0,TRUE,Utility Account to Organization Settlement Account,979524 - ANCIENT WELLS PROPERTY MANAGERS 2,,
PBD5MMVIGB,13/02/2021 12:04,13/02/2021 12:04,Pay Bill Online from 254720787158 - AMOS CHELANG'A Acc. KFK,Completed,16000,,88100,TRUE,Pay Bill Online,254720787158 - AMOS CHELANG'A,,KFK
PBD9MIVD0F,13/02/2021 10:32,13/02/2021 10:32,Pay Bill from 254722444622 - CHARITY KAGWAINI Acc. FFD,Completed,1000,,72100,TRUE,Pay Utility,254722444622 - CHARITY KAGWAINI,,FFD
PBD3MIUC8N,13/02/2021 10:31,13/02/2021 10:31,Pay Bill Online from 254722921132 - JOE MCCRAY MURIUKI KIHIA Acc. IFA,Completed,15000,,71100,TRUE,Pay Utility with OD Online,254722921132 - JOE MCCRAY MURIUKI KIHIA,,IFA
PBD2MFE41Q,13/02/2021 09:06,13/02/2021 09:06,Pay Bill from 254715728688 - NAOMI HAGERERA JACOB Acc. DGC,Completed,27100,,56100,TRUE,Pay Utility,254715728688 - NAOMI HAGERERA JACOB,,DGC
PBC0LWWVKY,12/02/2021 18:30,12/02/2021 18:30,Pay Bill from 0790924905 - KEVIN   KIDAGISA Acc. IGC,Completed,9000,,29000,TRUE,Pay Utility,0790924905 - KEVIN   KIDAGISA,,IGC
PBC0LQ0GAM,12/02/2021 16:24,12/02/2021 16:24,Pay Bill from 254723389177 - NELSON MOI Acc. IBF,Completed,10000,,20000,TRUE,Pay Utility,254723389177 - NELSON MOI,,IBF
PBC5LP57K7,12/02/2021 16:05,12/02/2021 16:05,Pay Bill from 254724611087 - Francis Mukindya Muoki Acc. dfb,Completed,10000,,10000,TRUE,Pay Utility with OD via STK,254724611087 - Francis Mukindya Muoki,,dfb
PBC9LMP0ID,12/02/2021 15:10,12/02/2021 15:10,Utility Account to Organization Settlement Account,Completed,,-106000,0,TRUE,Utility Account to Organization Settlement Account,979524 - ANCIENT WELLS PROPERTY MANAGERS 2,,
PBC7LJA8GD,12/02/2021 13:50,12/02/2021 13:50,Pay Bill from 254728854349 - JOSEPH MUSYOKA Acc. IBG,Completed,13000,,106000,TRUE,Pay Utility,254728854349 - JOSEPH MUSYOKA,,IBG
PBB6L1LR7Y,11/02/2021 22:31,11/02/2021 22:31,Pay Bill from 254722889574 - ALLAN MWANGI Acc. JCG,Completed,10000,,93000,TRUE,Pay Utility with OD via STK,254722889574 - ALLAN MWANGI,,JCG
PBB4KVBET4,11/02/2021 20:02,11/02/2021 20:02,Pay Bill from 0799424101 - Thomas Mbindyu Kyalo Acc. DAA,Completed,16000,,83000,TRUE,Pay Utility with OD via STK,0799424101 - Thomas Mbindyu Kyalo,,DAA
PBB9KUG7GZ,11/02/2021 19:49,11/02/2021 19:49,Pay Bill Online from 254726116777 - MARY NDUTA GOSHO Acc. JDB,Completed,15000,,67000,TRUE,Pay Utility with OD Online,254726116777 - MARY NDUTA GOSHO,,JDB
PBB8KOG0E4,11/02/2021 18:20,11/02/2021 18:20,Pay Bill from 254729450678 - GRACE NDUNGE Acc. fba,Completed,15000,,52000,TRUE,Pay Utility with OD via STK,254729450678 - GRACE NDUNGE,,fba
PBB4KI27PM,11/02/2021 16:17,11/02/2021 16:17,Pay Bill from 254708225541 - JUDITH NKATHA SIMBA Acc. ICF,Completed,3000,,37000,TRUE,Pay Utility,254708225541 - JUDITH NKATHA SIMBA,,ICF
PBB6KGEBVY,11/02/2021 15:38,11/02/2021 15:38,Pay Bill from 0715256632 - FATUMA DIDA BORU Acc. IAF,Completed,10000,,34000,TRUE,Pay Utility,0715256632 - FATUMA DIDA BORU,,IAF
PBB5KCTL6H,11/02/2021 14:13,11/02/2021 14:13,Pay Bill from 0758591833 - DORCUS MBULA PETER Acc. HDD,Completed,9000,,24000,TRUE,Pay Utility,0758591833 - DORCUS MBULA PETER,,HDD
PBB6KAEHUA,11/02/2021 13:16,11/02/2021 13:16,Pay Bill from 254710110273 - AGNES NTOITI Acc. Jbb,Completed,15000,,15000,TRUE,Pay Utility with OD via STK,254710110273 - AGNES NTOITI,,Jbb
PBB3K6H479,11/02/2021 11:40,11/02/2021 11:40,Utility Account to Organization Settlement Account,Completed,,-65500,0,TRUE,Utility Account to Organization Settlement Account,979524 - ANCIENT WELLS PROPERTY MANAGERS 2,,
PBB7K4GMXR,11/02/2021 10:51,11/02/2021 10:51,Pay Bill from 254723699555 - DIANA NYAIREGI GICHIA Acc. FBF,Completed,10000,,65500,TRUE,Pay Utility,254723699555 - DIANA NYAIREGI GICHIA,,FBF
PBB3K3LUBN,11/02/2021 10:31,11/02/2021 10:31,Pay Bill from 0723409745 - Kelvin Kitonga Mutyetu Acc. kbf,Completed,9000,,55500,TRUE,Pay Utility with OD via STK,0723409745 - Kelvin Kitonga Mutyetu,,kbf
PBB7K368QJ,11/02/2021 10:20,11/02/2021 10:20,Pay Bill from 254701112397 - ELEMA GODANA DIBA Acc. IAD,Completed,2000,,46500,TRUE,Pay Utility,254701112397 - ELEMA GODANA DIBA,,IAD
PBA4JUA5V4,10/02/2021 22:42,10/02/2021 22:42,Pay Bill Online from 254715764212 - BANCE ISHEMINYE Acc. JFE ,Completed,9000,,44500,TRUE,Pay Bill Online,254715764212 - BANCE ISHEMINYE,,JFE
PBA2JPWQGE,10/02/2021 20:45,10/02/2021 20:45,Pay Bill Online from 0701979255 - Mitchelle   CHEPKEMOI Acc. HFF,Completed,9500,,35500,TRUE,Pay Bill Online,0701979255 - Mitchelle   CHEPKEMOI,,HFF
PBA4JJVBMC,10/02/2021 19:19,10/02/2021 19:19,Pay Bill from 0700206427 - Clare Nabalisa Mukasa Acc. HFA,Completed,16000,,26000,TRUE,Pay Utility,0700206427 - Clare Nabalisa Mukasa,,HFA
PBA6JIJ3P2,10/02/2021 19:00,10/02/2021 19:00,Pay Bill from 0794593622 - ALEX MACHALE MANASE Acc. ICD,Completed,10000,,10000,TRUE,Pay Utility,0794593622 - ALEX MACHALE MANASE,,ICD
PBA8J9AAXC,10/02/2021 16:17,10/02/2021 16:17,Utility Account to Organization Settlement Account,Completed,,-223500,0,TRUE,Utility Account to Organization Settlement Account,979524 - ANCIENT WELLS PROPERTY MANAGERS 2,,
PBA0J8TFTK,10/02/2021 16:07,10/02/2021 16:07,Pay Bill from 254703555717 - SENGA SALIM Acc. hbb,Completed,1000,,223500,TRUE,Pay Utility,254703555717 - SENGA SALIM,,hbb
PBA6J8ME6W,10/02/2021 16:02,10/02/2021 16:02,Pay Bill from 254727955151 - NKONGE MAURICE Acc. Fge,Completed,15000,,222500,TRUE,Pay Utility,254727955151 - NKONGE MAURICE,,Fge
PBA2J1NPFO,10/02/2021 13:24,10/02/2021 13:24,Pay Bill Online from 254722705077 - ROSALID WAMBUI NJOROGE Acc. FDD,Completed,12000,,207500,TRUE,Pay Bill Online,254722705077 - ROSALID WAMBUI NJOROGE,,FDD
PBA4IXVVA6,10/02/2021 11:54,10/02/2021 11:54,Pay Bill from 254701112397 - ELEMA GODANA DIBA Acc. IAD,Completed,5000,,195500,TRUE,Pay Utility,254701112397 - ELEMA GODANA DIBA,,IAD
PBA0IXNY3O,10/02/2021 11:49,10/02/2021 11:49,Pay Bill Online from 0757699775 - BENARD MUIA MUTUA Acc. HCB,Completed,16000,,190500,TRUE,Pay Bill Online,0757699775 - BENARD MUIA MUTUA,,HCB
PBA4IUGYUG,10/02/2021 10:32,10/02/2021 10:32,Pay Bill from 254708376721 - Millicent Achieng Akuka Acc. KCA,Completed,16000,,174500,TRUE,Pay Utility,254708376721 - Millicent Achieng Akuka,,KCA
PBA6IU7ZUQ,10/02/2021 10:25,10/02/2021 10:25,Pay Bill from 254720029066 - EVANS CHERUYOT ROTICH Acc. KFI,Completed,15000,,158500,TRUE,Pay Utility,254720029066 - EVANS CHERUYOT ROTICH,,KFI
PBA7ITYO4N,10/02/2021 10:19,10/02/2021 10:19,Pay Bill Online from 254727648782 - EUNICE MUTIO MULE Acc. JEI,Completed,20000,,143500,TRUE,Pay Bill Online,254727648782 - EUNICE MUTIO MULE,,JEI
PBA5ITRH3L,10/02/2021 10:14,10/02/2021 10:14,Pay Bill from 254715597659 - JOYCE KIVAI Acc. IED,Completed,11000,,123500,TRUE,Pay Utility,254715597659 - JOYCE KIVAI,,IED
PBA2ISR4VO,10/02/2021 09:49,10/02/2021 09:49,Pay Bill from 254722276550 - ISAAC NYAMRER Acc. KGC,Completed,9000,,112500,TRUE,Pay Utility,254722276550 - ISAAC NYAMRER,,KGC
PBA9IMABEJ,10/02/2021 01:14,10/02/2021 01:14,Pay Bill Online from 254720451253 - JIMMY KIOGORA NKIROTE Acc. JBG,Completed,10000,,103500,TRUE,Pay Utility with OD Online,254720451253 - JIMMY KIOGORA NKIROTE,,JBG
PB91IKS4GF,09/02/2021 22:15,09/02/2021 22:15,Pay Bill from 254722258107 - JOHN ODIMA ODIMA Acc. KGF,Completed,10000,,93500,TRUE,Pay Utility,254722258107 - JOHN ODIMA ODIMA,,KGF
PB92IABZQ2,09/02/2021 19:00,09/02/2021 19:00,Pay Bill from 254707315614 - TERESAH WANJIRU KIRAGU Acc. JDI,Completed,24000,,83500,TRUE,Pay Utility,254707315614 - TERESAH WANJIRU KIRAGU,,JDI
PB96I8QOFK,09/02/2021 18:36,09/02/2021 18:36,Pay Bill from 254704111133 - ELVIS OTIENO Acc. HFD,Completed,19000,,59500,TRUE,Pay Utility,254704111133 - ELVIS OTIENO,,HFD
PB93I0IWLT,09/02/2021 16:01,09/02/2021 16:01,Pay Bill from 254724810512 - BENARDET Ochieng Acc. IEH,Completed,23500,,40500,TRUE,Pay Utility,254724810512 - BENARDET Ochieng,,IEH
PB94HZ836A,09/02/2021 15:31,09/02/2021 15:31,Pay Bill from 254721115404 - Justine Fayuma Okwemba Acc. HAA,Completed,17000,,17000,TRUE,Pay Utility,254721115404 - Justine Fayuma Okwemba,,HAA
PB97HNWLUJ,09/02/2021 11:04,09/02/2021 11:04,Utility Account to Organization Settlement Account,Completed,,-622000,0,TRUE,Utility Account to Organization Settlement Account,979524 - ANCIENT WELLS PROPERTY MANAGERS 2,,
PB96HM24G0,09/02/2021 10:20,09/02/2021 10:20,Pay Bill from 254757143627 - PETER AMOLLO HAYA Acc. HED,Completed,19000,,622000,TRUE,Pay Utility,254757143627 - PETER AMOLLO HAYA,,HED
PB96HLGHUK,09/02/2021 10:06,09/02/2021 10:06,Pay Bill from 0715688238 - JOANNAH ATUHAIRE BANTU Acc. jae,Completed,9000,,603000,TRUE,Pay Utility,0715688238 - JOANNAH ATUHAIRE BANTU,,jae
PB94HKEEWW,09/02/2021 09:39,09/02/2021 09:39,Pay Bill from 254720107609 - DENNIS OGENDI BARAKE Acc. JAJ,Completed,15000,,594000,TRUE,Pay Utility with OD via STK,254720107609 - DENNIS OGENDI BARAKE,,JAJ
PB81HE2NN7,08/02/2021 23:56,08/02/2021 23:56,Pay Bill from 254729392595 - WINNIE NASICHE KERE Acc. JBF,Completed,8000,,579000,TRUE,Pay Utility,254729392595 - WINNIE NASICHE KERE,,JBF
PB82H743J2,08/02/2021 20:01,08/02/2021 20:01,Pay Bill from 254714710698 - TABITHA MULEE KYALO Acc. IFD,Completed,11500,,571000,TRUE,Pay Utility,254714710698 - TABITHA MULEE KYALO,,IFD
PB88H3ICQ2,08/02/2021 19:08,08/02/2021 19:08,Pay Bill from 254722910078 - MAUREEN MUNYIVA MUTUKU Acc. DBD,Completed,14000,,559500,TRUE,Pay Utility,254722910078 - MAUREEN MUNYIVA MUTUKU,,DBD
PB80H2V41U,08/02/2021 18:59,08/02/2021 18:59,Pay Bill from 254707715639 - Annastacia Kimeu Acc. JFC,Completed,10000,,545500,TRUE,Pay Utility,254707715639 - Annastacia Kimeu,,JFC
PB87H2Q1PB,08/02/2021 18:57,08/02/2021 18:57,Pay Bill Online from 254710382992 - SIMON KAMAU MUIRURI Acc. JCD,Completed,15000,,535500,TRUE,Pay Utility with OD Online,254710382992 - SIMON KAMAU MUIRURI,,JCD
PB89H1KLUF,08/02/2021 18:39,08/02/2021 18:39,Pay Bill from 254718772336 - DAVID SERUGO Acc. DCD,Completed,20000,,520500,TRUE,Pay Utility,254718772336 - DAVID SERUGO,,DCD
PB89H1A4GL,08/02/2021 18:34,08/02/2021 18:34,Pay Bill Online from 254706549634 - CLINTON OMBASA Acc. FDB,Completed,17000,,500500,TRUE,Pay Bill Online,254706549634 - CLINTON OMBASA,,FDB
PB88GNJVV8,08/02/2021 13:53,08/02/2021 13:53,Pay Bill from 0743248310 - PATRICK STURRIDGE NYONGESA Acc. kaf,Completed,2000,,483500,TRUE,Pay Utility,0743248310 - PATRICK STURRIDGE NYONGESA,,kaf
PB86GM8M4O,08/02/2021 13:24,08/02/2021 13:24,Pay Bill from 254716702294 - DANIEL MULATI Acc. KBE,Completed,2000,,481500,TRUE,Pay Utility,254716702294 - DANIEL MULATI,,KBE
PB83GLUET3,08/02/2021 13:14,08/02/2021 13:14,Pay Bill Online from 254726877391 - EVERLYNE ATIENO Acc. JGI,Completed,15000,,479500,TRUE,Pay Bill Online,254726877391 - EVERLYNE ATIENO,,JGI
PB82GLHI0A,08/02/2021 13:06,08/02/2021 13:06,Pay Bill Online from 254705846408 - JAMES OUMA Acc. HBG,Completed,16000,,464500,TRUE,Pay Bill Online,254705846408 - JAMES OUMA,,HBG
PB83GIGKSZ,08/02/2021 11:55,08/02/2021 11:55,Pay Bill from 254702926057 - JULIAH JEPTUM Acc. IEF,Completed,10000,,448500,TRUE,Pay Utility,254702926057 - JULIAH JEPTUM,,IEF
PB81GHLAHF,08/02/2021 11:35,08/02/2021 11:35,Pay Bill from 254720671702 - DENIS RONOH Acc. Kag,Completed,10000,,438500,TRUE,Pay Utility,254720671702 - DENIS RONOH,,Kag
PB85GFNMEP,08/02/2021 10:49,08/02/2021 10:49,Pay Bill from 254720931300 - ESTHER WANJIRU NDUNGO Acc. KGE,Completed,9000,,428500,TRUE,Pay Utility,254720931300 - ESTHER WANJIRU NDUNGO,,KGE
PB84GDN8OU,08/02/2021 10:00,08/02/2021 10:00,Pay Bill from 254702190887 - Nax Ochieng Acc. FDE,Completed,15000,,419500,TRUE,Pay Utility,254702190887 - Nax Ochieng,,FDE
PB83GCW1JN,08/02/2021 09:41,08/02/2021 09:41,Pay Bill from 254713159153 - GUYO SANKALA Acc. DGD,Completed,20000,,404500,TRUE,Pay Utility,254713159153 - GUYO SANKALA,,DGD
PB74G5GR4G,07/02/2021 22:21,07/02/2021 22:21,Pay Bill from 254703935626 - DAVID NGARI ITA Acc. FCD,Completed,1000,,384500,TRUE,Pay Utility,254703935626 - DAVID NGARI ITA,,FCD
PB76G248UG,07/02/2021 20:42,07/02/2021 20:42,Pay Bill from 254718138578 - PAULINE KIOKO Acc. KFD,Completed,12000,,383500,TRUE,Pay Utility,254718138578 - PAULINE KIOKO,,KFD
PB70G1WPO2,07/02/2021 20:37,07/02/2021 20:37,Pay Bill from 0743248310 - PATRICK STURRIDGE NYONGESA Acc. kaf,Completed,2000,,371500,TRUE,Pay Utility,0743248310 - PATRICK STURRIDGE NYONGESA,,kaf
PB76FZXPV2,07/02/2021 20:01,07/02/2021 20:01,Pay Bill from 254703375006 - KEN RODGERS Acc. DBA,Completed,12000,,369500,TRUE,Pay Utility,254703375006 - KEN RODGERS,,DBA
PB72FU43QO,07/02/2021 18:28,07/02/2021 18:28,Pay Bill from 254717554562 - OMONDI JACK Acc. kci,Completed,12500,,357500,TRUE,Pay Utility,254717554562 - OMONDI JACK,,kci
PB72FSGC5G,07/02/2021 17:58,07/02/2021 17:58,Pay Bill from 254729948896 - CAROLINE V MILIZA Acc. Fec,Completed,9000,,345000,TRUE,Pay Utility,254729948896 - CAROLINE V MILIZA,,Fec
PB75FRV647,07/02/2021 17:47,07/02/2021 17:47,Pay Bill from 254714209770 - PURITY NDUKU KYALO Acc. JEB,Completed,15000,,336000,TRUE,Pay Utility with OD via STK,254714209770 - PURITY NDUKU KYALO,,JEB
PB73FRC8ZV,07/02/2021 17:37,07/02/2021 17:37,Pay Bill from 0706611474 - KEVIN MAKATO KUNGA Acc. KEG,Completed,10000,,321000,TRUE,Pay Utility,0706611474 - KEVIN MAKATO KUNGA,,KEG
PB76FNCW3Q,07/02/2021 16:17,07/02/2021 16:17,Pay Bill from 254708851939 - VENANT MBOGHO Acc. kch,Completed,10000,,311000,TRUE,Pay Utility with OD via STK,254708851939 - VENANT MBOGHO,,kch
PB70FIBCGS,07/02/2021 14:27,07/02/2021 14:27,Pay Bill from 254722940643 - HERBERT MAVIAH ISWEKA Acc. HCG,Completed,10000,,301000,TRUE,Pay Utility,254722940643 - HERBERT MAVIAH ISWEKA,,HCG
PB79FHTY6N,07/02/2021 14:16,07/02/2021 14:16,Pay Bill from 254728103722 - YASSIR MWINYI ABDULRAZAQ Acc. ICE,Completed,3000,,291000,TRUE,Pay Utility,254728103722 - YASSIR MWINYI ABDULRAZAQ,,ICE
PB74FCDICE,07/02/2021 12:02,07/02/2021 12:02,Pay Bill from 254728238249 - ESTHER WANGUI KIBUNYI Acc. ICA,Completed,17000,,288000,TRUE,Pay Utility,254728238249 - ESTHER WANGUI KIBUNYI,,ICA
PB72FAV0X8,07/02/2021 11:21,07/02/2021 11:21,Pay Bill from 254710202776 - KELVIN KARIMI MACHARIA Acc. FAD,Completed,11000,,271000,TRUE,Pay Utility,254710202776 - KELVIN KARIMI MACHARIA,,FAD
PB75F5ALR7,07/02/2021 08:47,07/02/2021 08:47,Pay Bill from 254701196539 - GICHURI KARANJA Acc. fee,Completed,16000,,260000,TRUE,Pay Utility,254701196539 - GICHURI KARANJA,,fee
PB78F3VYWS,07/02/2021 08:00,07/02/2021 08:00,Pay Bill from 254719317219 - PHILIP MBOYA Acc. JDH,Completed,16000,,244000,TRUE,Pay Utility,254719317219 - PHILIP MBOYA,,JDH
PB60F0OFW4,06/02/2021 22:55,06/02/2021 22:55,Pay Bill Online from 254708703539 - SUSAN NDUGIRE NDUGIRE Acc. KDA,Completed,17000,,228000,TRUE,Pay Bill Online,254708703539 - SUSAN NDUGIRE NDUGIRE,,KDA
PB62F0KIUY,06/02/2021 22:49,06/02/2021 22:49,Pay Bill from 0796929370 - HALIMA BOYA GALMA Acc. DBC,Completed,20000,,211000,TRUE,Pay Utility,0796929370 - HALIMA BOYA GALMA,,DBC
PB66ESM61U,06/02/2021 19:45,06/02/2021 19:45,Pay Bill from 254723026840 - HARRISON MAINA Acc. KAH,Completed,16000,,191000,TRUE,Pay Utility,254723026840 - HARRISON MAINA,,KAH
PB67ERJ737,06/02/2021 19:30,06/02/2021 19:30,Pay Bill from 254729713741 - ALBANUS MUTISO Acc. jbd,Completed,15000,,175000,TRUE,Pay Utility,254729713741 - ALBANUS MUTISO,,jbd
PB61ENLLWZ,06/02/2021 18:32,06/02/2021 18:32,Pay Bill from 254713966424 - NDUTI MUTHUI Acc. JED,Completed,15000,,160000,TRUE,Pay Utility,254713966424 - NDUTI MUTHUI,,JED
PB67ENL6PD,06/02/2021 18:32,06/02/2021 18:32,Pay Bill from 254722546656 - AMBER HAMID TALASAM Acc. IGH,Completed,41000,,145000,TRUE,Pay Utility,254722546656 - AMBER HAMID TALASAM,,IGH
PB68EN2MSE,06/02/2021 18:24,06/02/2021 18:24,Pay Bill Online from 254716499837 - ASHA MUSA Acc. JFD,Completed,15000,,104000,TRUE,Pay Bill Online,254716499837 - ASHA MUSA,,JFD
PB69EKT8P3,06/02/2021 17:47,06/02/2021 17:47,Pay Bill from 254743775372 - SHIKUNDI PURITY KHAOYA Acc. hcd,Completed,9500,,89000,TRUE,Pay Utility,254743775372 - SHIKUNDI PURITY KHAOYA,,hcd
PB63EJURI5,06/02/2021 17:31,06/02/2021 17:31,Pay Bill from 0711769778 - PROTASIA BONIPHACE MANOSA Acc. IBB,Completed,31000,,79500,TRUE,Pay Utility,0711769778 - PROTASIA BONIPHACE MANOSA,,IBB
PB63EFWEWB,06/02/2021 16:17,06/02/2021 16:17,Pay Bill from 254720868281 - KENNEDY MWELU Acc. KBI,Completed,12500,,48500,TRUE,Pay Utility,254720868281 - KENNEDY MWELU,,KBI
PB67EE9K05,06/02/2021 15:44,06/02/2021 15:43,Pay Bill from 254714037688 - MALCOLM FORUM ODUOR JUMA Acc. JAD,Completed,4000,,36000,TRUE,Pay Utility with OD via STK,254714037688 - MALCOLM FORUM ODUOR JUMA,,JAD
PB66E6W6RQ,06/02/2021 13:12,06/02/2021 13:12,Pay Bill from 254721315975 - JOSEPH NDEGWA Acc. H E B,Completed,16000,,32000,TRUE,Pay Utility,254721315975 - JOSEPH NDEGWA,,H
PB67E6K755,06/02/2021 13:05,06/02/2021 13:05,Pay Bill from 254748895202 - MAYOL MACH MADING AWAR Acc. kfb,Completed,16000,,16000,TRUE,Pay Utility,254748895202 - MAYOL MACH MADING AWAR,,kfb
PB65E4PS1X,06/02/2021 12:25,06/02/2021 12:25,Utility Account to Organization Settlement Account,Completed,,-651500,0,TRUE,Utility Account to Organization Settlement Account,979524 - ANCIENT WELLS PROPERTY MANAGERS 2,,
PB60E3MQN2,06/02/2021 12:02,06/02/2021 12:02,Pay Bill from 254725381062 - VICTOR MAITHYA Acc. HEG,Completed,15000,,651500,TRUE,Pay Utility with OD via STK,254725381062 - VICTOR MAITHYA,,HEG
PB64DZ33UU,06/02/2021 10:21,06/02/2021 10:21,Pay Bill Online from 254728687482 - KELSEN MWIRIGI MUTIGA Acc. HCE,Completed,10500,,636500,TRUE,Pay Bill Online,254728687482 - KELSEN MWIRIGI MUTIGA,,HCE
PB66DUI96U,06/02/2021 08:29,06/02/2021 08:29,Pay Bill from 254717726012 - WINFRED MUENI PETER Acc. IDA,Completed,16000,,626000,TRUE,Pay Utility,254717726012 - WINFRED MUENI PETER,,IDA
PB66DTPCCA,06/02/2021 08:07,06/02/2021 08:07,Pay Bill from 0757259130 - RASHID SUDI MCHOMBO Acc. JAF,Completed,8000,,610000,TRUE,Pay Utility,0757259130 - RASHID SUDI MCHOMBO,,JAF
PB64DSVVVA,06/02/2021 07:39,06/02/2021 07:39,Pay Bill from 0745078843 - Venessa kwamboka Nyareru Acc. KCD,Completed,20000,,602000,TRUE,Pay Utility,0745078843 - Venessa kwamboka Nyareru,,KCD
PB67DSH01N,06/02/2021 07:22,06/02/2021 07:22,Pay Bill from 254798674917 - Egbe Okpaga Okpaga Acc. HAD,Completed,9500,,582000,TRUE,Pay Utility,254798674917 - Egbe Okpaga Okpaga,,HAD
PB61DRGN2F,06/02/2021 06:04,06/02/2021 06:04,Pay Bill from 254701006375 - EZRA MAKORI SERETI Acc. HTE,Completed,10000,,572500,TRUE,Pay Utility with OD via STK,254701006375 - EZRA MAKORI SERETI,,HTE
PB55DQAQOL,05/02/2021 23:34,05/02/2021 23:34,Pay Bill from 254703935626 - DAVID NGARI ITA Acc. FCD,Completed,1000,,562500,TRUE,Pay Utility,254703935626 - DAVID NGARI ITA,,FCD
PB51DMASE9,05/02/2021 21:05,05/02/2021 21:05,Pay Bill from 254724655033 - SUSAN CHIMOTO Acc. KGH,Completed,9500,,561500,TRUE,Pay Utility,254724655033 - SUSAN CHIMOTO,,KGH
PB57DL42K7,05/02/2021 20:43,05/02/2021 20:43,Pay Bill from 254722569870 - LUKA KEITANY Acc. jfj,Completed,15000,,552000,TRUE,Pay Utility with OD via STK,254722569870 - LUKA KEITANY,,jfj
PB50DKJSPK,05/02/2021 20:34,05/02/2021 20:34,Pay Bill Online from 254720381965 - JAMES NGUGI MWANIKI Acc. JBI,Completed,20000,,537000,TRUE,Pay Bill Online,254720381965 - JAMES NGUGI MWANIKI,,JBI
PB53DF8XE5,05/02/2021 19:18,05/02/2021 19:18,Pay Bill from 254712954563 - JOSEPH MUTISO KILONZO Acc. dac,Completed,20000,,517000,TRUE,Pay Utility,254712954563 - JOSEPH MUTISO KILONZO,,dac
PB59DC3WO5,05/02/2021 18:32,05/02/2021 18:32,Pay Bill from 254707370896 - OKECH BRIAN BRIAN Acc. FFA,Completed,15000,,497000,TRUE,Pay Utility,254707370896 - OKECH BRIAN BRIAN,,FFA
PB55DBAP1Z,05/02/2021 18:19,05/02/2021 18:19,Pay Bill from 254725771056 - CHARLES MURAGURI Acc. FCE,Completed,15000,,482000,TRUE,Pay Utility,254725771056 - CHARLES MURAGURI,,FCE
PB52DA6KFS,05/02/2021 18:00,05/02/2021 18:00,Pay Bill from 254722874715 - PATRCIAH mbesa KIOKO Acc. KBB,Completed,16000,,467000,TRUE,Pay Utility,254722874715 - PATRCIAH mbesa KIOKO,,KBB
PB54D9OHVK,05/02/2021 17:52,05/02/2021 17:52,Pay Bill from 254706010242 - SIMON OTIENO Acc. IBI,Completed,15000,,451000,TRUE,Pay Utility,254706010242 - SIMON OTIENO,,IBI
PB53D9I3SR,05/02/2021 17:49,05/02/2021 17:49,Pay Bill from 254725094113 - BRAXTON LUMWAJI Acc. DDC,Completed,15000,,436000,TRUE,Pay Utility,254725094113 - BRAXTON LUMWAJI,,DDC
PB54D8V4VC,05/02/2021 17:37,05/02/2021 17:37,Pay Bill from 254729590734 - PATRICK NDUNGA Acc. IDD,Completed,10000,,421000,TRUE,Pay Utility,254729590734 - PATRICK NDUNGA,,IDD
PB55D8NUBF,05/02/2021 17:34,05/02/2021 17:34,Pay Bill from 254723499628 - CLINTON JOSEPH MUHARI Acc. hfh,Completed,16000,,411000,TRUE,Pay Utility,254723499628 - CLINTON JOSEPH MUHARI,,hfh
PB57D898YP,05/02/2021 17:26,05/02/2021 17:26,Pay Bill from 254798524621 - MERCY CHESANG Acc. JCJ,Completed,16000,,395000,TRUE,Pay Utility,254798524621 - MERCY CHESANG,,JCJ
PB50D7SUUC,05/02/2021 17:18,05/02/2021 17:18,Pay Bill from 0743248310 - PATRICK STURRIDGE NYONGESA Acc. kaf,Completed,7000,,379000,TRUE,Pay Utility,0743248310 - PATRICK STURRIDGE NYONGESA,,kaf
PB52D7ATM6,05/02/2021 17:08,05/02/2021 17:08,Pay Bill from 254723605941 - JOHN KARIHA Acc. kdd,Completed,11000,,372000,TRUE,Pay Utility,254723605941 - JOHN KARIHA,,kdd
PB51D5FUGH,05/02/2021 16:31,05/02/2021 16:31,Pay Bill from 0722925798 - ifrah abukar adan Acc. IEI,Completed,16000,,361000,TRUE,Pay Utility,0722925798 - ifrah abukar adan,,IEI
PB59D32TN9,05/02/2021 15:40,05/02/2021 15:40,Pay Bill from 254725700000 - AMOS BELIO SIMOTWO Acc. KFH,Completed,10000,,345000,TRUE,Pay Utility,254725700000 - AMOS BELIO SIMOTWO,,KFH
PB50D2M0MG,05/02/2021 15:30,05/02/2021 15:30,Pay Bill from 254721302658 - JACOB BIRUNDU Acc. DDB,Completed,16000,,335000,TRUE,Pay Utility,254721302658 - JACOB BIRUNDU,,DDB
PB50D1QUTQ,05/02/2021 15:10,05/02/2021 15:10,Pay Bill from 254728897908 - Teddy Allan Onyango Acc. KCF,Completed,10000,,319000,TRUE,Pay Utility,254728897908 - Teddy Allan Onyango,,KCF
PB58D1I628,05/02/2021 15:04,05/02/2021 15:04,Pay Bill from 254714114228 - MWANGO AWINO VIOLET Acc. DCB,Completed,16000,,309000,TRUE,Pay Utility,254714114228 - MWANGO AWINO VIOLET,,DCB
PB53D1GW0B,05/02/2021 15:04,05/02/2021 15:04,Pay Bill Online from 254706898046 - STACY AKETCH OCHUKA Acc. KED,Completed,12000,,293000,TRUE,Pay Bill Online,254706898046 - STACY AKETCH OCHUKA,,KED
PB55D15KG5,05/02/2021 14:57,05/02/2021 14:57,Pay Bill from 254724364316 - LINET MWENDIA Acc. KEJ,Completed,16000,,281000,TRUE,Pay Utility,254724364316 - LINET MWENDIA,,KEJ
PB52CYFZYC,05/02/2021 13:55,05/02/2021 13:55,Pay Bill from 254710814215 - JOAN NYAMBURA KAMAU Acc. ifb,Completed,8500,,265000,TRUE,Pay Utility,254710814215 - JOAN NYAMBURA KAMAU,,ifb
PB52CXHP96,05/02/2021 13:34,05/02/2021 13:34,Pay Bill Online from 254792187144 - HASSAN AHMED HASSAN Acc. KGI,Completed,10000,,256500,TRUE,Pay Bill Online,254792187144 - HASSAN AHMED HASSAN,,KGI
PB54CWO1KK,05/02/2021 13:15,05/02/2021 13:15,Pay Bill from 0718838251 - MARK KINYUA MAINA Acc. kfg,Completed,10000,,246500,TRUE,Pay Utility,0718838251 - MARK KINYUA MAINA,,kfg
PB53CVZ6D1,05/02/2021 12:59,05/02/2021 12:59,Pay Bill Online from 254720044312 - ELIUD KIPKURUI Acc. FCF,Completed,17000,,236500,TRUE,Pay Bill Online,254720044312 - ELIUD KIPKURUI,,FCF
PB57CV7953,05/02/2021 12:41,05/02/2021 12:41,Pay Bill from 0769001671 - Wilson Mutangili Wambua Acc. haf,Completed,9500,,219500,TRUE,Pay Utility,0769001671 - Wilson Mutangili Wambua,,haf
PB50CTS3ZI,05/02/2021 12:08,05/02/2021 12:08,Pay Bill from 254729355933 - FELISTAH NJERI WAIRIMU Acc. IDI,Completed,15000,,210000,TRUE,Pay Utility,254729355933 - FELISTAH NJERI WAIRIMU,,IDI
PB50CTFD0Q,05/02/2021 11:59,05/02/2021 11:59,Pay Bill from 254728685098 - AIDID ISSA ABDI Acc. fdf,Completed,16000,,195000,TRUE,Pay Utility,254728685098 - AIDID ISSA ABDI,,fdf
PB56CO70AS,05/02/2021 09:58,05/02/2021 09:58,Pay Bill from 254725754547 - MWACHIRO GEORGE DECHE Acc. DFC,Completed,20000,,179000,TRUE,Pay Utility,254725754547 - MWACHIRO GEORGE DECHE,,DFC
PB52CMEQOE,05/02/2021 09:13,05/02/2021 09:13,Pay Bill Online from 254726313835 - SYLVIA JUMA Acc. hdf,Completed,9500,,159000,TRUE,Pay Bill Online,254726313835 - SYLVIA JUMA,,hdf
PB54CKWH8A,05/02/2021 08:32,05/02/2021 08:32,Pay Bill from 254723929380 - RHODAH K WAMBUA Acc. HEF,Completed,9500,,149500,TRUE,Pay Utility,254723929380 - RHODAH K WAMBUA,,HEF
PB56CJFZMS,05/02/2021 07:48,05/02/2021 07:48,Pay Bill from 254728042989 - PATRICK OMONDI Acc. IFI,Completed,15000,,140000,TRUE,Pay Utility with OD via STK,254728042989 - PATRICK OMONDI,,IFI
PB55CIQO0P,05/02/2021 07:20,05/02/2021 07:20,Pay Bill from 254722521028 - CHARLES MONYONCHO Acc. ICB,Completed,17000,,125000,TRUE,Pay Utility,254722521028 - CHARLES MONYONCHO,,ICB
PB53CI6IRR,05/02/2021 06:50,05/02/2021 06:50,Pay Bill from 254704833344 - LOISE KIMANI Acc. jfa,Completed,20000,,108000,TRUE,Pay Utility,254704833344 - LOISE KIMANI,,jfa
PB45CFO8K1,04/02/2021 22:28,04/02/2021 22:28,Pay Bill from 254703935626 - DAVID NGARI ITA Acc. FCD,Completed,1000,,88000,TRUE,Pay Utility,254703935626 - DAVID NGARI ITA,,FCD
PB45CEVUU3,04/02/2021 21:59,04/02/2021 21:59,Pay Bill from 254714563486 - BRIAN MMATA MUSERA Acc. KBJ,Completed,16000,,87000,TRUE,Pay Utility,254714563486 - BRIAN MMATA MUSERA,,KBJ
PB44CCKYME,04/02/2021 21:02,04/02/2021 21:02,Pay Bill from 254741583477 - omenda mzee aziz Acc. JEF ,Completed,8000,,71000,TRUE,Pay Utility,254741583477 - omenda mzee aziz,,JEF
PB49C8VWGP,04/02/2021 20:00,04/02/2021 20:00,Pay Bill from 254727300915 - EUNICE NJERI Acc. kff,Completed,9500,,63000,TRUE,Pay Utility,254727300915 - EUNICE NJERI,,kff
PB40C7SL5W,04/02/2021 19:45,04/02/2021 19:45,Pay Bill from 254721465713 - RHODA WAMBUI MWANGI Acc. jfh,Completed,17000,,53500,TRUE,Pay Utility,254721465713 - RHODA WAMBUI MWANGI,,jfh
PB41C7OA67,04/02/2021 19:43,04/02/2021 19:43,Pay Bill from 254720278119 - LINDAH OGAWO Acc. KFE,Completed,9500,,36500,TRUE,Pay Utility with OD via STK,254720278119 - LINDAH OGAWO,,KFE
PB47C6SYIJ,04/02/2021 19:32,04/02/2021 19:32,Pay Bill from 254724837699 - Micah Nyabuto Acc. hbd,Completed,10000,,27000,TRUE,Pay Utility,254724837699 - Micah Nyabuto,,hbd
PB44C4GFFC,04/02/2021 18:59,04/02/2021 18:59,Pay Bill from 254792946676 - ESTHER KAMAU Acc. hab,Completed,17000,,17000,TRUE,Pay Utility,254792946676 - ESTHER KAMAU,,hab
PB40C42X54,04/02/2021 18:54,04/02/2021 18:54,Utility Account to Organization Settlement Account,Completed,,-88500,0,TRUE,Utility Account to Organization Settlement Account,979524 - ANCIENT WELLS PROPERTY MANAGERS 2,,
PB47C0TS0D,04/02/2021 18:00,04/02/2021 18:00,Pay Bill from 254724882554 - ALPHONCE WAMBUA NGELI Acc. JDA,Completed,20000,,88500,TRUE,Pay Utility,254724882554 - ALPHONCE WAMBUA NGELI,,JDA
PB41BXUZY3,04/02/2021 17:03,04/02/2021 17:03,Pay Bill from 254719499823 - MOSES MWANZIA MUTHIANI Acc. Jcc,Completed,3000,,68500,TRUE,Pay Utility with OD via STK,254719499823 - MOSES MWANZIA MUTHIANI,,Jcc
PB42BWP5J0,04/02/2021 16:39,04/02/2021 16:39,Pay Bill from 254724451092 - CHRISTOPHER WAMBUA KISILU Acc. FCC,Completed,9000,,65500,TRUE,Pay Utility,254724451092 - CHRISTOPHER WAMBUA KISILU,,FCC
PB41BVI4O3,04/02/2021 16:12,04/02/2021 16:12,Pay Bill from 254701047939 - Cyrus Wahome Acc. JAH,Completed,16000,,56500,TRUE,Pay Utility,254701047939 - Cyrus Wahome,,JAH
PB42BRJ7FS,04/02/2021 14:38,04/02/2021 14:38,Pay Bill from 254706158280 - patience mutheu mbevi Acc. KFC,Completed,10000,,40500,TRUE,Pay Utility,254706158280 - patience mutheu mbevi,,KFC
PB42BPIIL4,04/02/2021 13:50,04/02/2021 13:50,Pay Bill from 254726337163 - HALIMA ALI HASSAN Acc. DDA,Completed,10000,,30500,TRUE,Pay Utility,254726337163 - HALIMA ALI HASSAN,,DDA
PB48BNVZK8,04/02/2021 13:12,04/02/2021 13:12,Pay Bill from 254719398942 - NORAH WAYUA MUNYAO Acc. KDC,Completed,10000,,20500,TRUE,Pay Utility,254719398942 - NORAH WAYUA MUNYAO,,KDC
PB41BL2BER,04/02/2021 12:05,04/02/2021 12:05,Pay Bill from 254729160700 - MICAH NDUNGI Acc. HFE,Completed,10500,,10500,TRUE,Pay Utility,254729160700 - MICAH NDUNGI,,HFE
PB45BKSJAH,04/02/2021 11:58,04/02/2021 11:58,Utility Account to Organization Settlement Account,Completed,,-212500,0,TRUE,Utility Account to Organization Settlement Account,979524 - ANCIENT WELLS PROPERTY MANAGERS 2,,
PB48BK8ZC2,04/02/2021 11:45,04/02/2021 11:45,Pay Bill from 254791318982 - ADULLAHI HASSAN Acc. jci,Completed,41000,,212500,TRUE,Pay Utility,254791318982 - ADULLAHI HASSAN,,jci
PB47BEE4NL,04/02/2021 09:22,04/02/2021 09:22,Pay Bill from 254722358654 - TOM MAKORI ONGERI Acc. icc,Completed,9000,,171500,TRUE,Pay Utility,254722358654 - TOM MAKORI ONGERI,,icc
PB37B7BXI7,03/02/2021 22:22,03/02/2021 22:22,Pay Bill from 254718233980 - KAREN ASWANI Acc. HEC,Completed,10500,,162500,TRUE,Pay Utility,254718233980 - KAREN ASWANI,,HEC
PB34B6QPJC,03/02/2021 22:01,03/02/2021 22:01,Pay Bill Online from 254711562428 - Lionel Mutune Muoka Acc. KDI,Completed,11000,,152000,TRUE,Pay Bill Online,254711562428 - Lionel Mutune Muoka,,KDI
PB32B5YHDW,03/02/2021 21:38,03/02/2021 21:38,Pay Bill Online from 254726082666 - DRUSSILA MUTHEU MUTUNGA Acc. KAH,Completed,10000,,141000,TRUE,Pay Bill Online,254726082666 - DRUSSILA MUTHEU MUTUNGA,,KAH
PB34B1XW1Q,03/02/2021 20:20,03/02/2021 20:20,Pay Bill from 254702346515 - ELIZABETH ACHIENG NGOME Acc. KDE,Completed,10000,,131000,TRUE,Pay Utility,254702346515 - ELIZABETH ACHIENG NGOME,,KDE
PB37AZGTBB,03/02/2021 19:45,03/02/2021 19:45,Pay Bill from 254716328009 - IRENE ODHIAMBO Acc. KGG,Completed,9000,,121000,TRUE,Pay Utility,254716328009 - IRENE ODHIAMBO,,KGG
PB34AZ4136,03/02/2021 19:40,03/02/2021 19:40,Pay Bill Online from 254704033042 - LESLIE KOIKAI Acc. IBD,Completed,11000,,112000,TRUE,Pay Bill Online,254704033042 - LESLIE KOIKAI,,IBD
PB35AXDNND,03/02/2021 19:18,03/02/2021 19:18,Pay Bill from 254798643998 - Judith Mwaniki Acc. kce,Completed,10000,,101000,TRUE,Pay Utility,254798643998 - Judith Mwaniki,,kce
PB34AU7ON0,03/02/2021 18:31,03/02/2021 18:31,Pay Bill from 0796121714 - janet   mwikali Acc. KEC,Completed,19000,,91000,TRUE,Pay Utility,0796121714 - janet   mwikali,,KEC
PB30ATJGP6,03/02/2021 18:20,03/02/2021 18:20,Pay Bill from 254710635630 - DONNA JESSICA OWANO Acc. KCC,Completed,10000,,72000,TRUE,Pay Utility,254710635630 - DONNA JESSICA OWANO,,KCC
PB34ARN284,03/02/2021 17:48,03/02/2021 17:48,Pay Bill from 254723510490 - JANET JEBET TANUI Acc. IDG,Completed,9000,,62000,TRUE,Pay Utility,254723510490 - JANET JEBET TANUI,,IDG
PB39APZPZJ,03/02/2021 17:17,03/02/2021 17:17,Pay Bill from 254720511734 - ENOCK KIBET Acc. FDC,Completed,9000,,53000,TRUE,Pay Utility,254720511734 - ENOCK KIBET,,FDC
PB39AJDU89,03/02/2021 14:50,03/02/2021 14:50,Pay Bill from 254703180395 - JANE NYAGUTHII MWAGO Acc. IBE,Completed,8000,,44000,TRUE,Pay Utility,254703180395 - JANE NYAGUTHII MWAGO,,IBE
PB39AIM1CL,03/02/2021 14:32,03/02/2021 14:32,Pay Bill from 0114052034 - EVANS TIOKO NANGIRO Acc. FBE,Completed,16000,,36000,TRUE,Pay Utility,0114052034 - EVANS TIOKO NANGIRO,,FBE
PB36A9TD1O,03/02/2021 11:06,03/02/2021 11:06,Pay Bill from 0758826849 -  Norah Awala Anyango Acc. JEA,Completed,20000,,20000,TRUE,Pay Utility,0758826849 -  Norah Awala Anyango,,JEA
PB33A92YQR,03/02/2021 10:48,03/02/2021 10:48,Utility Account to Organization Settlement Account,Completed,,-190250,0,TRUE,Utility Account to Organization Settlement Account,979524 - ANCIENT WELLS PROPERTY MANAGERS 2,,
PB39A8RPTP,03/02/2021 10:41,03/02/2021 10:41,Pay Bill from 254723680556 - JANET NGENO Acc. JEG,Completed,19000,,190250,TRUE,Pay Utility,254723680556 - JANET NGENO,,JEG
PB30A7PZ76,03/02/2021 10:16,03/02/2021 10:16,Pay Bill from 254703681302 - DORRIS MULE Acc. IGD,Completed,9000,,171250,TRUE,Pay Utility,254703681302 - DORRIS MULE,,IGD
PB33A7J5ZR,03/02/2021 10:12,03/02/2021 10:12,Pay Bill from 254714060203 - PATRICK MWANGOMBE MSAWUCHI Acc. KEI,Completed,12000,,162250,TRUE,Pay Utility,254714060203 - PATRICK MWANGOMBE MSAWUCHI,,KEI
PB37A73B83,03/02/2021 10:01,03/02/2021 10:01,Pay Bill from 254722136450 - MARY EVERLYN Acc. JAI,Completed,20000,,150250,TRUE,Pay Utility,254722136450 - MARY EVERLYN,,JAI
PB37A5VNWL,03/02/2021 09:30,03/02/2021 09:30,Pay Bill from 0703236529 - MARGARET WANJIRU WANJOHI Acc. IAE,Completed,8000,,130250,TRUE,Pay Utility,0703236529 - MARGARET WANJIRU WANJOHI,,IAE
PB30A2YADG,03/02/2021 08:09,03/02/2021 08:09,Pay Bill from 254722444622 - CHARITY KAGWAINI Acc. FFD,Completed,10000,,122250,TRUE,Pay Utility,254722444622 - CHARITY KAGWAINI,,FFD
PB239VB9IF,02/02/2021 20:57,02/02/2021 20:57,Pay Bill Online from 254725385966 - JOSEPH MUYA MARUA Acc. KEE,Completed,10000,,112250,TRUE,Pay Utility with OD Online,254725385966 - JOSEPH MUYA MARUA,,KEE
PB259TE87N,02/02/2021 20:24,02/02/2021 20:24,Pay Bill from 254719285750 - LILIAN ACHIENG ODONGO Acc. IGE,Completed,9000,,102250,TRUE,Pay Utility,254719285750 - LILIAN ACHIENG ODONGO,,IGE
PB229R9ZWU,02/02/2021 19:53,02/02/2021 19:53,Pay Bill from 254702355678 - JOHN NJOROGE GICHERU Acc. ITE,Completed,10000,,93250,TRUE,Pay Utility,254702355678 - JOHN NJOROGE GICHERU,,ITE
PB219PBYHF,02/02/2021 19:27,02/02/2021 19:27,Pay Bill from 0796121714 - janet   mwikali Acc. KEC,Completed,2000,,83250,TRUE,Pay Utility,0796121714 - janet   mwikali,,KEC
PB249O5H1I,02/02/2021 19:12,02/02/2021 19:12,Pay Bill from 254715742045 - FRIDAH KIEMA Acc. HGC,Completed,9500,,81250,TRUE,Pay Utility with OD via STK,254715742045 - FRIDAH KIEMA,,HGC
PB299E6RAX,02/02/2021 16:14,02/02/2021 16:14,Pay Bill from 254704682516 - Winnie Akinyi Omollo Acc. fda,Completed,17000,,71750,TRUE,Pay Utility,254704682516 - Winnie Akinyi Omollo,,fda
PB299CODMJ,02/02/2021 15:39,02/02/2021 15:39,Pay Bill Online from 254715892656 - DENNIS MUSYOKA MUOKI Acc. KFA,Completed,16000,,54750,TRUE,Pay Bill Online,254715892656 - DENNIS MUSYOKA MUOKI,,KFA
PB299C4WQ1,02/02/2021 15:26,02/02/2021 15:26,Pay Bill from 254718284151 - EVERLINE MATHEKA Acc. JAG,Completed,10000,,38750,TRUE,Pay Utility,254718284151 - EVERLINE MATHEKA,,JAG
PB2395A3GZ,02/02/2021 12:44,02/02/2021 12:44,Pay Bill from 254716702294 - DANIEL MULATI Acc. KBE,Completed,3250,,28750,TRUE,Pay Utility,254716702294 - DANIEL MULATI,,KBE
PB2794QCGZ,02/02/2021 12:32,02/02/2021 12:32,Pay Bill Online from 254717809935 - LYDIAH WERU Acc. idc,Completed,9500,,25500,TRUE,Pay Bill Online,254717809935 - LYDIAH WERU,,idc
PB2093RN1W,02/02/2021 12:09,02/02/2021 12:09,Pay Bill from 254712461449 - CAROLINE MUTHONI GICHOHI Acc. fca,Completed,16000,,16000,TRUE,Pay Utility,254712461449 - CAROLINE MUTHONI GICHOHI,,fca
PB2190HSCZ,02/02/2021 10:51,02/02/2021 10:51,Utility Account to Organization Settlement Account,Completed,,-43000,0,TRUE,Utility Account to Organization Settlement Account,979524 - ANCIENT WELLS PROPERTY MANAGERS 2,,
PB298WSYRZ,02/02/2021 09:21,02/02/2021 09:21,Pay Bill from 0798660933 - JOSEPH NEWTON GUNI Acc. IAI,Completed,15000,,43000,TRUE,Pay Utility,0798660933 - JOSEPH NEWTON GUNI,,IAI
PB208VFYKM,02/02/2021 08:44,02/02/2021 08:44,Pay Bill from 254716581384 - GREGORY KILUNGYA Acc. DAD,Completed,20000,,28000,TRUE,Pay Utility,254716581384 - GREGORY KILUNGYA,,DAD
PB208SJBJ0,02/02/2021 07:02,02/02/2021 07:02,Pay Bill from 254718009051 - STEPHEN OMOLLO Acc. JDF,Completed,8000,,8000,TRUE,Pay Utility with OD via STK,254718009051 - STEPHEN OMOLLO,,JDF
PB118QOLNJ,01/02/2021 23:24,01/02/2021 23:24,Utility Account to Organization Settlement Account,Completed,,-399500,0,TRUE,Utility Account to Organization Settlement Account,979524 - ANCIENT WELLS PROPERTY MANAGERS 2,,
PB108OV4SU,01/02/2021 21:48,01/02/2021 21:48,Pay Bill from 254708619274 - BONIFACE MUTUA Acc. JFB,Completed,14000,,399500,TRUE,Pay Utility,254708619274 - BONIFACE MUTUA,,JFB
PB158OU9IV,01/02/2021 21:47,01/02/2021 21:47,Pay Bill from 254700187806 - WINNIE OLIVIA AKOTH Acc. JEC,Completed,10000,,385500,TRUE,Pay Utility,254700187806 - WINNIE OLIVIA AKOTH,,JEC
PB128LS7Y4,01/02/2021 20:38,01/02/2021 20:38,Pay Bill Online from 254705951407 - CAROLINE WAITHIRA KAMAU Acc. IDH,Completed,16000,,375500,TRUE,Pay Bill Online,254705951407 - CAROLINE WAITHIRA KAMAU,,IDH
PB158KVXEJ,01/02/2021 20:23,01/02/2021 20:23,Pay Bill from 254721417560 - ANDREW SANDE Acc. JBJ,Completed,16000,,359500,TRUE,Pay Utility,254721417560 - ANDREW SANDE,,JBJ
PB128JX8V8,01/02/2021 20:07,01/02/2021 20:07,Pay Bill from 254714578986 - EZEKIEL MULUNGYE Acc. hac,Completed,21000,,343500,TRUE,Pay Utility,254714578986 - EZEKIEL MULUNGYE,,hac
PB188H2HBI,01/02/2021 19:28,01/02/2021 19:28,Pay Bill from 254713205244 - ROBERT OGALO Acc. KBH,Completed,21000,,322500,TRUE,Pay Utility,254713205244 - ROBERT OGALO,,KBH
PB198G9ANN,01/02/2021 19:17,01/02/2021 19:17,Pay Bill Online from 254726001437 - FESTUS MUNYIRI MAINA Acc. Iff,Completed,10000,,301500,TRUE,Pay Bill Online,254726001437 - FESTUS MUNYIRI MAINA,,Iff
PB128ENKZ2,01/02/2021 18:54,01/02/2021 18:54,Pay Bill Online from 254715400042 - BETHUEL WACHITE Acc. HFG,Completed,15000,,291500,TRUE,Pay Bill Online,254715400042 - BETHUEL WACHITE,,HFG
PB138E4DC7,01/02/2021 18:46,01/02/2021 18:46,Pay Bill from 254714814264 - PATRICIA NZOMO Acc. Hcc,Completed,10000,,276500,TRUE,Pay Utility,254714814264 - PATRICIA NZOMO,,Hcc
PB138DPGY7,01/02/2021 18:39,01/02/2021 18:39,Pay Bill from 254726753273 - JESSE K MURIRMI NJERU Acc. HCH,Completed,17000,,266500,TRUE,Pay Utility,254726753273 - JESSE K MURIRMI NJERU,,HCH
PB108CJ6KK,01/02/2021 18:20,01/02/2021 18:20,Pay Bill Online from 254718299426 - AMOS NGURE MWANGI Acc. HEE,Completed,10500,,249500,TRUE,Pay Bill Online,254718299426 - AMOS NGURE MWANGI,,HEE
PB198AU5RT,01/02/2021 17:51,01/02/2021 17:51,Pay Bill from 254740579741 - MUHINDI MULINYA Acc. HGG,Completed,28000,,239000,TRUE,Pay Utility,254740579741 - MUHINDI MULINYA,,HGG
PB19875YLT,01/02/2021 16:40,01/02/2021 16:40,Pay Bill Online from 254711724272 - EDMOND ONYANGO OKEWE Acc. FCB,Completed,16000,,211000,TRUE,Pay Bill Online,254711724272 - EDMOND ONYANGO OKEWE,,FCB
PB1986GJKF,01/02/2021 16:26,01/02/2021 16:26,Pay Bill from 254700374335 - HYLINE ONDARI Acc. KTE,Completed,9500,,195000,TRUE,Pay Utility,254700374335 - HYLINE ONDARI,,KTE
PB12863EDS,01/02/2021 16:18,01/02/2021 16:18,Pay Bill from 254720249209 - WILFRED NJUGUNA WANJIRA Acc. DDD,Completed,60000,,185500,TRUE,Pay Utility,254720249209 - WILFRED NJUGUNA WANJIRA,,DDD
PB1684VQVG,01/02/2021 15:51,01/02/2021 15:51,Pay Bill Online from 254723930071 - AMOS KITAVI KIVITE Acc. JCE,Completed,19000,,125500,TRUE,Pay Bill Online,254723930071 - AMOS KITAVI KIVITE,,JCE
PB187X1GRE,01/02/2021 12:50,01/02/2021 12:50,Pay Bill from 254724559756 - DUNCAN OMONDI OGOLA Acc. HBE,Completed,15000,,106500,TRUE,Pay Utility,254724559756 - DUNCAN OMONDI OGOLA,,HBE
PB107W5GSW,01/02/2021 12:28,01/02/2021 12:28,Pay Bill from 254707551286 - BENSON NJUGUNA WANGARI Acc. kfi,Completed,12000,,91500,TRUE,Pay Utility,254707551286 - BENSON NJUGUNA WANGARI,,kfi
PB117V1HZF,01/02/2021 12:02,01/02/2021 12:02,Pay Bill from 254721538323 - ISSA ISACK GOLLO Acc. DCC For February2021,Completed,20000,,79500,TRUE,Pay Utility,254721538323 - ISSA ISACK GOLLO,,DCC
PB147QUH54,01/02/2021 10:22,01/02/2021 10:22,Pay Bill from 254708786932 - ZUBEDAH MOHAMMED Acc. IAG,Completed,9500,,59500,TRUE,Pay Utility,254708786932 - ZUBEDAH MOHAMMED,,IAG
PB127PX2A0,01/02/2021 09:59,01/02/2021 09:59,Pay Bill from 254710814215 - JOAN NYAMBURA KAMAU Acc. IFB,Completed,8000,,50000,TRUE,Pay Utility,254710814215 - JOAN NYAMBURA KAMAU,,IFB
PB167P74DA,01/02/2021 09:41,01/02/2021 09:41,Pay Bill Online from 254795510441 - LEWIS MUEMA Acc. KEB,Completed,16000,,42000,TRUE,Pay Bill Online,254795510441 - LEWIS MUEMA,,KEB
PB187MHIAE,01/02/2021 08:28,01/02/2021 08:28,Pay Bill from 254714855708 - KIPLANGAT SITIENEI Acc. FAE,Completed,16000,,26000,TRUE,Pay Utility,254714855708 - KIPLANGAT SITIENEI,,FAE
PB127LNBSW,01/02/2021 08:03,01/02/2021 08:03,Pay Bill from 254716784364 - Wendy Kemunto Nyandiko Acc. FFC,Completed,9000,,10000,TRUE,Pay Utility,254716784364 - Wendy Kemunto Nyandiko,,FFC
PB187I28QC,01/02/2021 00:40,01/02/2021 00:40,Pay Bill from 254703935626 - DAVID NGARI ITA Acc. FCD,Completed,1000,,1000,TRUE,Pay Utility with OD via STK,254703935626 - DAVID NGARI ITA,,FCD
