Receipt No.,Completion Time,Initiation Time,Details,Transaction Status,Paid In,Withdrawn,Balance,Balance Confirmed,Reason Type,Other Party Info,Linked Transaction ID,A/C No.
RIJ661A3RE,19/09/2023 08:47,19/09/2023 08:47,Pay Bill Online from 254715939283 - alex nyamai Acc. v7,Completed,600,,4600,TRUE,Pay Bill Online,254715939283 - alex nyamai,,v7
RII14NSAJR,18/09/2023 18:15,18/09/2023 18:15,Pay Bill from 254717294709 - CAROLINE WAVINYA NDINDA Acc. v15,Completed,1000,,4000,TRUE,Pay Utility,254717294709 - CAROLINE WAVINYA NDINDA,,v15
RII92RQYSH,18/09/2023 07:06,18/09/2023 07:06,Pay Bill from 254701174081 - JOSEPHINE ODUOR Acc. v34,Completed,3000,,3000,TRUE,Pay Utility,254701174081 - JOSEPHINE ODUOR,,v34
RIG3YDDT3L,16/09/2023 20:48,16/09/2023 20:48,Utility Account to Organization Settlement Account,Completed,,-2400,0,TRUE,Utility Account to Organization Settlement Account,887674 - ANCIENT WELLS LTD 1,,
RIG6Y66QH2,16/09/2023 19:58,16/09/2023 19:58,Pay Bill from 0703406243 - LEVITAN    SHALIMBA Acc. vk3,Completed,2400,,2400,TRUE,Pay Utility,0703406243 - LEVITAN    SHALIMBA,,vk3
RIG2W5TKDI,16/09/2023 10:14,16/09/2023 10:14,Utility Account to Organization Settlement Account,Completed,,-1000,0,TRUE,Utility Account to Organization Settlement Account,887674 - ANCIENT WELLS LTD 1,,
RIG1VR65XJ,16/09/2023 07:27,16/09/2023 07:27,Pay Bill from 254717294709 - CAROLINE WAVINYA NDINDA Acc. v15,Completed,1000,,1000,TRUE,Pay Utility,254717294709 - CAROLINE WAVINYA NDINDA,,v15
RIF1U9OPU3,15/09/2023 17:24,15/09/2023 17:24,Utility Account to Organization Settlement Account,Completed,,-18000,0,TRUE,Utility Account to Organization Settlement Account,887674 - ANCIENT WELLS LTD 1,,
RIF1TWBFA9,15/09/2023 15:29,15/09/2023 15:29,Pay Bill Online from 254727457630 - martha osare awinja Acc. V31,Completed,7000,,18000,TRUE,Pay Bill Online,254727457630 - martha osare awinja,,V31
RIF7TB0QJH,15/09/2023 12:09,15/09/2023 12:09,Pay Bill from 0742753405 - esther luseno Wefunya Acc. V35,Completed,4000,,11000,TRUE,Pay Utility with OD via STK,0742753405 - esther luseno Wefunya,,V35
RIF7SQMCYP,15/09/2023 08:40,15/09/2023 08:40,Pay Bill from 254791573608 - MICHELLE KARANJA Acc. V50,Completed,7000,,7000,TRUE,Pay Utility,254791573608 - MICHELLE KARANJA,,V50
RID3NUWOHH,13/09/2023 15:49,13/09/2023 15:49,Utility Account to Organization Settlement Account,Completed,,-150600,0,TRUE,Utility Account to Organization Settlement Account,887674 - ANCIENT WELLS LTD 1,,
RID6N1WK1O,13/09/2023 11:01,13/09/2023 11:01,Pay Bill Online from 254722322483 - BERNICE WARINGA MSHILLA Acc. A3,Completed,130000,,150600,TRUE,Pay Bill Online,254722322483 - BERNICE WARINGA MSHILLA,,A3
RIC9LIA7JJ,12/09/2023 18:52,12/09/2023 18:52,Pay Bill Online from 254706427665 - CHRIS KIRIMI Acc. v22,Completed,14000,,20600,TRUE,Pay Bill Online,254706427665 - CHRIS KIRIMI,,v22
RIC1LI492R,12/09/2023 18:51,12/09/2023 18:51,Pay Bill from 254712091662 - BENARD OMONDI ROBY Acc. V16,Completed,6600,,6600,TRUE,Pay Utility,254712091662 - BENARD OMONDI ROBY,,V16
RIC2LAH9WI,12/09/2023 18:01,12/09/2023 18:01,Utility Account to Organization Settlement Account,Completed,,-24600,0,TRUE,Utility Account to Organization Settlement Account,887674 - ANCIENT WELLS LTD 1,,
RIC3L9O0TP,12/09/2023 17:55,12/09/2023 17:55,Pay Bill from 254700085051 - HUMPHREY WANJIKU Acc. v46,Completed,6600,,24600,TRUE,Pay Utility,254700085051 - HUMPHREY WANJIKU,,v46
RIC5K930VR,12/09/2023 12:18,12/09/2023 12:18,Pay Bill from 254701174081 - JOSEPHINE ODUOR Acc. v34,Completed,2000,,18000,TRUE,Pay Utility,254701174081 - JOSEPHINE ODUOR,,v34
RIB8IGKBE4,11/09/2023 18:51,11/09/2023 18:51,Pay Bill from 254729806880 - Eunice Akinyi Were Acc. V33,Completed,7000,,16000,TRUE,Pay Utility,254729806880 - Eunice Akinyi Were,,V33
RIB8ICQ9SU,11/09/2023 18:27,11/09/2023 18:27,Pay Bill from 254720466443 - FATUMA MOHAMED ABDALLAH Acc. V21,Completed,7000,,9000,TRUE,Pay Utility,254720466443 - FATUMA MOHAMED ABDALLAH,,V21
RIB4IAE3TA,11/09/2023 18:11,11/09/2023 18:11,Pay Bill from 0707674271 - Victor   Mwilu Acc. v37,Completed,2000,,2000,TRUE,Pay Utility,0707674271 - Victor   Mwilu,,v37
RIB8HZXU1M,11/09/2023 16:51,11/09/2023 16:51,Utility Account to Organization Settlement Account,Completed,,-6500,0,TRUE,Utility Account to Organization Settlement Account,887674 - ANCIENT WELLS LTD 1,,
RIB4HZRI4I,11/09/2023 16:50,11/09/2023 16:50,Pay Bill from 0743262596 - EMILY ADHIAMBO OTIENO Acc. V58,Completed,3500,,6500,TRUE,Pay Utility,0743262596 - EMILY ADHIAMBO OTIENO,,V58
RIB2HWNC62,11/09/2023 16:22,11/09/2023 16:22,Pay Bill from 254701174081 - JOSEPHINE ODUOR Acc. v34,Completed,3000,,3000,TRUE,Pay Utility,254701174081 - JOSEPHINE ODUOR,,v34
RIB2GBFK50,11/09/2023 05:18,11/09/2023 05:18,Utility Account to Organization Settlement Account,Completed,,-93100,0,TRUE,Utility Account to Organization Settlement Account,887674 - ANCIENT WELLS LTD 1,,
RIA4FPMQYW,10/09/2023 19:49,10/09/2023 19:49,Pay Bill from 0115365438 - zibborah nzilani maundu Acc. V48,Completed,7000,,93100,TRUE,Pay Utility,0115365438 - zibborah nzilani maundu,,V48
RIA2F20QZO,10/09/2023 16:58,10/09/2023 16:58,Pay Bill from 254707690557 - GRACE KARWITHA SAFARI Acc. V60,Completed,7000,,86100,TRUE,Pay Utility with OD via STK,254707690557 - GRACE KARWITHA SAFARI,,V60
RIA0EX3RDA,10/09/2023 16:14,10/09/2023 16:14,Pay Bill from 254759313176 - christine ajwang barasa Acc. vk1,Completed,2500,,79100,TRUE,Pay Utility,254759313176 - christine ajwang barasa,,vk1
RIA7EVUW9B,10/09/2023 16:02,10/09/2023 16:02,Pay Bill from 254717294709 - CAROLINE WAVINYA NDINDA Acc. v15,Completed,1000,,76600,TRUE,Pay Utility,254717294709 - CAROLINE WAVINYA NDINDA,,v15
RIA2EFJVXA,10/09/2023 13:23,10/09/2023 13:23,Pay Bill from 254703135064 - KENNEDY GEORGE Acc. V26,Completed,7000,,75600,TRUE,Pay Utility,254703135064 - KENNEDY GEORGE,,V26
RI95D9D8FR,09/09/2023 21:58,09/09/2023 21:58,Pay Bill from 0795807227 - Lucy Ncekei Kimathi Acc. V36 ,Completed,6600,,68600,TRUE,Pay Utility,0795807227 - Lucy Ncekei Kimathi,,V36
RI93D2OJWN,09/09/2023 20:53,09/09/2023 20:53,Pay Bill from 0707674271 - Victor   Mwilu Acc. v37,Completed,3500,,62000,TRUE,Pay Utility,0707674271 - Victor   Mwilu,,v37
RI94C6S7FG,09/09/2023 17:19,09/09/2023 17:19,Pay Bill from 0112066814 - JOHN AMBAISI ANUNDA Acc. V53,Completed,7000,,58500,TRUE,Pay Utility with OD via STK,0112066814 - JOHN AMBAISI ANUNDA,,V53
RI99C2CJUJ,09/09/2023 16:44,09/09/2023 16:44,Pay Bill Online from 254715939283 - alex nyamai Acc. v07,Completed,3000,,51500,TRUE,Pay Bill Online,254715939283 - alex nyamai,,v07
RI91BG1FIF,09/09/2023 13:26,09/09/2023 13:26,Pay Bill from 254729358258 - Cliff Ombasa Acc. V05,Completed,7500,,48500,TRUE,Pay Utility,254729358258 - Cliff Ombasa,,V05
RI86A6OOXO,08/09/2023 22:19,08/09/2023 22:19,Pay Bill from 254723688790 - HILLARY KIBET MUTAI Acc. vo8 ,Completed,7000,,41000,TRUE,Pay Utility,254723688790 - HILLARY KIBET MUTAI,,vo8
RI8595DPCL,08/09/2023 17:42,08/09/2023 17:42,Pay Bill from 254724525238 - Immacurate Kemunto Ombasa Acc. V45,Completed,6000,,34000,TRUE,Pay Utility,254724525238 - Immacurate Kemunto Ombasa,,V45
RI808CWPMG,08/09/2023 13:37,08/09/2023 13:37,Pay Bill from 254702495335 - IMMACULATE ATIENO KAGORO Acc. V53,Completed,17500,,28000,TRUE,Pay Utility,254702495335 - IMMACULATE ATIENO KAGORO,,V53
RI818BFZ57,08/09/2023 13:24,08/09/2023 13:24,Pay Bill from 0704346708 - WENDY GLADYS ADIENGE Acc. V17,Completed,10500,,10500,TRUE,Pay Utility,0704346708 - WENDY GLADYS ADIENGE,,V17
RI847N5O3M,08/09/2023 09:25,08/09/2023 09:25,Utility Account to Organization Settlement Account,Completed,,-110850,0,TRUE,Utility Account to Organization Settlement Account,887674 - ANCIENT WELLS LTD 1,,
RI847MALY0,08/09/2023 09:16,08/09/2023 09:16,Pay Bill Online from 254704199700 - JOYCE ACHIENG OWAGA Acc. T29,Completed,55000,,110850,TRUE,Pay Bill Online,254704199700 - JOYCE ACHIENG OWAGA,,T29
RI7575FJ3V,07/09/2023 23:28,07/09/2023 23:28,Pay Bill from 0769858701 - DOLLARS DANIEL CIRHUZA Acc. V09,Completed,7000,,55850,TRUE,Pay Utility,0769858701 - DOLLARS DANIEL CIRHUZA,,V09
RI735WKRJ5,07/09/2023 16:50,07/09/2023 16:50,Pay Bill from 254721399197 - KANDAGOR ISAAC Acc. V39,Completed,28000,,48850,TRUE,Pay Utility,254721399197 - KANDAGOR ISAAC,,V39
RI715A72VL,07/09/2023 13:20,07/09/2023 13:20,Pay Bill from 0112066814 - JOHN AMBAISI ANUNDA Acc. V53,Completed,10000,,20850,TRUE,Pay Utility with OD via STK,0112066814 - JOHN AMBAISI ANUNDA,,V53
RI7559S94Z,07/09/2023 13:16,07/09/2023 13:16,Pay Bill from 254706613908 - joseph mbugua karumbi Acc. V45,Completed,3500,,10850,TRUE,Pay Utility,254706613908 - joseph mbugua karumbi,,V45
RI754S3W5X,07/09/2023 10:23,07/09/2023 10:23,Pay Bill from 0729382149 - SYLVIA NABALAYO MASABULE Acc. v30,Completed,7350,,7350,TRUE,Pay Utility,0729382149 - SYLVIA NABALAYO MASABULE,,v30
RI6537Y335,06/09/2023 18:36,06/09/2023 18:36,Utility Account to Organization Settlement Account,Completed,,-7000,0,TRUE,Utility Account to Organization Settlement Account,887674 - ANCIENT WELLS LTD 1,,
RI652G1CYF,06/09/2023 14:42,06/09/2023 14:42,Pay Bill from 0704346708 - WENDY GLADYS ADIENGE Acc. V17,Completed,7000,,7000,TRUE,Pay Utility,0704346708 - WENDY GLADYS ADIENGE,,V17
RI651DBHA3,06/09/2023 08:18,06/09/2023 08:18,Utility Account to Organization Settlement Account,Completed,,-72200,0,TRUE,Utility Account to Organization Settlement Account,887674 - ANCIENT WELLS LTD 1,,
RI5311HHO3,05/09/2023 23:40,05/09/2023 23:40,Pay Bill from 254703232096 - KEVIN MAINA Acc. V51,Completed,7000,,72200,TRUE,Pay Utility,254703232096 - KEVIN MAINA,,V51
RI54ZQGGD8,05/09/2023 21:00,05/09/2023 21:00,Pay Bill from 254722578070 - SAMUEL MACHARIA Acc. v42,Completed,7000,,65200,TRUE,Pay Utility,254722578070 - SAMUEL MACHARIA,,v42
RI55ZJZ1HX,05/09/2023 20:13,05/09/2023 20:13,Pay Bill from 0729277890 - HALIMA MOHAMED EDIN Acc. V03,Completed,7000,,58200,TRUE,Pay Utility,0729277890 - HALIMA MOHAMED EDIN,,V03
RI59ZIYRYL,05/09/2023 20:06,05/09/2023 20:06,Pay Bill from 254717294709 - CAROLINE WAVINYA NDINDA Acc. v15,Completed,1000,,51200,TRUE,Pay Utility,254717294709 - CAROLINE WAVINYA NDINDA,,v15
RI59Z9E1WN,05/09/2023 19:10,05/09/2023 19:10,Pay Bill Online from 254720057303 - PAUL NJOROGE KIMANI Acc. V13,Completed,7000,,50200,TRUE,Pay Utility with OD Online,254720057303 - PAUL NJOROGE KIMANI,,V13
RI59YKDOBH,05/09/2023 16:07,05/09/2023 16:07,Pay Bill from 0714747222 - WILSON KIMANI MWANGI Acc. v25,Completed,7000,,43200,TRUE,Pay Utility with OD via STK,0714747222 - WILSON KIMANI MWANGI,,v25
RI50YBWP0I,05/09/2023 14:46,05/09/2023 14:46,Pay Bill from 254791023764 - ISAIAH OMODING Acc. V49,Completed,7000,,36200,TRUE,Pay Utility,254791023764 - ISAIAH OMODING,,V49
RI55XQH4M3,05/09/2023 11:21,05/09/2023 11:21,Pay Bill from 254715309540 - HILLARY   AKHANYISI Acc. V19,Completed,7600,,29200,TRUE,Pay Utility,254715309540 - HILLARY   AKHANYISI,,V19
RI52XMIS88,05/09/2023 10:44,05/09/2023 10:44,Pay Bill from 0748045445 - Hellen tsikhabi naphtal Acc. V11,Completed,7000,,21600,TRUE,Pay Utility,0748045445 - Hellen tsikhabi naphtal,,V11
RI59X7AKB3,05/09/2023 08:03,05/09/2023 08:03,Pay Bill from 254723815832 - SEMEKIA ONDIALA Acc. v38,Completed,6600,,14600,TRUE,Pay Utility,254723815832 - SEMEKIA ONDIALA,,v38
RI57WYBUQ9,05/09/2023 01:22,05/09/2023 01:22,Pay Bill Online from 254729569271 - MESHACK OBOTTA OBARE Acc. V12,Completed,8000,,8000,TRUE,Pay Utility with OD Online,254729569271 - MESHACK OBOTTA OBARE,,V12
RI40VH2PX2,04/09/2023 16:17,04/09/2023 16:17,Utility Account to Organization Settlement Account,Completed,,-16400,0,TRUE,Utility Account to Organization Settlement Account,887674 - ANCIENT WELLS LTD 1,,
RI47VAN3CD,04/09/2023 15:17,04/09/2023 15:17,Pay Bill from 0746542458 - Hannah   Naliaka Acc. V23,Completed,6600,,16400,TRUE,Pay Utility,0746542458 - Hannah   Naliaka,,V23
RI48V8B74C,04/09/2023 14:55,04/09/2023 14:55,Pay Bill from 254724227777 - ANTONY IRUNGU KARIUKI Acc. V41,Completed,9800,,9800,TRUE,Pay Utility,254724227777 - ANTONY IRUNGU KARIUKI,,V41
RI40V852WM,04/09/2023 14:53,04/09/2023 14:53,Utility Account to Organization Settlement Account,Completed,,-2000,0,TRUE,Utility Account to Organization Settlement Account,887674 - ANCIENT WELLS LTD 1,,
RI45UL6GXJ,04/09/2023 11:17,04/09/2023 11:17,Pay Bill from 254717294709 - CAROLINE WAVINYA NDINDA Acc. v15,Completed,2000,,2000,TRUE,Pay Utility,254717294709 - CAROLINE WAVINYA NDINDA,,v15
RI34TN8WD4,03/09/2023 22:10,03/09/2023 22:10,Utility Account to Organization Settlement Account,Completed,,-13800,0,TRUE,Utility Account to Organization Settlement Account,887674 - ANCIENT WELLS LTD 1,,
RI37TEL0DP,03/09/2023 20:45,03/09/2023 20:45,Pay Bill Online from 254791251803 - JOHN PAUL OGWANGI Acc. V14,Completed,6800,,13800,TRUE,Pay Bill Online,254791251803 - JOHN PAUL OGWANGI,,V14
RI31SXOL0Z,03/09/2023 18:45,03/09/2023 18:45,Pay Bill Online from 254702118125 - ROTICH BETHWEL Acc. V20,Completed,7000,,7000,TRUE,Pay Bill Online,254702118125 - ROTICH BETHWEL,,V20
RI37SVPLNT,03/09/2023 18:31,03/09/2023 18:31,Utility Account to Organization Settlement Account,Completed,,-24100,0,TRUE,Utility Account to Organization Settlement Account,887674 - ANCIENT WELLS LTD 1,,
RI35S873NL,03/09/2023 15:12,03/09/2023 15:12,Pay Bill from 254740157844 - LINA WANGUI MWANIKI Acc. v28,Completed,17500,,24100,TRUE,Pay Utility,254740157844 - LINA WANGUI MWANIKI,,v28
RI35RNAWH1,03/09/2023 11:38,03/09/2023 11:38,Pay Bill Online from 254720056285 - DAMARIS NDURU Acc. V18,Completed,6600,,6600,TRUE,Pay Bill Online,254720056285 - DAMARIS NDURU,,V18
RI24P6Q250,02/09/2023 15:14,02/09/2023 15:14,Utility Account to Organization Settlement Account,Completed,,-139800,0,TRUE,Utility Account to Organization Settlement Account,887674 - ANCIENT WELLS LTD 1,,
RI27P52XH5,02/09/2023 14:59,02/09/2023 14:59,Pay Bill Online from 254721803652 - STEPHEN MUSEE Acc. A6,Completed,138000,,139800,TRUE,Pay Bill Online,254721803652 - STEPHEN MUSEE,,A6
RI26OVSM4W,02/09/2023 13:38,02/09/2023 13:38,Pay Bill from 254706731390 - ELIZABETH Otieno Acc. V06,Completed,1800,,1800,TRUE,Pay Utility,254706731390 - ELIZABETH Otieno,,V06
RI24O2X2US,02/09/2023 09:03,02/09/2023 09:03,Utility Account to Organization Settlement Account,Completed,,-38600,0,TRUE,Utility Account to Organization Settlement Account,887674 - ANCIENT WELLS LTD 1,,
RI14N3E61M,01/09/2023 20:09,01/09/2023 20:09,Pay Bill from 254729794842 - sirma yatich Acc. vk4,Completed,3500,,38600,TRUE,Pay Utility,254729794842 - sirma yatich,,vk4
RI12MV2GEM,01/09/2023 19:20,01/09/2023 19:20,Pay Bill from 0743262596 - EMILY ADHIAMBO OTIENO Acc. V58,Completed,4000,,35100,TRUE,Pay Utility,0743262596 - EMILY ADHIAMBO OTIENO,,V58
RI12M2KXZA,01/09/2023 15:56,01/09/2023 15:56,Pay Bill from 0707077137 - samuel maundu mwanzia Acc. V57,Completed,7000,,31100,TRUE,Pay Utility,0707077137 - samuel maundu mwanzia,,V57
RI14LOPM66,01/09/2023 13:48,01/09/2023 13:48,FSI to Pay Bill by 3033815 - LOOP B2C. Acc. V40 via WEB by LOOP B2C.\TRINITYAPI,Completed,6600,,24100,TRUE,FSI to Pay Bill via API,3033815 - LOOP B2C.,,V40
RI16LMDICK,01/09/2023 13:27,01/09/2023 13:27,Pay Bill Online from 254722808623 - SUSAN OCHIENG' Acc. V56,Completed,17500,,17500,TRUE,Pay Utility with OD Online,254722808623 - SUSAN OCHIENG',,V56
RI17L569HT,01/09/2023 10:41,01/09/2023 10:41,Utility Account to Organization Settlement Account,Completed,,-14000,0,TRUE,Utility Account to Organization Settlement Account,887674 - ANCIENT WELLS LTD 1,,
RI13KY63A5,01/09/2023 09:31,01/09/2023 09:31,Pay Bill from 254722219253 - DAVID NJOGU Acc. v32,Completed,7000,,14000,TRUE,Pay Utility,254722219253 - DAVID NJOGU,,v32
RI17KXMI63,01/09/2023 09:25,01/09/2023 09:25,Pay Bill from 254724882610 - ALINOOR IBRAHIM Acc. v52,Completed,7000,,7000,TRUE,Pay Utility,254724882610 - ALINOOR IBRAHIM,,v52
