Receipt No.,Completion Time,Initiation Time,Details,Transaction Status,Paid In,Withdrawn,Balance,Balance Confirmed,Reason Type,Other Party Info,Linked Transaction ID,A/C No.
SFI9UGFA9J,18/06/2024 11:08,18/06/2024 11:08,Pay Bill Online from 254720***214 - SAMUEL *** Acc. B3,Completed,1000,,9500,TRUE,Pay Utility with OD Online,254720***214 - SAMUEL ***,,B3
SFI8U3AMFI,18/06/2024 09:11,18/06/2024 09:11,Pay Bill from 254707***121 - JOHNSTONE *** Acc. b4,Completed,8500,,8500,TRUE,Pay Utility with OD via STK,254707***121 - JOHNSTONE ***,,b4
SFF2L1EI94,15/06/2024 17:13,15/06/2024 17:13,Utility Account to Organization Settlement Account,Completed,,-16500,0,TRUE,Utility Account to Organization Settlement Account,887075 - ANCIENT WELLS LTD 3,,
SFF2J9HNLI,15/06/2024 08:29,15/06/2024 08:29,Pay Bill from 074871***970 - judith *** Acc. E5,Completed,8500,,16500,TRUE,Pay Utility,074871***970 - judith ***,,E5
SFE2I6PC3I,14/06/2024 20:15,14/06/2024 20:15,Pay Bill from 071934***205 - Christabel *** Acc. D1,Completed,8000,,8000,TRUE,Pay Utility,071934***205 - Christabel ***,,D1
SFD9BQNSLZ,13/06/2024 08:31,13/06/2024 08:31,Utility Account to Organization Settlement Account,Completed,,-71500,0,TRUE,Utility Account to Organization Settlement Account,887075 - ANCIENT WELLS LTD 3,,
SFC19F60B5,12/06/2024 15:33,12/06/2024 15:33,Pay Bill from 074551***938 - MARION *** Acc. A2,Completed,20000,,71500,TRUE,Pay Utility,074551***938 - MARION ***,,A2
SFC999IW8D,12/06/2024 14:45,12/06/2024 14:45,Pay Bill Online from 254703***849 - ROYAL *** Acc. F2,Completed,8000,,51500,TRUE,Pay Bill Online,254703***849 - ROYAL ***,,F2
SFB66AL6GW,11/06/2024 17:58,11/06/2024 17:58,Pay Bill Online from 074028***700 - SERAH *** Acc. c4serahmukulu,Completed,8500,,43500,TRUE,Pay Utility with OD Online,074028***700 - SERAH ***,,c4serahmukulu
SFB564806B,11/06/2024 17:18,11/06/2024 17:18,Pay Bill from 254720***157 - BENSON *** Acc. b6,Completed,8500,,35000,TRUE,Pay Utility,254720***157 - BENSON ***,,b6
SFB047VBU2,11/06/2024 07:55,11/06/2024 07:55,Pay Bill from 072977***299 - WAMBUA *** Acc. c1,Completed,1000,,26500,TRUE,Pay Utility,072977***299 - WAMBUA ***,,c1
SF92XEZUXC,09/06/2024 15:46,09/06/2024 15:46,Pay Bill from 254727***857 - PETER *** Acc. Peter Ngundo e6 ,Completed,8500,,25500,TRUE,Pay Utility,254727***857 - PETER ***,,Peter Ngundo e6 
SF93WN5A53,09/06/2024 11:56,09/06/2024 11:56,Pay Bill from 254710***036 - Allan *** Acc. F5,Completed,8500,,17000,TRUE,Pay Utility,254710***036 - Allan ***,,F5
SF82S9FCBW,08/06/2024 08:29,08/06/2024 08:29,Pay Bill from 074632***646 - OTIENO *** Acc. D6,Completed,8500,,8500,TRUE,Pay Utility,074632***646 - OTIENO ***,,D6
SF79PWR4TH,07/06/2024 15:35,07/06/2024 15:35,Utility Account to Organization Settlement Account,Completed,,-8000,0,TRUE,Utility Account to Organization Settlement Account,887075 - ANCIENT WELLS LTD 3,,
SF73PU5VEX,07/06/2024 15:15,07/06/2024 15:15,Pay Bill from 071503***019 - Omwenga *** Acc. E1,Completed,8000,,8000,TRUE,Pay Utility,071503***019 - Omwenga ***,,E1
SF76PQGKD6,07/06/2024 14:47,07/06/2024 14:47,Utility Account to Organization Settlement Account,Completed,,-74500,0,TRUE,Utility Account to Organization Settlement Account,887075 - ANCIENT WELLS LTD 3,,
SF73OO7HO7,07/06/2024 09:45,07/06/2024 09:45,Pay Bill from 072057***944 - Ronoh *** Acc. D2,Completed,8000,,74500,TRUE,Pay Utility,072057***944 - Ronoh ***,,D2
SF67MQJP8H,06/06/2024 18:20,06/06/2024 18:20,Pay Bill from 254792***730 - kevin *** Acc. F3,Completed,8000,,66500,TRUE,Pay Utility,254792***730 - kevin ***,,F3
SF65LLJT5Z,06/06/2024 13:24,06/06/2024 13:24,Pay Bill from 254714***834 - FAITH *** Acc. D4,Completed,8500,,58500,TRUE,Pay Utility,254714***834 - FAITH ***,,D4
SF69LK71BJ,06/06/2024 13:14,06/06/2024 13:14,Pay Bill from 070888***932 - Annfaith *** Acc. C3,Completed,8000,,50000,TRUE,Pay Utility,070888***932 - Annfaith ***,,C3
SF60L8YGF6,06/06/2024 11:44,06/06/2024 11:44,Pay Bill from 072977***299 - WAMBUA *** Acc. c1,Completed,1000,,42000,TRUE,Pay Utility,072977***299 - WAMBUA ***,,c1
SF64KZTWR6,06/06/2024 10:29,06/06/2024 10:29,Pay Bill from 079156***463 - Lilian *** Acc. F6,Completed,8500,,41000,TRUE,Pay Utility,079156***463 - Lilian ***,,F6
SF60KJ075E,06/06/2024 07:57,06/06/2024 07:57,Pay Bill Online from 254715***093 - GICHANA *** Acc. E3,Completed,8000,,32500,TRUE,Pay Bill Online,254715***093 - GICHANA ***,,E3
SF50JHEBYK,05/06/2024 20:00,05/06/2024 20:00,Pay Bill from 074180***396 - JAMES *** Acc. B5,Completed,8500,,24500,TRUE,Pay Utility,074180***396 - JAMES ***,,B5
SF54HC8YW6,05/06/2024 11:21,05/06/2024 11:21,Pay Bill from 254792***122 - MWENDWA *** Acc. B1,Completed,8000,,16000,TRUE,Pay Utility,254792***122 - MWENDWA ***,,B1
SF51GO50DD,05/06/2024 07:47,05/06/2024 07:47,Pay Bill from 254708***835 - SUSAN *** Acc. B2,Completed,8000,,8000,TRUE,Pay Utility,254708***835 - SUSAN ***,,B2
SF48FOZDO2,04/06/2024 19:53,04/06/2024 19:53,Utility Account to Organization Settlement Account,Completed,,-53500,0,TRUE,Utility Account to Organization Settlement Account,887075 - ANCIENT WELLS LTD 3,,
SF399360J7,03/06/2024 07:56,03/06/2024 07:56,Pay Bill from 072977***299 - WAMBUA *** Acc. c1,Completed,1000,,53500,TRUE,Pay Utility,072977***299 - WAMBUA ***,,c1
SF1131P40N,01/06/2024 14:15,01/06/2024 14:15,Pay Bill Online from 254790***715 - JULIUS *** Acc. C2,Completed,7500,,52500,TRUE,Pay Bill Online,254790***715 - JULIUS ***,,C2
SF171P76RL,01/06/2024 07:27,01/06/2024 07:27,Pay Bill from 254727***164 - NICHOLAS *** Acc. G2,Completed,8000,,45000,TRUE,Pay Utility,254727***164 - NICHOLAS ***,,G2
