Receipt No.,Completion Time,Initiation Time,Details,Transaction Status,Paid In,Withdrawn,Balance,Balance Confirmed,Reason Type,Other Party Info,Linked Transaction ID,A/C No.
SDN04BU8FW,23/04/2024 22:09,23/04/2024 22:09,Pay Bill from 254720***119 - LINDAH *** Acc. kfe,Completed,7000,,59000,TRUE,Pay Utility,254720***119 - LINDAH ***,,kfe
SDN0492MNA,23/04/2024 21:41,23/04/2024 21:41,Pay Bill Online from 254712***699 - NELSON *** Acc. KCD,Completed,12000,,52000,TRUE,Pay Bill Online,254712***699 - NELSON ***,,KCD
SDN02LDMG6,23/04/2024 15:00,23/04/2024 15:00,Pay Bill from 254720***007 - BRENDA *** Acc. KAB ,Completed,5000,,40000,TRUE,Pay Utility,254720***007 - BRENDA ***,,KAB 
SDN82J2QHW,23/04/2024 14:41,23/04/2024 14:41,Pay Bill from 254729***750 - DERRICK *** Acc. DAC,Completed,20000,,35000,TRUE,Pay Utility,254729***750 - DERRICK ***,,DAC
SDN11KY94N,23/04/2024 09:49,23/04/2024 09:49,Pay Bill Online from 254720***070 - Michelle *** Acc. JEJ,Completed,15000,,15000,TRUE,Pay Bill Online,254720***070 - Michelle ***,,JEJ
SDN11KM1CF,23/04/2024 09:46,23/04/2024 09:46,Utility Account to Organization Settlement Account,Completed,,-56200,0,TRUE,Utility Account to Organization Settlement Account,979524 - ANCIENT WELLS PROPERTY MANAGERS 2,,
SDN812J9UW,23/04/2024 04:09,23/04/2024 04:09,Pay Bill Online from 254704***133 - ELVIS *** Acc. HFD,Completed,1000,,56200,TRUE,Pay Bill Online,254704***133 - ELVIS ***,,HFD
SDM5ZNPG6F,22/04/2024 20:56,22/04/2024 20:56,Pay Bill from 074159***850 - Yahya *** Acc. HAD,Completed,11700,,55200,TRUE,Pay Utility,074159***850 - Yahya ***,,HAD
SDM0XVD93G,22/04/2024 13:29,22/04/2024 13:29,Pay Bill from 254722***209 - ESTHER *** Acc. JAE,Completed,10000,,43500,TRUE,Pay Utility,254722***209 - ESTHER ***,,JAE
SDM7XRC1T5,22/04/2024 12:57,22/04/2024 12:57,Pay Bill from 254703***441 - FRANKLINE *** Acc. DGD,Completed,18500,,33500,TRUE,Pay Utility,254703***441 - FRANKLINE ***,,DGD
SDM1XJ0KBD,22/04/2024 11:46,22/04/2024 11:46,Pay Bill Online from 254723***004 - LABAN *** Acc. JEF,Completed,2500,,15000,TRUE,Pay Bill Online,254723***004 - LABAN ***,,JEF
SDM9XBP5JL,22/04/2024 10:42,22/04/2024 10:42,Pay Bill from 254720***281 - KENNEDY *** Acc. KBI,Completed,12500,,12500,TRUE,Pay Utility with OD via STK,254720***281 - KENNEDY ***,,KBI
SDM5WW06LT,22/04/2024 08:12,22/04/2024 08:12,Utility Account to Organization Settlement Account,Completed,,-120500,0,TRUE,Utility Account to Organization Settlement Account,979524 - ANCIENT WELLS PROPERTY MANAGERS 2,,
SDM1WS06UF,22/04/2024 07:24,22/04/2024 07:24,Pay Bill Online from 071580***956 - Mercy *** Acc. FFE,Completed,15000,,120500,TRUE,Pay Bill Online,071580***956 - Mercy ***,,FFE
SDL6WC5KBG,21/04/2024 21:25,21/04/2024 21:25,Pay Bill from 254703***626 - DAVID *** Acc. FCD,Completed,1000,,105500,TRUE,Pay Utility,254703***626 - DAVID ***,,FCD
SDL8UTFXDS,21/04/2024 14:37,21/04/2024 14:37,Pay Bill Online from 071883***251 - MARK *** Acc. kfg,Completed,1000,,104500,TRUE,Pay Bill Online,071883***251 - MARK ***,,kfg
SDK5SBOSDV,20/04/2024 18:12,20/04/2024 18:12,Pay Bill Online from 254723***004 - LABAN *** Acc. JEF,Completed,3000,,103500,TRUE,Pay Utility with OD Online,254723***004 - LABAN ***,,JEF
SDK4S32MHW,20/04/2024 17:14,20/04/2024 17:14,Pay Bill from 254703***626 - DAVID *** Acc. FCD,Completed,1000,,100500,TRUE,Pay Utility,254703***626 - DAVID ***,,FCD
SDK8RKFDRQ,20/04/2024 14:49,20/04/2024 14:49,Pay Bill from 254720***007 - BRENDA *** Acc. KAB,Completed,5000,,99500,TRUE,Pay Utility,254720***007 - BRENDA ***,,KAB
SDK0QWLK06,20/04/2024 11:36,20/04/2024 11:36,Pay Bill from 254716***384 - GREGORY *** Acc. DAD,Completed,20000,,94500,TRUE,Pay Utility,254716***384 - GREGORY ***,,DAD
SDK9QNNZWP,20/04/2024 10:19,20/04/2024 10:19,Pay Bill Online from 254726***777 - MARY *** Acc. JDB ,Completed,15000,,74500,TRUE,Pay Bill Online,254726***777 - MARY ***,,JDB 
SDK3Q923RB,20/04/2024 07:57,20/04/2024 07:57,Pay Bill Online from 254722***078 - MAUREEN *** Acc. DCD,Completed,4500,,59500,TRUE,Pay Utility with OD Online,254722***078 - MAUREEN ***,,DCD
SDJ1PP0Q0Z,19/04/2024 21:36,19/04/2024 21:36,Pay Bill Online from 254711***087 - MUTHIANI *** Acc. idb,Completed,15000,,55000,TRUE,Pay Bill Online,254711***087 - MUTHIANI ***,,idb
SDJ6P6LKEU,19/04/2024 19:33,19/04/2024 19:33,Pay Bill from 254722***622 - CHARITY *** Acc. ffd,Completed,3000,,40000,TRUE,Pay Utility,254722***622 - CHARITY ***,,ffd
SDJ1NXKBUT,19/04/2024 14:34,19/04/2024 14:34,Pay Bill from 254717***198 - JIM *** Acc. IGG,Completed,9000,,37000,TRUE,Pay Utility,254717***198 - JIM ***,,IGG
SDJ8NWEWIE,19/04/2024 14:25,19/04/2024 14:25,Pay Bill from 254703***626 - DAVID *** Acc. FCD,Completed,1000,,28000,TRUE,Pay Utility,254703***626 - DAVID ***,,FCD
SDJ7NSKSTT,19/04/2024 13:54,19/04/2024 13:54,Pay Bill from 254711***815 - NAOMI *** Acc. KBA,Completed,24000,,27000,TRUE,Pay Utility with OD via STK,254711***815 - NAOMI ***,,KBA
SDJ4NIVEEE,19/04/2024 12:36,19/04/2024 12:36,Pay Bill from 254722***136 - NADI *** Acc. JEA,Completed,3000,,3000,TRUE,Pay Utility with OD via STK,254722***136 - NADI ***,,JEA
SDJ2N7K886,19/04/2024 10:59,19/04/2024 10:59,Utility Account to Organization Settlement Account,Completed,,-134800,0,TRUE,Utility Account to Organization Settlement Account,979524 - ANCIENT WELLS PROPERTY MANAGERS 2,,
SDJ0MZXH76,19/04/2024 09:52,19/04/2024 09:52,Pay Bill Online from 254741***957 - Mercy *** Acc. Jcb,Completed,4000,,134800,TRUE,Pay Bill Online,254741***957 - Mercy ***,,Jcb
SDI2MC1908,18/04/2024 23:11,18/04/2024 23:11,Pay Bill from 076995***691 - ANNA *** Acc. IFD,Completed,22000,,130800,TRUE,Pay Utility,076995***691 - ANNA ***,,IFD
SDI9M7LF31,18/04/2024 22:03,18/04/2024 22:03,Pay Bill from 254720***007 - BRENDA *** Acc. KAB,Completed,5000,,108800,TRUE,Pay Utility,254720***007 - BRENDA ***,,KAB
SDI8LJ4MAC,18/04/2024 19:17,18/04/2024 19:17,Pay Bill from 254742***607 - BARNABAS *** Acc. IDH,Completed,16000,,103800,TRUE,Pay Utility,254742***607 - BARNABAS ***,,IDH
SDI5KXF35J,18/04/2024 17:08,18/04/2024 17:08,Pay Bill Online from 254702***887 - Nax *** Acc. FDE,Completed,15000,,87800,TRUE,Pay Bill Online,254702***887 - Nax ***,,FDE
SDI6KWGQ66,18/04/2024 17:01,18/04/2024 17:01,Pay Bill from 254704***133 - ELVIS *** Acc. HFD,Completed,800,,72800,TRUE,Pay Utility,254704***133 - ELVIS ***,,HFD
SDI7KUAZD9,18/04/2024 16:45,18/04/2024 16:45,Pay Bill from 254700***930 - RENE *** Acc. fbd,Completed,7000,,72000,TRUE,Pay Utility with OD via STK,254700***930 - RENE ***,,fbd
SDI7KA303V,18/04/2024 13:58,18/04/2024 13:58,Pay Bill from 254720***007 - BRENDA *** Acc. KAB,Completed,5000,,65000,TRUE,Pay Utility,254720***007 - BRENDA ***,,KAB
SDI6JBK790,18/04/2024 09:08,18/04/2024 09:08,Pay Bill Online from 254715***212 - BANCE *** Acc. JFE,Completed,2000,,60000,TRUE,Pay Bill Online,254715***212 - BANCE ***,,JFE
SDH4I70NB0,17/04/2024 20:24,17/04/2024 20:24,Pay Bill from 254705***606 - JOSEPH *** Acc. fed,Completed,5000,,58000,TRUE,Pay Utility,254705***606 - JOSEPH ***,,fed
SDH7I17MEZ,17/04/2024 19:53,17/04/2024 19:53,Pay Bill from 254705***606 - JOSEPH *** Acc. fed,Completed,5000,,53000,TRUE,Pay Utility,254705***606 - JOSEPH ***,,fed
SDH6HTXEZ8,17/04/2024 19:17,17/04/2024 19:17,Pay Bill Online from 254712***302 - EMMANUEL *** Acc. KEA,Completed,16000,,48000,TRUE,Pay Bill Online,254712***302 - EMMANUEL ***,,KEA
SDH5GSL4LP,17/04/2024 15:11,17/04/2024 15:11,Pay Bill from 254724***882 - JOEL *** Acc. fee,Completed,16000,,32000,TRUE,Pay Utility,254724***882 - JOEL ***,,fee
SDH5FXYLQ1,17/04/2024 11:07,17/04/2024 11:07,Pay Bill from 254796***426 - MARY *** Acc. dgd,Completed,6000,,16000,TRUE,Pay Utility,254796***426 - MARY ***,,dgd
SDH2FWFP5U,17/04/2024 10:54,17/04/2024 10:54,Pay Bill from 071556***922 - diramu *** Acc. HBD,Completed,10000,,10000,TRUE,Pay Utility with OD via STK,071556***922 - diramu ***,,HBD
SDH9FKIHDB,17/04/2024 09:08,17/04/2024 09:08,Utility Account to Organization Settlement Account,Completed,,-255100,0,TRUE,Utility Account to Organization Settlement Account,979524 - ANCIENT WELLS PROPERTY MANAGERS 2,,
SDH4F2JR3I,17/04/2024 00:00,17/04/2024 00:00,Small Business Pay Bill from 079144***135 - HADIJA *** Acc. HTA,Completed,9000,,255100,TRUE,Micro SME Customer Pay Bill via API,079144***135 - HADIJA ***,,HTA
SDG1DTLB6L,16/04/2024 18:04,16/04/2024 18:04,Pay Bill from 254722***480 - PATRICK *** Acc. KGH,Completed,9500,,246100,TRUE,Pay Utility,254722***480 - PATRICK ***,,KGH
SDG6D2VDLQ,16/04/2024 14:43,16/04/2024 14:43,Pay Bill from 075760***316 - MOHAMED *** Acc. IEC,Completed,10000,,236600,TRUE,Pay Utility,075760***316 - MOHAMED ***,,IEC
SDG7CVD9X9,16/04/2024 13:42,16/04/2024 13:42,Pay Bill from 254720***822 - JAMES *** Acc. jgj,Completed,1500,,226600,TRUE,Pay Utility,254720***822 - JAMES ***,,jgj
SDG1CN53R1,16/04/2024 12:37,16/04/2024 12:37,Pay Bill from 254722***450 - MARY *** Acc. JAI,Completed,20000,,225100,TRUE,Pay Utility with OD via STK,254722***450 - MARY ***,,JAI
SDG7CHHLBJ,16/04/2024 11:50,16/04/2024 11:50,Pay Bill from 254720***103 - NJENGA *** Acc. kca,Completed,16000,,205100,TRUE,Pay Utility,254720***103 - NJENGA ***,,kca
SDG6CEPOO2,16/04/2024 11:26,16/04/2024 11:26,Pay Bill Online from 254722***078 - MAUREEN *** Acc. DCD,Completed,9000,,189100,TRUE,Pay Bill Online,254722***078 - MAUREEN ***,,DCD
SDG2C2KIBE,16/04/2024 09:40,16/04/2024 09:40,Pay Bill Online from 254799***749 - KENNEDY *** Acc. DDD,Completed,4100,,180100,TRUE,Pay Bill Online,254799***749 - KENNEDY ***,,DDD
SDG0C1EV34,16/04/2024 09:29,16/04/2024 09:29,Pay Bill Online from 070640***366 - LUCY *** Acc. KDB,Completed,1800,,176000,TRUE,Pay Bill Online,070640***366 - LUCY ***,,KDB
SDG7BSJUBX,16/04/2024 08:02,16/04/2024 08:02,Pay Bill from 254722***574 - ALLAN *** Acc. jcg,Completed,20000,,174200,TRUE,Pay Utility,254722***574 - ALLAN ***,,jcg
SDG8BRRLZM,16/04/2024 07:53,16/04/2024 07:53,Pay Bill Online from 079094***220 - Joyce *** Acc. IAG,Completed,2000,,154200,TRUE,Pay Utility with OD Online,079094***220 - Joyce ***,,IAG
SDF0B2IGEY,15/04/2024 20:44,15/04/2024 20:44,Pay Bill from 254707***639 - Annastacia *** Acc. JFC ,Completed,10000,,152200,TRUE,Pay Utility,254707***639 - Annastacia ***,,JFC 
SDF59UG7HL,15/04/2024 16:14,15/04/2024 16:14,Pay Bill from 254729***678 - GRACE *** Acc. DED,Completed,1500,,142200,TRUE,Pay Utility with OD via STK,254729***678 - GRACE ***,,DED
SDF99FRWIX,15/04/2024 14:12,15/04/2024 14:12,Pay Bill from 254799***466 - RUTH *** Acc. kdh,Completed,10000,,140700,TRUE,Pay Utility,254799***466 - RUTH ***,,kdh
SDF78QBF07,15/04/2024 10:43,15/04/2024 10:43,Pay Bill Online from 254723***777 - EVANS *** Acc. Kch,Completed,3000,,130700,TRUE,Pay Bill Online,254723***777 - EVANS ***,,Kch
SDF18PSVMR,15/04/2024 10:39,15/04/2024 10:39,Pay Bill from 254700***449 - JOHN *** Acc. HCE,Completed,10500,,127700,TRUE,Pay Utility,254700***449 - JOHN ***,,HCE
SDF781XDT3,15/04/2024 05:35,15/04/2024 05:35,Pay Bill from 254704***133 - ELVIS *** Acc. HFD,Completed,700,,117200,TRUE,Pay Utility,254704***133 - ELVIS ***,,HFD
SDF181G925,15/04/2024 04:50,15/04/2024 04:50,Pay Bill Online from 074378***968 - Dallias *** Acc. Hbb,Completed,5000,,116500,TRUE,Pay Bill Online,074378***968 - Dallias ***,,Hbb
SDF080A7BO,15/04/2024 02:16,15/04/2024 02:16,Pay Bill from 254720***822 - JAMES *** Acc. jgj,Completed,3000,,111500,TRUE,Pay Utility with OD via STK,254720***822 - JAMES ***,,jgj
SDE574WWJV,14/04/2024 19:08,14/04/2024 19:08,Pay Bill from 074318***837 - Caroline *** Acc. jdc,Completed,5000,,108500,TRUE,Pay Utility,074318***837 - Caroline ***,,jdc
SDE85RFZSI,14/04/2024 12:48,14/04/2024 12:48,Pay Bill from 254707***264 - KELVIN *** Acc. HDE,Completed,10500,,103500,TRUE,Pay Utility,254707***264 - KELVIN ***,,HDE
SDE74W59AR,14/04/2024 07:20,14/04/2024 07:20,Pay Bill Online from 254718***322 - DUNCAN *** Acc. JFJ,Completed,15000,,93000,TRUE,Pay Utility with OD Online,254718***322 - DUNCAN ***,,JFJ
SDE84QANAA,14/04/2024 01:12,14/04/2024 01:12,Pay Bill from 254711***840 - HILDA *** Acc. KTA,Completed,5000,,78000,TRUE,Pay Utility with OD via STK,254711***840 - HILDA ***,,KTA
SDD03VJEPI,13/04/2024 19:36,13/04/2024 19:36,Pay Bill from 074185***302 - Evans *** Acc. KGE,Completed,11000,,73000,TRUE,Pay Utility,074185***302 - Evans ***,,KGE
SDD93A9MKP,13/04/2024 17:40,13/04/2024 17:40,Pay Bill from 254742***085 - WARREN *** Acc. HFC,Completed,14400,,62000,TRUE,Pay Utility,254742***085 - WARREN ***,,HFC
SDD63A1AG6,13/04/2024 17:39,13/04/2024 17:39,Pay Bill from 254742***085 - WARREN *** Acc. HFC,Completed,1600,,47600,TRUE,Pay Utility,254742***085 - WARREN ***,,HFC
SDD6352F4M,13/04/2024 17:04,13/04/2024 17:04,Pay Bill from 254702***841 - JEREMIAH *** Acc. KBC,Completed,10000,,46000,TRUE,Pay Utility,254702***841 - JEREMIAH ***,,KBC
SDD82K7IBA,13/04/2024 14:24,13/04/2024 14:24,Pay Bill from 254710***167 - KUSA *** Acc. JEB,Completed,15000,,36000,TRUE,Pay Utility,254710***167 - KUSA ***,,JEB
SDD42GJIO0,13/04/2024 13:57,13/04/2024 13:57,Pay Bill from 254708***464 - MERCY *** Acc. IBB,Completed,1000,,21000,TRUE,Pay Utility,254708***464 - MERCY ***,,IBB
SDD429T2S4,13/04/2024 13:05,13/04/2024 13:05,Pay Bill from 079912***666 - ERIC *** Acc. JDI,Completed,20000,,20000,TRUE,Pay Utility,079912***666 - ERIC ***,,JDI
SDD426RS42,13/04/2024 12:41,13/04/2024 12:41,Utility Account to Organization Settlement Account,Completed,,-145000,0,TRUE,Utility Account to Organization Settlement Account,979524 - ANCIENT WELLS PROPERTY MANAGERS 2,,
SDD62439Z8,13/04/2024 12:19,13/04/2024 12:19,Pay Bill from 254729***678 - GRACE *** Acc. DED,Completed,6000,,145000,TRUE,Pay Utility with OD via STK,254729***678 - GRACE ***,,DED
SDD11YCKVD,13/04/2024 11:32,13/04/2024 11:32,Pay Bill Online from 076991***050 - newton *** Acc. JBG,Completed,10000,,139000,TRUE,Pay Utility with OD Online,076991***050 - newton ***,,JBG
SDD61R38EI,13/04/2024 10:30,13/04/2024 10:30,Pay Bill from 254710***630 - DONNA *** Acc. KCC,Completed,14000,,129000,TRUE,Pay Utility,254710***630 - DONNA ***,,KCC
SDD91Q6QVJ,13/04/2024 10:22,13/04/2024 10:22,Pay Bill from 254704***133 - ELVIS *** Acc. HFD,Completed,1000,,115000,TRUE,Pay Utility,254704***133 - ELVIS ***,,HFD
SDD41ESTHU,13/04/2024 08:34,13/04/2024 08:34,Pay Bill Online from 254722***078 - MAUREEN *** Acc. DCD,Completed,6000,,114000,TRUE,Pay Utility with OD Online,254722***078 - MAUREEN ***,,DCD
SDD21DRV0A,13/04/2024 08:23,13/04/2024 08:23,Pay Bill Online from 254720***253 - JIMMY *** Acc. Kbd,Completed,5000,,108000,TRUE,Pay Utility with OD Online,254720***253 - JIMMY ***,,Kbd
SDD0161A8E,13/04/2024 06:13,13/04/2024 06:13,Pay Bill from 075725***130 - RASHID *** Acc. JAF,Completed,2000,,103000,TRUE,Pay Utility,075725***130 - RASHID ***,,JAF
SDC9ZPJION,12/04/2024 21:21,12/04/2024 21:21,Pay Bill from 254704***689 - ANTONY *** Acc. ICD,Completed,11000,,101000,TRUE,Pay Utility,254704***689 - ANTONY ***,,ICD
SDC9Y9YYML,12/04/2024 16:08,12/04/2024 16:08,Pay Bill from 070115***700 - Anabel *** Acc. Jdj,Completed,15000,,90000,TRUE,Pay Utility,070115***700 - Anabel ***,,Jdj
SDC0XW2SCI,12/04/2024 14:19,12/04/2024 14:19,Pay Bill from 254729***441 - ROBERT *** Acc. JFI,Completed,20000,,75000,TRUE,Pay Utility,254729***441 - ROBERT ***,,JFI
SDC4XUOUIY,12/04/2024 14:09,12/04/2024 14:09,Pay Bill Online from 254710***381 - JANE *** Acc. HAF,Completed,10000,,55000,TRUE,Pay Bill Online,254710***381 - JANE ***,,HAF
SDC9XU48Y5,12/04/2024 14:04,12/04/2024 14:04,Pay Bill from 254721***975 - JOSEPH *** Acc. H E B,Completed,16000,,45000,TRUE,Pay Utility,254721***975 - JOSEPH ***,,H E B
SDC6XP5MS8,12/04/2024 13:27,12/04/2024 13:27,Pay Bill from 254720***502 - JOHN *** Acc. JFA ,Completed,5000,,29000,TRUE,Pay Utility,254720***502 - JOHN ***,,JFA 
SDC8XN0D18,12/04/2024 13:10,12/04/2024 13:10,Pay Bill from 254729***678 - GRACE *** Acc. DED,Completed,5000,,24000,TRUE,Pay Utility with OD via STK,254729***678 - GRACE ***,,DED
SDC8XD4GL6,12/04/2024 11:50,12/04/2024 11:50,Pay Bill from 254704***222 - Lesley *** Acc. KCF,Completed,10000,,19000,TRUE,Pay Utility,254704***222 - Lesley ***,,KCF
SDC4X0FE48,12/04/2024 10:02,12/04/2024 10:02,Pay Bill from 254717***596 - NICHOLAS *** Acc. hcf,Completed,9000,,9000,TRUE,Pay Utility,254717***596 - NICHOLAS ***,,hcf
SDC8WSVXH2,12/04/2024 08:52,12/04/2024 08:52,Utility Account to Organization Settlement Account,Completed,,-598000,0,TRUE,Utility Account to Organization Settlement Account,979524 - ANCIENT WELLS PROPERTY MANAGERS 2,,
SDC3WPMSMJ,12/04/2024 08:20,12/04/2024 08:20,Pay Bill from 254703***626 - DAVID *** Acc. FCD,Completed,1000,,598000,TRUE,Pay Utility with OD via STK,254703***626 - DAVID ***,,FCD
SDC2WMYCSY,12/04/2024 07:52,12/04/2024 07:52,Pay Bill from 254708***464 - MERCY *** Acc. IBB,Completed,2000,,597000,TRUE,Pay Utility,254708***464 - MERCY ***,,IBB
SDC6WHMB2W,12/04/2024 06:26,12/04/2024 06:26,Pay Bill Online from 074378***968 - Dallias *** Acc. Hbb,Completed,5000,,595000,TRUE,Pay Bill Online,074378***968 - Dallias ***,,Hbb
SDC9WEAWGZ,12/04/2024 01:48,12/04/2024 01:48,Pay Bill from 254707***441 - JOHN *** Acc. IEH,Completed,2000,,590000,TRUE,Pay Utility,254707***441 - JOHN ***,,IEH
SDB5W8FAUF,11/04/2024 22:38,11/04/2024 22:38,Pay Bill from 254729***678 - GRACE *** Acc. DED,Completed,7500,,588000,TRUE,Pay Utility with OD via STK,254729***678 - GRACE ***,,DED
SDB8W82DQM,11/04/2024 22:32,11/04/2024 22:32,Pay Bill from 254725***547 - MWACHIRO *** Acc. DFC,Completed,20000,,580500,TRUE,Pay Utility,254725***547 - MWACHIRO ***,,DFC
SDB8VWB2H0,11/04/2024 20:48,11/04/2024 20:48,Pay Bill from 254704***133 - ELVIS *** Acc. HFD,Completed,2500,,560500,TRUE,Pay Utility,254704***133 - ELVIS ***,,HFD
SDB7VN7TG1,11/04/2024 19:54,11/04/2024 19:54,Pay Bill Online from 254715***212 - BANCE *** Acc. JFE,Completed,1000,,558000,TRUE,Pay Bill Online,254715***212 - BANCE ***,,JFE
SDB6VCPKHQ,11/04/2024 19:03,11/04/2024 19:03,Pay Bill from 254711***672 - ALLAN *** Acc. IEI,Completed,15000,,557000,TRUE,Pay Utility,254711***672 - ALLAN ***,,IEI
SDB8V2Y8LW,11/04/2024 18:09,11/04/2024 18:09,Pay Bill from 254710***100 - PHILOMENA *** Acc. KDK,Completed,17000,,542000,TRUE,Pay Utility,254710***100 - PHILOMENA ***,,KDK
SDB3UVBNL7,11/04/2024 17:19,11/04/2024 17:19,Pay Bill from 254792***192 - KELVIN *** Acc. ICE,Completed,9000,,525000,TRUE,Pay Utility,254792***192 - KELVIN ***,,ICE
SDB6UMEKIW,11/04/2024 16:13,11/04/2024 16:13,Pay Bill Online from 254720***609 - DENNIS *** Acc. JAJ,Completed,15000,,516000,TRUE,Pay Bill Online,254720***609 - DENNIS ***,,JAJ
SDB4UBIUSW,11/04/2024 14:45,11/04/2024 14:45,Pay Bill Online from 254711***716 - RODGERS *** Acc. IGC,Completed,9000,,501000,TRUE,Pay Bill Online,254711***716 - RODGERS ***,,IGC
SDB8SVHTY4,11/04/2024 06:53,11/04/2024 06:53,Pay Bill from 254713***244 - ROBERT *** Acc. HFB,Completed,16000,,492000,TRUE,Pay Utility,254713***244 - ROBERT ***,,HFB
SDA9RPK651,10/04/2024 18:54,10/04/2024 18:54,Pay Bill from 254703***196 - ERIC *** Acc. KGJ,Completed,15000,,476000,TRUE,Pay Utility,254703***196 - ERIC ***,,KGJ
SDA6RNY2CI,10/04/2024 18:45,10/04/2024 18:45,Pay Bill from 254720***822 - JAMES *** Acc. jgj,Completed,5000,,461000,TRUE,Pay Utility,254720***822 - JAMES ***,,jgj
SDA6QU23A0,10/04/2024 15:10,10/04/2024 15:10,Pay Bill from 254726***330 - JOHN *** Acc. IFH,Completed,15000,,456000,TRUE,Pay Utility,254726***330 - JOHN ***,,IFH
SDA9QTU4Y1,10/04/2024 15:09,10/04/2024 15:09,Pay Bill Online from 254723***228 - MORARA *** Acc. POOL,Completed,22000,,441000,TRUE,Pay Bill Online,254723***228 - MORARA ***,,POOL
SDA3Q7LD65,10/04/2024 12:10,10/04/2024 12:10,Pay Bill from 254726***792 - PHILIP *** Acc. JEI,Completed,20000,,419000,TRUE,Pay Utility,254726***792 - PHILIP ***,,JEI
SDA2Q06N4S,10/04/2024 11:09,10/04/2024 11:09,Pay Bill from 071057***069 - GLADYS *** Acc. HCC,Completed,10000,,399000,TRUE,Pay Utility,071057***069 - GLADYS ***,,HCC
SDA0PXJL5C,10/04/2024 10:47,10/04/2024 10:47,Pay Bill Online from 071060***910 - Peninah *** Acc. FCC,Completed,9000,,389000,TRUE,Pay Bill Online,071060***910 - Peninah ***,,FCC
SDA9PWQRLD,10/04/2024 10:40,10/04/2024 10:40,Pay Bill from 254720***502 - JOHN *** Acc. JFA ,Completed,5000,,380000,TRUE,Pay Utility,254720***502 - JOHN ***,,JFA 
SDA2PJ53G4,10/04/2024 08:37,10/04/2024 08:37,Pay Bill from 254722***104 - ERICK *** Acc. HAE,Completed,2000,,375000,TRUE,Pay Utility,254722***104 - ERICK ***,,HAE
SDA1PFE1U1,10/04/2024 07:57,10/04/2024 07:57,Pay Bill Online from 254710***965 - BRENDA *** Acc. hfg,Completed,15000,,373000,TRUE,Pay Bill Online,254710***965 - BRENDA ***,,hfg
SDA5PBFTD7,10/04/2024 07:06,10/04/2024 07:06,Pay Bill from 254720***502 - JOHN *** Acc. JFA ,Completed,10000,,358000,TRUE,Pay Utility,254720***502 - JOHN ***,,JFA 
SDA2P6P93O,10/04/2024 02:19,10/04/2024 02:19,Pay Bill from 070288***109 - Edith *** Acc. DDB,Completed,16000,,348000,TRUE,Pay Utility,070288***109 - Edith ***,,DDB
SD95OMR2FZ,09/04/2024 20:53,09/04/2024 20:53,Pay Bill from 074805***595 - Rashid *** Acc. DDA,Completed,4000,,332000,TRUE,Pay Utility,074805***595 - Rashid ***,,DDA
SD90OJ1QDC,09/04/2024 20:30,09/04/2024 20:30,Pay Bill from 076841***584 - Faith *** Acc. IDF,Completed,11000,,328000,TRUE,Pay Utility,076841***584 - Faith ***,,IDF
SD93OAC6S3,09/04/2024 19:43,09/04/2024 19:43,Pay Bill from 254722***724 - Cosmas *** Acc. kag,Completed,10000,,317000,TRUE,Pay Utility with OD via STK,254722***724 - Cosmas ***,,kag
SD98O5QL2U,09/04/2024 19:21,09/04/2024 19:21,Pay Bill from 254702***907 - FAITH *** Acc. KBE ,Completed,10000,,307000,TRUE,Pay Utility,254702***907 - FAITH ***,,KBE 
SD94O21LIS,09/04/2024 19:04,09/04/2024 19:04,Pay Bill Online from 254722***028 - CHARLES *** Acc. JDA,Completed,20000,,297000,TRUE,Pay Utility with OD Online,254722***028 - CHARLES ***,,JDA
SD92NTYEIY,09/04/2024 18:20,09/04/2024 18:20,Pay Bill Online from 254715***212 - BANCE *** Acc. JFE,Completed,8000,,277000,TRUE,Pay Bill Online,254715***212 - BANCE ***,,JFE
SD95NTPD5Z,09/04/2024 18:19,09/04/2024 18:19,Pay Bill Online from 254707***544 - CALEB *** Acc. KCJ,Completed,16000,,269000,TRUE,Pay Bill Online,254707***544 - CALEB ***,,KCJ
SD98NSEMII,09/04/2024 18:11,09/04/2024 18:11,Pay Bill Online from 254723***071 - AMOS *** Acc. JCE,Completed,9000,,253000,TRUE,Pay Bill Online,254723***071 - AMOS ***,,JCE
SD90N9NMXK,09/04/2024 16:03,09/04/2024 16:03,Pay Bill Online from 254725***946 - GODFREY *** Acc. HEE,Completed,15000,,244000,TRUE,Pay Bill Online,254725***946 - GODFREY ***,,HEE
SD97N69OUP,09/04/2024 15:37,09/04/2024 15:37,Pay Bill from 254708***464 - MERCY *** Acc. IBB,Completed,5000,,229000,TRUE,Pay Utility,254708***464 - MERCY ***,,IBB
SD92N29Y3G,09/04/2024 15:06,09/04/2024 15:06,Pay Bill from 254703***626 - DAVID *** Acc. FCD,Completed,1000,,224000,TRUE,Pay Utility,254703***626 - DAVID ***,,FCD
SD99MRK91F,09/04/2024 13:42,09/04/2024 13:42,Pay Bill Online from 254711***840 - HILDA *** Acc. KTA,Completed,5000,,223000,TRUE,Pay Utility with OD Online,254711***840 - HILDA ***,,KTA
SD94MEP878,09/04/2024 12:00,09/04/2024 12:00,Pay Bill from 254710***394 - LUCY *** Acc. KBG,Completed,9000,,218000,TRUE,Pay Utility with OD via STK,254710***394 - LUCY ***,,KBG
SD92LYRRAS,09/04/2024 09:41,09/04/2024 09:41,Pay Bill from 254717***817 - NYANGAU *** Acc. JBA,Completed,23000,,209000,TRUE,Pay Utility,254717***817 - NYANGAU ***,,JBA
SD82LEB4V6,08/04/2024 23:38,08/04/2024 23:38,Pay Bill from 011071***819 - JANE *** Acc. HGF,Completed,9500,,186000,TRUE,Pay Utility,011071***819 - JANE ***,,HGF
SD84L7T8HC,08/04/2024 21:49,08/04/2024 21:49,Pay Bill from 254719***657 - SAMUEL *** Acc. JGA,Completed,20000,,176500,TRUE,Pay Utility,254719***657 - SAMUEL ***,,JGA
SD86KJ8ZKO,08/04/2024 19:14,08/04/2024 19:14,Pay Bill Online from 254718***397 - JIMMY *** Acc. DCB,Completed,16000,,156500,TRUE,Pay Utility with OD Online,254718***397 - JIMMY ***,,DCB
SD86K9D234,08/04/2024 18:21,08/04/2024 18:21,Pay Bill from 074318***837 - Caroline *** Acc. jdc,Completed,10000,,140500,TRUE,Pay Utility,074318***837 - Caroline ***,,jdc
SD83JWUSJZ,08/04/2024 17:02,08/04/2024 17:02,Pay Bill from 254720***128 - ERNEST *** Acc. IGD,Completed,10000,,130500,TRUE,Pay Utility,254720***128 - ERNEST ***,,IGD
SD86JVX5OY,08/04/2024 16:55,08/04/2024 16:55,Pay Bill Online from 254715***656 - DENNIS *** Acc. kfa,Completed,5000,,120500,TRUE,Pay Bill Online,254715***656 - DENNIS ***,,kfa
SD87JURGWN,08/04/2024 16:47,08/04/2024 16:47,Pay Bill Online from 254713***424 - NDUTI *** Acc. jed,Completed,15000,,115500,TRUE,Pay Bill Online,254713***424 - NDUTI ***,,jed
SD88JTZX20,08/04/2024 16:41,08/04/2024 16:41,Pay Bill from 071568***238 - JOANNAH *** Acc. FFA,Completed,15000,,100500,TRUE,Pay Utility,071568***238 - JOANNAH ***,,FFA
SD84JN26KE,08/04/2024 15:48,08/04/2024 15:48,Pay Bill from 254708***516 - DENNIS *** Acc. IBC,Completed,9000,,85500,TRUE,Pay Utility,254708***516 - DENNIS ***,,IBC
SD87JHNUEJ,08/04/2024 15:05,08/04/2024 15:05,Pay Bill from 254722***622 - CHARITY *** Acc. ffd,Completed,7500,,76500,TRUE,Pay Utility,254722***622 - CHARITY ***,,ffd
SD83JD3FFX,08/04/2024 14:29,08/04/2024 14:29,Pay Bill Online from 254720***027 - ALEX *** Acc. FEB,Completed,33000,,69000,TRUE,Pay Bill Online,254720***027 - ALEX ***,,FEB
SD84J8ST0K,08/04/2024 13:56,08/04/2024 13:56,Pay Bill Online from 254720***253 - JIMMY *** Acc. KBD,Completed,3000,,36000,TRUE,Pay Utility with OD Online,254720***253 - JIMMY ***,,KBD
SD86J7LITM,08/04/2024 13:47,08/04/2024 13:47,Pay Bill Online from 254720***119 - DUNCAN *** Acc. FAE,Completed,10000,,33000,TRUE,Pay Bill Online,254720***119 - DUNCAN ***,,FAE
SD80IVQ5R8,08/04/2024 12:15,08/04/2024 12:15,Pay Bill Online from 254727***993 - MAUREEN *** Acc. IBD,Completed,23000,,23000,TRUE,Pay Bill Online,254727***993 - MAUREEN ***,,IBD
SD85INS8X5,08/04/2024 11:10,08/04/2024 11:10,Utility Account to Organization Settlement Account,Completed,,-327550,0,TRUE,Utility Account to Organization Settlement Account,979524 - ANCIENT WELLS PROPERTY MANAGERS 2,,
SD81IGYC1Z,08/04/2024 10:13,08/04/2024 10:13,Pay Bill Online from 071883***251 - MARK *** Acc. kfg,Completed,1800,,327550,TRUE,Pay Bill Online,071883***251 - MARK ***,,kfg
SD82I6O112,08/04/2024 08:38,08/04/2024 08:38,Pay Bill Online from 254715***656 - DENNIS *** Acc. kfa,Completed,6000,,325750,TRUE,Pay Bill Online,254715***656 - DENNIS ***,,kfa
SD89I409C1,08/04/2024 08:11,08/04/2024 08:11,Pay Bill Online from 075769***775 - BENARD *** Acc. HCB,Completed,16000,,319750,TRUE,Pay Utility with OD Online,075769***775 - BENARD ***,,HCB
SD82I3GP2S,08/04/2024 08:05,08/04/2024 08:05,Pay Bill Online from 254701***102 - CHEPCHUMBA *** Acc. IFE,Completed,9000,,303750,TRUE,Pay Bill Online,254701***102 - CHEPCHUMBA ***,,IFE
SD85HZW98J,08/04/2024 07:22,08/04/2024 07:22,Pay Bill from 254711***672 - ALLAN *** Acc. IEI,Completed,15000,,294750,TRUE,Pay Utility,254711***672 - ALLAN ***,,IEI
SD85HWFJC5,08/04/2024 05:59,08/04/2024 05:59,Pay Bill from 074378***968 - Dallias *** Acc. hbb,Completed,5000,,279750,TRUE,Pay Utility,074378***968 - Dallias ***,,hbb
SD86HSKQ28,08/04/2024 00:11,08/04/2024 00:11,Pay Bill from 254703***626 - DAVID *** Acc. FCD,Completed,1000,,274750,TRUE,Pay Utility,254703***626 - DAVID ***,,FCD
SD75HEZNE7,07/04/2024 20:58,07/04/2024 20:58,Pay Bill from 254701***541 - Denis *** Acc. HGC,Completed,2000,,273750,TRUE,Pay Utility with OD via STK,254701***541 - Denis ***,,HGC
SD78H1IKNO,07/04/2024 19:34,07/04/2024 19:34,Pay Bill from 254700***767 - BAKHITA *** Acc. kcb,Completed,16000,,271750,TRUE,Pay Utility,254700***767 - BAKHITA ***,,kcb
SD76G8NT9Q,07/04/2024 16:26,07/04/2024 16:26,Pay Bill from 254795***849 - PURITY *** Acc. kbb,Completed,16000,,255750,TRUE,Pay Utility,254795***849 - PURITY ***,,kbb
SD72G6H4M2,07/04/2024 16:09,07/04/2024 16:09,Pay Bill from 254706***081 - FATUMA *** Acc. HED,Completed,9000,,239750,TRUE,Pay Utility,254706***081 - FATUMA ***,,HED
SD71FXMOY3,07/04/2024 14:58,07/04/2024 14:58,Pay Bill from 254722***104 - ERICK *** Acc. HAE,Completed,12000,,230750,TRUE,Pay Utility,254722***104 - ERICK ***,,HAE
SD70FWLDMC,07/04/2024 14:50,07/04/2024 14:50,Pay Bill Online from 254720***965 - JAMES *** Acc. JBI,Completed,20000,,218750,TRUE,Pay Bill Online,254720***965 - JAMES ***,,JBI
SD71FNR72R,07/04/2024 13:40,07/04/2024 13:40,Pay Bill Online from 254722***473 - SAMSON *** Acc. IAB,Completed,15000,,198750,TRUE,Pay Bill Online,254722***473 - SAMSON ***,,IAB
SD76F75F9K,07/04/2024 11:11,07/04/2024 11:11,Pay Bill from 254725***531 - KIPKORIR *** Acc. DFB,Completed,15000,,183750,TRUE,Pay Utility,254725***531 - KIPKORIR ***,,DFB
SD78F6CXJS,07/04/2024 11:04,07/04/2024 11:04,Pay Bill from 254705***030 - FRIDAH *** Acc. JEH,Completed,16000,,168750,TRUE,Pay Utility,254705***030 - FRIDAH ***,,JEH
SD77F2LJWX,07/04/2024 10:28,07/04/2024 10:28,Pay Bill from 254797***402 - Tiberius *** Acc. KFC,Completed,9000,,152750,TRUE,Pay Utility,254797***402 - Tiberius ***,,KFC
SD75F20PO9,07/04/2024 10:22,07/04/2024 10:22,Pay Bill Online from 254757***672 - BRIAN *** Acc. KDD,Completed,12000,,143750,TRUE,Pay Bill Online,254757***672 - BRIAN ***,,KDD
SD78EHD01I,07/04/2024 03:25,07/04/2024 03:25,Pay Bill from 075705***882 - FAITH *** Acc. HDF,Completed,9000,,131750,TRUE,Pay Utility,075705***882 - FAITH ***,,HDF
SD67EAZASZ,06/04/2024 22:56,06/04/2024 22:56,Pay Bill from 079009***091 - Daisy *** Acc. KFI,Completed,12000,,122750,TRUE,Pay Utility,079009***091 - Daisy ***,,KFI
SD60EANXUU,06/04/2024 22:51,06/04/2024 22:51,Pay Bill Online from 254742***013 - HANEST *** Acc. IED,Completed,11000,,110750,TRUE,Pay Bill Online,254742***013 - HANEST ***,,IED
SD65E4CISJ,06/04/2024 21:43,06/04/2024 21:43,Pay Bill Online from 072225***105 - SALIM *** Acc. FGF,Completed,16000,,99750,TRUE,Pay Utility with OD Online,072225***105 - SALIM ***,,FGF
SD69DZWQ3Z,06/04/2024 21:08,06/04/2024 21:08,Pay Bill from 070685***885 - margaret *** Acc. FCE,Completed,15000,,83750,TRUE,Pay Utility,070685***885 - margaret ***,,FCE
SD69DSL7FF,06/04/2024 20:20,06/04/2024 20:20,Pay Bill Online from 254723***873 - FREDRICK *** Acc. jbf,Completed,8000,,68750,TRUE,Pay Bill Online,254723***873 - FREDRICK ***,,jbf
SD60DEW6IC,06/04/2024 19:11,06/04/2024 19:11,Pay Bill from 254719***910 - KEVIN *** Acc. iDD,Completed,11000,,60750,TRUE,Pay Utility,254719***910 - KEVIN ***,,iDD
SD60D5L1OG,06/04/2024 18:23,06/04/2024 18:23,Pay Bill from 254726***273 - JESSE *** Acc. HCH,Completed,17000,,49750,TRUE,Pay Utility,254726***273 - JESSE ***,,HCH
SD69CRZL2H,06/04/2024 16:56,06/04/2024 16:56,Pay Bill from 254702***404 - VALENTINE *** Acc. IBH,Completed,8250,,32750,TRUE,Pay Utility,254702***404 - VALENTINE ***,,IBH
SD67COQVFT,06/04/2024 16:34,06/04/2024 16:34,Pay Bill Online from 254715***656 - DENNIS *** Acc. kfa,Completed,5000,,24500,TRUE,Pay Bill Online,254715***656 - DENNIS ***,,kfa
SD69CL0CJ5,06/04/2024 16:06,06/04/2024 16:06,Pay Bill from 254112***958 - Nicholas *** Acc. JDE,Completed,9500,,19500,TRUE,Pay Utility,254112***958 - Nicholas ***,,JDE
SD60CEQQ52,06/04/2024 15:19,06/04/2024 15:19,Pay Bill from 071308***955 - BELINDA *** Acc. keh,Completed,10000,,10000,TRUE,Pay Utility,071308***955 - BELINDA ***,,keh
SD68C6S50M,06/04/2024 14:19,06/04/2024 14:19,Utility Account to Organization Settlement Account,Completed,,-445000,0,TRUE,Utility Account to Organization Settlement Account,979524 - ANCIENT WELLS PROPERTY MANAGERS 2,,
SD64BYU8TC,06/04/2024 13:20,06/04/2024 13:20,Pay Bill from 254712***871 - PAULA *** Acc. hea,Completed,16000,,445000,TRUE,Pay Utility,254712***871 - PAULA ***,,hea
SD61BSO6RZ,06/04/2024 12:33,06/04/2024 12:33,Pay Bill Online from 254720***253 - JIMMY *** Acc. KBD,Completed,3000,,429000,TRUE,Pay Utility with OD Online,254720***253 - JIMMY ***,,KBD
SD69BOQDX7,06/04/2024 12:02,06/04/2024 12:02,Pay Bill from 254708***464 - MERCY *** Acc. IBB,Completed,8000,,426000,TRUE,Pay Utility,254708***464 - MERCY ***,,IBB
SD60BNS04Y,06/04/2024 11:55,06/04/2024 11:55,Pay Bill Online from 074150***311 - ALLAN *** Acc. DBA,Completed,16000,,418000,TRUE,Pay Bill Online,074150***311 - ALLAN ***,,DBA
SD61BNQGY1,06/04/2024 11:55,06/04/2024 11:55,Pay Bill from 254799***755 - CAROLINE *** Acc. IEF,Completed,11000,,402000,TRUE,Pay Utility,254799***755 - CAROLINE ***,,IEF
SD64BGIP5E,06/04/2024 10:56,06/04/2024 10:56,Pay Bill from 254796***941 - PAUL *** Acc. HBE,Completed,20000,,391000,TRUE,Pay Utility,254796***941 - PAUL ***,,HBE
SD62BDRETI,06/04/2024 10:33,06/04/2024 10:33,Pay Bill from 071414***211 - KAREN *** Acc. JDF,Completed,8000,,371000,TRUE,Pay Utility,071414***211 - KAREN ***,,JDF
SD61BAIS9F,06/04/2024 10:06,06/04/2024 10:06,Pay Bill Online from 254703***159 - Enock *** Acc. KAE,Completed,10000,,363000,TRUE,Pay Bill Online,254703***159 - Enock ***,,KAE
SD63B6T6IX,06/04/2024 09:33,06/04/2024 09:33,Pay Bill Online from 254712***712 - JUDELEEN *** Acc. IEA,Completed,10000,,353000,TRUE,Pay Bill Online,254712***712 - JUDELEEN ***,,IEA
SD61B4AT8T,06/04/2024 09:09,06/04/2024 09:09,Pay Bill from 254708***373 - MUNINI *** Acc. IEB,Completed,15000,,343000,TRUE,Pay Utility,254708***373 - MUNINI ***,,IEB
SD66B3VJU2,06/04/2024 09:05,06/04/2024 09:05,Pay Bill from 254718***877 - JEMMIMAH *** Acc. KGI ,Completed,10000,,328000,TRUE,Pay Utility,254718***877 - JEMMIMAH ***,,KGI 
SD68AZAUEO,06/04/2024 08:20,06/04/2024 08:20,Pay Bill from 254702***404 - VALENTINE *** Acc. IBH,Completed,9000,,318000,TRUE,Pay Utility,254702***404 - VALENTINE ***,,IBH
SD54AK88JO,05/04/2024 23:04,05/04/2024 23:04,Pay Bill Online from 254721***995 - BERNICE *** Acc. KFK,Completed,16000,,309000,TRUE,Pay Bill Online,254721***995 - BERNICE ***,,KFK
SD53A3LF6N,05/04/2024 20:34,05/04/2024 20:34,Pay Bill from 254700***550 - BENARD *** Acc. DBB,Completed,16000,,293000,TRUE,Pay Utility,254700***550 - BENARD ***,,DBB
SD54A2XTJQ,05/04/2024 20:30,05/04/2024 20:30,Pay Bill Online from 254721***294 - GRACE *** Acc. IGH,Completed,15000,,277000,TRUE,Pay Bill Online,254721***294 - GRACE ***,,IGH
SD52A12DLK,05/04/2024 20:19,05/04/2024 20:19,Pay Bill from 254715***045 - FRIDAH *** Acc. HGC,Completed,7500,,262000,TRUE,Pay Utility with OD via STK,254715***045 - FRIDAH ***,,HGC
SD579SGH6L,05/04/2024 19:36,05/04/2024 19:36,Pay Bill Online from 254714***668 - ZACHARY *** Acc. JAD,Completed,16000,,254500,TRUE,Pay Bill Online,254714***668 - ZACHARY ***,,JAD
SD509RFW6G,05/04/2024 19:31,05/04/2024 19:31,Pay Bill from 254712***818 - OYUGI *** Acc. FCB,Completed,16000,,238500,TRUE,Pay Utility,254712***818 - OYUGI ***,,FCB
SD519MBXT7,05/04/2024 19:08,05/04/2024 19:08,Pay Bill Online from 254723***004 - LABAN *** Acc. JEF,Completed,2500,,222500,TRUE,Pay Bill Online,254723***004 - LABAN ***,,JEF
SD579FB4YJ,05/04/2024 18:33,05/04/2024 18:33,Pay Bill from 074156***305 - Isaac *** Acc. IBE,Completed,19000,,220000,TRUE,Pay Utility,074156***305 - Isaac ***,,IBE
SD559DNYSD,05/04/2024 18:24,05/04/2024 18:24,Pay Bill from 254726***835 - LAWRENCE *** Acc. kdj,Completed,16000,,201000,TRUE,Pay Utility with OD via STK,254726***835 - LAWRENCE ***,,kdj
SD518YKI5L,05/04/2024 16:50,05/04/2024 16:50,Pay Bill from 079850***956 - Raphael *** Acc. KEC,Completed,10000,,185000,TRUE,Pay Utility,079850***956 - Raphael ***,,KEC
SD538WY595,05/04/2024 16:38,05/04/2024 16:38,Pay Bill from 072438***624 - FATUMA *** Acc. FAB,Completed,16000,,175000,TRUE,Pay Utility with OD via STK,072438***624 - FATUMA ***,,FAB
SD538O9N9P,05/04/2024 15:33,05/04/2024 15:33,Pay Bill Online from 254710***215 - JOAN *** Acc. ifb,Completed,15000,,159000,TRUE,Pay Bill Online,254710***215 - JOAN ***,,ifb
SD508KYR4M,05/04/2024 15:08,05/04/2024 15:08,Pay Bill from 072099***728 - CHARITY *** Acc. IFG ,Completed,9000,,144000,TRUE,Pay Utility with OD via STK,072099***728 - CHARITY ***,,IFG 
SD508GOAS4,05/04/2024 14:34,05/04/2024 14:34,Pay Bill Online from 254716***144 - PETER *** Acc. FBB,Completed,16000,,135000,TRUE,Pay Bill Online,254716***144 - PETER ***,,FBB
SD568CMCF2,05/04/2024 14:03,05/04/2024 14:03,Pay Bill from 071515***284 - Clifford *** Acc. ICI,Completed,16000,,119000,TRUE,Pay Utility,071515***284 - Clifford ***,,ICI
SD5888WIA2,05/04/2024 13:36,05/04/2024 13:36,Pay Bill from 011568***585 - Sophia *** Acc. FAC,Completed,9000,,103000,TRUE,Pay Utility,011568***585 - Sophia ***,,FAC
SD507ZZZLW,05/04/2024 12:27,05/04/2024 12:27,Pay Bill from 254719***942 - NORAH *** Acc. KDA,Completed,16000,,94000,TRUE,Pay Utility,254719***942 - NORAH ***,,KDA
SD547Y210K,05/04/2024 12:12,05/04/2024 12:12,Pay Bill from 254717***585 - Fredrick *** Acc. DGC,Completed,19000,,78000,TRUE,Pay Utility,254717***585 - Fredrick ***,,DGC
SD517UI1C3,05/04/2024 11:43,05/04/2024 11:43,Pay Bill from 254703***305 - MARTHA *** Acc. IAI,Completed,15000,,59000,TRUE,Pay Utility,254703***305 - MARTHA ***,,IAI
SD547SZENC,05/04/2024 11:31,05/04/2024 11:31,Pay Bill from 254701***476 - mary *** Acc. DAA,Completed,16000,,44000,TRUE,Pay Utility,254701***476 - mary ***,,DAA
SD547PJ5DA,05/04/2024 11:03,05/04/2024 11:03,Pay Bill Online from 254721***713 - RHODA *** Acc. Jfh,Completed,17000,,28000,TRUE,Pay Bill Online,254721***713 - RHODA ***,,Jfh
SD537GNOW1,05/04/2024 09:49,05/04/2024 09:49,Pay Bill Online from 254722***335 - SOLOMON *** Acc. IBF,Completed,11000,,11000,TRUE,Pay Bill Online,254722***335 - SOLOMON ***,,IBF
SD5578J2QN,05/04/2024 08:35,05/04/2024 08:35,Utility Account to Organization Settlement Account,Completed,,-441700,0,TRUE,Utility Account to Organization Settlement Account,979524 - ANCIENT WELLS PROPERTY MANAGERS 2,,
SD576V6LTJ,05/04/2024 01:38,05/04/2024 01:38,Pay Bill Online from 254728***908 - Teddy *** Acc. DDD,Completed,15900,,441700,TRUE,Pay Bill Online,254728***908 - Teddy ***,,DDD
SD546UQ7YG,05/04/2024 01:09,05/04/2024 01:09,Pay Bill from 254723***911 - JAMES *** Acc. ICG,Completed,9500,,425800,TRUE,Pay Utility,254723***911 - JAMES ***,,ICG
SD466NPC0K,04/04/2024 22:22,04/04/2024 22:22,Pay Bill from 254703***626 - DAVID *** Acc. FCD,Completed,1000,,416300,TRUE,Pay Utility with OD via STK,254703***626 - DAVID ***,,FCD
SD446B1EE8,04/04/2024 20:41,04/04/2024 20:41,Business Pay Bill by 488519 - NCBA  Bank M-pesa Acc. kbf via API,Completed,10000,,415300,TRUE,Business Pay Bill via API,488519 - NCBA  Bank M-pesa,,kbf via API
SD416AJMI1,04/04/2024 20:37,04/04/2024 20:37,Pay Bill Online from 254721***178 - PHANICE *** Acc. FBF,Completed,16000,,405300,TRUE,Pay Bill Online,254721***178 - PHANICE ***,,FBF
SD465OBE8Y,04/04/2024 18:44,04/04/2024 18:44,Pay Bill from 254705***201 - NZIOKA *** Acc. JDG,Completed,10000,,389300,TRUE,Pay Utility,254705***201 - NZIOKA ***,,JDG
SD465HNG2S,04/04/2024 18:05,04/04/2024 18:05,Pay Bill from 079665***494 - Rose *** Acc. KFH,Completed,10000,,379300,TRUE,Pay Utility,079665***494 - Rose ***,,KFH
SD4056GXEQ,04/04/2024 16:52,04/04/2024 16:52,Pay Bill from 254796***018 - PEACE *** Acc. JEE,Completed,10000,,369300,TRUE,Pay Utility,254796***018 - PEACE ***,,JEE
SD4756AP4R,04/04/2024 16:50,04/04/2024 16:50,Pay Bill from 254796***018 - PEACE *** Acc. jah,Completed,16000,,359300,TRUE,Pay Utility,254796***018 - PEACE ***,,jah
SD414V0K79,04/04/2024 15:23,04/04/2024 15:23,Pay Bill Online from 254722***115 - NORAH *** Acc. HAC,Completed,10000,,343300,TRUE,Pay Bill Online,254722***115 - NORAH ***,,HAC
SD454MLZXZ,04/04/2024 14:16,04/04/2024 14:16,Pay Bill from 254728***882 - SHARAD *** Acc. KCK,Completed,15000,,333300,TRUE,Pay Utility,254728***882 - SHARAD ***,,KCK
SD464LLCDK,04/04/2024 14:08,04/04/2024 14:08,Pay Bill Online from 254723***820 - MELVIS *** Acc. KAC,Completed,11000,,318300,TRUE,Pay Bill Online,254723***820 - MELVIS ***,,KAC
SD434J4ZTH,04/04/2024 13:49,04/04/2024 13:49,Pay Bill from 254722***235 - AHMED *** Acc. JBD,Completed,6300,,307300,TRUE,Pay Utility with OD via STK,254722***235 - AHMED ***,,JBD
SD444IHUF0,04/04/2024 13:44,04/04/2024 13:44,Pay Bill from 254714***203 - PATRICK *** Acc. KEI,Completed,12000,,301000,TRUE,Pay Utility,254714***203 - PATRICK ***,,KEI
SD424BU8AY,04/04/2024 12:52,04/04/2024 12:52,Pay Bill Online from 254702***678 - JOHN *** Acc. DEB,Completed,20000,,289000,TRUE,Pay Bill Online,254702***678 - JOHN ***,,DEB
SD4342WN4D,04/04/2024 11:39,04/04/2024 11:39,Pay Bill Online from 254704***576 - NICODEMUS *** Acc. HBC,Completed,10000,,269000,TRUE,Pay Bill Online,254704***576 - NICODEMUS ***,,HBC
SD473Y42IL,04/04/2024 10:59,04/04/2024 10:59,Pay Bill Online from 254702***678 - JOHN *** Acc. DEB,Completed,16000,,259000,TRUE,Pay Bill Online,254702***678 - JOHN ***,,DEB
SD473VZHBF,04/04/2024 10:41,04/04/2024 10:41,Pay Bill from 254743***477 - FAITH *** Acc. IGE,Completed,9000,,243000,TRUE,Pay Utility,254743***477 - FAITH ***,,IGE
SD423S1SJS,04/04/2024 10:08,04/04/2024 10:08,Pay Bill from 070640***366 - LUCY *** Acc. KDB,Completed,12000,,234000,TRUE,Pay Utility,070640***366 - LUCY ***,,KDB
SD473GOJ55,04/04/2024 08:19,04/04/2024 08:19,Pay Bill Online from 254725***904 - SALOME *** Acc. KFJ,Completed,15000,,222000,TRUE,Pay Bill Online,254725***904 - SALOME ***,,KFJ
SD493DXW9J,04/04/2024 07:48,04/04/2024 07:48,Pay Bill Online from 254729***700 - MICAH *** Acc. HFE,Completed,10500,,207000,TRUE,Pay Bill Online,254729***700 - MICAH ***,,HFE
SD493ACI2J,04/04/2024 06:56,04/04/2024 06:56,Pay Bill Online from 254723***628 - CLINTON *** Acc. hfh,Completed,16000,,196500,TRUE,Pay Bill Online,254723***628 - CLINTON ***,,hfh
SD473A60X5,04/04/2024 06:52,04/04/2024 06:52,Pay Bill from 254799***200 - PURITY *** Acc. HDC,Completed,10500,,180500,TRUE,Pay Utility,254799***200 - PURITY ***,,HDC
SD3332U9OP,03/04/2024 23:35,03/04/2024 23:35,Pay Bill Online from 254700***051 - CAROLYNE *** Acc. FAD,Completed,11000,,170000,TRUE,Pay Bill Online,254700***051 - CAROLYNE ***,,FAD
SD312B92IT,03/04/2024 19:37,03/04/2024 19:37,Business Pay Bill by 488519 - NCBA  Bank M-pesa Acc. ICH via API,Completed,16000,,159000,TRUE,Business Pay Bill via API,488519 - NCBA  Bank M-pesa,,ICH via API
SD3726S083,03/04/2024 19:16,03/04/2024 19:16,Pay Bill Online from 254728***256 - NICHOLAS *** Acc. FBE,Completed,15000,,143000,TRUE,Pay Bill Online,254728***256 - NICHOLAS ***,,FBE
SD3423WXVI,03/04/2024 19:03,03/04/2024 19:03,Pay Bill from 254724***503 - GEOFREY *** Acc. JFF,Completed,10000,,128000,TRUE,Pay Utility,254724***503 - GEOFREY ***,,JFF
SD3222Y6D0,03/04/2024 18:58,03/04/2024 18:58,Pay Bill Online from 254714***043 - SAMUEL *** Acc. HEC,Completed,10000,,118000,TRUE,Pay Bill Online,254714***043 - SAMUEL ***,,HEC
SD311WF9JP,03/04/2024 18:23,03/04/2024 18:23,Pay Bill from 074548***142 - Daisy *** Acc. FGE,Completed,15000,,108000,TRUE,Pay Utility,074548***142 - Daisy ***,,FGE
SD301W6FS8,03/04/2024 18:22,03/04/2024 18:22,Pay Bill from 254723***259 - WILSON *** Acc. hca,Completed,15000,,93000,TRUE,Pay Utility with OD via STK,254723***259 - WILSON ***,,hca
SD311VPPDB,03/04/2024 18:19,03/04/2024 18:19,Pay Bill from 254725***550 - FRANKLINE *** Acc. KAF,Completed,10000,,78000,TRUE,Pay Utility,254725***550 - FRANKLINE ***,,KAF
SD381NTBQS,03/04/2024 17:31,03/04/2024 17:31,Pay Bill Online from 076802***575 - DOREEN *** Acc. HCD,Completed,10000,,68000,TRUE,Pay Bill Online,076802***575 - DOREEN ***,,HCD
SD31ZW7345,03/04/2024 13:59,03/04/2024 13:59,Pay Bill from 254725***094 - ABDISALAN *** Acc. IBA,Completed,16000,,58000,TRUE,Pay Utility,254725***094 - ABDISALAN ***,,IBA
SD39ZPZ419,03/04/2024 13:11,03/04/2024 13:11,Pay Bill Online from 254708***223 - DENNIS *** Acc. DCA,Completed,16000,,42000,TRUE,Pay Bill Online,254708***223 - DENNIS ***,,DCA
SD32ZLU2VS,03/04/2024 12:39,03/04/2024 12:39,Merchant Pay Utility Received from 7245661 -  OCHIENG CHEMIST  Acc. HFD,Completed,1000,,26000,TRUE,Merchant Pay Utility via API,7245661 -  OCHIENG CHEMIST ,,HFD
SD34ZKNEN4,03/04/2024 12:29,03/04/2024 12:29,Pay Bill Online from 254706***046 - STACY *** Acc. KGK,Completed,15000,,25000,TRUE,Pay Bill Online,254706***046 - STACY ***,,KGK
SD34ZIRTFU,03/04/2024 12:14,03/04/2024 12:14,Pay Bill from 254703***744 - Esther *** Acc. KEF,Completed,10000,,10000,TRUE,Pay Utility,254703***744 - Esther ***,,KEF
SD34ZCCA5U,03/04/2024 11:20,03/04/2024 11:20,Utility Account to Organization Settlement Account,Completed,,-271100,0,TRUE,Utility Account to Organization Settlement Account,979524 - ANCIENT WELLS PROPERTY MANAGERS 2,,
SD32ZBGFJQ,03/04/2024 11:13,03/04/2024 11:13,Pay Bill from 254727***545 - SERAH *** Acc. KGD,Completed,10000,,271100,TRUE,Pay Utility,254727***545 - SERAH ***,,KGD
SD39Z9129X,03/04/2024 10:53,03/04/2024 10:53,Pay Bill from 254710***003 - ALFRED *** Acc. HBH,Completed,16000,,261100,TRUE,Pay Utility,254710***003 - ALFRED ***,,HBH
SD37Z1PNXZ,03/04/2024 09:50,03/04/2024 09:50,Pay Bill from 254745***401 - mirriam *** Acc. kci,Completed,11000,,245100,TRUE,Pay Utility,254745***401 - mirriam ***,,kci
SD36YXC6Q0,03/04/2024 09:11,03/04/2024 09:11,Pay Bill from 254792***128 - Edwin *** Acc. HBF,Completed,9000,,234100,TRUE,Pay Utility,254792***128 - Edwin ***,,HBF
SD39YUCED1,03/04/2024 08:42,03/04/2024 08:42,Pay Bill from 254724***849 - Ann *** Acc. hda,Completed,16000,,225100,TRUE,Pay Utility,254724***849 - Ann ***,,hda
SD32YRR7RU,03/04/2024 08:17,03/04/2024 08:17,Pay Bill from 254717***324 - Christine *** Acc. KDF,Completed,10000,,209100,TRUE,Pay Utility,254717***324 - Christine ***,,KDF
SD37YHFY11,03/04/2024 03:29,03/04/2024 03:29,Pay Bill from 254718***358 - Job *** Acc. ICF,Completed,11000,,199100,TRUE,Pay Utility,254718***358 - Job ***,,ICF
SD34YFT3NK,03/04/2024 02:02,03/04/2024 02:02,Pay Bill from 074130***410 - STEVEKEVIN *** Acc. IAC,Completed,9000,,188100,TRUE,Pay Utility,074130***410 - STEVEKEVIN ***,,IAC
SD23Y4UOKV,02/04/2024 21:50,02/04/2024 21:50,Pay Bill from 254702***981 - VICTORIA *** Acc. KCE,Completed,10000,,179100,TRUE,Pay Utility,254702***981 - VICTORIA ***,,KCE
SD25XXAXQZ,02/04/2024 20:50,02/04/2024 20:50,Pay Bill from 254712***847 - ROSEMARY *** Acc. KGE,Completed,4500,,169100,TRUE,Pay Utility,254712***847 - ROSEMARY ***,,KGE
SD25XQIVN9,02/04/2024 20:09,02/04/2024 20:09,Pay Bill Online from 071160***780 - gift *** Acc. DEA,Completed,16000,,164600,TRUE,Pay Bill Online,071160***780 - gift ***,,DEA
SD28XNUG3I,02/04/2024 19:54,02/04/2024 19:54,Pay Bill Online from 254728***775 - Faith *** Acc. JAC,Completed,11000,,148600,TRUE,Pay Bill Online,254728***775 - Faith ***,,JAC
SD26XISDKO,02/04/2024 19:29,02/04/2024 19:29,Pay Bill from 074694***611 - suleiman *** Acc. KFB,Completed,33000,,137600,TRUE,Pay Utility,074694***611 - suleiman ***,,KFB
SD27XEDMEB,02/04/2024 19:08,02/04/2024 19:08,Pay Bill Online from 254710***992 - SIMON *** Acc. JCD,Completed,15000,,104600,TRUE,Pay Bill Online,254710***992 - SIMON ***,,JCD
SD29X2IN7V,02/04/2024 18:03,02/04/2024 18:03,Pay Bill Online from 254725***394 - RACHAEL *** Acc. JFB,Completed,15000,,89600,TRUE,Pay Bill Online,254725***394 - RACHAEL ***,,JFB
SD26X0VMB4,02/04/2024 17:53,02/04/2024 17:53,Pay Bill Online from 254711***729 - DAVID *** Acc. HFA,Completed,13600,,74600,TRUE,Pay Bill Online,254711***729 - DAVID ***,,HFA
SD20WT4OSS,02/04/2024 17:02,02/04/2024 17:02,Pay Bill from 074318***837 - Caroline *** Acc. JDC,Completed,5000,,61000,TRUE,Pay Utility,074318***837 - Caroline ***,,JDC
SD21WSPUZB,02/04/2024 17:00,02/04/2024 17:00,Pay Bill from 011532***960 - JOSEPH *** Acc. IBG,Completed,8000,,56000,TRUE,Pay Utility,011532***960 - JOSEPH ***,,IBG
SD23WG0PK5,02/04/2024 15:22,02/04/2024 15:22,Pay Bill Online from 254706***634 - CLINTON *** Acc. FDB,Completed,17000,,48000,TRUE,Pay Bill Online,254706***634 - CLINTON ***,,FDB
SD27W7L0BL,02/04/2024 14:14,02/04/2024 14:14,Pay Bill from 254704***496 - PETER *** Acc. DFD,Completed,20000,,31000,TRUE,Pay Utility,254704***496 - PETER ***,,DFD
SD21W4VTSR,02/04/2024 13:53,02/04/2024 13:53,Business Pay Bill by 998094 - COOP TO PAYBILL Acc. KDI via API,Completed,11000,,11000,TRUE,Business Pay Bill via API,998094 - COOP TO PAYBILL,,KDI via API
SD27VIKJRR,02/04/2024 10:50,02/04/2024 10:50,Utility Account to Organization Settlement Account,Completed,,-223000,0,TRUE,Utility Account to Organization Settlement Account,979524 - ANCIENT WELLS PROPERTY MANAGERS 2,,
SD24VI5AM8,02/04/2024 10:46,02/04/2024 10:46,Pay Bill from 254721***885 - QUINTER *** Acc. KGC,Completed,9000,,223000,TRUE,Pay Utility,254721***885 - QUINTER ***,,KGC
SD21V6I7WH,02/04/2024 09:01,02/04/2024 09:01,Pay Bill Online from 254707***839 - DENNIS *** Acc. FEF,Completed,16000,,214000,TRUE,Pay Bill Online,254707***839 - DENNIS ***,,FEF
SD24V3HQQQ,02/04/2024 08:32,02/04/2024 08:32,Pay Bill Online from 254706***429 - ROSE *** Acc. IFI,Completed,15000,,198000,TRUE,Pay Bill Online,254706***429 - ROSE ***,,IFI
SD22UW40X8,02/04/2024 07:03,02/04/2024 07:03,Pay Bill from 070656***358 - HARRIET *** Acc. HBA,Completed,16000,,183000,TRUE,Pay Utility,070656***358 - HARRIET ***,,HBA
SD17U9WK8D,01/04/2024 20:39,01/04/2024 20:39,Pay Bill Online from 254721***560 - ANDREW *** Acc. JBJ,Completed,16000,,167000,TRUE,Pay Bill Online,254721***560 - ANDREW ***,,JBJ
SD13U8EZGP,01/04/2024 20:30,01/04/2024 20:30,Pay Bill from 254729***933 - FELISTAH *** Acc. IDI,Completed,15000,,151000,TRUE,Pay Utility,254729***933 - FELISTAH ***,,IDI
SD11TUH3H5,01/04/2024 19:13,01/04/2024 19:13,Pay Bill Online from 254723***064 - ANDREW *** Acc. HBG,Completed,16000,,136000,TRUE,Pay Bill Online,254723***064 - ANDREW ***,,HBG
SD17TSBDMT,01/04/2024 19:02,01/04/2024 19:02,Pay Bill from 254715***903 - GLADYS *** Acc. DBD,Completed,20000,,120000,TRUE,Pay Utility,254715***903 - GLADYS ***,,DBD
SD15TS7X7B,01/04/2024 19:01,01/04/2024 19:01,Pay Bill from 074337***291 - Ann *** Acc. KAD,Completed,11000,,100000,TRUE,Pay Utility,074337***291 - Ann ***,,KAD
SD11TEX9O7,01/04/2024 17:39,01/04/2024 17:39,Pay Bill from 254791***823 - rachel *** Acc. JEG,Completed,9000,,89000,TRUE,Pay Utility,254791***823 - rachel ***,,JEG
SD11T96KAH,01/04/2024 16:57,01/04/2024 16:57,Pay Bill Online from 254700***806 - WINNIE *** Acc. JEC,Completed,10000,,80000,TRUE,Pay Bill Online,254700***806 - WINNIE ***,,JEC
SD19SUWK59,01/04/2024 15:01,01/04/2024 15:01,Pay Bill Online from 254791***019 - CLAUDIA *** Acc. IEE,Completed,28000,,70000,TRUE,Pay Bill Online,254791***019 - CLAUDIA ***,,IEE
SD11SFXMN5,01/04/2024 12:58,01/04/2024 12:58,Pay Bill Online from 254719***219 - PHILIP *** Acc. JDH,Completed,17000,,42000,TRUE,Pay Utility with OD Online,254719***219 - PHILIP ***,,JDH
SD14SA4TQM,01/04/2024 12:10,01/04/2024 12:10,Pay Bill from 254703***626 - DAVID *** Acc. FCD,Completed,1000,,25000,TRUE,Pay Utility with OD via STK,254703***626 - DAVID ***,,FCD
SD14RWNEOE,01/04/2024 10:12,01/04/2024 10:12,Pay Bill from 254702***790 - Michelle *** Acc. IDE,Completed,8000,,24000,TRUE,Pay Utility,254702***790 - Michelle ***,,IDE
SD10RUUTIG,01/04/2024 09:55,01/04/2024 09:55,Pay Bill Online from 254795***441 - LEWIS *** Acc. KEB,Completed,16000,,16000,TRUE,Pay Bill Online,254795***441 - LEWIS ***,,KEB
SD13RSMD35,01/04/2024 09:33,01/04/2024 09:33,Utility Account to Organization Settlement Account,Completed,,-183200,0,TRUE,Utility Account to Organization Settlement Account,979524 - ANCIENT WELLS PROPERTY MANAGERS 2,,
SD14RHSFFC,01/04/2024 07:34,01/04/2024 07:34,Pay Bill from 254720***007 - BRENDA *** Acc. KAB ,Completed,7000,,183200,TRUE,Pay Utility,254720***007 - BRENDA ***,,KAB 
SD13RDJA13,01/04/2024 05:24,01/04/2024 05:24,Pay Bill from 254113***311 - AMIR *** Acc. HGE,Completed,10000,,176200,TRUE,Pay Utility,254113***311 - AMIR ***,,HGE
SD11RAJF9V,01/04/2024 01:14,01/04/2024 01:14,Pay Bill from 254746***742 - FESTUS *** Acc. Iff,Completed,10000,,166200,TRUE,Pay Utility,254746***742 - FESTUS ***,,Iff
