Receipt No.,Completion Time,Initiation Time,Details,Transaction Status,Paid In,Withdrawn,Balance,Balance Confirmed,Reason Type,Other Party Info,Linked Transaction ID,A/C No.
QHC2321CVI,12/08/2022 09:20,12/08/2022 09:20,Pay Bill from 254729806880 - Eunice Akinyi Were Acc. V33,Completed,7000,,14000,TRUE,Pay Utility,254729806880 - Eunice Akinyi Were,,V33
QHB5259KBX,11/08/2022 17:16,11/08/2022 17:16,Pay Bill from 254724581472 - ROSEMARY ADHIAMBO ONGWESO Acc. vo3,Completed,7000,,7000,TRUE,Pay Utility,254724581472 - ROSEMARY ADHIAMBO ONGWESO,,vo3
QHB01KOQVI,11/08/2022 12:03,11/08/2022 12:03,Utility Account to Organization Settlement Account,Completed,,-17500,0,TRUE,Utility Account to Organization Settlement Account,887674 - ANCIENT WELLS LTD 1,,
QHA4ZHNGI0,10/08/2022 17:51,10/08/2022 17:51,Pay Bill from 254724760122 - DENIS NJUGUNA KARANJA Acc. V32,Completed,17500,,17500,TRUE,Pay Utility,254724760122 - DENIS NJUGUNA KARANJA,,V32
QHA8YPFFRC,10/08/2022 10:21,10/08/2022 10:21,Utility Account to Organization Settlement Account,Completed,,-7000,0,TRUE,Utility Account to Organization Settlement Account,887674 - ANCIENT WELLS LTD 1,,
QH88WSNAH8,08/08/2022 23:46,08/08/2022 23:46,Pay Bill from 0790659678 - Carlpeters Orwa Agengo Acc. V35,Completed,7000,,7000,TRUE,Pay Utility,0790659678 - Carlpeters Orwa Agengo,,V35
QH89VIG3JH,08/08/2022 13:51,08/08/2022 13:51,Utility Account to Organization Settlement Account,Completed,,-7000,0,TRUE,Utility Account to Organization Settlement Account,887674 - ANCIENT WELLS LTD 1,,
QH87V2HZ3J,08/08/2022 10:17,08/08/2022 10:17,Pay Bill from 254704551142 - KEVIN MORGAN MUTWIRI Acc. V25,Completed,7000,,7000,TRUE,Pay Utility,254704551142 - KEVIN MORGAN MUTWIRI,,V25
QH71UBWAHL,07/08/2022 19:47,07/08/2022 19:47,Utility Account to Organization Settlement Account,Completed,,-26800,0,TRUE,Utility Account to Organization Settlement Account,887674 - ANCIENT WELLS LTD 1,,
QH76TAXQC6,07/08/2022 11:43,07/08/2022 11:43,Pay Bill from 254705396032 - NAOMI NYAWIRA NGURE Acc. v46,Completed,6600,,26800,TRUE,Pay Utility,254705396032 - NAOMI NYAWIRA NGURE,,v46
QH78T9U5QO,07/08/2022 11:25,07/08/2022 11:25,Pay Bill from 0758457508 - PETER KINGORI KAGUNDA Acc. V06,Completed,7000,,20200,TRUE,Pay Utility,0758457508 - PETER KINGORI KAGUNDA,,V06
QH73SYNO27,07/08/2022 08:05,07/08/2022 08:05,Pay Bill from 254726465584 - JULIANA MUKELI MUTUNGA Acc. v4,Completed,6600,,13200,TRUE,Pay Utility,254726465584 - JULIANA MUKELI MUTUNGA,,v4
QH64SK2V80,06/08/2022 20:52,06/08/2022 20:52,Pay Bill from 0717042461 - Sharon Nyangasi Shivachi Acc. V55 ,Completed,6600,,6600,TRUE,Pay Utility,0717042461 - Sharon Nyangasi Shivachi,,V55
QH69S5QO1Z,06/08/2022 18:37,06/08/2022 18:37,Utility Account to Organization Settlement Account,Completed,,-10000,0,TRUE,Utility Account to Organization Settlement Account,887674 - ANCIENT WELLS LTD 1,,
QH64RZZ26Y,06/08/2022 17:35,06/08/2022 17:35,Pay Bill from 254702923950 - SAMUEL KIMANTHI Acc. v49,Completed,10000,,10000,TRUE,Pay Utility,254702923950 - SAMUEL KIMANTHI,,v49
QH66ROJ2FO,06/08/2022 15:14,06/08/2022 15:14,Utility Account to Organization Settlement Account,Completed,,-53200,0,TRUE,Utility Account to Organization Settlement Account,887674 - ANCIENT WELLS LTD 1,,
QH64R0USZE,06/08/2022 10:02,06/08/2022 10:02,Pay Bill from 254703108159 - JOICE OGOLLA Acc. V50,Completed,6600,,53200,TRUE,Pay Utility,254703108159 - JOICE OGOLLA,,V50
QH64QZQHL4,06/08/2022 09:46,06/08/2022 09:46,Pay Bill from 254790128716 - HELLEN NAPHTAL Acc. V11,Completed,7000,,46600,TRUE,Pay Utility,254790128716 - HELLEN NAPHTAL,,V11
QH62QRHO30,06/08/2022 07:23,06/08/2022 07:23,Pay Bill from 254701086112 - CAROLYNE KOKI MULWA Acc. V30,Completed,6600,,39600,TRUE,Pay Utility,254701086112 - CAROLYNE KOKI MULWA,,V30
QH53QFAR73,05/08/2022 21:13,05/08/2022 21:13,Pay Bill Online from 254728780393 - DINAH ONGIRI Acc. V39,Completed,7000,,33000,TRUE,Pay Bill Online,254728780393 - DINAH ONGIRI,,V39
QH50Q7VZRY,05/08/2022 19:57,05/08/2022 19:57,Pay Bill from 254743311673 - Maureen Njoki Wambui Acc. v60,Completed,1000,,26000,TRUE,Pay Utility,254743311673 - Maureen Njoki Wambui,,v60
QH51Q4L3LB,05/08/2022 19:29,05/08/2022 19:29,Pay Bill Online from 254740912300 - ADELIDE IMINZA CHAGUSIA Acc. v27,Completed,7000,,25000,TRUE,Pay Bill Online,254740912300 - ADELIDE IMINZA CHAGUSIA,,v27
QH52Q0FT84,05/08/2022 18:55,05/08/2022 18:55,Pay Bill from 254722578070 - SAMUEL MACHARIA Acc. v42,Completed,7000,,18000,TRUE,Pay Utility,254722578070 - SAMUEL MACHARIA,,v42
QH54PTGSQ0,05/08/2022 17:48,05/08/2022 17:48,Pay Bill from 254706920646 - MIRIAM CHEPTOO Acc. V08,Completed,7000,,11000,TRUE,Pay Utility,254706920646 - MIRIAM CHEPTOO,,V08
QH58PSPO8S,05/08/2022 17:40,05/08/2022 17:40,Pay Bill from 254720466443 - FATUMA MOHAMED ABDALLAH Acc. V21,Completed,4000,,4000,TRUE,Pay Utility,254720466443 - FATUMA MOHAMED ABDALLAH,,V21
QH59POUI1B,05/08/2022 16:58,05/08/2022 16:58,Utility Account to Organization Settlement Account,Completed,,-24200,0,TRUE,Utility Account to Organization Settlement Account,887674 - ANCIENT WELLS LTD 1,,
QH52PKNPX6,05/08/2022 16:07,05/08/2022 16:07,Pay Bill Online from 254704995854 - james karanja wairimu Acc. V54,Completed,6600,,24200,TRUE,Pay Bill Online,254704995854 - james karanja wairimu,,V54
QH55P0X23H,05/08/2022 11:53,05/08/2022 11:53,Pay Bill from 254723815832 - SEMEKIA ONDIALA Acc. V38,Completed,6600,,17600,TRUE,Pay Utility,254723815832 - SEMEKIA ONDIALA,,V38
QH54P0SS4O,05/08/2022 11:51,05/08/2022 11:51,Pay Bill Online from 254113615645 - brian litumbi embai Acc. V58,Completed,7000,,11000,TRUE,Pay Bill Online,254113615645 - brian litumbi embai,,V58
QH55OW45XR,05/08/2022 10:48,05/08/2022 10:48,Pay Bill from 254743311673 - Maureen Njoki Wambui Acc. V60,Completed,4000,,4000,TRUE,Pay Utility with OD via STK,254743311673 - Maureen Njoki Wambui,,V60
QH46NEZ5UY,04/08/2022 16:14,04/08/2022 16:14,Utility Account to Organization Settlement Account,Completed,,-7400,0,TRUE,Utility Account to Organization Settlement Account,887674 - ANCIENT WELLS LTD 1,,
QH46MNHMPC,04/08/2022 10:07,04/08/2022 10:07,Pay Bill from 254726702082 - STEPHEN NJUGUNA Acc. V02,Completed,7400,,7400,TRUE,Pay Utility,254726702082 - STEPHEN NJUGUNA,,V02
QH43MLXGLF,04/08/2022 09:45,04/08/2022 09:45,Utility Account to Organization Settlement Account,Completed,,-22200,0,TRUE,Utility Account to Organization Settlement Account,887674 - ANCIENT WELLS LTD 1,,
QH35M8DF7Z,03/08/2022 22:37,03/08/2022 22:37,Pay Bill from 254707183471 - PETINA NEKESA Acc. V23,Completed,6600,,22200,TRUE,Pay Utility,254707183471 - PETINA NEKESA,,V23
QH34M50I4U,03/08/2022 21:32,03/08/2022 21:32,Pay Bill from 254700904994 - HUSSEIN HASSAN LAMA Acc. V43,Completed,7000,,15600,TRUE,Pay Utility,254700904994 - HUSSEIN HASSAN LAMA,,V43
QH35LW944Z,03/08/2022 19:53,03/08/2022 19:53,Pay Bill from 254708018108 - COLLINS CHUMBA IKAAL Acc. v60,Completed,2000,,8600,TRUE,Pay Utility,254708018108 - COLLINS CHUMBA IKAAL,,v60
QH32LTZMLO,03/08/2022 19:33,03/08/2022 19:33,Pay Bill from 254712091662 - BENARD OMONDI ROBY Acc. V16,Completed,6600,,6600,TRUE,Pay Utility,254712091662 - BENARD OMONDI ROBY,,V16
QH39L2KNNF,03/08/2022 14:35,03/08/2022 14:35,Utility Account to Organization Settlement Account,Completed,,-22000,0,TRUE,Utility Account to Organization Settlement Account,887674 - ANCIENT WELLS LTD 1,,
QH34KQYEP0,03/08/2022 12:04,03/08/2022 12:04,Pay Bill from 254723337732 - CHRISTINE AKINYI OCHELE Acc. V14,Completed,15000,,22000,TRUE,Pay Utility,254723337732 - CHRISTINE AKINYI OCHELE,,V14
QH30KOFIZ8,03/08/2022 11:29,03/08/2022 11:29,Pay Bill Online from 254791173224 - FAITH WAMBUI GATHECHA Acc. V29,Completed,7000,,7000,TRUE,Pay Bill Online,254791173224 - FAITH WAMBUI GATHECHA,,V29
QH25JBPNCZ,02/08/2022 17:20,02/08/2022 17:20,Utility Account to Organization Settlement Account,Completed,,-27800,0,TRUE,Utility Account to Organization Settlement Account,887674 - ANCIENT WELLS LTD 1,,
QH17HNGD1R,01/08/2022 19:54,01/08/2022 19:54,Pay Bill from 254725756974 - MARTIN MUGAMBI Acc. v56,Completed,8200,,27800,TRUE,Pay Utility with OD via STK,254725756974 - MARTIN MUGAMBI,,v56
QH10GP6IBY,01/08/2022 13:44,01/08/2022 13:44,FSI to Pay Bill by 714888 - B2C LOOP VIA NCBA Acc. V40 via WEB by B2C LOOP VIA NCBA\Cbainitiator,Completed,6000,,19600,TRUE,FSI to Pay Bill via API,714888 - B2C LOOP VIA NCBA,,V40
QH18GLTP6G,01/08/2022 12:59,01/08/2022 12:59,Pay Bill Online from 254702118125 - ROTICH BETHWEL Acc. V20,Completed,7000,,13600,TRUE,Pay Bill Online,254702118125 - ROTICH BETHWEL,,V20
QH11GISKBD,01/08/2022 12:17,01/08/2022 12:17,Pay Bill from 254715939283 - alex nyamai Acc. v7,Completed,6600,,6600,TRUE,Pay Utility,254715939283 - alex nyamai,,v7
QH19G356UJ,01/08/2022 08:20,01/08/2022 08:20,Utility Account to Organization Settlement Account,Completed,,-38100,0,TRUE,Utility Account to Organization Settlement Account,887674 - ANCIENT WELLS LTD 1,,
