Receipt No.,Completion Time,Initiation Time,Details,Transaction Status,Paid In,Withdrawn,Balance,Balance Confirmed,Reason Type,Other Party Info,Linked Transaction ID,A/C No.
RK77NZOZGJ,07/11/2023 12:46,07/11/2023 12:46,Utility Account to Organization Settlement Account,Completed,,-50000,58100,TRUE,Utility Account to Organization Settlement Account,887075 - ANCIENT WELLS LTD 3,,
RK63MN50F3,06/11/2023 21:17,06/11/2023 21:17,Pay Bill from 254715764093 - GICHANA GOVAN Acc. E3,Completed,8000,,108100,TRUE,Pay Utility,254715764093 - GICHANA GOVAN,,E3
RK67MENX91,06/11/2023 20:11,06/11/2023 20:11,Pay Bill from 0741807396 - JAMES  WAMBUGU RAMTU Acc. B5,Completed,8500,,100100,TRUE,Pay Utility,0741807396 - JAMES  WAMBUGU RAMTU,,B5
RK52JLK3G8,05/11/2023 22:54,05/11/2023 22:54,Pay Bill from 0715030019 - Omwenga Ong'era Stephen Acc. E1,Completed,8000,,91600,TRUE,Pay Utility,0715030019 - Omwenga Ong'era Stephen,,E1
RK58IVI7OK,05/11/2023 18:54,05/11/2023 18:54,Pay Bill from 0791565463 - Lilian Njeri Wakagwi Acc. F6,Completed,8500,,83600,TRUE,Pay Utility,0791565463 - Lilian Njeri Wakagwi,,F6
RK57I77KY1,05/11/2023 15:51,05/11/2023 15:51,Pay Bill from 0768386417 - PAUL MUTUNE MUSYOKA Acc. D6,Completed,8500,,75100,TRUE,Pay Utility,0768386417 - PAUL MUTUNE MUSYOKA,,D6
RK57HALETB,05/11/2023 10:36,05/11/2023 10:36,Pay Bill from 254746659971 - gladys wanjiru nyaga Acc. E4,Completed,8500,,66600,TRUE,Pay Utility,254746659971 - gladys wanjiru nyaga,,E4
RK54GUHJXO,05/11/2023 07:26,05/11/2023 07:26,Pay Bill Online from 0799912339 - PETER KAMAU MURIU Acc. c5,Completed,100,,58100,TRUE,Pay Bill Online,0799912339 - PETER KAMAU MURIU,,c5
RK43E29TFJ,04/11/2023 11:21,04/11/2023 11:21,Business Pay Bill by 998094 - COOP TO PAYBILL Acc. G2 via API,Completed,16000,,58000,TRUE,Business Pay Bill via API,998094 - COOP TO PAYBILL,,G2
RK48E1Y9LE,04/11/2023 11:18,04/11/2023 11:18,Pay Bill from 254704740197 - CECILIA NJERI GITHUI Acc. C3,Completed,8000,,42000,TRUE,Pay Utility,254704740197 - CECILIA NJERI GITHUI,,C3
RK42DZY4LA,04/11/2023 11:00,04/11/2023 11:00,Pay Bill from 0729776299 - WAMBUA   KIOKO Acc. c1,Completed,2500,,34000,TRUE,Pay Utility,0729776299 - WAMBUA   KIOKO,,c1
RK34BMTKS4,03/11/2023 16:06,03/11/2023 16:06,Pay Bill Online from 254792281122 - MWENDWA MUTUNGA Acc. B1,Completed,8000,,31500,TRUE,Pay Bill Online,254792281122 - MWENDWA MUTUNGA,,B1
RK145SYCOQ,01/11/2023 19:28,01/11/2023 19:28,Pay Bill from 254791341895 - Enos Nyaosi Ayuma Acc. D5,Completed,8500,,23500,TRUE,Pay Utility,254791341895 - Enos Nyaosi Ayuma,,D5
RK163VIY1O,01/11/2023 10:28,01/11/2023 10:28,Business Pay Bill by 998094 - COOP TO PAYBILL Acc. A1 via API,Completed,6500,,15000,TRUE,Business Pay Bill via API,998094 - COOP TO PAYBILL,,A1
