Receipt No.,Completion Time,Initiation Time,Details,Transaction Status,Paid In,Withdrawn,Balance,Balance Confirmed,Reason Type,Other Party Info,Linked Transaction ID,A/C No.
OF46OZZ66A,04/06/2020 19:23,04/06/2020 19:23,Pay Bill from 254708915764 - GEORGE WAHOME Acc. V18,Completed,4000,,43800,TRUE,Pay Utility,254708915764 - GEORGE WAHOME,,V18
OF44OS8P5O,04/06/2020 16:42,04/06/2020 16:42,Pay Bill from 254712014147 - HILLAN MWITI GITONGA Acc. V 13,Completed,6800,,39800,TRUE,Pay Utility,254712014147 - HILLAN MWITI GITONGA,,V
OF45OJNH8T,04/06/2020 12:43,04/06/2020 12:43,Pay Bill from 254729569271 - MESHACK OBOTTA OBOTTA OBARE Acc. V12,Completed,6600,,33000,TRUE,Pay Utility,254729569271 - MESHACK OBOTTA OBOTTA OBARE,,V12
OF43OFF1MV,04/06/2020 10:35,04/06/2020 10:35,Pay Bill from 0717042461 - Sharon Nyangasi Shivachi Acc. V55,Completed,6600,,26400,TRUE,Pay Utility,0717042461 - Sharon Nyangasi Shivachi,,V55
OF43OEIDHH,04/06/2020 10:06,04/06/2020 10:06,Pay Bill from 0714576438 - OCHOLA HESBON OCHIENG Acc. V06,Completed,6600,,19800,TRUE,Pay Utility,0714576438 - OCHOLA HESBON OCHIENG,,V06
OF49ODL7R7,04/06/2020 09:36,04/06/2020 09:36,Pay Bill from 254722160984 - PENINNAH MUNYWOKI Acc. Anita v27,Completed,6600,,13200,TRUE,Pay Utility,254722160984 - PENINNAH MUNYWOKI,,Anita
OF33O4M233,03/06/2020 19:34,03/06/2020 19:34,Pay Bill from 254795690554 - BENARD SIMIYU WANJALA Acc. House V8,Completed,6600,,6600,TRUE,Pay Utility,254795690554 - BENARD SIMIYU WANJALA,,House
OF36NYRZAC,03/06/2020 17:36,03/06/2020 17:36,Utility Account to Organization Settlement Account,Completed,,-17100,0,TRUE,Utility Account to Organization Settlement Account,887674 - ANCIENT WELLS LTD 1,,
OF35NN06IZ,03/06/2020 12:19,03/06/2020 12:19,Pay Bill from 254703311892 - WINNIE ACHIENG' OPEYO Acc. v50,Completed,500,,17100,TRUE,Pay Utility,254703311892 - WINNIE ACHIENG' OPEYO,,v50
OF32NMVTPW,03/06/2020 12:16,03/06/2020 12:16,Pay Bill Online from 254713498554 - HENRY KINYUA WARUI Acc. Henry Warui,Completed,5900,,16600,TRUE,Pay Bill Online,254713498554 - HENRY KINYUA WARUI,,Henry
OF38NMBS0E,03/06/2020 11:59,03/06/2020 11:59,Pay Bill from 254703311892 - WINNIE ACHIENG' OPEYO Acc. v50,Completed,6100,,10700,TRUE,Pay Utility,254703311892 - WINNIE ACHIENG' OPEYO,,v50
OF37NDDLCF,03/06/2020 00:20,03/06/2020 00:20,Pay Bill from 254790610309 - MESHACK CHUMBA Acc. V39,Completed,4600,,4600,TRUE,Pay Utility,254790610309 - MESHACK CHUMBA,,V39
OF22N77DYS,02/06/2020 18:57,02/06/2020 18:57,Utility Account to Organization Settlement Account,Completed,,-76900,0,TRUE,Utility Account to Organization Settlement Account,887674 - ANCIENT WELLS LTD 1,,
OF29N5RYZP,02/06/2020 18:29,02/06/2020 18:29,Pay Bill from 254718417450 - HARON ASUMA OROKO Acc. haron V 47,Completed,6600,,76900,TRUE,Pay Utility,254718417450 - HARON ASUMA OROKO,,haron
OF29N00U1P,02/06/2020 16:26,02/06/2020 16:26,Pay Bill from 254700760396 - JULIUS MBUGUA KINYAHWE Acc. v35 ,Completed,7000,,70300,TRUE,Pay Utility,254700760396 - JULIUS MBUGUA KINYAHWE,,v35
OF26MQZT5E,02/06/2020 12:14,02/06/2020 12:14,Pay Bill from 254790610309 - MESHACK CHUMBA Acc. V39,Completed,4600,,63300,TRUE,Pay Utility,254790610309 - MESHACK CHUMBA,,V39
OF19MD2WHX,01/06/2020 19:24,01/06/2020 19:24,Pay Bill from 254798083394 - LYDIAH AWUOR OKELLO Acc. V34,Completed,1500,,58700,TRUE,Pay Utility,254798083394 - LYDIAH AWUOR OKELLO,,V34
OF19MAM8JX,01/06/2020 18:30,01/06/2020 18:30,Pay Bill from 254799376885 - DERRICK OSORE SONGORO Acc. Derrick V58,Completed,6600,,57200,TRUE,Pay Utility,254799376885 - DERRICK OSORE SONGORO,,Derrick
OF13M2NO1L,01/06/2020 15:13,01/06/2020 15:13,Pay Bill from 254712091662 - BENARD OMONDI ROBY Acc. V16,Completed,6600,,50600,TRUE,Pay Utility,254712091662 - BENARD OMONDI ROBY,,V16
OF11LV280T,01/06/2020 11:16,01/06/2020 11:16,Pay Bill from 254729736327 - DARLYNE MAIMA Acc. V59,Completed,6600,,44000,TRUE,Pay Utility,254729736327 - DARLYNE MAIMA,,V59
OF13LP0H55,01/06/2020 07:37,01/06/2020 07:37,Pay Bill from 254723815832 - SEMEKIA ONDIALA Acc. v38,Completed,6600,,37400,TRUE,Pay Utility,254723815832 - SEMEKIA ONDIALA,,v38
OEV2KZPJPS,31/05/2020 10:34,31/05/2020 10:34,Pay Bill from 254727729395 - ROBERT OUKO OSORO Acc. V29,Completed,6600,,30800,TRUE,Pay Utility,254727729395 - ROBERT OUKO OSORO,,V29
OEU5KSW9PV,30/05/2020 22:04,30/05/2020 22:04,Pay Bill from 254705050415 - Omondi Okoth Acc. GRACE OWUOR V5,Completed,6600,,24200,TRUE,Pay Utility,254705050415 - Omondi Okoth,,GRACE
OEU4KS0DBW,30/05/2020 21:12,30/05/2020 21:12,Pay Bill from 254718359438 - AHMAD TAHIR MACHENGO Acc. V11,Completed,6600,,17600,TRUE,Pay Utility,254718359438 - AHMAD TAHIR MACHENGO,,V11
OEU5K6SKID,30/05/2020 12:17,30/05/2020 12:17,Pay Bill from 0746130180 - lydia nyevu thoya Acc. V14,Completed,5000,,11000,TRUE,Pay Utility,0746130180 - lydia nyevu thoya,,V14
OEU0K039OO,30/05/2020 08:48,30/05/2020 08:48,Pay Bill Online from 254715939283 - alex nyamai Acc. alex v07,Completed,2000,,6000,TRUE,Pay Bill Online,254715939283 - alex nyamai,,alex
OET3JEGCYN,29/05/2020 13:59,29/05/2020 13:59,Pay Bill Online from 254713498554 - HENRY KINYUA WARUI Acc. Henry Warui V44,Completed,4000,,4000,TRUE,Pay Bill Online,254713498554 - HENRY KINYUA WARUI,,Henry
OET9JDVIUD,29/05/2020 13:42,29/05/2020 13:42,Utility Account to Organization Settlement Account,Completed,,-5000,0,TRUE,Utility Account to Organization Settlement Account,887674 - ANCIENT WELLS LTD 1,,
OET0J931NU,29/05/2020 11:16,29/05/2020 11:16,Pay Bill Online from 254715939283 - alex nyamai Acc. alexv07,Completed,5000,,5000,TRUE,Pay Bill Online,254715939283 - alex nyamai,,alexv07
