Receipt No.,Completion Time,Initiation Time,Details,Transaction Status,Paid In,Withdrawn,Balance,Balance Confirmed,Reason Type,Other Party Info,Linked Transaction ID,A/C No.
OFO07PK5J4,24/06/2020 16:13,24/06/2020 16:13,Pay Bill from 254702210491 - JOHN WAITARA Acc. ITARA GRILLS,Completed,25000,,31100,TRUE,Pay Utility with OD via STK,254702210491 - JOHN WAITARA,,ITARA
OFM463SWVO,22/06/2020 18:48,22/06/2020 18:48,Pay Bill from 254716286387 - George oduor Agwa Acc. B7,Completed,6100,,6100,TRUE,Pay Utility,254716286387 - George oduor Agwa,,B7
OFK741BZZL,20/06/2020 15:06,20/06/2020 15:06,Utility Account to Organization Settlement Account,Completed,,-2000,0,TRUE,Utility Account to Organization Settlement Account,887264 - ANCIENT WELLS LTD 2,,
OFK53QWX4R,20/06/2020 10:05,20/06/2020 10:05,Pay Bill from 254723174583 - BRIAN ODHIAMBO OUMA Acc. b3,Completed,2000,,2000,TRUE,Pay Utility,254723174583 - BRIAN ODHIAMBO OUMA,,b3
OFJ72XWPI7,19/06/2020 12:34,19/06/2020 12:34,Utility Account to Organization Settlement Account,Completed,,-5000,0,TRUE,Utility Account to Organization Settlement Account,887264 - ANCIENT WELLS LTD 2,,
OFI22LX146,18/06/2020 21:52,18/06/2020 21:52,Pay Bill from 254741791919 - Linet Mongina Maraga Acc. linet,Completed,5000,,5000,TRUE,Pay Utility with OD via STK,254741791919 - Linet Mongina Maraga,,linet
