Receipt No.,Completion Time,Initiation Time,Details,Transaction Status,Paid In,Withdrawn,Balance,Balance Confirmed,Reason Type,Other Party Info,Linked Transaction ID,A/C No.
PAC4K2XB5S,12/01/2021 17:26,12/01/2021 17:26,Pay Bill from 254711428856 - JAPHETH OTSIENO BARASA Acc. Japheth Barasa A5,Completed,11000,,19000,TRUE,Pay Utility,254711428856 - JAPHETH OTSIENO BARASA,,Japheth
PAC8K2TDUO,12/01/2021 17:24,12/01/2021 17:24,Pay Bill from 254701166449 - BETTY NYAWIRA MAINA Acc. G-3,Completed,3000,,8000,TRUE,Pay Utility,254701166449 - BETTY NYAWIRA MAINA,,G-3
PAC0K2QDKO,12/01/2021 17:23,12/01/2021 17:23,Pay Bill from 254729110577 - GREGORY ONESMUS KIMANTHI Acc. D6,Completed,5000,,5000,TRUE,Pay Utility,254729110577 - GREGORY ONESMUS KIMANTHI,,D6
PAB1JDNOJN,11/01/2021 22:44,11/01/2021 22:44,Utility Account to Organization Settlement Account,Completed,,-10500,0,TRUE,Utility Account to Organization Settlement Account,887075 - ANCIENT WELLS LTD 3,,
PAB0J18UT8,11/01/2021 18:19,11/01/2021 18:19,Pay Bill Online from 254715020357 - ELIZABETH NJERI WARARI Acc. C2,Completed,2000,,10500,TRUE,Pay Bill Online,254715020357 - ELIZABETH NJERI WARARI,,C2
PAB2IKPSNI,11/01/2021 12:02,11/01/2021 12:02,Pay Bill from 254725085735 - MATTHEW MULI MUTUKU Acc. mercymuliB6p,Completed,8500,,8500,TRUE,Pay Utility,254725085735 - MATTHEW MULI MUTUKU,,mercymuliB6p
