Receipt No.,Completion Time,Initiation Time,Details,Transaction Status,Paid In,Withdrawn,Balance,Balance Confirmed,Reason Type,Other Party Info,Linked Transaction ID,A/C No.
RAA23G37LM,10/01/2023 13:32,10/01/2023 13:32,Pay Bill Online from 254711877988 - PATRICK KONZI Acc. b4,Completed,1500,,159800,TRUE,Pay Utility with OD Online,254711877988 - PATRICK KONZI,,b4
RA981IMOJO,09/01/2023 16:52,09/01/2023 16:52,Pay Bill from 254711877988 - PATRICK KONZI Acc. b4,Completed,7000,,158300,TRUE,Pay Utility with OD via STK,254711877988 - PATRICK KONZI,,b4
RA94ZO7CXS,09/01/2023 11:11,09/01/2023 11:11,Pay Bill Online from 254720086214 - SAMUEL WANJIKU Acc. B3,Completed,8000,,151300,TRUE,Pay Bill Online,254720086214 - SAMUEL WANJIKU,,B3
RA77WA30HZ,07/01/2023 19:27,07/01/2023 19:27,Pay Bill from 0720571944 - Ronoh   Benard Acc. D2,Completed,9000,,143300,TRUE,Pay Utility,0720571944 - Ronoh   Benard,,D2
RA73VYVRQT,07/01/2023 17:53,07/01/2023 17:53,Pay Bill from 254721539716 - OCTAVIAN MWANYALO Acc. C6,Completed,8000,,134300,TRUE,Pay Utility,254721539716 - OCTAVIAN MWANYALO,,C6
RA74VL6A74,07/01/2023 15:31,07/01/2023 15:31,Pay Bill from 0114093036 - Cecillia Njeri Githui Acc. c3,Completed,8000,,126300,TRUE,Pay Utility,0114093036 - Cecillia Njeri Githui,,c3
RA60UBMQ2E,06/01/2023 23:50,06/01/2023 23:50,Pay Bill Online from 254715020357 - ELIZABETH NJERI WARARI Acc. C2,Completed,6000,,118300,TRUE,Pay Bill Online,254715020357 - ELIZABETH NJERI WARARI,,C2
RA62UAMC80,06/01/2023 23:11,06/01/2023 23:11,Pay Bill Online from 254721457538 - SUSAN MUIRURI Acc. B2,Completed,8000,,112300,TRUE,Pay Bill Online,254721457538 - SUSAN MUIRURI,,B2
RA69U89PNJ,06/01/2023 22:17,06/01/2023 22:17,Pay Bill from 254710248036 - Allan Kimeu Mutua Acc. F5,Completed,8500,,104300,TRUE,Pay Utility,254710248036 - Allan Kimeu Mutua,,F5
RA60U7KLD4,06/01/2023 22:05,06/01/2023 22:05,Pay Bill from 254715764093 - GICHANA GOVAN Acc. E3,Completed,7800,,95800,TRUE,Pay Utility,254715764093 - GICHANA GOVAN,,E3
RA60TVA93I,06/01/2023 19:59,06/01/2023 19:59,Pay Bill from 254714597495 - WAMBUA KIOKO Acc. c1,Completed,8000,,88000,TRUE,Pay Utility,254714597495 - WAMBUA KIOKO,,c1
RA67T2DELX,06/01/2023 15:38,06/01/2023 15:38,Pay Bill from 0791565463 - Lilian Njeri Wakagwi Acc. F6,Completed,8500,,80000,TRUE,Pay Utility,0791565463 - Lilian Njeri Wakagwi,,F6
RA63SX9BVV,06/01/2023 14:41,06/01/2023 14:41,Pay Bill from 0719349205 - Christabel Gakii Munene Acc. D1,Completed,7000,,71500,TRUE,Pay Utility,0719349205 - Christabel Gakii Munene,,D1
RA56RNS792,05/01/2023 21:46,05/01/2023 21:46,Pay Bill Online from 254706248362 - BERYL HUMA Acc. E5,Completed,8500,,64500,TRUE,Pay Bill Online,254706248362 - BERYL HUMA,,E5
RA56R7HGFO,05/01/2023 19:18,05/01/2023 19:18,Pay Bill from 254726645592 - Ephantus Muriithi Irura Acc. c4 muriithi,Completed,8500,,56000,TRUE,Pay Utility,254726645592 - Ephantus Muriithi Irura,,c4
RA54QBWU9Q,05/01/2023 14:01,05/01/2023 14:01,Pay Bill from 254720439955 - GEOPHRY OKOTH Acc. D6,Completed,8500,,47500,TRUE,Pay Utility,254720439955 - GEOPHRY OKOTH,,D6
RA47OAQ3HH,04/01/2023 16:47,04/01/2023 16:47,Pay Bill from 254726945691 - JAMES RAMTU Acc. B5,Completed,8500,,39000,TRUE,Pay Utility,254726945691 - JAMES RAMTU,,B5
RA34M6B8YI,03/01/2023 18:30,03/01/2023 18:30,Pay Bill from 254727585857 - PETER MUOKI NGUNDO Acc. Peter Ngundo e6 ,Completed,8500,,30500,TRUE,Pay Utility,254727585857 - PETER MUOKI NGUNDO,,Peter
RA32M04560,03/01/2023 17:32,03/01/2023 17:32,Pay Bill Online from 254720062144 - CAROLINE AMONDI OKELO Acc. f4,Completed,12000,,22000,TRUE,Pay Bill Online,254720062144 - CAROLINE AMONDI OKELO,,f4
RA35L85OWZ,03/01/2023 12:20,03/01/2023 12:20,Pay Bill Online from 254703176849 - ROYAL MUYA Acc. F2,Completed,5000,,10000,TRUE,Pay Bill Online,254703176849 - ROYAL MUYA,,F2
RA35L1UMJ7,03/01/2023 11:05,03/01/2023 11:05,Pay Bill from 0799912339 - PETER KAMAU MURIU Acc. C5,Completed,5000,,5000,TRUE,Pay Utility,0799912339 - PETER KAMAU MURIU,,C5
RA22JATH9I,02/01/2023 14:55,02/01/2023 14:55,Utility Account to Organization Settlement Account,Completed,,-33500,0,TRUE,Utility Account to Organization Settlement Account,887075 - ANCIENT WELLS LTD 3,,
RA15GALH33,01/01/2023 08:14,01/01/2023 08:14,Pay Bill Online from 254720201157 - BENSON INYANJE MWAKHA Acc. b6,Completed,8500,,33500,TRUE,Pay Bill Online,254720201157 - BENSON INYANJE MWAKHA,,b6
