Receipt No.,Completion Time,Initiation Time,Details,Transaction Status,Paid In,Withdrawn,Balance,Balance Confirmed,Reason Type,Other Party Info,Linked Transaction ID,A/C No.
PJ56T92QMS,05/10/2021 14:29,05/10/2021 14:29,Pay Bill from 254717465142 - EPHANTUS IRURA Acc. c4 muriithi,Completed,8500,,8500,TRUE,Pay Utility,254717465142 - EPHANTUS IRURA,,c4
PJ51SU4U31,05/10/2021 10:05,05/10/2021 10:05,Utility Account to Organization Settlement Account,Completed,,-8500,0,TRUE,Utility Account to Organization Settlement Account,887075 - ANCIENT WELLS LTD 3,,
PJ55SRGYBT,05/10/2021 09:16,05/10/2021 09:16,Pay Bill Online from 254704213191 - VALENTINE WAVINYA Acc. e3,Completed,8500,,8500,TRUE,Pay Bill Online,254704213191 - VALENTINE WAVINYA,,e3
PJ51SPFYJZ,05/10/2021 08:34,05/10/2021 08:34,Utility Account to Organization Settlement Account,Completed,,-8500,0,TRUE,Utility Account to Organization Settlement Account,887075 - ANCIENT WELLS LTD 3,,
PJ43SAKWWL,04/10/2021 19:55,04/10/2021 19:55,Pay Bill from 254728664261 - LEVIN INGATI NYONJE Acc. B5,Completed,8500,,8500,TRUE,Pay Utility,254728664261 - LEVIN INGATI NYONJE,,B5
PJ46S2J8QI,04/10/2021 18:30,04/10/2021 18:30,Utility Account to Organization Settlement Account,Completed,,-8000,0,TRUE,Utility Account to Organization Settlement Account,887075 - ANCIENT WELLS LTD 3,,
PJ48RSENYW,04/10/2021 16:08,04/10/2021 16:08,Pay Bill from 254791273726 - JULLIET WINNIE OTIENO Acc. G1,Completed,8000,,8000,TRUE,Pay Utility,254791273726 - JULLIET WINNIE OTIENO,,G1
PJ42RMD1TU,04/10/2021 14:23,04/10/2021 14:23,Utility Account to Organization Settlement Account,Completed,,-8500,0,TRUE,Utility Account to Organization Settlement Account,887075 - ANCIENT WELLS LTD 3,,
PJ42RGVNZ0,04/10/2021 12:49,04/10/2021 12:49,Pay Bill Online from 254795983642 - OBED MOGAKA Acc. F6 OBED ,Completed,8500,,8500,TRUE,Pay Bill Online,254795983642 - OBED MOGAKA,,F6
PJ40R6WDVQ,04/10/2021 09:50,04/10/2021 09:50,Utility Account to Organization Settlement Account,Completed,,-16500,0,TRUE,Utility Account to Organization Settlement Account,887075 - ANCIENT WELLS LTD 3,,
PJ34Q8KDIE,03/10/2021 15:57,03/10/2021 15:57,Pay Bill from 254722706516 - KORIR ANTHONY Acc. Anthony d 3,Completed,8000,,16500,TRUE,Pay Utility,254722706516 - KORIR ANTHONY,,Anthony
PJ34Q75EB6,03/10/2021 15:34,03/10/2021 15:34,Pay Bill Online from 254724871526 - JOHN KAGUONGO Acc. D5 JOHN KAGUONGO,Completed,8500,,8500,TRUE,Pay Bill Online,254724871526 - JOHN KAGUONGO,,D5
PJ21OX7L0B,02/10/2021 18:12,02/10/2021 18:12,Utility Account to Organization Settlement Account,Completed,,-8000,0,TRUE,Utility Account to Organization Settlement Account,887075 - ANCIENT WELLS LTD 3,,
PJ20OHT99W,02/10/2021 14:24,02/10/2021 14:24,Pay Bill from 0702590087 - edel njoki kimani Acc. F3,Completed,8000,,8000,TRUE,Pay Utility,0702590087 - edel njoki kimani,,F3
PJ22OEAQ80,02/10/2021 13:30,02/10/2021 13:30,Utility Account to Organization Settlement Account,Completed,,-22500,0,TRUE,Utility Account to Organization Settlement Account,887075 - ANCIENT WELLS LTD 3,,
PJ24O5OM18,02/10/2021 11:09,02/10/2021 11:09,Pay Bill Online from 254715020357 - ELIZABETH NJERI WARARI Acc. C2,Completed,7500,,22500,TRUE,Pay Bill Online,254715020357 - ELIZABETH NJERI WARARI,,C2
PJ14NDQZSE,01/10/2021 19:14,01/10/2021 19:14,Pay Bill from 254714419834 - FAITH MWIKALI MUTHAMA Acc. D4,Completed,15000,,15000,TRUE,Pay Utility,254714419834 - FAITH MWIKALI MUTHAMA,,D4
