Receipt No.,Completion Time,Initiation Time,Details,Transaction Status,Paid In,Withdrawn,Balance,Balance Confirmed,Reason Type,Other Party Info,Linked Transaction ID,A/C No.
QAD9JA8ACP,13/01/2022 11:00,13/01/2022 11:00,Utility Account to Organization Settlement Account,Completed,,-7600,0,TRUE,Utility Account to Organization Settlement Account,887674 - ANCIENT WELLS LTD 1,,
QAC9HUTAYT,12/01/2022 13:26,12/01/2022 13:26,Pay Bill Online from 0725639425 - GEOFFREY ODOYO OMUNE Acc. V13,Completed,1000,,7600,TRUE,Pay Bill Online,0725639425 - GEOFFREY ODOYO OMUNE,,V13
QAC2HI5AHU,12/01/2022 09:37,12/01/2022 09:37,Pay Bill from 0113907030 - NAOMI NDINDA NZAMALU Acc. V28,Completed,6600,,6600,TRUE,Pay Utility,0113907030 - NAOMI NDINDA NZAMALU,,V28
QAC4HHB01I,12/01/2022 09:21,12/01/2022 09:21,Utility Account to Organization Settlement Account,Completed,,-13000,0,TRUE,Utility Account to Organization Settlement Account,887674 - ANCIENT WELLS LTD 1,,
QAC0H9RT3A,12/01/2022 01:08,12/01/2022 01:08,Pay Bill from 254719701463 - MARY KANYI KIARIE Acc. V17,Completed,5000,,13000,TRUE,Pay Utility with OD via STK,254719701463 - MARY KANYI KIARIE,,V17
QAB2GU3T72,11/01/2022 19:09,11/01/2022 19:09,Pay Bill from 254720068224 - ESAU JARREL MUNYWOKI Acc. V27,Completed,8000,,8000,TRUE,Pay Utility,254720068224 - ESAU JARREL MUNYWOKI,,V27
QAB8G3IUVK,11/01/2022 12:06,11/01/2022 12:06,Utility Account to Organization Settlement Account,Completed,,-6600,0,TRUE,Utility Account to Organization Settlement Account,887674 - ANCIENT WELLS LTD 1,,
QAB2FQOH8C,11/01/2022 08:05,11/01/2022 08:05,Pay Bill from 254700218502 - GRACE NGURE Acc. v46,Completed,6600,,6600,TRUE,Pay Utility,254700218502 - GRACE NGURE,,v46
QAA6E0ZLDS,10/01/2022 08:07,10/01/2022 08:07,Utility Account to Organization Settlement Account,Completed,,-25200,0,TRUE,Utility Account to Organization Settlement Account,887674 - ANCIENT WELLS LTD 1,,
QAA0DXYO92,10/01/2022 06:25,10/01/2022 06:25,Pay Bill from 254729358258 - Cliff Ombasa Acc. V05,Completed,5000,,25200,TRUE,Pay Utility,254729358258 - Cliff Ombasa,,V05
QA99DI3VY5,09/01/2022 19:20,09/01/2022 19:20,Pay Bill from 254712660519 - KELVIN MUTUNGA KATONYI Acc. V49,Completed,7000,,20200,TRUE,Pay Utility,254712660519 - KELVIN MUTUNGA KATONYI,,V49
QA90CQ9SF0,09/01/2022 11:40,09/01/2022 11:40,Pay Bill Online from 254718359438 - AHMAD TAHIR MACHENGO Acc. V11,Completed,6600,,13200,TRUE,Pay Bill Online,254718359438 - AHMAD TAHIR MACHENGO,,V11
QA91CK8MHH,09/01/2022 09:33,09/01/2022 09:33,Pay Bill from 254720056285 - DAMARIS NDURU Acc. V09,Completed,6600,,6600,TRUE,Pay Utility,254720056285 - DAMARIS NDURU,,V09
QA94CH3RBY,09/01/2022 08:22,09/01/2022 08:22,Utility Account to Organization Settlement Account,Completed,,-9000,0,TRUE,Utility Account to Organization Settlement Account,887674 - ANCIENT WELLS LTD 1,,
QA81BS0EP3,08/01/2022 18:19,08/01/2022 18:19,Pay Bill from 254701261592 - VICTOR MWILU Acc. v36,Completed,7000,,9000,TRUE,Pay Utility,254701261592 - VICTOR MWILU,,v36
QA83BICOYT,08/01/2022 16:01,08/01/2022 16:01,Pay Bill from 254790610309 - MESHACK CHUMBA Acc. V39,Completed,2000,,2000,TRUE,Pay Utility,254790610309 - MESHACK CHUMBA,,V39
QA729U6H32,07/01/2022 16:13,07/01/2022 16:13,Utility Account to Organization Settlement Account,Completed,,-61400,0,TRUE,Utility Account to Organization Settlement Account,887674 - ANCIENT WELLS LTD 1,,
QA739MQ2UJ,07/01/2022 14:07,07/01/2022 14:07,Pay Bill from 254720230582 - SHADRACK KITAKA NGILA Acc. v01,Completed,7000,,61400,TRUE,Pay Utility,254720230582 - SHADRACK KITAKA NGILA,,v01
QA7699QN0Y,07/01/2022 10:21,07/01/2022 10:21,Pay Bill from 254703108159 - JOICE OGOLLA Acc. V50,Completed,6600,,54400,TRUE,Pay Utility,254703108159 - JOICE OGOLLA,,V50
QA7990YLCX,07/01/2022 07:09,07/01/2022 07:09,Pay Bill from 254707568664 - Ismael Kitsao Acc. v52,Completed,7000,,47800,TRUE,Pay Utility,254707568664 - Ismael Kitsao,,v52
QA718YLNXR,07/01/2022 00:25,07/01/2022 00:25,Pay Bill from 254723389922 - ANNE WANJIKU NDUNGU Acc. v53,Completed,7000,,40800,TRUE,Pay Utility,254723389922 - ANNE WANJIKU NDUNGU,,v53
QA6288M4O6,06/01/2022 16:51,06/01/2022 16:51,Pay Bill Online from 254705670064 - margaret wahu wachira Acc. v35,Completed,6600,,33800,TRUE,Pay Bill Online,254705670064 - margaret wahu wachira,,v35
QA6587DK6V,06/01/2022 16:32,06/01/2022 16:32,Pay Bill Online from 0725639425 - GEOFFREY ODOYO OMUNE Acc. V13,Completed,4600,,27200,TRUE,Pay Bill Online,0725639425 - GEOFFREY ODOYO OMUNE,,V13
QA62870II6,06/01/2022 16:26,06/01/2022 16:26,Pay Bill from 254758951969 - WILKISTER IRAKO HARAMBEE Acc. 37847739,Completed,7000,,22600,TRUE,Pay Utility,254758951969 - WILKISTER IRAKO HARAMBEE,,37847739
QA65830BUX,06/01/2022 15:19,06/01/2022 15:19,Pay Bill from 254790610309 - MESHACK CHUMBA Acc. V39,Completed,2000,,15600,TRUE,Pay Utility,254790610309 - MESHACK CHUMBA,,V39
QA607PQNSG,06/01/2022 11:31,06/01/2022 11:31,Pay Bill from 254717294709 - CAROLINE WAVINYA NDINDA Acc. v15,Completed,7000,,13600,TRUE,Pay Utility,254717294709 - CAROLINE WAVINYA NDINDA,,v15
QA617P9X75,06/01/2022 11:23,06/01/2022 11:23,Pay Bill from 254715939283 - alex nyamai Acc. v07,Completed,6600,,6600,TRUE,Pay Utility,254715939283 - alex nyamai,,v07
QA637J5UTD,06/01/2022 09:33,06/01/2022 09:33,Utility Account to Organization Settlement Account,Completed,,-34200,0,TRUE,Utility Account to Organization Settlement Account,887674 - ANCIENT WELLS LTD 1,,
QA637FF9NT,06/01/2022 08:16,06/01/2022 08:16,Pay Bill from 254790610309 - MESHACK CHUMBA Acc. V39,Completed,3500,,34200,TRUE,Pay Utility,254790610309 - MESHACK CHUMBA,,V39
QA59750O4J,05/01/2022 21:06,05/01/2022 21:06,Pay Bill from 0758457508 - PETER KINGORI KAGUNDA Acc. V06,Completed,7000,,30700,TRUE,Pay Utility,0758457508 - PETER KINGORI KAGUNDA,,V06
QA546Y2RG4,05/01/2022 19:39,05/01/2022 19:39,Pay Bill from 254713916352 - WINFRED KATUNGWA NDALA Acc. V30,Completed,6600,,23700,TRUE,Pay Utility,254713916352 - WINFRED KATUNGWA NDALA,,V30
QA556KXS67,05/01/2022 16:59,05/01/2022 16:59,Pay Bill from 254722954532 - PAMPHIL CHORONGO Acc. V60,Completed,7000,,17100,TRUE,Pay Utility with OD via STK,254722954532 - PAMPHIL CHORONGO,,V60
QA526DRMF4,05/01/2022 15:03,05/01/2022 15:03,Pay Bill from 0717042461 - Sharon Nyangasi Shivachi Acc. V55,Completed,6600,,10100,TRUE,Pay Utility,0717042461 - Sharon Nyangasi Shivachi,,V55
QA575VPTQV,05/01/2022 09:59,05/01/2022 09:59,Pay Bill from 0702360376 - Bonface aganga nyamongo Acc. vk4,Completed,3500,,3500,TRUE,Pay Utility,0702360376 - Bonface aganga nyamongo,,vk4
QA555QLHBF,05/01/2022 08:20,05/01/2022 08:20,Utility Account to Organization Settlement Account,Completed,,-47400,0,TRUE,Utility Account to Organization Settlement Account,887674 - ANCIENT WELLS LTD 1,,
QA415GD8N1,04/01/2022 21:14,04/01/2022 21:14,Pay Bill from 254713684479 - JEMA G GACHERI Acc. V26,Completed,7000,,47400,TRUE,Pay Utility,254713684479 - JEMA G GACHERI,,V26
QA425BBJY2,04/01/2022 20:06,04/01/2022 20:06,Pay Bill from 254722578070 - SAMUEL MACHARIA Acc. v42,Completed,7000,,40400,TRUE,Pay Utility,254722578070 - SAMUEL MACHARIA,,v42
QA484LSCZ8,04/01/2022 14:15,04/01/2022 14:15,Pay Bill from 254723815832 - SEMEKIA ONDIALA Acc. v38,Completed,6600,,33400,TRUE,Pay Utility,254723815832 - SEMEKIA ONDIALA,,v38
QA444JVPIW,04/01/2022 13:43,04/01/2022 13:43,Pay Bill Online from 254706354035 - MOSES MUOKA Acc. V03,Completed,7000,,26800,TRUE,Pay Bill Online,254706354035 - MOSES MUOKA,,V03
QA4242ITRM,04/01/2022 08:49,04/01/2022 08:49,Pay Bill Online from 254726465584 - JULIANA MUKELI MUTUNGA Acc. v4,Completed,6600,,19800,TRUE,Pay Bill Online,254726465584 - JULIANA MUKELI MUTUNGA,,v4
QA323IHPRM,03/01/2022 19:26,03/01/2022 19:26,Business Pay Bill by 488519 - NCBA  Bank M-pesa Acc. V18 via API,Completed,6600,,13200,TRUE,Business Pay Bill via API,488519 - NCBA  Bank M-pesa,,V18
QA383ARZ26,03/01/2022 17:55,03/01/2022 17:55,Pay Bill from 254712091662 - BENARD OMONDI ROBY Acc. V16,Completed,6600,,6600,TRUE,Pay Utility,254712091662 - BENARD OMONDI ROBY,,V16
QA332G6J4V,03/01/2022 09:45,03/01/2022 09:45,Utility Account to Organization Settlement Account,Completed,,-6600,0,TRUE,Utility Account to Organization Settlement Account,887674 - ANCIENT WELLS LTD 1,,
QA281OSMIU,02/01/2022 17:56,02/01/2022 17:56,Pay Bill from 254727729395 - ROBERT OUKO OSORO Acc. V29,Completed,6600,,6600,TRUE,Pay Utility,254727729395 - ROBERT OUKO OSORO,,V29
QA231NMXVX,02/01/2022 17:38,02/01/2022 17:38,Utility Account to Organization Settlement Account,Completed,,-26800,0,TRUE,Utility Account to Organization Settlement Account,887674 - ANCIENT WELLS LTD 1,,
QA291AH8KD,02/01/2022 13:50,02/01/2022 13:50,Pay Bill Online from 254704995854 - james karanja wairimu Acc. V54,Completed,6600,,26800,TRUE,Pay Bill Online,254704995854 - james karanja wairimu,,V54
QA2615PCZI,02/01/2022 12:14,02/01/2022 12:14,Pay Bill from 254712927291 - JACINTER ODUOR Acc. v25,Completed,7000,,20200,TRUE,Pay Utility,254712927291 - JACINTER ODUOR,,v25
QA13Z771LH,01/01/2022 17:10,01/01/2022 17:10,Pay Bill from 254718417450 - HARON ASUMA OROKO Acc. haron v47 ,Completed,6600,,13200,TRUE,Pay Utility,254718417450 - HARON ASUMA OROKO,,haron
QA18Z5IJ5G,01/01/2022 16:39,01/01/2022 16:39,Pay Bill from 0795807227 - Lucy Ncekei Kimathi Acc. V36,Completed,6600,,6600,TRUE,Pay Utility,0795807227 - Lucy Ncekei Kimathi,,V36
QA18Z0RTF2,01/01/2022 15:16,01/01/2022 15:16,Utility Account to Organization Settlement Account,Completed,,-17500,0,TRUE,Utility Account to Organization Settlement Account,887674 - ANCIENT WELLS LTD 1,,
QA15YT4GJX,01/01/2022 13:01,01/01/2022 13:01,Pay Bill from 254729806880 - Eunice Akinyi Were Acc. V33,Completed,17500,,17500,TRUE,Pay Utility,254729806880 - Eunice Akinyi Were,,V33
QA10YPLEVU,01/01/2022 11:58,01/01/2022 11:58,Utility Account to Organization Settlement Account,Completed,,-7000,0,TRUE,Utility Account to Organization Settlement Account,887674 - ANCIENT WELLS LTD 1,,
QA16YNLB70,01/01/2022 11:23,01/01/2022 11:23,Pay Bill from 254706920646 - MIRIAM CHEPTOO Acc. V08,Completed,7000,,7000,TRUE,Pay Utility,254706920646 - MIRIAM CHEPTOO,,V08
QA15YH8SF3,01/01/2022 09:23,01/01/2022 09:23,Utility Account to Organization Settlement Account,Completed,,-3000,0,TRUE,Utility Account to Organization Settlement Account,887674 - ANCIENT WELLS LTD 1,,
