Receipt No.,Completion Time,Initiation Time,Details,Transaction Status,Paid In,Withdrawn,Balance,Balance Confirmed,Reason Type,Other Party Info,Linked Transaction ID,A/C No.
QD903DNI2Q,09/04/2022 09:24,09/04/2022 09:24,Pay Bill from 254727585857 - PETER MUOKI NGUNDO Acc. Peter ngundo e6 ,Completed,8500,,20500,TRUE,Pay Utility with OD via STK,254727585857 - PETER MUOKI NGUNDO,,Peter
QD8123D0EJ,08/04/2022 15:52,08/04/2022 15:52,Pay Bill from 254724018163 - IRENE MUENI WILLY Acc. A4,Completed,12000,,12000,TRUE,Pay Utility,254724018163 - IRENE MUENI WILLY,,A4
QD871I8429,08/04/2022 10:54,08/04/2022 10:54,Utility Account to Organization Settlement Account,Completed,,-56000,0,TRUE,Utility Account to Organization Settlement Account,887075 - ANCIENT WELLS LTD 3,,
QD89194GSV,08/04/2022 08:32,08/04/2022 08:32,Pay Bill Online from 254714597495 - WAMBUA KIOKO Acc. C1,Completed,8000,,56000,TRUE,Pay Bill Online,254714597495 - WAMBUA KIOKO,,C1
QD72Y5C90M,07/04/2022 07:45,07/04/2022 07:45,Pay Bill from 254710248036 - Allan Kimeu Mutua Acc. F5,Completed,10500,,48000,TRUE,Pay Utility,254710248036 - Allan Kimeu Mutua,,F5
QD64X81VN8,06/04/2022 17:31,06/04/2022 17:31,Pay Bill from 0791565463 - Lilian Njeri Wakagwi Acc. F6,Completed,8500,,37500,TRUE,Pay Utility with OD via STK,0791565463 - Lilian Njeri Wakagwi,,F6
QD61X752F9,06/04/2022 17:20,06/04/2022 17:20,Pay Bill Online from 254720201157 - BENSON INYANJE MWAKHA Acc. b6,Completed,8500,,29000,TRUE,Pay Bill Online,254720201157 - BENSON INYANJE MWAKHA,,b6
QD60X5ZA9S,06/04/2022 17:06,06/04/2022 17:06,Pay Bill Online from 254711877988 - PATRICK KONZI Acc. b4,Completed,8500,,20500,TRUE,Pay Bill Online,254711877988 - PATRICK KONZI,,b4
QD62X1CGP0,06/04/2022 16:05,06/04/2022 16:05,Pay Bill Online from 254727881534 - ANN MORAA Acc. D5,Completed,12000,,12000,TRUE,Pay Utility with OD Online,254727881534 - ANN MORAA,,D5
QD64W6N0R6,06/04/2022 08:45,06/04/2022 08:45,Utility Account to Organization Settlement Account,Completed,,-39000,0,TRUE,Utility Account to Organization Settlement Account,887075 - ANCIENT WELLS LTD 3,,
QD52VWPFVS,05/04/2022 22:31,05/04/2022 22:31,Pay Bill from 254706248362 - BERYL HUMA Acc. E5,Completed,8500,,39000,TRUE,Pay Utility,254706248362 - BERYL HUMA,,E5
QD51VNFGHJ,05/04/2022 20:14,05/04/2022 20:14,Pay Bill Online from 254703176849 - ROYAL MUYA Acc. F2,Completed,6000,,30500,TRUE,Pay Bill Online,254703176849 - ROYAL MUYA,,F2
QD59VH5943,05/04/2022 19:16,05/04/2022 19:16,Pay Bill from 254721539716 - OCTAVIAN MWANYALO Acc. C6,Completed,8000,,24500,TRUE,Pay Utility,254721539716 - OCTAVIAN MWANYALO,,C6
QD54VF0BLQ,05/04/2022 18:57,05/04/2022 18:57,Pay Bill from 254717465142 - EPHANTUS IRURA Acc. c4 muriithi,Completed,8500,,16500,TRUE,Pay Utility,254717465142 - EPHANTUS IRURA,,c4
QD55UGE59B,05/04/2022 11:24,05/04/2022 11:24,Pay Bill from 0720571944 - Ronoh   Benard Acc. D2,Completed,8000,,8000,TRUE,Pay Utility,0720571944 - Ronoh   Benard,,D2
QD54UA5RQ6,05/04/2022 09:52,05/04/2022 09:52,Utility Account to Organization Settlement Account,Completed,,-25100,0,TRUE,Utility Account to Organization Settlement Account,887075 - ANCIENT WELLS LTD 3,,
QD40TIEN6K,04/04/2022 19:30,04/04/2022 19:30,Pay Bill from 254726945691 - JAMES RAMTU Acc. B5,Completed,9100,,25100,TRUE,Pay Utility,254726945691 - JAMES RAMTU,,B5
QD46T4KK1M,04/04/2022 17:04,04/04/2022 17:04,Pay Bill from 254720086214 - SAMUEL WANJIKU Acc. B3,Completed,8000,,16000,TRUE,Pay Utility,254720086214 - SAMUEL WANJIKU,,B3
QD43SS1QUF,04/04/2022 14:09,04/04/2022 14:09,Pay Bill from 254722706516 - KORIR ANTHONY Acc. Anthony D 3,Completed,8000,,8000,TRUE,Pay Utility,254722706516 - KORIR ANTHONY,,Anthony
QD48SNRQOU,04/04/2022 13:10,04/04/2022 13:10,Utility Account to Organization Settlement Account,Completed,,-39500,0,TRUE,Utility Account to Organization Settlement Account,887075 - ANCIENT WELLS LTD 3,,
QD46SIUM6M,04/04/2022 12:00,04/04/2022 12:00,Pay Bill from 254720439955 - GEOPHRY OKOTH Acc. D6,Completed,8500,,39500,TRUE,Pay Utility with OD via STK,254720439955 - GEOPHRY OKOTH,,D6
QD35RPDL3B,03/04/2022 20:28,03/04/2022 20:28,Pay Bill from 0719349205 - Christabel Gakii Munene Acc. D1,Completed,8000,,31000,TRUE,Pay Utility,0719349205 - Christabel Gakii Munene,,D1
QD21O4MUP1,02/04/2022 06:00,02/04/2022 06:00,Pay Bill Online from 254713295711 - JAMES CHEGE KAMAU Acc. A2,Completed,7500,,23000,TRUE,Pay Bill Online,254713295711 - JAMES CHEGE KAMAU,,A2
QD13NAQ4RD,01/04/2022 17:51,01/04/2022 17:51,Pay Bill from 0715030019 - Omwenga Ong'era Stephen Acc. E1,Completed,8000,,15500,TRUE,Pay Utility,0715030019 - Omwenga Ong'era Stephen,,E1
QD10MTTQLI,01/04/2022 14:16,01/04/2022 14:16,Pay Bill Online from 254715020357 - ELIZABETH NJERI WARARI Acc. C2,Completed,7500,,7500,TRUE,Pay Bill Online,254715020357 - ELIZABETH NJERI WARARI,,C2
QD19MD9K91,01/04/2022 10:27,01/04/2022 10:27,Utility Account to Organization Settlement Account,Completed,,-8000,0,TRUE,Utility Account to Organization Settlement Account,887075 - ANCIENT WELLS LTD 3,,
