Receipt No.,Completion Time,Initiation Time,Details,Transaction Status,Paid In,Withdrawn,Balance,Balance Confirmed,Reason Type,Other Party Info,Linked Transaction ID,A/C No.
QK87I6UTQD,08/11/2022 11:39,08/11/2022 11:39,Pay Bill Online from 254718233980 - KAREN ASWANI Acc. HEC,Completed,10500,,305000,TRUE,Pay Bill Online,254718233980 - KAREN ASWANI,,HEC
QK82I6CVHI,08/11/2022 11:33,08/11/2022 11:33,Pay Bill Online from 254725385966 - JOSEPH MUYA MARUA Acc. KEE,Completed,10000,,294500,TRUE,Pay Utility with OD Online,254725385966 - JOSEPH MUYA MARUA,,KEE
QK84I69K9C,08/11/2022 11:31,08/11/2022 11:31,Pay Bill from 254720814822 - JAMES OTIENO OPAR Acc. Jgj,Completed,3500,,284500,TRUE,Pay Utility,254720814822 - JAMES OTIENO OPAR,,Jgj
QK84I5UVQY,08/11/2022 11:26,08/11/2022 11:26,Pay Bill from 254722714951 - JOSEPH MUTIGA NDIRANGU Acc. JCF,Completed,5000,,281000,TRUE,Pay Utility,254722714951 - JOSEPH MUTIGA NDIRANGU,,JCF
QK80I038YC,08/11/2022 10:10,08/11/2022 10:10,Pay Bill Online from 254722921132 - JOE MCCRAY MURIUKI KIHIA Acc. 15000,Completed,15000,,276000,TRUE,Pay Bill Online,254722921132 - JOE MCCRAY MURIUKI KIHIA,,15000
QK85HWMU1D,08/11/2022 09:23,08/11/2022 09:23,Pay Bill Online from 0757699775 - BENARD MUIA MUTUA Acc. HCB,Completed,16000,,261000,TRUE,Pay Bill Online,0757699775 - BENARD MUIA MUTUA,,HCB
QK87HVTGOF,08/11/2022 09:12,08/11/2022 09:12,Pay Bill from 254716056537 - KIRUI KIPLANGAT HILLARY Acc. JCJ,Completed,16000,,245000,TRUE,Pay Utility,254716056537 - KIRUI KIPLANGAT HILLARY,,JCJ
QK84HU8Z72,08/11/2022 08:49,08/11/2022 08:49,Pay Bill Online from 254723394064 - ANDREW LAGAT Acc. HBG,Completed,16000,,229000,TRUE,Pay Bill Online,254723394064 - ANDREW LAGAT,,HBG
QK89HTVABB,08/11/2022 08:44,08/11/2022 08:44,Pay Bill Online from 254710146965 - BRENDA DORCAS MABONGA Acc. hfg,Completed,15000,,213000,TRUE,Pay Bill Online,254710146965 - BRENDA DORCAS MABONGA,,hfg
QK85HRZQH3,08/11/2022 08:15,08/11/2022 08:15,Pay Bill Online from 254726292792 - PHILIP MIANO Acc. JEI,Completed,20000,,198000,TRUE,Pay Bill Online,254726292792 - PHILIP MIANO,,JEI
QK80HPMF7O,08/11/2022 07:35,08/11/2022 07:35,Pay Bill from 254722444622 - CHARITY KAGWAINI Acc. ffd,Completed,11000,,178000,TRUE,Pay Utility,254722444622 - CHARITY KAGWAINI,,ffd
QK87HON1WF,08/11/2022 07:16,08/11/2022 07:16,Pay Bill Online from 0757076363 - Ifrah Adan Hassan Acc. IGF,Completed,10000,,167000,TRUE,Pay Bill Online,0757076363 - Ifrah Adan Hassan,,IGF
QK84HNKZRM,08/11/2022 06:52,08/11/2022 06:52,Pay Bill from 254727144033 - JOHN NYAREGA NYAKUNDI Acc. FAF,Completed,16000,,157000,TRUE,Pay Utility,254727144033 - JOHN NYAREGA NYAKUNDI,,FAF
QK71HJ03K7,07/11/2022 23:02,07/11/2022 23:02,Pay Bill Online from 254720451253 - JIMMY KIOGORA NKIROTE Acc. KBD,Completed,1000,,141000,TRUE,Pay Bill Online,254720451253 - JIMMY KIOGORA NKIROTE,,KBD
QK71HF01S5,07/11/2022 21:35,07/11/2022 21:35,Pay Bill from 254700557767 - BAKHITA MWENDE MUANGE Acc. kcb,Completed,16000,,140000,TRUE,Pay Utility,254700557767 - BAKHITA MWENDE MUANGE,,kcb
QK74HEPNHS,07/11/2022 21:30,07/11/2022 21:30,Pay Bill Online from 254723499628 - CLINTON JOSEPH MUHARI Acc. hfh,Completed,16000,,124000,TRUE,Pay Bill Online,254723499628 - CLINTON JOSEPH MUHARI,,hfh
QK76H9S4IK,07/11/2022 20:33,07/11/2022 20:33,Pay Bill from 254702764047 - FERDINAND K Acc. KDB,Completed,16000,,108000,TRUE,Pay Utility,254702764047 - FERDINAND K,,KDB
QK78GVGKI2,07/11/2022 18:40,07/11/2022 18:40,Pay Bill from 254722521028 - CHARLES MONYONCHO Acc. JDA,Completed,28500,,92000,TRUE,Pay Utility,254722521028 - CHARLES MONYONCHO,,JDA
QK74GN2JJA,07/11/2022 17:28,07/11/2022 17:28,Pay Bill from 0724386624 - FATUMA ISSE YUSSUF Acc. FAB,Completed,16000,,63500,TRUE,Pay Utility with OD via STK,0724386624 - FATUMA ISSE YUSSUF,,FAB
QK71GMW1TL,07/11/2022 17:26,07/11/2022 17:26,Pay Bill Online from 254715764212 - BANCE ISHEMINYE Acc. JFE ,Completed,3000,,47500,TRUE,Pay Bill Online,254715764212 - BANCE ISHEMINYE,,JFE
QK75GL4M11,07/11/2022 17:08,07/11/2022 17:08,Pay Bill Online from 0711117122 - Yassir Mwinyi Abdulrazaq Acc. ICE,Completed,9000,,44500,TRUE,Pay Bill Online,0711117122 - Yassir Mwinyi Abdulrazaq,,ICE
QK75GKA4L9,07/11/2022 16:59,07/11/2022 16:59,Pay Bill Online from 254792187144 - HASSAN AHMED HASSAN Acc. KGI,Completed,10000,,35500,TRUE,Pay Bill Online,254792187144 - HASSAN AHMED HASSAN,,KGI
QK74GH44M6,07/11/2022 16:25,07/11/2022 16:25,Merchant Pay Utility Received from 6033532 - kelvin mwangi   muchori  1 Acc. HDE,Completed,10500,,25500,TRUE,Merchant Pay Utility via API,6033532 - kelvin mwangi   muchori  1,,HDE
QK73GEOKTP,07/11/2022 15:56,07/11/2022 15:56,Pay Bill Online from 254710382992 - SIMON KAMAU MUIRURI Acc. JCD,Completed,15000,,15000,TRUE,Pay Bill Online,254710382992 - SIMON KAMAU MUIRURI,,JCD
QK78G5C7QM,07/11/2022 14:02,07/11/2022 14:02,Utility Account to Organization Settlement Account,Completed,,-80500,0,TRUE,Utility Account to Organization Settlement Account,979524 - ANCIENT WELLS PROPERTY MANAGERS 2,,
QK78G4FMBK,07/11/2022 13:52,07/11/2022 13:52,Pay Bill Online from 0722255105 - SALIM OMAR MZEE Acc. FGF,Completed,26500,,80500,TRUE,Pay Utility with OD Online,0722255105 - SALIM OMAR MZEE,,FGF
QK78FY6F62,07/11/2022 12:37,07/11/2022 12:37,Pay Bill from 254719779657 - SAMUEL NJOROGE Acc. JGA,Completed,5000,,54000,TRUE,Pay Utility,254719779657 - SAMUEL NJOROGE,,JGA
QK74FT3QNI,07/11/2022 11:32,07/11/2022 11:32,Pay Bill from 254710635630 - DONNA JESSICA OWANO Acc. KCC,Completed,10000,,49000,TRUE,Pay Utility,254710635630 - DONNA JESSICA OWANO,,KCC
QK75FK87MD,07/11/2022 09:37,07/11/2022 09:37,Pay Bill Online from 254715002789 - ERICK NGUGI MAINA Acc. HAG,Completed,16000,,39000,TRUE,Pay Bill Online,254715002789 - ERICK NGUGI MAINA,,HAG
QK73FI999X,07/11/2022 09:10,07/11/2022 09:10,Pay Bill from 254720814822 - JAMES OTIENO OPAR Acc. Jgj,Completed,3000,,23000,TRUE,Pay Utility with OD via STK,254720814822 - JAMES OTIENO OPAR,,Jgj
QK79FDP4U7,07/11/2022 08:02,07/11/2022 08:02,Pay Bill from 254725754547 - MWACHIRO GEORGE DECHE Acc. DFC,Completed,20000,,20000,TRUE,Pay Utility,254725754547 - MWACHIRO GEORGE DECHE,,DFC
QK71FCK4VT,07/11/2022 07:43,07/11/2022 07:43,Utility Account to Organization Settlement Account,Completed,,-287000,0,TRUE,Utility Account to Organization Settlement Account,979524 - ANCIENT WELLS PROPERTY MANAGERS 2,,
QK79F7VZAB,07/11/2022 04:20,07/11/2022 04:20,Pay Bill from 0743789968 - Dallias Thanare Githara Acc. hbb,Completed,2000,,287000,TRUE,Pay Utility,0743789968 - Dallias Thanare Githara,,hbb
QK63F2ZGWD,06/11/2022 21:55,06/11/2022 21:55,Pay Bill from 254723488259 - WILSON OKITE OKITE Acc. HCA,Completed,15000,,285000,TRUE,Pay Utility with OD via STK,254723488259 - WILSON OKITE OKITE,,HCA
QK69F0J9VF,06/11/2022 21:16,06/11/2022 21:16,Pay Bill from 0724134105 - HILDA JEPKEMOI KIMELIEL Acc. JBH,Completed,1000,,270000,TRUE,Pay Utility,0724134105 - HILDA JEPKEMOI KIMELIEL,,JBH
QK66F0IADA,06/11/2022 21:16,06/11/2022 21:16,Pay Bill from 254703935626 - DAVID NGARI ITA Acc. FCD,Completed,1000,,269000,TRUE,Pay Utility,254703935626 - DAVID NGARI ITA,,FCD
QK62EVUGHY,06/11/2022 20:21,06/11/2022 20:21,Pay Bill Online from 254714536026 - LILIAN AWUOR ONYANGO Acc. HDC,Completed,10500,,268000,TRUE,Pay Bill Online,254714536026 - LILIAN AWUOR ONYANGO,,HDC
QK62E3TGIM,06/11/2022 15:47,06/11/2022 15:47,Pay Bill from 254703276305 - MARTHA MUSYOKA Acc. IAI,Completed,15000,,257500,TRUE,Pay Utility,254703276305 - MARTHA MUSYOKA,,IAI
QK61DXIDP9,06/11/2022 14:33,06/11/2022 14:33,Pay Bill from 254113678329 - LESLIE NAINI KOIKAI Acc. IBD ,Completed,11000,,242500,TRUE,Pay Utility,254113678329 - LESLIE NAINI KOIKAI,,IBD
QK68DN9XM8,06/11/2022 12:26,06/11/2022 12:26,Pay Bill from 254723017892 - JUDY MUTHEU Acc. ICI,Completed,16000,,231500,TRUE,Pay Utility,254723017892 - JUDY MUTHEU,,ICI
QK64DJMALY,06/11/2022 11:34,06/11/2022 11:34,Pay Bill from 0791379873 - Joseph Kyalo Sila Acc. HAH,Completed,16000,,215500,TRUE,Pay Utility with OD via STK,0791379873 - Joseph Kyalo Sila,,HAH
QK66DG36AI,06/11/2022 10:44,06/11/2022 10:44,Pay Bill from 254726028330 - JOHN WAMBUA Acc. IFH,Completed,15000,,199500,TRUE,Pay Utility,254726028330 - JOHN WAMBUA,,IFH
QK67DEA6MR,06/11/2022 10:18,06/11/2022 10:18,Pay Bill Online from 254711562428 - Lionel Mutune Muoka Acc. KDI,Completed,11000,,184500,TRUE,Pay Bill Online,254711562428 - Lionel Mutune Muoka,,KDI
QK61DBUMXH,06/11/2022 09:43,06/11/2022 09:43,Pay Bill Online from 254712187712 - JUDELEEN SHILOBELE AHINDUKHA Acc. IEA,Completed,15000,,173500,TRUE,Pay Bill Online,254712187712 - JUDELEEN SHILOBELE AHINDUKHA,,IEA
QK63D4DHPL,06/11/2022 07:48,06/11/2022 07:48,Pay Bill from 254795023150 - FAITH MORAA SITEMBA Acc. IFC,Completed,8000,,158500,TRUE,Pay Utility,254795023150 - FAITH MORAA SITEMBA,,IFC
QK68D47LXU,06/11/2022 07:45,06/11/2022 07:45,Pay Bill Online from 254720381965 - JAMES NGUGI MWANIKI Acc. JBI,Completed,20000,,150500,TRUE,Pay Bill Online,254720381965 - JAMES NGUGI MWANIKI,,JBI
QK52CXT1NE,05/11/2022 23:52,05/11/2022 23:52,Pay Bill from 254743243622 - fridah waeni muithya Acc. JEH,Completed,16000,,130500,TRUE,Pay Utility,254743243622 - fridah waeni muithya,,JEH
QK55CU6X4Z,05/11/2022 22:07,05/11/2022 22:07,Pay Bill Online from 254724821898 - ALLAN GISONI NYANGARESI Acc. DBA,Completed,15000,,114500,TRUE,Pay Bill Online,254724821898 - ALLAN GISONI NYANGARESI,,DBA
QK54CTSN8O,05/11/2022 22:00,05/11/2022 22:00,Pay Bill Online from 254718663397 - JIMMY MUNYAO NZIOKI Acc. DCB,Completed,16000,,99500,TRUE,Pay Bill Online,254718663397 - JIMMY MUNYAO NZIOKI,,DCB
QK56CSPPM4,05/11/2022 21:43,05/11/2022 21:43,Pay Bill from 254796069018 - PEACE KIMEU Acc. JAH,Completed,16000,,83500,TRUE,Pay Utility,254796069018 - PEACE KIMEU,,JAH
QK52CRELNK,05/11/2022 21:25,05/11/2022 21:25,Pay Bill from 0740899415 - CHRISTINE VAATI LUCAS Acc. IGE,Completed,1500,,67500,TRUE,Pay Utility,0740899415 - CHRISTINE VAATI LUCAS,,IGE
QK58CMWHMI,05/11/2022 20:36,05/11/2022 20:36,Pay Bill from 254720814822 - JAMES OTIENO OPAR Acc. Jgj,Completed,5000,,66000,TRUE,Pay Utility,254720814822 - JAMES OTIENO OPAR,,Jgj
QK56CHAO30,05/11/2022 19:48,05/11/2022 19:48,Pay Bill Online from 254727425310 - DENNIS KIPKOECH CHERUIYOT Acc. JAG,Completed,10000,,61000,TRUE,Pay Utility with OD Online,254727425310 - DENNIS KIPKOECH CHERUIYOT,,JAG
QK57CD9KIZ,05/11/2022 19:17,05/11/2022 19:17,Pay Bill from 254725062550 - FRANKLINE MASSAM Acc. KAf,Completed,10000,,51000,TRUE,Pay Utility,254725062550 - FRANKLINE MASSAM,,KAf
QK58CA1PNW,05/11/2022 18:54,05/11/2022 18:54,Pay Bill from 254712283818 - OYUGI OCHIENG Acc. FCB,Completed,16000,,41000,TRUE,Pay Utility,254712283818 - OYUGI OCHIENG,,FCB
QK56C7Y954,05/11/2022 18:39,05/11/2022 18:39,Pay Bill from 254728670882 - SHARAD EDWARD ADALA OLUM Acc. KCK,Completed,15000,,25000,TRUE,Pay Utility,254728670882 - SHARAD EDWARD ADALA OLUM,,KCK
QK59C6L5H3,05/11/2022 18:28,05/11/2022 18:28,Pay Bill Online from 254798639242 - Christian Kiragu Acc. FGE,Completed,10000,,10000,TRUE,Pay Bill Online,254798639242 - Christian Kiragu,,FGE
QK52C2WEO8,05/11/2022 17:57,05/11/2022 17:57,Utility Account to Organization Settlement Account,Completed,,-72700,0,TRUE,Utility Account to Organization Settlement Account,979524 - ANCIENT WELLS PROPERTY MANAGERS 2,,
QK54C2B2G6,05/11/2022 17:52,05/11/2022 17:52,Pay Bill from 254714060203 - PATRICK MWANGOMBE MSAWUCHI Acc. KEI,Completed,12000,,72700,TRUE,Pay Utility,254714060203 - PATRICK MWANGOMBE MSAWUCHI,,KEI
QK51BXOJQX,05/11/2022 17:09,05/11/2022 17:09,Pay Bill Online from 254721714178 - PHANICE JEROTICH KIPTOO Acc. FBF,Completed,16000,,60700,TRUE,Pay Bill Online,254721714178 - PHANICE JEROTICH KIPTOO,,FBF
QK52BUDM74,05/11/2022 16:37,05/11/2022 16:37,Pay Bill from 254745661722 - MUHAMEDMALIK GAAL Acc. DEC,Completed,16700,,44700,TRUE,Pay Utility,254745661722 - MUHAMEDMALIK GAAL,,DEC
QK54BT1XFK,05/11/2022 16:23,05/11/2022 16:23,Pay Bill from 254726732160 - CATHERINE MBETI Acc. KFI,Completed,12000,,28000,TRUE,Pay Utility,254726732160 - CATHERINE MBETI,,KFI
QK55BN4RVT,05/11/2022 15:19,05/11/2022 15:19,Pay Bill from 254715636579 - GRACE KALUKI MULI Acc. FDA ,Completed,16000,,16000,TRUE,Pay Utility,254715636579 - GRACE KALUKI MULI,,FDA
QK51BJPS0X,05/11/2022 14:42,05/11/2022 14:42,Utility Account to Organization Settlement Account,Completed,,-30000,0,TRUE,Utility Account to Organization Settlement Account,979524 - ANCIENT WELLS PROPERTY MANAGERS 2,,
QK59BJK9AP,05/11/2022 14:40,05/11/2022 14:40,Pay Bill from 254725478531 - KIPKORIR KUTO Acc. DFB,Completed,15000,,30000,TRUE,Pay Utility,254725478531 - KIPKORIR KUTO,,DFB
QK50BJJTQQ,05/11/2022 14:40,05/11/2022 14:40,Pay Bill from 254722889574 - ALLAN MWANGI Acc. jcg,Completed,10000,,15000,TRUE,Pay Utility with OD via STK,254722889574 - ALLAN MWANGI,,jcg
QK57BBJBSH,05/11/2022 13:12,05/11/2022 13:12,Pay Bill Online from 254706549634 - CLINTON OMBASA Acc. FDB,Completed,5000,,5000,TRUE,Pay Bill Online,254706549634 - CLINTON OMBASA,,FDB
QK56B83130,05/11/2022 12:32,05/11/2022 12:32,Utility Account to Organization Settlement Account,Completed,,-32000,0,TRUE,Utility Account to Organization Settlement Account,979524 - ANCIENT WELLS PROPERTY MANAGERS 2,,
QK56AXN0QE,05/11/2022 10:26,05/11/2022 10:26,Pay Bill from 254723966777 - BONIFACE MUTHAKA NGANGA Acc. IEC,Completed,10000,,32000,TRUE,Pay Utility,254723966777 - BONIFACE MUTHAKA NGANGA,,IEC
QK52AS5W8O,05/11/2022 09:15,05/11/2022 09:15,Pay Bill Online from 254715892656 - DENNIS MUSYOKA MUOKI Acc. kfa,Completed,2000,,22000,TRUE,Pay Bill Online,254715892656 - DENNIS MUSYOKA MUOKI,,kfa
QK59AR3WBV,05/11/2022 09:01,05/11/2022 09:01,Pay Bill from 0758621214 - PETER KYALO KIIO Acc. DBD,Completed,20000,,20000,TRUE,Pay Utility,0758621214 - PETER KYALO KIIO,,DBD
QK58AP80XM,05/11/2022 08:34,05/11/2022 08:34,Utility Account to Organization Settlement Account,Completed,,-155500,0,TRUE,Utility Account to Organization Settlement Account,979524 - ANCIENT WELLS PROPERTY MANAGERS 2,,
QK51AOLDPX,05/11/2022 08:25,05/11/2022 08:25,Pay Bill from 254741223822 - Rhoyce Kiptarus Boiyo Acc. FEC,Completed,9000,,155500,TRUE,Pay Utility with OD via STK,254741223822 - Rhoyce Kiptarus Boiyo,,FEC
QK52AJURQK,05/11/2022 06:58,05/11/2022 06:58,Pay Bill from 254723929380 - RHODAH K WAMBUA Acc. HEF,Completed,9500,,146500,TRUE,Pay Utility,254723929380 - RHODAH K WAMBUA,,HEF
QK47AEYPLX,04/11/2022 23:32,04/11/2022 23:32,Pay Bill Online from 254710202776 - KELVIN KARIMI MACHARIA Acc. FAD,Completed,11000,,137000,TRUE,Pay Bill Online,254710202776 - KELVIN KARIMI MACHARIA,,FAD
QK49ACBRUJ,04/11/2022 22:14,04/11/2022 22:14,Pay Bill Online from 254729097858 - AMBROSE ADEYA AHAWO Acc. KCF,Completed,10000,,126000,TRUE,Pay Bill Online,254729097858 - AMBROSE ADEYA AHAWO,,KCF
QK44ABDASC,04/11/2022 21:57,04/11/2022 21:57,Pay Bill from 254703935626 - DAVID NGARI ITA Acc. FCD,Completed,1000,,116000,TRUE,Pay Utility,254703935626 - DAVID NGARI ITA,,FCD
QK46AA5XOO,04/11/2022 21:38,04/11/2022 21:38,Pay Bill Online from 254723411873 - FREDRICK CHERUIYOT Acc. jbf,Completed,8000,,115000,TRUE,Pay Bill Online,254723411873 - FREDRICK CHERUIYOT,,jbf
QK429WB58W,04/11/2022 19:25,04/11/2022 19:25,Pay Bill from 254717801919 - MARCELINE AKINYI Acc. IAF,Completed,10000,,107000,TRUE,Pay Utility,254717801919 - MARCELINE AKINYI,,IAF
QK489UGK30,04/11/2022 19:11,04/11/2022 19:11,Pay Bill Online from 254713966424 - NDUTI MUTHUI Acc. jed,Completed,15000,,97000,TRUE,Pay Bill Online,254713966424 - NDUTI MUTHUI,,jed
QK489T6ZFO,04/11/2022 19:02,04/11/2022 19:02,Pay Bill from 254714710944 - MERCY NDUNG'U Acc. HFF,Completed,10000,,82000,TRUE,Pay Utility with OD via STK,254714710944 - MERCY NDUNG'U,,HFF
QK499QK42X,04/11/2022 18:44,04/11/2022 18:44,Pay Bill from 0705100292 - Leonard Mwatsuma Chai Acc. IGE,Completed,9000,,72000,TRUE,Pay Utility,0705100292 - Leonard Mwatsuma Chai,,IGE
QK469NX542,04/11/2022 18:25,04/11/2022 18:25,Pay Bill from 254708499439 - ROSE NDEDE Acc. HGF,Completed,9000,,63000,TRUE,Pay Utility,254708499439 - ROSE NDEDE,,HGF
QK469GDXUK,04/11/2022 17:21,04/11/2022 17:21,Pay Bill from 254721784820 - YVONNE OKELLO Acc. KGC,Completed,9000,,54000,TRUE,Pay Utility,254721784820 - YVONNE OKELLO,,KGC
QK489EF2DK,04/11/2022 17:02,04/11/2022 17:02,Pay Bill Online from 254719134037 - KELVIN KITOO Acc. FAA,Completed,16000,,45000,TRUE,Pay Utility with OD Online,254719134037 - KELVIN KITOO,,FAA
QK409C0L58,04/11/2022 16:38,04/11/2022 16:38,Pay Bill from 254758978557 - JOSEPH WAMBUA MUSYOKA Acc. IBG,Completed,8000,,29000,TRUE,Pay Utility,254758978557 - JOSEPH WAMBUA MUSYOKA,,IBG
QK459BLCK7,04/11/2022 16:33,04/11/2022 16:33,Pay Bill from 254702216907 - FAITH MUSA Acc. KBE ,Completed,10000,,21000,TRUE,Pay Utility,254702216907 - FAITH MUSA,,KBE
QK4899VNAG,04/11/2022 16:15,04/11/2022 16:15,Pay Bill from 254719747910 - KEVIN NDERITU GAKINGO Acc. iDD,Completed,11000,,11000,TRUE,Pay Utility,254719747910 - KEVIN NDERITU GAKINGO,,iDD
QK4996WUQL,04/11/2022 15:41,04/11/2022 15:41,Utility Account to Organization Settlement Account,Completed,,-134500,0,TRUE,Utility Account to Organization Settlement Account,979524 - ANCIENT WELLS PROPERTY MANAGERS 2,,
QK4993QB2X,04/11/2022 15:04,04/11/2022 15:04,Pay Bill from 254705425553 - ALEX MATHENGE Acc. JFD,Completed,31000,,134500,TRUE,Pay Utility,254705425553 - ALEX MATHENGE,,JFD
QK488YK8NU,04/11/2022 14:03,04/11/2022 14:03,Pay Bill Online from 254706144834 - WILKISTER OSUMO Acc. HFB,Completed,15000,,103500,TRUE,Pay Bill Online,254706144834 - WILKISTER OSUMO,,HFB
QK488XH5DC,04/11/2022 13:50,04/11/2022 13:50,Pay Bill from 0743683511 - job wasonga onyango Acc. KAG,Completed,21000,,88500,TRUE,Pay Utility,0743683511 - job wasonga onyango,,KAG
QK448K4WAU,04/11/2022 11:08,04/11/2022 11:08,Pay Bill Online from 254718513411 - Michelle mwangi Acc. HAD,Completed,10000,,67500,TRUE,Pay Bill Online,254718513411 - Michelle mwangi,,HAD
QK468JRTQC,04/11/2022 11:03,04/11/2022 11:03,Pay Bill from 254708570729 - MARY OGOLLA Acc. HOUSE NO.KAD,Completed,12000,,57500,TRUE,Pay Utility,254708570729 - MARY OGOLLA,,HOUSE
QK468JMLQU,04/11/2022 11:01,04/11/2022 11:01,Pay Bill from 254722136450 - MARY EVERLYN Acc. JAI,Completed,20000,,45500,TRUE,Pay Utility,254722136450 - MARY EVERLYN,,JAI
QK408IT8MK,04/11/2022 10:51,04/11/2022 10:51,Pay Bill from 0757758972 - BETH MUTHONI KASYOKA Acc. DEA,Completed,16000,,25500,TRUE,Pay Utility,0757758972 - BETH MUTHONI KASYOKA,,DEA
QK438HZV25,04/11/2022 10:41,04/11/2022 10:41,Pay Bill Online from 0757319222 - ATEM KUOL JOHN BOL Acc. FAC,Completed,9500,,9500,TRUE,Pay Bill Online,0757319222 - ATEM KUOL JOHN BOL,,FAC
QK4189G09T,04/11/2022 08:47,04/11/2022 08:47,Utility Account to Organization Settlement Account,Completed,,-182500,0,TRUE,Utility Account to Organization Settlement Account,979524 - ANCIENT WELLS PROPERTY MANAGERS 2,,
QK307RJXMM,03/11/2022 21:06,03/11/2022 21:06,FSI to Pay Bill by 998094 - COOP TO PAYBILL Acc. IFF via WEB by COOP TO PAYBILL\COOPAYBILLTRNS,Completed,10000,,182500,TRUE,FSI to Pay Bill via API,998094 - COOP TO PAYBILL,,IFF
QK337PY7DR,03/11/2022 20:49,03/11/2022 20:49,Pay Bill Online from 254714855708 - KIPLANGAT SITIENEI Acc. FAE,Completed,16000,,172500,TRUE,Pay Bill Online,254714855708 - KIPLANGAT SITIENEI,,FAE
QK397FLWHR,03/11/2022 19:21,03/11/2022 19:21,Pay Bill from 254724477912 - SAMUEL MURIMI Acc. HCD,Completed,10000,,156500,TRUE,Pay Utility,254724477912 - SAMUEL MURIMI,,HCD
QK327FKVHW,03/11/2022 19:20,03/11/2022 19:20,Pay Bill from 254723328258 - SAMUEL MAINA MURIUKI Acc. IFE,Completed,8000,,146500,TRUE,Pay Utility,254723328258 - SAMUEL MAINA MURIUKI,,IFE
QK337DZRZL,03/11/2022 19:09,03/11/2022 19:09,Business Pay Bill by 488519 - NCBA  Bank M-pesa Acc. ICC via API,Completed,9000,,138500,TRUE,Business Pay Bill via API,488519 - NCBA  Bank M-pesa,,ICC
QK366ZNB5G,03/11/2022 17:13,03/11/2022 17:13,Pay Bill from 0700221720 - Eunice Nasimiyu Webwana Acc. KAE,Completed,16000,,129500,TRUE,Pay Utility,0700221720 - Eunice Nasimiyu Webwana,,KAE
QK396XVYMD,03/11/2022 16:55,03/11/2022 16:55,Pay Bill Online from 254708300413 - ROBINSON AYAKO Acc. KEH,Completed,10000,,113500,TRUE,Pay Bill Online,254708300413 - ROBINSON AYAKO,,KEH
QK306XCR84,03/11/2022 16:50,03/11/2022 16:50,Pay Bill from 254796848496 - IVY WITABA Acc. JBA,Completed,11000,,103500,TRUE,Pay Utility,254796848496 - IVY WITABA,,JBA
QK356RHHJ9,03/11/2022 15:44,03/11/2022 15:44,Pay Bill Online from 254702355678 - JOHN NJOROGE GICHERU Acc. ITE,Completed,10000,,92500,TRUE,Pay Bill Online,254702355678 - JOHN NJOROGE GICHERU,,ITE
QK366RCJVG,03/11/2022 15:42,03/11/2022 15:42,Pay Bill Online from 254706549634 - CLINTON OMBASA Acc. FDB,Completed,10000,,82500,TRUE,Pay Bill Online,254706549634 - CLINTON OMBASA,,FDB
QK386OIHYO,03/11/2022 15:08,03/11/2022 15:08,Pay Bill from 0769714506 - edith      gakii Acc. DDB,Completed,16000,,72500,TRUE,Pay Utility,0769714506 - edith      gakii,,DDB
QK376M1U85,03/11/2022 14:38,03/11/2022 14:38,Pay Bill from 254724852503 - GEOFREY YEGO Acc. JFF,Completed,10000,,56500,TRUE,Pay Utility,254724852503 - GEOFREY YEGO,,JFF
QK386K4BMU,03/11/2022 14:14,03/11/2022 14:14,Pay Bill from 0715566922 - diramu ollo galgalo Acc. HBD,Completed,10000,,46500,TRUE,Pay Utility,0715566922 - diramu ollo galgalo,,HBD
QK356IODGN,03/11/2022 13:57,03/11/2022 13:57,Pay Bill from 254722826454 - CHARLES KARIMI MAITAI Acc. KDC  Nyambura,Completed,10000,,36500,TRUE,Pay Utility,254722826454 - CHARLES KARIMI MAITAI,,KDC
QK366FRAYO,03/11/2022 13:23,03/11/2022 13:23,Pay Bill Online from 254729160700 - MICAH NDUNGI Acc. HFE,Completed,10500,,26500,TRUE,Pay Bill Online,254729160700 - MICAH NDUNGI,,HFE
QK306FDNC6,03/11/2022 13:19,03/11/2022 13:19,Pay Bill Online from 254722728975 - CURTIS MRIGA OMIDO Acc. IAH,Completed,16000,,16000,TRUE,Pay Bill Online,254722728975 - CURTIS MRIGA OMIDO,,IAH
QK366ALXRO,03/11/2022 12:20,03/11/2022 12:20,Utility Account to Organization Settlement Account,Completed,,-54500,0,TRUE,Utility Account to Organization Settlement Account,979524 - ANCIENT WELLS PROPERTY MANAGERS 2,,
QK3368XB1J,03/11/2022 11:59,03/11/2022 11:59,Pay Bill Online from 254706898046 - STACY AKETCH OCHUKA Acc. KGK,Completed,16500,,54500,TRUE,Pay Bill Online,254706898046 - STACY AKETCH OCHUKA,,KGK
QK3768ILAJ,03/11/2022 11:54,03/11/2022 11:54,Pay Bill from 254719398942 - NORAH WAYUA MUNYAO Acc. KDA,Completed,16000,,38000,TRUE,Pay Utility,254719398942 - NORAH WAYUA MUNYAO,,KDA
QK3668G89E,03/11/2022 11:53,03/11/2022 11:53,Pay Bill Online from 254745661722 - MUHAMEDMALIK GAAL Acc. DEC,Completed,22000,,22000,TRUE,Pay Bill Online,254745661722 - MUHAMEDMALIK GAAL,,DEC
QK3161HDW7,03/11/2022 10:24,03/11/2022 10:24,Utility Account to Organization Settlement Account,Completed,,-36000,0,TRUE,Utility Account to Organization Settlement Account,979524 - ANCIENT WELLS PROPERTY MANAGERS 2,,
QK335Z0XPZ,03/11/2022 09:52,03/11/2022 09:52,Pay Bill from 254713281251 - ERIC KIAMA Acc. JDI,Completed,20000,,36000,TRUE,Pay Utility,254713281251 - ERIC KIAMA,,JDI
QK335R0GZP,03/11/2022 08:17,03/11/2022 08:17,Pay Bill Online from 254721974995 - BERNICE MANGOKA Acc. KFK,Completed,16000,,16000,TRUE,Pay Utility with OD Online,254721974995 - BERNICE MANGOKA,,KFK
QK355Q1D5P,03/11/2022 08:05,03/11/2022 08:05,Utility Account to Organization Settlement Account,Completed,,-81500,0,TRUE,Utility Account to Organization Settlement Account,979524 - ANCIENT WELLS PROPERTY MANAGERS 2,,
QK335KVHBT,03/11/2022 06:40,03/11/2022 06:40,Pay Bill from 254717438676 - SHIHAB THIIRU Acc. IEI,Completed,15000,,81500,TRUE,Pay Utility,254717438676 - SHIHAB THIIRU,,IEI
QK305IKB9W,03/11/2022 03:17,03/11/2022 03:17,Pay Bill Online from 254724005780 - IVY MARGARET OGOLA Acc. FFB,Completed,5000,,66500,TRUE,Pay Bill Online,254724005780 - IVY MARGARET OGOLA,,FFB
QK265G913W,02/11/2022 23:04,02/11/2022 23:04,Pay Bill Online from 254798639242 - Christian Kiragu Acc. FGE,Completed,10000,,61500,TRUE,Pay Utility with OD Online,254798639242 - Christian Kiragu,,FGE
QK255DPX31,02/11/2022 21:59,02/11/2022 21:59,Pay Bill Online from 254706158280 - patience mutheu mbevi Acc. KFC,Completed,10000,,51500,TRUE,Pay Bill Online,254706158280 - patience mutheu mbevi,,KFC
QK265616NK,02/11/2022 20:22,02/11/2022 20:22,Pay Bill from 0743789968 - Dallias Thanare Githara Acc. hbb,Completed,2000,,41500,TRUE,Pay Utility,0743789968 - Dallias Thanare Githara,,hbb
QK27529ML3,02/11/2022 19:49,02/11/2022 19:49,Pay Bill Online from 254728093389 - MOHAMED MUSA ALASOW Acc. KED ,Completed,12000,,39500,TRUE,Pay Bill Online,254728093389 - MOHAMED MUSA ALASOW,,KED
QK2851ZMHS,02/11/2022 19:47,02/11/2022 19:47,Pay Bill from 254728084427 - MARY NABWIRE OKELLO Acc. FDF,Completed,16000,,27500,TRUE,Pay Utility,254728084427 - MARY NABWIRE OKELLO,,FDF
QK264OPA8A,02/11/2022 18:06,02/11/2022 18:06,Pay Bill from 254729450678 - GRACE NDUNGE Acc. fba,Completed,2000,,11500,TRUE,Pay Utility with OD via STK,254729450678 - GRACE NDUNGE,,fba
QK274E41PJ,02/11/2022 16:19,02/11/2022 16:19,Pay Bill from 254720176441 - JANE KEMUNTO Acc. FBC,Completed,9500,,9500,TRUE,Pay Utility,254720176441 - JANE KEMUNTO,,FBC
QK283XIT00,02/11/2022 12:54,02/11/2022 12:54,Utility Account to Organization Settlement Account,Completed,,-6000,0,TRUE,Utility Account to Organization Settlement Account,979524 - ANCIENT WELLS PROPERTY MANAGERS 2,,
QK233UXI77,02/11/2022 12:22,02/11/2022 12:22,Pay Bill from 254701112397 - ELEMA GODANA DIBA Acc. FCA,Completed,6000,,6000,TRUE,Pay Utility,254701112397 - ELEMA GODANA DIBA,,FCA
QK203QVJ56,02/11/2022 11:30,02/11/2022 11:30,Utility Account to Organization Settlement Account,Completed,,-84000,0,TRUE,Utility Account to Organization Settlement Account,979524 - ANCIENT WELLS PROPERTY MANAGERS 2,,
QK273OTDDP,02/11/2022 11:04,02/11/2022 11:04,FSI to Pay Bill by 998094 - COOP TO PAYBILL Acc. Hea via WEB by COOP TO PAYBILL\COOPAYBILLTRNS,Completed,16000,,84000,TRUE,FSI to Pay Bill via API,998094 - COOP TO PAYBILL,,Hea
QK223OQHMU,02/11/2022 11:03,02/11/2022 11:03,Pay Bill Online from 254729796719 - JACINTA WANJIKU NJERI Acc. FFF,Completed,17000,,68000,TRUE,Pay Bill Online,254729796719 - JACINTA WANJIKU NJERI,,FFF
QK273OKJS3,02/11/2022 11:01,02/11/2022 11:01,Pay Bill Online from 254725218904 - SALOME MUTHONI MWANGI Acc. KFJ,Completed,15000,,51000,TRUE,Pay Bill Online,254725218904 - SALOME MUTHONI MWANGI,,KFJ
QK213M7IW9,02/11/2022 10:30,02/11/2022 10:30,Pay Bill from 0706563358 - HARRIET NYANCHAMA NYABERI Acc. FCC,Completed,9000,,36000,TRUE,Pay Utility,0706563358 - HARRIET NYANCHAMA NYABERI,,FCC
QK203K4JZY,02/11/2022 10:02,02/11/2022 10:02,Pay Bill Online from 254727554512 - COLLINS KOECH Acc. JDJ,Completed,15000,,27000,TRUE,Pay Bill Online,254727554512 - COLLINS KOECH,,JDJ
QK293JNM25,02/11/2022 09:56,02/11/2022 09:56,Pay Bill from 254718138578 - PAULINE KIOKO Acc. KFD,Completed,12000,,12000,TRUE,Pay Utility,254718138578 - PAULINE KIOKO,,KFD
QK293JMLOF,02/11/2022 09:55,02/11/2022 09:55,Utility Account to Organization Settlement Account,Completed,,-240800,0,TRUE,Utility Account to Organization Settlement Account,979524 - ANCIENT WELLS PROPERTY MANAGERS 2,,
QK223I9AXO,02/11/2022 09:36,02/11/2022 09:36,Pay Bill Online from 254720696119 - DUNCAN OMONDI OKETCH Acc. IAG,Completed,9000,,240800,TRUE,Pay Bill Online,254720696119 - DUNCAN OMONDI OKETCH,,IAG
QK203FKGPG,02/11/2022 08:59,02/11/2022 08:59,Pay Bill from 0758741326 - ABDULLAHI ISACK BANTE Acc. KBF,Completed,4000,,231800,TRUE,Pay Utility,0758741326 - ABDULLAHI ISACK BANTE,,KBF
QK2738HCS9,02/11/2022 06:54,02/11/2022 06:54,Pay Bill from 254720550403 - GRACE WANGONDU Acc. JFI,Completed,20000,,227800,TRUE,Pay Utility,254720550403 - GRACE WANGONDU,,JFI
QK2536FKZ1,02/11/2022 05:00,02/11/2022 05:00,Pay Bill Online from 254720451253 - JIMMY KIOGORA NKIROTE Acc. KBD,Completed,1000,,207800,TRUE,Pay Utility with OD Online,254720451253 - JIMMY KIOGORA NKIROTE,,KBD
QK1933QI7H,01/11/2022 22:55,01/11/2022 22:55,Pay Bill from 254724201046 - GIDEON NDOLO Acc. KFH,Completed,10000,,206800,TRUE,Pay Utility,254724201046 - GIDEON NDOLO,,KFH
QK153094EF,01/11/2022 21:39,01/11/2022 21:39,Pay Bill Online from 254715764212 - BANCE ISHEMINYE Acc. JFE ,Completed,2000,,196800,TRUE,Pay Bill Online,254715764212 - BANCE ISHEMINYE,,JFE
QK192ZKJDP,01/11/2022 21:29,01/11/2022 21:29,Pay Bill from 254711706815 - NAOMI WANYONYI Acc. KBA,Completed,19500,,194800,TRUE,Pay Utility with OD via STK,254711706815 - NAOMI WANYONYI,,KBA
QK192YOJGT,01/11/2022 21:17,01/11/2022 21:17,Pay Bill from 254703935626 - DAVID NGARI ITA Acc. FCD,Completed,1000,,175300,TRUE,Pay Utility with OD via STK,254703935626 - DAVID NGARI ITA,,FCD
QK112VVCMX,01/11/2022 20:45,01/11/2022 20:45,Pay Bill Online from 0796121714 - janet   mwikali Acc. KBC,Completed,10000,,174300,TRUE,Pay Bill Online,0796121714 - janet   mwikali,,KBC
QK142SDE98,01/11/2022 20:12,01/11/2022 20:12,Pay Bill from 254710357391 - CHEPKOECH VALENTINE Acc. KAH,Completed,500,,164300,TRUE,Pay Utility,254710357391 - CHEPKOECH VALENTINE,,KAH
QK152Q2HO9,01/11/2022 19:53,01/11/2022 19:53,Pay Bill from 254799520265 - SYLVIA KIRINGA NJERI Acc. IGD,Completed,6300,,163800,TRUE,Pay Utility,254799520265 - SYLVIA KIRINGA NJERI,,IGD
QK182JP5RU,01/11/2022 19:07,01/11/2022 19:07,Pay Bill Online from 254715892656 - DENNIS MUSYOKA MUOKI Acc. kfa,Completed,7000,,157500,TRUE,Pay Bill Online,254715892656 - DENNIS MUSYOKA MUOKI,,kfa
QK152FI8WP,01/11/2022 18:37,01/11/2022 18:37,Pay Bill from 254700811449 - JOHN MULIMA ENANE Acc. HCE,Completed,10500,,150500,TRUE,Pay Utility,254700811449 - JOHN MULIMA ENANE,,HCE
QK142CKXZW,01/11/2022 18:15,01/11/2022 18:15,Pay Bill from 254729450678 - GRACE NDUNGE Acc. fba,Completed,13000,,140000,TRUE,Pay Utility with OD via STK,254729450678 - GRACE NDUNGE,,fba
QK1128NZOT,01/11/2022 17:40,01/11/2022 17:40,Pay Bill Online from 254795510441 - LEWIS MUEMA Acc. KEB,Completed,16000,,127000,TRUE,Pay Bill Online,254795510441 - LEWIS MUEMA,,KEB
QK132809OF,01/11/2022 17:34,01/11/2022 17:34,Pay Bill from 254708875278 - ROSEMARY WANJIRU KONYE Acc. HBF,Completed,9000,,111000,TRUE,Pay Utility,254708875278 - ROSEMARY WANJIRU KONYE,,HBF
QK1822DH72,01/11/2022 16:38,01/11/2022 16:38,Pay Bill from 254717726012 - WINFRED MUENI PETER Acc. IDA,Completed,16000,,102000,TRUE,Pay Utility,254717726012 - WINFRED MUENI PETER,,IDA
QK111Y5YMZ,01/11/2022 15:50,01/11/2022 15:50,Pay Bill from 254723389177 - NELSON MOI Acc. ibf,Completed,7000,,86000,TRUE,Pay Utility,254723389177 - NELSON MOI,,ibf
QK151UXBVT,01/11/2022 15:11,01/11/2022 15:11,Pay Bill from 254798643998 - Judith Mwaniki Acc. kce,Completed,10000,,79000,TRUE,Pay Utility,254798643998 - Judith Mwaniki,,kce
QK141N3STA,01/11/2022 13:35,01/11/2022 13:35,Pay Bill from 254725771056 - CHARLES MURAGURI Acc. FCE,Completed,15000,,69000,TRUE,Pay Utility,254725771056 - CHARLES MURAGURI,,FCE
QK191LUHLT,01/11/2022 13:20,01/11/2022 13:20,Pay Bill from 254717148989 - ALLAN MUTHONI Acc. HAC,Completed,10000,,54000,TRUE,Pay Utility,254717148989 - ALLAN MUTHONI,,HAC
QK101D99US,01/11/2022 11:29,01/11/2022 11:29,Pay Bill from 0700221720 - Eunice Nasimiyu Webwana Acc. KAE,Completed,5000,,44000,TRUE,Pay Utility,0700221720 - Eunice Nasimiyu Webwana,,KAE
QK171AFCQ3,01/11/2022 10:53,01/11/2022 10:53,Pay Bill Online from 254728055159 - LEE NDUATI FRANCIS Acc. FEF,Completed,16000,,39000,TRUE,Pay Bill Online,254728055159 - LEE NDUATI FRANCIS,,FEF
QK12173UVA,01/11/2022 10:09,01/11/2022 10:09,Pay Bill Online from 254742911013 - HANEST AMIMO Acc. IEG,Completed,8000,,23000,TRUE,Pay Bill Online,254742911013 - HANEST AMIMO,,IEG
QK17120JMD,01/11/2022 08:59,01/11/2022 08:59,Pay Bill Online from 254721663113 - BEATRICE KIMINZA MUNYOKI Acc. KEJ,Completed,15000,,15000,TRUE,Pay Bill Online,254721663113 - BEATRICE KIMINZA MUNYOKI,,KEJ
QK17ZWC2WJ,01/11/2022 07:30,01/11/2022 07:30,Utility Account to Organization Settlement Account,Completed,,-317500,0,TRUE,Utility Account to Organization Settlement Account,979524 - ANCIENT WELLS PROPERTY MANAGERS 2,,
QK14ZW5SUE,01/11/2022 07:26,01/11/2022 07:26,Pay Bill from 254711650034 - Lucky Ngoya Acc. JAA,Completed,20000,,317500,TRUE,Pay Utility,254711650034 - Lucky Ngoya,,JAA
QK17ZS5BZX,01/11/2022 03:43,01/11/2022 03:43,Pay Bill from 254716702294 - DANIEL MULATI Acc. KBB,Completed,11000,,297500,TRUE,Pay Utility,254716702294 - DANIEL MULATI,,KBB
