Receipt No.,Completion Time,Initiation Time,Details,Transaction Status,Paid In,Withdrawn,Balance,Balance Confirmed,Reason Type,Other Party Info,Linked Transaction ID,A/C No.
SFB575QAY3,11/06/2024 20:39,11/06/2024 20:39,Pay Bill from 254710***394 - LUCY *** Acc. KBG,Completed,9000,,65000,TRUE,Pay Utility,254710***394 - LUCY ***,,KBG
SFB66XED96,11/06/2024 19:53,11/06/2024 19:53,Pay Bill Online from 254715***212 - BANCE *** Acc. JFE,Completed,2000,,56000,TRUE,Pay Bill Online,254715***212 - BANCE ***,,JFE
SFB66WT6WQ,11/06/2024 19:50,11/06/2024 19:50,Pay Bill from 254797***402 - Tiberius *** Acc. KFC,Completed,9000,,54000,TRUE,Pay Utility,254797***402 - Tiberius ***,,KFC
SFB95L44DH,11/06/2024 14:51,11/06/2024 14:51,Pay Bill from 254724***882 - JOEL *** Acc. fee,Completed,16000,,45000,TRUE,Pay Utility,254724***882 - JOEL ***,,fee
SFB55IYR1Z,11/06/2024 14:33,11/06/2024 14:33,Business Pay Bill by 3033815 - LOOP B2C. Acc. DCC via API,Completed,20000,,29000,TRUE,Business Pay Bill via API,3033815 - LOOP B2C.,,DCC via API
SFB74PA3N7,11/06/2024 10:34,11/06/2024 10:34,Pay Bill Online from 254723***071 - AMOS *** Acc. JCE,Completed,9000,,9000,TRUE,Pay Bill Online,254723***071 - AMOS ***,,JCE
SFB84C8AJA,11/06/2024 08:38,11/06/2024 08:38,Utility Account to Organization Settlement Account,Completed,,-376800,0,TRUE,Utility Account to Organization Settlement Account,979524 - ANCIENT WELLS PROPERTY MANAGERS 2,,
SFB33YD1BB,11/06/2024 02:31,11/06/2024 02:31,Pay Bill Online from 070115***700 - Anabel *** Acc. jdj,Completed,15000,,376800,TRUE,Pay Bill Online,070115***700 - Anabel ***,,jdj
SFA03VMUVI,10/06/2024 23:32,10/06/2024 23:32,Pay Bill Online from 254723***004 - LABAN *** Acc. JEF,Completed,1500,,361800,TRUE,Pay Utility with OD Online,254723***004 - LABAN ***,,JEF
SFA43UHLKS,10/06/2024 23:02,10/06/2024 23:02,Pay Bill Online from 254790***254 - BROOKLYN *** Acc. JBB,Completed,13600,,360300,TRUE,Pay Bill Online,254790***254 - BROOKLYN ***,,JBB
SFA13C5Y11,10/06/2024 20:18,10/06/2024 20:18,Pay Bill from 254724***274 - WINFRED *** Acc. DDC,Completed,4000,,346700,TRUE,Pay Utility,254724***274 - WINFRED ***,,DDC
SFA23B8P3W,10/06/2024 20:13,10/06/2024 20:13,Pay Bill from 075705***882 - FAITH *** Acc. HDF ,Completed,9000,,342700,TRUE,Pay Utility,075705***882 - FAITH ***,,HDF 
SFA23856C8,10/06/2024 19:56,10/06/2024 19:56,Pay Bill Online from 254701***102 - CHEPCHUMBA *** Acc. IFE,Completed,9000,,333700,TRUE,Pay Bill Online,254701***102 - CHEPCHUMBA ***,,IFE
SFA82Y36ZI,10/06/2024 19:08,10/06/2024 19:08,Pay Bill Online from 070197***456 - FAITH *** Acc. ICH,Completed,16000,,324700,TRUE,Pay Bill Online,070197***456 - FAITH ***,,ICH
SFA02RWRHA,10/06/2024 18:38,10/06/2024 18:38,Pay Bill from 254748***031 - ALICE *** Acc. FEC,Completed,9000,,308700,TRUE,Pay Utility,254748***031 - ALICE ***,,FEC
SFA82RMJFI,10/06/2024 18:37,10/06/2024 18:37,Pay Bill from 254797***262 - mercy *** Acc. HDD,Completed,10000,,299700,TRUE,Pay Utility with OD via STK,254797***262 - mercy ***,,HDD
SFA02P9W84,10/06/2024 18:24,10/06/2024 18:24,Pay Bill from 075760***316 - MOHAMED *** Acc. IEC,Completed,10000,,289700,TRUE,Pay Utility,075760***316 - MOHAMED ***,,IEC
SFA82MTUEG,10/06/2024 18:11,10/06/2024 18:11,Pay Bill Online from 254720***609 - DENNIS *** Acc. JAJ,Completed,15000,,279700,TRUE,Pay Bill Online,254720***609 - DENNIS ***,,JAJ
SFA32GQMRF,10/06/2024 17:35,10/06/2024 17:35,Pay Bill Online from 254710***965 - BRENDA *** Acc. Dgd,Completed,20000,,264700,TRUE,Pay Bill Online,254710***965 - BRENDA ***,,Dgd
SFA61HB2IW,10/06/2024 13:09,10/06/2024 13:09,Pay Bill from 254711***840 - HILDA *** Acc. KTA,Completed,5000,,244700,TRUE,Pay Utility with OD via STK,254711***840 - HILDA ***,,KTA
SFA816XV34,10/06/2024 11:46,10/06/2024 11:46,Pay Bill Online from 071414***211 - KAREN *** Acc. JDF,Completed,8000,,239700,TRUE,Pay Bill Online,071414***211 - KAREN ***,,JDF
SFA313Q46X,10/06/2024 11:20,10/06/2024 11:20,Pay Bill from 075725***478 - stella *** Acc. Jcf,Completed,7000,,231700,TRUE,Pay Utility,075725***478 - stella ***,,Jcf
SFA2ZTJRES,10/06/2024 09:55,10/06/2024 09:55,Pay Bill from 254722***028 - CHARLES *** Acc. JDA,Completed,20000,,224700,TRUE,Pay Utility,254722***028 - CHARLES ***,,JDA
SFA6ZHYCD0,10/06/2024 08:09,10/06/2024 08:09,Pay Bill from 254726***330 - JOHN *** Acc. IFH,Completed,15000,,204700,TRUE,Pay Utility,254726***330 - JOHN ***,,IFH
SFA7Z9WYY3,10/06/2024 06:23,10/06/2024 06:23,Pay Bill Online from 074378***968 - Dallias *** Acc. HBB,Completed,2000,,189700,TRUE,Pay Bill Online,074378***968 - Dallias ***,,HBB
SFA4Z97PEE,10/06/2024 06:03,10/06/2024 06:03,Pay Bill Online from 254720***253 - JIMMY *** Acc. kbd,Completed,1000,,187700,TRUE,Pay Utility with OD Online,254720***253 - JIMMY ***,,kbd
SFA1Z52C6B,10/06/2024 00:11,10/06/2024 00:11,Pay Bill from 254710***630 - DONNA *** Acc. KCC,Completed,5000,,186700,TRUE,Pay Utility,254710***630 - DONNA ***,,KCC
SF99YF6QD5,09/06/2024 19:38,09/06/2024 19:38,Pay Bill from 071057***069 - GLADYS *** Acc. HCC,Completed,10000,,181700,TRUE,Pay Utility,071057***069 - GLADYS ***,,HCC
SF90Y5ZOPW,09/06/2024 18:50,09/06/2024 18:50,Pay Bill from 254720***822 - JAMES *** Acc. jgj,Completed,2000,,171700,TRUE,Pay Utility,254720***822 - JAMES ***,,jgj
SF94WS6WV0,09/06/2024 12:42,09/06/2024 12:42,Pay Bill from 254724***958 - DAMARIS *** Acc. FAD,Completed,23000,,169700,TRUE,Pay Utility,254724***958 - DAMARIS ***,,FAD
SF95VUGQU7,09/06/2024 06:31,09/06/2024 06:31,Pay Bill from 254721***448 - EVERLYNE *** Acc. jca ,Completed,20000,,146700,TRUE,Pay Utility with OD via STK,254721***448 - EVERLYNE ***,,jca 
SF91VOUK5B,09/06/2024 00:10,09/06/2024 00:10,Pay Bill Online from 254723***228 - MORARA *** Acc. POOL,Completed,22000,,126700,TRUE,Pay Bill Online,254723***228 - MORARA ***,,POOL
SF88VLWX9M,08/06/2024 23:02,08/06/2024 23:02,Pay Bill from 074681***748 - edith *** Acc. DDB,Completed,16000,,104700,TRUE,Pay Utility,074681***748 - edith ***,,DDB
SF86VG165W,08/06/2024 21:50,08/06/2024 21:50,Pay Bill Online from 254722***473 - SAMSON *** Acc. IAB,Completed,15000,,88700,TRUE,Pay Bill Online,254722***473 - SAMSON ***,,IAB
SF88VCANWU,08/06/2024 21:19,08/06/2024 21:19,Pay Bill from 254720***822 - JAMES *** Acc. jgj,Completed,7000,,73700,TRUE,Pay Utility with OD via STK,254720***822 - JAMES ***,,jgj
SF80UBXS1M,08/06/2024 17:58,08/06/2024 17:58,Pay Bill from 254716***514 - Doris *** Acc. ICD,Completed,11000,,66700,TRUE,Pay Utility,254716***514 - Doris ***,,ICD
SF86U17KHQ,08/06/2024 16:49,08/06/2024 16:49,Pay Bill from 254705***030 - FRIDAH *** Acc. JEH,Completed,16000,,55700,TRUE,Pay Utility,254705***030 - FRIDAH ***,,JEH
SF84U08NAS,08/06/2024 16:42,08/06/2024 16:42,Pay Bill from 254725***547 - MWACHIRO *** Acc. DFC,Completed,20000,,39700,TRUE,Pay Utility,254725***547 - MWACHIRO ***,,DFC
SF82TOFZZE,08/06/2024 15:17,08/06/2024 15:17,Pay Bill Online from 254721***331 - JOSEPH *** Acc. IDF,Completed,19700,,19700,TRUE,Pay Utility with OD Online,254721***331 - JOSEPH ***,,IDF
SF86SQHE1U,08/06/2024 10:58,08/06/2024 10:58,Utility Account to Organization Settlement Account,Completed,,-166500,0,TRUE,Utility Account to Organization Settlement Account,979524 - ANCIENT WELLS PROPERTY MANAGERS 2,,
SF85SPO94F,08/06/2024 10:52,08/06/2024 10:52,Pay Bill from 072692***152 - YOLLAN *** Acc. IGG,Completed,9000,,166500,TRUE,Pay Utility,072692***152 - YOLLAN ***,,IGG
SF88SLBMU6,08/06/2024 10:16,08/06/2024 10:16,Pay Bill from 254726***273 - JESSE *** Acc. HCH,Completed,17000,,157500,TRUE,Pay Utility,254726***273 - JESSE ***,,HCH
SF84SH4H7Q,08/06/2024 09:39,08/06/2024 09:39,Pay Bill from 075725***130 - RASHID *** Acc. JAF,Completed,5000,,140500,TRUE,Pay Utility,075725***130 - RASHID ***,,JAF
SF83SFPHZD,08/06/2024 09:27,08/06/2024 09:27,Pay Bill Online from 254722***078 - MAUREEN *** Acc. DCD,Completed,3500,,135500,TRUE,Pay Utility with OD Online,254722***078 - MAUREEN ***,,DCD
SF84SEUESU,08/06/2024 09:19,08/06/2024 09:19,Pay Bill from 074035***756 - Maurice *** Acc. IBC,Completed,1000,,132000,TRUE,Pay Utility,074035***756 - Maurice ***,,IBC
SF82RY2O5K,08/06/2024 03:45,08/06/2024 03:45,Pay Bill from 071767***420 - Amina *** Acc. FAA,Completed,10000,,131000,TRUE,Pay Utility,071767***420 - Amina ***,,FAA
SF75ROKOWN,07/06/2024 22:12,07/06/2024 22:12,Pay Bill Online from 254720***027 - ALEX *** Acc. FEB,Completed,16000,,121000,TRUE,Pay Bill Online,254720***027 - ALEX ***,,FEB
SF77RIOYI1,07/06/2024 21:20,07/06/2024 21:20,Pay Bill from 254705***736 - SNAIDA *** Acc. hbc,Completed,10000,,105000,TRUE,Pay Utility,254705***736 - SNAIDA ***,,hbc
SF71RI1WPN,07/06/2024 21:15,07/06/2024 21:15,Pay Bill Online from 254718***397 - JIMMY *** Acc. DCB,Completed,16000,,95000,TRUE,Pay Utility with OD Online,254718***397 - JIMMY ***,,DCB
SF75RD65OZ,07/06/2024 20:42,07/06/2024 20:42,Pay Bill Online from 254722***107 - JOHN *** Acc. KGF,Completed,10000,,79000,TRUE,Pay Bill Online,254722***107 - JOHN ***,,KGF
SF79R8UVIF,07/06/2024 20:17,07/06/2024 20:17,Pay Bill Online from 254720***965 - JAMES *** Acc. JBI,Completed,20000,,69000,TRUE,Pay Bill Online,254720***965 - JAMES ***,,JBI
SF71R52NI1,07/06/2024 19:56,07/06/2024 19:56,Pay Bill Online from 254723***873 - FREDRICK *** Acc. jbf,Completed,8000,,49000,TRUE,Pay Bill Online,254723***873 - FREDRICK ***,,jbf
SF71R4FODN,07/06/2024 19:53,07/06/2024 19:53,Pay Bill Online from 071580***956 - Mercy *** Acc. FFE,Completed,15000,,41000,TRUE,Pay Bill Online,071580***956 - Mercy ***,,FFE
SF77QQWAGR,07/06/2024 18:48,07/06/2024 18:48,Pay Bill Online from 254720***253 - JIMMY *** Acc. kbd,Completed,1000,,26000,TRUE,Pay Utility with OD Online,254720***253 - JIMMY ***,,kbd
SF79QLSSQP,07/06/2024 18:21,07/06/2024 18:21,Pay Bill from 254725***531 - KIPKORIR *** Acc. DFB,Completed,15000,,25000,TRUE,Pay Utility,254725***531 - KIPKORIR ***,,DFB
SF76PU1RTE,07/06/2024 15:14,07/06/2024 15:14,Pay Bill Online from 254703***159 - Enock *** Acc. KAE,Completed,10000,,10000,TRUE,Pay Bill Online,254703***159 - Enock ***,,KAE
SF78PN6NGA,07/06/2024 14:21,07/06/2024 14:21,Utility Account to Organization Settlement Account,Completed,,-55000,0,TRUE,Utility Account to Organization Settlement Account,979524 - ANCIENT WELLS PROPERTY MANAGERS 2,,
SF72P61WAS,07/06/2024 12:10,07/06/2024 12:10,Pay Bill from 070706***921 - LYDIA *** Acc. KBE ,Completed,10000,,55000,TRUE,Pay Utility,070706***921 - LYDIA ***,,KBE 
SF79OY1TND,07/06/2024 11:06,07/06/2024 11:06,Pay Bill Online from 254715***212 - BANCE *** Acc. JFE,Completed,7000,,45000,TRUE,Pay Bill Online,254715***212 - BANCE ***,,JFE
SF73ORU683,07/06/2024 10:15,07/06/2024 10:15,Pay Bill from 254703***305 - MARTHA *** Acc. iai,Completed,15000,,38000,TRUE,Pay Utility,254703***305 - MARTHA ***,,iai
SF74OQ0AKE,07/06/2024 10:00,07/06/2024 10:00,Business Pay Bill by 3031821 - DUKAPAY LIMITED B2C Acc. IEF via API,Completed,11000,,23000,TRUE,Business Pay Bill via API,3031821 - DUKAPAY LIMITED B2C,,IEF via API
SF79OKU5BJ,07/06/2024 09:16,07/06/2024 09:16,Pay Bill Online from 070640***366 - LUCY *** Acc. KDB,Completed,10000,,12000,TRUE,Pay Bill Online,070640***366 - LUCY ***,,KDB
SF76OCKS16,07/06/2024 08:00,07/06/2024 08:00,Pay Bill Online from 254723***004 - LABAN *** Acc. JEF,Completed,2000,,2000,TRUE,Pay Bill Online,254723***004 - LABAN ***,,JEF
SF75O8JCI9,07/06/2024 07:15,07/06/2024 07:15,Utility Account to Organization Settlement Account,Completed,,-326500,0,TRUE,Utility Account to Organization Settlement Account,979524 - ANCIENT WELLS PROPERTY MANAGERS 2,,
SF78O6H9GQ,07/06/2024 06:46,07/06/2024 06:46,Pay Bill from 254701***476 - mary *** Acc. DAA,Completed,16000,,326500,TRUE,Pay Utility,254701***476 - mary ***,,DAA
SF62NZDIBM,06/06/2024 23:51,06/06/2024 23:51,Pay Bill Online from 254721***374 - SOLOMON *** Acc. IBC,Completed,8000,,310500,TRUE,Pay Bill Online,254721***374 - SOLOMON ***,,IBC
SF64NVR8JG,06/06/2024 22:33,06/06/2024 22:33,Pay Bill from 254796***018 - PEACE *** Acc. JEE ,Completed,10000,,302500,TRUE,Pay Utility,254796***018 - PEACE ***,,JEE 
SF69NVMVED,06/06/2024 22:32,06/06/2024 22:32,Pay Bill from 254796***018 - PEACE *** Acc. JAH,Completed,16000,,292500,TRUE,Pay Utility,254796***018 - PEACE ***,,JAH
SF65NOYNAB,06/06/2024 21:25,06/06/2024 21:25,Pay Bill from 254728***024 - melvis *** Acc. KAC,Completed,11000,,276500,TRUE,Pay Utility,254728***024 - melvis ***,,KAC
SF68NICZV4,06/06/2024 20:40,06/06/2024 20:40,Pay Bill Online from 075769***775 - BENARD *** Acc. HCB,Completed,16000,,265500,TRUE,Pay Bill Online,075769***775 - BENARD ***,,HCB
SF62NHLQUA,06/06/2024 20:36,06/06/2024 20:36,Pay Bill from 254700***767 - BAKHITA *** Acc. kcb,Completed,16000,,249500,TRUE,Pay Utility,254700***767 - BAKHITA ***,,kcb
SF62NGXSOS,06/06/2024 20:32,06/06/2024 20:32,Pay Bill Online from 074150***311 - ALLAN *** Acc. DBA,Completed,16000,,233500,TRUE,Pay Bill Online,074150***311 - ALLAN ***,,DBA
SF61NFLNR7,06/06/2024 20:24,06/06/2024 20:24,Pay Bill Online from 254725***394 - RACHAEL *** Acc. JFB,Completed,15000,,217500,TRUE,Pay Bill Online,254725***394 - RACHAEL ***,,JFB
SF64N5WXLU,06/06/2024 19:34,06/06/2024 19:34,Pay Bill Online from 079009***091 - Daisy *** Acc. KFI,Completed,12000,,202500,TRUE,Pay Bill Online,079009***091 - Daisy ***,,KFI
SF60N10OGQ,06/06/2024 19:11,06/06/2024 19:11,Pay Bill from 254726***777 - MARY *** Acc. JDB ,Completed,15000,,190500,TRUE,Pay Utility,254726***777 - MARY ***,,JDB 
SF60MWANF8,06/06/2024 18:50,06/06/2024 18:50,Pay Bill from 254706***081 - FATUMA *** Acc. HED,Completed,9000,,175500,TRUE,Pay Utility,254706***081 - FATUMA ***,,HED
SF67MLVHRJ,06/06/2024 17:53,06/06/2024 17:53,Pay Bill from 254799***719 - Anjeline *** Acc. FCA,Completed,16000,,166500,TRUE,Pay Utility,254799***719 - Anjeline ***,,FCA
SF68MGR0CG,06/06/2024 17:21,06/06/2024 17:21,Pay Bill Online from 074378***968 - Dallias *** Acc. HBB,Completed,5000,,150500,TRUE,Pay Bill Online,074378***968 - Dallias ***,,HBB
SF61MGA3JB,06/06/2024 17:18,06/06/2024 17:18,Pay Bill from 074547***241 - Tonny *** Acc. IDC,Completed,9500,,145500,TRUE,Pay Utility,074547***241 - Tonny ***,,IDC
SF67M9HUDB,06/06/2024 16:31,06/06/2024 16:31,Pay Bill from 254723***069 - ANN *** Acc. IFG,Completed,8000,,136000,TRUE,Pay Utility,254723***069 - ANN ***,,IFG
SF63M60B7H,06/06/2024 16:04,06/06/2024 16:04,Pay Bill from 254719***910 - KEVIN *** Acc. iDD,Completed,11000,,128000,TRUE,Pay Utility,254719***910 - KEVIN ***,,iDD
SF69M57M49,06/06/2024 15:58,06/06/2024 15:58,Pay Bill Online from 254713***424 - NDUTI *** Acc. jed,Completed,15000,,117000,TRUE,Pay Bill Online,254713***424 - NDUTI ***,,jed
SF69LJAH6V,06/06/2024 13:07,06/06/2024 13:07,Pay Bill Online from 254710***167 - KUSA *** Acc. JEB,Completed,15000,,102000,TRUE,Pay Bill Online,254710***167 - KUSA ***,,JEB
SF62LDIJ7Y,06/06/2024 12:21,06/06/2024 12:21,Pay Bill from 254708***464 - MERCY *** Acc. IBB,Completed,18000,,87000,TRUE,Pay Utility,254708***464 - MERCY ***,,IBB
SF66L6QVAW,06/06/2024 11:26,06/06/2024 11:26,Pay Bill Online from 254757***672 - BRIAN *** Acc. KDD,Completed,12000,,69000,TRUE,Pay Bill Online,254757***672 - BRIAN ***,,KDD
SF69L6KIJF,06/06/2024 11:24,06/06/2024 11:24,Pay Bill from 254715***045 - FRIDAH *** Acc. KFJ,Completed,16000,,57000,TRUE,Pay Utility with OD via STK,254715***045 - FRIDAH ***,,KFJ
SF65L3CKA9,06/06/2024 10:58,06/06/2024 10:58,Pay Bill Online from 254710***215 - JOAN *** Acc. Ifb,Completed,15000,,41000,TRUE,Pay Bill Online,254710***215 - JOAN ***,,Ifb
SF68KTWZ1Q,06/06/2024 09:38,06/06/2024 09:38,Pay Bill from 254721***481 - MARTIN *** Acc. DFA,Completed,16000,,26000,TRUE,Pay Utility,254721***481 - MARTIN ***,,DFA
SF69KS0ZYH,06/06/2024 09:21,06/06/2024 09:21,Pay Bill from 079850***956 - Raphael *** Acc. KEC,Completed,10000,,10000,TRUE,Pay Utility,079850***956 - Raphael ***,,KEC
SF65KOW6YJ,06/06/2024 08:53,06/06/2024 08:53,Utility Account to Organization Settlement Account,Completed,,-427000,0,TRUE,Utility Account to Organization Settlement Account,979524 - ANCIENT WELLS PROPERTY MANAGERS 2,,
SF69KJWC3N,06/06/2024 08:06,06/06/2024 08:06,Pay Bill Online from 254720***253 - JIMMY *** Acc. kbd,Completed,1000,,427000,TRUE,Pay Bill Online,254720***253 - JIMMY ***,,kbd
SF62KE3YV0,06/06/2024 07:00,06/06/2024 07:00,Pay Bill from 070685***885 - margaret *** Acc. FCE,Completed,15000,,426000,TRUE,Pay Utility,070685***885 - margaret ***,,FCE
SF67KD12BF,06/06/2024 06:43,06/06/2024 06:43,Pay Bill Online from 072438***624 - FATUMA *** Acc. FAB,Completed,16000,,411000,TRUE,Pay Utility with OD Online,072438***624 - FATUMA ***,,FAB
SF67K9FDAF,06/06/2024 03:35,06/06/2024 03:35,Pay Bill Online from 254707***471 - JOYCE *** Acc. Hgg,Completed,15000,,395000,TRUE,Pay Utility with OD Online,254707***471 - JOYCE ***,,Hgg
SF65K7V01L,06/06/2024 01:02,06/06/2024 01:02,Pay Bill from 254700***550 - BENARD *** Acc. DBB,Completed,16000,,380000,TRUE,Pay Utility,254700***550 - BENARD ***,,DBB
SF55K3YDJ1,05/06/2024 22:56,05/06/2024 22:56,Pay Bill Online from 254721***178 - PHANICE *** Acc. FBF,Completed,16000,,364000,TRUE,Pay Bill Online,254721***178 - PHANICE ***,,FBF
SF58JZZ9L4,05/06/2024 22:03,05/06/2024 22:03,Pay Bill from 254729***933 - FELISTAH *** Acc. IDI,Completed,15000,,348000,TRUE,Pay Utility,254729***933 - FELISTAH ***,,IDI
SF51JVI8HN,05/06/2024 21:25,05/06/2024 21:25,Pay Bill from 254791***823 - rachel *** Acc. JEG,Completed,9000,,333000,TRUE,Pay Utility,254791***823 - rachel ***,,JEG
SF51JS6AHV,05/06/2024 21:02,05/06/2024 21:02,Pay Bill from 254796***539 - MARION *** Acc. HGF,Completed,9500,,324000,TRUE,Pay Utility,254796***539 - MARION ***,,HGF
SF59JH3N07,05/06/2024 19:58,05/06/2024 19:58,Pay Bill Online from 254727***993 - MAUREEN *** Acc. IBD,Completed,11000,,314500,TRUE,Pay Utility with OD Online,254727***993 - MAUREEN ***,,IBD
SF52JGI8QK,05/06/2024 19:55,05/06/2024 19:55,Pay Bill Online from 254714***668 - ZACHARY *** Acc. JAD,Completed,16000,,303500,TRUE,Pay Bill Online,254714***668 - ZACHARY ***,,JAD
SF51JC4551,05/06/2024 19:35,05/06/2024 19:35,Pay Bill from 254712***818 - OYUGI *** Acc. FCB,Completed,16000,,287500,TRUE,Pay Utility,254712***818 - OYUGI ***,,FCB
SF54J9ES04,05/06/2024 19:23,05/06/2024 19:23,Pay Bill from 074546***503 - HAWO *** Acc. KGK,Completed,33000,,271500,TRUE,Pay Utility,074546***503 - HAWO ***,,KGK
SF50J71GCK,05/06/2024 19:12,05/06/2024 19:12,Pay Bill Online from 254711***716 - RODGERS *** Acc. IGC,Completed,9000,,238500,TRUE,Pay Bill Online,254711***716 - RODGERS ***,,IGC
SF51IYH84P,05/06/2024 18:31,05/06/2024 18:31,Pay Bill from 254710***589 - EVERLYN *** Acc. JGA,Completed,20000,,229500,TRUE,Pay Utility,254710***589 - EVERLYN ***,,JGA
SF57INU7WR,05/06/2024 17:29,05/06/2024 17:29,Pay Bill from 070728***361 - JOSEPHIN *** Acc. HGD,Completed,9000,,209500,TRUE,Pay Utility,070728***361 - JOSEPHIN ***,,HGD
SF54IK0LO6,05/06/2024 17:04,05/06/2024 17:04,Pay Bill Online from 254706***834 - WILKISTER *** Acc. HGH,Completed,15000,,200500,TRUE,Pay Bill Online,254706***834 - WILKISTER ***,,HGH
SF56IDTGHI,05/06/2024 16:19,05/06/2024 16:19,Pay Bill from 254708***373 - MUNINI *** Acc. IEB,Completed,15000,,185500,TRUE,Pay Utility,254708***373 - MUNINI ***,,IEB
SF57IDDSRN,05/06/2024 16:16,05/06/2024 16:16,Pay Bill from 254705***201 - NZIOKA *** Acc. JDG,Completed,10000,,170500,TRUE,Pay Utility,254705***201 - NZIOKA ***,,JDG
SF58I5JMTK,05/06/2024 15:14,05/06/2024 15:14,Pay Bill from 254704***222 - Lesley *** Acc. FCC,Completed,12000,,160500,TRUE,Pay Utility,254704***222 - Lesley ***,,FCC
SF59I3LSN1,05/06/2024 14:59,05/06/2024 14:59,Pay Bill from 254724***912 - SAMUEL *** Acc. FAD,Completed,12000,,148500,TRUE,Pay Utility,254724***912 - SAMUEL ***,,FAD
SF55HTGTBN,05/06/2024 13:39,05/06/2024 13:39,Pay Bill from 011412***024 - Sharad *** Acc. KCK,Completed,15000,,136500,TRUE,Pay Utility,011412***024 - Sharad ***,,KCK
SF51HJ9RIB,05/06/2024 12:20,05/06/2024 12:20,Pay Bill from 254720***856 - FLORENCE *** Acc. JEC,Completed,11500,,121500,TRUE,Pay Utility,254720***856 - FLORENCE ***,,JEC
SF52HGI786,05/06/2024 11:57,05/06/2024 11:57,Pay Bill Online from 254729***858 - AMBROSE *** Acc. KEJ,Completed,16000,,110000,TRUE,Pay Bill Online,254729***858 - AMBROSE ***,,KEJ
SF50HDAQZY,05/06/2024 11:30,05/06/2024 11:30,Pay Bill Online from 072225***105 - SALIM *** Acc. FGF,Completed,16000,,94000,TRUE,Pay Bill Online,072225***105 - SALIM ***,,FGF
SF57H9XOSL,05/06/2024 11:03,05/06/2024 11:03,Pay Bill from 254746***742 - FESTUS *** Acc. IFF,Completed,10000,,78000,TRUE,Pay Utility,254746***742 - FESTUS ***,,IFF
SF59H6OR2X,05/06/2024 10:36,05/06/2024 10:36,Pay Bill Online from 254715***656 - DENNIS *** Acc. kfa,Completed,16000,,68000,TRUE,Pay Bill Online,254715***656 - DENNIS ***,,kfa
SF53H68ENP,05/06/2024 10:32,05/06/2024 10:32,Pay Bill from 070656***358 - HARRIET *** Acc. HBA,Completed,16000,,52000,TRUE,Pay Utility,070656***358 - HARRIET ***,,HBA
SF50GZTZSW,05/06/2024 09:37,05/06/2024 09:37,Pay Bill from 254702***444 - RANDY *** Acc. FBD,Completed,3000,,36000,TRUE,Pay Utility,254702***444 - RANDY ***,,FBD
SF56GYVYYM,05/06/2024 09:29,05/06/2024 09:29,Pay Bill Online from 254720***070 - Michelle *** Acc. JEJ,Completed,16000,,33000,TRUE,Pay Bill Online,254720***070 - Michelle ***,,JEJ
SF54GVZJFS,05/06/2024 09:02,05/06/2024 09:02,Pay Bill from 254716***682 - JUSTINE *** Acc. HAA,Completed,17000,,17000,TRUE,Pay Utility,254716***682 - JUSTINE ***,,HAA
SF56GU93VC,05/06/2024 08:46,05/06/2024 08:46,Utility Account to Organization Settlement Account,Completed,,-200500,0,TRUE,Utility Account to Organization Settlement Account,979524 - ANCIENT WELLS PROPERTY MANAGERS 2,,
SF50GQ8TD8,05/06/2024 08:09,05/06/2024 08:09,Pay Bill Online from 254721***995 - BERNICE *** Acc. KFK,Completed,16000,,200500,TRUE,Pay Bill Online,254721***995 - BERNICE ***,,KFK
SF57GD071P,05/06/2024 00:00,05/06/2024 00:00,Pay Bill Online from 254702***678 - JOHN *** Acc. DEB,Completed,12000,,184500,TRUE,Pay Bill Online,254702***678 - JOHN ***,,DEB
SF41GBE3F7,04/06/2024 23:08,04/06/2024 23:08,Pay Bill Online from 254723***628 - CLINTON *** Acc. hfh,Completed,16000,,172500,TRUE,Pay Bill Online,254723***628 - CLINTON ***,,hfh
SF49G6KEMV,04/06/2024 21:56,04/06/2024 21:56,Pay Bill Online from 254716***144 - PETER *** Acc. FBB,Completed,16000,,156500,TRUE,Pay Bill Online,254716***144 - PETER ***,,FBB
SF45G2X527,04/06/2024 21:22,04/06/2024 21:22,Pay Bill from 254705***030 - ANN *** Acc. jcb,Completed,10000,,140500,TRUE,Pay Utility,254705***030 - ANN ***,,jcb
SF44G1OS5K,04/06/2024 21:13,04/06/2024 21:13,Pay Bill Online from 076802***575 - DOREEN *** Acc. HCD,Completed,10000,,130500,TRUE,Pay Bill Online,076802***575 - DOREEN ***,,HCD
SF47FZWU1J,04/06/2024 21:00,04/06/2024 21:00,Pay Bill from 254729***187 - PATRICK *** Acc. KGJ,Completed,33000,,120500,TRUE,Pay Utility with OD via STK,254729***187 - PATRICK ***,,KGJ
SF44FOIPD4,04/06/2024 19:51,04/06/2024 19:51,Pay Bill from 074548***142 - Daisy *** Acc. FGE,Completed,15000,,87500,TRUE,Pay Utility,074548***142 - Daisy ***,,FGE
SF49FI082B,04/06/2024 19:19,04/06/2024 19:19,Pay Bill from 254799***200 - PURITY *** Acc. HDC,Completed,11000,,72500,TRUE,Pay Utility,254799***200 - PURITY ***,,HDC
SF48FFZDO6,04/06/2024 19:09,04/06/2024 19:09,Pay Bill from 254703***196 - ERIC *** Acc. JGI,Completed,11500,,61500,TRUE,Pay Utility,254703***196 - ERIC ***,,JGI
SF44F1WQVY,04/06/2024 17:57,04/06/2024 17:57,Pay Bill Online from 254720***253 - JIMMY *** Acc. kbd,Completed,2000,,50000,TRUE,Pay Utility with OD Online,254720***253 - JIMMY ***,,kbd
SF42EYX4YS,04/06/2024 17:39,04/06/2024 17:39,Pay Bill from 011164***707 - Kevin *** Acc. HGE,Completed,21000,,48000,TRUE,Pay Utility,011164***707 - Kevin ***,,HGE
SF41ETU4UJ,04/06/2024 17:07,04/06/2024 17:07,Pay Bill from 254728***256 - NICHOLAS *** Acc. FBE,Completed,15000,,27000,TRUE,Pay Utility,254728***256 - NICHOLAS ***,,FBE
SF46EN9YKQ,04/06/2024 16:20,04/06/2024 16:20,Pay Bill from 254714***203 - PATRICK *** Acc. KEI,Completed,12000,,12000,TRUE,Pay Utility,254714***203 - PATRICK ***,,KEI
SF44ECKGY8,04/06/2024 14:54,04/06/2024 14:54,Utility Account to Organization Settlement Account,Completed,,-51000,0,TRUE,Utility Account to Organization Settlement Account,979524 - ANCIENT WELLS PROPERTY MANAGERS 2,,
SF40E8BHXW,04/06/2024 14:20,04/06/2024 14:20,Pay Bill Online from 254721***713 - RHODA *** Acc. Jfh,Completed,17000,,51000,TRUE,Pay Bill Online,254721***713 - RHODA ***,,Jfh
SF40E7Y47Y,04/06/2024 14:17,04/06/2024 14:17,Pay Bill from 254721***818 - SAIDA *** Acc. JEA,Completed,17000,,34000,TRUE,Pay Utility,254721***818 - SAIDA ***,,JEA
SF45DU5UHF,04/06/2024 12:30,04/06/2024 12:30,Pay Bill Online from 254706***634 - CLINTON *** Acc. FDB,Completed,17000,,17000,TRUE,Pay Bill Online,254706***634 - CLINTON ***,,FDB
SF47DTOD5D,04/06/2024 12:27,04/06/2024 12:27,Utility Account to Organization Settlement Account,Completed,,-126000,0,TRUE,Utility Account to Organization Settlement Account,979524 - ANCIENT WELLS PROPERTY MANAGERS 2,,
SF49DSKTWH,04/06/2024 12:18,04/06/2024 12:18,Pay Bill from 011532***960 - JOSEPH *** Acc. IBG,Completed,8000,,126000,TRUE,Pay Utility,011532***960 - JOSEPH ***,,IBG
SF42DSGYNS,04/06/2024 12:17,04/06/2024 12:17,Pay Bill Online from 254723***004 - LABAN *** Acc. JEF,Completed,4500,,118000,TRUE,Pay Utility with OD Online,254723***004 - LABAN ***,,JEF
SF47DMQRVX,04/06/2024 11:30,04/06/2024 11:30,Pay Bill from 254704***496 - PETER *** Acc. DFD,Completed,20000,,113500,TRUE,Pay Utility,254704***496 - PETER ***,,DFD
SF49DKFOR5,04/06/2024 11:12,04/06/2024 11:12,Pay Bill from 254724***503 - GEOFREY *** Acc. JFF,Completed,10000,,93500,TRUE,Pay Utility,254724***503 - GEOFREY ***,,JFF
SF43DBM1TH,04/06/2024 09:58,04/06/2024 09:58,Pay Bill Online from 254710***381 - JANE *** Acc. HAF,Completed,10000,,83500,TRUE,Pay Bill Online,254710***381 - JANE ***,,HAF
SF40DAX6DU,04/06/2024 09:52,04/06/2024 09:52,Pay Bill Online from 254729***700 - MICAH *** Acc. HFE,Completed,10500,,73500,TRUE,Pay Bill Online,254729***700 - MICAH ***,,HFE
SF44D7Q34G,04/06/2024 09:24,04/06/2024 09:24,Pay Bill from 254725***094 - ABDISALAN *** Acc. IBA,Completed,16000,,63000,TRUE,Pay Utility,254725***094 - ABDISALAN ***,,IBA
SF45D6E6FL,04/06/2024 09:12,04/06/2024 09:12,Pay Bill Online from 254741***957 - Mercy *** Acc. Jcb,Completed,5000,,47000,TRUE,Pay Bill Online,254741***957 - Mercy ***,,Jcb
SF42D0C7PK,04/06/2024 08:16,04/06/2024 08:16,Pay Bill Online from 254707***839 - DENNIS *** Acc. FEF,Completed,16000,,42000,TRUE,Pay Bill Online,254707***839 - DENNIS ***,,FEF
SF43CYAKB1,04/06/2024 07:56,04/06/2024 07:56,Pay Bill Online from 254708***223 - DENNIS *** Acc. DCA,Completed,16000,,26000,TRUE,Pay Utility with OD Online,254708***223 - DENNIS ***,,DCA
SF48CVFGL8,04/06/2024 07:25,04/06/2024 07:25,Pay Bill from 254703***744 - Esther *** Acc. KEF,Completed,10000,,10000,TRUE,Pay Utility,254703***744 - Esther ***,,KEF
SF46CTVCUC,04/06/2024 07:05,04/06/2024 07:05,Utility Account to Organization Settlement Account,Completed,,-82000,0,TRUE,Utility Account to Organization Settlement Account,979524 - ANCIENT WELLS PROPERTY MANAGERS 2,,
SF39BW72VV,03/06/2024 20:06,03/06/2024 20:06,Pay Bill Online from 254702***887 - Nax *** Acc. FDE,Completed,15000,,82000,TRUE,Pay Bill Online,254702***887 - Nax ***,,FDE
SF39BVQWNB,03/06/2024 20:03,03/06/2024 20:03,Pay Bill from 254792***128 - Edwin *** Acc. HBF,Completed,9000,,67000,TRUE,Pay Utility,254792***128 - Edwin ***,,HBF
SF37BSAQV1,03/06/2024 19:46,03/06/2024 19:46,Pay Bill from 074337***291 - Ann *** Acc. KAD,Completed,11000,,58000,TRUE,Pay Utility,074337***291 - Ann ***,,KAD
SF36BIUYIA,03/06/2024 19:02,03/06/2024 19:02,Pay Bill Online from 254710***992 - SIMON *** Acc. JCD,Completed,15000,,47000,TRUE,Pay Bill Online,254710***992 - SIMON ***,,JCD
SF33BEL3N1,03/06/2024 18:42,03/06/2024 18:42,Pay Bill from 254798***621 - MERCY *** Acc. jcj,Completed,16000,,32000,TRUE,Pay Utility,254798***621 - MERCY ***,,jcj
SF31BECRPR,03/06/2024 18:40,03/06/2024 18:40,Pay Bill Online from 254725***080 - DENNIS *** Acc. HDH,Completed,16000,,16000,TRUE,Pay Utility with OD Online,254725***080 - DENNIS ***,,HDH
SF33B3G61B,03/06/2024 17:39,03/06/2024 17:39,Utility Account to Organization Settlement Account,Completed,,-255000,0,TRUE,Utility Account to Organization Settlement Account,979524 - ANCIENT WELLS PROPERTY MANAGERS 2,,
SF34AWGLQO,03/06/2024 16:52,03/06/2024 16:52,Pay Bill from 254757***090 - Laureen *** Acc. KCJ,Completed,16000,,255000,TRUE,Pay Utility,254757***090 - Laureen ***,,KCJ
SF38ART2N2,03/06/2024 16:18,03/06/2024 16:18,Pay Bill from 254745***401 - mirriam *** Acc. kci,Completed,11000,,239000,TRUE,Pay Utility,254745***401 - mirriam ***,,kci
SF30AL67SI,03/06/2024 15:25,03/06/2024 15:25,Pay Bill Online from 254741***913 - DUNCAN *** Acc. FAE,Completed,5000,,228000,TRUE,Pay Bill Online,254741***913 - DUNCAN ***,,FAE
SF38AH3SLO,03/06/2024 14:52,03/06/2024 14:52,Pay Bill from 254717***596 - NICHOLAS *** Acc. hcf,Completed,2000,,223000,TRUE,Pay Utility,254717***596 - NICHOLAS ***,,hcf
SF38A950O0,03/06/2024 13:49,03/06/2024 13:49,Pay Bill Online from 254745***294 - Faith *** Acc. IFC,Completed,8000,,221000,TRUE,Pay Bill Online,254745***294 - Faith ***,,IFC
SF34A5VZ2Q,03/06/2024 13:24,03/06/2024 13:24,Pay Bill from 254720***007 - BRENDA *** Acc. KAB,Completed,1000,,213000,TRUE,Pay Utility,254720***007 - BRENDA ***,,KAB
SF30A4LKSW,03/06/2024 13:15,03/06/2024 13:15,Small Business Pay Bill from 254719***942 - NORAH *** Acc. KDA,Completed,16000,,212000,TRUE,Micro SME Customer Pay Bill via API,254719***942 - NORAH ***,,KDA
SF30A4GUXM,03/06/2024 13:14,03/06/2024 13:14,Pay Bill from 254720***502 - JOHN *** Acc. JFA ,Completed,20000,,196000,TRUE,Pay Utility,254720***502 - JOHN ***,,JFA 
SF31A1S5R5,03/06/2024 12:53,03/06/2024 12:53,Pay Bill Online from 011425***335 - ISAAC *** Acc. HAB ,Completed,16000,,176000,TRUE,Pay Bill Online,011425***335 - ISAAC ***,,HAB 
SF38A0922U,03/06/2024 12:41,03/06/2024 12:41,Pay Bill from 254717***324 - Christine *** Acc. KDF,Completed,10000,,160000,TRUE,Pay Utility,254717***324 - Christine ***,,KDF
SF379TD1OV,03/06/2024 11:46,03/06/2024 11:46,Pay Bill from 254722***450 - MARY *** Acc. JAI,Completed,40000,,150000,TRUE,Pay Utility,254722***450 - MARY ***,,JAI
SF339RKOIP,03/06/2024 11:31,03/06/2024 11:31,Pay Bill from 075848***024 - KELVIN *** Acc. IGF,Completed,10000,,110000,TRUE,Pay Utility,075848***024 - KELVIN ***,,IGF
SF389H7456,03/06/2024 10:06,03/06/2024 10:06,Pay Bill Online from 254729***719 - JACINTA *** Acc. FFF,Completed,17000,,100000,TRUE,Pay Bill Online,254729***719 - JACINTA ***,,FFF
SF399FFZYV,03/06/2024 09:50,03/06/2024 09:50,Pay Bill Online from 071150***447 - Gabriel *** Acc. FDC,Completed,9000,,83000,TRUE,Pay Bill Online,071150***447 - Gabriel ***,,FDC
SF379728TR,03/06/2024 08:34,03/06/2024 08:34,Pay Bill Online from 254712***871 - PAULA *** Acc. hea,Completed,16000,,74000,TRUE,Pay Bill Online,254712***871 - PAULA ***,,hea
SF3590YQ1P,03/06/2024 07:32,03/06/2024 07:32,Pay Bill from 254723***380 - RHODAH *** Acc. HEG,Completed,15000,,58000,TRUE,Pay Utility,254723***380 - RHODAH ***,,HEG
SF328YKOI8,03/06/2024 07:02,03/06/2024 07:02,Business Pay Bill by 488519 - NCBA  Bank M-pesa Acc. kbf via API,Completed,10000,,43000,TRUE,Business Pay Bill via API,488519 - NCBA  Bank M-pesa,,kbf via API
SF328V1L3I,03/06/2024 05:38,03/06/2024 05:38,Pay Bill Online from 254720***253 - JIMMY *** Acc. kbd,Completed,1000,,33000,TRUE,Pay Utility with OD Online,254720***253 - JIMMY ***,,kbd
SF348U2DM4,03/06/2024 04:06,03/06/2024 04:06,Pay Bill Online from 254720***253 - JIMMY *** Acc. kbd,Completed,1000,,32000,TRUE,Pay Utility with OD Online,254720***253 - JIMMY ***,,kbd
SF288OZJZC,02/06/2024 23:02,02/06/2024 23:02,Pay Bill Online from 254711***729 - DAVID *** Acc. HFA,Completed,16000,,31000,TRUE,Pay Bill Online,254711***729 - DAVID ***,,HFA
SF227TDXJQ,02/06/2024 19:01,02/06/2024 19:01,Pay Bill from 071568***238 - JOANNAH *** Acc. FFA,Completed,15000,,15000,TRUE,Pay Utility,071568***238 - JOANNAH ***,,FFA
SF257M0L3R,02/06/2024 18:19,02/06/2024 18:19,Utility Account to Organization Settlement Account,Completed,,-512500,0,TRUE,Utility Account to Organization Settlement Account,979524 - ANCIENT WELLS PROPERTY MANAGERS 2,,
SF257IBIP1,02/06/2024 17:55,02/06/2024 17:55,Pay Bill Online from 074378***968 - Dallias *** Acc. HBB,Completed,4000,,512500,TRUE,Pay Bill Online,074378***968 - Dallias ***,,HBB
SF287382OE,02/06/2024 16:04,02/06/2024 16:04,Pay Bill Online from 254721***294 - GRACE *** Acc. IGH,Completed,15000,,508500,TRUE,Pay Bill Online,254721***294 - GRACE ***,,IGH
SF277314EX,02/06/2024 16:03,02/06/2024 16:03,Pay Bill Online from 254706***429 - ROSE *** Acc. IFI,Completed,15000,,493500,TRUE,Pay Bill Online,254706***429 - ROSE ***,,IFI
SF246GJR5Q,02/06/2024 13:02,02/06/2024 13:02,Pay Bill from 254743***477 - FAITH *** Acc. IGE,Completed,9000,,478500,TRUE,Pay Utility,254743***477 - FAITH ***,,IGE
SF266F3YF8,02/06/2024 12:50,02/06/2024 12:50,Pay Bill from 079053***272 - BARNABAS *** Acc. FGC,Completed,5000,,469500,TRUE,Pay Utility,079053***272 - BARNABAS ***,,FGC
SF25699DJT,02/06/2024 11:57,02/06/2024 11:57,Pay Bill from 254702***981 - VICTORIA *** Acc. KCE,Completed,10000,,464500,TRUE,Pay Utility,254702***981 - VICTORIA ***,,KCE
SF235UILBD,02/06/2024 09:38,02/06/2024 09:38,Pay Bill from 254726***835 - LAWRENCE *** Acc. kdj,Completed,16000,,454500,TRUE,Pay Utility with OD via STK,254726***835 - LAWRENCE ***,,kdj
SF1855GTCQ,01/06/2024 22:45,01/06/2024 22:45,Pay Bill from 254721***885 - QUINTER *** Acc. KGC,Completed,9000,,438500,TRUE,Pay Utility,254721***885 - QUINTER ***,,KGC
SF194P1OH3,01/06/2024 20:29,01/06/2024 20:29,Pay Bill from 254727***545 - SERAH *** Acc. KGD,Completed,10000,,429500,TRUE,Pay Utility,254727***545 - SERAH ***,,KGD
SF154EPAHP,01/06/2024 19:34,01/06/2024 19:34,Pay Bill from 254715***001 - EMMANUEL *** Acc. KBB,Completed,18000,,419500,TRUE,Pay Utility,254715***001 - EMMANUEL ***,,KBB
SF1044666E,01/06/2024 18:43,01/06/2024 18:43,Pay Bill from 254742***607 - BARNABAS *** Acc. IDH,Completed,16000,,401500,TRUE,Pay Utility,254742***607 - BARNABAS ***,,IDH
SF144238TS,01/06/2024 18:31,01/06/2024 18:31,Pay Bill from 071515***284 - Clifford *** Acc. ICI,Completed,16000,,385500,TRUE,Pay Utility,071515***284 - Clifford ***,,ICI
SF173ZPCON,01/06/2024 18:18,01/06/2024 18:18,Pay Bill Online from 254722***937 - Carlos *** Acc. KCF,Completed,21000,,369500,TRUE,Pay Bill Online,254722***937 - Carlos ***,,KCF
SF123S39WW,01/06/2024 17:30,01/06/2024 17:30,Pay Bill Online from 079392***223 - Danson *** Acc. FCD,Completed,23000,,348500,TRUE,Pay Bill Online,079392***223 - Danson ***,,FCD
SF163KAB84,01/06/2024 16:36,01/06/2024 16:36,Pay Bill from 254712***486 - JACKLINE *** Acc. ked,Completed,11000,,325500,TRUE,Pay Utility,254712***486 - JACKLINE ***,,ked
SF113HSQFH,01/06/2024 16:18,01/06/2024 16:18,Pay Bill Online from 254791***019 - CLAUDIA *** Acc. iee,Completed,9000,,314500,TRUE,Pay Bill Online,254791***019 - CLAUDIA ***,,iee
SF133281AT,01/06/2024 14:19,01/06/2024 14:19,Business Pay Bill by 488519 - NCBA  Bank M-pesa Acc. HEF via API,Completed,21000,,305500,TRUE,Business Pay Bill via API,488519 - NCBA  Bank M-pesa,,HEF via API
SF152XYJD9,01/06/2024 13:47,01/06/2024 13:47,Pay Bill Online from 254700***051 - CAROLYNE *** Acc. KDI,Completed,24000,,284500,TRUE,Pay Bill Online,254700***051 - CAROLYNE ***,,KDI
SF132WYEXN,01/06/2024 13:39,01/06/2024 13:39,Pay Bill from 074130***410 - STEVEKEVIN *** Acc. IAC,Completed,9000,,260500,TRUE,Pay Utility,074130***410 - STEVEKEVIN ***,,IAC
SF132UKWDL,01/06/2024 13:21,01/06/2024 13:21,Pay Bill from 254717***775 - QADRA *** Acc. JCI,Completed,21000,,251500,TRUE,Pay Utility,254717***775 - QADRA ***,,JCI
SF152LG1YL,01/06/2024 12:11,01/06/2024 12:11,Pay Bill from 079293***158 - mary *** Acc. FCD,Completed,1000,,230500,TRUE,Pay Utility,079293***158 - mary ***,,FCD
SF182KIAE4,01/06/2024 12:03,01/06/2024 12:03,Pay Bill from 254742***085 - WARREN *** Acc. HFC,Completed,10000,,229500,TRUE,Pay Utility,254742***085 - WARREN ***,,HFC
SF152K7QZP,01/06/2024 12:01,01/06/2024 12:01,Pay Bill from 254724***488 - NICHOLAS *** Acc. JDE,Completed,9500,,219500,TRUE,Pay Utility,254724***488 - NICHOLAS ***,,JDE
SF112ETHCH,01/06/2024 11:17,01/06/2024 11:17,Pay Bill from 254703***239 - BENARD *** Acc. KAK,Completed,16000,,210000,TRUE,Pay Utility,254703***239 - BENARD ***,,KAK
SF1227Y5RW,01/06/2024 10:21,01/06/2024 10:21,Pay Bill Online from 254716***364 - Wendy *** Acc. FFC,Completed,9000,,194000,TRUE,Pay Bill Online,254716***364 - Wendy ***,,FFC
SF1026P4J4,01/06/2024 10:11,01/06/2024 10:11,Pay Bill Online from 254719***821 - KIPKEMOI *** Acc. JDD,Completed,15000,,185000,TRUE,Pay Bill Online,254719***821 - KIPKEMOI ***,,JDD
SF1225S6OM,01/06/2024 10:04,01/06/2024 10:04,Business Pay Bill by 488519 - NCBA  Bank M-pesa Acc. DBD  via API,Completed,20000,,170000,TRUE,Business Pay Bill via API,488519 - NCBA  Bank M-pesa,,DBD  via API
SF1825GU2I,01/06/2024 10:01,01/06/2024 10:01,Pay Bill Online from 254795***441 - LEWIS *** Acc. KEB,Completed,16000,,150000,TRUE,Pay Bill Online,254795***441 - LEWIS ***,,KEB
SF1024UZ8Q,01/06/2024 09:56,01/06/2024 09:56,Pay Bill Online from 254718***538 - JAMES *** Acc. JBH,Completed,16000,,134000,TRUE,Pay Bill Online,254718***538 - JAMES ***,,JBH
SF141WYIX6,01/06/2024 08:46,01/06/2024 08:46,Pay Bill from 254724***046 - GIDEON *** Acc. KBJ,Completed,16000,,118000,TRUE,Pay Utility,254724***046 - GIDEON ***,,KBJ
SF191UWSET,01/06/2024 08:27,01/06/2024 08:27,Pay Bill Online from 254717***935 - LYDIAH *** Acc. FFB,Completed,15000,,102000,TRUE,Pay Bill Online,254717***935 - LYDIAH ***,,FFB
SF181I5TWI,01/06/2024 02:21,01/06/2024 02:21,Pay Bill from 254718***358 - Job *** Acc. ICF,Completed,11000,,87000,TRUE,Pay Utility,254718***358 - Job ***,,ICF
