Receipt No.,Completion Time,Initiation Time,Details,Transaction Status,Paid In,Withdrawn,Balance,Balance Confirmed,Reason Type,Other Party Info,Linked Transaction ID,A/C No.
RC563637K2,05/03/2023 15:14,05/03/2023 15:14,Pay Bill Online from 0740283700 - SERAH MUKULU MULILIA Acc. c4serahmukulu,Completed,13500,,103500,TRUE,Pay Bill Online,0740283700 - SERAH MUKULU MULILIA,,c4serahmukulu
RC47ZOQ5R5,04/03/2023 16:18,04/03/2023 16:18,Pay Bill from 0111653037 - STEPHEN MUKABANA MAYABI Acc. A1,Completed,7500,,90000,TRUE,Pay Utility,0111653037 - STEPHEN MUKABANA MAYABI,,A1
RC45ZNUU5R,04/03/2023 16:09,04/03/2023 16:09,Pay Bill from 254791341895 - Enos Nyaosi Ayuma Acc. D5,Completed,8500,,82500,TRUE,Pay Utility,254791341895 - Enos Nyaosi Ayuma,,D5
RC41YEWOHP,04/03/2023 08:25,04/03/2023 08:25,Pay Bill from 254726945691 - JAMES RAMTU Acc. B5,Completed,8500,,74000,TRUE,Pay Utility,254726945691 - JAMES RAMTU,,B5
RC31X7ZKX3,03/03/2023 18:33,03/03/2023 18:33,Pay Bill from 0715030019 - Omwenga Ong'era Stephen Acc. E1,Completed,8000,,65500,TRUE,Pay Utility,0715030019 - Omwenga Ong'era Stephen,,E1
RC33WAAUXD,03/03/2023 13:11,03/03/2023 13:11,Pay Bill Online from 254715020357 - ELIZABETH NJERI WARARI Acc. C2,Completed,7500,,57500,TRUE,Pay Bill Online,254715020357 - ELIZABETH NJERI WARARI,,C2
RC38W6DGW4,03/03/2023 12:28,03/03/2023 12:28,Pay Bill from 254713701237 - Michael Wanjala Acc. G2,Completed,8000,,50000,TRUE,Pay Utility,254713701237 - Michael Wanjala,,G2
RC29V8JC3V,02/03/2023 23:34,02/03/2023 23:34,Pay Bill from 254715764093 - GICHANA GOVAN Acc. E3,Completed,8000,,42000,TRUE,Pay Utility,254715764093 - GICHANA GOVAN,,E3
RC22T1SJXW,02/03/2023 10:20,02/03/2023 10:20,Pay Bill from 254720439955 - GEOPHRY OKOTH Acc. D6,Completed,8500,,34000,TRUE,Pay Utility,254720439955 - GEOPHRY OKOTH,,D6
RC11QOV3CP,01/03/2023 13:00,01/03/2023 13:00,Pay Bill Online from 254722444929 - LIZ KIHARA Acc. g3,Completed,8000,,25500,TRUE,Pay Bill Online,254722444929 - LIZ KIHARA,,g3
RC11QF05AF,01/03/2023 11:09,01/03/2023 11:09,Pay Bill from 0748956967 - Selvin Mukami Wanjiru Acc. E4,Completed,8500,,17500,TRUE,Pay Utility,0748956967 - Selvin Mukami Wanjiru,,E4
RBS6OP35C2,28/02/2023 17:38,28/02/2023 17:38,Pay Bill Online from 254706298810 - Morgan Mudengani Kisarago Acc. f1,Completed,9000,,9000,TRUE,Pay Bill Online,254706298810 - Morgan Mudengani Kisarago,,f1
RBR5KPJ2XV,27/02/2023 08:26,27/02/2023 08:26,Utility Account to Organization Settlement Account,Completed,,-34000,0,TRUE,Utility Account to Organization Settlement Account,887075 - ANCIENT WELLS LTD 3,,
RBQ2JKG3KY,26/02/2023 17:50,26/02/2023 17:50,Pay Bill from 0719349205 - Christabel Gakii Munene Acc. D1,Completed,8000,,34000,TRUE,Pay Utility,0719349205 - Christabel Gakii Munene,,D1
RBP0GTMLY8,25/02/2023 16:49,25/02/2023 16:49,Pay Bill from 254704541323 - CAROLYNE JEPCHUMBA Acc. F3,Completed,8000,,26000,TRUE,Pay Utility,254704541323 - CAROLYNE JEPCHUMBA,,F3
RBP2FLTCTG,25/02/2023 09:00,25/02/2023 09:00,Pay Bill from 0748719970 - judith ndunge mwende Acc. E5,Completed,10000,,18000,TRUE,Pay Utility,0748719970 - judith ndunge mwende,,E5
RBO3F7IQ75,24/02/2023 22:56,24/02/2023 22:56,Pay Bill from 0721436195 - KIPKOECH   CHARLES Acc. E2,Completed,8000,,8000,TRUE,Pay Utility,0721436195 - KIPKOECH   CHARLES,,E2
RBO5D5N6L7,24/02/2023 10:38,24/02/2023 10:38,Utility Account to Organization Settlement Account,Completed,,-60000,0,TRUE,Utility Account to Organization Settlement Account,887075 - ANCIENT WELLS LTD 3,,
RBL16HG8QN,21/02/2023 17:42,21/02/2023 17:42,Utility Account to Organization Settlement Account,Completed,,-10000,60000,TRUE,Utility Account to Organization Settlement Account,887075 - ANCIENT WELLS LTD 3,,
RBI8WLZRQC,18/02/2023 08:49,18/02/2023 08:49,Pay Bill from 254711428856 - JAPHETH OTSIENO BARASA Acc. Japheth Barasa A5,Completed,11000,,70000,TRUE,Pay Utility,254711428856 - JAPHETH OTSIENO BARASA,,Japheth
RBD5LHHKG9,13/02/2023 20:49,13/02/2023 20:49,Pay Bill Online from 254711877988 - PATRICK KONZI Acc. b4,Completed,1500,,59000,TRUE,Pay Utility with OD Online,254711877988 - PATRICK KONZI,,b4
RBB3GL9AT3,11/02/2023 21:32,11/02/2023 21:32,Pay Bill from 254724018163 - IRENE MUENI WILLY Acc. A4,Completed,12000,,57500,TRUE,Pay Utility,254724018163 - IRENE MUENI WILLY,,A4
RBB2GHRX22,11/02/2023 20:57,11/02/2023 20:57,Pay Bill Online from 254720086214 - SAMUEL WANJIKU Acc. B3,Completed,5000,,45500,TRUE,Pay Bill Online,254720086214 - SAMUEL WANJIKU,,B3
RBA8E0ADOC,10/02/2023 22:18,10/02/2023 22:18,Pay Bill from 254714597495 - WAMBUA KIOKO Acc. c1,Completed,8000,,40500,TRUE,Pay Utility with OD via STK,254714597495 - WAMBUA KIOKO,,c1
RBA2DSC34W,10/02/2023 20:50,10/02/2023 20:50,Pay Bill Online from 0740283700 - SERAH MUKULU MULILIA Acc. c4serahmukulu,Completed,8500,,32500,TRUE,Pay Bill Online,0740283700 - SERAH MUKULU MULILIA,,c4serahmukulu
RBA7DF1EUT,10/02/2023 19:16,10/02/2023 19:16,Pay Bill Online from 254711877988 - PATRICK KONZI Acc. b4,Completed,7000,,24000,TRUE,Pay Utility with OD Online,254711877988 - PATRICK KONZI,,b4
RBA3CG4ERP,10/02/2023 13:33,10/02/2023 13:33,Pay Bill from 254720439955 - GEOPHRY OKOTH Acc. D6,Completed,8500,,17000,TRUE,Pay Utility with OD via STK,254720439955 - GEOPHRY OKOTH,,D6
RB97A1G4DN,09/02/2023 15:06,09/02/2023 15:06,Pay Bill from 0791565463 - Lilian Njeri Wakagwi Acc. F6,Completed,8500,,8500,TRUE,Pay Utility,0791565463 - Lilian Njeri Wakagwi,,F6
RB806R9OQI,08/02/2023 10:53,08/02/2023 10:53,Utility Account to Organization Settlement Account,Completed,,-194250,0,TRUE,Utility Account to Organization Settlement Account,887075 - ANCIENT WELLS LTD 3,,
RB826N6P1Q,08/02/2023 10:07,08/02/2023 10:07,Pay Bill Online from 0799912339 - PETER KAMAU MURIU Acc. c5,Completed,1500,,194250,TRUE,Pay Bill Online,0799912339 - PETER KAMAU MURIU,,c5
RB846N683I,08/02/2023 10:07,08/02/2023 10:07,Pay Bill from 254715764093 - GICHANA GOVAN Acc. E3,Completed,8000,,192750,TRUE,Pay Utility,254715764093 - GICHANA GOVAN,,E3
RB775GLOF1,07/02/2023 19:08,07/02/2023 19:08,Pay Bill from 254708989835 - SUSAN NDUTA Acc. B2,Completed,8000,,184750,TRUE,Pay Utility,254708989835 - SUSAN NDUTA,,B2
RB7640A700,07/02/2023 10:22,07/02/2023 10:22,Pay Bill from 0720571944 - Ronoh   Benard Acc. D2,Completed,8000,,176750,TRUE,Pay Utility,0720571944 - Ronoh   Benard,,D2
RB673EO43J,06/02/2023 22:55,06/02/2023 22:55,Pay Bill from 254710248036 - Allan Kimeu Mutua Acc. F5,Completed,8500,,168750,TRUE,Pay Utility,254710248036 - Allan Kimeu Mutua,,F5
RB6136SAA9,06/02/2023 21:02,06/02/2023 21:02,Pay Bill from 0704120519 - Mildred   Adhiambo Acc. G1,Completed,8000,,160250,TRUE,Pay Utility,0704120519 - Mildred   Adhiambo,,G1
RB6230LHC4,06/02/2023 20:10,06/02/2023 20:10,Pay Bill Online from 254720201157 - BENSON INYANJE MWAKHA Acc. b6,Completed,8500,,152250,TRUE,Pay Bill Online,254720201157 - BENSON INYANJE MWAKHA,,b6
RB642MUF50,06/02/2023 18:33,06/02/2023 18:33,Pay Bill from 0114093036 - Cecillia Njeri Githui Acc. c3,Completed,8000,,143750,TRUE,Pay Utility,0114093036 - Cecillia Njeri Githui,,c3
RB602M2D1A,06/02/2023 18:26,06/02/2023 18:26,Pay Bill from 254722706516 - KORIR ANTHONY Acc. Anthony D3,Completed,8000,,135750,TRUE,Pay Utility,254722706516 - KORIR ANTHONY,,Anthony
RB6415YPX6,06/02/2023 09:12,06/02/2023 09:12,Pay Bill Online from 254715020357 - ELIZABETH NJERI WARARI Acc. C2,Completed,9000,,127750,TRUE,Pay Bill Online,254715020357 - ELIZABETH NJERI WARARI,,C2
RB50Z08ACU,05/02/2023 18:39,05/02/2023 18:39,Pay Bill from 254714419834 - FAITH MWIKALI MUTHAMA Acc. d4,Completed,8500,,118750,TRUE,Pay Utility,254714419834 - FAITH MWIKALI MUTHAMA,,d4
RB59XGWI23,05/02/2023 07:43,05/02/2023 07:43,Pay Bill from 0748956967 - Selvin Mukami Wanjiru Acc. E4,Completed,11250,,110250,TRUE,Pay Utility,0748956967 - Selvin Mukami Wanjiru,,E4
RB55XCQIOH,05/02/2023 02:38,05/02/2023 02:38,Pay Bill Online from 0799912339 - PETER KAMAU MURIU Acc. c5,Completed,2000,,99000,TRUE,Pay Utility with OD Online,0799912339 - PETER KAMAU MURIU,,c5
RB46WBGFNE,04/02/2023 18:00,04/02/2023 18:00,Pay Bill Online from 0799912339 - PETER KAMAU MURIU Acc. c5,Completed,15500,,97000,TRUE,Pay Bill Online,0799912339 - PETER KAMAU MURIU,,c5
RB36TMXQGA,03/02/2023 18:30,03/02/2023 18:30,Pay Bill from 254727585857 - PETER MUOKI NGUNDO Acc. peter Ngundo e6 ,Completed,8500,,81500,TRUE,Pay Utility,254727585857 - PETER MUOKI NGUNDO,,peter
RB37TMB77L,03/02/2023 18:25,03/02/2023 18:25,Pay Bill from 254721539716 - OCTAVIAN MWANYALO Acc. C6,Completed,8000,,73000,TRUE,Pay Utility,254721539716 - OCTAVIAN MWANYALO,,C6
RB20POXIVO,02/02/2023 10:28,02/02/2023 10:28,Pay Bill from 254791341895 - Enos Nyaosi Ayuma Acc. D5,Completed,8500,,65000,TRUE,Pay Utility,254791341895 - Enos Nyaosi Ayuma,,D5
RB12NN0FA6,01/02/2023 14:20,01/02/2023 14:20,Pay Bill from 0715030019 - Omwenga Ong'era Stephen Acc. E1,Completed,8000,,56500,TRUE,Pay Utility,0715030019 - Omwenga Ong'era Stephen,,E1
RB19NIOM93,01/02/2023 13:34,01/02/2023 13:34,Pay Bill Online from 0740283700 - SERAH MUKULU MULILIA Acc. c4serahmukulu,Completed,8500,,48500,TRUE,Pay Bill Online,0740283700 - SERAH MUKULU MULILIA,,c4serahmukulu
RB18N3D536,01/02/2023 10:43,01/02/2023 10:43,Pay Bill from 254726945691 - JAMES RAMTU Acc. B5,Completed,8500,,40000,TRUE,Pay Utility,254726945691 - JAMES RAMTU,,B5
RB18N2LLH4,01/02/2023 10:34,01/02/2023 10:34,Pay Bill from 0111653037 - STEPHEN MUKABANA MAYABI Acc. A1,Completed,7500,,31500,TRUE,Pay Utility,0111653037 - STEPHEN MUKABANA MAYABI,,A1
