Receipt No.,Completion Time,Initiation Time,Details,Transaction Status,Paid In,Withdrawn,Balance,Balance Confirmed,Reason Type,Other Party Info,Linked Transaction ID,A/C No.
QHH0CMANDA,17/08/2022 15:34,17/08/2022 15:34,Utility Account to Organization Settlement Account,Completed,,-215000,95900,TRUE,Utility Account to Organization Settlement Account,887264 - ANCIENT WELLS LTD 2,,
QHG3ALJ4SV,16/08/2022 13:42,16/08/2022 13:42,Pay Bill from 254721902407 - GEORGE OTIENO NDHAWA Acc. A202,Completed,115000,,310900,TRUE,Pay Utility,254721902407 - GEORGE OTIENO NDHAWA,,A202
QHG6A450KM,16/08/2022 08:58,16/08/2022 08:58,Pay Bill from 254725014210 - FREDRICK MOUNDE Acc. epz mh,Completed,16000,,195900,TRUE,Pay Utility,254725014210 - FREDRICK MOUNDE,,epz
QHE47TQ68I,14/08/2022 19:09,14/08/2022 19:09,Pay Bill from 254720011245 - GRACE WACHERA MWANGI Acc. House no 17 joseph,Completed,16000,,179900,TRUE,Pay Utility,254720011245 - GRACE WACHERA MWANGI,,House
QHE17EG0CH,14/08/2022 15:54,14/08/2022 15:54,Pay Bill from 254720213934 - TERRY KAWIRA SALESIO Acc. 20,Completed,6000,,163900,TRUE,Pay Utility,254720213934 - TERRY KAWIRA SALESIO,,20
QHE36N8WO5,14/08/2022 07:38,14/08/2022 07:38,Utility Account to Organization Settlement Account,Completed,,-60000,157900,TRUE,Utility Account to Organization Settlement Account,887264 - ANCIENT WELLS LTD 2,,
QHD95NL4DD,13/08/2022 16:11,13/08/2022 16:11,Pay Bill from 254728912446 - GRACE NJERI KIMANI Acc. ancient wells ,Completed,40000,,217900,TRUE,Pay Utility,254728912446 - GRACE NJERI KIMANI,,ancient
QHD75KZ8NV,13/08/2022 15:36,13/08/2022 15:36,Utility Account to Organization Settlement Account,Completed,,-100000,177900,TRUE,Utility Account to Organization Settlement Account,887264 - ANCIENT WELLS LTD 2,,
QHD85H52EA,13/08/2022 14:43,13/08/2022 14:43,Pay Bill from 254725014210 - FREDRICK MOUNDE Acc. epz mh,Completed,15000,,277900,TRUE,Pay Utility,254725014210 - FREDRICK MOUNDE,,epz
QHD65DTS5Q,13/08/2022 13:57,13/08/2022 13:57,Pay Bill from 254721623212 - MOSES KARANJA WAMBURA Acc. Z16,Completed,16000,,262900,TRUE,Pay Utility,254721623212 - MOSES KARANJA WAMBURA,,Z16
QHD84SXJLS,13/08/2022 08:17,13/08/2022 08:17,Utility Account to Organization Settlement Account,Completed,,-300000,246900,TRUE,Utility Account to Organization Settlement Account,887264 - ANCIENT WELLS LTD 2,,
QHC638VJPU,12/08/2022 11:15,12/08/2022 11:15,Pay Bill from 254722269369 - FAIZ OMAR BASABRA Acc. Nairobi West 12,Completed,85000,,546900,TRUE,Pay Utility,254722269369 - FAIZ OMAR BASABRA,,Nairobi
QHB02ENG4Q,11/08/2022 19:06,11/08/2022 19:06,Pay Bill from 254724825611 - PAULINE INDIEKA Acc. D 13,Completed,6000,,461900,TRUE,Pay Utility,254724825611 - PAULINE INDIEKA,,D
QHB1245IKH,11/08/2022 17:01,11/08/2022 17:01,Pay Bill Online from 254724362830 - Evan Mwangi Mutungu Acc. House no. 19,Completed,15000,,455900,TRUE,Pay Bill Online,254724362830 - Evan Mwangi Mutungu,,House
QHB41QHOQU,11/08/2022 13:34,11/08/2022 13:34,Pay Bill Online from 0743263203 - Patrick theuri wachira Acc. U1,Completed,5000,,440900,TRUE,Pay Utility with OD Online,0743263203 - Patrick theuri wachira,,U1
QHA0ZZQRSE,10/08/2022 21:38,10/08/2022 21:38,Pay Bill from 254724312731 - Judith Omadi Acc. hse no.3,Completed,12000,,435900,TRUE,Pay Utility,254724312731 - Judith Omadi,,hse
QHA6ZC30TW,10/08/2022 16:33,10/08/2022 16:33,Pay Bill from 254720867522 - DANIEL WAMBUI Acc. z15,Completed,16000,,423900,TRUE,Pay Utility,254720867522 - DANIEL WAMBUI,,z15
QHA0Z19HVC,10/08/2022 13:38,10/08/2022 13:38,Pay Bill from 254722314500 - SHARON AKINYI OBIERO Acc. 1,Completed,12000,,407900,TRUE,Pay Utility,254722314500 - SHARON AKINYI OBIERO,,1
QHA1Z0GJJH,10/08/2022 13:25,10/08/2022 13:25,Pay Bill from 254721902407 - GEORGE OTIENO NDHAWA Acc. A202,Completed,110000,,395900,TRUE,Pay Utility,254721902407 - GEORGE OTIENO NDHAWA,,A202
QHA9YNEQ8J,10/08/2022 09:44,10/08/2022 09:44,Pay Bill Online from 254723303260 - nely covetti mwenesi Acc. SAVANNAH 102,Completed,6900,,285900,TRUE,Pay Bill Online,254723303260 - nely covetti mwenesi,,SAVANNAH
QHA1YKS7OD,10/08/2022 08:51,10/08/2022 08:51,Pay Bill from 254726928715 - ELIZAPHAN KAMAU NDUTA Acc. Z2,Completed,18000,,279000,TRUE,Pay Utility,254726928715 - ELIZAPHAN KAMAU NDUTA,,Z2
QH94WUS8ZQ,09/08/2022 04:52,09/08/2022 04:52,Pay Bill from 254703573478 - ANTONY MAINA GICHINA Acc. Gichina A5,Completed,10000,,261000,TRUE,Pay Utility,254703573478 - ANTONY MAINA GICHINA,,Gichina
QH87VRX6LT,08/08/2022 15:54,08/08/2022 15:54,Pay Bill Online from 254723853941 - ELIZABETH MUTIO MUTUKU Acc. house number 12,Completed,16000,,251000,TRUE,Pay Bill Online,254723853941 - ELIZABETH MUTIO MUTUKU,,house
QH73TRXPXV,07/08/2022 15:54,07/08/2022 15:54,Pay Bill Online from 254722599866 - ASIYO OCHUODHO Acc. 4,Completed,14000,,235000,TRUE,Pay Bill Online,254722599866 - ASIYO OCHUODHO,,4
QH66SQTZY4,06/08/2022 22:38,06/08/2022 22:38,Pay Bill from 254720213934 - TERRY KAWIRA SALESIO Acc. 20,Completed,10000,,221000,TRUE,Pay Utility,254720213934 - TERRY KAWIRA SALESIO,,20
QH67SPYTB5,06/08/2022 22:19,06/08/2022 22:19,Pay Bill from 254721121502 - ANNE WANGUI KAMAU Acc. Samville Hse no 11,Completed,15000,,211000,TRUE,Pay Utility,254721121502 - ANNE WANGUI KAMAU,,Samville
QH64RHCJA4,06/08/2022 13:42,06/08/2022 13:42,Pay Bill from 0115556359 - CHEPNGENO   EDITH Acc. c701,Completed,20000,,196000,TRUE,Pay Utility,0115556359 - CHEPNGENO   EDITH,,c701
QH69QT13RN,06/08/2022 07:57,06/08/2022 07:57,Pay Bill from 254706859500 - JULIA NJAMBI WAINAINA Acc. u2u4,Completed,11000,,176000,TRUE,Pay Utility,254706859500 - JULIA NJAMBI WAINAINA,,u2u4
QH55QMM9XD,05/08/2022 23:44,05/08/2022 23:44,Pay Bill Online from 254722949879 - KAMANDE JOSEPH Acc. 10,Completed,15000,,165000,TRUE,Pay Bill Online,254722949879 - KAMANDE JOSEPH,,10
QH59PA4P05,05/08/2022 13:54,05/08/2022 13:54,Pay Bill Online from 254723909186 - BRIAN LIBASIA Acc. 18,Completed,16000,,150000,TRUE,Pay Bill Online,254723909186 - BRIAN LIBASIA,,18
QH41MX4ALB,04/08/2022 12:20,04/08/2022 12:20,Pay Bill from 254722627652 - BONIFACE MWAMUTSI CHENGO Acc. D9/10,Completed,11000,,134000,TRUE,Pay Utility,254722627652 - BONIFACE MWAMUTSI CHENGO,,D9/10
QH37LN2UA1,03/08/2022 18:33,03/08/2022 18:33,Pay Bill from 254723882311 - VERONICAH WAMBUGU Acc. house no 9,Completed,16000,,123000,TRUE,Pay Utility,254723882311 - VERONICAH WAMBUGU,,house
QH24IRYP3W,02/08/2022 13:07,02/08/2022 13:07,Pay Bill Online from 0740081267 - JOSEPH ESILABA NDUKA Acc. savannah 102,Completed,30000,,107000,TRUE,Pay Bill Online,0740081267 - JOSEPH ESILABA NDUKA,,savannah
QH14HR83PE,01/08/2022 20:31,01/08/2022 20:31,Pay Bill from 254725903381 - ADELINE LUMBASI Acc. Saika A6,Completed,13000,,77000,TRUE,Pay Utility,254725903381 - ADELINE LUMBASI,,Saika
