Receipt No.,Completion Time,Initiation Time,Details,Transaction Status,Paid In,Withdrawn,Balance,Balance Confirmed,Reason Type,Other Party Info,Linked Transaction ID,A/C No.
QFO19O3IDJ,24/06/2022 08:30,24/06/2022 08:30,Pay Bill from 254718253322 - DUNCAN MOCHOGE Acc. JFJ,Completed,1400,,7000,TRUE,Pay Utility,254718253322 - DUNCAN MOCHOGE,,JFJ
QFN99HCOAH,23/06/2022 23:59,23/06/2022 23:59,Pay Bill Online from 254715764212 - BANCE ISHEMINYE Acc. JFE ,Completed,300,,5600,TRUE,Pay Bill Online,254715764212 - BANCE ISHEMINYE,,JFE
QFN39BKQ5R,23/06/2022 21:07,23/06/2022 21:07,Pay Bill from 254724821898 - ALLAN GISONI NYANGARESI Acc. DBA,Completed,400,,5300,TRUE,Pay Utility,254724821898 - ALLAN GISONI NYANGARESI,,DBA
QFN892INWY,23/06/2022 19:26,23/06/2022 19:26,Pay Bill from 254722521028 - CHARLES MONYONCHO Acc. ICB,Completed,1700,,4900,TRUE,Pay Utility,254722521028 - CHARLES MONYONCHO,,ICB
QFN090CJY6,23/06/2022 19:07,23/06/2022 19:07,Pay Bill from 254702346515 - ELIZABETH ACHIENG NGOME Acc. KDE,Completed,600,,3200,TRUE,Pay Utility,254702346515 - ELIZABETH ACHIENG NGOME,,KDE
QFN98SOXXN,23/06/2022 17:52,23/06/2022 17:52,Pay Bill from 254708570729 - MARY OGOLLA Acc. KAD,Completed,800,,2600,TRUE,Pay Utility,254708570729 - MARY OGOLLA,,KAD
QFN18FHV8H,23/06/2022 14:57,23/06/2022 14:57,Pay Bill from 254713229967 - John Mugabo Simba Acc. E4,Completed,600,,1800,TRUE,Pay Utility with OD via STK,254713229967 - John Mugabo Simba,,E4
QFN6880MQM,23/06/2022 13:08,23/06/2022 13:08,Pay Bill Online from 254705846408 - JAMES OUMA Acc. HBH,Completed,1200,,1200,TRUE,Pay Bill Online,254705846408 - JAMES OUMA,,HBH
QFN37VJILH,23/06/2022 09:54,23/06/2022 09:54,Utility Account to Organization Settlement Account,Completed,,-9100,0,TRUE,Utility Account to Organization Settlement Account,846783 - ANCIENT WELLS LTD 4,,
QFN57V3QJJ,23/06/2022 09:47,23/06/2022 09:47,Pay Bill from 254722458136 - NADI GOLICHA Acc. JEA,Completed,2400,,9100,TRUE,Pay Utility with OD via STK,254722458136 - NADI GOLICHA,,JEA
QFN57SQF1N,23/06/2022 09:07,23/06/2022 09:07,Pay Bill Online from 254718663397 - JIMMY MUNYAO NZIOKI Acc. DCB,Completed,800,,6700,TRUE,Pay Bill Online,254718663397 - JIMMY MUNYAO NZIOKI,,DCB
QFN37M96LX,23/06/2022 06:33,23/06/2022 06:33,Pay Bill Online from 254701006375 - EZRA MAKORI SERETI Acc. HTA,Completed,400,,5900,TRUE,Pay Utility with OD Online,254701006375 - EZRA MAKORI SERETI,,HTA
QFN57M6N5H,23/06/2022 06:29,23/06/2022 06:29,Pay Bill Online from 254701006375 - EZRA MAKORI SERETI Acc. HTA,Completed,400,,5500,TRUE,Pay Utility with OD Online,254701006375 - EZRA MAKORI SERETI,,HTA
QFN87LWDK0,23/06/2022 06:12,23/06/2022 06:12,Pay Bill from 254716702294 - DANIEL MULATI Acc. KBB,Completed,2000,,5100,TRUE,Pay Utility,254716702294 - DANIEL MULATI,,KBB
QFM87JVENY,22/06/2022 23:38,22/06/2022 23:38,Pay Bill from 254720230582 - SHADRACK KITAKA NGILA Acc. hse,Completed,200,,3100,TRUE,Pay Utility,254720230582 - SHADRACK KITAKA NGILA,,hse
QFM87J0Q5Q,22/06/2022 22:52,22/06/2022 22:52,Pay Bill from 0758457508 - PETER KINGORI KAGUNDA Acc. V06,Completed,200,,2900,TRUE,Pay Utility,0758457508 - PETER KINGORI KAGUNDA,,V06
QFM97AS8F1,22/06/2022 20:25,22/06/2022 20:25,Pay Bill from 254725062550 - FRANKLINE MASSAM Acc. KAF,Completed,800,,2700,TRUE,Pay Utility,254725062550 - FRANKLINE MASSAM,,KAF
QFM678D8U0,22/06/2022 19:59,22/06/2022 19:59,Pay Bill from 0722531422 - ANTHONY ITIMU MAINA Acc. JBD,Completed,1400,,1900,TRUE,Pay Utility,0722531422 - ANTHONY ITIMU MAINA,,JBD
QFM276PCC0,22/06/2022 19:43,22/06/2022 19:43,Pay Bill from 254722648389 - SUDI MOSES Acc. V31,Completed,100,,500,TRUE,Pay Utility,254722648389 - SUDI MOSES,,V31
QFM674U1YK,22/06/2022 19:27,22/06/2022 19:27,Pay Bill Online from 254728093389 - MOHAMED MUSA ALASOW Acc. KED ,Completed,400,,400,TRUE,Pay Bill Online,254728093389 - MOHAMED MUSA ALASOW,,KED
QFM770MO3L,22/06/2022 18:50,22/06/2022 18:50,Utility Account to Organization Settlement Account,Completed,,-6300,0,TRUE,Utility Account to Organization Settlement Account,846783 - ANCIENT WELLS LTD 4,,
QFM56Z3IR1,22/06/2022 18:36,22/06/2022 18:36,Pay Bill from 0724134105 - HILDA JEPKEMOI KIMELIEL Acc. JBH,Completed,1000,,6300,TRUE,Pay Utility,0724134105 - HILDA JEPKEMOI KIMELIEL,,JBH
QFM96VFO85,22/06/2022 17:58,22/06/2022 17:58,Pay Bill from 254725111246 - FRANCIS MUUTU MWANGANGI Acc. IGI,Completed,600,,5300,TRUE,Pay Utility,254725111246 - FRANCIS MUUTU MWANGANGI,,IGI
QFM46MNUHG,22/06/2022 16:10,22/06/2022 16:10,Pay Bill from 254704111133 - ELVIS OTIENO Acc. HFD,Completed,700,,4700,TRUE,Pay Utility,254704111133 - ELVIS OTIENO,,HFD
QFM46LZOQ2,22/06/2022 16:01,22/06/2022 16:01,Pay Bill Online from 254725381062 - VICTOR MAITHYA Acc. HEG,Completed,800,,4000,TRUE,Pay Utility with OD Online,254725381062 - VICTOR MAITHYA,,HEG
QFM66JIRKG,22/06/2022 15:25,22/06/2022 15:25,Pay Bill from 254729160700 - MICAH NDUNGI Acc. HFE,Completed,200,,3200,TRUE,Pay Utility,254729160700 - MICAH NDUNGI,,HFE
QFM46HCXM4,22/06/2022 14:53,22/06/2022 14:53,Pay Bill Online from 254708300413 - ROBINSON AYAKO Acc. KEH,Completed,400,,3000,TRUE,Pay Bill Online,254708300413 - ROBINSON AYAKO,,KEH
QFM36H225L,22/06/2022 14:48,22/06/2022 14:48,Pay Bill Online from 254726001437 - FESTUS MUNYIRI MAINA Acc. IFF,Completed,200,,2600,TRUE,Pay Bill Online,254726001437 - FESTUS MUNYIRI MAINA,,IFF
QFM86FJWOW,22/06/2022 14:26,22/06/2022 14:26,Pay Bill Online from 254701683737 - MICHAEL NGUGI Acc. HDB,Completed,200,,2400,TRUE,Pay Bill Online,254701683737 - MICHAEL NGUGI,,HDB
QFM86ELA3O,22/06/2022 14:12,22/06/2022 14:12,Pay Bill from 254728888511 - HAMISI MIRITI Acc. kak,Completed,400,,2200,TRUE,Pay Utility,254728888511 - HAMISI MIRITI,,kak
QFM36D9WGH,22/06/2022 13:53,22/06/2022 13:53,Pay Bill from 254726599835 - LAWRENCE MURIITHI Acc. KDJ,Completed,1600,,1800,TRUE,Pay Utility,254726599835 - LAWRENCE MURIITHI,,KDJ
QFM56CNKTZ,22/06/2022 13:44,22/06/2022 13:44,Pay Bill Online from 254710732381 - JANE ACHIENG MBEKE Acc. HAF,Completed,200,,200,TRUE,Pay Bill Online,254710732381 - JANE ACHIENG MBEKE,,HAF
QFM660OFDS,22/06/2022 10:45,22/06/2022 10:45,Utility Account to Organization Settlement Account,Completed,,-3900,0,TRUE,Utility Account to Organization Settlement Account,846783 - ANCIENT WELLS LTD 4,,
QFM85UC92U,22/06/2022 09:02,22/06/2022 09:02,Pay Bill from 0711769778 - PROTASIA BONIPHACE MANOSA Acc. IBB,Completed,600,,3900,TRUE,Pay Utility,0711769778 - PROTASIA BONIPHACE MANOSA,,IBB
QFL849CNKK,21/06/2022 12:29,21/06/2022 12:29,Pay Bill from 254729541871 - ROBERT KULEI Acc. JAB,Completed,1800,,3300,TRUE,Pay Utility,254729541871 - ROBERT KULEI,,JAB
QFL747ESM7,21/06/2022 11:59,21/06/2022 11:59,Pay Bill Online from 254711721087 - MUTHIANI KYULE Acc. IDB ,Completed,1500,,1500,TRUE,Pay Bill Online,254711721087 - MUTHIANI KYULE,,IDB
QFL93VT2OP,21/06/2022 08:55,21/06/2022 08:55,Utility Account to Organization Settlement Account,Completed,,-3400,0,TRUE,Utility Account to Organization Settlement Account,846783 - ANCIENT WELLS LTD 4,,
QFL73TG4NR,21/06/2022 08:12,21/06/2022 08:12,Pay Bill Online from 254724211857 - OCHUODHO OUMA Acc. KBK,Completed,2000,,3400,TRUE,Pay Bill Online,254724211857 - OCHUODHO OUMA,,KBK
QFK42JUTAE,20/06/2022 14:43,20/06/2022 14:43,Pay Bill Online from 254720451253 - JIMMY KIOGORA NKIROTE Acc. kbd,Completed,600,,1400,TRUE,Pay Utility with OD Online,254720451253 - JIMMY KIOGORA NKIROTE,,kbd
QFK22BO8P2,20/06/2022 12:48,20/06/2022 12:48,Pay Bill Online from 254722514052 - JOSEPH NDIRANGU Acc. JCF,Completed,300,,800,TRUE,Pay Bill Online,254722514052 - JOSEPH NDIRANGU,,JCF
QFK91OYRFD,20/06/2022 01:34,20/06/2022 01:34,Pay Bill Online from 254718009051 - STEPHEN OMOLLO Acc. JDF,Completed,500,,500,TRUE,Pay Bill Online,254718009051 - STEPHEN OMOLLO,,JDF
QFJ0Z7JN5G,19/06/2022 09:53,19/06/2022 09:53,Utility Account to Organization Settlement Account,Completed,,-3100,0,TRUE,Utility Account to Organization Settlement Account,846783 - ANCIENT WELLS LTD 4,,
QFJ3Z3PVVD,19/06/2022 08:39,19/06/2022 08:39,Pay Bill from 254707715639 - Annastacia Kimeu Acc. JFC,Completed,600,,3100,TRUE,Pay Utility,254707715639 - Annastacia Kimeu,,JFC
QFI9YKX7FP,18/06/2022 20:01,18/06/2022 20:01,Pay Bill Online from 254745661722 - MUHAMEDMALIK GAAL Acc. DEC,Completed,800,,2500,TRUE,Pay Bill Online,254745661722 - MUHAMEDMALIK GAAL,,DEC
QFI2YCGBZ4,18/06/2022 18:46,18/06/2022 18:46,Pay Bill from 254727515326 - HARRISON WACIRA MAINA Acc. HAH,Completed,1700,,1700,TRUE,Pay Utility,254727515326 - HARRISON WACIRA MAINA,,HAH
QFI5XKRWMB,18/06/2022 12:53,18/06/2022 12:53,Utility Account to Organization Settlement Account,Completed,,-3000,0,TRUE,Utility Account to Organization Settlement Account,846783 - ANCIENT WELLS LTD 4,,
QFI2X75IZY,18/06/2022 09:26,18/06/2022 09:26,Pay Bill from 254705902606 - JOSEPH OTIENO SAGWA Acc. fed,Completed,2000,,3000,TRUE,Pay Utility,254705902606 - JOSEPH OTIENO SAGWA,,fed
QFH1W0PW3J,17/06/2022 16:44,17/06/2022 16:44,Pay Bill from 254720466443 - FATUMA MOHAMED ABDALLAH Acc. v21,Completed,400,,1000,TRUE,Pay Utility,254720466443 - FATUMA MOHAMED ABDALLAH,,v21
QFH0VVWKXI,17/06/2022 15:40,17/06/2022 15:40,Pay Bill from 254708875278 - ROSEMARY WANJIRU KONYE Acc. HBF,Completed,600,,600,TRUE,Pay Utility,254708875278 - ROSEMARY WANJIRU KONYE,,HBF
QFH4VS51MW,17/06/2022 14:46,17/06/2022 14:46,Utility Account to Organization Settlement Account,Completed,,-3850,0,TRUE,Utility Account to Organization Settlement Account,846783 - ANCIENT WELLS LTD 4,,
QFH1VKS5J3,17/06/2022 13:01,17/06/2022 13:01,Pay Bill from 254721539716 - OCTAVIAN MWANYALO Acc. C6,Completed,400,,3850,TRUE,Pay Utility,254721539716 - OCTAVIAN MWANYALO,,C6
QFH0VCO60C,17/06/2022 11:00,17/06/2022 11:00,Pay Bill Online from 254720062144 - CAROLINE AMONDI OKELO Acc. A4,Completed,600,,3450,TRUE,Pay Utility with OD Online,254720062144 - CAROLINE AMONDI OKELO,,A4
QFH1VBP5D1,17/06/2022 10:45,17/06/2022 10:45,Pay Bill Online from 254724005780 - IVY MARGARET OGOLA Acc. FFB,Completed,1000,,2850,TRUE,Pay Bill Online,254724005780 - IVY MARGARET OGOLA,,FFB
QFG2UT6TZI,16/06/2022 21:59,16/06/2022 21:59,Pay Bill from 254722136450 - MARY EVERLYN Acc. JAI,Completed,200,,1850,TRUE,Pay Utility with OD via STK,254722136450 - MARY EVERLYN,,JAI
QFG3TPSIP3,16/06/2022 14:08,16/06/2022 14:08,Pay Bill from 0791391378 - Sophie Mueni Muvithu Acc. Sophie mueni hse no 6,Completed,450,,1650,TRUE,Pay Utility,0791391378 - Sophie Mueni Muvithu,,Sophie
QFF3SIN6QR,15/06/2022 19:47,15/06/2022 19:47,Pay Bill Online from 254713295711 - JAMES CHEGE KAMAU Acc. A2,Completed,1000,,1200,TRUE,Pay Bill Online,254713295711 - JAMES CHEGE KAMAU,,A2
QFF3RUX9QD,15/06/2022 15:33,15/06/2022 15:33,Pay Bill from 254704375822 - EDEL NJOKI KIMANI Acc. F3,Completed,200,,200,TRUE,Pay Utility,254704375822 - EDEL NJOKI KIMANI,,F3
QFF3RS92L1,15/06/2022 14:55,15/06/2022 14:55,Utility Account to Organization Settlement Account,Completed,,-11100,0,TRUE,Utility Account to Organization Settlement Account,846783 - ANCIENT WELLS LTD 4,,
QFF4RRMSLY,15/06/2022 14:46,15/06/2022 14:46,Pay Bill from 254719779657 - SAMUEL NJOROGE Acc. JGA,Completed,4200,,11100,TRUE,Pay Utility,254719779657 - SAMUEL NJOROGE,,JGA
QFF2RFQM8Y,15/06/2022 11:55,15/06/2022 11:55,Pay Bill from 254722706516 - KORIR ANTHONY Acc. Anthony D 3,Completed,400,,6900,TRUE,Pay Utility,254722706516 - KORIR ANTHONY,,Anthony
QFE2PCSC9G,14/06/2022 11:14,14/06/2022 11:14,Pay Bill Online from 254718911865 - KENNEDY KELI KATUNGII Acc. HDF,Completed,1000,,6500,TRUE,Pay Bill Online,254718911865 - KENNEDY KELI KATUNGII,,HDF
QFD8OKRJ3U,13/06/2022 20:07,13/06/2022 20:07,Pay Bill from 254726945691 - JAMES RAMTU Acc. B5,Completed,1400,,5500,TRUE,Pay Utility,254726945691 - JAMES RAMTU,,B5
QFD9OFMEBN,13/06/2022 19:19,13/06/2022 19:19,Pay Bill from 254722746480 - PATRICK OPEYWA AURA Acc. KGH,Completed,1000,,4100,TRUE,Pay Utility,254722746480 - PATRICK OPEYWA AURA,,KGH
QFD4O9HW2U,13/06/2022 18:23,13/06/2022 18:23,Pay Bill from 254758140048 - ABDULKADIR ABASS DAHIR Acc. KAB,Completed,1100,,3100,TRUE,Pay Utility,254758140048 - ABDULKADIR ABASS DAHIR,,KAB
QFD2O3F5CI,13/06/2022 17:17,13/06/2022 17:17,Pay Bill from 254706248362 - BERYL HUMA Acc. E5,Completed,800,,2000,TRUE,Pay Utility,254706248362 - BERYL HUMA,,E5
QFD0NSUUD6,13/06/2022 14:51,13/06/2022 14:51,Pay Bill Online from 254714597495 - WAMBUA KIOKO Acc. C1,Completed,1000,,1200,TRUE,Pay Bill Online,254714597495 - WAMBUA KIOKO,,C1
QFD8NK2HGU,13/06/2022 12:46,13/06/2022 12:46,Pay Bill Online from 254720439955 - GEOPHRY OKOTH Acc. D6,Completed,200,,200,TRUE,Pay Bill Online,254720439955 - GEOPHRY OKOTH,,D6
QFD9NJGLFF,13/06/2022 12:37,13/06/2022 12:37,Utility Account to Organization Settlement Account,Completed,,-300,0,TRUE,Utility Account to Organization Settlement Account,846783 - ANCIENT WELLS LTD 4,,
QFD4NANQ0C,13/06/2022 10:25,13/06/2022 10:25,Pay Bill Online from 254702118125 - ROTICH BETHWEL Acc. V20,Completed,300,,300,TRUE,Pay Bill Online,254702118125 - ROTICH BETHWEL,,V20
QFC5MKN9IN,12/06/2022 19:49,12/06/2022 19:49,Utility Account to Organization Settlement Account,Completed,,-2800,0,TRUE,Utility Account to Organization Settlement Account,846783 - ANCIENT WELLS LTD 4,,
QFC9LX1WRF,12/06/2022 14:57,12/06/2022 14:57,Pay Bill from 254703528196 - ERIC GITONGA MUGO Acc. KGJ,Completed,2000,,2800,TRUE,Pay Utility,254703528196 - ERIC GITONGA MUGO,,KGJ
QFC2LM7CQY,12/06/2022 12:02,12/06/2022 12:02,Pay Bill from 254700290755 - MERCY GOGA Acc. FDD,Completed,400,,800,TRUE,Pay Utility,254700290755 - MERCY GOGA,,FDD
QFC2L9U58Y,12/06/2022 08:10,12/06/2022 08:10,Pay Bill from 0719349205 - Christabel Gakii Munene Acc. D1,Completed,400,,400,TRUE,Pay Utility,0719349205 - Christabel Gakii Munene,,D1
QFB4K4R7KQ,11/06/2022 15:59,11/06/2022 15:59,Utility Account to Organization Settlement Account,Completed,,-57300,0,TRUE,Utility Account to Organization Settlement Account,846783 - ANCIENT WELLS LTD 4,,
QFB5JVIEFD,11/06/2022 13:53,11/06/2022 13:53,Pay Bill from 254720496449 - STANLEY KIPKOECH RONO Acc. FBE,Completed,400,,57300,TRUE,Pay Utility,254720496449 - STANLEY KIPKOECH RONO,,FBE
QFA0J2KDVU,10/06/2022 23:33,10/06/2022 23:33,Pay Bill Online from 254701196539 - GICHURI KARANJA Acc. fee,Completed,800,,56900,TRUE,Pay Bill Online,254701196539 - GICHURI KARANJA,,fee
QFA5IT7A0V,10/06/2022 20:33,10/06/2022 20:33,Pay Bill from 254708499439 - ROSE NDEDE Acc. HGF,Completed,600,,56100,TRUE,Pay Utility,254708499439 - ROSE NDEDE,,HGF
QFA8IKIN6I,10/06/2022 19:13,10/06/2022 19:13,Pay Bill Online from 254710732381 - JANE ACHIENG MBEKE Acc. HAF,Completed,200,,55500,TRUE,Pay Bill Online,254710732381 - JANE ACHIENG MBEKE,,HAF
QFA8ID3K0Y,10/06/2022 18:05,10/06/2022 18:05,Pay Bill Online from 254725218904 - SALOME MUTHONI MWANGI Acc. KFJ,Completed,600,,55300,TRUE,Pay Bill Online,254725218904 - SALOME MUTHONI MWANGI,,KFJ
QFA8I01D1U,10/06/2022 15:29,10/06/2022 15:29,Pay Bill from 0757758972 - BETH MUTHONI KASYOKA Acc. DEA,Completed,1400,,54700,TRUE,Pay Utility,0757758972 - BETH MUTHONI KASYOKA,,DEA
QFA9HIW467,10/06/2022 11:27,10/06/2022 11:27,Pay Bill from 254706898046 - STACY AKETCH OCHUKA Acc. KGK,Completed,600,,53300,TRUE,Pay Utility,254706898046 - STACY AKETCH OCHUKA,,KGK
QF94GAW6NW,09/06/2022 18:00,09/06/2022 18:00,Pay Bill from 254725549603 - ELIZABETH OKELLO Acc. IDC,Completed,400,,52700,TRUE,Pay Utility with OD via STK,254725549603 - ELIZABETH OKELLO,,IDC
QF93G6KPHJ,09/06/2022 17:11,09/06/2022 17:11,Pay Bill from 0727542914 - Pascal Ouma Opar Acc. pascalv45,Completed,800,,52300,TRUE,Pay Utility,0727542914 - Pascal Ouma Opar,,pascalv45
QF97G1LNFB,09/06/2022 16:08,09/06/2022 16:08,Pay Bill from 254792601532 - ABDULLAHI ISACK BANTE Acc. Kbf,Completed,1500,,51500,TRUE,Pay Utility,254792601532 - ABDULLAHI ISACK BANTE,,Kbf
QF98FFOH5M,09/06/2022 10:51,09/06/2022 10:51,Pay Bill from 0791379873 - Joseph Kyalo Sila Acc. JFB,Completed,200,,50000,TRUE,Pay Utility,0791379873 - Joseph Kyalo Sila,,JFB
QF80ETM73U,08/06/2022 21:04,08/06/2022 21:04,Pay Bill from 0717441870 - Steven oduor ogutu Acc. KTA,Completed,600,,49800,TRUE,Pay Utility with OD via STK,0717441870 - Steven oduor ogutu,,KTA
QF80EK5V1Y,08/06/2022 19:23,08/06/2022 19:23,Pay Bill from 254729450678 - GRACE NDUNGE Acc. fba,Completed,400,,49200,TRUE,Pay Utility,254729450678 - GRACE NDUNGE,,fba
QF89E564QJ,08/06/2022 16:52,08/06/2022 16:52,Pay Bill from 254713281251 - ERIC KIAMA Acc. JDI,Completed,1200,,48800,TRUE,Pay Utility,254713281251 - ERIC KIAMA,,JDI
QF83DSXS2J,08/06/2022 14:03,08/06/2022 14:03,Pay Bill Online from 254714552193 - CHRISTOPHER OCHIENG Acc. JGI,Completed,1400,,47600,TRUE,Pay Bill Online,254714552193 - CHRISTOPHER OCHIENG,,JGI
QF89DR62E7,08/06/2022 13:39,08/06/2022 13:39,Pay Bill from 0704120519 - Mildred   Adhiambo Acc. G1,Completed,200,,46200,TRUE,Pay Utility,0704120519 - Mildred   Adhiambo,,G1
QF88DDH3ZC,08/06/2022 10:19,08/06/2022 10:19,Pay Bill from 0795807227 - Lucy Ncekei Kimathi Acc. V36 ,Completed,200,,46000,TRUE,Pay Utility,0795807227 - Lucy Ncekei Kimathi,,V36
QF89D9DJZZ,08/06/2022 09:15,08/06/2022 09:15,Pay Bill Online from 254710382992 - SIMON KAMAU MUIRURI Acc. JCD,Completed,1000,,45800,TRUE,Pay Bill Online,254710382992 - SIMON KAMAU MUIRURI,,JCD
QF82D8C84W,08/06/2022 08:57,08/06/2022 08:57,Pay Bill from 254798524621 - MERCY CHESANG Acc. jcj,Completed,1200,,44800,TRUE,Pay Utility,254798524621 - MERCY CHESANG,,jcj
QF85D5LBMX,08/06/2022 08:08,08/06/2022 08:08,Pay Bill from 254720381965 - JAMES NGUGI MWANIKI Acc. jbi,Completed,2800,,43600,TRUE,Pay Utility,254720381965 - JAMES NGUGI MWANIKI,,jbi
QF87D0L3TB,08/06/2022 01:43,08/06/2022 01:43,Pay Bill Online from 254720451253 - JIMMY KIOGORA NKIROTE Acc. kbd,Completed,700,,40800,TRUE,Pay Utility with OD Online,254720451253 - JIMMY KIOGORA NKIROTE,,kbd
QF71CRKXXL,07/06/2022 20:36,07/06/2022 20:36,Pay Bill from 254726039536 - MERCY MESHACK Acc. FDC,Completed,1000,,40100,TRUE,Pay Utility,254726039536 - MERCY MESHACK,,FDC
QF71C63ATV,07/06/2022 17:02,07/06/2022 17:02,"Pay Bill Online from 254713966424 - NDUTI MUTHUI Acc. Jed
",Completed,400,,39100,TRUE,Pay Bill Online,254713966424 - NDUTI MUTHUI,,"Jed
"
QF77BWF8TH,07/06/2022 14:50,07/06/2022 14:50,Pay Bill Online from 254710814215 - JOAN NYAMBURA KAMAU Acc. ifb,Completed,600,,38700,TRUE,Pay Bill Online,254710814215 - JOAN NYAMBURA KAMAU,,ifb
QF77BHRX8V,07/06/2022 11:21,07/06/2022 11:21,Pay Bill from 254703108159 - JOICE OGOLLA Acc. V50,Completed,400,,38100,TRUE,Pay Utility,254703108159 - JOICE OGOLLA,,V50
QF79B3TF2T,07/06/2022 07:30,07/06/2022 07:30,Pay Bill Online from 254720787158 - AMOS CHELANG'A Acc. KCG,Completed,600,,37700,TRUE,Pay Bill Online,254720787158 - AMOS CHELANG'A,,KCG
QF64AYKEQA,06/06/2022 22:48,06/06/2022 22:48,Pay Bill from 254723488259 - WILSON OKITE OKITE Acc. HCA,Completed,700,,37100,TRUE,Pay Utility with OD via STK,254723488259 - WILSON OKITE OKITE,,HCA
QF62AGFLGE,06/06/2022 18:57,06/06/2022 18:57,Pay Bill from 254729355933 - FELISTAH NJERI WAIRIMU Acc. IDI,Completed,1600,,36400,TRUE,Pay Utility with OD via STK,254729355933 - FELISTAH NJERI WAIRIMU,,IDI
QF62ADSY5W,06/06/2022 18:34,06/06/2022 18:34,Pay Bill Online from 254722769473 - SAMSON CHALO Acc. IAB,Completed,800,,34800,TRUE,Pay Bill Online,254722769473 - SAMSON CHALO,,IAB
QF61AAXJJ5,06/06/2022 18:06,06/06/2022 18:06,Pay Bill Online from 254715892656 - DENNIS MUSYOKA MUOKI Acc. KFA,Completed,400,,34000,TRUE,Pay Bill Online,254715892656 - DENNIS MUSYOKA MUOKI,,KFA
QF629N3H28,06/06/2022 12:58,06/06/2022 12:58,Pay Bill from 254704140048 - MAUREEN GACHERI KINYUA Acc. JDD ,Completed,600,,33600,TRUE,Pay Utility,254704140048 - MAUREEN GACHERI KINYUA,,JDD
QF609HQVVG,06/06/2022 11:42,06/06/2022 11:42,Pay Bill from 254725754547 - MWACHIRO GEORGE DECHE Acc. DFC,Completed,1600,,33000,TRUE,Pay Utility,254725754547 - MWACHIRO GEORGE DECHE,,DFC
QF679GYBOD,06/06/2022 11:30,06/06/2022 11:30,Pay Bill Online from 254718138578 - PAULINE KIOKO Acc. KFD,Completed,200,,31400,TRUE,Pay Bill Online,254718138578 - PAULINE KIOKO,,KFD
QF649BVWI8,06/06/2022 10:16,06/06/2022 10:16,Pay Bill Online from 254720620070 - Michelle Mwihaki Ngaruiya Acc. JEB,Completed,2000,,31200,TRUE,Pay Bill Online,254720620070 - Michelle Mwihaki Ngaruiya,,JEB
QF6596OBHD,06/06/2022 08:55,06/06/2022 08:55,Pay Bill from 0791379873 - Joseph Kyalo Sila Acc. JFB,Completed,200,,29200,TRUE,Pay Utility,0791379873 - Joseph Kyalo Sila,,JFB
QF6294MTLC,06/06/2022 08:20,06/06/2022 08:20,Pay Bill from 254725478531 - KIPKORIR KUTO Acc. DFB,Completed,600,,29000,TRUE,Pay Utility,254725478531 - KIPKORIR KUTO,,DFB
QF668Z1S2W,06/06/2022 03:30,06/06/2022 03:30,Pay Bill from 254700557767 - BAKHITA MWENDE MUANGE Acc. kcb,Completed,1000,,28400,TRUE,Pay Utility,254700557767 - BAKHITA MWENDE MUANGE,,kcb
QF568NCOEA,05/06/2022 20:10,05/06/2022 20:10,Pay Bill from 254721780448 - EVERLYNE MIDEVA CHOGO Acc. JCA,Completed,2000,,27400,TRUE,Pay Utility,254721780448 - EVERLYNE MIDEVA CHOGO,,JCA
QF578D8AX5,05/06/2022 18:31,05/06/2022 18:31,Pay Bill Online from 254718233980 - KAREN ASWANI Acc. HEC,Completed,600,,25400,TRUE,Pay Bill Online,254718233980 - KAREN ASWANI,,HEC
QF50886PAI,05/06/2022 17:31,05/06/2022 17:31,Pay Bill Online from 254721465713 - RHODA WAMBUI MWANGI Acc. JFH,Completed,800,,24800,TRUE,Pay Bill Online,254721465713 - RHODA WAMBUI MWANGI,,JFH
QF5786SDQL,05/06/2022 17:13,05/06/2022 17:13,Pay Bill from 254712283818 - OYUGI OCHIENG Acc. FCB,Completed,1400,,24000,TRUE,Pay Utility,254712283818 - OYUGI OCHIENG,,FCB
QF5084M4SY,05/06/2022 16:44,05/06/2022 16:44,Pay Bill from 254791318982 - ADULLAHI HASSAN Acc. JCI,Completed,2400,,22600,TRUE,Pay Utility,254791318982 - ADULLAHI HASSAN,,JCI
QF587OILVW,05/06/2022 12:47,05/06/2022 12:47,Pay Bill from 254714419834 - FAITH MWIKALI MUTHAMA Acc. d4,Completed,1800,,20200,TRUE,Pay Utility,254714419834 - FAITH MWIKALI MUTHAMA,,d4
QF547LBZRI,05/06/2022 11:53,05/06/2022 11:53,Pay Bill from 0724386624 - FATUMA ISSE YUSSUF Acc. FAB,Completed,800,,18400,TRUE,Pay Utility with OD via STK,0724386624 - FATUMA ISSE YUSSUF,,FAB
QF587IJV08,05/06/2022 11:04,05/06/2022 11:04,Pay Bill Online from 254721974995 - BERNICE MANGOKA Acc. KFK,Completed,800,,17600,TRUE,Pay Bill Online,254721974995 - BERNICE MANGOKA,,KFK
QF557GM9K1,05/06/2022 10:29,05/06/2022 10:29,Pay Bill Online from 254714536026 - LILIAN AWUOR ONYANGO Acc. HDC,Completed,200,,16800,TRUE,Pay Bill Online,254714536026 - LILIAN AWUOR ONYANGO,,HDC
QF527F2LWA,05/06/2022 10:02,05/06/2022 10:02,Pay Bill from 254743243622 - fridah waeni muithya Acc. JEH,Completed,2000,,16600,TRUE,Pay Utility,254743243622 - fridah waeni muithya,,JEH
QF517BPFRV,05/06/2022 09:03,05/06/2022 09:03,Pay Bill from 254719398942 - NORAH WAYUA MUNYAO Acc. KDA,Completed,1000,,14600,TRUE,Pay Utility,254719398942 - NORAH WAYUA MUNYAO,,KDA
QF597A7AJL,05/06/2022 08:34,05/06/2022 08:34,Pay Bill from 0797758628 - jackline nyamari onyango Acc. ICF,Completed,800,,13600,TRUE,Pay Utility,0797758628 - jackline nyamari onyango,,ICF
QF5878X3U2,05/06/2022 08:08,05/06/2022 08:08,Pay Bill from 254723815832 - SEMEKIA ONDIALA Acc. v38,Completed,600,,12800,TRUE,Pay Utility,254723815832 - SEMEKIA ONDIALA,,v38
QF5875YIW2,05/06/2022 06:33,05/06/2022 06:33,Pay Bill Online from 254710732381 - JANE ACHIENG MBEKE Acc. HAF,Completed,10000,,12200,TRUE,Pay Bill Online,254710732381 - JANE ACHIENG MBEKE,,HAF
QF5675PRH0,05/06/2022 06:14,05/06/2022 06:14,Pay Bill from 254702216907 - FAITH MUSA Acc. KBE ,Completed,200,,2200,TRUE,Pay Utility,254702216907 - FAITH MUSA,,KBE
QF456YWZSF,04/06/2022 21:46,04/06/2022 21:46,Pay Bill from 254706859500 - JULIA NJAMBI WAINAINA Acc. u4,Completed,1000,,2000,TRUE,Pay Utility,254706859500 - JULIA NJAMBI WAINAINA,,u4
QF406P6BA2,04/06/2022 19:53,04/06/2022 19:53,Pay Bill Online from 254714563486 - BRIAN MMATA MUSERA Acc. KBJ,Completed,1000,,1000,TRUE,Pay Bill Online,254714563486 - BRIAN MMATA MUSERA,,KBJ
QF446LKXEU,04/06/2022 19:22,04/06/2022 19:22,Utility Account to Organization Settlement Account,Completed,,-29050,0,TRUE,Utility Account to Organization Settlement Account,846783 - ANCIENT WELLS LTD 4,,
QF446DU7QM,04/06/2022 18:10,04/06/2022 18:10,Pay Bill Online from 254715002789 - ERICK NGUGI MAINA Acc. HAG,Completed,1400,,29050,TRUE,Pay Bill Online,254715002789 - ERICK NGUGI MAINA,,HAG
QF406DCJ96,04/06/2022 18:05,04/06/2022 18:05,Pay Bill from 254718818610 - HANNAH NALIAKA Acc. V23,Completed,200,,27650,TRUE,Pay Utility,254718818610 - HANNAH NALIAKA,,V23
QF416C7N4T,04/06/2022 17:53,04/06/2022 17:53,Pay Bill Online from 254727554512 - COLLINS KOECH Acc. JDJ,Completed,600,,27450,TRUE,Pay Bill Online,254727554512 - COLLINS KOECH,,JDJ
QF426ATCKK,04/06/2022 17:38,04/06/2022 17:38,FSI to Pay Bill by 714888 - B2C LOOP VIA NCBA Acc. DCC via WEB by B2C LOOP VIA NCBA\Cbainitiator,Completed,600,,26850,TRUE,FSI to Pay Bill via API,714888 - B2C LOOP VIA NCBA,,DCC
QF49692G8N,04/06/2022 17:19,04/06/2022 17:19,Pay Bill from 254700198550 - BENARD ONYANGO Acc. DBB,Completed,1000,,26250,TRUE,Pay Utility,254700198550 - BENARD ONYANGO,,DBB
QF405RMW1I,04/06/2022 13:30,04/06/2022 13:30,Pay Bill from 254717985596 - NICHOLAS KIPKOECH BUTIA Acc. Hcf,Completed,800,,25250,TRUE,Pay Utility,254717985596 - NICHOLAS KIPKOECH BUTIA,,Hcf
QF495PVK9T,04/06/2022 13:06,04/06/2022 13:06,Pay Bill from 254723370004 - LABAN MAINGI WAMBUA Acc. jef,Completed,200,,24450,TRUE,Pay Utility,254723370004 - LABAN MAINGI WAMBUA,,jef
QF455M392T,04/06/2022 12:13,04/06/2022 12:13,Pay Bill Online from 254720107609 - DENNIS OGENDI BARAKE Acc. JAJ,Completed,600,,24250,TRUE,Pay Bill Online,254720107609 - DENNIS OGENDI BARAKE,,JAJ
QF425FDT3M,04/06/2022 10:37,04/06/2022 10:37,Pay Bill from 254729371750 - DERRICK OTANGA Acc. FEF,Completed,1400,,23650,TRUE,Pay Utility with OD via STK,254729371750 - DERRICK OTANGA,,FEF
QF495EDIDV,04/06/2022 10:22,04/06/2022 10:22,Pay Bill from 254726753273 - JESSE K MURIRMI NJERU Acc. HCH,Completed,2600,,22250,TRUE,Pay Utility,254726753273 - JESSE K MURIRMI NJERU,,HCH
QF4859YWHG,04/06/2022 09:14,04/06/2022 09:14,Pay Bill Online from 254795534849 - PURITY NJERU Acc. feb,Completed,400,,19650,TRUE,Pay Utility with OD Online,254795534849 - PURITY NJERU,,feb
QF425579BA,04/06/2022 07:46,04/06/2022 07:46,Pay Bill Online from 254700187806 - WINNIE OLIVIA AKOTH Acc. jec,Completed,600,,19250,TRUE,Pay Bill Online,254700187806 - WINNIE OLIVIA AKOTH,,jec
QF304YH1L8,03/06/2022 22:39,03/06/2022 22:39,Pay Bill Online from 254799946039 - LUIS OTIENO Acc. IAE,Completed,800,,18650,TRUE,Pay Bill Online,254799946039 - LUIS OTIENO,,IAE
QF334IKFVZ,03/06/2022 19:19,03/06/2022 19:19,Pay Bill Online from 254703176849 - ROYAL MUYA Acc. F2,Completed,400,,17850,TRUE,Pay Bill Online,254703176849 - ROYAL MUYA,,F2
QF334CL6O1,03/06/2022 18:26,03/06/2022 18:26,Pay Bill from 254718244582 - GRANT WANANGWE Acc. KAH,Completed,400,,17450,TRUE,Pay Utility,254718244582 - GRANT WANANGWE,,KAH
QF364BIXEQ,03/06/2022 18:15,03/06/2022 18:15,Pay Bill from 254712091662 - BENARD OMONDI ROBY Acc. V16,Completed,600,,17050,TRUE,Pay Utility,254712091662 - BENARD OMONDI ROBY,,V16
QF3046EQ7S,03/06/2022 17:20,03/06/2022 17:20,Pay Bill Online from 254714855708 - KIPLANGAT SITIENEI Acc. FAE,Completed,1200,,16450,TRUE,Pay Bill Online,254714855708 - KIPLANGAT SITIENEI,,FAE
QF31449O69,03/06/2022 16:55,03/06/2022 16:55,Pay Bill from 254702152790 - Michelle Ndunge Kyalo Acc. IDE,Completed,600,,15250,TRUE,Pay Utility,254702152790 - Michelle Ndunge Kyalo,,IDE
QF31440G2Z,03/06/2022 16:52,03/06/2022 16:52,Pay Bill Online from 254792584569 - LUCY MWALIMO Acc. IAD,Completed,200,,14650,TRUE,Pay Bill Online,254792584569 - LUCY MWALIMO,,IAD
QF343VK3HK,03/06/2022 15:00,03/06/2022 15:00,Pay Bill Online from 254710381003 - ALFRED KISHOIN Acc. DAB,Completed,1600,,14450,TRUE,Pay Bill Online,254710381003 - ALFRED KISHOIN,,DAB
QF393VA1XV,03/06/2022 14:56,03/06/2022 14:56,Pay Bill from 254728670882 - SHARAD EDWARD ADALA OLUM Acc. KCK,Completed,1800,,12850,TRUE,Pay Utility,254728670882 - SHARAD EDWARD ADALA OLUM,,KCK
QF363S1K9A,03/06/2022 14:11,03/06/2022 14:11,Pay Bill from 254725909984 - TIMOTHY ODHIAMBO OWITI Acc. JDE,Completed,3400,,11050,TRUE,Pay Utility,254725909984 - TIMOTHY ODHIAMBO OWITI,,JDE
QF373NNWBZ,03/06/2022 13:11,03/06/2022 13:11,Pay Bill from 254723499628 - CLINTON JOSEPH MUHARI Acc. hfh,Completed,800,,7650,TRUE,Pay Utility with OD via STK,254723499628 - CLINTON JOSEPH MUHARI,,hfh
QF393EUO67,03/06/2022 11:03,03/06/2022 11:03,Pay Bill from 0706563358 - HARRIET NYANCHAMA NYABERI Acc. FCC,Completed,200,,6850,TRUE,Pay Utility,0706563358 - HARRIET NYANCHAMA NYABERI,,FCC
QF34396D62,03/06/2022 09:37,03/06/2022 09:37,Pay Bill from 254796069018 - PEACE KIMEU Acc. Hdg,Completed,1000,,6650,TRUE,Pay Utility,254796069018 - PEACE KIMEU,,Hdg
QF202OGILO,02/06/2022 20:24,02/06/2022 20:24,Pay Bill Online from 254708808085 - MICHAEL APUDO Acc. u2,Completed,450,,5650,TRUE,Pay Bill Online,254708808085 - MICHAEL APUDO,,u2
QF262NIINW,02/06/2022 20:14,02/06/2022 20:14,Pay Bill Online from 254722728975 - CURTIS MRIGA OMIDO Acc. IAH,Completed,1000,,5200,TRUE,Pay Bill Online,254722728975 - CURTIS MRIGA OMIDO,,IAH
QF262KEVG8,02/06/2022 19:44,02/06/2022 19:44,Pay Bill from 254706144834 - WILKISTER OSUMO Acc. HFB,Completed,600,,4200,TRUE,Pay Utility,254706144834 - WILKISTER OSUMO,,HFB
QF292J348X,02/06/2022 19:33,02/06/2022 19:33,Pay Bill from 254726465584 - JULIANA MUKELI MUTUNGA Acc. v4,Completed,400,,3600,TRUE,Pay Utility,254726465584 - JULIANA MUKELI MUTUNGA,,v4
QF222A377S,02/06/2022 18:11,02/06/2022 18:11,Pay Bill from 254720550403 - GRACE WANGONDU Acc. JFI,Completed,2000,,3200,TRUE,Pay Utility,254720550403 - GRACE WANGONDU,,JFI
QF262A3JRA,02/06/2022 18:11,02/06/2022 18:11,Pay Bill from 254721302658 - JACOB BIRUNDU Acc. HDE,Completed,400,,1200,TRUE,Pay Utility,254721302658 - JACOB BIRUNDU,,HDE
QF262452ZI,02/06/2022 17:05,02/06/2022 17:05,Pay Bill from 0715030019 - Omwenga Ong'era Stephen Acc. E1,Completed,400,,800,TRUE,Pay Utility,0715030019 - Omwenga Ong'era Stephen,,E1
QF281J5XU0,02/06/2022 12:07,02/06/2022 12:07,Pay Bill Online from 254795510441 - LEWIS MUEMA Acc. KEB,Completed,400,,400,TRUE,Pay Bill Online,254795510441 - LEWIS MUEMA,,KEB
QF221H6FPI,02/06/2022 11:37,02/06/2022 11:37,Utility Account to Organization Settlement Account,Completed,,-16200,0,TRUE,Utility Account to Organization Settlement Account,846783 - ANCIENT WELLS LTD 4,,
QF241APVRK,02/06/2022 09:59,02/06/2022 09:59,Pay Bill from 254723389922 - ANNE WANJIKU NDUNGU Acc. v53,Completed,600,,16200,TRUE,Pay Utility,254723389922 - ANNE WANJIKU NDUNGU,,v53
QF2318FWLL,02/06/2022 09:23,02/06/2022 09:23,Pay Bill Online from 0757699775 - BENARD MUIA MUTUA Acc. HCB,Completed,1200,,15600,TRUE,Pay Bill Online,0757699775 - BENARD MUIA MUTUA,,HCB
QF18ZOHHVE,01/06/2022 20:20,01/06/2022 20:20,Pay Bill from 0746622973 - SPOTT   THILO Acc. IGD ,Completed,1200,,14400,TRUE,Pay Utility,0746622973 - SPOTT   THILO,,IGD
QF14ZD93AY,01/06/2022 18:34,01/06/2022 18:34,Pay Bill Online from 254706354035 - MOSES MUOKA Acc. V03,Completed,400,,13200,TRUE,Pay Bill Online,254706354035 - MOSES MUOKA,,V03
QF12Z863G4,01/06/2022 17:39,01/06/2022 17:39,Pay Bill Online from 254719134037 - KELVIN KITOO Acc. FAA,Completed,800,,12800,TRUE,Pay Utility with OD Online,254719134037 - KELVIN KITOO,,FAA
QF16Z5GCWQ,01/06/2022 17:06,01/06/2022 17:06,Pay Bill from 254717726012 - WINFRED MUENI PETER Acc. IDA,Completed,400,,12000,TRUE,Pay Utility,254717726012 - WINFRED MUENI PETER,,IDA
QF12Z55F0W,01/06/2022 17:02,01/06/2022 17:02,Pay Bill Online from 254706158280 - patience mutheu mbevi Acc. KFC,Completed,600,,11600,TRUE,Pay Bill Online,254706158280 - patience mutheu mbevi,,KFC
QF18Z1XQLW,01/06/2022 16:20,01/06/2022 16:20,Pay Bill Online from 254717809935 - LYDIAH WERU Acc. ief,Completed,400,,11000,TRUE,Pay Bill Online,254717809935 - LYDIAH WERU,,ief
QF14YT103M,01/06/2022 14:13,01/06/2022 14:13,Pay Bill from 254714814264 - PATRICIA NZOMO Acc. Hbg,Completed,300,,10600,TRUE,Pay Utility with OD via STK,254714814264 - PATRICIA NZOMO,,Hbg
QF11YSRUVV,01/06/2022 14:09,01/06/2022 14:09,Pay Bill from 254742911013 - HANEST AMIMO Acc. IEG,Completed,400,,10300,TRUE,Pay Utility,254742911013 - HANEST AMIMO,,IEG
QF13YP7CBT,01/06/2022 13:18,01/06/2022 13:18,Pay Bill from 254727585857 - PETER MUOKI NGUNDO Acc. Peter ngundo e6,Completed,900,,9900,TRUE,Pay Utility,254727585857 - PETER MUOKI NGUNDO,,Peter
QF16YNFVIA,01/06/2022 12:53,01/06/2022 12:53,Pay Bill Online from 254706549634 - CLINTON OMBASA Acc. FDB,Completed,1000,,9000,TRUE,Pay Utility with OD Online,254706549634 - CLINTON OMBASA,,FDB
QF18YMYVSE,01/06/2022 12:46,01/06/2022 12:46,Pay Bill from 254728084427 - MARY NABWIRE OKELLO Acc. FDF,Completed,1200,,8000,TRUE,Pay Utility,254728084427 - MARY NABWIRE OKELLO,,FDF
QF10YJJ79M,01/06/2022 11:55,01/06/2022 11:55,Pay Bill from 0726465363 - ISAAC KITONGA JOSEPH Acc. IDG,Completed,400,,6800,TRUE,Pay Utility,0726465363 - ISAAC KITONGA JOSEPH,,IDG
QF18YB95RC,01/06/2022 09:49,01/06/2022 09:49,Pay Bill from 254798643998 - Judith Mwaniki Acc. kce,Completed,400,,6400,TRUE,Pay Utility,254798643998 - Judith Mwaniki,,kce
QF19Y8255P,01/06/2022 08:56,01/06/2022 08:56,Pay Bill from 0717216114 - Felix Njeru Mugambi Acc. kdf,Completed,1000,,6000,TRUE,Pay Utility,0717216114 - Felix Njeru Mugambi,,kdf
QF11Y693XL,01/06/2022 08:23,01/06/2022 08:23,Pay Bill from 254719747910 - KEVIN NDERITU GAKINGO Acc. IDD,Completed,400,,5000,TRUE,Pay Utility,254719747910 - KEVIN NDERITU GAKINGO,,IDD
QF18Y53LZK,01/06/2022 08:01,01/06/2022 08:01,Pay Bill Online from 254722604851 - WILFRED SAKWA Acc. KEJ,Completed,200,,4600,TRUE,Pay Bill Online,254722604851 - WILFRED SAKWA,,KEJ
