Receipt No.,Completion Time,Initiation Time,Details,Transaction Status,Paid In,Withdrawn,Balance,Balance Confirmed,Reason Type,Other Party Info,Linked Transaction ID,A/C No.
OEE86WEKJ2,14/05/2020 15:34,14/05/2020 15:34,Utility Account to Organization Settlement Account,Completed,,-60250,0,TRUE,Utility Account to Organization Settlement Account,887264 - ANCIENT WELLS LTD 2,,
OED36EC0XN,13/05/2020 20:20,13/05/2020 20:20,Pay Bill from 254728464531 - JAMES MUIRURI Acc. James Kenedy Muiruri,Completed,4500,,60250,TRUE,Pay Utility,254728464531 - JAMES MUIRURI,,James
OEC5550NJD,12/05/2020 13:21,12/05/2020 13:21,Pay Bill from 254726524831 - ANDREW ODHIAMBO Acc. Andrew odhiambo ,Completed,22000,,55750,TRUE,Pay Utility,254726524831 - ANDREW ODHIAMBO,,Andrew
OEB14NZP77,11/05/2020 18:48,11/05/2020 18:48,Pay Bill from 254725014210 - FREDRICK MOUNDE Acc. EPZ MH,Completed,28000,,33750,TRUE,Pay Utility with OD via STK,254725014210 - FREDRICK MOUNDE,,EPZ
OEB34GIUZZ,11/05/2020 15:58,11/05/2020 15:58,Pay Bill from 0794231328 - Jobic Gesimba Otwabe Acc. U4,Completed,5750,,5750,TRUE,Pay Utility,0794231328 - Jobic Gesimba Otwabe,,U4
OEB84DPJ6G,11/05/2020 14:39,11/05/2020 14:39,Utility Account to Organization Settlement Account,Completed,,-26500,0,TRUE,Utility Account to Organization Settlement Account,887264 - ANCIENT WELLS LTD 2,,
OEA53VPPL5,10/05/2020 19:33,10/05/2020 19:33,Pay Bill from 254728464531 - JAMES MUIRURI Acc. James Kenedy Muiruri,Completed,2500,,26500,TRUE,Pay Utility,254728464531 - JAMES MUIRURI,,James
