Receipt No.,Completion Time,Initiation Time,Details,Transaction Status,Paid In,Withdrawn,Balance,Balance Confirmed,Reason Type,Other Party Info,Linked Transaction ID,A/C No.
OBA9YTVB5J,10/02/2020 16:44,10/02/2020 16:44,Utility Account to Organization Settlement Account,Completed,,-48700,0,TRUE,Utility Account to Organization Settlement Account,887264 - ANCIENT WELLS LTD 2,,
OB85XE9GH1,08/02/2020 19:10,08/02/2020 19:10,Pay Bill from 254724643594 - BATHISEBA NYABWARI KEMUNTO Acc. u6,Completed,12500,,48700,TRUE,Pay Utility,254724643594 - BATHISEBA NYABWARI KEMUNTO,,u6
OB62VUD0DA,06/02/2020 21:26,06/02/2020 21:26,Pay Bill from 0743263203 - Patrick theuri wachira Acc. U1,Completed,5000,,36200,TRUE,Pay Utility,0743263203 - Patrick theuri wachira,,U1
OB43TRNZ31,04/02/2020 14:45,04/02/2020 14:45,Pay Bill from 254703573478 - ANTONY MAINA Acc. Gichina,Completed,14000,,31200,TRUE,Pay Utility,254703573478 - ANTONY MAINA,,Gichina
