Receipt No.,Completion Time,Initiation Time,Details,Transaction Status,Paid In,Withdrawn,Balance,Balance Confirmed,Reason Type,Other Party Info,Linked Transaction ID,A/C No.
PDP28FSJWK,25/04/2021 16:48,25/04/2021 16:48,Pay Bill from 254768687118 - mitchelle chepkemoi Acc. hff,Completed,9500,,165500,TRUE,Pay Utility,254768687118 - mitchelle chepkemoi,,hff
PDP28CY3AU,25/04/2021 15:53,25/04/2021 15:53,Pay Bill Online from 254722728975 - CURTIS MRIGA OMIDO Acc. IAH,Completed,33000,,156000,TRUE,Pay Bill Online,254722728975 - CURTIS MRIGA OMIDO,,IAH
PDP17ZJJM9,25/04/2021 10:56,25/04/2021 10:56,Pay Bill from 254700833330 - RITAH NTHAMBI MUTHAMA Acc. KAB,Completed,16000,,123000,TRUE,Pay Utility,254700833330 - RITAH NTHAMBI MUTHAMA,,KAB
PDO47I7UP2,24/04/2021 19:37,24/04/2021 19:37,Pay Bill from 0713842344 - Joseph Musyoki Kyalo Acc. daa,Completed,12000,,107000,TRUE,Pay Utility,0713842344 - Joseph Musyoki Kyalo,,daa
PDO07HXUHQ,24/04/2021 19:33,24/04/2021 19:33,Pay Bill from 0713842344 - Joseph Musyoki Kyalo Acc. daa,Completed,12000,,95000,TRUE,Pay Utility,0713842344 - Joseph Musyoki Kyalo,,daa
PDO57ANB6X,24/04/2021 17:50,24/04/2021 17:50,Pay Bill from 0722950695 - Joshua Mbithi Kivondo Acc. Dca,Completed,12000,,83000,TRUE,Pay Utility,0722950695 - Joshua Mbithi Kivondo,,Dca
PDO27667XI,24/04/2021 16:30,24/04/2021 16:30,Pay Bill from 254720361605 - DAUD AMBER Acc. IGH,Completed,3000,,71000,TRUE,Pay Utility,254720361605 - DAUD AMBER,,IGH
PDO473OSOI,24/04/2021 15:41,24/04/2021 15:41,Pay Bill from 254722910078 - MAUREEN MUNYIVA MUTUKU Acc. DBD,Completed,13000,,68000,TRUE,Pay Utility,254722910078 - MAUREEN MUNYIVA MUTUKU,,DBD
PDO46X4YUW,24/04/2021 13:30,24/04/2021 13:30,Pay Bill from 0757055487 - Pauline Achieng Ochieng Acc. HDC,Completed,10000,,55000,TRUE,Pay Utility,0757055487 - Pauline Achieng Ochieng,,HDC
PDO06WL36C,24/04/2021 13:19,24/04/2021 13:19,Pay Bill from 0758506934 - Edgar Maxwel Wanguba Acc. IFG,Completed,8000,,45000,TRUE,Pay Utility,0758506934 - Edgar Maxwel Wanguba,,IFG
PDO96S3HVT,24/04/2021 11:45,24/04/2021 11:45,Pay Bill from 254711706815 - NAOMI WANYONYI Acc. KBA,Completed,16000,,37000,TRUE,Pay Utility,254711706815 - NAOMI WANYONYI,,KBA
PDO76RTGJZ,24/04/2021 11:39,24/04/2021 11:39,Pay Bill from 254726172957 - VINCENT OLIENG' Acc. HBC,Completed,21000,,21000,TRUE,Pay Utility,254726172957 - VINCENT OLIENG',,HBC
PDO06PKAOA,24/04/2021 10:50,24/04/2021 10:50,Utility Account to Organization Settlement Account,Completed,,-46000,0,TRUE,Utility Account to Organization Settlement Account,979524 - ANCIENT WELLS PROPERTY MANAGERS 2,,
PDO16LMMWX,24/04/2021 09:20,24/04/2021 09:20,Pay Bill from 254701683737 - MICHAEL NGUGI Acc. HDB,Completed,15000,,46000,TRUE,Pay Utility,254701683737 - MICHAEL NGUGI,,HDB
PDO76L6AUT,24/04/2021 09:09,24/04/2021 09:09,Pay Bill from 254713497971 - GERISHON NDUNG'U KOMU Acc. DEA,Completed,31000,,31000,TRUE,Pay Utility,254713497971 - GERISHON NDUNG'U KOMU,,DEA
PDO66KY722,24/04/2021 09:03,24/04/2021 09:03,Utility Account to Organization Settlement Account,Completed,,-81000,0,TRUE,Utility Account to Organization Settlement Account,979524 - ANCIENT WELLS PROPERTY MANAGERS 2,,
PDO46J4TVU,24/04/2021 08:16,24/04/2021 08:16,Pay Bill from 254728364280 - EMMANUEL THUMA OYIER Acc. IDF,Completed,11000,,81000,TRUE,Pay Utility,254728364280 - EMMANUEL THUMA OYIER,,IDF
PDN56DP9QB,23/04/2021 21:58,23/04/2021 21:58,Pay Bill from 254723699555 - DIANA NYAIREGI GICHIA Acc. FBF,Completed,16500,,70000,TRUE,Pay Utility,254723699555 - DIANA NYAIREGI GICHIA,,FBF
PDN66AJYOI,23/04/2021 20:33,23/04/2021 20:33,Pay Bill from 254713662892 - DAVID JUMA KIPTOCH Acc. JBE,Completed,8500,,53500,TRUE,Pay Utility,254713662892 - DAVID JUMA KIPTOCH,,JBE
PDN36AGJGV,23/04/2021 20:31,23/04/2021 20:31,Pay Bill from 254703935626 - DAVID NGARI ITA Acc. FCD,Completed,1000,,45000,TRUE,Pay Utility with OD via STK,254703935626 - DAVID NGARI ITA,,FCD
PDN55B9MXP,23/04/2021 09:31,23/04/2021 09:31,Pay Bill from 254701027615 - JAMES KIPKURUI KEMBOI Acc. HAB,Completed,16000,,44000,TRUE,Pay Utility with OD via STK,254701027615 - JAMES KIPKURUI KEMBOI,,HAB
PDM552VNAT,22/04/2021 21:48,22/04/2021 21:48,Pay Bill from 254703935626 - DAVID NGARI ITA Acc. FCD,Completed,1000,,28000,TRUE,Pay Utility with OD via STK,254703935626 - DAVID NGARI ITA,,FCD
PDM84EP61S,22/04/2021 14:25,22/04/2021 14:25,Pay Bill Online from 254720703769 - MOHAMED ABUKAR SIYAD Acc. HBA,Completed,17000,,27000,TRUE,Pay Bill Online,254720703769 - MOHAMED ABUKAR SIYAD,,HBA
PDM9479T0P,22/04/2021 11:43,22/04/2021 11:43,Pay Bill Online from 254724383017 - MARYLINE ODUOR Acc. JAD,Completed,10000,,10000,TRUE,Pay Bill Online,254724383017 - MARYLINE ODUOR,,JAD
PDM242QJ8I,22/04/2021 10:00,22/04/2021 10:00,Utility Account to Organization Settlement Account,Completed,,-57800,0,TRUE,Utility Account to Organization Settlement Account,979524 - ANCIENT WELLS PROPERTY MANAGERS 2,,
PDM141HYGJ,22/04/2021 09:30,22/04/2021 09:30,Pay Bill from 254710537468 - DONALDO AMIOL JUAC AKEC Acc. jdg,Completed,1000,,57800,TRUE,Pay Utility,254710537468 - DONALDO AMIOL JUAC AKEC,,jdg
PDM9411JAT,22/04/2021 09:19,22/04/2021 09:19,Pay Bill from 254710537468 - DONALDO AMIOL JUAC AKEC Acc. jdg,Completed,1000,,56800,TRUE,Pay Utility,254710537468 - DONALDO AMIOL JUAC AKEC,,jdg
PDL93BLTOV,21/04/2021 16:53,21/04/2021 16:53,Pay Bill from 254722910078 - MAUREEN MUNYIVA MUTUKU Acc. DBD,Completed,5000,,55800,TRUE,Pay Utility,254722910078 - MAUREEN MUNYIVA MUTUKU,,DBD
PDL62Z5JY6,21/04/2021 12:37,21/04/2021 12:37,Pay Bill from 0114994644 - Yahya  Muktar  Abdirashid Acc. FDF,Completed,7800,,50800,TRUE,Pay Utility,0114994644 - Yahya  Muktar  Abdirashid,,FDF
PDL82YLVCS,21/04/2021 12:25,21/04/2021 12:25,Pay Bill Online from 254720787158 - AMOS CHELANG'A Acc. KFK,Completed,16000,,43000,TRUE,Pay Bill Online,254720787158 - AMOS CHELANG'A,,KFK
PDL32WNNCV,21/04/2021 11:42,21/04/2021 11:42,Pay Bill from 254710965167 - KUSA STEPHANIE HAZEL Acc. JDC,Completed,11000,,27000,TRUE,Pay Utility,254710965167 - KUSA STEPHANIE HAZEL,,JDC
PDL52PAVI9,21/04/2021 08:47,21/04/2021 08:47,Pay Bill from 254722244406 - NOAH MELI Acc. Jac,Completed,10000,,16000,TRUE,Pay Utility,254722244406 - NOAH MELI,,Jac
PDK92F6XA3,20/04/2021 20:20,20/04/2021 20:20,Pay Bill from 254720361605 - DAUD AMBER Acc. IGH,Completed,6000,,6000,TRUE,Pay Utility,254720361605 - DAUD AMBER,,IGH
PDK41VKO5I,20/04/2021 14:55,20/04/2021 14:55,Utility Account to Organization Settlement Account,Completed,,-138000,0,TRUE,Utility Account to Organization Settlement Account,979524 - ANCIENT WELLS PROPERTY MANAGERS 2,,
PDJ718AIUZ,19/04/2021 21:46,19/04/2021 21:46,Pay Bill from 254703935626 - DAVID NGARI ITA Acc. FCD,Completed,1000,,138000,TRUE,Pay Utility with OD via STK,254703935626 - DAVID NGARI ITA,,FCD
PDJ41236BQ,19/04/2021 19:36,19/04/2021 19:36,Pay Bill from 254720361605 - DAUD AMBER Acc. IGH,Completed,5000,,137000,TRUE,Pay Utility,254720361605 - DAUD AMBER,,IGH
PDJ1ZV8FJD,19/04/2021 17:59,19/04/2021 17:59,Pay Bill from 254714774979 - ALICE KALEKYE MUTUA Acc. JCH,Completed,17000,,132000,TRUE,Pay Utility,254714774979 - ALICE KALEKYE MUTUA,,JCH
PDJ5ZTBA19,19/04/2021 17:27,19/04/2021 17:27,Pay Bill from 254729258441 - ROBERT RONO KULEI Acc. JAB,Completed,5000,,115000,TRUE,Pay Utility,254729258441 - ROBERT RONO KULEI,,JAB
PDJ8ZQPW9G,19/04/2021 16:40,19/04/2021 16:40,Pay Bill from 0758928224 - DIANA MOKEIRA ONDERI Acc. HEH,Completed,25000,,110000,TRUE,Pay Utility,0758928224 - DIANA MOKEIRA ONDERI,,HEH
PDJ1ZG298L,19/04/2021 12:56,19/04/2021 12:56,Pay Bill from 254701027615 - JAMES KIPKURUI KEMBOI Acc. HAB,Completed,15000,,85000,TRUE,Pay Utility with OD via STK,254701027615 - JAMES KIPKURUI KEMBOI,,HAB
PDJ6ZCCA9S,19/04/2021 11:33,19/04/2021 11:33,Pay Bill from 254701047939 - Cyrus Wahome Acc. JAH,Completed,16000,,70000,TRUE,Pay Utility,254701047939 - Cyrus Wahome,,JAH
PDJ0ZCC9KM,19/04/2021 11:33,19/04/2021 11:33,Pay Bill from 0758591833 - DORCUS MBULA PETER Acc. HDD,Completed,9000,,54000,TRUE,Pay Utility,0758591833 - DORCUS MBULA PETER,,HDD
PDI7YWS72J,18/04/2021 20:43,18/04/2021 20:43,Pay Bill Online from 254715764212 - BANCE ISHEMINYE Acc. JFE ,Completed,5000,,45000,TRUE,Pay Bill Online,254715764212 - BANCE ISHEMINYE,,JFE
PDI7YG2HHV,18/04/2021 15:40,18/04/2021 15:40,Pay Bill from 254719439717 - Cecilia Omondi Acc. HFC,Completed,10000,,40000,TRUE,Pay Utility with OD via STK,254719439717 - Cecilia Omondi,,HFC
PDI2Y82URG,18/04/2021 12:45,18/04/2021 12:45,Pay Bill from 254710537468 - DONALDO AMIOL JUAC AKEC Acc. jdg,Completed,9000,,30000,TRUE,Pay Utility,254710537468 - DONALDO AMIOL JUAC AKEC,,jdg
PDH5XN7VEH,17/04/2021 19:56,17/04/2021 19:56,Pay Bill from 254718672924 - LILIAN CHEBET NGENO Acc. KGD,Completed,10000,,21000,TRUE,Pay Utility,254718672924 - LILIAN CHEBET NGENO,,KGD
PDH3XDIOUF,17/04/2021 17:40,17/04/2021 17:40,Pay Bill from 0114735826 - PETER POCHI MAKACHA Acc. IAC,Completed,4000,,11000,TRUE,Pay Utility with OD via STK,0114735826 - PETER POCHI MAKACHA,,IAC
PDH2XBSS3O,17/04/2021 17:10,17/04/2021 17:10,Pay Bill from 254703555717 - SENGA SALIM Acc. hbb,Completed,2000,,7000,TRUE,Pay Utility,254703555717 - SENGA SALIM,,hbb
PDH8XBERW6,17/04/2021 17:04,17/04/2021 17:04,Pay Bill from 0748059595 - Rashid NASSIR Khamis Acc. DDA,Completed,5000,,5000,TRUE,Pay Utility,0748059595 - Rashid NASSIR Khamis,,DDA
PDH1WJ4TGL,17/04/2021 05:50,17/04/2021 05:50,Utility Account to Organization Settlement Account,Completed,,-74000,0,TRUE,Utility Account to Organization Settlement Account,979524 - ANCIENT WELLS PROPERTY MANAGERS 2,,
PDG2WHDAC8,16/04/2021 22:33,16/04/2021 22:33,Pay Bill from 254723605941 - JOHN KARIHA Acc. kdd,Completed,11000,,74000,TRUE,Pay Utility,254723605941 - JOHN KARIHA,,kdd
PDG9W2KGBD,16/04/2021 18:04,16/04/2021 18:04,Pay Bill from 254722458136 - NADI GOLICHA Acc. KAA,Completed,17000,,63000,TRUE,Pay Utility,254722458136 - NADI GOLICHA,,KAA
PDG2W0V8Z6,16/04/2021 17:38,16/04/2021 17:38,Pay Bill from 254719499823 - MOSES MWANZIA MUTHIANI Acc. Jcc,Completed,7000,,46000,TRUE,Pay Utility,254719499823 - MOSES MWANZIA MUTHIANI,,Jcc
PDG5VZWE2V,16/04/2021 17:21,16/04/2021 17:21,Pay Bill from 254723954911 - JAMES KILAVI Acc. ICG,Completed,9500,,39000,TRUE,Pay Utility,254723954911 - JAMES KILAVI,,ICG
PDG7VTFQXX,16/04/2021 15:18,16/04/2021 15:18,Pay Bill from 254798146452 - VALARY ODHIAMBO Acc. JEE,Completed,10000,,29500,TRUE,Pay Utility,254798146452 - VALARY ODHIAMBO,,JEE
PDG9VJV5CV,16/04/2021 11:56,16/04/2021 11:56,Pay Bill from 254728103722 - YASSIR MWINYI ABDULRAZAQ Acc. ICE,Completed,500,,19500,TRUE,Pay Utility,254728103722 - YASSIR MWINYI ABDULRAZAQ,,ICE
PDG0V71OSY,16/04/2021 01:59,16/04/2021 01:59,Pay Bill from 254798674917 - Egbe Okpaga Okpaga Acc. HAD,Completed,19000,,19000,TRUE,Pay Utility,254798674917 - Egbe Okpaga Okpaga,,HAD
PDF2V2YE2O,15/04/2021 20:56,15/04/2021 20:56,Utility Account to Organization Settlement Account,Completed,,-166900,0,TRUE,Utility Account to Organization Settlement Account,979524 - ANCIENT WELLS PROPERTY MANAGERS 2,,
PDF3USK0HD,15/04/2021 18:24,15/04/2021 18:24,Pay Bill from 254722387899 - ADAN ALI Acc. Jba,Completed,22000,,166900,TRUE,Pay Utility,254722387899 - ADAN ALI,,Jba
PDF4UOVTK0,15/04/2021 17:27,15/04/2021 17:27,Pay Bill from 254700487241 - CLARE MUKASA Acc. HBH,Completed,2500,,144900,TRUE,Pay Utility with OD via STK,254700487241 - CLARE MUKASA,,HBH
PDF8UMYAI4,15/04/2021 16:55,15/04/2021 16:55,Pay Bill from 254700487241 - CLARE MUKASA Acc. HFA,Completed,17000,,142400,TRUE,Pay Utility,254700487241 - CLARE MUKASA,,HFA
PDF0UHBLAQ,15/04/2021 15:06,15/04/2021 15:06,Pay Bill from 254727955151 - NKONGE MAURICE Acc. Fge,Completed,15000,,125400,TRUE,Pay Utility,254727955151 - NKONGE MAURICE,,Fge
PDF8UEXW22,15/04/2021 14:16,15/04/2021 14:16,Pay Bill from 254702926057 - JULIAH JEPTUM Acc. IEF,Completed,10000,,110400,TRUE,Pay Utility,254702926057 - JULIAH JEPTUM,,IEF
PDF5UDYLLB,15/04/2021 13:55,15/04/2021 13:55,Pay Bill from 254720850920 - HENRY ONDERI Acc. JCB,Completed,15000,,100400,TRUE,Pay Utility,254720850920 - HENRY ONDERI,,JCB
PDF0UBYQB8,15/04/2021 13:12,15/04/2021 13:12,Pay Bill from 254728313347 - GEORGE KIMAIGA NYAMORI Acc. ici,Completed,16000,,85400,TRUE,Pay Utility,254728313347 - GEORGE KIMAIGA NYAMORI,,ici
PDF9TXYYE5,15/04/2021 07:32,15/04/2021 07:32,Pay Bill from 254703375006 - KEN RODGERS Acc. DBA,Completed,10000,,69400,TRUE,Pay Utility,254703375006 - KEN RODGERS,,DBA
PDE1TV6K5F,14/04/2021 22:49,14/04/2021 22:49,Pay Bill from 254703375006 - KEN RODGERS Acc. DBA,Completed,8000,,59400,TRUE,Pay Utility,254703375006 - KEN RODGERS,,DBA
PDE3TG5TH7,14/04/2021 17:56,14/04/2021 17:56,Pay Bill from 0718838251 - MARK KINYUA MAINA Acc. kfg,Completed,10000,,51400,TRUE,Pay Utility,0718838251 - MARK KINYUA MAINA,,kfg
PDE9TFLQ67,14/04/2021 17:47,14/04/2021 17:47,Pay Bill from 254715098348 - STEPHEN MUREITHI KABUTU Acc. FGC,Completed,9400,,41400,TRUE,Pay Utility,254715098348 - STEPHEN MUREITHI KABUTU,,FGC
PDE2T3L6IA,14/04/2021 13:47,14/04/2021 13:47,Pay Bill from 254727766786 - JOHN MAITHA MULWA Acc. IBH,Completed,5000,,32000,TRUE,Pay Utility,254727766786 - JOHN MAITHA MULWA,,IBH
PDE4T24TM8,14/04/2021 13:15,14/04/2021 13:15,Pay Bill from 254718138578 - PAULINE KIOKO Acc. KFD,Completed,12000,,27000,TRUE,Pay Utility,254718138578 - PAULINE KIOKO,,KFD
PDE9SRKK9P,14/04/2021 09:13,14/04/2021 09:13,Pay Bill Online from 254720451253 - JIMMY KIOGORA NKIROTE Acc. KBD,Completed,5000,,15000,TRUE,Pay Utility with OD Online,254720451253 - JIMMY KIOGORA NKIROTE,,KBD
PDE9SPK8XP,14/04/2021 08:19,14/04/2021 08:19,Pay Bill from 254722889574 - ALLAN MWANGI Acc. jcg,Completed,10000,,10000,TRUE,Pay Utility with OD via STK,254722889574 - ALLAN MWANGI,,jcg
PDD2SGTVKI,13/04/2021 20:39,13/04/2021 20:39,Utility Account to Organization Settlement Account,Completed,,-351900,0,TRUE,Utility Account to Organization Settlement Account,979524 - ANCIENT WELLS PROPERTY MANAGERS 2,,
PDD0S75W0S,13/04/2021 18:16,13/04/2021 18:16,Pay Bill from 254720249209 - WILFRED NJUGUNA WANJIRA Acc. DDD,Completed,20000,,351900,TRUE,Pay Utility,254720249209 - WILFRED NJUGUNA WANJIRA,,DDD
PDD0S1ETBM,13/04/2021 16:40,13/04/2021 16:40,Pay Bill from 254721630555 - ROSE AKOTH MARENYA Acc. KAC,Completed,11000,,331900,TRUE,Pay Utility,254721630555 - ROSE AKOTH MARENYA,,KAC
PDD5S08QC1,13/04/2021 16:18,13/04/2021 16:18,Pay Bill from 254729450678 - GRACE NDUNGE Acc. fba,Completed,15000,,320900,TRUE,Pay Utility,254729450678 - GRACE NDUNGE,,fba
PDD7RWJCJX,13/04/2021 15:01,13/04/2021 15:01,Pay Bill from 254716702294 - DANIEL MULATI Acc. KBE,Completed,12000,,305900,TRUE,Pay Utility,254716702294 - DANIEL MULATI,,KBE
PDD0RLDDUQ,13/04/2021 10:57,13/04/2021 10:57,Pay Bill from 254748895202 - MAYOL MACH MADING AWAR Acc. kfb,Completed,16000,,293900,TRUE,Pay Utility,254748895202 - MAYOL MACH MADING AWAR,,kfb
PDD9RJKM1F,13/04/2021 10:17,13/04/2021 10:17,Pay Bill from 0790924905 - KEVIN   KIDAGISA Acc. IGC,Completed,9000,,277900,TRUE,Pay Utility,0790924905 - KEVIN   KIDAGISA,,IGC
PDD2RFUDDO,13/04/2021 08:46,13/04/2021 08:46,Pay Bill from 254722910078 - MAUREEN MUNYIVA MUTUKU Acc. DBD,Completed,12400,,268900,TRUE,Pay Utility,254722910078 - MAUREEN MUNYIVA MUTUKU,,DBD
PDC0R0I36G,12/04/2021 19:05,12/04/2021 19:05,Pay Bill from 0115311874 - Lazarus Osoro mogaka Acc. KEF,Completed,16000,,256500,TRUE,Pay Utility,0115311874 - Lazarus Osoro mogaka,,KEF
PDC1QYJOZN,12/04/2021 18:40,12/04/2021 18:40,Pay Bill from 254721630555 - ROSE AKOTH MARENYA Acc. KAC,Completed,10000,,240500,TRUE,Pay Utility,254721630555 - ROSE AKOTH MARENYA,,KAC
PDC5QU4GDB,12/04/2021 17:33,12/04/2021 17:33,Pay Bill from 254710106394 - LUCY TONKEI Acc. KBG,Completed,19000,,230500,TRUE,Pay Utility,254710106394 - LUCY TONKEI,,KBG
PDC7QPB84D,12/04/2021 16:05,12/04/2021 16:05,Pay Bill from 254724364316 - LINET MWENDIA Acc. KEJ,Completed,16000,,211500,TRUE,Pay Utility,254724364316 - LINET MWENDIA,,KEJ
PDC9QH34C7,12/04/2021 13:15,12/04/2021 13:15,Pay Bill from 254725381062 - VICTOR MAITHYA Acc. HEG,Completed,7500,,195500,TRUE,Pay Utility with OD via STK,254725381062 - VICTOR MAITHYA,,HEG
PDC5QFAM3J,12/04/2021 12:37,12/04/2021 12:37,Pay Bill Online from 254722249092 - MARIAM ABDULLAHI Acc. KEH,Completed,8000,,188000,TRUE,Pay Bill Online,254722249092 - MARIAM ABDULLAHI,,KEH
PDC0QDEDSQ,12/04/2021 11:56,12/04/2021 11:56,Pay Bill from 254723389177 - NELSON MOI Acc. ibf,Completed,10000,,180000,TRUE,Pay Utility,254723389177 - NELSON MOI,,ibf
PDC4QC1D8O,12/04/2021 11:26,12/04/2021 11:26,Pay Bill from 254722258107 - JOHN ODIMA ODIMA Acc. KGF,Completed,10000,,170000,TRUE,Pay Utility,254722258107 - JOHN ODIMA ODIMA,,KGF
PDC9Q4Z7P7,12/04/2021 08:44,12/04/2021 08:44,Pay Bill from 254797726484 - gideon marubua kiburu Acc. JBB,Completed,15000,,160000,TRUE,Pay Utility,254797726484 - gideon marubua kiburu,,JBB
PDC7Q3IPIR,12/04/2021 08:05,12/04/2021 08:05,Pay Bill from 254713140050 - DIANA MBEJA Acc. KAE,Completed,10000,,145000,TRUE,Pay Utility,254713140050 - DIANA MBEJA,,KAE
PDC4Q0VK52,12/04/2021 05:22,12/04/2021 05:22,Pay Bill from 254722276550 - ISAAC NYAMRER Acc. KGC,Completed,9000,,135000,TRUE,Pay Utility,254722276550 - ISAAC NYAMRER,,KGC
PDB3PWMBP3,11/04/2021 20:53,11/04/2021 20:53,Pay Bill from 254707715639 - Annastacia Kimeu Acc. Jfc,Completed,10000,,126000,TRUE,Pay Utility,254707715639 - Annastacia Kimeu,,Jfc
PDB4PVZ3TG,11/04/2021 20:38,11/04/2021 20:38,Pay Bill from 254704111133 - ELVIS OTIENO Acc. HFD,Completed,4000,,116000,TRUE,Pay Utility,254704111133 - ELVIS OTIENO,,HFD
PDB4PQRT1G,11/04/2021 19:13,11/04/2021 19:13,Pay Bill from 254721977151 - MIRIAM KIKOLYA Acc. KEA,Completed,6500,,112000,TRUE,Pay Utility,254721977151 - MIRIAM KIKOLYA,,KEA
PDB3PNGOC3,11/04/2021 18:27,11/04/2021 18:27,Pay Bill from 254725817130 - Micah Nyabuto Acc. HBD,Completed,10000,,105500,TRUE,Pay Utility,254725817130 - Micah Nyabuto,,HBD
PDB7PKIK9Z,11/04/2021 17:38,11/04/2021 17:38,Pay Bill from 0715688238 - JOANNAH ATUHAIRE BANTU Acc. jae,Completed,9000,,95500,TRUE,Pay Utility,0715688238 - JOANNAH ATUHAIRE BANTU,,jae
PDB7OX20F3,11/04/2021 08:57,11/04/2021 08:57,Pay Bill from 254791345279 - Dickson Oduor Oluoch Acc. JFF,Completed,9500,,86500,TRUE,Pay Utility,254791345279 - Dickson Oduor Oluoch,,JFF
PDB4OTD0OY,11/04/2021 06:30,11/04/2021 06:30,Pay Bill from 0740507437 - JOY KAARI KAMENCU Acc. FAC,Completed,9000,,77000,TRUE,Pay Utility,0740507437 - JOY KAARI KAMENCU,,FAC
PDA5OOTSV9,10/04/2021 21:04,10/04/2021 21:04,Pay Bill from 254726928933 - JOSHUA NDUNDA NZIOKA Acc. KCJ,Completed,8000,,68000,TRUE,Pay Utility,254726928933 - JOSHUA NDUNDA NZIOKA,,KCJ
PDA3OEV8CJ,10/04/2021 18:32,10/04/2021 18:32,Pay Bill from 0713842344 - Joseph Musyoki Kyalo Acc. daa,Completed,10000,,60000,TRUE,Pay Utility,0713842344 - Joseph Musyoki Kyalo,,daa
PDA4O74QZ8,10/04/2021 16:28,10/04/2021 16:28,Pay Bill Online from 254722921132 - JOE MCCRAY MURIUKI KIHIA Acc. IFA,Completed,15000,,50000,TRUE,Pay Bill Online,254722921132 - JOE MCCRAY MURIUKI KIHIA,,IFA
PDA1O6VYUL,10/04/2021 16:24,10/04/2021 16:24,Pay Bill from 254721520535 - NYAMWAYA MATARA Acc. JDB,Completed,15000,,35000,TRUE,Pay Utility,254721520535 - NYAMWAYA MATARA,,JDB
PDA4NZGDXE,10/04/2021 14:04,10/04/2021 14:04,Pay Bill from 254704833344 - LOISE KIMANI Acc. jfa,Completed,20000,,20000,TRUE,Pay Utility,254704833344 - LOISE KIMANI,,jfa
PDA3NQ69NV,10/04/2021 10:57,10/04/2021 10:57,Utility Account to Organization Settlement Account,Completed,,-232800,0,TRUE,Utility Account to Organization Settlement Account,979524 - ANCIENT WELLS PROPERTY MANAGERS 2,,
PDA5NPDDJH,10/04/2021 10:40,10/04/2021 10:40,Pay Bill from 254721579720 - ANTONY MAINA Acc. ibi,Completed,1000,,232800,TRUE,Pay Utility with OD via STK,254721579720 - ANTONY MAINA,,ibi
PDA1NMUIJ9,10/04/2021 09:45,10/04/2021 09:45,Pay Bill from 254708225541 - JUDITH NKATHA SIMBA Acc. HDH,Completed,14500,,231800,TRUE,Pay Utility,254708225541 - JUDITH NKATHA SIMBA,,HDH
PDA5NKCZDR,10/04/2021 08:45,10/04/2021 08:45,Pay Bill from 254719317219 - PHILIP MBOYA Acc. JDH,Completed,16000,,217300,TRUE,Pay Utility,254719317219 - PHILIP MBOYA,,JDH
PDA6NK1VOW,10/04/2021 08:38,10/04/2021 08:38,Pay Bill from 254723026840 - HARRISON MAINA Acc. HAH,Completed,16000,,201300,TRUE,Pay Utility,254723026840 - HARRISON MAINA,,HAH
PD92NEE8P8,09/04/2021 22:22,09/04/2021 22:22,Pay Bill from 254703555717 - SENGA SALIM Acc. hbb,Completed,2000,,185300,TRUE,Pay Utility,254703555717 - SENGA SALIM,,hbb
PD95NE3SHP,09/04/2021 22:08,09/04/2021 22:08,Pay Bill from 254721538323 - ISSA ISACK GOLLO Acc. DCC For April 2021,Completed,20000,,183300,TRUE,Pay Utility,254721538323 - ISSA ISACK GOLLO,,DCC
PD99N5PAC9,09/04/2021 19:20,09/04/2021 19:20,Pay Bill from 254719626804 - PAUL NJOROGE CYRUS Acc. JFI,Completed,20000,,163300,TRUE,Pay Utility,254719626804 - PAUL NJOROGE CYRUS,,JFI
PD91N50RTH,09/04/2021 19:12,09/04/2021 19:12,Pay Bill from 254708851939 - VENANT MBOGHO Acc. KCH,Completed,10000,,143300,TRUE,Pay Utility,254708851939 - VENANT MBOGHO,,KCH
PD97N4SC9B,09/04/2021 19:09,09/04/2021 19:09,Pay Bill from 254721115404 - Justine Fayuma Okwemba Acc. HAA,Completed,17000,,133300,TRUE,Pay Utility,254721115404 - Justine Fayuma Okwemba,,HAA
PD90N3TYDS,09/04/2021 18:57,09/04/2021 18:57,Pay Bill from 254708376721 - Millicent Achieng Akuka Acc. KCA,Completed,5800,,116300,TRUE,Pay Utility with OD via STK,254708376721 - Millicent Achieng Akuka,,KCA
PD94MX4HZS,09/04/2021 17:19,09/04/2021 17:19,Pay Bill from 254700379039 - MARTIN KIMANI Acc. KCI,Completed,3000,,110500,TRUE,Pay Utility,254700379039 - MARTIN KIMANI,,KCI
PD99MUQFUV,09/04/2021 16:38,09/04/2021 16:38,Pay Bill from 254722564580 - GLENN KISIANG'ANI Acc. DBB,Completed,1500,,107500,TRUE,Pay Utility with OD via STK,254722564580 - GLENN KISIANG'ANI,,DBB
PD95MU1INB,09/04/2021 16:26,09/04/2021 16:26,Pay Bill from 254722992162 - JAEL MWANDILOH Acc. DCB,Completed,25000,,106000,TRUE,Pay Utility,254722992162 - JAEL MWANDILOH,,DCB
PD91MQVCO1,09/04/2021 15:25,09/04/2021 15:25,Pay Bill Online from 254706549634 - CLINTON OMBASA Acc. FDB,Completed,17000,,81000,TRUE,Pay Bill Online,254706549634 - CLINTON OMBASA,,FDB
PD97MM0VY3,09/04/2021 13:47,09/04/2021 13:47,Pay Bill Online from 254707315614 - TERESAH WANJIRU KIRAGU Acc. JDI,Completed,24000,,64000,TRUE,Pay Bill Online,254707315614 - TERESAH WANJIRU KIRAGU,,JDI
PD93MJGVOB,09/04/2021 12:54,09/04/2021 12:54,Pay Bill from 254722136450 - MARY EVERLYN Acc. JAI,Completed,20000,,40000,TRUE,Pay Utility with OD via STK,254722136450 - MARY EVERLYN,,JAI
PD95MF0CC9,09/04/2021 11:18,09/04/2021 11:18,Pay Bill from 254791318982 - ADULLAHI HASSAN Acc. jci,Completed,20000,,20000,TRUE,Pay Utility,254791318982 - ADULLAHI HASSAN,,jci
PD99MBMEQT,09/04/2021 10:04,09/04/2021 10:04,Utility Account to Organization Settlement Account,Completed,,-160900,0,TRUE,Utility Account to Organization Settlement Account,979524 - ANCIENT WELLS PROPERTY MANAGERS 2,,
PD87M0F7HV,08/04/2021 21:21,08/04/2021 21:21,Pay Bill from 254720107609 - DENNIS OGENDI BARAKE Acc. JAJ,Completed,15000,,160900,TRUE,Pay Utility,254720107609 - DENNIS OGENDI BARAKE,,JAJ
PD80M04M3Y,08/04/2021 21:13,08/04/2021 21:13,Pay Bill from 254703935626 - DAVID NGARI ITA Acc. FCD,Completed,1000,,145900,TRUE,Pay Utility,254703935626 - DAVID NGARI ITA,,FCD
PD87LV4L05,08/04/2021 19:43,08/04/2021 19:43,Pay Bill from 254714209770 - PURITY NDUKU KYALO Acc. JEB,Completed,15000,,144900,TRUE,Pay Utility,254714209770 - PURITY NDUKU KYALO,,JEB
PD80LTS6EC,08/04/2021 19:25,08/04/2021 19:25,Pay Bill from 254748903322 - MARILYN MKAWUGHANGA KIRIGHO Acc. ICD,Completed,9000,,129900,TRUE,Pay Utility,254748903322 - MARILYN MKAWUGHANGA KIRIGHO,,ICD
PD84LPYCAM,08/04/2021 18:37,08/04/2021 18:37,Pay Bill from 254714710698 - TABITHA MULEE KYALO Acc. IFD,Completed,11500,,120900,TRUE,Pay Utility,254714710698 - TABITHA MULEE KYALO,,IFD
PD88LP8IME,08/04/2021 18:27,08/04/2021 18:27,Pay Bill from 254724006242 - JOAN CHEBET Acc. JEG,Completed,9000,,109400,TRUE,Pay Utility,254724006242 - JOAN CHEBET,,JEG
PD81LKANEN,08/04/2021 17:10,08/04/2021 17:10,Pay Bill Online from 254713966424 - NDUTI MUTHUI Acc. Jed,Completed,15000,,100400,TRUE,Pay Bill Online,254713966424 - NDUTI MUTHUI,,Jed
PD88LCKOEM,08/04/2021 14:40,08/04/2021 14:40,Pay Bill from 254718772336 - DAVID SERUGO Acc. DCD,Completed,20000,,85400,TRUE,Pay Utility,254718772336 - DAVID SERUGO,,DCD
PD83L9RNW1,08/04/2021 13:42,08/04/2021 13:42,Pay Bill from 254724611087 - Francis Mukindya Muoki Acc. dfb,Completed,8000,,65400,TRUE,Pay Utility,254724611087 - Francis Mukindya Muoki,,dfb
PD87L84MP7,08/04/2021 13:08,08/04/2021 13:08,Pay Bill from 254701006375 - EZRA MAKORI SERETI Acc. HTA,Completed,10000,,57400,TRUE,Pay Utility,254701006375 - EZRA MAKORI SERETI,,HTA
PD88L0AP2U,08/04/2021 10:18,08/04/2021 10:18,Pay Bill from 254727460527 - KENNETH GACHUHI Acc. HAB,Completed,400,,47400,TRUE,Pay Utility,254727460527 - KENNETH GACHUHI,,HAB
PD89KY2M8D,08/04/2021 09:27,08/04/2021 09:27,Pay Bill from 254722564580 - GLENN KISIANG'ANI Acc. DBB,Completed,1000,,47000,TRUE,Pay Utility with OD via STK,254722564580 - GLENN KISIANG'ANI,,DBB
PD83KXVQ6H,08/04/2021 09:22,08/04/2021 09:22,Pay Bill from 254713159153 - GUYO SANKALA Acc. DGD,Completed,20000,,46000,TRUE,Pay Utility,254713159153 - GUYO SANKALA,,DGD
PD84KX7WQ6,08/04/2021 09:06,08/04/2021 09:06,Pay Bill from 254702190887 - Nax Ochieng Acc. FDE,Completed,15000,,26000,TRUE,Pay Utility,254702190887 - Nax Ochieng,,FDE
PD85KVJVW7,08/04/2021 08:22,08/04/2021 08:22,Pay Bill from 254700379039 - MARTIN KIMANI Acc. KCI,Completed,3000,,11000,TRUE,Pay Utility,254700379039 - MARTIN KIMANI,,KCI
PD81KUSTWR,08/04/2021 08:01,08/04/2021 08:01,Pay Bill from 254741583477 - omenda mzee aziz Acc. JEF,Completed,8000,,8000,TRUE,Pay Utility,254741583477 - omenda mzee aziz,,JEF
PD83KU7K1F,08/04/2021 07:41,08/04/2021 07:41,Utility Account to Organization Settlement Account,Completed,,-550000,0,TRUE,Utility Account to Organization Settlement Account,979524 - ANCIENT WELLS PROPERTY MANAGERS 2,,
PD81KTA4DF,08/04/2021 07:02,08/04/2021 07:02,Pay Bill from 254700379039 - MARTIN KIMANI Acc. KBG,Completed,9000,,550000,TRUE,Pay Utility,254700379039 - MARTIN KIMANI,,KBG
PD88KT1JC2,08/04/2021 06:49,08/04/2021 06:49,Pay Bill from 254703708787 - ALBANUS MUTISO PETER Acc. JBD,Completed,15000,,541000,TRUE,Pay Utility,254703708787 - ALBANUS MUTISO PETER,,JBD
PD86KS5U3U,08/04/2021 03:29,08/04/2021 03:29,Pay Bill from 0748059595 - Rashid NASSIR Khamis Acc. DDA,Completed,10000,,526000,TRUE,Pay Utility,0748059595 - Rashid NASSIR Khamis,,DDA
PD73KQFJQ7,07/04/2021 22:13,07/04/2021 22:13,Pay Bill Online from 254720451253 - JIMMY KIOGORA NKIROTE Acc. JBG,Completed,10000,,516000,TRUE,Pay Bill Online,254720451253 - JIMMY KIOGORA NKIROTE,,JBG
PD70KOM4EQ,07/04/2021 21:16,07/04/2021 21:16,Pay Bill from 254729392595 - WINNIE NASICHE KERE Acc. JBF,Completed,8000,,506000,TRUE,Pay Utility,254729392595 - WINNIE NASICHE KERE,,JBF
PD79KMXQ5N,07/04/2021 20:39,07/04/2021 20:39,Pay Bill from 254723499628 - CLINTON JOSEPH MUHARI Acc. hfh,Completed,16000,,498000,TRUE,Pay Utility,254723499628 - CLINTON JOSEPH MUHARI,,hfh
PD78KLELUW,07/04/2021 20:12,07/04/2021 20:12,Pay Bill from 254716328009 - IRENE ODHIAMBO Acc. KGG,Completed,9000,,482000,TRUE,Pay Utility,254716328009 - IRENE ODHIAMBO,,KGG
PD72KKV85I,07/04/2021 20:04,07/04/2021 20:04,Pay Bill from 254724655033 - SUSAN CHIMOTO Acc. KGH,Completed,9500,,473000,TRUE,Pay Utility,254724655033 - SUSAN CHIMOTO,,KGH
PD78KJVQSY,07/04/2021 19:49,07/04/2021 19:49,Pay Bill from 0114052034 - EVANS TIOKO NANGIRO Acc. FBE,Completed,16000,,463500,TRUE,Pay Utility,0114052034 - EVANS TIOKO NANGIRO,,FBE
PD74KBRAXI,07/04/2021 18:04,07/04/2021 18:04,Pay Bill from 254708703539 - SUSAN NDUGIRE NDUGIRE Acc. KDA,Completed,17000,,447500,TRUE,Pay Utility with OD via STK,254708703539 - SUSAN NDUGIRE NDUGIRE,,KDA
PD74KBAA9E,07/04/2021 17:57,07/04/2021 17:57,Pay Bill from 254720496449 - STANLEY KIPKOECH RONO Acc. IGG,Completed,4000,,430500,TRUE,Pay Utility,254720496449 - STANLEY KIPKOECH RONO,,IGG
PD70K6IHTA,07/04/2021 16:37,07/04/2021 16:37,Pay Bill Online from 254724282299 - KEVIN OGUTU Acc. KDG,Completed,10000,,426500,TRUE,Pay Bill Online,254724282299 - KEVIN OGUTU,,KDG
PD74K2ZKHK,07/04/2021 15:29,07/04/2021 15:29,Pay Bill from 254729418279 - LINDA AKEDI Acc. KGK,Completed,46000,,416500,TRUE,Pay Utility,254729418279 - LINDA AKEDI,,KGK
PD74K1RLGY,07/04/2021 15:05,07/04/2021 15:05,Pay Bill from 254725094113 - BRAXTON LUMWAJI Acc. DDC,Completed,18000,,370500,TRUE,Pay Utility with OD via STK,254725094113 - BRAXTON LUMWAJI,,DDC
PD75K0PX7Z,07/04/2021 14:43,07/04/2021 14:43,Pay Bill from 254703550369 - ANASTASIA jepkoech Acc. KAG,Completed,10000,,352500,TRUE,Pay Utility,254703550369 - ANASTASIA jepkoech,,KAG
PD78K0AIDM,07/04/2021 14:34,07/04/2021 14:34,Pay Bill from 254700379039 - MARTIN KIMANI Acc. KBG,Completed,10000,,342500,TRUE,Pay Utility,254700379039 - MARTIN KIMANI,,KBG
PD77JZ3OKV,07/04/2021 14:09,07/04/2021 14:09,Pay Bill Online from 254710382992 - SIMON KAMAU MUIRURI Acc. JCD,Completed,15000,,332500,TRUE,Pay Bill Online,254710382992 - SIMON KAMAU MUIRURI,,JCD
PD76JT2XUI,07/04/2021 12:02,07/04/2021 12:02,Pay Bill Online from 254728687482 - KELSEN MWIRIGI MUTIGA Acc. HCE,Completed,10500,,317500,TRUE,Pay Bill Online,254728687482 - KELSEN MWIRIGI MUTIGA,,HCE
PD78JS2RBG,07/04/2021 11:39,07/04/2021 11:39,Pay Bill from 0796929370 - HALIMA BOYA GALMA Acc. DBC,Completed,20000,,307000,TRUE,Pay Utility with OD via STK,0796929370 - HALIMA BOYA GALMA,,DBC
PD72JS0HCQ,07/04/2021 11:38,07/04/2021 11:38,Pay Bill from 254717909848 - MARY MBULA KATHUKU Acc. FGD,Completed,19000,,287000,TRUE,Pay Utility,254717909848 - MARY MBULA KATHUKU,,FGD
PD77JRUPXN,07/04/2021 11:34,07/04/2021 11:34,Pay Bill from 254722569870 - LUKA KEITANY Acc. jfj,Completed,15000,,268000,TRUE,Pay Utility,254722569870 - LUKA KEITANY,,jfj
PD74JRE6GW,07/04/2021 11:24,07/04/2021 11:24,Pay Bill from 254723510490 - JANET JEBET TANUI Acc. IDG,Completed,8000,,253000,TRUE,Pay Utility,254723510490 - JANET JEBET TANUI,,IDG
PD75JPTXOF,07/04/2021 10:49,07/04/2021 10:49,Pay Bill from 254727648419 - ABDISALAN AHMED Acc. Jbh,Completed,17000,,245000,TRUE,Pay Utility,254727648419 - ABDISALAN AHMED,,Jbh
PD74JL1Q3O,07/04/2021 09:01,07/04/2021 09:01,Pay Bill from 254716581384 - GREGORY KILUNGYA Acc. DAD,Completed,20000,,228000,TRUE,Pay Utility,254716581384 - GREGORY KILUNGYA,,DAD
PD75JKGQ9Z,07/04/2021 08:47,07/04/2021 08:47,FSI to Pay Bill by 714888 - B2C LOOP VIA NCBA Acc. FAD via WEB by B2C LOOP VIA NCBA\Cbainitiator,Completed,11000,,208000,TRUE,FSI to Pay Bill via API,714888 - B2C LOOP VIA NCBA,,FAD
PD74JJO0T8,07/04/2021 08:26,07/04/2021 08:26,Pay Bill from 254702764047 - FERDINAND K Acc. KDB,Completed,16000,,197000,TRUE,Pay Utility,254702764047 - FERDINAND K,,KDB
PD70JITICO,07/04/2021 08:03,07/04/2021 08:03,Pay Bill Online from 254720044312 - ELIUD KIPKURUI Acc. FCF,Completed,17000,,181000,TRUE,Pay Bill Online,254720044312 - ELIUD KIPKURUI,,FCF
PD73JHDR39,07/04/2021 07:11,07/04/2021 07:11,Pay Bill Online from 254711562428 - Lionel Mutune Muoka Acc. KDI,Completed,11000,,164000,TRUE,Pay Bill Online,254711562428 - Lionel Mutune Muoka,,KDI
PD70JGV96E,07/04/2021 06:42,07/04/2021 06:42,Pay Bill from 254708499439 - ROSE NDEDE Acc. HGF,Completed,9000,,153000,TRUE,Pay Utility,254708499439 - ROSE NDEDE,,HGF
PD78JGLHGY,07/04/2021 06:18,07/04/2021 06:18,Pay Bill from 254713205244 - ROBERT OGALO Acc. KBH,Completed,10000,,144000,TRUE,Pay Utility,254713205244 - ROBERT OGALO,,KBH
PD65JETPBR,06/04/2021 22:31,06/04/2021 22:31,Pay Bill from 254705846408 - JAMES OUMA Acc. HBG,Completed,16000,,134000,TRUE,Pay Utility,254705846408 - JAMES OUMA,,HBG
PD66JEB7XC,06/04/2021 22:04,06/04/2021 22:04,Pay Bill from 254706158280 - patience mutheu mbevi Acc. KFC,Completed,10000,,118000,TRUE,Pay Utility with OD via STK,254706158280 - patience mutheu mbevi,,KFC
PD65JDPK9T,06/04/2021 21:42,06/04/2021 21:42,Pay Bill from 254723204250 - RUTH MWAURA Acc. DEA,Completed,17000,,108000,TRUE,Pay Utility,254723204250 - RUTH MWAURA,,DEA
PD64JDLJCA,06/04/2021 21:39,06/04/2021 21:39,Pay Bill from 254722444622 - CHARITY KAGWAINI Acc. FFD,Completed,5500,,91000,TRUE,Pay Utility,254722444622 - CHARITY KAGWAINI,,FFD
PD65JD7N53,06/04/2021 21:27,06/04/2021 21:27,Pay Bill from 0706611474 - KEVIN MAKATO KUNGA Acc. KEG,Completed,10000,,85500,TRUE,Pay Utility,0706611474 - KEVIN MAKATO KUNGA,,KEG
PD66JCETUC,06/04/2021 21:05,06/04/2021 21:05,Pay Bill from 254712187712 - JUDELEEN AHINDUKHA SHILOBELE Acc. IEA,Completed,15000,,75500,TRUE,Pay Utility,254712187712 - JUDELEEN AHINDUKHA SHILOBELE,,IEA
PD60JC1DKU,06/04/2021 20:57,06/04/2021 20:57,Pay Bill from 254728238249 - ESTHER WANGUI KIBUNYI Acc. ICA,Completed,17000,,60500,TRUE,Pay Utility,254728238249 - ESTHER WANGUI KIBUNYI,,ICA
PD69JBQWTH,06/04/2021 20:51,06/04/2021 20:51,Pay Bill from 254729948896 - CAROLINE V MILIZA Acc. Fec,Completed,9000,,43500,TRUE,Pay Utility,254729948896 - CAROLINE V MILIZA,,Fec
PD69JADDJZ,06/04/2021 20:24,06/04/2021 20:24,Pay Bill from 0743248310 - PATRICK STURRIDGE NYONGESA Acc. Kaf,Completed,10000,,34500,TRUE,Pay Utility,0743248310 - PATRICK STURRIDGE NYONGESA,,Kaf
PD67J16AYH,06/04/2021 18:18,06/04/2021 18:18,Pay Bill from 254727300915 - EUNICE NJERI Acc. KFF,Completed,9500,,24500,TRUE,Pay Utility,254727300915 - EUNICE NJERI,,KFF
PD60IZWVYU,06/04/2021 18:00,06/04/2021 18:00,Pay Bill from 0769001671 - Wilson Mutangili Wambua Acc. haf,Completed,9500,,15000,TRUE,Pay Utility,0769001671 - Wilson Mutangili Wambua,,haf
PD66IXMLUW,06/04/2021 17:24,06/04/2021 17:24,Pay Bill from 254722444622 - CHARITY KAGWAINI Acc. FFD,Completed,5500,,5500,TRUE,Pay Utility,254722444622 - CHARITY KAGWAINI,,FFD
PD69IMTPSH,06/04/2021 13:58,06/04/2021 13:58,Utility Account to Organization Settlement Account,Completed,,-932500,0,TRUE,Utility Account to Organization Settlement Account,979524 - ANCIENT WELLS PROPERTY MANAGERS 2,,
PD65IMEH09,06/04/2021 13:49,06/04/2021 13:49,Pay Bill from 254716315144 - PETER MUNYIRI WAROTERE Acc. FBB,Completed,16000,,932500,TRUE,Pay Utility,254716315144 - PETER MUNYIRI WAROTERE,,FBB
PD66IL616E,06/04/2021 13:24,06/04/2021 13:24,Pay Bill from 254717985596 - NICHOLAS KIPKOECH BUTIA Acc. HCF,Completed,9000,,916500,TRUE,Pay Utility,254717985596 - NICHOLAS KIPKOECH BUTIA,,HCF
PD67IKRZD9,06/04/2021 13:15,06/04/2021 13:15,Pay Bill from 254720511734 - ENOCK KIBET Acc. FDC,Completed,9000,,907500,TRUE,Pay Utility,254720511734 - ENOCK KIBET,,FDC
PD61IIM7ND,06/04/2021 12:29,06/04/2021 12:29,Pay Bill from 254701196539 - GICHURI KARANJA Acc. Fee,Completed,16000,,898500,TRUE,Pay Utility,254701196539 - GICHURI KARANJA,,Fee
PD69IID0A5,06/04/2021 12:24,06/04/2021 12:24,Pay Bill from 0757055487 - Pauline Achieng Ochieng Acc. HDC,Completed,10000,,882500,TRUE,Pay Utility,0757055487 - Pauline Achieng Ochieng,,HDC
PD69IH9JIN,06/04/2021 12:00,06/04/2021 12:00,Pay Bill Online from 254723930071 - AMOS KITAVI KIVITE Acc. JCE,Completed,9000,,872500,TRUE,Pay Bill Online,254723930071 - AMOS KITAVI KIVITE,,JCE
PD60IGP4NE,06/04/2021 11:47,06/04/2021 11:47,Pay Bill from 254708225541 - JUDITH NKATHA SIMBA Acc. ICF,Completed,11000,,863500,TRUE,Pay Utility,254708225541 - JUDITH NKATHA SIMBA,,ICF
PD60IFQ9JS,06/04/2021 11:26,06/04/2021 11:26,Pay Bill from 254796292434 - ANTONINA HAYA Acc. HED,Completed,9000,,852500,TRUE,Pay Utility,254796292434 - ANTONINA HAYA,,HED
PD63IFKEHJ,06/04/2021 11:23,06/04/2021 11:23,Pay Bill Online from 254729590734 - PATRICK NDUNGA Acc. IDD,Completed,10000,,843500,TRUE,Pay Bill Online,254729590734 - PATRICK NDUNGA,,IDD
PD60IF4R6A,06/04/2021 11:13,06/04/2021 11:13,Pay Bill from 254716499837 - ASHA MUSA Acc. jfd,Completed,15000,,833500,TRUE,Pay Utility,254716499837 - ASHA MUSA,,jfd
PD61IDM9IB,06/04/2021 10:40,06/04/2021 10:40,Pay Bill Online from 254714037688 - MALCOLM FORUM ODUOR JUMA Acc. JAD,Completed,12000,,818500,TRUE,Pay Bill Online,254714037688 - MALCOLM FORUM ODUOR JUMA,,JAD
PD63ICDJDD,06/04/2021 10:12,06/04/2021 10:12,Pay Bill Online from 0724386624 - FATUMA ISSE YUSSUF Acc. FAB,Completed,16000,,806500,TRUE,Pay Utility with OD Online,0724386624 - FATUMA ISSE YUSSUF,,FAB
PD60IAOWS8,06/04/2021 09:32,06/04/2021 09:32,Pay Bill from 254725771056 - CHARLES MURAGURI Acc. FCE,Completed,15000,,790500,TRUE,Pay Utility,254725771056 - CHARLES MURAGURI,,FCE
PD62I72ZWS,06/04/2021 07:56,06/04/2021 07:56,Pay Bill from 254743775372 - SHIKUNDI PURITY KHAOYA Acc. hcd,Completed,9500,,775500,TRUE,Pay Utility,254743775372 - SHIKUNDI PURITY KHAOYA,,hcd
PD67I5J33T,06/04/2021 06:48,06/04/2021 06:48,Pay Bill from 0757259130 - RASHID SUDI MCHOMBO Acc. JAF,Completed,8000,,766000,TRUE,Pay Utility,0757259130 - RASHID SUDI MCHOMBO,,JAF
PD61I4Z9AZ,06/04/2021 05:36,06/04/2021 05:36,Pay Bill from 254791154655 - ELISHA JURA Acc. IAH,Completed,18000,,758000,TRUE,Pay Utility,254791154655 - ELISHA JURA,,IAH
PD69I4TI6T,06/04/2021 04:28,06/04/2021 04:28,Pay Bill from 254708328466 - VENESSA NYARERU Acc. Kcd,Completed,12000,,740000,TRUE,Pay Utility,254708328466 - VENESSA NYARERU,,Kcd
PD55I47ZCJ,05/04/2021 23:43,05/04/2021 23:43,Pay Bill from 254729355933 - FELISTAH NJERI WAIRIMU Acc. IDI,Completed,15000,,728000,TRUE,Pay Utility,254729355933 - FELISTAH NJERI WAIRIMU,,IDI
PD54I3D438,05/04/2021 22:16,05/04/2021 22:16,Pay Bill Online from 254715002789 - ERICK NGUGI MAINA Acc. HAG,Completed,16000,,713000,TRUE,Pay Bill Online,254715002789 - ERICK NGUGI MAINA,,HAG
PD58I1NXP8,05/04/2021 21:11,05/04/2021 21:11,Pay Bill from 254714814264 - PATRICIA NZOMO Acc. Hcc,Completed,10000,,697000,TRUE,Pay Utility,254714814264 - PATRICIA NZOMO,,Hcc
PD51I1J2UL,05/04/2021 21:08,05/04/2021 21:08,Pay Bill from 254718233980 - KAREN ASWANI Acc. HEC,Completed,10500,,687000,TRUE,Pay Utility,254718233980 - KAREN ASWANI,,HEC
PD58I19N70,05/04/2021 21:00,05/04/2021 21:00,Pay Bill from 254713281251 - ERIC KIAMA Acc. FAA,Completed,16000,,676500,TRUE,Pay Utility,254713281251 - ERIC KIAMA,,FAA
PD58I13IDK,05/04/2021 20:56,05/04/2021 20:56,Pay Bill from 254726928933 - JOSHUA NDUNDA NZIOKA Acc. KCJ,Completed,7500,,660500,TRUE,Pay Utility with OD via STK,254726928933 - JOSHUA NDUNDA NZIOKA,,KCJ
PD53HYEBC5,05/04/2021 20:01,05/04/2021 20:01,Pay Bill from 254797160610 - JAMES MWANIKI Acc. JBI,Completed,20000,,653000,TRUE,Pay Utility,254797160610 - JAMES MWANIKI,,JBI
PD55HY9SWP,05/04/2021 19:59,05/04/2021 19:59,Pay Bill from 254725909984 - TIMOTHY ODHIAMBO OWITI Acc. JDE,Completed,10000,,633000,TRUE,Pay Utility,254725909984 - TIMOTHY ODHIAMBO OWITI,,JDE
PD50HXN2X2,05/04/2021 19:48,05/04/2021 19:48,Pay Bill from 254708619274 - BONIFACE MUTUA Acc. JFB,Completed,14000,,623000,TRUE,Pay Utility,254708619274 - BONIFACE MUTUA,,JFB
PD55HWF7BD,05/04/2021 19:31,05/04/2021 19:31,Pay Bill from 254703681302 - DORRIS MULE Acc. IGD,Completed,9000,,609000,TRUE,Pay Utility,254703681302 - DORRIS MULE,,IGD
PD51HW72GR,05/04/2021 19:27,05/04/2021 19:27,Pay Bill Online from 0757699775 - BENARD MUIA MUTUA Acc. HCB,Completed,16000,,600000,TRUE,Pay Bill Online,0757699775 - BENARD MUIA MUTUA,,HCB
PD55HT7W55,05/04/2021 18:48,05/04/2021 18:48,Pay Bill from 0703236529 - MARGARET WANJIRU WANJOHI Acc. Iae,Completed,8000,,584000,TRUE,Pay Utility,0703236529 - MARGARET WANJIRU WANJOHI,,Iae
PD53HPNASF,05/04/2021 17:53,05/04/2021 17:53,Pay Bill from 254724103759 - RICHARD NKAABO Acc. JEJ,Completed,16000,,576000,TRUE,Pay Utility,254724103759 - RICHARD NKAABO,,JEJ
PD59HN3FD3,05/04/2021 17:07,05/04/2021 17:07,Pay Bill Online from 254728897908 - Teddy Allan Onyango Acc. KCF,Completed,10000,,560000,TRUE,Pay Bill Online,254728897908 - Teddy Allan Onyango,,KCF
PD56HM20I2,05/04/2021 16:48,05/04/2021 16:48,Pay Bill from 254724810512 - BENARDET Ochieng Acc. IEH,Completed,15000,,550000,TRUE,Pay Utility with OD via STK,254724810512 - BENARDET Ochieng,,IEH
PD58HLTHM2,05/04/2021 16:44,05/04/2021 16:44,Pay Bill from 254728670882 - SHARAD EDWARD ADALA OLUM Acc. KCK,Completed,15000,,535000,TRUE,Pay Utility,254728670882 - SHARAD EDWARD ADALA OLUM,,KCK
PD55HIW823,05/04/2021 15:46,05/04/2021 15:46,Pay Bill from 254720351482 - Cheruiyot Langat Brian Acc. dfa,Completed,15000,,520000,TRUE,Pay Utility,254720351482 - Cheruiyot Langat Brian,,dfa
PD58HGIENA,05/04/2021 14:56,05/04/2021 14:56,Pay Bill from 0757426206 - PATRICIAH MBESA KIOKO Acc. KBB,Completed,16000,,505000,TRUE,Pay Utility,0757426206 - PATRICIAH MBESA KIOKO,,KBB
PD57HF8BBF,05/04/2021 14:29,05/04/2021 14:29,Pay Bill from 254700833330 - RITAH NTHAMBI MUTHAMA Acc. KAB,Completed,16000,,489000,TRUE,Pay Utility,254700833330 - RITAH NTHAMBI MUTHAMA,,KAB
PD57H8BDI5,05/04/2021 11:59,05/04/2021 11:59,Pay Bill Online from 254710814215 - JOAN NYAMBURA KAMAU Acc. ifb,Completed,15000,,473000,TRUE,Pay Bill Online,254710814215 - JOAN NYAMBURA KAMAU,,ifb
PD57H7FRW9,05/04/2021 11:40,05/04/2021 11:40,Pay Bill from 254726028330 - JOHN WAMBUA Acc. IFH,Completed,15000,,458000,TRUE,Pay Utility,254726028330 - JOHN WAMBUA,,IFH
PD50H6SH84,05/04/2021 11:25,05/04/2021 11:25,Pay Bill Online from 254726001437 - FESTUS MUNYIRI MAINA Acc. IFF,Completed,10000,,443000,TRUE,Pay Bill Online,254726001437 - FESTUS MUNYIRI MAINA,,IFF
PD50H5BY4E,05/04/2021 10:52,05/04/2021 10:52,Pay Bill from 254728042989 - PATRICK OMONDI Acc. IFI,Completed,15000,,433000,TRUE,Pay Utility with OD via STK,254728042989 - PATRICK OMONDI,,IFI
PD53H54A7P,05/04/2021 10:47,05/04/2021 10:47,Pay Bill from 254719398942 - NORAH WAYUA MUNYAO Acc. KDC,Completed,10000,,418000,TRUE,Pay Utility,254719398942 - NORAH WAYUA MUNYAO,,KDC
PD57H10MMF,05/04/2021 09:08,05/04/2021 09:08,Pay Bill Online from 254722769473 - SAMSON CHALO Acc. IAB,Completed,15000,,408000,TRUE,Pay Bill Online,254722769473 - SAMSON CHALO,,IAB
PD54H0ZE3U,05/04/2021 09:07,05/04/2021 09:07,Pay Bill from 254714578986 - EZEKIEL MULUNGYE Acc. HAC,Completed,10000,,393000,TRUE,Pay Utility,254714578986 - EZEKIEL MULUNGYE,,HAC
PD59GZ8CZ3,05/04/2021 08:18,05/04/2021 08:18,Pay Bill from 254722358654 - TOM MAKORI ONGERI Acc. icc,Completed,9000,,383000,TRUE,Pay Utility,254722358654 - TOM MAKORI ONGERI,,icc
PD58GZ6BYQ,05/04/2021 08:17,05/04/2021 08:17,Pay Bill from 254740579741 - MUHINDI MULINYA Acc. HGG,Completed,15000,,374000,TRUE,Pay Utility,254740579741 - MUHINDI MULINYA,,HGG
PD55GYXY53,05/04/2021 08:09,05/04/2021 08:09,Pay Bill Online from 254717780356 - ALFRED MAIRURA Acc. FAF,Completed,16000,,359000,TRUE,Pay Bill Online,254717780356 - ALFRED MAIRURA,,FAF
PD55GYH495,05/04/2021 07:54,05/04/2021 07:54,Pay Bill from 0724266795 - CAROLINE MUTHONI GICHOHI Acc. fca,Completed,16000,,343000,TRUE,Pay Utility,0724266795 - CAROLINE MUTHONI GICHOHI,,fca
PD44GSHCD8,04/04/2021 20:47,04/04/2021 20:47,Pay Bill from 254703935626 - DAVID NGARI ITA Acc. FCD,Completed,1000,,327000,TRUE,Pay Utility with OD via STK,254703935626 - DAVID NGARI ITA,,FCD
PD43GOZSDH,04/04/2021 19:39,04/04/2021 19:39,Pay Bill from 254796261716 - CHRISTINE WAMBUI Acc. ICH ,Completed,15000,,326000,TRUE,Pay Utility,254796261716 - CHRISTINE WAMBUI,,ICH
PD45GNXTWH,04/04/2021 19:23,04/04/2021 19:23,Pay Bill from 254707370896 - OKECH BRIAN BRIAN Acc. FFA,Completed,15000,,311000,TRUE,Pay Utility,254707370896 - OKECH BRIAN BRIAN,,FFA
PD46GMVVT2,04/04/2021 19:07,04/04/2021 19:07,Pay Bill from 254795023150 - FAITH MORAA SITEMBA Acc. IFC,Completed,8000,,296000,TRUE,Pay Utility,254795023150 - FAITH MORAA SITEMBA,,IFC
PD48GLJ69M,04/04/2021 18:48,04/04/2021 18:48,Pay Bill from 0745378455 - harriet nyanchama nyaberi Acc. FCC,Completed,9000,,288000,TRUE,Pay Utility,0745378455 - harriet nyanchama nyaberi,,FCC
PD45GLAAG7,04/04/2021 18:44,04/04/2021 18:44,Pay Bill Online from 254704682516 - Winnie Akinyi Omollo Acc. FDA,Completed,16000,,279000,TRUE,Pay Bill Online,254704682516 - Winnie Akinyi Omollo,,FDA
PD40GKV7OC,04/04/2021 18:37,04/04/2021 18:37,Pay Bill from 254798524621 - MERCY CHESANG Acc. jcj,Completed,16000,,263000,TRUE,Pay Utility,254798524621 - MERCY CHESANG,,jcj
PD42GK8SAA,04/04/2021 18:27,04/04/2021 18:27,Pay Bill Online from 254725385966 - JOSEPH MUYA MARUA Acc. KEE,Completed,10000,,247000,TRUE,Pay Bill Online,254725385966 - JOSEPH MUYA MARUA,,KEE
PD47GIXQMH,04/04/2021 18:06,04/04/2021 18:06,Pay Bill from 254792187144 - HASSAN AHMED HASSAN Acc. KGI,Completed,10000,,237000,TRUE,Pay Utility,254792187144 - HASSAN AHMED HASSAN,,KGI
PD45GINA1H,04/04/2021 18:01,04/04/2021 18:01,Pay Bill from 254721315975 - JOSEPH NDEGWA Acc. HEB,Completed,16000,,227000,TRUE,Pay Utility,254721315975 - JOSEPH NDEGWA,,HEB
PD45GGZ2AL,04/04/2021 17:31,04/04/2021 17:31,Pay Bill from 254701112397 - ELEMA GODANA DIBA Acc. IAD,Completed,10000,,211000,TRUE,Pay Utility,254701112397 - ELEMA GODANA DIBA,,IAD
PD44GDZWVM,04/04/2021 16:35,04/04/2021 16:35,Pay Bill from 254720868281 - KENNEDY MWELU Acc. KBI,Completed,12500,,201000,TRUE,Pay Utility,254720868281 - KENNEDY MWELU,,KBI
PD40G4PSR0,04/04/2021 13:20,04/04/2021 13:20,Pay Bill Online from 254717809935 - LYDIAH WERU Acc. IDC,Completed,9500,,188500,TRUE,Pay Bill Online,254717809935 - LYDIAH WERU,,IDC
PD46G31YSE,04/04/2021 12:42,04/04/2021 12:42,Pay Bill from 254702346515 - ELIZABETH ACHIENG NGOME Acc. KDE,Completed,10000,,179000,TRUE,Pay Utility,254702346515 - ELIZABETH ACHIENG NGOME,,KDE
PD43G2FEQ5,04/04/2021 12:28,04/04/2021 12:28,Pay Bill from 254729160700 - MICAH NDUNGI Acc. HFE,Completed,10500,,169000,TRUE,Pay Utility,254729160700 - MICAH NDUNGI,,HFE
PD41FX6HBJ,04/04/2021 10:22,04/04/2021 10:22,Pay Bill from 254726593769 - BONFACE BWINA Acc. DEB,Completed,16000,,158500,TRUE,Pay Utility,254726593769 - BONFACE BWINA,,DEB
PD44FWN2C0,04/04/2021 10:09,04/04/2021 10:09,Pay Bill from 254719285750 - LILIAN ACHIENG ODONGO Acc. IGE,Completed,9000,,142500,TRUE,Pay Utility,254719285750 - LILIAN ACHIENG ODONGO,,IGE
PD41FREOKV,04/04/2021 07:42,04/04/2021 07:42,Pay Bill from 254714060203 - PATRICK MWANGOMBE MSAWUCHI Acc. KEI,Completed,12000,,133500,TRUE,Pay Utility,254714060203 - PATRICK MWANGOMBE MSAWUCHI,,KEI
PD47FPIPTF,04/04/2021 01:45,04/04/2021 01:45,Pay Bill from 254718009051 - STEPHEN OMOLLO Acc. JDF,Completed,8000,,121500,TRUE,Pay Utility,254718009051 - STEPHEN OMOLLO,,JDF
PD47FPCH99,04/04/2021 00:44,04/04/2021 00:44,Pay Bill from 254712954563 - JOSEPH MUTISO KILONZO Acc. dac,Completed,20000,,113500,TRUE,Pay Utility,254712954563 - JOSEPH MUTISO KILONZO,,dac
PD37FL89T5,03/04/2021 20:59,03/04/2021 20:59,Pay Bill from 254724865383 - LUCY ODUOL Acc. KFE,Completed,9500,,93500,TRUE,Pay Utility,254724865383 - LUCY ODUOL,,KFE
PD36FK1OFQ,03/04/2021 20:34,03/04/2021 20:34,Pay Bill from 254703935626 - DAVID NGARI ITA Acc. FCD,Completed,1000,,84000,TRUE,Pay Utility with OD via STK,254703935626 - DAVID NGARI ITA,,FCD
PD30FFLGHQ,03/04/2021 19:27,03/04/2021 19:27,Pay Bill from 254798022849 - MARTIN BUNDI RUGENDO Acc. KFH,Completed,10000,,83000,TRUE,Pay Utility,254798022849 - MARTIN BUNDI RUGENDO,,KFH
PD30FFI2YG,03/04/2021 19:26,03/04/2021 19:26,Pay Bill from 254717140158 - Peter Wanjiru Acc. HFB,Completed,15000,,73000,TRUE,Pay Utility,254717140158 - Peter Wanjiru,,HFB
PD36FAI2DS,03/04/2021 18:20,03/04/2021 18:20,Pay Bill from 0792441884 - CORNELIA CONRAD MVULA Acc. IBB,Completed,15000,,58000,TRUE,Pay Utility,0792441884 - CORNELIA CONRAD MVULA,,IBB
PD33F9NON9,03/04/2021 18:07,03/04/2021 18:07,Pay Bill Online from 254715892656 - DENNIS MUSYOKA MUOKI Acc. KFA,Completed,16000,,43000,TRUE,Pay Bill Online,254715892656 - DENNIS MUSYOKA MUOKI,,KFA
PD36F68K2U,03/04/2021 17:11,03/04/2021 17:11,Pay Bill from 254717726012 - WINFRED MUENI PETER Acc. IDA,Completed,16000,,27000,TRUE,Pay Utility with OD via STK,254717726012 - WINFRED MUENI PETER,,IDA
PD32F5FTGW,03/04/2021 16:58,03/04/2021 16:58,Pay Bill from 254720029066 - EVANS CHERUYOT ROTICH Acc. KFI,Completed,11000,,11000,TRUE,Pay Utility,254720029066 - EVANS CHERUYOT ROTICH,,KFI
PD35F1Q6CF,03/04/2021 15:51,03/04/2021 15:51,Utility Account to Organization Settlement Account,Completed,,-206100,0,TRUE,Utility Account to Organization Settlement Account,979524 - ANCIENT WELLS PROPERTY MANAGERS 2,,
PD30F1J82U,03/04/2021 15:47,03/04/2021 15:47,Pay Bill from 254723929380 - RHODAH K WAMBUA Acc. HEF,Completed,9500,,206100,TRUE,Pay Utility,254723929380 - RHODAH K WAMBUA,,HEF
PD34EYWXJ2,03/04/2021 14:59,03/04/2021 14:59,Pay Bill Online from 254704033042 - LESLIE KOIKAI Acc. IBD ,Completed,11000,,196600,TRUE,Pay Bill Online,254704033042 - LESLIE KOIKAI,,IBD
PD31EU7FO1,03/04/2021 13:29,03/04/2021 13:29,Pay Bill from 254700788416 - MERCY KASILI Acc. IFE,Completed,8000,,185600,TRUE,Pay Utility,254700788416 - MERCY KASILI,,IFE
PD34ETVJQA,03/04/2021 13:23,03/04/2021 13:23,Pay Bill from 254714855708 - KIPLANGAT SITIENEI Acc. FAE,Completed,16000,,177600,TRUE,Pay Utility,254714855708 - KIPLANGAT SITIENEI,,FAE
PD38EQBHV4,03/04/2021 12:14,03/04/2021 12:14,Pay Bill from 254769102712 - VALARIA VUTALE AZENGA Acc. KAD,Completed,14000,,161600,TRUE,Pay Utility,254769102712 - VALARIA VUTALE AZENGA,,KAD
PD38EM9F3A,03/04/2021 10:53,03/04/2021 10:53,Pay Bill from 254703528196 - ERIC GITONGA MUGO Acc. KGJ,Completed,15000,,147600,TRUE,Pay Utility with OD via STK,254703528196 - ERIC GITONGA MUGO,,KGJ
PD36EGQOP6,03/04/2021 08:53,03/04/2021 08:53,Pay Bill from 254722564580 - GLENN KISIANG'ANI Acc. DBB,Completed,13500,,132600,TRUE,Pay Utility with OD via STK,254722564580 - GLENN KISIANG'ANI,,DBB
PD36EFXR1Q,03/04/2021 08:33,03/04/2021 08:33,Pay Bill from 254721465713 - RHODA WAMBUI MWANGI Acc. jfh,Completed,17000,,119100,TRUE,Pay Utility,254721465713 - RHODA WAMBUI MWANGI,,jfh
PD29E8YV1L,02/04/2021 21:38,02/04/2021 21:38,Pay Bill from 254708376721 - Millicent Achieng Akuka Acc. KCA,Completed,10600,,102100,TRUE,Pay Utility,254708376721 - Millicent Achieng Akuka,,KCA
PD27E7P65F,02/04/2021 21:03,02/04/2021 21:03,Pay Bill from 254703935626 - DAVID NGARI ITA Acc. FCD,Completed,1000,,91500,TRUE,Pay Utility,254703935626 - DAVID NGARI ITA,,FCD
PD23E73T5F,02/04/2021 20:50,02/04/2021 20:50,Pay Bill from 254703555717 - SENGA SALIM Acc. hbb,Completed,10000,,90500,TRUE,Pay Utility,254703555717 - SENGA SALIM,,hbb
PD24E0MSB4,02/04/2021 19:10,02/04/2021 19:10,Pay Bill from 0115959869 - Mohammed shukri isak Acc. FDF,Completed,4000,,80500,TRUE,Pay Utility,0115959869 - Mohammed shukri isak,,FDF
PD24DZV47O,02/04/2021 19:01,02/04/2021 19:01,Pay Bill from 254716479709 - PAUL MUSYOKI Acc. IEC,Completed,8000,,76500,TRUE,Pay Utility,254716479709 - PAUL MUSYOKI,,IEC
PD24DVG1E4,02/04/2021 18:02,02/04/2021 18:02,Pay Bill Online from 254718299426 - AMOS NGURE MWANGI Acc. HEE,Completed,10500,,68500,TRUE,Pay Bill Online,254718299426 - AMOS NGURE MWANGI,,HEE
PD27DV8E1Z,02/04/2021 17:58,02/04/2021 17:58,Pay Bill from 0797095478 - TABITHA AKINYI OCHIENG Acc. HGD,Completed,9000,,58000,TRUE,Pay Utility with OD via STK,0797095478 - TABITHA AKINYI OCHIENG,,HGD
PD29DULNW5,02/04/2021 17:49,02/04/2021 17:49,Pay Bill from 254700187806 - WINNIE OLIVIA AKOTH Acc. JEC,Completed,10000,,49000,TRUE,Pay Utility,254700187806 - WINNIE OLIVIA AKOTH,,JEC
PD24DNXQH2,02/04/2021 15:54,02/04/2021 15:54,Pay Bill from 254725754547 - MWACHIRO GEORGE DECHE Acc. DFC,Completed,20000,,39000,TRUE,Pay Utility,254725754547 - MWACHIRO GEORGE DECHE,,DFC
PD24DN0WWE,02/04/2021 15:37,02/04/2021 15:37,Pay Bill from 0792933158 - mary wamaitha maina Acc. kdh,Completed,10000,,19000,TRUE,Pay Utility,0792933158 - mary wamaitha maina,,kdh
PD27DHWOJR,02/04/2021 13:59,02/04/2021 13:59,Pay Bill from 254769102712 - VALARIA VUTALE AZENGA Acc. KAD,Completed,9000,,9000,TRUE,Pay Utility with OD via STK,254769102712 - VALARIA VUTALE AZENGA,,KAD
PD24DGDHIW,02/04/2021 13:30,02/04/2021 13:30,Utility Account to Organization Settlement Account,Completed,,-215500,0,TRUE,Utility Account to Organization Settlement Account,979524 - ANCIENT WELLS PROPERTY MANAGERS 2,,
PD22DBR3XA,02/04/2021 11:57,02/04/2021 11:57,Pay Bill from 254702152790 - Michelle Ndunge Kyalo Acc. IDE,Completed,8000,,215500,TRUE,Pay Utility,254702152790 - Michelle Ndunge Kyalo,,IDE
PD22DAHXQI,02/04/2021 11:32,02/04/2021 11:32,Pay Bill Online from 254718911865 - KENNEDY KELI KATUNGII Acc. HDF,Completed,9000,,207500,TRUE,Pay Utility with OD Online,254718911865 - KENNEDY KELI KATUNGII,,HDF
PD25DAFAIT,02/04/2021 11:30,02/04/2021 11:30,Pay Bill from 254728259571 - ANNE KASIVA Acc. ieb,Completed,15000,,198500,TRUE,Pay Utility,254728259571 - ANNE KASIVA,,ieb
PD26D6WUNM,02/04/2021 10:21,02/04/2021 10:21,Pay Bill Online from 254711724272 - EDMOND ONYANGO OKEWE Acc. FCB,Completed,16000,,183500,TRUE,Pay Bill Online,254711724272 - EDMOND ONYANGO OKEWE,,FCB
PD22D2R3JS,02/04/2021 08:49,02/04/2021 08:49,Pay Bill from 254718284151 - EVERLINE MATHEKA Acc. JAG,Completed,9000,,167500,TRUE,Pay Utility,254718284151 - EVERLINE MATHEKA,,JAG
PD27D151I9,02/04/2021 08:09,02/04/2021 08:09,Pay Bill from 0796121714 - janet   mwikali Acc. KEC,Completed,10000,,158500,TRUE,Pay Utility,0796121714 - janet   mwikali,,KEC
PD21D0VFHZ,02/04/2021 08:01,02/04/2021 08:01,Pay Bill from 254708786932 - ZUBEDAH MOHAMMED Acc. IAG,Completed,9500,,148500,TRUE,Pay Utility,254708786932 - ZUBEDAH MOHAMMED,,IAG
PD24D0LLPY,02/04/2021 07:53,02/04/2021 07:53,Pay Bill from 254716702294 - DANIEL MULATI Acc. KBE,Completed,10000,,139000,TRUE,Pay Utility,254716702294 - DANIEL MULATI,,KBE
PD24CYI6U4,02/04/2021 06:01,02/04/2021 06:01,Pay Bill from 254707226192 - NICHOLUS MAINGI MWANTHI Acc. HBF,Completed,9000,,129000,TRUE,Pay Utility,254707226192 - NICHOLUS MAINGI MWANTHI,,HBF
PD20CXQ94G,02/04/2021 00:32,02/04/2021 00:32,Pay Bill from 254710635630 - DONNA JESSICA OWANO Acc. KCC,Completed,10000,,120000,TRUE,Pay Utility,254710635630 - DONNA JESSICA OWANO,,KCC
PD15CQH9TR,01/04/2021 20:02,01/04/2021 20:02,Pay Bill from 254723341864 - WILLIAM OSIEL WACHUDI Acc. DED,Completed,20000,,110000,TRUE,Pay Utility,254723341864 - WILLIAM OSIEL WACHUDI,,DED
PD18CP3MNS,01/04/2021 19:43,01/04/2021 19:43,Pay Bill from 254714552193 - CHRISTOPHER OCHIENG Acc. JGI,Completed,20000,,90000,TRUE,Pay Utility,254714552193 - CHRISTOPHER OCHIENG,,JGI
PD19CHDUG1,01/04/2021 18:02,01/04/2021 18:02,Pay Bill from 254721302658 - JACOB BIRUNDU Acc. DDB,Completed,16000,,70000,TRUE,Pay Utility,254721302658 - JACOB BIRUNDU,,DDB
PD10CEYE9C,01/04/2021 17:23,01/04/2021 17:23,Pay Bill from 254722521028 - CHARLES MONYONCHO Acc. ICB,Completed,17000,,54000,TRUE,Pay Utility,254722521028 - CHARLES MONYONCHO,,ICB
PD10CEWVUG,01/04/2021 17:22,01/04/2021 17:22,Pay Bill from 254727766786 - JOHN MAITHA MULWA Acc. IBH,Completed,20000,,37000,TRUE,Pay Utility,254727766786 - JOHN MAITHA MULWA,,IBH
PD10CC6EFQ,01/04/2021 16:35,01/04/2021 16:35,Pay Bill from 254711123196 - JUDITH MUTUA Acc. FEA,Completed,17000,,17000,TRUE,Pay Utility,254711123196 - JUDITH MUTUA,,FEA
PD17CBFAWR,01/04/2021 16:20,01/04/2021 16:20,Utility Account to Organization Settlement Account,Completed,,-64000,0,TRUE,Utility Account to Organization Settlement Account,979524 - ANCIENT WELLS PROPERTY MANAGERS 2,,
PD15CAUXPZ,01/04/2021 16:09,01/04/2021 16:09,Pay Bill Online from 254795510441 - LEWIS MUEMA Acc. KEB,Completed,16000,,64000,TRUE,Pay Bill Online,254795510441 - LEWIS MUEMA,,KEB
PD15C6QC4Z,01/04/2021 14:47,01/04/2021 14:47,Pay Bill from 254722940643 - HERBERT MAVIAH ISWEKA Acc. HCG,Completed,22000,,48000,TRUE,Pay Utility,254722940643 - HERBERT MAVIAH ISWEKA,,HCG
PD12C5BJJQ,01/04/2021 14:18,01/04/2021 14:18,Pay Bill from 0798660933 - JOSEPH NEWTON GUNI Acc. IAI,Completed,18000,,26000,TRUE,Pay Utility,0798660933 - JOSEPH NEWTON GUNI,,IAI
PD11C432CD,01/04/2021 13:53,01/04/2021 13:53,Pay Bill from 254728854349 - JOSEPH MUSYOKA Acc. IBG,Completed,8000,,8000,TRUE,Pay Utility,254728854349 - JOSEPH MUSYOKA,,IBG
PD13C25013,01/04/2021 13:14,01/04/2021 13:14,Utility Account to Organization Settlement Account,Completed,,-16600,0,TRUE,Utility Account to Organization Settlement Account,979524 - ANCIENT WELLS PROPERTY MANAGERS 2,,
PD12C1HO26,01/04/2021 13:01,01/04/2021 13:01,Pay Bill from 254742911013 - HANEST AMIMO Acc. IEG,Completed,8600,,16600,TRUE,Pay Utility,254742911013 - HANEST AMIMO,,IEG
PD10C0QP20,01/04/2021 12:45,01/04/2021 12:45,Pay Bill from 254703180395 - JANE NYAGUTHII MWAGO Acc. IBE,Completed,8000,,8000,TRUE,Pay Utility,254703180395 - JANE NYAGUTHII MWAGO,,IBE
PD14BSCK12,01/04/2021 09:46,01/04/2021 09:46,Utility Account to Organization Settlement Account,Completed,,-50000,0,TRUE,Utility Account to Organization Settlement Account,979524 - ANCIENT WELLS PROPERTY MANAGERS 2,,
PD19BO1TF9,01/04/2021 08:01,01/04/2021 08:01,Pay Bill from 254716784364 - Wendy Kemunto Nyandiko Acc. FFC,Completed,9000,,50000,TRUE,Pay Utility,254716784364 - Wendy Kemunto Nyandiko,,FFC
