Receipt No.,Completion Time,Initiation Time,Details,Transaction Status,Paid In,Withdrawn,Balance,Balance Confirmed,Reason Type,Other Party Info,Linked Transaction ID,A/C No.
OCJ8V7YGOG,19/03/2020 12:08,19/03/2020 12:08,Pay Bill from 254724795060 - OKUSIMBA ELIZABETH Acc. B7,Completed,5000,,47250,TRUE,Pay Utility,254724795060 - OKUSIMBA ELIZABETH,,B7
OCI0URIAVE,18/03/2020 18:57,18/03/2020 18:57,Pay Bill from 254741791919 - Linet Mongina Maraga Acc. linet,Completed,5450,,42250,TRUE,Pay Utility,254741791919 - Linet Mongina Maraga,,linet
