Receipt No.,Completion Time,Initiation Time,Details,Transaction Status,Paid In,Withdrawn,Balance,Balance Confirmed,Reason Type,Other Party Info,Linked Transaction ID,A/C No.
QFG3UFWR31,16/06/2022 19:23,16/06/2022 19:23,Pay Bill from 254704111133 - ELVIS OTIENO Acc. HFD,Completed,1400,,1400,TRUE,Pay Utility,254704111133 - ELVIS OTIENO,,HFD
QFG6TDALNK,16/06/2022 11:04,16/06/2022 11:04,Utility Account to Organization Settlement Account,Completed,,-1000,0,TRUE,Utility Account to Organization Settlement Account,979524 - ANCIENT WELLS PROPERTY MANAGERS 2,,
QFG5T8XT1P,16/06/2022 09:57,16/06/2022 09:57,Pay Bill Online from 254715764212 - BANCE ISHEMINYE Acc. JFE ,Completed,1000,,1000,TRUE,Pay Bill Online,254715764212 - BANCE ISHEMINYE,,JFE
QFG8T45BIQ,16/06/2022 08:37,16/06/2022 08:37,Utility Account to Organization Settlement Account,Completed,,-206800,0,TRUE,Utility Account to Organization Settlement Account,979524 - ANCIENT WELLS PROPERTY MANAGERS 2,,
QFG7T3TBCN,16/06/2022 08:31,16/06/2022 08:31,Pay Bill from 254720868281 - KENNEDY MWELU Acc. KBI,Completed,12500,,206800,TRUE,Pay Utility,254720868281 - KENNEDY MWELU,,KBI
QFG0T33MIU,16/06/2022 08:18,16/06/2022 08:18,Pay Bill from 254704111133 - ELVIS OTIENO Acc. HFD,Completed,700,,194300,TRUE,Pay Utility,254704111133 - ELVIS OTIENO,,HFD
QFF3SCMXJ9,15/06/2022 18:57,15/06/2022 18:57,Pay Bill from 254722458136 - NADI GOLICHA Acc. JEA,Completed,10000,,193600,TRUE,Pay Utility with OD via STK,254722458136 - NADI GOLICHA,,JEA
QFF0S5JOIG,15/06/2022 17:47,15/06/2022 17:47,Pay Bill from 254719779657 - SAMUEL NJOROGE Acc. JGA,Completed,15000,,183600,TRUE,Pay Utility with OD via STK,254719779657 - SAMUEL NJOROGE,,JGA
QFF6RYFJE2,15/06/2022 16:22,15/06/2022 16:22,Pay Bill from 254713072089 - JEMIMAH PETER Acc. KCA,Completed,16000,,168600,TRUE,Pay Utility,254713072089 - JEMIMAH PETER,,KCA
QFF7RRMKLP,15/06/2022 14:46,15/06/2022 14:46,Pay Bill Online from 254725381062 - VICTOR MAITHYA Acc. HEG,Completed,5000,,152600,TRUE,Pay Utility with OD Online,254725381062 - VICTOR MAITHYA,,HEG
QFF8RHJGFO,15/06/2022 12:22,15/06/2022 12:22,Pay Bill Online from 254726116777 - MARY NDUTA GOSHO Acc. JDB,Completed,15000,,147600,TRUE,Pay Utility with OD Online,254726116777 - MARY NDUTA GOSHO,,JDB
QFF1RGV273,15/06/2022 12:12,15/06/2022 12:12,Pay Bill Online from 254705846408 - JAMES OUMA Acc. HBH,Completed,16000,,132600,TRUE,Pay Bill Online,254705846408 - JAMES OUMA,,HBH
QFF6RFK2BG,15/06/2022 11:52,15/06/2022 11:52,Pay Bill from 254717148989 - ALLAN MUTHONI Acc. HAC,Completed,16000,,116600,TRUE,Pay Utility,254717148989 - ALLAN MUTHONI,,HAC
QFE5QRS6NF,14/06/2022 21:49,14/06/2022 21:49,Pay Bill Online from 254712040302 - EMMANUEL MWARO BARASA Acc. KEA,Completed,16000,,100600,TRUE,Pay Bill Online,254712040302 - EMMANUEL MWARO BARASA,,KEA
QFE8QN4R2G,14/06/2022 20:43,14/06/2022 20:43,Pay Bill from 254704111133 - ELVIS OTIENO Acc. HFD,Completed,1500,,84600,TRUE,Pay Utility,254704111133 - ELVIS OTIENO,,HFD
QFE1QLQZSF,14/06/2022 20:27,14/06/2022 20:27,Pay Bill Online from 254727554512 - COLLINS KOECH Acc. JDJ,Completed,7500,,83100,TRUE,Pay Bill Online,254727554512 - COLLINS KOECH,,JDJ
QFE9PSEGUV,14/06/2022 15:04,14/06/2022 15:04,Pay Bill Online from 254799214498 - EMMILY LWAMBA Acc. DDD,Completed,4100,,75600,TRUE,Pay Bill Online,254799214498 - EMMILY LWAMBA,,DDD
QFE9PJ5B1N,14/06/2022 12:51,14/06/2022 12:51,Pay Bill from 254703555717 - SENGA SALIM Acc. hbb,Completed,5000,,71500,TRUE,Pay Utility,254703555717 - SENGA SALIM,,hbb
QFE5PCO0OZ,14/06/2022 11:12,14/06/2022 11:12,Pay Bill Online from 254718911865 - KENNEDY KELI KATUNGII Acc. HDF,Completed,9000,,66500,TRUE,Pay Bill Online,254718911865 - KENNEDY KELI KATUNGII,,HDF
QFE2PBIGB6,14/06/2022 10:54,14/06/2022 10:54,Pay Bill from 254707715639 - Annastacia Kimeu Acc. JFC,Completed,10000,,57500,TRUE,Pay Utility,254707715639 - Annastacia Kimeu,,JFC
QFE9P8IAOJ,14/06/2022 10:07,14/06/2022 10:07,Pay Bill Online from 0711117122 - Yassir Mwinyi Abdulrazaq Acc. ICE,Completed,3000,,47500,TRUE,Pay Bill Online,0711117122 - Yassir Mwinyi Abdulrazaq,,ICE
QFD6OFA2UK,13/06/2022 19:16,13/06/2022 19:16,Pay Bill from 254722746480 - PATRICK OPEYWA AURA Acc. KGH,Completed,9500,,44500,TRUE,Pay Utility,254722746480 - PATRICK OPEYWA AURA,,KGH
QFD9O9D3B9,13/06/2022 18:21,13/06/2022 18:21,Pay Bill from 254758140048 - ABDULKADIR ABASS DAHIR Acc. KAB,Completed,16000,,35000,TRUE,Pay Utility,254758140048 - ABDULKADIR ABASS DAHIR,,KAB
QFD0NXIYGQ,13/06/2022 15:59,13/06/2022 15:59,Pay Bill from 0722950695 - Joshua Mbithi Kivondo Acc. Dca,Completed,19000,,19000,TRUE,Pay Utility,0722950695 - Joshua Mbithi Kivondo,,Dca
QFD1NN6WE3,13/06/2022 13:30,13/06/2022 13:30,Utility Account to Organization Settlement Account,Completed,,-51000,0,TRUE,Utility Account to Organization Settlement Account,979524 - ANCIENT WELLS PROPERTY MANAGERS 2,,
QFD0NB6MRQ,13/06/2022 10:33,13/06/2022 10:33,Pay Bill from 0715688238 - JOANNAH ATUHAIRE BANTU Acc. jae,Completed,9000,,51000,TRUE,Pay Utility,0715688238 - JOANNAH ATUHAIRE BANTU,,jae
QFD7N9G3B5,13/06/2022 10:06,13/06/2022 10:06,Pay Bill Online from 0769918050 - newton   mutethia Acc. JBG,Completed,10000,,42000,TRUE,Pay Bill Online,0769918050 - newton   mutethia,,JBG
QFC4MTTGPI,12/06/2022 21:56,12/06/2022 21:56,Pay Bill from 254706322764 - GEORGE OUMA OCHOLA Acc. JDF,Completed,8000,,32000,TRUE,Pay Utility with OD via STK,254706322764 - GEORGE OUMA OCHOLA,,JDF
QFC8MGOCL8,12/06/2022 19:10,12/06/2022 19:10,Pay Bill from 254714814264 - PATRICIA NZOMO Acc. Hbg,Completed,16000,,24000,TRUE,Pay Utility with OD via STK,254714814264 - PATRICIA NZOMO,,Hbg
QFC2LWYGD6,12/06/2022 14:56,12/06/2022 14:56,Pay Bill from 254703528196 - ERIC GITONGA MUGO Acc. KGJ,Completed,8000,,8000,TRUE,Pay Utility,254703528196 - ERIC GITONGA MUGO,,KGJ
QFC2LGD6G0,12/06/2022 10:16,12/06/2022 10:16,Utility Account to Organization Settlement Account,Completed,,-51000,0,TRUE,Utility Account to Organization Settlement Account,979524 - ANCIENT WELLS PROPERTY MANAGERS 2,,
QFB0KLDFX8,11/06/2022 19:04,11/06/2022 19:04,Pay Bill Online from 254714552193 - CHRISTOPHER OCHIENG Acc. JGI ,Completed,20000,,51000,TRUE,Pay Bill Online,254714552193 - CHRISTOPHER OCHIENG,,JGI
QFB7K9SKF5,11/06/2022 17:04,11/06/2022 17:04,Pay Bill Online from 254724587401 - RAPHAEL IRUNGU WAIHURA Acc. KGG,Completed,21000,,31000,TRUE,Pay Bill Online,254724587401 - RAPHAEL IRUNGU WAIHURA,,KGG
QFB1K5XQST,11/06/2022 16:15,11/06/2022 16:15,Pay Bill from 0743248310 - PATRICK STURRIDGE NYONGESA Acc. Daa,Completed,10000,,10000,TRUE,Pay Utility,0743248310 - PATRICK STURRIDGE NYONGESA,,Daa
QFB9JVF7NT,11/06/2022 13:51,11/06/2022 13:51,Utility Account to Organization Settlement Account,Completed,,-350250,0,TRUE,Utility Account to Organization Settlement Account,979524 - ANCIENT WELLS PROPERTY MANAGERS 2,,
QFB2JV59US,11/06/2022 13:48,11/06/2022 13:48,Pay Bill Online from 254706549634 - CLINTON OMBASA Acc. FDB,Completed,7000,,350250,TRUE,Pay Utility with OD Online,254706549634 - CLINTON OMBASA,,FDB
QFB6JLL47O,11/06/2022 11:32,11/06/2022 11:32,Pay Bill Online from 0740422187 - KEVIN MAKATO KUNGA Acc. KEG,Completed,10000,,343250,TRUE,Pay Bill Online,0740422187 - KEVIN MAKATO KUNGA,,KEG
QFB3JIOZBB,11/06/2022 10:49,11/06/2022 10:49,Pay Bill from 254726636196 - BETHUEL KEMBOI KURUI Acc. JFD,Completed,15000,,333250,TRUE,Pay Utility,254726636196 - BETHUEL KEMBOI KURUI,,JFD
QFA6J2KHBM,10/06/2022 23:33,10/06/2022 23:33,Pay Bill Online from 254701196539 - GICHURI KARANJA Acc. fee,Completed,16000,,318250,TRUE,Pay Bill Online,254701196539 - GICHURI KARANJA,,fee
QFA2IXGLFE,10/06/2022 21:26,10/06/2022 21:26,Pay Bill from 254716715043 - HANNAH WATETU GACHAGUA Acc. IAI,Completed,15000,,302250,TRUE,Pay Utility,254716715043 - HANNAH WATETU GACHAGUA,,IAI
QFA4IVQ22K,10/06/2022 21:02,10/06/2022 21:02,Pay Bill Online from 254712990240 - GLORY KARIUKI Acc. KAA,Completed,16000,,287250,TRUE,Pay Bill Online,254712990240 - GLORY KARIUKI,,KAA
QFA5IT1XOF,10/06/2022 20:31,10/06/2022 20:31,Pay Bill from 254708499439 - ROSE NDEDE Acc. HGF,Completed,9000,,271250,TRUE,Pay Utility,254708499439 - ROSE NDEDE,,HGF
QFA9IRL071,10/06/2022 20:16,10/06/2022 20:16,Pay Bill Online from 254799371069 - ALPHONCE OCHIENG WAREGA Acc. IEE,Completed,8500,,262250,TRUE,Pay Bill Online,254799371069 - ALPHONCE OCHIENG WAREGA,,IEE
QFA0IRA8D4,10/06/2022 20:13,10/06/2022 20:13,Pay Bill from 254720278119 - LINDAH OGAWO Acc. kfe,Completed,9500,,253750,TRUE,Pay Utility,254720278119 - LINDAH OGAWO,,kfe
QFA1IDVOU5,10/06/2022 18:13,10/06/2022 18:13,Pay Bill from 254724450782 - DENNIS MUSAU Acc. jcb,Completed,10000,,244250,TRUE,Pay Utility,254724450782 - DENNIS MUSAU,,jcb
QFA8ICZJC2,10/06/2022 18:04,10/06/2022 18:04,Pay Bill Online from 254725218904 - SALOME MUTHONI MWANGI Acc. KFJ,Completed,15000,,234250,TRUE,Pay Bill Online,254725218904 - SALOME MUTHONI MWANGI,,KFJ
QFA8IBQQ8E,10/06/2022 17:51,10/06/2022 17:51,Pay Bill from 254723328258 - SAMUEL MAINA MURIUKI Acc. IFE,Completed,8000,,219250,TRUE,Pay Utility,254723328258 - SAMUEL MAINA MURIUKI,,IFE
QFA4IAWDZQ,10/06/2022 17:42,10/06/2022 17:42,Pay Bill from 0743248310 - PATRICK STURRIDGE NYONGESA Acc. Daa,Completed,4500,,211250,TRUE,Pay Utility,0743248310 - PATRICK STURRIDGE NYONGESA,,Daa
QFA4I03EIQ,10/06/2022 15:30,10/06/2022 15:30,Pay Bill from 254724691303 - FREDRICK OTIENO ONEGE Acc. ICH,Completed,20000,,206750,TRUE,Pay Utility,254724691303 - FREDRICK OTIENO ONEGE,,ICH
QFA8HZZ7OA,10/06/2022 15:28,10/06/2022 15:28,Pay Bill from 0757758972 - BETH MUTHONI KASYOKA Acc. DEA,Completed,16000,,186750,TRUE,Pay Utility,0757758972 - BETH MUTHONI KASYOKA,,DEA
QFA5HPN389,10/06/2022 13:06,10/06/2022 13:06,Pay Bill from 254723747228 - MORARA ASANYO Acc. pool,Completed,22000,,170750,TRUE,Pay Utility,254723747228 - MORARA ASANYO,,pool
QFA4HJBR6E,10/06/2022 11:34,10/06/2022 11:34,Pay Bill from 254720814822 - JAMES OTIENO OPAR Acc. Jgj,Completed,1500,,148750,TRUE,Pay Utility,254720814822 - JAMES OTIENO OPAR,,Jgj
QFA0HIPRBM,10/06/2022 11:25,10/06/2022 11:25,Pay Bill from 254706898046 - STACY AKETCH OCHUKA Acc. KGK,Completed,15000,,147250,TRUE,Pay Utility,254706898046 - STACY AKETCH OCHUKA,,KGK
QFA9HHBEOB,10/06/2022 11:04,10/06/2022 11:04,Pay Bill from 0769960650 - DORIS WAMARWA MURIUKI Acc. KEC,Completed,10000,,132250,TRUE,Pay Utility with OD via STK,0769960650 - DORIS WAMARWA MURIUKI,,KEC
QFA8H8TK6I,10/06/2022 08:53,10/06/2022 08:53,Pay Bill from 0700851010 - Njenga    Kuria Acc. kca,Completed,16000,,122250,TRUE,Pay Utility,0700851010 - Njenga    Kuria,,kca
QFA8H1COKO,10/06/2022 03:07,10/06/2022 03:07,Pay Bill from 254703555717 - SENGA SALIM Acc. hbb,Completed,2000,,106250,TRUE,Pay Utility,254703555717 - SENGA SALIM,,hbb
QF90GR6D7G,09/06/2022 20:33,09/06/2022 20:33,Pay Bill from 0722531422 - ANTHONY ITIMU MAINA Acc. JBD,Completed,16000,,104250,TRUE,Pay Utility,0722531422 - ANTHONY ITIMU MAINA,,JBD
QF98GK48BO,09/06/2022 19:25,09/06/2022 19:25,Pay Bill from 254727515326 - HARRISON WACIRA MAINA Acc. HAH,Completed,16000,,88250,TRUE,Pay Utility,254727515326 - HARRISON WACIRA MAINA,,HAH
QF90GEELEG,09/06/2022 18:35,09/06/2022 18:35,Pay Bill Online from 254790627132 - Everline Mutave Kiio Acc. IGG,Completed,8000,,72250,TRUE,Pay Bill Online,254790627132 - Everline Mutave Kiio,,IGG
QF94GCN69I,09/06/2022 18:17,09/06/2022 18:17,Pay Bill from 0705687898 - JORDAN KIPNGETICH THOMAS KIKWAI Acc. KFF,Completed,15250,,64250,TRUE,Pay Utility,0705687898 - JORDAN KIPNGETICH THOMAS KIKWAI,,KFF
QF98G1FY7U,09/06/2022 16:05,09/06/2022 16:05,Pay Bill from 254792601532 - ABDULLAHI ISACK BANTE Acc. Kbf,Completed,19000,,49000,TRUE,Pay Utility,254792601532 - ABDULLAHI ISACK BANTE,,Kbf
QF97FTWWNB,09/06/2022 14:18,09/06/2022 14:18,Pay Bill from 254799287000 - Godfrey odhiambo oyugi Acc. kae,Completed,5000,,30000,TRUE,Pay Utility,254799287000 - Godfrey odhiambo oyugi,,kae
QF92FQ2MBQ,09/06/2022 13:24,09/06/2022 13:24,Pay Bill from 254715591919 - JOHN O OCHIENG Acc. HCC,Completed,10000,,25000,TRUE,Pay Utility,254715591919 - JOHN O OCHIENG,,HCC
QF97FILKIF,09/06/2022 11:35,09/06/2022 11:35,Pay Bill from 254719439717 - Cecilia Omondi Acc. HFC,Completed,9000,,15000,TRUE,Pay Utility,254719439717 - Cecilia Omondi,,HFC
QF90FFWJZO,09/06/2022 10:54,09/06/2022 10:54,Pay Bill Online from 254715764212 - BANCE ISHEMINYE Acc. JFE ,Completed,6000,,6000,TRUE,Pay Bill Online,254715764212 - BANCE ISHEMINYE,,JFE
QF98FCHRGQ,09/06/2022 10:02,09/06/2022 10:02,Utility Account to Organization Settlement Account,Completed,,-718000,0,TRUE,Utility Account to Organization Settlement Account,979524 - ANCIENT WELLS PROPERTY MANAGERS 2,,
QF99FC473X,09/06/2022 09:56,09/06/2022 09:56,Pay Bill from 254722521028 - CHARLES MONYONCHO Acc. ICB,Completed,17000,,718000,TRUE,Pay Utility,254722521028 - CHARLES MONYONCHO,,ICB
QF91FARGEJ,09/06/2022 09:34,09/06/2022 09:34,Pay Bill from 254703555717 - SENGA SALIM Acc. bhh,Completed,3000,,701000,TRUE,Pay Utility,254703555717 - SENGA SALIM,,bhh
QF82ETH3YA,08/06/2022 21:02,08/06/2022 21:02,Pay Bill from 0717441870 - Steven oduor ogutu Acc. KTA,Completed,9500,,698000,TRUE,Pay Utility with OD via STK,0717441870 - Steven oduor ogutu,,KTA
QF88ENUXP8,08/06/2022 19:59,08/06/2022 19:59,Pay Bill Online from 254728897908 - Teddy Allan Onyango Acc. DDD,Completed,15900,,688500,TRUE,Pay Bill Online,254728897908 - Teddy Allan Onyango,,DDD
QF85EM4O0L,08/06/2022 19:41,08/06/2022 19:41,Pay Bill from 254726172957 - VINCENT OLIENG' Acc. HBC,Completed,10000,,672600,TRUE,Pay Utility,254726172957 - VINCENT OLIENG',,HBC
QF87EJYZMX,08/06/2022 19:21,08/06/2022 19:21,Pay Bill from 254729450678 - GRACE NDUNGE Acc. fba,Completed,15000,,662600,TRUE,Pay Utility,254729450678 - GRACE NDUNGE,,fba
QF88EC3V62,08/06/2022 18:09,08/06/2022 18:09,Pay Bill from 254726028330 - JOHN WAMBUA Acc. IFH,Completed,15000,,647600,TRUE,Pay Utility,254726028330 - JOHN WAMBUA,,IFH
QF87E92LQ5,08/06/2022 17:37,08/06/2022 17:37,Pay Bill from 254719779657 - SAMUEL NJOROGE Acc. JGA,Completed,5000,,632600,TRUE,Pay Utility,254719779657 - SAMUEL NJOROGE,,JGA
QF89DX5RH9,08/06/2022 15:03,08/06/2022 15:03,Pay Bill Online from 254704403532 - Mercy Chepchirchir Mary Acc. JBC,Completed,7000,,627600,TRUE,Pay Utility with OD Online,254704403532 - Mercy Chepchirchir Mary,,JBC
QF89DW9VJP,08/06/2022 14:50,08/06/2022 14:50,Pay Bill from 254729541871 - ROBERT KULEI Acc. JAB,Completed,10000,,620600,TRUE,Pay Utility,254729541871 - ROBERT KULEI,,JAB
QF89DEJAM1,08/06/2022 10:35,08/06/2022 10:35,Pay Bill Online from 254716579300 - BRIAN KIPKOECH RONO Acc. HEH,Completed,16000,,610600,TRUE,Pay Bill Online,254716579300 - BRIAN KIPKOECH RONO,,HEH
QF87DE13O7,08/06/2022 10:27,08/06/2022 10:27,Pay Bill Online from 254796720014 - DEBORA KEMUNTO NYAKINA Acc. KAJ,Completed,2100,,594600,TRUE,Pay Bill Online,254796720014 - DEBORA KEMUNTO NYAKINA,,KAJ
QF83DBND53,08/06/2022 09:51,08/06/2022 09:51,Pay Bill Online from 254723930071 - AMOS KITAVI KIVITE Acc. JCE,Completed,9000,,592500,TRUE,Pay Bill Online,254723930071 - AMOS KITAVI KIVITE,,JCE
QF87DBF021,08/06/2022 09:47,08/06/2022 09:47,Pay Bill from 254791419907 - ALEX OMOLO OMONDI Acc. IGE,Completed,9000,,583500,TRUE,Pay Utility with OD via STK,254791419907 - ALEX OMOLO OMONDI,,IGE
QF80D9AX14,08/06/2022 09:13,08/06/2022 09:13,Pay Bill Online from 254710382992 - SIMON KAMAU MUIRURI Acc. JCD,Completed,15000,,574500,TRUE,Pay Bill Online,254710382992 - SIMON KAMAU MUIRURI,,JCD
QF89D8AJNB,08/06/2022 08:56,08/06/2022 08:56,Pay Bill from 254798524621 - MERCY CHESANG Acc. jcj,Completed,16000,,559500,TRUE,Pay Utility,254798524621 - MERCY CHESANG,,jcj
QF82D6ER6Q,08/06/2022 08:23,08/06/2022 08:23,Pay Bill from 254728259571 - ANNE KASIVA Acc. ieb,Completed,15000,,543500,TRUE,Pay Utility with OD via STK,254728259571 - ANNE KASIVA,,ieb
QF86D5IZ7I,08/06/2022 08:07,08/06/2022 08:07,Pay Bill from 254720381965 - JAMES NGUGI MWANIKI Acc. Jbi,Completed,20000,,528500,TRUE,Pay Utility,254720381965 - JAMES NGUGI MWANIKI,,Jbi
QF84D2MOG2,08/06/2022 06:53,08/06/2022 06:53,Pay Bill from 254716581384 - GREGORY KILUNGYA Acc. DAD,Completed,20000,,508500,TRUE,Pay Utility,254716581384 - GREGORY KILUNGYA,,DAD
QF75CZQI4P,07/06/2022 23:41,07/06/2022 23:41,Pay Bill Online from 0700206427 - Clare Nabalisa Mukasa Acc. HFA,Completed,16000,,488500,TRUE,Pay Bill Online,0700206427 - Clare Nabalisa Mukasa,,HFA
QF70CZ2YRU,07/06/2022 23:01,07/06/2022 23:01,Pay Bill Online from 254720451253 - JIMMY KIOGORA NKIROTE Acc. kbd,Completed,2500,,472500,TRUE,Pay Bill Online,254720451253 - JIMMY KIOGORA NKIROTE,,kbd
QF70CYVE68,07/06/2022 22:52,07/06/2022 22:52,Pay Bill Online from 254795534849 - PURITY NJERU Acc. feb,Completed,15000,,470000,TRUE,Pay Utility with OD Online,254795534849 - PURITY NJERU,,feb
QF71CY21UH,07/06/2022 22:24,07/06/2022 22:24,Pay Bill from 254740579741 - MUHINDI MULINYA Acc. HGG,Completed,10000,,455000,TRUE,Pay Utility with OD via STK,254740579741 - MUHINDI MULINYA,,HGG
QF76CVZ50I,07/06/2022 21:38,07/06/2022 21:38,Pay Bill from 254701006375 - EZRA MAKORI SERETI Acc. HTA,Completed,10000,,445000,TRUE,Pay Utility,254701006375 - EZRA MAKORI SERETI,,HTA
QF73CIHBRX,07/06/2022 19:08,07/06/2022 19:08,Pay Bill from 254724103759 - RICHARD NKAABO Acc. jej,Completed,16000,,435000,TRUE,Pay Utility,254724103759 - RICHARD NKAABO,,jej
QF70CBVTVQ,07/06/2022 18:07,07/06/2022 18:07,Pay Bill from 254713205244 - ROBERT OGALO Acc. KBH,Completed,10000,,419000,TRUE,Pay Utility,254713205244 - ROBERT OGALO,,KBH
QF73C67IY1,07/06/2022 17:04,07/06/2022 17:04,Pay Bill Online from 254713966424 - NDUTI MUTHUI Acc. Jed ,Completed,15000,,409000,TRUE,Pay Bill Online,254713966424 - NDUTI MUTHUI,,Jed
QF76C3S4Z4,07/06/2022 16:34,07/06/2022 16:34,Pay Bill Online from 254718772336 - DAVID SERUGO Acc. DCD,Completed,20000,,394000,TRUE,Pay Bill Online,254718772336 - DAVID SERUGO,,DCD
QF78C34KZ4,07/06/2022 16:25,07/06/2022 16:25,Pay Bill Online from 254710146965 - BRENDA DORCAS MABONGA Acc. HFG,Completed,15000,,374000,TRUE,Pay Bill Online,254710146965 - BRENDA DORCAS MABONGA,,HFG
QF70BWD9DW,07/06/2022 14:49,07/06/2022 14:49,Pay Bill Online from 254710814215 - JOAN NYAMBURA KAMAU Acc. ifb,Completed,15000,,359000,TRUE,Pay Bill Online,254710814215 - JOAN NYAMBURA KAMAU,,ifb
QF70BU6ORM,07/06/2022 14:18,07/06/2022 14:18,Pay Bill from 254702764047 - FERDINAND K Acc. KDB,Completed,16000,,344000,TRUE,Pay Utility,254702764047 - FERDINAND K,,KDB
QF71BP0PMD,07/06/2022 13:06,07/06/2022 13:06,Pay Bill from 254722136450 - MARY EVERLYN Acc. JAI,Completed,20000,,328000,TRUE,Pay Utility with OD via STK,254722136450 - MARY EVERLYN,,JAI
QF76BF9QZ0,07/06/2022 10:43,07/06/2022 10:43,Pay Bill from 0769118645 - kennedy kipkurui korir Acc. IGC,Completed,9000,,308000,TRUE,Pay Utility,0769118645 - kennedy kipkurui korir,,IGC
QF72B3UJHW,07/06/2022 07:31,07/06/2022 07:31,Pay Bill Online from 254720787158 - AMOS CHELANG'A Acc. KCG,Completed,10000,,299000,TRUE,Pay Bill Online,254720787158 - AMOS CHELANG'A,,KCG
QF74B0J8E2,07/06/2022 02:15,07/06/2022 02:15,Pay Bill Online from 254720451253 - JIMMY KIOGORA NKIROTE Acc. kbd,Completed,3000,,289000,TRUE,Pay Bill Online,254720451253 - JIMMY KIOGORA NKIROTE,,kbd
QF64AMW44M,06/06/2022 19:53,06/06/2022 19:53,Pay Bill from 0711769778 - PROTASIA BONIPHACE MANOSA Acc. IBB,Completed,15000,,286000,TRUE,Pay Utility,0711769778 - PROTASIA BONIPHACE MANOSA,,IBB
QF62AG7NS8,06/06/2022 18:56,06/06/2022 18:56,Pay Bill from 254724821898 - ALLAN GISONI NYANGARESI Acc. DBA,Completed,16000,,271000,TRUE,Pay Utility,254724821898 - ALLAN GISONI NYANGARESI,,DBA
QF61ADUHBZ,06/06/2022 18:34,06/06/2022 18:34,Pay Bill Online from 254722769473 - SAMSON CHALO Acc. IAB,Completed,15000,,255000,TRUE,Pay Utility with OD Online,254722769473 - SAMSON CHALO,,IAB
QF61AAZ4ZR,06/06/2022 18:06,06/06/2022 18:06,Pay Bill Online from 254715892656 - DENNIS MUSYOKA MUOKI Acc. KFA,Completed,16000,,240000,TRUE,Pay Bill Online,254715892656 - DENNIS MUSYOKA MUOKI,,KFA
QF63A3YZXN,06/06/2022 16:47,06/06/2022 16:47,Pay Bill from 254722927073 - STEPHEN JUMA ABADE Acc. HGD,Completed,20000,,224000,TRUE,Pay Utility,254722927073 - STEPHEN JUMA ABADE,,HGD
QF69A1VJ2V,06/06/2022 16:20,06/06/2022 16:20,Pay Bill from 254713281251 - ERIC KIAMA Acc. JDI,Completed,20000,,204000,TRUE,Pay Utility,254713281251 - ERIC KIAMA,,JDI
QF649XX9FK,06/06/2022 15:26,06/06/2022 15:26,Pay Bill from 254725549603 - ELIZABETH OKELLO Acc. IDC,Completed,9500,,184000,TRUE,Pay Utility with OD via STK,254725549603 - ELIZABETH OKELLO,,IDC
QF619PFSB3,06/06/2022 13:30,06/06/2022 13:30,Pay Bill from 0769714506 - edith      gakii Acc. DDB,Completed,16000,,174500,TRUE,Pay Utility,0769714506 - edith      gakii,,DDB
QF649N1K2Y,06/06/2022 12:57,06/06/2022 12:57,Pay Bill from 254704140048 - MAUREEN GACHERI KINYUA Acc. JDD ,Completed,15000,,158500,TRUE,Pay Utility,254704140048 - MAUREEN GACHERI KINYUA,,JDD
QF679LCK73,06/06/2022 12:34,06/06/2022 12:34,Pay Bill from 254715636579 - GRACE KALUKI MULI Acc. FDA,Completed,16000,,143500,TRUE,Pay Utility,254715636579 - GRACE KALUKI MULI,,FDA
QF609K8KHG,06/06/2022 12:18,06/06/2022 12:18,Pay Bill from 254720814822 - JAMES OTIENO OPAR Acc. Jgj,Completed,4500,,127500,TRUE,Pay Utility,254720814822 - JAMES OTIENO OPAR,,Jgj
QF659HMUNJ,06/06/2022 11:40,06/06/2022 11:40,Pay Bill from 254725754547 - MWACHIRO GEORGE DECHE Acc. DFC,Completed,20000,,123000,TRUE,Pay Utility,254725754547 - MWACHIRO GEORGE DECHE,,DFC
QF639H775N,06/06/2022 11:34,06/06/2022 11:34,Pay Bill Online from 254718138578 - PAULINE KIOKO Acc. KFD,Completed,12000,,103000,TRUE,Pay Bill Online,254718138578 - PAULINE KIOKO,,KFD
QF619CYAU1,06/06/2022 10:32,06/06/2022 10:32,Pay Bill Online from 254704403532 - Mercy Chepchirchir Mary Acc. JBC,Completed,5000,,91000,TRUE,Pay Utility with OD Online,254704403532 - Mercy Chepchirchir Mary,,JBC
QF669CVSX8,06/06/2022 10:31,06/06/2022 10:31,Pay Bill from 254723966777 - BONIFACE MUTHAKA NGANGA Acc. IEC,Completed,9000,,86000,TRUE,Pay Utility,254723966777 - BONIFACE MUTHAKA NGANGA,,IEC
QF609BNI0Y,06/06/2022 10:13,06/06/2022 10:13,Pay Bill Online from 254720620070 - Michelle Mwihaki Ngaruiya Acc. JEB,Completed,15000,,77000,TRUE,Pay Bill Online,254720620070 - Michelle Mwihaki Ngaruiya,,JEB
QF6796LBWD,06/06/2022 08:54,06/06/2022 08:54,Pay Bill from 0791379873 - Joseph Kyalo Sila Acc. JFB,Completed,15000,,62000,TRUE,Pay Utility,0791379873 - Joseph Kyalo Sila,,JFB
QF6496KV12,06/06/2022 08:54,06/06/2022 08:54,Pay Bill from 0716115127 - MOHAMED SHEIKH ABDI Acc. FFE,Completed,15000,,47000,TRUE,Pay Utility,0716115127 - MOHAMED SHEIKH ABDI,,FFE
QF6094RK9Q,06/06/2022 08:23,06/06/2022 08:23,Pay Bill from 254725478531 - KIPKORIR KUTO Acc. DFB,Completed,15000,,32000,TRUE,Pay Utility,254725478531 - KIPKORIR KUTO,,DFB
QF6591FMRB,06/06/2022 07:11,06/06/2022 07:11,Pay Bill from 254728238249 - ESTHER WANGUI KIBUNYI Acc. ICA,Completed,17000,,17000,TRUE,Pay Utility,254728238249 - ESTHER WANGUI KIBUNYI,,ICA
QF65916DWJ,06/06/2022 07:04,06/06/2022 07:04,Utility Account to Organization Settlement Account,Completed,,-824500,0,TRUE,Utility Account to Organization Settlement Account,979524 - ANCIENT WELLS PROPERTY MANAGERS 2,,
QF698Z1ZD7,06/06/2022 03:28,06/06/2022 03:28,Pay Bill from 254700557767 - BAKHITA MWENDE MUANGE Acc. kcb,Completed,16000,,824500,TRUE,Pay Utility,254700557767 - BAKHITA MWENDE MUANGE,,kcb
QF628YC8NW,06/06/2022 00:40,06/06/2022 00:40,Pay Bill from 254703935626 - DAVID NGARI ITA Acc. FCD,Completed,1000,,808500,TRUE,Pay Utility,254703935626 - DAVID NGARI ITA,,FCD
QF558XCRXH,05/06/2022 23:17,05/06/2022 23:17,Pay Bill from 254729355933 - FELISTAH NJERI WAIRIMU Acc. IDI,Completed,15000,,807500,TRUE,Pay Utility with OD via STK,254729355933 - FELISTAH NJERI WAIRIMU,,IDI
QF518W1L81,05/06/2022 22:26,05/06/2022 22:26,Pay Bill from 254724878751 - NAOMI CHEPKOECH Acc. FBD,Completed,11000,,792500,TRUE,Pay Utility,254724878751 - NAOMI CHEPKOECH,,FBD
QF558VV8AR,05/06/2022 22:21,05/06/2022 22:21,Pay Bill from 254729608047 - CAROLINE KALIMI WAMBUA Acc. HAB,Completed,15000,,781500,TRUE,Pay Utility,254729608047 - CAROLINE KALIMI WAMBUA,,HAB
QF508UBVH8,05/06/2022 21:46,05/06/2022 21:46,Pay Bill from 0115702401 - John Kamau Kanyiri Acc. hff,Completed,10000,,766500,TRUE,Pay Utility,0115702401 - John Kamau Kanyiri,,hff
QF558TTNW9,05/06/2022 21:37,05/06/2022 21:37,Pay Bill from 0111788761 - MARIA ZACHARIA JOHN Acc. FAF,Completed,16000,,756500,TRUE,Pay Utility,0111788761 - MARIA ZACHARIA JOHN,,FAF
QF528S96G0,05/06/2022 21:11,05/06/2022 21:11,Pay Bill from 254722889574 - ALLAN MWANGI Acc. jcg,Completed,10000,,740500,TRUE,Pay Utility with OD via STK,254722889574 - ALLAN MWANGI,,jcg
QF508NFHKM,05/06/2022 20:11,05/06/2022 20:11,Pay Bill Online from 254718663397 - JIMMY MUNYAO NZIOKI Acc. DCB,Completed,16000,,730500,TRUE,Pay Bill Online,254718663397 - JIMMY MUNYAO NZIOKI,,DCB
QF538DB8DZ,05/06/2022 18:32,05/06/2022 18:32,Pay Bill Online from 254718233980 - KAREN ASWANI Acc. HEC,Completed,10500,,714500,TRUE,Pay Bill Online,254718233980 - KAREN ASWANI,,HEC
QF588B0O64,05/06/2022 18:06,05/06/2022 18:06,Pay Bill from 254716881682 - JUSTINE FAYUMA OKWEMBA Acc. HAA,Completed,17000,,704000,TRUE,Pay Utility,254716881682 - JUSTINE FAYUMA OKWEMBA,,HAA
QF5489PVHO,05/06/2022 17:50,05/06/2022 17:50,Pay Bill Online from 0757699775 - BENARD MUIA MUTUA Acc. HCB,Completed,16000,,687000,TRUE,Pay Bill Online,0757699775 - BENARD MUIA MUTUA,,HCB
QF518822UL,05/06/2022 17:30,05/06/2022 17:30,Pay Bill Online from 254721465713 - RHODA WAMBUI MWANGI Acc. Jfh,Completed,17000,,671000,TRUE,Pay Bill Online,254721465713 - RHODA WAMBUI MWANGI,,Jfh
QF54872PD4,05/06/2022 17:17,05/06/2022 17:17,Pay Bill from 254712283818 - OYUGI OCHIENG Acc. FCB,Completed,16000,,654000,TRUE,Pay Utility,254712283818 - OYUGI OCHIENG,,FCB
QF5585S6NP,05/06/2022 17:00,05/06/2022 17:00,Pay Bill from 254720814822 - JAMES OTIENO OPAR Acc. Jgj,Completed,7500,,638000,TRUE,Pay Utility with OD via STK,254720814822 - JAMES OTIENO OPAR,,Jgj
QF577XPDR7,05/06/2022 15:07,05/06/2022 15:07,Pay Bill from 254721315975 - JOSEPH NDEGWA Acc. H E B,Completed,16000,,630500,TRUE,Pay Utility,254721315975 - JOSEPH NDEGWA,,H
QF577L8TT3,05/06/2022 11:51,05/06/2022 11:51,Pay Bill from 0724386624 - FATUMA ISSE YUSSUF Acc. FAB,Completed,16000,,614500,TRUE,Pay Utility with OD via STK,0724386624 - FATUMA ISSE YUSSUF,,FAB
QF517KQTSB,05/06/2022 11:43,05/06/2022 11:43,Pay Bill from 254745391294 - Faith Moraa Sitemba Acc. IFC,Completed,8000,,598500,TRUE,Pay Utility,254745391294 - Faith Moraa Sitemba,,IFC
QF577K3QDN,05/06/2022 11:31,05/06/2022 11:31,Pay Bill Online from 254704033042 - LESLIE KOIKAI Acc. IBD,Completed,11000,,590500,TRUE,Pay Bill Online,254704033042 - LESLIE KOIKAI,,IBD
QF517JKKQ9,05/06/2022 11:22,05/06/2022 11:22,Pay Bill Online from 254721974995 - BERNICE MANGOKA Acc. KFK,Completed,16000,,579500,TRUE,Pay Bill Online,254721974995 - BERNICE MANGOKA,,KFK
QF527GJAHI,05/06/2022 10:27,05/06/2022 10:27,Pay Bill Online from 254714536026 - LILIAN AWUOR ONYANGO Acc. HDC,Completed,10500,,563500,TRUE,Pay Bill Online,254714536026 - LILIAN AWUOR ONYANGO,,HDC
QF557EVOU9,05/06/2022 09:59,05/06/2022 09:59,Pay Bill from 0113888957 - BONVENTURE MASINGA MUTINDA Acc. JEH,Completed,16000,,553000,TRUE,Pay Utility,0113888957 - BONVENTURE MASINGA MUTINDA,,JEH
QF537BO4CF,05/06/2022 09:02,05/06/2022 09:02,Pay Bill from 254719398942 - NORAH WAYUA MUNYAO Acc. KDA,Completed,16000,,537000,TRUE,Pay Utility,254719398942 - NORAH WAYUA MUNYAO,,KDA
QF53770WHF,05/06/2022 07:19,05/06/2022 07:19,Pay Bill Online from 254725909984 - TIMOTHY ODHIAMBO OWITI Acc. JDE,Completed,10000,,521000,TRUE,Pay Utility with OD Online,254725909984 - TIMOTHY ODHIAMBO OWITI,,JDE
QF5776OJER,05/06/2022 07:08,05/06/2022 07:08,Pay Bill from 254724852503 - GEOFREY YEGO Acc. JFF,Completed,10000,,511000,TRUE,Pay Utility,254724852503 - GEOFREY YEGO,,JFF
QF5075OZPE,05/06/2022 06:12,05/06/2022 06:12,Pay Bill from 254702216907 - FAITH MUSA Acc. KBE ,Completed,10000,,501000,TRUE,Pay Utility,254702216907 - FAITH MUSA,,KBE
QF5473GO9U,05/06/2022 00:11,05/06/2022 00:11,Pay Bill Online from 0711117122 - Yassir Mwinyi Abdulrazaq Acc. ICE,Completed,5000,,491000,TRUE,Pay Bill Online,0711117122 - Yassir Mwinyi Abdulrazaq,,ICE
QF4071OFGW,04/06/2022 22:48,04/06/2022 22:48,Pay Bill from 254702346515 - ELIZABETH ACHIENG NGOME Acc. KDE,Completed,10000,,486000,TRUE,Pay Utility,254702346515 - ELIZABETH ACHIENG NGOME,,KDE
QF496P5OLX,04/06/2022 19:52,04/06/2022 19:52,Pay Bill Online from 254714563486 - BRIAN MMATA MUSERA Acc. KBJ,Completed,16000,,476000,TRUE,Pay Bill Online,254714563486 - BRIAN MMATA MUSERA,,KBJ
QF496JYPZ5,04/06/2022 19:08,04/06/2022 19:08,Pay Bill from 254708570729 - MARY OGOLLA Acc. KAD,Completed,12000,,460000,TRUE,Pay Utility,254708570729 - MARY OGOLLA,,KAD
QF456DT1DX,04/06/2022 18:10,04/06/2022 18:10,Pay Bill Online from 254715002789 - ERICK NGUGI MAINA Acc. HAG,Completed,16000,,448000,TRUE,Pay Bill Online,254715002789 - ERICK NGUGI MAINA,,HAG
QF426BR37S,04/06/2022 17:48,04/06/2022 17:48,FSI to Pay Bill by 714888 - B2C LOOP VIA NCBA Acc. DCC via WEB by B2C LOOP VIA NCBA\Cbainitiator,Completed,20000,,432000,TRUE,FSI to Pay Bill via API,714888 - B2C LOOP VIA NCBA,,DCC
QF4368K1JT,04/06/2022 17:13,04/06/2022 17:13,Pay Bill from 254700198550 - BENARD ONYANGO Acc. DBB,Completed,16000,,412000,TRUE,Pay Utility,254700198550 - BENARD ONYANGO,,DBB
QF4366TG4R,04/06/2022 16:52,04/06/2022 16:52,Pay Bill from 254740912300 - ADELIDE IMINZA CHAGUSIA Acc. v27,Completed,15000,,396000,TRUE,Pay Utility,254740912300 - ADELIDE IMINZA CHAGUSIA,,v27
QF4563WUQD,04/06/2022 16:15,04/06/2022 16:15,Pay Bill from 254729160700 - MICAH NDUNGI Acc. HFE,Completed,10500,,381000,TRUE,Pay Utility,254729160700 - MICAH NDUNGI,,HFE
QF44604QQ2,04/06/2022 15:24,04/06/2022 15:24,Pay Bill from 0700377656 - GERALD ODHIAMBO OWIYO Acc. KCD,Completed,12000,,370500,TRUE,Pay Utility,0700377656 - GERALD ODHIAMBO OWIYO,,KCD
QF455W2MMH,04/06/2022 14:29,04/06/2022 14:29,Pay Bill Online from 0758506934 - Edgar Maxwel Wanguba Acc. IFG,Completed,8000,,358500,TRUE,Pay Utility with OD Online,0758506934 - Edgar Maxwel Wanguba,,IFG
QF475RQQAD,04/06/2022 13:32,04/06/2022 13:32,Pay Bill from 254717985596 - NICHOLAS KIPKOECH BUTIA Acc. hcf,Completed,9000,,350500,TRUE,Pay Utility,254717985596 - NICHOLAS KIPKOECH BUTIA,,hcf
QF415PSXM3,04/06/2022 13:05,04/06/2022 13:05,Pay Bill from 254714060203 - PATRICK MWANGOMBE MSAWUCHI Acc. KEI,Completed,12000,,341500,TRUE,Pay Utility,254714060203 - PATRICK MWANGOMBE MSAWUCHI,,KEI
QF425O7U1U,04/06/2022 12:43,04/06/2022 12:43,Pay Bill from 254725062550 - FRANKLINE MASSAM Acc. KAF,Completed,10000,,329500,TRUE,Pay Utility,254725062550 - FRANKLINE MASSAM,,KAF
QF495M0OBR,04/06/2022 12:13,04/06/2022 12:13,Pay Bill Online from 254720107609 - DENNIS OGENDI BARAKE Acc. JAJ,Completed,15000,,319500,TRUE,Pay Bill Online,254720107609 - DENNIS OGENDI BARAKE,,JAJ
QF435KDANH,04/06/2022 11:49,04/06/2022 11:49,Pay Bill from 254712954563 - JOSEPH MUTISO KILONZO Acc. DAC ,Completed,20000,,304500,TRUE,Pay Utility,254712954563 - JOSEPH MUTISO KILONZO,,DAC
QF465FKVOG,04/06/2022 10:39,04/06/2022 10:39,Pay Bill Online from 254723411873 - FREDRICK CHERUIYOT Acc. JBF,Completed,8000,,284500,TRUE,Pay Bill Online,254723411873 - FREDRICK CHERUIYOT,,JBF
QF425F7XL6,04/06/2022 10:34,04/06/2022 10:34,Pay Bill from 254729371750 - DERRICK OTANGA Acc. FEF,Completed,17000,,276500,TRUE,Pay Utility with OD via STK,254729371750 - DERRICK OTANGA,,FEF
QF435DYGT1,04/06/2022 10:15,04/06/2022 10:15,Pay Bill from 254724435274 - WINFRED MBINYA MUNUVE Acc. DGC,Completed,39000,,259500,TRUE,Pay Utility,254724435274 - WINFRED MBINYA MUNUVE,,DGC
QF415D6YTJ,04/06/2022 10:04,04/06/2022 10:04,Pay Bill from 254723017892 - JUDY MUTHEU Acc. ICI,Completed,16000,,220500,TRUE,Pay Utility,254723017892 - JUDY MUTHEU,,ICI
QF4258FB9E,04/06/2022 08:48,04/06/2022 08:48,Pay Bill from 254706144834 - WILKISTER OSUMO Acc. HFB,Completed,15000,,204500,TRUE,Pay Utility,254706144834 - WILKISTER OSUMO,,HFB
QF475717RZ,04/06/2022 08:23,04/06/2022 08:23,Pay Bill from 254790382466 - Lorraine Mwangi Acc. KGC,Completed,9000,,189500,TRUE,Pay Utility,254790382466 - Lorraine Mwangi,,KGC
QF4256JUIE,04/06/2022 08:14,04/06/2022 08:14,Pay Bill from 0797758628 - jackline nyamari onyango Acc. ICF,Completed,11000,,180500,TRUE,Pay Utility,0797758628 - jackline nyamari onyango,,ICF
QF4656GC3E,04/06/2022 08:12,04/06/2022 08:12,Pay Bill Online from 254712187712 - JUDELEEN SHILOBELE AHINDUKHA Acc. IEA,Completed,15000,,169500,TRUE,Pay Utility with OD Online,254712187712 - JUDELEEN SHILOBELE AHINDUKHA,,IEA
QF40556DMY,04/06/2022 07:46,04/06/2022 07:46,Pay Bill Online from 254700187806 - WINNIE OLIVIA AKOTH Acc. jec,Completed,10000,,154500,TRUE,Pay Bill Online,254700187806 - WINNIE OLIVIA AKOTH,,jec
QF4352TBZB,04/06/2022 06:30,04/06/2022 06:30,Pay Bill from 254741223822 - Rhoyce Kiptarus Boiyo Acc. FEC,Completed,9000,,144500,TRUE,Pay Utility with OD via STK,254741223822 - Rhoyce Kiptarus Boiyo,,FEC
QF4250BPFQ,04/06/2022 00:04,04/06/2022 00:04,Pay Bill from 254703935626 - DAVID NGARI ITA Acc. FCD,Completed,1000,,135500,TRUE,Pay Utility with OD via STK,254703935626 - DAVID NGARI ITA,,FCD
QF304Y9ZQW,03/06/2022 22:34,03/06/2022 22:34,Pay Bill Online from 254799946039 - LUIS OTIENO Acc. IAE,Completed,8000,,134500,TRUE,Pay Bill Online,254799946039 - LUIS OTIENO,,IAE
QF324XUW7G,03/06/2022 22:22,03/06/2022 22:22,Pay Bill Online from 254714710698 - TABITHA MULEE KYALO Acc. IFD,Completed,11500,,126500,TRUE,Pay Bill Online,254714710698 - TABITHA MULEE KYALO,,IFD
QF334WTJD1,03/06/2022 22:00,03/06/2022 22:00,Pay Bill from 0746934144 - Rosemary Wangui Muiruri Acc. ICD,Completed,9000,,115000,TRUE,Pay Utility,0746934144 - Rosemary Wangui Muiruri,,ICD
QF344CE5L8,03/06/2022 18:24,03/06/2022 18:24,Pay Bill from 254718244582 - GRANT WANANGWE Acc. KAH,Completed,10000,,106000,TRUE,Pay Utility,254718244582 - GRANT WANANGWE,,KAH
QF374ANX1L,03/06/2022 18:07,03/06/2022 18:07,Pay Bill Online from 254715764212 - BANCE ISHEMINYE Acc. JFE ,Completed,3000,,96000,TRUE,Pay Bill Online,254715764212 - BANCE ISHEMINYE,,JFE
QF36487VMY,03/06/2022 17:41,03/06/2022 17:41,Pay Bill Online from 254710202776 - KELVIN KARIMI MACHARIA Acc. FAD,Completed,11000,,93000,TRUE,Pay Bill Online,254710202776 - KELVIN KARIMI MACHARIA,,FAD
QF3846DBZE,03/06/2022 17:20,03/06/2022 17:20,Pay Bill Online from 254714855708 - KIPLANGAT SITIENEI Acc. FAE,Completed,16000,,82000,TRUE,Pay Bill Online,254714855708 - KIPLANGAT SITIENEI,,FAE
QF39443KR1,03/06/2022 16:53,03/06/2022 16:53,Pay Bill Online from 254792584569 - LUCY MWALIMO Acc. IAD,Completed,11000,,66000,TRUE,Pay Bill Online,254792584569 - LUCY MWALIMO,,IAD
QF35443G35,03/06/2022 16:53,03/06/2022 16:53,Pay Bill from 254702152790 - Michelle Ndunge Kyalo Acc. IDE ,Completed,8000,,55000,TRUE,Pay Utility,254702152790 - Michelle Ndunge Kyalo,,IDE
QF323VO0Q8,03/06/2022 15:02,03/06/2022 15:02,Pay Bill Online from 254710381003 - ALFRED KISHOIN Acc. DAB,Completed,32000,,47000,TRUE,Pay Bill Online,254710381003 - ALFRED KISHOIN,,DAB
QF363V5M1E,03/06/2022 14:55,03/06/2022 14:55,Pay Bill from 254728670882 - SHARAD EDWARD ADALA OLUM Acc. KCK,Completed,15000,,15000,TRUE,Pay Utility,254728670882 - SHARAD EDWARD ADALA OLUM,,KCK
QF353OAY4P,03/06/2022 13:20,03/06/2022 13:20,Utility Account to Organization Settlement Account,Completed,,-279400,0,TRUE,Utility Account to Organization Settlement Account,979524 - ANCIENT WELLS PROPERTY MANAGERS 2,,
QF303NMP0W,03/06/2022 13:11,03/06/2022 13:11,Pay Bill Online from 254723370004 - LABAN MAINGI WAMBUA Acc. jef,Completed,4000,,279400,TRUE,Pay Utility with OD Online,254723370004 - LABAN MAINGI WAMBUA,,jef
QF333NLT3T,03/06/2022 13:10,03/06/2022 13:10,Pay Bill from 254723499628 - CLINTON JOSEPH MUHARI Acc. hfh,Completed,16000,,275400,TRUE,Pay Utility,254723499628 - CLINTON JOSEPH MUHARI,,hfh
QF363LDHZM,03/06/2022 12:39,03/06/2022 12:39,Pay Bill Online from 254726001437 - FESTUS MUNYIRI MAINA Acc. IFF,Completed,10000,,259400,TRUE,Pay Bill Online,254726001437 - FESTUS MUNYIRI MAINA,,IFF
QF323ESNQI,03/06/2022 11:02,03/06/2022 11:02,Pay Bill from 0706563358 - HARRIET NYANCHAMA NYABERI Acc. FCC,Completed,9000,,249400,TRUE,Pay Utility,0706563358 - HARRIET NYANCHAMA NYABERI,,FCC
QF38391XQ6,03/06/2022 09:35,03/06/2022 09:35,Pay Bill from 254796069018 - PEACE KIMEU Acc. JAH,Completed,17000,,240400,TRUE,Pay Utility,254796069018 - PEACE KIMEU,,JAH
QF3435RRCA,03/06/2022 08:41,03/06/2022 08:41,Pay Bill from 254728854349 - JOSEPH MUSYOKA Acc. IBG,Completed,8000,,223400,TRUE,Pay Utility with OD via STK,254728854349 - JOSEPH MUSYOKA,,IBG
QF34347ZC8,03/06/2022 08:13,03/06/2022 08:13,Pay Bill Online from 254721417560 - ANDREW SANDE Acc. JBJ,Completed,16000,,215400,TRUE,Pay Bill Online,254721417560 - ANDREW SANDE,,JBJ
QF3532P5M3,03/06/2022 07:42,03/06/2022 07:42,Pay Bill from 254704934557 - BAKARI KITSAKA Acc. HDG,Completed,15500,,199400,TRUE,Pay Utility,254704934557 - BAKARI KITSAKA,,HDG
QF382YQ4JI,03/06/2022 01:20,03/06/2022 01:20,Pay Bill from 254702355678 - JOHN NJOROGE GICHERU Acc. ITE,Completed,10000,,183900,TRUE,Pay Utility,254702355678 - JOHN NJOROGE GICHERU,,ITE
QF242XHE8A,02/06/2022 23:13,02/06/2022 23:13,Pay Bill from 254720375006 - JACOB KANGOGO Acc. IBA,Completed,15000,,173900,TRUE,Pay Utility,254720375006 - JACOB KANGOGO,,IBA
QF202VEJ7M,02/06/2022 22:05,02/06/2022 22:05,Pay Bill from 254723488259 - WILSON OKITE OKITE Acc. HCA,Completed,15000,,158900,TRUE,Pay Utility with OD via STK,254723488259 - WILSON OKITE OKITE,,HCA
QF272ROES7,02/06/2022 21:03,02/06/2022 21:03,Pay Bill from 0115702401 - John Kamau Kanyiri Acc. HFF,Completed,400,,143900,TRUE,Pay Utility,0115702401 - John Kamau Kanyiri,,HFF
QF272QB09J,02/06/2022 20:46,02/06/2022 20:46,Pay Bill from 254724477912 - SAMUEL MURIMI Acc. HCD,Completed,10000,,143500,TRUE,Pay Utility with OD via STK,254724477912 - SAMUEL MURIMI,,HCD
QF242PQSP8,02/06/2022 20:39,02/06/2022 20:39,Pay Bill Online from 254728093389 - MOHAMED MUSA ALASOW Acc. KED ,Completed,12000,,133500,TRUE,Pay Bill Online,254728093389 - MOHAMED MUSA ALASOW,,KED
QF272NJCTR,02/06/2022 20:15,02/06/2022 20:15,Pay Bill Online from 254722728975 - CURTIS MRIGA OMIDO Acc. IAH,Completed,16000,,121500,TRUE,Pay Bill Online,254722728975 - CURTIS MRIGA OMIDO,,IAH
QF292A0WRD,02/06/2022 18:11,02/06/2022 18:11,Pay Bill from 254720550403 - GRACE WANGONDU Acc. JFI,Completed,20000,,105500,TRUE,Pay Utility,254720550403 - GRACE WANGONDU,,JFI
QF2129XR9L,02/06/2022 18:10,02/06/2022 18:10,Pay Bill from 254721302658 - JACOB BIRUNDU Acc. HDE,Completed,10000,,85500,TRUE,Pay Utility,254721302658 - JACOB BIRUNDU,,HDE
QF27298T4Z,02/06/2022 18:03,02/06/2022 18:03,Pay Bill from 254721780448 - EVERLYNE MIDEVA CHOGO Acc. jca,Completed,20000,,75500,TRUE,Pay Utility,254721780448 - EVERLYNE MIDEVA CHOGO,,jca
QF26276U8S,02/06/2022 17:40,02/06/2022 17:40,Pay Bill from 254715742045 - FRIDAH KIEMA Acc. HGC,Completed,9500,,55500,TRUE,Pay Utility,254715742045 - FRIDAH KIEMA,,HGC
QF251P5NB5,02/06/2022 13:33,02/06/2022 13:33,Pay Bill Online from 254708300413 - ROBINSON AYAKO Acc. KEH,Completed,10000,,46000,TRUE,Pay Bill Online,254708300413 - ROBINSON AYAKO,,KEH
QF241OT25I,02/06/2022 13:29,02/06/2022 13:29,Pay Bill from 254719499823 - MOSES MWANZIA MUTHIANI Acc. Jcc,Completed,10000,,36000,TRUE,Pay Utility with OD via STK,254719499823 - MOSES MWANZIA MUTHIANI,,Jcc
QF241NCS0K,02/06/2022 13:08,02/06/2022 13:08,Pay Bill Online from 254723901777 - EVANS YEBEI Acc. KCH,Completed,10000,,26000,TRUE,Pay Utility with OD Online,254723901777 - EVANS YEBEI,,KCH
QF251J4I4T,02/06/2022 12:07,02/06/2022 12:07,Pay Bill Online from 254795510441 - LEWIS MUEMA Acc. KEB,Completed,16000,,16000,TRUE,Pay Bill Online,254795510441 - LEWIS MUEMA,,KEB
QF2016P6KM,02/06/2022 08:53,02/06/2022 08:53,Utility Account to Organization Settlement Account,Completed,,-312650,0,TRUE,Utility Account to Organization Settlement Account,979524 - ANCIENT WELLS PROPERTY MANAGERS 2,,
QF2014QRL6,02/06/2022 08:18,02/06/2022 08:18,Pay Bill Online from 254706549634 - CLINTON OMBASA Acc. FDB,Completed,10000,,312650,TRUE,Pay Utility with OD Online,254706549634 - CLINTON OMBASA,,FDB
QF19ZPHOIP,01/06/2022 20:32,01/06/2022 20:32,Pay Bill Online from 254724882554 - ALPHONCE WAMBUA NGELI Acc. JDA,Completed,20000,,302650,TRUE,Pay Bill Online,254724882554 - ALPHONCE WAMBUA NGELI,,JDA
QF15ZNRN9X,01/06/2022 20:13,01/06/2022 20:13,Pay Bill from 0746622973 - SPOTT   THILO Acc. IGD,Completed,10000,,282650,TRUE,Pay Utility,0746622973 - SPOTT   THILO,,IGD
QF18ZKNT10,01/06/2022 19:42,01/06/2022 19:42,Pay Bill from 254717801919 - MARCELINE AKINYI Acc. IAF,Completed,10000,,272650,TRUE,Pay Utility,254717801919 - MARCELINE AKINYI,,IAF
QF15ZEVM6H,01/06/2022 18:50,01/06/2022 18:50,Pay Bill Online from 254742911013 - HANEST AMIMO Acc. IEG,Completed,8000,,262650,TRUE,Pay Utility with OD Online,254742911013 - HANEST AMIMO,,IEG
QF11ZBB4PF,01/06/2022 18:14,01/06/2022 18:14,Pay Bill Online from 254745661722 - MUHAMEDMALIK GAAL Acc. DEC,Completed,7500,,254650,TRUE,Pay Bill Online,254745661722 - MUHAMEDMALIK GAAL,,DEC
QF16Z84JSM,01/06/2022 17:38,01/06/2022 17:38,Pay Bill Online from 254719134037 - KELVIN KITOO Acc. FAA,Completed,16000,,247150,TRUE,Pay Utility with OD Online,254719134037 - KELVIN KITOO,,FAA
QF10Z5CTOK,01/06/2022 17:05,01/06/2022 17:05,Pay Bill from 254717726012 - WINFRED MUENI PETER Acc. IDA,Completed,16000,,231150,TRUE,Pay Utility,254717726012 - WINFRED MUENI PETER,,IDA
QF19Z5283L,01/06/2022 17:01,01/06/2022 17:01,Pay Bill Online from 254706158280 - patience mutheu mbevi Acc. KFC,Completed,10000,,215150,TRUE,Pay Bill Online,254706158280 - patience mutheu mbevi,,KFC
QF16Z1UH62,01/06/2022 16:18,01/06/2022 16:18,Pay Bill Online from 254717809935 - LYDIAH WERU Acc. IEF,Completed,11000,,205150,TRUE,Pay Bill Online,254717809935 - LYDIAH WERU,,IEF
QF18YXRXYC,01/06/2022 15:21,01/06/2022 15:21,Pay Bill from 254704934557 - BAKARI KITSAKA Acc. HDG,Completed,1000,,194150,TRUE,Pay Utility with OD via STK,254704934557 - BAKARI KITSAKA,,HDG
QF14YQCV9C,01/06/2022 13:35,01/06/2022 13:35,Pay Bill from 254720029066 - EVANS CHERUYOT ROTICH Acc. kfi,Completed,650,,193150,TRUE,Pay Utility,254720029066 - EVANS CHERUYOT ROTICH,,kfi
QF11YO8E0L,01/06/2022 13:05,01/06/2022 13:05,Pay Bill Online from 254745661722 - MUHAMEDMALIK GAAL Acc. DEC,Completed,8500,,192500,TRUE,Pay Bill Online,254745661722 - MUHAMEDMALIK GAAL,,DEC
QF17YMXGLV,01/06/2022 12:45,01/06/2022 12:45,Pay Bill from 254728084427 - MARY NABWIRE OKELLO Acc. FDF,Completed,16000,,184000,TRUE,Pay Utility,254728084427 - MARY NABWIRE OKELLO,,FDF
QF10YJEG66,01/06/2022 11:53,01/06/2022 11:53,Pay Bill from 0726465363 - ISAAC KITONGA JOSEPH Acc. IDG,Completed,10000,,168000,TRUE,Pay Utility,0726465363 - ISAAC KITONGA JOSEPH,,IDG
QF15YDKAAX,01/06/2022 10:24,01/06/2022 10:24,Pay Bill Online from 0796121714 - janet   mwikali Acc. KBC,Completed,10000,,158000,TRUE,Pay Bill Online,0796121714 - janet   mwikali,,KBC
QF13YBBRHX,01/06/2022 09:49,01/06/2022 09:49,Pay Bill from 254798643998 - Judith Mwaniki Acc. kce,Completed,10000,,148000,TRUE,Pay Utility,254798643998 - Judith Mwaniki,,kce
QF15Y815Q1,01/06/2022 08:56,01/06/2022 08:56,Pay Bill from 0717216114 - Felix Njeru Mugambi Acc. kdf,Completed,10000,,138000,TRUE,Pay Utility,0717216114 - Felix Njeru Mugambi,,kdf
QF17Y6LH9F,01/06/2022 08:30,01/06/2022 08:30,Pay Bill from 254719747910 - KEVIN NDERITU GAKINGO Acc. iDD,Completed,11000,,128000,TRUE,Pay Utility,254719747910 - KEVIN NDERITU GAKINGO,,iDD
QF19Y2B4QR,01/06/2022 06:34,01/06/2022 06:34,Pay Bill from 254716702294 - DANIEL MULATI Acc. KBB,Completed,16000,,117000,TRUE,Pay Utility,254716702294 - DANIEL MULATI,,KBB
QF13Y05XZB,01/06/2022 01:23,01/06/2022 01:23,Pay Bill from 254703935626 - DAVID NGARI ITA Acc. FCD,Completed,1000,,101000,TRUE,Pay Utility,254703935626 - DAVID NGARI ITA,,FCD
QF17XZRNBD,01/06/2022 00:41,01/06/2022 00:41,Pay Bill from 0748059595 - Rashid NASSIR Khamis Acc. DDA,Completed,15000,,100000,TRUE,Pay Utility,0748059595 - Rashid NASSIR Khamis,,DDA
