Receipt No.,Completion Time,Initiation Time,Details,Transaction Status,Paid In,Withdrawn,Balance,Balance Confirmed,Reason Type,Other Party Info,Linked Transaction ID,A/C No.
QJR2ON98D0,27/10/2022 09:57,27/10/2022 09:57,Pay Bill Online from 0791158325 - WHELDON MARK MASONGO GORI Acc. JAD,Completed,15000,,15000,TRUE,Pay Bill Online,0791158325 - WHELDON MARK MASONGO GORI,,JAD
QJR4OKH5YE,27/10/2022 09:17,27/10/2022 09:17,Utility Account to Organization Settlement Account,Completed,,-94990,0,TRUE,Utility Account to Organization Settlement Account,979524 - ANCIENT WELLS PROPERTY MANAGERS 2,,
QJQ1O8ATJB,26/10/2022 23:27,26/10/2022 23:27,Pay Bill from 254720496449 - STANLEY KIPKOECH RONO Acc. FBE,Completed,7000,,94990,TRUE,Pay Utility,254720496449 - STANLEY KIPKOECH RONO,,FBE
QJQ1O89E97,26/10/2022 23:25,26/10/2022 23:25,Pay Bill Online from 254725248080 - DENNIS KIPROTICH Acc. HDH,Completed,16000,,87990,TRUE,Pay Bill Online,254725248080 - DENNIS KIPROTICH,,HDH
QJQ3O0X7XB,26/10/2022 20:58,26/10/2022 20:58,Pay Bill Online from 0722950695 - Joshua Mbithi Kivondo Acc. dca,Completed,8000,,71990,TRUE,Pay Bill Online,0722950695 - Joshua Mbithi Kivondo,,dca
QJQ0NDKJ1O,26/10/2022 17:40,26/10/2022 17:40,Pay Bill Online from 254724211857 - OCHUODHO OUMA Acc. KBK,Completed,17000,,63990,TRUE,Pay Bill Online,254724211857 - OCHUODHO OUMA,,KBK
QJQ9N7CAFH,26/10/2022 16:33,26/10/2022 16:33,Pay Bill Online from 254704403532 - Mercy Chepchirchir Mary Acc. JBC ,Completed,4000,,46990,TRUE,Pay Bill Online,254704403532 - Mercy Chepchirchir Mary,,JBC
QJQ7MQYRC1,26/10/2022 13:02,26/10/2022 13:02,Pay Bill Online from 254717463608 - DANIEL MUNIU MUGURE Acc. HGE,Completed,10000,,42990,TRUE,Pay Bill Online,254717463608 - DANIEL MUNIU MUGURE,,HGE
QJQ0MMQI1G,26/10/2022 12:05,26/10/2022 12:05,Pay Bill from 254704111133 - ELVIS OTIENO Acc. HFD,Completed,990,,32990,TRUE,Pay Utility,254704111133 - ELVIS OTIENO,,HFD
QJQ0MM080I,26/10/2022 11:55,26/10/2022 11:55,Pay Bill Online from 254710381003 - ALFRED KISHOIN Acc. DAC,Completed,15000,,32000,TRUE,Pay Bill Online,254710381003 - ALFRED KISHOIN,,DAC
QJQ6MKZY6O,26/10/2022 11:41,26/10/2022 11:41,Pay Bill Online from 254715764212 - BANCE ISHEMINYE Acc. JFE ,Completed,1000,,17000,TRUE,Pay Bill Online,254715764212 - BANCE ISHEMINYE,,JFE
QJQ6M99T7K,26/10/2022 08:53,26/10/2022 08:53,Pay Bill from 254728888511 - HAMISI MIRITI Acc. KAK,Completed,16000,,16000,TRUE,Pay Utility,254728888511 - HAMISI MIRITI,,KAK
QJQ5M7KEQ1,26/10/2022 08:26,26/10/2022 08:26,Utility Account to Organization Settlement Account,Completed,,-76000,0,TRUE,Utility Account to Organization Settlement Account,979524 - ANCIENT WELLS PROPERTY MANAGERS 2,,
QJP8LTTESM,25/10/2022 21:26,25/10/2022 21:26,Pay Bill from 0758591833 - DORCUS MBULA PETER Acc. HDD,Completed,9000,,76000,TRUE,Pay Utility with OD via STK,0758591833 - DORCUS MBULA PETER,,HDD
QJP7LPGQSL,25/10/2022 20:35,25/10/2022 20:35,Pay Bill from 0721130307 - HILLARY NGUNYI MUTINDA Acc. JCH,Completed,16000,,67000,TRUE,Pay Utility,0721130307 - HILLARY NGUNYI MUTINDA,,JCH
QJP8L3S37G,25/10/2022 17:33,25/10/2022 17:33,Pay Bill from 0717216114 - Felix Njeru Mugambi Acc. kcj,Completed,26500,,51000,TRUE,Pay Utility,0717216114 - Felix Njeru Mugambi,,kcj
QJP1KYUEN5,25/10/2022 16:37,25/10/2022 16:37,Pay Bill from 254722572104 - ERICK MURABULA Acc. HAE,Completed,5000,,24500,TRUE,Pay Utility,254722572104 - ERICK MURABULA,,HAE
QJP0KVXMGI,25/10/2022 16:00,25/10/2022 16:00,Pay Bill from 254703528196 - ERIC GITONGA MUGO Acc. KGJ,Completed,7500,,19500,TRUE,Pay Utility,254703528196 - ERIC GITONGA MUGO,,KGJ
QJP0KTE86S,25/10/2022 15:26,25/10/2022 15:26,Pay Bill from 0743789968 - Dallias Thanare Githara Acc. hbb,Completed,2000,,12000,TRUE,Pay Utility,0743789968 - Dallias Thanare Githara,,hbb
QJP4KT6X92,25/10/2022 15:23,25/10/2022 15:23,Pay Bill Online from 254704403532 - Mercy Chepchirchir Mary Acc. JBC,Completed,10000,,10000,TRUE,Pay Bill Online,254704403532 - Mercy Chepchirchir Mary,,JBC
QJP5KDNEX7,25/10/2022 11:55,25/10/2022 11:55,Utility Account to Organization Settlement Account,Completed,,-23500,0,TRUE,Utility Account to Organization Settlement Account,979524 - ANCIENT WELLS PROPERTY MANAGERS 2,,
QJP6K3Y69O,25/10/2022 09:40,25/10/2022 09:40,Pay Bill Online from 254718253322 - DUNCAN MOCHOGE Acc. JFJ,Completed,15000,,23500,TRUE,Pay Bill Online,254718253322 - DUNCAN MOCHOGE,,JFJ
QJP9K1FSEL,25/10/2022 09:03,25/10/2022 09:03,Pay Bill from 254713662892 - DAVID JUMA KIPTOCH Acc. JBE,Completed,8500,,8500,TRUE,Pay Utility,254713662892 - DAVID JUMA KIPTOCH,,JBE
QJP8JYE8EO,25/10/2022 08:15,25/10/2022 08:15,Utility Account to Organization Settlement Account,Completed,,-64000,0,TRUE,Utility Account to Organization Settlement Account,979524 - ANCIENT WELLS PROPERTY MANAGERS 2,,
QJO4IRUNUQ,24/10/2022 16:44,24/10/2022 16:44,Pay Bill Online from 254720044312 - ELIUD KIPKURUI Acc. FCF,Completed,17000,,64000,TRUE,Pay Bill Online,254720044312 - ELIUD KIPKURUI,,FCF
QJO4IQEJX4,24/10/2022 16:26,24/10/2022 16:26,Pay Bill from 254725111246 - FRANCIS MUUTU MWANGANGI Acc. IGI,Completed,15000,,47000,TRUE,Pay Utility,254725111246 - FRANCIS MUUTU MWANGANGI,,IGI
QJO1IHOGW9,24/10/2022 14:29,24/10/2022 14:29,Pay Bill from 254726599835 - LAWRENCE MURIITHI Acc. KDJ,Completed,16000,,32000,TRUE,Pay Utility,254726599835 - LAWRENCE MURIITHI,,KDJ
QJO5IB5LH3,24/10/2022 13:05,24/10/2022 13:05,Pay Bill Online from 254701683737 - MICHAEL NGUGI Acc. HDB,Completed,16000,,16000,TRUE,Pay Bill Online,254701683737 - MICHAEL NGUGI,,HDB
QJO7HU8G7J,24/10/2022 09:13,24/10/2022 09:13,Utility Account to Organization Settlement Account,Completed,,-92500,0,TRUE,Utility Account to Organization Settlement Account,979524 - ANCIENT WELLS PROPERTY MANAGERS 2,,
QJO1HTZWTT,24/10/2022 09:09,24/10/2022 09:09,Pay Bill Online from 254716579300 - BRIAN KIPKOECH RONO Acc. HEH,Completed,16000,,92500,TRUE,Pay Bill Online,254716579300 - BRIAN KIPKOECH RONO,,HEH
QJO1HP3439,24/10/2022 07:50,24/10/2022 07:50,Pay Bill from 254726928933 - JOSHUA NDUNDA NZIOKA Acc. KAJ,Completed,7000,,76500,TRUE,Pay Utility with OD via STK,254726928933 - JOSHUA NDUNDA NZIOKA,,KAJ
QJO8HN1JMQ,24/10/2022 07:07,24/10/2022 07:07,Pay Bill Online from 254725381062 - VICTOR MAITHYA Acc. HEG,Completed,3000,,69500,TRUE,Pay Bill Online,254725381062 - VICTOR MAITHYA,,HEG
