Receipt No.,Completion Time,Initiation Time,Details,Transaction Status,Paid In,Withdrawn,Balance,Balance Confirmed,Reason Type,Other Party Info,Linked Transaction ID,A/C No.
OFB3VCE83P,11/06/2020 23:10,11/06/2020 23:10,Pay Bill from 254721510646 - ANTHONY IRUNGU KARIUKI Acc. v41,Completed,800,,1600,TRUE,Pay Utility,254721510646 - ANTHONY IRUNGU KARIUKI,,v41
OFB2V93ZGS,11/06/2020 20:17,11/06/2020 20:17,Pay Bill from 254714710698 - TABITHA MULEE KYALO Acc. IFE,Completed,200,,800,TRUE,Pay Utility,254714710698 - TABITHA MULEE KYALO,,IFE
OFB6UM6NKU,11/06/2020 09:59,11/06/2020 09:59,Pay Bill from 254723538366 - VERONICAH SHIYENJI Acc. V40,Completed,600,,600,TRUE,Pay Utility,254723538366 - VERONICAH SHIYENJI,,V40
OFB9UKDNPN,11/06/2020 08:55,11/06/2020 08:55,Utility Account to Organization Settlement Account,Completed,,-3500,0,TRUE,Utility Account to Organization Settlement Account,846783 - ANCIENT WELLS LTD 4,,
OFA8TTKLBS,10/06/2020 11:53,10/06/2020 11:53,Pay Bill from 0715688238 - JOANNAH ATUHAIRE BANTU Acc. JAE,Completed,200,,3500,TRUE,Pay Utility,0715688238 - JOANNAH ATUHAIRE BANTU,,JAE
OFA9TQSVZ5,10/06/2020 10:27,10/06/2020 10:27,Merchant Pay Utility Received from 699873 - Kaing'inyo FC,Completed,200,,3300,TRUE,Merchant Pay Utility via API,699873 - Kaing'inyo FC,,
OF95TBKTPV,09/06/2020 18:09,09/06/2020 18:09,Pay Bill from 254722910078 - MAUREEN MUNYIVA MUTUKU Acc. DBD,Completed,1200,,3100,TRUE,Pay Utility,254722910078 - MAUREEN MUNYIVA MUTUKU,,DBD
OF93T8V59B,09/06/2020 17:11,09/06/2020 17:11,Pay Bill from 254702764047 - FERDINAND K Acc. KDB,Completed,800,,1900,TRUE,Pay Utility,254702764047 - FERDINAND K,,KDB
OF99T0AQ3B,09/06/2020 13:16,09/06/2020 13:16,Pay Bill from 254714818251 - MERCY AKINYI OMONDI Acc. dfb,Completed,600,,1100,TRUE,Pay Utility,254714818251 - MERCY AKINYI OMONDI,,dfb
OF92T02W7C,09/06/2020 13:10,09/06/2020 13:10,Pay Bill from 254720041583 - KIPROTICH YEGON Acc. HBD,Completed,500,,500,TRUE,Pay Utility,254720041583 - KIPROTICH YEGON,,HBD
OF93SZQR7Z,09/06/2020 13:01,09/06/2020 13:01,Utility Account to Organization Settlement Account,Completed,,-29400,0,TRUE,Utility Account to Organization Settlement Account,846783 - ANCIENT WELLS LTD 4,,
OF96SRARJ0,09/06/2020 08:35,09/06/2020 08:35,Pay Bill from 254721918811 - AHMED ABDI Acc. kaj,Completed,1200,,29400,TRUE,Pay Utility,254721918811 - AHMED ABDI,,kaj
OF99SOT47H,09/06/2020 02:17,09/06/2020 02:17,Pay Bill from 254710635630 - DONNA JESSICA OWANO Acc. kcc,Completed,200,,28200,TRUE,Pay Utility,254710635630 - DONNA JESSICA OWANO,,kcc
OF89SO1GIH,08/06/2020 22:20,08/06/2020 22:20,Pay Bill from 254701196539 - GICHURI KARANJA Acc. fee,Completed,600,,28000,TRUE,Pay Utility,254701196539 - GICHURI KARANJA,,fee
OF86SKX3I4,08/06/2020 20:03,08/06/2020 20:03,Pay Bill from 254703555717 - SENGA SALIM Acc. hbb,Completed,2200,,27400,TRUE,Pay Utility,254703555717 - SENGA SALIM,,hbb
OF84SHODNO,08/06/2020 18:51,08/06/2020 18:51,Pay Bill from 254714114228 - MWANGO AWINO VIOLET Acc. DCB,Completed,500,,25200,TRUE,Pay Utility,254714114228 - MWANGO AWINO VIOLET,,DCB
OF84SGWKBW,08/06/2020 18:35,08/06/2020 18:35,Pay Bill from 254740676070 - DAGMA SHARON KINYA Acc. JEG,Completed,400,,24700,TRUE,Pay Utility,254740676070 - DAGMA SHARON KINYA,,JEG
OF85S8714R,08/06/2020 15:05,08/06/2020 15:05,Pay Bill Online from 254714889853 - EUNICE WAIRIMU MWANGI Acc. KGE,Completed,400,,24300,TRUE,Pay Bill Online,254714889853 - EUNICE WAIRIMU MWANGI,,KGE
OF84S76ALM,08/06/2020 14:35,08/06/2020 14:35,Pay Bill from 254723071630 - KENNEDY KARANJA NJOROGE Acc. JBI,Completed,3400,,23900,TRUE,Pay Utility,254723071630 - KENNEDY KARANJA NJOROGE,,JBI
OF80S6NQJS,08/06/2020 14:20,08/06/2020 14:20,Pay Bill from 254714415313 - anastasia muthoni kimani Acc. IBH,Completed,2000,,20500,TRUE,Pay Utility,254714415313 - anastasia muthoni kimani,,IBH
OF73RS1C5P,07/06/2020 21:59,07/06/2020 21:59,Pay Bill from 254740676070 - DAGMA SHARON KINYA Acc. JEG,Completed,5400,,18500,TRUE,Pay Utility,254740676070 - DAGMA SHARON KINYA,,JEG
OF72RPSKNO,07/06/2020 20:20,07/06/2020 20:20,Pay Bill Online from 254712569636 - BENSON NYAGA Acc. v60,Completed,800,,13100,TRUE,Pay Utility with OD Online,254712569636 - BENSON NYAGA,,v60
OF76RJO4MA,07/06/2020 17:54,07/06/2020 17:54,Pay Bill from 254708619274 - BONIFACE MUTUA Acc. IFF,Completed,1000,,12300,TRUE,Pay Utility,254708619274 - BONIFACE MUTUA,,IFF
OF76RJAS52,07/06/2020 17:46,07/06/2020 17:46,Pay Bill from 254725815806 - WILFRED OGAYE Acc. DCD House No. ,Completed,1200,,11300,TRUE,Pay Utility,254725815806 - WILFRED OGAYE,,DCD
OF74RCQ554,07/06/2020 14:48,07/06/2020 14:48,Pay Bill from 254724655033 - SUSAN CHIMOTO Acc. KGH,Completed,600,,10100,TRUE,Pay Utility,254724655033 - SUSAN CHIMOTO,,KGH
OF78R83FDM,07/06/2020 12:27,07/06/2020 12:27,Pay Bill from 254717554562 - OMONDI JACK Acc. KCI ,Completed,200,,9500,TRUE,Pay Utility,254717554562 - OMONDI JACK,,KCI
OF70R07QKK,07/06/2020 07:44,07/06/2020 07:44,Pay Bill from 254720056285 - DAMARIS NDURU Acc. V09,Completed,300,,9300,TRUE,Pay Utility,254720056285 - DAMARIS NDURU,,V09
OF67QVVCLB,06/06/2020 20:24,06/06/2020 20:24,Pay Bill from 0768391388 - VENANTIUS OKURUT EMOIT Acc. DED,Completed,2600,,9000,TRUE,Pay Utility,0768391388 - VENANTIUS OKURUT EMOIT,,DED
OF64QNZSKM,06/06/2020 17:35,06/06/2020 17:35,Pay Bill from 254792946676 - ESTHER KAMAU Acc. hab,Completed,1000,,6400,TRUE,Pay Utility,254792946676 - ESTHER KAMAU,,hab
OF67QLNTYT,06/06/2020 16:45,06/06/2020 16:45,Pay Bill from 0748355912 - tobias    katana Acc. IED,Completed,200,,5400,TRUE,Pay Utility,0748355912 - tobias    katana,,IED
OF63QH3255,06/06/2020 14:43,06/06/2020 14:43,Pay Bill from 254798524621 - MERCY CHESANG Acc. jcj,Completed,600,,5200,TRUE,Pay Utility,254798524621 - MERCY CHESANG,,jcj
OF62QFT5SE,06/06/2020 14:08,06/06/2020 14:08,Pay Bill from 254728610675 - RUTH WAKOLI KISABULI Acc. KGC,Completed,200,,4600,TRUE,Pay Utility,254728610675 - RUTH WAKOLI KISABULI,,KGC
OF64QEBORM,06/06/2020 13:27,06/06/2020 13:27,Pay Bill from 254716328009 - IRENE ODHIAMBO Acc. KGG,Completed,600,,4400,TRUE,Pay Utility,254716328009 - IRENE ODHIAMBO,,KGG
OF60QD1ONS,06/06/2020 12:50,06/06/2020 12:50,Pay Bill from 254700218502 - GRACE NGURE Acc. v46,Completed,200,,3800,TRUE,Pay Utility,254700218502 - GRACE NGURE,,v46
OF69QBHSKR,06/06/2020 12:06,06/06/2020 12:06,Pay Bill from 254725754547 - MWACHIRO GEORGE DECHE Acc. DFC,Completed,1800,,3600,TRUE,Pay Utility,254725754547 - MWACHIRO GEORGE DECHE,,DFC
OF63QB8ZET,06/06/2020 11:59,06/06/2020 11:59,Pay Bill from 254710926340 - DOREEN MUTANU Acc. IBG,Completed,800,,1800,TRUE,Pay Utility with OD via STK,254710926340 - DOREEN MUTANU,,IBG
OF69QATCX9,06/06/2020 11:47,06/06/2020 11:47,Pay Bill from 254724754662 - CHARLES ERUKUDI EKAI Acc. FBE,Completed,1000,,1000,TRUE,Pay Utility,254724754662 - CHARLES ERUKUDI EKAI,,FBE
OF65QAOJB5,06/06/2020 11:43,06/06/2020 11:43,Utility Account to Organization Settlement Account,Completed,,-56450,0,TRUE,Utility Account to Organization Settlement Account,846783 - ANCIENT WELLS LTD 4,,
OF64Q4YPMS,06/06/2020 08:44,06/06/2020 08:44,Pay Bill from 254797665088 - INNOCENT WANAMI Acc. V2,Completed,1000,,56450,TRUE,Pay Utility with OD via STK,254797665088 - INNOCENT WANAMI,,V2
OF65Q331FH,06/06/2020 07:17,06/06/2020 07:17,Pay Bill from 254716587875 - PATRICIA WAITHERA MAINA Acc. v24,Completed,2000,,55450,TRUE,Pay Utility,254716587875 - PATRICIA WAITHERA MAINA,,v24
OF55Q1BGU1,05/06/2020 22:16,05/06/2020 22:16,Pay Bill from 254714209770 - PURITY NDUKU KYALO Acc. JEB,Completed,1200,,53450,TRUE,Pay Utility,254714209770 - PURITY NDUKU KYALO,,JEB
OF57Q06UZP,05/06/2020 21:10,05/06/2020 21:10,Pay Bill from 254727003033 - MARTIN NJUGUNA NYINGI Acc. FGD,Completed,200,,52250,TRUE,Pay Utility,254727003033 - MARTIN NJUGUNA NYINGI,,FGD
OF58PZTJ6E,05/06/2020 20:54,05/06/2020 20:54,Pay Bill Online from 254720044312 - ELIUD KIPKURUI Acc. FCF,Completed,1200,,52050,TRUE,Pay Bill Online,254720044312 - ELIUD KIPKURUI,,FCF
OF56PZ0PP6,05/06/2020 20:25,05/06/2020 20:25,Pay Bill from 254722458136 - NADI GOLICHA Acc. KAA,Completed,4000,,50850,TRUE,Pay Utility,254722458136 - NADI GOLICHA,,KAA
OF59PY6KXB,05/06/2020 19:59,05/06/2020 19:59,Pay Bill from 254703122244 - MABEL KAMANDA Acc. JGA,Completed,3200,,46850,TRUE,Pay Utility,254703122244 - MABEL KAMANDA,,JGA
OF58PTECFI,05/06/2020 18:19,05/06/2020 18:19,Pay Bill from 254715774019 - BONIFACE BARAKO KATELO Acc. hgf,Completed,400,,43650,TRUE,Pay Utility,254715774019 - BONIFACE BARAKO KATELO,,hgf
OF51PSMETN,05/06/2020 18:04,05/06/2020 18:04,Pay Bill from 254723772794 - EMELDA OBONG' Acc. HDE,Completed,1600,,43250,TRUE,Pay Utility,254723772794 - EMELDA OBONG',,HDE
OF56PNWFRO,05/06/2020 16:23,05/06/2020 16:23,Pay Bill from 254724567821 - ALEX MANDA Acc. ITE,Completed,600,,41650,TRUE,Pay Utility,254724567821 - ALEX MANDA,,ITE
OF55PML70F,05/06/2020 15:50,05/06/2020 15:50,Pay Bill from 254726001708 - MARTHA ATIENO ATIENO OSALO Acc. IBI,Completed,1250,,41050,TRUE,Pay Utility,254726001708 - MARTHA ATIENO ATIENO OSALO,,IBI
OF52PJE0LI,05/06/2020 14:24,05/06/2020 14:24,Pay Bill Online from 254717809935 - LYDIAH WERU Acc. IDC,Completed,400,,39800,TRUE,Pay Utility with OD Online,254717809935 - LYDIAH WERU,,IDC
OF52PJ9EWI,05/06/2020 14:20,05/06/2020 14:20,Pay Bill from 254721911181 - UBAH ALINOOR Acc. HGD,Completed,1600,,39400,TRUE,Pay Utility,254721911181 - UBAH ALINOOR,,HGD
OF51PH6EBX,05/06/2020 13:21,05/06/2020 13:21,Pay Bill from 254703375006 - KEN RODGERS Acc. DBA,Completed,1000,,37800,TRUE,Pay Utility,254703375006 - KEN RODGERS,,DBA
OF50PG2NMW,05/06/2020 12:49,05/06/2020 12:49,Pay Bill from 254719398942 - NORAH WAYUA MUNYAO Acc. KDC,Completed,800,,36800,TRUE,Pay Utility,254719398942 - NORAH WAYUA MUNYAO,,KDC
OF56PFBCDU,05/06/2020 12:28,05/06/2020 12:28,Pay Bill from 254726465584 - JULIANA MUKELI MUTUNGA Acc. v4,Completed,600,,36000,TRUE,Pay Utility,254726465584 - JULIANA MUKELI MUTUNGA,,v4
OF58PES7K4,05/06/2020 12:12,05/06/2020 12:12,Pay Bill from 254726611493 - Cornelius Kimeli Acc. HAG,Completed,1400,,35400,TRUE,Pay Utility,254726611493 - Cornelius Kimeli,,HAG
OF53PD221Z,05/06/2020 11:22,05/06/2020 11:22,Pay Bill from 254710814215 - JOAN NYAMBURA KAMAU Acc. jci,Completed,1600,,34000,TRUE,Pay Utility,254710814215 - JOAN NYAMBURA KAMAU,,jci
OF53PB77JT,05/06/2020 10:27,05/06/2020 10:27,Pay Bill from 254729948896 - CAROLINE V MILIZA Acc. Fec,Completed,1000,,32400,TRUE,Pay Utility,254729948896 - CAROLINE V MILIZA,,Fec
OF57PAOG3J,05/06/2020 10:11,05/06/2020 10:11,Pay Bill from 254721465713 - RHODA WAMBUI MWANGI Acc. jfh,Completed,1000,,31400,TRUE,Pay Utility,254721465713 - RHODA WAMBUI MWANGI,,jfh
OF52PADT78,05/06/2020 10:01,05/06/2020 10:01,Pay Bill from 254713159153 - GUYO SANKALA Acc. DGD,Completed,1800,,30400,TRUE,Pay Utility,254713159153 - GUYO SANKALA,,DGD
OF55P8TYHR,05/06/2020 09:11,05/06/2020 09:11,Pay Bill from 254719626804 - PAUL NJOROGE Acc. JFI,Completed,1000,,28600,TRUE,Pay Utility,254719626804 - PAUL NJOROGE,,JFI
OF55P7LY3P,05/06/2020 08:27,05/06/2020 08:27,Pay Bill from 254723929380 - RHODAH K WAMBUA Acc. HEF,Completed,800,,27600,TRUE,Pay Utility,254723929380 - RHODAH K WAMBUA,,HEF
OF58P62T06,05/06/2020 07:12,05/06/2020 07:12,Pay Bill from 0743369961 - SALOME WANGARI KIBUGI Acc. KGD,Completed,200,,26800,TRUE,Pay Utility,0743369961 - SALOME WANGARI KIBUGI,,KGD
OF54P52HJG,05/06/2020 00:30,05/06/2020 00:30,Pay Bill from 254722307003 - NIGEL BOMETT Acc. V01,Completed,600,,26600,TRUE,Pay Utility,254722307003 - NIGEL BOMETT,,V01
OF40P418SE,04/06/2020 21:48,04/06/2020 21:48,Pay Bill from 254710239100 - PHILOMENA WOKI MUTHAMA Acc. KDK,Completed,600,,26000,TRUE,Pay Utility,254710239100 - PHILOMENA WOKI MUTHAMA,,KDK
OF43P2O2HN,04/06/2020 20:41,04/06/2020 20:41,Pay Bill from 254725771056 - CHARLES MURAGURI Acc. FCC,Completed,400,,25400,TRUE,Pay Utility,254725771056 - CHARLES MURAGURI,,FCC
OF43P0LPY3,04/06/2020 19:37,04/06/2020 19:37,Pay Bill from 254718138578 - PAULINE KIOKO Acc. KFD,Completed,600,,25000,TRUE,Pay Utility,254718138578 - PAULINE KIOKO,,KFD
OF48P037Q2,04/06/2020 19:25,04/06/2020 19:25,Pay Bill from 254708915764 - GEORGE WAHOME Acc. V18,Completed,200,,24400,TRUE,Pay Utility,254708915764 - GEORGE WAHOME,,V18
OF41P00Q2X,04/06/2020 19:24,04/06/2020 19:24,Pay Bill from 254748104979 - JAMES GITHOGORI NGARI Acc. kfb,Completed,800,,24200,TRUE,Pay Utility,254748104979 - JAMES GITHOGORI NGARI,,kfb
OF42OZAUQ2,04/06/2020 19:08,04/06/2020 19:08,Pay Bill from 254711397174 - JASEL HOPE ANTONINA Acc. kef,Completed,300,,23400,TRUE,Pay Utility,254711397174 - JASEL HOPE ANTONINA,,kef
OF42OZ08H8,04/06/2020 19:02,04/06/2020 19:02,Pay Bill from 254724364316 - LINET MWENDIA Acc. KEJ,Completed,1000,,23100,TRUE,Pay Utility,254724364316 - LINET MWENDIA,,KEJ
OF41OWEZI3,04/06/2020 18:12,04/06/2020 18:12,Pay Bill from 254729796719 - JACINTA WANJIKU NJERI Acc. FFF,Completed,400,,22100,TRUE,Pay Utility,254729796719 - JACINTA WANJIKU NJERI,,FFF
OF43OUZ90P,04/06/2020 17:43,04/06/2020 17:43,Pay Bill from 254724882554 - ALPHONCE WAMBUA NGELI Acc. JDA,Completed,2800,,21700,TRUE,Pay Utility,254724882554 - ALPHONCE WAMBUA NGELI,,JDA
OF46OQOIY0,04/06/2020 16:03,04/06/2020 16:03,Pay Bill from 254714855708 - KIPLANGAT SITIENEI Acc. FAE,Completed,800,,18900,TRUE,Pay Utility,254714855708 - KIPLANGAT SITIENEI,,FAE
OF43OOM2ZL,04/06/2020 15:07,04/06/2020 15:07,Pay Bill from 254720107609 - DENNIS OGENDI BARAKE Acc. JAJ,Completed,1400,,18100,TRUE,Pay Utility with OD via STK,254720107609 - DENNIS OGENDI BARAKE,,JAJ
OF44OOBMFI,04/06/2020 14:58,04/06/2020 14:58,Pay Bill from 254718233980 - KAREN ASWANI Acc. HEC,Completed,400,,16700,TRUE,Pay Utility,254718233980 - KAREN ASWANI,,HEC
OF41ONW4SF,04/06/2020 14:47,04/06/2020 14:47,Pay Bill from 254702921564 - DENNIS MAHERO SHIUNDU Acc. Dennis V21,Completed,600,,16300,TRUE,Pay Utility,254702921564 - DENNIS MAHERO SHIUNDU,,Dennis
OF48OM8YA0,04/06/2020 13:59,04/06/2020 13:59,Pay Bill from 254799376885 - DERRICK OSORE SONGORO Acc. V58,Completed,800,,15700,TRUE,Pay Utility,254799376885 - DERRICK OSORE SONGORO,,V58
OF42OLP5HK,04/06/2020 13:43,04/06/2020 13:43,Pay Bill from 254716499837 - ASHA MUSA Acc. JFD,Completed,800,,14900,TRUE,Pay Utility,254716499837 - ASHA MUSA,,JFD
OF41OK9YRH,04/06/2020 13:01,04/06/2020 13:01,Pay Bill from 254792891094 - WINNIE ODHIAMBO Acc. HFD,Completed,200,,14100,TRUE,Pay Utility,254792891094 - WINNIE ODHIAMBO,,HFD
OF44OJKGXW,04/06/2020 12:40,04/06/2020 12:40,Pay Bill from 254729569271 - MESHACK OBOTTA OBOTTA OBARE Acc. V12,Completed,600,,13900,TRUE,Pay Utility,254729569271 - MESHACK OBOTTA OBOTTA OBARE,,V12
OF40OI977U,04/06/2020 12:01,04/06/2020 12:01,Pay Bill Online from 254715892656 - DENNIS MUSYOKA MUOKI Acc. KFA,Completed,200,,13300,TRUE,Pay Bill Online,254715892656 - DENNIS MUSYOKA MUOKI,,KFA
OF49OEG8HF,04/06/2020 10:04,04/06/2020 10:04,Pay Bill from 0714576438 - OCHOLA HESBON OCHIENG Acc. V06,Completed,200,,13100,TRUE,Pay Utility,0714576438 - OCHOLA HESBON OCHIENG,,V06
OF41ODP6P3,04/06/2020 09:40,04/06/2020 09:40,Pay Bill from 254710202776 - KELVIN KARIMI MACHARIA Acc. FAD,Completed,200,,12900,TRUE,Pay Utility,254710202776 - KELVIN KARIMI MACHARIA,,FAD
OF40OBC04E,04/06/2020 08:14,04/06/2020 08:14,Pay Bill from 254707237792 - BRENDA WACHIRA Acc. JBC,Completed,400,,12700,TRUE,Pay Utility,254707237792 - BRENDA WACHIRA,,JBC
OF36O8868C,03/06/2020 21:54,03/06/2020 21:54,Pay Bill Online from 254720787158 - AMOS CHELANG'A Acc. KFK,Completed,1600,,12300,TRUE,Pay Bill Online,254720787158 - AMOS CHELANG'A,,KFK
OF33O33D4L,03/06/2020 19:00,03/06/2020 19:00,Pay Bill from 254721302658 - JACOB BIRUNDU Acc. DDB,Completed,400,,10700,TRUE,Pay Utility with OD via STK,254721302658 - JACOB BIRUNDU,,DDB
OF39O2QF3T,03/06/2020 18:53,03/06/2020 18:53,Pay Bill from 254716045947 - LILIAN OLOO Acc. FBD,Completed,700,,10300,TRUE,Pay Utility,254716045947 - LILIAN OLOO,,FBD
OF34O1EW0S,03/06/2020 18:28,03/06/2020 18:28,Pay Bill from 254703147783 - LYDIAH NJOKI MUCHIRI Acc. Hge,Completed,9000,,9600,TRUE,Pay Utility,254703147783 - LYDIAH NJOKI MUCHIRI,,Hge
OF31O0RNI9,03/06/2020 18:16,03/06/2020 18:16,Pay Bill from 254706237502 - STEPHEN WERE Acc. IBA,Completed,600,,600,TRUE,Pay Utility,254706237502 - STEPHEN WERE,,IBA
OF33NYVC6R,03/06/2020 17:38,03/06/2020 17:38,Utility Account to Organization Settlement Account,Completed,,-39100,0,TRUE,Utility Account to Organization Settlement Account,846783 - ANCIENT WELLS LTD 4,,
OF33NXSNTR,03/06/2020 17:15,03/06/2020 17:15,Pay Bill from 0769001671 - Wilson Mutangili Wambua Acc. haf,Completed,400,,39100,TRUE,Pay Utility,0769001671 - Wilson Mutangili Wambua,,haf
OF39NR47MB,03/06/2020 14:21,03/06/2020 14:21,Pay Bill from 254729371750 - DERRICK OTANGA Acc. FEF,Completed,1000,,38700,TRUE,Pay Utility,254729371750 - DERRICK OTANGA,,FEF
OF38NN4T68,03/06/2020 12:23,03/06/2020 12:23,Pay Bill from 254795418073 - WINNIE OWILLI BEVERLY Acc. HAC,Completed,600,,37700,TRUE,Pay Utility,254795418073 - WINNIE OWILLI BEVERLY,,HAC
OF38NN2H5S,03/06/2020 12:21,03/06/2020 12:21,Pay Bill from 254703311892 - WINNIE ACHIENG' OPEYO Acc. v50,Completed,200,,37100,TRUE,Pay Utility,254703311892 - WINNIE ACHIENG' OPEYO,,v50
OF37NMHWE9,03/06/2020 12:04,03/06/2020 12:04,Pay Bill from 254700374335 - HYLINE ONDARI Acc. KTE,Completed,800,,36900,TRUE,Pay Utility,254700374335 - HYLINE ONDARI,,KTE
OF34NI06XY,03/06/2020 09:44,03/06/2020 09:44,Pay Bill Online from 254726313835 - SYLVIA JUMA Acc. Hdf,Completed,400,,36100,TRUE,Pay Bill Online,254726313835 - SYLVIA JUMA,,Hdf
OF32NHMYNI,03/06/2020 09:31,03/06/2020 09:31,Pay Bill from 254722997392 - ISAAC MUKONAMBI MATUMBUFU Acc. JAH ,Completed,2000,,35700,TRUE,Pay Utility,254722997392 - ISAAC MUKONAMBI MATUMBUFU,,JAH
OF30NFC7YO,03/06/2020 08:05,03/06/2020 08:05,Pay Bill from 254707370896 - OKECH BRIAN BRIAN Acc. KBC,Completed,1000,,33700,TRUE,Pay Utility,254707370896 - OKECH BRIAN BRIAN,,KBC
OF33NEZH9F,03/06/2020 07:49,03/06/2020 07:49,Pay Bill from 254720458054 - ROBERT BETT Acc. ICH,Completed,1800,,32700,TRUE,Pay Utility,254720458054 - ROBERT BETT,,ICH
OF21NCYT5X,02/06/2020 22:39,02/06/2020 22:39,Pay Bill from 254726337163 - HALIMA ALI HASSAN Acc. DDA,Completed,200,,30900,TRUE,Pay Utility,254726337163 - HALIMA ALI HASSAN,,DDA
OF28NBTQQS,02/06/2020 21:14,02/06/2020 21:14,Pay Bill from 254722874715 - PATRCIAH mbesa KIOKO Acc. KBB,Completed,400,,30700,TRUE,Pay Utility,254722874715 - PATRCIAH mbesa KIOKO,,KBB
OF28NBGW2O,02/06/2020 20:57,02/06/2020 20:57,Pay Bill from 0715251159 - mediatrix davvy malo Acc. AIC,Completed,200,,30300,TRUE,Pay Utility,0715251159 - mediatrix davvy malo,,AIC
OF29N7WNNB,02/06/2020 19:11,02/06/2020 19:11,Pay Bill from 254701006375 - EZRA MAKORI SERETI Acc. IFB,Completed,600,,30100,TRUE,Pay Utility,254701006375 - EZRA MAKORI SERETI,,IFB
OF26N5RVWI,02/06/2020 18:29,02/06/2020 18:29,Pay Bill from 254710262457 - PETER VIKATSI Acc. Peter V26,Completed,800,,29500,TRUE,Pay Utility,254710262457 - PETER VIKATSI,,Peter
OF23N5D93Z,02/06/2020 18:22,02/06/2020 18:22,Pay Bill from 254722521028 - CHARLES MONYONCHO Acc. HCC,Completed,2600,,28700,TRUE,Pay Utility,254722521028 - CHARLES MONYONCHO,,HCC
OF22N4B1EO,02/06/2020 18:01,02/06/2020 18:01,Pay Bill from 254723872785 - MARY ANN NJERI NDUNG'U Acc. hed,Completed,400,,26100,TRUE,Pay Utility,254723872785 - MARY ANN NJERI NDUNG'U,,hed
OF21N3MQE3,02/06/2020 17:47,02/06/2020 17:47,Pay Bill from 0717216114 - Felix Njeru Mugambi Acc. KDF,Completed,1000,,25700,TRUE,Pay Utility,0717216114 - Felix Njeru Mugambi,,KDF
OF23N32UNH,02/06/2020 17:35,02/06/2020 17:35,Pay Bill from 254798643998 - Judith Mwaniki Acc. KCE,Completed,1200,,24700,TRUE,Pay Utility,254798643998 - Judith Mwaniki,,KCE
OF20MX077Q,02/06/2020 15:08,02/06/2020 15:08,Pay Bill from 254726380203 - SHARON OLENDO Acc. HCA,Completed,800,,23500,TRUE,Pay Utility,254726380203 - SHARON OLENDO,,HCA
OF29MSKI65,02/06/2020 13:01,02/06/2020 13:01,Pay Bill Online from 254711724272 - EDMOND ONYANGO OKEWE Acc. FCE,Completed,1000,,22700,TRUE,Pay Bill Online,254711724272 - EDMOND ONYANGO OKEWE,,FCE
OF21MRVRVD,02/06/2020 12:41,02/06/2020 12:41,Pay Bill from 0758826849 -  Norah Awala Anyango Acc. IDH,Completed,1500,,21700,TRUE,Pay Utility,0758826849 -  Norah Awala Anyango,,IDH
OF27MRS8TD,02/06/2020 12:38,02/06/2020 12:38,Pay Bill from 254704833344 - LOISE KIMANI Acc. jfa,Completed,1000,,20200,TRUE,Pay Utility,254704833344 - LOISE KIMANI,,jfa
OF25MN1B7B,02/06/2020 10:11,02/06/2020 10:11,Pay Bill from 254722444622 - CHARITY KAGWAINI Acc. FFD,Completed,200,,19200,TRUE,Pay Utility,254722444622 - CHARITY KAGWAINI,,FFD
OF15ME3A29,01/06/2020 19:51,01/06/2020 19:51,Pay Bill from 254711397174 - JASEL HOPE ANTONINA Acc. kef,Completed,100,,19000,TRUE,Pay Utility,254711397174 - JASEL HOPE ANTONINA,,kef
OF12M9OFRK,01/06/2020 18:11,01/06/2020 18:11,Pay Bill from 254700347490 - PERIS NYAGUTHII MAINA Acc. JBB,Completed,200,,18900,TRUE,Pay Utility,254700347490 - PERIS NYAGUTHII MAINA,,JBB
OF14M2PUW8,01/06/2020 15:14,01/06/2020 15:14,Pay Bill from 254712091662 - BENARD OMONDI ROBY Acc. V16,Completed,400,,18700,TRUE,Pay Utility,254712091662 - BENARD OMONDI ROBY,,V16
OF10M1WT24,01/06/2020 14:50,01/06/2020 14:50,Pay Bill from 254727298633 - KENNEDY OMONDI NYAGAYA Acc. JDH ,Completed,1000,,18300,TRUE,Pay Utility,254727298633 - KENNEDY OMONDI NYAGAYA,,JDH
OF12M0QMN4,01/06/2020 14:15,01/06/2020 14:15,Pay Bill from 254726265855 - SHEM KEVIN OMONDI OTIENO Acc. kdj,Completed,400,,17300,TRUE,Pay Utility,254726265855 - SHEM KEVIN OMONDI OTIENO,,kdj
OF10LYWMH4,01/06/2020 13:17,01/06/2020 13:17,Pay Bill from 254705419958 - MOHAMED ABDALLA MOHAMED Acc. JCF,Completed,200,,16900,TRUE,Pay Utility,254705419958 - MOHAMED ABDALLA MOHAMED,,JCF
OF17LWPATP,01/06/2020 12:07,01/06/2020 12:07,Pay Bill from 254798061803 - Kaltuma Mohamed Acc. jcg,Completed,1000,,16700,TRUE,Pay Utility,254798061803 - Kaltuma Mohamed,,jcg
OF15LV58NH,01/06/2020 11:19,01/06/2020 11:19,Pay Bill from 254729736327 - DARLYNE MAIMA Acc. V59,Completed,600,,15700,TRUE,Pay Utility,254729736327 - DARLYNE MAIMA,,V59
OF18LTLAVG,01/06/2020 10:30,01/06/2020 10:30,Pay Bill Online from 254795510441 - LEWIS MUEMA Acc. KFC,Completed,400,,15100,TRUE,Pay Bill Online,254795510441 - LEWIS MUEMA,,KFC
OF13LTB7OL,01/06/2020 10:21,01/06/2020 10:21,Pay Bill from 254728476791 - CAROLE ACHIENG Acc. KCF,Completed,800,,14700,TRUE,Pay Utility,254728476791 - CAROLE ACHIENG,,KCF
