Receipt No.,Completion Time,Initiation Time,Details,Transaction Status,Paid In,Withdrawn,Balance,Balance Confirmed,Reason Type,Other Party Info,Linked Transaction ID,A/C No.
RFE517FNB3,14/06/2023 11:28,14/06/2023 11:28,Pay Bill from 0705687898 - JORDAN KIPNGETICH THOMAS KIKWAI Acc. kff,Completed,5000,,44000,TRUE,Pay Utility,0705687898 - JORDAN KIPNGETICH THOMAS KIKWAI,,kff
RFE216NR1O,14/06/2023 11:19,14/06/2023 11:19,Pay Bill Online from 254722910078 - MAUREEN MUNYIVA MUTUKU Acc. DCD,Completed,7000,,39000,TRUE,Pay Utility with OD Online,254722910078 - MAUREEN MUNYIVA MUTUKU,,DCD
RFE4156MBE,14/06/2023 11:03,14/06/2023 11:03,Pay Bill from 254704111133 - ELVIS OTIENO Acc. HFD,Completed,1000,,32000,TRUE,Pay Utility,254704111133 - ELVIS OTIENO,,HFD
RFE5107UMP,14/06/2023 10:07,14/06/2023 10:07,Pay Bill from 254720931007 - BRENDA NASIMIYU NYONGESA Acc. KAB,Completed,16000,,31000,TRUE,Pay Utility,254720931007 - BRENDA NASIMIYU NYONGESA,,KAB
RFE3ZSY92F,14/06/2023 08:44,14/06/2023 08:44,Pay Bill from 254718672924 - LILIAN CHEBET NGENO Acc. HAB,Completed,15000,,15000,TRUE,Pay Utility,254718672924 - LILIAN CHEBET NGENO,,HAB
RFE5ZRK0AX,14/06/2023 08:26,14/06/2023 08:26,Utility Account to Organization Settlement Account,Completed,,-244600,0,TRUE,Utility Account to Organization Settlement Account,979524 - ANCIENT WELLS PROPERTY MANAGERS 2,,
RFD2ZG9VHE,13/06/2023 23:30,13/06/2023 23:30,Pay Bill from 0741475375 - Jane   Jebichii Acc. fed,Completed,11000,,244600,TRUE,Pay Utility,0741475375 - Jane   Jebichii,,fed
RFD7Z799U7,13/06/2023 21:01,13/06/2023 21:01,Pay Bill from 0708931111 - NJENGA   KURIA Acc. kca,Completed,16000,,233600,TRUE,Pay Utility,0708931111 - NJENGA   KURIA,,kca
RFD7Z50AST,13/06/2023 20:41,13/06/2023 20:41,Pay Bill from 254720868281 - KENNEDY MWELU Acc. KBI,Completed,12500,,217600,TRUE,Pay Utility with OD via STK,254720868281 - KENNEDY MWELU,,KBI
RFD5YYQ0UL,13/06/2023 19:53,13/06/2023 19:53,Pay Bill from 254743916064 - KAI AIKENY IDOKO Acc. ibc,Completed,9500,,205100,TRUE,Pay Utility,254743916064 - KAI AIKENY IDOKO,,ibc
RFD1YPAQDD,13/06/2023 18:55,13/06/2023 18:55,Pay Bill from 0722531422 - ANTHONY ITIMU MAINA Acc. JBD,Completed,10000,,195600,TRUE,Pay Utility,0722531422 - ANTHONY ITIMU MAINA,,JBD
RFD9YJ0DQ7,13/06/2023 18:12,13/06/2023 18:12,Pay Bill from 254702764047 - FERDINAND K Acc. KDB,Completed,16000,,185600,TRUE,Pay Utility,254702764047 - FERDINAND K,,KDB
RFD3Y2SVJT,13/06/2023 15:49,13/06/2023 15:49,Pay Bill from 0112254959 - Timothy muoka musyoka Acc. JCA,Completed,20000,,169600,TRUE,Pay Utility,0112254959 - Timothy muoka musyoka,,JCA
RFD0Y241G8,13/06/2023 15:42,13/06/2023 15:42,Pay Bill Online from 254723930071 - AMOS KITAVI KIVITE Acc. JCE,Completed,9000,,149600,TRUE,Pay Bill Online,254723930071 - AMOS KITAVI KIVITE,,JCE
RFD2X63CSK,13/06/2023 10:01,13/06/2023 10:01,Pay Bill Online from 254799805832 - NATHANIEl MAMBO MBITHI Acc. KBH,Completed,10000,,140600,TRUE,Pay Bill Online,254799805832 - NATHANIEl MAMBO MBITHI,,KBH
RFD1WRC5LJ,13/06/2023 06:41,13/06/2023 06:41,Pay Bill from 254716581384 - GREGORY KILUNGYA Acc. DAD,Completed,20000,,130600,TRUE,Pay Utility,254716581384 - GREGORY KILUNGYA,,DAD
RFD8WP9XT0,13/06/2023 04:37,13/06/2023 04:37,Pay Bill from 254796848496 - IVY WITABA Acc. FAA,Completed,6000,,110600,TRUE,Pay Utility with OD via STK,254796848496 - IVY WITABA,,FAA
RFC7WN4JIV,12/06/2023 23:56,12/06/2023 23:56,Pay Bill from 254703935626 - DAVID NGARI ITA Acc. FCD,Completed,1000,,104600,TRUE,Pay Utility,254703935626 - DAVID NGARI ITA,,FCD
RFC6W8V5WS,12/06/2023 20:23,12/06/2023 20:23,Pay Bill Online from 254704143476 - DICKSON MZUNGU Acc. JCB,Completed,15000,,103600,TRUE,Pay Bill Online,254704143476 - DICKSON MZUNGU,,JCB
RFC3W4FO67,12/06/2023 19:51,12/06/2023 19:51,Pay Bill from 254713966424 - NDUTI MUTHUI Acc. Jed ,Completed,15000,,88600,TRUE,Pay Utility,254713966424 - NDUTI MUTHUI,,Jed
RFC2W1TE1U,12/06/2023 19:34,12/06/2023 19:34,Pay Bill from 254717247817 - NYANGAU HARONI Acc. KBF,Completed,5000,,73600,TRUE,Pay Utility,254717247817 - NYANGAU HARONI,,KBF
RFC4VQLF7O,12/06/2023 18:24,12/06/2023 18:24,Pay Bill from 254707715639 - Annastacia Kimeu Acc. JFC ,Completed,10000,,68600,TRUE,Pay Utility with OD via STK,254707715639 - Annastacia Kimeu,,JFC
RFC8VL1IG6,12/06/2023 17:42,12/06/2023 17:42,Pay Bill from 254720814822 - JAMES OTIENO OPAR Acc. jgj,Completed,1500,,58600,TRUE,Pay Utility with OD via STK,254720814822 - JAMES OTIENO OPAR,,jgj
RFC3V9W7M7,12/06/2023 16:03,12/06/2023 16:03,Pay Bill from 254714710944 - MERCY NDUNG'U Acc. hff,Completed,10000,,57100,TRUE,Pay Utility,254714710944 - MERCY NDUNG'U,,hff
RFB4TQBXIW,11/06/2023 22:49,11/06/2023 22:49,Business Pay Bill by 488519 - NCBA  Bank M-pesa Acc. FGC via API,Completed,8100,,47100,TRUE,Business Pay Bill via API,488519 - NCBA  Bank M-pesa,,FGC
RFB1TPUNK9,11/06/2023 22:37,11/06/2023 22:37,Pay Bill from 254703935626 - DAVID NGARI ITA Acc. FCD,Completed,1000,,39000,TRUE,Pay Utility,254703935626 - DAVID NGARI ITA,,FCD
RFB7TCU3R1,11/06/2023 20:08,11/06/2023 20:08,Pay Bill Online from 0757758972 - BETH MUTHONI KASYOKA Acc. DEA,Completed,2000,,38000,TRUE,Pay Bill Online,0757758972 - BETH MUTHONI KASYOKA,,DEA
RFB1TALXWB,11/06/2023 19:51,11/06/2023 19:51,Pay Bill from 254710239100 - PHILOMENA WOKI MUTHAMA Acc. KDK,Completed,17000,,36000,TRUE,Pay Utility,254710239100 - PHILOMENA WOKI MUTHAMA,,KDK
RFB0SLNTN6,11/06/2023 16:32,11/06/2023 16:32,Pay Bill from 254718911865 - KENNEDY KELI KATUNGII Acc. HDF,Completed,9000,,19000,TRUE,Pay Utility with OD via STK,254718911865 - KENNEDY KELI KATUNGII,,HDF
RFB3SJIQIJ,11/06/2023 16:11,11/06/2023 16:11,Pay Bill from 254725539787 - EVERLYNE MOGAKA Acc. KEF ,Completed,10000,,10000,TRUE,Pay Utility,254725539787 - EVERLYNE MOGAKA,,KEF
RFB9SALL6X,11/06/2023 14:40,11/06/2023 14:40,Utility Account to Organization Settlement Account,Completed,,-120000,0,TRUE,Utility Account to Organization Settlement Account,979524 - ANCIENT WELLS PROPERTY MANAGERS 2,,
RFB6S6AFHK,11/06/2023 13:55,11/06/2023 13:55,Pay Bill from 0743789968 - Dallias Thanare Githara Acc. hbb,Completed,5000,,120000,TRUE,Pay Utility,0743789968 - Dallias Thanare Githara,,hbb
RFB8S1JMU8,11/06/2023 13:02,11/06/2023 13:02,Pay Bill from 254723966777 - BONIFACE MUTHAKA NGANGA Acc. IDG,Completed,10000,,115000,TRUE,Pay Utility,254723966777 - BONIFACE MUTHAKA NGANGA,,IDG
RFB8RUSDPA,11/06/2023 11:40,11/06/2023 11:40,Pay Bill from 254720814822 - JAMES OTIENO OPAR Acc. jgj,Completed,3500,,105000,TRUE,Pay Utility,254720814822 - JAMES OTIENO OPAR,,jgj
RFB5RNVQ3Z,11/06/2023 10:13,11/06/2023 10:13,Pay Bill Online from 254712990240 - GLORY KARIUKI Acc. KAA,Completed,16000,,101500,TRUE,Pay Utility with OD Online,254712990240 - GLORY KARIUKI,,KAA
RFB8RMGSEQ,11/06/2023 09:56,11/06/2023 09:56,Pay Bill from 254711742716 - RODGERS KIPLANGAT KORIR Acc. IGC,Completed,9000,,85500,TRUE,Pay Utility,254711742716 - RODGERS KIPLANGAT KORIR,,IGC
RFB6RM1664,11/06/2023 09:51,11/06/2023 09:51,Pay Bill Online from 254726292792 - PHILIP MIANO Acc. JEI,Completed,20000,,76500,TRUE,Pay Bill Online,254726292792 - PHILIP MIANO,,JEI
RFB8RGHPPS,11/06/2023 08:42,11/06/2023 08:42,Pay Bill Online from 0740422187 - KEVIN MAKATO KUNGA Acc. KEG,Completed,10000,,56500,TRUE,Pay Bill Online,0740422187 - KEVIN MAKATO KUNGA,,KEG
RFB5R8MVNJ,11/06/2023 05:08,11/06/2023 05:08,Pay Bill Online from 254720451253 - JIMMY KIOGORA NKIROTE Acc. KBD,Completed,1000,,46500,TRUE,Pay Bill Online,254720451253 - JIMMY KIOGORA NKIROTE,,KBD
RFA3R3JNKB,10/06/2023 23:26,10/06/2023 23:26,Pay Bill from 254703935626 - DAVID NGARI ITA Acc. FCD,Completed,1000,,45500,TRUE,Pay Utility,254703935626 - DAVID NGARI ITA,,FCD
RFA9R150F1,10/06/2023 22:32,10/06/2023 22:32,Pay Bill from 0717441870 - Steven oduor ogutu Acc. KTA,Completed,9500,,44500,TRUE,Pay Utility,0717441870 - Steven oduor ogutu,,KTA
RFA1Q188HB,10/06/2023 17:53,10/06/2023 17:53,Pay Bill Online from 254720620070 - Michelle Mwihaki Ngaruiya Acc. JEJ,Completed,15000,,35000,TRUE,Pay Bill Online,254720620070 - Michelle Mwihaki Ngaruiya,,JEJ
RFA4PWB8VC,10/06/2023 17:15,10/06/2023 17:15,Pay Bill from 254710357391 - CHEPKOECH VALENTINE Acc. KAH,Completed,10000,,20000,TRUE,Pay Utility,254710357391 - CHEPKOECH VALENTINE,,KAH
RFA5PTROOL,10/06/2023 16:54,10/06/2023 16:54,Pay Bill from 254722826454 - CHARLES KARIMI MAITAI Acc. KDC Keila,Completed,10000,,10000,TRUE,Pay Utility,254722826454 - CHARLES KARIMI MAITAI,,KDC
RFA9PEH55X,10/06/2023 14:31,10/06/2023 14:31,Utility Account to Organization Settlement Account,Completed,,-57500,0,TRUE,Utility Account to Organization Settlement Account,979524 - ANCIENT WELLS PROPERTY MANAGERS 2,,
RFA3PAS3MZ,10/06/2023 13:56,10/06/2023 13:56,Pay Bill Online from 254712040302 - EMMANUEL MWARO BARASA Acc. KEA,Completed,16000,,57500,TRUE,Pay Bill Online,254712040302 - EMMANUEL MWARO BARASA,,KEA
RFA0PA9P2Y,10/06/2023 13:51,10/06/2023 13:51,Pay Bill Online from 254799371069 - ALPHONCE OCHIENG WAREGA Acc. IEE,Completed,8500,,41500,TRUE,Pay Bill Online,254799371069 - ALPHONCE OCHIENG WAREGA,,IEE
RFA5P554UB,10/06/2023 13:02,10/06/2023 13:02,Pay Bill from 254741573910 - VINCENT ODUOR OLIENG Acc. HBC,Completed,10000,,33000,TRUE,Pay Utility,254741573910 - VINCENT ODUOR OLIENG,,HBC
RFA9P44BCN,10/06/2023 12:52,10/06/2023 12:52,Pay Bill from 254708443973 - GEORGE KIILU Acc. kfa,Completed,3000,,23000,TRUE,Pay Utility,254708443973 - GEORGE KIILU,,kfa
RFA2OZ9NBU,10/06/2023 12:04,10/06/2023 12:04,Pay Bill Online from 254725452946 - GODFREY THIANE KIBAYA Acc. HEE,Completed,20000,,20000,TRUE,Pay Utility with OD Online,254725452946 - GODFREY THIANE KIBAYA,,HEE
RFA1OYRBZP,10/06/2023 11:58,10/06/2023 11:58,Utility Account to Organization Settlement Account,Completed,,-115000,0,TRUE,Utility Account to Organization Settlement Account,979524 - ANCIENT WELLS PROPERTY MANAGERS 2,,
RFA2OO1G4I,10/06/2023 10:08,10/06/2023 10:08,Pay Bill from 254723747228 - MORARA ASANYO Acc. pool ,Completed,22000,,115000,TRUE,Pay Utility,254723747228 - MORARA ASANYO,,pool
RFA9O8OWH9,10/06/2023 06:57,10/06/2023 06:57,Pay Bill from 0791379873 - Joseph Kyalo Sila Acc. HAH,Completed,16000,,93000,TRUE,Pay Utility,0791379873 - Joseph Kyalo Sila,,HAH
RFA4O8E0Y4,10/06/2023 06:50,10/06/2023 06:50,Pay Bill Online from 254710146965 - BRENDA DORCAS MABONGA Acc. hfg,Completed,15000,,77000,TRUE,Pay Bill Online,254710146965 - BRENDA DORCAS MABONGA,,hfg
RFA9O6SF29,10/06/2023 05:45,10/06/2023 05:45,Pay Bill Online from 254720451253 - JIMMY KIOGORA NKIROTE Acc. KBD,Completed,1000,,62000,TRUE,Pay Utility with OD Online,254720451253 - JIMMY KIOGORA NKIROTE,,KBD
RF98O2QVIW,09/06/2023 23:56,09/06/2023 23:56,Pay Bill Online from 254720451253 - JIMMY KIOGORA NKIROTE Acc. KBD,Completed,1000,,61000,TRUE,Pay Utility with OD Online,254720451253 - JIMMY KIOGORA NKIROTE,,KBD
RF98NZBPIG,09/06/2023 22:30,09/06/2023 22:30,Pay Bill from 0742599061 - Judy Masese Samwel Acc. HGF,Completed,9500,,60000,TRUE,Pay Utility,0742599061 - Judy Masese Samwel,,HGF
RF93NSF67J,09/06/2023 21:00,09/06/2023 21:00,Pay Bill from 0796929370 - HALIMA BOYA GALMA Acc. DBC,Completed,20000,,50500,TRUE,Pay Utility,0796929370 - HALIMA BOYA GALMA,,DBC
RF99NDV2CN,09/06/2023 19:20,09/06/2023 19:20,Pay Bill from 254726337163 - HALIMA ALI HASSAN Acc. DDA,Completed,5500,,30500,TRUE,Pay Utility,254726337163 - HALIMA ALI HASSAN,,DDA
RF91MTR56H,09/06/2023 17:01,09/06/2023 17:01,Pay Bill Online from 254717985596 - NICHOLAS KIPKOECH BUTIA Acc. hcf,Completed,9000,,25000,TRUE,Pay Bill Online,254717985596 - NICHOLAS KIPKOECH BUTIA,,hcf
RF92MEFHEU,09/06/2023 14:37,09/06/2023 14:37,Pay Bill from 254724423882 - JOEL GICHURI KARANJA Acc. fee,Completed,16000,,16000,TRUE,Pay Utility,254724423882 - JOEL GICHURI KARANJA,,fee
RF93MD8OSN,09/06/2023 14:25,09/06/2023 14:25,Utility Account to Organization Settlement Account,Completed,,-71000,0,TRUE,Utility Account to Organization Settlement Account,979524 - ANCIENT WELLS PROPERTY MANAGERS 2,,
RF92MCNB6S,09/06/2023 14:19,09/06/2023 14:19,Pay Bill Online from 254715892656 - DENNIS MUSYOKA MUOKI Acc. kfa,Completed,3000,,71000,TRUE,Pay Bill Online,254715892656 - DENNIS MUSYOKA MUOKI,,kfa
RF97L86SH7,09/06/2023 06:57,09/06/2023 06:57,Pay Bill from 254717748212 - PATRICK KIOKO MUTUKU Acc. kce,Completed,10000,,68000,TRUE,Pay Utility,254717748212 - PATRICK KIOKO MUTUKU,,kce
RF85L1LCF5,08/06/2023 23:18,08/06/2023 23:18,Pay Bill from 254703935626 - DAVID NGARI ITA Acc. FCD,Completed,2000,,58000,TRUE,Pay Utility,254703935626 - DAVID NGARI ITA,,FCD
RF82KL9UP2,08/06/2023 20:08,08/06/2023 20:08,Pay Bill Online from 254715764212 - BANCE ISHEMINYE Acc. JFE ,Completed,4000,,56000,TRUE,Pay Bill Online,254715764212 - BANCE ISHEMINYE,,JFE
RF88JNKK2Y,08/06/2023 16:05,08/06/2023 16:05,Pay Bill from 0799122666 - ERIC WAWERU KIAMA Acc. JDI,Completed,20000,,52000,TRUE,Pay Utility,0799122666 - ERIC WAWERU KIAMA,,JDI
RF89JMJ7YX,08/06/2023 15:55,08/06/2023 15:55,Pay Bill from 254795079977 - COLLINS BOB OMOLLO Acc. IGG,Completed,13000,,32000,TRUE,Pay Utility,254795079977 - COLLINS BOB OMOLLO,,IGG
RF89JCJK3B,08/06/2023 14:13,08/06/2023 14:13,Pay Bill from 254792712192 - KELVIN MASIBO Acc. ICE,Completed,9000,,19000,TRUE,Pay Utility,254792712192 - KELVIN MASIBO,,ICE
RF87J6QMTZ,08/06/2023 13:16,08/06/2023 13:16,Pay Bill Online from 254792187144 - HASSAN AHMED HASSAN Acc. KGI,Completed,10000,,10000,TRUE,Pay Bill Online,254792187144 - HASSAN AHMED HASSAN,,KGI
RF88IQGZH6,08/06/2023 10:28,08/06/2023 10:28,Utility Account to Organization Settlement Account,Completed,,-212500,0,TRUE,Utility Account to Organization Settlement Account,979524 - ANCIENT WELLS PROPERTY MANAGERS 2,,
RF86IKL9ZI,08/06/2023 09:24,08/06/2023 09:24,Pay Bill from 254725621394 - RACHAEL WACHIRA Acc. Jfb,Completed,15000,,212500,TRUE,Pay Utility,254725621394 - RACHAEL WACHIRA,,Jfb
RF84IKG9GU,08/06/2023 09:23,08/06/2023 09:23,Pay Bill from 254720814822 - JAMES OTIENO OPAR Acc. jgj,Completed,7000,,197500,TRUE,Pay Utility,254720814822 - JAMES OTIENO OPAR,,jgj
RF84IGJ358,08/06/2023 08:39,08/06/2023 08:39,Pay Bill Online from 254720451253 - JIMMY KIOGORA NKIROTE Acc. KBD,Completed,2000,,190500,TRUE,Pay Utility with OD Online,254720451253 - JIMMY KIOGORA NKIROTE,,KBD
RF81IDSQQF,08/06/2023 08:07,08/06/2023 08:07,Pay Bill from 254799188200 - PURITY KURUI Acc. HDC,Completed,10500,,188500,TRUE,Pay Utility,254799188200 - PURITY KURUI,,HDC
RF71I0ZIPF,07/06/2023 22:35,07/06/2023 22:35,Pay Bill from 254725478531 - KIPKORIR KUTO Acc. DFB,Completed,15000,,178000,TRUE,Pay Utility,254725478531 - KIPKORIR KUTO,,DFB
RF73HZ5BE1,07/06/2023 22:04,07/06/2023 22:04,Pay Bill from 254713205244 - ROBERT OGALO Acc. HFB,Completed,16000,,163000,TRUE,Pay Utility,254713205244 - ROBERT OGALO,,HFB
RF75HYSZDD,07/06/2023 22:00,07/06/2023 22:00,Pay Bill from 254796069018 - PEACE KIMEU Acc. Jah,Completed,16000,,147000,TRUE,Pay Utility,254796069018 - PEACE KIMEU,,Jah
RF76HYFK3M,07/06/2023 21:55,07/06/2023 21:55,Pay Bill Online from 0722255105 - SALIM OMAR MZEE Acc. FGF,Completed,16000,,131000,TRUE,Pay Utility with OD Online,0722255105 - SALIM OMAR MZEE,,FGF
RF70HR32WY,07/06/2023 20:43,07/06/2023 20:43,Pay Bill from 254722521028 - CHARLES MONYONCHO Acc. JDA,Completed,20000,,115000,TRUE,Pay Utility,254722521028 - CHARLES MONYONCHO,,JDA
RF73HN927F,07/06/2023 20:14,07/06/2023 20:14,Pay Bill from 254703276305 - MARTHA MUSYOKA Acc. IAI,Completed,15000,,95000,TRUE,Pay Utility,254703276305 - MARTHA MUSYOKA,,IAI
RF78HIGGWE,07/06/2023 19:43,07/06/2023 19:43,Pay Bill from 254722617724 - Cosmas Leitich Kiptoo Acc. KAG,Completed,10000,,80000,TRUE,Pay Utility with OD via STK,254722617724 - Cosmas Leitich Kiptoo,,KAG
RF78HFJT5I,07/06/2023 19:26,07/06/2023 19:26,Pay Bill from 254726028330 - JOHN WAMBUA Acc. IFH,Completed,15000,,70000,TRUE,Pay Utility,254726028330 - JOHN WAMBUA,,IFH
RF77GT38CJ,07/06/2023 16:46,07/06/2023 16:46,Pay Bill from 254724477912 - SAMUEL MURIMI Acc. HCD,Completed,10000,,55000,TRUE,Pay Utility,254724477912 - SAMUEL MURIMI,,HCD
RF79GGCQHR,07/06/2023 14:38,07/06/2023 14:38,Pay Bill from 254741223822 - Rhoyce Kiptarus Boiyo Acc. FEC,Completed,9000,,45000,TRUE,Pay Utility,254741223822 - Rhoyce Kiptarus Boiyo,,FEC
RF74GDWKBC,07/06/2023 14:12,07/06/2023 14:12,Pay Bill Online from 254720696119 - DUNCAN OMONDI OKETCH Acc. FAE,Completed,15000,,36000,TRUE,Pay Bill Online,254720696119 - DUNCAN OMONDI OKETCH,,FAE
RF73GAB2T5,07/06/2023 13:37,07/06/2023 13:37,Pay Bill Online from 254711507729 - DAVID ANYONGE MALIJAMBO Acc. HFA,Completed,16000,,21000,TRUE,Pay Bill Online,254711507729 - DAVID ANYONGE MALIJAMBO,,HFA
RF75G28C3J,07/06/2023 12:16,07/06/2023 12:16,Pay Bill from 254719779657 - SAMUEL NJOROGE Acc. JGA,Completed,5000,,5000,TRUE,Pay Utility,254719779657 - SAMUEL NJOROGE,,JGA
RF78FPV5V6,07/06/2023 10:04,07/06/2023 10:04,Utility Account to Organization Settlement Account,Completed,,-259500,0,TRUE,Utility Account to Organization Settlement Account,979524 - ANCIENT WELLS PROPERTY MANAGERS 2,,
RF72FOOK9K,07/06/2023 09:51,07/06/2023 09:51,Pay Bill Online from 254716702294 - DANIEL MULATI Acc. KBB,Completed,6000,,259500,TRUE,Pay Bill Online,254716702294 - DANIEL MULATI,,KBB
RF70FJR37O,07/06/2023 08:57,07/06/2023 08:57,Pay Bill from 0743789968 - Dallias Thanare Githara Acc. hbb,Completed,8000,,253500,TRUE,Pay Utility,0743789968 - Dallias Thanare Githara,,hbb
RF70FJALEG,07/06/2023 08:52,07/06/2023 08:52,Pay Bill from 254727144033 - JOHN NYAREGA NYAKUNDI Acc. FAF,Completed,16000,,245500,TRUE,Pay Utility with OD via STK,254727144033 - JOHN NYAREGA NYAKUNDI,,FAF
RF76FGW26A,07/06/2023 08:24,07/06/2023 08:24,Pay Bill from 254705641030 - FRIDAH WAENI MUITHYA Acc. JEH,Completed,16000,,229500,TRUE,Pay Utility,254705641030 - FRIDAH WAENI MUITHYA,,JEH
RF74FD97MS,07/06/2023 07:37,07/06/2023 07:37,Pay Bill Online from 254797160610 - JAMES MWANIKI Acc. JBI,Completed,20000,,213500,TRUE,Pay Bill Online,254797160610 - JAMES MWANIKI,,JBI
RF72F7AGCW,07/06/2023 02:12,07/06/2023 02:12,Pay Bill Online from 254715764212 - BANCE ISHEMINYE Acc. JFE ,Completed,5000,,193500,TRUE,Pay Bill Online,254715764212 - BANCE ISHEMINYE,,JFE
RF63F3MP1R,06/06/2023 22:41,06/06/2023 22:41,Pay Bill from 254726753273 - JESSE K MURIRMI NJERU Acc. HCH,Completed,17000,,188500,TRUE,Pay Utility,254726753273 - JESSE K MURIRMI NJERU,,HCH
RF63F2Y9SP,06/06/2023 22:27,06/06/2023 22:27,Pay Bill Online from 254723499628 - CLINTON JOSEPH MUHARI Acc. hfh,Completed,16000,,171500,TRUE,Pay Bill Online,254723499628 - CLINTON JOSEPH MUHARI,,hfh
RF67EX0C8P,06/06/2023 21:12,06/06/2023 21:12,Pay Bill from 254700557767 - BAKHITA MWENDE MUANGE Acc. kcb,Completed,16000,,155500,TRUE,Pay Utility,254700557767 - BAKHITA MWENDE MUANGE,,kcb
RF69EVK2YN,06/06/2023 20:59,06/06/2023 20:59,Pay Bill Online from 254703285159 - Enock Michieka Mochoge Acc. KAE,Completed,10000,,139500,TRUE,Pay Bill Online,254703285159 - Enock Michieka Mochoge,,KAE
RF62ERRC16,06/06/2023 20:28,06/06/2023 20:28,Pay Bill from 254710635630 - DONNA JESSICA OWANO Acc. KCC,Completed,10000,,129500,TRUE,Pay Utility,254710635630 - DONNA JESSICA OWANO,,KCC
RF63EMY52V,06/06/2023 19:54,06/06/2023 19:54,Pay Bill from 0740208174 - Josephine adhiambo koyi Acc. ifg,Completed,9000,,119500,TRUE,Pay Utility,0740208174 - Josephine adhiambo koyi,,ifg
RF61ECSMAZ,06/06/2023 18:54,06/06/2023 18:54,Pay Bill from 254702488841 - JEREMIAH NYANSIKERA Acc. KAK,Completed,16000,,110500,TRUE,Pay Utility with OD via STK,254702488841 - JEREMIAH NYANSIKERA,,KAK
RF67E9RWBJ,06/06/2023 18:35,06/06/2023 18:35,Pay Bill Online from 0703634804 - SYLVIA NYAMBURA NJOROGE Acc. KCD,Completed,11000,,94500,TRUE,Pay Bill Online,0703634804 - SYLVIA NYAMBURA NJOROGE,,KCD
RF65DZX88X,06/06/2023 17:22,06/06/2023 17:22,Pay Bill Online from 254724821898 - ALLAN GISONI NYANGARESI Acc. DBA,Completed,16000,,83500,TRUE,Pay Bill Online,254724821898 - ALLAN GISONI NYANGARESI,,DBA
RF69DV8PQL,06/06/2023 16:42,06/06/2023 16:42,Pay Bill Online from 254710382992 - SIMON KAMAU MUIRURI Acc. JCD,Completed,15000,,67500,TRUE,Pay Bill Online,254710382992 - SIMON KAMAU MUIRURI,,JCD
RF67DV6ZM5,06/06/2023 16:42,06/06/2023 16:42,Pay Bill Online from 254714552193 - CHRISTOPHER OCHIENG Acc. JGI ,Completed,20500,,52500,TRUE,Pay Bill Online,254714552193 - CHRISTOPHER OCHIENG,,JGI
RF61DR9O49,06/06/2023 16:05,06/06/2023 16:05,Pay Bill from 0701151700 - Anabel Mwikali Gichuru Acc. JDJ,Completed,15000,,32000,TRUE,Pay Utility,0701151700 - Anabel Mwikali Gichuru,,JDJ
RF69DR5LVR,06/06/2023 16:04,06/06/2023 16:04,Pay Bill Online from 0768727221 - ERICK FORESTER BUYUKA Acc. IAC,Completed,9000,,17000,TRUE,Pay Bill Online,0768727221 - ERICK FORESTER BUYUKA,,IAC
RF64DNONCY,06/06/2023 15:29,06/06/2023 15:29,Pay Bill Online from 254702346515 - ELIZABETH ACHIENG NGOME Acc. ICH,Completed,8000,,8000,TRUE,Pay Bill Online,254702346515 - ELIZABETH ACHIENG NGOME,,ICH
RF61DKUFH1,06/06/2023 15:00,06/06/2023 15:00,Utility Account to Organization Settlement Account,Completed,,-84000,0,TRUE,Utility Account to Organization Settlement Account,979524 - ANCIENT WELLS PROPERTY MANAGERS 2,,
RF65DI3CBD,06/06/2023 14:32,06/06/2023 14:32,Pay Bill Online from 0769918050 - newton   mutethia Acc. JBG,Completed,10000,,84000,TRUE,Pay Bill Online,0769918050 - newton   mutethia,,JBG
RF63D83XZV,06/06/2023 12:54,06/06/2023 12:54,Pay Bill from 254715636579 - GRACE KALUKI MULI Acc. FDA ,Completed,16000,,74000,TRUE,Pay Utility,254715636579 - GRACE KALUKI MULI,,FDA
RF65D7IJZN,06/06/2023 12:48,06/06/2023 12:48,Pay Bill from 254791086424 - Martha Achieng Arodi Acc. FDC,Completed,9000,,58000,TRUE,Pay Utility,254791086424 - Martha Achieng Arodi,,FDC
RF68D240LS,06/06/2023 11:52,06/06/2023 11:52,Pay Bill Online from 254720451253 - JIMMY KIOGORA NKIROTE Acc. KBD,Completed,2000,,49000,TRUE,Pay Utility with OD Online,254720451253 - JIMMY KIOGORA NKIROTE,,KBD
RF66D1Q0AG,06/06/2023 11:48,06/06/2023 11:48,Pay Bill Online from 254710732381 - JANE ACHIENG MBEKE Acc. HAF,Completed,10000,,47000,TRUE,Pay Bill Online,254710732381 - JANE ACHIENG MBEKE,,HAF
RF62CZJXD0,06/06/2023 11:25,06/06/2023 11:25,Pay Bill from 254721667039 - ELIAS KIPLAGAT Acc. KAC,Completed,11000,,37000,TRUE,Pay Utility,254721667039 - ELIAS KIPLAGAT,,KAC
RF62CYV6T0,06/06/2023 11:18,06/06/2023 11:18,Pay Bill from 254708093187 - BRENDA AWUOR ARINDO Acc. KGD,Completed,10000,,26000,TRUE,Pay Utility,254708093187 - BRENDA AWUOR ARINDO,,KGD
RF64CXHLXS,06/06/2023 11:04,06/06/2023 11:04,Pay Bill Online from 0757699775 - BENARD MUIA MUTUA Acc. HCB,Completed,16000,,16000,TRUE,Pay Utility with OD Online,0757699775 - BENARD MUIA MUTUA,,HCB
RF62CU98O4,06/06/2023 10:30,06/06/2023 10:30,Utility Account to Organization Settlement Account,Completed,,-257000,0,TRUE,Utility Account to Organization Settlement Account,979524 - ANCIENT WELLS PROPERTY MANAGERS 2,,
RF69CTU1N9,06/06/2023 10:26,06/06/2023 10:26,Pay Bill from 254717747775 - QADRA SHEIKH ABDULLAHI Acc. JCI,Completed,10000,,257000,TRUE,Pay Utility,254717747775 - QADRA SHEIKH ABDULLAHI,,JCI
RF61CFUHQL,06/06/2023 07:49,06/06/2023 07:49,Pay Bill from 254725754547 - MWACHIRO GEORGE DECHE Acc. DFC,Completed,20000,,247000,TRUE,Pay Utility,254725754547 - MWACHIRO GEORGE DECHE,,DFC
RF68C85T18,06/06/2023 00:22,06/06/2023 00:22,Pay Bill from 254700198550 - BENARD ONYANGO Acc. DBB,Completed,16000,,227000,TRUE,Pay Utility,254700198550 - BENARD ONYANGO,,DBB
RF50C5YYSC,05/06/2023 22:54,05/06/2023 22:54,Pay Bill from 254703935626 - DAVID NGARI ITA Acc. FCD,Completed,1000,,211000,TRUE,Pay Utility with OD via STK,254703935626 - DAVID NGARI ITA,,FCD
RF59BZYYZZ,05/06/2023 21:25,05/06/2023 21:25,Pay Bill from 0707950214 - Abdirashid Osman Huka Acc. KEJ,Completed,16000,,210000,TRUE,Pay Utility,0707950214 - Abdirashid Osman Huka,,KEJ
RF51BYQG9P,05/06/2023 21:14,05/06/2023 21:14,Pay Bill from 254740579741 - MUHINDI MULINYA Acc. HGG,Completed,11000,,194000,TRUE,Pay Utility,254740579741 - MUHINDI MULINYA,,HGG
RF58BPV15K,05/06/2023 20:05,05/06/2023 20:05,Pay Bill from 254716881682 - JUSTINE FAYUMA OKWEMBA Acc. HAA,Completed,17000,,183000,TRUE,Pay Utility,254716881682 - JUSTINE FAYUMA OKWEMBA,,HAA
RF54BPCLQY,05/06/2023 20:02,05/06/2023 20:02,Pay Bill from 254701528627 - TURGAY ELDEN Acc.  BB,Completed,16000,,166000,TRUE,Pay Utility,254701528627 - TURGAY ELDEN,,
RF56BNBPB0,05/06/2023 19:49,05/06/2023 19:49,Pay Bill from 254708910373 - MUNINI ISAAC Acc. IEB,Completed,15000,,150000,TRUE,Pay Utility,254708910373 - MUNINI ISAAC,,IEB
RF52BHVE9K,05/06/2023 19:18,05/06/2023 19:18,Pay Bill Online from 254700379039 - MARTIN KIMANI Acc. KCI,Completed,12500,,135000,TRUE,Pay Bill Online,254700379039 - MARTIN KIMANI,,KCI
RF51BGHVVZ,05/06/2023 19:10,05/06/2023 19:10,Pay Bill Online from 254721465713 - RHODA WAMBUI MWANGI Acc. Jfh,Completed,17000,,122500,TRUE,Pay Bill Online,254721465713 - RHODA WAMBUI MWANGI,,Jfh
RF50BFZAW2,05/06/2023 19:07,05/06/2023 19:07,Pay Bill from 254712283818 - OYUGI OCHIENG Acc. FCB,Completed,16000,,105500,TRUE,Pay Utility,254712283818 - OYUGI OCHIENG,,FCB
RF56BBU13A,05/06/2023 18:43,05/06/2023 18:43,Pay Bill Online from 254723901777 - EVANS YEBEI Acc. KCH,Completed,10000,,89500,TRUE,Pay Utility with OD Online,254723901777 - EVANS YEBEI,,KCH
RF50B4QJ28,05/06/2023 17:54,05/06/2023 17:54,Pay Bill Online from 254111303204 - JAMES MUEMA KIKUVI Acc. JFI,Completed,20000,,79500,TRUE,Pay Bill Online,254111303204 - JAMES MUEMA KIKUVI,,JFI
RF54AZF5L8,05/06/2023 17:12,05/06/2023 17:12,Pay Bill from 0724386624 - FATUMA ISSE YUSSUF Acc. FAB,Completed,16000,,59500,TRUE,Pay Utility,0724386624 - FATUMA ISSE YUSSUF,,FAB
RF55AY785V,05/06/2023 17:02,05/06/2023 17:02,Pay Bill Online from 254710814215 - JOAN NYAMBURA KAMAU Acc. ifb,Completed,15000,,43500,TRUE,Pay Bill Online,254710814215 - JOAN NYAMBURA KAMAU,,ifb
RF57AU926F,05/06/2023 16:27,05/06/2023 16:27,Pay Bill Online from 254723411873 - FREDRICK CHERUIYOT Acc. jbf,Completed,8000,,28500,TRUE,Pay Bill Online,254723411873 - FREDRICK CHERUIYOT,,jbf
RF59AU45SR,05/06/2023 16:25,05/06/2023 16:25,Pay Bill Online from 254757569672 - BRIAN MARITA NYANGAU Acc. KDD,Completed,12000,,20500,TRUE,Pay Bill Online,254757569672 - BRIAN MARITA NYANGAU,,KDD
RF50AT949Y,05/06/2023 16:17,05/06/2023 16:17,Pay Bill from 254743487420 - Margaret Wacu Muia Acc. FCE,Completed,8500,,8500,TRUE,Pay Utility,254743487420 - Margaret Wacu Muia,,FCE
RF51ASWLE1,05/06/2023 16:14,05/06/2023 16:14,Utility Account to Organization Settlement Account,Completed,,-131500,0,TRUE,Utility Account to Organization Settlement Account,979524 - ANCIENT WELLS PROPERTY MANAGERS 2,,
RF57ARHK9T,05/06/2023 16:00,05/06/2023 16:00,Pay Bill Online from 254113678329 - LESLIE NAINI KOIKAI Acc. IBD ,Completed,11000,,131500,TRUE,Pay Bill Online,254113678329 - LESLIE NAINI KOIKAI,,IBD
RF57ANR6TR,05/06/2023 15:23,05/06/2023 15:23,Pay Bill Online from 254706898046 - STACY AKETCH OCHUKA Acc. KGK,Completed,15000,,120500,TRUE,Pay Bill Online,254706898046 - STACY AKETCH OCHUKA,,KGK
RF56ANKYHC,05/06/2023 15:21,05/06/2023 15:21,Pay Bill Online from 254710202776 - KELVIN KARIMI MACHARIA Acc. FAD,Completed,18000,,105500,TRUE,Pay Bill Online,254710202776 - KELVIN KARIMI MACHARIA,,FAD
RF55ALF3WJ,05/06/2023 14:59,05/06/2023 14:59,Pay Bill from 254719747910 - KEVIN NDERITU GAKINGO Acc. iDD,Completed,11000,,87500,TRUE,Pay Utility,254719747910 - KEVIN NDERITU GAKINGO,,iDD
RF50AFSRNC,05/06/2023 14:02,05/06/2023 14:02,Pay Bill from 254700430569 - EDITH   GAKII Acc. DDB,Completed,16000,,76500,TRUE,Pay Utility,254700430569 - EDITH   GAKII,,DDB
RF57A9OJPZ,05/06/2023 13:03,05/06/2023 13:03,Pay Bill Online from 254799735661 - ALBRIGHT SUNGUTI Acc. JEB,Completed,15000,,60500,TRUE,Pay Bill Online,254799735661 - ALBRIGHT SUNGUTI,,JEB
RF51A96W5J,05/06/2023 12:59,05/06/2023 12:59,Pay Bill from 254729371750 - DERRICK OTANGA Acc. DAC,Completed,20000,,45500,TRUE,Pay Utility,254729371750 - DERRICK OTANGA,,DAC
RF59A5TWSZ,05/06/2023 12:25,05/06/2023 12:25,Pay Bill from 0702783944 - hussein ahmad shenye Acc. fbc,Completed,9500,,25500,TRUE,Pay Utility with OD via STK,0702783944 - hussein ahmad shenye,,fbc
RF569YJFOA,05/06/2023 11:10,05/06/2023 11:10,Pay Bill Online from 254721974995 - BERNICE MANGOKA Acc. KFK,Completed,16000,,16000,TRUE,Pay Bill Online,254721974995 - BERNICE MANGOKA,,KFK
RF509SZSCS,05/06/2023 10:12,05/06/2023 10:12,Utility Account to Organization Settlement Account,Completed,,-355500,0,TRUE,Utility Account to Organization Settlement Account,979524 - ANCIENT WELLS PROPERTY MANAGERS 2,,
RF599SPOKD,05/06/2023 10:09,05/06/2023 10:09,Pay Bill from 0715806956 - Mercy Jelagat Kalum Acc. FFE,Completed,15000,,355500,TRUE,Pay Utility,0715806956 - Mercy Jelagat Kalum,,FFE
RF509QAZ0K,05/06/2023 09:43,05/06/2023 09:43,Pay Bill from 254716056537 - KIRUI KIPLANGAT HILLARY Acc. JCJ,Completed,16000,,340500,TRUE,Pay Utility,254716056537 - KIRUI KIPLANGAT HILLARY,,JCJ
RF539OBK5T,05/06/2023 09:22,05/06/2023 09:22,Pay Bill from 254728704935 - ALFRED KISHOIN Acc. DAB,Completed,16000,,324500,TRUE,Pay Utility with OD via STK,254728704935 - ALFRED KISHOIN,,DAB
RF529KWFYW,05/06/2023 08:43,05/06/2023 08:43,Pay Bill from 0799432095 - PAUL KAYOLO MUENDO Acc. HBE,Completed,10000,,308500,TRUE,Pay Utility,0799432095 - PAUL KAYOLO MUENDO,,HBE
RF519IMHT1,05/06/2023 08:17,05/06/2023 08:17,Pay Bill from 254717148989 - ALLAN MUTHONI Acc. HAC,Completed,10000,,298500,TRUE,Pay Utility,254717148989 - ALLAN MUTHONI,,HAC
RF559H7QCJ,05/06/2023 08:00,05/06/2023 08:00,Business Pay Bill by 488519 - NCBA  Bank M-pesa Acc. HGH via API,Completed,15000,,288500,TRUE,Business Pay Bill via API,488519 - NCBA  Bank M-pesa,,HGH
RF549F9B8W,05/06/2023 07:32,05/06/2023 07:32,Pay Bill from 254723929380 - RHODAH K WAMBUA Acc. HEG,Completed,15000,,273500,TRUE,Pay Utility,254723929380 - RHODAH K WAMBUA,,HEG
RF51997UUL,05/06/2023 01:18,05/06/2023 01:18,Pay Bill from 254703935626 - DAVID NGARI ITA Acc. FCD,Completed,1000,,258500,TRUE,Pay Utility with OD via STK,254703935626 - DAVID NGARI ITA,,FCD
RF4594YLVL,04/06/2023 22:20,04/06/2023 22:20,Pay Bill Online from 254721714178 - PHANICE JEROTICH KIPTOO Acc. FBF,Completed,16000,,257500,TRUE,Pay Bill Online,254721714178 - PHANICE JEROTICH KIPTOO,,FBF
RF4392WTF1,04/06/2023 21:49,04/06/2023 21:49,Pay Bill Online from 254718253322 - DUNCAN MOCHOGE Acc. JFJ,Completed,15000,,241500,TRUE,Pay Bill Online,254718253322 - DUNCAN MOCHOGE,,JFJ
RF438QP9MX,04/06/2023 19:55,04/06/2023 19:55,Pay Bill from 254796640269 - TABITHA NJERI MAINA Acc. JEE,Completed,10000,,226500,TRUE,Pay Utility,254796640269 - TABITHA NJERI MAINA,,JEE
RF448O4ORC,04/06/2023 19:37,04/06/2023 19:37,Pay Bill Online from 254718663397 - JIMMY MUNYAO NZIOKI Acc. DCB,Completed,16000,,216500,TRUE,Pay Bill Online,254718663397 - JIMMY MUNYAO NZIOKI,,DCB
RF428EG3UG,04/06/2023 18:32,04/06/2023 18:32,Pay Bill from 254712367486 - JACKLINE JUMA Acc. ked,Completed,11000,,200500,TRUE,Pay Utility,254712367486 - JACKLINE JUMA,,ked
RF4086ZLNC,04/06/2023 17:31,04/06/2023 17:31,Pay Bill Online from 254728055159 - LEE NDUATI FRANCIS Acc. FEF,Completed,16000,,189500,TRUE,Pay Bill Online,254728055159 - LEE NDUATI FRANCIS,,FEF
RF477APP5P,04/06/2023 12:02,04/06/2023 12:02,Pay Bill Online from 0718473068 - Dennis Kiptoo Maiyo Acc. KFC,Completed,10000,,173500,TRUE,Pay Bill Online,0718473068 - Dennis Kiptoo Maiyo,,KFC
RF4079XG9Q,04/06/2023 11:53,04/06/2023 11:53,Pay Bill from 254719398942 - NORAH WAYUA MUNYAO Acc. KDA,Completed,16000,,163500,TRUE,Pay Utility,254719398942 - NORAH WAYUA MUNYAO,,KDA
RF42795CO0,04/06/2023 11:43,04/06/2023 11:43,Pay Bill Online from 254718513411 - Michelle mwangi Acc. Had,Completed,10000,,147500,TRUE,Pay Bill Online,254718513411 - Michelle mwangi,,Had
RF4777VRNH,04/06/2023 11:28,04/06/2023 11:28,Pay Bill from 254729160700 - MICAH NDUNGI Acc. HFE,Completed,10500,,137500,TRUE,Pay Utility,254729160700 - MICAH NDUNGI,,HFE
RF4877DR4K,04/06/2023 11:22,04/06/2023 11:22,Pay Bill from 254743487420 - Margaret Wacu Muia Acc. FCE,Completed,16000,,127000,TRUE,Pay Utility,254743487420 - Margaret Wacu Muia,,FCE
RF4275BOWI,04/06/2023 10:57,04/06/2023 10:57,Pay Bill Online from 254706549634 - CLINTON OMBASA Acc. FDB,Completed,10000,,111000,TRUE,Pay Bill Online,254706549634 - CLINTON OMBASA,,FDB
RF4471DSAA,04/06/2023 10:09,04/06/2023 10:09,Pay Bill from 254702216907 - FAITH MUSA Acc. kbe,Completed,10000,,101000,TRUE,Pay Utility,254702216907 - FAITH MUSA,,kbe
RF39698MBD,03/06/2023 21:14,03/06/2023 21:14,Pay Bill from 254729355933 - FELISTAH NJERI WAIRIMU Acc. IDI,Completed,15000,,91000,TRUE,Pay Utility with OD via STK,254729355933 - FELISTAH NJERI WAIRIMU,,IDI
RF39694FSH,03/06/2023 21:13,03/06/2023 21:13,Pay Bill from 254724862849 - Ann Fresiah Kinyua Acc. HDA,Completed,16000,,76000,TRUE,Pay Utility,254724862849 - Ann Fresiah Kinyua,,HDA
RF3468TR5O,03/06/2023 21:10,03/06/2023 21:10,Pay Bill from 254722136450 - MARY EVERLYN Acc. JAI,Completed,20000,,60000,TRUE,Pay Utility,254722136450 - MARY EVERLYN,,JAI
RF3763UGD9,03/06/2023 20:30,03/06/2023 20:30,Pay Bill from 254704934557 - BAKARI KITSAKA Acc. HDG,Completed,15000,,40000,TRUE,Pay Utility,254704934557 - BAKARI KITSAKA,,HDG
RF305V8ATM,03/06/2023 19:34,03/06/2023 19:34,Pay Bill from 0708143086 - Bonface Asigo Yanguza Acc. IAG,Completed,9000,,25000,TRUE,Pay Utility,0708143086 - Bonface Asigo Yanguza,,IAG
RF335LN7N9,03/06/2023 18:35,03/06/2023 18:35,Pay Bill from 254721315975 - JOSEPH NDEGWA Acc. HEB,Completed,16000,,16000,TRUE,Pay Utility,254721315975 - JOSEPH NDEGWA,,HEB
RF325C6040,03/06/2023 17:23,03/06/2023 17:23,Utility Account to Organization Settlement Account,Completed,,-100500,0,TRUE,Utility Account to Organization Settlement Account,979524 - ANCIENT WELLS PROPERTY MANAGERS 2,,
RF335A948R,03/06/2023 17:07,03/06/2023 17:07,Pay Bill Online from 254712187712 - JUDELEEN SHILOBELE AHINDUKHA Acc. IEA,Completed,12000,,100500,TRUE,Pay Bill Online,254712187712 - JUDELEEN SHILOBELE AHINDUKHA,,IEA
RF3258TR8K,03/06/2023 16:56,03/06/2023 16:56,Pay Bill from 254729598338 - REGINA GATHONI Acc. IEC,Completed,15000,,88500,TRUE,Pay Utility with OD via STK,254729598338 - REGINA GATHONI,,IEC
RF3557QQ65,03/06/2023 16:47,03/06/2023 16:47,Pay Bill from 254728569590 - ELIZABETH MUKAMI Acc. HDD,Completed,21000,,73500,TRUE,Pay Utility,254728569590 - ELIZABETH MUKAMI,,HDD
RF314ZITLJ,03/06/2023 15:35,03/06/2023 15:35,Pay Bill from 254711123196 - JUDITH MUTUA Acc. Fea,Completed,16000,,52500,TRUE,Pay Utility,254711123196 - JUDITH MUTUA,,Fea
RF344NZG7E,03/06/2023 13:48,03/06/2023 13:48,Pay Bill Online from 254701315532 - JAMES BAKER OTIENO Acc. ICH,Completed,8000,,36500,TRUE,Pay Bill Online,254701315532 - JAMES BAKER OTIENO,,ICH
RF384NA90M,03/06/2023 13:42,03/06/2023 13:42,Pay Bill from 254720868281 - KENNEDY MWELU Acc. KBI,Completed,12500,,28500,TRUE,Pay Utility,254720868281 - KENNEDY MWELU,,KBI
RF394HD75N,03/06/2023 12:46,03/06/2023 12:46,Pay Bill from 254726599835 - LAWRENCE MURIITHI Acc. kdj,Completed,16000,,16000,TRUE,Pay Utility,254726599835 - LAWRENCE MURIITHI,,kdj
RF324CPVWS,03/06/2023 12:00,03/06/2023 12:00,Utility Account to Organization Settlement Account,Completed,,-135000,0,TRUE,Utility Account to Organization Settlement Account,979524 - ANCIENT WELLS PROPERTY MANAGERS 2,,
RF39441ZCD,03/06/2023 10:31,03/06/2023 10:31,Pay Bill from 254724852503 - GEOFREY YEGO Acc. JFF,Completed,10000,,135000,TRUE,Pay Utility,254724852503 - GEOFREY YEGO,,JFF
RF393J1KAB,03/06/2023 01:24,03/06/2023 01:24,Pay Bill from 254728670882 - SHARAD EDWARD ADALA OLUM Acc. KCK,Completed,15000,,125000,TRUE,Pay Utility,254728670882 - SHARAD EDWARD ADALA OLUM,,KCK
RF353HVDBP,03/06/2023 00:09,03/06/2023 00:09,Pay Bill from 254703935626 - DAVID NGARI ITA Acc. FCD,Completed,1000,,110000,TRUE,Pay Utility,254703935626 - DAVID NGARI ITA,,FCD
RF29350WIB,02/06/2023 20:46,02/06/2023 20:46,Pay Bill Online from 254729796719 - JACINTA WANJIKU NJERI Acc. FFF,Completed,17000,,109000,TRUE,Pay Bill Online,254729796719 - JACINTA WANJIKU NJERI,,FFF
RF2334N2B5,02/06/2023 20:43,02/06/2023 20:43,Pay Bill Online from 254729097858 - AMBROSE ADEYA AHAWO Acc. KCF,Completed,10000,,92000,TRUE,Pay Bill Online,254729097858 - AMBROSE ADEYA AHAWO,,KCF
RF282ZARUE,02/06/2023 20:04,02/06/2023 20:04,Pay Bill Online from 0796894862 - MERCY      MUTETHYA Acc. HBH,Completed,16000,,82000,TRUE,Pay Bill Online,0796894862 - MERCY      MUTETHYA,,HBH
RF232XC15F,02/06/2023 19:51,02/06/2023 19:51,Pay Bill from 0111786209 - Jacob Kipkogei Kangogo Acc. IBA,Completed,15000,,66000,TRUE,Pay Utility,0111786209 - Jacob Kipkogei Kangogo,,IBA
RF222WLC64,02/06/2023 19:46,02/06/2023 19:46,Pay Bill Online from 254723394064 - ANDREW LAGAT Acc. HBG,Completed,16000,,51000,TRUE,Pay Bill Online,254723394064 - ANDREW LAGAT,,HBG
RF282UAQ9Q,02/06/2023 19:32,02/06/2023 19:32,Pay Bill from 254717690295 - MARCELLA JELIMO Acc. IGE,Completed,9000,,35000,TRUE,Pay Utility,254717690295 - MARCELLA JELIMO,,IGE
RF262OZTRO,02/06/2023 19:02,02/06/2023 19:02,Pay Bill from 254721745337 - Vivian Jerotich Kipchumba Acc. KBC,Completed,11000,,26000,TRUE,Pay Utility,254721745337 - Vivian Jerotich Kipchumba,,KBC
RF292LUONJ,02/06/2023 18:42,02/06/2023 18:42,Pay Bill Online from 254719194821 - KIPKEMOI SANG GEOFFREY Acc. JDD,Completed,15000,,15000,TRUE,Pay Bill Online,254719194821 - KIPKEMOI SANG GEOFFREY,,JDD
RF292E3GVX,02/06/2023 17:49,02/06/2023 17:49,Utility Account to Organization Settlement Account,Completed,,-190000,0,TRUE,Utility Account to Organization Settlement Account,979524 - ANCIENT WELLS PROPERTY MANAGERS 2,,
RF2526NQL7,02/06/2023 16:49,02/06/2023 16:49,Pay Bill from 254716504398 - HYVENE MAYETI Acc. KDE,Completed,11000,,190000,TRUE,Pay Utility,254716504398 - HYVENE MAYETI,,KDE
RF2220CSWS,02/06/2023 15:52,02/06/2023 15:52,Pay Bill from 0758208197 - ABDIKADIR ABDI RASHID Acc. 846783,Completed,41000,,179000,TRUE,Pay Utility,0758208197 - ABDIKADIR ABDI RASHID,,846783
RF221XP0NK,02/06/2023 15:26,02/06/2023 15:26,Pay Bill Online from 254715892656 - DENNIS MUSYOKA MUOKI Acc. kfa,Completed,5000,,138000,TRUE,Pay Bill Online,254715892656 - DENNIS MUSYOKA MUOKI,,kfa
RF281VS7TC,02/06/2023 15:07,02/06/2023 15:07,Pay Bill from 254704303496 - PETER MACHARIA WAIGANJO Acc. DFD,Completed,20000,,133000,TRUE,Pay Utility,254704303496 - PETER MACHARIA WAIGANJO,,DFD
RF211VPXQZ,02/06/2023 15:06,02/06/2023 15:06,Pay Bill Online from 254726001437 - FESTUS MUNYIRI MAINA Acc. IFF,Completed,10000,,113000,TRUE,Pay Bill Online,254726001437 - FESTUS MUNYIRI MAINA,,IFF
RF281U6XMG,02/06/2023 14:51,02/06/2023 14:51,Pay Bill Online from 254717809935 - LYDIAH WERU Acc. FFB,Completed,15000,,103000,TRUE,Pay Bill Online,254717809935 - LYDIAH WERU,,FFB
RF271L943J,02/06/2023 13:24,02/06/2023 13:24,Pay Bill Online from 0757319222 - ATEM KUOL JOHN BOL Acc. FAC,Completed,9500,,88000,TRUE,Pay Bill Online,0757319222 - ATEM KUOL JOHN BOL,,FAC
RF241HOI4K,02/06/2023 12:48,02/06/2023 12:48,Pay Bill from 254724379488 - NICHOLAS KOOME Acc. JDE,Completed,9500,,78500,TRUE,Pay Utility,254724379488 - NICHOLAS KOOME,,JDE
RF261A3GUG,02/06/2023 11:30,02/06/2023 11:30,Pay Bill from 254714060203 - PATRICK MWANGOMBE MSAWUCHI Acc. KEI,Completed,12000,,69000,TRUE,Pay Utility,254714060203 - PATRICK MWANGOMBE MSAWUCHI,,KEI
RF27ZZHGSB,02/06/2023 09:37,02/06/2023 09:37,Pay Bill from 0745421724 - Franciscar Muthini Maundu Acc. ICI,Completed,48000,,57000,TRUE,Pay Utility,0745421724 - Franciscar Muthini Maundu,,ICI
RF21ZWKT55,02/06/2023 09:06,02/06/2023 09:06,Pay Bill from 254745338401 - mirriam ngina jane Acc. KGC,Completed,9000,,9000,TRUE,Pay Utility,254745338401 - mirriam ngina jane,,KGC
RF22ZVONXQ,02/06/2023 08:56,02/06/2023 08:56,Utility Account to Organization Settlement Account,Completed,,-192800,0,TRUE,Utility Account to Organization Settlement Account,979524 - ANCIENT WELLS PROPERTY MANAGERS 2,,
RF28ZSAC3K,02/06/2023 08:16,02/06/2023 08:16,Pay Bill Online from 254703180395 - JANE NYAGUTHII MWAGO Acc. IBE,Completed,8000,,192800,TRUE,Pay Bill Online,254703180395 - JANE NYAGUTHII MWAGO,,IBE
RF26ZO526O,02/06/2023 07:16,02/06/2023 07:16,Pay Bill from 254700811449 - JOHN MULIMA ENANE Acc. HCE,Completed,10500,,184800,TRUE,Pay Utility,254700811449 - JOHN MULIMA ENANE,,HCE
RF29ZMRPMX,02/06/2023 06:49,02/06/2023 06:49,Pay Bill from 254711515672 - ALLAN MUTEMBEI Acc. IEI,Completed,15000,,174300,TRUE,Pay Utility,254711515672 - ALLAN MUTEMBEI,,IEI
RF21ZJCH4J,02/06/2023 01:47,02/06/2023 01:47,Pay Bill Online from 254721417560 - ANDREW SANDE Acc. JBJ,Completed,16000,,159300,TRUE,Pay Bill Online,254721417560 - ANDREW SANDE,,JBJ
RF12ZC6PJ0,01/06/2023 21:48,01/06/2023 21:48,Pay Bill from 254717726012 - WINFRED MUENI PETER Acc. IDA,Completed,16000,,143300,TRUE,Pay Utility,254717726012 - WINFRED MUENI PETER,,IDA
RF10Z854ZI,01/06/2023 21:06,01/06/2023 21:06,Pay Bill from 254708875278 - ROSEMARY WANJIRU KONYE Acc. Hbf,Completed,9000,,127300,TRUE,Pay Utility,254708875278 - ROSEMARY WANJIRU KONYE,,Hbf
RF11Z65BI1,01/06/2023 20:48,01/06/2023 20:48,Pay Bill Online from 254742023558 - PEACEMARY NJERI MAINA Acc. JBC,Completed,11000,,118300,TRUE,Pay Bill Online,254742023558 - PEACEMARY NJERI MAINA,,JBC
RF11YU4JYZ,01/06/2023 19:24,01/06/2023 19:24,Pay Bill Online from 254700518930 - RENE EMMANUEL AURA Acc. fbd,Completed,6300,,107300,TRUE,Pay Utility with OD Online,254700518930 - RENE EMMANUEL AURA,,fbd
RF12YOZM9S,01/06/2023 18:53,01/06/2023 18:53,Pay Bill Online from 0114973420 - WENDY KEMUNTO NYANDIKO Acc. FFC,Completed,9000,,101000,TRUE,Pay Bill Online,0114973420 - WENDY KEMUNTO NYANDIKO,,FFC
RF16YK6MZY,01/06/2023 18:20,01/06/2023 18:20,Pay Bill Online from 254795422216 - Dorothy Anyango Owuor Acc. House Number JBH,Completed,16000,,92000,TRUE,Pay Bill Online,254795422216 - Dorothy Anyango Owuor,,House
RF15YASE7R,01/06/2023 17:03,01/06/2023 17:03,Pay Bill from 254723389177 - NELSON MOI Acc. ibf,Completed,3000,,76000,TRUE,Pay Utility,254723389177 - NELSON MOI,,ibf
RF17Y64GE3,01/06/2023 16:20,01/06/2023 16:20,Pay Bill from 254725062550 - FRANKLINE MASSAM Acc. KAF,Completed,10000,,73000,TRUE,Pay Utility,254725062550 - FRANKLINE MASSAM,,KAF
RF12XZ4EVA,01/06/2023 15:11,01/06/2023 15:11,Pay Bill from 0705959083 - Mary Rita Osoma Acc. HED,Completed,10000,,63000,TRUE,Pay Utility,0705959083 - Mary Rita Osoma,,HED
RF17XTW2B5,01/06/2023 14:19,01/06/2023 14:19,Pay Bill Online from 254795510441 - LEWIS MUEMA Acc. KEB,Completed,16000,,53000,TRUE,Pay Bill Online,254795510441 - LEWIS MUEMA,,KEB
RF18XNZHP0,01/06/2023 13:21,01/06/2023 13:21,Pay Bill Online from 254715892656 - DENNIS MUSYOKA MUOKI Acc. kfa,Completed,5000,,37000,TRUE,Pay Bill Online,254715892656 - DENNIS MUSYOKA MUOKI,,kfa
RF15X7NYU3,01/06/2023 10:29,01/06/2023 10:29,Pay Bill from 0706563358 - HARRIET NYANCHAMA NYABERI Acc. HBA,Completed,16000,,32000,TRUE,Pay Utility,0706563358 - HARRIET NYANCHAMA NYABERI,,HBA
RF18X43UQW,01/06/2023 09:51,01/06/2023 09:51,FSI to Pay Bill by 998094 - COOP TO PAYBILL Acc. Hea via WEB by COOP TO PAYBILL\COOPAYBILLTRNS,Completed,16000,,16000,TRUE,FSI to Pay Bill via API,998094 - COOP TO PAYBILL,,Hea
RF13WXGSPT,01/06/2023 08:37,01/06/2023 08:37,Utility Account to Organization Settlement Account,Completed,,-117000,0,TRUE,Utility Account to Organization Settlement Account,979524 - ANCIENT WELLS PROPERTY MANAGERS 2,,
