Receipt No.,Completion Time,Initiation Time,Details,Transaction Status,Paid In,Withdrawn,Balance,Balance Confirmed,Reason Type,Other Party Info,Linked Transaction ID,A/C No.
OKN4S2T7XK,23/11/2020 10:21,23/11/2020 10:21,Pay Bill from 254706010242 - SIMON OTIENO Acc. IBI,Completed,31000,,31000,TRUE,Pay Utility,254706010242 - SIMON OTIENO,,IBI
OKN1RV1QT7,23/11/2020 05:09,23/11/2020 05:09,Utility Account to Organization Settlement Account,Completed,,-35000,0,TRUE,Utility Account to Organization Settlement Account,979524 - ANCIENT WELLS PROPERTY MANAGERS 2,,
OKM4RQTH0U,22/11/2020 20:50,22/11/2020 20:50,Pay Bill from 254720361605 - DAUD AMBER Acc. IGH,Completed,3000,,35000,TRUE,Pay Utility,254720361605 - DAUD AMBER,,IGH
OKM0QYTP10,22/11/2020 10:22,22/11/2020 10:22,Pay Bill from 254726611493 - Cornelius Kimeli Acc. HAG,Completed,16000,,32000,TRUE,Pay Utility,254726611493 - Cornelius Kimeli,,HAG
OKL0QDXMWO,21/11/2020 18:05,21/11/2020 18:05,Pay Bill from 254712991717 - PHILIP Edwin ANAYO Acc. JEH,Completed,16000,,16000,TRUE,Pay Utility,254712991717 - PHILIP Edwin ANAYO,,JEH
OKL0QAFD42,21/11/2020 16:57,21/11/2020 16:57,Utility Account to Organization Settlement Account,Completed,,-36000,0,TRUE,Utility Account to Organization Settlement Account,979524 - ANCIENT WELLS PROPERTY MANAGERS 2,,
OKL4PZ5E7I,21/11/2020 12:44,21/11/2020 12:44,Pay Bill from 254741583477 - omenda mzee aziz Acc. jef,Completed,17000,,36000,TRUE,Pay Utility,254741583477 - omenda mzee aziz,,jef
OKL6PVNKNE,21/11/2020 11:22,21/11/2020 11:22,Pay Bill from 254720703769 - MOHAMED ABUKAR SIYAD Acc. HBA,Completed,17000,,19000,TRUE,Pay Utility,254720703769 - MOHAMED ABUKAR SIYAD,,HBA
OKL3PP8OYH,21/11/2020 08:43,21/11/2020 08:43,Pay Bill from 254719499823 - MOSES MWANZIA MWANZIA MUTHIANI Acc. Jcc,Completed,2000,,2000,TRUE,Pay Utility,254719499823 - MOSES MWANZIA MWANZIA MUTHIANI,,Jcc
OKL5POI4MR,21/11/2020 08:22,21/11/2020 08:22,Utility Account to Organization Settlement Account,Completed,,-35000,0,TRUE,Utility Account to Organization Settlement Account,979524 - ANCIENT WELLS PROPERTY MANAGERS 2,,
OKK4PIQW4E,20/11/2020 22:08,20/11/2020 22:08,Pay Bill from 254719499823 - MOSES MWANZIA MWANZIA MUTHIANI Acc. Jcc,Completed,5000,,35000,TRUE,Pay Utility,254719499823 - MOSES MWANZIA MWANZIA MUTHIANI,,Jcc
OKK0PIPBOW,20/11/2020 22:07,20/11/2020 22:07,Pay Bill from 254703935626 - DAVID NGARI ITA Acc. FCD,Completed,1000,,30000,TRUE,Pay Utility,254703935626 - DAVID NGARI ITA,,FCD
OKK2P3BXCS,20/11/2020 17:27,20/11/2020 17:27,Pay Bill from 254724283753 - LILIAN PAAPAI Acc. IAD,Completed,11000,,29000,TRUE,Pay Utility,254724283753 - LILIAN PAAPAI,,IAD
OKK7P2YCRR,20/11/2020 17:20,20/11/2020 17:20,Pay Bill from 254711397174 - JASEL HOPE ANTONINA Acc. kef,Completed,15000,,18000,TRUE,Pay Utility,254711397174 - JASEL HOPE ANTONINA,,kef
OKK7P2SG15,20/11/2020 17:17,20/11/2020 17:17,Pay Bill Online from 254715764212 - BANCE ISHEMINYE Acc. JFE ,Completed,3000,,3000,TRUE,Pay Bill Online,254715764212 - BANCE ISHEMINYE,,JFE
OKK9OT7XLF,20/11/2020 13:45,20/11/2020 13:45,Utility Account to Organization Settlement Account,Completed,,-15500,0,TRUE,Utility Account to Organization Settlement Account,979524 - ANCIENT WELLS PROPERTY MANAGERS 2,,
OKK5OR2DHR,20/11/2020 12:54,20/11/2020 12:54,Pay Bill from 254728103722 - YASSIR MWINYI ABDULRAZAQ Acc. ICE,Completed,2000,,15500,TRUE,Pay Utility,254728103722 - YASSIR MWINYI ABDULRAZAQ,,ICE
OKK9OHRSMB,20/11/2020 08:57,20/11/2020 08:57,Pay Bill from 254720927770 - CHRISTOPHER MWANGE Acc. HFC,Completed,3500,,13500,TRUE,Pay Utility with OD via STK,254720927770 - CHRISTOPHER MWANGE,,HFC
OKK5OG6GAN,20/11/2020 08:09,20/11/2020 08:09,Pay Bill from 254722244406 - NOAH MELI Acc. Jac,Completed,10000,,10000,TRUE,Pay Utility with OD via STK,254722244406 - NOAH MELI,,Jac
