Receipt No.,Completion Time,Initiation Time,Details,Transaction Status,Paid In,Withdrawn,Balance,Balance Confirmed,Reason Type,Other Party Info,Linked Transaction ID,A/C No.
QLD73VCMZT,13/12/2022 18:58,13/12/2022 18:58,Utility Account to Organization Settlement Account,Completed,,-70000,400500,TRUE,Utility Account to Organization Settlement Account,887264 - ANCIENT WELLS LTD 2,,
QLD82UYPLQ,13/12/2022 13:20,13/12/2022 13:20,Pay Bill from 254728912446 - GRACE NJERI KIMANI Acc. ancient wells ,Completed,40000,,470500,TRUE,Pay Utility with OD via STK,254728912446 - GRACE NJERI KIMANI,,ancient
QLD92PMA73,13/12/2022 12:24,13/12/2022 12:24,Pay Bill from 254729140163 - BEATRICE OMADI NYANDIGA Acc. Z13,Completed,6000,,430500,TRUE,Pay Utility with OD via STK,254729140163 - BEATRICE OMADI NYANDIGA,,Z13
QLB0X4ARTM,11/12/2022 15:48,11/12/2022 15:48,Pay Bill from 0115556359 - CHEPNGENO   EDITH Acc. C701,Completed,20000,,424500,TRUE,Pay Utility,0115556359 - CHEPNGENO   EDITH,,C701
QLB8WAD88M,11/12/2022 10:00,11/12/2022 10:00,Pay Bill Online from 0743263203 - Patrick theuri wachira Acc. U1,Completed,5000,,404500,TRUE,Pay Bill Online,0743263203 - Patrick theuri wachira,,U1
QLA4VSGV3U,10/12/2022 23:20,10/12/2022 23:20,Pay Bill from 254720213934 - TERRY KAWIRA SALESIO Acc. 20,Completed,6000,,399500,TRUE,Pay Utility,254720213934 - TERRY KAWIRA SALESIO,,20
QLA3VR0CAX,10/12/2022 22:41,10/12/2022 22:41,FSI to Pay Bill by 998094 - COOP TO PAYBILL Acc. hse no.3 via WEB by COOP TO PAYBILL\COOPAYBILLTRNS,Completed,12000,,393500,TRUE,FSI to Pay Bill via API,998094 - COOP TO PAYBILL,,hse
QLA1TUE18T,10/12/2022 11:46,10/12/2022 11:46,Pay Bill from 254720867522 - DANIEL WAMBUI Acc. Z15 ,Completed,16000,,381500,TRUE,Pay Utility,254720867522 - DANIEL WAMBUI,,Z15
QL91SZYV21,09/12/2022 23:03,09/12/2022 23:03,Pay Bill from 254726928715 - ELIZAPHAN KAMAU NDUTA Acc. Z2,Completed,18000,,365500,TRUE,Pay Utility,254726928715 - ELIZAPHAN KAMAU NDUTA,,Z2
QL92R5YQ2S,09/12/2022 12:55,09/12/2022 12:55,Pay Bill Online from 254723909186 - BRIAN LIBASIA Acc. 18,Completed,16000,,347500,TRUE,Pay Bill Online,254723909186 - BRIAN LIBASIA,,18
QL90QSV4VK,09/12/2022 10:39,09/12/2022 10:39,Pay Bill from 254722314500 - SHARON AKINYI OBIERO Acc. hse 1,Completed,12000,,331500,TRUE,Pay Utility,254722314500 - SHARON AKINYI OBIERO,,hse
QL94QE3XWQ,09/12/2022 07:49,09/12/2022 07:49,Pay Bill Online from 254722269369 - FAIZ OMAR BASABRA Acc. Nairobi west 12,Completed,70000,,319500,TRUE,Pay Bill Online,254722269369 - FAIZ OMAR BASABRA,,Nairobi
QL86Q2DMJ4,08/12/2022 22:12,08/12/2022 22:12,Pay Bill Online from 254796931225 - Martin Nyaga Gikang'a Acc. z8,Completed,16000,,249500,TRUE,Pay Utility with OD Online,254796931225 - Martin Nyaga Gikang'a,,z8
QL80OH8CHM,08/12/2022 13:59,08/12/2022 13:59,Pay Bill from 254745077867 - ANTHONY MACHUA GATHEE Acc. Anne samvile11,Completed,15000,,233500,TRUE,Pay Utility,254745077867 - ANTHONY MACHUA GATHEE,,Anne
QL85O8JEFF,08/12/2022 12:34,08/12/2022 12:34,Pay Bill from 254728208930 - DOREEN MAKENA Acc. Z 10,Completed,15000,,218500,TRUE,Pay Utility,254728208930 - DOREEN MAKENA,,Z
QL74MO4LX0,07/12/2022 19:40,07/12/2022 19:40,Utility Account to Organization Settlement Account,Completed,,-23000,203500,TRUE,Utility Account to Organization Settlement Account,887264 - ANCIENT WELLS LTD 2,,
QL76M4UHK8,07/12/2022 17:26,07/12/2022 17:26,Pay Bill from 254721392330 - ROSE KENDI Acc. A202,Completed,90000,,226500,TRUE,Pay Utility,254721392330 - ROSE KENDI,,A202
QL75M3X14R,07/12/2022 17:18,07/12/2022 17:18,Pay Bill from 254723882311 - VERONICAH WAMBUGU Acc. House number 9,Completed,16000,,136500,TRUE,Pay Utility,254723882311 - VERONICAH WAMBUGU,,House
QL76L02B1G,07/12/2022 10:57,07/12/2022 10:57,Pay Bill from 254725014210 - FREDRICK MOUNDE Acc. epz mh,Completed,30000,,120500,TRUE,Pay Utility,254725014210 - FREDRICK MOUNDE,,epz
QL64ISURRY,06/12/2022 15:26,06/12/2022 15:26,Pay Bill Online from 254716779144 - VICTOR OMONDI SIDIGU Acc. U2,Completed,5500,,90500,TRUE,Pay Bill Online,254716779144 - VICTOR OMONDI SIDIGU,,U2
QL66IBYH1U,06/12/2022 12:48,06/12/2022 12:48,Pay Bill Online from 254723303260 - nely covetti mwenesi Acc. SAVANNAH 102,Completed,37000,,85000,TRUE,Pay Bill Online,254723303260 - nely covetti mwenesi,,SAVANNAH
QL54FGSDXE,05/12/2022 14:26,05/12/2022 14:26,Pay Bill Online from 254723634653 - CHARD MASHANGA Acc. House No 7,Completed,16000,,48000,TRUE,Pay Bill Online,254723634653 - CHARD MASHANGA,,House
QL40DRYOL6,04/12/2022 21:32,04/12/2022 21:32,Pay Bill from 254718736574 - PATRICK LUMUMBA AGAN Acc. 369S,Completed,13000,,32000,TRUE,Pay Utility,254718736574 - PATRICK LUMUMBA AGAN,,369S
QL49BRF0BF,04/12/2022 11:10,04/12/2022 11:10,Pay Bill Online from 254718167869 - MARK OTIENO Acc. A3,Completed,7000,,19000,TRUE,Pay Bill Online,254718167869 - MARK OTIENO,,A3
QL2349LW89,02/12/2022 01:25,02/12/2022 01:25,Pay Bill from 254710966654 - MILLICENT ACHIENG ODHONE Acc. Andrew Odhiambo,Completed,12000,,12000,TRUE,Pay Utility,254710966654 - MILLICENT ACHIENG ODHONE,,Andrew
