Receipt No.,Completion Time,Initiation Time,Details,Transaction Status,Paid In,Withdrawn,Balance,Balance Confirmed,Reason Type,Other Party Info,Linked Transaction ID,A/C No.
PL71QSLX5X,07/12/2021 11:05,07/12/2021 11:05,Pay Bill from 254703108159 - JOICE OGOLLA Acc. V50,Completed,6600,,6600,TRUE,Pay Utility,254703108159 - JOICE OGOLLA,,V50
PL79QO146N,07/12/2021 09:48,07/12/2021 09:48,Utility Account to Organization Settlement Account,Completed,,-24100,0,TRUE,Utility Account to Organization Settlement Account,887674 - ANCIENT WELLS LTD 1,,
PL79QIMUKN,07/12/2021 08:07,07/12/2021 08:07,Pay Bill from 254720230582 - SHADRACK KITAKA NGILA Acc. v01,Completed,7000,,24100,TRUE,Pay Utility,254720230582 - SHADRACK KITAKA NGILA,,v01
PL77QG2GRZ,07/12/2021 07:02,07/12/2021 07:02,Pay Bill from 254707568664 - Ismael Kitsao Acc. v52,Completed,3500,,17100,TRUE,Pay Utility,254707568664 - Ismael Kitsao,,v52
PL61PSKBMP,06/12/2021 18:26,06/12/2021 18:26,Pay Bill from 254713916352 - WINFRED KATUNGWA NDALA Acc. V30,Completed,6600,,13600,TRUE,Pay Utility,254713916352 - WINFRED KATUNGWA NDALA,,V30
PL62PJL1AG,06/12/2021 16:29,06/12/2021 16:29,Pay Bill from 254759390371 - RHINUS MUTWIRI KINYURU Acc. v26 ,Completed,7000,,7000,TRUE,Pay Utility,254759390371 - RHINUS MUTWIRI KINYURU,,v26
PL63P5Q21T,06/12/2021 12:47,06/12/2021 12:47,Utility Account to Organization Settlement Account,Completed,,-44100,0,TRUE,Utility Account to Organization Settlement Account,887674 - ANCIENT WELLS LTD 1,,
PL60P3NW48,06/12/2021 12:13,06/12/2021 12:13,Pay Bill from 254723389922 - ANNE WANJIKU NDUNGU Acc. v53,Completed,6800,,44100,TRUE,Pay Utility,254723389922 - ANNE WANJIKU NDUNGU,,v53
PL69OZ8PWZ,06/12/2021 11:00,06/12/2021 11:00,Pay Bill from 254726465584 - JULIANA MUKELI MUTUNGA Acc. v4,Completed,6600,,37300,TRUE,Pay Utility,254726465584 - JULIANA MUKELI MUTUNGA,,v4
PL50OKC3VK,05/12/2021 23:56,05/12/2021 23:56,Pay Bill from 254758951969 - WILKISTER IRAKO HARAMBEE Acc. 37847739,Completed,7000,,30700,TRUE,Pay Utility,254758951969 - WILKISTER IRAKO HARAMBEE,,37847739
PL50OJDG6C,05/12/2021 22:51,05/12/2021 22:51,Pay Bill from 254708915764 - GEORGE WAHOME Acc. V18,Completed,6600,,23700,TRUE,Pay Utility,254708915764 - GEORGE WAHOME,,V18
PL51OETUDL,05/12/2021 21:02,05/12/2021 21:02,Pay Bill from 254712091662 - BENARD OMONDI ROBY Acc. V16,Completed,6600,,17100,TRUE,Pay Utility,254712091662 - BENARD OMONDI ROBY,,V16
PL55OE8WE3,05/12/2021 20:53,05/12/2021 20:53,Pay Bill from 254722578070 - SAMUEL MACHARIA Acc. v42,Completed,7000,,10500,TRUE,Pay Utility,254722578070 - SAMUEL MACHARIA,,v42
PL57ODRXX7,05/12/2021 20:46,05/12/2021 20:46,Pay Bill from 0702360376 - Bonface aganga nyamongo Acc. vk4,Completed,3500,,3500,TRUE,Pay Utility,0702360376 - Bonface aganga nyamongo,,vk4
PL50O0HX2O,05/12/2021 18:06,05/12/2021 18:06,Utility Account to Organization Settlement Account,Completed,,-6600,0,TRUE,Utility Account to Organization Settlement Account,887674 - ANCIENT WELLS LTD 1,,
PL52NXK8R6,05/12/2021 17:24,05/12/2021 17:24,Pay Bill from 0795807227 - Lucy Ncekei Kimathi Acc. V36,Completed,6600,,6600,TRUE,Pay Utility,0795807227 - Lucy Ncekei Kimathi,,V36
PL58NTCQGM,05/12/2021 16:23,05/12/2021 16:23,Utility Account to Organization Settlement Account,Completed,,-40800,0,TRUE,Utility Account to Organization Settlement Account,887674 - ANCIENT WELLS LTD 1,,
PL56NBWVFE,05/12/2021 11:27,05/12/2021 11:27,Pay Bill from 254720623535 - JOSEPH MUTURI KAMAU Acc. V32,Completed,6600,,40800,TRUE,Pay Utility,254720623535 - JOSEPH MUTURI KAMAU,,V32
PL53N915DH,05/12/2021 10:31,05/12/2021 10:31,Pay Bill from 254712927291 - JACINTER ODUOR Acc. V25,Completed,7000,,34200,TRUE,Pay Utility,254712927291 - JACINTER ODUOR,,V25
PL57N76583,05/12/2021 09:55,05/12/2021 09:55,Pay Bill from 254723815832 - SEMEKIA ONDIALA Acc. V38,Completed,6600,,27200,TRUE,Pay Utility,254723815832 - SEMEKIA ONDIALA,,V38
PL47MUNBOH,04/12/2021 22:18,04/12/2021 22:18,Pay Bill from 0758457508 - PETER KINGORI KAGUNDA Acc. V06,Completed,7000,,20600,TRUE,Pay Utility,0758457508 - PETER KINGORI KAGUNDA,,V06
PL46MR24ZQ,04/12/2021 21:08,04/12/2021 21:08,Pay Bill from 254718818610 - HANNAH NALIAKA Acc. V23,Completed,6600,,13600,TRUE,Pay Utility,254718818610 - HANNAH NALIAKA,,V23
PL49MFNGGH,04/12/2021 18:57,04/12/2021 18:57,Pay Bill from 254701261592 - VICTOR MWILU Acc. v37,Completed,7000,,7000,TRUE,Pay Utility,254701261592 - VICTOR MWILU,,v37
PL45M552SN,04/12/2021 16:52,04/12/2021 16:52,Utility Account to Organization Settlement Account,Completed,,-10500,0,TRUE,Utility Account to Organization Settlement Account,887674 - ANCIENT WELLS LTD 1,,
PL47L5DYTF,04/12/2021 06:50,04/12/2021 06:50,Pay Bill from 254717294709 - CAROLINE WAVINYA NDINDA Acc. v15,Completed,7000,,10500,TRUE,Pay Utility,254717294709 - CAROLINE WAVINYA NDINDA,,v15
PL41L2PLPH,04/12/2021 00:00,04/12/2021 00:00,Pay Bill from 0701762102 - KELVIN SOMBA MAUNDU Acc. vk6,Completed,3500,,3500,TRUE,Pay Utility,0701762102 - KELVIN SOMBA MAUNDU,,vk6
PL34KS9DFE,03/12/2021 20:08,03/12/2021 20:08,Utility Account to Organization Settlement Account,Completed,,-6600,0,TRUE,Utility Account to Organization Settlement Account,887674 - ANCIENT WELLS LTD 1,,
PL36JIEIKC,03/12/2021 09:12,03/12/2021 09:12,Pay Bill from 254727729395 - ROBERT OUKO OSORO Acc. V29,Completed,6600,,6600,TRUE,Pay Utility,254727729395 - ROBERT OUKO OSORO,,V29
PL21I566V5,02/12/2021 13:21,02/12/2021 13:21,Utility Account to Organization Settlement Account,Completed,,-34200,0,TRUE,Utility Account to Organization Settlement Account,887674 - ANCIENT WELLS LTD 1,,
PL27HYGDDT,02/12/2021 11:25,02/12/2021 11:25,Pay Bill from 254700904994 - HUSSEIN HASSAN LAMA Acc. v43,Completed,7000,,34200,TRUE,Pay Utility,254700904994 - HUSSEIN HASSAN LAMA,,v43
PL26HSHGT4,02/12/2021 09:39,02/12/2021 09:39,Pay Bill Online from 0725639425 - GEOFFREY ODOYO OMUNE Acc. V13,Completed,2500,,27200,TRUE,Pay Bill Online,0725639425 - GEOFFREY ODOYO OMUNE,,V13
PL20HQ67HW,02/12/2021 08:55,02/12/2021 08:55,Pay Bill from 0717042461 - Sharon Nyangasi Shivachi Acc. V55,Completed,10700,,24700,TRUE,Pay Utility,0717042461 - Sharon Nyangasi Shivachi,,V55
PL29HP6ZDN,02/12/2021 08:36,02/12/2021 08:36,Pay Bill Online from 0769929240 - Calvince Klein Alal Acc. v02,Completed,14000,,14000,TRUE,Pay Utility with OD Online,0769929240 - Calvince Klein Alal,,v02
PL13H5TPRZ,01/12/2021 19:48,01/12/2021 19:48,Utility Account to Organization Settlement Account,Completed,,-23600,0,TRUE,Utility Account to Organization Settlement Account,887674 - ANCIENT WELLS LTD 1,,
PL11H5OQPT,01/12/2021 19:47,01/12/2021 19:47,Pay Bill from 0727542914 - Pascal Ouma Opar Acc. pascalv45,Completed,6600,,23600,TRUE,Pay Utility,0727542914 - Pascal Ouma Opar,,pascalv45
PL10H5DHKI,01/12/2021 19:43,01/12/2021 19:43,Pay Bill from 0722531422 - ANTHONY ITIMU MAINA Acc. JBD,Completed,10000,,17000,TRUE,Pay Utility,0722531422 - ANTHONY ITIMU MAINA,,JBD
PL12GSME9I,01/12/2021 17:30,01/12/2021 17:30,Pay Bill Online from 254706427665 - CHRIS KIRIMI Acc. V22,Completed,7000,,7000,TRUE,Pay Bill Online,254706427665 - CHRIS KIRIMI,,V22
PL19G9FCK7,01/12/2021 12:29,01/12/2021 12:29,Utility Account to Organization Settlement Account,Completed,,-24600,0,TRUE,Utility Account to Organization Settlement Account,887674 - ANCIENT WELLS LTD 1,,
PL16FPD31E,01/12/2021 01:43,01/12/2021 01:43,Pay Bill from 254722648389 - SUDI MOSES Acc. V31,Completed,7000,,24600,TRUE,Pay Utility,254722648389 - SUDI MOSES,,V31
