Receipt No.,Completion Time,Initiation Time,Details,Transaction Status,Paid In,Withdrawn,Balance,Balance Confirmed,Reason Type,Other Party Info,Linked Transaction ID,A/C No.
RGA8757IHY,10/07/2023 16:07,10/07/2023 16:07,Pay Bill Online from 254710732381 - JANE ACHIENG MBEKE Acc. HAF,Completed,10000,,18000,TRUE,Pay Bill Online,254710732381 - JANE ACHIENG MBEKE,,HAF
RGA26UZSTO,10/07/2023 14:22,10/07/2023 14:22,Pay Bill Online from 254715764212 - BANCE ISHEMINYE Acc. JFE,Completed,8000,,8000,TRUE,Pay Bill Online,254715764212 - BANCE ISHEMINYE,,JFE
RGA05V8LGE,10/07/2023 08:05,10/07/2023 08:05,Utility Account to Organization Settlement Account,Completed,,-143900,0,TRUE,Utility Account to Organization Settlement Account,979524 - ANCIENT WELLS PROPERTY MANAGERS 2,,
RGA15UCGWL,10/07/2023 07:53,10/07/2023 07:53,Pay Bill from 254716581384 - GREGORY KILUNGYA Acc. DAD,Completed,20000,,143900,TRUE,Pay Utility,254716581384 - GREGORY KILUNGYA,,DAD
RGA35NDDZ9,10/07/2023 02:10,10/07/2023 02:10,Pay Bill from 254703935626 - DAVID NGARI ITA Acc. FCD,Completed,1000,,123900,TRUE,Pay Utility,254703935626 - DAVID NGARI ITA,,FCD
RG9551CH37,09/07/2023 19:43,09/07/2023 19:43,Pay Bill Online from 254720451253 - JIMMY KIOGORA NKIROTE Acc. KBD,Completed,1000,,122900,TRUE,Pay Utility with OD Online,254720451253 - JIMMY KIOGORA NKIROTE,,KBD
RG934TLTK5,09/07/2023 18:52,09/07/2023 18:52,Pay Bill from 254796848496 - IVY WITABA Acc. FAA,Completed,10000,,121900,TRUE,Pay Utility,254796848496 - IVY WITABA,,FAA
RG904NR3E4,09/07/2023 18:06,09/07/2023 18:06,Pay Bill from 254721315975 - JOSEPH NDEGWA Acc. HEB,Completed,16000,,111900,TRUE,Pay Utility,254721315975 - JOSEPH NDEGWA,,HEB
RG92492IRM,09/07/2023 15:48,09/07/2023 15:48,Pay Bill from 254701112397 - ELEMA GODANA DIBA Acc. FCA,Completed,3000,,95900,TRUE,Pay Utility,254701112397 - ELEMA GODANA DIBA,,FCA
RG9746QOED,09/07/2023 15:24,09/07/2023 15:24,Pay Bill from 0742599061 - Judy Masese Samwel Acc. Hgf,Completed,9500,,92900,TRUE,Pay Utility,0742599061 - Judy Masese Samwel,,Hgf
RG9845T52S,09/07/2023 15:15,09/07/2023 15:15,Pay Bill from 254723389177 - NELSON MOI Acc. ibf,Completed,3000,,83400,TRUE,Pay Utility,254723389177 - NELSON MOI,,ibf
RG933AXWGT,09/07/2023 09:21,09/07/2023 09:21,Pay Bill from 254720814822 - JAMES OTIENO OPAR Acc. jgj,Completed,2000,,80400,TRUE,Pay Utility,254720814822 - JAMES OTIENO OPAR,,jgj
RG992ZL3D5,09/07/2023 02:51,09/07/2023 02:51,Pay Bill Online from 254715892656 - DENNIS MUSYOKA MUOKI Acc. kfa,Completed,4900,,78400,TRUE,Pay Bill Online,254715892656 - DENNIS MUSYOKA MUOKI,,kfa
RG872LZ06N,08/07/2023 21:05,08/07/2023 21:05,Pay Bill from 254740579741 - MUHINDI MULINYA Acc. HGG,Completed,10000,,73500,TRUE,Pay Utility,254740579741 - MUHINDI MULINYA,,HGG
RG852HAW45,08/07/2023 20:29,08/07/2023 20:29,Pay Bill Online from 254712974871 - PAULA WANJIKU GATUI Acc. HEA,Completed,16000,,63500,TRUE,Pay Bill Online,254712974871 - PAULA WANJIKU GATUI,,HEA
RG851WB597,08/07/2023 18:14,08/07/2023 18:14,Pay Bill Online from 0722255105 - SALIM OMAR MZEE Acc. FGF,Completed,16000,,47500,TRUE,Pay Utility with OD Online,0722255105 - SALIM OMAR MZEE,,FGF
RG831QXV5H,08/07/2023 17:33,08/07/2023 17:33,Pay Bill from 254720814822 - JAMES OTIENO OPAR Acc. jgj,Completed,1500,,31500,TRUE,Pay Utility,254720814822 - JAMES OTIENO OPAR,,jgj
RG861H1Z34,08/07/2023 16:08,08/07/2023 16:08,Pay Bill from 0799122666 - ERIC WAWERU KIAMA Acc. JDI,Completed,20000,,30000,TRUE,Pay Utility,0799122666 - ERIC WAWERU KIAMA,,JDI
RG8619NA8A,08/07/2023 14:58,08/07/2023 14:58,Pay Bill from 254741573910 - VINCENT ODUOR OLIENG Acc. HBC,Completed,10000,,10000,TRUE,Pay Utility,254741573910 - VINCENT ODUOR OLIENG,,HBC
RG8314M1RN,08/07/2023 14:10,08/07/2023 14:10,Utility Account to Organization Settlement Account,Completed,,-661700,0,TRUE,Utility Account to Organization Settlement Account,979524 - ANCIENT WELLS PROPERTY MANAGERS 2,,
RG80ZXHWTO,08/07/2023 13:03,08/07/2023 13:03,Pay Bill Online from 254700518930 - RENE EMMANUEL AURA Acc. fbd,Completed,3000,,661700,TRUE,Pay Bill Online,254700518930 - RENE EMMANUEL AURA,,fbd
RG82ZSQXUA,08/07/2023 12:15,08/07/2023 12:15,Pay Bill from 254791387800 - CAROL MUTUNGA Acc. ICF,Completed,11000,,658700,TRUE,Pay Utility,254791387800 - CAROL MUTUNGA,,ICF
RG86ZR4OG0,08/07/2023 11:59,08/07/2023 11:59,Pay Bill from 254702488841 - JEREMIAH NYANSIKERA Acc. KAK,Completed,16000,,647700,TRUE,Pay Utility,254702488841 - JEREMIAH NYANSIKERA,,KAK
RG87ZQ6KAF,08/07/2023 11:50,08/07/2023 11:50,Pay Bill from 254708968773 - Elema Godana Diba Acc. FCA,Completed,9000,,631700,TRUE,Pay Utility,254708968773 - Elema Godana Diba,,FCA
RG80ZJR92I,08/07/2023 10:45,08/07/2023 10:45,Pay Bill Online from 254723901777 - EVANS YEBEI Acc. KCH,Completed,10000,,622700,TRUE,Pay Utility with OD Online,254723901777 - EVANS YEBEI,,KCH
RG89ZCHOMJ,08/07/2023 09:28,08/07/2023 09:28,Pay Bill from 0717441870 - Steven oduor ogutu Acc. KTA,Completed,9500,,612700,TRUE,Pay Utility,0717441870 - Steven oduor ogutu,,KTA
RG81ZBG2UH,08/07/2023 09:15,08/07/2023 09:15,Pay Bill Online from 254722910078 - MAUREEN MUNYIVA MUTUKU Acc. DCD,Completed,5000,,603200,TRUE,Pay Bill Online,254722910078 - MAUREEN MUNYIVA MUTUKU,,DCD
RG80ZAUBNG,08/07/2023 09:08,08/07/2023 09:08,Pay Bill from 0791379873 - Joseph Kyalo Sila Acc. HAH,Completed,16000,,598200,TRUE,Pay Utility,0791379873 - Joseph Kyalo Sila,,HAH
RG88Z8K5MS,08/07/2023 08:41,08/07/2023 08:41,Pay Bill from 254717247817 - NYANGAU HARONI Acc. kbf,Completed,9000,,582200,TRUE,Pay Utility with OD via STK,254717247817 - NYANGAU HARONI,,kbf
RG82YZ9BNU,08/07/2023 03:12,08/07/2023 03:12,Pay Bill from 254700430569 - EDITH   GAKII Acc. DDB,Completed,16000,,573200,TRUE,Pay Utility with OD via STK,254700430569 - EDITH   GAKII,,DDB
RG86YXM05C,08/07/2023 00:31,08/07/2023 00:31,Pay Bill from 254720814822 - JAMES OTIENO OPAR Acc. jgj,Completed,1500,,557200,TRUE,Pay Utility with OD via STK,254720814822 - JAMES OTIENO OPAR,,jgj
RG73YMFMKP,07/07/2023 21:02,07/07/2023 21:02,Pay Bill from 254725621394 - RACHAEL WACHIRA Acc. Jfb,Completed,15000,,555700,TRUE,Pay Utility,254725621394 - RACHAEL WACHIRA,,Jfb
RG72YHFGHS,07/07/2023 20:21,07/07/2023 20:21,Pay Bill Online from 254723394064 - ANDREW LAGAT Acc. HBG,Completed,16000,,540700,TRUE,Pay Bill Online,254723394064 - ANDREW LAGAT,,HBG
RG71YGQHML,07/07/2023 20:16,07/07/2023 20:16,Pay Bill Online from 254724201046 - GIDEON NDOLO Acc. KFH,Completed,10000,,524700,TRUE,Pay Bill Online,254724201046 - GIDEON NDOLO,,KFH
RG75Y3SELF,07/07/2023 18:53,07/07/2023 18:53,Pay Bill from 254725062550 - FRANKLINE MASSAM Acc. KAF,Completed,10000,,514700,TRUE,Pay Utility,254725062550 - FRANKLINE MASSAM,,KAF
RG78Y1WC86,07/07/2023 18:41,07/07/2023 18:41,Pay Bill Online from 254792187144 - HASSAN AHMED HASSAN Acc. KGI,Completed,10000,,504700,TRUE,Pay Bill Online,254792187144 - HASSAN AHMED HASSAN,,KGI
RG78X2HZHO,07/07/2023 13:27,07/07/2023 13:27,Pay Bill from 254710965167 - KUSA STEPHANIE HAZEL Acc. JEB,Completed,12500,,494700,TRUE,Pay Utility,254710965167 - KUSA STEPHANIE HAZEL,,JEB
RG70X144C6,07/07/2023 13:13,07/07/2023 13:13,Pay Bill Online from 254720381965 - JAMES NGUGI MWANIKI Acc. JBI,Completed,20000,,482200,TRUE,Pay Bill Online,254720381965 - JAMES NGUGI MWANIKI,,JBI
RG79WYH317,07/07/2023 12:46,07/07/2023 12:46,Pay Bill from 254729371750 - DERRICK OTANGA Acc. DAC,Completed,20000,,462200,TRUE,Pay Utility with OD via STK,254729371750 - DERRICK OTANGA,,DAC
RG72WVXCEK,07/07/2023 12:19,07/07/2023 12:19,Pay Bill Online from 254714552193 - CHRISTOPHER OCHIENG Acc. JGI ,Completed,20500,,442200,TRUE,Pay Bill Online,254714552193 - CHRISTOPHER OCHIENG,,JGI
RG73WVRRUB,07/07/2023 12:18,07/07/2023 12:18,Pay Bill Online from 254714710698 - TABITHA MULEE KYALO Acc. IFD,Completed,11500,,421700,TRUE,Pay Bill Online,254714710698 - TABITHA MULEE KYALO,,IFD
RG79WRULTP,07/07/2023 11:36,07/07/2023 11:36,Pay Bill from 254722136450 - MARY EVERLYN Acc. JAI,Completed,20000,,410200,TRUE,Pay Utility,254722136450 - MARY EVERLYN,,JAI
RG73WQK1G3,07/07/2023 11:23,07/07/2023 11:23,Pay Bill Online from 254715764212 - BANCE ISHEMINYE Acc. JFE,Completed,3000,,390200,TRUE,Pay Bill Online,254715764212 - BANCE ISHEMINYE,,JFE
RG71WQIQYF,07/07/2023 11:23,07/07/2023 11:23,Pay Bill from 254700557767 - BAKHITA MWENDE MUANGE Acc. kcb,Completed,16000,,387200,TRUE,Pay Utility,254700557767 - BAKHITA MWENDE MUANGE,,kcb
RG70WIYM0E,07/07/2023 10:05,07/07/2023 10:05,Pay Bill from 254726028330 - JOHN WAMBUA Acc. IFH,Completed,15000,,371200,TRUE,Pay Utility with OD via STK,254726028330 - JOHN WAMBUA,,IFH
RG77WIVZP1,07/07/2023 10:04,07/07/2023 10:04,Pay Bill Online from 0769918050 - newton   mutethia Acc. JBG,Completed,10000,,356200,TRUE,Pay Bill Online,0769918050 - newton   mutethia,,JBG
RG76WINRCE,07/07/2023 10:01,07/07/2023 10:01,Pay Bill from 254717985596 - NICHOLAS KIPKOECH BUTIA Acc. hcf,Completed,9000,,346200,TRUE,Pay Utility,254717985596 - NICHOLAS KIPKOECH BUTIA,,hcf
RG74WFBJNE,07/07/2023 09:24,07/07/2023 09:24,Pay Bill from 254722521028 - CHARLES MONYONCHO Acc. JDA,Completed,20000,,337200,TRUE,Pay Utility,254722521028 - CHARLES MONYONCHO,,JDA
RG71WBQIJZ,07/07/2023 08:41,07/07/2023 08:41,Pay Bill from 0112254959 - Timothy muoka musyoka Acc. JCA,Completed,14000,,317200,TRUE,Pay Utility with OD via STK,0112254959 - Timothy muoka musyoka,,JCA
RG78W94VGG,07/07/2023 08:07,07/07/2023 08:07,Business Pay Bill by 488519 - NCBA  Bank M-pesa Acc. JCD via API,Completed,15000,,303200,TRUE,Business Pay Bill via API,488519 - NCBA  Bank M-pesa,,JCD
RG79W3BCB5,07/07/2023 05:52,07/07/2023 05:52,Pay Bill from 254743487420 - Margaret Wacu Muia Acc. FCE,Completed,15000,,288200,TRUE,Pay Utility,254743487420 - Margaret Wacu Muia,,FCE
RG77W16DE1,07/07/2023 01:08,07/07/2023 01:08,Pay Bill from 254796878941 - PAUL KYALO MUENDO Acc. HBE,Completed,10000,,273200,TRUE,Pay Utility with OD via STK,254796878941 - PAUL KYALO MUENDO,,HBE
RG64VXIP20,06/07/2023 22:40,06/07/2023 22:40,Pay Bill from 254705641030 - FRIDAH WAENI MUITHYA Acc. JEH,Completed,16000,,263200,TRUE,Pay Utility,254705641030 - FRIDAH WAENI MUITHYA,,JEH
RG66VWZ42M,06/07/2023 22:30,06/07/2023 22:30,Pay Bill Online from 254712999232 - MARRIAN PAUL Acc. DCB,Completed,16000,,247200,TRUE,Pay Bill Online,254712999232 - MARRIAN PAUL,,DCB
RG62VK75B8,06/07/2023 20:23,06/07/2023 20:23,Pay Bill Online from 0703634804 - SYLVIA NYAMBURA NJOROGE Acc. KCD,Completed,11000,,231200,TRUE,Pay Bill Online,0703634804 - SYLVIA NYAMBURA NJOROGE,,KCD
RG66VAB1XU,06/07/2023 19:20,06/07/2023 19:20,Pay Bill Online from 254729097858 - AMBROSE ADEYA AHAWO Acc. KCF,Completed,10000,,220200,TRUE,Pay Bill Online,254729097858 - AMBROSE ADEYA AHAWO,,KCF
RG64V8HZXU,06/07/2023 19:10,06/07/2023 19:10,Pay Bill from 0740208174 - Josephine adhiambo koyi Acc. Ifg,Completed,9000,,210200,TRUE,Pay Utility,0740208174 - Josephine adhiambo koyi,,Ifg
RG62V787T0,06/07/2023 19:03,06/07/2023 19:03,Pay Bill from 254711742716 - RODGERS KIPLANGAT KORIR Acc. IGC,Completed,9000,,201200,TRUE,Pay Utility,254711742716 - RODGERS KIPLANGAT KORIR,,IGC
RG67V5OMAP,06/07/2023 18:53,06/07/2023 18:53,Pay Bill Online from 254713966424 - NDUTI MUTHUI Acc. Jed ,Completed,15000,,192200,TRUE,Pay Bill Online,254713966424 - NDUTI MUTHUI,,Jed
RG69V2R4P5,06/07/2023 18:34,06/07/2023 18:34,Pay Bill from 254724477912 - SAMUEL MURIMI Acc. HCD,Completed,10000,,177200,TRUE,Pay Utility,254724477912 - SAMUEL MURIMI,,HCD
RG65V1J5IV,06/07/2023 18:26,06/07/2023 18:26,Pay Bill from 0724386624 - FATUMA ISSE YUSSUF Acc. FAB,Completed,16000,,167200,TRUE,Pay Utility,0724386624 - FATUMA ISSE YUSSUF,,FAB
RG65UU90GF,06/07/2023 17:33,06/07/2023 17:33,Pay Bill Online from 254710814215 - JOAN NYAMBURA KAMAU Acc. ifb,Completed,15000,,151200,TRUE,Pay Bill Online,254710814215 - JOAN NYAMBURA KAMAU,,ifb
RG69UQXNY3,06/07/2023 17:06,06/07/2023 17:06,Pay Bill Online from 254799805832 - NATHANIEl MAMBO MBITHI Acc. KBH,Completed,12200,,136200,TRUE,Pay Bill Online,254799805832 - NATHANIEl MAMBO MBITHI,,KBH
RG69UNRF9F,06/07/2023 16:38,06/07/2023 16:38,Pay Bill from 254720051502 - JOHN OCHIENG ONYANGO Acc. JFA,Completed,10000,,124000,TRUE,Pay Utility,254720051502 - JOHN OCHIENG ONYANGO,,JFA
RG67UJNNYN,06/07/2023 16:00,06/07/2023 16:00,Pay Bill from 254720814822 - JAMES OTIENO OPAR Acc. jgj,Completed,5000,,114000,TRUE,Pay Utility with OD via STK,254720814822 - JAMES OTIENO OPAR,,jgj
RG60UJ9PUW,06/07/2023 15:56,06/07/2023 15:56,Pay Bill from 0707950214 - Abdirashid Osman Huka Acc. KEJ,Completed,16000,,109000,TRUE,Pay Utility,0707950214 - Abdirashid Osman Huka,,KEJ
RG61U8YSN3,06/07/2023 14:14,06/07/2023 14:14,Pay Bill Online from 0757699775 - BENARD MUIA MUTUA Acc. HCB,Completed,16000,,93000,TRUE,Pay Utility with OD Online,0757699775 - BENARD MUIA MUTUA,,HCB
RG63U8SIY5,06/07/2023 14:12,06/07/2023 14:12,Pay Bill Online from 254710146965 - BRENDA DORCAS MABONGA Acc. hfg,Completed,15000,,77000,TRUE,Pay Bill Online,254710146965 - BRENDA DORCAS MABONGA,,hfg
RG62U78UKW,06/07/2023 13:57,06/07/2023 13:57,Pay Bill Online from 254711507729 - DAVID ANYONGE MALIJAMBO Acc. HFA,Completed,16000,,62000,TRUE,Pay Bill Online,254711507729 - DAVID ANYONGE MALIJAMBO,,HFA
RG67U650O7,06/07/2023 13:47,06/07/2023 13:47,Pay Bill Online from 254713404029 - ANNE ISEUNA Acc. DED,Completed,20000,,46000,TRUE,Pay Bill Online,254713404029 - ANNE ISEUNA,,DED
RG69U5QIZF,06/07/2023 13:43,06/07/2023 13:43,Pay Bill Online from 254706549634 - CLINTON OMBASA Acc. FDB,Completed,10000,,26000,TRUE,Pay Utility with OD Online,254706549634 - CLINTON OMBASA,,FDB
RG60TWPMYI,06/07/2023 12:17,06/07/2023 12:17,Pay Bill from 254711123196 - JUDITH MUTUA Acc. FEA,Completed,16000,,16000,TRUE,Pay Utility,254711123196 - JUDITH MUTUA,,FEA
RG60TSV0V6,06/07/2023 11:37,06/07/2023 11:37,Utility Account to Organization Settlement Account,Completed,,-317500,0,TRUE,Utility Account to Organization Settlement Account,979524 - ANCIENT WELLS PROPERTY MANAGERS 2,,
RG68TSI60M,06/07/2023 11:34,06/07/2023 11:34,Pay Bill Online from 254715892656 - DENNIS MUSYOKA MUOKI Acc. kfa,Completed,3000,,317500,TRUE,Pay Bill Online,254715892656 - DENNIS MUSYOKA MUOKI,,kfa
RG67TMTO03,06/07/2023 10:34,06/07/2023 10:34,Pay Bill from 254724379488 - NICHOLAS KOOME Acc. JDE,Completed,9500,,314500,TRUE,Pay Utility,254724379488 - NICHOLAS KOOME,,JDE
RG63TB3Y5V,06/07/2023 08:23,06/07/2023 08:23,Pay Bill from 254708093187 - BRENDA AWUOR ARINDO Acc. KGD,Completed,10000,,305000,TRUE,Pay Utility with OD via STK,254708093187 - BRENDA AWUOR ARINDO,,KGD
RG61T7GT37,06/07/2023 07:34,06/07/2023 07:34,Pay Bill Online from 254724821898 - ALLAN GISONI NYANGARESI Acc. DBA,Completed,16000,,295000,TRUE,Pay Bill Online,254724821898 - ALLAN GISONI NYANGARESI,,DBA
RG67T3MOKT,06/07/2023 06:03,06/07/2023 06:03,Pay Bill from 254717148989 - ALLAN MUTHONI Acc. HAC,Completed,10000,,279000,TRUE,Pay Utility,254717148989 - ALLAN MUTHONI,,HAC
RG59SYSXU1,05/07/2023 23:04,05/07/2023 23:04,Pay Bill Online from 254712187712 - JUDELEEN SHILOBELE AHINDUKHA Acc. IEA,Completed,12000,,269000,TRUE,Pay Utility with OD Online,254712187712 - JUDELEEN SHILOBELE AHINDUKHA,,IEA
RG56SR5T98,05/07/2023 21:18,05/07/2023 21:18,Pay Bill Online from 254707726441 - JOHN OLOO NYAULA Acc. IEH,Completed,9000,,257000,TRUE,Pay Bill Online,254707726441 - JOHN OLOO NYAULA,,IEH
RG50SP9XPU,05/07/2023 21:02,05/07/2023 21:02,Pay Bill Online from 254710965167 - KUSA STEPHANIE HAZEL Acc. JDC,Completed,11000,,248000,TRUE,Pay Bill Online,254710965167 - KUSA STEPHANIE HAZEL,,JDC
RG58SM8QH2,05/07/2023 20:38,05/07/2023 20:38,Pay Bill from 254716881682 - JUSTINE FAYUMA OKWEMBA Acc. HAA,Completed,17000,,237000,TRUE,Pay Utility,254716881682 - JUSTINE FAYUMA OKWEMBA,,HAA
RG59SF7G4J,05/07/2023 19:51,05/07/2023 19:51,Pay Bill Online from 254722769473 - SAMSON CHALO Acc. IAB,Completed,15000,,220000,TRUE,Pay Utility with OD Online,254722769473 - SAMSON CHALO,,IAB
RG54SCXBQY,05/07/2023 19:37,05/07/2023 19:37,Pay Bill from 254724862849 - Ann Fresiah Kinyua Acc. HDA,Completed,16000,,205000,TRUE,Pay Utility,254724862849 - Ann Fresiah Kinyua,,HDA
RG54SBODL2,05/07/2023 19:30,05/07/2023 19:30,Pay Bill from 254710635630 - DONNA JESSICA OWANO Acc. KCC,Completed,10000,,189000,TRUE,Pay Utility,254710635630 - DONNA JESSICA OWANO,,KCC
RG51S6H0UF,05/07/2023 19:00,05/07/2023 19:00,Pay Bill from 254711163049 - OYUGI OCHIENG Acc. FCB,Completed,16000,,179000,TRUE,Pay Utility,254711163049 - OYUGI OCHIENG,,FCB
RG56S4N7GI,05/07/2023 18:49,05/07/2023 18:49,Pay Bill from 254708612464 - MERCY KINANU KIWOTI Acc. IBB,Completed,16000,,163000,TRUE,Pay Utility,254708612464 - MERCY KINANU KIWOTI,,IBB
RG50S4G65Q,05/07/2023 18:47,05/07/2023 18:47,Pay Bill Online from 254714563486 - BRIAN MMATA MUSERA Acc. KBJ,Completed,16000,,147000,TRUE,Pay Utility with OD Online,254714563486 - BRIAN MMATA MUSERA,,KBJ
RG58S3DA7M,05/07/2023 18:40,05/07/2023 18:40,Pay Bill from 254700198550 - BENARD ONYANGO Acc. DBB,Completed,16000,,131000,TRUE,Pay Utility,254700198550 - BENARD ONYANGO,,DBB
RG59RQSNQT,05/07/2023 17:07,05/07/2023 17:07,Pay Bill Online from 0748702351 - DANIEL WEKE ONYANGO Acc. JAD,Completed,15000,,115000,TRUE,Pay Bill Online,0748702351 - DANIEL WEKE ONYANGO,,JAD
RG53ROXULN,05/07/2023 16:51,05/07/2023 16:51,Pay Bill Online from 254723411873 - FREDRICK CHERUIYOT Acc. jbf,Completed,8000,,100000,TRUE,Pay Bill Online,254723411873 - FREDRICK CHERUIYOT,,jbf
RG54RO1X86,05/07/2023 16:43,05/07/2023 16:43,Pay Bill from 254708910373 - MUNINI ISAAC Acc. IEB,Completed,15000,,92000,TRUE,Pay Utility,254708910373 - MUNINI ISAAC,,IEB
RG56RKAGE4,05/07/2023 16:08,05/07/2023 16:08,Pay Bill Online from 254706898046 - STACY AKETCH OCHUKA Acc. KGK,Completed,15000,,77000,TRUE,Pay Bill Online,254706898046 - STACY AKETCH OCHUKA,,KGK
RG55RELLJ3,05/07/2023 15:13,05/07/2023 15:13,Pay Bill from 254720947704 - JOSPHAT JOHN MUSYOKI Acc. HDD,Completed,10000,,62000,TRUE,Pay Utility,254720947704 - JOSPHAT JOHN MUSYOKI,,HDD
RG53RE9EIB,05/07/2023 15:09,05/07/2023 15:09,Pay Bill from 254703276305 - MARTHA MUSYOKA Acc. IAI,Completed,15000,,52000,TRUE,Pay Utility,254703276305 - MARTHA MUSYOKA,,IAI
RG52R9IXU0,05/07/2023 14:22,05/07/2023 14:22,Pay Bill from 254719747910 - KEVIN NDERITU GAKINGO Acc. idd,Completed,11000,,37000,TRUE,Pay Utility,254719747910 - KEVIN NDERITU GAKINGO,,idd
RG55R8BF31,05/07/2023 14:10,05/07/2023 14:10,Pay Bill Online from 254703285159 - Enock Michieka Mochoge Acc. KAE,Completed,10000,,26000,TRUE,Pay Bill Online,254703285159 - Enock Michieka Mochoge,,KAE
RG51R86IOD,05/07/2023 14:09,05/07/2023 14:09,Pay Bill Online from 254721974995 - BERNICE MANGOKA Acc. KFK,Completed,16000,,16000,TRUE,Pay Bill Online,254721974995 - BERNICE MANGOKA,,KFK
RG50R81S1U,05/07/2023 14:08,05/07/2023 14:08,Utility Account to Organization Settlement Account,Completed,,-198000,0,TRUE,Utility Account to Organization Settlement Account,979524 - ANCIENT WELLS PROPERTY MANAGERS 2,,
RG55R7SUPN,05/07/2023 14:05,05/07/2023 14:05,Pay Bill Online from 254729796719 - JACINTA WANJIKU NJERI Acc. FFF,Completed,17000,,198000,TRUE,Pay Bill Online,254729796719 - JACINTA WANJIKU NJERI,,FFF
RG57R7F78N,05/07/2023 14:02,05/07/2023 14:02,Pay Bill from 254721667039 - ELIAS KIPLAGAT Acc. KAC,Completed,11000,,181000,TRUE,Pay Utility,254721667039 - ELIAS KIPLAGAT,,KAC
RG59QY5YFP,05/07/2023 12:32,05/07/2023 12:32,Pay Bill Online from 254702346515 - ELIZABETH ACHIENG NGOME Acc. ICH,Completed,8000,,170000,TRUE,Pay Bill Online,254702346515 - ELIZABETH ACHIENG NGOME,,ICH
RG59QXHEFJ,05/07/2023 12:25,05/07/2023 12:25,Pay Bill Online from 254717490969 - IAN MUOKA Acc. FDD,Completed,12000,,162000,TRUE,Pay Bill Online,254717490969 - IAN MUOKA,,FDD
RG55QX4GUV,05/07/2023 12:22,05/07/2023 12:22,Pay Bill from 0701151700 - Anabel Mwikali Gichuru Acc. JDJ,Completed,15000,,150000,TRUE,Pay Utility,0701151700 - Anabel Mwikali Gichuru,,JDJ
RG53QQEDGD,05/07/2023 11:14,05/07/2023 11:14,Business Pay Bill by 488519 - NCBA  Bank M-pesa Acc. HGH via API,Completed,15000,,135000,TRUE,Business Pay Bill via API,488519 - NCBA  Bank M-pesa,,HGH
RG55QORU4T,05/07/2023 10:58,05/07/2023 10:58,Pay Bill from 254724852503 - GEOFREY YEGO Acc. JFF,Completed,10000,,120000,TRUE,Pay Utility,254724852503 - GEOFREY YEGO,,JFF
RG51QG7HCN,05/07/2023 09:29,05/07/2023 09:29,Pay Bill from 254720978285 - PETER KYALO KIIO Acc. DBD,Completed,10000,,110000,TRUE,Pay Utility,254720978285 - PETER KYALO KIIO,,DBD
RG55QFRF8T,05/07/2023 09:24,05/07/2023 09:24,Pay Bill from 254719194821 - KIPKEMOI SANG GEOFFREY Acc. JDD,Completed,15000,,100000,TRUE,Pay Utility,254719194821 - KIPKEMOI SANG GEOFFREY,,JDD
RG54QC6FIW,05/07/2023 08:42,05/07/2023 08:42,Pay Bill from 254713588244 - MARTIN OSIEMO ONSONGO Acc. DFA,Completed,16000,,85000,TRUE,Pay Utility,254713588244 - MARTIN OSIEMO ONSONGO,,DFA
RG54QBGGWS,05/07/2023 08:33,05/07/2023 08:33,Pay Bill Online from 254710202776 - KELVIN KARIMI MACHARIA Acc. FAD,Completed,11000,,69000,TRUE,Pay Bill Online,254710202776 - KELVIN KARIMI MACHARIA,,FAD
RG45PZQSFL,04/07/2023 23:47,04/07/2023 23:47,Pay Bill Online from 254702346515 - ELIZABETH ACHIENG NGOME Acc. ICH,Completed,8000,,58000,TRUE,Pay Bill Online,254702346515 - ELIZABETH ACHIENG NGOME,,ICH
RG48PXKB68,04/07/2023 22:42,04/07/2023 22:42,Pay Bill from 254702216907 - FAITH MUSA Acc. KBE,Completed,10000,,50000,TRUE,Pay Utility,254702216907 - FAITH MUSA,,KBE
RG41PWMQ3X,04/07/2023 22:24,04/07/2023 22:24,Pay Bill Online from 254721714178 - PHANICE JEROTICH KIPTOO Acc. FBF,Completed,16000,,40000,TRUE,Pay Bill Online,254721714178 - PHANICE JEROTICH KIPTOO,,FBF
RG46PT8FK4,04/07/2023 21:39,04/07/2023 21:39,Pay Bill from 254724201046 - GIDEON NDOLO Acc. KFH,Completed,5000,,24000,TRUE,Pay Utility,254724201046 - GIDEON NDOLO,,KFH
RG48PGU5OI,04/07/2023 19:58,04/07/2023 19:58,Pay Bill from 254715636579 - GRACE KALUKI MULI Acc. FDA ,Completed,16000,,19000,TRUE,Pay Utility,254715636579 - GRACE KALUKI MULI,,FDA
RG48PABLII,04/07/2023 19:19,04/07/2023 19:19,Pay Bill from 254722714951 - JOSEPH MUTIGA NDIRANGU Acc. JCF,Completed,3000,,3000,TRUE,Pay Utility,254722714951 - JOSEPH MUTIGA NDIRANGU,,JCF
RG40OIXDDO,04/07/2023 15:53,04/07/2023 15:53,Utility Account to Organization Settlement Account,Completed,,-53500,0,TRUE,Utility Account to Organization Settlement Account,979524 - ANCIENT WELLS PROPERTY MANAGERS 2,,
RG43O5M6BP,04/07/2023 13:44,04/07/2023 13:44,Pay Bill from 254791848695 - RACHEAL WANZA MUIA Acc. wines ,Completed,6000,,53500,TRUE,Pay Utility,254791848695 - RACHEAL WANZA MUIA,,wines
RG42O2SILO,04/07/2023 13:17,04/07/2023 13:17,Pay Bill Online from 254721465713 - RHODA WAMBUI MWANGI Acc. Jfh,Completed,17000,,47500,TRUE,Pay Bill Online,254721465713 - RHODA WAMBUI MWANGI,,Jfh
RG41O0B6PZ,04/07/2023 12:53,04/07/2023 12:53,Pay Bill Online from 254798609376 - Oliva Wafula Juma Acc. IDF,Completed,12000,,30500,TRUE,Pay Bill Online,254798609376 - Oliva Wafula Juma,,IDF
RG46NOYW9E,04/07/2023 10:59,04/07/2023 10:59,Pay Bill from 254799188200 - PURITY KURUI Acc. HDC,Completed,10500,,18500,TRUE,Pay Utility,254799188200 - PURITY KURUI,,HDC
RG48NOR9GO,04/07/2023 10:57,04/07/2023 10:57,Pay Bill from 0115327960 - JOSEPH WAMBUA MUSYOKA Acc. IBG,Completed,8000,,8000,TRUE,Pay Utility,0115327960 - JOSEPH WAMBUA MUSYOKA,,IBG
RG49N9UB9H,04/07/2023 08:17,04/07/2023 08:17,Utility Account to Organization Settlement Account,Completed,,-183500,0,TRUE,Utility Account to Organization Settlement Account,979524 - ANCIENT WELLS PROPERTY MANAGERS 2,,
RG46N5V76Y,04/07/2023 07:22,04/07/2023 07:22,Pay Bill from 254729160700 - MICAH NDUNGI Acc. HFE,Completed,10500,,183500,TRUE,Pay Utility,254729160700 - MICAH NDUNGI,,HFE
RG48N1U7ZM,04/07/2023 04:37,04/07/2023 04:37,Pay Bill from 254728670882 - SHARAD EDWARD ADALA OLUM Acc. KCK,Completed,15000,,173000,TRUE,Pay Utility,254728670882 - SHARAD EDWARD ADALA OLUM,,KCK
RG43N0A5SR,04/07/2023 00:37,04/07/2023 00:37,Pay Bill Online from 254705846408 - JAMES OUMA Acc. HBH,Completed,16000,,158000,TRUE,Pay Bill Online,254705846408 - JAMES OUMA,,HBH
RG37MV38K3,03/07/2023 22:05,03/07/2023 22:05,Pay Bill Online from 254718253322 - DUNCAN MOCHOGE Acc. JFJ,Completed,15000,,142000,TRUE,Pay Bill Online,254718253322 - DUNCAN MOCHOGE,,JFJ
RG36MPIPGA,03/07/2023 21:05,03/07/2023 21:05,Pay Bill Online from 254715892656 - DENNIS MUSYOKA MUOKI Acc. kfa,Completed,4000,,127000,TRUE,Pay Bill Online,254715892656 - DENNIS MUSYOKA MUOKI,,kfa
RG33MP1GDL,03/07/2023 21:01,03/07/2023 21:01,Pay Bill from 254714060203 - PATRICK MWANGOMBE MSAWUCHI Acc. KEI,Completed,12000,,123000,TRUE,Pay Utility,254714060203 - PATRICK MWANGOMBE MSAWUCHI,,KEI
RG30LW13XK,03/07/2023 17:49,03/07/2023 17:49,Pay Bill from 254796640269 - TABITHA NJERI MAINA Acc. DCA,Completed,16000,,111000,TRUE,Pay Utility,254796640269 - TABITHA NJERI MAINA,,DCA
RG35LTXUO3,03/07/2023 17:34,03/07/2023 17:34,Pay Bill from 254712367486 - JACKLINE JUMA Acc. ked,Completed,11000,,95000,TRUE,Pay Utility,254712367486 - JACKLINE JUMA,,ked
RG34LPNB5Y,03/07/2023 17:00,03/07/2023 17:00,Pay Bill from 254729450678 - GRACE NDUNGE Acc. fba,Completed,5000,,84000,TRUE,Pay Utility,254729450678 - GRACE NDUNGE,,fba
RG38LKNRU2,03/07/2023 16:16,03/07/2023 16:16,Pay Bill from 254741223822 - Rhoyce Kiptarus Boiyo Acc. FEC,Completed,9000,,79000,TRUE,Pay Utility,254741223822 - Rhoyce Kiptarus Boiyo,,FEC
RG39LGMYCT,03/07/2023 15:38,03/07/2023 15:38,Pay Bill Online from 254725248080 - DENNIS KIPROTICH Acc. HDH,Completed,32000,,70000,TRUE,Pay Utility with OD Online,254725248080 - DENNIS KIPROTICH,,HDH
RG37LA1N1B,03/07/2023 14:36,03/07/2023 14:36,Pay Bill from 254719398942 - NORAH WAYUA MUNYAO Acc. KDA,Completed,16000,,38000,TRUE,Pay Utility,254719398942 - NORAH WAYUA MUNYAO,,KDA
RG33L1JW9B,03/07/2023 13:17,03/07/2023 13:17,Pay Bill from 0743789968 - Dallias Thanare Githara Acc. hbb,Completed,6000,,22000,TRUE,Pay Utility,0743789968 - Dallias Thanare Githara,,hbb
RG36KYCZGE,03/07/2023 12:47,03/07/2023 12:47,Pay Bill from 254723499628 - CLINTON JOSEPH MUHARI Acc. hfh,Completed,16000,,16000,TRUE,Pay Utility,254723499628 - CLINTON JOSEPH MUHARI,,hfh
RG34KVVYOE,03/07/2023 12:23,03/07/2023 12:23,Utility Account to Organization Settlement Account,Completed,,-97000,0,TRUE,Utility Account to Organization Settlement Account,979524 - ANCIENT WELLS PROPERTY MANAGERS 2,,
RG36KN50PI,03/07/2023 10:57,03/07/2023 10:57,Pay Bill Online from 254700187806 - WINNIE OLIVIA AKOTH Acc. JEC,Completed,10000,,97000,TRUE,Pay Bill Online,254700187806 - WINNIE OLIVIA AKOTH,,JEC
RG32KI92R6,03/07/2023 10:08,03/07/2023 10:08,Pay Bill from 254728084427 - MARY NABWIRE OKELLO Acc. FDF,Completed,16000,,87000,TRUE,Pay Utility,254728084427 - MARY NABWIRE OKELLO,,FDF
RG34KHZ8IG,03/07/2023 10:06,03/07/2023 10:06,Merchant Pay Utility Received from 7245661 -  OCHIENG CHEMIST  Acc. HFD,Completed,1000,,71000,TRUE,Merchant Pay Utility via API,7245661 -  OCHIENG CHEMIST ,,HFD
RG39KE4C8L,03/07/2023 09:26,03/07/2023 09:26,Pay Bill from 254716056537 - KIRUI KIPLANGAT HILLARY Acc. JCJ,Completed,16000,,70000,TRUE,Pay Utility with OD via STK,254716056537 - KIRUI KIPLANGAT HILLARY,,JCJ
RG33JZ161L,03/07/2023 01:54,03/07/2023 01:54,Pay Bill from 254703935626 - DAVID NGARI ITA Acc. FCD ,Completed,1000,,54000,TRUE,Pay Utility,254703935626 - DAVID NGARI ITA,,FCD
RG28JLFPIU,02/07/2023 20:42,02/07/2023 20:42,Pay Bill from 254725478531 - KIPKORIR KUTO Acc. DFB,Completed,15000,,53000,TRUE,Pay Utility,254725478531 - KIPKORIR KUTO,,DFB
RG28JLFD4Q,02/07/2023 20:42,02/07/2023 20:42,Pay Bill from 254745338401 - mirriam ngina jane Acc. KGC,Completed,9000,,38000,TRUE,Pay Utility,254745338401 - mirriam ngina jane,,KGC
RG27J4QQBB,02/07/2023 18:45,02/07/2023 18:45,Pay Bill from 254725754547 - MWACHIRO GEORGE DECHE Acc. DFC,Completed,20000,,29000,TRUE,Pay Utility,254725754547 - MWACHIRO GEORGE DECHE,,DFC
RG27J4PZTP,02/07/2023 18:44,02/07/2023 18:44,Pay Bill from 254710106394 - LUCY TONKEI Acc. KBG,Completed,9000,,9000,TRUE,Pay Utility with OD via STK,254710106394 - LUCY TONKEI,,KBG
RG20IWKZSC,02/07/2023 17:41,02/07/2023 17:41,Utility Account to Organization Settlement Account,Completed,,-270100,0,TRUE,Utility Account to Organization Settlement Account,979524 - ANCIENT WELLS PROPERTY MANAGERS 2,,
RG28II51CE,02/07/2023 15:27,02/07/2023 15:27,Pay Bill from 254702152790 - Michelle Ndunge Kyalo Acc. IDE,Completed,8000,,270100,TRUE,Pay Utility,254702152790 - Michelle Ndunge Kyalo,,IDE
RG21I91JKT,02/07/2023 13:57,02/07/2023 13:57,Pay Bill from 254717063324 - Christine Murugi Nyaga Acc. KDF,Completed,10000,,262100,TRUE,Pay Utility,254717063324 - Christine Murugi Nyaga,,KDF
RG25I8L8FZ,02/07/2023 13:52,02/07/2023 13:52,Pay Bill from 0791168610 - MARY NYABOKE MARITA Acc. KDD,Completed,12000,,252100,TRUE,Pay Utility,0791168610 - MARY NYABOKE MARITA,,KDD
RG24I0OAYI,02/07/2023 12:25,02/07/2023 12:25,Pay Bill from 0798752542 - Perminus Onchiri Nyambati Acc. hed,Completed,31000,,240100,TRUE,Pay Utility,0798752542 - Perminus Onchiri Nyambati,,hed
RG28HZS62K,02/07/2023 12:15,02/07/2023 12:15,Pay Bill from 0114558202 - Bakari Ali Kitsaka Acc. HDG,Completed,15000,,209100,TRUE,Pay Utility,0114558202 - Bakari Ali Kitsaka,,HDG
RG26HSBFQO,02/07/2023 10:45,02/07/2023 10:45,Pay Bill from 254720375006 - JACOB KANGOGO Acc. IBA,Completed,15000,,194100,TRUE,Pay Utility,254720375006 - JACOB KANGOGO,,IBA
RG21HGJDSN,02/07/2023 08:20,02/07/2023 08:20,Pay Bill Online from 254790672018 - CALEB SAGINI MAKORI Acc. FCC,Completed,9000,,179100,TRUE,Pay Bill Online,254790672018 - CALEB SAGINI MAKORI,,FCC
RG23H98RAR,02/07/2023 02:16,02/07/2023 02:16,Pay Bill from 254723488259 - WILSON OKITE OKITE Acc. HCA,Completed,15000,,170100,TRUE,Pay Utility,254723488259 - WILSON OKITE OKITE,,HCA
RG15H50N7N,01/07/2023 22:58,01/07/2023 22:58,Pay Bill Online from 254708875278 - ROSEMARY WANJIRU KONYE Acc. HBF,Completed,9000,,155100,TRUE,Pay Bill Online,254708875278 - ROSEMARY WANJIRU KONYE,,HBF
RG12H4HZJ0,01/07/2023 22:48,01/07/2023 22:48,Pay Bill Online from 254712040302 - EMMANUEL MWARO BARASA Acc. KEA,Completed,16000,,146100,TRUE,Pay Bill Online,254712040302 - EMMANUEL MWARO BARASA,,KEA
RG19H2DGHJ,01/07/2023 22:12,01/07/2023 22:12,Pay Bill from 254700811449 - JOHN MULIMA ENANE Acc. HCE,Completed,10500,,130100,TRUE,Pay Utility,254700811449 - JOHN MULIMA ENANE,,HCE
RG15GZAR0R,01/07/2023 21:36,01/07/2023 21:36,Pay Bill from 0714842476 - Rebecca  jerop kemei Acc. KDI,Completed,11000,,119600,TRUE,Pay Utility,0714842476 - Rebecca  jerop kemei,,KDI
RG19GVFYR1,01/07/2023 20:59,01/07/2023 20:59,Pay Bill from 0745318652 - Hesbon Otieno Onyango Acc. JDF,Completed,8000,,108600,TRUE,Pay Utility with OD via STK,0745318652 - Hesbon Otieno Onyango,,JDF
RG16GUFK96,01/07/2023 20:51,01/07/2023 20:51,Pay Bill from 254725111246 - FRANCIS MUUTU MWANGANGI Acc. IGI,Completed,15000,,100600,TRUE,Pay Utility,254725111246 - FRANCIS MUUTU MWANGANGI,,IGI
RG12GOBF5G,01/07/2023 20:05,01/07/2023 20:05,Pay Bill Online from 254716315144 - PETER MUNYIRI WAROTERE Acc. FBB,Completed,16000,,85600,TRUE,Pay Bill Online,254716315144 - PETER MUNYIRI WAROTERE,,FBB
RG10GHIOJG,01/07/2023 19:22,01/07/2023 19:22,Pay Bill Online from 0722950695 - Joshua Mbithi Kivondo Acc. DCA,Completed,4600,,69600,TRUE,Pay Utility with OD Online,0722950695 - Joshua Mbithi Kivondo,,DCA
RG16GDS798,01/07/2023 19:00,01/07/2023 19:00,Pay Bill from 0715806956 - Mercy Jelagat Kalum Acc. FFE,Completed,15000,,65000,TRUE,Pay Utility,0715806956 - Mercy Jelagat Kalum,,FFE
RG10G2MATG,01/07/2023 17:45,01/07/2023 17:45,Pay Bill Online from 254718588538 - JAMES NGURE Acc. JBH,Completed,16000,,50000,TRUE,Pay Bill Online,254718588538 - JAMES NGURE,,JBH
RG10G0CKV6,01/07/2023 17:27,01/07/2023 17:27,Pay Bill from 254723929380 - RHODAH K WAMBUA Acc. HEG,Completed,15000,,34000,TRUE,Pay Utility,254723929380 - RHODAH K WAMBUA,,HEG
RG15FHOIJH,01/07/2023 14:42,01/07/2023 14:42,Pay Bill Online from 254742023558 - PEACEMARY NJERI MAINA Acc. JBC,Completed,11000,,19000,TRUE,Pay Bill Online,254742023558 - PEACEMARY NJERI MAINA,,JBC
RG10F75Y22,01/07/2023 13:04,01/07/2023 13:04,Pay Bill from 0719726347 - ROSEMARY DAYO KILUMBE Acc. KGE,Completed,8000,,8000,TRUE,Pay Utility,0719726347 - ROSEMARY DAYO KILUMBE,,KGE
RG14F1KS9G,01/07/2023 12:09,01/07/2023 12:09,Utility Account to Organization Settlement Account,Completed,,-242000,0,TRUE,Utility Account to Organization Settlement Account,979524 - ANCIENT WELLS PROPERTY MANAGERS 2,,
RG17EZ6N4F,01/07/2023 11:46,01/07/2023 11:46,Pay Bill from 0706563358 - HARRIET NYANCHAMA NYABERI Acc. HBA,Completed,16000,,242000,TRUE,Pay Utility,0706563358 - HARRIET NYANCHAMA NYABERI,,HBA
RG18EWLIGW,01/07/2023 11:20,01/07/2023 11:20,Pay Bill from 254723389177 - NELSON MOI Acc. ibf,Completed,5000,,226000,TRUE,Pay Utility,254723389177 - NELSON MOI,,ibf
RG19EU9DJJ,01/07/2023 10:57,01/07/2023 10:57,Pay Bill Online from 0111278177 - Alfred   Kishoin Acc. DAB,Completed,16000,,221000,TRUE,Pay Bill Online,0111278177 - Alfred   Kishoin,,DAB
RG14ESAYNK,01/07/2023 10:37,01/07/2023 10:37,Pay Bill Online from 254703180395 - JANE NYAGUTHII MWAGO Acc. IBE,Completed,8000,,205000,TRUE,Pay Bill Online,254703180395 - JANE NYAGUTHII MWAGO,,IBE
RG13EQO6AX,01/07/2023 10:21,01/07/2023 10:21,Pay Bill Online from 254722910078 - MAUREEN MUNYIVA MUTUKU Acc. DCD,Completed,1500,,197000,TRUE,Pay Bill Online,254722910078 - MAUREEN MUNYIVA MUTUKU,,DCD
RG18EPU5YU,01/07/2023 10:12,01/07/2023 10:12,Pay Bill from 254717690295 - MARCELLA JELIMO Acc. IGE,Completed,9000,,195500,TRUE,Pay Utility,254717690295 - MARCELLA JELIMO,,IGE
RG18EONTIK,01/07/2023 10:00,01/07/2023 10:00,Pay Bill from 254704303496 - PETER MACHARIA WAIGANJO Acc. DFD,Completed,20000,,186500,TRUE,Pay Utility,254704303496 - PETER MACHARIA WAIGANJO,,DFD
RG15ENFE3B,01/07/2023 09:47,01/07/2023 09:47,Pay Bill Online from 254795510441 - LEWIS MUEMA Acc. KEB,Completed,16000,,166500,TRUE,Pay Bill Online,254795510441 - LEWIS MUEMA,,KEB
RG13EKPB6H,01/07/2023 09:18,01/07/2023 09:18,Pay Bill Online from 254725218904 - SALOME MUTHONI MWANGI Acc. KFJ,Completed,15000,,150500,TRUE,Pay Bill Online,254725218904 - SALOME MUTHONI MWANGI,,KFJ
