Receipt No.,Completion Time,Initiation Time,Details,Transaction Status,Paid In,Withdrawn,Balance,Balance Confirmed,Reason Type,Other Party Info,Linked Transaction ID,A/C No.
OJF8IBHFT8,15/10/2020 08:52,15/10/2020 08:52,Pay Bill from 254721524677 - SAMSON AHOLO Acc. Samson v33,Completed,2000,,2000,TRUE,Pay Utility with OD via STK,254721524677 - SAMSON AHOLO,,Samson
OJF7I83X3R,15/10/2020 06:40,15/10/2020 06:40,Utility Account to Organization Settlement Account,Completed,,-26900,0,TRUE,Utility Account to Organization Settlement Account,887674 - ANCIENT WELLS LTD 1,,
OJE6HS38WS,14/10/2020 17:23,14/10/2020 17:23,Pay Bill from 254702921564 - DENNIS MAHERO SHIUNDU Acc. Dennis V21,Completed,1000,,26900,TRUE,Pay Utility,254702921564 - DENNIS MAHERO SHIUNDU,,Dennis
OJE0HONTJI,14/10/2020 16:05,14/10/2020 16:05,Pay Bill from 254758951969 - WILKISTER IRAKO HARAMBEE Acc. V14,Completed,14000,,25900,TRUE,Pay Utility,254758951969 - WILKISTER IRAKO HARAMBEE,,V14
OJE2H51LFI,14/10/2020 06:48,14/10/2020 06:48,Pay Bill from 254723935789 - EDWIN MWITI Acc. V43,Completed,3000,,11900,TRUE,Pay Utility,254723935789 - EDWIN MWITI,,V43
OJD7G2YVHH,13/10/2020 08:48,13/10/2020 08:48,Pay Bill Online from 254715939283 - alex nyamai Acc. alexv07,Completed,1300,,8900,TRUE,Pay Utility with OD Online,254715939283 - alex nyamai,,alexv07
OJC3EY35RF,12/10/2020 09:07,12/10/2020 09:07,Pay Bill from 254723538366 - VERONICAH SHIYENJI Acc. V40,Completed,1000,,7600,TRUE,Pay Utility,254723538366 - VERONICAH SHIYENJI,,V40
