Receipt No.,Completion Time,Initiation Time,Details,Transaction Status,Paid In,Withdrawn,Balance,Balance Confirmed,Reason Type,Other Party Info,Linked Transaction ID,A/C No.
RHH4BWNMMY,17/08/2023 11:03,17/08/2023 11:03,Pay Bill from 254716000009 - EVANS KIPROTICH YEBEI Acc. KCH,Completed,5000,,5000,TRUE,Pay Utility,254716000009 - EVANS KIPROTICH YEBEI,,KCH
RHH6BSM8BQ,17/08/2023 10:22,17/08/2023 10:22,Utility Account to Organization Settlement Account,Completed,,-63500,0,TRUE,Utility Account to Organization Settlement Account,979524 - ANCIENT WELLS PROPERTY MANAGERS 2,,
RHH1B7W95H,17/08/2023 00:36,17/08/2023 00:36,Pay Bill from 254719499823 - MOSES MWANZIA MUTHIANI Acc. Jcc,Completed,8000,,63500,TRUE,Pay Utility with OD via STK,254719499823 - MOSES MWANZIA MUTHIANI,,Jcc
RHG1AR9KMX,16/08/2023 20:23,16/08/2023 20:23,Pay Bill from 254726928933 - JOSHUA NDUNDA NZIOKA Acc. KAJ,Completed,10000,,55500,TRUE,Pay Utility,254726928933 - JOSHUA NDUNDA NZIOKA,,KAJ
RHG2AK74SS,16/08/2023 19:35,16/08/2023 19:35,Pay Bill from 0722531422 - ANTHONY ITIMU MAINA Acc. JBD,Completed,12000,,45500,TRUE,Pay Utility,0722531422 - ANTHONY ITIMU MAINA,,JBD
RHG8AEVE86,16/08/2023 19:03,16/08/2023 19:03,Pay Bill from 254722572104 - ERICK MURABULA Acc. hae,Completed,12000,,33500,TRUE,Pay Utility,254722572104 - ERICK MURABULA,,hae
RHG4A5DO3Y,16/08/2023 17:58,16/08/2023 17:58,Pay Bill from 0798951042 - fridah kathure kinyua Acc. HGE,Completed,5500,,21500,TRUE,Pay Utility,0798951042 - fridah kathure kinyua,,HGE
RHG59G0PCD,16/08/2023 14:02,16/08/2023 14:02,Pay Bill from 254708612464 - MERCY KINANU KIWOTI Acc. IBB,Completed,16000,,16000,TRUE,Pay Utility,254708612464 - MERCY KINANU KIWOTI,,IBB
RHG29ERXKO,16/08/2023 13:50,16/08/2023 13:50,Utility Account to Organization Settlement Account,Completed,,-11600,0,TRUE,Utility Account to Organization Settlement Account,979524 - ANCIENT WELLS PROPERTY MANAGERS 2,,
RHG78AXGS7,16/08/2023 04:58,16/08/2023 04:58,Pay Bill Online from 254720451253 - JIMMY KIOGORA NKIROTE Acc. KBD,Completed,1000,,11600,TRUE,Pay Utility with OD Online,254720451253 - JIMMY KIOGORA NKIROTE,,KBD
RHG58AUOHB,16/08/2023 04:47,16/08/2023 04:47,Pay Bill Online from 254720451253 - JIMMY KIOGORA NKIROTE Acc. KBD,Completed,200,,10600,TRUE,Pay Utility with OD Online,254720451253 - JIMMY KIOGORA NKIROTE,,KBD
RHF382KEDL,15/08/2023 21:55,15/08/2023 21:55,Merchant Pay Utility Received from 7245661 -  OCHIENG CHEMIST  Acc. HFD,Completed,900,,10400,TRUE,Merchant Pay Utility via API,7245661 -  OCHIENG CHEMIST ,,HFD
RHF075V55C,15/08/2023 18:00,15/08/2023 18:00,Pay Bill from 254722746480 - PATRICK OPEYWA AURA Acc. KGH,Completed,9500,,9500,TRUE,Pay Utility,254722746480 - PATRICK OPEYWA AURA,,KGH
RHF76H4DJD,15/08/2023 14:14,15/08/2023 14:14,Utility Account to Organization Settlement Account,Completed,,-61100,0,TRUE,Utility Account to Organization Settlement Account,979524 - ANCIENT WELLS PROPERTY MANAGERS 2,,
RHF76DDTQF,15/08/2023 13:38,15/08/2023 13:38,Pay Bill Online from 254799031749 - KENNEDY WAINAINA NJOROGE Acc. DDD ,Completed,4100,,61100,TRUE,Pay Bill Online,254799031749 - KENNEDY WAINAINA NJOROGE,,DDD
RHF865X4ZK,15/08/2023 12:25,15/08/2023 12:25,Pay Bill from 0715566922 - diramu ollo galgalo Acc. HBD,Completed,10000,,57000,TRUE,Pay Utility,0715566922 - diramu ollo galgalo,,HBD
RHF15ZSQAH,15/08/2023 11:25,15/08/2023 11:25,Pay Bill Online from 0111278177 - Alfred   Kishoin Acc. DAB,Completed,16000,,47000,TRUE,Pay Bill Online,0111278177 - Alfred   Kishoin,,DAB
RHF75T25FV,15/08/2023 10:18,15/08/2023 10:18,Pay Bill Online from 254720583235 - JOHN ODIMA Acc. KGF,Completed,10000,,31000,TRUE,Pay Bill Online,254720583235 - JOHN ODIMA,,KGF
RHF95QP9GN,15/08/2023 09:54,15/08/2023 09:54,Pay Bill from 254716581384 - GREGORY KILUNGYA Acc. DAD,Completed,20000,,21000,TRUE,Pay Utility with OD via STK,254716581384 - GREGORY KILUNGYA,,DAD
RHF85FSUP0,15/08/2023 07:49,15/08/2023 07:49,Pay Bill Online from 254720451253 - JIMMY KIOGORA NKIROTE Acc. KBD,Completed,1000,,1000,TRUE,Pay Utility with OD Online,254720451253 - JIMMY KIOGORA NKIROTE,,KBD
RHF05E9ZHU,15/08/2023 07:26,15/08/2023 07:26,Utility Account to Organization Settlement Account,Completed,,-62000,0,TRUE,Utility Account to Organization Settlement Account,979524 - ANCIENT WELLS PROPERTY MANAGERS 2,,
RHF757OIMB,15/08/2023 00:15,15/08/2023 00:15,Pay Bill from 0792933158 - mary wamaitha maina Acc. DGD,Completed,20000,,62000,TRUE,Pay Utility,0792933158 - mary wamaitha maina,,DGD
RHE94QWNCR,14/08/2023 20:23,14/08/2023 20:23,Pay Bill from 254707715639 - Annastacia Kimeu Acc. JFC ,Completed,10000,,42000,TRUE,Pay Utility,254707715639 - Annastacia Kimeu,,JFC
RHE64QK5OM,14/08/2023 20:21,14/08/2023 20:21,Pay Bill Online from 0722255105 - SALIM OMAR MZEE Acc. FGF,Completed,16000,,32000,TRUE,Pay Utility with OD Online,0722255105 - SALIM OMAR MZEE,,FGF
RHE145AVLZ,14/08/2023 18:02,14/08/2023 18:02,Pay Bill Online from 254702764047 - FERDINAND K Acc. KDB,Completed,16000,,16000,TRUE,Pay Bill Online,254702764047 - FERDINAND K,,KDB
RHE641BTQ0,14/08/2023 17:31,14/08/2023 17:31,Utility Account to Organization Settlement Account,Completed,,-67000,0,TRUE,Utility Account to Organization Settlement Account,979524 - ANCIENT WELLS PROPERTY MANAGERS 2,,
RHE43TWUYQ,14/08/2023 16:25,14/08/2023 16:25,Pay Bill from 254703980239 - BENARD MUTETI Acc. KAK,Completed,33000,,67000,TRUE,Pay Utility,254703980239 - BENARD MUTETI,,KAK
RHE43PI3NM,14/08/2023 15:42,14/08/2023 15:42,Pay Bill from 254710357391 - CHEPKOECH VALENTINE Acc. KAH,Completed,10000,,34000,TRUE,Pay Utility,254710357391 - CHEPKOECH VALENTINE,,KAH
RHE93EP18X,14/08/2023 13:55,14/08/2023 13:55,Pay Bill from 254720051502 - JOHN OCHIENG ONYANGO Acc. JFA ,Completed,2000,,24000,TRUE,Pay Utility,254720051502 - JOHN OCHIENG ONYANGO,,JFA
RHE43DP7VA,14/08/2023 13:45,14/08/2023 13:45,Pay Bill from 254703935626 - DAVID NGARI ITA Acc. FCD,Completed,6000,,22000,TRUE,Pay Utility with OD via STK,254703935626 - DAVID NGARI ITA,,FCD
RHE92ZPYIP,14/08/2023 11:27,14/08/2023 11:27,Pay Bill from 254720931007 - BRENDA NASIMIYU NYONGESA Acc. KAB,Completed,16000,,16000,TRUE,Pay Utility,254720931007 - BRENDA NASIMIYU NYONGESA,,KAB
RHE42T44K0,14/08/2023 10:20,14/08/2023 10:20,Utility Account to Organization Settlement Account,Completed,,-80500,0,TRUE,Utility Account to Organization Settlement Account,979524 - ANCIENT WELLS PROPERTY MANAGERS 2,,
RHE52NVP3B,14/08/2023 09:24,14/08/2023 09:24,Pay Bill from 254708093187 - BRENDA AWUOR ARINDO Acc. KGD,Completed,500,,80500,TRUE,Pay Utility with OD via STK,254708093187 - BRENDA AWUOR ARINDO,,KGD
RHE42NAGPI,14/08/2023 09:18,14/08/2023 09:18,Pay Bill from 254726337163 - HALIMA ALI HASSAN Acc. DDA,Completed,5000,,80000,TRUE,Pay Utility,254726337163 - HALIMA ALI HASSAN,,DDA
RHE22HBM14,14/08/2023 08:07,14/08/2023 08:07,Pay Bill from 0705687898 - JORDAN KIPNGETICH THOMAS KIKWAI Acc. kff,Completed,5000,,75000,TRUE,Pay Utility,0705687898 - JORDAN KIPNGETICH THOMAS KIKWAI,,kff
RHD522XAWV,13/08/2023 21:57,13/08/2023 21:57,Pay Bill from 254791355838 - Jane Muthoni Munyua Acc. KGJ,Completed,15000,,70000,TRUE,Pay Utility,254791355838 - Jane Muthoni Munyua,,KGJ
RHD41ULPJI,13/08/2023 20:34,13/08/2023 20:34,Pay Bill from 0708931111 - NJENGA   KURIA Acc. kca,Completed,16000,,55000,TRUE,Pay Utility,0708931111 - NJENGA   KURIA,,kca
RHD31PKB51,13/08/2023 19:53,13/08/2023 19:53,Pay Bill from 254728238249 - ESTHER WANGUI KIBUNYI Acc. ICA,Completed,17000,,39000,TRUE,Pay Utility,254728238249 - ESTHER WANGUI KIBUNYI,,ICA
RHD1ZZ0AS3,13/08/2023 16:19,13/08/2023 16:19,Pay Bill from 0743789968 - Dallias Thanare Githara Acc. hbb,Completed,4000,,22000,TRUE,Pay Utility,0743789968 - Dallias Thanare Githara,,hbb
RHD5ZGCMUP,13/08/2023 13:10,13/08/2023 13:10,Pay Bill from 0720599684 - CHEMUTAI   JACKLINE Acc. HAB,Completed,15000,,18000,TRUE,Pay Utility,0720599684 - CHEMUTAI   JACKLINE,,HAB
RHD1YMFWRL,13/08/2023 06:17,13/08/2023 06:17,Pay Bill from 254701112397 - ELEMA GODANA DIBA Acc. FCA,Completed,3000,,3000,TRUE,Pay Utility,254701112397 - ELEMA GODANA DIBA,,FCA
RHC7XBGH5F,12/08/2023 17:30,12/08/2023 17:30,Utility Account to Organization Settlement Account,Completed,,-89800,0,TRUE,Utility Account to Organization Settlement Account,979524 - ANCIENT WELLS PROPERTY MANAGERS 2,,
RHC3X1B0DF,12/08/2023 16:01,12/08/2023 16:01,Pay Bill from 254720051502 - JOHN OCHIENG ONYANGO Acc. JFA ,Completed,3000,,89800,TRUE,Pay Utility,254720051502 - JOHN OCHIENG ONYANGO,,JFA
RHC3WUQMFN,12/08/2023 14:59,12/08/2023 14:59,Pay Bill Online from 254704143476 - DICKSON MZUNGU Acc. JCB,Completed,15000,,86800,TRUE,Pay Bill Online,254704143476 - DICKSON MZUNGU,,JCB
RHC4WQPU2E,12/08/2023 14:22,12/08/2023 14:22,Pay Bill from 254722715235 - AHMED ABDULLANI MOHAMMED Acc. IGD,Completed,10000,,71800,TRUE,Pay Utility with OD via STK,254722715235 - AHMED ABDULLANI MOHAMMED,,IGD
RHC0WODC9U,12/08/2023 14:00,12/08/2023 14:00,Pay Bill from 254796848496 - IVY WITABA Acc. FAA,Completed,4000,,61800,TRUE,Pay Utility,254796848496 - IVY WITABA,,FAA
RHC5WMJN0T,12/08/2023 13:43,12/08/2023 13:43,Pay Bill Online from 254799805832 - NATHANIEl MAMBO MBITHI Acc. KBH,Completed,7800,,57800,TRUE,Pay Utility with OD Online,254799805832 - NATHANIEl MAMBO MBITHI,,KBH
RHC1WGFNDR,12/08/2023 12:45,12/08/2023 12:45,Pay Bill from 0740488793 - Twince   Korir Acc. DGC,Completed,19000,,50000,TRUE,Pay Utility,0740488793 - Twince   Korir,,DGC
RHC3WFIVJD,12/08/2023 12:36,12/08/2023 12:36,Pay Bill from 0790946220 - Joyce Silvier Ombeyi Acc. IAG,Completed,9000,,31000,TRUE,Pay Utility,0790946220 - Joyce Silvier Ombeyi,,IAG
RHC2W2I1MW,12/08/2023 10:29,12/08/2023 10:29,Pay Bill from 254723747228 - MORARA ASANYO Acc. pool ,Completed,22000,,22000,TRUE,Pay Utility,254723747228 - MORARA ASANYO,,pool
RHC4VZ2HFY,12/08/2023 09:54,12/08/2023 09:54,Utility Account to Organization Settlement Account,Completed,,-44500,0,TRUE,Utility Account to Organization Settlement Account,979524 - ANCIENT WELLS PROPERTY MANAGERS 2,,
RHC3VLETML,12/08/2023 06:56,12/08/2023 06:56,Pay Bill Online from 254722910078 - MAUREEN MUNYIVA MUTUKU Acc. DCD,Completed,7000,,44500,TRUE,Pay Bill Online,254722910078 - MAUREEN MUNYIVA MUTUKU,,DCD
RHC7VJF9YJ,12/08/2023 05:20,12/08/2023 05:20,Pay Bill from 254798524621 - MERCY CHESANG Acc. jcj,Completed,3000,,37500,TRUE,Pay Utility,254798524621 - MERCY CHESANG,,jcj
RHC5VJA929,12/08/2023 05:05,12/08/2023 05:05,Pay Bill Online from 254715764212 - BANCE ISHEMINYE Acc. JFE ,Completed,1000,,34500,TRUE,Pay Bill Online,254715764212 - BANCE ISHEMINYE,,JFE
RHB2UK18X0,11/08/2023 19:00,11/08/2023 19:00,Pay Bill from 254722444622 - CHARITY KAGWAINI Acc. ffd,Completed,11000,,33500,TRUE,Pay Utility,254722444622 - CHARITY KAGWAINI,,ffd
RHB9UIQB09,11/08/2023 18:52,11/08/2023 18:52,Pay Bill from 0790536272 - BARNABAS MSITIA KEYARI Acc. FGC,Completed,1000,,22500,TRUE,Pay Utility,0790536272 - BARNABAS MSITIA KEYARI,,FGC
RHB2UAG5RO,11/08/2023 17:55,11/08/2023 17:55,Pay Bill Online from 254707726441 - JOHN OLOO NYAULA Acc. IEH,Completed,2000,,21500,TRUE,Pay Bill Online,254707726441 - JOHN OLOO NYAULA,,IEH
RHB3U1TDLT,11/08/2023 16:48,11/08/2023 16:48,Pay Bill from 254720278119 - LINDAH OGAWO Acc. kfe,Completed,9500,,19500,TRUE,Pay Utility,254720278119 - LINDAH OGAWO,,kfe
RHB2TRR2DO,11/08/2023 15:16,11/08/2023 15:16,Pay Bill from 254723966777 - BONIFACE MUTHAKA NGANGA Acc. IDG,Completed,10000,,10000,TRUE,Pay Utility,254723966777 - BONIFACE MUTHAKA NGANGA,,IDG
RHB6TR8E1W,11/08/2023 15:12,11/08/2023 15:12,Utility Account to Organization Settlement Account,Completed,,-197000,0,TRUE,Utility Account to Organization Settlement Account,979524 - ANCIENT WELLS PROPERTY MANAGERS 2,,
RHB6TFLI1M,11/08/2023 13:24,11/08/2023 13:24,Pay Bill Online from 254726292792 - PHILIP MIANO Acc. JEI,Completed,20000,,197000,TRUE,Pay Bill Online,254726292792 - PHILIP MIANO,,JEI
RHB1TBR5PT,11/08/2023 12:47,11/08/2023 12:47,Pay Bill Online from 254712990240 - GLORY KARIUKI Acc. KAA,Completed,16000,,177000,TRUE,Pay Bill Online,254712990240 - GLORY KARIUKI,,KAA
RHB4T9WL3U,11/08/2023 12:30,11/08/2023 12:30,Pay Bill Online from 254717490969 - IAN MUOKA Acc. FDD,Completed,12000,,161000,TRUE,Pay Utility with OD Online,254717490969 - IAN MUOKA,,FDD
RHB7T92SGD,11/08/2023 12:22,11/08/2023 12:22,Pay Bill Online from 254745391294 - Faith Moraa Sitemba Acc. IFC,Completed,8000,,149000,TRUE,Pay Bill Online,254745391294 - Faith Moraa Sitemba,,IFC
RHB2T0IL9A,11/08/2023 10:59,11/08/2023 10:59,Pay Bill from 254711271263 - BENSON MWADIME JOSEPH Acc. HFC,Completed,9000,,141000,TRUE,Pay Utility,254711271263 - BENSON MWADIME JOSEPH,,HFC
RHB2SP2DN6,11/08/2023 09:05,11/08/2023 09:05,Pay Bill Online from 254720451253 - JIMMY KIOGORA NKIROTE Acc. KBD,Completed,5000,,132000,TRUE,Pay Utility with OD Online,254720451253 - JIMMY KIOGORA NKIROTE,,KBD
RHA4S5Z9WA,10/08/2023 22:17,10/08/2023 22:17,Pay Bill Online from 254723394064 - ANDREW LAGAT Acc. HBG,Completed,16000,,127000,TRUE,Pay Bill Online,254723394064 - ANDREW LAGAT,,HBG
RHA4RXV6V6,10/08/2023 20:52,10/08/2023 20:52,Pay Bill from 254717748212 - PATRICK KIOKO MUTUKU Acc. kce,Completed,10000,,111000,TRUE,Pay Utility,254717748212 - PATRICK KIOKO MUTUKU,,kce
RHA3RNTLUN,10/08/2023 19:42,10/08/2023 19:42,Pay Bill Online from 254799371069 - ALPHONCE OCHIENG WAREGA Acc. IEE,Completed,8500,,101000,TRUE,Pay Bill Online,254799371069 - ALPHONCE OCHIENG WAREGA,,IEE
RHA6RHAU34,10/08/2023 19:04,10/08/2023 19:04,Pay Bill from 254726028330 - JOHN WAMBUA Acc. IFH,Completed,15000,,92500,TRUE,Pay Utility,254726028330 - JOHN WAMBUA,,IFH
RHA5REN3JT,10/08/2023 18:48,10/08/2023 18:48,Pay Bill from 254713205244 - ROBERT OGALO Acc. HFB,Completed,16000,,77500,TRUE,Pay Utility,254713205244 - ROBERT OGALO,,HFB
RHA3R8G449,10/08/2023 18:05,10/08/2023 18:05,Pay Bill Online from 0769918050 - newton   mutethia Acc. JBG,Completed,10000,,61500,TRUE,Pay Bill Online,0769918050 - newton   mutethia,,JBG
RHA4R6O6LA,10/08/2023 17:53,10/08/2023 17:53,Pay Bill Online from 254715892656 - DENNIS MUSYOKA MUOKI Acc. kfa,Completed,3000,,51500,TRUE,Pay Bill Online,254715892656 - DENNIS MUSYOKA MUOKI,,kfa
RHA6R5OD5W,10/08/2023 17:45,10/08/2023 17:45,Pay Bill from 254792712192 - KELVIN MASIBO Acc. ICE,Completed,9000,,48500,TRUE,Pay Utility,254792712192 - KELVIN MASIBO,,ICE
RHA2R0GRKW,10/08/2023 17:04,10/08/2023 17:04,Pay Bill Online from 254713966424 - NDUTI MUTHUI Acc. jed,Completed,15000,,39500,TRUE,Pay Bill Online,254713966424 - NDUTI MUTHUI,,jed
RHA8QWHQES,10/08/2023 16:29,10/08/2023 16:29,Pay Bill from 254722585766 - SUSAN NJERI NJENGA Acc. JDG,Completed,14500,,24500,TRUE,Pay Utility,254722585766 - SUSAN NJERI NJENGA,,JDG
RHA4QJ8KAQ,10/08/2023 14:22,10/08/2023 14:22,Pay Bill from 254722826454 - CHARLES KARIMI MAITAI Acc. KDC Keila,Completed,10000,,10000,TRUE,Pay Utility,254722826454 - CHARLES KARIMI MAITAI,,KDC
RHA7QFU0E7,10/08/2023 13:50,10/08/2023 13:50,Utility Account to Organization Settlement Account,Completed,,-148000,0,TRUE,Utility Account to Organization Settlement Account,979524 - ANCIENT WELLS PROPERTY MANAGERS 2,,
RHA8Q9Z5Q2,10/08/2023 12:54,10/08/2023 12:54,Pay Bill from 254741573910 - VINCENT ODUOR OLIENG Acc. HBC,Completed,10000,,148000,TRUE,Pay Utility,254741573910 - VINCENT ODUOR OLIENG,,HBC
RHA4Q6E6BQ,10/08/2023 12:20,10/08/2023 12:20,Pay Bill from 0717441870 - Steven oduor ogutu Acc. KTA,Completed,9500,,138000,TRUE,Pay Utility,0717441870 - Steven oduor ogutu,,KTA
RHA2PXP7CA,10/08/2023 10:56,10/08/2023 10:56,Pay Bill from 254720051502 - JOHN OCHIENG ONYANGO Acc. JFA ,Completed,5000,,128500,TRUE,Pay Utility,254720051502 - JOHN OCHIENG ONYANGO,,JFA
RHA7PVF7LN,10/08/2023 10:34,10/08/2023 10:34,Pay Bill from 0796929370 - HALIMA BOYA GALMA Acc. DBC,Completed,20000,,123500,TRUE,Pay Utility,0796929370 - HALIMA BOYA GALMA,,DBC
RHA4PTZ2OE,10/08/2023 10:20,10/08/2023 10:20,Pay Bill Online from 254715892656 - DENNIS MUSYOKA MUOKI Acc. kfa,Completed,6000,,103500,TRUE,Pay Bill Online,254715892656 - DENNIS MUSYOKA MUOKI,,kfa
RHA0PQJPZA,10/08/2023 09:46,10/08/2023 09:46,Pay Bill from 254720814822 - JAMES OTIENO OPAR Acc. jgj,Completed,4000,,97500,TRUE,Pay Utility,254720814822 - JAMES OTIENO OPAR,,jgj
RHA2PAP5FW,10/08/2023 01:57,10/08/2023 01:57,Pay Bill from 254743487420 - Margaret Wacu Muia Acc. FCE,Completed,15000,,93500,TRUE,Pay Utility,254743487420 - Margaret Wacu Muia,,FCE
RH95P8DZLD,09/08/2023 23:26,09/08/2023 23:26,Pay Bill from 0790536272 - BARNABAS MSITIA KEYARI Acc. FGC,Completed,2000,,78500,TRUE,Pay Utility,0790536272 - BARNABAS MSITIA KEYARI,,FGC
RH95OTV9HZ,09/08/2023 20:27,09/08/2023 20:27,Pay Bill from 254710239100 - PHILOMENA WOKI MUTHAMA Acc. KDK,Completed,17000,,76500,TRUE,Pay Utility,254710239100 - PHILOMENA WOKI MUTHAMA,,KDK
RH93OH4IIR,09/08/2023 19:07,09/08/2023 19:07,Pay Bill Online from 254705846408 - JAMES OUMA Acc. HBH,Completed,16000,,59500,TRUE,Pay Bill Online,254705846408 - JAMES OUMA,,HBH
RH98OCWQIQ,09/08/2023 18:41,09/08/2023 18:41,Pay Bill from 0791379873 - Joseph Kyalo Sila Acc. HAH,Completed,16000,,43500,TRUE,Pay Utility,0791379873 - Joseph Kyalo Sila,,HAH
RH91O6GH2L,09/08/2023 17:56,09/08/2023 17:56,Pay Bill Online from 254714552193 - CHRISTOPHER OCHIENG Acc. JGI ,Completed,20500,,27500,TRUE,Pay Bill Online,254714552193 - CHRISTOPHER OCHIENG,,JGI
RH92O5SFQ4,09/08/2023 17:51,09/08/2023 17:51,Pay Bill Online from 254722604851 - WILFRED SAKWA Acc. KEE,Completed,2000,,7000,TRUE,Pay Bill Online,254722604851 - WILFRED SAKWA,,KEE
RH90O0CJTQ,09/08/2023 17:09,09/08/2023 17:09,Pay Bill from 254726337163 - HALIMA ALI HASSAN Acc. DDA,Completed,5000,,5000,TRUE,Pay Utility with OD via STK,254726337163 - HALIMA ALI HASSAN,,DDA
RH95NMVZL3,09/08/2023 15:05,09/08/2023 15:05,Utility Account to Organization Settlement Account,Completed,,-289400,0,TRUE,Utility Account to Organization Settlement Account,979524 - ANCIENT WELLS PROPERTY MANAGERS 2,,
RH99NH39WP,09/08/2023 14:09,09/08/2023 14:09,Pay Bill from 254796848496 - IVY WITABA Acc. FAA,Completed,4000,,289400,TRUE,Pay Utility,254796848496 - IVY WITABA,,FAA
RH99NDAX2X,09/08/2023 13:34,09/08/2023 13:34,Merchant Pay Utility Received from 7245661 -  OCHIENG CHEMIST  Acc. HFD,Completed,1000,,285400,TRUE,Merchant Pay Utility via API,7245661 -  OCHIENG CHEMIST ,,HFD
RH90ND1D8C,09/08/2023 13:31,09/08/2023 13:31,Pay Bill Online from 254717985596 - NICHOLAS KIPKOECH BUTIA Acc. hcf,Completed,9000,,284400,TRUE,Pay Bill Online,254717985596 - NICHOLAS KIPKOECH BUTIA,,hcf
RH95N7CWQZ,09/08/2023 12:37,09/08/2023 12:37,Pay Bill from 254796069018 - PEACE KIMEU Acc. Jah,Completed,16000,,275400,TRUE,Pay Utility,254796069018 - PEACE KIMEU,,Jah
RH92N53CPY,09/08/2023 12:15,09/08/2023 12:15,Pay Bill from 0757259130 - RASHID SUDI MCHOMBO Acc. JAF,Completed,3500,,259400,TRUE,Pay Utility,0757259130 - RASHID SUDI MCHOMBO,,JAF
RH97N4ZYQZ,09/08/2023 12:14,09/08/2023 12:14,Pay Bill from 254724435274 - WINFRED MBINYA MUNUVE Acc. DDC,Completed,4500,,255900,TRUE,Pay Utility,254724435274 - WINFRED MBINYA MUNUVE,,DDC
RH90N46T5S,09/08/2023 12:06,09/08/2023 12:06,Pay Bill from 254722136450 - MARY EVERLYN Acc. JAI,Completed,20000,,251400,TRUE,Pay Utility,254722136450 - MARY EVERLYN,,JAI
RH96N36PM2,09/08/2023 11:56,09/08/2023 11:56,Pay Bill from 254720051502 - JOHN OCHIENG ONYANGO Acc. JFA ,Completed,10000,,231400,TRUE,Pay Utility,254720051502 - JOHN OCHIENG ONYANGO,,JFA
RH90MZ51U2,09/08/2023 11:16,09/08/2023 11:16,Pay Bill from 254741223822 - Rhoyce Kiptarus Boiyo Acc. FEC,Completed,9000,,221400,TRUE,Pay Utility,254741223822 - Rhoyce Kiptarus Boiyo,,FEC
RH93MX232V,09/08/2023 10:55,09/08/2023 10:55,Pay Bill Online from 254720947704 - JOSPHAT JOHN MUSYOKI Acc. HDD,Completed,10000,,212400,TRUE,Pay Bill Online,254720947704 - JOSPHAT JOHN MUSYOKI,,HDD
RH92MNINWY,09/08/2023 09:17,09/08/2023 09:17,Pay Bill from 254729258441 - ROBERT RONO KULEI Acc. JFI,Completed,20000,,202400,TRUE,Pay Utility,254729258441 - ROBERT RONO KULEI,,JFI
RH94MM46F0,09/08/2023 09:02,09/08/2023 09:02,Pay Bill Online from 254720451253 - JIMMY KIOGORA NKIROTE Acc. KBD,Completed,2000,,182400,TRUE,Pay Bill Online,254720451253 - JIMMY KIOGORA NKIROTE,,KBD
RH80LYJ7EU,08/08/2023 21:21,08/08/2023 21:21,Pay Bill from 254703935626 - DAVID NGARI ITA Acc. FCD ,Completed,1000,,180400,TRUE,Pay Utility with OD via STK,254703935626 - DAVID NGARI ITA,,FCD
RH81LT7Y23,08/08/2023 20:38,08/08/2023 20:38,Pay Bill from 254721698818 - SAIDA SHUKRI GUFU Acc. JEA,Completed,17000,,179400,TRUE,Pay Utility,254721698818 - SAIDA SHUKRI GUFU,,JEA
RH84LP1VPG,08/08/2023 20:09,08/08/2023 20:09,Pay Bill Online from 254720620070 - Michelle Mwihaki Ngaruiya Acc. JEJ,Completed,15000,,162400,TRUE,Pay Bill Online,254720620070 - Michelle Mwihaki Ngaruiya,,JEJ
RH81KXVVJR,08/08/2023 17:09,08/08/2023 17:09,Pay Bill Online from 254715764212 - BANCE ISHEMINYE Acc. JFE ,Completed,3000,,147400,TRUE,Pay Bill Online,254715764212 - BANCE ISHEMINYE,,JFE
RH89KUDTRF,08/08/2023 16:39,08/08/2023 16:39,Pay Bill from 0115327960 - JOSEPH WAMBUA MUSYOKA Acc. IBG,Completed,8000,,144400,TRUE,Pay Utility,0115327960 - JOSEPH WAMBUA MUSYOKA,,IBG
RH82KLN1R0,08/08/2023 15:16,08/08/2023 15:16,Pay Bill Online from 254710814215 - JOAN NYAMBURA KAMAU Acc. ifb,Completed,15000,,136400,TRUE,Pay Bill Online,254710814215 - JOAN NYAMBURA KAMAU,,ifb
RH85KGTIWZ,08/08/2023 14:28,08/08/2023 14:28,Pay Bill from 254711742716 - RODGERS KIPLANGAT KORIR Acc. IGC,Completed,9000,,121400,TRUE,Pay Utility,254711742716 - RODGERS KIPLANGAT KORIR,,IGC
RH86KDLAKM,08/08/2023 13:57,08/08/2023 13:57,Pay Bill from 254704977689 - ANTONY MUTHONI Acc. icd,Completed,12000,,112400,TRUE,Pay Utility,254704977689 - ANTONY MUTHONI,,icd
RH80KDCOFG,08/08/2023 13:55,08/08/2023 13:55,Pay Bill from 254722928051 - GILBERT K NGETUNY Acc. JBE,Completed,2000,,100400,TRUE,Pay Utility,254722928051 - GILBERT K NGETUNY,,JBE
RH87KCGPBD,08/08/2023 13:46,08/08/2023 13:46,Pay Bill Online from 0757319222 - ATEM KUOL JOHN BOL Acc. FAC,Completed,9500,,98400,TRUE,Pay Bill Online,0757319222 - ATEM KUOL JOHN BOL,,FAC
RH82K0K6OC,08/08/2023 11:48,08/08/2023 11:48,Pay Bill Online from 254724423882 - JOEL GICHURI KARANJA Acc. fee,Completed,16000,,88900,TRUE,Pay Bill Online,254724423882 - JOEL GICHURI KARANJA,,fee
RH89JTMBRL,08/08/2023 10:40,08/08/2023 10:40,Pay Bill Online from 254728897908 - Teddy Allan Onyango Acc. DDD,Completed,15900,,72900,TRUE,Pay Bill Online,254728897908 - Teddy Allan Onyango,,DDD
RH83JP9RUX,08/08/2023 09:56,08/08/2023 09:56,Pay Bill Online from 254718911865 - KENNEDY KELI KATUNGII Acc. HDF,Completed,9000,,57000,TRUE,Pay Bill Online,254718911865 - KENNEDY KELI KATUNGII,,HDF
RH81JNOEBZ,08/08/2023 09:40,08/08/2023 09:40,Pay Bill Online from 254702346515 - ELIZABETH ACHIENG NGOME Acc. ICH,Completed,16000,,48000,TRUE,Pay Bill Online,254702346515 - ELIZABETH ACHIENG NGOME,,ICH
RH80JEXP04,08/08/2023 08:01,08/08/2023 08:01,Pay Bill Online from 254720381965 - JAMES NGUGI MWANIKI Acc. JBI,Completed,20000,,32000,TRUE,Pay Bill Online,254720381965 - JAMES NGUGI MWANIKI,,JBI
RH80JEW90Q,08/08/2023 08:01,08/08/2023 08:01,Pay Bill Online from 254725381062 - VICTOR MAITHYA Acc. DEC,Completed,7000,,12000,TRUE,Pay Utility with OD Online,254725381062 - VICTOR MAITHYA,,DEC
RH84JE16WC,08/08/2023 07:49,08/08/2023 07:49,Pay Bill from 254720814822 - JAMES OTIENO OPAR Acc. jgj,Completed,5000,,5000,TRUE,Pay Utility with OD via STK,254720814822 - JAMES OTIENO OPAR,,jgj
RH85JDGXVD,08/08/2023 07:42,08/08/2023 07:42,Utility Account to Organization Settlement Account,Completed,,-168000,0,TRUE,Utility Account to Organization Settlement Account,979524 - ANCIENT WELLS PROPERTY MANAGERS 2,,
RH83JC8J87,08/08/2023 07:23,08/08/2023 07:23,Business Pay Bill by 488519 - NCBA  Bank M-pesa Acc. JCD via API,Completed,15000,,168000,TRUE,Business Pay Bill via API,488519 - NCBA  Bank M-pesa,,JCD
RH80J7C6NI,08/08/2023 02:10,08/08/2023 02:10,Pay Bill Online from 254720451253 - JIMMY KIOGORA NKIROTE Acc. KBD,Completed,2000,,153000,TRUE,Pay Bill Online,254720451253 - JIMMY KIOGORA NKIROTE,,KBD
RH70J4HAT6,07/08/2023 23:07,07/08/2023 23:07,Pay Bill from 254703935626 - DAVID NGARI ITA Acc. FCD ,Completed,1000,,151000,TRUE,Pay Utility with OD via STK,254703935626 - DAVID NGARI ITA,,FCD
RH72ITWRHY,07/08/2023 20:53,07/08/2023 20:53,Pay Bill from 254700557767 - BAKHITA MWENDE MUANGE Acc. kcb,Completed,16000,,150000,TRUE,Pay Utility,254700557767 - BAKHITA MWENDE MUANGE,,kcb
RH78IROOUK,07/08/2023 20:36,07/08/2023 20:36,Pay Bill Online from 254712040302 - EMMANUEL MWARO BARASA Acc. KEA,Completed,16000,,134000,TRUE,Pay Bill Online,254712040302 - EMMANUEL MWARO BARASA,,KEA
RH78IR14P8,07/08/2023 20:31,07/08/2023 20:31,Pay Bill from 254746110742 - FESTUS MUNYIRI MAINA Acc. IFF,Completed,10000,,118000,TRUE,Pay Utility,254746110742 - FESTUS MUNYIRI MAINA,,IFF
RH77IK2TL7,07/08/2023 19:46,07/08/2023 19:46,Pay Bill from 254727144033 - JOHN NYAREGA NYAKUNDI Acc. FAF,Completed,16000,,108000,TRUE,Pay Utility with OD via STK,254727144033 - JOHN NYAREGA NYAKUNDI,,FAF
RH74I7RICM,07/08/2023 18:32,07/08/2023 18:32,Pay Bill from 254724477912 - SAMUEL MURIMI Acc. HCD,Completed,10000,,92000,TRUE,Pay Utility with OD via STK,254724477912 - SAMUEL MURIMI,,HCD
RH79HV8CP1,07/08/2023 16:57,07/08/2023 16:57,Pay Bill Online from 254792187144 - HASSAN AHMED HASSAN Acc. KGI,Completed,10000,,82000,TRUE,Pay Bill Online,254792187144 - HASSAN AHMED HASSAN,,KGI
RH77HRCEW5,07/08/2023 16:23,07/08/2023 16:23,Pay Bill from 254729371750 - DERRICK OTANGA Acc. DAC,Completed,20000,,72000,TRUE,Pay Utility with OD via STK,254729371750 - DERRICK OTANGA,,DAC
RH71H75EQ7,07/08/2023 13:10,07/08/2023 13:10,Pay Bill from 254705641030 - FRIDAH WAENI MUITHYA Acc. JEH,Completed,16000,,52000,TRUE,Pay Utility,254705641030 - FRIDAH WAENI MUITHYA,,JEH
RH75H19CXN,07/08/2023 12:12,07/08/2023 12:12,Pay Bill from 254703276305 - MARTHA MUSYOKA Acc. IAI,Completed,15000,,36000,TRUE,Pay Utility,254703276305 - MARTHA MUSYOKA,,IAI
RH77GT6Q55,07/08/2023 10:53,07/08/2023 10:53,Pay Bill Online from 254720451253 - JIMMY KIOGORA NKIROTE Acc. KBD,Completed,2000,,21000,TRUE,Pay Utility with OD Online,254720451253 - JIMMY KIOGORA NKIROTE,,KBD
RH74GSAUEQ,07/08/2023 10:44,07/08/2023 10:44,Pay Bill Online from 254707726441 - JOHN OLOO NYAULA Acc. IEH,Completed,3000,,19000,TRUE,Pay Utility with OD Online,254707726441 - JOHN OLOO NYAULA,,IEH
RH73GRPVDL,07/08/2023 10:38,07/08/2023 10:38,Pay Bill from 254721315975 - JOSEPH NDEGWA Acc. H E B,Completed,16000,,16000,TRUE,Pay Utility,254721315975 - JOSEPH NDEGWA,,H
RH76GLTU5U,07/08/2023 09:37,07/08/2023 09:37,Utility Account to Organization Settlement Account,Completed,,-408000,0,TRUE,Utility Account to Organization Settlement Account,979524 - ANCIENT WELLS PROPERTY MANAGERS 2,,
RH71GFMSEL,07/08/2023 08:27,07/08/2023 08:27,Pay Bill from 254725754547 - MWACHIRO GEORGE DECHE Acc. DFC,Completed,20000,,408000,TRUE,Pay Utility,254725754547 - MWACHIRO GEORGE DECHE,,DFC
RH75GF5R1B,07/08/2023 08:21,07/08/2023 08:21,Pay Bill from 254722617724 - Cosmas Leitich Kiptoo Acc. KAG,Completed,10000,,388000,TRUE,Pay Utility with OD via STK,254722617724 - Cosmas Leitich Kiptoo,,KAG
RH70G9PUXC,07/08/2023 07:01,07/08/2023 07:01,Pay Bill from 254713281251 - ERIC KIAMA Acc. JDI,Completed,20000,,378000,TRUE,Pay Utility with OD via STK,254713281251 - ERIC KIAMA,,JDI
RH79G6NYK5,07/08/2023 03:53,07/08/2023 03:53,Pay Bill Online from 254715764212 - BANCE ISHEMINYE Acc. JFE,Completed,6000,,358000,TRUE,Pay Bill Online,254715764212 - BANCE ISHEMINYE,,JFE
RH66FZNQH0,06/08/2023 22:02,06/08/2023 22:02,Pay Bill Online from 254703285159 - Enock Michieka Mochoge Acc. KAE,Completed,10000,,352000,TRUE,Pay Bill Online,254703285159 - Enock Michieka Mochoge,,KAE
RH66FYX8YW,06/08/2023 21:53,06/08/2023 21:53,Pay Bill from 254703935626 - DAVID NGARI ITA Acc. FCD ,Completed,1000,,342000,TRUE,Pay Utility with OD via STK,254703935626 - DAVID NGARI ITA,,FCD
RH69FYDBAV,06/08/2023 21:46,06/08/2023 21:46,Pay Bill from 254725621394 - RACHAEL WACHIRA Acc. Jfb,Completed,15000,,341000,TRUE,Pay Utility,254725621394 - RACHAEL WACHIRA,,Jfb
RH61FY9GEN,06/08/2023 21:45,06/08/2023 21:45,Pay Bill from 254701112397 - ELEMA GODANA DIBA Acc. FCA,Completed,3500,,326000,TRUE,Pay Utility,254701112397 - ELEMA GODANA DIBA,,FCA
RH64FXKDKS,06/08/2023 21:37,06/08/2023 21:37,Pay Bill Online from 254722604851 - WILFRED SAKWA Acc. KEE,Completed,8000,,322500,TRUE,Pay Bill Online,254722604851 - WILFRED SAKWA,,KEE
RH64FSDKGW,06/08/2023 20:47,06/08/2023 20:47,Pay Bill Online from 0757699775 - BENARD MUIA MUTUA Acc. HCB,Completed,16000,,314500,TRUE,Pay Bill Online,0757699775 - BENARD MUIA MUTUA,,HCB
RH60FPZE92,06/08/2023 20:28,06/08/2023 20:28,Pay Bill Online from 254724821898 - ALLAN GISONI NYANGARESI Acc. DBA,Completed,16000,,298500,TRUE,Pay Bill Online,254724821898 - ALLAN GISONI NYANGARESI,,DBA
RH66FKAK0Q,06/08/2023 19:46,06/08/2023 19:46,Pay Bill from 0742599061 - Judy Masese Samwel Acc. hgf,Completed,9500,,282500,TRUE,Pay Utility,0742599061 - Judy Masese Samwel,,hgf
RH66FHEFLE,06/08/2023 19:26,06/08/2023 19:26,Pay Bill from 254718599145 - KITEMI KIEMA Acc. KGD,Completed,9500,,273000,TRUE,Pay Utility,254718599145 - KITEMI KIEMA,,KGD
RH62F5ZVYC,06/08/2023 18:04,06/08/2023 18:04,Pay Bill Online from 254722769473 - SAMSON CHALO Acc. IAB,Completed,15000,,263500,TRUE,Pay Bill Online,254722769473 - SAMSON CHALO,,IAB
RH62F48Y6A,06/08/2023 17:50,06/08/2023 17:50,Pay Bill from 254701112397 - ELEMA GODANA DIBA Acc. FCA,Completed,1500,,248500,TRUE,Pay Utility with OD via STK,254701112397 - ELEMA GODANA DIBA,,FCA
RH63F3J8YT,06/08/2023 17:44,06/08/2023 17:44,Pay Bill from 254740579741 - MUHINDI MULINYA Acc. HGG,Completed,15000,,247000,TRUE,Pay Utility,254740579741 - MUHINDI MULINYA,,HGG
RH69F0VDE1,06/08/2023 17:21,06/08/2023 17:21,Pay Bill from 0743789968 - Dallias Thanare Githara Acc. hbb,Completed,8000,,232000,TRUE,Pay Utility,0743789968 - Dallias Thanare Githara,,hbb
RH66EY29C0,06/08/2023 16:56,06/08/2023 16:56,Pay Bill Online from 254718253322 - DUNCAN MOCHOGE Acc. JFJ,Completed,15000,,224000,TRUE,Pay Utility with OD Online,254718253322 - DUNCAN MOCHOGE,,JFJ
RH64EUBKAE,06/08/2023 16:21,06/08/2023 16:21,Pay Bill from 254719194821 - KIPKEMOI SANG GEOFFREY Acc. JDD,Completed,15000,,209000,TRUE,Pay Utility,254719194821 - KIPKEMOI SANG GEOFFREY,,JDD
RH65ED8AMD,06/08/2023 13:33,06/08/2023 13:33,Pay Bill Online from 254711507729 - DAVID ANYONGE MALIJAMBO Acc. HFA,Completed,16000,,194000,TRUE,Pay Bill Online,254711507729 - DAVID ANYONGE MALIJAMBO,,HFA
RH66DR2UYA,06/08/2023 09:22,06/08/2023 09:22,Pay Bill Online from 0703634804 - SYLVIA NYAMBURA NJOROGE Acc. KCD,Completed,11000,,178000,TRUE,Pay Bill Online,0703634804 - SYLVIA NYAMBURA NJOROGE,,KCD
RH66DOSSNK,06/08/2023 08:54,06/08/2023 08:54,Pay Bill Online from 254710732381 - JANE ACHIENG MBEKE Acc. HAF,Completed,10000,,167000,TRUE,Pay Bill Online,254710732381 - JANE ACHIENG MBEKE,,HAF
RH65DGFQZ5,06/08/2023 05:55,06/08/2023 05:55,Pay Bill from 0790536272 - BARNABAS MSITIA KEYARI Acc. FGC,Completed,2000,,157000,TRUE,Pay Utility,0790536272 - BARNABAS MSITIA KEYARI,,FGC
RH64DE9STQ,06/08/2023 02:05,06/08/2023 02:05,Pay Bill from 254710635630 - DONNA JESSICA OWANO Acc. KCC,Completed,10000,,155000,TRUE,Pay Utility,254710635630 - DONNA JESSICA OWANO,,KCC
RH51DC1RNP,05/08/2023 23:58,05/08/2023 23:58,Pay Bill from 0701151700 - Anabel Mwikali Gichuru Acc. JDJ,Completed,15000,,145000,TRUE,Pay Utility,0701151700 - Anabel Mwikali Gichuru,,JDJ
RH51DAKZIP,05/08/2023 23:15,05/08/2023 23:15,Pay Bill from 254724862849 - Ann Fresiah Kinyua Acc. HDA,Completed,16000,,130000,TRUE,Pay Utility,254724862849 - Ann Fresiah Kinyua,,HDA
RH51D6CHWL,05/08/2023 22:04,05/08/2023 22:04,Pay Bill Online from 254723411873 - FREDRICK CHERUIYOT Acc. jbf,Completed,8000,,114000,TRUE,Pay Bill Online,254723411873 - FREDRICK CHERUIYOT,,jbf
RH51D4NTO3,05/08/2023 21:45,05/08/2023 21:45,Pay Bill from 0724386624 - FATUMA ISSE YUSSUF Acc. FAB,Completed,16000,,106000,TRUE,Pay Utility,0724386624 - FATUMA ISSE YUSSUF,,FAB
RH52D1W312,05/08/2023 21:19,05/08/2023 21:19,Pay Bill from 254704303496 - PETER MACHARIA WAIGANJO Acc. DFD,Completed,20000,,90000,TRUE,Pay Utility,254704303496 - PETER MACHARIA WAIGANJO,,DFD
RH50CUX3Q6,05/08/2023 20:25,05/08/2023 20:25,Pay Bill Online from 254718663397 - JIMMY MUNYAO NZIOKI Acc. DCB,Completed,16000,,70000,TRUE,Pay Bill Online,254718663397 - JIMMY MUNYAO NZIOKI,,DCB
RH59CG4R69,05/08/2023 18:55,05/08/2023 18:55,Pay Bill Online from 254715892656 - DENNIS MUSYOKA MUOKI Acc. kfa,Completed,7000,,54000,TRUE,Pay Bill Online,254715892656 - DENNIS MUSYOKA MUOKI,,kfa
RH54CE0HV0,05/08/2023 18:42,05/08/2023 18:42,Pay Bill from 254702488841 - JEREMIAH NYANSIKERA Acc. KBC,Completed,4000,,47000,TRUE,Pay Utility,254702488841 - JEREMIAH NYANSIKERA,,KBC
RH50CAHX1W,05/08/2023 18:18,05/08/2023 18:18,Pay Bill from 254717247817 - NYANGAU HARONI Acc. jba,Completed,16500,,43000,TRUE,Pay Utility,254717247817 - NYANGAU HARONI,,jba
RH59C29IUX,05/08/2023 17:15,05/08/2023 17:15,Pay Bill from 254700811449 - JOHN MULIMA ENANE Acc. HCE,Completed,10500,,26500,TRUE,Pay Utility,254700811449 - JOHN MULIMA ENANE,,HCE
RH57BRXS0X,05/08/2023 15:45,05/08/2023 15:45,Pay Bill from 254712283818 - OYUGI OCHIENG Acc. FCB,Completed,16000,,16000,TRUE,Pay Utility,254712283818 - OYUGI OCHIENG,,FCB
RH52BMZPNG,05/08/2023 14:59,05/08/2023 14:59,Utility Account to Organization Settlement Account,Completed,,-172200,0,TRUE,Utility Account to Organization Settlement Account,979524 - ANCIENT WELLS PROPERTY MANAGERS 2,,
RH54BMZBUA,05/08/2023 14:59,05/08/2023 14:59,Pay Bill from 254704977689 - ANTONY MUTHONI Acc. icd,Completed,11000,,172200,TRUE,Pay Utility,254704977689 - ANTONY MUTHONI,,icd
RH59BKL6Y7,05/08/2023 14:37,05/08/2023 14:37,Pay Bill from 254700430569 - EDITH   GAKII Acc. DDB,Completed,16000,,161200,TRUE,Pay Utility with OD via STK,254700430569 - EDITH   GAKII,,DDB
RH50BKEE10,05/08/2023 14:35,05/08/2023 14:35,Pay Bill from 254701112397 - ELEMA GODANA DIBA Acc. FCA,Completed,1500,,145200,TRUE,Pay Utility with OD via STK,254701112397 - ELEMA GODANA DIBA,,FCA
RH57BHOAJV,05/08/2023 14:10,05/08/2023 14:10,Pay Bill from 0798951042 - fridah kathure kinyua Acc. HGE,Completed,9000,,143700,TRUE,Pay Utility,0798951042 - fridah kathure kinyua,,HGE
RH56BDPENU,05/08/2023 13:34,05/08/2023 13:34,Pay Bill Online from 254113678329 - LESLIE NAINI KOIKAI Acc. IBD,Completed,200,,134700,TRUE,Pay Bill Online,254113678329 - LESLIE NAINI KOIKAI,,IBD
RH53BBOA7P,05/08/2023 13:15,05/08/2023 13:15,Pay Bill from 254726337163 - HALIMA ALI HASSAN Acc. DDA,Completed,5000,,134500,TRUE,Pay Utility,254726337163 - HALIMA ALI HASSAN,,DDA
RH52BBC4KO,05/08/2023 13:12,05/08/2023 13:12,Pay Bill Online from 254721465713 - RHODA WAMBUI MWANGI Acc. Jfh,Completed,17000,,129500,TRUE,Pay Bill Online,254721465713 - RHODA WAMBUI MWANGI,,Jfh
RH51B1LHPL,05/08/2023 11:38,05/08/2023 11:38,Pay Bill from 254112174958 - Nicholas Koome Acc. JDE,Completed,9500,,112500,TRUE,Pay Utility,254112174958 - Nicholas Koome,,JDE
RH51B0WW0L,05/08/2023 11:32,05/08/2023 11:32,Pay Bill from 0794580122 - Edgar                    usagi Acc. HED,Completed,10000,,103000,TRUE,Pay Utility,0794580122 - Edgar                    usagi,,HED
RH53AX417N,05/08/2023 10:55,05/08/2023 10:55,Pay Bill from 254719398942 - NORAH WAYUA MUNYAO Acc. KDA,Completed,16000,,93000,TRUE,Pay Utility,254719398942 - NORAH WAYUA MUNYAO,,KDA
RH52AU71AO,05/08/2023 10:27,05/08/2023 10:27,Pay Bill Online from 254728886864 - MOULINE ONYANGO Acc. IAA,Completed,32000,,77000,TRUE,Pay Bill Online,254728886864 - MOULINE ONYANGO,,IAA
RH55ARU89L,05/08/2023 10:03,05/08/2023 10:03,Pay Bill from 254796878941 - PAUL KYALO MUENDO Acc. HBE,Completed,10000,,45000,TRUE,Pay Utility with OD via STK,254796878941 - PAUL KYALO MUENDO,,HBE
RH52AL6EHE,05/08/2023 08:50,05/08/2023 08:50,Pay Bill from 0794580122 - Edgar                    usagi Acc. HED,Completed,9000,,35000,TRUE,Pay Utility,0794580122 - Edgar                    usagi,,HED
RH54AI8UBM,05/08/2023 08:14,05/08/2023 08:14,Pay Bill from 254719747910 - KEVIN NDERITU GAKINGO Acc. iDD,Completed,11000,,26000,TRUE,Pay Utility,254719747910 - KEVIN NDERITU GAKINGO,,iDD
RH53AHQ6RR,05/08/2023 08:07,05/08/2023 08:07,Business Pay Bill by 488519 - NCBA  Bank M-pesa Acc. HGH via API,Completed,15000,,15000,TRUE,Business Pay Bill via API,488519 - NCBA  Bank M-pesa,,HGH
RH59AHMELF,05/08/2023 08:06,05/08/2023 08:06,Utility Account to Organization Settlement Account,Completed,,-181800,0,TRUE,Utility Account to Organization Settlement Account,979524 - ANCIENT WELLS PROPERTY MANAGERS 2,,
RH53AFZHLF,05/08/2023 07:42,05/08/2023 07:42,Pay Bill from 254700198550 - BENARD ONYANGO Acc. DBB,Completed,16000,,181800,TRUE,Pay Utility,254700198550 - BENARD ONYANGO,,DBB
RH52ABOPH0,05/08/2023 05:28,05/08/2023 05:28,Pay Bill Online from 254720451253 - JIMMY KIOGORA NKIROTE Acc. KBD,Completed,2000,,165800,TRUE,Pay Bill Online,254720451253 - JIMMY KIOGORA NKIROTE,,KBD
RH59A9MM4H,05/08/2023 01:29,05/08/2023 01:29,Pay Bill from 0742624652 - Charity Kaluki Isaac Acc. IEB,Completed,15000,,163800,TRUE,Pay Utility,0742624652 - Charity Kaluki Isaac,,IEB
RH53A9G4OZ,05/08/2023 01:15,05/08/2023 01:15,Pay Bill from 254717148989 - ALLAN MUTHONI Acc. HAC,Completed,10000,,148800,TRUE,Pay Utility,254717148989 - ALLAN MUTHONI,,HAC
RH46A6IZIY,04/08/2023 23:13,04/08/2023 23:13,Pay Bill Online from 254721714178 - PHANICE JEROTICH KIPTOO Acc. FBF,Completed,16000,,138800,TRUE,Pay Bill Online,254721714178 - PHANICE JEROTICH KIPTOO,,FBF
RH45A4WQ5X,04/08/2023 22:39,04/08/2023 22:39,Pay Bill from 0790536272 - BARNABAS MSITIA KEYARI Acc. FGC,Completed,1500,,122800,TRUE,Pay Utility,0790536272 - BARNABAS MSITIA KEYARI,,FGC
RH4195I1UX,04/08/2023 18:05,04/08/2023 18:05,Pay Bill from 254728670882 - SHARAD EDWARD ADALA OLUM Acc. KCK,Completed,15000,,121300,TRUE,Pay Utility,254728670882 - SHARAD EDWARD ADALA OLUM,,KCK
RH408QAYBG,04/08/2023 16:03,04/08/2023 16:03,Pay Bill from 254725539787 - EVERLYNE MOGAKA Acc. KEF,Completed,2300,,106300,TRUE,Pay Utility,254725539787 - EVERLYNE MOGAKA,,KEF
RH438LYCAN,04/08/2023 15:22,04/08/2023 15:22,Pay Bill from 254710965167 - KUSA STEPHANIE HAZEL Acc. JEB,Completed,15000,,104000,TRUE,Pay Utility,254710965167 - KUSA STEPHANIE HAZEL,,JEB
RH438GFP3B,04/08/2023 14:29,04/08/2023 14:29,Pay Bill from 0715688238 - JOANNAH ATUHAIRE BANTU Acc. FFA,Completed,25500,,89000,TRUE,Pay Utility,0715688238 - JOANNAH ATUHAIRE BANTU,,FFA
RH498EQMS1,04/08/2023 14:13,04/08/2023 14:13,Pay Bill Online from 254757569672 - BRIAN MARITA NYANGAU Acc. KDD,Completed,12000,,63500,TRUE,Pay Bill Online,254757569672 - BRIAN MARITA NYANGAU,,KDD
RH498EFVOH,04/08/2023 14:11,04/08/2023 14:11,Pay Bill from 254726753273 - JESSE K MURIRMI NJERU Acc. HCH,Completed,17000,,51500,TRUE,Pay Utility,254726753273 - JESSE K MURIRMI NJERU,,HCH
RH4389XVZH,04/08/2023 13:28,04/08/2023 13:28,Pay Bill from 254721667039 - ELIAS KIPLAGAT Acc. KAC,Completed,11000,,34500,TRUE,Pay Utility,254721667039 - ELIAS KIPLAGAT,,KAC
RH497UM8V1,04/08/2023 10:57,04/08/2023 10:57,Pay Bill from 254716056537 - KIRUI KIPLANGAT HILLARY Acc. JCJ,Completed,13000,,23500,TRUE,Pay Utility,254716056537 - KIRUI KIPLANGAT HILLARY,,JCJ
RH477RGXGX,04/08/2023 10:25,04/08/2023 10:25,Pay Bill from 254729160700 - MICAH NDUNGI Acc. HFE,Completed,10500,,10500,TRUE,Pay Utility,254729160700 - MICAH NDUNGI,,HFE
RH447QLS8Y,04/08/2023 10:16,04/08/2023 10:16,Utility Account to Organization Settlement Account,Completed,,-162000,0,TRUE,Utility Account to Organization Settlement Account,979524 - ANCIENT WELLS PROPERTY MANAGERS 2,,
RH437LY06Z,04/08/2023 09:27,04/08/2023 09:27,Pay Bill from 254716881682 - JUSTINE FAYUMA OKWEMBA Acc. HAA,Completed,17000,,162000,TRUE,Pay Utility,254716881682 - JUSTINE FAYUMA OKWEMBA,,HAA
RH487K41WY,04/08/2023 09:06,04/08/2023 09:06,Pay Bill from 254722521028 - CHARLES MONYONCHO Acc. JDA,Completed,20000,,145000,TRUE,Pay Utility,254722521028 - CHARLES MONYONCHO,,JDA
RH407E5QHG,04/08/2023 07:54,04/08/2023 07:54,Pay Bill Online from 254721974995 - BERNICE MANGOKA Acc. KFK,Completed,16000,,125000,TRUE,Pay Bill Online,254721974995 - BERNICE MANGOKA,,KFK
RH386ZM3BG,03/08/2023 21:52,03/08/2023 21:52,Pay Bill from 0715806956 - Mercy Jelagat Kalum Acc. FFE,Completed,15000,,109000,TRUE,Pay Utility,0715806956 - Mercy Jelagat Kalum,,FFE
RH336Q5NIF,03/08/2023 20:26,03/08/2023 20:26,Pay Bill from 254723488259 - WILSON OKITE OKITE Acc. HCA,Completed,15000,,94000,TRUE,Pay Utility,254723488259 - WILSON OKITE OKITE,,HCA
RH326LA8FW,03/08/2023 19:53,03/08/2023 19:53,Pay Bill Online from 254729796719 - JACINTA WANJIKU NJERI Acc. FFF,Completed,17000,,79000,TRUE,Pay Bill Online,254729796719 - JACINTA WANJIKU NJERI,,FFF
RH316A5WE9,03/08/2023 18:46,03/08/2023 18:46,Pay Bill from 254712974871 - PAULA WANJIKU GATUI Acc. HEA,Completed,16000,,62000,TRUE,Pay Utility,254712974871 - PAULA WANJIKU GATUI,,HEA
RH3469SL9Q,03/08/2023 18:44,03/08/2023 18:44,Pay Bill from 254716504398 - HYVENE MAYETI Acc. KDE,Completed,10000,,46000,TRUE,Pay Utility,254716504398 - HYVENE MAYETI,,KDE
RH3467JYZ8,03/08/2023 18:29,03/08/2023 18:29,Pay Bill from 254726599835 - LAWRENCE MURIITHI Acc. kdj,Completed,16000,,36000,TRUE,Pay Utility,254726599835 - LAWRENCE MURIITHI,,kdj
RH3263BMTG,03/08/2023 18:00,03/08/2023 18:00,Pay Bill from 254791387800 - CAROL MUTUNGA Acc. ICF,Completed,11000,,20000,TRUE,Pay Utility,254791387800 - CAROL MUTUNGA,,ICF
RH38623D68,03/08/2023 17:51,03/08/2023 17:51,Pay Bill from 0740208174 - Josephine adhiambo koyi Acc. ifg,Completed,9000,,9000,TRUE,Pay Utility,0740208174 - Josephine adhiambo koyi,,ifg
RH3060Q238,03/08/2023 17:41,03/08/2023 17:41,Utility Account to Organization Settlement Account,Completed,,-10000,0,TRUE,Utility Account to Organization Settlement Account,979524 - ANCIENT WELLS PROPERTY MANAGERS 2,,
RH355WOT19,03/08/2023 17:09,03/08/2023 17:09,Pay Bill from 254702216907 - FAITH MUSA Acc. kbe,Completed,10000,,10000,TRUE,Pay Utility,254702216907 - FAITH MUSA,,kbe
RH335LV03D,03/08/2023 15:31,03/08/2023 15:31,Utility Account to Organization Settlement Account,Completed,,-33000,0,TRUE,Utility Account to Organization Settlement Account,979524 - ANCIENT WELLS PROPERTY MANAGERS 2,,
RH315HDOVV,03/08/2023 14:46,03/08/2023 14:46,Pay Bill from 254714060203 - PATRICK MWANGOMBE MSAWUCHI Acc. KEI,Completed,12000,,33000,TRUE,Pay Utility,254714060203 - PATRICK MWANGOMBE MSAWUCHI,,KEI
RH385FS992,03/08/2023 14:31,03/08/2023 14:31,Pay Bill from 254701112397 - ELEMA GODANA DIBA Acc. FCA,Completed,6000,,21000,TRUE,Pay Utility,254701112397 - ELEMA GODANA DIBA,,FCA
RH355DQAXD,03/08/2023 14:11,03/08/2023 14:11,Pay Bill from 254711515672 - ALLAN MUTEMBEI Acc. IEI,Completed,15000,,15000,TRUE,Pay Utility,254711515672 - ALLAN MUTEMBEI,,IEI
RH384XJY7G,03/08/2023 11:31,03/08/2023 11:31,Utility Account to Organization Settlement Account,Completed,,-50000,0,TRUE,Utility Account to Organization Settlement Account,979524 - ANCIENT WELLS PROPERTY MANAGERS 2,,
RH304VI6VU,03/08/2023 11:10,03/08/2023 11:10,Pay Bill from 254723341864 - WILLIAM OSIEL WACHUDI Acc. DED,Completed,20000,,50000,TRUE,Pay Utility,254723341864 - WILLIAM OSIEL WACHUDI,,DED
RH314MO4EN,03/08/2023 09:38,03/08/2023 09:38,Pay Bill Online from 254710202776 - KELVIN KARIMI MACHARIA Acc. FAD,Completed,11000,,30000,TRUE,Pay Bill Online,254710202776 - KELVIN KARIMI MACHARIA,,FAD
RH304M2EY4,03/08/2023 09:32,03/08/2023 09:32,Pay Bill from 254727095667 - HILDA JEPKEMOI KIMELIEL Acc. JBE,Completed,3000,,19000,TRUE,Pay Utility,254727095667 - HILDA JEPKEMOI KIMELIEL,,JBE
RH394K9227,03/08/2023 09:11,03/08/2023 09:11,Pay Bill from 254728084427 - MARY NABWIRE OKELLO Acc. FDF,Completed,16000,,16000,TRUE,Pay Utility,254728084427 - MARY NABWIRE OKELLO,,FDF
RH394K8KVB,03/08/2023 09:11,03/08/2023 09:11,Utility Account to Organization Settlement Account,Completed,,-179500,0,TRUE,Utility Account to Organization Settlement Account,979524 - ANCIENT WELLS PROPERTY MANAGERS 2,,
RH324D3QCO,03/08/2023 07:40,03/08/2023 07:40,Pay Bill Online from 0718473068 - Dennis Kiptoo Maiyo Acc. FEF,Completed,16000,,179500,TRUE,Pay Bill Online,0718473068 - Dennis Kiptoo Maiyo,,FEF
RH2343YBZV,02/08/2023 23:01,02/08/2023 23:01,Pay Bill Online from 254720407659 - FRANCIS CHUMO Acc. KDG,Completed,10000,,163500,TRUE,Pay Bill Online,254720407659 - FRANCIS CHUMO,,KDG
RH2840XJDE,02/08/2023 22:05,02/08/2023 22:05,Pay Bill Online from 254729097858 - AMBROSE ADEYA AHAWO Acc. KCF,Completed,10000,,153500,TRUE,Pay Bill Online,254729097858 - AMBROSE ADEYA AHAWO,,KCF
RH273Q5HHJ,02/08/2023 20:23,02/08/2023 20:23,Pay Bill from 254796640269 - TABITHA NJERI MAINA Acc. JEE,Completed,4000,,143500,TRUE,Pay Utility,254796640269 - TABITHA NJERI MAINA,,JEE
RH233GZ1RB,02/08/2023 19:24,02/08/2023 19:24,Pay Bill from 0707950214 - Abdirashid Osman Huka Acc. KEJ,Completed,16000,,139500,TRUE,Pay Utility,0707950214 - Abdirashid Osman Huka,,KEJ
RH283GO316,02/08/2023 19:22,02/08/2023 19:22,Pay Bill from 0790536272 - BARNABAS MSITIA KEYARI Acc. FGC,Completed,1000,,123500,TRUE,Pay Utility,0790536272 - BARNABAS MSITIA KEYARI,,FGC
RH243A74PA,02/08/2023 18:44,02/08/2023 18:44,Pay Bill from 254717690295 - MARCELLA JELIMO Acc. IGE,Completed,9000,,122500,TRUE,Pay Utility,254717690295 - MARCELLA JELIMO,,IGE
RH212X6VVX,02/08/2023 17:11,02/08/2023 17:11,Pay Bill from 254721780448 - EVERLYNE MIDEVA CHOGO Acc. JCA ,Completed,20000,,113500,TRUE,Pay Utility,254721780448 - EVERLYNE MIDEVA CHOGO,,JCA
RH232TKU5H,02/08/2023 16:41,02/08/2023 16:41,Pay Bill from 254720496449 - STANLEY KIPKOECH RONO Acc. FBE,Completed,12000,,93500,TRUE,Pay Utility,254720496449 - STANLEY KIPKOECH RONO,,FBE
RH262D3H06,02/08/2023 14:01,02/08/2023 14:01,Pay Bill from 254798609376 - Oliva Wafula Juma Acc. DEA,Completed,24500,,81500,TRUE,Pay Utility,254798609376 - Oliva Wafula Juma,,DEA
RH202C0DQW,02/08/2023 13:51,02/08/2023 13:51,Pay Bill from 254724852503 - GEOFREY YEGO Acc. JFF,Completed,10000,,57000,TRUE,Pay Utility,254724852503 - GEOFREY YEGO,,JFF
RH2526C7KN,02/08/2023 12:55,02/08/2023 12:55,Pay Bill from 254702070444 - RANDY OCHIENG ONDITI Acc. JAB,Completed,31000,,47000,TRUE,Pay Utility,254702070444 - RANDY OCHIENG ONDITI,,JAB
RH2922YTLB,02/08/2023 12:21,02/08/2023 12:21,Pay Bill from 254723499628 - CLINTON JOSEPH MUHARI Acc. hfh,Completed,16000,,16000,TRUE,Pay Utility,254723499628 - CLINTON JOSEPH MUHARI,,hfh
RH231YCFQP,02/08/2023 11:34,02/08/2023 11:34,Utility Account to Organization Settlement Account,Completed,,-111500,0,TRUE,Utility Account to Organization Settlement Account,979524 - ANCIENT WELLS PROPERTY MANAGERS 2,,
RH211XZM4B,02/08/2023 11:30,02/08/2023 11:30,Pay Bill from 254725478531 - KIPKORIR KUTO Acc. DFB,Completed,15000,,111500,TRUE,Pay Utility,254725478531 - KIPKORIR KUTO,,DFB
RH261T8QJ8,02/08/2023 10:42,02/08/2023 10:42,Pay Bill from 254723954911 - JAMES KILAVI Acc. ICG,Completed,9500,,96500,TRUE,Pay Utility,254723954911 - JAMES KILAVI,,ICG
RH241OE15O,02/08/2023 09:52,02/08/2023 09:52,Pay Bill Online from 254742023558 - PEACEMARY NJERI MAINA Acc. JBC,Completed,11000,,87000,TRUE,Pay Bill Online,254742023558 - PEACEMARY NJERI MAINA,,JBC
RH211L7VQF,02/08/2023 09:17,02/08/2023 09:17,Pay Bill from 254745338401 - mirriam ngina jane Acc. KGC,Completed,9000,,76000,TRUE,Pay Utility,254745338401 - mirriam ngina jane,,KGC
RH291J1M3D,02/08/2023 08:52,02/08/2023 08:52,Pay Bill from 254728213256 - NICHOLAS NJOROGE Acc. HAD,Completed,10000,,67000,TRUE,Pay Utility,254728213256 - NICHOLAS NJOROGE,,HAD
RH211G3U51,02/08/2023 08:17,02/08/2023 08:17,Pay Bill from 254717726012 - WINFRED MUENI PETER Acc. IDA,Completed,16000,,57000,TRUE,Pay Utility with OD via STK,254717726012 - WINFRED MUENI PETER,,IDA
RH1613K3YK,01/08/2023 22:44,01/08/2023 22:44,Pay Bill Online from 254721417560 - ANDREW SANDE Acc. JBJ,Completed,16000,,41000,TRUE,Pay Bill Online,254721417560 - ANDREW SANDE,,JBJ
RH1912MI5B,01/08/2023 22:26,01/08/2023 22:26,Pay Bill from 254729450678 - GRACE NDUNGE Acc. fba,Completed,15000,,25000,TRUE,Pay Utility,254729450678 - GRACE NDUNGE,,fba
RH14ZRMES8,01/08/2023 20:32,01/08/2023 20:32,Pay Bill Online from 254720496449 - STANLEY KIPKOECH RONO Acc. FBE,Completed,10000,,10000,TRUE,Pay Bill Online,254720496449 - STANLEY KIPKOECH RONO,,FBE
RH13ZRB35R,01/08/2023 20:29,01/08/2023 20:29,Utility Account to Organization Settlement Account,Completed,,-110000,0,TRUE,Utility Account to Organization Settlement Account,979524 - ANCIENT WELLS PROPERTY MANAGERS 2,,
RH11ZNB8RR,01/08/2023 20:01,01/08/2023 20:01,Pay Bill from 254717063324 - Christine Murugi Nyaga Acc. KDF ,Completed,10000,,110000,TRUE,Pay Utility,254717063324 - Christine Murugi Nyaga,,KDF
RH15ZI4O7H,01/08/2023 19:29,01/08/2023 19:29,Pay Bill from 254717247817 - NYANGAU HARONI Acc. jba,Completed,20000,,100000,TRUE,Pay Utility,254717247817 - NYANGAU HARONI,,jba
RH11ZGV0XL,01/08/2023 19:21,01/08/2023 19:21,Pay Bill Online from 254717809935 - LYDIAH WERU Acc. FFB,Completed,15000,,80000,TRUE,Pay Bill Online,254717809935 - LYDIAH WERU,,FFB
RH13ZDJHRR,01/08/2023 19:02,01/08/2023 19:02,Pay Bill from 254723389177 - NELSON MOI Acc. ibf,Completed,3500,,65000,TRUE,Pay Utility,254723389177 - NELSON MOI,,ibf
RH19Z8J3LD,01/08/2023 18:30,01/08/2023 18:30,Pay Bill from 254769123105 - GEORGE BANGE OGETO Acc. JAG,Completed,10000,,61500,TRUE,Pay Utility,254769123105 - GEORGE BANGE OGETO,,JAG
RH16Z59BW4,01/08/2023 18:07,01/08/2023 18:07,Pay Bill from 254799188200 - PURITY KURUI Acc. HDC,Completed,10500,,51500,TRUE,Pay Utility,254799188200 - PURITY KURUI,,HDC
RH19YWEW4D,01/08/2023 16:59,01/08/2023 16:59,Pay Bill Online from 254710146965 - BRENDA DORCAS MABONGA Acc. hfg,Completed,15000,,41000,TRUE,Pay Bill Online,254710146965 - BRENDA DORCAS MABONGA,,hfg
RH11YVN3RX,01/08/2023 16:53,01/08/2023 16:53,Pay Bill from 254721707481 - MARTIN ONSONGO Acc. DFA,Completed,16000,,26000,TRUE,Pay Utility,254721707481 - MARTIN ONSONGO,,DFA
RH16YSDQ4Q,01/08/2023 16:24,01/08/2023 16:24,Pay Bill from 254729598338 - REGINA GATHONI Acc. IEC,Completed,10000,,10000,TRUE,Pay Utility,254729598338 - REGINA GATHONI,,IEC
RH18YRM7LC,01/08/2023 16:17,01/08/2023 16:17,Utility Account to Organization Settlement Account,Completed,,-47000,0,TRUE,Utility Account to Organization Settlement Account,979524 - ANCIENT WELLS PROPERTY MANAGERS 2,,
RH10YNFCNS,01/08/2023 15:36,01/08/2023 15:36,Pay Bill Online from 254706898046 - STACY AKETCH OCHUKA Acc. KGK,Completed,15000,,47000,TRUE,Pay Bill Online,254706898046 - STACY AKETCH OCHUKA,,KGK
RH19YD4S5P,01/08/2023 13:53,01/08/2023 13:53,Pay Bill from 254715636579 - GRACE KALUKI MULI Acc. FDA ,Completed,16000,,32000,TRUE,Pay Utility,254715636579 - GRACE KALUKI MULI,,FDA
RH16Y9C0CY,01/08/2023 13:16,01/08/2023 13:16,Pay Bill from 0706563358 - HARRIET NYANCHAMA NYABERI Acc. HBA,Completed,16000,,16000,TRUE,Pay Utility,0706563358 - HARRIET NYANCHAMA NYABERI,,HBA
RH10Y5UHF4,01/08/2023 12:42,01/08/2023 12:42,Utility Account to Organization Settlement Account,Completed,,-55000,0,TRUE,Utility Account to Organization Settlement Account,979524 - ANCIENT WELLS PROPERTY MANAGERS 2,,
RH17Y2WVQ7,01/08/2023 12:12,01/08/2023 12:12,Pay Bill from 254704934557 - BAKARI KITSAKA Acc. HDG,Completed,15000,,55000,TRUE,Pay Utility,254704934557 - BAKARI KITSAKA,,HDG
RH11XRPXFN,01/08/2023 10:17,01/08/2023 10:17,Pay Bill Online from 254742911013 - HANEST AMIMO Acc. IED,Completed,11000,,40000,TRUE,Pay Bill Online,254742911013 - HANEST AMIMO,,IED
RH12XR7VDG,01/08/2023 10:12,01/08/2023 10:11,Pay Bill Online from 254706549634 - CLINTON OMBASA Acc. FDB,Completed,10000,,29000,TRUE,Pay Bill Online,254706549634 - CLINTON OMBASA,,FDB
RH10XO847O,01/08/2023 09:39,01/08/2023 09:39,Pay Bill Online from 254795510441 - LEWIS MUEMA Acc. KEB,Completed,16000,,19000,TRUE,Pay Bill Online,254795510441 - LEWIS MUEMA,,KEB
RH16XNT5BK,01/08/2023 09:34,01/08/2023 09:34,Pay Bill Online from 254722910078 - MAUREEN MUNYIVA MUTUKU Acc. DCD,Completed,2000,,3000,TRUE,Pay Bill Online,254722910078 - MAUREEN MUNYIVA MUTUKU,,DCD
RH17XND7PB,01/08/2023 09:29,01/08/2023 09:29,Pay Bill from 254703935626 - DAVID NGARI ITA Acc. FCD ,Completed,1000,,1000,TRUE,Pay Utility,254703935626 - DAVID NGARI ITA,,FCD
RH13XGOV6D,01/08/2023 08:10,01/08/2023 08:10,Utility Account to Organization Settlement Account,Completed,,-99000,0,TRUE,Utility Account to Organization Settlement Account,979524 - ANCIENT WELLS PROPERTY MANAGERS 2,,
