Receipt No.,Completion Time,Initiation Time,Details,Transaction Status,Paid In,Withdrawn,Balance,Balance Confirmed,Reason Type,Other Party Info,Linked Transaction ID,A/C No.
RGH7R9QEO7,17/07/2023 16:22,17/07/2023 16:22,Utility Account to Organization Settlement Account,Completed,,-16000,0,TRUE,Utility Account to Organization Settlement Account,887264 - ANCIENT WELLS LTD 2,,
RGH0PXTQZC,17/07/2023 07:50,17/07/2023 07:50,Pay Bill Online from 254796931225 - Martin Nyaga Gikang'a Acc. z8,Completed,16000,,16000,TRUE,Pay Utility with OD Online,254796931225 - Martin Nyaga Gikang'a,,z8
RGG0OV3WAU,16/07/2023 18:27,16/07/2023 18:27,Utility Account to Organization Settlement Account,Completed,,-16000,0,TRUE,Utility Account to Organization Settlement Account,887264 - ANCIENT WELLS LTD 2,,
RGG2NZHWKK,16/07/2023 13:08,16/07/2023 13:08,Pay Bill Online from 0798280554 - Joseph Wambugu Macharia Acc. house number 17,Completed,16000,,16000,TRUE,Pay Bill Online,0798280554 - Joseph Wambugu Macharia,,house
RGF0LPWS2M,15/07/2023 16:28,15/07/2023 16:28,Utility Account to Organization Settlement Account,Completed,,-18000,0,TRUE,Utility Account to Organization Settlement Account,887264 - ANCIENT WELLS LTD 2,,
RGF6LO75QI,15/07/2023 16:13,15/07/2023 16:13,Pay Bill from 254728479985 - VIRGINIAH MUHIA Acc. B7,Completed,6000,,18000,TRUE,Pay Utility,254728479985 - VIRGINIAH MUHIA,,B7
RGF0KQY7ZS,15/07/2023 10:48,15/07/2023 10:48,Pay Bill from 254703573478 - ANTONY MAINA GICHINA Acc. Gichina A5,Completed,10000,,12000,TRUE,Pay Utility with OD via STK,254703573478 - ANTONY MAINA GICHINA,,Gichina
RGF9KJPPRN,15/07/2023 09:30,15/07/2023 09:30,Pay Bill Online from 254715776633 - FIONA KIMANI Acc. Z16,Completed,2000,,2000,TRUE,Pay Bill Online,254715776633 - FIONA KIMANI,,Z16
RGE0ITB6AG,14/07/2023 17:00,14/07/2023 17:00,Utility Account to Organization Settlement Account,Completed,,-40000,0,TRUE,Utility Account to Organization Settlement Account,887264 - ANCIENT WELLS LTD 2,,
RGE0ISDL5A,14/07/2023 16:52,14/07/2023 16:52,Pay Bill from 254728912446 - GRACE NJERI KIMANI Acc. ancient well ,Completed,40000,,40000,TRUE,Pay Utility,254728912446 - GRACE NJERI KIMANI,,ancient
RGE4IJN4AK,14/07/2023 15:28,14/07/2023 15:28,Utility Account to Organization Settlement Account,Completed,,-5000,0,TRUE,Utility Account to Organization Settlement Account,887264 - ANCIENT WELLS LTD 2,,
RGE1IG1B8H,14/07/2023 14:51,14/07/2023 14:51,Pay Bill from 254741791919 - Linet Mongina Maraga Acc. u3,Completed,5000,,5000,TRUE,Pay Utility,254741791919 - Linet Mongina Maraga,,u3
RGE4HGSLSY,14/07/2023 08:40,14/07/2023 08:40,Utility Account to Organization Settlement Account,Completed,,-118500,0,TRUE,Utility Account to Organization Settlement Account,887264 - ANCIENT WELLS LTD 2,,
RGE5H60WVJ,14/07/2023 01:32,14/07/2023 01:32,Pay Bill from 0745528615 - COLLINS OCHIENG ONYANGO Acc. U6,Completed,5500,,118500,TRUE,Pay Utility,0745528615 - COLLINS OCHIENG ONYANGO,,U6
RGD7GW46E5,13/07/2023 21:18,13/07/2023 21:18,Pay Bill from 0792734579 - ROBERT NYONGESA MULONGO Acc. SHOP 2,Completed,17000,,113000,TRUE,Pay Utility,0792734579 - ROBERT NYONGESA MULONGO,,SHOP
RGD5FUWRFB,13/07/2023 16:48,13/07/2023 16:48,Pay Bill from 254715979027 - NICHOLAS MWANGI Acc. Leah b2,Completed,6000,,96000,TRUE,Pay Utility,254715979027 - NICHOLAS MWANGI,,Leah
RGD6FJVMWC,13/07/2023 14:59,13/07/2023 14:59,Pay Bill from 254722566566 - DANIEL KIMANTHI KAMANDI Acc. UMOJA H101,Completed,15000,,90000,TRUE,Pay Utility,254722566566 - DANIEL KIMANTHI KAMANDI,,UMOJA
RGD3F09A59,13/07/2023 11:39,13/07/2023 11:39,Pay Bill from 0743263203 - Patrick theuri wachira Acc. U1,Completed,5000,,75000,TRUE,Pay Utility,0743263203 - Patrick theuri wachira,,U1
RGD4EYQBD6,13/07/2023 11:23,13/07/2023 11:23,Pay Bill from 254722269369 - FAIZ OMAR BASABRA Acc. Nairobi West 12,Completed,70000,,70000,TRUE,Pay Utility,254722269369 - FAIZ OMAR BASABRA,,Nairobi
RGC8D9TMSM,12/07/2023 18:15,12/07/2023 18:15,Utility Account to Organization Settlement Account,Completed,,-245000,0,TRUE,Utility Account to Organization Settlement Account,887264 - ANCIENT WELLS LTD 2,,
RGB2B7DYZW,11/07/2023 21:06,11/07/2023 21:06,Utility Account to Organization Settlement Account,Completed,,-33000,245000,TRUE,Utility Account to Organization Settlement Account,887264 - ANCIENT WELLS LTD 2,,
RGB1A3QJVH,11/07/2023 16:13,11/07/2023 16:13,Pay Bill from 254720867522 - DANIEL WAMBUI Acc. z15,Completed,16000,,278000,TRUE,Pay Utility,254720867522 - DANIEL WAMBUI,,z15
RGA87AQ730,10/07/2023 16:59,10/07/2023 16:59,Pay Bill Online from 254723853941 - ELIZABETH MUTIO MUTUKU Acc. house z12,Completed,20000,,262000,TRUE,Pay Bill Online,254723853941 - ELIZABETH MUTIO MUTUKU,,house
RGA06B4UCC,10/07/2023 11:03,10/07/2023 11:03,Business Pay Bill by 998094 - COOP TO PAYBILL Acc. hse no.3 via API,Completed,12000,,242000,TRUE,Business Pay Bill via API,998094 - COOP TO PAYBILL,,hse
RGA55TI7QZ,10/07/2023 07:41,10/07/2023 07:41,Pay Bill from 254729140163 - BEATRICE OMADI NYANDIGA Acc. z13,Completed,13000,,230000,TRUE,Pay Utility with OD via STK,254729140163 - BEATRICE OMADI NYANDIGA,,z13
RG995KRZ75,09/07/2023 23:17,09/07/2023 23:17,Pay Bill from 254722314500 - SHARON AKINYI OBIERO Acc. Hse 1 zimma,Completed,12000,,217000,TRUE,Pay Utility,254722314500 - SHARON AKINYI OBIERO,,Hse
RG925H17JS,09/07/2023 22:01,09/07/2023 22:01,Pay Bill Online from 254715776633 - FIONA KIMANI Acc. Z16,Completed,14000,,205000,TRUE,Pay Bill Online,254715776633 - FIONA KIMANI,,Z16
RG993TO6WZ,09/07/2023 13:07,09/07/2023 13:07,Pay Bill from 254720084537 - MARY NDUKU WAMBUA Acc. 6,Completed,16000,,191000,TRUE,Pay Utility,254720084537 - MARY NDUKU WAMBUA,,6
RG872TFVWX,08/07/2023 22:28,08/07/2023 22:28,Pay Bill from 254718167869 - MARK OTIENO Acc. A3,Completed,7000,,175000,TRUE,Pay Utility,254718167869 - MARK OTIENO,,A3
RG72YWXKHG,07/07/2023 23:58,07/07/2023 23:58,Pay Bill from 254721392330 - ROSE KENDI MUTEGI Acc. A202 ,Completed,90000,,168000,TRUE,Pay Utility,254721392330 - ROSE KENDI MUTEGI,,A202
RG71Y0Z2YL,07/07/2023 18:35,07/07/2023 18:35,Pay Bill from 254715979027 - NICHOLAS MWANGI Acc. Leah b2,Completed,20000,,78000,TRUE,Pay Utility,254715979027 - NICHOLAS MWANGI,,Leah
RG61VHCU7T,06/07/2023 20:03,06/07/2023 20:03,Pay Bill Online from 0759385844 - ROSEMARY WAMBUI GITAU Acc. B2,Completed,6000,,58000,TRUE,Pay Utility with OD Online,0759385844 - ROSEMARY WAMBUI GITAU,,B2
RG65TN7GAZ,06/07/2023 10:38,06/07/2023 10:38,Pay Bill from 254725014210 - FREDRICK MOUNDE Acc. EPZ MH ,Completed,30000,,52000,TRUE,Pay Utility,254725014210 - FREDRICK MOUNDE,,EPZ
RG54QBO2T2,05/07/2023 08:36,05/07/2023 08:36,Pay Bill from 254712751975 - HAPPINESS SIMAMOI JOSEPH Acc. B3,Completed,6000,,22000,TRUE,Pay Utility,254712751975 - HAPPINESS SIMAMOI JOSEPH,,B3
RG59Q4DCNV,05/07/2023 06:44,05/07/2023 06:44,Pay Bill from 254726928715 - ELIZAPHAN KAMAU NDUTA Acc. Z2,Completed,16000,,16000,TRUE,Pay Utility with OD via STK,254726928715 - ELIZAPHAN KAMAU NDUTA,,Z2
RG49OPPGMH,04/07/2023 16:55,04/07/2023 16:55,Utility Account to Organization Settlement Account,Completed,,-58000,0,TRUE,Utility Account to Organization Settlement Account,887264 - ANCIENT WELLS LTD 2,,
RG44OJC4MI,04/07/2023 15:57,04/07/2023 15:57,Pay Bill Online from 254723909186 - BRIAN LIBASIA Acc. 18,Completed,16000,,58000,TRUE,Pay Bill Online,254723909186 - BRIAN LIBASIA,,18
RG46NLYZNA,04/07/2023 10:29,04/07/2023 10:29,Pay Bill from 254723882311 - VERONICAH WAMBUGU Acc. House number 9,Completed,16000,,42000,TRUE,Pay Utility,254723882311 - VERONICAH WAMBUGU,,House
RG35M805U5,03/07/2023 19:08,03/07/2023 19:08,Pay Bill from 0758440469 - Tecla Emma Anyango Odongo Acc. 4Z,Completed,15000,,26000,TRUE,Pay Utility,0758440469 - Tecla Emma Anyango Odongo,,4Z
RG39KN3S2N,03/07/2023 10:57,03/07/2023 10:57,Pay Bill from 254722627652 - BONIFACE MWAMUTSI CHENGO Acc. D9/D10,Completed,11000,,11000,TRUE,Pay Utility,254722627652 - BONIFACE MWAMUTSI CHENGO,,D9/D10
RG16GCOU2W,01/07/2023 18:53,01/07/2023 18:53,Utility Account to Organization Settlement Account,Completed,,-47650,0,TRUE,Utility Account to Organization Settlement Account,887264 - ANCIENT WELLS LTD 2,,
RG10FMRTYS,01/07/2023 15:29,01/07/2023 15:29,Pay Bill from 254705652845 - DENNIS SPENCE Acc. n2,Completed,5650,,47650,TRUE,Pay Utility,254705652845 - DENNIS SPENCE,,n2
RG13FMH49V,01/07/2023 15:27,01/07/2023 15:27,Pay Bill Online from 254796931225 - Martin Nyaga Gikang'a Acc. z8,Completed,16000,,42000,TRUE,Pay Utility with OD Online,254796931225 - Martin Nyaga Gikang'a,,z8
