Receipt No.,Completion Time,Initiation Time,Details,Transaction Status,Paid In,Withdrawn,Balance,Balance Confirmed,Reason Type,Other Party Info,Linked Transaction ID,A/C No.
OHM4UCYJYA,22/08/2020 17:13,22/08/2020 17:13,Utility Account to Organization Settlement Account,Completed,,-4000,0,TRUE,Utility Account to Organization Settlement Account,887264 - ANCIENT WELLS LTD 2,,
OHM0U9JDFY,22/08/2020 15:55,22/08/2020 15:55,Pay Bill from 254723174583 - BRIAN ODHIAMBO OUMA Acc. b3,Completed,4000,,4000,TRUE,Pay Utility,254723174583 - BRIAN ODHIAMBO OUMA,,b3
OHM4TRVQR4,22/08/2020 07:15,22/08/2020 07:15,Utility Account to Organization Settlement Account,Completed,,-5000,0,TRUE,Utility Account to Organization Settlement Account,887264 - ANCIENT WELLS LTD 2,,
OHL8TO9NNK,21/08/2020 21:25,21/08/2020 21:25,Pay Bill from 254715979027 - NICHOLAS MWANGI Acc. Leah b3,Completed,5000,,5000,TRUE,Pay Utility,254715979027 - NICHOLAS MWANGI,,Leah
OHL6T0D22A,21/08/2020 12:24,21/08/2020 12:24,Utility Account to Organization Settlement Account,Completed,,-5500,0,TRUE,Utility Account to Organization Settlement Account,887264 - ANCIENT WELLS LTD 2,,
OHL8SWKXMI,21/08/2020 10:42,21/08/2020 10:42,Pay Bill from 254728406565 - CAROLYNE KIRUMA Acc. u2,Completed,5500,,5500,TRUE,Pay Utility,254728406565 - CAROLYNE KIRUMA,,u2
OHJ9QO8209,19/08/2020 07:08,19/08/2020 07:08,Utility Account to Organization Settlement Account,Completed,,-24800,0,TRUE,Utility Account to Organization Settlement Account,887264 - ANCIENT WELLS LTD 2,,
OHI4QE2Z6G,18/08/2020 19:09,18/08/2020 19:08,Pay Bill from 254715979027 - NICHOLAS MWANGI Acc. Leah b3,Completed,10000,,24800,TRUE,Pay Utility with OD via STK,254715979027 - NICHOLAS MWANGI,,Leah
OHI7QDBHL9,18/08/2020 18:56,18/08/2020 18:56,Pay Bill from 254723296371 - FRIDAH WANGUI WAMUTUA Acc. A4,Completed,12000,,14800,TRUE,Pay Utility,254723296371 - FRIDAH WANGUI WAMUTUA,,A4
OHI1QD94VD,18/08/2020 18:55,18/08/2020 18:55,Pay Bill from 254723296371 - FRIDAH WANGUI WAMUTUA Acc. A4,Completed,1300,,2800,TRUE,Pay Utility,254723296371 - FRIDAH WANGUI WAMUTUA,,A4
OHI0QD1H6W,18/08/2020 18:52,18/08/2020 18:52,Pay Bill from 254723296371 - FRIDAH WANGUI WAMUTUA Acc. A4,Completed,1500,,1500,TRUE,Pay Utility,254723296371 - FRIDAH WANGUI WAMUTUA,,A4
OHF4N1JFCE,15/08/2020 13:46,15/08/2020 13:46,Utility Account to Organization Settlement Account,Completed,,-10000,0,TRUE,Utility Account to Organization Settlement Account,887264 - ANCIENT WELLS LTD 2,,
OHD0KX4LK2,13/08/2020 12:34,13/08/2020 12:34,Pay Bill from 254726524831 - ANDREW ODHIAMBO Acc. Andrew odhiambo ,Completed,10000,,10000,TRUE,Pay Utility,254726524831 - ANDREW ODHIAMBO,,Andrew
OHC4JYNT9A,12/08/2020 14:17,12/08/2020 14:17,Utility Account to Organization Settlement Account,Completed,,-30000,0,TRUE,Utility Account to Organization Settlement Account,887264 - ANCIENT WELLS LTD 2,,
OHC7JU9S4H,12/08/2020 12:18,12/08/2020 12:18,Pay Bill from 254741791919 - Linet Mongina Maraga Acc. linet,Completed,5000,,30000,TRUE,Pay Utility,254741791919 - Linet Mongina Maraga,,linet
OHB0J9ICES,11/08/2020 18:34,11/08/2020 18:34,Pay Bill from 254723362249 - DORCAS MANGOLI Acc. shop 2,Completed,13000,,25000,TRUE,Pay Utility,254723362249 - DORCAS MANGOLI,,shop
OHB8IW6VNI,11/08/2020 13:10,11/08/2020 13:10,Pay Bill from 254726524831 - ANDREW ODHIAMBO Acc. Andrew odhiambo ,Completed,12000,,12000,TRUE,Pay Utility,254726524831 - ANDREW ODHIAMBO,,Andrew
OHB9IN6V2T,11/08/2020 08:52,11/08/2020 08:52,Utility Account to Organization Settlement Account,Completed,,-5500,0,TRUE,Utility Account to Organization Settlement Account,887264 - ANCIENT WELLS LTD 2,,
OH96HBKWX8,09/08/2020 19:24,09/08/2020 19:24,Pay Bill from 254726296174 - LUKA MWENDWA Acc. 6c,Completed,5500,,5500,TRUE,Pay Utility with OD via STK,254726296174 - LUKA MWENDWA,,6c
OH82G0QOVK,08/08/2020 15:12,08/08/2020 15:12,Utility Account to Organization Settlement Account,Completed,,-41000,0,TRUE,Utility Account to Organization Settlement Account,887264 - ANCIENT WELLS LTD 2,,
OH47BCQ44F,04/08/2020 08:55,04/08/2020 08:55,Pay Bill from 254725014210 - FREDRICK MOUNDE Acc. EPZ MH,Completed,27000,,41000,TRUE,Pay Utility,254725014210 - FREDRICK MOUNDE,,EPZ
OH33B5F2D7,03/08/2020 20:33,03/08/2020 20:33,Pay Bill from 254703573478 - ANTONY MAINA GICHINA Acc. Gichina A5,Completed,14000,,14000,TRUE,Pay Utility,254703573478 - ANTONY MAINA GICHINA,,Gichina
OH31ARLIJV,03/08/2020 15:46,03/08/2020 15:46,Utility Account to Organization Settlement Account,Completed,,-51000,0,TRUE,Utility Account to Organization Settlement Account,887264 - ANCIENT WELLS LTD 2,,
OH38AH6FIC,03/08/2020 11:05,03/08/2020 11:05,Pay Bill from 0743263203 - Patrick theuri wachira Acc. U1,Completed,5000,,51000,TRUE,Pay Utility,0743263203 - Patrick theuri wachira,,U1
OH289DA9QQ,02/08/2020 00:03,02/08/2020 00:03,Pay Bill from 254715979027 - NICHOLAS MWANGI Acc. Leah b2,Completed,5000,,46000,TRUE,Pay Utility with OD via STK,254715979027 - NICHOLAS MWANGI,,Leah
