Receipt No.,Completion Time,Initiation Time,Details,Transaction Status,Paid In,Withdrawn,Balance,Balance Confirmed,Reason Type,Other Party Info,Linked Transaction ID,A/C No.
PEE6XABTWG,14/05/2021 09:49,14/05/2021 09:49,Utility Account to Organization Settlement Account,Completed,,-66000,0,TRUE,Utility Account to Organization Settlement Account,979524 - ANCIENT WELLS PROPERTY MANAGERS 2,,
PEE3X6HBZV,14/05/2021 08:04,14/05/2021 08:04,Pay Bill from 254703555717 - SENGA SALIM Acc. hbb,Completed,1000,,66000,TRUE,Pay Utility,254703555717 - SENGA SALIM,,hbb
PED1WTYL9V,13/05/2021 19:28,13/05/2021 19:28,Pay Bill from 254726405755 - EDWARD NGONGE Acc. DGC,Completed,19000,,65000,TRUE,Pay Utility,254726405755 - EDWARD NGONGE,,DGC
PED4WSY91U,13/05/2021 19:15,13/05/2021 19:15,Pay Bill Online from 254726116777 - MARY NDUTA GOSHO Acc. JDB,Completed,15000,,46000,TRUE,Pay Utility with OD Online,254726116777 - MARY NDUTA GOSHO,,JDB
PED9WETRZR,13/05/2021 15:22,13/05/2021 15:22,Pay Bill from 254727766786 - JOHN MAITHA MULWA Acc. IBH,Completed,5000,,31000,TRUE,Pay Utility,254727766786 - JOHN MAITHA MULWA,,IBH
PED3WE6T1B,13/05/2021 15:10,13/05/2021 15:10,Pay Bill from 254722458136 - NADI GOLICHA Acc. KAA,Completed,2000,,26000,TRUE,Pay Utility,254722458136 - NADI GOLICHA,,KAA
PED4W9355U,13/05/2021 13:23,13/05/2021 13:23,Pay Bill Online from 254722921132 - JOE MCCRAY MURIUKI KIHIA Acc. IFA,Completed,15000,,24000,TRUE,Pay Bill Online,254722921132 - JOE MCCRAY MURIUKI KIHIA,,IFA
PED0W7PR5O,13/05/2021 12:54,13/05/2021 12:54,Pay Bill from 254715098348 - STEPHEN MUREITHI KABUTU Acc. FGC,Completed,9000,,9000,TRUE,Pay Utility,254715098348 - STEPHEN MUREITHI KABUTU,,FGC
PED7W6XVY1,13/05/2021 12:37,13/05/2021 12:37,Utility Account to Organization Settlement Account,Completed,,-89300,0,TRUE,Utility Account to Organization Settlement Account,979524 - ANCIENT WELLS PROPERTY MANAGERS 2,,
PED4W30IWO,13/05/2021 11:11,13/05/2021 11:11,Pay Bill from 254722258107 - JOHN ODIMA ODIMA Acc. KGF,Completed,10000,,89300,TRUE,Pay Utility,254722258107 - JOHN ODIMA ODIMA,,KGF
PED2VZMDJ2,13/05/2021 09:54,13/05/2021 09:54,Pay Bill from 254702926057 - JULIAH JEPTUM Acc. IEF,Completed,800,,79300,TRUE,Pay Utility with OD via STK,254702926057 - JULIAH JEPTUM,,IEF
PED2VZGZKU,13/05/2021 09:51,13/05/2021 09:51,Pay Bill from 254702926057 - JULIAH JEPTUM Acc. IEF,Completed,10000,,78500,TRUE,Pay Utility,254702926057 - JULIAH JEPTUM,,IEF
PED5VTXOXZ,13/05/2021 07:12,13/05/2021 07:12,Pay Bill from 254725255978 - DICKSON OLUOCH Acc. JFF,Completed,10000,,68500,TRUE,Pay Utility,254725255978 - DICKSON OLUOCH,,JFF
PED8VTWC3Q,13/05/2021 07:10,13/05/2021 07:10,Pay Bill Online from 254715764212 - BANCE ISHEMINYE Acc. JFE ,Completed,10000,,58500,TRUE,Pay Bill Online,254715764212 - BANCE ISHEMINYE,,JFE
PED2VRZK9K,13/05/2021 00:13,13/05/2021 00:13,Pay Bill from 254703555717 - SENGA SALIM Acc. hbb,Completed,2000,,48500,TRUE,Pay Utility,254703555717 - SENGA SALIM,,hbb
PEC8VPUS3Q,12/05/2021 21:45,12/05/2021 21:45,Pay Bill from 254703935626 - DAVID NGARI ITA Acc. FCD,Completed,1000,,46500,TRUE,Pay Utility,254703935626 - DAVID NGARI ITA,,FCD
PEC6VMXDCU,12/05/2021 20:36,12/05/2021 20:36,Pay Bill from 254704111133 - ELVIS OTIENO Acc. HFD,Completed,9500,,45500,TRUE,Pay Utility,254704111133 - ELVIS OTIENO,,HFD
PEC9VB87DJ,12/05/2021 17:45,12/05/2021 17:45,Pay Bill from 254703375006 - KEN RODGERS Acc. DBA,Completed,9000,,36000,TRUE,Pay Utility,254703375006 - KEN RODGERS,,DBA
PEC7V59ZLV,12/05/2021 16:01,12/05/2021 16:01,Pay Bill from 254795449800 - MARTHA WANJIRU NJUGUNA Acc. FEB,Completed,5000,,27000,TRUE,Pay Utility,254795449800 - MARTHA WANJIRU NJUGUNA,,FEB
PEC0UWHPLA,12/05/2021 13:03,12/05/2021 13:03,Pay Bill from 254722458136 - NADI GOLICHA Acc. KAA,Completed,7000,,22000,TRUE,Pay Utility,254722458136 - NADI GOLICHA,,KAA
PEC8UUO41Y,12/05/2021 12:24,12/05/2021 12:24,Pay Bill from 254729258441 - ROBERT RONO KULEI Acc. JAB,Completed,10000,,15000,TRUE,Pay Utility,254729258441 - ROBERT RONO KULEI,,JAB
PEC1UQVDZL,12/05/2021 11:02,12/05/2021 11:02,Pay Bill from 254724611087 - Francis Mukindya Muoki Acc. dfb,Completed,5000,,5000,TRUE,Pay Utility with OD via STK,254724611087 - Francis Mukindya Muoki,,dfb
PEC2UM4YRA,12/05/2021 09:14,12/05/2021 09:14,Utility Account to Organization Settlement Account,Completed,,-38600,0,TRUE,Utility Account to Organization Settlement Account,979524 - ANCIENT WELLS PROPERTY MANAGERS 2,,
PEC7UGYB51,12/05/2021 05:06,12/05/2021 05:06,Pay Bill from 0740507437 - JOY KAARI KAMENCU Acc. FAC,Completed,9000,,38600,TRUE,Pay Utility,0740507437 - JOY KAARI KAMENCU,,FAC
PEB2UFAE3U,11/05/2021 22:41,11/05/2021 22:41,Pay Bill from 254727648419 - ABDISALAN AHMED Acc. Jbh,Completed,10000,,29600,TRUE,Pay Utility,254727648419 - ABDISALAN AHMED,,Jbh
PEB2UE62UU,11/05/2021 21:50,11/05/2021 21:50,Pay Bill from 0715688238 - JOANNAH ATUHAIRE BANTU Acc. jae,Completed,9000,,19600,TRUE,Pay Utility,0715688238 - JOANNAH ATUHAIRE BANTU,,jae
PEB1U616JJ,11/05/2021 19:16,11/05/2021 19:16,Pay Bill from 254729450678 - GRACE NDUNGE Acc. fba,Completed,600,,10600,TRUE,Pay Utility with OD via STK,254729450678 - GRACE NDUNGE,,fba
PEB6U11RUC,11/05/2021 18:07,11/05/2021 18:07,Pay Bill from 0759217545 - Angela Syombua Lole Acc. HDE,Completed,10000,,10000,TRUE,Pay Utility,0759217545 - Angela Syombua Lole,,HDE
PEB4TR4DOM,11/05/2021 15:12,11/05/2021 15:12,Utility Account to Organization Settlement Account,Completed,,-208100,0,TRUE,Utility Account to Organization Settlement Account,979524 - ANCIENT WELLS PROPERTY MANAGERS 2,,
PEB8TPA95A,11/05/2021 14:35,11/05/2021 14:35,Pay Bill from 254720883049 - SIMON AMUKOCHE Acc. IED,Completed,18000,,208100,TRUE,Pay Utility with OD via STK,254720883049 - SIMON AMUKOCHE,,IED
PEB5TOG41B,11/05/2021 14:18,11/05/2021 14:18,Pay Bill from 0723409745 - Kelvin Kitonga Mutyetu Acc. kbf,Completed,6500,,190100,TRUE,Pay Utility,0723409745 - Kelvin Kitonga Mutyetu,,kbf
PEB8TL9LRQ,11/05/2021 13:14,11/05/2021 13:14,Pay Bill Online from 254714552193 - CHRISTOPHER OCHIENG Acc. JGI,Completed,20000,,183600,TRUE,Pay Bill Online,254714552193 - CHRISTOPHER OCHIENG,,JGI
PEB2TK6F16,11/05/2021 12:53,11/05/2021 12:53,Pay Bill from 254701196539 - GICHURI KARANJA Acc. Fee,Completed,16000,,163600,TRUE,Pay Utility,254701196539 - GICHURI KARANJA,,Fee
PEB9TK45TR,11/05/2021 12:51,11/05/2021 12:51,Pay Bill from 0700206427 - Clare Nabalisa Mukasa Acc. HFA,Completed,1000,,147600,TRUE,Pay Utility,0700206427 - Clare Nabalisa Mukasa,,HFA
PEB3TI2BCV,11/05/2021 12:09,11/05/2021 12:09,Pay Bill from 0700206427 - Clare Nabalisa Mukasa Acc. HFA,Completed,11000,,146600,TRUE,Pay Utility,0700206427 - Clare Nabalisa Mukasa,,HFA
PEB0TFVD20,11/05/2021 11:24,11/05/2021 11:24,Pay Bill from 254727411231 - OBADIAH MASWAI Acc. JGJ,Completed,15000,,135600,TRUE,Pay Utility,254727411231 - OBADIAH MASWAI,,JGJ
PEB6TEOCVG,11/05/2021 10:59,11/05/2021 10:59,Pay Bill from 0718838251 - MARK KINYUA MAINA Acc. kfg,Completed,10000,,120600,TRUE,Pay Utility,0718838251 - MARK KINYUA MAINA,,kfg
PEB3TAX5KB,11/05/2021 09:39,11/05/2021 09:39,Pay Bill from 0743248310 - PATRICK STURRIDGE NYONGESA Acc. kaf,Completed,8000,,110600,TRUE,Pay Utility,0743248310 - PATRICK STURRIDGE NYONGESA,,kaf
