Receipt No.,Completion Time,Initiation Time,Details,Transaction Status,Paid In,Withdrawn,Balance,Balance Confirmed,Reason Type,Other Party Info,Linked Transaction ID,A/C No.
PJE681LH2C,14/10/2021 09:03,14/10/2021 09:03,Utility Account to Organization Settlement Account,Completed,,-10000,0,TRUE,Utility Account to Organization Settlement Account,887264 - ANCIENT WELLS LTD 2,,
PJE37W5U0T,14/10/2021 06:34,14/10/2021 06:34,Pay Bill from 254715979027 - NICHOLAS MWANGI Acc. Leah b3,Completed,10000,,10000,TRUE,Pay Utility,254715979027 - NICHOLAS MWANGI,,Leah
PJD76D322L,13/10/2021 07:29,13/10/2021 07:29,Utility Account to Organization Settlement Account,Completed,,-40000,0,TRUE,Utility Account to Organization Settlement Account,887264 - ANCIENT WELLS LTD 2,,
PJC05KS6VA,12/10/2021 16:25,12/10/2021 16:25,Pay Bill from 254728912446 - GRACE NJERI KIMANI Acc. ancient Wells LTD,Completed,40000,,40000,TRUE,Pay Utility,254728912446 - GRACE NJERI KIMANI,,ancient
PJB34C3W0H,11/10/2021 19:14,11/10/2021 19:14,Utility Account to Organization Settlement Account,Completed,,-7000,0,TRUE,Utility Account to Organization Settlement Account,887264 - ANCIENT WELLS LTD 2,,
PJA71WUE9V,10/10/2021 09:50,10/10/2021 09:50,Pay Bill from 254705755947 - METRINE REPHAH MATETE Acc. 3A,Completed,7000,,7000,TRUE,Pay Utility,254705755947 - METRINE REPHAH MATETE,,3A
PJ50SPGPLK,05/10/2021 08:35,05/10/2021 08:35,Utility Account to Organization Settlement Account,Completed,,-5500,0,TRUE,Utility Account to Organization Settlement Account,887264 - ANCIENT WELLS LTD 2,,
PJ40RKDXBG,04/10/2021 13:49,04/10/2021 13:49,Pay Bill from 254726403551 - VICTOR O KIRUMA Acc. u2,Completed,5500,,5500,TRUE,Pay Utility,254726403551 - VICTOR O KIRUMA,,u2
PJ41R6XGSL,04/10/2021 09:50,04/10/2021 09:50,Utility Account to Organization Settlement Account,Completed,,-12000,0,TRUE,Utility Account to Organization Settlement Account,887264 - ANCIENT WELLS LTD 2,,
PJ44QY37WW,04/10/2021 03:57,04/10/2021 03:57,Pay Bill from 0743263203 - Patrick theuri wachira Acc. U1,Completed,5000,,12000,TRUE,Pay Utility,0743263203 - Patrick theuri wachira,,U1
PJ34PMK3N6,03/10/2021 08:58,03/10/2021 08:58,Pay Bill from 0759385844 - ROSEMARY WAMBUI GITAU Acc. B5,Completed,7000,,7000,TRUE,Pay Utility,0759385844 - ROSEMARY WAMBUI GITAU,,B5
PJ28OXAC5Y,02/10/2021 18:13,02/10/2021 18:13,Utility Account to Organization Settlement Account,Completed,,-5500,0,TRUE,Utility Account to Organization Settlement Account,887264 - ANCIENT WELLS LTD 2,,
PJ28ONPVIC,02/10/2021 15:59,02/10/2021 15:59,Pay Bill from 254706859500 - JULIA NJAMBI WAINAINA Acc. U4,Completed,5500,,5500,TRUE,Pay Utility,254706859500 - JULIA NJAMBI WAINAINA,,U4
