Receipt No.,Completion Time,Initiation Time,Details,Transaction Status,Paid In,Withdrawn,Balance,Balance Confirmed,Reason Type,Other Party Info,Linked Transaction ID,A/C No.
OEL1CY1U9P,21/05/2020 16:59,21/05/2020 16:59,Pay Bill from 254706847281 - DON KOBONG Acc. HDE,Completed,10500,,125000,TRUE,Pay Utility,254706847281 - DON KOBONG,,HDE
OEL7CW2E6B,21/05/2020 16:07,21/05/2020 16:07,Pay Bill from 254722170279 - GEOFFREY GETUI Acc. FDE,Completed,16000,,114500,TRUE,Pay Utility,254722170279 - GEOFFREY GETUI,,FDE
OEL4CTM4FW,21/05/2020 14:56,21/05/2020 14:56,Pay Bill from 254719285750 - LILIAN ACHIENG ODONGO Acc. IGE,Completed,19000,,98500,TRUE,Pay Utility,254719285750 - LILIAN ACHIENG ODONGO,,IGE
OEK8BXBX82,20/05/2020 14:02,20/05/2020 14:02,Pay Bill from 254727332450 - SALAH OSMAN ROBOW Acc. jba,Completed,22000,,79500,TRUE,Pay Utility,254727332450 - SALAH OSMAN ROBOW,,jba
OEK5BU8T6L,20/05/2020 12:25,20/05/2020 12:25,Pay Bill from 254722244406 - NOAH MELI Acc. jac,Completed,10000,,57500,TRUE,Pay Utility,254722244406 - NOAH MELI,,jac
OEJ6BHG7E6,19/05/2020 19:49,19/05/2020 19:49,Pay Bill from 254720361605 - DAUD AMBER Acc. IGH,Completed,8000,,47500,TRUE,Pay Utility,254720361605 - DAUD AMBER,,IGH
OEJ5BE0SZH,19/05/2020 18:29,19/05/2020 18:29,Pay Bill from 0748059595 - Rashid NASSIR Khamis Acc. DDA,Completed,7000,,39500,TRUE,Pay Utility with OD via STK,0748059595 - Rashid NASSIR Khamis,,DDA
OEJ4B8QV94,19/05/2020 16:34,19/05/2020 16:34,Pay Bill from 254703935626 - DAVID NGARI ITA Acc. fcd,Completed,17000,,32500,TRUE,Pay Utility,254703935626 - DAVID NGARI ITA,,fcd
OEJ4B32TKY,19/05/2020 13:52,19/05/2020 13:52,Pay Bill from 254711397174 - JASEL HOPE ANTONINA Acc. kef,Completed,6500,,15500,TRUE,Pay Utility,254711397174 - JASEL HOPE ANTONINA,,kef
OEI9AINX4L,18/05/2020 18:19,18/05/2020 18:19,Pay Bill from 254704597694 - JANET MWENGA Acc. jcd,Completed,9000,,9000,TRUE,Pay Utility with OD via STK,254704597694 - JANET MWENGA,,jcd
OEI9AC712H,18/05/2020 15:45,18/05/2020 15:45,Utility Account to Organization Settlement Account,Completed,,-186500,0,TRUE,Utility Account to Organization Settlement Account,979524 - ANCIENT WELLS PROPERTY MANAGERS 2,,
OEI3AB5NYZ,18/05/2020 15:16,18/05/2020 15:16,Pay Bill from 254700557767 - BAKHITA MWENDE MUANGE Acc. KCB,Completed,16000,,186500,TRUE,Pay Utility,254700557767 - BAKHITA MWENDE MUANGE,,KCB
OEH79T4APP,17/05/2020 20:31,17/05/2020 20:31,Pay Bill from 254724611087 - Francis Mukindya Muoki Acc. KDE,Completed,5000,,170500,TRUE,Pay Utility,254724611087 - Francis Mukindya Muoki,,KDE
OEG7926FVJ,16/05/2020 23:18,16/05/2020 23:18,Pay Bill from 254716918015 - SADDAM HAMID AMBER Acc. HFB,Completed,4000,,165500,TRUE,Pay Utility with OD via STK,254716918015 - SADDAM HAMID AMBER,,HFB
OEG590FE7Z,16/05/2020 21:00,16/05/2020 21:00,Pay Bill from 254716918015 - SADDAM HAMID AMBER Acc. HFB,Completed,1000,,161500,TRUE,Pay Utility with OD via STK,254716918015 - SADDAM HAMID AMBER,,HFB
OEG48X9SF6,16/05/2020 19:17,16/05/2020 19:17,Pay Bill from 254708878712 - Daizy Chepngeno Acc. JFB,Completed,15000,,160500,TRUE,Pay Utility with OD via STK,254708878712 - Daizy Chepngeno,,JFB
OEG68FX06O,16/05/2020 11:59,16/05/2020 11:59,Pay Bill from 254722558382 - SAMEHA SAID AMBER Acc. HFB,Completed,16000,,145500,TRUE,Pay Utility,254722558382 - SAMEHA SAID AMBER,,HFB
OEG88AH8O6,16/05/2020 09:05,16/05/2020 09:05,Pay Bill from 254712577283 - BILDARD BONYO Acc. IAI,Completed,17000,,129500,TRUE,Pay Utility,254712577283 - BILDARD BONYO,,IAI
OEF17Z2YM1,15/05/2020 18:28,15/05/2020 18:28,Pay Bill from 0702180318 - AYUB OKECHA OWITI Acc. hcd,Completed,15000,,112500,TRUE,Pay Utility,0702180318 - AYUB OKECHA OWITI,,hcd
OEF17W229J,15/05/2020 17:26,15/05/2020 17:26,Pay Bill from 254724790628 - DICKSON OMONDI Acc. IBI,Completed,8000,,97500,TRUE,Pay Utility,254724790628 - DICKSON OMONDI,,IBI
OEF57V57DR,15/05/2020 17:06,15/05/2020 17:06,Pay Bill from 0759422988 - IVY   WITABA Acc. IEG,Completed,14500,,89500,TRUE,Pay Utility,0759422988 - IVY   WITABA,,IEG
OEF37TJGAR,15/05/2020 16:28,15/05/2020 16:28,Pay Bill from 254724680704 - PATRICK MWANDO Acc. fbf,Completed,17000,,75000,TRUE,Pay Utility,254724680704 - PATRICK MWANDO,,fbf
OEF47O4H7U,15/05/2020 13:59,15/05/2020 13:59,Pay Bill from 254724873566 - SHAILA NZIOKA Acc. HFB,Completed,16000,,58000,TRUE,Pay Utility,254724873566 - SHAILA NZIOKA,,HFB
OEF67M8X2O,15/05/2020 13:04,15/05/2020 13:04,Pay Bill from 254715764212 - BANCE ISHEMINYE Acc. JFE,Completed,5000,,42000,TRUE,Pay Utility,254715764212 - BANCE ISHEMINYE,,JFE
OEF17K62M9,15/05/2020 12:01,15/05/2020 12:01,Pay Bill from 254721894887 - EDMOND NYAMWEYA Acc. DAD,Completed,20000,,37000,TRUE,Pay Utility,254721894887 - EDMOND NYAMWEYA,,DAD
OEF87DVNLS,15/05/2020 08:30,15/05/2020 08:30,Pay Bill from 254716369842 - HUMMAM HAMID MOHAMED SAID AMBER Acc. FGC,Completed,5000,,17000,TRUE,Pay Utility,254716369842 - HUMMAM HAMID MOHAMED SAID AMBER,,FGC
