Receipt No.,Completion Time,Initiation Time,Details,Transaction Status,Paid In,Withdrawn,Balance,Balance Confirmed,Reason Type,Other Party Info,Linked Transaction ID,A/C No.
PF82V7FO5K,08/06/2021 07:43,08/06/2021 07:43,Pay Bill from 254714710698 - TABITHA MULEE KYALO Acc. IFD,Completed,11500,,183500,TRUE,Pay Utility,254714710698 - TABITHA MULEE KYALO,,IFD
PF77V32FRT,07/06/2021 22:14,07/06/2021 22:14,Pay Bill from 254703935626 - DAVID NGARI ITA Acc. FCD,Completed,1000,,172000,TRUE,Pay Utility,254703935626 - DAVID NGARI ITA,,FCD
PF72V07HH0,07/06/2021 21:00,07/06/2021 21:00,Pay Bill from 254724655033 - SUSAN CHIMOTO Acc. KGH,Completed,9500,,171000,TRUE,Pay Utility,254724655033 - SUSAN CHIMOTO,,KGH
PF73UW7VQR,07/06/2021 19:56,07/06/2021 19:56,Pay Bill Online from 0757699775 - BENARD MUIA MUTUA Acc. HCB,Completed,16000,,161500,TRUE,Pay Bill Online,0757699775 - BENARD MUIA MUTUA,,HCB
PF75UVMKB1,07/06/2021 19:48,07/06/2021 19:48,Pay Bill from 254703555717 - SENGA SALIM Acc. hbb,Completed,2000,,145500,TRUE,Pay Utility,254703555717 - SENGA SALIM,,hbb
PF73UR6ATL,07/06/2021 18:55,07/06/2021 18:55,Pay Bill from 254717985596 - NICHOLAS KIPKOECH BUTIA Acc. hcf,Completed,9000,,143500,TRUE,Pay Utility,254717985596 - NICHOLAS KIPKOECH BUTIA,,hcf
PF79UPE3WZ,07/06/2021 18:31,07/06/2021 18:31,Pay Bill Online from 254716328009 - IRENE ODHIAMBO Acc. KGG,Completed,9000,,134500,TRUE,Pay Bill Online,254716328009 - IRENE ODHIAMBO,,KGG
PF75UOAGSR,07/06/2021 18:15,07/06/2021 18:15,Pay Bill from 254713205244 - ROBERT OGALO Acc. KBH,Completed,10000,,125500,TRUE,Pay Utility,254713205244 - ROBERT OGALO,,KBH
PF76UNHH54,07/06/2021 18:03,07/06/2021 18:03,Pay Bill Online from 254710382992 - SIMON KAMAU MUIRURI Acc. jcd,Completed,15000,,115500,TRUE,Pay Utility with OD Online,254710382992 - SIMON KAMAU MUIRURI,,jcd
PF79UMC9OH,07/06/2021 17:46,07/06/2021 17:46,Pay Bill from 0743248310 - PATRICK STURRIDGE NYONGESA Acc. kaf,Completed,8500,,100500,TRUE,Pay Utility,0743248310 - PATRICK STURRIDGE NYONGESA,,kaf
PF77UKTKC1,07/06/2021 17:21,07/06/2021 17:21,Pay Bill Online from 254703550369 - ANASTASIA jepkoech Acc. KAG,Completed,10000,,92000,TRUE,Pay Bill Online,254703550369 - ANASTASIA jepkoech,,KAG
PF79UEHBY3,07/06/2021 15:27,07/06/2021 15:27,Pay Bill from 254728681775 - Faith Abigael Acc. IAF,Completed,9000,,82000,TRUE,Pay Utility,254728681775 - Faith Abigael,,IAF
PF71UCHACP,07/06/2021 14:48,07/06/2021 14:48,Pay Bill from 254706158280 - patience mutheu mbevi Acc. KFC,Completed,10000,,73000,TRUE,Pay Utility,254706158280 - patience mutheu mbevi,,KFC
PF70UBUDTM,07/06/2021 14:36,07/06/2021 14:36,Pay Bill from 254728476791 - CAROLE ACHIENG Acc. KCF,Completed,10000,,63000,TRUE,Pay Utility,254728476791 - CAROLE ACHIENG,,KCF
PF75UA935N,07/06/2021 14:05,07/06/2021 14:05,Pay Bill from 254725909984 - TIMOTHY ODHIAMBO OWITI Acc. JDE,Completed,10000,,53000,TRUE,Pay Utility with OD via STK,254725909984 - TIMOTHY ODHIAMBO OWITI,,JDE
PF77U5ZFZH,07/06/2021 12:45,07/06/2021 12:45,Pay Bill Online from 254706549634 - CLINTON OMBASA Acc. FDB,Completed,17000,,43000,TRUE,Pay Bill Online,254706549634 - CLINTON OMBASA,,FDB
PF70U5U20S,07/06/2021 12:43,07/06/2021 12:43,Pay Bill from 254707715639 - Annastacia Kimeu Acc. JFC,Completed,10000,,26000,TRUE,Pay Utility,254707715639 - Annastacia Kimeu,,JFC
PF77U5CI6L,07/06/2021 12:33,07/06/2021 12:33,Pay Bill Online from 254705846408 - JAMES OUMA Acc. HBH,Completed,16000,,16000,TRUE,Pay Bill Online,254705846408 - JAMES OUMA,,HBH
PF74TXJRUQ,07/06/2021 10:01,07/06/2021 10:01,Utility Account to Organization Settlement Account,Completed,,-816000,0,TRUE,Utility Account to Organization Settlement Account,979524 - ANCIENT WELLS PROPERTY MANAGERS 2,,
PF71TUZ377,07/06/2021 09:07,07/06/2021 09:07,Pay Bill Online from 254720044312 - ELIUD KIPKURUI Acc. FCF,Completed,17000,,816000,TRUE,Pay Bill Online,254720044312 - ELIUD KIPKURUI,,FCF
PF71TUAP6V,07/06/2021 08:52,07/06/2021 08:52,Pay Bill from 0792933158 - mary wamaitha maina Acc. kdh,Completed,10000,,799000,TRUE,Pay Utility,0792933158 - mary wamaitha maina,,kdh
PF73TPMWPP,07/06/2021 06:20,07/06/2021 06:20,Pay Bill from 254700788416 - MERCY KASILI Acc. IFE,Completed,8000,,789000,TRUE,Pay Utility,254700788416 - MERCY KASILI,,IFE
PF70TP883W,07/06/2021 05:07,07/06/2021 05:07,Pay Bill from 254710106394 - LUCY TONKEI Acc. KBG,Completed,9000,,781000,TRUE,Pay Utility,254710106394 - LUCY TONKEI,,KBG
PF72TOKODM,07/06/2021 00:06,07/06/2021 00:06,Pay Bill from 254701196539 - GICHURI KARANJA Acc. Fee,Completed,16000,,772000,TRUE,Pay Utility,254701196539 - GICHURI KARANJA,,Fee
PF68TMGF6U,06/06/2021 21:46,06/06/2021 21:46,Pay Bill from 254725771056 - CHARLES MURAGURI Acc. FCE,Completed,15000,,756000,TRUE,Pay Utility,254725771056 - CHARLES MURAGURI,,FCE
PF64TKUDZW,06/06/2021 21:05,06/06/2021 21:05,Pay Bill from 254729590734 - PATRICK NDUNGA Acc. IDD,Completed,10000,,741000,TRUE,Pay Utility,254729590734 - PATRICK NDUNGA,,IDD
PF63TK8DYJ,06/06/2021 20:52,06/06/2021 20:52,Pay Bill from 254720868281 - KENNEDY MWELU Acc. KBI,Completed,12500,,731000,TRUE,Pay Utility with OD via STK,254720868281 - KENNEDY MWELU,,KBI
PF61TJG7JV,06/06/2021 20:37,06/06/2021 20:37,Pay Bill from 0715688238 - JOANNAH ATUHAIRE BANTU Acc. jae,Completed,9000,,718500,TRUE,Pay Utility,0715688238 - JOANNAH ATUHAIRE BANTU,,jae
PF62TI628Y,06/06/2021 20:15,06/06/2021 20:15,Pay Bill from 254715259756 - SYNTHIA OTIENO Acc. FBC,Completed,10000,,709500,TRUE,Pay Utility with OD via STK,254715259756 - SYNTHIA OTIENO,,FBC
PF64TGAE9Q,06/06/2021 19:46,06/06/2021 19:46,Pay Bill Online from 254710814215 - JOAN NYAMBURA KAMAU Acc. ifb,Completed,15000,,699500,TRUE,Pay Bill Online,254710814215 - JOAN NYAMBURA KAMAU,,ifb
PF61TEE5L3,06/06/2021 19:20,06/06/2021 19:20,Pay Bill from 254708499439 - ROSE NDEDE Acc. HGF,Completed,9000,,684500,TRUE,Pay Utility with OD via STK,254708499439 - ROSE NDEDE,,HGF
PF68TD0AXS,06/06/2021 19:01,06/06/2021 19:01,Pay Bill from 254728259571 - ANNE KASIVA Acc. ieb,Completed,15000,,675500,TRUE,Pay Utility,254728259571 - ANNE KASIVA,,ieb
PF67TCL2RB,06/06/2021 18:56,06/06/2021 18:56,Pay Bill Online from 254717780356 - ALFRED MAIRURA Acc.  ,Completed,16000,,660500,TRUE,Pay Bill Online,254717780356 - ALFRED MAIRURA,,
PF69T6GH1Z,06/06/2021 17:16,06/06/2021 17:16,Pay Bill from 254716581384 - GREGORY KILUNGYA Acc. DAD,Completed,20000,,644500,TRUE,Pay Utility,254716581384 - GREGORY KILUNGYA,,DAD
PF66T6CBWG,06/06/2021 17:14,06/06/2021 17:14,Pay Bill from 254722569870 - LUKA KEITANY Acc. jfj,Completed,15000,,624500,TRUE,Pay Utility,254722569870 - LUKA KEITANY,,jfj
PF69T4JON5,06/06/2021 16:40,06/06/2021 16:40,Pay Bill from 254791318982 - ADULLAHI HASSAN Acc. JCI,Completed,20000,,609500,TRUE,Pay Utility,254791318982 - ADULLAHI HASSAN,,JCI
PF60T1QG3K,06/06/2021 15:46,06/06/2021 15:46,Pay Bill from 254708328466 - VENESSA NYARERU Acc. kcd,Completed,12000,,589500,TRUE,Pay Utility with OD via STK,254708328466 - VENESSA NYARERU,,kcd
PF62SUN6G4,06/06/2021 13:21,06/06/2021 13:21,Pay Bill from 254702764047 - FERDINAND K Acc. KDB,Completed,16000,,577500,TRUE,Pay Utility,254702764047 - FERDINAND K,,KDB
PF66SSJ04W,06/06/2021 12:32,06/06/2021 12:32,Pay Bill from 254723930071 - AMOS KITAVI KIVITE Acc. JCE,Completed,9000,,561500,TRUE,Pay Utility,254723930071 - AMOS KITAVI KIVITE,,JCE
PF63SS3DIN,06/06/2021 12:22,06/06/2021 12:22,Pay Bill from 254722276550 - ISAAC NYAMRER Acc. kgc,Completed,9000,,552500,TRUE,Pay Utility,254722276550 - ISAAC NYAMRER,,kgc
PF64SQ4VHI,06/06/2021 11:35,06/06/2021 11:35,Pay Bill from 254710239100 - PHILOMENA WOKI MUTHAMA Acc. KDK,Completed,17000,,543500,TRUE,Pay Utility,254710239100 - PHILOMENA WOKI MUTHAMA,,KDK
PF60SPD5E0,06/06/2021 11:16,06/06/2021 11:16,Pay Bill from 254713281251 - ERIC KIAMA Acc. FAA,Completed,16000,,526500,TRUE,Pay Utility,254713281251 - ERIC KIAMA,,FAA
PF65SKQADX,06/06/2021 09:23,06/06/2021 09:23,Pay Bill from 254720107609 - DENNIS OGENDI BARAKE Acc. JAJ,Completed,15000,,510500,TRUE,Pay Utility,254720107609 - DENNIS OGENDI BARAKE,,JAJ
PF61SK38IT,06/06/2021 09:08,06/06/2021 09:08,Pay Bill Online from 254722921132 - JOE MCCRAY MURIUKI KIHIA Acc. IFA,Completed,15000,,495500,TRUE,Pay Utility with OD Online,254722921132 - JOE MCCRAY MURIUKI KIHIA,,IFA
PF69SJL6I7,06/06/2021 08:55,06/06/2021 08:55,Pay Bill from 254722521028 - CHARLES MONYONCHO Acc. ICB,Completed,17000,,480500,TRUE,Pay Utility,254722521028 - CHARLES MONYONCHO,,ICB
PF67SFN0MJ,06/06/2021 06:19,06/06/2021 06:19,Pay Bill Online from 254724005780 - IVY MARGARET OGOLA Acc. FFB,Completed,15000,,463500,TRUE,Pay Bill Online,254724005780 - IVY MARGARET OGOLA,,FFB
PF57SE9X49,05/06/2021 23:36,05/06/2021 23:36,Pay Bill from 254717140158 - Peter Wanjiru Acc. HFB,Completed,15000,,448500,TRUE,Pay Utility,254717140158 - Peter Wanjiru,,HFB
PF54SDTY82,05/06/2021 22:59,05/06/2021 22:59,Pay Bill from 0757259130 - RASHID SUDI MCHOMBO Acc. JAF,Completed,8000,,433500,TRUE,Pay Utility,0757259130 - RASHID SUDI MCHOMBO,,JAF
PF56SDPBWW,05/06/2021 22:50,05/06/2021 22:50,Pay Bill from 254725381062 - VICTOR MAITHYA Acc. HEG,Completed,3000,,425500,TRUE,Pay Utility,254725381062 - VICTOR MAITHYA,,HEG
PF51SDCR3D,05/06/2021 22:31,05/06/2021 22:31,Pay Bill from 254716056537 - KIRUI KIPLANGAT HILLARY Acc. JCJ,Completed,16000,,422500,TRUE,Pay Utility,254716056537 - KIRUI KIPLANGAT HILLARY,,JCJ
PF55SD6ZAD,05/06/2021 22:24,05/06/2021 22:24,Pay Bill from 254703935626 - DAVID NGARI ITA Acc. FCD,Completed,1000,,406500,TRUE,Pay Utility,254703935626 - DAVID NGARI ITA,,FCD
PF51SD2WTH,05/06/2021 22:20,05/06/2021 22:20,Pay Bill from 254792187144 - HASSAN AHMED HASSAN Acc. KGI,Completed,10000,,405500,TRUE,Pay Utility,254792187144 - HASSAN AHMED HASSAN,,KGI
PF53SCW30N,05/06/2021 22:12,05/06/2021 22:12,Pay Bill Online from 254722769473 - SAMSON CHALO Acc. IAB,Completed,15000,,395500,TRUE,Pay Bill Online,254722769473 - SAMSON CHALO,,IAB
PF53SCFSTL,05/06/2021 21:58,05/06/2021 21:58,Pay Bill from 254719285750 - LILIAN ACHIENG ODONGO Acc. IGE,Completed,9000,,380500,TRUE,Pay Utility,254719285750 - LILIAN ACHIENG ODONGO,,IGE
PF51SBRSOD,05/06/2021 21:39,05/06/2021 21:39,Pay Bill from 0722925798 - ifrah abukar adan Acc. IEI,Completed,15000,,371500,TRUE,Pay Utility,0722925798 - ifrah abukar adan,,IEI
PF53SAENWL,05/06/2021 21:08,05/06/2021 21:08,Pay Bill from 254712461449 - CAROLINE MUTHONI GICHOHI Acc. fca,Completed,16000,,356500,TRUE,Pay Utility,254712461449 - CAROLINE MUTHONI GICHOHI,,fca
PF52S8ITX6,05/06/2021 20:34,05/06/2021 20:34,Pay Bill Online from 254718911865 - KENNEDY KELI KATUNGII Acc. HDF,Completed,9000,,340500,TRUE,Pay Utility with OD Online,254718911865 - KENNEDY KELI KATUNGII,,HDF
PF53S8B8A3,05/06/2021 20:30,05/06/2021 20:30,Pay Bill Online from 254715892656 - DENNIS MUSYOKA MUOKI Acc. KFA,Completed,16000,,331500,TRUE,Pay Bill Online,254715892656 - DENNIS MUSYOKA MUOKI,,KFA
PF50S7Y52Y,05/06/2021 20:24,05/06/2021 20:24,Pay Bill from 254727300915 - EUNICE NJERI Acc. kff,Completed,9500,,315500,TRUE,Pay Utility,254727300915 - EUNICE NJERI,,kff
PF56S63LIA,05/06/2021 19:57,05/06/2021 19:57,Pay Bill from 254720511734 - ENOCK KIBET Acc. FDC,Completed,9000,,306000,TRUE,Pay Utility,254720511734 - ENOCK KIBET,,FDC
PF59S4DIVP,05/06/2021 19:35,05/06/2021 19:35,Pay Bill from 254712954563 - JOSEPH MUTISO KILONZO Acc. dac,Completed,20000,,297000,TRUE,Pay Utility,254712954563 - JOSEPH MUTISO KILONZO,,dac
PF57S47HLP,05/06/2021 19:32,05/06/2021 19:32,Pay Bill from 254795023150 - FAITH MORAA SITEMBA Acc. IFC,Completed,8000,,277000,TRUE,Pay Utility with OD via STK,254795023150 - FAITH MORAA SITEMBA,,IFC
PF50S3UQYE,05/06/2021 19:28,05/06/2021 19:28,Pay Bill Online from 254720381965 - JAMES NGUGI MWANIKI Acc. JBI,Completed,20000,,269000,TRUE,Pay Bill Online,254720381965 - JAMES NGUGI MWANIKI,,JBI
PF55RYKCUR,05/06/2021 18:21,05/06/2021 18:21,Pay Bill from 254723643548 - KEVIN OUKO Acc. FDD,Completed,11000,,249000,TRUE,Pay Utility,254723643548 - KEVIN OUKO,,FDD
PF53RTD6C1,05/06/2021 17:02,05/06/2021 17:02,Pay Bill from 254740306063 - susan wanja thurui Acc. Acc..hfg,Completed,15000,,238000,TRUE,Pay Utility with OD via STK,254740306063 - susan wanja thurui,,Acc..hfg
PF54RQ0ED4,05/06/2021 16:03,05/06/2021 16:03,Pay Bill Online from 254715002789 - ERICK NGUGI MAINA Acc. HAG,Completed,16000,,223000,TRUE,Pay Utility with OD Online,254715002789 - ERICK NGUGI MAINA,,HAG
PF58RPBQQ8,05/06/2021 15:50,05/06/2021 15:50,Pay Bill from 0792441884 - CORNELIA CONRAD MVULA Acc. IBB,Completed,15000,,207000,TRUE,Pay Utility,0792441884 - CORNELIA CONRAD MVULA,,IBB
PF52RPAXU2,05/06/2021 15:50,05/06/2021 15:50,Pay Bill Online from 254708703539 - SUSAN NDUGIRE NDUGIRE Acc. KDA,Completed,17000,,192000,TRUE,Pay Bill Online,254708703539 - SUSAN NDUGIRE NDUGIRE,,KDA
PF59ROKZOT,05/06/2021 15:37,05/06/2021 15:37,Pay Bill from 254726977770 - STEPHEN MUIRURI MATHENGE Acc. HBG,Completed,16000,,175000,TRUE,Pay Utility,254726977770 - STEPHEN MUIRURI MATHENGE,,HBG
PF54RNJ87K,05/06/2021 15:18,05/06/2021 15:18,Pay Bill from 254719499823 - MOSES MWANZIA MUTHIANI Acc. Jcc,Completed,2000,,159000,TRUE,Pay Utility with OD via STK,254719499823 - MOSES MWANZIA MUTHIANI,,Jcc
PF52RLQSLY,05/06/2021 14:45,05/06/2021 14:45,Pay Bill from 254728238249 - ESTHER WANGUI KIBUNYI Acc. ICA,Completed,17000,,157000,TRUE,Pay Utility,254728238249 - ESTHER WANGUI KIBUNYI,,ICA
PF52RKXMWS,05/06/2021 14:30,05/06/2021 14:30,Pay Bill from 254726170938 - ANNE CHEBET TALLAM Acc. hff,Completed,19000,,140000,TRUE,Pay Utility,254726170938 - ANNE CHEBET TALLAM,,hff
PF55RK02I3,05/06/2021 14:12,05/06/2021 14:12,Pay Bill from 254728042989 - PATRICK OMONDI Acc. IFI,Completed,15000,,121000,TRUE,Pay Utility with OD via STK,254728042989 - PATRICK OMONDI,,IFI
PF54RIYW3K,05/06/2021 13:53,05/06/2021 13:53,Pay Bill from 254728670882 - SHARAD EDWARD ADALA OLUM Acc. KCK,Completed,15000,,106000,TRUE,Pay Utility,254728670882 - SHARAD EDWARD ADALA OLUM,,KCK
PF51RHEGBB,05/06/2021 13:23,05/06/2021 13:23,Pay Bill from 254726178084 - CHRISTOPHER OCHIENG Acc. FFE,Completed,5000,,91000,TRUE,Pay Utility,254726178084 - CHRISTOPHER OCHIENG,,FFE
PF58RF8DDW,05/06/2021 12:41,05/06/2021 12:41,Pay Bill from 254722874715 - PATRCIAH mbesa KIOKO Acc. KBB ,Completed,16000,,86000,TRUE,Pay Utility,254722874715 - PATRCIAH mbesa KIOKO,,KBB
PF54RESI34,05/06/2021 12:32,05/06/2021 12:32,Pay Bill from 254769102712 - VALARIA VUTALE AZENGA Acc. KAD,Completed,11000,,70000,TRUE,Pay Utility with OD via STK,254769102712 - VALARIA VUTALE AZENGA,,KAD
PF52RB6QVQ,05/06/2021 11:21,05/06/2021 11:21,Pay Bill from 254713140050 - DIANA MBEJA Acc. KAE,Completed,10000,,59000,TRUE,Pay Utility,254713140050 - DIANA MBEJA,,KAE
PF56RAFMMK,05/06/2021 11:06,05/06/2021 11:06,Pay Bill from 254742911013 - HANEST AMIMO Acc. IEG,Completed,8000,,49000,TRUE,Pay Utility,254742911013 - HANEST AMIMO,,IEG
PF58R98HGG,05/06/2021 10:42,05/06/2021 10:42,Pay Bill from 254720361605 - DAUD AMBER Acc. IGH,Completed,15000,,41000,TRUE,Pay Utility,254720361605 - DAUD AMBER,,IGH
PF50R94LOU,05/06/2021 10:40,05/06/2021 10:40,Pay Bill from 254722940643 - HERBERT MAVIAH ISWEKA Acc. HCG,Completed,20000,,26000,TRUE,Pay Utility,254722940643 - HERBERT MAVIAH ISWEKA,,HCG
PF55R7LMET,05/06/2021 10:09,05/06/2021 10:09,Pay Bill Online from 254715764212 - BANCE ISHEMINYE Acc. JFE ,Completed,6000,,6000,TRUE,Pay Bill Online,254715764212 - BANCE ISHEMINYE,,JFE
PF50R6PFWU,05/06/2021 09:51,05/06/2021 09:51,Utility Account to Organization Settlement Account,Completed,,-282500,0,TRUE,Utility Account to Organization Settlement Account,979524 - ANCIENT WELLS PROPERTY MANAGERS 2,,
PF58R69CDQ,05/06/2021 09:41,05/06/2021 09:41,Pay Bill from 254715742045 - FRIDAH KIEMA Acc. HGC,Completed,9500,,282500,TRUE,Pay Utility with OD via STK,254715742045 - FRIDAH KIEMA,,HGC
PF56R50HDO,05/06/2021 09:14,05/06/2021 09:14,Pay Bill from 254721977151 - MIRIAM KIKOLYA Acc. KEA,Completed,8000,,273000,TRUE,Pay Utility with OD via STK,254721977151 - MIRIAM KIKOLYA,,KEA
PF59QZORWF,05/06/2021 06:15,05/06/2021 06:15,Pay Bill from 254725094113 - BRAXTON LUMWAJI Acc. DDC,Completed,10000,,265000,TRUE,Pay Utility,254725094113 - BRAXTON LUMWAJI,,DDC
PF42QX5DFK,04/06/2021 22:19,04/06/2021 22:19,Pay Bill from 254703935626 - DAVID NGARI ITA Acc. FCD,Completed,1000,,255000,TRUE,Pay Utility,254703935626 - DAVID NGARI ITA,,FCD
PF47QVUEBZ,04/06/2021 21:37,04/06/2021 21:37,Pay Bill from 254724865383 - LUCY ODUOL Acc. KFE,Completed,9500,,254000,TRUE,Pay Utility,254724865383 - LUCY ODUOL,,KFE
PF47QVLIUB,04/06/2021 21:31,04/06/2021 21:31,Pay Bill from 254729160700 - MICAH NDUNGI Acc. HFE,Completed,10500,,244500,TRUE,Pay Utility,254729160700 - MICAH NDUNGI,,HFE
PF49QRAQJV,04/06/2021 20:12,04/06/2021 20:12,Pay Bill from 254726178084 - CHRISTOPHER OCHIENG Acc. FFE,Completed,10000,,234000,TRUE,Pay Utility,254726178084 - CHRISTOPHER OCHIENG,,FFE
PF47QQR5NZ,04/06/2021 20:04,04/06/2021 20:04,Pay Bill from 254701027615 - JAMES KIPKURUI KEMBOI Acc. HAE,Completed,15000,,224000,TRUE,Pay Utility,254701027615 - JAMES KIPKURUI KEMBOI,,HAE
PF48QQLYLA,04/06/2021 20:02,04/06/2021 20:02,Pay Bill from 254721315975 - JOSEPH NDEGWA Acc. H E B,Completed,16000,,209000,TRUE,Pay Utility,254721315975 - JOSEPH NDEGWA,,H
PF48QQ0JLG,04/06/2021 19:53,04/06/2021 19:53,Pay Bill Online from 254798844460 - WYCLIFFE ODHIAMBO NYAGOA Acc. KAC,Completed,10000,,193000,TRUE,Pay Bill Online,254798844460 - WYCLIFFE ODHIAMBO NYAGOA,,KAC
PF49QPPDOV,04/06/2021 19:49,04/06/2021 19:49,Pay Bill from 254718138578 - PAULINE KIOKO Acc. KFD,Completed,12000,,183000,TRUE,Pay Utility,254718138578 - PAULINE KIOKO,,KFD
PF49QPMLYB,04/06/2021 19:48,04/06/2021 19:48,Pay Bill from 254718138578 - PAULINE KIOKO Acc. KFD,Completed,9000,,171000,TRUE,Pay Utility,254718138578 - PAULINE KIOKO,,KFD
PF46QICT3I,04/06/2021 18:16,04/06/2021 18:16,Pay Bill from 254714855708 - KIPLANGAT SITIENEI Acc. FAE,Completed,16000,,162000,TRUE,Pay Utility,254714855708 - KIPLANGAT SITIENEI,,FAE
PF42QI64VC,04/06/2021 18:14,04/06/2021 18:14,Pay Bill from 254708376721 - Millicent Achieng Akuka Acc. KCA,Completed,10000,,146000,TRUE,Pay Utility,254708376721 - Millicent Achieng Akuka,,KCA
PF48QHH0AS,04/06/2021 18:04,04/06/2021 18:04,FSI to Pay Bill by 714888 - B2C LOOP VIA NCBA Acc. FAD via WEB by B2C LOOP VIA NCBA\Cbainitiator,Completed,11000,,136000,TRUE,FSI to Pay Bill via API,714888 - B2C LOOP VIA NCBA,,FAD
PF42QGR1WU,04/06/2021 17:54,04/06/2021 17:54,Pay Bill from 254714814264 - PATRICIA NZOMO Acc. Hcc,Completed,10000,,125000,TRUE,Pay Utility,254714814264 - PATRICIA NZOMO,,Hcc
PF49QEIP97,04/06/2021 17:21,04/06/2021 17:21,Pay Bill Online from 254704682516 - Winnie Akinyi Omollo Acc. FDA,Completed,16000,,115000,TRUE,Pay Bill Online,254704682516 - Winnie Akinyi Omollo,,FDA
PF48QDOXK2,04/06/2021 17:08,04/06/2021 17:08,Pay Bill from 254724882554 - ALPHONCE WAMBUA NGELI Acc. JDA,Completed,20000,,99000,TRUE,Pay Utility,254724882554 - ALPHONCE WAMBUA NGELI,,JDA
PF45Q8K6YL,04/06/2021 15:37,04/06/2021 15:37,Pay Bill from 254721302658 - JACOB BIRUNDU Acc. DDB,Completed,8000,,79000,TRUE,Pay Utility,254721302658 - JACOB BIRUNDU,,DDB
PF42Q6RCRO,04/06/2021 15:03,04/06/2021 15:03,Pay Bill from 254748903322 - MARILYN MKAWUGHANGA KIRIGHO Acc. ICD,Completed,8100,,71000,TRUE,Pay Utility,254748903322 - MARILYN MKAWUGHANGA KIRIGHO,,ICD
PF49Q6MX75,04/06/2021 15:01,04/06/2021 15:01,Pay Bill from 254748903322 - MARILYN MKAWUGHANGA KIRIGHO Acc. ICD,Completed,900,,62900,TRUE,Pay Utility,254748903322 - MARILYN MKAWUGHANGA KIRIGHO,,ICD
PF46Q4BMLW,04/06/2021 14:17,04/06/2021 14:17,Pay Bill from 254701112397 - ELEMA GODANA DIBA Acc. IAD,Completed,10000,,62000,TRUE,Pay Utility,254701112397 - ELEMA GODANA DIBA,,IAD
PF47Q3UH6P,04/06/2021 14:08,04/06/2021 14:08,Pay Bill from 254728854349 - JOSEPH MUSYOKA Acc. IBG,Completed,8000,,52000,TRUE,Pay Utility,254728854349 - JOSEPH MUSYOKA,,IBG
PF40Q3DH4C,04/06/2021 13:59,04/06/2021 13:59,Pay Bill Online from 254711562428 - Lionel Mutune Muoka Acc. KDI,Completed,11000,,44000,TRUE,Pay Bill Online,254711562428 - Lionel Mutune Muoka,,KDI
PF44Q3BNVK,04/06/2021 13:58,04/06/2021 13:58,Pay Bill from 254717909848 - MARY MBULA KATHUKU Acc. FGD,Completed,9000,,33000,TRUE,Pay Utility,254717909848 - MARY MBULA KATHUKU,,FGD
PF45Q0GIZF,04/06/2021 13:03,04/06/2021 13:03,Pay Bill from 254719210828 - BELLAH ATIENO OUMA Acc. DAB,Completed,16000,,24000,TRUE,Pay Utility with OD via STK,254719210828 - BELLAH ATIENO OUMA,,DAB
PF43Q0CELP,04/06/2021 13:01,04/06/2021 13:01,Pay Bill from 0703236529 - MARGARET WANJIRU WANJOHI Acc. IAE,Completed,8000,,8000,TRUE,Pay Utility,0703236529 - MARGARET WANJIRU WANJOHI,,IAE
PF40PYKW36,04/06/2021 12:26,04/06/2021 12:26,Utility Account to Organization Settlement Account,Completed,,-444300,0,TRUE,Utility Account to Organization Settlement Account,979524 - ANCIENT WELLS PROPERTY MANAGERS 2,,
PF44PY6TI2,04/06/2021 12:18,04/06/2021 12:18,Pay Bill from 254719398942 - NORAH WAYUA MUNYAO Acc. KDC,Completed,10000,,444300,TRUE,Pay Utility,254719398942 - NORAH WAYUA MUNYAO,,KDC
PF41PY5NR7,04/06/2021 12:17,04/06/2021 12:17,Pay Bill from 254798888772 - ABDISHAKUR MAALIM ABDILLE Acc. JBA,Completed,6500,,434300,TRUE,Pay Utility,254798888772 - ABDISHAKUR MAALIM ABDILLE,,JBA
PF40PUADI4,04/06/2021 10:59,04/06/2021 10:59,Pay Bill from 254798022849 - MARTIN BUNDI RUGENDO Acc. KFH,Completed,10000,,427800,TRUE,Pay Utility,254798022849 - MARTIN BUNDI RUGENDO,,KFH
PF47PSGMI3,04/06/2021 10:22,04/06/2021 10:22,Pay Bill from 254729258441 - ROBERT RONO KULEI Acc. JAB,Completed,10000,,417800,TRUE,Pay Utility,254729258441 - ROBERT RONO KULEI,,JAB
PF46POZYOE,04/06/2021 09:08,04/06/2021 09:08,Pay Bill Online from 254706898046 - STACY AKETCH OCHUKA Acc. KED,Completed,12000,,407800,TRUE,Pay Bill Online,254706898046 - STACY AKETCH OCHUKA,,KED
PF47PO9LLR,04/06/2021 08:51,04/06/2021 08:51,Pay Bill from 254712187712 - JUDELEEN AHINDUKHA SHILOBELE Acc. IEA,Completed,18000,,395800,TRUE,Pay Utility,254712187712 - JUDELEEN AHINDUKHA SHILOBELE,,IEA
PF47PNPAV3,04/06/2021 08:38,04/06/2021 08:38,Pay Bill Online from 254711123196 - JUDITH MUTUA Acc. FEA,Completed,15800,,377800,TRUE,Pay Bill Online,254711123196 - JUDITH MUTUA,,FEA
PF45PNLRWR,04/06/2021 08:36,04/06/2021 08:36,Pay Bill from 254719779657 - SAMUEL NJOROGE Acc. JGA,Completed,20000,,362000,TRUE,Pay Utility with OD via STK,254719779657 - SAMUEL NJOROGE,,JGA
PF47PNK2WZ,04/06/2021 08:35,04/06/2021 08:35,Pay Bill from 0796121714 - janet   mwikali Acc. kec,Completed,10000,,342000,TRUE,Pay Utility,0796121714 - janet   mwikali,,kec
PF40PIWF96,04/06/2021 00:34,04/06/2021 00:34,Pay Bill from 254725754547 - MWACHIRO GEORGE DECHE Acc. DFC,Completed,20000,,332000,TRUE,Pay Utility,254725754547 - MWACHIRO GEORGE DECHE,,DFC
PF31PAJKMF,03/06/2021 19:54,03/06/2021 19:54,Pay Bill from 254726028330 - JOHN WAMBUA Acc. IFH,Completed,15000,,312000,TRUE,Pay Utility,254726028330 - JOHN WAMBUA,,IFH
PF33P3CG93,03/06/2021 18:22,03/06/2021 18:22,Pay Bill from 254722910078 - MAUREEN MUNYIVA MUTUKU Acc. DBD,Completed,15000,,297000,TRUE,Pay Utility,254722910078 - MAUREEN MUNYIVA MUTUKU,,DBD
PF34P2A21O,03/06/2021 18:07,03/06/2021 18:07,Pay Bill from 254796261716 - CHRISTINE WAMBUI Acc. ICH,Completed,15000,,282000,TRUE,Pay Utility,254796261716 - CHRISTINE WAMBUI,,ICH
PF33OW20NR,03/06/2021 16:27,03/06/2021 16:27,Pay Bill Online from 254708225541 - JUDITH NKATHA SIMBA Acc. HDH,Completed,16000,,267000,TRUE,Pay Bill Online,254708225541 - JUDITH NKATHA SIMBA,,HDH
PF34OVDSRG,03/06/2021 16:14,03/06/2021 16:14,Pay Bill from 254703555717 - SENGA SALIM Acc. hbb,Completed,5000,,251000,TRUE,Pay Utility,254703555717 - SENGA SALIM,,hbb
PF31OPFPH5,03/06/2021 14:19,03/06/2021 14:19,Pay Bill from 254716479709 - PAUL MUSYOKI Acc. IEC,Completed,8000,,246000,TRUE,Pay Utility,254716479709 - PAUL MUSYOKI,,IEC
PF39OMUSJV,03/06/2021 13:29,03/06/2021 13:29,Pay Bill from 254726636196 - BETHUEL KEMBOI KURUI Acc. JFD,Completed,31000,,238000,TRUE,Pay Utility,254726636196 - BETHUEL KEMBOI KURUI,,JFD
PF35OHV1PH,03/06/2021 11:53,03/06/2021 11:53,Pay Bill from 254718009051 - STEPHEN OMOLLO Acc. JDF,Completed,8000,,207000,TRUE,Pay Utility with OD via STK,254718009051 - STEPHEN OMOLLO,,JDF
PF30OHI90W,03/06/2021 11:46,03/06/2021 11:46,Pay Bill Online from 254723370004 - LABAN MAINGI WAMBUA Acc. JEF,Completed,8000,,199000,TRUE,Pay Bill Online,254723370004 - LABAN MAINGI WAMBUA,,JEF
PF33OGRJLL,03/06/2021 11:31,03/06/2021 11:31,Pay Bill from 0745378455 - harriet nyanchama nyaberi Acc. FCC,Completed,9000,,191000,TRUE,Pay Utility,0745378455 - harriet nyanchama nyaberi,,FCC
PF37OE0AOP,03/06/2021 10:34,03/06/2021 10:34,Pay Bill from 254713159153 - GUYO SANKALA Acc. DGD,Completed,20000,,182000,TRUE,Pay Utility,254713159153 - GUYO SANKALA,,DGD
PF36ODJ0TG,03/06/2021 10:24,03/06/2021 10:24,Pay Bill from 254702346515 - ELIZABETH ACHIENG NGOME Acc. KDE,Completed,10000,,162000,TRUE,Pay Utility,254702346515 - ELIZABETH ACHIENG NGOME,,KDE
PF33O8GQG3,03/06/2021 08:33,03/06/2021 08:33,Pay Bill from 0748059595 - Rashid NASSIR Khamis Acc. DDA,Completed,6000,,152000,TRUE,Pay Utility with OD via STK,0748059595 - Rashid NASSIR Khamis,,DDA
PF31O8F5XB,03/06/2021 08:32,03/06/2021 08:32,Pay Bill from 0113473583 - GERARD   HAVYARIMANA Acc. KAH,Completed,10000,,146000,TRUE,Pay Utility,0113473583 - GERARD   HAVYARIMANA,,KAH
PF32O7PWH2,03/06/2021 08:14,03/06/2021 08:14,Pay Bill from 254726687555 - ELIUD MUTHURE MICHENI Acc. KAI,Completed,4000,,136000,TRUE,Pay Utility,254726687555 - ELIUD MUTHURE MICHENI,,KAI
PF31O6U5UV,03/06/2021 07:51,03/06/2021 07:51,Pay Bill from 254723929380 - RHODAH K WAMBUA Acc. HEF,Completed,9500,,132000,TRUE,Pay Utility,254723929380 - RHODAH K WAMBUA,,HEF
PF31O5X3UV,03/06/2021 07:21,03/06/2021 07:21,Pay Bill from 254701006375 - EZRA MAKORI SERETI Acc. HTE,Completed,10000,,122500,TRUE,Pay Utility,254701006375 - EZRA MAKORI SERETI,,HTE
PF23O3GTQ5,02/06/2021 23:26,02/06/2021 23:26,Pay Bill from 254703935626 - DAVID NGARI ITA Acc. FCD,Completed,1000,,112500,TRUE,Pay Utility,254703935626 - DAVID NGARI ITA,,FCD
PF22O228WE,02/06/2021 22:03,02/06/2021 22:03,Pay Bill from 254729355933 - FELISTAH NJERI WAIRIMU Acc. IDI,Completed,15000,,111500,TRUE,Pay Utility,254729355933 - FELISTAH NJERI WAIRIMU,,IDI
PF23NVJBCR,02/06/2021 19:55,02/06/2021 19:55,Pay Bill from 254796292434 - ANTONINA HAYA Acc. HED,Completed,9000,,96500,TRUE,Pay Utility,254796292434 - ANTONINA HAYA,,HED
PF22NP27Z0,02/06/2021 18:35,02/06/2021 18:35,Pay Bill from 254740579741 - MUHINDI MULINYA Acc. HGG,Completed,15000,,87500,TRUE,Pay Utility,254740579741 - MUHINDI MULINYA,,HGG
PF27NMSHGB,02/06/2021 18:04,02/06/2021 18:04,Pay Bill from 254716315144 - PETER MUNYIRI WAROTERE Acc. FBB,Completed,16000,,72500,TRUE,Pay Utility,254716315144 - PETER MUNYIRI WAROTERE,,FBB
PF26NJDJNO,02/06/2021 17:11,02/06/2021 17:11,Pay Bill from 254714563486 - BRIAN MMATA MUSERA Acc. KBJ,Completed,16000,,56500,TRUE,Pay Utility with OD via STK,254714563486 - BRIAN MMATA MUSERA,,KBJ
PF26NDXUI4,02/06/2021 15:31,02/06/2021 15:31,Pay Bill from 254720361605 - DAUD AMBER Acc. IGH,Completed,5000,,40500,TRUE,Pay Utility,254720361605 - DAUD AMBER,,IGH
PF24NCH0U2,02/06/2021 15:02,02/06/2021 15:02,Pay Bill Online from 0724386624 - FATUMA ISSE YUSSUF Acc. FAB,Completed,16000,,35500,TRUE,Pay Bill Online,0724386624 - FATUMA ISSE YUSSUF,,FAB
PF24NBE1BE,02/06/2021 14:40,02/06/2021 14:40,Pay Bill from 254727766786 - JOHN MAITHA MULWA Acc. IBH,Completed,5000,,19500,TRUE,Pay Utility,254727766786 - JOHN MAITHA MULWA,,IBH
PF22N7XS2E,02/06/2021 13:32,02/06/2021 13:32,Pay Bill from 254721977151 - MIRIAM KIKOLYA Acc. KEA,Completed,14500,,14500,TRUE,Pay Utility with OD via STK,254721977151 - MIRIAM KIKOLYA,,KEA
PF28N3U97Q,02/06/2021 12:11,02/06/2021 12:11,Utility Account to Organization Settlement Account,Completed,,-232000,0,TRUE,Utility Account to Organization Settlement Account,979524 - ANCIENT WELLS PROPERTY MANAGERS 2,,
PF28N3ASAE,02/06/2021 12:00,02/06/2021 12:00,Pay Bill from 254727766786 - JOHN MAITHA MULWA Acc. IBH,Completed,10000,,232000,TRUE,Pay Utility,254727766786 - JOHN MAITHA MULWA,,IBH
PF27N19QYJ,02/06/2021 11:17,02/06/2021 11:17,Pay Bill from 254720029066 - EVANS CHERUYOT ROTICH Acc. KFI,Completed,11000,,222000,TRUE,Pay Utility,254720029066 - EVANS CHERUYOT ROTICH,,KFI
PF25MZDCDF,02/06/2021 10:36,02/06/2021 10:36,Pay Bill from 254728788938 - MOHAMED ISSAK ADAN Acc. jaa,Completed,10000,,211000,TRUE,Pay Utility with OD via STK,254728788938 - MOHAMED ISSAK ADAN,,jaa
PF24MWBFHM,02/06/2021 09:29,02/06/2021 09:29,Pay Bill from 254703180395 - JANE NYAGUTHII MWAGO Acc. IBE,Completed,8000,,201000,TRUE,Pay Utility,254703180395 - JANE NYAGUTHII MWAGO,,IBE
PF21MW0TTJ,02/06/2021 09:22,02/06/2021 09:22,Pay Bill Online from 254722728975 - CURTIS MRIGA OMIDO Acc. IAH,Completed,16000,,193000,TRUE,Pay Bill Online,254722728975 - CURTIS MRIGA OMIDO,,IAH
PF25MVAU9X,02/06/2021 09:05,02/06/2021 09:05,Pay Bill Online from 254720451253 - JIMMY KIOGORA NKIROTE Acc. KBD,Completed,6000,,177000,TRUE,Pay Bill Online,254720451253 - JIMMY KIOGORA NKIROTE,,KBD
PF22MSW064,02/06/2021 08:04,02/06/2021 08:04,Pay Bill from 254711706815 - NAOMI WANYONYI Acc. KBA,Completed,48000,,171000,TRUE,Pay Utility,254711706815 - NAOMI WANYONYI,,KBA
PF25MSOSI5,02/06/2021 07:59,02/06/2021 07:59,Pay Bill from 254700557767 - BAKHITA MWENDE MUANGE Acc. kcb,Completed,16000,,123000,TRUE,Pay Utility,254700557767 - BAKHITA MWENDE MUANGE,,kcb
PF18MM1RFG,01/06/2021 21:13,01/06/2021 21:13,Pay Bill from 254723499628 - CLINTON JOSEPH MUHARI Acc. hfh,Completed,16000,,107000,TRUE,Pay Utility with OD via STK,254723499628 - CLINTON JOSEPH MUHARI,,hfh
PF17MK3XPT,01/06/2021 20:34,01/06/2021 20:34,Pay Bill Online from 254705951407 - CAROLINE WAITHIRA KAMAU Acc. IDH,Completed,16000,,91000,TRUE,Pay Utility with OD Online,254705951407 - CAROLINE WAITHIRA KAMAU,,IDH
PF17MIZR3H,01/06/2021 20:15,01/06/2021 20:15,Pay Bill from 254720351482 - Cheruiyot Langat Brian Acc. dfa,Completed,15000,,75000,TRUE,Pay Utility,254720351482 - Cheruiyot Langat Brian,,dfa
PF11MHLKX3,01/06/2021 19:53,01/06/2021 19:53,Pay Bill from 254707370896 - OKECH BRIAN BRIAN Acc. FFA,Completed,15000,,60000,TRUE,Pay Utility,254707370896 - OKECH BRIAN BRIAN,,FFA
PF12MG1HG0,01/06/2021 19:32,01/06/2021 19:32,Pay Bill from 254729948896 - CAROLINE V MILIZA Acc. Fec,Completed,9000,,45000,TRUE,Pay Utility,254729948896 - CAROLINE V MILIZA,,Fec
PF14MEZNL4,01/06/2021 19:18,01/06/2021 19:18,Pay Bill from 254729796719 - JACINTA WANJIKU NJERI Acc. FFF,Completed,17000,,36000,TRUE,Pay Utility,254729796719 - JACINTA WANJIKU NJERI,,FFF
PF10M2QU7S,01/06/2021 16:00,01/06/2021 16:00,Pay Bill from 0758506934 - Edgar Maxwel Wanguba Acc. IFG,Completed,8000,,19000,TRUE,Pay Utility,0758506934 - Edgar Maxwel Wanguba,,IFG
PF10M1UXJA,01/06/2021 15:42,01/06/2021 15:42,Pay Bill from 254728364280 - EMMANUEL THUMA OYIER Acc. IDF,Completed,11000,,11000,TRUE,Pay Utility,254728364280 - EMMANUEL THUMA OYIER,,IDF
PF13M0VPCD,01/06/2021 15:22,01/06/2021 15:22,Utility Account to Organization Settlement Account,Completed,,-311000,0,TRUE,Utility Account to Organization Settlement Account,979524 - ANCIENT WELLS PROPERTY MANAGERS 2,,
PF15LZLYG3,01/06/2021 14:56,01/06/2021 14:56,Pay Bill Online from 254722514052 - JOSEPH NDIRANGU Acc. JCF,Completed,8000,,311000,TRUE,Pay Bill Online,254722514052 - JOSEPH NDIRANGU,,JCF
PF11LYJPDJ,01/06/2021 14:33,01/06/2021 14:33,Pay Bill Online from 254717809935 - LYDIAH WERU Acc. IDC,Completed,9500,,303000,TRUE,Pay Bill Online,254717809935 - LYDIAH WERU,,IDC
PF11LTRYTV,01/06/2021 12:51,01/06/2021 12:51,Pay Bill from 254718233980 - KAREN ASWANI Acc. HEC,Completed,10500,,293500,TRUE,Pay Utility,254718233980 - KAREN ASWANI,,HEC
PF13LRMLYD,01/06/2021 12:04,01/06/2021 12:04,Pay Bill from 254700187806 - WINNIE OLIVIA AKOTH Acc. jec,Completed,10000,,283000,TRUE,Pay Utility,254700187806 - WINNIE OLIVIA AKOTH,,jec
PF12LR6A6W,01/06/2021 11:55,01/06/2021 11:55,Pay Bill from 254728901013 - ALEX MOSE ARWASA Acc. 8GD,Completed,21000,,273000,TRUE,Pay Utility,254728901013 - ALEX MOSE ARWASA,,8GD
PF15LR28TD,01/06/2021 11:52,01/06/2021 11:52,Pay Bill Online from 254704033042 - LESLIE KOIKAI Acc. IBD ,Completed,11000,,252000,TRUE,Pay Bill Online,254704033042 - LESLIE KOIKAI,,IBD
PF18LMSVUG,01/06/2021 10:21,01/06/2021 10:21,Pay Bill Online from 254795510441 - LEWIS MUEMA Acc. KEB,Completed,16000,,241000,TRUE,Pay Bill Online,254795510441 - LEWIS MUEMA,,KEB
PF15LLCSFN,01/06/2021 09:49,01/06/2021 09:49,Pay Bill from 254721465713 - RHODA WAMBUI MWANGI Acc. jfh,Completed,17000,,225000,TRUE,Pay Utility,254721465713 - RHODA WAMBUI MWANGI,,jfh
PF16LKVZTA,01/06/2021 09:39,01/06/2021 09:39,Pay Bill from 254700379039 - MARTIN KIMANI Acc. KCI,Completed,12000,,208000,TRUE,Pay Utility,254700379039 - MARTIN KIMANI,,KCI
PF10LH1MIQ,01/06/2021 08:04,01/06/2021 08:04,Pay Bill from 254707226192 - NICHOLUS MAINGI MWANTHI Acc. HBF,Completed,9000,,196000,TRUE,Pay Utility,254707226192 - NICHOLUS MAINGI MWANTHI,,HBF
PF17LDCO6L,01/06/2021 01:06,01/06/2021 01:06,Pay Bill from 254718284151 - EVERLINE MATHEKA Acc. JAG,Completed,9000,,187000,TRUE,Pay Utility,254718284151 - EVERLINE MATHEKA,,JAG
PF16LDAREG,01/06/2021 00:49,01/06/2021 00:49,Pay Bill Online from 254726001437 - FESTUS MUNYIRI MAINA Acc. IFF,Completed,10000,,178000,TRUE,Pay Bill Online,254726001437 - FESTUS MUNYIRI MAINA,,IFF
