Receipt No.,Completion Time,Initiation Time,Details,Transaction Status,Paid In,Withdrawn,Balance,Balance Confirmed,Reason Type,Other Party Info,Linked Transaction ID,A/C No.
OKA0D1H0LI,10/11/2020 10:49,10/11/2020 10:49,Utility Account to Organization Settlement Account,Completed,,-49000,0,TRUE,Utility Account to Organization Settlement Account,887264 - ANCIENT WELLS LTD 2,,
OKA0CZERO8,10/11/2020 10:00,10/11/2020 10:00,Pay Bill from 254728912446 - GRACE NJERI Acc. ancient Wells ltd,Completed,40000,,49000,TRUE,Pay Utility,254728912446 - GRACE NJERI,,ancient
OK98CPCCHU,09/11/2020 21:30,09/11/2020 21:30,Pay Bill from 254726524831 - ANDREW ODHIAMBO Acc. Andrew odhiambo ,Completed,9000,,9000,TRUE,Pay Utility,254726524831 - ANDREW ODHIAMBO,,Andrew
OK96C3W5SG,09/11/2020 14:52,09/11/2020 14:45,Business Transfer from Utility Account to MMF Account via WEB by M-PESA - gwainaina,Completed,,-6000,0,TRUE,Business Transfer from Utility Account to MMF Account via WEB,887264 - ANCIENT WELLS LTD 2,,
OK85AXK6OR,08/11/2020 14:22,08/11/2020 14:22,Pay Bill from 254706011442 - REUBEN MURIUKI Acc. B5,Completed,6000,,6000,TRUE,Pay Utility,254706011442 - REUBEN MURIUKI,,B5
OK556TWVE3,05/11/2020 08:26,05/11/2020 08:26,Utility Account to Organization Settlement Account,Completed,,-7000,0,TRUE,Utility Account to Organization Settlement Account,887264 - ANCIENT WELLS LTD 2,,
OK596TNV69,05/11/2020 08:18,05/11/2020 08:18,Pay Bill from 254705755947 - METRINE REPHAH MATETE Acc. A3,Completed,7000,,7000,TRUE,Pay Utility,254705755947 - METRINE REPHAH MATETE,,A3
OK233IFN5T,02/11/2020 12:11,02/11/2020 12:11,Utility Account to Organization Settlement Account,Completed,,-5000,0,TRUE,Utility Account to Organization Settlement Account,887264 - ANCIENT WELLS LTD 2,,
OK25389MOT,02/11/2020 07:48,02/11/2020 07:48,Pay Bill from 0743263203 - Patrick theuri wachira Acc. U1,Completed,5000,,5000,TRUE,Pay Utility,0743263203 - Patrick theuri wachira,,U1
