Receipt No.,Completion Time,Initiation Time,Details,Transaction Status,Paid In,Withdrawn,Balance,Balance Confirmed,Reason Type,Other Party Info,Linked Transaction ID,A/C No.
PDB9P9SAGL,11/04/2021 14:03,11/04/2021 14:03,Utility Account to Organization Settlement Account,Completed,,-40000,0,TRUE,Utility Account to Organization Settlement Account,887264 - ANCIENT WELLS LTD 2,,
PDA3OIT68X,10/04/2021 19:22,10/04/2021 19:22,Pay Bill from 254728912446 - GRACE NJERI KIMANI Acc. ancient Wells LTD,Completed,40000,,40000,TRUE,Pay Utility,254728912446 - GRACE NJERI KIMANI,,ancient
PD58HKIIYG,05/04/2021 16:19,05/04/2021 16:19,Utility Account to Organization Settlement Account,Completed,,-5000,0,TRUE,Utility Account to Organization Settlement Account,887264 - ANCIENT WELLS LTD 2,,
PD55HFJZ59,05/04/2021 14:35,05/04/2021 14:35,Pay Bill from 0743263203 - Patrick theuri wachira Acc. U1,Completed,5000,,5000,TRUE,Pay Utility,0743263203 - Patrick theuri wachira,,U1
PD56GXA3HW,05/04/2021 07:01,05/04/2021 07:01,Utility Account to Organization Settlement Account,Completed,,-6000,0,TRUE,Utility Account to Organization Settlement Account,887264 - ANCIENT WELLS LTD 2,,
PD49G44CVR,04/04/2021 13:06,04/04/2021 13:06,Pay Bill from 254706011442 - REUBEN MURIUKI Acc.  b5,Completed,6000,,6000,TRUE,Pay Utility,254706011442 - REUBEN MURIUKI,,
PD37EVCTI3,03/04/2021 13:51,03/04/2021 13:51,Utility Account to Organization Settlement Account,Completed,,-7000,0,TRUE,Utility Account to Organization Settlement Account,887264 - ANCIENT WELLS LTD 2,,
PD34EGBVAM,03/04/2021 08:43,03/04/2021 08:43,Pay Bill from 254705755947 - METRINE REPHAH MATETE Acc. A3,Completed,7000,,7000,TRUE,Pay Utility,254705755947 - METRINE REPHAH MATETE,,A3
