Receipt No.,Completion Time,Initiation Time,Details,Transaction Status,Paid In,Withdrawn,Balance,Balance Confirmed,Reason Type,Other Party Info,Linked Transaction ID,A/C No.
RE926CJBTA,09/05/2023 23:25,09/05/2023 23:25,Pay Bill from 254729140163 - BEATRICE OMADI NYANDIGA Acc. Z13,Completed,4000,,358000,TRUE,Pay Utility with OD via STK,254729140163 - BEATRICE OMADI NYANDIGA,,Z13
RE9068TOYY,09/05/2023 22:04,09/05/2023 22:04,Pay Bill from 254720213934 - TERRY KAWIRA SALESIO Acc. z20 ,Completed,10000,,354000,TRUE,Pay Utility,254720213934 - TERRY KAWIRA SALESIO,,z20
RE9940BO0P,09/05/2023 10:10,09/05/2023 10:10,Pay Bill from 0113698856 - Fredrick Mosoti Mounde Acc. EPZ MH,Completed,30000,,344000,TRUE,Pay Utility,0113698856 - Fredrick Mosoti Mounde,,EPZ
RE8039EVNA,08/05/2023 21:37,08/05/2023 21:37,Pay Bill from 254723877938 - SALOME ONGELE Acc. 369S,Completed,13000,,314000,TRUE,Pay Utility,254723877938 - SALOME ONGELE,,369S
RE8019VOUK,08/05/2023 11:36,08/05/2023 11:36,Utility Account to Organization Settlement Account,Completed,,-23000,301000,TRUE,Utility Account to Organization Settlement Account,887264 - ANCIENT WELLS LTD 2,,
RE71WVQCPF,07/05/2023 02:27,07/05/2023 02:27,Pay Bill Online from 254728208930 - DOREEN MAKENA Acc. Z10,Completed,5000,,324000,TRUE,Pay Bill Online,254728208930 - DOREEN MAKENA,,Z10
RE64V3PGX6,06/05/2023 14:20,06/05/2023 14:20,Pay Bill Online from 254715776633 - FIONA KIMANI Acc. Z16,Completed,3000,,319000,TRUE,Pay Bill Online,254715776633 - FIONA KIMANI,,Z16
RE67U58U1N,06/05/2023 08:32,06/05/2023 08:32,Pay Bill from 254721392330 - ROSE KENDI MUTEGI Acc. A202 ,Completed,90000,,316000,TRUE,Pay Utility,254721392330 - ROSE KENDI MUTEGI,,A202
RE68U0DHBM,06/05/2023 07:24,06/05/2023 07:24,Pay Bill from 0759385844 - ROSEMARY WAMBUI GITAU Acc. B5,Completed,6000,,226000,TRUE,Pay Utility with OD via STK,0759385844 - ROSEMARY WAMBUI GITAU,,B5
RE57SNAGDR,05/05/2023 17:24,05/05/2023 17:24,Pay Bill Online from 254745713921 - LAUREEN WANJIRU MAINA Acc. B3,Completed,6000,,220000,TRUE,Pay Bill Online,254745713921 - LAUREEN WANJIRU MAINA,,B3
RE57QWRHK5,05/05/2023 05:28,05/05/2023 05:28,Pay Bill from 254703573478 - ANTONY MAINA GICHINA Acc. Gichina A5 ,Completed,6000,,214000,TRUE,Pay Utility,254703573478 - ANTONY MAINA GICHINA,,Gichina
RE51QU9CSV,05/05/2023 00:11,05/05/2023 00:11,Pay Bill from 254718167869 - MARK OTIENO Acc. A3,Completed,7000,,208000,TRUE,Pay Utility,254718167869 - MARK OTIENO,,A3
RE43P6QH0T,04/05/2023 14:29,04/05/2023 14:29,Pay Bill Online from 254723909186 - BRIAN LIBASIA Acc. 18,Completed,16000,,201000,TRUE,Pay Bill Online,254723909186 - BRIAN LIBASIA,,18
RE42NXO1B0,04/05/2023 00:00,04/05/2023 00:00,Pay Bill from 254720084537 - MARY NDUKU WAMBUA Acc. 6,Completed,16000,,185000,TRUE,Pay Utility,254720084537 - MARY NDUKU WAMBUA,,6
RE35N77SPZ,03/05/2023 19:05,03/05/2023 19:05,Pay Bill from 254723882311 - VERONICAH WAMBUGU Acc. house number 9,Completed,16000,,169000,TRUE,Pay Utility,254723882311 - VERONICAH WAMBUGU,,house
RE31LOMCZ7,03/05/2023 10:45,03/05/2023 10:45,Pay Bill Online from 254715776633 - FIONA KIMANI Acc. Z16,Completed,10000,,153000,TRUE,Pay Utility with OD Online,254715776633 - FIONA KIMANI,,Z16
RE22KAEYUY,02/05/2023 18:47,02/05/2023 18:47,Pay Bill from 0795150586 - Millicent Achieng Odhone Acc. Andrew Odhiambo ,Completed,20000,,143000,TRUE,Pay Utility,0795150586 - Millicent Achieng Odhone,,Andrew
RE21JYMHLX,02/05/2023 17:19,02/05/2023 17:19,Pay Bill from 254722627652 - BONIFACE MWAMUTSI CHENGO Acc. D9/D10,Completed,22000,,123000,TRUE,Pay Utility,254722627652 - BONIFACE MWAMUTSI CHENGO,,D9/D10
RE11H81U9V,01/05/2023 17:07,01/05/2023 17:07,Pay Bill from 254726731040 - ISAAC NDUNGU Acc. D 8,Completed,6000,,101000,TRUE,Pay Utility,254726731040 - ISAAC NDUNGU,,D
RE17G3LQGZ,01/05/2023 10:03,01/05/2023 10:03,Pay Bill from 0111633679 - JOSEPH ESILABA NDUKA Acc. savannah 102,Completed,36000,,95000,TRUE,Pay Utility,0111633679 - JOSEPH ESILABA NDUKA,,savannah
