Receipt No.,Completion Time,Initiation Time,Details,Transaction Status,Paid In,Withdrawn,Balance,Balance Confirmed,Reason Type,Other Party Info,Linked Transaction ID,A/C No.
QIC3TX38WX,12/09/2022 13:26,12/09/2022 13:26,Pay Bill Online from 254704995854 - james karanja wairimu Acc. V54,Completed,6600,,312750,TRUE,Pay Bill Online,254704995854 - james karanja wairimu,,V54
QIB3SARJRR,11/09/2022 16:53,11/09/2022 16:53,Pay Bill from 254700904994 - HUSSEIN HASSAN LAMA Acc. V43,Completed,5000,,306150,TRUE,Pay Utility,254700904994 - HUSSEIN HASSAN LAMA,,V43
QIB8S5AYII,11/09/2022 15:43,11/09/2022 15:43,Pay Bill from 0746608117 - Bonface   Waswa Acc. v1,Completed,5250,,301150,TRUE,Pay Utility,0746608117 - Bonface   Waswa,,v1
QIB8RJ31IU,11/09/2022 10:12,11/09/2022 10:12,Pay Bill from 254720230582 - SHADRACK KITAKA NGILA Acc. v01,Completed,7000,,295900,TRUE,Pay Utility,254720230582 - SHADRACK KITAKA NGILA,,v01
QIA4POX0D4,10/09/2022 12:59,10/09/2022 12:59,Pay Bill from 0113907030 - NAOMI NDINDA NZAMALU Acc. v28,Completed,2000,,288900,TRUE,Pay Utility,0113907030 - NAOMI NDINDA NZAMALU,,v28
QI98OPH0O8,09/09/2022 20:41,09/09/2022 20:41,Pay Bill from 254705037274 - Jarden Onyinge Mongare Acc. 4,Completed,2500,,286900,TRUE,Pay Utility,254705037274 - Jarden Onyinge Mongare,,4
QI97OOMMN7,09/09/2022 20:32,09/09/2022 20:32,Pay Bill from 254702923950 - SAMUEL KIMANTHI Acc. V49,Completed,7400,,284400,TRUE,Pay Utility,254702923950 - SAMUEL KIMANTHI,,V49
QI96NOCNEK,09/09/2022 14:17,09/09/2022 14:17,Pay Bill from 254701174081 - JOSEPHINE ODUOR Acc. v34,Completed,2000,,277000,TRUE,Pay Utility,254701174081 - JOSEPHINE ODUOR,,v34
QI99NHEDGV,09/09/2022 12:44,09/09/2022 12:44,Pay Bill from 254701174081 - JOSEPHINE ODUOR Acc. v34,Completed,2000,,275000,TRUE,Pay Utility,254701174081 - JOSEPHINE ODUOR,,v34
QI93N53CF5,09/09/2022 09:51,09/09/2022 09:51,Pay Bill from 0742753405 - esther luseno Wefunya Acc. V35,Completed,7000,,273000,TRUE,Pay Utility,0742753405 - esther luseno Wefunya,,V35
QI98N2PKCG,09/09/2022 09:15,09/09/2022 09:15,Pay Bill from 254719701463 - MARY KANYI KIARIE Acc. v17,Completed,7000,,266000,TRUE,Pay Utility,254719701463 - MARY KANYI KIARIE,,v17
QI90N0OVRA,09/09/2022 08:42,09/09/2022 08:42,Pay Bill from 254720466443 - FATUMA MOHAMED ABDALLAH Acc. V21,Completed,7000,,259000,TRUE,Pay Utility,254720466443 - FATUMA MOHAMED ABDALLAH,,V21
QI94MVLSV6,09/09/2022 07:01,09/09/2022 07:01,Pay Bill from 254717294709 - CAROLINE WAVINYA NDINDA Acc. v15,Completed,7000,,252000,TRUE,Pay Utility,254717294709 - CAROLINE WAVINYA NDINDA,,v15
QI82MC7QTQ,08/09/2022 19:33,08/09/2022 19:33,Pay Bill from 254707183471 - PETINA NEKESA Acc. V23,Completed,5600,,245000,TRUE,Pay Utility,254707183471 - PETINA NEKESA,,V23
QI89LHDBIT,08/09/2022 13:55,08/09/2022 13:55,Pay Bill from 254706920646 - MIRIAM CHEPTOO Acc. V08,Completed,8500,,239400,TRUE,Pay Utility,254706920646 - MIRIAM CHEPTOO,,V08
QI85KXDZW7,08/09/2022 09:14,08/09/2022 09:14,Pay Bill from 0707674271 - Victor   Mwilu Acc. v37,Completed,6000,,230900,TRUE,Pay Utility,0707674271 - Victor   Mwilu,,v37
QI88KWQUSW,08/09/2022 09:04,08/09/2022 09:04,Pay Bill from 254710693464 - BENARD OLANDO OKUMU Acc. v59,Completed,1000,,224900,TRUE,Pay Utility with OD via STK,254710693464 - BENARD OLANDO OKUMU,,v59
QI76JZVOQ6,07/09/2022 18:18,07/09/2022 18:18,Pay Bill from 254719658678 - KELVIN SOMBA MAUNDU Acc. vk6,Completed,3500,,223900,TRUE,Pay Utility,254719658678 - KELVIN SOMBA MAUNDU,,vk6
QI79JV3UZB,07/09/2022 17:32,07/09/2022 17:32,Pay Bill from 254743311673 - Maureen Njoki Wambui Acc. V60,Completed,6000,,220400,TRUE,Pay Utility,254743311673 - Maureen Njoki Wambui,,V60
QI71JDZOD7,07/09/2022 13:58,07/09/2022 13:58,Pay Bill from 0768384843 - Augastine   Omeri Acc. V51,Completed,7000,,214400,TRUE,Pay Utility,0768384843 - Augastine   Omeri,,V51
QI70ITXGW2,07/09/2022 09:14,07/09/2022 09:14,Pay Bill from 0795807227 - Lucy Ncekei Kimathi Acc. V36 ,Completed,4600,,207400,TRUE,Pay Utility,0795807227 - Lucy Ncekei Kimathi,,V36
QI78IQ811Y,07/09/2022 08:11,07/09/2022 08:11,Pay Bill from 0758457508 - PETER KINGORI KAGUNDA Acc. V06,Completed,7000,,202800,TRUE,Pay Utility,0758457508 - PETER KINGORI KAGUNDA,,V06
QI74IOQILC,07/09/2022 07:42,07/09/2022 07:42,Pay Bill Online from 254723389922 - ANNE WANJIKU NDUNGU Acc. v53,Completed,7000,,195800,TRUE,Pay Bill Online,254723389922 - ANNE WANJIKU NDUNGU,,v53
QI69ID84MT,06/09/2022 21:02,06/09/2022 21:02,Pay Bill from 254720002225 - DAVID NDENGWA Acc. V29,Completed,2000,,188800,TRUE,Pay Utility,254720002225 - DAVID NDENGWA,,V29
QI66HJDEIK,06/09/2022 16:06,06/09/2022 16:06,Pay Bill from 254769508804 - Lydia Watiri Irungu Acc. v 31,Completed,7000,,186800,TRUE,Pay Utility,254769508804 - Lydia Watiri Irungu,,v
QI69H0QPAV,06/09/2022 11:59,06/09/2022 11:59,Pay Bill from 254703108159 - JOICE OGOLLA Acc. V50,Completed,6600,,179800,TRUE,Pay Utility,254703108159 - JOICE OGOLLA,,V50
QI69GKVV6P,06/09/2022 08:03,06/09/2022 08:03,Pay Bill from 254701086112 - CAROLYNE KOKI MULWA Acc. V30,Completed,6600,,173200,TRUE,Pay Utility,254701086112 - CAROLYNE KOKI MULWA,,V30
QI64GHM8AG,06/09/2022 06:47,06/09/2022 06:47,Pay Bill from 254722578070 - SAMUEL MACHARIA Acc. V42,Completed,7000,,166600,TRUE,Pay Utility,254722578070 - SAMUEL MACHARIA,,V42
QI59G6NX65,05/09/2022 20:40,05/09/2022 20:40,Pay Bill from 0707032788 - CLIFF ONDIBA OMBASA Acc. V05,Completed,13000,,159600,TRUE,Pay Utility,0707032788 - CLIFF ONDIBA OMBASA,,V05
QI52FYGS3G,05/09/2022 19:21,05/09/2022 19:21,Pay Bill from 254723815832 - SEMEKIA ONDIALA Acc. V38,Completed,6600,,146600,TRUE,Pay Utility,254723815832 - SEMEKIA ONDIALA,,V38
QI59FGGJQH,05/09/2022 16:18,05/09/2022 16:18,Pay Bill from 254790128716 - HELLEN NAPHTAL Acc. V11,Completed,7000,,140000,TRUE,Pay Utility,254790128716 - HELLEN NAPHTAL,,V11
QI57F84KZ5,05/09/2022 14:25,05/09/2022 14:25,Pay Bill from 0769858701 - DOLLARS DANIEL CIRHUZA Acc. V09,Completed,7000,,133000,TRUE,Pay Utility,0769858701 - DOLLARS DANIEL CIRHUZA,,V09
QI52F3IJJI,05/09/2022 13:17,05/09/2022 13:17,Pay Bill Online from 254740912300 - ADELIDE IMINZA CHAGUSIA Acc. v27,Completed,7400,,126000,TRUE,Pay Bill Online,254740912300 - ADELIDE IMINZA CHAGUSIA,,v27
QI50F0W9VS,05/09/2022 12:37,05/09/2022 12:37,Pay Bill from 254723337732 - CHRISTINE AKINYI OCHELE Acc. V14,Completed,7000,,118600,TRUE,Pay Utility,254723337732 - CHRISTINE AKINYI OCHELE,,V14
QI59EFZLIB,05/09/2022 07:16,05/09/2022 07:16,Pay Bill Online from 254729569271 - MESHACK OBOTTA OBARE Acc. V12,Completed,10000,,111600,TRUE,Pay Bill Online,254729569271 - MESHACK OBOTTA OBARE,,V12
QI47E7IE0T,04/09/2022 21:35,04/09/2022 21:35,Pay Bill from 0717042461 - Sharon Nyangasi Shivachi Acc. V55 ,Completed,6600,,101600,TRUE,Pay Utility,0717042461 - Sharon Nyangasi Shivachi,,V55
QI44E5E81W,04/09/2022 21:04,04/09/2022 21:04,Pay Bill from 0706286171 - Ivan Ofweja Katimi Acc. V13,Completed,7000,,95000,TRUE,Pay Utility,0706286171 - Ivan Ofweja Katimi,,V13
QI45D53BBR,04/09/2022 14:07,04/09/2022 14:07,Pay Bill from 254707568664 - Ismael Kitsao Acc. v52,Completed,9000,,88000,TRUE,Pay Utility,254707568664 - Ismael Kitsao,,v52
QI41D0H5SD,04/09/2022 13:01,04/09/2022 13:01,Pay Bill from 0714747222 - WILSON KIMANI MWANGI Acc. v25,Completed,17500,,79000,TRUE,Pay Utility,0714747222 - WILSON KIMANI MWANGI,,v25
QI47CMR03X,04/09/2022 09:14,04/09/2022 09:14,Pay Bill Online from 254113615645 - brian litumbi embai Acc. V58,Completed,7000,,61500,TRUE,Pay Bill Online,254113615645 - brian litumbi embai,,V58
QI42CHH02O,04/09/2022 07:24,04/09/2022 07:24,Pay Bill from 254726465584 - JULIANA MUKELI MUTUNGA Acc. v4,Completed,6600,,54500,TRUE,Pay Utility,254726465584 - JULIANA MUKELI MUTUNGA,,v4
QI37BEC8RF,03/09/2022 16:30,03/09/2022 16:30,Pay Bill from 254712091662 - BENARD OMONDI ROBY Acc. V16,Completed,6600,,47900,TRUE,Pay Utility,254712091662 - BENARD OMONDI ROBY,,V16
QI219M0XHF,02/09/2022 18:57,02/09/2022 18:57,Pay Bill from 254791173224 - FAITH WAMBUI GATHECHA Acc. V29,Completed,2500,,41300,TRUE,Pay Utility,254791173224 - FAITH WAMBUI GATHECHA,,V29
QI248GEX7G,02/09/2022 10:32,02/09/2022 10:32,Pay Bill from 254705396032 - NAOMI NYAWIRA NGURE Acc. v46 ,Completed,6600,,38800,TRUE,Pay Utility,254705396032 - NAOMI NYAWIRA NGURE,,v46
QI2789LF9P,02/09/2022 08:48,02/09/2022 08:48,FSI to Pay Bill by 714888 - B2C LOOP VIA NCBA Acc. V40 via WEB by B2C LOOP VIA NCBA\Cbainitiator,Completed,10400,,32200,TRUE,FSI to Pay Bill via API,714888 - B2C LOOP VIA NCBA,,V40
QI197H8KWF,01/09/2022 19:09,01/09/2022 19:09,Pay Bill Online from 254728780393 - DINAH ONGIRI Acc. V39,Completed,7000,,21800,TRUE,Pay Bill Online,254728780393 - DINAH ONGIRI,,V39
QI126OKC8M,01/09/2022 13:34,01/09/2022 13:34,Pay Bill from 254726702082 - STEPHEN NJUGUNA Acc. V02,Completed,6200,,14800,TRUE,Pay Utility,254726702082 - STEPHEN NJUGUNA,,V02
