Receipt No.,Completion Time,Initiation Time,Details,Transaction Status,Paid In,Withdrawn,Balance,Balance Confirmed,Reason Type,Other Party Info,Linked Transaction ID,A/C No.
PIK55ELR8F,20/09/2021 07:55,20/09/2021 07:55,Pay Bill Online from 254715020357 - ELIZABETH NJERI WARARI Acc. C2,Completed,7500,,11500,TRUE,Pay Bill Online,254715020357 - ELIZABETH NJERI WARARI,,C2
PIJ14TRCQ3,19/09/2021 17:53,19/09/2021 17:53,Pay Bill Online from 254703176849 - ROYAL MUYA Acc. F2,Completed,4000,,4000,TRUE,Pay Bill Online,254703176849 - ROYAL MUYA,,F2
PII72Y3SP5,18/09/2021 13:28,18/09/2021 13:28,Utility Account to Organization Settlement Account,Completed,,-11000,0,TRUE,Utility Account to Organization Settlement Account,887075 - ANCIENT WELLS LTD 3,,
PIH9187RKB,17/09/2021 11:17,17/09/2021 11:17,Pay Bill from 254711428856 - JAPHETH OTSIENO BARASA Acc. Japheth Barasa A5,Completed,11000,,11000,TRUE,Pay Utility,254711428856 - JAPHETH OTSIENO BARASA,,Japheth
PIH014H7LA,17/09/2021 10:02,17/09/2021 10:02,Utility Account to Organization Settlement Account,Completed,,-20000,0,TRUE,Utility Account to Organization Settlement Account,887075 - ANCIENT WELLS LTD 3,,
PIG4ZPWIS6,16/09/2021 20:50,16/09/2021 20:50,Pay Bill Online from 254720201580 - CHRISTOPHER OTUOMA Acc. CHRISTOPHER,Completed,1000,,20000,TRUE,Pay Bill Online,254720201580 - CHRISTOPHER OTUOMA,,CHRISTOPHER
PIF1XTFD1P,15/09/2021 17:47,15/09/2021 17:47,Pay Bill Online from 254720062144 - CAROLINE AMONDI OKELO Acc. f4,Completed,8500,,19000,TRUE,Pay Bill Online,254720062144 - CAROLINE AMONDI OKELO,,f4
PIF1XFBQCT,15/09/2021 13:43,15/09/2021 13:43,Pay Bill Online from 254703451075 - SHICHENGA MARK Acc. D2,Completed,3000,,10500,TRUE,Pay Bill Online,254703451075 - SHICHENGA MARK,,D2
PIF1X7OB0B,15/09/2021 11:16,15/09/2021 11:16,Pay Bill from 254726432241 - STEPHEN MAYABI Acc. A1,Completed,7500,,7500,TRUE,Pay Utility with OD via STK,254726432241 - STEPHEN MAYABI,,A1
PID1TZAGI3,13/09/2021 09:01,13/09/2021 09:01,Utility Account to Organization Settlement Account,Completed,,-17000,0,TRUE,Utility Account to Organization Settlement Account,887075 - ANCIENT WELLS LTD 3,,
PIC7TR6RUX,12/09/2021 22:10,12/09/2021 22:10,Pay Bill from 254713229967 - John Mugabo Simba Acc. E4,Completed,8500,,17000,TRUE,Pay Utility with OD via STK,254713229967 - John Mugabo Simba,,E4
PIC9T2GQDD,12/09/2021 15:22,12/09/2021 15:22,Pay Bill from 254704658943 - IRENE MUTHUI Acc. E5,Completed,8500,,8500,TRUE,Pay Utility with OD via STK,254704658943 - IRENE MUTHUI,,E5
PIB1R3KBDR,11/09/2021 09:55,11/09/2021 09:55,Utility Account to Organization Settlement Account,Completed,,-8500,0,TRUE,Utility Account to Organization Settlement Account,887075 - ANCIENT WELLS LTD 3,,
PIB6QYQ4LK,11/09/2021 08:10,11/09/2021 08:10,Pay Bill from 254725085735 - MATTHEW MULI MUTUKU Acc. mercymulib6p,Completed,8500,,8500,TRUE,Pay Utility,254725085735 - MATTHEW MULI MUTUKU,,mercymulib6p
PIA7PMUSCP,10/09/2021 10:45,10/09/2021 10:45,Utility Account to Organization Settlement Account,Completed,,-38000,0,TRUE,Utility Account to Organization Settlement Account,887075 - ANCIENT WELLS LTD 3,,
PI91OKTV75,09/09/2021 15:29,09/09/2021 15:29,Pay Bill from 0799912339 - PETER KAMAU MURIU Acc. C5,Completed,8500,,38000,TRUE,Pay Utility,0799912339 - PETER KAMAU MURIU,,C5
PI93OA2J5X,09/09/2021 12:00,09/09/2021 12:00,Pay Bill from 254748354739 - Valary Bhoke Mwita Acc. G3,Completed,9000,,29500,TRUE,Pay Utility,254748354739 - Valary Bhoke Mwita,,G3
PI98O9592O,09/09/2021 11:41,09/09/2021 11:41,Pay Bill from 254701339690 - ASHA BAGANWA NDAHIRU Acc. F3,Completed,8000,,20500,TRUE,Pay Utility,254701339690 - ASHA BAGANWA NDAHIRU,,F3
PI92O8KGRW,09/09/2021 11:29,09/09/2021 11:29,Pay Bill from 254727585857 - PETER MUOKI NGUNDO Acc. peter muoki e6,Completed,8500,,12500,TRUE,Pay Utility,254727585857 - PETER MUOKI NGUNDO,,peter
PI83N481QV,08/09/2021 15:52,08/09/2021 15:52,Pay Bill Online from 254703176849 - ROYAL MUYA Acc. F2,Completed,4000,,4000,TRUE,Pay Bill Online,254703176849 - ROYAL MUYA,,F2
PI89MWPUJB,08/09/2021 13:40,08/09/2021 13:40,Utility Account to Organization Settlement Account,Completed,,-21000,0,TRUE,Utility Account to Organization Settlement Account,887075 - ANCIENT WELLS LTD 3,,
PI73L8I1FZ,07/09/2021 12:13,07/09/2021 12:13,Pay Bill from 254717577871 - KELVIN MUTUMA KINYUA Acc. B1,Completed,13000,,21000,TRUE,Pay Utility,254717577871 - KELVIN MUTUMA KINYUA,,B1
PI73L45TAJ,07/09/2021 10:48,07/09/2021 10:48,Pay Bill from 254721539716 - OCTAVIAN MWANYALO Acc. C6,Completed,8000,,8000,TRUE,Pay Utility,254721539716 - OCTAVIAN MWANYALO,,C6
PI70L075FC,07/09/2021 09:28,07/09/2021 09:28,Utility Account to Organization Settlement Account,Completed,,-44000,0,TRUE,Utility Account to Organization Settlement Account,887075 - ANCIENT WELLS LTD 3,,
PI68KOPVDU,06/09/2021 21:16,06/09/2021 21:16,Pay Bill from 254714851955 - SALIM ASMAN MUSUNGULE Acc. Christopher,Completed,12000,,44000,TRUE,Pay Utility,254714851955 - SALIM ASMAN MUSUNGULE,,Christopher
PI62KLPA38,06/09/2021 20:24,06/09/2021 20:24,Pay Bill from 254713295711 - JAMES CHEGE KAMAU Acc. A2,Completed,7500,,32000,TRUE,Pay Utility,254713295711 - JAMES CHEGE KAMAU,,A2
PI69JFQJ4V,06/09/2021 08:53,06/09/2021 08:53,Pay Bill from 254792976771 - DANIEL MUTHAMA NDUNDA Acc. F1,Completed,8000,,24500,TRUE,Pay Utility with OD via STK,254792976771 - DANIEL MUTHAMA NDUNDA,,F1
PI58J5NIS0,05/09/2021 21:11,05/09/2021 21:11,Pay Bill from 254790837715 - JULIUS MWASHUMBE MAGHANGA Acc. F5,Completed,8500,,16500,TRUE,Pay Utility,254790837715 - JULIUS MWASHUMBE MAGHANGA,,F5
PI50IRBLIK,05/09/2021 17:41,05/09/2021 17:41,Pay Bill from 254701330588 - EDGER WAFULA BUTALI Acc. D1,Completed,8000,,8000,TRUE,Pay Utility,254701330588 - EDGER WAFULA BUTALI,,D1
PI53IFLBRL,05/09/2021 14:11,05/09/2021 14:11,Utility Account to Organization Settlement Account,Completed,,-40000,0,TRUE,Utility Account to Organization Settlement Account,887075 - ANCIENT WELLS LTD 3,,
PI58ICKI7S,05/09/2021 13:10,05/09/2021 13:10,Pay Bill from 254717465142 - EPHANTUS IRURA Acc. c4 muriithi,Completed,8500,,40000,TRUE,Pay Utility,254717465142 - EPHANTUS IRURA,,c4
PI42HPXQRO,04/09/2021 20:49,04/09/2021 20:49,Pay Bill from 0715030019 - Omwenga Ong'era Stephen Acc. E1,Completed,15000,,31500,TRUE,Pay Utility,0715030019 - Omwenga Ong'era Stephen,,E1
PI43HHEAIR,04/09/2021 18:59,04/09/2021 18:59,Pay Bill Online from 254711877988 - PATRICK KONZI Acc. b4,Completed,8500,,16500,TRUE,Pay Bill Online,254711877988 - PATRICK KONZI,,b4
PI46HFRHRS,04/09/2021 18:40,04/09/2021 18:40,Pay Bill from 254714597495 - WAMBUA KIOKO Acc. c1,Completed,8000,,8000,TRUE,Pay Utility,254714597495 - WAMBUA KIOKO,,c1
PI44H0FRVY,04/09/2021 14:41,04/09/2021 14:41,Utility Account to Organization Settlement Account,Completed,,-8000,0,TRUE,Utility Account to Organization Settlement Account,887075 - ANCIENT WELLS LTD 3,,
PI45GOUFFP,04/09/2021 11:11,04/09/2021 11:11,Pay Bill from 254791273726 - JULLIET WINNIE OTIENO Acc. G1,Completed,8000,,8000,TRUE,Pay Utility,254791273726 - JULLIET WINNIE OTIENO,,G1
PI43GI7QN3,04/09/2021 08:58,04/09/2021 08:58,Utility Account to Organization Settlement Account,Completed,,-8000,0,TRUE,Utility Account to Organization Settlement Account,887075 - ANCIENT WELLS LTD 3,,
PI38FKAAMG,03/09/2021 15:43,03/09/2021 15:43,Pay Bill Online from 254704213191 - VALENTINE WAVINYA Acc. E3,Completed,8000,,8000,TRUE,Pay Bill Online,254704213191 - VALENTINE WAVINYA,,E3
PI34F26AP6,03/09/2021 10:02,03/09/2021 10:02,Utility Account to Organization Settlement Account,Completed,,-9500,0,TRUE,Utility Account to Organization Settlement Account,887075 - ANCIENT WELLS LTD 3,,
PI21ERT2TF,02/09/2021 22:50,02/09/2021 22:50,Merchant Pay Utility Received from 708689 - PALACE      BUTCHERY  2 Acc. CHRISTOPHER,Completed,1000,,9500,TRUE,Merchant Pay Utility via API,708689 - PALACE      BUTCHERY  2,,CHRISTOPHER
PI21E69YML,02/09/2021 17:05,02/09/2021 17:05,Pay Bill from 254728664261 - LEVIN INGATI NYONJE Acc. B5,Completed,8500,,8500,TRUE,Pay Utility,254728664261 - LEVIN INGATI NYONJE,,B5
PI21DJND85,02/09/2021 10:00,02/09/2021 10:00,Utility Account to Organization Settlement Account,Completed,,-8500,0,TRUE,Utility Account to Organization Settlement Account,887075 - ANCIENT WELLS LTD 3,,
PI25DFZUDJ,02/09/2021 08:42,02/09/2021 08:42,Pay Bill Online from 254724871526 - JOHN KAGUONGO Acc. D5 JOHN KAGUONGO,Completed,8500,,8500,TRUE,Pay Bill Online,254724871526 - JOHN KAGUONGO,,D5
PI15CDEP5V,01/09/2021 13:51,01/09/2021 13:51,Utility Account to Organization Settlement Account,Completed,,-16500,0,TRUE,Utility Account to Organization Settlement Account,887075 - ANCIENT WELLS LTD 3,,
PI10C7JWP0,01/09/2021 12:00,01/09/2021 12:00,Pay Bill Online from 254795983642 - OBED MOGAKA Acc. F6 OBED ,Completed,8500,,16500,TRUE,Pay Bill Online,254795983642 - OBED MOGAKA,,F6
PI15C3YERP,01/09/2021 10:50,01/09/2021 10:50,Pay Bill from 254722706516 - KORIR ANTHONY Acc. Anthony D 3,Completed,8000,,8000,TRUE,Pay Utility,254722706516 - KORIR ANTHONY,,Anthony
PI16BYBPT6,01/09/2021 08:53,01/09/2021 08:53,Utility Account to Organization Settlement Account,Completed,,-9500,0,TRUE,Utility Account to Organization Settlement Account,887075 - ANCIENT WELLS LTD 3,,
