Receipt No.,Completion Time,Initiation Time,Details,Transaction Status,Paid In,Withdrawn,Balance,Balance Confirmed,Reason Type,Other Party Info,Linked Transaction ID,A/C No.
QE71KTWGIL,07/05/2022 08:17,07/05/2022 08:17,Utility Account to Organization Settlement Account,Completed,,-34750,0,TRUE,Utility Account to Organization Settlement Account,887075 - ANCIENT WELLS LTD 3,,
QE61KICQSH,06/05/2022 21:25,06/05/2022 21:25,Pay Bill from 0719349205 - Christabel Gakii Munene Acc. D1,Completed,8000,,34750,TRUE,Pay Utility,0719349205 - Christabel Gakii Munene,,D1
QE68K7QZJQ,06/05/2022 19:25,06/05/2022 19:25,Pay Bill Online from 254715020357 - ELIZABETH NJERI WARARI Acc. C2,Completed,7500,,26750,TRUE,Pay Bill Online,254715020357 - ELIZABETH NJERI WARARI,,C2
QE69K0A617,06/05/2022 18:18,06/05/2022 18:18,Pay Bill from 254710248036 - Allan Kimeu Mutua Acc. F5,Completed,10750,,19250,TRUE,Pay Utility,254710248036 - Allan Kimeu Mutua,,F5
QE66JBJBTC,06/05/2022 13:04,06/05/2022 13:04,Pay Bill Online from 254720201157 - BENSON INYANJE MWAKHA Acc.  ,Completed,8500,,8500,TRUE,Pay Bill Online,254720201157 - BENSON INYANJE MWAKHA,,
QE67J2Q8Y3,06/05/2022 10:55,06/05/2022 10:55,Utility Account to Organization Settlement Account,Completed,,-49400,0,TRUE,Utility Account to Organization Settlement Account,887075 - ANCIENT WELLS LTD 3,,
QE63J2E9DV,06/05/2022 10:50,06/05/2022 10:50,Pay Bill from 0791565463 - Lilian Njeri Wakagwi Acc. F6,Completed,8500,,49400,TRUE,Pay Utility,0791565463 - Lilian Njeri Wakagwi,,F6
QE65J0KKW9,06/05/2022 10:23,06/05/2022 10:23,Pay Bill Online from 254711877988 - PATRICK KONZI Acc. b4,Completed,8500,,40900,TRUE,Pay Utility with OD Online,254711877988 - PATRICK KONZI,,b4
QE67IY158B,06/05/2022 09:45,06/05/2022 09:45,Pay Bill from 0720571944 - Ronoh   Benard Acc. D2,Completed,8000,,32400,TRUE,Pay Utility,0720571944 - Ronoh   Benard,,D2
QE57ILYK6X,05/05/2022 23:39,05/05/2022 23:39,Pay Bill from 254721539716 - OCTAVIAN MWANYALO Acc. C6,Completed,8000,,24400,TRUE,Pay Utility,254721539716 - OCTAVIAN MWANYALO,,C6
QE56ID731E,05/05/2022 20:32,05/05/2022 20:32,Pay Bill from 254706248362 - BERYL HUMA Acc. E5,Completed,8500,,16400,TRUE,Pay Utility,254706248362 - BERYL HUMA,,E5
QE51I40FJF,05/05/2022 19:04,05/05/2022 19:04,Pay Bill from 254726945691 - JAMES RAMTU Acc. B5,Completed,7900,,7900,TRUE,Pay Utility,254726945691 - JAMES RAMTU,,B5
QE50HNN12E,05/05/2022 15:59,05/05/2022 15:59,Utility Account to Organization Settlement Account,Completed,,-77000,0,TRUE,Utility Account to Organization Settlement Account,887075 - ANCIENT WELLS LTD 3,,
QE52HIE224,05/05/2022 14:45,05/05/2022 14:45,Pay Bill from 0715359113 - Alfred Waweru Mwihaki Acc. b2,Completed,10000,,77000,TRUE,Pay Utility,0715359113 - Alfred Waweru Mwihaki,,b2
QE50GUBAPI,05/05/2022 08:42,05/05/2022 08:42,Pay Bill from 254713295711 - JAMES CHEGE KAMAU Acc. A2,Completed,7500,,67000,TRUE,Pay Utility,254713295711 - JAMES CHEGE KAMAU,,A2
QE51GSVMIB,05/05/2022 08:16,05/05/2022 08:16,Pay Bill from 0799912339 - PETER KAMAU MURIU Acc. C5,Completed,17000,,59500,TRUE,Pay Utility,0799912339 - PETER KAMAU MURIU,,C5
QE52GSLK2U,05/05/2022 08:10,05/05/2022 08:10,Pay Bill Online from 254720062144 - CAROLINE AMONDI OKELO Acc. F4,Completed,11500,,42500,TRUE,Pay Bill Online,254720062144 - CAROLINE AMONDI OKELO,,F4
QE45GA8ZG5,04/05/2022 19:50,04/05/2022 19:50,Pay Bill from 254720086214 - SAMUEL WANJIKU Acc. B3,Completed,8000,,31000,TRUE,Pay Utility,254720086214 - SAMUEL WANJIKU,,B3
QE44G3HCWO,04/05/2022 18:48,04/05/2022 18:48,Pay Bill from 254717465142 - EPHANTUS IRURA Acc. c4 muriithi,Completed,8500,,23000,TRUE,Pay Utility,254717465142 - EPHANTUS IRURA,,c4
QE40FVC0MU,04/05/2022 17:22,04/05/2022 17:22,Pay Bill from 254706298810 - Morgan Mudengani Kisarago Acc. f1,Completed,9500,,14500,TRUE,Pay Utility,254706298810 - Morgan Mudengani Kisarago,,f1
QE48FU9PMC,04/05/2022 17:09,04/05/2022 17:09,Pay Bill Online from 254703176849 - ROYAL MUYA Acc. F2,Completed,5000,,5000,TRUE,Pay Bill Online,254703176849 - ROYAL MUYA,,F2
QE40F0J73G,04/05/2022 10:05,04/05/2022 10:05,Utility Account to Organization Settlement Account,Completed,,-8500,0,TRUE,Utility Account to Organization Settlement Account,887075 - ANCIENT WELLS LTD 3,,
QE38DHPUM6,03/05/2022 13:23,03/05/2022 13:23,Pay Bill Online from 254701228789 - SAMWEL GITAU Acc. D4,Completed,8500,,8500,TRUE,Pay Bill Online,254701228789 - SAMWEL GITAU,,D4
QE38D512ES,03/05/2022 10:03,03/05/2022 10:03,Utility Account to Organization Settlement Account,Completed,,-34500,0,TRUE,Utility Account to Organization Settlement Account,887075 - ANCIENT WELLS LTD 3,,
QE22CMPHFG,02/05/2022 20:49,02/05/2022 20:49,Pay Bill from 0715359113 - Alfred Waweru Mwihaki Acc. b2,Completed,10000,,34500,TRUE,Pay Utility,0715359113 - Alfred Waweru Mwihaki,,b2
QE119KY2KL,01/05/2022 10:31,01/05/2022 10:31,Pay Bill from 0715030019 - Omwenga Ong'era Stephen Acc. E1,Completed,8000,,24500,TRUE,Pay Utility,0715030019 - Omwenga Ong'era Stephen,,E1
