Receipt No.,Completion Time,Initiation Time,Details,Transaction Status,Paid In,Withdrawn,Balance,Balance Confirmed,Reason Type,Other Party Info,Linked Transaction ID,A/C No.
QCI7UOSEYH,18/03/2022 03:21,18/03/2022 03:21,Pay Bill from 254703573478 - ANTONY MAINA GICHINA Acc. Gichina A5,Completed,10000,,10000,TRUE,Pay Utility,254703573478 - ANTONY MAINA GICHINA,,Gichina
QCC0L1RK2O,12/03/2022 20:41,12/03/2022 20:41,Utility Account to Organization Settlement Account,Completed,,-40000,0,TRUE,Utility Account to Organization Settlement Account,887264 - ANCIENT WELLS LTD 2,,
QCC3KXIE67,12/03/2022 19:57,12/03/2022 19:57,Pay Bill from 254728912446 - GRACE NJERI KIMANI Acc. ancient well ltd,Completed,40000,,40000,TRUE,Pay Utility with OD via STK,254728912446 - GRACE NJERI KIMANI,,ancient
QCC1JNVLLV,12/03/2022 09:58,12/03/2022 09:58,Utility Account to Organization Settlement Account,Completed,,-11000,0,TRUE,Utility Account to Organization Settlement Account,887264 - ANCIENT WELLS LTD 2,,
QCB0J56PMI,11/03/2022 21:12,11/03/2022 21:12,Pay Bill from 254741791919 - Linet Mongina Maraga Acc. u3,Completed,5000,,11000,TRUE,Pay Utility,254741791919 - Linet Mongina Maraga,,u3
QCB9IAMETV,11/03/2022 15:19,11/03/2022 15:19,Pay Bill from 254723174583 - BRIAN ODHIAMBO OUMA Acc. B3,Completed,6000,,6000,TRUE,Pay Utility,254723174583 - BRIAN ODHIAMBO OUMA,,B3
QCB5HFKOUT,11/03/2022 06:54,11/03/2022 06:54,Utility Account to Organization Settlement Account,Completed,,-31000,0,TRUE,Utility Account to Organization Settlement Account,887264 - ANCIENT WELLS LTD 2,,
QCA1GB2FLL,10/03/2022 15:06,10/03/2022 15:06,Pay Bill from 0113698856 - Fredrick Mosoti Mounde Acc. epz mh,Completed,31000,,31000,TRUE,Pay Utility,0113698856 - Fredrick Mosoti Mounde,,epz
QC86CF7T1M,08/03/2022 15:19,08/03/2022 15:19,Utility Account to Organization Settlement Account,Completed,,-5000,0,TRUE,Utility Account to Organization Settlement Account,887264 - ANCIENT WELLS LTD 2,,
QC83C2VYNB,08/03/2022 12:22,08/03/2022 12:22,Pay Bill from 254717464496 - ELIZABETH WACEKE WANJIKU Acc. U1,Completed,5000,,5000,TRUE,Pay Utility,254717464496 - ELIZABETH WACEKE WANJIKU,,U1
QC87BQBZ45,08/03/2022 09:09,08/03/2022 09:09,Utility Account to Organization Settlement Account,Completed,,-5000,0,TRUE,Utility Account to Organization Settlement Account,887264 - ANCIENT WELLS LTD 2,,
QC709VJQ3C,07/03/2022 10:15,07/03/2022 10:15,Pay Bill from 254724795060 - OKUSIMBA ELIZABETH Acc. B7,Completed,5000,,5000,TRUE,Pay Utility,254724795060 - OKUSIMBA ELIZABETH,,B7
QC453PI1C1,04/03/2022 08:32,04/03/2022 08:32,Utility Account to Organization Settlement Account,Completed,,-18000,0,TRUE,Utility Account to Organization Settlement Account,887264 - ANCIENT WELLS LTD 2,,
QC463KX9YM,04/03/2022 06:46,04/03/2022 06:46,Pay Bill from 254705755947 - METRINE REPHAH MATETE Acc. A3,Completed,7000,,18000,TRUE,Pay Utility,254705755947 - METRINE REPHAH MATETE,,A3
QC382SYJY6,03/03/2022 18:10,03/03/2022 18:10,Pay Bill from 254706859500 - JULIA NJAMBI WAINAINA Acc. U4,Completed,5500,,11000,TRUE,Pay Utility,254706859500 - JULIA NJAMBI WAINAINA,,U4
QC302IJJ9S,03/03/2022 15:58,03/03/2022 15:58,Pay Bill from 254712614146 - SOPHIE MUENI MUVITHU Acc. Sophie Mueni Hse U6 ,Completed,5500,,5500,TRUE,Pay Utility,254712614146 - SOPHIE MUENI MUVITHU,,Sophie
QC312BOW57,03/03/2022 14:19,03/03/2022 14:19,Utility Account to Organization Settlement Account,Completed,,-33000,0,TRUE,Utility Account to Organization Settlement Account,887264 - ANCIENT WELLS LTD 2,,
QC301Z88WG,03/03/2022 11:24,03/03/2022 11:24,Pay Bill from 254718736574 - PATRICK LUMUMBA AGAN Acc. 369S,Completed,13000,,33000,TRUE,Pay Utility,254718736574 - PATRICK LUMUMBA AGAN,,369S
QC321XYS5Q,03/03/2022 11:06,03/03/2022 11:06,Pay Bill from 0115556359 - CHEPNGENO   EDITH Acc. C701,Completed,20000,,20000,TRUE,Pay Utility,0115556359 - CHEPNGENO   EDITH,,C701
QC10XA56NS,01/03/2022 15:01,01/03/2022 15:01,Utility Account to Organization Settlement Account,Completed,,-8000,0,TRUE,Utility Account to Organization Settlement Account,887264 - ANCIENT WELLS LTD 2,,
QC13WTNWV1,01/03/2022 10:57,01/03/2022 10:57,Pay Bill from 0759385844 - ROSEMARY WAMBUI GITAU Acc. B5,Completed,8000,,8000,TRUE,Pay Utility,0759385844 - ROSEMARY WAMBUI GITAU,,B5
