Receipt No.,Completion Time,Initiation Time,Details,Transaction Status,Paid In,Withdrawn,Balance,Balance Confirmed,Reason Type,Other Party Info,Linked Transaction ID,A/C No.
PG53YK90OB,05/07/2021 18:34,05/07/2021 18:34,Pay Bill from 254748354739 - Valary Bhoke Mwita Acc. G3,Completed,7000,,7000,TRUE,Pay Utility,254748354739 - Valary Bhoke Mwita,,G3
PG57YCG0Q9,05/07/2021 16:43,05/07/2021 16:43,Utility Account to Organization Settlement Account,Completed,,-33500,0,TRUE,Utility Account to Organization Settlement Account,887075 - ANCIENT WELLS LTD 3,,
PG50Y92MP8,05/07/2021 15:43,05/07/2021 15:43,Pay Bill from 0799912339 - PETER KAMAU MURIU Acc. C5,Completed,8500,,33500,TRUE,Pay Utility,0799912339 - PETER KAMAU MURIU,,C5
PG59XWIJDJ,05/07/2021 11:49,05/07/2021 11:49,Pay Bill from 254717465142 - EPHANTUS IRURA Acc. c4 muriithi,Completed,8500,,25000,TRUE,Pay Utility,254717465142 - EPHANTUS IRURA,,c4
PG44X0S3NC,04/07/2021 17:33,04/07/2021 17:33,Pay Bill from 254791273726 - JULLIET WINNIE OTIENO Acc. G1,Completed,8000,,16500,TRUE,Pay Utility,254791273726 - JULLIET WINNIE OTIENO,,G1
PG32W64L8Q,03/07/2021 22:34,03/07/2021 22:34,Pay Bill from 254728664261 - LEVIN INGATI NYONJE Acc. B5,Completed,8500,,8500,TRUE,Pay Utility,254728664261 - LEVIN INGATI NYONJE,,B5
PG39V96YIB,03/07/2021 13:25,03/07/2021 13:25,Utility Account to Organization Settlement Account,Completed,,-29000,0,TRUE,Utility Account to Organization Settlement Account,887075 - ANCIENT WELLS LTD 3,,
PG30V70VVU,03/07/2021 12:45,03/07/2021 12:45,Pay Bill from 254701330588 - EDGER WAFULA BUTALI Acc. D1,Completed,8000,,29000,TRUE,Pay Utility,254701330588 - EDGER WAFULA BUTALI,,D1
PG32V2MHUK,03/07/2021 11:22,03/07/2021 11:22,Pay Bill Online from 254711877988 - PATRICK KONZI Acc. b4,Completed,8500,,21000,TRUE,Pay Bill Online,254711877988 - PATRICK KONZI,,b4
PG36V1PRWU,03/07/2021 11:05,03/07/2021 11:05,Pay Bill from 254715122543 - francis ntwiki mukiti Acc. D4,Completed,12500,,12500,TRUE,Pay Utility,254715122543 - francis ntwiki mukiti,,D4
PG11RYCPI5,01/07/2021 09:21,01/07/2021 09:21,Utility Account to Organization Settlement Account,Completed,,-16000,0,TRUE,Utility Account to Organization Settlement Account,887075 - ANCIENT WELLS LTD 3,,
PG11RXFKQF,01/07/2021 09:00,01/07/2021 09:00,Pay Bill Online from 254795983642 - OBED MOGAKA Acc. F6 OBED ,Completed,8500,,16000,TRUE,Pay Bill Online,254795983642 - OBED MOGAKA,,F6
