Receipt No.,Completion Time,Initiation Time,Details,Transaction Status,Paid In,Withdrawn,Balance,Balance Confirmed,Reason Type,Other Party Info,Linked Transaction ID,A/C No.
PFC71Y546H,12/06/2021 11:04,12/06/2021 11:04,Utility Account to Organization Settlement Account,Completed,,-150000,0,TRUE,Utility Account to Organization Settlement Account,887264 - ANCIENT WELLS LTD 2,,
PFC91XK9TH,12/06/2021 10:52,12/06/2021 10:52,Pay Bill from 254702210491 - JOHN WAITARA Acc. ITARA GRILLS ,Completed,150000,,150000,TRUE,Pay Utility,254702210491 - JOHN WAITARA,,ITARA
PFA5YQC53F,10/06/2021 17:30,10/06/2021 17:30,Utility Account to Organization Settlement Account,Completed,,-40000,0,TRUE,Utility Account to Organization Settlement Account,887264 - ANCIENT WELLS LTD 2,,
PFA3YP8835,10/06/2021 17:12,10/06/2021 17:12,Pay Bill from 254728912446 - GRACE NJERI KIMANI Acc. ancient Wells LTD,Completed,40000,,40000,TRUE,Pay Utility,254728912446 - GRACE NJERI KIMANI,,ancient
PF92WPYY4I,09/06/2021 09:36,09/06/2021 09:36,Utility Account to Organization Settlement Account,Completed,,-11000,0,TRUE,Utility Account to Organization Settlement Account,887264 - ANCIENT WELLS LTD 2,,
PF80W80IQQ,08/06/2021 19:25,08/06/2021 19:25,Pay Bill from 254706011442 - REUBEN MURIUKI Acc. B5,Completed,6000,,11000,TRUE,Pay Utility,254706011442 - REUBEN MURIUKI,,B5
PF89V9AIX3,08/06/2021 08:32,08/06/2021 08:32,Pay Bill from 0743263203 - Patrick theuri wachira Acc. U1,Completed,5000,,5000,TRUE,Pay Utility with OD via STK,0743263203 - Patrick theuri wachira,,U1
PF52R2O9CS,05/06/2021 08:19,05/06/2021 08:19,Utility Account to Organization Settlement Account,Completed,,-5500,0,TRUE,Utility Account to Organization Settlement Account,887264 - ANCIENT WELLS LTD 2,,
PF43Q57AA5,04/06/2021 14:34,04/06/2021 14:34,Pay Bill from 254726403551 - VICTOR KIRUMA Acc. u2,Completed,5500,,5500,TRUE,Pay Utility,254726403551 - VICTOR KIRUMA,,u2
