Receipt No.,Completion Time,Initiation Time,Details,Transaction Status,Paid In,Withdrawn,Balance,Balance Confirmed,Reason Type,Other Party Info,Linked Transaction ID,A/C No.
PFA9YC791L,10/06/2021 12:52,10/06/2021 12:52,Pay Bill from 254722706516 - KORIR ANTHONY Acc. Anthony d 3 ,Completed,200,,3200,TRUE,Pay Utility,254722706516 - KORIR ANTHONY,,Anthony
PFA3YAEV7R,10/06/2021 12:14,10/06/2021 12:14,Pay Bill Online from 254707315614 - TERESAH WANJIRU KIRAGU Acc. JDI,Completed,3000,,3000,TRUE,Pay Bill Online,254707315614 - TERESAH WANJIRU KIRAGU,,JDI
PF93XBNR95,09/06/2021 17:02,09/06/2021 17:02,Utility Account to Organization Settlement Account,Completed,,-1900,0,TRUE,Utility Account to Organization Settlement Account,846783 - ANCIENT WELLS LTD 4,,
PF90X7FYUG,09/06/2021 15:41,09/06/2021 15:41,Pay Bill from 254798643998 - Judith Mwaniki Acc. kce,Completed,1000,,1900,TRUE,Pay Utility,254798643998 - Judith Mwaniki,,kce
PF96X0O4XW,09/06/2021 13:22,09/06/2021 13:22,Pay Bill from 254726337163 - HALIMA ALI HASSAN Acc. DDA,Completed,500,,900,TRUE,Pay Utility,254726337163 - HALIMA ALI HASSAN,,DDA
PF99WY03L9,09/06/2021 12:27,09/06/2021 12:27,Pay Bill from 254792976771 - DANIEL MUTHAMA NDUNDA Acc. F1,Completed,400,,400,TRUE,Pay Utility with OD via STK,254792976771 - DANIEL MUTHAMA NDUNDA,,F1
PF96WTN9J4,09/06/2021 10:55,09/06/2021 10:55,Utility Account to Organization Settlement Account,Completed,,-400,0,TRUE,Utility Account to Organization Settlement Account,846783 - ANCIENT WELLS LTD 4,,
PF90WS8KAC,09/06/2021 10:25,09/06/2021 10:25,Pay Bill from 254722578070 - SAMUEL MACHARIA Acc. v42,Completed,400,,400,TRUE,Pay Utility,254722578070 - SAMUEL MACHARIA,,v42
PF91WQUPVH,09/06/2021 09:55,09/06/2021 09:55,Utility Account to Organization Settlement Account,Completed,,-6400,0,TRUE,Utility Account to Organization Settlement Account,846783 - ANCIENT WELLS LTD 4,,
PF82W7U0HQ,08/06/2021 19:23,08/06/2021 19:23,Pay Bill from 254728364280 - EMMANUEL THUMA OYIER Acc. IDF,Completed,800,,6400,TRUE,Pay Utility,254728364280 - EMMANUEL THUMA OYIER,,IDF
PF81VTOJO9,08/06/2021 15:39,08/06/2021 15:39,Pay Bill Online from 254728687482 - KELSEN MWIRIGI MUTIGA Acc. HCE,Completed,800,,5600,TRUE,Pay Bill Online,254728687482 - KELSEN MWIRIGI MUTIGA,,HCE
PF85VS5P8X,08/06/2021 15:08,08/06/2021 15:08,FSI to Pay Bill by 714888 - B2C LOOP VIA NCBA Acc. V40 via WEB by B2C LOOP VIA NCBA\Cbainitiator,Completed,400,,4800,TRUE,FSI to Pay Bill via API,714888 - B2C LOOP VIA NCBA,,V40
PF84VK2AY2,08/06/2021 12:23,08/06/2021 12:23,Pay Bill from 0769001671 - Wilson Mutangili Wambua Acc. haf,Completed,400,,4400,TRUE,Pay Utility,0769001671 - Wilson Mutangili Wambua,,haf
PF80VAQ4TA,08/06/2021 09:06,08/06/2021 09:06,Pay Bill Online from 254727725587 - IVY MACHARIA Acc. B2,Completed,400,,4000,TRUE,Pay Bill Online,254727725587 - IVY MACHARIA,,B2
PF79V4A8JH,07/06/2021 23:38,07/06/2021 23:38,Pay Bill from 254723643548 - KEVIN OUKO Acc. FDD,Completed,1000,,3600,TRUE,Pay Utility with OD via STK,254723643548 - KEVIN OUKO,,FDD
PF77V0FUPL,07/06/2021 21:04,07/06/2021 21:04,Pay Bill from 254703108159 - JOICE OGOLLA Acc. V50,Completed,400,,2600,TRUE,Pay Utility,254703108159 - JOICE OGOLLA,,V50
PF71V03H19,07/06/2021 20:58,07/06/2021 20:58,Pay Bill from 254724655033 - SUSAN CHIMOTO Acc. KGH,Completed,800,,2200,TRUE,Pay Utility,254724655033 - SUSAN CHIMOTO,,KGH
PF70UZNG5Q,07/06/2021 20:50,07/06/2021 20:50,Pay Bill from 0792933158 - mary wamaitha maina Acc. kdh,Completed,400,,1400,TRUE,Pay Utility,0792933158 - mary wamaitha maina,,kdh
PF76UR8YSE,07/06/2021 18:56,07/06/2021 18:56,Pay Bill from 254717985596 - NICHOLAS KIPKOECH BUTIA Acc. hcf,Completed,400,,1000,TRUE,Pay Utility,254717985596 - NICHOLAS KIPKOECH BUTIA,,hcf
PF77U60JOX,07/06/2021 12:46,07/06/2021 12:46,Pay Bill Online from 254706549634 - CLINTON OMBASA Acc. FDB,Completed,600,,600,TRUE,Pay Bill Online,254706549634 - CLINTON OMBASA,,FDB
PF75U48RK1,07/06/2021 12:12,07/06/2021 12:12,Utility Account to Organization Settlement Account,Completed,,-1000,0,TRUE,Utility Account to Organization Settlement Account,846783 - ANCIENT WELLS LTD 4,,
PF76TXI60K,07/06/2021 10:00,07/06/2021 10:00,Pay Bill from 0795807227 - Lucy Ncekei Kimathi Acc. V36,Completed,400,,1000,TRUE,Pay Utility,0795807227 - Lucy Ncekei Kimathi,,V36
PF74TR9FA4,07/06/2021 07:36,07/06/2021 07:36,Pay Bill from 254791273726 - JULLIET WINNIE OTIENO Acc. G1,Completed,200,,600,TRUE,Pay Utility,254791273726 - JULLIET WINNIE OTIENO,,G1
PF76TR3WZU,07/06/2021 07:31,07/06/2021 07:31,Pay Bill Online from 254714552193 - CHRISTOPHER OCHIENG Acc. JGI,Completed,400,,400,TRUE,Pay Bill Online,254714552193 - CHRISTOPHER OCHIENG,,JGI
PF73TR0E17,07/06/2021 07:27,07/06/2021 07:27,Utility Account to Organization Settlement Account,Completed,,-35100,0,TRUE,Utility Account to Organization Settlement Account,846783 - ANCIENT WELLS LTD 4,,
PF72TPLW0A,07/06/2021 06:17,07/06/2021 06:17,Pay Bill from 254700788416 - MERCY KASILI Acc. IFE,Completed,600,,35100,TRUE,Pay Utility,254700788416 - MERCY KASILI,,IFE
PF74TOKXRG,07/06/2021 00:08,07/06/2021 00:08,Pay Bill from 254701196539 - GICHURI KARANJA Acc. Fee,Completed,600,,34500,TRUE,Pay Utility,254701196539 - GICHURI KARANJA,,Fee
