Receipt No.,Completion Time,Initiation Time,Details,Transaction Status,Paid In,Withdrawn,Balance,Balance Confirmed,Reason Type,Other Party Info,Linked Transaction ID,A/C No.
QI54GBTWKG,05/09/2022 21:58,05/09/2022 21:58,Pay Bill from 254720375006 - JACOB KANGOGO Acc. IBA,Completed,15000,,222000,TRUE,Pay Utility with OD via STK,254720375006 - JACOB KANGOGO,,IBA
QI57GAXA67,05/09/2022 21:41,05/09/2022 21:41,Pay Bill from 254719779657 - SAMUEL NJOROGE Acc. JGA,Completed,5000,,207000,TRUE,Pay Utility,254719779657 - SAMUEL NJOROGE,,JGA
QI50G8Z5RO,05/09/2022 21:10,05/09/2022 21:10,Pay Bill Online from 254715002789 - ERICK NGUGI MAINA Acc. HAG,Completed,16000,,202000,TRUE,Pay Bill Online,254715002789 - ERICK NGUGI MAINA,,HAG
QI57G89U4P,05/09/2022 21:00,05/09/2022 21:00,Pay Bill from 254725749776 - BEN KORIR Acc. IDF,Completed,11000,,186000,TRUE,Pay Utility,254725749776 - BEN KORIR,,IDF
QI56G88LOY,05/09/2022 21:00,05/09/2022 21:00,Pay Bill from 254741223822 - Rhoyce Kiptarus Boiyo Acc.  FEC,Completed,9000,,175000,TRUE,Pay Utility,254741223822 - Rhoyce Kiptarus Boiyo,,
QI58G85CDO,05/09/2022 20:59,05/09/2022 20:59,Pay Bill from 254729355933 - FELISTAH NJERI WAIRIMU Acc. IDI,Completed,15000,,166000,TRUE,Pay Utility,254729355933 - FELISTAH NJERI WAIRIMU,,IDI
QI52G7D3SK,05/09/2022 20:49,05/09/2022 20:49,Pay Bill from 254743243622 - fridah waeni muithya Acc. JEH,Completed,16000,,151000,TRUE,Pay Utility,254743243622 - fridah waeni muithya,,JEH
QI59G79GQZ,05/09/2022 20:47,05/09/2022 20:47,Pay Bill from 254723328258 - SAMUEL MAINA MURIUKI Acc. IFE,Completed,8000,,135000,TRUE,Pay Utility,254723328258 - SAMUEL MAINA MURIUKI,,IFE
QI55G6DGMH,05/09/2022 20:37,05/09/2022 20:37,Pay Bill from 254703935626 - DAVID NGARI ITA Acc. FCD,Completed,1000,,127000,TRUE,Pay Utility,254703935626 - DAVID NGARI ITA,,FCD
QI58G303CY,05/09/2022 20:02,05/09/2022 20:02,Pay Bill from 254721784820 - YVONNE OKELLO Acc. KGC ,Completed,9000,,126000,TRUE,Pay Utility,254721784820 - YVONNE OKELLO,,KGC
QI59G057OR,05/09/2022 19:35,05/09/2022 19:35,Pay Bill Online from 254718663397 - JIMMY MUNYAO NZIOKI Acc. DCB,Completed,16000,,117000,TRUE,Pay Bill Online,254718663397 - JIMMY MUNYAO NZIOKI,,DCB
QI54FSLZDW,05/09/2022 18:31,05/09/2022 18:31,Pay Bill from 254703555717 - SENGA SALIM Acc. hbb,Completed,5000,,101000,TRUE,Pay Utility,254703555717 - SENGA SALIM,,hbb
QI50FOK4A2,05/09/2022 17:52,05/09/2022 17:52,Pay Bill from 254721974995 - BERNICE MANGOKA Acc. KFK,Completed,16000,,96000,TRUE,Pay Utility,254721974995 - BERNICE MANGOKA,,KFK
QI56FM37O0,05/09/2022 17:27,05/09/2022 17:27,Pay Bill Online from 254713443185 - FRANCIS ODHIAMBO SALU Acc. HGD,Completed,2000,,80000,TRUE,Pay Utility with OD Online,254713443185 - FRANCIS ODHIAMBO SALU,,HGD
QI57FLA277,05/09/2022 17:18,05/09/2022 17:18,Pay Bill Online from 254711562428 - Lionel Mutune Muoka Acc. KDI,Completed,11000,,78000,TRUE,Pay Bill Online,254711562428 - Lionel Mutune Muoka,,KDI
QI50FKGZSG,05/09/2022 17:09,05/09/2022 17:09,Pay Bill Online from 254799946039 - LUIS OTIENO Acc. IAE,Completed,8000,,67000,TRUE,Pay Bill Online,254799946039 - LUIS OTIENO,,IAE
QI53FCF8R1,05/09/2022 15:24,05/09/2022 15:24,Pay Bill from 254728854349 - JOSEPH MUSYOKA Acc. IBG,Completed,8000,,59000,TRUE,Pay Utility with OD via STK,254728854349 - JOSEPH MUSYOKA,,IBG
QI52FBL2BM,05/09/2022 15:13,05/09/2022 15:13,Pay Bill from 254723017892 - JUDY MUTHEU Acc. ICI,Completed,16000,,51000,TRUE,Pay Utility with OD via STK,254723017892 - JUDY MUTHEU,,ICI
QI51F8FIHD,05/09/2022 14:29,05/09/2022 14:29,Pay Bill Online from 254706144834 - WILKISTER OSUMO Acc. HFB,Completed,15000,,35000,TRUE,Pay Bill Online,254706144834 - WILKISTER OSUMO,,HFB
QI56F86NXG,05/09/2022 14:26,05/09/2022 14:26,Pay Bill Online from 254726001437 - FESTUS MUNYIRI MAINA Acc. IFF,Completed,10000,,20000,TRUE,Pay Bill Online,254726001437 - FESTUS MUNYIRI MAINA,,IFF
QI55F4GCQR,05/09/2022 13:32,05/09/2022 13:32,Pay Bill from 254792187144 - HASSAN AHMED HASSAN Acc. KGI,Completed,10000,,10000,TRUE,Pay Utility,254792187144 - HASSAN AHMED HASSAN,,KGI
QI59F044KL,05/09/2022 12:26,05/09/2022 12:26,Utility Account to Organization Settlement Account,Completed,,-289500,0,TRUE,Utility Account to Organization Settlement Account,979524 - ANCIENT WELLS PROPERTY MANAGERS 2,,
QI53EXCFRR,05/09/2022 11:47,05/09/2022 11:47,Pay Bill from 254723929380 - RHODAH K WAMBUA Acc. HEF,Completed,9500,,289500,TRUE,Pay Utility,254723929380 - RHODAH K WAMBUA,,HEF
QI54ETDD0K,05/09/2022 10:52,05/09/2022 10:52,Pay Bill from 254712954563 - JOSEPH MUTISO KILONZO Acc. DAC,Completed,20000,,280000,TRUE,Pay Utility,254712954563 - JOSEPH MUTISO KILONZO,,DAC
QI54ESP6XS,05/09/2022 10:43,05/09/2022 10:43,Pay Bill from 254702216907 - FAITH MUSA Acc. KBE,Completed,10000,,260000,TRUE,Pay Utility,254702216907 - FAITH MUSA,,KBE
QI55ERBXH3,05/09/2022 10:24,05/09/2022 10:24,Pay Bill Online from 254728670882 - SHARAD EDWARD ADALA OLUM Acc. KCK,Completed,15000,,250000,TRUE,Pay Bill Online,254728670882 - SHARAD EDWARD ADALA OLUM,,KCK
QI54ER4OA0,05/09/2022 10:21,05/09/2022 10:21,Pay Bill Online from 0711117122 - Yassir Mwinyi Abdulrazaq Acc. ICE,Completed,7000,,235000,TRUE,Pay Bill Online,0711117122 - Yassir Mwinyi Abdulrazaq,,ICE
QI53EOVCFR,05/09/2022 09:49,05/09/2022 09:49,Pay Bill Online from 254702355678 - JOHN NJOROGE GICHERU Acc. ITE,Completed,10000,,228000,TRUE,Pay Bill Online,254702355678 - JOHN NJOROGE GICHERU,,ITE
QI59EO67UN,05/09/2022 09:38,05/09/2022 09:38,Pay Bill Online from 254792584569 - LUCY MWALIMO Acc. IAD,Completed,11000,,218000,TRUE,Pay Bill Online,254792584569 - LUCY MWALIMO,,IAD
QI51ENFWRF,05/09/2022 09:28,05/09/2022 09:28,Pay Bill from 0724110456 - Fredrick Otieno Onege Acc. ICH,Completed,6000,,207000,TRUE,Pay Utility,0724110456 - Fredrick Otieno Onege,,ICH
QI56ENF5O0,05/09/2022 09:27,05/09/2022 09:27,Pay Bill from 254711163049 - OYUGI OCHIENG Acc. FCB,Completed,16000,,201000,TRUE,Pay Utility,254711163049 - OYUGI OCHIENG,,FCB
QI51EN03OH,05/09/2022 09:21,05/09/2022 09:21,Pay Bill from 254722263593 - GLADYS KAMAU Acc. kcj,Completed,16000,,185000,TRUE,Pay Utility,254722263593 - GLADYS KAMAU,,kcj
QI58EIQI5W,05/09/2022 08:13,05/09/2022 08:13,Pay Bill Online from 254703180395 - JANE NYAGUTHII MWAGO Acc. IBE,Completed,8000,,169000,TRUE,Pay Bill Online,254703180395 - JANE NYAGUTHII MWAGO,,IBE
QI59ECFJA9,05/09/2022 00:30,05/09/2022 00:30,Pay Bill from 254703935626 - DAVID NGARI ITA Acc. FCD,Completed,1000,,161000,TRUE,Pay Utility with OD via STK,254703935626 - DAVID NGARI ITA,,FCD
QI40E8Q728,04/09/2022 21:56,04/09/2022 21:56,Pay Bill from 254714060203 - PATRICK MWANGOMBE MSAWUCHI Acc. KEI,Completed,12000,,160000,TRUE,Pay Utility,254714060203 - PATRICK MWANGOMBE MSAWUCHI,,KEI
QI42E5VJC6,04/09/2022 21:10,04/09/2022 21:10,Pay Bill Online from 254720451253 - JIMMY KIOGORA NKIROTE Acc. KBD,Completed,1000,,148000,TRUE,Pay Utility with OD Online,254720451253 - JIMMY KIOGORA NKIROTE,,KBD
QI40E25NAQ,04/09/2022 20:27,04/09/2022 20:27,Pay Bill from 254711123196 - JUDITH MUTUA Acc. Fea,Completed,7000,,147000,TRUE,Pay Utility,254711123196 - JUDITH MUTUA,,Fea
QI40DQJHWI,04/09/2022 18:28,04/09/2022 18:28,Pay Bill from 254728084427 - MARY NABWIRE OKELLO Acc. FDF,Completed,16000,,140000,TRUE,Pay Utility,254728084427 - MARY NABWIRE OKELLO,,FDF
QI43DJ4XL3,04/09/2022 17:07,04/09/2022 17:07,Pay Bill from 254795079977 - COLLINS BOB OMOLLO Acc. IGG,Completed,19000,,124000,TRUE,Pay Utility,254795079977 - COLLINS BOB OMOLLO,,IGG
QI48DDKKYS,04/09/2022 15:58,04/09/2022 15:58,Pay Bill from 254729583498 - PATRICK LICORO GEOFFREY Acc. FGC,Completed,19000,,105000,TRUE,Pay Utility,254729583498 - PATRICK LICORO GEOFFREY,,FGC
QI43DCGLBZ,04/09/2022 15:44,04/09/2022 15:44,Pay Bill Online from 254705846408 - JAMES OUMA Acc. HBH,Completed,16000,,86000,TRUE,Pay Bill Online,254705846408 - JAMES OUMA,,HBH
QI44D9DZU4,04/09/2022 15:04,04/09/2022 15:04,Pay Bill from 254700467755 - PAUL OKEYO Acc. ifc,Completed,8000,,70000,TRUE,Pay Utility with OD via STK,254700467755 - PAUL OKEYO,,ifc
QI43D47MZ7,04/09/2022 13:55,04/09/2022 13:55,Pay Bill Online from 254729097858 - AMBROSE ADEYA AHAWO Acc. KCF,Completed,10000,,62000,TRUE,Pay Bill Online,254729097858 - AMBROSE ADEYA AHAWO,,KCF
QI49D3SEC9,04/09/2022 13:49,04/09/2022 13:49,Pay Bill Online from 254714855708 - KIPLANGAT SITIENEI Acc. FAE,Completed,16000,,52000,TRUE,Pay Bill Online,254714855708 - KIPLANGAT SITIENEI,,FAE
QI46D28CAQ,04/09/2022 13:27,04/09/2022 13:27,Pay Bill from 254714536026 - LILIAN AWUOR ONYANGO Acc. HDC,Completed,10500,,36000,TRUE,Pay Utility,254714536026 - LILIAN AWUOR ONYANGO,,HDC
QI42D0QT8Q,04/09/2022 13:05,04/09/2022 13:05,Pay Bill Online from 254724005780 - IVY MARGARET OGOLA Acc. FFB,Completed,8500,,25500,TRUE,Pay Bill Online,254724005780 - IVY MARGARET OGOLA,,FFB
QI42CYN634,04/09/2022 12:32,04/09/2022 12:32,Pay Bill Online from 254721465713 - RHODA WAMBUI MWANGI Acc. Jfh,Completed,17000,,17000,TRUE,Pay Bill Online,254721465713 - RHODA WAMBUI MWANGI,,Jfh
QI42CXLNOO,04/09/2022 12:16,04/09/2022 12:16,Utility Account to Organization Settlement Account,Completed,,-211500,0,TRUE,Utility Account to Organization Settlement Account,979524 - ANCIENT WELLS PROPERTY MANAGERS 2,,
QI42CW27U4,04/09/2022 11:51,04/09/2022 11:51,Business Pay Bill by 488519 - NCBA  Bank M-pesa Acc. DCC via API,Completed,20000,,211500,TRUE,Business Pay Bill via API,488519 - NCBA  Bank M-pesa,,DCC
QI45CTHOSP,04/09/2022 11:08,04/09/2022 11:08,Pay Bill from 254722136450 - MARY EVERLYN Acc. JAI,Completed,20000,,191500,TRUE,Pay Utility,254722136450 - MARY EVERLYN,,JAI
QI45CR0QCX,04/09/2022 10:26,04/09/2022 10:26,Pay Bill from 0706563358 - HARRIET NYANCHAMA NYABERI Acc. FCC,Completed,9000,,171500,TRUE,Pay Utility,0706563358 - HARRIET NYANCHAMA NYABERI,,FCC
QI45CFHDHV,04/09/2022 04:48,04/09/2022 04:48,Pay Bill from 254729160700 - MICAH NDUNGI Acc. HFE,Completed,10500,,162500,TRUE,Pay Utility,254729160700 - MICAH NDUNGI,,HFE
QI39CCU77B,03/09/2022 23:18,03/09/2022 23:18,Pay Bill from 254703935626 - DAVID NGARI ITA Acc. FCD,Completed,1000,,152000,TRUE,Pay Utility,254703935626 - DAVID NGARI ITA,,FCD
QI34BXFM9O,03/09/2022 19:34,03/09/2022 19:34,Pay Bill from 254725062550 - FRANKLINE MASSAM Acc. KAF,Completed,10000,,151000,TRUE,Pay Utility,254725062550 - FRANKLINE MASSAM,,KAF
QI36BV8EY8,03/09/2022 19:16,03/09/2022 19:16,FSI to Pay Bill by 998094 - COOP TO PAYBILL Acc. JAG via WEB by COOP TO PAYBILL\COOPAYBILLTRNS,Completed,16000,,141000,TRUE,FSI to Pay Bill via API,998094 - COOP TO PAYBILL,,JAG
QI38BRMO4K,03/09/2022 18:46,03/09/2022 18:46,Pay Bill Online from 254702287781 - JECTONE OTIENO SAO Acc. IAC,Completed,9000,,125000,TRUE,Pay Bill Online,254702287781 - JECTONE OTIENO SAO,,IAC
QI37BQPK5P,03/09/2022 18:37,03/09/2022 18:37,Pay Bill Online from 254721714178 - PHANICE JEROTICH KIPTOO Acc. FBF,Completed,16000,,116000,TRUE,Pay Bill Online,254721714178 - PHANICE JEROTICH KIPTOO,,FBF
QI30BKCF5M,03/09/2022 17:34,03/09/2022 17:34,Pay Bill Online from 0722255105 - SALIM OMAR MZEE Acc. KGE,Completed,10000,,100000,TRUE,Pay Bill Online,0722255105 - SALIM OMAR MZEE,,KGE
QI32BIVIJA,03/09/2022 17:19,03/09/2022 17:19,Pay Bill from 254719747910 - KEVIN NDERITU GAKINGO Acc. IDD,Completed,11000,,90000,TRUE,Pay Utility,254719747910 - KEVIN NDERITU GAKINGO,,IDD
QI30B1O8Y2,03/09/2022 13:57,03/09/2022 13:57,Pay Bill from 254704934557 - BAKARI KITSAKA Acc. HDG,Completed,15000,,79000,TRUE,Pay Utility,254704934557 - BAKARI KITSAKA,,HDG
QI34B0IDV6,03/09/2022 13:43,03/09/2022 13:43,Pay Bill Online from 254717985596 - NICHOLAS KIPKOECH BUTIA Acc. hcf,Completed,9000,,64000,TRUE,Pay Bill Online,254717985596 - NICHOLAS KIPKOECH BUTIA,,hcf
QI37AYUL43,03/09/2022 13:23,03/09/2022 13:23,Pay Bill Online from 254798844460 - WYCLIFFE ODHIAMBO NYAGOA Acc. KAC,Completed,10000,,55000,TRUE,Pay Bill Online,254798844460 - WYCLIFFE ODHIAMBO NYAGOA,,KAC
QI35ATFXE9,03/09/2022 12:14,03/09/2022 12:14,Pay Bill Online from 254719134037 - KELVIN KITOO Acc. FAA,Completed,16000,,45000,TRUE,Pay Bill Online,254719134037 - KELVIN KITOO,,FAA
QI34AT72NS,03/09/2022 12:10,03/09/2022 12:10,Pay Bill from 0769714506 - edith      gakii Acc. DDB,Completed,16000,,29000,TRUE,Pay Utility,0769714506 - edith      gakii,,DDB
QI31ASFX19,03/09/2022 12:00,03/09/2022 12:00,Pay Bill from 254715208293 - METHOD AMOLO Acc. Kiosk,Completed,6000,,13000,TRUE,Pay Utility,254715208293 - METHOD AMOLO,,Kiosk
QI35AS1RN1,03/09/2022 11:55,03/09/2022 11:55,Pay Bill Online from 254710202776 - KELVIN KARIMI MACHARIA Acc. FAD,Completed,7000,,7000,TRUE,Pay Bill Online,254710202776 - KELVIN KARIMI MACHARIA,,FAD
QI33ARILE3,03/09/2022 11:48,03/09/2022 11:48,Utility Account to Organization Settlement Account,Completed,,-254500,0,TRUE,Utility Account to Organization Settlement Account,979524 - ANCIENT WELLS PROPERTY MANAGERS 2,,
QI30AN9HTC,03/09/2022 10:51,03/09/2022 10:51,Pay Bill Online from 254723411873 - FREDRICK CHERUIYOT Acc. Jbf,Completed,8000,,254500,TRUE,Pay Bill Online,254723411873 - FREDRICK CHERUIYOT,,Jbf
QI38AMJX36,03/09/2022 10:41,03/09/2022 10:41,Pay Bill from 254719398942 - NORAH WAYUA MUNYAO Acc. KDA,Completed,16000,,246500,TRUE,Pay Utility,254719398942 - NORAH WAYUA MUNYAO,,KDA
QI33AK5ZIP,03/09/2022 10:07,03/09/2022 10:07,Pay Bill Online from 254708300413 - ROBINSON AYAKO Acc. KEH,Completed,10000,,230500,TRUE,Pay Bill Online,254708300413 - ROBINSON AYAKO,,KEH
QI36AELSVM,03/09/2022 08:42,03/09/2022 08:42,Pay Bill from 254724477912 - SAMUEL MURIMI Acc. HCD,Completed,10000,,220500,TRUE,Pay Utility,254724477912 - SAMUEL MURIMI,,HCD
QI39AE3U07,03/09/2022 08:33,03/09/2022 08:33,Pay Bill from 254711650034 - Lucky Ngoya Acc. JAA,Completed,20000,,210500,TRUE,Pay Utility,254711650034 - Lucky Ngoya,,JAA
QI30AC7WDQ,03/09/2022 07:59,03/09/2022 07:59,Pay Bill Online from 254722258756 - DAVID KEMBOI Acc. HDA,Completed,18000,,190500,TRUE,Pay Bill Online,254722258756 - DAVID KEMBOI,,HDA
QI37AA4PD5,03/09/2022 07:10,03/09/2022 07:10,Pay Bill Online from 254715892656 - DENNIS MUSYOKA MUOKI Acc. kfa,Completed,5000,,172500,TRUE,Pay Bill Online,254715892656 - DENNIS MUSYOKA MUOKI,,kfa
QI34A7HVDQ,03/09/2022 02:13,03/09/2022 02:13,Pay Bill Online from 254720451253 - JIMMY KIOGORA NKIROTE Acc. KBD,Completed,1000,,167500,TRUE,Pay Utility with OD Online,254720451253 - JIMMY KIOGORA NKIROTE,,KBD
QI23A5KTSL,02/09/2022 23:19,02/09/2022 23:19,Pay Bill Online from 254718513411 - Michelle mwangi Acc. HAD,Completed,10000,,166500,TRUE,Pay Bill Online,254718513411 - Michelle mwangi,,HAD
QI21A3IWQH,02/09/2022 22:14,02/09/2022 22:14,Pay Bill Online from 254715892656 - DENNIS MUSYOKA MUOKI Acc. kfa,Completed,7000,,156500,TRUE,Pay Bill Online,254715892656 - DENNIS MUSYOKA MUOKI,,kfa
QI21A24AZZ,02/09/2022 21:46,02/09/2022 21:46,Pay Bill from 0748059595 - Rashid NASSIR Khamis Acc. DDA,Completed,17000,,149500,TRUE,Pay Utility,0748059595 - Rashid NASSIR Khamis,,DDA
QI24A1WX7Q,02/09/2022 21:42,02/09/2022 21:42,Pay Bill from 254715865256 - RABECCA NABEA Acc. JDG,Completed,10000,,132500,TRUE,Pay Utility with OD via STK,254715865256 - RABECCA NABEA,,JDG
QI279VLHCH,02/09/2022 20:21,02/09/2022 20:21,Pay Bill from 254720814822 - JAMES OTIENO OPAR Acc. Jgj,Completed,5000,,122500,TRUE,Pay Utility,254720814822 - JAMES OTIENO OPAR,,Jgj
QI239OGH6B,02/09/2022 19:17,02/09/2022 19:17,Pay Bill Online from 254722728975 - CURTIS MRIGA OMIDO Acc. IAH,Completed,16000,,117500,TRUE,Pay Bill Online,254722728975 - CURTIS MRIGA OMIDO,,IAH
QI289NRYOQ,02/09/2022 19:11,02/09/2022 19:11,Pay Bill Online from 254714710698 - TABITHA MULEE KYALO Acc. IFD,Completed,11500,,101500,TRUE,Pay Bill Online,254714710698 - TABITHA MULEE KYALO,,IFD
QI299MGUOD,02/09/2022 19:01,02/09/2022 19:01,Pay Bill from 254710239100 - PHILOMENA WOKI MUTHAMA Acc. KDK,Completed,16000,,90000,TRUE,Pay Utility,254710239100 - PHILOMENA WOKI MUTHAMA,,KDK
QI269FONBE,02/09/2022 18:01,02/09/2022 18:01,Pay Bill from 254716702294 - DANIEL MULATI Acc. KBB,Completed,10000,,74000,TRUE,Pay Utility,254716702294 - DANIEL MULATI,,KBB
QI299950DD,02/09/2022 16:53,02/09/2022 16:53,Pay Bill from 254720550403 - GRACE WANGONDU Acc. jfi,Completed,20000,,64000,TRUE,Pay Utility,254720550403 - GRACE WANGONDU,,jfi
QI2796W7EJ,02/09/2022 16:27,02/09/2022 16:27,Pay Bill Online from 254706898046 - STACY AKETCH OCHUKA Acc. KGK,Completed,16000,,44000,TRUE,Pay Bill Online,254706898046 - STACY AKETCH OCHUKA,,KGK
QI288Z1WXE,02/09/2022 14:47,02/09/2022 14:47,Pay Bill from 254716881682 - JUSTINE FAYUMA OKWEMBA Acc. HAA,Completed,17000,,28000,TRUE,Pay Utility,254716881682 - JUSTINE FAYUMA OKWEMBA,,HAA
QI218X3EUD,02/09/2022 14:22,02/09/2022 14:22,Pay Bill from 254722444622 - CHARITY KAGWAINI Acc. ffd,Completed,11000,,11000,TRUE,Pay Utility,254722444622 - CHARITY KAGWAINI,,ffd
QI218UQFJD,02/09/2022 13:51,02/09/2022 13:51,Utility Account to Organization Settlement Account,Completed,,-301500,0,TRUE,Utility Account to Organization Settlement Account,979524 - ANCIENT WELLS PROPERTY MANAGERS 2,,
QI208UE9JU,02/09/2022 13:46,02/09/2022 13:46,Pay Bill from 254724852503 - GEOFREY YEGO Acc. JFF,Completed,10000,,301500,TRUE,Pay Utility,254724852503 - GEOFREY YEGO,,JFF
QI248KR4NW,02/09/2022 11:34,02/09/2022 11:34,Pay Bill from 0711769778 - PROTASIA BONIPHACE MANOSA Acc. IBB,Completed,15000,,291500,TRUE,Pay Utility,0711769778 - PROTASIA BONIPHACE MANOSA,,IBB
QI288I9C2E,02/09/2022 10:59,02/09/2022 10:59,Pay Bill from 254710239100 - PHILOMENA WOKI MUTHAMA Acc. KDK,Completed,1000,,276500,TRUE,Pay Utility,254710239100 - PHILOMENA WOKI MUTHAMA,,KDK
QI288BOAI2,02/09/2022 09:21,02/09/2022 09:21,Pay Bill from 254721780448 - EVERLYNE MIDEVA CHOGO Acc. JCA ,Completed,20000,,275500,TRUE,Pay Utility,254721780448 - EVERLYNE MIDEVA CHOGO,,JCA
QI2988Q0W5,02/09/2022 08:34,02/09/2022 08:34,Pay Bill Online from 0796121714 - janet   mwikali Acc. KBC,Completed,10000,,255500,TRUE,Pay Bill Online,0796121714 - janet   mwikali,,KBC
QI10808S4M,01/09/2022 23:54,01/09/2022 23:54,Pay Bill from 254703935626 - DAVID NGARI ITA Acc. FCD,Completed,1000,,245500,TRUE,Pay Utility,254703935626 - DAVID NGARI ITA,,FCD
QI177ZVSLF,01/09/2022 23:32,01/09/2022 23:32,Pay Bill from 0114765287 - JUDELEEN SHILOBELE AHINDUKHA Acc. IEA,Completed,13000,,244500,TRUE,Pay Utility,0114765287 - JUDELEEN SHILOBELE AHINDUKHA,,IEA
QI147YXG0O,01/09/2022 22:49,01/09/2022 22:49,Pay Bill Online from 254721417560 - ANDREW SANDE Acc. JBJ,Completed,16000,,231500,TRUE,Pay Bill Online,254721417560 - ANDREW SANDE,,JBJ
QI137Q4LOL,01/09/2022 20:27,01/09/2022 20:27,Pay Bill from 0717216114 - Felix Njeru Mugambi Acc. kdf,Completed,10000,,215500,TRUE,Pay Utility,0717216114 - Felix Njeru Mugambi,,kdf
QI177NPGKB,01/09/2022 20:04,01/09/2022 20:04,Pay Bill Online from 254729796719 - JACINTA WANJIKU NJERI Acc. FFF,Completed,17000,,205500,TRUE,Pay Bill Online,254729796719 - JACINTA WANJIKU NJERI,,FFF
QI177NCSYD,01/09/2022 20:01,01/09/2022 20:01,Pay Bill from 254726651764 - NICHOLAS MWANZIA Acc. HBE,Completed,10500,,188500,TRUE,Pay Utility,254726651764 - NICHOLAS MWANZIA,,HBE
QI167H6C8G,01/09/2022 19:08,01/09/2022 19:08,Pay Bill Online from 254724587401 - RAPHAEL IRUNGU WAIHURA Acc. KGG,Completed,10000,,178000,TRUE,Pay Bill Online,254724587401 - RAPHAEL IRUNGU WAIHURA,,KGG
QI167G7BG4,01/09/2022 19:00,01/09/2022 19:00,Business Pay Bill by 488519 - NCBA  Bank M-pesa Acc. ICC via API,Completed,9000,,168000,TRUE,Business Pay Bill via API,488519 - NCBA  Bank M-pesa,,ICC
QI197CZ8F7,01/09/2022 18:33,01/09/2022 18:33,Pay Bill from 254796848496 - IVY WITABA Acc. JBA,Completed,15000,,159000,TRUE,Pay Utility,254796848496 - IVY WITABA,,JBA
QI137992MT,01/09/2022 17:57,01/09/2022 17:57,Pay Bill Online from 254700187806 - WINNIE OLIVIA AKOTH Acc. jec,Completed,10000,,144000,TRUE,Pay Bill Online,254700187806 - WINNIE OLIVIA AKOTH,,jec
QI1673MBFI,01/09/2022 16:55,01/09/2022 16:55,Pay Bill Online from 254725218904 - SALOME MUTHONI MWANGI Acc. KFJ,Completed,15000,,134000,TRUE,Pay Bill Online,254725218904 - SALOME MUTHONI MWANGI,,KFJ
QI106VJ6AI,01/09/2022 15:10,01/09/2022 15:10,Pay Bill Online from 254716579300 - BRIAN KIPKOECH RONO Acc. HEH,Completed,16000,,119000,TRUE,Pay Utility with OD Online,254716579300 - BRIAN KIPKOECH RONO,,HEH
QI196PVLM9,01/09/2022 13:52,01/09/2022 13:52,Pay Bill from 254741573910 - VINCENT ODUOR OLIENG Acc. HBC,Completed,10000,,103000,TRUE,Pay Utility,254741573910 - VINCENT ODUOR OLIENG,,HBC
QI186K7212,01/09/2022 12:35,01/09/2022 12:35,Pay Bill Online from 254795510441 - LEWIS MUEMA Acc. KEB,Completed,16000,,93000,TRUE,Pay Bill Online,254795510441 - LEWIS MUEMA,,KEB
QI116INMTD,01/09/2022 12:13,01/09/2022 12:13,Pay Bill from 254717726012 - WINFRED MUENI PETER Acc. IDA,Completed,16000,,77000,TRUE,Pay Utility,254717726012 - WINFRED MUENI PETER,,IDA
QI156DCZIL,01/09/2022 10:56,01/09/2022 10:56,Pay Bill Online from 254706549634 - CLINTON OMBASA Acc. FDB,Completed,10000,,61000,TRUE,Pay Bill Online,254706549634 - CLINTON OMBASA,,FDB
QI116A1CWP,01/09/2022 10:07,01/09/2022 10:07,Pay Bill Online from 254720696119 - DUNCAN OMONDI OKETCH Acc. IAG,Completed,9000,,51000,TRUE,Pay Bill Online,254720696119 - DUNCAN OMONDI OKETCH,,IAG
QI1369MT4D,01/09/2022 10:01,01/09/2022 10:01,Pay Bill Online from 254720407659 - FRANCIS CHUMO Acc. KDG,Completed,10000,,42000,TRUE,Pay Bill Online,254720407659 - FRANCIS CHUMO,,KDG
QI1768NRT9,01/09/2022 09:46,01/09/2022 09:46,Pay Bill Online from 254728093389 - MOHAMED MUSA ALASOW Acc. KED,Completed,12000,,32000,TRUE,Pay Bill Online,254728093389 - MOHAMED MUSA ALASOW,,KED
QI166732TO,01/09/2022 09:22,01/09/2022 09:22,Pay Bill Online from 0758506934 - Edgar Maxwel Wanguba Acc. IFG,Completed,5000,,20000,TRUE,Pay Bill Online,0758506934 - Edgar Maxwel Wanguba,,IFG
QI1466TEV8,01/09/2022 09:17,01/09/2022 09:17,Pay Bill from 254720739274 - GODFREY ODHIAMBO OYUGI Acc. kae,Completed,5000,,15000,TRUE,Pay Utility,254720739274 - GODFREY ODHIAMBO OYUGI,,kae
QI126341Z8,01/09/2022 08:16,01/09/2022 08:16,Utility Account to Organization Settlement Account,Completed,,-389550,10000,TRUE,Utility Account to Organization Settlement Account,979524 - ANCIENT WELLS PROPERTY MANAGERS 2,,
QI12634DZG,01/09/2022 08:16,01/09/2022 08:16,Pay Bill Online from 254706158280 - patience mutheu mbevi Acc. KFC,Completed,10000,,399550,TRUE,Pay Bill Online,254706158280 - patience mutheu mbevi,,KFC
QHV95K9KY1,31/08/2022 20:16,31/08/2022 20:16,Pay Bill from 254703935626 - DAVID NGARI ITA Acc. FCD,Completed,3000,,389550,TRUE,Pay Utility,254703935626 - DAVID NGARI ITA,,FCD
QHV15IGTB7,31/08/2022 19:59,31/08/2022 19:59,Pay Bill from 254702152790 - Michelle Ndunge Kyalo Acc. IDE,Completed,8000,,386550,TRUE,Pay Utility,254702152790 - Michelle Ndunge Kyalo,,IDE
QHV05AL0PY,31/08/2022 18:53,31/08/2022 18:53,Pay Bill Online from 254745661722 - MUHAMEDMALIK GAAL Acc. DEC,Completed,10000,,378550,TRUE,Pay Bill Online,254745661722 - MUHAMEDMALIK GAAL,,DEC
QHV753EGNL,31/08/2022 17:47,31/08/2022 17:47,Pay Bill Online from 254716784364 - Wendy Kemunto Nyandiko Acc. ffc,Completed,9000,,368550,TRUE,Pay Bill Online,254716784364 - Wendy Kemunto Nyandiko,,ffc
QHV64W1C52,31/08/2022 16:25,31/08/2022 16:25,Pay Bill from 254710110273 - AGNES NTOITI Acc. JBB,Completed,14550,,359550,TRUE,Pay Utility with OD via STK,254710110273 - AGNES NTOITI,,JBB
QHV34VAL9D,31/08/2022 16:15,31/08/2022 16:15,Pay Bill Online from 254707370896 - OKECH BRIAN BRIAN Acc. FFA,Completed,15000,,345000,TRUE,Pay Bill Online,254707370896 - OKECH BRIAN BRIAN,,FFA
QHV84URUJI,31/08/2022 16:08,31/08/2022 16:08,Pay Bill Online from 254715764212 - BANCE ISHEMINYE Acc. JFE,Completed,2000,,330000,TRUE,Pay Bill Online,254715764212 - BANCE ISHEMINYE,,JFE
QHV14TIKCN,31/08/2022 15:52,31/08/2022 15:52,Pay Bill from 254725771056 - CHARLES MURAGURI Acc. FCE,Completed,15000,,328000,TRUE,Pay Utility,254725771056 - CHARLES MURAGURI,,FCE
QHV64QUYXO,31/08/2022 15:16,31/08/2022 15:16,Pay Bill from 254798643998 - Judith Mwaniki Acc. kce,Completed,10000,,313000,TRUE,Pay Utility,254798643998 - Judith Mwaniki,,kce
QHV14LUTQL,31/08/2022 14:06,31/08/2022 14:06,Pay Bill from 254723389177 - NELSON MOI Acc. ibf,Completed,8000,,303000,TRUE,Pay Utility,254723389177 - NELSON MOI,,ibf
QHV14K5LIN,31/08/2022 13:43,31/08/2022 13:43,Pay Bill from 254708570729 - MARY OGOLLA Acc. house no.KAD,Completed,12000,,295000,TRUE,Pay Utility,254708570729 - MARY OGOLLA,,house
QHV34FQ3V9,31/08/2022 12:42,31/08/2022 12:42,Pay Bill Online from 254716315144 - PETER MUNYIRI WAROTERE Acc. FBB,Completed,16000,,283000,TRUE,Pay Bill Online,254716315144 - PETER MUNYIRI WAROTERE,,FBB
QHV04DXEJC,31/08/2022 12:16,31/08/2022 12:16,Pay Bill Online from 254723394064 - ANDREW LAGAT Acc. HBG,Completed,33000,,267000,TRUE,Pay Bill Online,254723394064 - ANDREW LAGAT,,HBG
QHV44BGPRQ,31/08/2022 11:39,31/08/2022 11:39,Pay Bill from 254720814822 - JAMES OTIENO OPAR Acc. Jgj,Completed,500,,234000,TRUE,Pay Utility,254720814822 - JAMES OTIENO OPAR,,Jgj
QHV048CTZ2,31/08/2022 10:53,31/08/2022 10:53,Pay Bill Online from 254717809935 - LYDIAH WERU Acc. IEF,Completed,11000,,233500,TRUE,Pay Bill Online,254717809935 - LYDIAH WERU,,IEF
QHV645B1YG,31/08/2022 10:07,31/08/2022 10:07,Pay Bill from 254715256302 - RUTH N NDUMA Acc. IGH ,Completed,15000,,222500,TRUE,Pay Utility,254715256302 - RUTH N NDUMA,,IGH
QHV943XPZ9,31/08/2022 09:46,31/08/2022 09:46,Pay Bill from 254700811449 - JOHN MULIMA ENANE Acc. HCE,Completed,10500,,207500,TRUE,Pay Utility,254700811449 - JOHN MULIMA ENANE,,HCE
QHV040VTHO,31/08/2022 08:56,31/08/2022 08:56,Pay Bill Online from 254742911013 - HANEST AMIMO Acc. IEG,Completed,8000,,197000,TRUE,Pay Bill Online,254742911013 - HANEST AMIMO,,IEG
QHV73ZEUB9,31/08/2022 08:31,31/08/2022 08:31,Pay Bill from 254717438676 - SHIHAB THIIRU Acc. IEI,Completed,15000,,189000,TRUE,Pay Utility with OD via STK,254717438676 - SHIHAB THIIRU,,IEI
QHU83QFCU2,30/08/2022 22:34,30/08/2022 22:34,Pay Bill from 0741475375 - Jane   Jebichii Acc. fed,Completed,12000,,174000,TRUE,Pay Utility,0741475375 - Jane   Jebichii,,fed
QHU73IPBJL,30/08/2022 20:28,30/08/2022 20:28,Pay Bill Online from 254706784429 - ROSE JEPKOECH RUTTO Acc. IFI,Completed,15000,,162000,TRUE,Pay Bill Online,254706784429 - ROSE JEPKOECH RUTTO,,IFI
QHU62UY7Z8,30/08/2022 16:30,30/08/2022 16:30,Merchant Pay Utility Received from 7245661 -  OCHIENG CHEMIST  Acc. HFD,Completed,1000,,147000,TRUE,Merchant Pay Utility via API,7245661 -  OCHIENG CHEMIST ,,HFD
QHU72K8ZGL,30/08/2022 13:57,30/08/2022 13:57,Pay Bill Online from 254724005780 - IVY MARGARET OGOLA Acc. FFB,Completed,42000,,146000,TRUE,Pay Bill Online,254724005780 - IVY MARGARET OGOLA,,FFB
QHU62CKJVW,30/08/2022 12:06,30/08/2022 12:06,Pay Bill Online from 254719317219 - PHILIP MBOYA Acc. JDH,Completed,16000,,104000,TRUE,Pay Utility with OD Online,254719317219 - PHILIP MBOYA,,JDH
QHU127GRPT,30/08/2022 10:47,30/08/2022 10:47,Pay Bill Online from 254726593769 - BONFACE BWINA Acc. DEB,Completed,16000,,88000,TRUE,Pay Bill Online,254726593769 - BONFACE BWINA,,DEB
QHU125EFJV,30/08/2022 10:15,30/08/2022 10:15,Pay Bill from 254710635630 - DONNA JESSICA OWANO Acc. KCC,Completed,8000,,72000,TRUE,Pay Utility,254710635630 - DONNA JESSICA OWANO,,KCC
QHU61XK86I,30/08/2022 08:02,30/08/2022 08:02,Pay Bill from 254723954911 - JAMES KILAVI Acc. ICG,Completed,9500,,64000,TRUE,Pay Utility,254723954911 - JAMES KILAVI,,ICG
QHT91MLGPT,29/08/2022 21:19,29/08/2022 21:19,Pay Bill from 254703935626 - DAVID NGARI ITA Acc. FCD,Completed,1000,,54500,TRUE,Pay Utility with OD via STK,254703935626 - DAVID NGARI ITA,,FCD
QHT21DIVPO,29/08/2022 19:37,29/08/2022 19:37,Pay Bill Online from 254700379039 - MARTIN KIMANI Acc. KCI,Completed,12000,,53500,TRUE,Pay Bill Online,254700379039 - MARTIN KIMANI,,KCI
QHT918PX9N,29/08/2022 18:55,29/08/2022 18:55,Pay Bill Online from 254722917617 - MOSES BARBOI Acc. KAI,Completed,12000,,41500,TRUE,Pay Bill Online,254722917617 - MOSES BARBOI,,KAI
QHT717XKBF,29/08/2022 18:49,29/08/2022 18:49,Pay Bill from 254710357391 - CHEPKOECH VALENTINE Acc. KAH,Completed,20000,,29500,TRUE,Pay Utility,254710357391 - CHEPKOECH VALENTINE,,KAH
QHT6ZWF2LG,29/08/2022 16:46,29/08/2022 16:46,Pay Bill from 0745472241 - Tonny Nyachieo Onsinyo Acc. icd,Completed,9500,,9500,TRUE,Pay Utility,0745472241 - Tonny Nyachieo Onsinyo,,icd
QHT8ZUSNO8,29/08/2022 16:26,29/08/2022 16:26,Utility Account to Organization Settlement Account,Completed,,-508400,0,TRUE,Utility Account to Organization Settlement Account,979524 - ANCIENT WELLS PROPERTY MANAGERS 2,,
QHT4ZID5D0,29/08/2022 13:33,29/08/2022 13:33,Pay Bill Online from 254725385966 - JOSEPH MUYA MARUA Acc. KEE,Completed,10000,,508400,TRUE,Pay Bill Online,254725385966 - JOSEPH MUYA MARUA,,KEE
QHT7ZCZKGJ,29/08/2022 12:17,29/08/2022 12:17,Pay Bill Online from 0711117122 - Yassir Mwinyi Abdulrazaq Acc. ICE,Completed,1000,,498400,TRUE,Pay Bill Online,0711117122 - Yassir Mwinyi Abdulrazaq,,ICE
QHT8Z5DBLI,29/08/2022 10:23,29/08/2022 10:23,Pay Bill from 254700290755 - MERCY GOGA Acc. FDD,Completed,5500,,497400,TRUE,Pay Utility,254700290755 - MERCY GOGA,,FDD
QHT9Z54627,29/08/2022 10:19,29/08/2022 10:19,Pay Bill Online from 254707726441 - JOHN OLOO NYAULA Acc. IEH,Completed,15000,,491900,TRUE,Pay Utility with OD Online,254707726441 - JOHN OLOO NYAULA,,IEH
QHT9YVUGEJ,29/08/2022 07:38,29/08/2022 07:38,Pay Bill Online from 254725381062 - VICTOR MAITHYA Acc. HEG,Completed,3000,,476900,TRUE,Pay Bill Online,254725381062 - VICTOR MAITHYA,,HEG
QHS8YRAN72,28/08/2022 23:48,28/08/2022 23:48,Pay Bill Online from 254113678329 - LESLIE NAINI KOIKAI Acc. IBD,Completed,11000,,473900,TRUE,Pay Bill Online,254113678329 - LESLIE NAINI KOIKAI,,IBD
QHS5YH8V0F,28/08/2022 20:05,28/08/2022 20:05,Pay Bill from 254703935626 - DAVID NGARI ITA Acc. FCD,Completed,1000,,462900,TRUE,Pay Utility,254703935626 - DAVID NGARI ITA,,FCD
QHS5Y41FW9,28/08/2022 17:46,28/08/2022 17:46,FSI to Pay Bill by 998094 - COOP TO PAYBILL Acc. Hea via WEB by COOP TO PAYBILL\COOPAYBILLTRNS,Completed,16000,,461900,TRUE,FSI to Pay Bill via API,998094 - COOP TO PAYBILL,,Hea
QHR8WQSEVM,27/08/2022 21:04,27/08/2022 21:04,Pay Bill from 254703935626 - DAVID NGARI ITA Acc. FCD,Completed,1000,,445900,TRUE,Pay Utility,254703935626 - DAVID NGARI ITA,,FCD
QHR0WFVB38,27/08/2022 19:10,27/08/2022 19:10,Pay Bill Online from 254725248080 - DENNIS KIPROTICH Acc. HDH,Completed,16000,,444900,TRUE,Pay Bill Online,254725248080 - DENNIS KIPROTICH,,HDH
QHR3VWM995,27/08/2022 15:36,27/08/2022 15:36,Pay Bill from 0722531422 - ANTHONY ITIMU MAINA Acc. JBD,Completed,7000,,428900,TRUE,Pay Utility,0722531422 - ANTHONY ITIMU MAINA,,JBD
QHR1VK9F65,27/08/2022 12:56,27/08/2022 12:56,Pay Bill from 254728888511 - HAMISI MIRITI Acc. KAK,Completed,16000,,421900,TRUE,Pay Utility,254728888511 - HAMISI MIRITI,,KAK
QHR3VGYW9V,27/08/2022 12:10,27/08/2022 12:10,Pay Bill from 254729557859 - AUDREY KASINDAHA KASINDAHA Acc. KFB,Completed,16000,,405900,TRUE,Pay Utility,254729557859 - AUDREY KASINDAHA KASINDAHA,,KFB
QHR6VGCO9O,27/08/2022 12:01,27/08/2022 12:01,Pay Bill from 254723341864 - WILLIAM OSIEL WACHUDI Acc. DED,Completed,20000,,389900,TRUE,Pay Utility,254723341864 - WILLIAM OSIEL WACHUDI,,DED
QHR6VCD7GM,27/08/2022 11:03,27/08/2022 11:03,Pay Bill from 254724201046 - GIDEON NDOLO Acc. KFH,Completed,10000,,369900,TRUE,Pay Utility,254724201046 - GIDEON NDOLO,,KFH
QHR1V9VHC1,27/08/2022 10:26,27/08/2022 10:26,Pay Bill Online from 254720451253 - JIMMY KIOGORA NKIROTE Acc. KBD,Completed,500,,359900,TRUE,Pay Utility with OD Online,254720451253 - JIMMY KIOGORA NKIROTE,,KBD
QHR8V4K0EE,27/08/2022 08:58,27/08/2022 08:58,Merchant Pay Utility Received from 7245661 -  OCHIENG CHEMIST  Acc. HFD,Completed,1000,,359400,TRUE,Merchant Pay Utility via API,7245661 -  OCHIENG CHEMIST ,,HFD
QHR2V44L0W,27/08/2022 08:51,27/08/2022 08:51,Pay Bill from 254720814822 - JAMES OTIENO OPAR Acc. Jgj,Completed,1500,,358400,TRUE,Pay Utility with OD via STK,254720814822 - JAMES OTIENO OPAR,,Jgj
QHR4UW6GAK,27/08/2022 00:25,27/08/2022 00:25,Pay Bill from 254719160860 - CHRISPINUS MUSIKO ODHIAMBO Acc. DFD,Completed,20000,,356900,TRUE,Pay Utility,254719160860 - CHRISPINUS MUSIKO ODHIAMBO,,DFD
QHQ4UVQW3M,26/08/2022 23:55,26/08/2022 23:55,Pay Bill Online from 254705951407 - CAROLINE WAITHIRA KAMAU Acc. IDH,Completed,30000,,336900,TRUE,Pay Bill Online,254705951407 - CAROLINE WAITHIRA KAMAU,,IDH
QHQ5UPTO11,26/08/2022 21:14,26/08/2022 21:14,Pay Bill from 254726928933 - JOSHUA NDUNDA NZIOKA Acc. KAJ,Completed,4000,,306900,TRUE,Pay Utility,254726928933 - JOSHUA NDUNDA NZIOKA,,KAJ
QHQ8UN8VR4,26/08/2022 20:40,26/08/2022 20:40,Pay Bill from 0718838251 - MARK KINYUA MAINA Acc. kfg,Completed,10000,,302900,TRUE,Pay Utility,0718838251 - MARK KINYUA MAINA,,kfg
QHQ2UBLRGM,26/08/2022 18:49,26/08/2022 18:49,Pay Bill Online from 254728364280 - EMMANUEL THUMA OYIER Acc. IBI,Completed,16000,,292900,TRUE,Pay Bill Online,254728364280 - EMMANUEL THUMA OYIER,,IBI
QHQ0U7MUYW,26/08/2022 18:12,26/08/2022 18:12,Pay Bill from 254743716845 - Winfred Mwikali Nyamai Acc. FEF,Completed,17000,,276900,TRUE,Pay Utility,254743716845 - Winfred Mwikali Nyamai,,FEF
QHQ9TZ8BBP,26/08/2022 16:40,26/08/2022 16:40,Pay Bill from 254726599835 - LAWRENCE MURIITHI Acc. KDJ,Completed,16000,,259900,TRUE,Pay Utility,254726599835 - LAWRENCE MURIITHI,,KDJ
QHQ8TKI4XY,26/08/2022 13:18,26/08/2022 13:18,Pay Bill from 254708079935 - JACKLINE WANJIKO NAMBOSO Acc. JDA,Completed,29000,,243900,TRUE,Pay Utility,254708079935 - JACKLINE WANJIKO NAMBOSO,,JDA
QHQ4TI2ARS,26/08/2022 12:42,26/08/2022 12:42,Pay Bill from 254722514052 - JOSEPH NDIRANGU Acc. JCF,Completed,5000,,214900,TRUE,Pay Utility,254722514052 - JOSEPH NDIRANGU,,JCF
QHQ4THU4KE,26/08/2022 12:39,26/08/2022 12:39,Business Pay Bill by 488519 - NCBA  Bank M-pesa Acc. JBC via API,Completed,6000,,209900,TRUE,Business Pay Bill via API,488519 - NCBA  Bank M-pesa,,JBC
QHQ7TD6UZ9,26/08/2022 11:29,26/08/2022 11:29,Pay Bill from 0745472241 - Tonny Nyachieo Onsinyo Acc. I DC,Completed,10500,,203900,TRUE,Pay Utility,0745472241 - Tonny Nyachieo Onsinyo,,I
QHQ4TCD5D2,26/08/2022 11:17,26/08/2022 11:17,Pay Bill Online from 254728897908 - Teddy Allan Onyango Acc. DDD,Completed,15900,,193400,TRUE,Pay Bill Online,254728897908 - Teddy Allan Onyango,,DDD
QHQ1TBNBST,26/08/2022 11:06,26/08/2022 11:06,Pay Bill Online from 254717463608 - DANIEL MUNIU MUGURE Acc. HGE,Completed,10000,,177500,TRUE,Pay Bill Online,254717463608 - DANIEL MUNIU MUGURE,,HGE
QHQ9TA8NOF,26/08/2022 10:44,26/08/2022 10:44,Pay Bill from 254720496449 - STANLEY KIPKOECH RONO Acc. FBE,Completed,10000,,167500,TRUE,Pay Utility,254720496449 - STANLEY KIPKOECH RONO,,FBE
QHQ2T93X6C,26/08/2022 10:27,26/08/2022 10:27,Pay Bill from 254725111246 - FRANCIS MUUTU MWANGANGI Acc. IGI,Completed,15000,,157500,TRUE,Pay Utility,254725111246 - FRANCIS MUUTU MWANGANGI,,IGI
QHQ4T20JAE,26/08/2022 08:30,26/08/2022 08:30,Pay Bill from 0721130307 - HILLARY NGUNYI MUTINDA Acc. JCH,Completed,16000,,142500,TRUE,Pay Utility,0721130307 - HILLARY NGUNYI MUTINDA,,JCH
QHQ3T1A11V,26/08/2022 08:16,26/08/2022 08:16,Pay Bill from 254713497971 - GERISHON NDUNG'U KOMU Acc. HGH,Completed,34000,,126500,TRUE,Pay Utility,254713497971 - GERISHON NDUNG'U KOMU,,HGH
QHQ2SZI8JY,26/08/2022 07:37,26/08/2022 07:37,Pay Bill from 254704140048 - MAUREEN GACHERI KINYUA Acc. JDD ,Completed,15000,,92500,TRUE,Pay Utility,254704140048 - MAUREEN GACHERI KINYUA,,JDD
QHP6SNOH7M,25/08/2022 20:44,25/08/2022 20:44,Pay Bill Online from 254713372862 - serah nthoki kioko Acc. HDF,Completed,9000,,77500,TRUE,Pay Bill Online,254713372862 - serah nthoki kioko,,HDF
QHP6SFVKXY,25/08/2022 19:24,25/08/2022 19:24,Pay Bill from 0718838251 - MARK KINYUA MAINA Acc. kfg,Completed,2000,,68500,TRUE,Pay Utility,0718838251 - MARK KINYUA MAINA,,kfg
QHP6SD33EU,25/08/2022 18:59,25/08/2022 18:59,Pay Bill from 254723389177 - NELSON MOI Acc. ibf,Completed,5000,,66500,TRUE,Pay Utility,254723389177 - NELSON MOI,,ibf
QHP9SBUSCZ,25/08/2022 18:48,25/08/2022 18:48,Pay Bill from 254711706815 - NAOMI WANYONYI Acc. KBA,Completed,32000,,61500,TRUE,Pay Utility with OD via STK,254711706815 - NAOMI WANYONYI,,KBA
QHP7S5Y3ZR,25/08/2022 17:48,25/08/2022 17:48,Pay Bill from 254723370004 - LABAN MAINGI WAMBUA Acc. JEF,Completed,1000,,29500,TRUE,Pay Utility with OD via STK,254723370004 - LABAN MAINGI WAMBUA,,JEF
QHP0RSYD76,25/08/2022 14:57,25/08/2022 14:57,Pay Bill Online from 254721884037 - ERIC MISIANI Acc. HCG,Completed,15000,,28500,TRUE,Pay Bill Online,254721884037 - ERIC MISIANI,,HCG
QHP6REJV78,25/08/2022 11:23,25/08/2022 11:23,Pay Bill Online from 254720787158 - AMOS CHELANG'A Acc. KAG,Completed,5000,,13500,TRUE,Pay Bill Online,254720787158 - AMOS CHELANG'A,,KAG
QHP4R6D6ZC,25/08/2022 09:11,25/08/2022 09:11,Pay Bill from 254713662892 - DAVID JUMA KIPTOCH Acc. JBE,Completed,8500,,8500,TRUE,Pay Utility,254713662892 - DAVID JUMA KIPTOCH,,JBE
QHP3R2GAHL,25/08/2022 07:59,25/08/2022 07:59,Utility Account to Organization Settlement Account,Completed,,-54000,0,TRUE,Utility Account to Organization Settlement Account,979524 - ANCIENT WELLS PROPERTY MANAGERS 2,,
QHO6QWWWWC,24/08/2022 23:34,24/08/2022 23:34,Pay Bill Online from 254720044312 - ELIUD KIPKURUI Acc. FCF,Completed,17000,,54000,TRUE,Pay Bill Online,254720044312 - ELIUD KIPKURUI,,FCF
QHO6QPNA0C,24/08/2022 20:46,24/08/2022 20:46,Pay Bill from 254703935626 - DAVID NGARI ITA Acc. FCD,Completed,1000,,37000,TRUE,Pay Utility,254703935626 - DAVID NGARI ITA,,FCD
QHO8QGOUN4,24/08/2022 19:15,24/08/2022 19:15,Pay Bill from 0790631952 - Guyo Boru Guyo Acc. DBC,Completed,20000,,36000,TRUE,Pay Utility with OD via STK,0790631952 - Guyo Boru Guyo,,DBC
QHO8PBP8JK,24/08/2022 09:47,24/08/2022 09:47,Pay Bill Online from 254701683737 - MICHAEL NGUGI Acc. HDB,Completed,16000,,16000,TRUE,Pay Bill Online,254701683737 - MICHAEL NGUGI,,HDB
QHO0P7J3JM,24/08/2022 08:34,24/08/2022 08:34,Utility Account to Organization Settlement Account,Completed,,-179500,0,TRUE,Utility Account to Organization Settlement Account,979524 - ANCIENT WELLS PROPERTY MANAGERS 2,,
QHN2O1ZMFU,23/08/2022 15:43,23/08/2022 15:43,Pay Bill Online from 254724211857 - OCHUODHO OUMA Acc. KBK,Completed,17000,,179500,TRUE,Pay Bill Online,254724211857 - OCHUODHO OUMA,,KBK
QHN5NOFJLX,23/08/2022 12:16,23/08/2022 12:16,Pay Bill from 254728681775 - Faith Abigael Acc. JAC,Completed,17000,,162500,TRUE,Pay Utility,254728681775 - Faith Abigael,,JAC
QHN2NN4OXA,23/08/2022 11:56,23/08/2022 11:56,Pay Bill Online from 254710965167 - KUSA STEPHANIE HAZEL Acc. JDC,Completed,11000,,145500,TRUE,Pay Bill Online,254710965167 - KUSA STEPHANIE HAZEL,,JDC
QHN7NI5HYF,23/08/2022 10:35,23/08/2022 10:35,Pay Bill from 254704111133 - ELVIS OTIENO Acc. HFD,Completed,1000,,134500,TRUE,Pay Utility,254704111133 - ELVIS OTIENO,,HFD
QHN1NH577R,23/08/2022 10:19,23/08/2022 10:19,Pay Bill Online from 254725381062 - VICTOR MAITHYA Acc. HEG,Completed,2000,,133500,TRUE,Pay Utility with OD Online,254725381062 - VICTOR MAITHYA,,HEG
QHN1NH3A9J,23/08/2022 10:18,23/08/2022 10:18,Pay Bill from 254722458136 - NADI GOLICHA Acc. JEA,Completed,5000,,131500,TRUE,Pay Utility,254722458136 - NADI GOLICHA,,JEA
QHN4NGPH5S,23/08/2022 10:12,23/08/2022 10:12,Pay Bill from 254710635630 - DONNA JESSICA OWANO Acc. KCC,Completed,4000,,126500,TRUE,Pay Utility,254710635630 - DONNA JESSICA OWANO,,KCC
QHM0MS6UMM,22/08/2022 19:52,22/08/2022 19:52,Pay Bill from 254718672924 - LILIAN CHEBET NGENO Acc. KGD,Completed,2000,,122500,TRUE,Pay Utility,254718672924 - LILIAN CHEBET NGENO,,KGD
QHM0MMH44Q,22/08/2022 19:00,22/08/2022 19:00,Pay Bill from 254720868281 - KENNEDY MWELU Acc. KBI,Completed,12500,,120500,TRUE,Pay Utility,254720868281 - KENNEDY MWELU,,KBI
QHM9MJQZMZ,22/08/2022 18:34,22/08/2022 18:34,Pay Bill Online from 254727425310 - DENNIS KIPKOECH CHERUIYOT Acc. JAG,Completed,5000,,108000,TRUE,Pay Utility with OD Online,254727425310 - DENNIS KIPKOECH CHERUIYOT,,JAG
QHM4LUJAV8,22/08/2022 12:51,22/08/2022 12:51,Pay Bill Online from 254723901777 - EVANS YEBEI Acc. KCH,Completed,10000,,103000,TRUE,Pay Bill Online,254723901777 - EVANS YEBEI,,KCH
QHM4LS4VRS,22/08/2022 12:14,22/08/2022 12:14,Pay Bill Online from 0757319222 - ATEM KUOL JOHN BOL Acc. FAC,Completed,8000,,93000,TRUE,Pay Bill Online,0757319222 - ATEM KUOL JOHN BOL,,FAC
QHM2LOEWDI,22/08/2022 11:16,22/08/2022 11:16,Pay Bill from 0758591833 - DORCUS MBULA PETER Acc. HDD,Completed,9000,,85000,TRUE,Pay Utility with OD via STK,0758591833 - DORCUS MBULA PETER,,HDD
QHM8LBC47I,22/08/2022 07:24,22/08/2022 07:24,Pay Bill Online from 254720451253 - JIMMY KIOGORA NKIROTE Acc. Kbd,Completed,1500,,76000,TRUE,Pay Utility with OD Online,254720451253 - JIMMY KIOGORA NKIROTE,,Kbd
QHM8L8H5AW,22/08/2022 02:12,22/08/2022 02:12,Pay Bill Online from 0711117122 - Yassir Mwinyi Abdulrazaq Acc. ICE,Completed,2000,,74500,TRUE,Pay Bill Online,0711117122 - Yassir Mwinyi Abdulrazaq,,ICE
QHK9JDZFRZ,20/08/2022 22:22,20/08/2022 22:22,Pay Bill from 254791318982 - ADULLAHI HASSAN Acc. JCI,Completed,8000,,72500,TRUE,Pay Utility,254791318982 - ADULLAHI HASSAN,,JCI
QHK0INMM7S,20/08/2022 17:07,20/08/2022 17:07,Pay Bill from 254720496449 - STANLEY KIPKOECH RONO Acc. FBE,Completed,11000,,64500,TRUE,Pay Utility,254720496449 - STANLEY KIPKOECH RONO,,FBE
QHK3HMGCIX,20/08/2022 07:58,20/08/2022 07:58,Pay Bill Online from 254722258107 - JOHN ODIMA ODIMA Acc. KGF,Completed,10000,,53500,TRUE,Pay Bill Online,254722258107 - JOHN ODIMA ODIMA,,KGF
QHJ8GSHQ60,19/08/2022 17:54,19/08/2022 17:54,Pay Bill Online from 254702287781 - JECTONE OTIENO SAO Acc. IAC,Completed,14500,,43500,TRUE,Pay Bill Online,254702287781 - JECTONE OTIENO SAO,,IAC
QHJ1GEVS25,19/08/2022 14:53,19/08/2022 14:53,Merchant Pay Utility Received from 7245661 -  OCHIENG CHEMIST  Acc. HFD,Completed,1000,,29000,TRUE,Merchant Pay Utility via API,7245661 -  OCHIENG CHEMIST ,,HFD
QHJ9G6V7UT,19/08/2022 12:56,19/08/2022 12:56,Pay Bill from 254722514052 - JOSEPH NDIRANGU Acc. JCF,Completed,3000,,28000,TRUE,Pay Utility,254722514052 - JOSEPH NDIRANGU,,JCF
QHJ0G2V8FS,19/08/2022 11:55,19/08/2022 11:55,Pay Bill from 254702190887 - Nax Ochieng Acc. FDE,Completed,15000,,25000,TRUE,Pay Utility,254702190887 - Nax Ochieng,,FDE
QHJ6FVPRCQ,19/08/2022 10:03,19/08/2022 10:03,Pay Bill Online from 254725381062 - VICTOR MAITHYA Acc. HEG,Completed,5000,,10000,TRUE,Pay Utility with OD Online,254725381062 - VICTOR MAITHYA,,HEG
QHJ1FPAOBV,19/08/2022 08:10,19/08/2022 08:10,Pay Bill from 254722458136 - NADI GOLICHA Acc. JEA,Completed,5000,,5000,TRUE,Pay Utility,254722458136 - NADI GOLICHA,,JEA
QHJ7FMDMH3,19/08/2022 06:50,19/08/2022 06:50,Utility Account to Organization Settlement Account,Completed,,-321100,0,TRUE,Utility Account to Organization Settlement Account,979524 - ANCIENT WELLS PROPERTY MANAGERS 2,,
QHI7EUNLTZ,18/08/2022 17:46,18/08/2022 17:46,Pay Bill from 254719779657 - SAMUEL NJOROGE Acc. JGA,Completed,15000,,321100,TRUE,Pay Utility,254719779657 - SAMUEL NJOROGE,,JGA
QHI1EHCPOJ,18/08/2022 14:46,18/08/2022 14:46,Pay Bill Online from 254790549449 - AHMED MOHAMED ABUKAR Acc. HBA,Completed,17000,,306100,TRUE,Pay Bill Online,254790549449 - AHMED MOHAMED ABUKAR,,HBA
QHI2E0P6PC,18/08/2022 10:44,18/08/2022 10:44,Pay Bill from 254706322764 - GEORGE OUMA OCHOLA Acc. JDF,Completed,8000,,289100,TRUE,Pay Utility,254706322764 - GEORGE OUMA OCHOLA,,JDF
QHI5DP1JI9,18/08/2022 07:13,18/08/2022 07:13,Pay Bill Online from 254725381062 - VICTOR MAITHYA Acc. HEG,Completed,3500,,281100,TRUE,Pay Utility with OD Online,254725381062 - VICTOR MAITHYA,,HEG
QHI8DO8DXC,18/08/2022 06:43,18/08/2022 06:43,Pay Bill from 254710381003 - ALFRED KISHOIN Acc. DAB,Completed,16000,,277600,TRUE,Pay Utility,254710381003 - ALFRED KISHOIN,,DAB
QHH5DLLG4Z,17/08/2022 23:29,17/08/2022 23:29,Pay Bill from 254717148989 - ALLAN MUTHONI Acc. HAC,Completed,10000,,261600,TRUE,Pay Utility,254717148989 - ALLAN MUTHONI,,HAC
QHH0DL8JB8,17/08/2022 23:08,17/08/2022 23:08,Pay Bill Online from 254720451253 - JIMMY KIOGORA NKIROTE Acc. Kbd,Completed,1000,,251600,TRUE,Pay Utility with OD Online,254720451253 - JIMMY KIOGORA NKIROTE,,Kbd
QHH8D9S0P8,17/08/2022 19:52,17/08/2022 19:52,Pay Bill from 254722801352 - NZAMBU NASSON MWATHE Acc. KBG,Completed,9000,,250600,TRUE,Pay Utility,254722801352 - NZAMBU NASSON MWATHE,,KBG
QHH4CPBOAM,17/08/2022 16:16,17/08/2022 16:16,Pay Bill from 0724110456 - Fredrick Otieno Onege Acc. ICH,Completed,16000,,241600,TRUE,Pay Utility,0724110456 - Fredrick Otieno Onege,,ICH
QHH9CN7147,17/08/2022 15:46,17/08/2022 15:46,Pay Bill Online from 254711721087 - MUTHIANI KYULE Acc. IDB,Completed,15000,,225600,TRUE,Pay Bill Online,254711721087 - MUTHIANI KYULE,,IDB
QHH2CH8294,17/08/2022 14:22,17/08/2022 14:22,Pay Bill from 254718672924 - LILIAN CHEBET NGENO Acc. KGD,Completed,5000,,210600,TRUE,Pay Utility,254718672924 - LILIAN CHEBET NGENO,,KGD
QHH0C5IF8C,17/08/2022 11:30,17/08/2022 11:30,Pay Bill from 0724134105 - HILDA JEPKEMOI KIMELIEL Acc. JBH,Completed,16000,,205600,TRUE,Pay Utility,0724134105 - HILDA JEPKEMOI KIMELIEL,,JBH
QHH8BXUVMG,17/08/2022 09:27,17/08/2022 09:27,Merchant Pay Utility Received from 7245661 -  OCHIENG CHEMIST  Acc. HFD,Completed,1000,,189600,TRUE,Merchant Pay Utility via API,7245661 -  OCHIENG CHEMIST ,,HFD
QHH8BVQEO2,17/08/2022 08:48,17/08/2022 08:48,Pay Bill Online from 254720451253 - JIMMY KIOGORA NKIROTE Acc. Kbd,Completed,2000,,188600,TRUE,Pay Utility with OD Online,254720451253 - JIMMY KIOGORA NKIROTE,,Kbd
QHG8BN1HDI,16/08/2022 22:07,16/08/2022 22:07,Pay Bill from 254726928933 - JOSHUA NDUNDA NZIOKA Acc. KAJ,Completed,12000,,186600,TRUE,Pay Utility with OD via STK,254726928933 - JOSHUA NDUNDA NZIOKA,,KAJ
QHG2BCOMM6,16/08/2022 19:35,16/08/2022 19:35,Pay Bill Online from 254720787158 - AMOS CHELANG'A Acc. KAG,Completed,5000,,174600,TRUE,Pay Bill Online,254720787158 - AMOS CHELANG'A,,KAG
QHG5AXNVLH,16/08/2022 16:48,16/08/2022 16:48,Pay Bill from 254796848496 - IVY WITABA Acc. JBA,Completed,5000,,169600,TRUE,Pay Utility,254796848496 - IVY WITABA,,JBA
QHG5ASOCWJ,16/08/2022 15:32,16/08/2022 15:32,Pay Bill from 254722746480 - PATRICK OPEYWA AURA Acc. KGH,Completed,9500,,164600,TRUE,Pay Utility,254722746480 - PATRICK OPEYWA AURA,,KGH
QHG3AIDOOT,16/08/2022 12:54,16/08/2022 12:54,Pay Bill from 254703276305 - MARTHA MUSYOKA Acc. IAI,Completed,23500,,155100,TRUE,Pay Utility,254703276305 - MARTHA MUSYOKA,,IAI
QHG8ADYYSY,16/08/2022 11:46,16/08/2022 11:46,Pay Bill from 254715591919 - JOHN O OCHIENG Acc. HCC,Completed,2000,,131600,TRUE,Pay Utility,254715591919 - JOHN O OCHIENG,,HCC
QHG99ZXUAR,16/08/2022 07:13,16/08/2022 07:13,Pay Bill from 254716056537 - KIRUI KIPLANGAT HILLARY Acc. JCJ,Completed,16000,,129600,TRUE,Pay Utility,254716056537 - KIRUI KIPLANGAT HILLARY,,JCJ
QHF596SEV7,15/08/2022 16:06,15/08/2022 16:06,Pay Bill from 254722521028 - CHARLES MONYONCHO Acc. ICB,Completed,17000,,113600,TRUE,Pay Utility,254722521028 - CHARLES MONYONCHO,,ICB
QHF290PPSK,15/08/2022 14:29,15/08/2022 14:29,Pay Bill from 0758741326 - ABDULLAHI ISACK BANTE Acc. KBF,Completed,5000,,96600,TRUE,Pay Utility,0758741326 - ABDULLAHI ISACK BANTE,,KBF
QHF48QPQM2,15/08/2022 12:04,15/08/2022 12:04,Pay Bill from 254703555717 - SENGA SALIM Acc. hbb,Completed,4000,,91600,TRUE,Pay Utility,254703555717 - SENGA SALIM,,hbb
QHF98PTZN9,15/08/2022 11:50,15/08/2022 11:50,Pay Bill Online from 254799214498 - EMMILY LWAMBA Acc. DDD,Completed,4100,,87600,TRUE,Pay Bill Online,254799214498 - EMMILY LWAMBA,,DDD
QHF18EKS8D,15/08/2022 08:43,15/08/2022 08:43,Pay Bill Online from 254720451253 - JIMMY KIOGORA NKIROTE Acc. Kbd,Completed,2000,,83500,TRUE,Pay Utility with OD Online,254720451253 - JIMMY KIOGORA NKIROTE,,Kbd
QHF68B1MNQ,15/08/2022 07:21,15/08/2022 07:21,Pay Bill Online from 254714552193 - CHRISTOPHER OCHIENG Acc. JGI,Completed,20000,,81500,TRUE,Pay Bill Online,254714552193 - CHRISTOPHER OCHIENG,,JGI
QHE885FRQW,14/08/2022 21:58,14/08/2022 21:58,Pay Bill from 254720792169 - REBECCA MAKORI Acc. JAE,Completed,9000,,61500,TRUE,Pay Utility,254720792169 - REBECCA MAKORI,,JAE
QHE672X93C,14/08/2022 12:53,14/08/2022 12:53,Pay Bill Online from 254706898046 - STACY AKETCH OCHUKA Acc. KGK,Completed,1000,,52500,TRUE,Pay Bill Online,254706898046 - STACY AKETCH OCHUKA,,KGK
QHE16VAM57,14/08/2022 10:30,14/08/2022 10:30,Pay Bill Online from 254714710698 - TABITHA MULEE KYALO Acc. IFD,Completed,11500,,51500,TRUE,Pay Bill Online,254714710698 - TABITHA MULEE KYALO,,IFD
QHE06PCQJ2,14/08/2022 08:34,14/08/2022 08:34,Pay Bill from 254720802644 - MESHACK MAXWELL GANDA Acc. HAB ,Completed,15000,,40000,TRUE,Pay Utility,254720802644 - MESHACK MAXWELL GANDA,,HAB
QHD56EBDZB,13/08/2022 21:18,13/08/2022 21:18,Pay Bill from 254703935626 - DAVID NGARI ITA Acc. FCD,Completed,1000,,25000,TRUE,Pay Utility,254703935626 - DAVID NGARI ITA,,FCD
QHD55XUQOR,13/08/2022 18:16,13/08/2022 18:16,Pay Bill from 254726116777 - MARY NDUTA GOSHO Acc. JDB ,Completed,15000,,24000,TRUE,Pay Utility,254726116777 - MARY NDUTA GOSHO,,JDB
QHD15NRKCJ,13/08/2022 16:14,13/08/2022 16:14,Pay Bill from 0743650673 - Winfred Mbithe Mbete Acc. iec,Completed,9000,,9000,TRUE,Pay Utility,0743650673 - Winfred Mbithe Mbete,,iec
QHD75N3AVZ,13/08/2022 16:05,13/08/2022 16:05,Utility Account to Organization Settlement Account,Completed,,-16000,0,TRUE,Utility Account to Organization Settlement Account,979524 - ANCIENT WELLS PROPERTY MANAGERS 2,,
QHD05H9HCU,13/08/2022 14:44,13/08/2022 14:44,Pay Bill from 254724423882 - JOEL GICHURI KARANJA Acc. fee,Completed,16000,,16000,TRUE,Pay Utility,254724423882 - JOEL GICHURI KARANJA,,fee
QHD05B46SQ,13/08/2022 13:19,13/08/2022 13:19,Utility Account to Organization Settlement Account,Completed,,-75500,0,TRUE,Utility Account to Organization Settlement Account,979524 - ANCIENT WELLS PROPERTY MANAGERS 2,,
QHD85AS5XW,13/08/2022 13:14,13/08/2022 13:14,Pay Bill Online from 254713411649 - JEREMIAH NJENGA KIRAGO Acc. JEA,Completed,10000,,75500,TRUE,Pay Bill Online,254713411649 - JEREMIAH NJENGA KIRAGO,,JEA
QHD155FUGZ,13/08/2022 11:54,13/08/2022 11:54,Pay Bill from 0705687898 - JORDAN KIPNGETICH THOMAS KIKWAI Acc. kff,Completed,9500,,65500,TRUE,Pay Utility,0705687898 - JORDAN KIPNGETICH THOMAS KIKWAI,,kff
QHD7552MVR,13/08/2022 11:48,13/08/2022 11:48,Pay Bill from 254717909848 - MARY MBULA KATHUKU Acc. FGD,Completed,9000,,56000,TRUE,Pay Utility,254717909848 - MARY MBULA KATHUKU,,FGD
QHD653LBYM,13/08/2022 11:25,13/08/2022 11:25,Merchant Pay Utility Received from 7245661 -  OCHIENG CHEMIST  Acc. HFD,Completed,1000,,47000,TRUE,Merchant Pay Utility via API,7245661 -  OCHIENG CHEMIST ,,HFD
QHD24YQC8I,13/08/2022 10:07,13/08/2022 10:07,Pay Bill Online from 254720787158 - AMOS CHELANG'A Acc. KCG,Completed,10000,,46000,TRUE,Pay Bill Online,254720787158 - AMOS CHELANG'A,,KCG
QHD14XY0CX,13/08/2022 09:54,13/08/2022 09:54,Pay Bill from 254728681775 - Faith Abigael Acc. JAC,Completed,5000,,36000,TRUE,Pay Utility,254728681775 - Faith Abigael,,JAC
QHD54XJ3P1,13/08/2022 09:47,13/08/2022 09:47,Pay Bill from 254726636196 - BETHUEL KEMBOI KURUI Acc. JFD,Completed,15000,,31000,TRUE,Pay Utility,254726636196 - BETHUEL KEMBOI KURUI,,JFD
QHD24XGLT4,13/08/2022 09:46,13/08/2022 09:46,Pay Bill from 254721315975 - JOSEPH NDEGWA Acc. HE B,Completed,16000,,16000,TRUE,Pay Utility,254721315975 - JOSEPH NDEGWA,,HE
QHD64WFK4Q,13/08/2022 09:27,13/08/2022 09:27,Utility Account to Organization Settlement Account,Completed,,-57000,0,TRUE,Utility Account to Organization Settlement Account,979524 - ANCIENT WELLS PROPERTY MANAGERS 2,,
QHD44V51D0,13/08/2022 09:03,13/08/2022 09:03,Pay Bill from 254723747228 - MORARA ASANYO Acc. pool,Completed,22000,,57000,TRUE,Pay Utility,254723747228 - MORARA ASANYO,,pool
QHD44OB24E,13/08/2022 00:44,13/08/2022 00:44,Pay Bill from 0769960650 - DORIS WAMARWA MURIUKI Acc. KEC,Completed,10000,,35000,TRUE,Pay Utility,0769960650 - DORIS WAMARWA MURIUKI,,KEC
QHC34J2I9B,12/08/2022 21:25,12/08/2022 21:25,Pay Bill from 254740579741 - MUHINDI MULINYA Acc. HGG,Completed,15000,,25000,TRUE,Pay Utility,254740579741 - MUHINDI MULINYA,,HGG
QHC6486JJ0,12/08/2022 19:14,12/08/2022 19:14,Pay Bill from 254725539787 - EVERLYNE MOGAKA Acc. KEF,Completed,10000,,10000,TRUE,Pay Utility,254725539787 - EVERLYNE MOGAKA,,KEF
QHC140G9TX,12/08/2022 17:53,12/08/2022 17:53,Utility Account to Organization Settlement Account,Completed,,-35000,0,TRUE,Utility Account to Organization Settlement Account,979524 - ANCIENT WELLS PROPERTY MANAGERS 2,,
QHC83U3PKC,12/08/2022 16:34,12/08/2022 16:34,Pay Bill Online from 254723930071 - AMOS KITAVI KIVITE Acc. JCE,Completed,9000,,35000,TRUE,Pay Bill Online,254723930071 - AMOS KITAVI KIVITE,,JCE
QHC03GAPOC,12/08/2022 13:11,12/08/2022 13:11,Pay Bill from 254722518332 - FREASHIA MUNGAI Acc. JBG,Completed,10000,,26000,TRUE,Pay Utility,254722518332 - FREASHIA MUNGAI,,JBG
QHC03F8N4C,12/08/2022 12:55,12/08/2022 12:55,Pay Bill from 254723370004 - LABAN MAINGI WAMBUA Acc. JEF,Completed,2000,,16000,TRUE,Pay Utility,254723370004 - LABAN MAINGI WAMBUA,,JEF
QHC63E81JG,12/08/2022 12:39,12/08/2022 12:39,Pay Bill Online from 0740422187 - KEVIN MAKATO KUNGA Acc. KEG,Completed,10000,,14000,TRUE,Pay Utility with OD Online,0740422187 - KEVIN MAKATO KUNGA,,KEG
QHC938WYQL,12/08/2022 11:15,12/08/2022 11:15,Pay Bill from 254703555717 - SENGA SALIM Acc. hbb,Completed,4000,,4000,TRUE,Pay Utility,254703555717 - SENGA SALIM,,hbb
QHC133JT8T,12/08/2022 09:47,12/08/2022 09:47,Utility Account to Organization Settlement Account,Completed,,-53020,0,TRUE,Utility Account to Organization Settlement Account,979524 - ANCIENT WELLS PROPERTY MANAGERS 2,,
QHC232VULK,12/08/2022 09:35,12/08/2022 09:35,Pay Bill from 254715591919 - JOHN O OCHIENG Acc. HCC,Completed,8000,,53020,TRUE,Pay Utility,254715591919 - JOHN O OCHIENG,,HCC
QHC132JKPH,12/08/2022 09:29,12/08/2022 09:29,Pay Bill from 254700290755 - MERCY GOGA Acc. FDD,Completed,5500,,45020,TRUE,Pay Utility,254700290755 - MERCY GOGA,,FDD
QHC72XRVWR,12/08/2022 07:50,12/08/2022 07:50,Pay Bill from 254716581384 - GREGORY KILUNGYA Acc. DAD,Completed,20000,,39520,TRUE,Pay Utility,254716581384 - GREGORY KILUNGYA,,DAD
QHC82XFA1W,12/08/2022 07:40,12/08/2022 07:40,Pay Bill Online from 254720451253 - JIMMY KIOGORA NKIROTE Acc. Kbd,Completed,3000,,19520,TRUE,Pay Utility with OD Online,254720451253 - JIMMY KIOGORA NKIROTE,,Kbd
QHB520MXTT,11/08/2022 16:11,11/08/2022 16:11,Pay Bill from 254745391294 - Faith Moraa Sitemba Acc. 0751251173,Completed,20,,16520,TRUE,Pay Utility,254745391294 - Faith Moraa Sitemba,,751251173
QHB120KQRB,11/08/2022 16:10,11/08/2022 16:10,Pay Bill from 254745391294 - Faith Moraa Sitemba Acc. IFC,Completed,8000,,16500,TRUE,Pay Utility,254745391294 - Faith Moraa Sitemba,,IFC
QHB21X3HB2,11/08/2022 15:16,11/08/2022 15:16,Pay Bill from 254716706497 - ALIS OKENO Acc. IEE,Completed,8500,,8500,TRUE,Pay Utility,254716706497 - ALIS OKENO,,IEE
QHB21MZYBE,11/08/2022 12:40,11/08/2022 12:40,Utility Account to Organization Settlement Account,Completed,,-149750,0,TRUE,Utility Account to Organization Settlement Account,979524 - ANCIENT WELLS PROPERTY MANAGERS 2,,
QHB91DVJ05,11/08/2022 10:11,11/08/2022 10:11,Pay Bill from 254728259571 - ANNE KASIVA Acc. ieb,Completed,15000,,149750,TRUE,Pay Utility,254728259571 - ANNE KASIVA,,ieb
QHB51A7RUZ,11/08/2022 09:04,11/08/2022 09:04,Pay Bill Online from 254712040302 - EMMANUEL MWARO BARASA Acc. kea,Completed,16000,,134750,TRUE,Pay Bill Online,254712040302 - EMMANUEL MWARO BARASA,,kea
QHA7ZUGNNZ,10/08/2022 20:14,10/08/2022 20:14,Pay Bill from 254708499439 - ROSE NDEDE Acc. HGF,Completed,9000,,118750,TRUE,Pay Utility,254708499439 - ROSE NDEDE,,HGF
QHA2ZRKNBG,10/08/2022 19:42,10/08/2022 19:42,Pay Bill from 0708931111 - NJENGA   KURIA Acc. kca,Completed,16000,,109750,TRUE,Pay Utility,0708931111 - NJENGA   KURIA,,kca
QHA4ZI5GY6,10/08/2022 17:58,10/08/2022 17:58,Pay Bill from 254723635017 - CHARLES MUCHEMI Acc. HDE,Completed,16750,,93750,TRUE,Pay Utility with OD via STK,254723635017 - CHARLES MUCHEMI,,HDE
QHA6Z6YABA,10/08/2022 15:11,10/08/2022 15:11,Pay Bill from 254701006375 - EZRA MAKORI SERETI Acc. HTA,Completed,10000,,77000,TRUE,Pay Utility with OD via STK,254701006375 - EZRA MAKORI SERETI,,HTA
QHA4Z5MRKK,10/08/2022 14:49,10/08/2022 14:49,Pay Bill Online from 254706549634 - CLINTON OMBASA Acc. FDB,Completed,7000,,67000,TRUE,Pay Bill Online,254706549634 - CLINTON OMBASA,,FDB
QHA1YZHSZR,10/08/2022 13:10,10/08/2022 13:10,Pay Bill from 254717747775 - QADRA SHEIKH ABDULLAHI Acc. JCI,Completed,13000,,60000,TRUE,Pay Utility,254717747775 - QADRA SHEIKH ABDULLAHI,,JCI
QHA6YX3WV8,10/08/2022 12:31,10/08/2022 12:31,Pay Bill Online from 0757699775 - BENARD MUIA MUTUA Acc. HCB,Completed,16000,,47000,TRUE,Pay Utility with OD Online,0757699775 - BENARD MUIA MUTUA,,HCB
QHA7YV31F3,10/08/2022 11:58,10/08/2022 11:58,Pay Bill Online from 254722604851 - WILFRED SAKWA Acc. KEJ,Completed,15000,,31000,TRUE,Pay Bill Online,254722604851 - WILFRED SAKWA,,KEJ
QHA3YUACE3,10/08/2022 11:45,10/08/2022 11:45,Pay Bill Online from 254712990240 - GLORY KARIUKI Acc. KAA,Completed,16000,,16000,TRUE,Pay Bill Online,254712990240 - GLORY KARIUKI,,KAA
QH97Y8JDN5,09/08/2022 21:02,09/08/2022 21:02,Utility Account to Organization Settlement Account,Completed,,-231400,0,TRUE,Utility Account to Organization Settlement Account,979524 - ANCIENT WELLS PROPERTY MANAGERS 2,,
QH90Y6SQLK,09/08/2022 20:34,09/08/2022 20:34,Pay Bill from 254703935626 - DAVID NGARI ITA Acc. FCD,Completed,1000,,231400,TRUE,Pay Utility,254703935626 - DAVID NGARI ITA,,FCD
QH92Y0MQOQ,09/08/2022 19:14,09/08/2022 19:14,Pay Bill from 254702216907 - FAITH MUSA Acc. KBE ,Completed,200,,230400,TRUE,Pay Utility with OD via STK,254702216907 - FAITH MUSA,,KBE
QH92XXHQZI,09/08/2022 18:37,09/08/2022 18:37,Pay Bill Online from 254722769473 - SAMSON CHALO Acc. IAB,Completed,15000,,230200,TRUE,Pay Bill Online,254722769473 - SAMSON CHALO,,IAB
QH94XVP3PW,09/08/2022 18:13,09/08/2022 18:13,Pay Bill from 254710110273 - AGNES NTOITI Acc. JBB,Completed,5000,,215200,TRUE,Pay Utility with OD via STK,254710110273 - AGNES NTOITI,,JBB
QH97XINJTP,09/08/2022 14:45,09/08/2022 14:45,Pay Bill from 254703555717 - SENGA SALIM Acc. hbb,Completed,5000,,210200,TRUE,Pay Utility,254703555717 - SENGA SALIM,,hbb
QH93XATIPX,09/08/2022 12:26,09/08/2022 12:26,FSI to Pay Bill by 998094 - COOP TO PAYBILL Acc. KDH via WEB by COOP TO PAYBILL\COOPAYBILLTRNS,Completed,10000,,205200,TRUE,FSI to Pay Bill via API,998094 - COOP TO PAYBILL,,KDH
QH93WT4CG5,09/08/2022 00:15,09/08/2022 00:15,Pay Bill from 0111788761 - MARIA ZACHARIA JOHN Acc. FAF,Completed,16000,,195200,TRUE,Pay Utility,0111788761 - MARIA ZACHARIA JOHN,,FAF
QH83WNIUS7,08/08/2022 21:34,08/08/2022 21:34,Pay Bill from 254720278119 - LINDAH OGAWO Acc. KFE,Completed,9500,,179200,TRUE,Pay Utility,254720278119 - LINDAH OGAWO,,KFE
QH87WMPK7L,08/08/2022 21:22,08/08/2022 21:22,Pay Bill from 254707715639 - Annastacia Kimeu Acc. JFC ,Completed,10000,,169700,TRUE,Pay Utility,254707715639 - Annastacia Kimeu,,JFC
QH84WK1YAC,08/08/2022 20:48,08/08/2022 20:48,Pay Bill from 0769118645 - kennedy kipkurui korir Acc. IGC,Completed,9000,,159700,TRUE,Pay Utility,0769118645 - kennedy kipkurui korir,,IGC
QH83WJ4TJZ,08/08/2022 20:37,08/08/2022 20:37,Pay Bill from 0112733151 - Steven Oduor Ogutu Acc. KTA,Completed,9500,,150700,TRUE,Pay Utility,0112733151 - Steven Oduor Ogutu,,KTA
QH81VWU3MX,08/08/2022 16:54,08/08/2022 16:54,Pay Bill from 254713205244 - ROBERT OGALO Acc. KBH,Completed,10000,,141200,TRUE,Pay Utility,254713205244 - ROBERT OGALO,,KBH
QH81VTM24D,08/08/2022 16:16,08/08/2022 16:16,Pay Bill from 254715742045 - FRIDAH KIEMA Acc. HGC,Completed,9500,,131200,TRUE,Pay Utility,254715742045 - FRIDAH KIEMA,,HGC
QH87VNUAIF,08/08/2022 15:02,08/08/2022 15:02,Pay Bill Online from 254723204250 - RUTH MWAURA Acc. HGH,Completed,17000,,121700,TRUE,Pay Bill Online,254723204250 - RUTH MWAURA,,HGH
QH87V9FJFX,08/08/2022 11:53,08/08/2022 11:53,Pay Bill from 254712954563 - JOSEPH MUTISO KILONZO Acc. 979524,Completed,20000,,104700,TRUE,Pay Utility,254712954563 - JOSEPH MUTISO KILONZO,,979524
QH85V150N5,08/08/2022 09:57,08/08/2022 09:57,Pay Bill from 254729258441 - ROBERT RONO KULEI Acc. JAB,Completed,4000,,84700,TRUE,Pay Utility,254729258441 - ROBERT RONO KULEI,,JAB
QH89UVW777,08/08/2022 08:33,08/08/2022 08:33,Pay Bill from 254703935626 - DAVID NGARI ITA Acc. FCD,Completed,1000,,80700,TRUE,Pay Utility,254703935626 - DAVID NGARI ITA,,FCD
QH86UT78WK,08/08/2022 07:37,08/08/2022 07:37,Pay Bill from 254717985596 - NICHOLAS KIPKOECH BUTIA Acc. hcf,Completed,9000,,79700,TRUE,Pay Utility,254717985596 - NICHOLAS KIPKOECH BUTIA,,hcf
QH87UQ22SJ,08/08/2022 01:49,08/08/2022 01:49,Pay Bill from 254723488259 - WILSON OKITE OKITE Acc. HCA,Completed,15000,,70700,TRUE,Pay Utility with OD via STK,254723488259 - WILSON OKITE OKITE,,HCA
QH75UM8A9L,07/08/2022 22:10,07/08/2022 22:10,Pay Bill Online from 254710146965 - BRENDA DORCAS MABONGA Acc. hfg,Completed,15000,,55700,TRUE,Pay Bill Online,254710146965 - BRENDA DORCAS MABONGA,,hfg
QH76UBW4S6,07/08/2022 19:47,07/08/2022 19:47,Pay Bill from 254724005366 - BEATRICE KOKU ALOO Acc. JGJ,Completed,13000,,40700,TRUE,Pay Utility,254724005366 - BEATRICE KOKU ALOO,,JGJ
QH76U400C0,07/08/2022 18:27,07/08/2022 18:27,Pay Bill from 254702346515 - ELIZABETH ACHIENG NGOME Acc. KDE,Completed,10000,,27700,TRUE,Pay Utility,254702346515 - ELIZABETH ACHIENG NGOME,,KDE
QH75TXDRR1,07/08/2022 17:06,07/08/2022 17:06,Pay Bill from 254701112397 - ELEMA GODANA DIBA Acc. FCA ,Completed,16000,,17700,TRUE,Pay Utility,254701112397 - ELEMA GODANA DIBA,,FCA
QH72TW5HN6,07/08/2022 16:51,07/08/2022 16:51,Pay Bill from 0115702401 - John Kamau Kanyiri Acc. HFF,Completed,1700,,1700,TRUE,Pay Utility,0115702401 - John Kamau Kanyiri,,HFF
QH74TMIAV4,07/08/2022 14:41,07/08/2022 14:41,Utility Account to Organization Settlement Account,Completed,,-315500,0,TRUE,Utility Account to Organization Settlement Account,979524 - ANCIENT WELLS PROPERTY MANAGERS 2,,
QH76TJCLB4,07/08/2022 13:56,07/08/2022 13:56,Pay Bill Online from 254718138578 - PAULINE KIOKO Acc. KFD,Completed,12000,,315500,TRUE,Pay Bill Online,254718138578 - PAULINE KIOKO,,KFD
QH70TI8BCC,07/08/2022 13:40,07/08/2022 13:40,Pay Bill Online from 254795534849 - PURITY NJERU Acc. feb,Completed,15000,,303500,TRUE,Pay Bill Online,254795534849 - PURITY NJERU,,feb
QH77TDWG6V,07/08/2022 12:32,07/08/2022 12:32,Pay Bill from 254728238249 - ESTHER WANGUI KIBUNYI Acc. ICA,Completed,17000,,288500,TRUE,Pay Utility,254728238249 - ESTHER WANGUI KIBUNYI,,ICA
QH74TCWGE6,07/08/2022 12:16,07/08/2022 12:16,Pay Bill Online from 254720381965 - JAMES NGUGI MWANIKI Acc. JBI,Completed,20000,,271500,TRUE,Pay Bill Online,254720381965 - JAMES NGUGI MWANIKI,,JBI
QH74TBM89A,07/08/2022 11:55,07/08/2022 11:55,Pay Bill from 254718284151 - EVERLINE MATHEKA Acc. DFA,Completed,15000,,251500,TRUE,Pay Utility,254718284151 - EVERLINE MATHEKA,,DFA
QH77TAKMVF,07/08/2022 11:37,07/08/2022 11:37,Pay Bill Online from 254722921132 - JOE MCCRAY MURIUKI KIHIA Acc. IFA,Completed,15000,,236500,TRUE,Pay Bill Online,254722921132 - JOE MCCRAY MURIUKI KIHIA,,IFA
QH73T5BLHP,07/08/2022 10:08,07/08/2022 10:08,Pay Bill Online from 254715764212 - BANCE ISHEMINYE Acc. JFE,Completed,7000,,221500,TRUE,Pay Bill Online,254715764212 - BANCE ISHEMINYE,,JFE
QH72T0S2F8,07/08/2022 08:48,07/08/2022 08:48,Pay Bill from 254723328258 - SAMUEL MAINA MURIUKI Acc. IFE,Completed,8000,,214500,TRUE,Pay Utility,254723328258 - SAMUEL MAINA MURIUKI,,IFE
QH76SW1NTI,07/08/2022 06:41,07/08/2022 06:41,Pay Bill from 254719779657 - SAMUEL NJOROGE Acc. JGA,Completed,5000,,206500,TRUE,Pay Utility with OD via STK,254719779657 - SAMUEL NJOROGE,,JGA
QH61SQWMWV,06/08/2022 22:39,06/08/2022 22:39,Pay Bill from 0799987001 - Mohamed  Sheikh  Abdi Acc. FFE,Completed,15000,,201500,TRUE,Pay Utility,0799987001 - Mohamed  Sheikh  Abdi,,FFE
QH65SPO2OR,06/08/2022 22:13,06/08/2022 22:13,Pay Bill from 254712974871 - PAULA WANJIKU GATUI Acc. hea,Completed,16000,,186500,TRUE,Pay Utility,254712974871 - PAULA WANJIKU GATUI,,hea
QH63SO32QZ,06/08/2022 21:47,06/08/2022 21:47,Pay Bill from 254796069018 - PEACE KIMEU Acc. JAH,Completed,16000,,170500,TRUE,Pay Utility,254796069018 - PEACE KIMEU,,JAH
QH60RXST6C,06/08/2022 17:10,06/08/2022 17:10,Pay Bill from 254726028330 - JOHN WAMBUA Acc. IFH,Completed,15000,,154500,TRUE,Pay Utility with OD via STK,254726028330 - JOHN WAMBUA,,IFH
QH61RVT2O3,06/08/2022 16:47,06/08/2022 16:47,Pay Bill from 254729541871 - ROBERT KULEI Acc. JAB,Completed,11000,,139500,TRUE,Pay Utility,254729541871 - ROBERT KULEI,,JAB
QH63RCGJ31,06/08/2022 12:39,06/08/2022 12:39,Pay Bill Online from 254710732381 - JANE ACHIENG MBEKE Acc. HAF,Completed,10000,,128500,TRUE,Pay Bill Online,254710732381 - JANE ACHIENG MBEKE,,HAF
QH66R6Z20G,06/08/2022 11:26,06/08/2022 11:26,Pay Bill from 254702764047 - FERDINAND K Acc. KDB,Completed,16000,,118500,TRUE,Pay Utility,254702764047 - FERDINAND K,,KDB
QH66R6C8JO,06/08/2022 11:18,06/08/2022 11:18,Pay Bill from 254722889574 - ALLAN MWANGI Acc. JCG,Completed,10000,,102500,TRUE,Pay Utility,254722889574 - ALLAN MWANGI,,JCG
QH67R4A80D,06/08/2022 10:50,06/08/2022 10:50,Pay Bill from 254717148989 - ALLAN MUTHONI Acc. HAC ,Completed,600,,92500,TRUE,Pay Utility,254717148989 - ALLAN MUTHONI,,HAC
QH68R3P4YA,06/08/2022 10:42,06/08/2022 10:42,Pay Bill Online from 254728897908 - Teddy Allan Onyango Acc. DDD,Completed,15900,,91900,TRUE,Pay Bill Online,254728897908 - Teddy Allan Onyango,,DDD
QH61R28UQ3,06/08/2022 10:22,06/08/2022 10:22,Pay Bill from 0791379873 - Joseph Kyalo Sila Acc. HAH,Completed,16000,,76000,TRUE,Pay Utility,0791379873 - Joseph Kyalo Sila,,HAH
QH61R1E5L3,06/08/2022 10:10,06/08/2022 10:10,Merchant Pay Utility Received from 7245661 -  OCHIENG CHEMIST  Acc. HFD,Completed,1000,,60000,TRUE,Merchant Pay Utility via API,7245661 -  OCHIENG CHEMIST ,,HFD
QH66QZFZE6,06/08/2022 09:42,06/08/2022 09:42,Pay Bill from 254722444622 - CHARITY KAGWAINI Acc. FFD,Completed,11000,,59000,TRUE,Pay Utility,254722444622 - CHARITY KAGWAINI,,FFD
QH60QZENVG,06/08/2022 09:41,06/08/2022 09:41,Pay Bill from 254743243622 - fridah waeni muithya Acc. JEH,Completed,16000,,48000,TRUE,Pay Utility,254743243622 - fridah waeni muithya,,JEH
QH60QXQ6NG,06/08/2022 09:16,06/08/2022 09:16,Pay Bill Online from 254724821898 - ALLAN GISONI NYANGARESI Acc. DBA,Completed,16000,,32000,TRUE,Pay Bill Online,254724821898 - ALLAN GISONI NYANGARESI,,DBA
QH68QVDJF4,06/08/2022 08:39,06/08/2022 08:39,Pay Bill Online from 254715892656 - DENNIS MUSYOKA MUOKI Acc. kfa,Completed,16000,,16000,TRUE,Pay Bill Online,254715892656 - DENNIS MUSYOKA MUOKI,,kfa
QH66QUAOP6,06/08/2022 08:20,06/08/2022 08:20,Utility Account to Organization Settlement Account,Completed,,-195000,0,TRUE,Utility Account to Organization Settlement Account,979524 - ANCIENT WELLS PROPERTY MANAGERS 2,,
QH69QSBIU1,06/08/2022 07:43,06/08/2022 07:43,Pay Bill Online from 254704934557 - BAKARI KITSAKA Acc. HDG,Completed,15000,,195000,TRUE,Pay Bill Online,254704934557 - BAKARI KITSAKA,,HDG
QH54QMF330,05/08/2022 23:35,05/08/2022 23:35,Pay Bill from 254725749776 - BEN KORIR Acc. IDF,Completed,11000,,180000,TRUE,Pay Utility with OD via STK,254725749776 - BEN KORIR,,IDF
QH59QF8RSF,05/08/2022 21:13,05/08/2022 21:13,Pay Bill from 254713281251 - ERIC KIAMA Acc. JDI,Completed,20000,,169000,TRUE,Pay Utility,254713281251 - ERIC KIAMA,,JDI
QH53QDZF9F,05/08/2022 20:58,05/08/2022 20:58,Pay Bill Online from 254713443185 - FRANCIS ODHIAMBO SALU Acc. HGD,Completed,10000,,149000,TRUE,Pay Utility with OD Online,254713443185 - FRANCIS ODHIAMBO SALU,,HGD
QH50Q3FTHK,05/08/2022 19:20,05/08/2022 19:20,Pay Bill Online from 254742911013 - HANEST AMIMO Acc. IEG,Completed,8000,,139000,TRUE,Pay Utility with OD Online,254742911013 - HANEST AMIMO,,IEG
QH58Q0KZ02,05/08/2022 18:56,05/08/2022 18:56,Pay Bill from 254714060203 - PATRICK MWANGOMBE MSAWUCHI Acc. KEI,Completed,12000,,131000,TRUE,Pay Utility,254714060203 - PATRICK MWANGOMBE MSAWUCHI,,KEI
QH59PYFD7F,05/08/2022 18:36,05/08/2022 18:36,Pay Bill Online from 254724587401 - RAPHAEL IRUNGU WAIHURA Acc. KGG,Completed,10000,,119000,TRUE,Pay Bill Online,254724587401 - RAPHAEL IRUNGU WAIHURA,,KGG
QH52PXES4S,05/08/2022 18:27,05/08/2022 18:27,Pay Bill from 254700198550 - BENARD ONYANGO Acc. DBB,Completed,16000,,109000,TRUE,Pay Utility,254700198550 - BENARD ONYANGO,,DBB
QH54PWAM6Y,05/08/2022 18:16,05/08/2022 18:16,Pay Bill from 254729355933 - FELISTAH NJERI WAIRIMU Acc. IDI,Completed,15000,,93000,TRUE,Pay Utility,254729355933 - FELISTAH NJERI WAIRIMU,,IDI
QH57PVEGTH,05/08/2022 18:07,05/08/2022 18:07,Pay Bill from 254712283818 - OYUGI OCHIENG Acc. FCB,Completed,16000,,78000,TRUE,Pay Utility,254712283818 - OYUGI OCHIENG,,FCB
QH54PQGVB0,05/08/2022 17:16,05/08/2022 17:16,Pay Bill from 254725478531 - KIPKORIR KUTO Acc. DFB,Completed,15000,,62000,TRUE,Pay Utility,254725478531 - KIPKORIR KUTO,,DFB
QH54PPDAME,05/08/2022 17:04,05/08/2022 17:04,Pay Bill from 254720375006 - JACOB KANGOGO Acc. IBA,Completed,15000,,47000,TRUE,Pay Utility,254720375006 - JACOB KANGOGO,,IBA
QH59PO2WL5,05/08/2022 16:49,05/08/2022 16:49,Pay Bill Online from 254713966424 - NDUTI MUTHUI Acc. Jed,Completed,15000,,32000,TRUE,Pay Bill Online,254713966424 - NDUTI MUTHUI,,Jed
QH59PLHNLH,05/08/2022 16:18,05/08/2022 16:18,Pay Bill from 254726753273 - JESSE K MURIRMI NJERU Acc. HCH,Completed,17000,,17000,TRUE,Pay Utility,254726753273 - JESSE K MURIRMI NJERU,,HCH
QH58PKG69C,05/08/2022 16:05,05/08/2022 16:05,Utility Account to Organization Settlement Account,Completed,,-322400,0,TRUE,Utility Account to Organization Settlement Account,979524 - ANCIENT WELLS PROPERTY MANAGERS 2,,
QH55PGP3SX,05/08/2022 15:17,05/08/2022 15:17,Pay Bill from 254728670882 - SHARAD EDWARD ADALA OLUM Acc. KCK,Completed,3400,,322400,TRUE,Pay Utility,254728670882 - SHARAD EDWARD ADALA OLUM,,KCK
QH55PEYO49,05/08/2022 14:55,05/08/2022 14:55,Pay Bill Online from 254706549634 - CLINTON OMBASA Acc. FDB,Completed,10000,,319000,TRUE,Pay Bill Online,254706549634 - CLINTON OMBASA,,FDB
QH58PES6TG,05/08/2022 14:53,05/08/2022 14:53,Pay Bill from 0743248310 - PATRICK STURRIDGE NYONGESA Acc. daa,Completed,18000,,309000,TRUE,Pay Utility,0743248310 - PATRICK STURRIDGE NYONGESA,,daa
QH50PE84RW,05/08/2022 14:46,05/08/2022 14:46,Pay Bill from 0711769778 - PROTASIA BONIPHACE MANOSA Acc. IBB,Completed,15000,,291000,TRUE,Pay Utility,0711769778 - PROTASIA BONIPHACE MANOSA,,IBB
QH56PBIIUY,05/08/2022 14:11,05/08/2022 14:11,Pay Bill from 254715636579 - GRACE KALUKI MULI Acc. FDA,Completed,16000,,276000,TRUE,Pay Utility with OD via STK,254715636579 - GRACE KALUKI MULI,,FDA
QH56PBHO0E,05/08/2022 14:11,05/08/2022 14:11,Pay Bill from 254716881682 - JUSTINE FAYUMA OKWEMBA Acc. HAA,Completed,17000,,260000,TRUE,Pay Utility,254716881682 - JUSTINE FAYUMA OKWEMBA,,HAA
QH50P8Q7NQ,05/08/2022 13:36,05/08/2022 13:36,Pay Bill Online from 254706144834 - WILKISTER OSUMO Acc. HFB,Completed,15000,,243000,TRUE,Pay Bill Online,254706144834 - WILKISTER OSUMO,,HFB
QH52P2YUWO,05/08/2022 12:20,05/08/2022 12:20,Pay Bill from 254702216907 - FAITH MUSA Acc. KBE ,Completed,10000,,228000,TRUE,Pay Utility,254702216907 - FAITH MUSA,,KBE
QH53P1A68D,05/08/2022 11:58,05/08/2022 11:58,Pay Bill from 0797758628 - jackline nyamari onyango Acc. ICF,Completed,11000,,218000,TRUE,Pay Utility,0797758628 - jackline nyamari onyango,,ICF
QH51OZCZTL,05/08/2022 11:32,05/08/2022 11:32,Pay Bill from 0724386624 - FATUMA ISSE YUSSUF Acc. FAB,Completed,16000,,207000,TRUE,Pay Utility with OD via STK,0724386624 - FATUMA ISSE YUSSUF,,FAB
QH59OS4TIV,05/08/2022 09:53,05/08/2022 09:53,Pay Bill Online from 254715002789 - ERICK NGUGI MAINA Acc. HAG,Completed,16000,,191000,TRUE,Pay Bill Online,254715002789 - ERICK NGUGI MAINA,,HAG
QH56OLJ4V2,05/08/2022 08:09,05/08/2022 08:09,Pay Bill Online from 0722255105 - SALIM OMAR MZEE Acc. KGE,Completed,10000,,175000,TRUE,Pay Bill Online,0722255105 - SALIM OMAR MZEE,,KGE
QH54OL9RAI,05/08/2022 08:04,05/08/2022 08:04,Pay Bill from 254723929380 - RHODAH K WAMBUA Acc. HEF,Completed,9500,,165000,TRUE,Pay Utility,254723929380 - RHODAH K WAMBUA,,HEF
QH57OG5QP1,05/08/2022 01:10,05/08/2022 01:10,Pay Bill from 254708875278 - ROSEMARY WANJIRU KONYE Acc. HBF,Completed,9000,,155500,TRUE,Pay Utility,254708875278 - ROSEMARY WANJIRU KONYE,,HBF
QH42OEPB9Y,04/08/2022 23:15,04/08/2022 23:15,Pay Bill from 254798844460 - WYCLIFFE ODHIAMBO NYAGOA Acc. KAC,Completed,10000,,146500,TRUE,Pay Utility,254798844460 - WYCLIFFE ODHIAMBO NYAGOA,,KAC
QH49OEGYN3,04/08/2022 23:06,04/08/2022 23:06,Pay Bill from 254700557767 - BAKHITA MWENDE MUANGE Acc. kcb,Completed,16000,,136500,TRUE,Pay Utility,254700557767 - BAKHITA MWENDE MUANGE,,kcb
QH47OB7KGT,04/08/2022 21:48,04/08/2022 21:48,Pay Bill Online from 254725909984 - TIMOTHY ODHIAMBO OWITI Acc. jde,Completed,10000,,120500,TRUE,Pay Bill Online,254725909984 - TIMOTHY ODHIAMBO OWITI,,jde
QH41O5W6GD,04/08/2022 20:38,04/08/2022 20:38,Pay Bill from 0700206427 - Clare Nabalisa Mukasa Acc. HFA,Completed,16000,,110500,TRUE,Pay Utility,0700206427 - Clare Nabalisa Mukasa,,HFA
QH47O3W3WD,04/08/2022 20:19,04/08/2022 20:19,Pay Bill Online from 254718663397 - JIMMY MUNYAO NZIOKI Acc. DCB,Completed,16000,,94500,TRUE,Pay Bill Online,254718663397 - JIMMY MUNYAO NZIOKI,,DCB
QH40O1AIKW,04/08/2022 19:56,04/08/2022 19:56,Pay Bill Online from 254714536026 - LILIAN AWUOR ONYANGO Acc. HDC,Completed,10500,,78500,TRUE,Pay Bill Online,254714536026 - LILIAN AWUOR ONYANGO,,HDC
QH47NZSVRN,04/08/2022 19:43,04/08/2022 19:43,Pay Bill from 254721784820 - YVONNE OKELLO Acc. KGC,Completed,9000,,68000,TRUE,Pay Utility,254721784820 - YVONNE OKELLO,,KGC
QH47NXBH99,04/08/2022 19:22,04/08/2022 19:22,Pay Bill from 254718253322 - DUNCAN MOCHOGE Acc. JFJ,Completed,15000,,59000,TRUE,Pay Utility,254718253322 - DUNCAN MOCHOGE,,JFJ
QH44NSZL20,04/08/2022 18:44,04/08/2022 18:44,Pay Bill from 254741223822 - Rhoyce Kiptarus Boiyo Acc. FEC,Completed,9000,,44000,TRUE,Pay Utility,254741223822 - Rhoyce Kiptarus Boiyo,,FEC
QH42NSBF7I,04/08/2022 18:38,04/08/2022 18:38,Pay Bill Online from 254710202776 - KELVIN KARIMI MACHARIA Acc. FAD,Completed,11000,,35000,TRUE,Pay Bill Online,254710202776 - KELVIN KARIMI MACHARIA,,FAD
QH49NFM70H,04/08/2022 16:22,04/08/2022 16:22,Pay Bill from 0115327960 - JOSEPH WAMBUA MUSYOKA Acc. IBG,Completed,8000,,24000,TRUE,Pay Utility,0115327960 - JOSEPH WAMBUA MUSYOKA,,IBG
QH43N7E59Z,04/08/2022 14:35,04/08/2022 14:35,Pay Bill Online from 254705846408 - JAMES OUMA Acc. HBH,Completed,16000,,16000,TRUE,Pay Bill Online,254705846408 - JAMES OUMA,,HBH
QH40N31F94,04/08/2022 13:38,04/08/2022 13:38,Utility Account to Organization Settlement Account,Completed,,-243000,0,TRUE,Utility Account to Organization Settlement Account,979524 - ANCIENT WELLS PROPERTY MANAGERS 2,,
QH44MZ16B4,04/08/2022 12:46,04/08/2022 12:46,Pay Bill from 0706563358 - HARRIET NYANCHAMA NYABERI Acc. FCC,Completed,9000,,243000,TRUE,Pay Utility,0706563358 - HARRIET NYANCHAMA NYABERI,,FCC
QH40MYXVDW,04/08/2022 12:44,04/08/2022 12:44,Pay Bill from 254720620070 - Michelle Mwihaki Ngaruiya Acc. JEB,Completed,15000,,234000,TRUE,Pay Utility,254720620070 - Michelle Mwihaki Ngaruiya,,JEB
QH47MR2ROZ,04/08/2022 10:57,04/08/2022 10:57,Pay Bill Online from 254722728975 - CURTIS MRIGA OMIDO Acc. IAH,Completed,16000,,219000,TRUE,Pay Bill Online,254722728975 - CURTIS MRIGA OMIDO,,IAH
QH47MMGVMJ,04/08/2022 09:53,04/08/2022 09:53,Pay Bill Online from 254720451253 - JIMMY KIOGORA NKIROTE Acc. KBD,Completed,1500,,203000,TRUE,Pay Bill Online,254720451253 - JIMMY KIOGORA NKIROTE,,KBD
QH44MM6Y64,04/08/2022 09:48,04/08/2022 09:48,Pay Bill from 254701741613 - ELDERKIN AKOSA Acc. IFB,Completed,15000,,201500,TRUE,Pay Utility,254701741613 - ELDERKIN AKOSA,,IFB
QH47MLRV3X,04/08/2022 09:42,04/08/2022 09:42,Pay Bill Online from 254720696119 - DUNCAN OMONDI OKETCH Acc. IAG,Completed,9000,,186500,TRUE,Pay Bill Online,254720696119 - DUNCAN OMONDI OKETCH,,IAG
QH48MLHOYK,04/08/2022 09:38,04/08/2022 09:38,Pay Bill from 254724691303 - FREDRICK OTIENO ONEGE Acc. ICH,Completed,12000,,177500,TRUE,Pay Utility,254724691303 - FREDRICK OTIENO ONEGE,,ICH
QH43MLCY8B,04/08/2022 09:36,04/08/2022 09:36,Pay Bill from 254715256302 - RUTH N NDUMA Acc. IGH ,Completed,15000,,165500,TRUE,Pay Utility,254715256302 - RUTH N NDUMA,,IGH
QH40MFFRQU,04/08/2022 07:57,04/08/2022 07:57,Pay Bill from 254729160700 - MICAH NDUNGI Acc. HFE,Completed,10500,,150500,TRUE,Pay Utility,254729160700 - MICAH NDUNGI,,HFE
QH45MFCQFP,04/08/2022 07:55,04/08/2022 07:55,Pay Bill Online from 254710382992 - SIMON KAMAU MUIRURI Acc. JCD,Completed,15000,,140000,TRUE,Pay Bill Online,254710382992 - SIMON KAMAU MUIRURI,,JCD
QH34M9W5TM,03/08/2022 23:35,03/08/2022 23:35,Pay Bill Online from 254719134037 - KELVIN KITOO Acc. FAA,Completed,16000,,125000,TRUE,Pay Utility with OD Online,254719134037 - KELVIN KITOO,,FAA
QH38M504FM,03/08/2022 21:31,03/08/2022 21:31,Pay Bill Online from 254721417560 - ANDREW SANDE Acc. JBJ,Completed,16000,,109000,TRUE,Pay Bill Online,254721417560 - ANDREW SANDE,,JBJ
QH35M3CHE7,03/08/2022 21:08,03/08/2022 21:08,Pay Bill Online from 0758001057 - sahara mohamed edow Acc. IGF,Completed,10000,,93000,TRUE,Pay Bill Online,0758001057 - sahara mohamed edow,,IGF
QH31LN5FWZ,03/08/2022 18:34,03/08/2022 18:34,Pay Bill Online from 254721974995 - BERNICE MANGOKA Acc. KFK,Completed,16000,,83000,TRUE,Pay Utility with OD Online,254721974995 - BERNICE MANGOKA,,KFK
QH34LHORMS,03/08/2022 17:39,03/08/2022 17:39,Pay Bill from 254723499628 - CLINTON JOSEPH MUHARI Acc. hfh,Completed,16000,,67000,TRUE,Pay Utility,254723499628 - CLINTON JOSEPH MUHARI,,hfh
QH38L7QS1K,03/08/2022 15:42,03/08/2022 15:42,Pay Bill from 254724477912 - SAMUEL MURIMI Acc. HCD,Completed,10000,,51000,TRUE,Pay Utility,254724477912 - SAMUEL MURIMI,,HCD
QH38L79T48,03/08/2022 15:36,03/08/2022 15:36,Pay Bill from 0769714506 - edith      gakii Acc. DDB,Completed,16000,,41000,TRUE,Pay Utility with OD via STK,0769714506 - edith      gakii,,DDB
QH38KSF8RU,03/08/2022 12:23,03/08/2022 12:23,Pay Bill Online from 254708300413 - ROBINSON AYAKO Acc. KEH,Completed,10000,,25000,TRUE,Pay Bill Online,254708300413 - ROBINSON AYAKO,,KEH
QH38KS3SUO,03/08/2022 12:19,03/08/2022 12:19,Pay Bill from 254725771056 - CHARLES MURAGURI Acc. FCE,Completed,15000,,15000,TRUE,Pay Utility,254725771056 - CHARLES MURAGURI,,FCE
QH39KPBFMV,03/08/2022 11:41,03/08/2022 11:41,Utility Account to Organization Settlement Account,Completed,,-286000,0,TRUE,Utility Account to Organization Settlement Account,979524 - ANCIENT WELLS PROPERTY MANAGERS 2,,
QH33KP17CD,03/08/2022 11:37,03/08/2022 11:37,Pay Bill from 254719398942 - NORAH WAYUA MUNYAO Acc. KDA,Completed,16000,,286000,TRUE,Pay Utility,254719398942 - NORAH WAYUA MUNYAO,,KDA
QH37KNDR77,03/08/2022 11:15,03/08/2022 11:15,Pay Bill from 254723017892 - JUDY MUTHEU Acc. ICI,Completed,16000,,270000,TRUE,Pay Utility,254723017892 - JUDY MUTHEU,,ICI
QH34KJ7VYS,03/08/2022 10:17,03/08/2022 10:17,Pay Bill from 254722263593 - GLADYS KAMAU Acc. kcj,Completed,16000,,254000,TRUE,Pay Utility,254722263593 - GLADYS KAMAU,,kcj
QH38KDC4FO,03/08/2022 08:48,03/08/2022 08:48,Pay Bill from 254724852503 - GEOFREY YEGO Acc. JFF,Completed,10000,,238000,TRUE,Pay Utility,254724852503 - GEOFREY YEGO,,JFF
QH33K9TMJT,03/08/2022 07:45,03/08/2022 07:45,Pay Bill Online from 254792584569 - LUCY MWALIMO Acc. IAD,Completed,11000,,228000,TRUE,Pay Bill Online,254792584569 - LUCY MWALIMO,,IAD
QH26K4E5LC,02/08/2022 23:16,02/08/2022 23:16,Pay Bill Online from 254711562428 - Lionel Mutune Muoka Acc. KDI,Completed,11000,,217000,TRUE,Pay Bill Online,254711562428 - Lionel Mutune Muoka,,KDI
QH23K40SZ1,02/08/2022 23:01,02/08/2022 23:01,Pay Bill Online from 254715764212 - BANCE ISHEMINYE Acc. JFE,Completed,3000,,206000,TRUE,Pay Bill Online,254715764212 - BANCE ISHEMINYE,,JFE
QH21K1Q8OH,02/08/2022 21:58,02/08/2022 21:58,Pay Bill Online from 254721714178 - PHANICE JEROTICH KIPTOO Acc. FBF,Completed,16000,,203000,TRUE,Pay Bill Online,254721714178 - PHANICE JEROTICH KIPTOO,,FBF
QH25JZZC3V,02/08/2022 21:28,02/08/2022 21:28,Pay Bill from 254728084427 - MARY NABWIRE OKELLO Acc. FDF,Completed,16000,,187000,TRUE,Pay Utility,254728084427 - MARY NABWIRE OKELLO,,FDF
QH24JX6BJ6,02/08/2022 20:49,02/08/2022 20:49,Pay Bill Online from 254799946039 - LUIS OTIENO Acc. IAE,Completed,8000,,171000,TRUE,Pay Bill Online,254799946039 - LUIS OTIENO,,IAE
QH20JX18GI,02/08/2022 20:48,02/08/2022 20:48,Pay Bill from 254722136450 - MARY EVERLYN Acc. JAI,Completed,20000,,163000,TRUE,Pay Utility,254722136450 - MARY EVERLYN,,JAI
QH29JVLHPB,02/08/2022 20:31,02/08/2022 20:31,Pay Bill Online from 254722258756 - DAVID KEMBOI Acc. HDA,Completed,18000,,143000,TRUE,Pay Utility with OD Online,254722258756 - DAVID KEMBOI,,HDA
QH29JSH11D,02/08/2022 19:59,02/08/2022 19:59,Pay Bill Online from 254714563486 - BRIAN MMATA MUSERA Acc. KBJ,Completed,16000,,125000,TRUE,Pay Bill Online,254714563486 - BRIAN MMATA MUSERA,,KBJ
QH26JQI8ZU,02/08/2022 19:41,02/08/2022 19:41,Pay Bill from 254725754547 - MWACHIRO GEORGE DECHE Acc. DFC,Completed,20000,,109000,TRUE,Pay Utility,254725754547 - MWACHIRO GEORGE DECHE,,DFC
QH28JOQR34,02/08/2022 19:26,02/08/2022 19:26,Pay Bill from 254725062550 - FRANKLINE MASSAM Acc. KAF,Completed,10000,,89000,TRUE,Pay Utility,254725062550 - FRANKLINE MASSAM,,KAF
QH21JHZGKT,02/08/2022 18:25,02/08/2022 18:25,Pay Bill from 0114765287 - JUDELEEN SHILOBELE AHINDUKHA Acc. IEA,Completed,15000,,79000,TRUE,Pay Utility,0114765287 - JUDELEEN SHILOBELE AHINDUKHA,,IEA
QH23JHTHH9,02/08/2022 18:23,02/08/2022 18:23,Pay Bill from 0726465363 - ISAAC KITONGA JOSEPH Acc. IDG,Completed,10000,,64000,TRUE,Pay Utility,0726465363 - ISAAC KITONGA JOSEPH,,IDG
QH26JF8ER8,02/08/2022 17:57,02/08/2022 17:57,Pay Bill Online from 254714855708 - KIPLANGAT SITIENEI Acc. FAE,Completed,16000,,54000,TRUE,Pay Bill Online,254714855708 - KIPLANGAT SITIENEI,,FAE
QH26J6IR92,02/08/2022 16:19,02/08/2022 16:19,Pay Bill Online from 0711117122 - Yassir Mwinyi Abdulrazaq Acc. ICE,Completed,6000,,38000,TRUE,Pay Bill Online,0711117122 - Yassir Mwinyi Abdulrazaq,,ICE
QH28J4T86M,02/08/2022 15:57,02/08/2022 15:57,Pay Bill from 254717726012 - WINFRED MUENI PETER Acc. IDA,Completed,16000,,32000,TRUE,Pay Utility with OD via STK,254717726012 - WINFRED MUENI PETER,,IDA
QH26J4KKZI,02/08/2022 15:54,02/08/2022 15:54,Pay Bill from 254711123196 - JUDITH MUTUA Acc. Fea,Completed,16000,,16000,TRUE,Pay Utility,254711123196 - JUDITH MUTUA,,Fea
QH21J4B5WF,02/08/2022 15:50,02/08/2022 15:50,Utility Account to Organization Settlement Account,Completed,,-114500,0,TRUE,Utility Account to Organization Settlement Account,979524 - ANCIENT WELLS PROPERTY MANAGERS 2,,
QH22J1KXCM,02/08/2022 15:15,02/08/2022 15:15,Pay Bill Online from 254720107609 - DENNIS OGENDI BARAKE Acc. JAJ,Completed,15000,,114500,TRUE,Pay Bill Online,254720107609 - DENNIS OGENDI BARAKE,,JAJ
QH29IUWJFF,02/08/2022 13:46,02/08/2022 13:46,Pay Bill Online from 254792187144 - HASSAN AHMED HASSAN Acc. KGI,Completed,10000,,99500,TRUE,Pay Bill Online,254792187144 - HASSAN AHMED HASSAN,,KGI
QH24IRAB2Q,02/08/2022 12:57,02/08/2022 12:57,Pay Bill Online from 254721465713 - RHODA WAMBUI MWANGI Acc. Jfh,Completed,17000,,89500,TRUE,Pay Bill Online,254721465713 - RHODA WAMBUI MWANGI,,Jfh
QH27IQNJXX,02/08/2022 12:49,02/08/2022 12:49,Pay Bill Online from 254726001437 - FESTUS MUNYIRI MAINA Acc. IFF,Completed,10000,,72500,TRUE,Pay Bill Online,254726001437 - FESTUS MUNYIRI MAINA,,IFF
QH24IP8RUQ,02/08/2022 12:30,02/08/2022 12:30,Pay Bill from 254708079935 - JACKLINE WANJIKO NAMBOSO Acc. f b d,Completed,23000,,62500,TRUE,Pay Utility,254708079935 - JACKLINE WANJIKO NAMBOSO,,f
QH20IJ44S2,02/08/2022 11:05,02/08/2022 11:05,Pay Bill Online from 254706898046 - STACY AKETCH OCHUKA Acc. KGK,Completed,11500,,39500,TRUE,Pay Bill Online,254706898046 - STACY AKETCH OCHUKA,,KGK
QH28IFAV5O,02/08/2022 10:11,02/08/2022 10:11,Pay Bill from 0748059595 - Rashid NASSIR Khamis Acc. DDA,Completed,17000,,28000,TRUE,Pay Utility,0748059595 - Rashid NASSIR Khamis,,DDA
QH24IF0QQY,02/08/2022 10:07,02/08/2022 10:07,Pay Bill from 254719747910 - KEVIN NDERITU GAKINGO Acc. IDD,Completed,11000,,11000,TRUE,Pay Utility,254719747910 - KEVIN NDERITU GAKINGO,,IDD
QH22I8E3RM,02/08/2022 08:25,02/08/2022 08:25,Utility Account to Organization Settlement Account,Completed,,-444000,0,TRUE,Utility Account to Organization Settlement Account,979524 - ANCIENT WELLS PROPERTY MANAGERS 2,,
QH25I7NQKB,02/08/2022 08:13,02/08/2022 08:13,Pay Bill Online from 254725218904 - SALOME MUTHONI MWANGI Acc. KFJ,Completed,15000,,444000,TRUE,Pay Bill Online,254725218904 - SALOME MUTHONI MWANGI,,KFJ
QH26I2EEX0,02/08/2022 03:49,02/08/2022 03:49,Pay Bill from 254720550403 - GRACE WANGONDU Acc. jfi,Completed,20000,,429000,TRUE,Pay Utility,254720550403 - GRACE WANGONDU,,jfi
QH12HY8GXY,01/08/2022 22:11,01/08/2022 22:11,Pay Bill from 254720407659 - FRANCIS CHUMO Acc. KDG,Completed,10000,,409000,TRUE,Pay Utility,254720407659 - FRANCIS CHUMO,,KDG
QH14HU47II,01/08/2022 21:05,01/08/2022 21:05,Pay Bill from 254708570729 - MARY OGOLLA Acc. House no.KAD,Completed,12000,,399000,TRUE,Pay Utility,254708570729 - MARY OGOLLA,,House
QH14HR5EIS,01/08/2022 20:30,01/08/2022 20:30,Pay Bill from 254726013909 - BRENDA OKISA AMUNGA Acc. KCD,Completed,15000,,387000,TRUE,Pay Utility,254726013909 - BRENDA OKISA AMUNGA,,KCD
QH17HPY54R,01/08/2022 20:18,01/08/2022 20:18,Pay Bill from 254724103759 - RICHARD NKAABO Acc. jej,Completed,16000,,372000,TRUE,Pay Utility,254724103759 - RICHARD NKAABO,,jej
QH15H7M93H,01/08/2022 17:35,01/08/2022 17:35,Pay Bill from 254722826454 - CHARLES KARIMI MAITAI Acc. KDC  Keila Nyambura,Completed,10000,,356000,TRUE,Pay Utility,254722826454 - CHARLES KARIMI MAITAI,,KDC
QH13H5DLL1,01/08/2022 17:12,01/08/2022 17:12,Pay Bill from 0717216114 - Felix Njeru Mugambi Acc. kdf,Completed,10000,,346000,TRUE,Pay Utility,0717216114 - Felix Njeru Mugambi,,kdf
QH18GX3510,01/08/2022 15:31,01/08/2022 15:31,Pay Bill from 254727766786 - JOHN MAITHA MULWA Acc. ibh,Completed,15000,,336000,TRUE,Pay Utility,254727766786 - JOHN MAITHA MULWA,,ibh
QH14GPWVK0,01/08/2022 13:54,01/08/2022 13:54,Pay Bill Online from 254704403532 - Mercy Chepchirchir Mary Acc. JBC,Completed,5000,,321000,TRUE,Pay Utility with OD Online,254704403532 - Mercy Chepchirchir Mary,,JBC
QH18GN13J6,01/08/2022 13:16,01/08/2022 13:16,Pay Bill Online from 254728093389 - MOHAMED MUSA ALASOW Acc. KED,Completed,12000,,316000,TRUE,Pay Bill Online,254728093389 - MOHAMED MUSA ALASOW,,KED
QH15GB31QX,01/08/2022 10:26,01/08/2022 10:26,Pay Bill Online from 0796121714 - janet   mwikali Acc. KBC,Completed,10000,,304000,TRUE,Pay Bill Online,0796121714 - janet   mwikali,,KBC
QH18GAYHTM,01/08/2022 10:24,01/08/2022 10:24,Pay Bill from 254798643998 - Judith Mwaniki Acc. KCE,Completed,10000,,294000,TRUE,Pay Utility,254798643998 - Judith Mwaniki,,KCE
QH12GAI698,01/08/2022 10:17,01/08/2022 10:17,Pay Bill from 254718244582 - GRANT WANANGWE Acc. KAH,Completed,10000,,284000,TRUE,Pay Utility,254718244582 - GRANT WANANGWE,,KAH
QH14G63L0I,01/08/2022 09:10,01/08/2022 09:10,Pay Bill from 254726651764 - NICHOLAS MWANZIA Acc. HBE,Completed,10500,,274000,TRUE,Pay Utility with OD via STK,254726651764 - NICHOLAS MWANZIA,,HBE
QH14G12IU2,01/08/2022 07:39,01/08/2022 07:39,Pay Bill from 254702355678 - JOHN NJOROGE GICHERU Acc. ITE,Completed,10000,,263500,TRUE,Pay Utility,254702355678 - JOHN NJOROGE GICHERU,,ITE
QH10G0VF4O,01/08/2022 07:34,01/08/2022 07:34,Pay Bill Online from 254795510441 - LEWIS MUEMA Acc. KEB,Completed,16000,,253500,TRUE,Pay Bill Online,254795510441 - LEWIS MUEMA,,KEB
