Receipt No.,Completion Time,Initiation Time,Details,Transaction Status,Paid In,Withdrawn,Balance,Balance Confirmed,Reason Type,Other Party Info,Linked Transaction ID,A/C No.
OC56JDT7YO,05/03/2020 10:23,05/03/2020 10:23,Pay Bill Online from 0757699775 - BENARD MUIA MUTUA Acc. HCB,Completed,16000,,447800,TRUE,Pay Bill Online,0757699775 - BENARD MUIA MUTUA,,HCB
OC51JCWBEX,05/03/2020 09:51,05/03/2020 09:51,Pay Bill from 254722258107 - JOHN ODIMA ODIMA Acc. KGF,Completed,10000,,431800,TRUE,Pay Utility,254722258107 - JOHN ODIMA ODIMA,,KGF
OC51JCRGZ7,05/03/2020 09:47,05/03/2020 09:47,Pay Bill from 254799178757 - Fabrice Nzeyimana Acc. HBF,Completed,13000,,421800,TRUE,Pay Utility,254799178757 - Fabrice Nzeyimana,,HBF
OC52JC5Y7U,05/03/2020 09:25,05/03/2020 09:25,Pay Bill from 254725347217 - STELLA KURGAT Acc. KAI,Completed,12000,,408800,TRUE,Pay Utility,254725347217 - STELLA KURGAT,,KAI
OC56JBCGF8,05/03/2020 08:53,05/03/2020 08:53,Pay Bill from 254790280339 - BANTURA GIBSON Acc. IBA,Completed,17000,,396800,TRUE,Pay Utility,254790280339 - BANTURA GIBSON,,IBA
OC55JAMDKV,05/03/2020 08:23,05/03/2020 08:23,Pay Bill from 254713159153 - GUYO SANKALA Acc. DGD,Completed,20000,,379800,TRUE,Pay Utility,254713159153 - GUYO SANKALA,,DGD
OC53J9NRZZ,05/03/2020 07:32,05/03/2020 07:32,Pay Bill from 254716499837 - ASHA MUSA Acc. JFD,Completed,15000,,359800,TRUE,Pay Utility,254716499837 - ASHA MUSA,,JFD
OC54J9BTQK,05/03/2020 07:08,05/03/2020 07:08,Pay Bill from 254707315614 - TERESAH WANJIRU KIRAGU Acc. JDI,Completed,24000,,344800,TRUE,Pay Utility,254707315614 - TERESAH WANJIRU KIRAGU,,JDI
OC50J91OUW,05/03/2020 06:38,05/03/2020 06:38,Pay Bill from 254708328466 - VENESSA NYARERU Acc. KCD,Completed,12000,,320800,TRUE,Pay Utility,254708328466 - VENESSA NYARERU,,KCD
OC48J6PKPI,04/03/2020 21:51,04/03/2020 21:51,Pay Bill from 254792891094 - WINNIE ODHIAMBO Acc. HFD,Completed,9500,,308800,TRUE,Pay Utility,254792891094 - WINNIE ODHIAMBO,,HFD
OC40J6OZ88,04/03/2020 21:51,04/03/2020 21:51,Pay Bill from 254722910078 - MAUREEN MUNYIVA MUTUKU Acc. DBD,Completed,17000,,299300,TRUE,Pay Utility,254722910078 - MAUREEN MUNYIVA MUTUKU,,DBD
OC45J69ZX3,04/03/2020 21:34,04/03/2020 21:34,Pay Bill from 254721320216 - PAULINE WANJA NJUNGUNA Acc. HDC,Completed,10500,,282300,TRUE,Pay Utility with OD via STK,254721320216 - PAULINE WANJA NJUNGUNA,,HDC
OC47J4Y8FR,04/03/2020 20:51,04/03/2020 20:51,Pay Bill from 254726753273 - JESSE K MURIRMI NJERU Acc. HCH,Completed,17000,,271800,TRUE,Pay Utility,254726753273 - JESSE K MURIRMI NJERU,,HCH
OC46J3XHNQ,04/03/2020 20:24,04/03/2020 20:24,Pay Bill from 254712275450 - Faith muthoni mukundi Acc. IAF,Completed,11000,,254800,TRUE,Pay Utility,254712275450 - Faith muthoni mukundi,,IAF
OC47J26CSP,04/03/2020 19:44,04/03/2020 19:44,Pay Bill from 254714078455 - BARRACK OTIENO OUMA Acc. IBF,Completed,11000,,243800,TRUE,Pay Utility,254714078455 - BARRACK OTIENO OUMA,,IBF
OC43IYHAJF,04/03/2020 18:27,04/03/2020 18:27,Pay Bill Online from 254724754662 - CHARLES ERUKUDI EKAI Acc. FBE,Completed,16000,,232800,TRUE,Pay Bill Online,254724754662 - CHARLES ERUKUDI EKAI,,FBE
OC41IXAJDD,04/03/2020 18:00,04/03/2020 18:00,Pay Bill from 254792187144 - HASSAN AHMED HASSAN Acc. KGI,Completed,10000,,216800,TRUE,Pay Utility,254792187144 - HASSAN AHMED HASSAN,,KGI
OC42IW7LDQ,04/03/2020 17:33,04/03/2020 17:33,Pay Bill from 254706234646 - OCHIENG WINNE Acc. JDC,Completed,11000,,206800,TRUE,Pay Utility,254706234646 - OCHIENG WINNE,,JDC
OC43IV3097,04/03/2020 17:03,04/03/2020 17:03,Pay Bill from 254729371750 - DERRICK OTANGA Acc. FEF,Completed,17000,,195800,TRUE,Pay Utility,254729371750 - DERRICK OTANGA,,FEF
OC44IU70O0,04/03/2020 16:38,04/03/2020 16:38,Pay Bill from 254715597659 - JOYCE KIVAI Acc. IED ,Completed,11000,,178800,TRUE,Pay Utility,254715597659 - JOYCE KIVAI,,IED
OC43ITXBLV,04/03/2020 16:30,04/03/2020 16:30,Pay Bill from 254727416242 - JOAN GICHOMO Acc. DEC,Completed,20000,,167800,TRUE,Pay Utility,254727416242 - JOAN GICHOMO,,DEC
OC46IRNYTU,04/03/2020 15:17,04/03/2020 15:17,Pay Bill from 254719398942 - NORAH WAYUA MUNYAO Acc. KDC,Completed,10000,,147800,TRUE,Pay Utility,254719398942 - NORAH WAYUA MUNYAO,,KDC
OC43IQL0ZD,04/03/2020 14:41,04/03/2020 14:41,Pay Bill from 254748104979 - JAMES GITHOGORI NGARI Acc. kfb,Completed,16000,,137800,TRUE,Pay Utility,254748104979 - JAMES GITHOGORI NGARI,,kfb
OC46IPVOGW,04/03/2020 14:17,04/03/2020 14:17,Pay Bill from 254721417560 - ANDREW SANDE Acc. JBJ,Completed,6000,,121800,TRUE,Pay Utility,254721417560 - ANDREW SANDE,,JBJ
OC43IOTNVD,04/03/2020 13:42,04/03/2020 13:42,Pay Bill from 254708786932 - ZUBEDAH MOHAMMED Acc. IAG,Completed,9500,,115800,TRUE,Pay Utility,254708786932 - ZUBEDAH MOHAMMED,,IAG
OC43ILTQ4P,04/03/2020 12:01,04/03/2020 12:01,Pay Bill from 254724882554 - ALPHONCE WAMBUA NGELI Acc. JDA,Completed,20000,,106300,TRUE,Pay Utility,254724882554 - ALPHONCE WAMBUA NGELI,,JDA
OC49IHTMBR,04/03/2020 09:41,04/03/2020 09:41,Pay Bill from 0703549682 - MILCAH KANINI BERNARD Acc. JDF,Completed,8000,,86300,TRUE,Pay Utility,0703549682 - MILCAH KANINI BERNARD,,JDF
OC47IHDOI7,04/03/2020 09:25,04/03/2020 09:25,Pay Bill from 254725226214 - NORMAN ESHUCHI Acc. Jej,Completed,32300,,78300,TRUE,Pay Utility,254725226214 - NORMAN ESHUCHI,,Jej
OC48IH1PSY,04/03/2020 09:12,04/03/2020 09:12,Pay Bill Online from 254715121526 - ROBERT WAINAINA KARIUKI Acc. HAH,Completed,18000,,46000,TRUE,Pay Bill Online,254715121526 - ROBERT WAINAINA KARIUKI,,HAH
OC40IGUR9U,04/03/2020 09:05,04/03/2020 09:05,Pay Bill from 254710202776 - KELVIN KARIMI MACHARIA Acc. FAD,Completed,11000,,28000,TRUE,Pay Utility,254710202776 - KELVIN KARIMI MACHARIA,,FAD
OC41IGQJ6L,04/03/2020 09:00,04/03/2020 09:00,Pay Bill from 254721392650 - JUSTUS ODIWUOR OUKO Acc. FCA,Completed,17000,,17000,TRUE,Pay Utility,254721392650 - JUSTUS ODIWUOR OUKO,,FCA
OC49IG7I91,04/03/2020 08:39,04/03/2020 08:39,Utility Account to Organization Settlement Account,Completed,,-226000,0,TRUE,Utility Account to Organization Settlement Account,979524 - ANCIENT WELLS PROPERTY MANAGERS 2,,
OC48IF2THW,04/03/2020 07:47,04/03/2020 07:47,Pay Bill from 0769001671 - Wilson Mutangili Wambua Acc. HAF,Completed,9500,,226000,TRUE,Pay Utility,0769001671 - Wilson Mutangili Wambua,,HAF
OC46IF0UPS,04/03/2020 07:43,04/03/2020 07:43,Pay Bill from 254723071630 - KENNEDY KARANJA NJOROGE Acc. JBI,Completed,20000,,216500,TRUE,Pay Utility,254723071630 - KENNEDY KARANJA NJOROGE,,JBI
OC47IE8L4H,04/03/2020 06:41,04/03/2020 06:41,Pay Bill from 254714855708 - KIPLANGAT SITIENEI Acc. FAE,Completed,16000,,196500,TRUE,Pay Utility,254714855708 - KIPLANGAT SITIENEI,,FAE
OC35IAPP9D,03/03/2020 21:22,03/03/2020 21:22,Pay Bill from 254720973929 - JOSEPH ONDIEK Acc. JEA,Completed,20000,,180500,TRUE,Pay Utility,254720973929 - JOSEPH ONDIEK,,JEA
OC34I7SBGE,03/03/2020 20:07,03/03/2020 20:07,Pay Bill from 0717216114 - Felix Njeru Mugambi Acc. KDF,Completed,10000,,160500,TRUE,Pay Utility,0717216114 - Felix Njeru Mugambi,,KDF
OC32I5EFFU,03/03/2020 19:20,03/03/2020 19:20,Pay Bill from 254716045947 - LILIAN OLOO Acc. FBD,Completed,11000,,150500,TRUE,Pay Utility,254716045947 - LILIAN OLOO,,FBD
OC31I5ECFR,03/03/2020 19:20,03/03/2020 19:20,Pay Bill from 0719834515 - Ibsa   Usman Acc. HBH,Completed,18000,,139500,TRUE,Pay Utility,0719834515 - Ibsa   Usman,,HBH
OC38I1XGQ4,03/03/2020 18:07,03/03/2020 18:07,Pay Bill from 254720850920 - HENRY ONDERI Acc. JCB,Completed,30000,,121500,TRUE,Pay Utility,254720850920 - HENRY ONDERI,,JCB
OC38I1UYBE,03/03/2020 18:05,03/03/2020 18:05,Pay Bill from 0743732208 - NAOMY KALEKYE MULWA Acc. KAE,Completed,10000,,91500,TRUE,Pay Utility,0743732208 - NAOMY KALEKYE MULWA,,KAE
OC36I1TNKK,03/03/2020 18:04,03/03/2020 18:04,Pay Bill from 254720911002 - TIMOTHY OCHOLA Acc. HDB,Completed,16000,,81500,TRUE,Pay Utility,254720911002 - TIMOTHY OCHOLA,,HDB
OC37I1D8J3,03/03/2020 17:53,03/03/2020 17:53,Pay Bill from 254716784364 - Wendy Kemunto Nyandiko Acc. FFC,Completed,9000,,65500,TRUE,Pay Utility,254716784364 - Wendy Kemunto Nyandiko,,FFC
OC35I13SWN,03/03/2020 17:47,03/03/2020 17:47,Pay Bill from 254798674917 - Egbe Okpaga Okpaga Acc. HAD,Completed,9500,,56500,TRUE,Pay Utility,254798674917 - Egbe Okpaga Okpaga,,HAD
OC39HZPXK9,03/03/2020 17:11,03/03/2020 17:11,Pay Bill from 254720458054 - ROBERT BETT Acc. ICH,Completed,36000,,47000,TRUE,Pay Utility,254720458054 - ROBERT BETT,,ICH
OC33HU52W7,03/03/2020 14:14,03/03/2020 14:14,Pay Bill from 254716863301 - PRISCILLAH WANJIRU Acc. ICD,Completed,11000,,11000,TRUE,Pay Utility,254716863301 - PRISCILLAH WANJIRU,,ICD
OC35HQWD6B,03/03/2020 12:29,03/03/2020 12:29,Utility Account to Organization Settlement Account,Completed,,-888600,0,TRUE,Utility Account to Organization Settlement Account,979524 - ANCIENT WELLS PROPERTY MANAGERS 2,,
OC36HQM80S,03/03/2020 12:20,03/03/2020 12:20,Pay Bill from 254720107609 - DENNIS OGENDI BARAKE Acc. JAJ,Completed,15000,,888600,TRUE,Pay Utility,254720107609 - DENNIS OGENDI BARAKE,,JAJ
OC35HOY1R7,03/03/2020 11:24,03/03/2020 11:24,Pay Bill from 254792946676 - ESTHER KAMAU Acc. hab,Completed,16000,,873600,TRUE,Pay Utility,254792946676 - ESTHER KAMAU,,hab
OC36HNCE2I,03/03/2020 10:31,03/03/2020 10:31,Pay Bill from 254723772794 - EMELDA OBONG' Acc. HDE,Completed,10500,,857600,TRUE,Pay Utility,254723772794 - EMELDA OBONG',,HDE
OC39HN5PPT,03/03/2020 10:24,03/03/2020 10:24,Pay Bill from 254713115724 - ROTICH JUDITH JUDITH CHERONO Acc. KCK,Completed,17000,,847100,TRUE,Pay Utility,254713115724 - ROTICH JUDITH JUDITH CHERONO,,KCK
OC33HLMSYV,03/03/2020 09:32,03/03/2020 09:32,Pay Bill from 254712187712 - JUDELEEN AHINDUKHA SHILOBELE Acc. IGG,Completed,9000,,830100,TRUE,Pay Utility,254712187712 - JUDELEEN AHINDUKHA SHILOBELE,,IGG
OC33HK7XQF,03/03/2020 08:40,03/03/2020 08:40,Pay Bill from 254714156268 - MARY NJOKI KANYIRI Acc. IFC,Completed,9500,,821100,TRUE,Pay Utility,254714156268 - MARY NJOKI KANYIRI,,IFC
OC31HK7HOL,03/03/2020 08:40,03/03/2020 08:40,Pay Bill from 254721302658 - JACOB BIRUNDU Acc. DDB,Completed,16000,,811600,TRUE,Pay Utility,254721302658 - JACOB BIRUNDU,,DDB
OC33HK77KR,03/03/2020 08:39,03/03/2020 08:39,Pay Bill from 254723929380 - RHODAH K WAMBUA Acc. HEF,Completed,9500,,795600,TRUE,Pay Utility,254723929380 - RHODAH K WAMBUA,,HEF
OC39HJCYNT,03/03/2020 08:05,03/03/2020 08:05,Pay Bill from 0719230789 - mathius cherogony kiplimo Acc. IAE,Completed,6000,,786100,TRUE,Pay Utility,0719230789 - mathius cherogony kiplimo,,IAE
OC32HIM4XS,03/03/2020 07:27,03/03/2020 07:27,Pay Bill from 254706115779 - MIRRIAM NJOKI MAINA Acc. IDE,Completed,9500,,780100,TRUE,Pay Utility,254706115779 - MIRRIAM NJOKI MAINA,,IDE
