Receipt No.,Completion Time,Initiation Time,Details,Transaction Status,Paid In,Withdrawn,Balance,Balance Confirmed,Reason Type,Other Party Info,Linked Transaction ID,A/C No.
OFO47MCCE2,24/06/2020 14:45,24/06/2020 14:45,Pay Bill from 0746130180 - lydia nyevu thoya Acc. V14,Completed,7000,,37800,TRUE,Pay Utility,0746130180 - lydia nyevu thoya,,V14
OFO97JE31F,24/06/2020 13:17,24/06/2020 13:17,Pay Bill from 254704783091 - CLINTON MUSEBE KASUTI Acc. V48,Completed,6600,,30800,TRUE,Pay Utility,254704783091 - CLINTON MUSEBE KASUTI,,V48
OFN46SBA0E,23/06/2020 16:01,23/06/2020 16:01,Pay Bill from 254790552440 - ANGEL MAIMA Acc. G3,Completed,11000,,24200,TRUE,Pay Utility,254790552440 - ANGEL MAIMA,,G3
OFN06DL1YU,23/06/2020 08:08,23/06/2020 08:08,Pay Bill from 254702343078 - JOSEPH EBENYO Acc. V10 joseph.,Completed,6600,,13200,TRUE,Pay Utility,254702343078 - JOSEPH EBENYO,,V10
OFM06AYICA,22/06/2020 22:20,22/06/2020 22:20,Pay Bill from 254707049818 - LUCKY TSUMA Acc. v19,Completed,6600,,6600,TRUE,Pay Utility,254707049818 - LUCKY TSUMA,,v19
OFM25FZV9C,22/06/2020 05:52,22/06/2020 05:52,Utility Account to Organization Settlement Account,Completed,,-11600,0,TRUE,Utility Account to Organization Settlement Account,887674 - ANCIENT WELLS LTD 1,,
OFL2531UTE,21/06/2020 16:58,21/06/2020 16:58,Pay Bill from 254707358881 - SUSAN NZOMO Acc. v42,Completed,6600,,11600,TRUE,Pay Utility,254707358881 - SUSAN NZOMO,,v42
OFL54YTLBV,21/06/2020 15:02,21/06/2020 15:02,Pay Bill from 254723538366 - VERONICAH SHIYENJI Acc. V40,Completed,5000,,5000,TRUE,Pay Utility,254723538366 - VERONICAH SHIYENJI,,V40
OFL94KQ9CX,21/06/2020 06:44,21/06/2020 06:44,Utility Account to Organization Settlement Account,Completed,,-6600,0,TRUE,Utility Account to Organization Settlement Account,887674 - ANCIENT WELLS LTD 1,,
OFK04HRCDC,20/06/2020 21:24,20/06/2020 21:24,Pay Bill from 254725756974 - MARTIN MUGAMBI Acc. v56,Completed,6600,,6600,TRUE,Pay Utility with OD via STK,254725756974 - MARTIN MUGAMBI,,v56
OFK4419EWY,20/06/2020 15:04,20/06/2020 15:04,Utility Account to Organization Settlement Account,Completed,,-6600,0,TRUE,Utility Account to Organization Settlement Account,887674 - ANCIENT WELLS LTD 1,,
OFJ23KRZU2,19/06/2020 23:03,19/06/2020 23:03,Pay Bill from 254721510646 - ANTHONY IRUNGU KARIUKI Acc. v41,Completed,6600,,6600,TRUE,Pay Utility,254721510646 - ANTHONY IRUNGU KARIUKI,,v41
OFJ233K966,19/06/2020 15:18,19/06/2020 15:18,Utility Account to Organization Settlement Account,Completed,,-1000,0,TRUE,Utility Account to Organization Settlement Account,887674 - ANCIENT WELLS LTD 1,,
OFJ82Z8C6U,19/06/2020 13:13,19/06/2020 13:13,Pay Bill from 254797665088 - INNOCENT WANAMI Acc. V2,Completed,1000,,1000,TRUE,Pay Utility,254797665088 - INNOCENT WANAMI,,V2
OFJ52XNI1D,19/06/2020 12:27,19/06/2020 12:27,Utility Account to Organization Settlement Account,Completed,,-3300,0,TRUE,Utility Account to Organization Settlement Account,887674 - ANCIENT WELLS LTD 1,,
OFI6201PSA,18/06/2020 12:21,18/06/2020 12:21,Pay Bill from 254704995854 - james karanja wairimu Acc. V54,Completed,3300,,3300,TRUE,Pay Utility,254704995854 - james karanja wairimu,,V54
