Receipt No.,Completion Time,Initiation Time,Details,Transaction Status,Paid In,Withdrawn,Balance,Balance Confirmed,Reason Type,Other Party Info,Linked Transaction ID,A/C No.
PBE9NUMNI3,14/02/2021 12:04,14/02/2021 12:04,Pay Bill from 254792946676 - ESTHER KAMAU Acc. hab,Completed,1400,,3500,TRUE,Pay Utility with OD via STK,254792946676 - ESTHER KAMAU,,hab
PBE2NRT9YK,14/02/2021 10:46,14/02/2021 10:46,Pay Bill Online from 254720201580 - CHRISTOPHER OTUOMA Acc. chris,Completed,400,,2100,TRUE,Pay Utility with OD Online,254720201580 - CHRISTOPHER OTUOMA,,chris
PBD3ND6BCN,13/02/2021 20:12,13/02/2021 20:12,Pay Bill Online from 254711184244 - KIPROP FESTUS Acc. Festus Kiprop C1p,Completed,400,,1700,TRUE,Pay Bill Online,254711184244 - KIPROP FESTUS,,Festus
PBD0N4MBSW,13/02/2021 18:03,13/02/2021 18:03,Pay Bill from 254797665088 - INNOCENT WANAMI Acc. V2,Completed,800,,1300,TRUE,Pay Utility,254797665088 - INNOCENT WANAMI,,V2
PBD8MYFQ88,13/02/2021 16:09,13/02/2021 16:09,Pay Bill from 254726337163 - HALIMA ALI HASSAN Acc. DDA,Completed,500,,500,TRUE,Pay Utility,254726337163 - HALIMA ALI HASSAN,,DDA
PBD3MNLAGL,13/02/2021 12:20,13/02/2021 12:20,Utility Account to Organization Settlement Account,Completed,,-4400,0,TRUE,Utility Account to Organization Settlement Account,846783 - ANCIENT WELLS LTD 4,,
PBD8MK6BMC,13/02/2021 11:02,13/02/2021 11:02,Pay Bill from 254725094113 - BRAXTON LUMWAJI Acc. DDC,Completed,1000,,4400,TRUE,Pay Utility,254725094113 - BRAXTON LUMWAJI,,DDC
PBC3M788HB,12/02/2021 21:21,12/02/2021 21:21,Pay Bill from 254713404029 - ANNE ISEUNA Acc. DED,Completed,3400,,3400,TRUE,Pay Utility with OD via STK,254713404029 - ANNE ISEUNA,,DED
PBC2LWZ6F8,12/02/2021 18:31,12/02/2021 18:31,Utility Account to Organization Settlement Account,Completed,,-7200,0,TRUE,Utility Account to Organization Settlement Account,846783 - ANCIENT WELLS LTD 4,,
PBC1LQ4K2X,12/02/2021 16:27,12/02/2021 16:27,Pay Bill from 254723389177 - NELSON MOI Acc. IBF,Completed,800,,7200,TRUE,Pay Utility,254723389177 - NELSON MOI,,IBF
PBC3LELGDN,12/02/2021 11:59,12/02/2021 11:59,Pay Bill from 254703108159 - JOICE OGOLLA Acc. V50 ,Completed,800,,6400,TRUE,Pay Utility,254703108159 - JOICE OGOLLA,,V50
PBC2LCM836,12/02/2021 11:11,12/02/2021 11:11,Pay Bill Online from 254728103722 - YASSIR MWINYI ABDULRAZAQ Acc. ICE,Completed,600,,5600,TRUE,Pay Bill Online,254728103722 - YASSIR MWINYI ABDULRAZAQ,,ICE
PBC3LCF9UL,12/02/2021 11:06,12/02/2021 11:06,Pay Bill Online from 254720201580 - CHRISTOPHER OTUOMA Acc. Chris,Completed,600,,5000,TRUE,Pay Utility with OD Online,254720201580 - CHRISTOPHER OTUOMA,,Chris
PBC4LC3PVC,12/02/2021 10:58,12/02/2021 10:58,Pay Bill from 254725941384 - BRIAN MURUMBA Acc. Brian Murumba E4,Completed,2600,,4400,TRUE,Pay Utility with OD via STK,254725941384 - BRIAN MURUMBA,,Brian
PBC2LBYOC0,12/02/2021 10:55,12/02/2021 10:55,Pay Bill from 254701339690 - ASHA BAGANWA NDAHIRU Acc. F3,Completed,1200,,1800,TRUE,Pay Utility,254701339690 - ASHA BAGANWA NDAHIRU,,F3
PBB1KI4A8V,11/02/2021 16:18,11/02/2021 16:18,Pay Bill from 254708225541 - JUDITH NKATHA SIMBA Acc. ICF,Completed,600,,600,TRUE,Pay Utility with OD via STK,254708225541 - JUDITH NKATHA SIMBA,,ICF
PBB2KFM0L4,11/02/2021 15:20,11/02/2021 15:20,Utility Account to Organization Settlement Account,Completed,,-14650,0,TRUE,Utility Account to Organization Settlement Account,846783 - ANCIENT WELLS LTD 4,,
PBB1K7E1VN,11/02/2021 12:03,11/02/2021 12:03,Pay Bill from 254790610309 - MESHACK CHUMBA Acc. V39,Completed,100,,14650,TRUE,Pay Utility,254790610309 - MESHACK CHUMBA,,V39
PBA8JJEBV4,10/02/2021 19:12,10/02/2021 19:12,Pay Bill Online from 254714552193 - CHRISTOPHER OCHIENG Acc. JGI,Completed,350,,14550,TRUE,Pay Bill Online,254714552193 - CHRISTOPHER OCHIENG,,JGI
PBA5IU0NTP,10/02/2021 10:21,10/02/2021 10:21,Pay Bill Online from 254727648782 - EUNICE MUTIO MULE Acc. JEI,Completed,800,,14200,TRUE,Pay Bill Online,254727648782 - EUNICE MUTIO MULE,,JEI
PBA2ITV9QO,10/02/2021 10:17,10/02/2021 10:17,Pay Bill from 254715597659 - JOYCE KIVAI Acc. IED,Completed,400,,13400,TRUE,Pay Utility,254715597659 - JOYCE KIVAI,,IED
PB97ICMCMV,09/02/2021 19:31,09/02/2021 19:31,Pay Bill from 254712091662 - BENARD OMONDI ROBY Acc. V16,Completed,600,,13000,TRUE,Pay Utility,254712091662 - BENARD OMONDI ROBY,,V16
PB96IAFHVU,09/02/2021 19:01,09/02/2021 19:01,Pay Bill from 254707315614 - TERESAH WANJIRU KIRAGU Acc. JDI,Completed,3200,,12400,TRUE,Pay Utility,254707315614 - TERESAH WANJIRU KIRAGU,,JDI
PB91HLHYNT,09/02/2021 10:06,09/02/2021 10:06,Pay Bill from 0715688238 - JOANNAH ATUHAIRE BANTU Acc. jae,Completed,400,,9200,TRUE,Pay Utility,0715688238 - JOANNAH ATUHAIRE BANTU,,jae
PB92HKG2Q6,09/02/2021 09:40,09/02/2021 09:40,Pay Bill from 254720107609 - DENNIS OGENDI BARAKE Acc. JAJ,Completed,700,,8800,TRUE,Pay Utility with OD via STK,254720107609 - DENNIS OGENDI BARAKE,,JAJ
PB92HE8JA4,09/02/2021 00:39,09/02/2021 00:39,Pay Bill from 254723954911 - JAMES KILAVI Acc. ICG,Completed,200,,8100,TRUE,Pay Utility,254723954911 - JAMES KILAVI,,ICG
PB84HE2PR4,08/02/2021 23:57,08/02/2021 23:57,Pay Bill from 254729392595 - WINNIE NASICHE KERE Acc. JBF,Completed,200,,7900,TRUE,Pay Utility,254729392595 - WINNIE NASICHE KERE,,JBF
PB89H3WOVR,08/02/2021 19:14,08/02/2021 19:14,Pay Bill from 254719626804 - PAUL NJOROGE CYRUS Acc. JFI,Completed,1500,,7700,TRUE,Pay Utility,254719626804 - PAUL NJOROGE CYRUS,,JFI
PB82H107M0,08/02/2021 18:30,08/02/2021 18:30,Pay Bill from 254722706516 - KORIR ANTHONY Acc. Anthony D 3 ,Completed,200,,6200,TRUE,Pay Utility,254722706516 - KORIR ANTHONY,,Anthony
PB89GNWEBX,08/02/2021 14:01,08/02/2021 14:01,Pay Bill from 0743248310 - PATRICK STURRIDGE NYONGESA Acc. kaf,Completed,1600,,6000,TRUE,Pay Utility,0743248310 - PATRICK STURRIDGE NYONGESA,,kaf
PB84GKOYG4,08/02/2021 12:48,08/02/2021 12:48,Pay Bill from 0795807227 - Lucy Ncekei Kimathi Acc. V36,Completed,400,,4400,TRUE,Pay Utility,0795807227 - Lucy Ncekei Kimathi,,V36
PB85GDQOXN,08/02/2021 10:03,08/02/2021 10:03,Pay Bill from 254702190887 - Nax Ochieng Acc. FDE,Completed,1000,,4000,TRUE,Pay Utility,254702190887 - Nax Ochieng,,FDE
PB83GCY7DL,08/02/2021 09:43,08/02/2021 09:43,Pay Bill from 254713159153 - GUYO SANKALA Acc. DGD,Completed,3000,,3000,TRUE,Pay Utility,254713159153 - GUYO SANKALA,,DGD
PB86G9ACVS,08/02/2021 07:58,08/02/2021 07:58,Utility Account to Organization Settlement Account,Completed,,-38850,0,TRUE,Utility Account to Organization Settlement Account,846783 - ANCIENT WELLS LTD 4,,
PB88G93KWS,08/02/2021 07:51,08/02/2021 07:51,Pay Bill from 254708328466 - VENESSA NYARERU Acc. Kcd,Completed,200,,38850,TRUE,Pay Utility with OD via STK,254708328466 - VENESSA NYARERU,,Kcd
PB78G25MWG,07/02/2021 20:43,07/02/2021 20:43,Pay Bill from 254718138578 - PAULINE KIOKO Acc. KFD,Completed,600,,38650,TRUE,Pay Utility,254718138578 - PAULINE KIOKO,,KFD
PB74FZTT92,07/02/2021 19:59,07/02/2021 19:59,Pay Bill from 254703375006 - KEN RODGERS Acc. DBA,Completed,800,,38050,TRUE,Pay Utility,254703375006 - KEN RODGERS,,DBA
PB70FTYB06,07/02/2021 18:25,07/02/2021 18:25,Pay Bill from 254717554562 - OMONDI JACK Acc. kci,Completed,200,,37250,TRUE,Pay Utility,254717554562 - OMONDI JACK,,kci
PB77FRT2M7,07/02/2021 17:46,07/02/2021 17:46,Pay Bill from 254714209770 - PURITY NDUKU KYALO Acc. JEB,Completed,1800,,37050,TRUE,Pay Utility,254714209770 - PURITY NDUKU KYALO,,JEB
PB77FCF0OV,07/02/2021 12:03,07/02/2021 12:03,Pay Bill from 254704658943 - IRENE MUTHUI Acc. E5,Completed,8700,,35250,TRUE,Pay Utility,254704658943 - IRENE MUTHUI,,E5
PB70F5BYQE,07/02/2021 08:48,07/02/2021 08:48,Pay Bill from 254701196539 - GICHURI KARANJA Acc. fee,Completed,400,,26550,TRUE,Pay Utility,254701196539 - GICHURI KARANJA,,fee
PB76F27BQK,07/02/2021 05:38,07/02/2021 05:38,Pay Bill from 254722307003 - NIGEL BOMETT Acc. V01,Completed,400,,26150,TRUE,Pay Utility,254722307003 - NIGEL BOMETT,,V01
PB62ENRMA6,06/02/2021 18:35,06/02/2021 18:35,Pay Bill from 254713966424 - NDUTI MUTHUI Acc. JED,Completed,800,,25750,TRUE,Pay Utility,254713966424 - NDUTI MUTHUI,,JED
PB68EN3N8M,06/02/2021 18:24,06/02/2021 18:24,Pay Bill Online from 254716499837 - ASHA MUSA Acc. jfd,Completed,1000,,24950,TRUE,Pay Bill Online,254716499837 - ASHA MUSA,,jfd
PB62EKUTY0,06/02/2021 17:48,06/02/2021 17:48,Pay Bill from 254743775372 - SHIKUNDI PURITY KHAOYA Acc. hcd,Completed,200,,23950,TRUE,Pay Utility,254743775372 - SHIKUNDI PURITY KHAOYA,,hcd
PB69EHZO2R,06/02/2021 16:57,06/02/2021 16:57,Pay Bill from 254724364316 - LINET MWENDIA Acc. KEJ,Completed,1000,,23750,TRUE,Pay Utility,254724364316 - LINET MWENDIA,,KEJ
PB60EG2ZBM,06/02/2021 16:21,06/02/2021 16:21,Pay Bill from 254720868281 - KENNEDY MWELU Acc. KBI,Completed,400,,22750,TRUE,Pay Utility,254720868281 - KENNEDY MWELU,,KBI
PB68EFCWVO,06/02/2021 16:06,06/02/2021 16:06,Pay Bill Online from 254722249092 - MARIAM ABDULLAHI Acc. KEH,Completed,1000,,22350,TRUE,Pay Bill Online,254722249092 - MARIAM ABDULLAHI,,KEH
PB67DZ4K87,06/02/2021 10:22,06/02/2021 10:22,Pay Bill Online from 254728687482 - KELSEN MWIRIGI MUTIGA Acc. HCE,Completed,600,,21350,TRUE,Pay Bill Online,254728687482 - KELSEN MWIRIGI MUTIGA,,HCE
PB53DM7WSB,05/02/2021 21:04,05/02/2021 21:04,Pay Bill from 254724655033 - SUSAN CHIMOTO Acc. KGH,Completed,800,,20750,TRUE,Pay Utility,254724655033 - SUSAN CHIMOTO,,KGH
PB56DLPFT8,05/02/2021 20:54,05/02/2021 20:54,Pay Bill from 254726465584 - JULIANA MUKELI MUTUNGA Acc. v4,Completed,600,,19950,TRUE,Pay Utility,254726465584 - JULIANA MUKELI MUTUNGA,,v4
PB56DBFJNK,05/02/2021 18:21,05/02/2021 18:21,Pay Bill from 254725771056 - CHARLES MURAGURI Acc. FCE,Completed,1400,,19350,TRUE,Pay Utility,254725771056 - CHARLES MURAGURI,,FCE
PB58D9L564,05/02/2021 17:50,05/02/2021 17:50,Pay Bill from 254725094113 - BRAXTON LUMWAJI Acc. DDC,Completed,1000,,17950,TRUE,Pay Utility with OD via STK,254725094113 - BRAXTON LUMWAJI,,DDC
PB57D93CSH,05/02/2021 17:41,05/02/2021 17:41,Pay Bill from 254729590734 - PATRICK NDUNGA Acc. IDD,Completed,400,,16950,TRUE,Pay Utility,254729590734 - PATRICK NDUNGA,,IDD
PB59D8SU4B,05/02/2021 17:36,05/02/2021 17:36,Pay Bill from 254723499628 - CLINTON JOSEPH MUHARI Acc. hfh,Completed,400,,16550,TRUE,Pay Utility,254723499628 - CLINTON JOSEPH MUHARI,,hfh
PB50D8COBC,05/02/2021 17:28,05/02/2021 17:28,Pay Bill from 254798524621 - MERCY CHESANG Acc. Jcj,Completed,1200,,16150,TRUE,Pay Utility,254798524621 - MERCY CHESANG,,Jcj
PB54D7CUNY,05/02/2021 17:09,05/02/2021 17:09,Pay Bill from 254723605941 - JOHN KARIHA Acc. kdd,Completed,750,,14950,TRUE,Pay Utility,254723605941 - JOHN KARIHA,,kdd
PB59D2PADL,05/02/2021 15:32,05/02/2021 15:32,Pay Bill from 254721302658 - JACOB BIRUNDU Acc. DDB,Completed,600,,14200,TRUE,Pay Utility,254721302658 - JACOB BIRUNDU,,DDB
PB53D1THXP,05/02/2021 15:12,05/02/2021 15:12,Pay Bill from 254728897908 - Teddy Allan Onyango Acc. KCF,Completed,1400,,13600,TRUE,Pay Utility,254728897908 - Teddy Allan Onyango,,KCF
PB54D1OXDU,05/02/2021 15:09,05/02/2021 15:09,Pay Bill from 254714114228 - MWANGO AWINO VIOLET Acc. DCB,Completed,1000,,12200,TRUE,Pay Utility,254714114228 - MWANGO AWINO VIOLET,,DCB
PB54CZGCMM,05/02/2021 14:18,05/02/2021 14:18,Pay Bill from 254724871526 - JOHN KAGUONGO Acc. D5 John Kaguongo ,Completed,200,,11200,TRUE,Pay Utility,254724871526 - JOHN KAGUONGO,,D5
PB52CYE95I,05/02/2021 13:54,05/02/2021 13:54,Pay Bill from 254710814215 - JOAN NYAMBURA KAMAU Acc. jci,Completed,800,,11000,TRUE,Pay Utility,254710814215 - JOAN NYAMBURA KAMAU,,jci
PB55CXU6YF,05/02/2021 13:41,05/02/2021 13:41,Pay Bill from 254720333666 - DAVID MUSYA MATI Acc. FEC,Completed,1000,,10200,TRUE,Pay Utility,254720333666 - DAVID MUSYA MATI,,FEC
PB56CVJRNO,05/02/2021 12:49,05/02/2021 12:49,Pay Bill from 0727542914 - Pascal Ouma Opar Acc. pascalv45,Completed,800,,9200,TRUE,Pay Utility,0727542914 - Pascal Ouma Opar,,pascalv45
PB51CV8VR7,05/02/2021 12:42,05/02/2021 12:42,Pay Bill from 0769001671 - Wilson Mutangili Wambua Acc. haf,Completed,400,,8400,TRUE,Pay Utility,0769001671 - Wilson Mutangili Wambua,,haf
PB51CUUJVJ,05/02/2021 12:33,05/02/2021 12:33,Pay Bill from 0700206427 - Clare Nabalisa Mukasa Acc. HFA,Completed,600,,8000,TRUE,Pay Utility,0700206427 - Clare Nabalisa Mukasa,,HFA
PB51CTY9FH,05/02/2021 12:12,05/02/2021 12:12,Pay Bill from 254729355933 - FELISTAH NJERI WAIRIMU Acc. IDI,Completed,800,,7400,TRUE,Pay Utility,254729355933 - FELISTAH NJERI WAIRIMU,,IDI
PB51CRD35V,05/02/2021 11:11,05/02/2021 11:11,Pay Bill from 254723815832 - SEMEKIA ONDIALA Acc. v38,Completed,200,,6600,TRUE,Pay Utility,254723815832 - SEMEKIA ONDIALA,,v38
PB52COMH5C,05/02/2021 10:08,05/02/2021 10:08,Pay Bill from 254725754547 - MWACHIRO GEORGE DECHE Acc. DFC,Completed,1600,,6400,TRUE,Pay Utility,254725754547 - MWACHIRO GEORGE DECHE,,DFC
PB54CLRAGS,05/02/2021 08:56,05/02/2021 08:56,Pay Bill from 254717465142 - EPHANTUS IRURA Acc. C4 MURIITHI,Completed,600,,4800,TRUE,Pay Utility,254717465142 - EPHANTUS IRURA,,C4
PB52CLJ06Y,05/02/2021 08:50,05/02/2021 08:50,Pay Bill from 254720056285 - DAMARIS NDURU Acc. V09,Completed,200,,4200,TRUE,Pay Utility,254720056285 - DAMARIS NDURU,,V09
PB55CKZJXV,05/02/2021 08:35,05/02/2021 08:35,Pay Bill from 254723929380 - RHODAH K WAMBUA Acc. HEF,Completed,1200,,4000,TRUE,Pay Utility,254723929380 - RHODAH K WAMBUA,,HEF
PB52CI7ME4,05/02/2021 06:51,05/02/2021 06:51,Pay Bill from 254704833344 - LOISE KIMANI Acc. jfa,Completed,1000,,2800,TRUE,Pay Utility,254704833344 - LOISE KIMANI,,jfa
PB43CEY57B,04/02/2021 22:01,04/02/2021 22:01,Pay Bill from 254714563486 - BRIAN MMATA MUSERA Acc. KBJ,Completed,400,,1800,TRUE,Pay Utility,254714563486 - BRIAN MMATA MUSERA,,KBJ
PB46CAFLWQ,04/02/2021 20:24,04/02/2021 20:24,Pay Bill from 254722578070 - SAMUEL MACHARIA Acc. v42,Completed,800,,1400,TRUE,Pay Utility,254722578070 - SAMUEL MACHARIA,,v42
PB44C861RU,04/02/2021 19:50,04/02/2021 19:50,Pay Bill from 254702764047 - FERDINAND K Acc. KDB,Completed,600,,600,TRUE,Pay Utility,254702764047 - FERDINAND K,,KDB
PB42C7VP0M,04/02/2021 19:46,04/02/2021 19:46,Utility Account to Organization Settlement Account,Completed,,-13500,0,TRUE,Utility Account to Organization Settlement Account,846783 - ANCIENT WELLS LTD 4,,
PB47C7OBCL,04/02/2021 19:43,04/02/2021 19:43,Pay Bill from 254721465713 - RHODA WAMBUI MWANGI Acc. jfh,Completed,1200,,13500,TRUE,Pay Utility,254721465713 - RHODA WAMBUI MWANGI,,jfh
PB42C0WKGW,04/02/2021 18:01,04/02/2021 18:01,Pay Bill from 254724882554 - ALPHONCE WAMBUA NGELI Acc. JDA,Completed,1800,,12300,TRUE,Pay Utility,254724882554 - ALPHONCE WAMBUA NGELI,,JDA
PB41BR62UF,04/02/2021 14:29,04/02/2021 14:29,Pay Bill Online from 254726313835 - SYLVIA JUMA Acc. hdf,Completed,400,,10500,TRUE,Pay Bill Online,254726313835 - SYLVIA JUMA,,hdf
PB43BP6VJ1,04/02/2021 13:42,04/02/2021 13:42,Pay Bill from 254720062144 - CAROLINE AMONDI OKELO Acc. f4,Completed,1800,,10100,TRUE,Pay Utility,254720062144 - CAROLINE AMONDI OKELO,,f4
PB42BNYLO4,04/02/2021 13:14,04/02/2021 13:14,Pay Bill from 254719398942 - NORAH WAYUA MUNYAO Acc. KDC,Completed,400,,8300,TRUE,Pay Utility,254719398942 - NORAH WAYUA MUNYAO,,KDC
PB49BNHY0J,04/02/2021 13:03,04/02/2021 13:03,Pay Bill from 0797876668 - PATRICK DOVOI AMURAVU Acc. patrick v37,Completed,400,,7900,TRUE,Pay Utility,0797876668 - PATRICK DOVOI AMURAVU,,patrick
PB48BFAFZM,04/02/2021 09:45,04/02/2021 09:45,Pay Bill from 254724953672 - MERCY MBETI Acc. JCA,Completed,2800,,7500,TRUE,Pay Utility,254724953672 - MERCY MBETI,,JCA
PB42B9RBMC,04/02/2021 06:39,04/02/2021 06:39,Pay Bill from 254728664261 - LEVIN INGATI NYONJE Acc. B5,Completed,500,,4700,TRUE,Pay Utility,254728664261 - LEVIN INGATI NYONJE,,B5
PB31B7DEMT,03/02/2021 22:24,03/02/2021 22:24,Pay Bill from 254718233980 - KAREN ASWANI Acc. HEC,Completed,400,,4200,TRUE,Pay Utility,254718233980 - KAREN ASWANI,,HEC
PB30B6RKII,03/02/2021 22:02,03/02/2021 22:02,Pay Bill Online from 254711562428 - Lionel Mutune Muoka Acc. KDI,Completed,200,,3800,TRUE,Pay Bill Online,254711562428 - Lionel Mutune Muoka,,KDI
PB30B60FFI,03/02/2021 21:40,03/02/2021 21:40,Pay Bill Online from 254726082666 - DRUSSILA MUTHEU MUTUNGA Acc. KAH,Completed,400,,3600,TRUE,Pay Bill Online,254726082666 - DRUSSILA MUTHEU MUTUNGA,,KAH
PB37AZV5VZ,03/02/2021 19:50,03/02/2021 19:50,Pay Bill from 254716328009 - IRENE ODHIAMBO Acc. KGG,Completed,400,,3200,TRUE,Pay Utility,254716328009 - IRENE ODHIAMBO,,KGG
PB33AXOUSX,03/02/2021 19:22,03/02/2021 19:22,Pay Bill from 254798643998 - Judith Mwaniki Acc. kce,Completed,800,,2800,TRUE,Pay Utility,254798643998 - Judith Mwaniki,,kce
PB38AUWGGO,03/02/2021 18:42,03/02/2021 18:42,Pay Bill from 254741791919 - Linet Mongina Maraga Acc. LINET,Completed,600,,2000,TRUE,Pay Utility,254741791919 - Linet Mongina Maraga,,LINET
PB32AUMU46,03/02/2021 18:38,03/02/2021 18:38,Pay Bill from 254710635630 - DONNA JESSICA OWANO Acc. Kcc,Completed,200,,1400,TRUE,Pay Utility,254710635630 - DONNA JESSICA OWANO,,Kcc
PB36AQ1R4I,03/02/2021 17:18,03/02/2021 17:18,Pay Bill from 254720511734 - ENOCK KIBET Acc. FDC,Completed,200,,1200,TRUE,Pay Utility,254720511734 - ENOCK KIBET,,FDC
PB35AKLHFH,03/02/2021 15:19,03/02/2021 15:19,Pay Bill from 254703246217 - AMBROSE ADOCHE MIRASI Acc. D4,Completed,1000,,1000,TRUE,Pay Utility,254703246217 - AMBROSE ADOCHE MIRASI,,D4
PB37AJRBFP,03/02/2021 14:59,03/02/2021 14:59,Utility Account to Organization Settlement Account,Completed,,-14599,0,TRUE,Utility Account to Organization Settlement Account,846783 - ANCIENT WELLS LTD 4,,
PB34AIOCB4,03/02/2021 14:33,03/02/2021 14:33,Pay Bill from 0114052034 - EVANS TIOKO NANGIRO Acc. FBE,Completed,1600,,14599,TRUE,Pay Utility,0114052034 - EVANS TIOKO NANGIRO,,FBE
PB39AI0LE1,03/02/2021 14:17,03/02/2021 14:17,Pay Bill from 254708376721 - Millicent Achieng Akuka Acc. KCA,Completed,1000,,12999,TRUE,Pay Utility,254708376721 - Millicent Achieng Akuka,,KCA
PB35AHR6TB,03/02/2021 14:11,03/02/2021 14:11,Pay Bill Online from 254795983642 - OBED MOGAKA Acc. F6 OBED ,Completed,600,,11999,TRUE,Pay Bill Online,254795983642 - OBED MOGAKA,,F6
PB38AHG2H6,03/02/2021 14:04,03/02/2021 14:04,Pay Bill from 254713701237 - Michael Wanjala Acc. G2,Completed,599,,11399,TRUE,Pay Utility,254713701237 - Michael Wanjala,,G2
PB34AG4C2K,03/02/2021 13:34,03/02/2021 13:34,Pay Bill from 0707312833 - job musyoka karimi Acc. B3,Completed,400,,10800,TRUE,Pay Utility,0707312833 - job musyoka karimi,,B3
PB36AF3XPA,03/02/2021 13:11,03/02/2021 13:11,Pay Bill Online from 254711724272 - EDMOND ONYANGO OKEWE Acc. FCB,Completed,1600,,10400,TRUE,Pay Bill Online,254711724272 - EDMOND ONYANGO OKEWE,,FCB
PB38A74VD8,03/02/2021 10:02,03/02/2021 10:02,Pay Bill from 254722136450 - MARY EVERLYN Acc. FAF,Completed,200,,8800,TRUE,Pay Utility,254722136450 - MARY EVERLYN,,FAF
PB34A3PEUM,03/02/2021 08:32,03/02/2021 08:32,Pay Bill Online from 254714552193 - CHRISTOPHER OCHIENG Acc. JGI,Completed,2450,,8600,TRUE,Pay Bill Online,254714552193 - CHRISTOPHER OCHIENG,,JGI
PB219Y92YD,02/02/2021 22:14,02/02/2021 22:14,Pay Bill Online from 254718359438 - AHMAD TAHIR MACHENGO Acc. V11,Completed,400,,6150,TRUE,Pay Bill Online,254718359438 - AHMAD TAHIR MACHENGO,,V11
PB229RF3OE,02/02/2021 19:55,02/02/2021 19:55,Pay Bill from 254702355678 - JOHN NJOROGE GICHERU Acc. ITE,Completed,800,,5750,TRUE,Pay Utility,254702355678 - JOHN NJOROGE GICHERU,,ITE
PB299O9ZKH,02/02/2021 19:13,02/02/2021 19:13,Pay Bill from 254727729395 - ROBERT OUKO OSORO Acc. V29,Completed,400,,4950,TRUE,Pay Utility,254727729395 - ROBERT OUKO OSORO,,V29
PB229MEM4G,02/02/2021 18:47,02/02/2021 18:47,Pay Bill from 254707370896 - OKECH BRIAN BRIAN Acc. FFA,Completed,1000,,4550,TRUE,Pay Utility,254707370896 - OKECH BRIAN BRIAN,,FFA
PB249ELJLK,02/02/2021 16:23,02/02/2021 16:23,Pay Bill from 0712505394 - hezek   atiani Acc. HEH,Completed,2200,,3550,TRUE,Pay Utility,0712505394 - hezek   atiani,,HEH
PB229COZO8,02/02/2021 15:39,02/02/2021 15:39,Pay Bill Online from 254715892656 - DENNIS MUSYOKA MUOKI Acc. KFA,Completed,400,,1350,TRUE,Pay Bill Online,254715892656 - DENNIS MUSYOKA MUOKI,,KFA
PB2296LIDU,02/02/2021 13:16,02/02/2021 13:16,Pay Bill from 254724611087 - Francis Mukindya Muoki Acc. DFB ,Completed,550,,950,TRUE,Pay Utility with OD via STK,254724611087 - Francis Mukindya Muoki,,DFB
PB2494RC34,02/02/2021 12:32,02/02/2021 12:32,Pay Bill Online from 254717809935 - LYDIAH WERU Acc. idc,Completed,400,,400,TRUE,Pay Bill Online,254717809935 - LYDIAH WERU,,idc
PB21937NX1,02/02/2021 11:55,02/02/2021 11:55,Utility Account to Organization Settlement Account,Completed,,-24600,0,TRUE,Utility Account to Organization Settlement Account,846783 - ANCIENT WELLS LTD 4,,
PB208TEZ1S,02/02/2021 07:41,02/02/2021 07:41,Pay Bill from 254717294709 - CAROLINE WAVINYA NDINDA Acc. V15,Completed,800,,24600,TRUE,Pay Utility,254717294709 - CAROLINE WAVINYA NDINDA,,V15
PB288SCZPK,02/02/2021 06:51,02/02/2021 06:51,Pay Bill from 254708786932 - ZUBEDAH MOHAMMED Acc. IAG ,Completed,1000,,23800,TRUE,Pay Utility,254708786932 - ZUBEDAH MOHAMMED,,IAG
PB198P0399,01/02/2021 21:52,01/02/2021 21:52,Pay Bill from 254713334156 - hellen akinyi oyugi Acc. KEE,Completed,1000,,22800,TRUE,Pay Utility with OD via STK,254713334156 - hellen akinyi oyugi,,KEE
PB178OYPAL,01/02/2021 21:51,01/02/2021 21:51,Pay Bill from 254700187806 - WINNIE OLIVIA AKOTH Acc. JEC,Completed,600,,21800,TRUE,Pay Utility,254700187806 - WINNIE OLIVIA AKOTH,,JEC
PB158LQWUX,01/02/2021 20:37,01/02/2021 20:37,Pay Bill from 254708915764 - GEORGE WAHOME Acc. V18,Completed,600,,21200,TRUE,Pay Utility,254708915764 - GEORGE WAHOME,,V18
PB138E89TP,01/02/2021 18:47,01/02/2021 18:47,Pay Bill from 254714814264 - PATRICIA NZOMO Acc. Hcc,Completed,700,,20600,TRUE,Pay Utility,254714814264 - PATRICIA NZOMO,,Hcc
PB118DTVA5,01/02/2021 18:41,01/02/2021 18:41,Pay Bill from 254726753273 - JESSE K MURIRMI NJERU Acc. HCH,Completed,1200,,19900,TRUE,Pay Utility,254726753273 - JESSE K MURIRMI NJERU,,HCH
PB128AK0JU,01/02/2021 17:46,01/02/2021 17:46,Pay Bill from 254740579741 - MUHINDI MULINYA Acc. HGG,Completed,1000,,18700,TRUE,Pay Utility,254740579741 - MUHINDI MULINYA,,HGG
PB10879QB4,01/02/2021 16:42,01/02/2021 16:42,Pay Bill from 254707715639 - Annastacia Kimeu Acc. J F C,Completed,800,,17700,TRUE,Pay Utility,254707715639 - Annastacia Kimeu,,J
PB1586JCZP,01/02/2021 16:27,01/02/2021 16:27,Pay Bill from 254700374335 - HYLINE ONDARI Acc. KTE,Completed,1000,,16900,TRUE,Pay Utility,254700374335 - HYLINE ONDARI,,KTE
PB128245T4,01/02/2021 14:47,01/02/2021 14:47,Pay Bill from 0717042461 - Sharon Nyangasi Shivachi Acc. V55,Completed,200,,15900,TRUE,Pay Utility,0717042461 - Sharon Nyangasi Shivachi,,V55
PB127V32VS,01/02/2021 12:03,01/02/2021 12:03,Pay Bill from 254721538323 - ISSA ISACK GOLLO Acc. DCC,Completed,2000,,15700,TRUE,Pay Utility,254721538323 - ISSA ISACK GOLLO,,DCC
PB197TQR5F,01/02/2021 11:31,01/02/2021 11:31,Pay Bill from 254729258441 - ROBERT RONO KULEI Acc. JAB,Completed,1200,,13700,TRUE,Pay Utility,254729258441 - ROBERT RONO KULEI,,JAB
PB147P8VCG,01/02/2021 09:43,01/02/2021 09:43,Pay Bill Online from 254795510441 - LEWIS MUEMA Acc. KEB,Completed,400,,12500,TRUE,Pay Bill Online,254795510441 - LEWIS MUEMA,,KEB
PB137MIKFL,01/02/2021 08:29,01/02/2021 08:29,Pay Bill from 254714855708 - KIPLANGAT SITIENEI Acc. FAE,Completed,800,,12100,TRUE,Pay Utility,254714855708 - KIPLANGAT SITIENEI,,FAE
PB137LQPCH,01/02/2021 08:06,01/02/2021 08:06,Pay Bill from 254716784364 - Wendy Kemunto Nyandiko Acc. FFC,Completed,1000,,11300,TRUE,Pay Utility,254716784364 - Wendy Kemunto Nyandiko,,FFC
