Receipt No.,Completion Time,Initiation Time,Details,Transaction Status,Paid In,Withdrawn,Balance,Balance Confirmed,Reason Type,Other Party Info,Linked Transaction ID,A/C No.
RB6712YXHZ,06/02/2023 08:35,06/02/2023 08:35,Pay Bill from 0111324501 - BRAMUEL WEKESA WASWA Acc. vk6,Completed,3500,,3500,TRUE,Pay Utility,0111324501 - BRAMUEL WEKESA WASWA,,vk6
RB68ZXM832,06/02/2023 07:17,06/02/2023 07:17,Utility Account to Organization Settlement Account,Completed,,-52800,0,TRUE,Utility Account to Organization Settlement Account,887674 - ANCIENT WELLS LTD 1,,
RB55ZNGS5X,05/02/2023 22:11,05/02/2023 22:11,Pay Bill from 254722578070 - SAMUEL MACHARIA Acc. V42,Completed,7000,,52800,TRUE,Pay Utility,254722578070 - SAMUEL MACHARIA,,V42
RB58ZEMFAW,05/02/2023 20:30,05/02/2023 20:30,Pay Bill from 0717042461 - Sharon Nyangasi Shivachi Acc. V55 ,Completed,6600,,45800,TRUE,Pay Utility,0717042461 - Sharon Nyangasi Shivachi,,V55
RB57ZEILTF,05/02/2023 20:30,05/02/2023 20:30,Pay Bill from 0795807227 - Lucy Ncekei Kimathi Acc. V36 ,Completed,6600,,39200,TRUE,Pay Utility,0795807227 - Lucy Ncekei Kimathi,,V36
RB55YYU507,05/02/2023 18:27,05/02/2023 18:27,Pay Bill from 254723337732 - CHRISTINE AKINYI OCHELE Acc. V14,Completed,7000,,32600,TRUE,Pay Utility,254723337732 - CHRISTINE AKINYI OCHELE,,V14
RB53XVQM3D,05/02/2023 11:07,05/02/2023 11:07,Pay Bill from 254790128716 - HELLEN NAPHTAL Acc. V11,Completed,7000,,25600,TRUE,Pay Utility,254790128716 - HELLEN NAPHTAL,,V11
RB53XIH54L,05/02/2023 08:10,05/02/2023 08:10,Pay Bill from 0795650610 - Janet Kavata Muandiko Acc. vk6,Completed,5000,,18600,TRUE,Pay Utility with OD via STK,0795650610 - Janet Kavata Muandiko,,vk6
RB48WXP2N8,04/02/2023 20:49,04/02/2023 20:49,Pay Bill from 0714747222 - WILSON KIMANI MWANGI Acc. V25,Completed,7000,,13600,TRUE,Pay Utility with OD via STK,0714747222 - WILSON KIMANI MWANGI,,V25
RB49W9F599,04/02/2023 17:43,04/02/2023 17:43,Pay Bill from 254701086112 - CAROLYNE KOKI MULWA Acc. V30,Completed,6600,,6600,TRUE,Pay Utility,254701086112 - CAROLYNE KOKI MULWA,,V30
RB43W4G7EF,04/02/2023 16:58,04/02/2023 16:58,Utility Account to Organization Settlement Account,Completed,,-24500,0,TRUE,Utility Account to Organization Settlement Account,887674 - ANCIENT WELLS LTD 1,,
RB45VSH80B,04/02/2023 14:55,04/02/2023 14:55,Pay Bill from 254724882610 - ALINOOR IBRAHIM Acc. v53,Completed,17500,,24500,TRUE,Pay Utility,254724882610 - ALINOOR IBRAHIM,,v53
RB48VANOW8,04/02/2023 11:56,04/02/2023 11:56,Pay Bill from 0111512152 - Pasckaline Wangari Irungu Acc. V59,Completed,7000,,7000,TRUE,Pay Utility,0111512152 - Pasckaline Wangari Irungu,,V59
RB37SR3CVV,03/02/2023 13:08,03/02/2023 13:08,Utility Account to Organization Settlement Account,Completed,,-61100,0,TRUE,Utility Account to Organization Settlement Account,887674 - ANCIENT WELLS LTD 1,,
RB35SMVQVH,03/02/2023 12:22,03/02/2023 12:22,Pay Bill from 0740645452 - Cynaider   Mudeitsi Acc. V49,Completed,10500,,61100,TRUE,Pay Utility,0740645452 - Cynaider   Mudeitsi,,V49
RB33SCBDCR,03/02/2023 10:25,03/02/2023 10:25,Pay Bill from 254727457630 - martha osare awinja Acc. v31,Completed,15000,,50600,TRUE,Pay Utility,254727457630 - martha osare awinja,,v31
RB24RPSAPO,02/02/2023 22:47,02/02/2023 22:47,Pay Bill from 254720002225 - DAVID NDENGWA Acc. V29,Completed,7000,,35600,TRUE,Pay Utility,254720002225 - DAVID NDENGWA,,V29
RB23RN2457,02/02/2023 21:58,02/02/2023 21:58,Pay Bill from 0748810550 - Veronica Mbulwa Ndambuki Acc. v41,Completed,6600,,28600,TRUE,Pay Utility with OD via STK,0748810550 - Veronica Mbulwa Ndambuki,,v41
RB29QGWS7Z,02/02/2023 15:40,02/02/2023 15:40,Pay Bill Online from 0759605060 - ELVIS MUSA MORARA Acc. V47,Completed,15000,,22000,TRUE,Pay Bill Online,0759605060 - ELVIS MUSA MORARA,,V47
RB22Q6OMSG,02/02/2023 13:47,02/02/2023 13:47,Pay Bill from 254713894468 - RAPHAEL . NTHAMBURI Acc. 887674,Completed,7000,,7000,TRUE,Pay Utility,254713894468 - RAPHAEL . NTHAMBURI,,887674
RB17OLWRD5,01/02/2023 19:46,01/02/2023 19:46,Utility Account to Organization Settlement Account,Completed,,-6600,0,TRUE,Utility Account to Organization Settlement Account,887674 - ANCIENT WELLS LTD 1,,
RB13O5V72T,01/02/2023 17:43,01/02/2023 17:43,Pay Bill from 254712091662 - BENARD OMONDI ROBY Acc. V16,Completed,6600,,6600,TRUE,Pay Utility,254712091662 - BENARD OMONDI ROBY,,V16
RB16NM798M,01/02/2023 14:11,01/02/2023 14:11,Utility Account to Organization Settlement Account,Completed,,-13600,0,TRUE,Utility Account to Organization Settlement Account,887674 - ANCIENT WELLS LTD 1,,
RB11NJXNML,01/02/2023 13:47,01/02/2023 13:47,Pay Bill Online from 254702118125 - ROTICH BETHWEL Acc. V20,Completed,7000,,13600,TRUE,Pay Bill Online,254702118125 - ROTICH BETHWEL,,V20
