Receipt No.,Completion Time,Initiation Time,Details,Transaction Status,Paid In,Withdrawn,Balance,Balance Confirmed,Reason Type,Other Party Info,Linked Transaction ID,A/C No.
PB30A7PZ76,03/02/2021 10:16,03/02/2021 10:16,Pay Bill from 254703681302 - DORRIS MULE Acc. IGD,Completed,9000,,171250,TRUE,Pay Utility,254703681302 - DORRIS MULE,,IGD
PB33A7J5ZR,03/02/2021 10:12,03/02/2021 10:12,Pay Bill from 254714060203 - PATRICK MWANGOMBE MSAWUCHI Acc. KEI,Completed,12000,,162250,TRUE,Pay Utility,254714060203 - PATRICK MWANGOMBE MSAWUCHI,,KEI
PB37A73B83,03/02/2021 10:01,03/02/2021 10:01,Pay Bill from 254722136450 - MARY EVERLYN Acc. JAI,Completed,20000,,150250,TRUE,Pay Utility,254722136450 - MARY EVERLYN,,JAI
PB37A5VNWL,03/02/2021 09:30,03/02/2021 09:30,Pay Bill from 0703236529 - MARGARET WANJIRU WANJOHI Acc. IAE,Completed,8000,,130250,TRUE,Pay Utility,0703236529 - MARGARET WANJIRU WANJOHI,,IAE
PB30A2YADG,03/02/2021 08:09,03/02/2021 08:09,Pay Bill from 254722444622 - CHARITY KAGWAINI Acc. FFD,Completed,10000,,122250,TRUE,Pay Utility,254722444622 - CHARITY KAGWAINI,,FFD
PB239VB9IF,02/02/2021 20:57,02/02/2021 20:57,Pay Bill Online from 254725385966 - JOSEPH MUYA MARUA Acc. KEE,Completed,10000,,112250,TRUE,Pay Utility with OD Online,254725385966 - JOSEPH MUYA MARUA,,KEE
PB259TE87N,02/02/2021 20:24,02/02/2021 20:24,Pay Bill from 254719285750 - LILIAN ACHIENG ODONGO Acc. IGE,Completed,9000,,102250,TRUE,Pay Utility,254719285750 - LILIAN ACHIENG ODONGO,,IGE
PB229R9ZWU,02/02/2021 19:53,02/02/2021 19:53,Pay Bill from 254702355678 - JOHN NJOROGE GICHERU Acc. ITE,Completed,10000,,93250,TRUE,Pay Utility,254702355678 - JOHN NJOROGE GICHERU,,ITE
PB219PBYHF,02/02/2021 19:27,02/02/2021 19:27,Pay Bill from 0796121714 - janet   mwikali Acc. KEC,Completed,2000,,83250,TRUE,Pay Utility,0796121714 - janet   mwikali,,KEC
PB249O5H1I,02/02/2021 19:12,02/02/2021 19:12,Pay Bill from 254715742045 - FRIDAH KIEMA Acc. HGC,Completed,9500,,81250,TRUE,Pay Utility with OD via STK,254715742045 - FRIDAH KIEMA,,HGC
PB299E6RAX,02/02/2021 16:14,02/02/2021 16:14,Pay Bill from 254704682516 - Winnie Akinyi Omollo Acc. fda,Completed,17000,,71750,TRUE,Pay Utility,254704682516 - Winnie Akinyi Omollo,,fda
PB299CODMJ,02/02/2021 15:39,02/02/2021 15:39,Pay Bill Online from 254715892656 - DENNIS MUSYOKA MUOKI Acc. KFA,Completed,16000,,54750,TRUE,Pay Bill Online,254715892656 - DENNIS MUSYOKA MUOKI,,KFA
PB299C4WQ1,02/02/2021 15:26,02/02/2021 15:26,Pay Bill from 254718284151 - EVERLINE MATHEKA Acc. JAG,Completed,10000,,38750,TRUE,Pay Utility,254718284151 - EVERLINE MATHEKA,,JAG
PB2395A3GZ,02/02/2021 12:44,02/02/2021 12:44,Pay Bill from 254716702294 - DANIEL MULATI Acc. KBE,Completed,3250,,28750,TRUE,Pay Utility,254716702294 - DANIEL MULATI,,KBE
PB2794QCGZ,02/02/2021 12:32,02/02/2021 12:32,Pay Bill Online from 254717809935 - LYDIAH WERU Acc. idc,Completed,9500,,25500,TRUE,Pay Bill Online,254717809935 - LYDIAH WERU,,idc
PB2093RN1W,02/02/2021 12:09,02/02/2021 12:09,Pay Bill from 254712461449 - CAROLINE MUTHONI GICHOHI Acc. fca,Completed,16000,,16000,TRUE,Pay Utility,254712461449 - CAROLINE MUTHONI GICHOHI,,fca
PB2190HSCZ,02/02/2021 10:51,02/02/2021 10:51,Utility Account to Organization Settlement Account,Completed,,-43000,0,TRUE,Utility Account to Organization Settlement Account,979524 - ANCIENT WELLS PROPERTY MANAGERS 2,,
PB298WSYRZ,02/02/2021 09:21,02/02/2021 09:21,Pay Bill from 0798660933 - JOSEPH NEWTON GUNI Acc. IAI,Completed,15000,,43000,TRUE,Pay Utility,0798660933 - JOSEPH NEWTON GUNI,,IAI
PB208VFYKM,02/02/2021 08:44,02/02/2021 08:44,Pay Bill from 254716581384 - GREGORY KILUNGYA Acc. DAD,Completed,20000,,28000,TRUE,Pay Utility,254716581384 - GREGORY KILUNGYA,,DAD
PB208SJBJ0,02/02/2021 07:02,02/02/2021 07:02,Pay Bill from 254718009051 - STEPHEN OMOLLO Acc. JDF,Completed,8000,,8000,TRUE,Pay Utility with OD via STK,254718009051 - STEPHEN OMOLLO,,JDF
PB118QOLNJ,01/02/2021 23:24,01/02/2021 23:24,Utility Account to Organization Settlement Account,Completed,,-399500,0,TRUE,Utility Account to Organization Settlement Account,979524 - ANCIENT WELLS PROPERTY MANAGERS 2,,
PB108OV4SU,01/02/2021 21:48,01/02/2021 21:48,Pay Bill from 254708619274 - BONIFACE MUTUA Acc. JFB,Completed,14000,,399500,TRUE,Pay Utility,254708619274 - BONIFACE MUTUA,,JFB
PB158OU9IV,01/02/2021 21:47,01/02/2021 21:47,Pay Bill from 254700187806 - WINNIE OLIVIA AKOTH Acc. JEC,Completed,10000,,385500,TRUE,Pay Utility,254700187806 - WINNIE OLIVIA AKOTH,,JEC
PB128LS7Y4,01/02/2021 20:38,01/02/2021 20:38,Pay Bill Online from 254705951407 - CAROLINE WAITHIRA KAMAU Acc. IDH,Completed,16000,,375500,TRUE,Pay Bill Online,254705951407 - CAROLINE WAITHIRA KAMAU,,IDH
PB158KVXEJ,01/02/2021 20:23,01/02/2021 20:23,Pay Bill from 254721417560 - ANDREW SANDE Acc. JBJ,Completed,16000,,359500,TRUE,Pay Utility,254721417560 - ANDREW SANDE,,JBJ
PB128JX8V8,01/02/2021 20:07,01/02/2021 20:07,Pay Bill from 254714578986 - EZEKIEL MULUNGYE Acc. hac,Completed,21000,,343500,TRUE,Pay Utility,254714578986 - EZEKIEL MULUNGYE,,hac
PB188H2HBI,01/02/2021 19:28,01/02/2021 19:28,Pay Bill from 254713205244 - ROBERT OGALO Acc. KBH,Completed,21000,,322500,TRUE,Pay Utility,254713205244 - ROBERT OGALO,,KBH
PB198G9ANN,01/02/2021 19:17,01/02/2021 19:17,Pay Bill Online from 254726001437 - FESTUS MUNYIRI MAINA Acc. Iff,Completed,10000,,301500,TRUE,Pay Bill Online,254726001437 - FESTUS MUNYIRI MAINA,,Iff
PB128ENKZ2,01/02/2021 18:54,01/02/2021 18:54,Pay Bill Online from 254715400042 - BETHUEL WACHITE Acc. HFG,Completed,15000,,291500,TRUE,Pay Bill Online,254715400042 - BETHUEL WACHITE,,HFG
PB138E4DC7,01/02/2021 18:46,01/02/2021 18:46,Pay Bill from 254714814264 - PATRICIA NZOMO Acc. Hcc,Completed,10000,,276500,TRUE,Pay Utility,254714814264 - PATRICIA NZOMO,,Hcc
PB138DPGY7,01/02/2021 18:39,01/02/2021 18:39,Pay Bill from 254726753273 - JESSE K MURIRMI NJERU Acc. HCH,Completed,17000,,266500,TRUE,Pay Utility,254726753273 - JESSE K MURIRMI NJERU,,HCH
PB108CJ6KK,01/02/2021 18:20,01/02/2021 18:20,Pay Bill Online from 254718299426 - AMOS NGURE MWANGI Acc. HEE,Completed,10500,,249500,TRUE,Pay Bill Online,254718299426 - AMOS NGURE MWANGI,,HEE
PB198AU5RT,01/02/2021 17:51,01/02/2021 17:51,Pay Bill from 254740579741 - MUHINDI MULINYA Acc. HGG,Completed,28000,,239000,TRUE,Pay Utility,254740579741 - MUHINDI MULINYA,,HGG
PB19875YLT,01/02/2021 16:40,01/02/2021 16:40,Pay Bill Online from 254711724272 - EDMOND ONYANGO OKEWE Acc. FCB,Completed,16000,,211000,TRUE,Pay Bill Online,254711724272 - EDMOND ONYANGO OKEWE,,FCB
PB1986GJKF,01/02/2021 16:26,01/02/2021 16:26,Pay Bill from 254700374335 - HYLINE ONDARI Acc. KTE,Completed,9500,,195000,TRUE,Pay Utility,254700374335 - HYLINE ONDARI,,KTE
PB12863EDS,01/02/2021 16:18,01/02/2021 16:18,Pay Bill from 254720249209 - WILFRED NJUGUNA WANJIRA Acc. DDD,Completed,60000,,185500,TRUE,Pay Utility,254720249209 - WILFRED NJUGUNA WANJIRA,,DDD
PB1684VQVG,01/02/2021 15:51,01/02/2021 15:51,Pay Bill Online from 254723930071 - AMOS KITAVI KIVITE Acc. JCE,Completed,19000,,125500,TRUE,Pay Bill Online,254723930071 - AMOS KITAVI KIVITE,,JCE
PB187X1GRE,01/02/2021 12:50,01/02/2021 12:50,Pay Bill from 254724559756 - DUNCAN OMONDI OGOLA Acc. HBE,Completed,15000,,106500,TRUE,Pay Utility,254724559756 - DUNCAN OMONDI OGOLA,,HBE
PB107W5GSW,01/02/2021 12:28,01/02/2021 12:28,Pay Bill from 254707551286 - BENSON NJUGUNA WANGARI Acc. kfi,Completed,12000,,91500,TRUE,Pay Utility,254707551286 - BENSON NJUGUNA WANGARI,,kfi
PB117V1HZF,01/02/2021 12:02,01/02/2021 12:02,Pay Bill from 254721538323 - ISSA ISACK GOLLO Acc. DCC For February2021,Completed,20000,,79500,TRUE,Pay Utility,254721538323 - ISSA ISACK GOLLO,,DCC
PB147QUH54,01/02/2021 10:22,01/02/2021 10:22,Pay Bill from 254708786932 - ZUBEDAH MOHAMMED Acc. IAG,Completed,9500,,59500,TRUE,Pay Utility,254708786932 - ZUBEDAH MOHAMMED,,IAG
PB127PX2A0,01/02/2021 09:59,01/02/2021 09:59,Pay Bill from 254710814215 - JOAN NYAMBURA KAMAU Acc. IFB,Completed,8000,,50000,TRUE,Pay Utility,254710814215 - JOAN NYAMBURA KAMAU,,IFB
PB167P74DA,01/02/2021 09:41,01/02/2021 09:41,Pay Bill Online from 254795510441 - LEWIS MUEMA Acc. KEB,Completed,16000,,42000,TRUE,Pay Bill Online,254795510441 - LEWIS MUEMA,,KEB
PB187MHIAE,01/02/2021 08:28,01/02/2021 08:28,Pay Bill from 254714855708 - KIPLANGAT SITIENEI Acc. FAE,Completed,16000,,26000,TRUE,Pay Utility,254714855708 - KIPLANGAT SITIENEI,,FAE
PB127LNBSW,01/02/2021 08:03,01/02/2021 08:03,Pay Bill from 254716784364 - Wendy Kemunto Nyandiko Acc. FFC,Completed,9000,,10000,TRUE,Pay Utility,254716784364 - Wendy Kemunto Nyandiko,,FFC
PB187I28QC,01/02/2021 00:40,01/02/2021 00:40,Pay Bill from 254703935626 - DAVID NGARI ITA Acc. FCD,Completed,1000,,1000,TRUE,Pay Utility with OD via STK,254703935626 - DAVID NGARI ITA,,FCD
PAV97FRS3J,31/01/2021 21:44,31/01/2021 21:44,Utility Account to Organization Settlement Account,Completed,,-233500,0,TRUE,Utility Account to Organization Settlement Account,979524 - ANCIENT WELLS PROPERTY MANAGERS 2,,
PAV77ADI5T,31/01/2021 19:52,31/01/2021 19:52,Pay Bill from 254720361605 - DAUD AMBER Acc. IGH,Completed,1000,,233500,TRUE,Pay Utility,254720361605 - DAUD AMBER,,IGH
PAV87A4GE2,31/01/2021 19:48,31/01/2021 19:48,Pay Bill from 0714310490 - MIKE CHIBUNGU MWAMUYE Acc. Mike,Completed,8000,,232500,TRUE,Pay Utility,0714310490 - MIKE CHIBUNGU MWAMUYE,,Mike
PAV477UI9S,31/01/2021 19:15,31/01/2021 19:15,Pay Bill from 254719519146 - GILBERT ONGAGA AUKA Acc. Kgk,Completed,15000,,224500,TRUE,Pay Utility,254719519146 - GILBERT ONGAGA AUKA,,Kgk
PAV977TUMJ,31/01/2021 19:15,31/01/2021 19:15,Pay Bill Online from 254712370657 - MARVIN NYANGAU Acc. KAJ,Completed,33000,,209500,TRUE,Pay Bill Online,254712370657 - MARVIN NYANGAU,,KAJ
PAV870L54G,31/01/2021 16:58,31/01/2021 16:58,Pay Bill from 254700557767 - BAKHITA MWENDE MUANGE Acc. KCB,Completed,16000,,176500,TRUE,Pay Utility,254700557767 - BAKHITA MWENDE MUANGE,,KCB
PAV36M9WDL,31/01/2021 11:12,31/01/2021 11:12,Pay Bill from 254768883827 - Balkisa Abdi Mohamed Acc. FAB,Completed,33000,,160500,TRUE,Pay Utility,254768883827 - Balkisa Abdi Mohamed,,FAB
PAV56LTR3T,31/01/2021 11:00,31/01/2021 11:00,Pay Bill from 254726593769 - BONFACE BWINA Acc. DEB,Completed,16000,,127500,TRUE,Pay Utility,254726593769 - BONFACE BWINA,,DEB
PAV96L5F3J,31/01/2021 10:41,31/01/2021 10:41,Pay Bill from 254729371750 - DERRICK OTANGA Acc. FEF,Completed,17000,,111500,TRUE,Pay Utility,254729371750 - DERRICK OTANGA,,FEF
PAU46BFP02,30/01/2021 22:14,30/01/2021 22:14,Pay Bill from 254703935626 - DAVID NGARI ITA Acc. FCD,Completed,1000,,94500,TRUE,Pay Utility,254703935626 - DAVID NGARI ITA,,FCD
PAU569CQ0R,30/01/2021 21:13,30/01/2021 21:13,Pay Bill from 254729796719 - JACINTA WANJIKU NJERI Acc. FFF,Completed,17000,,93500,TRUE,Pay Utility,254729796719 - JACINTA WANJIKU NJERI,,FFF
PAU467RQYO,30/01/2021 20:40,30/01/2021 20:40,Pay Bill from 0712505394 - hezek   atiani Acc. HEH,Completed,1500,,76500,TRUE,Pay Utility with OD via STK,0712505394 - hezek   atiani,,HEH
PAU460L340,30/01/2021 18:55,30/01/2021 18:55,Pay Bill from 254727766786 - JOHN MAITHA MULWA Acc. IBH,Completed,31000,,75000,TRUE,Pay Utility,254727766786 - JOHN MAITHA MULWA,,IBH
PAU65XUXUA,30/01/2021 18:12,30/01/2021 18:12,Pay Bill from 254729508187 - PATRICK SOLOMON GUDA Acc. IGF,Completed,10000,,44000,TRUE,Pay Utility with OD via STK,254729508187 - PATRICK SOLOMON GUDA,,IGF
PAU65UV1HM,30/01/2021 17:21,30/01/2021 17:21,Pay Bill from 254742911013 - HANEST AMIMO Acc. IEG,Completed,9000,,34000,TRUE,Pay Utility,254742911013 - HANEST AMIMO,,IEG
PAU15T4P0N,30/01/2021 16:48,30/01/2021 16:48,Pay Bill from 254726039536 - MERCY MESHACK Acc. JBC,Completed,11000,,25000,TRUE,Pay Utility,254726039536 - MERCY MESHACK,,JBC
PAU75Q0VBJ,30/01/2021 15:45,30/01/2021 15:45,Pay Bill from 254718284151 - EVERLINE MATHEKA Acc. JAG,Completed,9000,,14000,TRUE,Pay Utility,254718284151 - EVERLINE MATHEKA,,JAG
PAU05JZMHM,30/01/2021 13:38,30/01/2021 13:38,Pay Bill from 254728103722 - YASSIR MWINYI ABDULRAZAQ Acc. ICE,Completed,5000,,5000,TRUE,Pay Utility,254728103722 - YASSIR MWINYI ABDULRAZAQ,,ICE
PAU95JXH3R,30/01/2021 13:37,30/01/2021 13:37,Utility Account to Organization Settlement Account,Completed,,-210500,0,TRUE,Utility Account to Organization Settlement Account,979524 - ANCIENT WELLS PROPERTY MANAGERS 2,,
PAU05IY3EG,30/01/2021 13:15,30/01/2021 13:15,Pay Bill from 0706418396 - WENDY ANYANGO OCHIENG Acc. KAC,Completed,11000,,210500,TRUE,Pay Utility,0706418396 - WENDY ANYANGO OCHIENG,,KAC
PAU55IB7S1,30/01/2021 13:01,30/01/2021 13:01,Pay Bill from 254721249160 - GRACE OLESI Acc. ICH,Completed,31000,,199500,TRUE,Pay Utility,254721249160 - GRACE OLESI,,ICH
PAU65FLF8C,30/01/2021 12:01,30/01/2021 12:01,Pay Bill from 254712187712 - JUDELEEN AHINDUKHA SHILOBELE Acc. IEA,Completed,25500,,168500,TRUE,Pay Utility,254712187712 - JUDELEEN AHINDUKHA SHILOBELE,,IEA
PAU8595IGU,30/01/2021 09:31,30/01/2021 09:31,Pay Bill from 254702764047 - FERDINAND K Acc. KDB,Completed,16000,,143000,TRUE,Pay Utility,254702764047 - FERDINAND K,,KDB
PAU158YQB7,30/01/2021 09:27,30/01/2021 09:27,Pay Bill from 254713400052 - EMILY AWUOR OTIENO Acc. kae,Completed,11000,,127000,TRUE,Pay Utility,254713400052 - EMILY AWUOR OTIENO,,kae
PAU452QQUU,30/01/2021 00:18,30/01/2021 00:18,Pay Bill from 254703935626 - DAVID NGARI ITA Acc. FCD,Completed,1000,,116000,TRUE,Pay Utility with OD via STK,254703935626 - DAVID NGARI ITA,,FCD
PAT251FFN8,29/01/2021 22:24,29/01/2021 22:24,Pay Bill from 254720361605 - DAUD AMBER Acc. IGH,Completed,1000,,115000,TRUE,Pay Utility,254720361605 - DAUD AMBER,,IGH
PAT750QI8Z,29/01/2021 21:58,29/01/2021 21:58,Pay Bill from 254700627058 - SUSY NABALAYO CHELONGO Acc. dbb,Completed,16000,,114000,TRUE,Pay Utility with OD via STK,254700627058 - SUSY NABALAYO CHELONGO,,dbb
PAT54XNY4R,29/01/2021 20:47,29/01/2021 20:47,Pay Bill from 254716045947 - LILIAN OLOO Acc. FBD,Completed,11000,,98000,TRUE,Pay Utility,254716045947 - LILIAN OLOO,,FBD
PAT74OZH0R,29/01/2021 18:34,29/01/2021 18:34,Pay Bill from 254707226192 - NICHOLUS MAINGI MWANTHI Acc. HBF,Completed,19000,,87000,TRUE,Pay Utility,254707226192 - NICHOLUS MAINGI MWANTHI,,HBF
PAT04HK3SI,29/01/2021 16:15,29/01/2021 16:15,Pay Bill from 254725111246 - FRANCIS MUUTU MWANGANGI Acc. IGI,Completed,15000,,68000,TRUE,Pay Utility,254725111246 - FRANCIS MUUTU MWANGANGI,,IGI
PAT34HGVG9,29/01/2021 16:13,29/01/2021 16:13,Pay Bill from 254724611087 - Francis Mukindya Muoki Acc. DFB ,Completed,4000,,53000,TRUE,Pay Utility with OD via STK,254724611087 - Francis Mukindya Muoki,,DFB
PAT34GPU4J,29/01/2021 15:56,29/01/2021 15:56,Pay Bill from 254702152790 - Michelle Ndunge Kyalo Acc. IDE,Completed,8000,,49000,TRUE,Pay Utility,254702152790 - Michelle Ndunge Kyalo,,IDE
PAT44DHW80,29/01/2021 14:42,29/01/2021 14:42,Pay Bill from 0759247656 - Samson   Chalo Acc. IAB,Completed,31000,,41000,TRUE,Pay Utility,0759247656 - Samson   Chalo,,IAB
PAT14ANUIB,29/01/2021 13:37,29/01/2021 13:37,Pay Bill from 0757055487 - Pauline Achieng Ochieng Acc. HDC,Completed,10000,,10000,TRUE,Pay Utility,0757055487 - Pauline Achieng Ochieng,,HDC
PAT1467PMH,29/01/2021 11:50,29/01/2021 11:50,Utility Account to Organization Settlement Account,Completed,,-136000,0,TRUE,Utility Account to Organization Settlement Account,979524 - ANCIENT WELLS PROPERTY MANAGERS 2,,
PAT141P4Q1,29/01/2021 09:58,29/01/2021 09:58,Pay Bill Online from 254720927770 - CHRISTOPHER MWANGE Acc. HFC,Completed,5500,,136000,TRUE,Pay Utility with OD Online,254720927770 - CHRISTOPHER MWANGE,,HFC
PAS33SQ2OZ,28/01/2021 22:12,28/01/2021 22:12,Pay Bill from 254724953672 - MERCY MBETI Acc. JCA,Completed,20000,,130500,TRUE,Pay Utility,254724953672 - MERCY MBETI,,JCA
PAS93O2Y0B,28/01/2021 20:24,28/01/2021 20:24,Pay Bill from 254723341864 - WILLIAM OSIEL WACHUDI Acc. DED,Completed,20000,,110500,TRUE,Pay Utility,254723341864 - WILLIAM OSIEL WACHUDI,,DED
PAS43IRHBS,28/01/2021 19:05,28/01/2021 19:05,Pay Bill from 0717216114 - Felix Njeru Mugambi Acc. Kdf,Completed,10000,,90500,TRUE,Pay Utility,0717216114 - Felix Njeru Mugambi,,Kdf
PAS53HGZ1X,28/01/2021 18:45,28/01/2021 18:45,Pay Bill from 254711706815 - NAOMI WANYONYI Acc. KBA,Completed,16000,,80500,TRUE,Pay Utility,254711706815 - NAOMI WANYONYI,,KBA
PAS93EKW0P,28/01/2021 17:54,28/01/2021 17:54,Pay Bill from 254716702294 - DANIEL MULATI Acc. KBE,Completed,2500,,64500,TRUE,Pay Utility,254716702294 - DANIEL MULATI,,KBE
PAS93BUZ69,28/01/2021 16:59,28/01/2021 16:59,Pay Bill from 254720351482 - Cheruiyot Langat Brian Acc. DFA,Completed,31000,,62000,TRUE,Pay Utility,254720351482 - Cheruiyot Langat Brian,,DFA
PAS73BKX3H,28/01/2021 16:53,28/01/2021 16:53,Pay Bill from 254724005780 - IVY MARGARET OGOLA Acc. FFB,Completed,31000,,31000,TRUE,Pay Utility,254724005780 - IVY MARGARET OGOLA,,FFB
PAS03AZZ2A,28/01/2021 16:40,28/01/2021 16:40,Utility Account to Organization Settlement Account,Completed,,-223000,0,TRUE,Utility Account to Organization Settlement Account,979524 - ANCIENT WELLS PROPERTY MANAGERS 2,,
PAS63862NE,28/01/2021 15:31,28/01/2021 15:31,Pay Bill from 0702322105 - hurry ibarasi madede Acc. HDG,Completed,20000,,223000,TRUE,Pay Utility,0702322105 - hurry ibarasi madede,,HDG
PAS131YHBZ,28/01/2021 12:55,28/01/2021 12:55,Pay Bill from 254715098348 - STEPHEN MUREITHI KABUTU Acc. FGC,Completed,19000,,203000,TRUE,Pay Utility,254715098348 - STEPHEN MUREITHI KABUTU,,FGC
PAS32X59YF,28/01/2021 10:51,28/01/2021 10:51,Pay Bill from 254724367519 - BELLAMY ANG'ONG'A GUFWOLI Acc. KAI,Completed,12000,,184000,TRUE,Pay Utility,254724367519 - BELLAMY ANG'ONG'A GUFWOLI,,KAI
PAS92SL6TN,28/01/2021 08:48,28/01/2021 08:48,Pay Bill Online from 254722258756 - DAVID KEMBOI Acc. HDA,Completed,18000,,172000,TRUE,Pay Bill Online,254722258756 - DAVID KEMBOI,,HDA
PAR42C9LMS,27/01/2021 18:56,27/01/2021 18:56,Pay Bill from 254704140048 - MAUREEN GACHERI KINYUA Acc. JDD,Completed,15000,,154000,TRUE,Pay Utility,254704140048 - MAUREEN GACHERI KINYUA,,JDD
PAR42BNAD0,27/01/2021 18:46,27/01/2021 18:46,Pay Bill from 254710239100 - PHILOMENA WOKI MUTHAMA Acc. KDK,Completed,17000,,139000,TRUE,Pay Utility,254710239100 - PHILOMENA WOKI MUTHAMA,,KDK
PAR32B1GAD,27/01/2021 18:36,27/01/2021 18:36,Pay Bill from 254714037688 - MALCOLM FORUM ODUOR JUMA Acc. JAD,Completed,16000,,122000,TRUE,Pay Utility,254714037688 - MALCOLM FORUM ODUOR JUMA,,JAD
PAR827J90Q,27/01/2021 17:32,27/01/2021 17:32,Pay Bill from 254720850920 - HENRY ONDERI Acc. JCB,Completed,15000,,106000,TRUE,Pay Utility with OD via STK,254720850920 - HENRY ONDERI,,JCB
PAR425PP02,27/01/2021 16:54,27/01/2021 16:54,Pay Bill from 254716479709 - PAUL MUSYOKI Acc. IEC,Completed,17000,,91000,TRUE,Pay Utility,254716479709 - PAUL MUSYOKI,,IEC
PAR1232BYJ,27/01/2021 15:52,27/01/2021 15:52,Pay Bill from 254722644655 - MOSES ONYANGO ONYACH Acc. KAD,Completed,11000,,74000,TRUE,Pay Utility,254722644655 - MOSES ONYANGO ONYACH,,KAD
PAR021Q9YS,27/01/2021 15:18,27/01/2021 15:18,Pay Bill from 254720375006 - JACOB KANGOGO Acc. IBA,Completed,31000,,63000,TRUE,Pay Utility,254720375006 - JACOB KANGOGO,,IBA
PAR821EZFQ,27/01/2021 15:11,27/01/2021 15:11,Pay Bill from 254728788938 - MOHAMED ISSAK ADAN Acc. jaa,Completed,32000,,32000,TRUE,Pay Utility,254728788938 - MOHAMED ISSAK ADAN,,jaa
PAR121175F,27/01/2021 15:01,27/01/2021 15:01,Utility Account to Organization Settlement Account,Completed,,-107000,0,TRUE,Utility Account to Organization Settlement Account,979524 - ANCIENT WELLS PROPERTY MANAGERS 2,,
PAR31XEZE1,27/01/2021 13:31,27/01/2021 13:31,Pay Bill from 0792933158 - mary wamaitha maina Acc. kdh,Completed,10000,,107000,TRUE,Pay Utility,0792933158 - mary wamaitha maina,,kdh
PAR91J96PT,27/01/2021 06:20,27/01/2021 06:20,Pay Bill from 254720361605 - DAUD AMBER Acc. IGH,Completed,1000,,97000,TRUE,Pay Utility,254720361605 - DAUD AMBER,,IGH
PAQ41GTEHM,26/01/2021 22:08,26/01/2021 22:08,Pay Bill from 254703935626 - DAVID NGARI ITA Acc. FCD,Completed,1000,,96000,TRUE,Pay Utility with OD via STK,254703935626 - DAVID NGARI ITA,,FCD
PAQ619X8L4,26/01/2021 19:48,26/01/2021 19:48,Pay Bill from 254795023150 - FAITH MORAA SITEMBA Acc. IFC,Completed,17000,,95000,TRUE,Pay Utility,254795023150 - FAITH MORAA SITEMBA,,IFC
PAQ319PYPT,26/01/2021 19:45,26/01/2021 19:45,Pay Bill from 254705902606 - JOSEPH OTIENO SAGWA Acc. fed,Completed,14000,,78000,TRUE,Pay Utility,254705902606 - JOSEPH OTIENO SAGWA,,fed
PAQ317Y9CF,26/01/2021 19:21,26/01/2021 19:21,Pay Bill from 254717985596 - NICHOLAS KIPKOECH BUTIA Acc. hcf,Completed,10000,,64000,TRUE,Pay Utility,254717985596 - NICHOLAS KIPKOECH BUTIA,,hcf
PAQ110PCNF,26/01/2021 17:15,26/01/2021 17:15,Pay Bill from 254714774979 - ALICE KALEKYE MUTUA Acc. JCH,Completed,17000,,54000,TRUE,Pay Utility,254714774979 - ALICE KALEKYE MUTUA,,JCH
PAQ2ZWEAA6,26/01/2021 15:35,26/01/2021 15:35,Pay Bill from 254757840728 - SETH OMONDI ODONDI Acc. DFD ,Completed,20000,,37000,TRUE,Pay Utility,254757840728 - SETH OMONDI ODONDI,,DFD
PAQ6ZQQJ14,26/01/2021 13:14,26/01/2021 13:14,Pay Bill from 254740654570 - RAEL NEKESA MAKHACHA Acc. IAC,Completed,17000,,17000,TRUE,Pay Utility with OD via STK,254740654570 - RAEL NEKESA MAKHACHA,,IAC
PAQ6ZMUM4S,26/01/2021 11:38,26/01/2021 11:38,Utility Account to Organization Settlement Account,Completed,,-129500,0,TRUE,Utility Account to Organization Settlement Account,979524 - ANCIENT WELLS PROPERTY MANAGERS 2,,
PAQ5ZD6ED9,26/01/2021 05:55,26/01/2021 05:55,Pay Bill from 254701683737 - MICHAEL NGUGI Acc. HDB,Completed,16000,,129500,TRUE,Pay Utility,254701683737 - MICHAEL NGUGI,,HDB
PAP3ZBOJ9Z,25/01/2021 22:33,25/01/2021 22:33,Pay Bill from 254703935626 - DAVID NGARI ITA Acc. FCD,Completed,1500,,113500,TRUE,Pay Utility,254703935626 - DAVID NGARI ITA,,FCD
PAP3ZBGFLF,25/01/2021 22:21,25/01/2021 22:21,Pay Bill Online from 254724211857 - OCHUODHO OUMA Acc. KBK Rent,Completed,17000,,112000,TRUE,Pay Bill Online,254724211857 - OCHUODHO OUMA,,KBK
PAP5Z8VKN3,25/01/2021 21:00,25/01/2021 21:00,Pay Bill from 254703555717 - SENGA SALIM Acc. hbb,Completed,2000,,95000,TRUE,Pay Utility,254703555717 - SENGA SALIM,,hbb
PAP2Z5AG8S,25/01/2021 19:54,25/01/2021 19:54,Pay Bill from 254704682516 - Winnie Akinyi Omollo Acc. fda,Completed,16000,,93000,TRUE,Pay Utility,254704682516 - Winnie Akinyi Omollo,,fda
PAP3Z48KRJ,25/01/2021 19:38,25/01/2021 19:38,Pay Bill from 254728364280 - EMMANUEL THUMA OYIER Acc. IDF,Completed,11000,,77000,TRUE,Pay Utility,254728364280 - EMMANUEL THUMA OYIER,,IDF
PAP1Z47E79,25/01/2021 19:37,25/01/2021 19:37,Pay Bill from 0758506934 - Edgar Maxwel Wanguba Acc. IFG,Completed,17000,,66000,TRUE,Pay Utility,0758506934 - Edgar Maxwel Wanguba,,IFG
PAP8Z1N838,25/01/2021 18:59,25/01/2021 18:59,Pay Bill from 0110005083 - COLLINS KIPTOO KOECH Acc. JDJ,Completed,25000,,49000,TRUE,Pay Utility,0110005083 - COLLINS KIPTOO KOECH,,JDJ
PAP2YU1HUK,25/01/2021 16:34,25/01/2021 16:34,Pay Bill from 254728888511 - HAMISI MIRITI Acc. KAK,Completed,16000,,24000,TRUE,Pay Utility,254728888511 - HAMISI MIRITI,,KAK
PAP3YQI86L,25/01/2021 15:06,25/01/2021 15:06,Pay Bill from 254742911013 - HANEST AMIMO Acc. IEG,Completed,8000,,8000,TRUE,Pay Utility with OD via STK,254742911013 - HANEST AMIMO,,IEG
PAP4YQ4TU6,25/01/2021 14:57,25/01/2021 14:57,Utility Account to Organization Settlement Account,Completed,,-43500,0,TRUE,Utility Account to Organization Settlement Account,979524 - ANCIENT WELLS PROPERTY MANAGERS 2,,
PAO0Y35S6E,24/01/2021 20:34,24/01/2021 20:34,Pay Bill Online from 254720927770 - CHRISTOPHER MWANGE Acc. HFC,Completed,4500,,43500,TRUE,Pay Utility with OD Online,254720927770 - CHRISTOPHER MWANGE,,HFC
PAO2XZD5JW,24/01/2021 19:27,24/01/2021 19:27,Pay Bill from 254710960007 - JOSEPH NZIOKA MUTINDA Acc. IBG,Completed,5000,,39000,TRUE,Pay Utility,254710960007 - JOSEPH NZIOKA MUTINDA,,IBG
PAO8XP9SK8,24/01/2021 16:02,24/01/2021 16:02,Pay Bill from 254723510490 - JANET JEBET TANUI Acc. IDG,Completed,8000,,34000,TRUE,Pay Utility,254723510490 - JANET JEBET TANUI,,IDG
PAO1XBF4D5,24/01/2021 09:46,24/01/2021 09:46,Pay Bill from 254700833330 - RITAH NTHAMBI MUTHAMA Acc. kab,Completed,16000,,26000,TRUE,Pay Utility,254700833330 - RITAH NTHAMBI MUTHAMA,,kab
PAO9X5VAPP,24/01/2021 00:01,24/01/2021 00:01,Pay Bill from 254703935626 - DAVID NGARI ITA Acc. FCD,Completed,1000,,10000,TRUE,Pay Utility with OD via STK,254703935626 - DAVID NGARI ITA,,FCD
PAN6WTRMG0,23/01/2021 18:49,23/01/2021 18:49,Pay Bill from 254717985596 - NICHOLAS KIPKOECH BUTIA Acc. HCF,Completed,9000,,9000,TRUE,Pay Utility,254717985596 - NICHOLAS KIPKOECH BUTIA,,HCF
PAN4WRAVD6,23/01/2021 18:06,23/01/2021 18:06,Utility Account to Organization Settlement Account,Completed,,-83500,0,TRUE,Utility Account to Organization Settlement Account,979524 - ANCIENT WELLS PROPERTY MANAGERS 2,,
PAN6WQCRA4,23/01/2021 17:49,23/01/2021 17:49,Pay Bill from 254713400052 - EMILY AWUOR OTIENO Acc. kae,Completed,10000,,83500,TRUE,Pay Utility,254713400052 - EMILY AWUOR OTIENO,,kae
PAN9WJAWZV,23/01/2021 15:22,23/01/2021 15:22,Pay Bill from 254716702294 - DANIEL MULATI Acc. KBE,Completed,1500,,73500,TRUE,Pay Utility,254716702294 - DANIEL MULATI,,KBE
PAN0WJ18OG,23/01/2021 15:16,23/01/2021 15:16,Pay Bill from 254720931300 - ESTHER WANJIRU NDUNGO Acc. KGE,Completed,19000,,72000,TRUE,Pay Utility,254720931300 - ESTHER WANJIRU NDUNGO,,KGE
PAN5WIE56F,23/01/2021 15:02,23/01/2021 15:02,Pay Bill from 254703528196 - ERIC GITONGA MUGO Acc. KGJ,Completed,3000,,53000,TRUE,Pay Utility,254703528196 - ERIC GITONGA MUGO,,KGJ
PAN2WHW8GC,23/01/2021 14:51,23/01/2021 14:51,Pay Bill from 0111278177 - Alfred   Kishoin Acc. IBC,Completed,5000,,50000,TRUE,Pay Utility,0111278177 - Alfred   Kishoin,,IBC
PAN9WFOQS9,23/01/2021 14:01,23/01/2021 14:01,Pay Bill from 254713662892 - DAVID JUMA KIPTOCH Acc. JBE,Completed,8500,,45000,TRUE,Pay Utility,254713662892 - DAVID JUMA KIPTOCH,,JBE
PAN1WAOTYH,23/01/2021 12:02,23/01/2021 12:02,Pay Bill from 0722950695 - Joshua Mbithi Kivondo Acc. Dca,Completed,500,,36500,TRUE,Pay Utility,0722950695 - Joshua Mbithi Kivondo,,Dca
PAN6W7OXVY,23/01/2021 10:47,23/01/2021 10:47,Pay Bill from 254700890378 - MERCY KIMORI Acc. FAA,Completed,16000,,36000,TRUE,Pay Utility,254700890378 - MERCY KIMORI,,FAA
PAN2W79PQS,23/01/2021 10:36,23/01/2021 10:36,Pay Bill from 254725044176 - DARIUS WAKARIA Acc. JAD,Completed,4000,,20000,TRUE,Pay Utility,254725044176 - DARIUS WAKARIA,,JAD
PAN0W6BL9G,23/01/2021 10:12,23/01/2021 10:12,Pay Bill from 254740697410 - Jackline Wanjiko Namboso Acc. lEH,Completed,16000,,16000,TRUE,Pay Utility,254740697410 - Jackline Wanjiko Namboso,,lEH
PAN9W5JZF3,23/01/2021 09:52,23/01/2021 09:52,Utility Account to Organization Settlement Account,Completed,,-15100,0,TRUE,Utility Account to Organization Settlement Account,979524 - ANCIENT WELLS PROPERTY MANAGERS 2,,
PAM9VMCHNT,22/01/2021 18:42,22/01/2021 18:42,Pay Bill from 254729450678 - GRACE NDUNGE Acc. fba,Completed,600,,15100,TRUE,Pay Utility,254729450678 - GRACE NDUNGE,,fba
PAM0VJO3YY,22/01/2021 17:55,22/01/2021 17:55,Pay Bill from 0714598683 - tracey makena nyaga Acc. KAC,Completed,5000,,14500,TRUE,Pay Utility,0714598683 - tracey makena nyaga,,KAC
PAM3VH5NON,22/01/2021 17:07,22/01/2021 17:07,Pay Bill from 254715259756 - SYNTHIA OTIENO Acc. FBC,Completed,9500,,9500,TRUE,Pay Utility,254715259756 - SYNTHIA OTIENO,,FBC
PAM0V0BY54,22/01/2021 10:17,22/01/2021 10:17,Utility Account to Organization Settlement Account,Completed,,-13500,0,TRUE,Utility Account to Organization Settlement Account,979524 - ANCIENT WELLS PROPERTY MANAGERS 2,,
PAL7URKP4B,21/01/2021 22:16,21/01/2021 22:16,Pay Bill from 0748059595 - Rashid NASSIR Khamis Acc. DDA,Completed,4000,,13500,TRUE,Pay Utility,0748059595 - Rashid NASSIR Khamis,,DDA
PAL4URBIKI,21/01/2021 22:06,21/01/2021 22:06,Pay Bill from 254703935626 - DAVID NGARI ITA Acc. FCD,Completed,1500,,9500,TRUE,Pay Utility with OD via STK,254703935626 - DAVID NGARI ITA,,FCD
PAL4UOHUBW,21/01/2021 20:51,21/01/2021 20:51,Pay Bill from 254720361605 - DAUD AMBER Acc. IGH,Completed,1000,,8000,TRUE,Pay Utility,254720361605 - DAUD AMBER,,IGH
PAL2U3W0C0,21/01/2021 14:02,21/01/2021 14:02,Pay Bill from 254719499823 - MOSES MWANZIA MUTHIANI Acc. Jcc,Completed,7000,,7000,TRUE,Pay Utility,254719499823 - MOSES MWANZIA MUTHIANI,,Jcc
PAL7TT8H6N,21/01/2021 09:23,21/01/2021 09:23,Utility Account to Organization Settlement Account,Completed,,-33000,0,TRUE,Utility Account to Organization Settlement Account,979524 - ANCIENT WELLS PROPERTY MANAGERS 2,,
PAK8TGNNJS,20/01/2021 20:05,20/01/2021 20:05,Pay Bill from 254720361605 - DAUD AMBER Acc. IGH,Completed,1000,,33000,TRUE,Pay Utility,254720361605 - DAUD AMBER,,IGH
PAK3TDROBJ,20/01/2021 19:22,20/01/2021 19:22,Pay Bill from 254712991717 - PHILIP Edwin ANAYO Acc. JEH,Completed,16000,,32000,TRUE,Pay Utility,254712991717 - PHILIP Edwin ANAYO,,JEH
PAK6SZVFB6,20/01/2021 14:39,20/01/2021 14:39,Pay Bill from 254725255978 - DICKSON OLUOCH Acc. JEJ,Completed,16000,,16000,TRUE,Pay Utility,254725255978 - DICKSON OLUOCH,,JEJ
PAK4SXO3BU,20/01/2021 13:44,20/01/2021 13:44,Utility Account to Organization Settlement Account,Completed,,-5000,0,TRUE,Utility Account to Organization Settlement Account,979524 - ANCIENT WELLS PROPERTY MANAGERS 2,,
PAK8SUW8JQ,20/01/2021 12:35,20/01/2021 12:35,Pay Bill from 254718593194 - HURRY IBARASI MADEDE Acc. HDG,Completed,5000,,5000,TRUE,Pay Utility,254718593194 - HURRY IBARASI MADEDE,,HDG
PAK0SI2VN8,20/01/2021 00:52,20/01/2021 00:52,Utility Account to Organization Settlement Account,Completed,,-89000,0,TRUE,Utility Account to Organization Settlement Account,979524 - ANCIENT WELLS PROPERTY MANAGERS 2,,
PAJ9S73K5V,19/01/2021 19:08,19/01/2021 19:08,Pay Bill from 254721520535 - NYAMWAYA MATARA Acc. JDB,Completed,15000,,89000,TRUE,Pay Utility with OD via STK,254721520535 - NYAMWAYA MATARA,,JDB
PAJ6RVSM6M,19/01/2021 15:20,19/01/2021 15:20,Pay Bill Online from 254729425253 - FATUMA MOHAMMED MWAJASI Acc. HBB,Completed,27000,,74000,TRUE,Pay Utility with OD Online,254729425253 - FATUMA MOHAMMED MWAJASI,,HBB
PAJ0RV1W5E,19/01/2021 15:02,19/01/2021 15:02,Pay Bill from 0748059595 - Rashid NASSIR Khamis Acc. DDA,Completed,4000,,47000,TRUE,Pay Utility,0748059595 - Rashid NASSIR Khamis,,DDA
PAJ0RQQ0F6,19/01/2021 13:13,19/01/2021 13:13,Pay Bill from 254710537468 - DONALDO AMIOL JUAC AKEC Acc. jdg,Completed,30000,,43000,TRUE,Pay Utility,254710537468 - DONALDO AMIOL JUAC AKEC,,jdg
PAJ8RKZUZQ,19/01/2021 10:46,19/01/2021 10:46,Pay Bill from 254703555717 - SENGA SALIM Acc. hbb,Completed,2000,,13000,TRUE,Pay Utility,254703555717 - SENGA SALIM,,hbb
PAJ0RH9Z7K,19/01/2021 09:06,19/01/2021 09:06,Pay Bill from 254722244406 - NOAH MELI Acc. Jac,Completed,11000,,11000,TRUE,Pay Utility,254722244406 - NOAH MELI,,Jac
PAI9R7HMZL,18/01/2021 20:31,18/01/2021 20:31,Utility Account to Organization Settlement Account,Completed,,-36000,0,TRUE,Utility Account to Organization Settlement Account,979524 - ANCIENT WELLS PROPERTY MANAGERS 2,,
PAI3R3ZNTV,18/01/2021 19:33,18/01/2021 19:33,Pay Bill from 254717140158 - Peter Wanjiru Acc. HFB,Completed,31000,,36000,TRUE,Pay Utility,254717140158 - Peter Wanjiru,,HFB
PAI9QCZ89T,18/01/2021 09:20,18/01/2021 09:20,Pay Bill Online from 254727554512 - COLLINS KOECH Acc. JDJ,Completed,5000,,5000,TRUE,Pay Utility with OD Online,254727554512 - COLLINS KOECH,,JDJ
PAI3QBC7K7,18/01/2021 08:33,18/01/2021 08:33,Utility Account to Organization Settlement Account,Completed,,-155300,0,TRUE,Utility Account to Organization Settlement Account,979524 - ANCIENT WELLS PROPERTY MANAGERS 2,,
PAH5PWWWN1,17/01/2021 18:46,17/01/2021 18:46,Pay Bill from 0706418396 - WENDY ANYANGO OCHIENG Acc. IEF,Completed,5000,,155300,TRUE,Pay Utility,0706418396 - WENDY ANYANGO OCHIENG,,IEF
PAH8PUX8PM,17/01/2021 18:08,17/01/2021 18:08,Pay Bill from 0759217545 - Angela Syombua Lole Acc. HDE,Completed,10000,,150300,TRUE,Pay Utility,0759217545 - Angela Syombua Lole,,HDE
PAH1PSOGCV,17/01/2021 17:23,17/01/2021 17:23,Pay Bill from 254700788416 - MERCY KASILI Acc. IFE,Completed,17000,,140300,TRUE,Pay Utility,254700788416 - MERCY KASILI,,IFE
PAH8PS8PUC,17/01/2021 17:14,17/01/2021 17:14,Pay Bill from 254728103722 - YASSIR MWINYI ABDULRAZAQ Acc. ICE,Completed,2000,,123300,TRUE,Pay Utility,254728103722 - YASSIR MWINYI ABDULRAZAQ,,ICE
PAH4PMVVZK,17/01/2021 15:14,17/01/2021 15:14,Pay Bill from 254728685098 - AIDID ISSA ABDI Acc. FDF,Completed,32000,,121300,TRUE,Pay Utility,254728685098 - AIDID ISSA ABDI,,FDF
PAH5PMK72T,17/01/2021 15:06,17/01/2021 15:06,Pay Bill from 254722458136 - NADI GOLICHA Acc. KAA,Completed,17000,,89300,TRUE,Pay Utility,254722458136 - NADI GOLICHA,,KAA
PAH3PGNPP9,17/01/2021 12:38,17/01/2021 12:38,Pay Bill from 0714310490 - MIKE CHIBUNGU MWAMUYE Acc. IEE,Completed,13000,,72300,TRUE,Pay Utility,0714310490 - MIKE CHIBUNGU MWAMUYE,,IEE
PAH4PB7OCA,17/01/2021 09:57,17/01/2021 09:57,Pay Bill from 254798146452 - VALARY ODHIAMBO Acc. JEE,Completed,10000,,59300,TRUE,Pay Utility,254798146452 - VALARY ODHIAMBO,,JEE
PAH3P9V3HD,17/01/2021 09:16,17/01/2021 09:16,Pay Bill from 254722910078 - MAUREEN MUNYIVA MUTUKU Acc. DBD,Completed,4000,,49300,TRUE,Pay Utility,254722910078 - MAUREEN MUNYIVA MUTUKU,,DBD
PAG3P2VSO3,16/01/2021 21:37,16/01/2021 21:37,Pay Bill from 254726380203 - SHARON OLENDO Acc. HCA,Completed,9000,,45300,TRUE,Pay Utility,254726380203 - SHARON OLENDO,,HCA
PAG0OWXEK2,16/01/2021 19:41,16/01/2021 19:41,Pay Bill from 254716702294 - DANIEL MULATI Acc. KBE,Completed,300,,36300,TRUE,Pay Utility,254716702294 - DANIEL MULATI,,KBE
PAG0OV0ZI2,16/01/2021 19:13,16/01/2021 19:13,Pay Bill from 254703681302 - DORRIS MULE Acc. IGD,Completed,1000,,36000,TRUE,Pay Utility,254703681302 - DORRIS MULE,,IGD
PAG7OR3HS3,16/01/2021 18:08,16/01/2021 18:08,Pay Bill from 254720361605 - DAUD AMBER Acc. IGH,Completed,1000,,35000,TRUE,Pay Utility,254720361605 - DAUD AMBER,,IGH
PAG9OJJQZ1,16/01/2021 15:40,16/01/2021 15:40,Pay Bill from 0743248310 - PATRICK STURRIDGE NYONGESA Acc. kaf,Completed,4000,,34000,TRUE,Pay Utility,0743248310 - PATRICK STURRIDGE NYONGESA,,kaf
PAG8OFLUGM,16/01/2021 14:14,16/01/2021 14:14,Pay Bill from 254703375006 - KEN RODGERS Acc. DBA,Completed,17000,,30000,TRUE,Pay Utility with OD via STK,254703375006 - KEN RODGERS,,DBA
PAG1OF7OWJ,16/01/2021 14:05,16/01/2021 14:05,Pay Bill from 254715320311 - PAULINE WANJOHI Acc. IAE,Completed,13000,,13000,TRUE,Pay Utility,254715320311 - PAULINE WANJOHI,,IAE
PAG2O54KAE,16/01/2021 10:04,16/01/2021 10:04,Utility Account to Organization Settlement Account,Completed,,-21800,0,TRUE,Utility Account to Organization Settlement Account,979524 - ANCIENT WELLS PROPERTY MANAGERS 2,,
PAG3O4FD57,16/01/2021 09:46,16/01/2021 09:46,Pay Bill from 254703681302 - DORRIS MULE Acc. IGD,Completed,6500,,21800,TRUE,Pay Utility,254703681302 - DORRIS MULE,,IGD
PAF7NRYQYX,15/01/2021 20:22,15/01/2021 20:22,Pay Bill from 254720361605 - DAUD AMBER Acc. IGH,Completed,1000,,15300,TRUE,Pay Utility,254720361605 - DAUD AMBER,,IGH
PAF5NF2JXX,15/01/2021 16:39,15/01/2021 16:39,Pay Bill from 254716702294 - DANIEL MULATI Acc. KBE,Completed,300,,14300,TRUE,Pay Utility,254716702294 - DANIEL MULATI,,KBE
PAF2N9VVE4,15/01/2021 14:34,15/01/2021 14:34,Pay Bill from 0746447780 - MERCY KARISA MUTSEMBI Acc. KCG,Completed,10000,,14000,TRUE,Pay Utility,0746447780 - MERCY KARISA MUTSEMBI,,KCG
PAF6N7MM7K,15/01/2021 13:38,15/01/2021 13:38,Pay Bill from 254722444622 - CHARITY KAGWAINI Acc. FFD,Completed,4000,,4000,TRUE,Pay Utility,254722444622 - CHARITY KAGWAINI,,FFD
PAF9N3QPAH,15/01/2021 11:59,15/01/2021 11:59,Utility Account to Organization Settlement Account,Completed,,-27000,0,TRUE,Utility Account to Organization Settlement Account,979524 - ANCIENT WELLS PROPERTY MANAGERS 2,,
PAF9MYA0G7,15/01/2021 09:37,15/01/2021 09:37,Pay Bill from 254718672924 - LILIAN CHEBET NGENO Acc. KGD,Completed,10000,,27000,TRUE,Pay Utility,254718672924 - LILIAN CHEBET NGENO,,KGD
PAF7MWF0GR,15/01/2021 08:43,15/01/2021 08:43,Pay Bill from 254720703769 - MOHAMED ABUKAR SIYAD Acc. HBA,Completed,17000,,17000,TRUE,Pay Utility,254720703769 - MOHAMED ABUKAR SIYAD,,HBA
PAE2MCOT6Y,14/01/2021 17:29,14/01/2021 17:29,Utility Account to Organization Settlement Account,Completed,,-101500,0,TRUE,Utility Account to Organization Settlement Account,979524 - ANCIENT WELLS PROPERTY MANAGERS 2,,
PAE0MATKEA,14/01/2021 16:49,14/01/2021 16:49,Pay Bill Online from 254720451253 - JIMMY KIOGORA NKIROTE Acc. KBD,Completed,12000,,101500,TRUE,Pay Utility with OD Online,254720451253 - JIMMY KIOGORA NKIROTE,,KBD
PAE0M77V3K,14/01/2021 15:20,14/01/2021 15:20,Pay Bill from 254726928933 - JOSHUA NDUNDA NZIOKA Acc. KCJ,Completed,6000,,89500,TRUE,Pay Utility,254726928933 - JOSHUA NDUNDA NZIOKA,,KCJ
PAE0M4SZWO,14/01/2021 14:17,14/01/2021 14:17,Pay Bill from 254723699555 - DIANA NYAIREGI GICHIA Acc. FBF,Completed,16000,,83500,TRUE,Pay Utility,254723699555 - DIANA NYAIREGI GICHIA,,FBF
PAE3M2ETAL,14/01/2021 13:15,14/01/2021 13:15,Pay Bill from 0794593622 - ALEX MACHALE MANASE Acc. icd,Completed,10000,,67500,TRUE,Pay Utility,0794593622 - ALEX MACHALE MANASE,,icd
PAE4LU5GNE,14/01/2021 09:36,14/01/2021 09:36,Pay Bill from 254723954911 - JAMES KILAVI Acc. ICG,Completed,9500,,57500,TRUE,Pay Utility,254723954911 - JAMES KILAVI,,ICG
PAE2LQB9KK,14/01/2021 07:29,14/01/2021 07:29,Pay Bill from 254704011421 - KIPKIRUI COLLINS Acc. DAB,Completed,16000,,48000,TRUE,Pay Utility with OD via STK,254704011421 - KIPKIRUI COLLINS,,DAB
PAD4LHIKAI,13/01/2021 20:08,13/01/2021 20:08,Pay Bill from 254722889574 - ALLAN MWANGI Acc. jcg,Completed,10000,,32000,TRUE,Pay Utility with OD via STK,254722889574 - ALLAN MWANGI,,jcg
PAD8LGS530,13/01/2021 19:56,13/01/2021 19:56,Pay Bill from 254702152790 - Michelle Ndunge Kyalo Acc. IDE,Completed,9000,,22000,TRUE,Pay Utility,254702152790 - Michelle Ndunge Kyalo,,IDE
PAD9LAY6CB,13/01/2021 18:27,13/01/2021 18:27,Pay Bill from 254703180395 - JANE NYAGUTHII MWAGO Acc. IBE,Completed,13000,,13000,TRUE,Pay Utility,254703180395 - JANE NYAGUTHII MWAGO,,IBE
PAD1L4SVG1,13/01/2021 16:28,13/01/2021 16:28,Utility Account to Organization Settlement Account,Completed,,-148300,0,TRUE,Utility Account to Organization Settlement Account,979524 - ANCIENT WELLS PROPERTY MANAGERS 2,,
PAD7KZTEC7,13/01/2021 14:23,13/01/2021 14:23,Pay Bill from 0798660933 - JOSEPH NEWTON GUNI Acc. IAI,Completed,15000,,148300,TRUE,Pay Utility,0798660933 - JOSEPH NEWTON GUNI,,IAI
PAD8KYH3NQ,13/01/2021 13:49,13/01/2021 13:49,Pay Bill from 254716702294 - DANIEL MULATI Acc. KBE,Completed,300,,133300,TRUE,Pay Utility,254716702294 - DANIEL MULATI,,KBE
PAD3KWU1FZ,13/01/2021 13:08,13/01/2021 13:08,Pay Bill from 0748059595 - Rashid NASSIR Khamis Acc. DDA,Completed,8000,,133000,TRUE,Pay Utility,0748059595 - Rashid NASSIR Khamis,,DDA
PAD7KVI3DR,13/01/2021 12:34,13/01/2021 12:34,Pay Bill from 254702926057 - JULIAH JEPTUM Acc. IEF,Completed,16000,,125000,TRUE,Pay Utility,254702926057 - JULIAH JEPTUM,,IEF
PAC3KHOTKD,12/01/2021 22:06,12/01/2021 22:06,Pay Bill from 254725255978 - DICKSON OLUOCH Acc. JFF,Completed,10000,,109000,TRUE,Pay Utility with OD via STK,254725255978 - DICKSON OLUOCH,,JFF
PAC0KCN4O2,12/01/2021 20:07,12/01/2021 20:07,Pay Bill from 254718138578 - PAULINE KIOKO Acc. KFD,Completed,12000,,99000,TRUE,Pay Utility,254718138578 - PAULINE KIOKO,,KFD
PAC3K69B61,12/01/2021 18:27,12/01/2021 18:27,Pay Bill from 254722910078 - MAUREEN MUNYIVA MUTUKU Acc. DBD,Completed,16000,,87000,TRUE,Pay Utility,254722910078 - MAUREEN MUNYIVA MUTUKU,,DBD
PAC1K66SNN,12/01/2021 18:26,12/01/2021 18:26,Pay Bill from 254722387899 - ADAN ALI Acc. Jba,Completed,22000,,71000,TRUE,Pay Utility,254722387899 - ADAN ALI,,Jba
PAC9K2YV43,12/01/2021 17:27,12/01/2021 17:27,Pay Bill from 0723409745 - Kelvin Kitonga Mutyetu Acc. kbf,Completed,7000,,49000,TRUE,Pay Utility,0723409745 - Kelvin Kitonga Mutyetu,,kbf
PAC2K2HNXC,12/01/2021 17:18,12/01/2021 17:18,Pay Bill from 0758591833 - DORCUS MBULA PETER Acc. HDD,Completed,9000,,42000,TRUE,Pay Utility,0758591833 - DORCUS MBULA PETER,,HDD
PAC2JVM3T8,12/01/2021 14:37,12/01/2021 14:37,Pay Bill from 254790799823 - HINO ASAFA AILA Acc. HDH,Completed,17000,,33000,TRUE,Pay Utility,254790799823 - HINO ASAFA AILA,,HDH
PAC8JOXI8Q,12/01/2021 11:47,12/01/2021 11:47,Pay Bill Online from 254720787158 - AMOS CHELANG'A Acc. KFK,Completed,16000,,16000,TRUE,Pay Bill Online,254720787158 - AMOS CHELANG'A,,KFK
PAC7JHXQ0R,12/01/2021 08:36,12/01/2021 08:36,Utility Account to Organization Settlement Account,Completed,,-67250,0,TRUE,Utility Account to Organization Settlement Account,979524 - ANCIENT WELLS PROPERTY MANAGERS 2,,
PAC7JH22NT,12/01/2021 08:07,12/01/2021 08:07,Pay Bill from 254716702294 - DANIEL MULATI Acc. KBE,Completed,250,,67250,TRUE,Pay Utility,254716702294 - DANIEL MULATI,,KBE
PAC3JGUQAR,12/01/2021 08:00,12/01/2021 08:00,Pay Bill Online from 254722249092 - MARIAM ABDULLAHI Acc. KEH,Completed,10000,,67000,TRUE,Pay Utility with OD Online,254722249092 - MARIAM ABDULLAHI,,KEH
PAB6JBT83Q,11/01/2021 21:27,11/01/2021 21:27,Pay Bill from 254720361605 - DAUD AMBER Acc. IGH,Completed,1000,,57000,TRUE,Pay Utility,254720361605 - DAUD AMBER,,IGH
PAB0JBOB00,11/01/2021 21:23,11/01/2021 21:23,Pay Bill from 254726928933 - JOSHUA NDUNDA NZIOKA Acc. KCJ,Completed,10000,,56000,TRUE,Pay Utility,254726928933 - JOSHUA NDUNDA NZIOKA,,KCJ
PAB5J6MYU9,11/01/2021 19:44,11/01/2021 19:44,Pay Bill from 254728670882 - SHARAD EDWARD ADALA OLUM Acc. kck,Completed,31000,,46000,TRUE,Pay Utility,254728670882 - SHARAD EDWARD ADALA OLUM,,kck
PAB9IXVDGX,11/01/2021 17:16,11/01/2021 17:16,Pay Bill from 254729450678 - GRACE NDUNGE Acc. fba,Completed,15000,,15000,TRUE,Pay Utility with OD via STK,254729450678 - GRACE NDUNGE,,fba
PAB1IUN4HT,11/01/2021 16:05,11/01/2021 16:05,Utility Account to Organization Settlement Account,Completed,,-177300,0,TRUE,Utility Account to Organization Settlement Account,979524 - ANCIENT WELLS PROPERTY MANAGERS 2,,
PAB3IRZNSR,11/01/2021 15:01,11/01/2021 15:01,Pay Bill from 254723389177 - NELSON MOI Acc. ibf,Completed,10000,,177300,TRUE,Pay Utility,254723389177 - NELSON MOI,,ibf
PAB4IQ60ZE,11/01/2021 14:16,11/01/2021 14:16,Pay Bill from 254729541871 - ROBERT KULEI Acc. JAB,Completed,15000,,167300,TRUE,Pay Utility,254729541871 - ROBERT KULEI,,JAB
PAB7IOAF23,11/01/2021 13:31,11/01/2021 13:31,Pay Bill from 0743248310 - PATRICK STURRIDGE NYONGESA Acc. kaf,Completed,5000,,152300,TRUE,Pay Utility,0743248310 - PATRICK STURRIDGE NYONGESA,,kaf
PAB7IIC53B,11/01/2021 11:02,11/01/2021 11:02,Pay Bill from 254715597659 - JOYCE KIVAI Acc. IED,Completed,11000,,147300,TRUE,Pay Utility,254715597659 - JOYCE KIVAI,,IED
PAB0IH64QE,11/01/2021 10:33,11/01/2021 10:33,Pay Bill from 254725909984 - TIMOTHY ODHIAMBO OWITI Acc. JDE,Completed,20000,,136300,TRUE,Pay Utility,254725909984 - TIMOTHY ODHIAMBO OWITI,,JDE
PAB0IFZKLQ,11/01/2021 10:03,11/01/2021 10:03,Pay Bill from 254741583477 - omenda mzee aziz Acc. JEF,Completed,800,,116300,TRUE,Pay Utility with OD via STK,254741583477 - omenda mzee aziz,,JEF
PAA6I5TU5O,10/01/2021 21:01,10/01/2021 21:01,Pay Bill from 254722921132 - JOE MCCRAY MURIUKI KIHIA Acc. IFA,Completed,15000,,115500,TRUE,Pay Utility with OD via STK,254722921132 - JOE MCCRAY MURIUKI KIHIA,,IFA
PAA9HZMYUB,10/01/2021 19:04,10/01/2021 19:04,Pay Bill from 254728313347 - GEORGE KIMAIGA NYAMORI Acc. ici,Completed,16000,,100500,TRUE,Pay Utility,254728313347 - GEORGE KIMAIGA NYAMORI,,ici
PAA3HTMPWN,10/01/2021 17:06,10/01/2021 17:06,Pay Bill from 254768687118 - mitchelle chepkemoi Acc. HFF,Completed,19000,,84500,TRUE,Pay Utility,254768687118 - mitchelle chepkemoi,,HFF
PAA1HTK2SZ,10/01/2021 17:05,10/01/2021 17:05,Pay Bill from 254703681302 - DORRIS MULE Acc. IGD,Completed,8000,,65500,TRUE,Pay Utility with OD via STK,254703681302 - DORRIS MULE,,IGD
PAA1HHT1PR,10/01/2021 12:23,10/01/2021 12:23,Pay Bill from 0719834515 - Ibsa   Usman Acc. HBH,Completed,18000,,57500,TRUE,Pay Utility,0719834515 - Ibsa   Usman,,HBH
PAA3HGFIR5,10/01/2021 11:44,10/01/2021 11:44,Pay Bill from 254721115404 - Justine Fayuma Okwemba Acc. HAA,Completed,17000,,39500,TRUE,Pay Utility,254721115404 - Justine Fayuma Okwemba,,HAA
PAA2HEOX90,10/01/2021 10:53,10/01/2021 10:53,Pay Bill from 254716702294 - DANIEL MULATI Acc. KBE,Completed,500,,22500,TRUE,Pay Utility,254716702294 - DANIEL MULATI,,KBE
PAA7HE92FF,10/01/2021 10:40,10/01/2021 10:40,Pay Bill Online from 254714552193 - CHRISTOPHER OCHIENG Acc. JGI,Completed,20000,,22000,TRUE,Pay Bill Online,254714552193 - CHRISTOPHER OCHIENG,,JGI
PAA2H7QXIG,10/01/2021 04:10,10/01/2021 04:10,Pay Bill from 254703935626 - DAVID NGARI ITA Acc. FCD,Completed,1000,,2000,TRUE,Pay Utility with OD via STK,254703935626 - DAVID NGARI ITA,,FCD
PA94H4PQ16,09/01/2021 21:34,09/01/2021 21:34,Pay Bill from 254720361605 - DAUD AMBER Acc. IGH,Completed,1000,,1000,TRUE,Pay Utility,254720361605 - DAUD AMBER,,IGH
PA93H00K0V,09/01/2021 19:55,09/01/2021 19:55,Utility Account to Organization Settlement Account,Completed,,-155000,0,TRUE,Utility Account to Organization Settlement Account,979524 - ANCIENT WELLS PROPERTY MANAGERS 2,,
PA93GO22M7,09/01/2021 16:31,09/01/2021 16:31,Pay Bill from 0712505394 - hezek   atiani Acc. HEH,Completed,16000,,155000,TRUE,Pay Utility,0712505394 - hezek   atiani,,HEH
PA94GGCWJY,09/01/2021 13:42,09/01/2021 13:42,Pay Bill Online from 254706549634 - CLINTON OMBASA Acc. FDB,Completed,17000,,139000,TRUE,Pay Bill Online,254706549634 - CLINTON OMBASA,,FDB
PA93GE2PBF,09/01/2021 12:49,09/01/2021 12:49,Pay Bill from 254713159153 - GUYO SANKALA Acc. DGD,Completed,20000,,122000,TRUE,Pay Utility,254713159153 - GUYO SANKALA,,DGD
PA92G7LP80,09/01/2021 10:12,09/01/2021 10:12,Pay Bill from 0799028632 - WILSON MUTANGILI WAMBUA Acc. haf,Completed,9500,,102000,TRUE,Pay Utility,0799028632 - WILSON MUTANGILI WAMBUA,,haf
PA94G5CSTE,09/01/2021 09:14,09/01/2021 09:14,Pay Bill from 254710635630 - DONNA JESSICA OWANO Acc. KCC,Completed,10000,,92500,TRUE,Pay Utility,254710635630 - DONNA JESSICA OWANO,,KCC
PA89FYZ8S9,08/01/2021 22:12,08/01/2021 22:12,Pay Bill from 254741583477 - omenda mzee aziz Acc. JEF ,Completed,2400,,82500,TRUE,Pay Utility with OD via STK,254741583477 - omenda mzee aziz,,JEF
PA82FY6ULQ,08/01/2021 21:44,08/01/2021 21:44,Pay Bill from 254729392595 - WINNIE NASICHE KERE Acc. JBF,Completed,8000,,80100,TRUE,Pay Utility,254729392595 - WINNIE NASICHE KERE,,JBF
PA83FN976D,08/01/2021 18:25,08/01/2021 18:25,Pay Bill from 254717554562 - OMONDI JACK Acc. KCI,Completed,12500,,72100,TRUE,Pay Utility,254717554562 - OMONDI JACK,,KCI
PA88FN8SKO,08/01/2021 18:25,08/01/2021 18:25,Pay Bill from 254741583477 - omenda mzee aziz Acc. JEF,Completed,1300,,59600,TRUE,Pay Utility with OD via STK,254741583477 - omenda mzee aziz,,JEF
PA86FM90GE,08/01/2021 18:08,08/01/2021 18:08,Pay Bill from 254726611493 - Cornelius Kimeli Acc. HAG,Completed,16000,,58300,TRUE,Pay Utility with OD via STK,254726611493 - Cornelius Kimeli,,HAG
PA82FJQCVE,08/01/2021 17:21,08/01/2021 17:21,Pay Bill from 254702190887 - Nax Ochieng Acc. FDE,Completed,15000,,42300,TRUE,Pay Utility,254702190887 - Nax Ochieng,,FDE
PA81FJFQ01,08/01/2021 17:15,08/01/2021 17:15,Pay Bill from 254720107609 - DENNIS OGENDI BARAKE Acc. JAJ,Completed,15000,,27300,TRUE,Pay Utility with OD via STK,254720107609 - DENNIS OGENDI BARAKE,,JAJ
PA87FHY3A3,08/01/2021 16:44,08/01/2021 16:44,Pay Bill from 254741583477 - omenda mzee aziz Acc. JEF ,Completed,2300,,12300,TRUE,Pay Utility with OD via STK,254741583477 - omenda mzee aziz,,JEF
PA85FG0S3D,08/01/2021 16:00,08/01/2021 16:00,Pay Bill from 254724611087 - Francis Mukindya Muoki Acc. DFB,Completed,10000,,10000,TRUE,Pay Utility with OD via STK,254724611087 - Francis Mukindya Muoki,,DFB
PA89FE3DBN,08/01/2021 15:14,08/01/2021 15:14,Utility Account to Organization Settlement Account,Completed,,-115500,0,TRUE,Utility Account to Organization Settlement Account,979524 - ANCIENT WELLS PROPERTY MANAGERS 2,,
PA80FE02GS,08/01/2021 15:11,08/01/2021 15:11,Pay Bill from 254728042989 - PATRICK OMONDI Acc. IFI ,Completed,31000,,115500,TRUE,Pay Utility with OD via STK,254728042989 - PATRICK OMONDI,,IFI
PA82FCGRW0,08/01/2021 14:34,08/01/2021 14:34,Pay Bill from 254712187712 - JUDELEEN AHINDUKHA SHILOBELE Acc. IGG,Completed,10000,,84500,TRUE,Pay Utility,254712187712 - JUDELEEN AHINDUKHA SHILOBELE,,IGG
PA83FAYCR5,08/01/2021 13:56,08/01/2021 13:56,Pay Bill from 254729948896 - CAROLINE V MILIZA Acc. Fec,Completed,9000,,74500,TRUE,Pay Utility,254729948896 - CAROLINE V MILIZA,,Fec
PA87F98CY9,08/01/2021 13:14,08/01/2021 13:14,Pay Bill from 254722276550 - ISAAC NYAMRER Acc. kgc,Completed,9000,,65500,TRUE,Pay Utility,254722276550 - ISAAC NYAMRER,,kgc
PA88F5DGF4,08/01/2021 11:37,08/01/2021 11:37,Pay Bill Online from 254715764212 - BANCE ISHEMINYE Acc. JFE ,Completed,7000,,56500,TRUE,Pay Bill Online,254715764212 - BANCE ISHEMINYE,,JFE
PA80F4DD3M,08/01/2021 11:13,08/01/2021 11:13,Pay Bill from 254729892526 - PHARIS MICHUKI Acc. JA1,Completed,20000,,49500,TRUE,Pay Utility,254729892526 - PHARIS MICHUKI,,JA1
PA80F3UO30,08/01/2021 11:00,08/01/2021 11:00,Pay Bill from 0722950695 - Joshua Mbithi Kivondo Acc. DCA,Completed,20500,,29500,TRUE,Pay Utility,0722950695 - Joshua Mbithi Kivondo,,DCA
PA80EZNAPI,08/01/2021 09:12,08/01/2021 09:12,Pay Bill from 0715688238 - JOANNAH ATUHAIRE BANTU Acc. jae,Completed,9000,,9000,TRUE,Pay Utility,0715688238 - JOANNAH ATUHAIRE BANTU,,jae
PA83EYRT3B,08/01/2021 08:46,08/01/2021 08:46,Utility Account to Organization Settlement Account,Completed,,-32500,0,TRUE,Utility Account to Organization Settlement Account,979524 - ANCIENT WELLS PROPERTY MANAGERS 2,,
PA89EXGLT1,08/01/2021 08:06,08/01/2021 08:06,Pay Bill from 254728238249 - ESTHER WANGUI KIBUNYI Acc. ICA,Completed,17000,,32500,TRUE,Pay Utility,254728238249 - ESTHER WANGUI KIBUNYI,,ICA
PA87EXFAMD,08/01/2021 08:04,08/01/2021 08:04,Pay Bill from 254722160762 - DENIS KIBET RONOH Acc. KAG,Completed,10000,,15500,TRUE,Pay Utility with OD via STK,254722160762 - DENIS KIBET RONOH,,KAG
PA84EWSX16,08/01/2021 07:41,08/01/2021 07:41,Pay Bill from 254723605941 - JOHN KARIHA Acc. KDD,Completed,5500,,5500,TRUE,Pay Utility,254723605941 - JOHN KARIHA,,KDD
PA74ESS17Q,07/01/2021 21:51,07/01/2021 21:51,Utility Account to Organization Settlement Account,Completed,,-488600,0,TRUE,Utility Account to Organization Settlement Account,979524 - ANCIENT WELLS PROPERTY MANAGERS 2,,
PA77ERDZJJ,07/01/2021 21:11,07/01/2021 21:11,Pay Bill from 254720361605 - DAUD AMBER Acc. IGH,Completed,1000,,488600,TRUE,Pay Utility,254720361605 - DAUD AMBER,,IGH
PA76ER5LVI,07/01/2021 21:05,07/01/2021 21:05,Pay Bill from 254708851939 - VENANT MBOGHO Acc. KCH,Completed,10000,,487600,TRUE,Pay Utility with OD via STK,254708851939 - VENANT MBOGHO,,KCH
PA76EM100Y,07/01/2021 19:33,07/01/2021 19:33,Pay Bill from 254719626804 - PAUL NJOROGE Acc. JFI,Completed,20000,,477600,TRUE,Pay Utility,254719626804 - PAUL NJOROGE,,JFI
PA75EJDRTD,07/01/2021 18:53,07/01/2021 18:53,Pay Bill from 254714710698 - TABITHA MULEE KYALO Acc. IFD,Completed,11500,,457600,TRUE,Pay Utility,254714710698 - TABITHA MULEE KYALO,,IFD
PA78EG3HFI,07/01/2021 17:55,07/01/2021 17:55,Pay Bill from 254701006375 - EZRA MAKORI SERETI Acc. HTE,Completed,10000,,446100,TRUE,Pay Utility,254701006375 - EZRA MAKORI SERETI,,HTE
PA72ECQE2E,07/01/2021 16:45,07/01/2021 16:45,Pay Bill from 254713966424 - NDUTI MUTHUI Acc. JED,Completed,15000,,436100,TRUE,Pay Utility,254713966424 - NDUTI MUTHUI,,JED
PA75ECNM13,07/01/2021 16:43,07/01/2021 16:43,Pay Bill from 254716702294 - DANIEL MULATI Acc. KBE,Completed,500,,421100,TRUE,Pay Utility,254716702294 - DANIEL MULATI,,KBE
PA78EBH6J6,07/01/2021 16:16,07/01/2021 16:16,Pay Bill from 254714209770 - PURITY NDUKU KYALO Acc. JEB,Completed,15000,,420600,TRUE,Pay Utility with OD via STK,254714209770 - PURITY NDUKU KYALO,,JEB
PA75EA1I7Z,07/01/2021 15:40,07/01/2021 15:40,Pay Bill from 254718772336 - DAVID SERUGO Acc. DCD,Completed,20000,,405600,TRUE,Pay Utility,254718772336 - DAVID SERUGO,,DCD
PA78E9228S,07/01/2021 15:16,07/01/2021 15:16,Pay Bill from 254741583477 - omenda mzee aziz Acc. JEF,Completed,1200,,385600,TRUE,Pay Utility with OD via STK,254741583477 - omenda mzee aziz,,JEF
PA79E8ZOPD,07/01/2021 15:14,07/01/2021 15:14,Pay Bill from 254743775372 - SHIKUNDI PURITY KHAOYA Acc. hcd,Completed,9500,,384400,TRUE,Pay Utility,254743775372 - SHIKUNDI PURITY KHAOYA,,hcd
PA79E8O17Z,07/01/2021 15:06,07/01/2021 15:06,Pay Bill from 254710110273 - AGNES NTOITI Acc. Jbb,Completed,1000,,374900,TRUE,Pay Utility with OD via STK,254710110273 - AGNES NTOITI,,Jbb
PA73E1AUDP,07/01/2021 12:02,07/01/2021 12:02,Pay Bill from 254723499628 - CLINTON JOSEPH MUHARI Acc. hfh,Completed,16000,,373900,TRUE,Pay Utility,254723499628 - CLINTON JOSEPH MUHARI,,hfh
PA78E111BU,07/01/2021 11:55,07/01/2021 11:55,Pay Bill from 254707715639 - Annastacia Kimeu Acc. JFC,Completed,10000,,357900,TRUE,Pay Utility,254707715639 - Annastacia Kimeu,,JFC
PA74DUA1AU,07/01/2021 09:03,07/01/2021 09:03,Pay Bill from 254722258107 - JOHN ODIMA ODIMA Acc. KGF,Completed,10000,,347900,TRUE,Pay Utility,254722258107 - JOHN ODIMA ODIMA,,KGF
PA70DSCHUU,07/01/2021 08:05,07/01/2021 08:05,Pay Bill Online from 254728886864 - MOULINE ONYANGO Acc. IAA,Completed,16000,,337900,TRUE,Pay Bill Online,254728886864 - MOULINE ONYANGO,,IAA
PA70DQWNBK,07/01/2021 07:06,07/01/2021 07:06,Pay Bill from 254791154655 - ELISHA JURA Acc. IAH,Completed,18000,,321900,TRUE,Pay Utility,254791154655 - ELISHA JURA,,IAH
PA62DOG61M,06/01/2021 22:33,06/01/2021 22:33,Pay Bill from 254724423882 - JOEL GICHURI KARANJA Acc. fee,Completed,16000,,303900,TRUE,Pay Utility,254724423882 - JOEL GICHURI KARANJA,,fee
PA67DO8UIT,06/01/2021 22:22,06/01/2021 22:22,Pay Bill Online from 254710382992 - SIMON KAMAU MUIRURI Acc. JCD,Completed,15000,,287900,TRUE,Pay Bill Online,254710382992 - SIMON KAMAU MUIRURI,,JCD
PA64DO87LQ,06/01/2021 22:22,06/01/2021 22:22,Pay Bill Online from 254720451253 - JIMMY KIOGORA NKIROTE Acc. JBG,Completed,10000,,272900,TRUE,Pay Utility with OD Online,254720451253 - JIMMY KIOGORA NKIROTE,,JBG
PA63DNWJ2T,06/01/2021 22:08,06/01/2021 22:08,Pay Bill from 254707315614 - TERESAH WANJIRU KIRAGU Acc. JDI,Completed,24000,,262900,TRUE,Pay Utility,254707315614 - TERESAH WANJIRU KIRAGU,,JDI
PA68DNQQK0,06/01/2021 22:03,06/01/2021 22:03,Pay Bill Online from 254715764212 - BANCE ISHEMINYE Acc. JFE ,Completed,5000,,238900,TRUE,Pay Bill Online,254715764212 - BANCE ISHEMINYE,,JFE
PA65DNEK1J,06/01/2021 21:51,06/01/2021 21:51,Pay Bill from 254722444622 - CHARITY KAGWAINI Acc. FFD,Completed,1000,,233900,TRUE,Pay Utility,254722444622 - CHARITY KAGWAINI,,FFD
PA66DMRLW6,06/01/2021 21:32,06/01/2021 21:32,Pay Bill from 254722564580 - GLENN KISIANG'ANI Acc. DBB,Completed,4000,,232900,TRUE,Pay Utility,254722564580 - GLENN KISIANG'ANI,,DBB
PA67DMIB5D,06/01/2021 21:25,06/01/2021 21:25,Pay Bill from 254795449800 - MARTHA WANJIRU NJUGUNA Acc. FEB,Completed,5000,,228900,TRUE,Pay Utility,254795449800 - MARTHA WANJIRU NJUGUNA,,FEB
PA68DLDKQA,06/01/2021 20:59,06/01/2021 20:59,Pay Bill from 254729713741 - ALBANUS MUTISO Acc. jbd,Completed,15000,,223900,TRUE,Pay Utility,254729713741 - ALBANUS MUTISO,,jbd
PA68DJQWAI,06/01/2021 20:27,06/01/2021 20:27,Pay Bill from 254721315975 - JOSEPH NDEGWA Acc. HEB,Completed,16000,,208900,TRUE,Pay Utility,254721315975 - JOSEPH NDEGWA,,HEB
PA67DJ8Y03,06/01/2021 20:19,06/01/2021 20:19,Pay Bill from 254716328009 - IRENE ODHIAMBO Acc. KGG,Completed,9000,,192900,TRUE,Pay Utility,254716328009 - IRENE ODHIAMBO,,KGG
PA66DG8GX0,06/01/2021 19:32,06/01/2021 19:32,Pay Bill from 0740422187 - KEVIN MAKATO KUNGA Acc. KEG,Completed,10000,,183900,TRUE,Pay Utility,0740422187 - KEVIN MAKATO KUNGA,,KEG
PA62DE7I14,06/01/2021 19:04,06/01/2021 19:04,Pay Bill Online from 254728687482 - KELSEN MWIRIGI MUTIGA Acc. HCE,Completed,10500,,173900,TRUE,Pay Bill Online,254728687482 - KELSEN MWIRIGI MUTIGA,,HCE
PA69DDMOHP,06/01/2021 18:55,06/01/2021 18:55,Pay Bill from 254722358654 - TOM MAKORI ONGERI Acc. icc,Completed,19000,,163400,TRUE,Pay Utility,254722358654 - TOM MAKORI ONGERI,,icc
PA66DA7EPC,06/01/2021 17:58,06/01/2021 17:58,Pay Bill from 254716702294 - DANIEL MULATI Acc. KBE,Completed,400,,144400,TRUE,Pay Utility,254716702294 - DANIEL MULATI,,KBE
PA68D8HD02,06/01/2021 17:25,06/01/2021 17:25,Pay Bill from 254717726012 - WINFRED MUENI PETER Acc. IDA,Completed,16000,,144000,TRUE,Pay Utility,254717726012 - WINFRED MUENI PETER,,IDA
PA67D5BJJ5,06/01/2021 16:19,06/01/2021 16:19,Pay Bill from 254704833344 - LOISE KIMANI Acc. jfa,Completed,20000,,128000,TRUE,Pay Utility,254704833344 - LOISE KIMANI,,jfa
PA61D3TX03,06/01/2021 15:45,06/01/2021 15:45,Pay Bill from 254710110273 - AGNES NTOITI Acc. Jbb,Completed,30000,,108000,TRUE,Pay Utility,254710110273 - AGNES NTOITI,,Jbb
PA61D2IXG9,06/01/2021 15:15,06/01/2021 15:15,Pay Bill from 254710814215 - JOAN NYAMBURA KAMAU Acc. jci,Completed,20000,,78000,TRUE,Pay Utility,254710814215 - JOAN NYAMBURA KAMAU,,jci
PA64CZA0GQ,06/01/2021 13:58,06/01/2021 13:58,Pay Bill from 0758826849 -  Norah Awala Anyango Acc. JEA,Completed,20000,,58000,TRUE,Pay Utility,0758826849 -  Norah Awala Anyango,,JEA
PA64CYGQ38,06/01/2021 13:39,06/01/2021 13:39,Pay Bill from 254716045947 - LILIAN OLOO Acc. FBD,Completed,11000,,38000,TRUE,Pay Utility,254716045947 - LILIAN OLOO,,FBD
PA68CXXCZS,06/01/2021 13:26,06/01/2021 13:26,Pay Bill from 254708703539 - SUSAN NDUGIRE NDUGIRE Acc. KDA,Completed,17000,,27000,TRUE,Pay Utility,254708703539 - SUSAN NDUGIRE NDUGIRE,,KDA
PA65CSL9P5,06/01/2021 11:20,06/01/2021 11:20,Pay Bill from 254722940643 - HERBERT MAVIAH MAVIAH ISWEKA Acc. HCG,Completed,10000,,10000,TRUE,Pay Utility with OD via STK,254722940643 - HERBERT MAVIAH MAVIAH ISWEKA,,HCG
PA68CS8NT8,06/01/2021 11:12,06/01/2021 11:12,Utility Account to Organization Settlement Account,Completed,,-408200,0,TRUE,Utility Account to Organization Settlement Account,979524 - ANCIENT WELLS PROPERTY MANAGERS 2,,
PA62CRFSGO,06/01/2021 10:53,06/01/2021 10:53,Pay Bill Online from 254727648782 - EUNICE MUTIO MULE Acc. JEI,Completed,20000,,408200,TRUE,Pay Bill Online,254727648782 - EUNICE MUTIO MULE,,JEI
PA60CP6YQ2,06/01/2021 10:00,06/01/2021 10:00,Pay Bill from 254719317219 - PHILIP MBOYA Acc. jdh,Completed,16000,,388200,TRUE,Pay Utility,254719317219 - PHILIP MBOYA,,jdh
PA69CNQXMX,06/01/2021 09:24,06/01/2021 09:24,Pay Bill from 254716581384 - GREGORY KILUNGYA Acc. DAD,Completed,20000,,372200,TRUE,Pay Utility,254716581384 - GREGORY KILUNGYA,,DAD
PA66CN6CTO,06/01/2021 09:10,06/01/2021 09:10,Pay Bill from 254725771056 - CHARLES MURAGURI Acc. FCE,Completed,15000,,352200,TRUE,Pay Utility,254725771056 - CHARLES MURAGURI,,FCE
PA65CM3O1N,06/01/2021 08:41,06/01/2021 08:41,Pay Bill from 254727648419 - ABDISALAN AHMED Acc. Jbh ,Completed,17000,,337200,TRUE,Pay Utility,254727648419 - ABDISALAN AHMED,,Jbh
PA63CLH5UN,06/01/2021 08:23,06/01/2021 08:23,Pay Bill from 0700206427 - Clare Nabalisa Mukasa Acc. HFA,Completed,16000,,320200,TRUE,Pay Utility,0700206427 - Clare Nabalisa Mukasa,,HFA
PA66CJ6KE0,06/01/2021 06:56,06/01/2021 06:56,Pay Bill from 0757259130 - RASHID SUDI MCHOMBO Acc. JAF,Completed,8000,,304200,TRUE,Pay Utility,0757259130 - RASHID SUDI MCHOMBO,,JAF
PA56CGM0TW,05/01/2021 22:17,05/01/2021 22:17,Pay Bill from 254798524621 - MERCY CHESANG Acc. jcj,Completed,16000,,296200,TRUE,Pay Utility,254798524621 - MERCY CHESANG,,jcj
PA59CFWSHZ,05/01/2021 21:51,05/01/2021 21:51,Pay Bill from 254729355933 - FELISTAH NJERI WAIRIMU Acc. IDI,Completed,15000,,280200,TRUE,Pay Utility,254729355933 - FELISTAH NJERI WAIRIMU,,IDI
PA56CFBL7K,05/01/2021 21:33,05/01/2021 21:33,Pay Bill from 254708328466 - VENESSA NYARERU Acc. KCD,Completed,12000,,265200,TRUE,Pay Utility with OD via STK,254708328466 - VENESSA NYARERU,,KCD
PA53CF77P7,05/01/2021 21:30,05/01/2021 21:30,Pay Bill from 254720361605 - DAUD AMBER Acc. IGH,Completed,1000,,253200,TRUE,Pay Utility,254720361605 - DAUD AMBER,,IGH
PA50CF587I,05/01/2021 21:28,05/01/2021 21:28,Pay Bill from 254727460527 - KENNETH GACHUHI Acc. HAB,Completed,16000,,252200,TRUE,Pay Utility,254727460527 - KENNETH GACHUHI,,HAB
PA56CE9HGS,05/01/2021 21:06,05/01/2021 21:06,Pay Bill from 0792933158 - mary wamaitha maina Acc. kdh,Completed,10000,,236200,TRUE,Pay Utility,0792933158 - mary wamaitha maina,,kdh
PA54CDT000,05/01/2021 20:56,05/01/2021 20:56,Pay Bill from 254721465713 - RHODA WAMBUI MWANGI Acc. jfh,Completed,17000,,226200,TRUE,Pay Utility,254721465713 - RHODA WAMBUI MWANGI,,jfh
PA56CDCRDY,05/01/2021 20:47,05/01/2021 20:47,Pay Bill from 254724655033 - SUSAN CHIMOTO Acc. KGH,Completed,9500,,209200,TRUE,Pay Utility,254724655033 - SUSAN CHIMOTO,,KGH
PA58CCLN4Q,05/01/2021 20:33,05/01/2021 20:33,Pay Bill from 254716702294 - DANIEL MULATI Acc. KBE,Completed,200,,199700,TRUE,Pay Utility,254716702294 - DANIEL MULATI,,KBE
PA52CCH984,05/01/2021 20:31,05/01/2021 20:31,Pay Bill from 254792224857 - FRANKLIN MIWO OGUNDA ODHIAMBO Acc. IAG,Completed,9500,,199500,TRUE,Pay Utility,254792224857 - FRANKLIN MIWO OGUNDA ODHIAMBO,,IAG
PA52CBXS3U,05/01/2021 20:21,05/01/2021 20:21,Pay Bill Online from 254715892656 - DENNIS MUSYOKA MUOKI Acc. KFA,Completed,16000,,190000,TRUE,Pay Bill Online,254715892656 - DENNIS MUSYOKA MUOKI,,KFA
PA57CAH6D9,05/01/2021 19:57,05/01/2021 19:57,Pay Bill Online from 0757699775 - BENARD MUIA MUTUA Acc. HCB,Completed,16000,,174000,TRUE,Pay Bill Online,0757699775 - BENARD MUIA MUTUA,,HCB
PA50C9D08I,05/01/2021 19:40,05/01/2021 19:40,Pay Bill from 254715259756 - SYNTHIA OTIENO Acc. FBC,Completed,9500,,158000,TRUE,Pay Utility,254715259756 - SYNTHIA OTIENO,,FBC
PA51C6A4XL,05/01/2021 18:55,05/01/2021 18:55,Pay Bill from 254715728688 - NAOMI HAGERERA JACOB Acc. DGC,Completed,20000,,148500,TRUE,Pay Utility,254715728688 - NAOMI HAGERERA JACOB,,DGC
PA55C3SOB7,05/01/2021 18:15,05/01/2021 18:15,Pay Bill from 254728897908 - Teddy Allan Onyango Acc. KCF,Completed,10000,,128500,TRUE,Pay Utility,254728897908 - Teddy Allan Onyango,,KCF
PA57C20QBB,05/01/2021 17:43,05/01/2021 17:43,Pay Bill Online from 254716499837 - ASHA MUSA Acc. JFD,Completed,15000,,118500,TRUE,Pay Bill Online,254716499837 - ASHA MUSA,,JFD
PA54C1IB0W,05/01/2021 17:34,05/01/2021 17:34,Pay Bill from 254721302658 - JACOB BIRUNDU Acc. DDB,Completed,16000,,103500,TRUE,Pay Utility,254721302658 - JACOB BIRUNDU,,DDB
PA53BZDQYT,05/01/2021 16:52,05/01/2021 16:52,Pay Bill from 254714814264 - PATRICIA NZOMO Acc. Hcc,Completed,10000,,87500,TRUE,Pay Utility,254714814264 - PATRICIA NZOMO,,Hcc
PA51BY6KYV,05/01/2021 16:26,05/01/2021 16:26,Pay Bill from 254707328084 - IRENE ODOKE Acc. IGE,Completed,9000,,77500,TRUE,Pay Utility,254707328084 - IRENE ODOKE,,IGE
PA51BXN77Z,05/01/2021 16:15,05/01/2021 16:15,Pay Bill from 254722521028 - CHARLES MONYONCHO Acc. ICB,Completed,17000,,68500,TRUE,Pay Utility,254722521028 - CHARLES MONYONCHO,,ICB
PA52BX11JC,05/01/2021 16:01,05/01/2021 16:01,Pay Bill from 254729590734 - PATRICK NDUNGA Acc. IDD,Completed,10000,,51500,TRUE,Pay Utility,254729590734 - PATRICK NDUNGA,,IDD
PA54BU7EKM,05/01/2021 14:57,05/01/2021 14:57,Pay Bill from 0722279788 - HARRISON WACIRA MAINA Acc. HAH,Completed,16000,,41500,TRUE,Pay Utility,0722279788 - HARRISON WACIRA MAINA,,HAH
PA51BU2MOH,05/01/2021 14:54,05/01/2021 14:54,Pay Bill from 0114052034 - EVANS TIOKO NANGIRO Acc. FBE,Completed,16000,,25500,TRUE,Pay Utility,0114052034 - EVANS TIOKO NANGIRO,,FBE
PA59BSI2OL,05/01/2021 14:17,05/01/2021 14:17,Pay Bill Online from 254717809935 - LYDIAH WERU Acc. IDC,Completed,9500,,9500,TRUE,Pay Bill Online,254717809935 - LYDIAH WERU,,IDC
PA53BQMNH9,05/01/2021 13:35,05/01/2021 13:35,Utility Account to Organization Settlement Account,Completed,,-235500,0,TRUE,Utility Account to Organization Settlement Account,979524 - ANCIENT WELLS PROPERTY MANAGERS 2,,
PA54BPH24K,05/01/2021 13:09,05/01/2021 13:09,Pay Bill from 254727300915 - EUNICE NJERI Acc. KFF,Completed,9500,,235500,TRUE,Pay Utility,254727300915 - EUNICE NJERI,,KFF
PA57BOJAYJ,05/01/2021 12:47,05/01/2021 12:47,Pay Bill Online from 254720044312 - ELIUD KIPKURUI Acc. FCF,Completed,17000,,226000,TRUE,Pay Bill Online,254720044312 - ELIUD KIPKURUI,,FCF
PA53BJKCCT,05/01/2021 10:54,05/01/2021 10:54,Pay Bill from 254712092843 - ISABEL KIGWE Acc. JAH,Completed,16000,,209000,TRUE,Pay Utility,254712092843 - ISABEL KIGWE,,JAH
PA57BHL7PB,05/01/2021 10:09,05/01/2021 10:09,Pay Bill from 254708225541 - JUDITH NKATHA SIMBA Acc. ICF,Completed,12000,,193000,TRUE,Pay Utility,254708225541 - JUDITH NKATHA SIMBA,,ICF
PA57BGYFER,05/01/2021 09:54,05/01/2021 09:54,Pay Bill from 254703528196 - ERIC GITONGA MUGO Acc. KGJ,Completed,7500,,181000,TRUE,Pay Utility,254703528196 - ERIC GITONGA MUGO,,KGJ
PA56BGQL02,05/01/2021 09:49,05/01/2021 09:49,Pay Bill from 254715742045 - FRIDAH KIEMA Acc. HGC,Completed,9500,,173500,TRUE,Pay Utility with OD via STK,254715742045 - FRIDAH KIEMA,,HGC
PA56BFURVM,05/01/2021 09:28,05/01/2021 09:28,Pay Bill from 254718009051 - STEPHEN OMOLLO Acc. JDF,Completed,8000,,164000,TRUE,Pay Utility with OD via STK,254718009051 - STEPHEN OMOLLO,,JDF
PA57BEKDFJ,05/01/2021 08:56,05/01/2021 08:56,Pay Bill Online from 254792187144 - HASSAN AHMED HASSAN Acc. KGI,Completed,10000,,156000,TRUE,Pay Bill Online,254792187144 - HASSAN AHMED HASSAN,,KGI
PA56BB158K,05/01/2021 06:59,05/01/2021 06:59,Pay Bill Online from 254720381965 - JAMES NGUGI MWANIKI Acc. JBI,Completed,20000,,146000,TRUE,Pay Bill Online,254720381965 - JAMES NGUGI MWANIKI,,JBI
PA42B7ND62,04/01/2021 21:52,04/01/2021 21:52,Pay Bill from 254720361605 - DAUD AMBER Acc. IGH,Completed,1000,,126000,TRUE,Pay Utility,254720361605 - DAUD AMBER,,IGH
PA49B5IJTR,04/01/2021 20:57,04/01/2021 20:57,Pay Bill from 254722569870 - LUKA KEITANY Acc. jfj,Completed,15000,,125000,TRUE,Pay Utility with OD via STK,254722569870 - LUKA KEITANY,,jfj
PA49B35E4H,04/01/2021 20:13,04/01/2021 20:13,Pay Bill from 254722874715 - PATRCIAH mbesa KIOKO Acc. KBB,Completed,16000,,110000,TRUE,Pay Utility,254722874715 - PATRCIAH mbesa KIOKO,,KBB
PA44B004JA,04/01/2021 19:24,04/01/2021 19:24,Pay Bill from 254720278119 - LINDAH OGAWO Acc. KFE,Completed,9500,,94000,TRUE,Pay Utility,254720278119 - LINDAH OGAWO,,KFE
PA42AWDFO8,04/01/2021 18:29,04/01/2021 18:29,Pay Bill from 254726254729 - SAMUEL KINYUA Acc. KFG,Completed,16000,,84500,TRUE,Pay Utility,254726254729 - SAMUEL KINYUA,,KFG
PA43AU3HT9,04/01/2021 17:50,04/01/2021 17:50,Pay Bill from 254720868281 - KENNEDY MWELU Acc. KBI,Completed,12500,,68500,TRUE,Pay Utility with OD via STK,254720868281 - KENNEDY MWELU,,KBI
PA41ASG3HH,04/01/2021 17:19,04/01/2021 17:19,Pay Bill from 254748895202 - MAYOL MACH MADING AWAR Acc. KfB,Completed,33000,,56000,TRUE,Pay Utility,254748895202 - MAYOL MACH MADING AWAR,,KfB
PA41AM4R9T,04/01/2021 15:07,04/01/2021 15:07,Pay Bill from 254726039536 - MERCY MESHACK Acc. JBC,Completed,23000,,23000,TRUE,Pay Utility,254726039536 - MERCY MESHACK,,JBC
PA40ALL558,04/01/2021 14:55,04/01/2021 14:55,Utility Account to Organization Settlement Account,Completed,,-167500,0,TRUE,Utility Account to Organization Settlement Account,979524 - ANCIENT WELLS PROPERTY MANAGERS 2,,
PA47AJR6F5,04/01/2021 14:15,04/01/2021 14:15,Pay Bill from 254708619274 - BONIFACE MUTUA Acc. JFB,Completed,14000,,167500,TRUE,Pay Utility,254708619274 - BONIFACE MUTUA,,JFB
PA43AJN69L,04/01/2021 14:12,04/01/2021 14:12,Pay Bill from 254707551286 - BENSON NJUGUNA WANGARI Acc. kfi,Completed,12000,,153500,TRUE,Pay Utility,254707551286 - BENSON NJUGUNA WANGARI,,kfi
PA43AI24KT,04/01/2021 13:37,04/01/2021 13:37,Pay Bill Online from 254722743980 - BENSON MEMUSI MEMUSI KOIKAI Acc. IBD ,Completed,11000,,141500,TRUE,Pay Bill Online,254722743980 - BENSON MEMUSI MEMUSI KOIKAI,,IBD
PA47AFP2AZ,04/01/2021 12:45,04/01/2021 12:45,Pay Bill from 254712461449 - CAROLINE MUTHONI GICHOHI Acc. fca,Completed,16000,,130500,TRUE,Pay Utility,254712461449 - CAROLINE MUTHONI GICHOHI,,fca
PA47ABZSTJ,04/01/2021 11:23,04/01/2021 11:23,FSI to Pay Bill by 714888 - B2C LOOP VIA NCBA Acc. FAD via WEB by B2C LOOP VIA NCBA\Cbainitiator,Completed,11000,,114500,TRUE,FSI to Pay Bill via API,714888 - B2C LOOP VIA NCBA,,FAD
PA44A6XTW4,04/01/2021 09:28,04/01/2021 09:28,Pay Bill Online from 254726313835 - SYLVIA JUMA Acc. HDF,Completed,9500,,103500,TRUE,Pay Bill Online,254726313835 - SYLVIA JUMA,,HDF
PA43A6M7NZ,04/01/2021 09:20,04/01/2021 09:20,Pay Bill from 254703935626 - DAVID NGARI ITA Acc. FCD,Completed,1000,,94000,TRUE,Pay Utility with OD via STK,254703935626 - DAVID NGARI ITA,,FCD
PA49A3ZO89,04/01/2021 08:09,04/01/2021 08:09,Pay Bill from 254714060203 - PATRICK MWANGOMBE MSAWUCHI Acc. KEI,Completed,12000,,93000,TRUE,Pay Utility,254714060203 - PATRICK MWANGOMBE MSAWUCHI,,KEI
PA49A39CQT,04/01/2021 07:44,04/01/2021 07:44,Pay Bill from 254729160700 - MICAH NDUNGI Acc. HFE,Completed,10500,,81000,TRUE,Pay Utility,254729160700 - MICAH NDUNGI,,HFE
PA43A2QTAL,04/01/2021 07:24,04/01/2021 07:24,Pay Bill from 254716702294 - DANIEL MULATI Acc. KBE,Completed,3000,,70500,TRUE,Pay Utility,254716702294 - DANIEL MULATI,,KBE
PA47A214I7,04/01/2021 06:46,04/01/2021 06:46,Pay Bill from 254795449800 - MARTHA WANJIRU NJUGUNA Acc. FEB,Completed,25000,,67500,TRUE,Pay Utility,254795449800 - MARTHA WANJIRU NJUGUNA,,FEB
PA319Q5KAV,03/01/2021 18:52,03/01/2021 18:52,Pay Bill from 254114321800 - KAWA KOUL TONG NGOR Acc. DP7,Completed,5000,,42500,TRUE,Pay Utility,254114321800 - KAWA KOUL TONG NGOR,,DP7
PA329PRFU6,03/01/2021 18:45,03/01/2021 18:45,Pay Bill from 254701112397 - ELEMA GODANA DIBA Acc. IAD,Completed,10000,,37500,TRUE,Pay Utility,254701112397 - ELEMA GODANA DIBA,,IAD
PA399P65CR,03/01/2021 18:35,03/01/2021 18:35,Pay Bill from 254718233980 - KAREN ASWANI Acc. HEC,Completed,10500,,27500,TRUE,Pay Utility,254718233980 - KAREN ASWANI,,HEC
PA329P51W0,03/01/2021 18:34,03/01/2021 18:34,Pay Bill from 254722136450 - MARY EVERLYN Acc. FAF,Completed,17000,,17000,TRUE,Pay Utility,254722136450 - MARY EVERLYN,,FAF
PA339OU1NL,03/01/2021 18:28,03/01/2021 18:28,Utility Account to Organization Settlement Account,Completed,,-84000,0,TRUE,Utility Account to Organization Settlement Account,979524 - ANCIENT WELLS PROPERTY MANAGERS 2,,
PA339L9HOD,03/01/2021 17:17,03/01/2021 17:17,Pay Bill from 254702346515 - ELIZABETH ACHIENG NGOME Acc. KDE,Completed,11000,,84000,TRUE,Pay Utility,254702346515 - ELIZABETH ACHIENG NGOME,,KDE
PA379K8UBJ,03/01/2021 16:56,03/01/2021 16:56,Pay Bill from 254701683737 - MICHAEL NGUGI Acc. HDB,Completed,16000,,73000,TRUE,Pay Utility,254701683737 - MICHAEL NGUGI,,HDB
PA379JE10T,03/01/2021 16:38,03/01/2021 16:38,Pay Bill from 254726254729 - SAMUEL KINYUA Acc. KDE,Completed,5000,,57000,TRUE,Pay Utility,254726254729 - SAMUEL KINYUA,,KDE
PA379I9D53,03/01/2021 16:14,03/01/2021 16:14,Pay Bill Online from 254722705077 - ROSALID WAMBUI NJOROGE Acc. FDD,Completed,12000,,52000,TRUE,Pay Bill Online,254722705077 - ROSALID WAMBUI NJOROGE,,FDD
PA389HJ9KY,03/01/2021 15:58,03/01/2021 15:58,Pay Bill from 254728103722 - YASSIR MWINYI ABDULRAZAQ Acc. ICE,Completed,5000,,40000,TRUE,Pay Utility,254728103722 - YASSIR MWINYI ABDULRAZAQ,,ICE
PA309E48FK,03/01/2021 14:42,03/01/2021 14:42,Pay Bill from 254714855708 - KIPLANGAT SITIENEI Acc. FAE,Completed,16000,,35000,TRUE,Pay Utility,254714855708 - KIPLANGAT SITIENEI,,FAE
PA33997NHN,03/01/2021 12:42,03/01/2021 12:42,Pay Bill from 254702355678 - JOHN NJOROGE GICHERU Acc. ITE,Completed,10000,,19000,TRUE,Pay Utility,254702355678 - JOHN NJOROGE GICHERU,,ITE
PA3997AOTP,03/01/2021 11:50,03/01/2021 11:50,Pay Bill from 254716784364 - Wendy Kemunto Nyandiko Acc. FFC,Completed,9000,,9000,TRUE,Pay Utility,254716784364 - Wendy Kemunto Nyandiko,,FFC
PA3093ZJSG,03/01/2021 10:17,03/01/2021 10:17,Utility Account to Organization Settlement Account,Completed,,-171000,0,TRUE,Utility Account to Organization Settlement Account,979524 - ANCIENT WELLS PROPERTY MANAGERS 2,,
PA3892JXP0,03/01/2021 09:37,03/01/2021 09:37,Pay Bill from 254727575146 - SUSAN NJERI KIBE Acc. KEC,Completed,10000,,171000,TRUE,Pay Utility,254727575146 - SUSAN NJERI KIBE,,KEC
PA278VRIVR,02/01/2021 22:16,02/01/2021 22:16,Pay Bill from 254703935626 - DAVID NGARI ITA Acc. FCD,Completed,1000,,161000,TRUE,Pay Utility,254703935626 - DAVID NGARI ITA,,FCD
PA278SSYKJ,02/01/2021 20:49,02/01/2021 20:49,Pay Bill from 254702136218 - ONYINKWA BENARD Acc. FFA,Completed,15000,,160000,TRUE,Pay Utility,254702136218 - ONYINKWA BENARD,,FFA
PA258L1LDL,02/01/2021 18:37,02/01/2021 18:37,Pay Bill from 254720511734 - ENOCK KIBET Acc. FDC,Completed,9000,,145000,TRUE,Pay Utility,254720511734 - ENOCK KIBET,,FDC
PA248DZYZE,02/01/2021 16:18,02/01/2021 16:18,Pay Bill from 0713842344 - Joseph Musyoki Kyalo Acc. DAA,Completed,33000,,136000,TRUE,Pay Utility,0713842344 - Joseph Musyoki Kyalo,,DAA
PA288BUWMU,02/01/2021 15:30,02/01/2021 15:30,Pay Bill from 254798022849 - MARTIN BUNDI RUGENDO Acc. kfh,Completed,10000,,103000,TRUE,Pay Utility,254798022849 - MARTIN BUNDI RUGENDO,,kfh
PA218AGXNV,02/01/2021 15:00,02/01/2021 15:00,Pay Bill from 254702346515 - ELIZABETH ACHIENG NGOME Acc. KDE,Completed,10000,,93000,TRUE,Pay Utility,254702346515 - ELIZABETH ACHIENG NGOME,,KDE
PA228A9QOA,02/01/2021 14:56,02/01/2021 14:56,Pay Bill from 254798643998 - Judith Mwaniki Acc. KCE,Completed,10000,,83000,TRUE,Pay Utility,254798643998 - Judith Mwaniki,,KCE
PA2786HX67,02/01/2021 13:30,02/01/2021 13:30,Pay Bill from 0794460702 - ISSA ISACK GOLLO Acc. DCC For January 2021,Completed,20000,,73000,TRUE,Pay Utility,0794460702 - ISSA ISACK GOLLO,,DCC
PA2686CG90,02/01/2021 13:27,02/01/2021 13:27,Pay Bill from 254757840728 - SETH OMONDI ODONDI Acc. DFD ,Completed,20000,,53000,TRUE,Pay Utility,254757840728 - SETH OMONDI ODONDI,,DFD
PA2784IEZN,02/01/2021 12:44,02/01/2021 12:44,Pay Bill from 254719398942 - NORAH WAYUA MUNYAO Acc. KDC,Completed,10000,,33000,TRUE,Pay Utility,254719398942 - NORAH WAYUA MUNYAO,,KDC
PA2683BYXW,02/01/2021 12:16,02/01/2021 12:16,Pay Bill from 254728364280 - EMMANUEL THUMA OYIER Acc. IDF,Completed,11000,,23000,TRUE,Pay Utility,254728364280 - EMMANUEL THUMA OYIER,,IDF
PA2180KEDL,02/01/2021 11:11,02/01/2021 11:11,Pay Bill from 254722564580 - GLENN KISIANG'ANI Acc. DBB,Completed,12000,,12000,TRUE,Pay Utility,254722564580 - GLENN KISIANG'ANI,,DBB
PA288026B6,02/01/2021 10:59,02/01/2021 10:59,Utility Account to Organization Settlement Account,Completed,,-121000,0,TRUE,Utility Account to Organization Settlement Account,979524 - ANCIENT WELLS PROPERTY MANAGERS 2,,
PA227VHICM,02/01/2021 09:03,02/01/2021 09:03,Pay Bill from 254720249209 - WILFRED NJUGUNA WANJIRA Acc. DDD,Completed,20000,,121000,TRUE,Pay Utility,254720249209 - WILFRED NJUGUNA WANJIRA,,DDD
PA217TKNY3,02/01/2021 08:06,02/01/2021 08:06,Pay Bill from 254712954563 - JOSEPH MUTISO KILONZO Acc. dac,Completed,20000,,101000,TRUE,Pay Utility,254712954563 - JOSEPH MUTISO KILONZO,,dac
PA107OYGQI,01/01/2021 21:40,01/01/2021 21:40,Pay Bill Online from 254705846408 - JAMES OUMA Acc. HBG,Completed,16000,,81000,TRUE,Pay Bill Online,254705846408 - JAMES OUMA,,HBG
PA157OQEX1,01/01/2021 21:32,01/01/2021 21:32,Pay Bill from 254722444622 - CHARITY KAGWAINI Acc. FFD,Completed,6000,,65000,TRUE,Pay Utility,254722444622 - CHARITY KAGWAINI,,FFD
PA177EWOM3,01/01/2021 18:00,01/01/2021 18:00,Pay Bill from 254701112397 - ELEMA GODANA DIBA Acc. IAD,Completed,11000,,59000,TRUE,Pay Utility,254701112397 - ELEMA GODANA DIBA,,IAD
PA107BJYEA,01/01/2021 16:46,01/01/2021 16:46,Pay Bill from 254725381062 - VICTOR MAITHYA Acc. HEG,Completed,31000,,48000,TRUE,Pay Utility,254725381062 - VICTOR MAITHYA,,HEG
PA1676R538,01/01/2021 14:53,01/01/2021 14:53,Pay Bill from 254720361605 - DAUD AMBER Acc. IGH,Completed,2000,,17000,TRUE,Pay Utility,254720361605 - DAUD AMBER,,IGH
PA14723HS2,01/01/2021 13:01,01/01/2021 13:01,Pay Bill from 254704140048 - MAUREEN GACHERI KINYUA Acc. JDD,Completed,15000,,15000,TRUE,Pay Utility,254704140048 - MAUREEN GACHERI KINYUA,,JDD
PA116RMYGB,01/01/2021 08:46,01/01/2021 08:46,Utility Account to Organization Settlement Account,Completed,,-88500,0,TRUE,Utility Account to Organization Settlement Account,979524 - ANCIENT WELLS PROPERTY MANAGERS 2,,
PA166QZQN0,01/01/2021 08:27,01/01/2021 08:27,Pay Bill Online from 254726082666 - DRUSSILA MUTHEU MUTUNGA Acc. KAH,Completed,10000,,88500,TRUE,Pay Bill Online,254726082666 - DRUSSILA MUTHEU MUTUNGA,,KAH
PA116Q9JTH,01/01/2021 08:04,01/01/2021 08:04,Pay Bill Online from 254795510441 - LEWIS MUEMA Acc. KEB,Completed,16000,,78500,TRUE,Pay Bill Online,254795510441 - LEWIS MUEMA,,KEB
