Account Holder:,ANCIENT WELLS LTD 2
Short Code:,887264
Account:,Utility Account
Time Period:,From,04-02-2020 00:00:00,To,11-02-2020 23:59:59
Operator:,ROBERT,Organization:,ANCIENT WELLS LTD 2,Date of Report:,11-02-2020 11:23:03
Receipt No.,Completion Time,Initiation Time,Details,Transaction Status,Paid In,Withdrawn,Balance,Balance Confirmed,Reason Type,Other Party Info,Linked Transaction ID,A/C No.
OBA9YTVB5J,10-02-2020 16:44:42,10-02-2020 16:44:42,Utility Account to Organization Settlement Account,Completed,,-48700.00,0.00,true,Utility Account to Organization Settlement Account,887264 - ANCIENT WELLS LTD 2,,
OB85XE9GH1,08-02-2020 19:10:29,08-02-2020 19:10:29,Pay Bill from 254724643594 - BATHISEBA NYABWARI KEMUNTO Acc. u6,Completed,12500.00,,48700.00,true,Pay Utility,254724643594 - BATHISEBA NYABWARI KEMUNTO,,u6
OB62VUD0DA,06-02-2020 21:26:55,06-02-2020 21:26:54,Pay Bill from 0743263203 - Patrick theuri wachira Acc. U1,Completed,5000.00,,36200.00,true,Pay Utility,0743263203 - Patrick theuri wachira,,U1
OB43TRNZ31,04-02-2020 14:45:50,04-02-2020 14:45:49,Pay Bill from 254703573478 - ANTONY MAINA Acc. Gichina,Completed,14000.00,,31200.00,true,Pay Utility,254703573478 - ANTONY MAINA,,Gichina