Receipt No.,Completion Time,Initiation Time,Details,Transaction Status,Paid In,Withdrawn,Balance,Balance Confirmed,Reason Type,Other Party Info,Linked Transaction ID,A/C No.
OB59UG4WTN,05/02/2020 11:36,05/02/2020 11:36,Pay Bill from 254724882554 - ALPHONCE WAMBUA NGELI Acc. JDA,Completed,1600,,75350,TRUE,Pay Utility,254724882554 - ALPHONCE WAMBUA NGELI,,JDA
OB55UD7ATV,05/02/2020 09:51,05/02/2020 09:51,Pay Bill from 254726465584 - JULIANA MUKELI MUTUNGA Acc. v4,Completed,400,,73750,TRUE,Pay Utility,254726465584 - JULIANA MUKELI MUTUNGA,,v4
OB57UAQRHH,05/02/2020 08:09,05/02/2020 08:09,Pay Bill from 254721392650 - JUSTUS OUKO Acc. FCA,Completed,200,,73350,TRUE,Pay Utility,254721392650 - JUSTUS OUKO,,FCA
OB51U9WR2B,05/02/2020 07:19,05/02/2020 07:19,Pay Bill from 254728687482 - KELSEN MWIRIGI MUTIGA Acc. HCE,Completed,600,,73150,TRUE,Pay Utility,254728687482 - KELSEN MWIRIGI MUTIGA,,HCE
OB58U9PT7I,05/02/2020 07:03,05/02/2020 07:03,Pay Bill from 254717809935 - LYDIAH WERU Acc. IDC,Completed,200,,72550,TRUE,Pay Utility with OD via STK,254717809935 - LYDIAH WERU,,IDC
OB41U8MYEX,04/02/2020 23:58,04/02/2020 23:58,Pay Bill from 0742080310 - Hellen Mumbi Mugo Acc. KAJ,Completed,600,,72350,TRUE,Pay Utility,0742080310 - Hellen Mumbi Mugo,,KAJ
OB41U7TMK3,04/02/2020 22:26,04/02/2020 22:26,Pay Bill from 0748355912 - tobias    katana Acc. IED,Completed,400,,71750,TRUE,Pay Utility,0748355912 - tobias    katana,,IED
OB48U631PI,04/02/2020 21:13,04/02/2020 21:13,Pay Bill from 254728610675 - RUTH KISABULI Acc. KGC,Completed,400,,71350,TRUE,Pay Utility,254728610675 - RUTH KISABULI,,KGC
OB49U34MLJ,04/02/2020 19:57,04/02/2020 19:57,Pay Bill from 254721320216 - PAULINE WANJA NJUNGUNA Acc. HDC,Completed,200,,70950,TRUE,Pay Utility,254721320216 - PAULINE WANJA NJUNGUNA,,HDC
OB46U2Z7NE,04/02/2020 19:54,04/02/2020 19:54,Pay Bill from 0769001671 - Wilson Mutangili Wambua Acc. haf,Completed,800,,70750,TRUE,Pay Utility,0769001671 - Wilson Mutangili Wambua,,haf
OB45U2IS75,04/02/2020 19:45,04/02/2020 19:45,Pay Bill from 254726059964 - MOHAMED MAALIM Acc. IDD,Completed,600,,69950,TRUE,Pay Utility,254726059964 - MOHAMED MAALIM,,IDD
OB43U0NJY7,04/02/2020 19:06,04/02/2020 19:06,Pay Bill from 254720927770 - CHRISTOPHER MWANGE Acc. HFC,Completed,800,,69350,TRUE,Pay Utility,254720927770 - CHRISTOPHER MWANGE,,HFC
OB44U0LI46,04/02/2020 19:05,04/02/2020 19:05,Pay Bill from 254700347490 - PERIS NYAGUTHII MAINA Acc. KDG,Completed,400,,68550,TRUE,Pay Utility,254700347490 - PERIS NYAGUTHII MAINA,,KDG
OB41U0IT3V,04/02/2020 19:03,04/02/2020 19:03,Pay Bill from 254716784364 - Wendy Kemunto Nyandiko Acc. FFC,Completed,400,,68150,TRUE,Pay Utility,254716784364 - Wendy Kemunto Nyandiko,,FFC
OB42U08662,04/02/2020 18:57,04/02/2020 18:57,Pay Bill from 254708703539 - SUSAN NDUGIRE NDUGIRE Acc. KDA,Completed,200,,67750,TRUE,Pay Utility,254708703539 - SUSAN NDUGIRE NDUGIRE,,KDA
OB47TZJ4AZ,04/02/2020 18:41,04/02/2020 18:41,Pay Bill from 254714209770 - PURITY KYALO Acc. JEB,Completed,800,,67550,TRUE,Pay Utility,254714209770 - PURITY KYALO,,JEB
OB47TYBH7T,04/02/2020 18:12,04/02/2020 18:12,Pay Bill from 0717216114 - Felix Njeru Mugambi Acc. kdf,Completed,600,,66750,TRUE,Pay Utility,0717216114 - Felix Njeru Mugambi,,kdf
OB44TV51EO,04/02/2020 16:42,04/02/2020 16:42,Pay Bill from 254711159483 - EDWARD PAUL Acc. FCE ,Completed,1600,,66150,TRUE,Pay Utility,254711159483 - EDWARD PAUL,,FCE
OB43TQZZKN,04/02/2020 14:22,04/02/2020 14:22,Pay Bill from 254706234646 - OCHIENG WINNE Acc. JDC,Completed,600,,64550,TRUE,Pay Utility,254706234646 - OCHIENG WINNE,,JDC
OB43TNODEF,04/02/2020 12:26,04/02/2020 12:26,Pay Bill from 254722307003 - NIGEL BOMETT Acc. V01,Completed,200,,63950,TRUE,Pay Utility,254722307003 - NIGEL BOMETT,,V01
OB42TMJMGO,04/02/2020 11:46,04/02/2020 11:46,Pay Bill from 254722986239 - CLAIRE IRENE WANGARI NJERI Acc. FDD,Completed,600,,63750,TRUE,Pay Utility,254722986239 - CLAIRE IRENE WANGARI NJERI,,FDD
OB46TK3QJO,04/02/2020 10:18,04/02/2020 10:18,Pay Bill from 254748104979 - JAMES GITHOGORI NGARI Acc. kfb,Completed,200,,63150,TRUE,Pay Utility,254748104979 - JAMES GITHOGORI NGARI,,kfb
OB45THAT91,04/02/2020 08:26,04/02/2020 08:26,Pay Bill from 254708915764 - GEORGE WAHOME Acc. v18,Completed,200,,62950,TRUE,Pay Utility,254708915764 - GEORGE WAHOME,,v18
OB45TH5YNR,04/02/2020 08:19,04/02/2020 08:19,Pay Bill from 254702921564 - DENNIS MAHERO SHIUNDU Acc. Dennis v21,Completed,800,,62750,TRUE,Pay Utility,254702921564 - DENNIS MAHERO SHIUNDU,,Dennis
OB48TH3MAM,04/02/2020 08:16,04/02/2020 08:16,Pay Bill from 254703375006 - KEN RODGERS Acc. DBA,Completed,800,,61950,TRUE,Pay Utility,254703375006 - KEN RODGERS,,DBA
OB48TGL8JU,04/02/2020 07:50,04/02/2020 07:50,Pay Bill from 254704995854 - james karanja wairimu Acc. V54,Completed,200,,61150,TRUE,Pay Utility,254704995854 - james karanja wairimu,,V54
OB36TDD4P2,03/02/2020 21:46,03/02/2020 21:46,Pay Bill from 254722625640 - ROBERT BETT Acc. ICH,Completed,1200,,60950,TRUE,Pay Utility,254722625640 - ROBERT BETT,,ICH
OB37TCUAPB,03/02/2020 21:25,03/02/2020 21:25,Pay Bill from 254716328009 - IRENE ODHIAMBO Acc. KGG,Completed,400,,59750,TRUE,Pay Utility,254716328009 - IRENE ODHIAMBO,,KGG
OB32TCSDK0,03/02/2020 21:23,03/02/2020 21:23,Pay Bill from 254716792941 - MICAL IMBUKWA Acc. MicalV13,Completed,200,,59350,TRUE,Pay Utility,254716792941 - MICAL IMBUKWA,,MicalV13
OB39TC08MN,03/02/2020 20:57,03/02/2020 20:57,Pay Bill from 0722389924 - ISSA ISACK GOLLO Acc. DCC,Completed,2200,,59150,TRUE,Pay Utility,0722389924 - ISSA ISACK GOLLO,,DCC
OB35TBD8T5,03/02/2020 20:39,03/02/2020 20:39,Pay Bill from 254726482945 - FLORENCE MWENDWA Acc. Hgc,Completed,400,,56950,TRUE,Pay Utility,254726482945 - FLORENCE MWENDWA,,Hgc
OB32TAAODG,03/02/2020 20:11,03/02/2020 20:11,Pay Bill from 254790280339 - BANTURA GIBSON Acc. IBA,Completed,600,,56550,TRUE,Pay Utility,254790280339 - BANTURA GIBSON,,IBA
OB35T9Z7F5,03/02/2020 20:04,03/02/2020 20:04,Pay Bill from 254723071630 - KENNEDY KARANJA NJOROGE Acc. JBI,Completed,2400,,55950,TRUE,Pay Utility,254723071630 - KENNEDY KARANJA NJOROGE,,JBI
OB33T94NVH,03/02/2020 19:45,03/02/2020 19:45,Pay Bill from 254728364280 - EMMANUEL OYIER Acc. IDF,Completed,1000,,53550,TRUE,Pay Utility,254728364280 - EMMANUEL OYIER,,IDF
OB36T5DZUE,03/02/2020 18:24,03/02/2020 18:24,Pay Bill from 254722815333 - JULIUS KEMBOI Acc. JGJ,Completed,200,,52550,TRUE,Pay Utility,254722815333 - JULIUS KEMBOI,,JGJ
OB38T4ZC2Q,03/02/2020 18:14,03/02/2020 18:14,Pay Bill from 254700374335 - HYLINE ONDARI Acc. KTE,Completed,650,,52350,TRUE,Pay Utility,254700374335 - HYLINE ONDARI,,KTE
OB31T3BE13,03/02/2020 17:30,03/02/2020 17:30,Pay Bill from 254721302658 - JACOB BIRUNDU Acc. DDB,Completed,400,,51700,TRUE,Pay Utility,254721302658 - JACOB BIRUNDU,,DDB
OB34T2CZ24,03/02/2020 17:03,03/02/2020 17:03,Pay Bill from 254719398942 - NORAH WAYUA MUNYAO Acc. KDC,Completed,600,,51300,TRUE,Pay Utility,254719398942 - NORAH WAYUA MUNYAO,,KDC
OB36T22UBM,03/02/2020 16:55,03/02/2020 16:55,Pay Bill from 254729279767 - ZAKAYO NGENO Acc. DFA,Completed,200,,50700,TRUE,Pay Utility,254729279767 - ZAKAYO NGENO,,DFA
OB34T15BVM,03/02/2020 16:26,03/02/2020 16:26,Pay Bill from 254720973929 - JOSEPH ONDIEK Acc. JEA,Completed,2400,,50500,TRUE,Pay Utility,254720973929 - JOSEPH ONDIEK,,JEA
OB31SYTT29,03/02/2020 15:08,03/02/2020 15:08,Pay Bill from 254729371750 - DERRICK OTANGA Acc. FEF,Completed,800,,48100,TRUE,Pay Utility,254729371750 - DERRICK OTANGA,,FEF
OB32SY2562,03/02/2020 14:41,03/02/2020 14:41,Pay Bill from 254724796593 - MESHACK RAO Acc. IAB,Completed,1600,,47300,TRUE,Pay Utility with OD via STK,254724796593 - MESHACK RAO,,IAB
OB31SVE2ER,03/02/2020 13:10,03/02/2020 13:10,Pay Bill from 254724873566 - SHAILA NZIOKA Acc. HAC,Completed,400,,45700,TRUE,Pay Utility,254724873566 - SHAILA NZIOKA,,HAC
OB31SUR63H,03/02/2020 12:48,03/02/2020 12:48,Pay Bill from 0795807227 - Lucy Ncekei Kimathi Acc. V36,Completed,200,,45300,TRUE,Pay Utility,0795807227 - Lucy Ncekei Kimathi,,V36
OB34SSKSQO,03/02/2020 11:32,03/02/2020 11:32,Pay Bill from 254707358881 - SUSAN NZOMO Acc. v42,Completed,400,,45100,TRUE,Pay Utility,254707358881 - SUSAN NZOMO,,v42
OB39SSEQW1,03/02/2020 11:26,03/02/2020 11:26,Pay Bill from 254722769284 - JOSEPH TARUS Acc. FAA,Completed,1000,,44700,TRUE,Pay Utility,254722769284 - JOSEPH TARUS,,FAA
OB36SOTDOS,03/02/2020 09:16,03/02/2020 09:16,Pay Bill from 254706958937 - NANCY WAMALWA Acc. JDE,Completed,1000,,43700,TRUE,Pay Utility,254706958937 - NANCY WAMALWA,,JDE
OB23SK3WCX,02/02/2020 22:04,02/02/2020 22:04,Pay Bill from 0717042461 - Sharon Nyangasi Shivachi Acc. V55,Completed,400,,42700,TRUE,Pay Utility,0717042461 - Sharon Nyangasi Shivachi,,V55
OB22SIR4PK,02/02/2020 21:07,02/02/2020 21:07,Pay Bill from 254792891094 - WINNIE ODHIAMBO Acc. HFD,Completed,200,,42300,TRUE,Pay Utility,254792891094 - WINNIE ODHIAMBO,,HFD
OB21SHLOCJ,02/02/2020 20:29,02/02/2020 20:29,Pay Bill Online from 0743369961 - SALOME WANGARI KIBUGI Acc. KGD,Completed,400,,42100,TRUE,Pay Bill Online,0743369961 - SALOME WANGARI KIBUGI,,KGD
OB25SH0H2V,02/02/2020 20:13,02/02/2020 20:13,Pay Bill from 254726313835 - SYLVIA JUMA Acc. Hdf,Completed,400,,41700,TRUE,Pay Utility,254726313835 - SYLVIA JUMA,,Hdf
OB27SBQOWL,02/02/2020 18:00,02/02/2020 18:00,Pay Bill from 254714114228 - MWANGO VIOLET Acc. DCB,Completed,500,,41300,TRUE,Pay Utility,254714114228 - MWANGO VIOLET,,DCB
OB25S5Z3FJ,02/02/2020 15:00,02/02/2020 15:00,Pay Bill from 254716433854 - CHEROTICH LOICE Acc. FAE,Completed,800,,40800,TRUE,Pay Utility,254716433854 - CHEROTICH LOICE,,FAE
OB28S5VU5Y,02/02/2020 14:57,02/02/2020 14:57,Pay Bill from 254725385966 - JOSEPH MUYA MARUA Acc. KEE,Completed,600,,40000,TRUE,Pay Utility,254725385966 - JOSEPH MUYA MARUA,,KEE
OB27S2V4RP,02/02/2020 13:10,02/02/2020 13:10,Pay Bill from 254728476791 - CAROLE ACHIENG Acc. KCF,Completed,1200,,39400,TRUE,Pay Utility,254728476791 - CAROLE ACHIENG,,KCF
OB27S2R0FZ,02/02/2020 13:06,02/02/2020 13:06,Pay Bill from 254721465713 - RHODA WAMBUI MWANGI Acc. jfh,Completed,800,,38200,TRUE,Pay Utility,254721465713 - RHODA WAMBUI MWANGI,,jfh
OB22S2ARNM,02/02/2020 12:47,02/02/2020 12:47,Pay Bill from 254722815333 - JULIUS KEMBOI Acc. JGJ,Completed,600,,37400,TRUE,Pay Utility,254722815333 - JULIUS KEMBOI,,JGJ
OB24S1OS4E,02/02/2020 12:22,02/02/2020 12:22,Pay Bill from 254729392595 - WINNIE KERE Acc. JBF,Completed,200,,36800,TRUE,Pay Utility,254729392595 - WINNIE KERE,,JBF
OB27RXH7GR,02/02/2020 09:22,02/02/2020 09:22,Pay Bill from 254722444622 - CHARITY KAGWAINI Acc. FFD,Completed,200,,36600,TRUE,Pay Utility,254722444622 - CHARITY KAGWAINI,,FFD
OB26RVKEPE,02/02/2020 07:42,02/02/2020 07:42,Pay Bill from 254723815832 - SEMEKIA ONDIALA Acc. hse 38,Completed,800,,36400,TRUE,Pay Utility,254723815832 - SEMEKIA ONDIALA,,hse
