Receipt No.,Completion Time,Initiation Time,Details,Transaction Status,Paid In,Withdrawn,Balance,Balance Confirmed,Reason Type,Other Party Info,Linked Transaction ID,A/C No.
QFH3V4MONJ,17/06/2022 08:53,17/06/2022 08:53,Utility Account to Organization Settlement Account,Completed,,-7000,0,TRUE,Utility Account to Organization Settlement Account,887674 - ANCIENT WELLS LTD 1,,
QFF2RQ7L60,15/06/2022 14:26,15/06/2022 14:26,Pay Bill from 254712660519 - KELVIN MUTUNGA KATONYI Acc. V49,Completed,7000,,7000,TRUE,Pay Utility,254712660519 - KELVIN MUTUNGA KATONYI,,V49
QFF2RQ2FB6,15/06/2022 14:24,15/06/2022 14:24,Utility Account to Organization Settlement Account,Completed,,-13600,0,TRUE,Utility Account to Organization Settlement Account,887674 - ANCIENT WELLS LTD 1,,
QFF8R48SIS,15/06/2022 09:12,15/06/2022 09:12,Pay Bill from 254720056285 - DAMARIS NDURU Acc. V18,Completed,6600,,13600,TRUE,Pay Utility,254720056285 - DAMARIS NDURU,,V18
QFD7OO0ADL,13/06/2022 20:42,13/06/2022 20:42,Pay Bill from 254720230582 - SHADRACK KITAKA NGILA Acc. v01,Completed,7000,,7000,TRUE,Pay Utility,254720230582 - SHADRACK KITAKA NGILA,,v01
QFD0NJBCVO,13/06/2022 12:35,13/06/2022 12:35,Utility Account to Organization Settlement Account,Completed,,-7000,0,TRUE,Utility Account to Organization Settlement Account,887674 - ANCIENT WELLS LTD 1,,
QFD5NAN5VD,13/06/2022 10:25,13/06/2022 10:25,Pay Bill Online from 254702118125 - ROTICH BETHWEL Acc. V20,Completed,7000,,7000,TRUE,Pay Bill Online,254702118125 - ROTICH BETHWEL,,V20
QFB0K4MPQ8,11/06/2022 15:57,11/06/2022 15:57,Utility Account to Organization Settlement Account,Completed,,-40100,0,TRUE,Utility Account to Organization Settlement Account,887674 - ANCIENT WELLS LTD 1,,
QFB6JNANMY,11/06/2022 11:57,11/06/2022 11:57,Pay Bill from 254700218502 - GRACE NGURE Acc. v46,Completed,6600,,40100,TRUE,Pay Utility,254700218502 - GRACE NGURE,,v46
QFB9JEOQER,11/06/2022 09:48,11/06/2022 09:48,Pay Bill from 254729806880 - Eunice Akinyi Were Acc. V33,Completed,7000,,33500,TRUE,Pay Utility,254729806880 - Eunice Akinyi Were,,V33
QFA3IZFY2T,10/06/2022 21:59,10/06/2022 21:59,Pay Bill from 254701261592 - VICTOR MWILU Acc. v37,Completed,7000,,26500,TRUE,Pay Utility with OD via STK,254701261592 - VICTOR MWILU,,v37
QFA9IO619V,10/06/2022 19:44,10/06/2022 19:44,Pay Bill from 254790128716 - HELLEN NAPHTAL Acc. V11,Completed,14000,,19500,TRUE,Pay Utility,254790128716 - HELLEN NAPHTAL,,V11
QFA1IAXKX7,10/06/2022 17:42,10/06/2022 17:42,Pay Bill from 254723147662 - EMMANUEL ETYANG EKISA Acc. V44,Completed,1000,,5500,TRUE,Pay Utility,254723147662 - EMMANUEL ETYANG EKISA,,V44
QFA0I2BSOC,10/06/2022 16:00,10/06/2022 16:00,Pay Bill from 254768483096 - Ashly Njoki Komen Acc. V32,Completed,2500,,4500,TRUE,Pay Utility with OD via STK,254768483096 - Ashly Njoki Komen,,V32
QFA3HG0L7H,10/06/2022 10:45,10/06/2022 10:45,Pay Bill from 254700904994 - HUSSEIN HASSAN LAMA Acc. V43,Completed,2000,,2000,TRUE,Pay Utility,254700904994 - HUSSEIN HASSAN LAMA,,V43
QFA8H920XW,10/06/2022 08:57,10/06/2022 08:57,Utility Account to Organization Settlement Account,Completed,,-19600,0,TRUE,Utility Account to Organization Settlement Account,887674 - ANCIENT WELLS LTD 1,,
QF95GMJJ7R,09/06/2022 19:46,09/06/2022 19:46,Pay Bill from 254723147662 - EMMANUEL ETYANG EKISA Acc. V44,Completed,13000,,19600,TRUE,Pay Utility,254723147662 - EMMANUEL ETYANG EKISA,,V44
QF99GCLKO1,09/06/2022 18:17,09/06/2022 18:17,Pay Bill from 0113907030 - NAOMI NDINDA NZAMALU Acc. v28,Completed,6600,,6600,TRUE,Pay Utility,0113907030 - NAOMI NDINDA NZAMALU,,v28
QF88E54UEQ,08/06/2022 16:52,08/06/2022 16:52,Utility Account to Organization Settlement Account,Completed,,-22600,0,TRUE,Utility Account to Organization Settlement Account,887674 - ANCIENT WELLS LTD 1,,
QF81DS2ARB,08/06/2022 13:51,08/06/2022 13:51,Pay Bill from 0727542914 - Pascal Ouma Opar Acc. pascalv45,Completed,2000,,22600,TRUE,Pay Utility,0727542914 - Pascal Ouma Opar,,pascalv45
QF71CH138P,07/06/2022 18:55,07/06/2022 18:55,Pay Bill from 0769858701 - DOLLARS DANIEL CIRHUZA Acc. V09,Completed,7000,,20600,TRUE,Pay Utility,0769858701 - DOLLARS DANIEL CIRHUZA,,V09
QF76CCD2RK,07/06/2022 18:12,07/06/2022 18:12,Pay Bill from 0790659678 - Carlpeters Orwa Agengo Acc. V35,Completed,7000,,13600,TRUE,Pay Utility,0790659678 - Carlpeters Orwa Agengo,,V35
QF78CADW4M,07/06/2022 17:51,07/06/2022 17:51,Pay Bill Online from 254704995854 - james karanja wairimu Acc. V54,Completed,6600,,6600,TRUE,Pay Bill Online,254704995854 - james karanja wairimu,,V54
QF75BYGJAZ,07/06/2022 15:19,07/06/2022 15:19,Utility Account to Organization Settlement Account,Completed,,-74301,0,TRUE,Utility Account to Organization Settlement Account,887674 - ANCIENT WELLS LTD 1,,
QF72BHMB24,07/06/2022 11:18,07/06/2022 11:18,Pay Bill from 254703108159 - JOICE OGOLLA Acc. V50,Completed,6600,,74301,TRUE,Pay Utility,254703108159 - JOICE OGOLLA,,V50
QF77B7FQ49,07/06/2022 08:40,07/06/2022 08:40,Pay Bill from 254707568664 - Ismael Kitsao Acc. v52,Completed,7000,,67701,TRUE,Pay Utility,254707568664 - Ismael Kitsao,,v52
QF61AW4HGR,06/06/2022 21:46,06/06/2022 21:46,Pay Bill from 0758457508 - PETER KINGORI KAGUNDA Acc. V06,Completed,7000,,60701,TRUE,Pay Utility,0758457508 - PETER KINGORI KAGUNDA,,V06
QF64A8NGPM,06/06/2022 17:42,06/06/2022 17:42,Pay Bill from 0702360376 - Bonface aganga nyamongo Acc. vk4,Completed,3500,,53701,TRUE,Pay Utility,0702360376 - Bonface aganga nyamongo,,vk4
QF65A8K4DP,06/06/2022 17:41,06/06/2022 17:41,"Pay Bill from 0702360376 - Bonface aganga nyamongo Acc. vk4
",Completed,1,,50201,TRUE,Pay Utility,0702360376 - Bonface aganga nyamongo,,"vk4
"
QF659YLU3D,06/06/2022 15:36,06/06/2022 15:36,Pay Bill from 0792514260 - Wilkister Irako Harambee Acc. 37847739,Completed,5000,,50200,TRUE,Pay Utility,0792514260 - Wilkister Irako Harambee,,37847739
QF639V3DJD,06/06/2022 14:47,06/06/2022 14:47,Pay Bill Online from 254729569271 - MESHACK OBOTTA OBARE Acc. V12,Completed,6600,,45200,TRUE,Pay Bill Online,254729569271 - MESHACK OBOTTA OBARE,,V12
QF578OZCMB,05/06/2022 20:28,05/06/2022 20:28,Pay Bill from 254717294709 - CAROLINE WAVINYA NDINDA Acc. v15,Completed,7000,,38600,TRUE,Pay Utility,254717294709 - CAROLINE WAVINYA NDINDA,,v15
QF568CH03Q,05/06/2022 18:22,05/06/2022 18:22,Pay Bill Online from 254700043446 - JUSTICE MUHOLO AKHAHENDA Acc. v39,Completed,7000,,31600,TRUE,Pay Bill Online,254700043446 - JUSTICE MUHOLO AKHAHENDA,,v39
QF5989HSUR,05/06/2022 17:48,05/06/2022 17:48,Pay Bill from 254722578070 - SAMUEL MACHARIA Acc. v42,Completed,7000,,24600,TRUE,Pay Utility,254722578070 - SAMUEL MACHARIA,,v42
QF527OBISE,05/06/2022 12:44,05/06/2022 12:44,Pay Bill from 254719701463 - MARY KANYI KIARIE Acc. v17,Completed,7000,,17600,TRUE,Pay Utility,254719701463 - MARY KANYI KIARIE,,v17
QF5079BGY8,05/06/2022 08:16,05/06/2022 08:16,Pay Bill from 254715939283 - alex nyamai Acc. v7,Completed,4000,,10600,TRUE,Pay Utility,254715939283 - alex nyamai,,v7
QF5178OZ4X,05/06/2022 08:03,05/06/2022 08:03,Pay Bill from 254723815832 - SEMEKIA ONDIALA Acc. v38,Completed,6600,,6600,TRUE,Pay Utility,254723815832 - SEMEKIA ONDIALA,,v38
QF446LDP0O,04/06/2022 19:20,04/06/2022 19:20,Utility Account to Organization Settlement Account,Completed,,-41300,0,TRUE,Utility Account to Organization Settlement Account,887674 - ANCIENT WELLS LTD 1,,
QF436E9G3F,04/06/2022 18:15,04/06/2022 18:15,Pay Bill from 254743311673 - Maureen Njoki Wambui Acc. V60,Completed,7100,,41300,TRUE,Pay Utility with OD via STK,254743311673 - Maureen Njoki Wambui,,V60
QF486CYH3G,04/06/2022 18:01,04/06/2022 18:01,Pay Bill from 254718818610 - HANNAH NALIAKA Acc. V23,Completed,6600,,34200,TRUE,Pay Utility,254718818610 - HANNAH NALIAKA,,V23
QF435GLQRD,04/06/2022 10:54,04/06/2022 10:54,Pay Bill from 254720466443 - FATUMA MOHAMED ABDALLAH Acc. v21,Completed,7000,,27600,TRUE,Pay Utility,254720466443 - FATUMA MOHAMED ABDALLAH,,v21
QF394VT235,03/06/2022 21:42,03/06/2022 21:42,Pay Bill from 254719658678 - KELVIN SOMBA MAUNDU Acc. vk6,Completed,3500,,20600,TRUE,Pay Utility,254719658678 - KELVIN SOMBA MAUNDU,,vk6
QF374BCQP9,03/06/2022 18:14,03/06/2022 18:14,Pay Bill from 254712091662 - BENARD OMONDI ROBY Acc. V16,Completed,6600,,17100,TRUE,Pay Utility,254712091662 - BENARD OMONDI ROBY,,V16
QF303Z5TUS,03/06/2022 15:50,03/06/2022 15:50,Pay Bill from 254706920646 - MIRIAM CHEPTOO Acc. V08,Completed,10500,,10500,TRUE,Pay Utility,254706920646 - MIRIAM CHEPTOO,,V08
QF303Y5I2I,03/06/2022 15:36,03/06/2022 15:36,Utility Account to Organization Settlement Account,Completed,,-37700,0,TRUE,Utility Account to Organization Settlement Account,887674 - ANCIENT WELLS LTD 1,,
QF333FZ9B5,03/06/2022 11:20,03/06/2022 11:20,Pay Bill from 254701641256 - Hedwig Tiribi Kiboi Acc. V32,Completed,8000,,37700,TRUE,Pay Utility,254701641256 - Hedwig Tiribi Kiboi,,V32
QF323FYINO,03/06/2022 11:20,03/06/2022 11:20,Pay Bill from 254723771594 - Perpetua Wanjiku Kiboi Acc. v32,Completed,7000,,29700,TRUE,Pay Utility,254723771594 - Perpetua Wanjiku Kiboi,,v32
QF3034WW2M,03/06/2022 08:26,03/06/2022 08:26,Pay Bill from 254713916352 - WINFRED KATUNGWA NDALA Acc. V30,Completed,6600,,22700,TRUE,Pay Utility,254713916352 - WINFRED KATUNGWA NDALA,,V30
QF272IXAF9,02/06/2022 19:31,02/06/2022 19:31,Pay Bill from 254726465584 - JULIANA MUKELI MUTUNGA Acc. v4,Completed,6600,,16100,TRUE,Pay Utility,254726465584 - JULIANA MUKELI MUTUNGA,,v4
QF2229OQ74,02/06/2022 18:07,02/06/2022 18:07,Pay Bill from 254729358258 - Cliff Ombasa Acc. V05,Completed,2500,,9500,TRUE,Pay Utility,254729358258 - Cliff Ombasa,,V05
QF261W416C,02/06/2022 15:14,02/06/2022 15:14,Pay Bill from 254704551142 - KEVIN MORGAN MUTWIRI Acc. V25,Completed,7000,,7000,TRUE,Pay Utility,254704551142 - KEVIN MORGAN MUTWIRI,,V25
QF241H2PXG,02/06/2022 11:36,02/06/2022 11:36,Utility Account to Organization Settlement Account,Completed,,-48600,0,TRUE,Utility Account to Organization Settlement Account,887674 - ANCIENT WELLS LTD 1,,
QF201AHOBW,02/06/2022 09:56,02/06/2022 09:56,Pay Bill from 254723389922 - ANNE WANJIKU NDUNGU Acc. v53,Completed,7000,,48600,TRUE,Pay Utility,254723389922 - ANNE WANJIKU NDUNGU,,v53
QF2018SST6,02/06/2022 09:29,02/06/2022 09:29,Pay Bill from 254726702082 - STEPHEN NJUGUNA Acc. V02,Completed,17500,,41600,TRUE,Pay Utility,254726702082 - STEPHEN NJUGUNA,,V02
