Receipt No.,Completion Time,Initiation Time,Details,Transaction Status,Paid In,Withdrawn,Balance,Balance Confirmed,Reason Type,Other Party Info,Linked Transaction ID,A/C No.
RC5338ABQZ,05/03/2023 15:38,05/03/2023 15:38,Pay Bill from 254728479985 - VIRGINIAH MUHIA Acc. B7,Completed,13000,,118000,TRUE,Pay Utility,254728479985 - VIRGINIAH MUHIA,,B7
RC582QMWY2,05/03/2023 12:22,05/03/2023 12:22,Pay Bill from 254745713921 - LAUREEN WANJIRU MAINA Acc. B3,Completed,6000,,105000,TRUE,Pay Utility,254745713921 - LAUREEN WANJIRU MAINA,,B3
RC571ZIH1Z,05/03/2023 01:03,05/03/2023 01:03,Pay Bill Online from 254722729251 - DAVID KIBE NJUGUNA Acc. ZEE4,Completed,6000,,99000,TRUE,Pay Utility with OD Online,254722729251 - DAVID KIBE NJUGUNA,,ZEE4
RC31W2JUCV,03/03/2023 11:46,03/03/2023 11:46,Pay Bill from 254723882311 - VERONICAH WAMBUGU Acc. house number 9,Completed,16000,,93000,TRUE,Pay Utility,254723882311 - VERONICAH WAMBUGU,,house
RC31VVWNTZ,03/03/2023 10:33,03/03/2023 10:33,Pay Bill from 254718167869 - MARK OTIENO Acc. A3,Completed,7000,,77000,TRUE,Pay Utility,254718167869 - MARK OTIENO,,A3
RC38VVR9LY,03/03/2023 10:32,03/03/2023 10:32,Pay Bill from 254722314500 - SHARON AKINYI OBIERO Acc. hse 1,Completed,12000,,70000,TRUE,Pay Utility,254722314500 - SHARON AKINYI OBIERO,,hse
RC26V5XLOC,02/03/2023 22:27,02/03/2023 22:27,Pay Bill from 254741791919 - Linet Mongina Maraga Acc. U3,Completed,5000,,58000,TRUE,Pay Utility,254741791919 - Linet Mongina Maraga,,U3
RC25U573PF,02/03/2023 17:21,02/03/2023 17:21,Pay Bill from 254723877938 - SALOME ONGELE Acc. 369S,Completed,13000,,53000,TRUE,Pay Utility,254723877938 - SALOME ONGELE,,369S
RC23T8ZOLV,02/03/2023 11:40,02/03/2023 11:40,Pay Bill from 254724825611 - PAULINE INDIEKA Acc. D13,Completed,6000,,40000,TRUE,Pay Utility,254724825611 - PAULINE INDIEKA,,D13
RC17S77CG7,01/03/2023 20:59,01/03/2023 20:59,Pay Bill from 254726731040 - ISAAC NDUNGU Acc. D8,Completed,6000,,34000,TRUE,Pay Utility,254726731040 - ISAAC NDUNGU,,D8
RBS2PKWDSE,28/02/2023 21:45,28/02/2023 21:45,Pay Bill Online from 254724362830 - Evan Mwangi Mutungu Acc. House no. 19,Completed,15000,,28000,TRUE,Pay Bill Online,254724362830 - Evan Mwangi Mutungu,,House
RBR4MFRCE4,27/02/2023 19:20,27/02/2023 19:20,Pay Bill from 254725903381 - ADELINE LUMBASI Acc. SaikaA6,Completed,13000,,13000,TRUE,Pay Utility,254725903381 - ADELINE LUMBASI,,SaikaA6
RBR6LPW134,27/02/2023 15:26,27/02/2023 15:26,Utility Account to Organization Settlement Account,Completed,,-16000,0,TRUE,Utility Account to Organization Settlement Account,887264 - ANCIENT WELLS LTD 2,,
RBR3LOY95F,27/02/2023 15:15,27/02/2023 15:15,Pay Bill Online from 254723634653 - CHARD MASHANGA Acc. House No.7,Completed,16000,,16000,TRUE,Pay Bill Online,254723634653 - CHARD MASHANGA,,House
RBR3KP1K5H,27/02/2023 08:20,27/02/2023 08:20,Utility Account to Organization Settlement Account,Completed,,-113000,0,TRUE,Utility Account to Organization Settlement Account,887264 - ANCIENT WELLS LTD 2,,
RBR7KN0OVJ,27/02/2023 07:50,27/02/2023 07:50,Pay Bill Online from 254723303260 - nely covetti mwenesi Acc. SAVANNAH 102,Completed,36000,,113000,TRUE,Pay Utility with OD Online,254723303260 - nely covetti mwenesi,,SAVANNAH
RBQ6K5HTFU,26/02/2023 20:44,26/02/2023 20:44,Pay Bill Online from 254722729251 - DAVID KIBE NJUGUNA Acc. ZEE4,Completed,3000,,77000,TRUE,Pay Utility with OD Online,254722729251 - DAVID KIBE NJUGUNA,,ZEE4
RBQ8J8DI2S,26/02/2023 15:43,26/02/2023 15:43,Pay Bill from 254706011442 - REUBEN MURIUKI Acc. B5,Completed,6000,,74000,TRUE,Pay Utility,254706011442 - REUBEN MURIUKI,,B5
RBP2HAI1QU,25/02/2023 19:09,25/02/2023 19:09,Pay Bill from 254722759625 - GAMANA IBRAHIM Acc. Z4,Completed,1000,,68000,TRUE,Pay Utility,254722759625 - GAMANA IBRAHIM,,Z4
RBO6D90676,24/02/2023 11:16,24/02/2023 11:16,Utility Account to Organization Settlement Account,Completed,,-21000,67000,TRUE,Utility Account to Organization Settlement Account,887264 - ANCIENT WELLS LTD 2,,
RBN4CAJXDM,23/02/2023 21:01,23/02/2023 21:01,Utility Account to Organization Settlement Account,Completed,,-15000,88000,TRUE,Utility Account to Organization Settlement Account,887264 - ANCIENT WELLS LTD 2,,
RBM285LM1U,22/02/2023 11:33,22/02/2023 11:33,Pay Bill from 254722627652 - BONIFACE MWAMUTSI CHENGO Acc. D9/D10,Completed,11000,,103000,TRUE,Pay Utility,254722627652 - BONIFACE MWAMUTSI CHENGO,,D9/D10
RBL15TZS6X,21/02/2023 13:20,21/02/2023 13:20,Utility Account to Organization Settlement Account,Completed,,-20000,92000,TRUE,Utility Account to Organization Settlement Account,887264 - ANCIENT WELLS LTD 2,,
RBK23GQY9O,20/02/2023 14:34,20/02/2023 14:34,Pay Bill Online from 0798280554 - Joseph Wambugu Macharia Acc. number 17,Completed,16000,,112000,TRUE,Pay Bill Online,0798280554 - Joseph Wambugu Macharia,,number
RBJ11YUYX9,19/02/2023 20:19,19/02/2023 20:19,Utility Account to Organization Settlement Account,Completed,,-5000,96000,TRUE,Utility Account to Organization Settlement Account,887264 - ANCIENT WELLS LTD 2,,
RBI4YX28ZW,18/02/2023 22:59,18/02/2023 22:59,Pay Bill from 254720213934 - TERRY KAWIRA SALESIO Acc. z20,Completed,6000,,101000,TRUE,Pay Utility,254720213934 - TERRY KAWIRA SALESIO,,z20
RBH3VLBRNP,17/02/2023 19:07,17/02/2023 19:07,Utility Account to Organization Settlement Account,Completed,,-10000,95000,TRUE,Utility Account to Organization Settlement Account,887264 - ANCIENT WELLS LTD 2,,
RBH2V5FWGS,17/02/2023 16:49,17/02/2023 16:49,Utility Account to Organization Settlement Account,Completed,,-40000,105000,TRUE,Utility Account to Organization Settlement Account,887264 - ANCIENT WELLS LTD 2,,
RBH9U6LTZ3,17/02/2023 10:13,17/02/2023 10:13,Utility Account to Organization Settlement Account,Completed,,-20000,145000,TRUE,Utility Account to Organization Settlement Account,887264 - ANCIENT WELLS LTD 2,,
RBH2TTPMKM,17/02/2023 07:18,17/02/2023 07:18,Pay Bill from 254741791919 - Linet Mongina Maraga Acc. u3,Completed,5000,,165000,TRUE,Pay Utility with OD via STK,254741791919 - Linet Mongina Maraga,,u3
RBG1TKYZ7V,16/02/2023 22:11,16/02/2023 22:11,Pay Bill Online from 254722729251 - DAVID KIBE NJUGUNA Acc. Zee4,Completed,3500,,160000,TRUE,Pay Utility with OD Online,254722729251 - DAVID KIBE NJUGUNA,,Zee4
RBG1TG20DV,16/02/2023 21:08,16/02/2023 21:08,Pay Bill from 254703573478 - ANTONY MAINA GICHINA Acc. Gichina A5,Completed,15000,,156500,TRUE,Pay Utility,254703573478 - ANTONY MAINA GICHINA,,Gichina
RBG2SNT4BC,16/02/2023 17:29,16/02/2023 17:29,Utility Account to Organization Settlement Account,Completed,,-5000,141500,TRUE,Utility Account to Organization Settlement Account,887264 - ANCIENT WELLS LTD 2,,
RBF6QK7CE2,15/02/2023 19:59,15/02/2023 19:59,Pay Bill from 254729140163 - BEATRICE OMADI NYANDIGA Acc. Z13,Completed,10000,,146500,TRUE,Pay Utility,254729140163 - BEATRICE OMADI NYANDIGA,,Z13
RBE7O5VTOJ,14/02/2023 21:04,14/02/2023 21:04,Utility Account to Organization Settlement Account,Completed,,-10000,136500,TRUE,Utility Account to Organization Settlement Account,887264 - ANCIENT WELLS LTD 2,,
RBE6O2OH04,14/02/2023 20:36,14/02/2023 20:36,Utility Account to Organization Settlement Account,Completed,,-10000,146500,TRUE,Utility Account to Organization Settlement Account,887264 - ANCIENT WELLS LTD 2,,
RBE6NCV5AU,14/02/2023 17:16,14/02/2023 17:16,Utility Account to Organization Settlement Account,Completed,,-130000,156500,TRUE,Utility Account to Organization Settlement Account,887264 - ANCIENT WELLS LTD 2,,
RBE5M7DP1H,14/02/2023 09:25,14/02/2023 09:25,Pay Bill from 254728912446 - GRACE NJERI KIMANI Acc. ancient well ,Completed,40000,,286500,TRUE,Pay Utility,254728912446 - GRACE NJERI KIMANI,,ancient
RBE2LSPIMI,14/02/2023 00:00,14/02/2023 00:00,Pay Bill Online from 254722269369 - FAIZ OMAR BASABRA Acc. Nairobi west 12,Completed,70000,,246500,TRUE,Pay Bill Online,254722269369 - FAIZ OMAR BASABRA,,Nairobi
RBD9JLBSQT,13/02/2023 09:28,13/02/2023 09:28,Pay Bill Online from 254796931225 - Martin Nyaga Gikang'a Acc. z8,Completed,16000,,176500,TRUE,Pay Utility with OD Online,254796931225 - Martin Nyaga Gikang'a,,z8
RBB2GM7PTS,11/02/2023 21:44,11/02/2023 21:44,Pay Bill from 254720213934 - TERRY KAWIRA SALESIO Acc. z20,Completed,10000,,160500,TRUE,Pay Utility,254720213934 - TERRY KAWIRA SALESIO,,z20
RBB9GDP7ET,11/02/2023 20:24,11/02/2023 20:24,Pay Bill from 254724924462 - GEOFFRY LIHEMO SHILISIA Acc. Z 16,Completed,5000,,150500,TRUE,Pay Utility,254724924462 - GEOFFRY LIHEMO SHILISIA,,Z
RBB4G4NLBE,11/02/2023 19:20,11/02/2023 19:20,Pay Bill from 254721226492 - MICHAEL OKEYO CURTIS Acc. U4,Completed,4000,,145500,TRUE,Pay Utility with OD via STK,254721226492 - MICHAEL OKEYO CURTIS,,U4
RBA3D5V3Z1,10/02/2023 18:04,10/02/2023 18:04,Pay Bill from 254722566566 - DANIEL KIMANTHI KAMANDI Acc. UMOJA ,Completed,20000,,141500,TRUE,Pay Utility,254722566566 - DANIEL KIMANTHI KAMANDI,,UMOJA
RBA3CUCAEZ,10/02/2023 16:11,10/02/2023 16:11,Pay Bill from 254725014210 - FREDRICK MOUNDE Acc. EPZ MH ,Completed,30000,,121500,TRUE,Pay Utility,254725014210 - FREDRICK MOUNDE,,EPZ
RBA9CU4RXN,10/02/2023 16:09,10/02/2023 16:09,Pay Bill Online from 0743263203 - Patrick theuri wachira Acc. u1,Completed,5000,,91500,TRUE,Pay Bill Online,0743263203 - Patrick theuri wachira,,u1
RBA1CG6RB9,10/02/2023 13:33,10/02/2023 13:33,FSI to Pay Bill by 998094 - COOP TO PAYBILL Acc. hse no 3 via WEB by COOP TO PAYBILL\COOPAYBILLTRNS,Completed,12000,,86500,TRUE,FSI to Pay Bill via API,998094 - COOP TO PAYBILL,,hse
RBA1BOQUXH,10/02/2023 08:15,10/02/2023 08:15,Pay Bill from 254720867522 - DANIEL WAMBUI Acc. z15 ,Completed,16000,,74500,TRUE,Pay Utility,254720867522 - DANIEL WAMBUI,,z15
RB95AUZRR1,09/02/2023 19:39,09/02/2023 19:39,Pay Bill from 0740257879 - Collins  Ochieng Onyango Acc. U6,Completed,5500,,58500,TRUE,Pay Utility,0740257879 - Collins  Ochieng Onyango,,U6
RB97A47FUL,09/02/2023 15:39,09/02/2023 15:39,Pay Bill Online from 254722949879 - KAMANDE JOSEPH Acc. Z10,Completed,15000,,53000,TRUE,Pay Bill Online,254722949879 - KAMANDE JOSEPH,,Z10
RB979I9L5Z,09/02/2023 11:37,09/02/2023 11:37,"Pay Bill Online from 254723634653 - CHARD MASHANGA Acc. 37186617256
",Completed,16000,,38000,TRUE,Pay Bill Online,254723634653 - CHARD MASHANGA,,"37186617256
"
RB939FIVU5,09/02/2023 11:07,09/02/2023 11:07,Pay Bill from 254726928715 - ELIZAPHAN KAMAU NDUTA Acc. Z2,Completed,16000,,22000,TRUE,Pay Utility with OD via STK,254726928715 - ELIZAPHAN KAMAU NDUTA,,Z2
RB817XW80V,08/02/2023 18:32,08/02/2023 18:32,Pay Bill from 254724825611 - PAULINE INDIEKA Acc. D13,Completed,6000,,6000,TRUE,Pay Utility,254724825611 - PAULINE INDIEKA,,D13
RB836R8BD3,08/02/2023 10:53,08/02/2023 10:53,Utility Account to Organization Settlement Account,Completed,,-274000,0,TRUE,Utility Account to Organization Settlement Account,887264 - ANCIENT WELLS LTD 2,,
RB745ODXSG,07/02/2023 20:00,07/02/2023 20:00,Pay Bill from 254723853941 - ELIZABETH MUTIO MUTUKU Acc. Z12,Completed,20000,,274000,TRUE,Pay Utility with OD via STK,254723853941 - ELIZABETH MUTIO MUTUKU,,Z12
RB653DFO55,06/02/2023 22:27,06/02/2023 22:27,Pay Bill from 0115556359 - CHEPNGENO   EDITH Acc. c701,Completed,20000,,254000,TRUE,Pay Utility,0115556359 - CHEPNGENO   EDITH,,c701
RB622BASB0,06/02/2023 16:46,06/02/2023 16:46,Pay Bill from 254724924462 - GEOFFRY LIHEMO SHILISIA Acc. Z 16,Completed,1500,,234000,TRUE,Pay Utility,254724924462 - GEOFFRY LIHEMO SHILISIA,,Z
RB51YXVLL1,05/02/2023 18:18,05/02/2023 18:18,Pay Bill Online from 254723909186 - BRIAN LIBASIA Acc. 18,Completed,16000,,232500,TRUE,Pay Bill Online,254723909186 - BRIAN LIBASIA,,18
RB44VVP7JQ,04/02/2023 15:28,04/02/2023 15:28,Pay Bill from 254721392330 - ROSE KENDI Acc. 202A,Completed,90000,,216500,TRUE,Pay Utility,254721392330 - ROSE KENDI,,202A
RB45VURDKT,04/02/2023 15:19,04/02/2023 15:19,Pay Bill from 254794909502 - josephene Mwende Wambua Acc. house 5,Completed,2000,,126500,TRUE,Pay Utility,254794909502 - josephene Mwende Wambua,,house
RB49VC1339,04/02/2023 12:10,04/02/2023 12:10,Pay Bill from 254722314500 - SHARON AKINYI OBIERO Acc. hse no 1,Completed,12000,,124500,TRUE,Pay Utility,254722314500 - SHARON AKINYI OBIERO,,hse
RB33SZ2L4D,03/02/2023 14:31,03/02/2023 14:31,Pay Bill from 254715979027 - NICHOLAS MWANGI Acc. Leah b2,Completed,23000,,112500,TRUE,Pay Utility,254715979027 - NICHOLAS MWANGI,,Leah
RB33RT7UMD,03/02/2023 00:59,03/02/2023 00:59,Pay Bill Online from 254718167869 - MARK OTIENO Acc. A3,Completed,7000,,89500,TRUE,Pay Bill Online,254718167869 - MARK OTIENO,,A3
RB24RN572K,02/02/2023 21:59,02/02/2023 21:59,Pay Bill from 0759385844 - ROSEMARY WAMBUI GITAU Acc. b5,Completed,7000,,82500,TRUE,Pay Utility with OD via STK,0759385844 - ROSEMARY WAMBUI GITAU,,b5
RB25RF63OP,02/02/2023 20:36,02/02/2023 20:36,Pay Bill from 254723882311 - VERONICAH WAMBUGU Acc. House number 9,Completed,16000,,75500,TRUE,Pay Utility,254723882311 - VERONICAH WAMBUGU,,House
RB25R27DFL,02/02/2023 19:05,02/02/2023 19:05,Pay Bill from 254745713921 - LAUREEN WANJIRU MAINA Acc. B3,Completed,13000,,59500,TRUE,Pay Utility,254745713921 - LAUREEN WANJIRU MAINA,,B3
RB10ORBEOK,01/02/2023 20:24,01/02/2023 20:24,Pay Bill from 254726731040 - ISAAC NDUNGU Acc. D 8,Completed,6000,,46500,TRUE,Pay Utility,254726731040 - ISAAC NDUNGU,,D
RB10O9YJYK,01/02/2023 18:20,01/02/2023 18:20,Pay Bill from 254723877938 - SALOME ONGELE Acc. 369S,Completed,13000,,40500,TRUE,Pay Utility,254723877938 - SALOME ONGELE,,369S
