Receipt No.,Completion Time,Initiation Time,Details,Transaction Status,Paid In,Withdrawn,Balance,Balance Confirmed,Reason Type,Other Party Info,Linked Transaction ID,A/C No.
OL97DLACVP,09/12/2020 17:52,09/12/2020 17:52,Utility Account to Organization Settlement Account,Completed,,-21500,0,TRUE,Utility Account to Organization Settlement Account,887075 - ANCIENT WELLS LTD 3,,
OL89CB4JAX,08/12/2020 17:51,08/12/2020 17:51,Pay Bill from 0702927581 - Peter Muoki Ngundo Acc. Peter ngundo e6,Completed,8500,,21500,TRUE,Pay Utility,0702927581 - Peter Muoki Ngundo,,Peter
OL84C74OGG,08/12/2020 16:38,08/12/2020 16:38,Pay Bill from 0110023089 - Nicholus Kioko Kilungya Acc. 302,Completed,13000,,13000,TRUE,Pay Utility,0110023089 - Nicholus Kioko Kilungya,,302
OL88BTV3JU,08/12/2020 11:46,08/12/2020 11:46,Utility Account to Organization Settlement Account,Completed,,-38900,0,TRUE,Utility Account to Organization Settlement Account,887075 - ANCIENT WELLS LTD 3,,
OL71BBIUUL,07/12/2020 20:18,07/12/2020 20:18,Pay Bill from 254722395959 - THEOPHILUS MUSYOKA Acc. 601,Completed,15000,,38900,TRUE,Pay Utility,254722395959 - THEOPHILUS MUSYOKA,,601
OL73B9502B,07/12/2020 19:40,07/12/2020 19:40,Pay Bill from 254725085735 - MATTHEW MULI MUTUKU Acc. mercymuliB6P,Completed,8900,,23900,TRUE,Pay Utility,254725085735 - MATTHEW MULI MUTUKU,,mercymuliB6P
OL70B0C1TW,07/12/2020 17:29,07/12/2020 17:29,Pay Bill from 254724939972 - KENNEDY KISWILI MULINGE Acc. kennedy 201,Completed,15000,,15000,TRUE,Pay Utility,254724939972 - KENNEDY KISWILI MULINGE,,kennedy
OL79ANTQOR,07/12/2020 13:06,07/12/2020 13:06,Utility Account to Organization Settlement Account,Completed,,-55500,0,TRUE,Utility Account to Organization Settlement Account,887075 - ANCIENT WELLS LTD 3,,
OL66A706GM,06/12/2020 23:13,06/12/2020 23:13,Pay Bill from 0792589822 - Rashid juma maina Acc. Rashid room802,Completed,15000,,55500,TRUE,Pay Utility,0792589822 - Rashid juma maina,,Rashid
OL699WPNZZ,06/12/2020 18:55,06/12/2020 18:55,Pay Bill from 0743167092 - marvin njuguna maina Acc. G1,Completed,8000,,40500,TRUE,Pay Utility,0743167092 - marvin njuguna maina,,G1
OL609MDJ7U,06/12/2020 15:33,06/12/2020 15:33,Pay Bill from 254722706516 - KORIR ANTHONY Acc. Anthony d 3,Completed,8000,,32500,TRUE,Pay Utility,254722706516 - KORIR ANTHONY,,Anthony
OL609LOXHG,06/12/2020 15:18,06/12/2020 15:18,Pay Bill from 254711184244 - KIPROP FESTUS Acc. Festus Kiprop C1p,Completed,8000,,24500,TRUE,Pay Utility,254711184244 - KIPROP FESTUS,,Festus
OL518X7ZKD,05/12/2020 21:10,05/12/2020 21:10,Pay Bill from 254792976771 - DANIEL MUTHAMA NDUNDA Acc. F1,Completed,8000,,16500,TRUE,Pay Utility,254792976771 - DANIEL MUTHAMA NDUNDA,,F1
OL5087NK34,05/12/2020 13:43,05/12/2020 13:43,Pay Bill from 0799912339 - PETER KAMAU MURIU Acc. c5,Completed,8500,,8500,TRUE,Pay Utility,0799912339 - PETER KAMAU MURIU,,c5
OL537RYGDV,05/12/2020 07:52,05/12/2020 07:52,Utility Account to Organization Settlement Account,Completed,,-67000,0,TRUE,Utility Account to Organization Settlement Account,887075 - ANCIENT WELLS LTD 3,,
OL467NVGJK,04/12/2020 22:38,04/12/2020 22:38,Pay Bill from 254728664261 - LEVIN INGATI NYONJE Acc. B5,Completed,8500,,67000,TRUE,Pay Utility,254728664261 - LEVIN INGATI NYONJE,,B5
OL467BFH5Q,04/12/2020 18:36,04/12/2020 18:36,Pay Bill from 254711460336 - DAVID SILLA MUTUKU Acc. 903,Completed,8000,,58500,TRUE,Pay Utility,254711460336 - DAVID SILLA MUTUKU,,903
OL457BDD01,04/12/2020 18:35,04/12/2020 18:35,Pay Bill from 254717465142 - EPHANTUS IRURA Acc. C4 MURIITHI,Completed,8500,,50500,TRUE,Pay Utility,254717465142 - EPHANTUS IRURA,,C4
OL4276XO6Q,04/12/2020 17:22,04/12/2020 17:22,Pay Bill from 254724871526 - JOHN KAGUONGO Acc. D5 John Kaguongo ,Completed,8500,,42000,TRUE,Pay Utility,254724871526 - JOHN KAGUONGO,,D5
OL336CNX9P,03/12/2020 22:01,03/12/2020 22:01,Pay Bill from 254701339690 - ASHA BAGANWA NDAHIRU Acc. F3,Completed,8000,,33500,TRUE,Pay Utility,254701339690 - ASHA BAGANWA NDAHIRU,,F3
OL306BC8D0,03/12/2020 21:21,03/12/2020 21:21,Pay Bill from 254703246217 - AMBROSE ADOCHE MIRASI Acc. D4,Completed,8500,,25500,TRUE,Pay Utility,254703246217 - AMBROSE ADOCHE MIRASI,,D4
OL3165QWHZ,03/12/2020 19:41,03/12/2020 19:41,Pay Bill from 254721539716 - OCTAVIAN MWANYALO Acc. C6,Completed,8000,,17000,TRUE,Pay Utility,254721539716 - OCTAVIAN MWANYALO,,C6
OL305ZQFOA,03/12/2020 18:18,03/12/2020 18:18,Pay Bill from 0799838354 - Brian Kyengo Ndambuki Acc. B-3,Completed,9000,,9000,TRUE,Pay Utility,0799838354 - Brian Kyengo Ndambuki,,B-3
OL345Q5JEK,03/12/2020 15:12,03/12/2020 15:12,Utility Account to Organization Settlement Account,Completed,,-16000,0,TRUE,Utility Account to Organization Settlement Account,887075 - ANCIENT WELLS LTD 3,,
OL355PSI8V,03/12/2020 15:04,03/12/2020 15:04,Pay Bill from 254701330588 - EDGER WAFULA BUTALI Acc. D1,Completed,8000,,16000,TRUE,Pay Utility,254701330588 - EDGER WAFULA BUTALI,,D1
OL3859E2AS,03/12/2020 08:51,03/12/2020 08:51,Pay Bill from 254700007703 - RITA LESOROGOL Acc. ritahnashangairm901,Completed,8000,,8000,TRUE,Pay Utility,254700007703 - RITA LESOROGOL,,ritahnashangairm901
OL264Z3EV4,02/12/2020 20:38,02/12/2020 20:38,Utility Account to Organization Settlement Account,Completed,,-50000,0,TRUE,Utility Account to Organization Settlement Account,887075 - ANCIENT WELLS LTD 3,,
OL224XOY0M,02/12/2020 20:14,02/12/2020 20:14,"Pay Bill from 254723640699 - FREDRICK OTIENO Acc. FREDRICK HSE NO,102",Completed,10000,,50000,TRUE,Pay Utility,254723640699 - FREDRICK OTIENO,,FREDRICK
OL274WJ0QL,02/12/2020 19:56,02/12/2020 19:56,Pay Bill from 254711877988 - PATRICK KONZI Acc. b4,Completed,8500,,40000,TRUE,Pay Utility,254711877988 - PATRICK KONZI,,b4
OL204K3TK4,02/12/2020 16:42,02/12/2020 16:42,Pay Bill from 254711712240 - LEON WOMWENE BWAYO Acc. 602,Completed,15000,,31500,TRUE,Pay Utility,254711712240 - LEON WOMWENE BWAYO,,602
OL143KWTBE,01/12/2020 19:31,01/12/2020 19:31,Pay Bill Online from 254715144865 - CAROL JULIET MUGOYA Acc. E2,Completed,8000,,16500,TRUE,Pay Bill Online,254715144865 - CAROL JULIET MUGOYA,,E2
OL133GHCMN,01/12/2020 18:30,01/12/2020 18:30,Pay Bill Online from 254795983642 - OBED MOGAKA Acc. F6 OBED ,Completed,8500,,8500,TRUE,Pay Bill Online,254795983642 - OBED MOGAKA,,F6
OL1430DJ54,01/12/2020 13:06,01/12/2020 13:06,Utility Account to Organization Settlement Account,Completed,,-13000,0,TRUE,Utility Account to Organization Settlement Account,887075 - ANCIENT WELLS LTD 3,,
OL112N00V5,01/12/2020 07:42,01/12/2020 07:42,Pay Bill Online from 254720873532 - ARETI DIRIBO Acc. 301,Completed,13000,,13000,TRUE,Pay Bill Online,254720873532 - ARETI DIRIBO,,301
OL122KYJQQ,01/12/2020 05:22,01/12/2020 05:22,Utility Account to Organization Settlement Account,Completed,,-7500,0,TRUE,Utility Account to Organization Settlement Account,887075 - ANCIENT WELLS LTD 3,,
