Receipt No.,Completion Time,Initiation Time,Details,Transaction Status,Paid In,Withdrawn,Balance,Balance Confirmed,Reason Type,Other Party Info,Linked Transaction ID,A/C No.
OJO9S7865F,24/10/2020 09:23,24/10/2020 09:23,Pay Bill from 254715728688 - NAOMI HAGERERA JACOB Acc. DGC,Completed,600,,600,TRUE,Pay Utility with OD via STK,254715728688 - NAOMI HAGERERA JACOB,,DGC
OJO0S5Y5ZS,24/10/2020 08:48,24/10/2020 08:48,Utility Account to Organization Settlement Account,Completed,,-21500,0,TRUE,Utility Account to Organization Settlement Account,846783 - ANCIENT WELLS LTD 4,,
OJO2S4M3M8,24/10/2020 08:08,24/10/2020 08:08,Pay Bill Online from 254718299426 - AMOS NGURE MWANGI Acc. HEE,Completed,400,,21500,TRUE,Pay Bill Online,254718299426 - AMOS NGURE MWANGI,,HEE
OJO9S1SYQR,24/10/2020 02:43,24/10/2020 02:43,Pay Bill from 254707551286 - BENSON NJUGUNA WANGARI Acc. kfi,Completed,400,,21100,TRUE,Pay Utility,254707551286 - BENSON NJUGUNA WANGARI,,kfi
OJO2S1FPKS,24/10/2020 00:19,24/10/2020 00:19,Pay Bill from 0742965163 - Winnie   Naliaka Acc. v31,Completed,1800,,20700,TRUE,Pay Utility,0742965163 - Winnie   Naliaka,,v31
OJN6RZNXDK,23/10/2020 21:55,23/10/2020 21:55,Pay Bill Online from 254727648782 - EUNICE MUTIO MULE Acc. JEI,Completed,2000,,18900,TRUE,Pay Bill Online,254727648782 - EUNICE MUTIO MULE,,JEI
OJN0RZ3VQI,23/10/2020 21:35,23/10/2020 21:35,Pay Bill from 254721417560 - ANDREW SANDE Acc. JBJ,Completed,1000,,16900,TRUE,Pay Utility,254721417560 - ANDREW SANDE,,JBJ
OJN7RW3VLX,23/10/2020 20:18,23/10/2020 20:18,Pay Bill from 254713662892 - DAVID JUMA KIPTOCH Acc. JBE,Completed,200,,15900,TRUE,Pay Utility,254713662892 - DAVID JUMA KIPTOCH,,JBE
OJN1RRJUG7,23/10/2020 18:59,23/10/2020 18:59,Pay Bill from 254719285750 - LILIAN ACHIENG ODONGO Acc. IGE,Completed,200,,15700,TRUE,Pay Utility,254719285750 - LILIAN ACHIENG ODONGO,,IGE
OJN3RR548R,23/10/2020 18:53,23/10/2020 18:53,Pay Bill from 254723737647 - BRIAN MANGADE Acc. V51,Completed,200,,15500,TRUE,Pay Utility,254723737647 - BRIAN MANGADE,,V51
OJN5RQ9AXF,23/10/2020 18:40,23/10/2020 18:40,Pay Bill from 254797665088 - INNOCENT WANAMI Acc. v2,Completed,1300,,15300,TRUE,Pay Utility,254797665088 - INNOCENT WANAMI,,v2
OJN1RM44SB,23/10/2020 17:27,23/10/2020 17:27,Pay Bill from 254724364316 - LINET MWENDIA Acc. KEJ,Completed,1200,,14000,TRUE,Pay Utility,254724364316 - LINET MWENDIA,,KEJ
OJN0RLAVPG,23/10/2020 17:11,23/10/2020 17:10,Pay Bill from 254727648419 - ABDISALAN AHMED Acc. Jbh ,Completed,400,,12800,TRUE,Pay Utility with OD via STK,254727648419 - ABDISALAN AHMED,,Jbh
OJN9RF53UT,23/10/2020 14:48,23/10/2020 14:48,Pay Bill Online from 254722705077 - ROSALID WAMBUI NJOROGE Acc. FDD,Completed,200,,12400,TRUE,Pay Bill Online,254722705077 - ROSALID WAMBUI NJOROGE,,FDD
OJN9RA7H8P,23/10/2020 12:42,23/10/2020 12:42,Pay Bill from 254700890378 - MERCY KIMORI Acc. FAA,Completed,1400,,12200,TRUE,Pay Utility,254700890378 - MERCY KIMORI,,FAA
OJN6R7MDUW,23/10/2020 11:34,23/10/2020 11:34,Pay Bill from 0794446314 - Vincent Omondi Munjal Acc. jdc,Completed,200,,10800,TRUE,Pay Utility,0794446314 - Vincent Omondi Munjal,,jdc
OJN5R5S74J,23/10/2020 10:46,23/10/2020 10:46,Pay Bill from 254712305555 - peris kiragu Acc. V17,Completed,600,,10600,TRUE,Pay Utility,254712305555 - peris kiragu,,V17
OJN9R52ICP,23/10/2020 10:27,23/10/2020 10:27,Pay Bill from 254705419958 - MOHAMED ABDALLA MOHAMED Acc. JCF,Completed,200,,10000,TRUE,Pay Utility,254705419958 - MOHAMED ABDALLA MOHAMED,,JCF
OJN3R2BTB3,23/10/2020 09:13,23/10/2020 09:13,Pay Bill from 0702322105 - hurry ibarasi madede Acc. HDG,Completed,1200,,9800,TRUE,Pay Utility,0702322105 - hurry ibarasi madede,,HDG
OJN3R00CAJ,23/10/2020 08:01,23/10/2020 08:01,Pay Bill from 0758826849 -  Norah Awala Anyango Acc. IDH,Completed,1400,,8600,TRUE,Pay Utility,0758826849 -  Norah Awala Anyango,,IDH
OJN4QY7J62,23/10/2020 06:37,23/10/2020 06:37,Pay Bill from 254717294709 - CAROLINE WAVINYA NDINDA Acc. V15,Completed,200,,7200,TRUE,Pay Utility,254717294709 - CAROLINE WAVINYA NDINDA,,V15
OJN7QXGJ67,23/10/2020 02:40,23/10/2020 02:40,Pay Bill Online from 254720451253 - JIMMY KIOGORA NKIROTE Acc. KBD,Completed,200,,7000,TRUE,Pay Bill Online,254720451253 - JIMMY KIOGORA NKIROTE,,KBD
OJM0QVQN7W,22/10/2020 22:00,22/10/2020 22:00,Pay Bill from 254798083394 - LYDIAH AWUOR OKELLO Acc. v34,Completed,400,,6800,TRUE,Pay Utility,254798083394 - LYDIAH AWUOR OKELLO,,v34
OJM6QUZ9VA,22/10/2020 21:32,22/10/2020 21:32,Pay Bill from 254725111246 - FRANCIS MWANGANGI Acc. IGI,Completed,400,,6400,TRUE,Pay Utility,254725111246 - FRANCIS MWANGANGI,,IGI
OJM1QTM347,22/10/2020 20:52,22/10/2020 20:52,Pay Bill from 254723981147 - GRACE NDUNGE Acc. fba,Completed,600,,6000,TRUE,Pay Utility,254723981147 - GRACE NDUNGE,,fba
OJM5QSNC5L,22/10/2020 20:29,22/10/2020 20:29,Pay Bill Online from 254724211857 - OCHUODHO OUMA Acc. KBK,Completed,1000,,5400,TRUE,Pay Bill Online,254724211857 - OCHUODHO OUMA,,KBK
OJM3QS54XH,22/10/2020 20:18,22/10/2020 20:18,Pay Bill from 254703624678 - Zacharia Gesora Omwoyo Acc. IGD,Completed,200,,4400,TRUE,Pay Utility with OD via STK,254703624678 - Zacharia Gesora Omwoyo,,IGD
OJM0QRW5JQ,22/10/2020 20:13,22/10/2020 20:13,Pay Bill from 254721315975 - JOSEPH NDEGWA Acc. H E B,Completed,1800,,4200,TRUE,Pay Utility,254721315975 - JOSEPH NDEGWA,,H
OJM6QRILNG,22/10/2020 20:05,22/10/2020 20:05,Pay Bill Online from 0757699775 - BENARD MUIA MUTUA Acc. HCB,Completed,1200,,2400,TRUE,Pay Bill Online,0757699775 - BENARD MUIA MUTUA,,HCB
OJM0QQUJNG,22/10/2020 19:52,22/10/2020 19:52,Pay Bill from 254707049818 - LUCKY TSUMA Acc. V19,Completed,400,,1200,TRUE,Pay Utility,254707049818 - LUCKY TSUMA,,V19
OJM6QQTVI6,22/10/2020 19:52,22/10/2020 19:52,Pay Bill from 254729279767 - ZAKAYO KIMUTAI A NGENO Acc. DFA,Completed,800,,800,TRUE,Pay Utility,254729279767 - ZAKAYO KIMUTAI A NGENO,,DFA
OJM5QQ591D,22/10/2020 19:40,22/10/2020 19:40,Utility Account to Organization Settlement Account,Completed,,-12300,0,TRUE,Utility Account to Organization Settlement Account,846783 - ANCIENT WELLS LTD 4,,
OJM8QPI0PE,22/10/2020 19:30,22/10/2020 19:30,Pay Bill from 254705546387 - MICAH KAMIDI Acc. JGJ,Completed,400,,12300,TRUE,Pay Utility,254705546387 - MICAH KAMIDI,,JGJ
OJM9QPGMD7,22/10/2020 19:29,22/10/2020 19:29,Pay Bill from 254726337163 - HALIMA ALI HASSAN Acc. DDA,Completed,200,,11900,TRUE,Pay Utility,254726337163 - HALIMA ALI HASSAN,,DDA
OJM4QOPPFY,22/10/2020 19:17,22/10/2020 19:17,Pay Bill from 254720249209 - WILFRED NJUGUNA WANJIRI Acc. DDD,Completed,1200,,11700,TRUE,Pay Utility,254720249209 - WILFRED NJUGUNA WANJIRI,,DDD
OJM3QOK2WT,22/10/2020 19:15,22/10/2020 19:15,Pay Bill from 254729160700 - MICAH NDUNGI Acc. HFE,Completed,400,,10500,TRUE,Pay Utility,254729160700 - MICAH NDUNGI,,HFE
OJM8Q49OCI,22/10/2020 11:46,22/10/2020 11:46,Pay Bill from 254726337163 - HALIMA ALI HASSAN Acc. DDA,Completed,200,,10100,TRUE,Pay Utility,254726337163 - HALIMA ALI HASSAN,,DDA
OJL9P0Q5P3,21/10/2020 11:36,21/10/2020 11:36,Pay Bill from 254721115404 - Justine Fayuma Okwemba Acc. HAA,Completed,1000,,9900,TRUE,Pay Utility with OD via STK,254721115404 - Justine Fayuma Okwemba,,HAA
