Receipt No.,Completion Time,Initiation Time,Details,Transaction Status,Paid In,Withdrawn,Balance,Balance Confirmed,Reason Type,Other Party Info,Linked Transaction ID,A/C No.
PCH9RWXVJ7,17/03/2021 12:42,17/03/2021 12:42,Pay Bill Online from 254703176849 - ROYAL MUYA Acc. F2,Completed,4400,,4400,TRUE,Pay Utility with OD Online,254703176849 - ROYAL MUYA,,F2
PCG5QTCJF9,16/03/2021 15:13,16/03/2021 15:13,Utility Account to Organization Settlement Account,Completed,,-15000,0,TRUE,Utility Account to Organization Settlement Account,887075 - ANCIENT WELLS LTD 3,,
PCF8Q313JQ,15/03/2021 20:52,15/03/2021 20:52,Pay Bill Online from 254720062144 - CAROLINE AMONDI OKELO Acc. f4,Completed,15000,,15000,TRUE,Pay Utility with OD Online,254720062144 - CAROLINE AMONDI OKELO,,f4
