Receipt No.,Completion Time,Initiation Time,Details,Transaction Status,Paid In,Withdrawn,Balance,Balance Confirmed,Reason Type,Other Party Info,Linked Transaction ID,A/C No.
QL77L9QWDB,07/12/2022 12:34,07/12/2022 12:34,Pay Bill from 254715742045 - FRIDAH KIEMA Acc. HGC,Completed,9500,,31500,TRUE,Pay Utility with OD via STK,254715742045 - FRIDAH KIEMA,,HGC
QL72L8XJ7Y,07/12/2022 12:26,07/12/2022 12:26,Pay Bill from 254798524621 - MERCY CHESANG Acc. jcj,Completed,16000,,22000,TRUE,Pay Utility,254798524621 - MERCY CHESANG,,jcj
QL73L8T9BF,07/12/2022 12:25,07/12/2022 12:25,Pay Bill Online from 254715764212 - BANCE ISHEMINYE Acc. JFE ,Completed,6000,,6000,TRUE,Pay Bill Online,254715764212 - BANCE ISHEMINYE,,JFE
QL77L8ME6L,07/12/2022 12:23,07/12/2022 12:23,Utility Account to Organization Settlement Account,Completed,,-837390,0,TRUE,Utility Account to Organization Settlement Account,979524 - ANCIENT WELLS PROPERTY MANAGERS 2,,
QL75L7EV07,07/12/2022 12:11,07/12/2022 12:11,Pay Bill from 254707653264 - KELVIN MWANGI MUCHORI Acc. HDE,Completed,10500,,837390,TRUE,Pay Utility,254707653264 - KELVIN MWANGI MUCHORI,,HDE
QL73L23ARF,07/12/2022 11:17,07/12/2022 11:17,Pay Bill from 0722531422 - ANTHONY ITIMU MAINA Acc. JBD,Completed,12000,,826890,TRUE,Pay Utility,0722531422 - ANTHONY ITIMU MAINA,,JBD
QL76KUWUU4,07/12/2022 10:03,07/12/2022 10:03,Pay Bill Online from 0757699775 - BENARD MUIA MUTUA Acc. HCB,Completed,16000,,814890,TRUE,Pay Utility with OD Online,0757699775 - BENARD MUIA MUTUA,,HCB
QL78KTCXTK,07/12/2022 09:46,07/12/2022 09:46,Pay Bill from 0769118645 - kennedy kipkurui korir Acc. IGC,Completed,9000,,798890,TRUE,Pay Utility,0769118645 - kennedy kipkurui korir,,IGC
QL74KPHE7Q,07/12/2022 09:03,07/12/2022 09:03,Pay Bill from 254729450678 - GRACE NDUNGE Acc. fba,Completed,10000,,789890,TRUE,Pay Utility,254729450678 - GRACE NDUNGE,,fba
QL61K9ONS7,06/12/2022 23:00,06/12/2022 23:00,Pay Bill from 254701528627 - TURGAY ELDEN Acc.  BB ,Completed,16000,,779890,TRUE,Pay Utility,254701528627 - TURGAY ELDEN,,
QL64K8FXU8,06/12/2022 22:33,06/12/2022 22:33,Pay Bill Online from 254711562428 - Lionel Mutune Muoka Acc. KDI,Completed,11000,,763890,TRUE,Pay Bill Online,254711562428 - Lionel Mutune Muoka,,KDI
QL63K40P8V,06/12/2022 21:34,06/12/2022 21:34,Pay Bill Online from 254722521028 - CHARLES MONYONCHO Acc. JDA,Completed,20000,,752890,TRUE,Pay Bill Online,254722521028 - CHARLES MONYONCHO,,JDA
QL68K0T0D6,06/12/2022 21:04,06/12/2022 21:04,"Pay Bill from 254710110273 - AGNES NTOITI Acc. JBB

",Completed,90,,732890,TRUE,Pay Utility,254710110273 - AGNES NTOITI,,"JBB

"
QL64JYJRPU,06/12/2022 20:45,06/12/2022 20:45,"Pay Bill from 254710110273 - AGNES NTOITI Acc. JBB



",Completed,10800,,732800,TRUE,Pay Utility,254710110273 - AGNES NTOITI,,"JBB



"
QL68JPXO0W,06/12/2022 19:39,06/12/2022 19:39,Pay Bill Online from 254722728975 - CURTIS MRIGA OMIDO Acc. IAH,Completed,16000,,722000,TRUE,Pay Bill Online,254722728975 - CURTIS MRIGA OMIDO,,IAH
QL68JMHJDS,06/12/2022 19:18,06/12/2022 19:18,Pay Bill from 254724201046 - GIDEON NDOLO Acc. KFH,Completed,10000,,706000,TRUE,Pay Utility,254724201046 - GIDEON NDOLO,,KFH
QL65JJDDXD,06/12/2022 18:58,06/12/2022 18:58,Pay Bill Online from 254792187144 - HASSAN AHMED HASSAN Acc. KGI,Completed,10000,,696000,TRUE,Pay Bill Online,254792187144 - HASSAN AHMED HASSAN,,KGI
QL65JHEW8Z,06/12/2022 18:46,06/12/2022 18:46,Pay Bill from 254796069018 - PEACE KIMEU Acc. JAH,Completed,16000,,686000,TRUE,Pay Utility,254796069018 - PEACE KIMEU,,JAH
QL64JDO46I,06/12/2022 18:20,06/12/2022 18:20,Pay Bill Online from 254715892656 - DENNIS MUSYOKA MUOKI Acc. kfa,Completed,14000,,670000,TRUE,Pay Bill Online,254715892656 - DENNIS MUSYOKA MUOKI,,kfa
QL68J8EE0I,06/12/2022 17:41,06/12/2022 17:41,Pay Bill Online from 0724386624 - FATUMA ISSE YUSSUF Acc. FAB,Completed,16000,,656000,TRUE,Pay Utility with OD Online,0724386624 - FATUMA ISSE YUSSUF,,FAB
QL61J5NAGX,06/12/2022 17:20,06/12/2022 17:20,Pay Bill Online from 254723901777 - EVANS YEBEI Acc. KCH,Completed,10000,,640000,TRUE,Pay Utility with OD Online,254723901777 - EVANS YEBEI,,KCH
QL65J40CT1,06/12/2022 17:07,06/12/2022 17:07,Pay Bill from 254720931007 - BRENDA NASIMIYU NYONGESA Acc. KAB,Completed,16000,,630000,TRUE,Pay Utility,254720931007 - BRENDA NASIMIYU NYONGESA,,KAB
QL60IZL7JU,06/12/2022 16:28,06/12/2022 16:28,Pay Bill from 254726732160 - CATHERINE MBETI Acc. kfi,Completed,12000,,614000,TRUE,Pay Utility,254726732160 - CATHERINE MBETI,,kfi
QL66IWA3UI,06/12/2022 15:58,06/12/2022 15:58,Pay Bill from 254722136450 - MARY EVERLYN Acc. JAI,Completed,20000,,602000,TRUE,Pay Utility,254722136450 - MARY EVERLYN,,JAI
QL60IV5WDQ,06/12/2022 15:48,06/12/2022 15:48,Pay Bill from 254729355933 - FELISTAH NJERI WAIRIMU Acc. IDI,Completed,15000,,582000,TRUE,Pay Utility,254729355933 - FELISTAH NJERI WAIRIMU,,IDI
QL68IT7WH0,06/12/2022 15:29,06/12/2022 15:29,Pay Bill from 254725111246 - FRANCIS MUUTU MWANGANGI Acc. IGI,Completed,15000,,567000,TRUE,Pay Utility,254725111246 - FRANCIS MUUTU MWANGANGI,,IGI
QL67IKT9T7,06/12/2022 14:10,06/12/2022 14:10,Pay Bill from 254717801919 - MARCELINE AKINYI Acc. IAF,Completed,10000,,552000,TRUE,Pay Utility,254717801919 - MARCELINE AKINYI,,IAF
QL67IJYPIX,06/12/2022 14:02,06/12/2022 14:02,Pay Bill Online from 254712040302 - EMMANUEL MWARO BARASA Acc. KEA,Completed,16000,,542000,TRUE,Pay Bill Online,254712040302 - EMMANUEL MWARO BARASA,,KEA
QL61IJV7A1,06/12/2022 14:01,06/12/2022 14:01,Pay Bill from 254798643998 - Judith Mwaniki Acc. kce,Completed,10000,,526000,TRUE,Pay Utility,254798643998 - Judith Mwaniki,,kce
QL62IBTG0I,06/12/2022 12:47,06/12/2022 12:47,Pay Bill Online from 254710732381 - JANE ACHIENG MBEKE Acc. HAF,Completed,10000,,516000,TRUE,Pay Bill Online,254710732381 - JANE ACHIENG MBEKE,,HAF
QL68IABRLG,06/12/2022 12:33,06/12/2022 12:33,Pay Bill from 254715591919 - JOHN O OCHIENG Acc. JFA,Completed,10000,,506000,TRUE,Pay Utility,254715591919 - JOHN O OCHIENG,,JFA
QL68I6XLCS,06/12/2022 12:00,06/12/2022 12:00,Pay Bill from 254700198550 - BENARD ONYANGO Acc. DBB,Completed,16000,,496000,TRUE,Pay Utility,254700198550 - BENARD ONYANGO,,DBB
QL62HUI6GA,06/12/2022 09:58,06/12/2022 09:58,Pay Bill from 254723017892 - JUDY MUTHEU Acc. ICI,Completed,16000,,480000,TRUE,Pay Utility,254723017892 - JUDY MUTHEU,,ICI
QL61HPNACT,06/12/2022 09:08,06/12/2022 09:08,Pay Bill from 254799520265 - SYLVIA KIRINGA NJERI Acc. IAD,Completed,9500,,464000,TRUE,Pay Utility,254799520265 - SYLVIA KIRINGA NJERI,,IAD
QL64HMS3FE,06/12/2022 08:37,06/12/2022 08:37,Pay Bill Online from 254719134037 - KELVIN KITOO Acc. FAA,Completed,16000,,454500,TRUE,Pay Bill Online,254719134037 - KELVIN KITOO,,FAA
QL62HJQBUY,06/12/2022 08:03,06/12/2022 08:03,Pay Bill from 0791379873 - Joseph Kyalo Sila Acc. HAH,Completed,16000,,438500,TRUE,Pay Utility with OD via STK,0791379873 - Joseph Kyalo Sila,,HAH
QL63HJ6MBD,06/12/2022 07:56,06/12/2022 07:56,Pay Bill from 254723488259 - WILSON OKITE OKITE Acc. HCA,Completed,15000,,422500,TRUE,Pay Utility,254723488259 - WILSON OKITE OKITE,,HCA
QL60HIWD4G,06/12/2022 07:53,06/12/2022 07:53,Pay Bill Online from 254720381965 - JAMES NGUGI MWANIKI Acc. JBI,Completed,20000,,407500,TRUE,Pay Bill Online,254720381965 - JAMES NGUGI MWANIKI,,JBI
QL62HDCPYQ,06/12/2022 06:09,06/12/2022 06:09,Pay Bill from 254714710944 - MERCY NDUNG'U Acc. hff,Completed,10000,,387500,TRUE,Pay Utility,254714710944 - MERCY NDUNG'U,,hff
QL65HADDYX,06/12/2022 00:05,06/12/2022 00:05,Pay Bill from 0700221720 - Eunice Nasimiyu Webwana Acc. KAE,Completed,10000,,377500,TRUE,Pay Utility,0700221720 - Eunice Nasimiyu Webwana,,KAE
QL51H9O9LV,05/12/2022 23:36,05/12/2022 23:36,Pay Bill Online from 254727425310 - DENNIS KIPKOECH CHERUIYOT Acc. JAG,Completed,10000,,367500,TRUE,Pay Bill Online,254727425310 - DENNIS KIPKOECH CHERUIYOT,,JAG
QL52H9OAV6,05/12/2022 23:36,05/12/2022 23:36,Pay Bill Online from 254721714178 - PHANICE JEROTICH KIPTOO Acc. FBF,Completed,16000,,357500,TRUE,Pay Bill Online,254721714178 - PHANICE JEROTICH KIPTOO,,FBF
QL53H9HZ69,05/12/2022 23:30,05/12/2022 23:30,Pay Bill Online from 254715002789 - ERICK NGUGI MAINA Acc. HAG,Completed,16000,,341500,TRUE,Pay Bill Online,254715002789 - ERICK NGUGI MAINA,,HAG
QL53H98VB7,05/12/2022 23:21,05/12/2022 23:21,Pay Bill from 254725478531 - KIPKORIR KUTO Acc. DFB,Completed,15000,,325500,TRUE,Pay Utility,254725478531 - KIPKORIR KUTO,,DFB
QL51H94V9L,05/12/2022 23:17,05/12/2022 23:17,Pay Bill Online from 254724821898 - ALLAN GISONI NYANGARESI Acc. DBA,Completed,16000,,310500,TRUE,Pay Bill Online,254724821898 - ALLAN GISONI NYANGARESI,,DBA
QL52H5LVDK,05/12/2022 22:09,05/12/2022 22:09,Pay Bill Online from 254714563486 - BRIAN MMATA MUSERA Acc. KBJ,Completed,16000,,294500,TRUE,Pay Bill Online,254714563486 - BRIAN MMATA MUSERA,,KBJ
QL53H4THFB,05/12/2022 22:00,05/12/2022 22:00,Pay Bill from 254700557767 - BAKHITA MWENDE MUANGE Acc. kcb,Completed,16000,,278500,TRUE,Pay Utility,254700557767 - BAKHITA MWENDE MUANGE,,kcb
QL50H3M88W,05/12/2022 21:46,05/12/2022 21:46,Pay Bill from 254113678329 - LESLIE NAINI KOIKAI Acc. IBD ,Completed,11000,,262500,TRUE,Pay Utility,254113678329 - LESLIE NAINI KOIKAI,,IBD
QL58H25E2S,05/12/2022 21:31,05/12/2022 21:31,Pay Bill from 0729469651 - NICHOLAS  MWANZIA  NTHENGE Acc. HBE,Completed,10500,,251500,TRUE,Pay Utility,0729469651 - NICHOLAS  MWANZIA  NTHENGE,,HBE
QL54H0N3HO,05/12/2022 21:17,05/12/2022 21:17,Pay Bill Online from 254718138578 - PAULINE KIOKO Acc. KFD,Completed,12000,,241000,TRUE,Pay Bill Online,254718138578 - PAULINE KIOKO,,KFD
QL54GSJR0O,05/12/2022 20:14,05/12/2022 20:14,Pay Bill from 0768727221 - ERICK FORESTER BUYUKA Acc. IAC,Completed,14500,,229000,TRUE,Pay Utility,0768727221 - ERICK FORESTER BUYUKA,,IAC
QL58GS9TFQ,05/12/2022 20:12,05/12/2022 20:12,Pay Bill from 254728084427 - MARY NABWIRE OKELLO Acc. FDF,Completed,16000,,214500,TRUE,Pay Utility,254728084427 - MARY NABWIRE OKELLO,,FDF
QL56GQN11Y,05/12/2022 20:02,05/12/2022 20:02,Pay Bill from 254702216907 - FAITH MUSA Acc. KBE ,Completed,10000,,198500,TRUE,Pay Utility,254702216907 - FAITH MUSA,,KBE
QL55GOZ7Q7,05/12/2022 19:51,05/12/2022 19:51,Pay Bill Online from 254718513411 - Michelle mwangi Acc. HAD,Completed,10000,,188500,TRUE,Pay Bill Online,254718513411 - Michelle mwangi,,HAD
QL59GHQMKN,05/12/2022 19:08,05/12/2022 19:08,Pay Bill from 254711163049 - OYUGI OCHIENG Acc. FCB,Completed,16000,,178500,TRUE,Pay Utility,254711163049 - OYUGI OCHIENG,,FCB
QL58G12MTS,05/12/2022 17:18,05/12/2022 17:18,Pay Bill from 0707581625 - ALICE WANGUI GITAU Acc. HEF,Completed,11000,,162500,TRUE,Pay Utility,0707581625 - ALICE WANGUI GITAU,,HEF
QL51FZ2DH9,05/12/2022 17:03,05/12/2022 17:03,Pay Bill from 254715636579 - GRACE KALUKI MULI Acc. FDA,Completed,6000,,151500,TRUE,Pay Utility,254715636579 - GRACE KALUKI MULI,,FDA
QL55FWEJXH,05/12/2022 16:42,05/12/2022 16:42,Pay Bill from 254724477912 - SAMUEL MURIMI Acc. HCD,Completed,10000,,145500,TRUE,Pay Utility,254724477912 - SAMUEL MURIMI,,HCD
QL57FT2XNP,05/12/2022 16:15,05/12/2022 16:15,Pay Bill from 254725771056 - CHARLES MURAGURI Acc. FCE,Completed,15000,,135500,TRUE,Pay Utility,254725771056 - CHARLES MURAGURI,,FCE
QL57FQJ6ER,05/12/2022 15:53,05/12/2022 15:53,Pay Bill Online from 254721974995 - BERNICE MANGOKA Acc. KFK,Completed,16000,,120500,TRUE,Pay Bill Online,254721974995 - BERNICE MANGOKA,,KFK
QL51FMZJ1T,05/12/2022 15:22,05/12/2022 15:22,Pay Bill from 254700518930 - RENE EMMANUEL AURA Acc. fbd,Completed,11000,,104500,TRUE,Pay Utility with OD via STK,254700518930 - RENE EMMANUEL AURA,,fbd
QL53FGE5KD,05/12/2022 14:22,05/12/2022 14:22,Pay Bill from 254705902606 - JOSEPH OTIENO SAGWA Acc. fed,Completed,35000,,93500,TRUE,Pay Utility,254705902606 - JOSEPH OTIENO SAGWA,,fed
QL55FG18BT,05/12/2022 14:19,05/12/2022 14:19,Pay Bill from 254721784820 - YVONNE OKELLO Acc. KGC ,Completed,9000,,58500,TRUE,Pay Utility,254721784820 - YVONNE OKELLO,,KGC
QL52F8I8SK,05/12/2022 13:14,05/12/2022 13:14,Pay Bill from 0792933158 - mary wamaitha maina Acc. DGD,Completed,34500,,49500,TRUE,Pay Utility,0792933158 - mary wamaitha maina,,DGD
QL54F1R3D0,05/12/2022 12:15,05/12/2022 12:15,Pay Bill from 254702190887 - Nax Ochieng Acc. FDE,Completed,15000,,15000,TRUE,Pay Utility,254702190887 - Nax Ochieng,,FDE
QL50F03QII,05/12/2022 11:59,05/12/2022 11:59,Utility Account to Organization Settlement Account,Completed,,-446490,0,TRUE,Utility Account to Organization Settlement Account,979524 - ANCIENT WELLS PROPERTY MANAGERS 2,,
QL59ESTYHH,05/12/2022 10:49,05/12/2022 10:49,Pay Bill from 254716881682 - JUSTINE FAYUMA OKWEMBA Acc. HAA,Completed,17000,,446490,TRUE,Pay Utility,254716881682 - JUSTINE FAYUMA OKWEMBA,,HAA
QL56ESJ10E,05/12/2022 10:47,05/12/2022 10:47,Pay Bill from 254704111133 - ELVIS OTIENO Acc. HFD,Completed,990,,429490,TRUE,Pay Utility,254704111133 - ELVIS OTIENO,,HFD
QL58EORXWS,05/12/2022 10:11,05/12/2022 10:11,Pay Bill Online from 254721465713 - RHODA WAMBUI MWANGI Acc. Jfh,Completed,17000,,428500,TRUE,Pay Bill Online,254721465713 - RHODA WAMBUI MWANGI,,Jfh
QL53ENXOEZ,05/12/2022 10:03,05/12/2022 10:03,Pay Bill Online from 254717809935 - LYDIAH WERU Acc. IEF,Completed,11000,,411500,TRUE,Pay Bill Online,254717809935 - LYDIAH WERU,,IEF
QL55EFMPCR,05/12/2022 08:40,05/12/2022 08:40,Pay Bill from 254743243622 - fridah waeni muithya Acc. JEH,Completed,16000,,400500,TRUE,Pay Utility,254743243622 - fridah waeni muithya,,JEH
QL58E9MUTE,05/12/2022 07:34,05/12/2022 07:34,Pay Bill from 0742461415 - MUHINDI FRANCIS MULINYA Acc. HGG,Completed,15000,,384500,TRUE,Pay Utility,0742461415 - MUHINDI FRANCIS MULINYA,,HGG
QL59E859KN,05/12/2022 07:14,05/12/2022 07:14,Pay Bill from 254729160700 - MICAH NDUNGI Acc. HFE,Completed,10500,,369500,TRUE,Pay Utility,254729160700 - MICAH NDUNGI,,HFE
QL58E562N8,05/12/2022 06:10,05/12/2022 06:10,Pay Bill Online from 254714855708 - KIPLANGAT SITIENEI Acc. FAE,Completed,16000,,359000,TRUE,Pay Bill Online,254714855708 - KIPLANGAT SITIENEI,,FAE
QL49DYNDF1,04/12/2022 23:09,04/12/2022 23:09,Pay Bill from 254728670882 - SHARAD EDWARD ADALA OLUM Acc. KCK,Completed,15000,,343000,TRUE,Pay Utility,254728670882 - SHARAD EDWARD ADALA OLUM,,KCK
QL49DXGS3V,04/12/2022 22:47,04/12/2022 22:47,Pay Bill from 254725062550 - FRANKLINE MASSAM Acc. KAF,Completed,10000,,328000,TRUE,Pay Utility,254725062550 - FRANKLINE MASSAM,,KAF
QL44DCWC8M,04/12/2022 19:31,04/12/2022 19:31,Pay Bill Online from 254706144834 - WILKISTER OSUMO Acc. HFB,Completed,15000,,318000,TRUE,Pay Bill Online,254706144834 - WILKISTER OSUMO,,HFB
QL40D6UQL4,04/12/2022 18:52,04/12/2022 18:52,Pay Bill Online from 254723411873 - FREDRICK CHERUIYOT Acc. jbf,Completed,8000,,303000,TRUE,Pay Bill Online,254723411873 - FREDRICK CHERUIYOT,,jbf
QL45CZOSLZ,04/12/2022 17:59,04/12/2022 17:59,Pay Bill from 254719398942 - NORAH WAYUA MUNYAO Acc. KDA,Completed,16000,,295000,TRUE,Pay Utility,254719398942 - NORAH WAYUA MUNYAO,,KDA
QL47CCO6NP,04/12/2022 14:41,04/12/2022 14:41,Pay Bill from 254706891099 - MARGARET WAIRIMU GITAU Acc. HED,Completed,10000,,279000,TRUE,Pay Utility,254706891099 - MARGARET WAIRIMU GITAU,,HED
QL49C390UZ,04/12/2022 13:16,04/12/2022 13:16,Pay Bill from 0720599684 - CHEMUTAI   JACKLINE Acc. KGD,Completed,14000,,269000,TRUE,Pay Utility,0720599684 - CHEMUTAI   JACKLINE,,KGD
QL47C1GR2T,04/12/2022 12:57,04/12/2022 12:57,Pay Bill from 254720978285 - PETER KYALO KIIO Acc. DBD,Completed,20000,,255000,TRUE,Pay Utility,254720978285 - PETER KYALO KIIO,,DBD
QL45BIBPVJ,04/12/2022 09:35,04/12/2022 09:35,Pay Bill from 254720329895 - BEATRICE KIMINZA MUNYOKI Acc. KEJ,Completed,10000,,235000,TRUE,Pay Utility,254720329895 - BEATRICE KIMINZA MUNYOKI,,KEJ
QL48BI1YO0,04/12/2022 09:33,04/12/2022 09:33,Pay Bill from 254714060203 - PATRICK MWANGOMBE MSAWUCHI Acc. KEI,Completed,12000,,225000,TRUE,Pay Utility,254714060203 - PATRICK MWANGOMBE MSAWUCHI,,KEI
QL46B4ZBDC,04/12/2022 06:54,04/12/2022 06:54,Pay Bill from 254722444622 - CHARITY KAGWAINI Acc. ffd,Completed,11000,,213000,TRUE,Pay Utility,254722444622 - CHARITY KAGWAINI,,ffd
QL46B2MGS2,04/12/2022 05:36,04/12/2022 05:36,Pay Bill from 0743789968 - Dallias Thanare Githara Acc. hbb,Completed,5000,,202000,TRUE,Pay Utility,0743789968 - Dallias Thanare Githara,,hbb
QL47B1JG5P,04/12/2022 03:47,04/12/2022 03:47,Pay Bill from 254742270901 - FRACIS MULI KIAMBA Acc. FDA,Completed,10000,,197000,TRUE,Pay Utility,254742270901 - FRACIS MULI KIAMBA,,FDA
QL45B0QB43,04/12/2022 02:37,04/12/2022 02:37,Pay Bill from 254703935626 - DAVID NGARI ITA Acc. FCD,Completed,2000,,187000,TRUE,Pay Utility with OD via STK,254703935626 - DAVID NGARI ITA,,FCD
QL36ANEQ0S,03/12/2022 21:54,03/12/2022 21:54,Pay Bill Online from 254726001437 - FESTUS MUNYIRI MAINA Acc. IFF,Completed,10000,,185000,TRUE,Pay Bill Online,254726001437 - FESTUS MUNYIRI MAINA,,IFF
QL34ADXQXY,03/12/2022 20:32,03/12/2022 20:32,Pay Bill from 0724110456 - Fredrick Otieno Onege Acc. ICH,Completed,16000,,175000,TRUE,Pay Utility,0724110456 - Fredrick Otieno Onege,,ICH
QL31AAO1UB,03/12/2022 20:09,03/12/2022 20:09,Pay Bill Online from 254704934557 - BAKARI KITSAKA Acc. HDG,Completed,15000,,159000,TRUE,Pay Bill Online,254704934557 - BAKARI KITSAKA,,HDG
QL36A3CK42,03/12/2022 19:23,03/12/2022 19:23,Pay Bill from 254741223822 - Rhoyce Kiptarus Boiyo Acc. FEC,Completed,9000,,144000,TRUE,Pay Utility with OD via STK,254741223822 - Rhoyce Kiptarus Boiyo,,FEC
QL399MO4TB,03/12/2022 17:31,03/12/2022 17:31,Pay Bill from 0797268984 - MARY MUKELI KIMEU Acc. KBC,Completed,21000,,135000,TRUE,Pay Utility,0797268984 - MARY MUKELI KIMEU,,KBC
QL399MLJ17,03/12/2022 17:30,03/12/2022 17:30,Pay Bill from 254796848496 - IVY WITABA Acc. JBA,Completed,10000,,114000,TRUE,Pay Utility,254796848496 - IVY WITABA,,JBA
QL3897VP7Y,03/12/2022 15:26,03/12/2022 15:26,Pay Bill from 254723929380 - RHODAH K WAMBUA Acc. HEG,Completed,10000,,104000,TRUE,Pay Utility,254723929380 - RHODAH K WAMBUA,,HEG
QL3090YK6Q,03/12/2022 14:25,03/12/2022 14:25,Pay Bill Online from 254718233980 - KAREN ASWANI Acc. HEC,Completed,10500,,94000,TRUE,Pay Bill Online,254718233980 - KAREN ASWANI,,HEC
QL3690Y41S,03/12/2022 14:25,03/12/2022 14:25,Pay Bill Online from 254729796719 - JACINTA WANJIKU NJERI Acc. FFF,Completed,17000,,83500,TRUE,Pay Bill Online,254729796719 - JACINTA WANJIKU NJERI,,FFF
QL3390KKYZ,03/12/2022 14:22,03/12/2022 14:22,Pay Bill Online from 0757319222 - ATEM KUOL JOHN BOL Acc. FAC,Completed,9500,,66500,TRUE,Pay Bill Online,0757319222 - ATEM KUOL JOHN BOL,,FAC
QL368XIC0A,03/12/2022 13:56,03/12/2022 13:56,Pay Bill Online from 0711117122 - Yassir Mwinyi Abdulrazaq Acc. ICE,Completed,7000,,57000,TRUE,Pay Bill Online,0711117122 - Yassir Mwinyi Abdulrazaq,,ICE
QL328MKUZC,03/12/2022 12:23,03/12/2022 12:23,Pay Bill from 0706563358 - HARRIET NYANCHAMA NYABERI Acc. FCC,Completed,9000,,50000,TRUE,Pay Utility,0706563358 - HARRIET NYANCHAMA NYABERI,,FCC
QL338M4QCB,03/12/2022 12:19,03/12/2022 12:19,Pay Bill from 254722826454 - CHARLES KARIMI MAITAI Acc. KDC Keila,Completed,10000,,41000,TRUE,Pay Utility,254722826454 - CHARLES KARIMI MAITAI,,KDC
QL338A73Y1,03/12/2022 10:33,03/12/2022 10:33,Pay Bill Online from 254718663397 - JIMMY MUNYAO NZIOKI Acc. DCB,Completed,16000,,31000,TRUE,Pay Bill Online,254718663397 - JIMMY MUNYAO NZIOKI,,DCB
QL328846D8,03/12/2022 10:14,03/12/2022 10:14,Pay Bill Online from 254725218904 - SALOME MUTHONI MWANGI Acc. KFJ,Completed,15000,,15000,TRUE,Pay Bill Online,254725218904 - SALOME MUTHONI MWANGI,,KFJ
QL3080MQ5Y,03/12/2022 09:03,03/12/2022 09:03,Utility Account to Organization Settlement Account,Completed,,-289000,0,TRUE,Utility Account to Organization Settlement Account,979524 - ANCIENT WELLS PROPERTY MANAGERS 2,,
QL387X7AI8,03/12/2022 08:28,03/12/2022 08:28,Pay Bill from 254712974871 - PAULA WANJIKU GATUI Acc. hea,Completed,16000,,289000,TRUE,Pay Utility,254712974871 - PAULA WANJIKU GATUI,,hea
QL347T0LYS,03/12/2022 07:36,03/12/2022 07:36,Pay Bill Online from 254715764212 - BANCE ISHEMINYE Acc. JFE ,Completed,3000,,273000,TRUE,Pay Bill Online,254715764212 - BANCE ISHEMINYE,,JFE
QL347IR24G,03/12/2022 00:06,03/12/2022 00:06,Pay Bill from 254703935626 - DAVID NGARI ITA Acc. FCD,Completed,2000,,270000,TRUE,Pay Utility,254703935626 - DAVID NGARI ITA,,FCD
QL2979MM6D,02/12/2022 21:36,02/12/2022 21:36,Pay Bill Online from 254710202776 - KELVIN KARIMI MACHARIA Acc. FAD,Completed,11000,,268000,TRUE,Pay Bill Online,254710202776 - KELVIN KARIMI MACHARIA,,FAD
QL2177B0ND,02/12/2022 21:14,02/12/2022 21:14,Pay Bill Online from 254721417560 - ANDREW SANDE Acc. JBJ,Completed,16000,,257000,TRUE,Pay Bill Online,254721417560 - ANDREW SANDE,,JBJ
QL2476WD5Q,02/12/2022 21:10,02/12/2022 21:10,Pay Bill from 254724862849 - Ann Fresiah Kinyua Acc. HDA,Completed,16000,,241000,TRUE,Pay Utility with OD via STK,254724862849 - Ann Fresiah Kinyua,,HDA
QL24744Q0I,02/12/2022 20:47,02/12/2022 20:47,Pay Bill Online from 254720696119 - DUNCAN OMONDI OKETCH Acc. IAG,Completed,9000,,225000,TRUE,Pay Bill Online,254720696119 - DUNCAN OMONDI OKETCH,,IAG
QL24720M5I,02/12/2022 20:31,02/12/2022 20:31,Pay Bill Online from 0722255105 - SALIM OMAR MZEE Acc. FGF,Completed,16000,,216000,TRUE,Pay Bill Online,0722255105 - SALIM OMAR MZEE,,FGF
QL296OJU1J,02/12/2022 19:01,02/12/2022 19:01,Pay Bill from 254719747910 - KEVIN NDERITU GAKINGO Acc. iDD,Completed,11000,,200000,TRUE,Pay Utility,254719747910 - KEVIN NDERITU GAKINGO,,iDD
QL246L1EJI,02/12/2022 18:38,02/12/2022 18:38,Pay Bill from 254724852503 - GEOFREY YEGO Acc. JFF,Completed,10000,,189000,TRUE,Pay Utility,254724852503 - GEOFREY YEGO,,JFF
QL206L0WRE,02/12/2022 18:38,02/12/2022 18:38,Pay Bill from 254723328258 - SAMUEL MAINA MURIUKI Acc. IFE,Completed,8000,,179000,TRUE,Pay Utility,254723328258 - SAMUEL MAINA MURIUKI,,IFE
QL246JRU6Q,02/12/2022 18:29,02/12/2022 18:29,Pay Bill Online from 254716784364 - Wendy Kemunto Nyandiko Acc. ffc,Completed,9000,,171000,TRUE,Pay Bill Online,254716784364 - Wendy Kemunto Nyandiko,,ffc
QL296HUO7F,02/12/2022 18:15,02/12/2022 18:15,Pay Bill Online from 254706549634 - CLINTON OMBASA Acc. FDB,Completed,10000,,162000,TRUE,Pay Bill Online,254706549634 - CLINTON OMBASA,,FDB
QL266CED6U,02/12/2022 17:35,02/12/2022 17:35,Pay Bill Online from 254728055159 - LEE NDUATI FRANCIS Acc. FEF,Completed,16000,,152000,TRUE,Pay Bill Online,254728055159 - LEE NDUATI FRANCIS,,FEF
QL2963BSGF,02/12/2022 16:21,02/12/2022 16:21,Pay Bill from 254726753273 - JESSE K MURIRMI NJERU Acc. HCH,Completed,17000,,136000,TRUE,Pay Utility,254726753273 - JESSE K MURIRMI NJERU,,HCH
QL235ZCWL3,02/12/2022 15:46,02/12/2022 15:46,Pay Bill from 254711706815 - NAOMI WANYONYI Acc. KBA,Completed,12000,,119000,TRUE,Pay Utility,254711706815 - NAOMI WANYONYI,,KBA
QL295X5N6H,02/12/2022 15:26,02/12/2022 15:26,Pay Bill from 0757604316 - MOHAMED AYUB MUCHEKE Acc. FCA,Completed,6000,,107000,TRUE,Pay Utility,0757604316 - MOHAMED AYUB MUCHEKE,,FCA
QL265TPAQG,02/12/2022 14:55,02/12/2022 14:55,Pay Bill Online from 254702355678 - JOHN NJOROGE GICHERU Acc. ITE,Completed,10000,,101000,TRUE,Pay Bill Online,254702355678 - JOHN NJOROGE GICHERU,,ITE
QL225SFPK4,02/12/2022 14:43,02/12/2022 14:43,Pay Bill Online from 0720141407 - Felix Wanjala Wafula Acc. IEB,Completed,15000,,91000,TRUE,Pay Bill Online,0720141407 - Felix Wanjala Wafula,,IEB
QL255Q2Q8N,02/12/2022 14:22,02/12/2022 14:22,Pay Bill from 254723389177 - NELSON MOI Acc. ibf,Completed,4000,,76000,TRUE,Pay Utility,254723389177 - NELSON MOI,,ibf
QL295IYB29,02/12/2022 13:19,02/12/2022 13:19,Pay Bill Online from 254795510441 - LEWIS MUEMA Acc. KEB,Completed,16000,,72000,TRUE,Pay Bill Online,254795510441 - LEWIS MUEMA,,KEB
QL205ITW0G,02/12/2022 13:18,02/12/2022 13:18,Pay Bill from 254726599835 - LAWRENCE MURIITHI Acc. kdj,Completed,16000,,56000,TRUE,Pay Utility,254726599835 - LAWRENCE MURIITHI,,kdj
QL235FRE61,02/12/2022 12:49,02/12/2022 12:49,Pay Bill Online from 254706898046 - STACY AKETCH OCHUKA Acc. KGK,Completed,15000,,40000,TRUE,Pay Bill Online,254706898046 - STACY AKETCH OCHUKA,,KGK
QL205AWY2M,02/12/2022 12:04,02/12/2022 12:04,Pay Bill from 0715806956 - Mercy Jelagat Kalum Acc. FFE,Completed,15000,,25000,TRUE,Pay Utility,0715806956 - Mercy Jelagat Kalum,,FFE
QL2357GNM5,02/12/2022 11:32,02/12/2022 11:32,Pay Bill Online from 254700187806 - WINNIE OLIVIA AKOTH Acc. JEC,Completed,10000,,10000,TRUE,Pay Bill Online,254700187806 - WINNIE OLIVIA AKOTH,,JEC
QL2754R943,02/12/2022 11:06,02/12/2022 11:06,Utility Account to Organization Settlement Account,Completed,,-67500,0,TRUE,Utility Account to Organization Settlement Account,979524 - ANCIENT WELLS PROPERTY MANAGERS 2,,
QL2453YX54,02/12/2022 10:59,02/12/2022 10:59,Pay Bill from 254720176441 - JANE KEMUNTO Acc. FBC,Completed,9500,,67500,TRUE,Pay Utility,254720176441 - JANE KEMUNTO,,FBC
QL244XAOMG,02/12/2022 09:56,02/12/2022 09:56,Pay Bill from 254741573910 - VINCENT ODUOR OLIENG Acc. HBC,Completed,10000,,58000,TRUE,Pay Utility,254741573910 - VINCENT ODUOR OLIENG,,HBC
QL254SW7L3,02/12/2022 09:13,02/12/2022 09:13,Pay Bill from 254719499823 - MOSES MWANZIA MUTHIANI Acc. Jcc,Completed,10000,,48000,TRUE,Pay Utility with OD via STK,254719499823 - MOSES MWANZIA MUTHIANI,,Jcc
QL234NGX7P,02/12/2022 08:16,02/12/2022 08:16,Pay Bill from 254720550403 - GRACE WANGONDU Acc. jfi,Completed,20000,,38000,TRUE,Pay Utility,254720550403 - GRACE WANGONDU,,jfi
QL204IOJ8M,02/12/2022 07:19,02/12/2022 07:19,Pay Bill from 254791086424 - Martha Achieng Arodi Acc. FDC,Completed,9000,,18000,TRUE,Pay Utility,254791086424 - Martha Achieng Arodi,,FDC
QL1046GIAG,01/12/2022 23:21,01/12/2022 23:21,Pay Bill from 254708875278 - ROSEMARY WANJIRU KONYE Acc. HBF,Completed,9000,,9000,TRUE,Pay Utility,254708875278 - ROSEMARY WANJIRU KONYE,,HBF
QL1146BNTN,01/12/2022 23:19,01/12/2022 23:19,Utility Account to Organization Settlement Account,Completed,,-126000,0,TRUE,Utility Account to Organization Settlement Account,979524 - ANCIENT WELLS PROPERTY MANAGERS 2,,
QL173S6BWR,01/12/2022 20:34,01/12/2022 20:34,Pay Bill from 254723341864 - WILLIAM OSIEL WACHUDI Acc. DED,Completed,20000,,126000,TRUE,Pay Utility,254723341864 - WILLIAM OSIEL WACHUDI,,DED
QL193DATY5,01/12/2022 18:56,01/12/2022 18:56,Pay Bill from 254710239100 - PHILOMENA WOKI MUTHAMA Acc. KDK,Completed,17000,,106000,TRUE,Pay Utility,254710239100 - PHILOMENA WOKI MUTHAMA,,KDK
QL1835LFC2,01/12/2022 18:04,01/12/2022 18:04,Pay Bill from 254717148989 - ALLAN MUTHONI Acc. HAC,Completed,10000,,89000,TRUE,Pay Utility,254717148989 - ALLAN MUTHONI,,HAC
QL132WZCU7,01/12/2022 16:57,01/12/2022 16:57,Pay Bill from 0746934144 - Rosemary Wangui Muiruri Acc. ICD,Completed,3000,,79000,TRUE,Pay Utility,0746934144 - Rosemary Wangui Muiruri,,ICD
QL122V2XL8,01/12/2022 16:40,01/12/2022 16:40,Pay Bill from 254717063324 - Christine Murugi Nyaga Acc. KDF,Completed,10000,,76000,TRUE,Pay Utility,254717063324 - Christine Murugi Nyaga,,KDF
QL182U3GOS,01/12/2022 16:30,01/12/2022 16:30,Pay Bill from 254717726012 - WINFRED MUENI PETER Acc. IDA,Completed,16000,,66000,TRUE,Pay Utility,254717726012 - WINFRED MUENI PETER,,IDA
QL192RYQ23,01/12/2022 16:11,01/12/2022 16:11,Pay Bill from 254708570729 - MARY OGOLLA Acc. HOUSE NO.KAD,Completed,12000,,50000,TRUE,Pay Utility,254708570729 - MARY OGOLLA,,HOUSE
QL192RMPGH,01/12/2022 16:07,01/12/2022 16:07,Pay Bill from 254703528196 - ERIC GITONGA MUGO Acc. KGJ,Completed,30000,,38000,TRUE,Pay Utility,254703528196 - ERIC GITONGA MUGO,,KGJ
QL182E45QW,01/12/2022 13:54,01/12/2022 13:54,Pay Bill Online from 254742911013 - HANEST AMIMO Acc. IEG,Completed,8000,,8000,TRUE,Pay Utility with OD Online,254742911013 - HANEST AMIMO,,IEG
QL1728YPB7,01/12/2022 13:05,01/12/2022 13:05,Utility Account to Organization Settlement Account,Completed,,-88500,0,TRUE,Utility Account to Organization Settlement Account,979524 - ANCIENT WELLS PROPERTY MANAGERS 2,,
QL1928CMWD,01/12/2022 12:59,01/12/2022 12:59,Pay Bill from 254702152790 - Michelle Ndunge Kyalo Acc. IDE,Completed,8000,,88500,TRUE,Pay Utility,254702152790 - Michelle Ndunge Kyalo,,IDE
QL1523EKIX,01/12/2022 12:10,01/12/2022 12:10,Pay Bill from 254715591919 - JOHN O OCHIENG Acc. JFA,Completed,4500,,80500,TRUE,Pay Utility,254715591919 - JOHN O OCHIENG,,JFA
QL1821YOM0,01/12/2022 11:55,01/12/2022 11:55,Pay Bill Online from 254703180395 - JANE NYAGUTHII MWAGO Acc. IBE,Completed,8000,,76000,TRUE,Pay Bill Online,254703180395 - JANE NYAGUTHII MWAGO,,IBE
QL1620SYAW,01/12/2022 11:43,01/12/2022 11:43,Pay Bill Online from 254723394064 - ANDREW LAGAT Acc. HBG,Completed,16000,,68000,TRUE,Pay Bill Online,254723394064 - ANDREW LAGAT,,HBG
QL111SLS9J,01/12/2022 10:16,01/12/2022 10:16,Pay Bill Online from 254724005780 - IVY MARGARET OGOLA Acc. FFB,Completed,27000,,52000,TRUE,Pay Bill Online,254724005780 - IVY MARGARET OGOLA,,FFB
QL141OSKU6,01/12/2022 09:35,01/12/2022 09:35,Pay Bill from 254720407659 - FRANCIS CHUMO Acc. KDG,Completed,10000,,25000,TRUE,Pay Utility,254720407659 - FRANCIS CHUMO,,KDG
QL161LVLSE,01/12/2022 09:03,01/12/2022 09:03,Pay Bill Online from 254799696271 - CALVIN OCHIDO Acc. FEB,Completed,15000,,15000,TRUE,Pay Utility with OD Online,254799696271 - CALVIN OCHIDO,,FEB
QL191KTHS9,01/12/2022 08:51,01/12/2022 08:51,Utility Account to Organization Settlement Account,Completed,,-100500,0,TRUE,Utility Account to Organization Settlement Account,979524 - ANCIENT WELLS PROPERTY MANAGERS 2,,
QL151G6FFH,01/12/2022 07:57,01/12/2022 07:57,Pay Bill from 254713281251 - ERIC KIAMA Acc. JDI,Completed,20000,,100500,TRUE,Pay Utility,254713281251 - ERIC KIAMA,,JDI
QL161E97KA,01/12/2022 07:31,01/12/2022 07:31,Pay Bill Online from 254716011092 - BRIAN OPIYO OMONDI Acc. icb,Completed,16000,,80500,TRUE,Pay Bill Online,254716011092 - BRIAN OPIYO OMONDI,,icb
