Receipt No.,Completion Time,Initiation Time,Details,Transaction Status,Paid In,Withdrawn,Balance,Balance Confirmed,Reason Type,Other Party Info,Linked Transaction ID,A/C No.
RID4MOVU4I,13/09/2023 08:39,13/09/2023 08:39,Pay Bill from 254798524621 - MERCY CHESANG Acc. jcj,Completed,1400,,101700,TRUE,Pay Utility,254798524621 - MERCY CHESANG,,jcj
RID3MNED3N,13/09/2023 08:21,13/09/2023 08:21,Pay Bill from 254727095667 - HILDA JEPKEMOI KIMELIEL Acc. JBE,Completed,1000,,100300,TRUE,Pay Utility,254727095667 - HILDA JEPKEMOI KIMELIEL,,JBE
RIC3M31M5F,12/09/2023 21:13,12/09/2023 21:13,Pay Bill from 254791341895 - Enos Nyaosi Ayuma Acc. D5,Completed,400,,99300,TRUE,Pay Utility,254791341895 - Enos Nyaosi Ayuma,,D5
RIC2LIB9SA,12/09/2023 18:53,12/09/2023 18:53,Pay Bill from 254712091662 - BENARD OMONDI ROBY Acc. V16,Completed,400,,98900,TRUE,Pay Utility,254712091662 - BENARD OMONDI ROBY,,V16
RIC8L3AT9G,12/09/2023 17:05,12/09/2023 17:05,Pay Bill from 254724018163 - IRENE MUENI WILLY Acc. A4,Completed,1600,,98500,TRUE,Pay Utility,254724018163 - IRENE MUENI WILLY,,A4
RIC8K65G10,12/09/2023 11:48,12/09/2023 11:48,Pay Bill Online from 0740283700 - SERAH MUKULU MULILIA Acc. c4,Completed,1200,,96900,TRUE,Pay Bill Online,0740283700 - SERAH MUKULU MULILIA,,c4
RIC4JZC0EO,12/09/2023 10:40,12/09/2023 10:40,Pay Bill from 254710248036 - Allan Kimeu Mutua Acc. F5,Completed,400,,95700,TRUE,Pay Utility,254710248036 - Allan Kimeu Mutua,,F5
RIC5JJNE3H,12/09/2023 07:45,12/09/2023 07:45,Pay Bill Online from 254720086214 - SAMUEL WANJIKU Acc. B3,Completed,500,,95300,TRUE,Pay Bill Online,254720086214 - SAMUEL WANJIKU,,B3
RIB2J0AJ3Q,11/09/2023 20:58,11/09/2023 20:58,Pay Bill from 0742599061 - Judy Masese Samwel Acc. hgf,Completed,200,,94800,TRUE,Pay Utility,0742599061 - Judy Masese Samwel,,hgf
RIB3INYIDH,11/09/2023 19:32,11/09/2023 19:32,Pay Bill Online from 254718911865 - KENNEDY KELI KATUNGII Acc. HDF,Completed,1000,,94600,TRUE,Pay Utility with OD Online,254718911865 - KENNEDY KELI KATUNGII,,HDF
RIB2ICW5DC,11/09/2023 18:28,11/09/2023 18:28,Pay Bill from 254720466443 - FATUMA MOHAMED ABDALLAH Acc. V21,Completed,400,,93600,TRUE,Pay Utility,254720466443 - FATUMA MOHAMED ABDALLAH,,V21
RIB3I4YOAX,11/09/2023 17:32,11/09/2023 17:32,Pay Bill Online from 254720787158 - AMOS CHELANG'A Acc. KCG,Completed,10000,,93200,TRUE,Pay Bill Online,254720787158 - AMOS CHELANG'A,,KCG
RIB6I0UUBC,11/09/2023 16:59,11/09/2023 16:59,Pay Bill from 254726945691 - JAMES RAMTU Acc. B5,Completed,200,,83200,TRUE,Pay Utility with OD via STK,254726945691 - JAMES RAMTU,,B5
RIB8HVDMPK,11/09/2023 16:10,11/09/2023 16:10,Pay Bill Online from 254701196539 - GICHURI KARANJA Acc. fee,Completed,1400,,83000,TRUE,Pay Bill Online,254701196539 - GICHURI KARANJA,,fee
RIB3HRPGSF,11/09/2023 15:36,11/09/2023 15:36,Pay Bill from 0717441870 - Steven oduor ogutu Acc. KTA,Completed,1200,,81600,TRUE,Pay Utility,0717441870 - Steven oduor ogutu,,KTA
RIA8G6YBGU,10/09/2023 22:57,10/09/2023 22:57,Pay Bill Online from 254718233980 - KAREN ASWANI Acc. HEC,Completed,1000,,80400,TRUE,Pay Bill Online,254718233980 - KAREN ASWANI,,HEC
RIA2FJRZHO,10/09/2023 19:11,10/09/2023 19:11,Pay Bill from 254722136450 - MARY EVERLYN Acc. JAI,Completed,200,,79400,TRUE,Pay Utility,254722136450 - MARY EVERLYN,,JAI
RIA7F91FQ1,10/09/2023 17:56,10/09/2023 17:56,Pay Bill from 254792712192 - KELVIN MASIBO Acc. ICE,Completed,600,,79200,TRUE,Pay Utility,254792712192 - KELVIN MASIBO,,ICE
RIA3DRWJWF,10/09/2023 08:50,10/09/2023 08:50,Pay Bill from 254723966777 - BONIFACE MUTHAKA NGANGA Acc. IDG,Completed,5000,,78600,TRUE,Pay Utility,254723966777 - BONIFACE MUTHAKA NGANGA,,IDG
RI98CR1VT8,09/09/2023 19:32,09/09/2023 19:32,Pay Bill from 254722444622 - CHARITY KAGWAINI Acc. ffd,Completed,100,,73600,TRUE,Pay Utility,254722444622 - CHARITY KAGWAINI,,ffd
RI94BCVUNC,09/09/2023 12:56,09/09/2023 12:56,Pay Bill Online from 254721884037 - ERIC MISIANI Acc. HCG,Completed,1600,,73500,TRUE,Pay Bill Online,254721884037 - ERIC MISIANI,,HCG
RI97B9KN9Z,09/09/2023 12:25,09/09/2023 12:25,Pay Bill Online from 254722910078 - MAUREEN MUNYIVA MUTUKU Acc. DCD,Completed,1000,,71900,TRUE,Pay Bill Online,254722910078 - MAUREEN MUNYIVA MUTUKU,,DCD
RI99AV1GO7,09/09/2023 10:03,09/09/2023 10:03,Pay Bill from 254722444622 - CHARITY KAGWAINI Acc. ffd,Completed,100,,70900,TRUE,Pay Utility,254722444622 - CHARITY KAGWAINI,,ffd
RI91ALB121,09/09/2023 08:13,09/09/2023 08:13,Pay Bill from 254724201046 - GIDEON NDOLO Acc. KFH,Completed,700,,70800,TRUE,Pay Utility with OD via STK,254724201046 - GIDEON NDOLO,,KFH
RI90AK65EK,09/09/2023 07:58,09/09/2023 07:58,Pay Bill Online from 254723901777 - EVANS YEBEI Acc. kch,Completed,800,,70100,TRUE,Pay Utility with OD Online,254723901777 - EVANS YEBEI,,kch
RI85A5KPGT,08/09/2023 22:03,08/09/2023 22:03,Pay Bill from 254710635630 - DONNA JESSICA OWANO Acc. KCC,Completed,600,,69300,TRUE,Pay Utility,254710635630 - DONNA JESSICA OWANO,,KCC
RI88A0PIWI,08/09/2023 21:12,08/09/2023 21:12,Pay Bill from 254711515672 - ALLAN MUTEMBEI Acc. IEI,Completed,2600,,68700,TRUE,Pay Utility,254711515672 - ALLAN MUTEMBEI,,IEI
RI899VWMR3,08/09/2023 20:32,08/09/2023 20:32,Pay Bill Online from 254712757681 - DENNIS MURANGO Acc. hag,Completed,1000,,66100,TRUE,Pay Bill Online,254712757681 - DENNIS MURANGO,,hag
RI859M039H,08/09/2023 19:27,08/09/2023 19:27,Pay Bill from 254703528196 - ERIC GITONGA MUGO Acc. KGJ,Completed,1200,,65100,TRUE,Pay Utility,254703528196 - ERIC GITONGA MUGO,,KGJ
RI849LM4K8,08/09/2023 19:25,08/09/2023 19:25,Pay Bill from 254714710944 - MERCY NDUNG'U Acc. hff,Completed,500,,63900,TRUE,Pay Utility,254714710944 - MERCY NDUNG'U,,hff
RI849LEPO6,08/09/2023 19:23,08/09/2023 19:23,Pay Bill Online from 254710814215 - JOAN NYAMBURA KAMAU Acc. ifb,Completed,1200,,63400,TRUE,Pay Bill Online,254710814215 - JOAN NYAMBURA KAMAU,,ifb
RI8195PRUF,08/09/2023 17:45,08/09/2023 17:45,Pay Bill from 254724525238 - Immacurate Kemunto Ombasa Acc. V45,Completed,500,,62200,TRUE,Pay Utility,254724525238 - Immacurate Kemunto Ombasa,,V45
RI888VOISE,08/09/2023 16:27,08/09/2023 16:27,Pay Bill from 254722444622 - CHARITY KAGWAINI Acc. ffd,Completed,100,,61700,TRUE,Pay Utility,254722444622 - CHARITY KAGWAINI,,ffd
RI868JQPF8,08/09/2023 14:39,08/09/2023 14:39,Pay Bill from 254717247817 - NYANGAU HARONI Acc. jba,Completed,400,,61600,TRUE,Pay Utility with OD via STK,254717247817 - NYANGAU HARONI,,jba
RI818J6FP3,08/09/2023 14:34,08/09/2023 14:34,Pay Bill Online from 254726593769 - BONFACE BWINA Acc. DEB,Completed,2400,,61200,TRUE,Pay Bill Online,254726593769 - BONFACE BWINA,,DEB
RI868DYKXS,08/09/2023 13:46,08/09/2023 13:46,Pay Bill from 254791848695 - RACHEAL WANZA MUIA Acc. wines,Completed,200,,58800,TRUE,Pay Utility,254791848695 - RACHEAL WANZA MUIA,,wines
RI8989BXCB,08/09/2023 13:04,08/09/2023 13:04,Pay Bill from 254796069018 - PEACE KIMEU Acc. Jah,Completed,2400,,58600,TRUE,Pay Utility,254796069018 - PEACE KIMEU,,Jah
RI837OSD83,08/09/2023 09:43,08/09/2023 09:43,Pay Bill from 254722444622 - CHARITY KAGWAINI Acc. ffd,Completed,100,,56200,TRUE,Pay Utility,254722444622 - CHARITY KAGWAINI,,ffd
RI7374D2BB,07/09/2023 22:55,07/09/2023 22:55,Pay Bill Online from 254710382992 - SIMON KAMAU MUIRURI Acc. JCD,Completed,800,,56100,TRUE,Pay Bill Online,254710382992 - SIMON KAMAU MUIRURI,,JCD
RI776WXZLF,07/09/2023 21:09,07/09/2023 21:09,Pay Bill from 254704303496 - PETER MACHARIA WAIGANJO Acc. DFD,Completed,2000,,55300,TRUE,Pay Utility with OD via STK,254704303496 - PETER MACHARIA WAIGANJO,,DFD
RI724ZFR7O,07/09/2023 11:35,07/09/2023 11:35,Pay Bill from 0701151700 - Anabel Mwikali Gichuru Acc. JDJ,Completed,3200,,53300,TRUE,Pay Utility,0701151700 - Anabel Mwikali Gichuru,,JDJ
RI734X2NQ5,07/09/2023 11:12,07/09/2023 11:12,Pay Bill from 254705641030 - FRIDAH WAENI MUITHYA Acc. JEH,Completed,2000,,50100,TRUE,Pay Utility,254705641030 - FRIDAH WAENI MUITHYA,,JEH
RI734RVWAJ,07/09/2023 10:21,07/09/2023 10:21,Utility Account to Organization Settlement Account,Completed,,-5000,48100,TRUE,Utility Account to Organization Settlement Account,846783 - ANCIENT WELLS LTD 4,,
RI774ASXU7,07/09/2023 06:58,07/09/2023 06:58,Pay Bill Online from 254724821898 - ALLAN GISONI NYANGARESI Acc. DBA,Completed,600,,53100,TRUE,Pay Bill Online,254724821898 - ALLAN GISONI NYANGARESI,,DBA
RI7946BFHV,07/09/2023 01:10,07/09/2023 01:10,Pay Bill from 254798609376 - Oliva Wafula Juma Acc. DEA,Completed,400,,52500,TRUE,Pay Utility,254798609376 - Oliva Wafula Juma,,DEA
RI68403VV4,06/09/2023 21:57,06/09/2023 21:57,Pay Bill Online from 0715806956 - Mercy Jelagat Kalum Acc. FFE ,Completed,400,,52100,TRUE,Pay Bill Online,0715806956 - Mercy Jelagat Kalum,,FFE
RI623ZX3PS,06/09/2023 21:55,06/09/2023 21:55,Pay Bill Online from 254723394064 - ANDREW LAGAT Acc. hbg,Completed,600,,51700,TRUE,Pay Bill Online,254723394064 - ANDREW LAGAT,,hbg
RI673MS5VN,06/09/2023 20:04,06/09/2023 20:04,Pay Bill Online from 0703634804 - SYLVIA NYAMBURA NJOROGE Acc. KCD,Completed,400,,51100,TRUE,Pay Bill Online,0703634804 - SYLVIA NYAMBURA NJOROGE,,KCD
RI6535Z5WP,06/09/2023 18:23,06/09/2023 18:23,Pay Bill from 254711742716 - RODGERS KIPLANGAT KORIR Acc. IGC,Completed,400,,50700,TRUE,Pay Utility,254711742716 - RODGERS KIPLANGAT KORIR,,IGC
RI672JH685,06/09/2023 15:15,06/09/2023 15:15,Pay Bill from 254729541871 - ROBERT KULEI Acc. JFI,Completed,2000,,50300,TRUE,Pay Utility,254729541871 - ROBERT KULEI,,JFI
RI681SEXNE,06/09/2023 10:55,06/09/2023 10:55,Pay Bill Online from 254714552193 - CHRISTOPHER OCHIENG Acc. JGI,Completed,600,,48300,TRUE,Pay Bill Online,254714552193 - CHRISTOPHER OCHIENG,,JGI
RI641HSEHW,06/09/2023 09:08,06/09/2023 09:08,Pay Bill Online from 254720381965 - JAMES NGUGI MWANIKI Acc. JBI,Completed,3400,,47700,TRUE,Pay Bill Online,254720381965 - JAMES NGUGI MWANIKI,,JBI
RI631FDEF5,06/09/2023 08:41,06/09/2023 08:41,Pay Bill Online from 254703285159 - Enock Michieka Mochoge Acc. KAE,Completed,600,,44300,TRUE,Pay Bill Online,254703285159 - Enock Michieka Mochoge,,KAE
RI57ZZC6Z9,05/09/2023 22:42,05/09/2023 22:42,Pay Bill from 254728670882 - SHARAD EDWARD ADALA OLUM Acc. KCK,Completed,2800,,43700,TRUE,Pay Utility,254728670882 - SHARAD EDWARD ADALA OLUM,,KCK
RI50ZYTDUE,05/09/2023 22:32,05/09/2023 22:32,Pay Bill from 254798642778 - victor musyoka Acc. DAD,Completed,1400,,40900,TRUE,Pay Utility,254798642778 - victor musyoka,,DAD
RI57ZVKY0R,05/09/2023 21:48,05/09/2023 21:48,Pay Bill Online from 254721714178 - PHANICE JEROTICH KIPTOO Acc. FBF,Completed,1200,,39500,TRUE,Pay Bill Online,254721714178 - PHANICE JEROTICH KIPTOO,,FBF
RI53ZU2SWV,05/09/2023 21:32,05/09/2023 21:32,Pay Bill Online from 254720407659 - FRANCIS CHUMO Acc. KDG ,Completed,500,,38300,TRUE,Pay Bill Online,254720407659 - FRANCIS CHUMO,,KDG
RI52ZQWTXM,05/09/2023 21:03,05/09/2023 21:03,Pay Bill from 254726945691 - JAMES RAMTU Acc. B5,Completed,200,,37800,TRUE,Pay Utility,254726945691 - JAMES RAMTU,,B5
RI58ZQQG14,05/09/2023 21:02,05/09/2023 21:02,Pay Bill from 254722578070 - SAMUEL MACHARIA Acc. v42,Completed,800,,37600,TRUE,Pay Utility,254722578070 - SAMUEL MACHARIA,,v42
RI54ZPAKRM,05/09/2023 20:51,05/09/2023 20:51,Pay Bill from 254708910373 - MUNINI ISAAC Acc. IEB,Completed,1000,,36800,TRUE,Pay Utility,254708910373 - MUNINI ISAAC,,IEB
RI51ZNJIJH,05/09/2023 20:37,05/09/2023 20:37,Pay Bill from 254711163049 - OYUGI OCHIENG Acc. FCB,Completed,2000,,35800,TRUE,Pay Utility,254711163049 - OYUGI OCHIENG,,FCB
RI54ZIIFY4,05/09/2023 20:03,05/09/2023 20:03,Pay Bill Online from 254705846408 - JAMES OUMA Acc. HBH,Completed,800,,33800,TRUE,Pay Bill Online,254705846408 - JAMES OUMA,,HBH
RI52Z5RH1M,05/09/2023 18:49,05/09/2023 18:49,Pay Bill from 0719349205 - Christabel Gakii Munene Acc. D1,Completed,600,,33000,TRUE,Pay Utility,0719349205 - Christabel Gakii Munene,,D1
RI59YYHBKN,05/09/2023 18:02,05/09/2023 18:02,Pay Bill from 254719398942 - NORAH WAYUA MUNYAO Acc. KDA,Completed,600,,32400,TRUE,Pay Utility,254719398942 - NORAH WAYUA MUNYAO,,KDA
RI53YH5M3R,05/09/2023 15:37,05/09/2023 15:37,Pay Bill from 254712367486 - JACKLINE JUMA Acc. ked,Completed,400,,31800,TRUE,Pay Utility,254712367486 - JACKLINE JUMA,,ked
RI58Y7TCZ6,05/09/2023 14:06,05/09/2023 14:06,Pay Bill from 254721667039 - ELIAS KIPLAGAT Acc. KAC,Completed,400,,31400,TRUE,Pay Utility,254721667039 - ELIAS KIPLAGAT,,KAC
RI50Y27NCW,05/09/2023 13:15,05/09/2023 13:15,Pay Bill from 0724386624 - FATUMA ISSE YUSSUF Acc. FAB,Completed,1000,,31000,TRUE,Pay Utility,0724386624 - FATUMA ISSE YUSSUF,,FAB
RI57XMQQZF,05/09/2023 10:46,05/09/2023 10:46,Pay Bill from 0748045445 - Hellen tsikhabi naphtal Acc. V11,Completed,400,,30000,TRUE,Pay Utility,0748045445 - Hellen tsikhabi naphtal,,V11
RI51XHUDN5,05/09/2023 09:57,05/09/2023 09:57,Pay Bill from 254720814822 - JAMES OTIENO OPAR Acc. jgj,Completed,500,,29600,TRUE,Pay Utility,254720814822 - JAMES OTIENO OPAR,,jgj
RI50X7JGGO,05/09/2023 08:06,05/09/2023 08:06,Pay Bill from 254723815832 - SEMEKIA ONDIALA Acc. v38,Completed,200,,29100,TRUE,Pay Utility,254723815832 - SEMEKIA ONDIALA,,v38
RI49WMN2AF,04/09/2023 21:05,04/09/2023 21:05,Pay Bill from 254723499628 - CLINTON JOSEPH MUHARI Acc. hfh,Completed,1000,,28900,TRUE,Pay Utility,254723499628 - CLINTON JOSEPH MUHARI,,hfh
RI49W47W9Z,04/09/2023 19:05,04/09/2023 19:05,Pay Bill from 254726753273 - JESSE K MURIRMI NJERU Acc. HCH,Completed,600,,27900,TRUE,Pay Utility,254726753273 - JESSE K MURIRMI NJERU,,HCH
RI44VVKPY8,04/09/2023 18:11,04/09/2023 18:11,Pay Bill from 254716504398 - HYVENE MAYETI Acc. KDE,Completed,200,,27300,TRUE,Pay Utility,254716504398 - HYVENE MAYETI,,KDE
RI45VAGX4L,04/09/2023 15:15,04/09/2023 15:15,Pay Bill from 0746542458 - Hannah   Naliaka Acc. V23,Completed,500,,27100,TRUE,Pay Utility,0746542458 - Hannah   Naliaka,,V23
RI46UFN6RA,04/09/2023 10:24,04/09/2023 10:24,Pay Bill Online from 0757319222 - ATEM KUOL JOHN BOL Acc. FAC,Completed,1000,,26600,TRUE,Pay Bill Online,0757319222 - ATEM KUOL JOHN BOL,,FAC
RI43UBGSNF,04/09/2023 09:43,04/09/2023 09:43,Pay Bill from 0711502447 - Gabriel gatehi mwaura Acc. FDC,Completed,200,,25600,TRUE,Pay Utility,0711502447 - Gabriel gatehi mwaura,,FDC
RI40U1VHS8,04/09/2023 07:58,04/09/2023 07:58,Pay Bill Online from 254706144834 - WILKISTER OSUMO Acc. HGH,Completed,800,,25400,TRUE,Pay Bill Online,254706144834 - WILKISTER OSUMO,,HGH
RI31T13VOD,03/09/2023 19:08,03/09/2023 19:08,Pay Bill from 254715764093 - GICHANA GOVAN Acc. E3,Completed,600,,24600,TRUE,Pay Utility,254715764093 - GICHANA GOVAN,,E3
RI35SXREVH,03/09/2023 18:46,03/09/2023 18:46,Pay Bill Online from 254702118125 - ROTICH BETHWEL Acc. V20,Completed,500,,24000,TRUE,Pay Bill Online,254702118125 - ROTICH BETHWEL,,V20
RI31SETOHT,03/09/2023 16:13,03/09/2023 16:13,Pay Bill from 254725621394 - RACHAEL WACHIRA Acc. Jfb,Completed,600,,23500,TRUE,Pay Utility,254725621394 - RACHAEL WACHIRA,,Jfb
RI37S7H39X,03/09/2023 15:05,03/09/2023 15:05,Pay Bill from 254728084427 - MARY NABWIRE OKELLO Acc. FDF,Completed,2000,,22900,TRUE,Pay Utility,254728084427 - MARY NABWIRE OKELLO,,FDF
RI38S3F9YY,03/09/2023 14:26,03/09/2023 14:26,Pay Bill Online from 254721974995 - BERNICE MANGOKA Acc. KFK,Completed,1200,,20900,TRUE,Pay Bill Online,254721974995 - BERNICE MANGOKA,,KFK
RI30RS5WT4,03/09/2023 12:32,03/09/2023 12:32,Pay Bill from 254720814822 - JAMES OTIENO OPAR Acc. jgj,Completed,1000,,19700,TRUE,Pay Utility,254720814822 - JAMES OTIENO OPAR,,jgj
RI37R94GBP,03/09/2023 08:55,03/09/2023 08:55,Pay Bill Online from 254719317219 - PHILIP MBOYA Acc. JDH,Completed,4600,,18700,TRUE,Pay Utility with OD Online,254719317219 - PHILIP MBOYA,,JDH
RI36R67W72,03/09/2023 08:18,03/09/2023 08:18,Pay Bill Online from 254716784364 - Wendy Kemunto Nyandiko Acc. FFC,Completed,600,,14100,TRUE,Pay Bill Online,254716784364 - Wendy Kemunto Nyandiko,,FFC
RI39R4YBU3,03/09/2023 08:00,03/09/2023 08:00,Pay Bill Online from 254726292792 - PHILIP MIANO Acc. JEI,Completed,3200,,13500,TRUE,Pay Bill Online,254726292792 - PHILIP MIANO,,JEI
RI37QZ5ZG5,03/09/2023 04:15,03/09/2023 04:15,Pay Bill from 254729557859 - AUDREY KASINDAHA KASINDAHA Acc. KFB,Completed,1800,,10300,TRUE,Pay Utility,254729557859 - AUDREY KASINDAHA KASINDAHA,,KFB
RI29QVHOAL,02/09/2023 23:49,02/09/2023 23:49,Pay Bill from 254741791919 - Linet Mongina Maraga Acc. u3,Completed,300,,8500,TRUE,Pay Utility,254741791919 - Linet Mongina Maraga,,u3
RI20QOIV4C,02/09/2023 21:46,02/09/2023 21:46,Pay Bill from 254725478531 - KIPKORIR KUTO Acc. DFB,Completed,600,,8200,TRUE,Pay Utility,254725478531 - KIPKORIR KUTO,,DFB
RI29QITCFJ,02/09/2023 20:55,02/09/2023 20:55,Pay Bill Online from 254713404029 - ANNE ISEUNA Acc. DED,Completed,4200,,7600,TRUE,Pay Utility with OD Online,254713404029 - ANNE ISEUNA,,DED
RI21QCNBJP,02/09/2023 20:11,02/09/2023 20:11,Pay Bill from 254712974871 - PAULA WANJIKU GATUI Acc. hea,Completed,1000,,3400,TRUE,Pay Utility,254712974871 - PAULA WANJIKU GATUI,,hea
RI25POX4EP,02/09/2023 17:43,02/09/2023 17:43,Pay Bill Online from 254729097858 - AMBROSE ADEYA AHAWO Acc. KCF,Completed,1400,,2400,TRUE,Pay Bill Online,254729097858 - AMBROSE ADEYA AHAWO,,KCF
RI25PO9CBJ,02/09/2023 17:38,02/09/2023 17:38,Pay Bill Online from 254715892656 - DENNIS MUSYOKA MUOKI Acc. KFA,Completed,400,,1000,TRUE,Pay Bill Online,254715892656 - DENNIS MUSYOKA MUOKI,,KFA
RI24P77JMO,02/09/2023 15:18,02/09/2023 15:18,Pay Bill Online from 254729796719 - JACINTA WANJIKU NJERI Acc. FFF,Completed,600,,600,TRUE,Pay Bill Online,254729796719 - JACINTA WANJIKU NJERI,,FFF
RI27OIC64D,02/09/2023 11:34,02/09/2023 11:34,Utility Account to Organization Settlement Account,Completed,,-13500,0,TRUE,Utility Account to Organization Settlement Account,846783 - ANCIENT WELLS LTD 4,,
RI26OF21C2,02/09/2023 11:04,02/09/2023 11:04,Pay Bill Online from 0757699775 - BENARD MUIA MUTUA Acc. HCB,Completed,1600,,13500,TRUE,Pay Utility with OD Online,0757699775 - BENARD MUIA MUTUA,,HCB
RI23NNWHHB,02/09/2023 00:37,02/09/2023 00:37,Pay Bill from 254708612464 - MERCY KINANU KIWOTI Acc. IBB,Completed,1000,,11900,TRUE,Pay Utility,254708612464 - MERCY KINANU KIWOTI,,IBB
RI15NMER77,01/09/2023 23:39,01/09/2023 23:39,Pay Bill Online from 254742023558 - PEACEMARY NJERI MAINA Acc. jbc,Completed,400,,10900,TRUE,Pay Bill Online,254742023558 - PEACEMARY NJERI MAINA,,jbc
RI18NIXI8I,01/09/2023 22:25,01/09/2023 22:25,Pay Bill from 0706563358 - HARRIET NYANCHAMA NYABERI Acc. HBA,Completed,600,,10500,TRUE,Pay Utility,0706563358 - HARRIET NYANCHAMA NYABERI,,HBA
RI13MP2H7F,01/09/2023 18:47,01/09/2023 18:47,Pay Bill Online from 254795510441 - LEWIS MUEMA Acc. KEB,Completed,400,,9900,TRUE,Pay Bill Online,254795510441 - LEWIS MUEMA,,KEB
RI15MH3ZGH,01/09/2023 17:54,01/09/2023 17:54,Pay Bill from 254741223822 - Rhoyce Kiptarus Boiyo Acc. FEC,Completed,600,,9500,TRUE,Pay Utility,254741223822 - Rhoyce Kiptarus Boiyo,,FEC
RI16MFSD26,01/09/2023 17:45,01/09/2023 17:45,Pay Bill from 254702152790 - Michelle Ndunge Kyalo Acc. IDE,Completed,400,,8900,TRUE,Pay Utility,254702152790 - Michelle Ndunge Kyalo,,IDE
RI10ME5H20,01/09/2023 17:33,01/09/2023 17:33,Pay Bill from 254717726012 - WINFRED MUENI PETER Acc. IDA,Completed,1400,,8500,TRUE,Pay Utility,254717726012 - WINFRED MUENI PETER,,IDA
RI18LOU5S0,01/09/2023 13:49,01/09/2023 13:49,FSI to Pay Bill by 3033815 - LOOP B2C. Acc. V40 via WEB by LOOP B2C.\TRINITYAPI,Completed,600,,7100,TRUE,FSI to Pay Bill via API,3033815 - LOOP B2C.,,V40
RI17LL2AJT,01/09/2023 13:15,01/09/2023 13:15,Pay Bill Online from 254714596677 - IMMANUEL BARBOI Acc. KAI,Completed,200,,6500,TRUE,Pay Bill Online,254714596677 - IMMANUEL BARBOI,,KAI
RI18LJ8HMQ,01/09/2023 12:57,01/09/2023 12:57,Pay Bill Online from 254721465713 - RHODA WAMBUI MWANGI Acc. Jfh,Completed,1200,,6300,TRUE,Pay Bill Online,254721465713 - RHODA WAMBUI MWANGI,,Jfh
RI11LH2LKP,01/09/2023 12:36,01/09/2023 12:36,Pay Bill Online from 254720696119 - DUNCAN OMONDI OKETCH Acc. FAE,Completed,1000,,5100,TRUE,Pay Bill Online,254720696119 - DUNCAN OMONDI OKETCH,,FAE
RI15KWGAE3,01/09/2023 09:13,01/09/2023 09:13,Pay Bill Online from 0718473068 - Dennis Kiptoo Maiyo Acc. FEF,Completed,800,,4100,TRUE,Pay Bill Online,0718473068 - Dennis Kiptoo Maiyo,,FEF
RI14KS1SPW,01/09/2023 08:24,01/09/2023 08:24,Pay Bill Online from 254792281122 - MWENDWA MUTUNGA Acc.  ,Completed,600,,3300,TRUE,Pay Bill Online,254792281122 - MWENDWA MUTUNGA,,
RI10KLKK22,01/09/2023 06:53,01/09/2023 06:53,Pay Bill Online from 254717809935 - LYDIAH WERU Acc. ffb,Completed,400,,2700,TRUE,Pay Bill Online,254717809935 - LYDIAH WERU,,ffb
RI12KLKMWC,01/09/2023 06:53,01/09/2023 06:53,Pay Bill from 254719194821 - KIPKEMOI SANG GEOFFREY Acc. JDD,Completed,1500,,2300,TRUE,Pay Utility,254719194821 - KIPKEMOI SANG GEOFFREY,,JDD
RI13KHU565,01/09/2023 02:35,01/09/2023 02:35,Pay Bill from 254791023764 - ISAIAH OMODING Acc. V49,Completed,200,,800,TRUE,Pay Utility,254791023764 - ISAIAH OMODING,,V49
