Receipt No.,Completion Time,Initiation Time,Details,Transaction Status,Paid In,Withdrawn,Balance,Balance Confirmed,Reason Type,Other Party Info,Linked Transaction ID,A/C No.
RCG8X3X3BA,16/03/2023 16:31,16/03/2023 16:31,Pay Bill Online from 254720062144 - CAROLINE AMONDI OKELO Acc. f4,Completed,3000,,268000,TRUE,Pay Utility with OD Online,254720062144 - CAROLINE AMONDI OKELO,,f4
RCG8WX4XYM,16/03/2023 15:20,16/03/2023 15:20,Pay Bill from 254714597495 - WAMBUA KIOKO Acc. c1,Completed,3000,,265000,TRUE,Pay Utility with OD via STK,254714597495 - WAMBUA KIOKO,,c1
RCG2W3ORQ0,16/03/2023 10:03,16/03/2023 10:03,Pay Bill from 254714419834 - FAITH MWIKALI MUTHAMA Acc. d4,Completed,10000,,262000,TRUE,Pay Utility,254714419834 - FAITH MWIKALI MUTHAMA,,d4
RCF3U352WV,15/03/2023 14:28,15/03/2023 14:28,Pay Bill Online from 254703176849 - ROYAL MUYA Acc. F2,Completed,2000,,252000,TRUE,Pay Bill Online,254703176849 - ROYAL MUYA,,F2
RCE1SVQB3R,14/03/2023 22:50,14/03/2023 22:50,Pay Bill from 254707080629 - Caren Osore Barasa Acc. D4,Completed,7000,,250000,TRUE,Pay Utility,254707080629 - Caren Osore Barasa,,D4
RCE8RHO56E,14/03/2023 15:02,14/03/2023 15:02,Pay Bill from 254707801121 - JOHNSTONE MUTHUI MUTHAMI Acc. b4,Completed,12500,,243000,TRUE,Pay Utility,254707801121 - JOHNSTONE MUTHUI MUTHAMI,,b4
RCC1LDCG0T,12/03/2023 08:04,12/03/2023 08:04,Pay Bill Online from 254720086214 - SAMUEL WANJIKU Acc. B3,Completed,11000,,230500,TRUE,Pay Utility with OD Online,254720086214 - SAMUEL WANJIKU,,B3
RCA7IAG1WZ,10/03/2023 22:36,10/03/2023 22:36,Pay Bill from 0720571944 - Ronoh   Benard Acc. D2,Completed,8000,,219500,TRUE,Pay Utility,0720571944 - Ronoh   Benard,,D2
RCA9H3ZTSR,10/03/2023 16:32,10/03/2023 16:32,Pay Bill from 254724018163 - IRENE MUENI WILLY Acc. A4,Completed,12000,,211500,TRUE,Pay Utility,254724018163 - IRENE MUENI WILLY,,A4
RC91FIJ3AB,09/03/2023 22:37,09/03/2023 22:37,Pay Bill from 254708989835 - SUSAN NDUTA Acc. B2,Completed,8000,,199500,TRUE,Pay Utility,254708989835 - SUSAN NDUTA,,B2
RC96DNNU48,09/03/2023 12:14,09/03/2023 12:14,Pay Bill from 254707801121 - JOHNSTONE MUTHUI MUTHAMI Acc. B4,Completed,8500,,191500,TRUE,Pay Utility,254707801121 - JOHNSTONE MUTHUI MUTHAMI,,B4
RC80BBUNOG,08/03/2023 14:48,08/03/2023 14:48,Pay Bill from 254714597495 - WAMBUA KIOKO Acc. c1,Completed,5000,,183000,TRUE,Pay Utility with OD via STK,254714597495 - WAMBUA KIOKO,,c1
RC85AIU0JN,08/03/2023 09:28,08/03/2023 09:28,Pay Bill from 0791565463 - Lilian Njeri Wakagwi Acc. F6,Completed,8500,,178000,TRUE,Pay Utility,0791565463 - Lilian Njeri Wakagwi,,F6
RC87AELU5H,08/03/2023 08:37,08/03/2023 08:37,Pay Bill from 254722706516 - KORIR ANTHONY Acc. Anthony D 3,Completed,8000,,169500,TRUE,Pay Utility,254722706516 - KORIR ANTHONY,,Anthony
RC86AB3ZQQ,08/03/2023 07:52,08/03/2023 07:52,Pay Bill from 254727585857 - PETER MUOKI NGUNDO Acc. Peter Ngundo e6,Completed,8500,,161500,TRUE,Pay Utility,254727585857 - PETER MUOKI NGUNDO,,Peter
RC86A3QIBS,08/03/2023 00:10,08/03/2023 00:10,Pay Bill from 0799912339 - PETER KAMAU MURIU Acc. C5,Completed,8500,,153000,TRUE,Pay Utility,0799912339 - PETER KAMAU MURIU,,C5
RC759KB0IH,07/03/2023 19:57,07/03/2023 19:57,Pay Bill from 254721539716 - OCTAVIAN MWANYALO Acc. C6,Completed,8000,,144500,TRUE,Pay Utility,254721539716 - OCTAVIAN MWANYALO,,C6
RC707SHJ9A,07/03/2023 09:45,07/03/2023 09:45,Pay Bill from 0114093036 - Cecillia Njeri Githui Acc. C3,Completed,8000,,136500,TRUE,Pay Utility,0114093036 - Cecillia Njeri Githui,,C3
RC737GLT73,07/03/2023 07:09,07/03/2023 07:09,Pay Bill from 254710248036 - Allan Kimeu Mutua Acc. F5,Completed,8500,,128500,TRUE,Pay Utility,254710248036 - Allan Kimeu Mutua,,F5
RC646631YY,06/03/2023 17:05,06/03/2023 17:05,Pay Bill Online from 254720201157 - BENSON INYANJE MWAKHA Acc. b6,Completed,8500,,120000,TRUE,Pay Bill Online,254720201157 - BENSON INYANJE MWAKHA,,b6
RC675KAMOV,06/03/2023 13:15,06/03/2023 13:15,Pay Bill Online from 0704120519 - Mildred   Adhiambo Acc. G1,Completed,8000,,111500,TRUE,Pay Bill Online,0704120519 - Mildred   Adhiambo,,G1
RC563637K2,05/03/2023 15:14,05/03/2023 15:14,Pay Bill Online from 0740283700 - SERAH MUKULU MULILIA Acc. c4serahmukulu,Completed,13500,,103500,TRUE,Pay Bill Online,0740283700 - SERAH MUKULU MULILIA,,c4serahmukulu
RC47ZOQ5R5,04/03/2023 16:18,04/03/2023 16:18,Pay Bill from 0111653037 - STEPHEN MUKABANA MAYABI Acc. A1,Completed,7500,,90000,TRUE,Pay Utility,0111653037 - STEPHEN MUKABANA MAYABI,,A1
RC45ZNUU5R,04/03/2023 16:09,04/03/2023 16:09,Pay Bill from 254791341895 - Enos Nyaosi Ayuma Acc. D5,Completed,8500,,82500,TRUE,Pay Utility,254791341895 - Enos Nyaosi Ayuma,,D5
RC41YEWOHP,04/03/2023 08:25,04/03/2023 08:25,Pay Bill from 254726945691 - JAMES RAMTU Acc. B5,Completed,8500,,74000,TRUE,Pay Utility,254726945691 - JAMES RAMTU,,B5
RC31X7ZKX3,03/03/2023 18:33,03/03/2023 18:33,Pay Bill from 0715030019 - Omwenga Ong'era Stephen Acc. E1,Completed,8000,,65500,TRUE,Pay Utility,0715030019 - Omwenga Ong'era Stephen,,E1
RC33WAAUXD,03/03/2023 13:11,03/03/2023 13:11,Pay Bill Online from 254715020357 - ELIZABETH NJERI WARARI Acc. C2,Completed,7500,,57500,TRUE,Pay Bill Online,254715020357 - ELIZABETH NJERI WARARI,,C2
RC38W6DGW4,03/03/2023 12:28,03/03/2023 12:28,Pay Bill from 254713701237 - Michael Wanjala Acc. G2,Completed,8000,,50000,TRUE,Pay Utility,254713701237 - Michael Wanjala,,G2
RC29V8JC3V,02/03/2023 23:34,02/03/2023 23:34,Pay Bill from 254715764093 - GICHANA GOVAN Acc. E3,Completed,8000,,42000,TRUE,Pay Utility,254715764093 - GICHANA GOVAN,,E3
RC22T1SJXW,02/03/2023 10:20,02/03/2023 10:20,Pay Bill from 254720439955 - GEOPHRY OKOTH Acc. D6,Completed,8500,,34000,TRUE,Pay Utility,254720439955 - GEOPHRY OKOTH,,D6
RC11QOV3CP,01/03/2023 13:00,01/03/2023 13:00,Pay Bill Online from 254722444929 - LIZ KIHARA Acc. g3,Completed,8000,,25500,TRUE,Pay Bill Online,254722444929 - LIZ KIHARA,,g3
RC11QF05AF,01/03/2023 11:09,01/03/2023 11:09,Pay Bill from 0748956967 - Selvin Mukami Wanjiru Acc. E4,Completed,8500,,17500,TRUE,Pay Utility,0748956967 - Selvin Mukami Wanjiru,,E4
