Receipt No.,Completion Time,Initiation Time,Details,Transaction Status,Paid In,Withdrawn,Balance,Balance Confirmed,Reason Type,Other Party Info,Linked Transaction ID,A/C No.
OIA0ESJWW0,10/09/2020 12:15,10/09/2020 12:15,Pay Bill from 0758591833 - DORCUS MBULA PETER Acc. HDD,Completed,11500,,363500,TRUE,Pay Utility,0758591833 - DORCUS MBULA PETER,,HDD
OIA5EPM81P,10/09/2020 10:58,10/09/2020 10:58,Pay Bill from 254722387899 - ADAN ALI Acc. Jba,Completed,22000,,352000,TRUE,Pay Utility,254722387899 - ADAN ALI,,Jba
OIA0EP0H72,10/09/2020 10:43,10/09/2020 10:43,Pay Bill from 254729892526 - PHARIS MICHUKI Acc. JAI,Completed,16000,,330000,TRUE,Pay Utility,254729892526 - PHARIS MICHUKI,,JAI
OIA7EOW5LL,10/09/2020 10:40,10/09/2020 10:40,Pay Bill from 254701006375 - EZRA MAKORI SERETI Acc. HTE,Completed,9500,,314000,TRUE,Pay Utility with OD via STK,254701006375 - EZRA MAKORI SERETI,,HTE
OIA8ENYVLK,10/09/2020 10:15,10/09/2020 10:15,Pay Bill from 254729450678 - GRACE NDUNGE Acc. FBA,Completed,16000,,304500,TRUE,Pay Utility with OD via STK,254729450678 - GRACE NDUNGE,,FBA
OIA8ELUK30,10/09/2020 09:16,10/09/2020 09:16,Pay Bill from 254722910078 - MAUREEN MUNYIVA MUTUKU Acc. DBD,Completed,5000,,288500,TRUE,Pay Utility,254722910078 - MAUREEN MUNYIVA MUTUKU,,DBD
OIA0EHQ9R2,10/09/2020 06:23,10/09/2020 06:23,FSI to Pay Bill by 714888 - B2C LOOP VIA NCBA Acc. JAD via WEB by B2C LOOP VIA NCBA\Cbainitiator,Completed,5000,,283500,TRUE,FSI to Pay Bill via API,714888 - B2C LOOP VIA NCBA,,JAD
OIA9EH5ZXP,10/09/2020 01:35,10/09/2020 01:35,Pay Bill from 254703935626 - DAVID NGARI ITA Acc. FCD,Completed,1500,,278500,TRUE,Pay Utility with OD via STK,254703935626 - DAVID NGARI ITA,,FCD
OIA2EH4ERG,10/09/2020 01:08,10/09/2020 01:08,Pay Bill from 254716863301 - PRISCILLAH WANJIRU Acc. ICD,Completed,11000,,277000,TRUE,Pay Utility,254716863301 - PRISCILLAH WANJIRU,,ICD
OI98EEMOEK,09/09/2020 21:25,09/09/2020 21:25,Pay Bill from 254716702294 - DANIEL MULATI Acc. KBE,Completed,4000,,266000,TRUE,Pay Utility,254716702294 - DANIEL MULATI,,KBE
OI95E6SV8X,09/09/2020 18:46,09/09/2020 18:46,Pay Bill from 254728849248 - ISABELA KARIMI KIOGORA Acc. FAB,Completed,13000,,262000,TRUE,Pay Utility,254728849248 - ISABELA KARIMI KIOGORA,,FAB
OI99E2H8U3,09/09/2020 17:24,09/09/2020 17:24,Pay Bill from 254717554562 - OMONDI JACK Acc. kci,Completed,12500,,249000,TRUE,Pay Utility,254717554562 - OMONDI JACK,,kci
OI90DYAKEE,09/09/2020 15:49,09/09/2020 15:49,Pay Bill from 254703555717 - SENGA SALIM Acc. hbb,Completed,7000,,236500,TRUE,Pay Utility,254703555717 - SENGA SALIM,,hbb
OI95DV8GH5,09/09/2020 14:31,09/09/2020 14:31,Pay Bill from 254722921132 - JOE MCCRAY MURIUKI KIHIA Acc. IFA,Completed,15000,,229500,TRUE,Pay Utility with OD via STK,254722921132 - JOE MCCRAY MURIUKI KIHIA,,IFA
OI97DRU629,09/09/2020 13:03,09/09/2020 13:03,Pay Bill Online from 254706549634 - CLINTON OMBASA Acc. FDB,Completed,17000,,214500,TRUE,Pay Bill Online,254706549634 - CLINTON OMBASA,,FDB
OI96DFJH20,09/09/2020 06:49,09/09/2020 06:49,Pay Bill from 0743248310 - PATRICK STURRIDGE NYONGESA Acc. kaf,Completed,11400,,197500,TRUE,Pay Utility,0743248310 - PATRICK STURRIDGE NYONGESA,,kaf
OI88DDANGI,08/09/2020 21:54,08/09/2020 21:54,Pay Bill from 254715597659 - JOYCE KIVAI Acc. IED ,Completed,11000,,186100,TRUE,Pay Utility,254715597659 - JOYCE KIVAI,,IED
OI88DAY7N6,08/09/2020 20:37,08/09/2020 20:37,Pay Bill Online from 254725248080 - DENNIS KIPROTICH Acc. IBE,Completed,9600,,175100,TRUE,Pay Bill Online,254725248080 - DENNIS KIPROTICH,,IBE
OI82D80Q82,08/09/2020 19:35,08/09/2020 19:35,Pay Bill from 254740579741 - MUHINDI MULINYA Acc. HGG,Completed,15000,,165500,TRUE,Pay Utility,254740579741 - MUHINDI MULINYA,,HGG
OI89D7FKOP,08/09/2020 19:25,08/09/2020 19:25,Pay Bill from 254714552193 - CHRISTOPHER OCHIENG Acc. JGI,Completed,20000,,150500,TRUE,Pay Utility,254714552193 - CHRISTOPHER OCHIENG,,JGI
OI84CY3GZ4,08/09/2020 16:31,08/09/2020 16:31,Pay Bill Online from 254713831946 - KEVIN WAMBUA Acc. IAA,Completed,11000,,130500,TRUE,Pay Bill Online,254713831946 - KEVIN WAMBUA,,IAA
OI84CX15X0,08/09/2020 16:07,08/09/2020 16:07,Pay Bill from 254726380203 - SHARON OLENDO Acc. HCA,Completed,18000,,119500,TRUE,Pay Utility,254726380203 - SHARON OLENDO,,HCA
OI88CQ4HR2,08/09/2020 13:15,08/09/2020 13:15,Pay Bill from 254715728688 - NAOMI HAGERERA JACOB Acc. DGC,Completed,20000,,101500,TRUE,Pay Utility,254715728688 - NAOMI HAGERERA JACOB,,DGC
OI84CP83UQ,08/09/2020 12:51,08/09/2020 12:51,Pay Bill from 254701196539 - GICHURI KARANJA Acc. Fee,Completed,16000,,81500,TRUE,Pay Utility,254701196539 - GICHURI KARANJA,,Fee
OI82CP0ZSW,08/09/2020 12:46,08/09/2020 12:46,Pay Bill from 0769468021 - JUMA NGONYO NDAISI Acc.  jah,Completed,16000,,65500,TRUE,Pay Utility,0769468021 - JUMA NGONYO NDAISI,,
OI86COGF36,08/09/2020 12:31,08/09/2020 12:31,Pay Bill from 254722258107 - JOHN ODIMA ODIMA Acc. KGF,Completed,10000,,49500,TRUE,Pay Utility,254722258107 - JOHN ODIMA ODIMA,,KGF
OI84CN793U,08/09/2020 11:58,08/09/2020 11:58,Pay Bill from 0719834515 - Ibsa   Usman Acc. HBH,Completed,18000,,39500,TRUE,Pay Utility,0719834515 - Ibsa   Usman,,HBH
OI84CIYXJI,08/09/2020 10:06,08/09/2020 10:06,Pay Bill from 254725771056 - CHARLES MURAGURI Acc. FCC,Completed,9000,,21500,TRUE,Pay Utility,254725771056 - CHARLES MURAGURI,,FCC
OI83CIEO3H,08/09/2020 09:50,08/09/2020 09:50,Pay Bill from 254723026840 - HARRISON MAINA Acc. KAI,Completed,12500,,12500,TRUE,Pay Utility,254723026840 - HARRISON MAINA,,KAI
OI80CGYSKA,08/09/2020 09:08,08/09/2020 09:08,Utility Account to Organization Settlement Account,Completed,,-942600,0,TRUE,Utility Account to Organization Settlement Account,979524 - ANCIENT WELLS PROPERTY MANAGERS 2,,
OI81CDBIYN,08/09/2020 06:19,08/09/2020 06:19,Pay Bill from 0758826849 -  Norah Awala Anyango Acc. IDH,Completed,17000,,942600,TRUE,Pay Utility,0758826849 -  Norah Awala Anyango,,IDH
OI70CBPGD8,07/09/2020 22:08,07/09/2020 22:08,Pay Bill from 254716369842 - HUMMAM HAMID MOHAMED SAID AMBER Acc. FGC,Completed,1500,,925600,TRUE,Pay Utility,254716369842 - HUMMAM HAMID MOHAMED SAID AMBER,,FGC
OI77C9W8CJ,07/09/2020 20:58,07/09/2020 20:58,Pay Bill from 254790280339 - BANTURA GIBSON Acc. IBA,Completed,11000,,924100,TRUE,Pay Utility,254790280339 - BANTURA GIBSON,,IBA
OI76C9VANG,07/09/2020 20:57,07/09/2020 20:57,Pay Bill Online from 0757699775 - BENARD MUIA MUTUA Acc. HCB,Completed,16000,,913100,TRUE,Pay Bill Online,0757699775 - BENARD MUIA MUTUA,,HCB
OI76C5HXJK,07/09/2020 19:22,07/09/2020 19:22,Pay Bill from 254720361605 - DAUD AMBER Acc. IGH,Completed,500,,897100,TRUE,Pay Utility,254720361605 - DAUD AMBER,,IGH
OI78C4WST8,07/09/2020 19:12,07/09/2020 19:12,Pay Bill from 254701203464 - ELEMA MAMO ROBA Acc. hgf,Completed,14500,,896600,TRUE,Pay Utility,254701203464 - ELEMA MAMO ROBA,,hgf
OI76C3HM1G,07/09/2020 18:48,07/09/2020 18:48,Pay Bill from 254720107609 - DENNIS OGENDI BARAKE Acc. JAJ,Completed,15000,,882100,TRUE,Pay Utility with OD via STK,254720107609 - DENNIS OGENDI BARAKE,,JAJ
OI77C3FRSH,07/09/2020 18:47,07/09/2020 18:47,Pay Bill Online from 254704033042 - LESLIE KOIKAI Acc. IBD ,Completed,11000,,867100,TRUE,Pay Bill Online,254704033042 - LESLIE KOIKAI,,IBD
OI76C1MAQK,07/09/2020 18:16,07/09/2020 18:16,Pay Bill Online from 254722170279 - GEOFFREY GETUI Acc. FDE,Completed,16000,,856100,TRUE,Pay Bill Online,254722170279 - GEOFFREY GETUI,,FDE
OI75BZJ7SF,07/09/2020 17:36,07/09/2020 17:36,Pay Bill from 0769001671 - Wilson Mutangili Wambua Acc. haf,Completed,8000,,840100,TRUE,Pay Utility,0769001671 - Wilson Mutangili Wambua,,haf
OI75BWN3DD,07/09/2020 16:36,07/09/2020 16:36,Pay Bill from 254713966424 - NDUTI MUTHUI Acc. JED,Completed,15000,,832100,TRUE,Pay Utility,254713966424 - NDUTI MUTHUI,,JED
OI73BTFLH5,07/09/2020 15:21,07/09/2020 15:21,Pay Bill from 254729713741 - ALBANUS MUTISO Acc. jbd,Completed,15000,,817100,TRUE,Pay Utility,254729713741 - ALBANUS MUTISO,,jbd
OI78BSKKKY,07/09/2020 15:00,07/09/2020 15:00,Pay Bill from 254719626804 - PAUL NJOROGE Acc. JFI,Completed,20000,,802100,TRUE,Pay Utility,254719626804 - PAUL NJOROGE,,JFI
OI79BMPXJ9,07/09/2020 12:34,07/09/2020 12:34,Pay Bill from 0715688238 - JOANNAH ATUHAIRE BANTU Acc. jae,Completed,9000,,782100,TRUE,Pay Utility,0715688238 - JOANNAH ATUHAIRE BANTU,,jae
OI76BM3SA2,07/09/2020 12:19,07/09/2020 12:19,Pay Bill from 254701047939 - Cyrus Wahome Acc. kbg,Completed,10000,,773100,TRUE,Pay Utility,254701047939 - Cyrus Wahome,,kbg
OI74BI3KAC,07/09/2020 10:36,07/09/2020 10:36,Pay Bill from 254723954911 - JAMES KILAVI Acc. ICG,Completed,9500,,763100,TRUE,Pay Utility,254723954911 - JAMES KILAVI,,ICG
OI78BGLC2Q,07/09/2020 09:55,07/09/2020 09:55,Pay Bill Online from 254717809935 - LYDIAH WERU Acc. IDC,Completed,9500,,753600,TRUE,Pay Bill Online,254717809935 - LYDIAH WERU,,IDC
OI79BGGMSV,07/09/2020 09:51,07/09/2020 09:51,Pay Bill from 254798674917 - Egbe Okpaga Okpaga Acc. HAD,Completed,9500,,744100,TRUE,Pay Utility,254798674917 - Egbe Okpaga Okpaga,,HAD
OI72BEYIU0,07/09/2020 09:08,07/09/2020 09:08,FSI to Pay Bill by 714888 - B2C LOOP VIA NCBA Acc. JAD via WEB by B2C LOOP VIA NCBA\Cbainitiator,Completed,10000,,734600,TRUE,FSI to Pay Bill via API,714888 - B2C LOOP VIA NCBA,,JAD
OI75BC35TZ,07/09/2020 07:22,07/09/2020 07:22,Pay Bill from 254743775372 - SHIKUNDI PURITY KHAOYA Acc. HCD,Completed,9500,,724600,TRUE,Pay Utility,254743775372 - SHIKUNDI PURITY KHAOYA,,HCD
OI64BA837K,06/09/2020 22:45,06/09/2020 22:45,Pay Bill from 254703935626 - DAVID NGARI ITA Acc. FCD,Completed,1000,,715100,TRUE,Pay Utility,254703935626 - DAVID NGARI ITA,,FCD
OI67B9OTY5,06/09/2020 22:02,06/09/2020 22:02,Pay Bill from 254717726012 - WINFRED MUENI PETER Acc. IDD,Completed,12000,,714100,TRUE,Pay Utility,254717726012 - WINFRED MUENI PETER,,IDD
OI67B7YHIF,06/09/2020 20:52,06/09/2020 20:52,Pay Bill Online from 254728687482 - KELSEN MWIRIGI MUTIGA Acc. HCE,Completed,10500,,702100,TRUE,Pay Bill Online,254728687482 - KELSEN MWIRIGI MUTIGA,,HCE
OI62B61N3I,06/09/2020 20:02,06/09/2020 20:02,Pay Bill from 254708851939 - VENANT MBOGHO Acc. kch,Completed,10000,,691600,TRUE,Pay Utility with OD via STK,254708851939 - VENANT MBOGHO,,kch
OI62B3YFL8,06/09/2020 19:19,06/09/2020 19:19,Pay Bill from 254720361605 - DAUD AMBER Acc. IGH,Completed,500,,681600,TRUE,Pay Utility,254720361605 - DAUD AMBER,,IGH
OI67B39P4P,06/09/2020 19:06,06/09/2020 19:06,Pay Bill from 254714710698 - TABITHA MULEE KYALO Acc. IFD,Completed,11500,,681100,TRUE,Pay Utility,254714710698 - TABITHA MULEE KYALO,,IFD
OI64AYKKP0,06/09/2020 17:30,06/09/2020 17:30,Pay Bill Online from 254724754662 - CHARLES ERUKUDI EKAI Acc. FBE,Completed,16000,,669600,TRUE,Pay Bill Online,254724754662 - CHARLES ERUKUDI EKAI,,FBE
OI68AXJ6D2,06/09/2020 17:07,06/09/2020 17:07,Pay Bill from 254727648419 - ABDISALAN AHMED Acc. Jbh ,Completed,17000,,653600,TRUE,Pay Utility with OD via STK,254727648419 - ABDISALAN AHMED,,Jbh
OI68AV9QLQ,06/09/2020 16:14,06/09/2020 16:14,Pay Bill from 254712954563 - JOSEPH MUTISO KILONZO Acc. dac,Completed,20000,,636600,TRUE,Pay Utility,254712954563 - JOSEPH MUTISO KILONZO,,dac
OI67ATX3AR,06/09/2020 15:40,06/09/2020 15:40,Pay Bill from 254721918811 - AHMED ABDI Acc. kaj,Completed,16000,,616600,TRUE,Pay Utility,254721918811 - AHMED ABDI,,kaj
OI65ATFFF1,06/09/2020 15:28,06/09/2020 15:28,Pay Bill from 254723499628 - CLINTON JOSEPH MUHARI Acc. hfh,Completed,16000,,600600,TRUE,Pay Utility with OD via STK,254723499628 - CLINTON JOSEPH MUHARI,,hfh
OI67ASA9BT,06/09/2020 14:59,06/09/2020 14:59,Pay Bill from 254729948896 - CAROLINE V MILIZA Acc. Fec,Completed,9000,,584600,TRUE,Pay Utility,254729948896 - CAROLINE V MILIZA,,Fec
OI67ARBFNB,06/09/2020 14:35,06/09/2020 14:35,Pay Bill from 254722444622 - CHARITY KAGWAINI Acc. FFD,Completed,11000,,575600,TRUE,Pay Utility,254722444622 - CHARITY KAGWAINI,,FFD
OI66AND7SA,06/09/2020 12:47,06/09/2020 12:47,Pay Bill from 0729704534 - HABIBA MOHAMED SIGALA Acc. ifg,Completed,9000,,564600,TRUE,Pay Utility,0729704534 - HABIBA MOHAMED SIGALA,,ifg
OI63AMO2O1,06/09/2020 12:27,06/09/2020 12:27,Pay Bill from 254713159153 - GUYO SANKALA Acc. DGD ,Completed,20000,,555600,TRUE,Pay Utility,254713159153 - GUYO SANKALA,,DGD
OI67AMNZ4X,06/09/2020 12:27,06/09/2020 12:27,Pay Bill from 254728238249 - ESTHER WANGUI KIBUNYI Acc. ICA,Completed,17000,,535600,TRUE,Pay Utility,254728238249 - ESTHER WANGUI KIBUNYI,,ICA
OI69AMIJXH,06/09/2020 12:23,06/09/2020 12:23,Pay Bill from 254792187144 - HASSAN AHMED HASSAN Acc. KGI,Completed,10000,,518600,TRUE,Pay Utility,254792187144 - HASSAN AHMED HASSAN,,KGI
OI66AGZTK6,06/09/2020 09:34,06/09/2020 09:34,Pay Bill Online from 254720044312 - ELIUD KIPKURUI Acc. FCF,Completed,17000,,508600,TRUE,Pay Bill Online,254720044312 - ELIUD KIPKURUI,,FCF
OI62ACIBUQ,06/09/2020 03:41,06/09/2020 03:41,Pay Bill from 254723071630 - KENNEDY KARANJA NJOROGE Acc. JBI,Completed,20000,,491600,TRUE,Pay Utility,254723071630 - KENNEDY KARANJA NJOROGE,,JBI
OI55ABLE4P,05/09/2020 22:59,05/09/2020 22:59,Pay Bill from 0700206427 - Clare Nabalisa Mukasa Acc. HFA,Completed,16000,,471600,TRUE,Pay Utility,0700206427 - Clare Nabalisa Mukasa,,HFA
OI51AB7T9P,05/09/2020 22:28,05/09/2020 22:28,Pay Bill from 254798524621 - MERCY CHESANG Acc. jcj,Completed,16000,,455600,TRUE,Pay Utility,254798524621 - MERCY CHESANG,,jcj
OI52AAYIKA,05/09/2020 22:12,05/09/2020 22:12,Pay Bill from 254704833344 - LOISE KIMANI Acc. jfa,Completed,20000,,439600,TRUE,Pay Utility,254704833344 - LOISE KIMANI,,jfa
OI53AA9FZT,05/09/2020 21:41,05/09/2020 21:41,Pay Bill from 254721465713 - RHODA WAMBUI MWANGI Acc. jfh,Completed,17000,,419600,TRUE,Pay Utility,254721465713 - RHODA WAMBUI MWANGI,,jfh
OI57A9S6BN,05/09/2020 21:24,05/09/2020 21:24,Pay Bill from 254707315614 - TERESAH WANJIRU KIRAGU Acc. JDI,Completed,24000,,402600,TRUE,Pay Utility,254707315614 - TERESAH WANJIRU KIRAGU,,JDI
OI51A8G0IJ,05/09/2020 20:47,05/09/2020 20:47,Pay Bill from 254714114228 - MWANGO AWINO VIOLET Acc. DCB,Completed,16000,,378600,TRUE,Pay Utility,254714114228 - MWANGO AWINO VIOLET,,DCB
OI57A7TH95,05/09/2020 20:32,05/09/2020 20:32,Pay Bill from 254720361605 - DAUD AMBER Acc. IGH,Completed,500,,362600,TRUE,Pay Utility,254720361605 - DAUD AMBER,,IGH
OI57A6LCLR,05/09/2020 20:07,05/09/2020 20:07,Pay Bill from 0743248310 - PATRICK STURRIDGE NYONGESA Acc. kaf,Completed,600,,362100,TRUE,Pay Utility,0743248310 - PATRICK STURRIDGE NYONGESA,,kaf
OI51A5OGRJ,05/09/2020 19:50,05/09/2020 19:50,Pay Bill from 254714209770 - PURITY NDUKU KYALO Acc. JEB,Completed,15000,,361500,TRUE,Pay Utility,254714209770 - PURITY NDUKU KYALO,,JEB
OI55A57I5P,05/09/2020 19:42,05/09/2020 19:42,Pay Bill from 254722874715 - PATRCIAH mbesa KIOKO Acc. KBB,Completed,16000,,346500,TRUE,Pay Utility,254722874715 - PATRCIAH mbesa KIOKO,,KBB
OI59A4GZ95,05/09/2020 19:30,05/09/2020 19:30,Pay Bill from 254725754547 - MWACHIRO GEORGE DECHE Acc. DFC,Completed,23000,,330500,TRUE,Pay Utility,254725754547 - MWACHIRO GEORGE DECHE,,DFC
OI51A4DPAT,05/09/2020 19:28,05/09/2020 19:28,Pay Bill from 254723341864 - WILLIAM OSIEL WACHUDI Acc. DED,Completed,20000,,307500,TRUE,Pay Utility,254723341864 - WILLIAM OSIEL WACHUDI,,DED
OI50A2SPVE,05/09/2020 19:05,05/09/2020 19:05,Pay Bill from 254720868281 - KENNEDY MWELU Acc. KBI,Completed,12500,,287500,TRUE,Pay Utility with OD via STK,254720868281 - KENNEDY MWELU,,KBI
OI53A2HUZT,05/09/2020 19:00,05/09/2020 19:00,Pay Bill from 254726265855 - SHEM KEVIN OMONDI OTIENO Acc. Kdj ,Completed,17000,,275000,TRUE,Pay Utility,254726265855 - SHEM KEVIN OMONDI OTIENO,,Kdj
OI59A1O53L,05/09/2020 18:48,05/09/2020 18:48,Pay Bill Online from 254715892656 - DENNIS MUSYOKA MUOKI Acc. KFA,Completed,16000,,258000,TRUE,Pay Bill Online,254715892656 - DENNIS MUSYOKA MUOKI,,KFA
OI559ZTEU3,05/09/2020 18:16,05/09/2020 18:16,Pay Bill from 254722986239 - CLAIRE IRENE WANGARI NJERI Acc. FFE,Completed,15000,,242000,TRUE,Pay Utility,254722986239 - CLAIRE IRENE WANGARI NJERI,,FFE
OI529YVHQA,05/09/2020 17:59,05/09/2020 17:59,Pay Bill from 254708703539 - SUSAN NDUGIRE NDUGIRE Acc. Kda,Completed,17000,,227000,TRUE,Pay Utility,254708703539 - SUSAN NDUGIRE NDUGIRE,,Kda
OI579VX3DD,05/09/2020 17:00,05/09/2020 17:00,Pay Bill from 254729392595 - WINNIE NASICHE KERE Acc. JBF,Completed,8000,,210000,TRUE,Pay Utility,254729392595 - WINNIE NASICHE KERE,,JBF
OI519SELGD,05/09/2020 15:43,05/09/2020 15:43,Pay Bill from 254706237502 - STEPHEN WERE Acc. IBA,Completed,7000,,202000,TRUE,Pay Utility with OD via STK,254706237502 - STEPHEN WERE,,IBA
OI519RJ0EH,05/09/2020 15:22,05/09/2020 15:22,Pay Bill Online from 254726313835 - SYLVIA JUMA Acc. HDF,Completed,9500,,195000,TRUE,Pay Bill Online,254726313835 - SYLVIA JUMA,,HDF
OI599MITX3,05/09/2020 13:21,05/09/2020 13:21,Pay Bill from 254724655033 - SUSAN CHIMOTO Acc. KGH,Completed,9500,,185500,TRUE,Pay Utility,254724655033 - SUSAN CHIMOTO,,KGH
OI599HWT4D,05/09/2020 11:26,05/09/2020 11:26,Pay Bill from 254700627058 - SUSY NABALAYO CHELONGO Acc. dbb,Completed,5500,,176000,TRUE,Pay Utility,254700627058 - SUSY NABALAYO CHELONGO,,dbb
OI519G61O5,05/09/2020 10:41,05/09/2020 10:41,Pay Bill from 254724882554 - ALPHONCE WAMBUA NGELI Acc. JDA,Completed,20000,,170500,TRUE,Pay Utility,254724882554 - ALPHONCE WAMBUA NGELI,,JDA
OI519EO7J3,05/09/2020 10:02,05/09/2020 10:02,Pay Bill from 254792946676 - ESTHER KAMAU Acc. hab,Completed,17000,,150500,TRUE,Pay Utility,254792946676 - ESTHER KAMAU,,hab
OI569D4YTM,05/09/2020 09:21,05/09/2020 09:21,Pay Bill from 254716369842 - HUMMAM HAMID MOHAMED SAID AMBER Acc. FGC,Completed,1000,,133500,TRUE,Pay Utility,254716369842 - HUMMAM HAMID MOHAMED SAID AMBER,,FGC
OI549BACZC,05/09/2020 08:26,05/09/2020 08:26,Pay Bill from 254726593769 - BONFACE BWINA Acc. DEB,Completed,16000,,132500,TRUE,Pay Utility with OD via STK,254726593769 - BONFACE BWINA,,DEB
OI5498L8PS,05/09/2020 06:02,05/09/2020 06:02,Pay Bill from 254729160700 - MICAH NDUNGI Acc. HFE,Completed,10500,,116500,TRUE,Pay Utility,254729160700 - MICAH NDUNGI,,HFE
OI4597JF6T,04/09/2020 22:40,04/09/2020 22:40,Pay Bill from 254708786932 - ZUBEDAH MOHAMMED Acc. IAG,Completed,9500,,106000,TRUE,Pay Utility,254708786932 - ZUBEDAH MOHAMMED,,IAG
OI4096ET4I,04/09/2020 21:40,04/09/2020 21:40,Pay Bill from 254708619274 - BONIFACE MUTUA Acc. IFF,Completed,10000,,96500,TRUE,Pay Utility,254708619274 - BONIFACE MUTUA,,IFF
OI4990ITCB,04/09/2020 19:24,04/09/2020 19:24,Pay Bill from 254721315975 - JOSEPH NDEGWA Acc. HEB ,Completed,16000,,86500,TRUE,Pay Utility,254721315975 - JOSEPH NDEGWA,,HEB
OI418TAFTP,04/09/2020 17:17,04/09/2020 17:17,Pay Bill from 254714156268 - MARY NJOKI KANYIRI Acc. IFC,Completed,9500,,70500,TRUE,Pay Utility,254714156268 - MARY NJOKI KANYIRI,,IFC
OI498SDQCH,04/09/2020 16:58,04/09/2020 16:58,Pay Bill from 254722136450 - MARY EVERLYN Acc. FAF,Completed,17000,,61000,TRUE,Pay Utility,254722136450 - MARY EVERLYN,,FAF
OI468PUVBG,04/09/2020 16:01,04/09/2020 16:01,Pay Bill from 254728704378 - ELIZABETH KAMENE MUSYIMI Acc. jgj,Completed,16000,,44000,TRUE,Pay Utility,254728704378 - ELIZABETH KAMENE MUSYIMI,,jgj
OI458O1UKH,04/09/2020 15:19,04/09/2020 15:19,Pay Bill Online from 254705846408 - JAMES OUMA Acc. HBG,Completed,16000,,28000,TRUE,Pay Bill Online,254705846408 - JAMES OUMA,,HBG
OI458MT9DT,04/09/2020 14:49,04/09/2020 14:49,Pay Bill from 254719398942 - NORAH WAYUA MUNYAO Acc. KDI,Completed,12000,,12000,TRUE,Pay Utility,254719398942 - NORAH WAYUA MUNYAO,,KDI
OI498L52D5,04/09/2020 14:08,04/09/2020 14:08,Utility Account to Organization Settlement Account,Completed,,-261550,0,TRUE,Utility Account to Organization Settlement Account,979524 - ANCIENT WELLS PROPERTY MANAGERS 2,,
OI478K5J9B,04/09/2020 13:44,04/09/2020 13:44,Pay Bill from 254729892526 - PHARIS MICHUKI Acc. JAI,Completed,25000,,261550,TRUE,Pay Utility,254729892526 - PHARIS MICHUKI,,JAI
OI438JJOGR,04/09/2020 13:29,04/09/2020 13:29,Pay Bill from 254726827817 - ERWIN ADHOK Acc. KBA,Completed,17000,,236550,TRUE,Pay Utility with OD via STK,254726827817 - ERWIN ADHOK,,KBA
OI408JD62W,04/09/2020 13:24,04/09/2020 13:24,Pay Bill from 254707551286 - BENSON NJUGUNA WANGARI Acc. KFI,Completed,12000,,219550,TRUE,Pay Utility,254707551286 - BENSON NJUGUNA WANGARI,,KFI
OI438HYM25,04/09/2020 12:48,04/09/2020 12:48,Pay Bill from 254700374335 - HYLINE ONDARI Acc. KTE,Completed,9500,,207550,TRUE,Pay Utility,254700374335 - HYLINE ONDARI,,KTE
OI468CKMWM,04/09/2020 10:33,04/09/2020 10:33,Pay Bill from 0790924905 - KEVIN   KIDAGISA Acc. IGC,Completed,9000,,198050,TRUE,Pay Utility,0790924905 - KEVIN   KIDAGISA,,IGC
OI478AULFD,04/09/2020 09:47,04/09/2020 09:47,Pay Bill from 254729371750 - DERRICK OTANGA Acc. FEF,Completed,17000,,189050,TRUE,Pay Utility,254729371750 - DERRICK OTANGA,,FEF
OI4087EZD8,04/09/2020 08:06,04/09/2020 08:06,Pay Bill from 254712187712 - JUDELEEN AHINDUKHA SHILOBELE Acc. IGG,Completed,10000,,172050,TRUE,Pay Utility,254712187712 - JUDELEEN AHINDUKHA SHILOBELE,,IGG
OI47872DTN,04/09/2020 07:53,04/09/2020 07:53,Pay Bill from 254702032278 - ANTONY MAINA Acc. kkk,Completed,50,,162050,TRUE,Pay Utility with OD via STK,254702032278 - ANTONY MAINA,,kkk
OI4284WT2W,04/09/2020 01:09,04/09/2020 01:09,Pay Bill from 254716369842 - HUMMAM HAMID MOHAMED SAID AMBER Acc. FGC,Completed,500,,162000,TRUE,Pay Utility,254716369842 - HUMMAM HAMID MOHAMED SAID AMBER,,FGC
OI38844336,03/09/2020 22:38,03/09/2020 22:38,Pay Bill from 254742736122 - yassir mwinyi abdulrazaq Acc. ICE,Completed,8000,,161500,TRUE,Pay Utility,254742736122 - yassir mwinyi abdulrazaq,,ICE
OI3783DXG9,03/09/2020 21:56,03/09/2020 21:56,Pay Bill from 254703935626 - DAVID NGARI ITA Acc. FCD,Completed,2000,,153500,TRUE,Pay Utility with OD via STK,254703935626 - DAVID NGARI ITA,,FCD
OI3280RRFU,03/09/2020 20:37,03/09/2020 20:37,Pay Bill from 254726928933 - JOSHUA NDUNDA NZIOKA Acc. Kcj,Completed,17500,,151500,TRUE,Pay Utility,254726928933 - JOSHUA NDUNDA NZIOKA,,Kcj
OI357VZM4L,03/09/2020 19:10,03/09/2020 19:10,Pay Bill from 254724611087 - Francis Mukindya Muoki Acc. KDE,Completed,5000,,134000,TRUE,Pay Utility,254724611087 - Francis Mukindya Muoki,,KDE
OI357VP8PJ,03/09/2020 19:05,03/09/2020 19:05,Pay Bill from 254798643998 - Judith Mwaniki Acc. KCE,Completed,10000,,129000,TRUE,Pay Utility,254798643998 - Judith Mwaniki,,KCE
OI387QGCMA,03/09/2020 17:32,03/09/2020 17:32,Pay Bill Online from 254716499837 - ASHA MUSA Acc. JFD,Completed,15000,,119000,TRUE,Pay Bill Online,254716499837 - ASHA MUSA,,JFD
OI387NM2WW,03/09/2020 16:31,03/09/2020 16:31,FSI to Pay Bill by 714888 - B2C LOOP VIA NCBA Acc. FAD via WEB by B2C LOOP VIA NCBA\Cbainitiator,Completed,11000,,104000,TRUE,FSI to Pay Bill via API,714888 - B2C LOOP VIA NCBA,,FAD
OI317M9BMF,03/09/2020 15:59,03/09/2020 15:59,Pay Bill from 254700627058 - SUSY NABALAYO CHELONGO Acc. dbb,Completed,10500,,93000,TRUE,Pay Utility,254700627058 - SUSY NABALAYO CHELONGO,,dbb
OI397JPGP7,03/09/2020 14:57,03/09/2020 14:57,Pay Bill Online from 254722705077 - ROSALID WAMBUI NJOROGE Acc. FDD,Completed,12000,,82500,TRUE,Pay Bill Online,254722705077 - ROSALID WAMBUI NJOROGE,,FDD
OI377JP7NV,03/09/2020 14:56,03/09/2020 14:56,Pay Bill from 254725909984 - TIMOTHY ODHIAMBO OWITI Acc. JDE,Completed,10000,,70500,TRUE,Pay Utility with OD via STK,254725909984 - TIMOTHY ODHIAMBO OWITI,,JDE
OI397HHQHP,03/09/2020 14:01,03/09/2020 14:01,Pay Bill from 254722965785 - HENRY THOMAS ONDERI Acc. JCB,Completed,15000,,60500,TRUE,Pay Utility,254722965785 - HENRY THOMAS ONDERI,,JCB
OI387G7WHO,03/09/2020 13:29,03/09/2020 13:29,Pay Bill from 254707669965 - ELVIS MOENGA OKERO Acc. IAE,Completed,9000,,45500,TRUE,Pay Utility,254707669965 - ELVIS MOENGA OKERO,,IAE
OI397FU57Z,03/09/2020 13:20,03/09/2020 13:20,Pay Bill from 254717485154 - MOHAMED MOHAMED Acc. JCF,Completed,8000,,36500,TRUE,Pay Utility,254717485154 - MOHAMED MOHAMED,,JCF
OI307FIR4Y,03/09/2020 13:12,03/09/2020 13:12,Pay Bill from 254718233980 - KAREN ASWANI Acc. HEC,Completed,10500,,28500,TRUE,Pay Utility,254718233980 - KAREN ASWANI,,HEC
OI3077Y3JU,03/09/2020 09:56,03/09/2020 09:56,Pay Bill from 254720458054 - ROBERT BETT Acc. ICH,Completed,18000,,18000,TRUE,Pay Utility,254720458054 - ROBERT BETT,,ICH
OI3173XC65,03/09/2020 07:55,03/09/2020 07:55,Utility Account to Organization Settlement Account,Completed,,-390500,0,TRUE,Utility Account to Organization Settlement Account,979524 - ANCIENT WELLS PROPERTY MANAGERS 2,,
OI2971GGF9,02/09/2020 23:47,02/09/2020 23:47,Pay Bill from 0722950695 - Joshua Mbithi Kivondo Acc. Dca ,Completed,8000,,390500,TRUE,Pay Utility,0722950695 - Joshua Mbithi Kivondo,,Dca
OI2470D1XA,02/09/2020 22:06,02/09/2020 22:06,Pay Bill from 254713115724 - ROTICH JUDITH JUDITH CHERONO Acc. KCK,Completed,17000,,382500,TRUE,Pay Utility,254713115724 - ROTICH JUDITH JUDITH CHERONO,,KCK
OI27700WZ3,02/09/2020 21:51,02/09/2020 21:51,Pay Bill from 254720361605 - DAUD AMBER Acc. IGH,Completed,500,,365500,TRUE,Pay Utility,254720361605 - DAUD AMBER,,IGH
OI216Z84VH,02/09/2020 21:22,02/09/2020 21:22,Pay Bill from 254719285750 - LILIAN ACHIENG ODONGO Acc. IGE,Completed,9000,,365000,TRUE,Pay Utility,254719285750 - LILIAN ACHIENG ODONGO,,IGE
OI216WQLDD,02/09/2020 20:20,02/09/2020 20:20,Pay Bill from 254711397174 - JASEL HOPE ANTONINA Acc. kef,Completed,7000,,356000,TRUE,Pay Utility,254711397174 - JASEL HOPE ANTONINA,,kef
OI296T12LZ,02/09/2020 19:15,02/09/2020 19:15,Pay Bill from 254724364316 - LINET MWENDIA Acc. KEJ,Completed,16000,,349000,TRUE,Pay Utility,254724364316 - LINET MWENDIA,,KEJ
OI296SA9XD,02/09/2020 19:04,02/09/2020 19:04,Pay Bill from 254723605941 - JOHN KARIHA Acc. KDD,Completed,11000,,333000,TRUE,Pay Utility,254723605941 - JOHN KARIHA,,KDD
OI206OFBV8,02/09/2020 17:59,02/09/2020 17:59,Pay Bill from 254702764047 - FERDINAND K Acc. KDB,Completed,16000,,322000,TRUE,Pay Utility,254702764047 - FERDINAND K,,KDB
OI296NOQHN,02/09/2020 17:45,02/09/2020 17:45,Pay Bill from 254708328466 - VENESSA NYARERU Acc. KCD,Completed,12000,,306000,TRUE,Pay Utility with OD via STK,254708328466 - VENESSA NYARERU,,KCD
OI206J3F0M,02/09/2020 16:05,02/09/2020 16:05,Pay Bill Online from 254714578997 - LINCOLN DAN MEMBA Acc. KAC,Completed,6000,,294000,TRUE,Pay Bill Online,254714578997 - LINCOLN DAN MEMBA,,KAC
OI216IVOAR,02/09/2020 15:59,02/09/2020 15:59,Pay Bill from 254728476791 - CAROLE ACHIENG Acc. KCF,Completed,10000,,288000,TRUE,Pay Utility,254728476791 - CAROLE ACHIENG,,KCF
OI216I9RYH,02/09/2020 15:44,02/09/2020 15:44,Pay Bill from 254728364280 - EMMANUEL THUMA OYIER Acc. IDF,Completed,11000,,278000,TRUE,Pay Utility,254728364280 - EMMANUEL THUMA OYIER,,IDF
OI246G020U,02/09/2020 14:46,02/09/2020 14:46,Pay Bill Online from 0743369961 - SALOME WANGARI KIBUGI Acc. KGD,Completed,10000,,267000,TRUE,Pay Bill Online,0743369961 - SALOME WANGARI KIBUGI,,KGD
OI256FO9Z1,02/09/2020 14:38,02/09/2020 14:38,Pay Bill from 254722569870 - LUKA KEITANY Acc. JFJ,Completed,15000,,257000,TRUE,Pay Utility,254722569870 - LUKA KEITANY,,JFJ
OI256DQ2KN,02/09/2020 13:47,02/09/2020 13:47,Pay Bill from 254718138578 - PAULINE KIOKO Acc. KFD,Completed,12000,,242000,TRUE,Pay Utility,254718138578 - PAULINE KIOKO,,KFD
OI246CFQWI,02/09/2020 13:14,02/09/2020 13:14,FSI to Pay Bill by 714888 - B2C LOOP VIA NCBA Acc. JBC via WEB by B2C LOOP VIA NCBA\Cbainitiator,Completed,12000,,230000,TRUE,FSI to Pay Bill via API,714888 - B2C LOOP VIA NCBA,,JBC
OI216BZVML,02/09/2020 13:02,02/09/2020 13:02,Pay Bill from 254714855708 - KIPLANGAT SITIENEI Acc. FAE,Completed,16000,,218000,TRUE,Pay Utility,254714855708 - KIPLANGAT SITIENEI,,FAE
OI2067C9T2,02/09/2020 11:01,02/09/2020 11:01,Pay Bill from 254721302658 - JACOB BIRUNDU Acc. DDB,Completed,16000,,202000,TRUE,Pay Utility,254721302658 - JACOB BIRUNDU,,DDB
OI26672WHC,02/09/2020 10:55,02/09/2020 10:55,Pay Bill from 254716784364 - Wendy Kemunto Nyandiko Acc. FFC,Completed,9000,,186000,TRUE,Pay Utility,254716784364 - Wendy Kemunto Nyandiko,,FFC
OI2964PFA9,02/09/2020 09:52,02/09/2020 09:52,Pay Bill from 254710926340 - DOREEN MUTANU Acc. IBG,Completed,9500,,177000,TRUE,Pay Utility with OD via STK,254710926340 - DOREEN MUTANU,,IBG
OI205YUP1U,02/09/2020 02:54,02/09/2020 02:54,Pay Bill from 254723872785 - MARY ANN NJERI NDUNG'U Acc. HED,Completed,9500,,167500,TRUE,Pay Utility,254723872785 - MARY ANN NJERI NDUNG'U,,HED
OI185TT1Z4,01/09/2020 20:16,01/09/2020 20:16,Pay Bill from 0757259130 - RASHID SUDI MCHOMBO Acc. JAF,Completed,8000,,158000,TRUE,Pay Utility,0757259130 - RASHID SUDI MCHOMBO,,JAF
OI155T0RZT,01/09/2020 20:00,01/09/2020 20:00,Pay Bill from 254711271263 - BENSON MWADIME JOSEPH Acc. 1EE,Completed,9000,,150000,TRUE,Pay Utility,254711271263 - BENSON MWADIME JOSEPH,,1EE
OI145SNXR8,01/09/2020 19:52,01/09/2020 19:52,Pay Bill from 254720361605 - DAUD AMBER Acc. IGH,Completed,500,,141000,TRUE,Pay Utility,254720361605 - DAUD AMBER,,IGH
OI105S5BBA,01/09/2020 19:42,01/09/2020 19:42,Pay Bill from 254729796719 - JACINTA WANJIKU NJERI Acc. FFF,Completed,17000,,140500,TRUE,Pay Utility,254729796719 - JACINTA WANJIKU NJERI,,FFF
OI185RQRH6,01/09/2020 19:35,01/09/2020 19:35,Pay Bill from 254714563486 - BRIAN MMATA MUSERA Acc. KBJ,Completed,16000,,123500,TRUE,Pay Utility,254714563486 - BRIAN MMATA MUSERA,,KBJ
OI155OPIVH,01/09/2020 18:46,01/09/2020 18:46,Pay Bill Online from 254711724272 - EDMOND ONYANGO OKEWE Acc. FCB,Completed,7500,,107500,TRUE,Pay Bill Online,254711724272 - EDMOND ONYANGO OKEWE,,FCB
OI135L1A4R,01/09/2020 17:37,01/09/2020 17:37,Pay Bill from 254716369842 - HUMMAM HAMID MOHAMED SAID AMBER Acc. FGC,Completed,1000,,100000,TRUE,Pay Utility,254716369842 - HUMMAM HAMID MOHAMED SAID AMBER,,FGC
OI105ID266,01/09/2020 16:40,01/09/2020 16:40,Pay Bill from 254721538323 - ISSA ISACK GOLLO Acc. DCC for Sept 2020,Completed,20000,,99000,TRUE,Pay Utility,254721538323 - ISSA ISACK GOLLO,,DCC
OI1459B7V6,01/09/2020 12:53,01/09/2020 12:53,Pay Bill Online from 254795510441 - LEWIS MUEMA Acc. KEB,Completed,16000,,79000,TRUE,Pay Bill Online,254795510441 - LEWIS MUEMA,,KEB
OI1457T0NU,01/09/2020 12:14,01/09/2020 12:14,Pay Bill from 254758296430 - KIPKIRUI COLLINS Acc. DAB,Completed,16000,,63000,TRUE,Pay Utility with OD via STK,254758296430 - KIPKIRUI COLLINS,,DAB
OI1457AF1Q,01/09/2020 12:01,01/09/2020 12:01,Pay Bill from 254702355678 - JOHN NJOROGE GICHERU Acc. ITE,Completed,10000,,47000,TRUE,Pay Utility,254702355678 - JOHN NJOROGE GICHERU,,ITE
OI1056TCD0,01/09/2020 11:48,01/09/2020 11:48,Pay Bill from 254726753273 - JESSE K MURIRMI NJERU Acc. HCH,Completed,17000,,37000,TRUE,Pay Utility,254726753273 - JESSE K MURIRMI NJERU,,HCH
OI1553H947,01/09/2020 10:20,01/09/2020 10:20,Pay Bill from 254720249209 - WILFRED NJUGUNA WANJIRI Acc. DDD,Completed,20000,,20000,TRUE,Pay Utility,254720249209 - WILFRED NJUGUNA WANJIRI,,DDD
OI144ZWO9U,01/09/2020 08:37,01/09/2020 08:37,Utility Account to Organization Settlement Account,Completed,,-207500,0,TRUE,Utility Account to Organization Settlement Account,979524 - ANCIENT WELLS PROPERTY MANAGERS 2,,
