Receipt No.,Completion Time,Initiation Time,Details,Transaction Status,Paid In,Withdrawn,Balance,Balance Confirmed,Reason Type,Other Party Info,Linked Transaction ID,A/C No.
ODF5HR0HVD,15/04/2020 06:17,15/04/2020 06:17,Utility Account to Organization Settlement Account,Completed,,-36000,0,TRUE,Utility Account to Organization Settlement Account,887674 - ANCIENT WELLS LTD 1,,
ODE8HPLKYG,14/04/2020 21:34,14/04/2020 21:34,Pay Bill from 254720360607 - MARITIM SUSAN CHEBET Acc. V25,Completed,6600,,36000,TRUE,Pay Utility,254720360607 - MARITIM SUSAN CHEBET,,V25
ODE7HMR2NL,14/04/2020 19:29,14/04/2020 19:29,Pay Bill from 254704783091 - CLINTON MUSEBE KASUTI Acc. V48,Completed,6600,,29400,TRUE,Pay Utility,254704783091 - CLINTON MUSEBE KASUTI,,V48
ODE4HEV8NQ,14/04/2020 16:20,14/04/2020 16:20,Pay Bill from 254710262457 - PETER VIKATSI Acc. Peterv26,Completed,6600,,22800,TRUE,Pay Utility,254710262457 - PETER VIKATSI,,Peterv26
ODE9HE60HF,14/04/2020 16:00,14/04/2020 16:00,Pay Bill from 254718417450 - HARON ASUMA OROKO Acc. haron V47,Completed,6600,,16200,TRUE,Pay Utility,254718417450 - HARON ASUMA OROKO,,haron
ODD3GTZ3XR,13/04/2020 18:57,13/04/2020 18:57,Pay Bill from 254799727553 - judith anyangu omuchesi Acc. Samson Aholo v33,Completed,3000,,9600,TRUE,Pay Utility,254799727553 - judith anyangu omuchesi,,Samson
ODD7GPD72T,13/04/2020 17:10,13/04/2020 17:10,Pay Bill from 254795449800 - MARTHA WANJIRU NJUGUNA Acc. V28,Completed,6600,,6600,TRUE,Pay Utility,254795449800 - MARTHA WANJIRU NJUGUNA,,V28
ODD8GHG7U2,13/04/2020 13:06,13/04/2020 13:06,Utility Account to Organization Settlement Account,Completed,,-22800,0,TRUE,Utility Account to Organization Settlement Account,887674 - ANCIENT WELLS LTD 1,,
ODD8GASL9Y,13/04/2020 09:08,13/04/2020 09:08,Pay Bill from 0702544614 - linda kwamboka ombiro Acc. A49,Completed,6600,,22800,TRUE,Pay Utility,0702544614 - linda kwamboka ombiro,,A49
ODC8FPMY1G,12/04/2020 12:25,12/04/2020 12:25,Pay Bill from 254723538366 - VERONICAH SHIYENJI Acc. V40,Completed,3000,,16200,TRUE,Pay Utility,254723538366 - VERONICAH SHIYENJI,,V40
ODC0FOHNM4,12/04/2020 11:46,12/04/2020 11:46,Pay Bill from 254702921564 - DENNIS MAHERO SHIUNDU Acc. Dennis V21,Completed,6600,,13200,TRUE,Pay Utility,254702921564 - DENNIS MAHERO SHIUNDU,,Dennis
ODB3F3VPXL,11/04/2020 15:49,11/04/2020 15:49,Pay Bill from 254797665088 - INNOCENT WANAMI Acc. V2,Completed,6600,,6600,TRUE,Pay Utility with OD via STK,254797665088 - INNOCENT WANAMI,,V2
ODB0EYUW50,11/04/2020 13:16,11/04/2020 13:16,Utility Account to Organization Settlement Account,Completed,,-27400,0,TRUE,Utility Account to Organization Settlement Account,887674 - ANCIENT WELLS LTD 1,,
ODA3ECMAI7,10/04/2020 16:44,10/04/2020 16:44,Pay Bill from 254722160984 - PENINNAH MUNYWOKI Acc. Anita v27,Completed,6600,,27400,TRUE,Pay Utility,254722160984 - PENINNAH MUNYWOKI,,Anita
ODA8DXCUSM,10/04/2020 08:30,10/04/2020 08:30,Pay Bill Online from 254720723193 - MIKA KEVIN OMONDI Acc. v03,Completed,6600,,20800,TRUE,Pay Bill Online,254720723193 - MIKA KEVIN OMONDI,,v03
OD90DOPB7K,09/04/2020 18:54,09/04/2020 18:54,Pay Bill from 254712305555 - peris kiragu Acc. V17,Completed,7000,,14200,TRUE,Pay Utility,254712305555 - peris kiragu,,V17
OD95DJL589,09/04/2020 17:03,09/04/2020 17:03,Pay Bill from 254705133053 - PASCAL OPAR Acc. pascalv45,Completed,7200,,7200,TRUE,Pay Utility,254705133053 - PASCAL OPAR,,pascalv45
OD94DC4IQQ,09/04/2020 13:28,09/04/2020 13:28,Utility Account to Organization Settlement Account,Completed,,-33000,0,TRUE,Utility Account to Organization Settlement Account,887674 - ANCIENT WELLS LTD 1,,
OD95D1ISAF,09/04/2020 06:28,09/04/2020 06:28,Pay Bill from 254700218502 - GRACE NGURE Acc. v46,Completed,6600,,33000,TRUE,Pay Utility,254700218502 - GRACE NGURE,,v46
