Receipt No.,Completion Time,Initiation Time,Details,Transaction Status,Paid In,Withdrawn,Balance,Balance Confirmed,Reason Type,Other Party Info,Linked Transaction ID,A/C No.
OD1367ETED,01/04/2020 07:52,01/04/2020 07:52,Organization Settlement Account to Organization MMF Account,Completed,,-53400,0,TRUE,Organization Settlement Account to Organization MMF Account,887674 - ANCIENT WELLS LTD 1,,
OD1667ETE6,01/04/2020 07:52,01/04/2020 07:52,Utility Account to Organization Settlement Account,Completed,53400,,53400,TRUE,Utility Account to Organization Settlement Account,887674 - ANCIENT WELLS LTD 1,,
OCQ11JCT0Z,26/03/2020 06:50,26/03/2020 06:50,Organization Settlement Account to Organization MMF Account,Completed,,-13600,0,TRUE,Organization Settlement Account to Organization MMF Account,887674 - ANCIENT WELLS LTD 1,,
OCQ01JCT0Y,26/03/2020 06:50,26/03/2020 06:50,Utility Account to Organization Settlement Account,Completed,13600,,13600,TRUE,Utility Account to Organization Settlement Account,887674 - ANCIENT WELLS LTD 1,,
OCO3ZHVEND,24/03/2020 18:53,24/03/2020 18:53,Organization Settlement Account to Organization MMF Account,Completed,,-6600,0,TRUE,Organization Settlement Account to Organization MMF Account,887674 - ANCIENT WELLS LTD 1,,
OCO6ZHVEN6,24/03/2020 18:53,24/03/2020 18:53,Utility Account to Organization Settlement Account,Completed,6600,,6600,TRUE,Utility Account to Organization Settlement Account,887674 - ANCIENT WELLS LTD 1,,
OCN8YBY44G,23/03/2020 11:07,23/03/2020 11:07,Organization Settlement Account to Organization MMF Account,Completed,,-6600,0,TRUE,Organization Settlement Account to Organization MMF Account,887674 - ANCIENT WELLS LTD 1,,
OCN2YBY44A,23/03/2020 11:07,23/03/2020 11:07,Utility Account to Organization Settlement Account,Completed,6600,,6600,TRUE,Utility Account to Organization Settlement Account,887674 - ANCIENT WELLS LTD 1,,
OCJ0VFVK5S,19/03/2020 16:36,19/03/2020 16:36,Organization Settlement Account to Organization MMF Account,Completed,,-19900,0,TRUE,Organization Settlement Account to Organization MMF Account,887674 - ANCIENT WELLS LTD 1,,
OCJ8VFVK5Q,19/03/2020 16:36,19/03/2020 16:36,Utility Account to Organization Settlement Account,Completed,19900,,19900,TRUE,Utility Account to Organization Settlement Account,887674 - ANCIENT WELLS LTD 1,,
