Receipt No.,Completion Time,Initiation Time,Details,Transaction Status,Paid In,Withdrawn,Balance,Balance Confirmed,Reason Type,Other Party Info,Linked Transaction ID,A/C No.
OIO7TD3B4H,24/09/2020 08:26,24/09/2020 08:26,Pay Bill Online from 254720873532 - ARETI DIRIBO Acc. Room 301,Completed,13000,,13000,TRUE,Pay Bill Online,254720873532 - ARETI DIRIBO,,Room
OIO9TA9GCX,24/09/2020 05:22,24/09/2020 05:22,Utility Account to Organization Settlement Account,Completed,,-25500,0,TRUE,Utility Account to Organization Settlement Account,887075 - ANCIENT WELLS LTD 3,,
OIN2SWRUFA,23/09/2020 17:52,23/09/2020 17:52,Pay Bill from 254701339690 - ASHA BAGANWA NDAHIRU Acc. F3,Completed,8000,,25500,TRUE,Pay Utility,254701339690 - ASHA BAGANWA NDAHIRU,,F3
OIN6SSE58I,23/09/2020 16:16,23/09/2020 16:16,Pay Bill from 254704213191 - VALENTINE WAVINYA Acc. Valentine,Completed,9500,,17500,TRUE,Pay Utility,254704213191 - VALENTINE WAVINYA,,Valentine
OIN0SQK6T6,23/09/2020 15:30,23/09/2020 15:30,Pay Bill from 254713701237 - Michael Wanjala Acc. G2,Completed,8000,,8000,TRUE,Pay Utility,254713701237 - Michael Wanjala,,G2
OIL7QGXNDL,21/09/2020 12:40,21/09/2020 12:40,Utility Account to Organization Settlement Account,Completed,,-25000,0,TRUE,Utility Account to Organization Settlement Account,887075 - ANCIENT WELLS LTD 3,,
OIL3QCH1Y3,21/09/2020 10:42,21/09/2020 10:42,Pay Bill from 254711428856 - JAPHETH OTSIENO BARASA Acc. Japheth Barasa A5,Completed,11000,,25000,TRUE,Pay Utility,254711428856 - JAPHETH OTSIENO BARASA,,Japheth
OIL1QBFY2X,21/09/2020 10:15,21/09/2020 10:15,Pay Bill from 254713158275 - JOHN CHEGE Acc. A4,Completed,14000,,14000,TRUE,Pay Utility,254713158275 - JOHN CHEGE,,A4
OIJ8O3NYYU,19/09/2020 07:22,19/09/2020 07:22,Utility Account to Organization Settlement Account,Completed,,-8500,0,TRUE,Utility Account to Organization Settlement Account,887075 - ANCIENT WELLS LTD 3,,
OII7NZT5JL,18/09/2020 21:38,18/09/2020 21:38,Pay Bill from 254740711710 - james waweru karuga Acc. F5,Completed,8500,,8500,TRUE,Pay Utility,254740711710 - james waweru karuga,,F5
OIH1MBNDUR,17/09/2020 13:55,17/09/2020 13:55,Utility Account to Organization Settlement Account,Completed,,-72900,0,TRUE,Utility Account to Organization Settlement Account,887075 - ANCIENT WELLS LTD 3,,
OIG1L844FT,16/09/2020 13:20,16/09/2020 13:20,Pay Bill from 0792589822 - Rashid juma maina Acc. Rashid room802,Completed,21000,,72900,TRUE,Pay Utility with OD via STK,0792589822 - Rashid juma maina,,Rashid
OIG0L468I8,16/09/2020 11:36,16/09/2020 11:36,Pay Bill from 254792976771 - DANIEL MUTHAMA NDUNDA Acc. F1,Completed,6000,,51900,TRUE,Pay Utility with OD via STK,254792976771 - DANIEL MUTHAMA NDUNDA,,F1
OIG1KYP1R9,16/09/2020 09:07,16/09/2020 09:07,Pay Bill from 254729466081 - SUSAN MARTHA Acc. 501,Completed,13000,,45900,TRUE,Pay Utility,254729466081 - SUSAN MARTHA,,501
OIG9KVI2A3,16/09/2020 07:15,16/09/2020 07:15,Pay Bill from 254721870513 - LILIAN ACHIENG OKALO Acc. 902,Completed,10000,,32900,TRUE,Pay Utility,254721870513 - LILIAN ACHIENG OKALO,,902
OIF8KRFDKI,15/09/2020 21:11,15/09/2020 21:11,Pay Bill from 254720062144 - CAROLINE AMONDI OKELO Acc. F4,Completed,6400,,22900,TRUE,Pay Utility with OD via STK,254720062144 - CAROLINE AMONDI OKELO,,F4
OIF8KK17W8,15/09/2020 18:51,15/09/2020 18:51,Pay Bill from 254711460336 - DAVID SILLA MUTUKU Acc. 903,Completed,8000,,16500,TRUE,Pay Utility,254711460336 - DAVID SILLA MUTUKU,,903
OIF2KJIBVI,15/09/2020 18:42,15/09/2020 18:42,Pay Bill from 254729110577 - GREGORY ONESMUS KIMANTHI Acc. D6,Completed,8500,,8500,TRUE,Pay Utility with OD via STK,254729110577 - GREGORY ONESMUS KIMANTHI,,D6
OIF7KFZ237,15/09/2020 17:35,15/09/2020 17:35,Utility Account to Organization Settlement Account,Completed,,-28400,0,TRUE,Utility Account to Organization Settlement Account,887075 - ANCIENT WELLS LTD 3,,
OIF9K3KQOV,15/09/2020 12:32,15/09/2020 12:32,Pay Bill from 254701339690 - ASHA BAGANWA NDAHIRU Acc. F3,Completed,1400,,28400,TRUE,Pay Utility,254701339690 - ASHA BAGANWA NDAHIRU,,F3
OIF6JYYQIA,15/09/2020 10:29,15/09/2020 10:29,Pay Bill from 254725941384 - BRIAN MURUMBA Acc. Brian Murumba E4,Completed,8500,,27000,TRUE,Pay Utility,254725941384 - BRIAN MURUMBA,,Brian
OIE0J7JVCC,14/09/2020 15:13,14/09/2020 15:13,Pay Bill from 254701166449 - BETTY NYAWIRA MAINA Acc. G3,Completed,10000,,18500,TRUE,Pay Utility,254701166449 - BETTY NYAWIRA MAINA,,G3
OIE6IWJQLA,14/09/2020 10:28,14/09/2020 10:28,Pay Bill from 0702927581 - Peter Muoki Ngundo Acc. peter muoki e6,Completed,8500,,8500,TRUE,Pay Utility,0702927581 - Peter Muoki Ngundo,,peter
OID4HZRHQW,13/09/2020 11:53,13/09/2020 11:53,Utility Account to Organization Settlement Account,Completed,,-2000,0,TRUE,Utility Account to Organization Settlement Account,887075 - ANCIENT WELLS LTD 3,,
OIC8HASXFA,12/09/2020 17:00,12/09/2020 17:00,Pay Bill Online from 254703176849 - ROYAL MUYA Acc. F2,Completed,2000,,2000,TRUE,Pay Bill Online,254703176849 - ROYAL MUYA,,F2
OIA1F1KVC7,10/09/2020 16:04,10/09/2020 16:04,Utility Account to Organization Settlement Account,Completed,,-107000,0,TRUE,Utility Account to Organization Settlement Account,887075 - ANCIENT WELLS LTD 3,,
OIA0EWV87S,10/09/2020 14:06,10/09/2020 14:06,Pay Bill from 0799912339 - PETER KAMAU MURIU Acc. C5,Completed,17000,,107000,TRUE,Pay Utility,0799912339 - PETER KAMAU MURIU,,C5
OIA7ERM167,10/09/2020 11:50,10/09/2020 11:50,Pay Bill from 254724939972 - KENNEDY KISWILI MULINGE Acc. Kennedy 201,Completed,15000,,90000,TRUE,Pay Utility,254724939972 - KENNEDY KISWILI MULINGE,,Kennedy
OI82D6S7N0,08/09/2020 19:15,08/09/2020 19:15,Pay Bill from 254701330588 - EDGER WAFULA BUTALI Acc. D1,Completed,8000,,75000,TRUE,Pay Utility,254701330588 - EDGER WAFULA BUTALI,,D1
OI86D61PFQ,08/09/2020 19:02,08/09/2020 19:02,Pay Bill from 254723892997 - TERRY MUTHONI WAMAITHA Acc. Terry room 101,Completed,52000,,67000,TRUE,Pay Utility,254723892997 - TERRY MUTHONI WAMAITHA,,Terry
OI81CVF2PL,08/09/2020 15:28,08/09/2020 15:28,Pay Bill from 254712030950 - JOYFAVOUR NABADE MUGENYA Acc. Joyfavor 702 ,Completed,15000,,15000,TRUE,Pay Utility,254712030950 - JOYFAVOUR NABADE MUGENYA,,Joyfavor
OI75CBEBCZ,07/09/2020 21:53,07/09/2020 21:53,Utility Account to Organization Settlement Account,Completed,,-29000,0,TRUE,Utility Account to Organization Settlement Account,887075 - ANCIENT WELLS LTD 3,,
OI70C0JEM8,07/09/2020 17:55,07/09/2020 17:55,Pay Bill from 0110023089 - Nicholus Kioko Kilungya Acc. 302,Completed,13000,,29000,TRUE,Pay Utility,0110023089 - Nicholus Kioko Kilungya,,302
OI66BAHLM0,06/09/2020 23:23,06/09/2020 23:23,Pay Bill Online from 0745163721 - WELDALINE BIYAKI NYABUTO Acc. B2,Completed,8000,,16000,TRUE,Pay Bill Online,0745163721 - WELDALINE BIYAKI NYABUTO,,B2
OI60AW5CZ6,06/09/2020 16:35,06/09/2020 16:35,Pay Bill from 254700745283 - WINFRED MUTHEU NYAMAI Acc. E5,Completed,8000,,8000,TRUE,Pay Utility,254700745283 - WINFRED MUTHEU NYAMAI,,E5
OI69AQU0L7,06/09/2020 14:22,06/09/2020 14:22,Utility Account to Organization Settlement Account,Completed,,-85800,0,TRUE,Utility Account to Organization Settlement Account,887075 - ANCIENT WELLS LTD 3,,
OI60AOH77A,06/09/2020 13:19,06/09/2020 13:19,Pay Bill from 254722395959 - THEOPHILUS MUSYOKA Acc. 601,Completed,15000,,85800,TRUE,Pay Utility,254722395959 - THEOPHILUS MUSYOKA,,601
OI55ABRVM9,05/09/2020 23:22,05/09/2020 23:22,Pay Bill from 254711903617 - Grace Njeri Thuo Acc. 701,Completed,13000,,70800,TRUE,Pay Utility,254711903617 - Grace Njeri Thuo,,701
OI53A9AMXT,05/09/2020 21:09,05/09/2020 21:09,Pay Bill from 254724395251 - ZENA ANYANGO ORWAYA Acc. 202,Completed,15000,,57800,TRUE,Pay Utility,254724395251 - ZENA ANYANGO ORWAYA,,202
OI579ZADLT,05/09/2020 18:07,05/09/2020 18:07,Pay Bill from 254711184244 - KIPROP FESTUS Acc. Festus Kiprop C1p,Completed,8000,,42800,TRUE,Pay Utility,254711184244 - KIPROP FESTUS,,Festus
OI549SD428,05/09/2020 15:42,05/09/2020 15:42,"Pay Bill from 0758536216 - DAVID NANGENDO MABONGA Acc. DAVID MABONGA,LANGAT",Completed,15000,,34800,TRUE,Pay Utility,0758536216 - DAVID NANGENDO MABONGA,,DAVID
OI599HH065,05/09/2020 11:14,05/09/2020 11:14,Pay Bill from 254702201070 - ANITA MUKORO Acc. ANITA502,Completed,13000,,19800,TRUE,Pay Utility with OD via STK,254702201070 - ANITA MUKORO,,ANITA502
OI428MPYVC,04/09/2020 14:47,04/09/2020 14:47,Pay Bill Online from 254703176849 - ROYAL MUYA Acc. F2,Completed,6800,,6800,TRUE,Pay Bill Online,254703176849 - ROYAL MUYA,,F2
OI428CRLOU,04/09/2020 10:38,04/09/2020 10:38,Utility Account to Organization Settlement Account,Completed,,-19000,0,TRUE,Utility Account to Organization Settlement Account,887075 - ANCIENT WELLS LTD 3,,
OI367WL9W0,03/09/2020 19:19,03/09/2020 19:19,Pay Bill from 254728664261 - LEVIN INGATI NYONJE Acc. B5,Completed,9000,,19000,TRUE,Pay Utility,254728664261 - LEVIN INGATI NYONJE,,B5
OI307SHC2E,03/09/2020 18:11,03/09/2020 18:11,Pay Bill from 254717465142 - EPHANTUS IRURA Acc. C4 - MURIITHI,Completed,10000,,10000,TRUE,Pay Utility,254717465142 - EPHANTUS IRURA,,C4
OI3376LBQH,03/09/2020 09:18,03/09/2020 09:18,Utility Account to Organization Settlement Account,Completed,,-49500,0,TRUE,Utility Account to Organization Settlement Account,887075 - ANCIENT WELLS LTD 3,,
OI3273CFOQ,03/09/2020 07:31,03/09/2020 07:31,Pay Bill from 254711712240 - LEON WOMWENE BWAYO Acc. 602,Completed,15000,,49500,TRUE,Pay Utility,254711712240 - LEON WOMWENE BWAYO,,602
OI246YTAA0,02/09/2020 21:10,02/09/2020 21:10,Pay Bill from 0799838354 - Brian Kyengo Ndambuki Acc. karim,Completed,8000,,34500,TRUE,Pay Utility,0799838354 - Brian Kyengo Ndambuki,,karim
OI246N97W2,02/09/2020 17:37,02/09/2020 17:37,Pay Bill from 254703246217 - AMBROSE ADOCHE MIRASI Acc. D4,Completed,8500,,26500,TRUE,Pay Utility,254703246217 - AMBROSE ADOCHE MIRASI,,D4
OI286L9TR6,02/09/2020 16:56,02/09/2020 16:56,Pay Bill from 254721539716 - OCTAVIAN MWANYALO Acc. C6,Completed,8000,,18000,TRUE,Pay Utility,254721539716 - OCTAVIAN MWANYALO,,C6
OI216DZFWP,02/09/2020 13:54,02/09/2020 13:54,Pay Bill from 254724871526 - JOHN KAGUONGO Acc. D5-John Kaguongo,Completed,10000,,10000,TRUE,Pay Utility,254724871526 - JOHN KAGUONGO,,D5-John
OI276DFBJ3,02/09/2020 13:39,02/09/2020 13:39,Utility Account to Organization Settlement Account,Completed,,-113000,0,TRUE,Utility Account to Organization Settlement Account,887075 - ANCIENT WELLS LTD 3,,
OI2660QX2E,02/09/2020 07:49,02/09/2020 07:49,Pay Bill from 254700007703 - RITA LESOROGOL Acc. ritahnashangairm901,Completed,8000,,113000,TRUE,Pay Utility,254700007703 - RITA LESOROGOL,,ritahnashangairm901
OI105X9MOM,01/09/2020 21:57,01/09/2020 21:57,Pay Bill Online from 254715020357 - ELIZABETH NJERI WARARI Acc. C2,Completed,7500,,105000,TRUE,Pay Bill Online,254715020357 - ELIZABETH NJERI WARARI,,C2
OI115T80VN,01/09/2020 20:04,01/09/2020 20:04,Pay Bill Online from 254795983642 - OBED MOGAKA Acc. F6 OBED ,Completed,8500,,97500,TRUE,Pay Bill Online,254795983642 - OBED MOGAKA,,F6
OI145RAMEG,01/09/2020 19:28,01/09/2020 19:28,Pay Bill Online from 254711877988 - PATRICK KONZI Acc. b4,Completed,8500,,89000,TRUE,Pay Bill Online,254711877988 - PATRICK KONZI,,b4
OI195EZD6B,01/09/2020 15:19,01/09/2020 15:19,Pay Bill from 254796502531 - ASHA MAOMBOLA Acc. Asha 801,Completed,15000,,80500,TRUE,Pay Utility,254796502531 - ASHA MAOMBOLA,,Asha
