Receipt No.,Completion Time,Initiation Time,Details,Transaction Status,Paid In,Withdrawn,Balance,Balance Confirmed,Reason Type,Other Party Info,Linked Transaction ID,A/C No.
QAA3EBACOH,10/01/2022 11:16,10/01/2022 11:16,Utility Account to Organization Settlement Account,Completed,,-6000,0,TRUE,Utility Account to Organization Settlement Account,887075 - ANCIENT WELLS LTD 3,,
QAA8E1F5ZI,10/01/2022 08:16,10/01/2022 08:16,Pay Bill from 254792976771 - DANIEL MUTHAMA NDUNDA Acc. F1,Completed,6000,,6000,TRUE,Pay Utility,254792976771 - DANIEL MUTHAMA NDUNDA,,F1
QA769U7UQ4,07/01/2022 16:14,07/01/2022 16:14,Utility Account to Organization Settlement Account,Completed,,-33000,0,TRUE,Utility Account to Organization Settlement Account,887075 - ANCIENT WELLS LTD 3,,
QA719G18CF,07/01/2022 12:12,07/01/2022 12:12,Pay Bill from 254727585857 - PETER MUOKI NGUNDO Acc. p muoki e6,Completed,8500,,33000,TRUE,Pay Utility,254727585857 - PETER MUOKI NGUNDO,,p
QA608UK8VS,06/01/2022 21:33,06/01/2022 21:33,Pay Bill Online from 254714597495 - WAMBUA KIOKO Acc. C1,Completed,8000,,24500,TRUE,Pay Bill Online,254714597495 - WAMBUA KIOKO,,C1
QA618TLQ9X,06/01/2022 21:16,06/01/2022 21:16,Pay Bill from 254721539716 - OCTAVIAN MWANYALO Acc. C6,Completed,8000,,16500,TRUE,Pay Utility,254721539716 - OCTAVIAN MWANYALO,,C6
QA687JRI3E,06/01/2022 09:44,06/01/2022 09:44,Pay Bill Online from 254711877988 - PATRICK KONZI Acc. b4,Completed,8500,,8500,TRUE,Pay Bill Online,254711877988 - PATRICK KONZI,,b4
QA697J7047,06/01/2022 09:33,06/01/2022 09:33,Utility Account to Organization Settlement Account,Completed,,-24900,0,TRUE,Utility Account to Organization Settlement Account,887075 - ANCIENT WELLS LTD 3,,
QA697EZIA5,06/01/2022 08:06,06/01/2022 08:06,Pay Bill from 254706248362 - BERYL HUMA Acc. E5,Completed,8500,,24900,TRUE,Pay Utility,254706248362 - BERYL HUMA,,E5
QA576C6QT3,05/01/2022 14:36,05/01/2022 14:36,Pay Bill from 254701379512 - veronicah minoo mwanza Acc. C3,Completed,8400,,16400,TRUE,Pay Utility,254701379512 - veronicah minoo mwanza,,C3
QA576BJ3JJ,05/01/2022 14:25,05/01/2022 14:25,Pay Bill from 0704120519 - Mildred   Adhiambo Acc. G1,Completed,8000,,8000,TRUE,Pay Utility,0704120519 - Mildred   Adhiambo,,G1
QA555QJVFT,05/01/2022 08:19,05/01/2022 08:19,Utility Account to Organization Settlement Account,Completed,,-43500,0,TRUE,Utility Account to Organization Settlement Account,887075 - ANCIENT WELLS LTD 3,,
QA404YCWI0,04/01/2022 17:34,04/01/2022 17:34,Pay Bill from 254717465142 - EPHANTUS IRURA Acc. c4 muriithi,Completed,8500,,43500,TRUE,Pay Utility,254717465142 - EPHANTUS IRURA,,c4
QA423YU366,04/01/2022 07:21,04/01/2022 07:21,Pay Bill from 254728664261 - LEVIN INGATI NYONJE Acc. B5,Completed,8500,,35000,TRUE,Pay Utility,254728664261 - LEVIN INGATI NYONJE,,B5
QA343VTP1A,03/01/2022 23:38,03/01/2022 23:38,Pay Bill Online from 254720062144 - CAROLINE AMONDI OKELO Acc. f4,Completed,10000,,26500,TRUE,Pay Bill Online,254720062144 - CAROLINE AMONDI OKELO,,f4
QA3333RLLN,03/01/2022 16:15,03/01/2022 16:15,Pay Bill Online from 254724871526 - JOHN KAGUONGO Acc. D5 JOHN KAGUONGO,Completed,8500,,16500,TRUE,Pay Bill Online,254724871526 - JOHN KAGUONGO,,D5
QA322QWQE2,03/01/2022 12:47,03/01/2022 12:47,Pay Bill from 0715030019 - Omwenga Ong'era Stephen Acc. E1,Completed,8000,,8000,TRUE,Pay Utility,0715030019 - Omwenga Ong'era Stephen,,E1
QA372G7RB9,03/01/2022 09:45,03/01/2022 09:45,Utility Account to Organization Settlement Account,Completed,,-8000,0,TRUE,Utility Account to Organization Settlement Account,887075 - ANCIENT WELLS LTD 3,,
QA201TYNH6,02/01/2022 19:10,02/01/2022 19:10,Pay Bill from 0719349205 - Christabel Gakii Munene Acc. D1,Completed,8000,,8000,TRUE,Pay Utility,0719349205 - Christabel Gakii Munene,,D1
QA231NNBEB,02/01/2022 17:39,02/01/2022 17:39,Utility Account to Organization Settlement Account,Completed,,-8000,0,TRUE,Utility Account to Organization Settlement Account,887075 - ANCIENT WELLS LTD 3,,
QA11YTSR7B,01/01/2022 13:13,01/01/2022 13:13,Pay Bill from 254722706516 - KORIR ANTHONY Acc. Anthony D3,Completed,8000,,8000,TRUE,Pay Utility,254722706516 - KORIR ANTHONY,,Anthony
