Receipt No.,Completion Time,Initiation Time,Details,Transaction Status,Paid In,Withdrawn,Balance,Balance Confirmed,Reason Type,Other Party Info,Linked Transaction ID,A/C No.
OJQ3UBNCST,26/10/2020 09:02,26/10/2020 09:02,Utility Account to Organization Settlement Account,Completed,,-13500,0,TRUE,Utility Account to Organization Settlement Account,887264 - ANCIENT WELLS LTD 2,,
OJO6SFJJVE,24/10/2020 12:48,24/10/2020 12:48,Pay Bill from 254722577855 - JOHN KARIME Acc. LEAH B 3,Completed,13500,,13500,TRUE,Pay Utility with OD via STK,254722577855 - JOHN KARIME,,LEAH
OJO6S5YUP4,24/10/2020 08:49,24/10/2020 08:49,Utility Account to Organization Settlement Account,Completed,,-5000,0,TRUE,Utility Account to Organization Settlement Account,887264 - ANCIENT WELLS LTD 2,,
OJN4RI3QLE,23/10/2020 16:00,23/10/2020 16:00,Pay Bill from 254720537967 - PIUS WAMBUA Acc. u4,Completed,5000,,5000,TRUE,Pay Utility with OD via STK,254720537967 - PIUS WAMBUA,,u4
OJL4P0PEJQ,21/10/2020 11:35,21/10/2020 11:35,Utility Account to Organization Settlement Account,Completed,,-10000,0,TRUE,Utility Account to Organization Settlement Account,887264 - ANCIENT WELLS LTD 2,,
OJH5L0SH1N,17/10/2020 15:36,17/10/2020 15:36,Pay Bill from 254723296371 - FRIDAH WANGUI WAMUTUA Acc. A4,Completed,10000,,10000,TRUE,Pay Utility,254723296371 - FRIDAH WANGUI WAMUTUA,,A4
OJH0KFEF7Y,17/10/2020 00:03,17/10/2020 00:03,Utility Account to Organization Settlement Account,Completed,,-5000,0,TRUE,Utility Account to Organization Settlement Account,887264 - ANCIENT WELLS LTD 2,,
OJG3K1MJSD,16/10/2020 17:55,16/10/2020 17:55,Pay Bill from 254741791919 - Linet Mongina Maraga Acc. linet,Completed,5000,,5000,TRUE,Pay Utility,254741791919 - Linet Mongina Maraga,,linet
OJF0I8ZVQM,15/10/2020 07:28,15/10/2020 07:28,Utility Account to Organization Settlement Account,Completed,,-44000,0,TRUE,Utility Account to Organization Settlement Account,887264 - ANCIENT WELLS LTD 2,,
OJD0GGH5PQ,13/10/2020 14:37,13/10/2020 14:37,Pay Bill from 254726524831 - ANDREW ODHIAMBO Acc. Andrew odhiambo ,Completed,10000,,44000,TRUE,Pay Utility,254726524831 - ANDREW ODHIAMBO,,Andrew
OJC9FXU8YJ,12/10/2020 23:18,12/10/2020 23:18,Pay Bill from 254723174583 - BRIAN ODHIAMBO OUMA Acc. b3,Completed,4000,,34000,TRUE,Pay Utility,254723174583 - BRIAN ODHIAMBO OUMA,,b3
OJC4FWJXM8,12/10/2020 21:55,12/10/2020 21:55,Pay Bill from 254725014210 - FREDRICK MOUNDE Acc. EPZ MH,Completed,30000,,30000,TRUE,Pay Utility,254725014210 - FREDRICK MOUNDE,,EPZ
OJA5D6T967,10/10/2020 15:18,10/10/2020 15:18,Utility Account to Organization Settlement Account,Completed,,-40000,0,TRUE,Utility Account to Organization Settlement Account,887264 - ANCIENT WELLS LTD 2,,
OJA9D6QBF3,10/10/2020 15:16,10/10/2020 15:16,Pay Bill from 254728912446 - GRACE NJERI Acc. ancient Wells LTD,Completed,40000,,40000,TRUE,Pay Utility,254728912446 - GRACE NJERI,,ancient
OJA9D5INQT,10/10/2020 14:47,10/10/2020 14:47,Utility Account to Organization Settlement Account,Completed,,-5500,0,TRUE,Utility Account to Organization Settlement Account,887264 - ANCIENT WELLS LTD 2,,
OJ88B0REHO,08/10/2020 17:41,08/10/2020 17:41,Pay Bill from 254726296174 - LUKA MWENDWA Acc. U6,Completed,5500,,5500,TRUE,Pay Utility with OD via STK,254726296174 - LUKA MWENDWA,,U6
OJ6888XB58,06/10/2020 11:44,06/10/2020 11:44,Utility Account to Organization Settlement Account,Completed,,-12000,0,TRUE,Utility Account to Organization Settlement Account,887264 - ANCIENT WELLS LTD 2,,
OJ587AJGN8,05/10/2020 15:19,05/10/2020 15:19,Pay Bill from 254705755947 - METRINE REPHAH MATETE Acc. A3,Completed,7000,,12000,TRUE,Pay Utility,254705755947 - METRINE REPHAH MATETE,,A3
OJ566UPKK0,05/10/2020 08:48,05/10/2020 08:48,Pay Bill from 0743263203 - Patrick theuri wachira Acc. U1,Completed,5000,,5000,TRUE,Pay Utility,0743263203 - Patrick theuri wachira,,U1
OJ4267LTXG,04/10/2020 15:32,04/10/2020 15:32,Utility Account to Organization Settlement Account,Completed,,-6000,0,TRUE,Utility Account to Organization Settlement Account,887264 - ANCIENT WELLS LTD 2,,
OJ364VHFEK,03/10/2020 12:44,03/10/2020 12:44,Pay Bill from 254706011442 - REUBEN MURIUKI Acc. B5,Completed,6000,,6000,TRUE,Pay Utility,254706011442 - REUBEN MURIUKI,,B5
OJ284DZXL2,02/10/2020 21:47,02/10/2020 21:47,Utility Account to Organization Settlement Account,Completed,,-6000,0,TRUE,Utility Account to Organization Settlement Account,887264 - ANCIENT WELLS LTD 2,,
OJ203N9ATG,02/10/2020 12:35,02/10/2020 12:35,Pay Bill from 254723174583 - BRIAN ODHIAMBO OUMA Acc. b3,Completed,6000,,6000,TRUE,Pay Utility,254723174583 - BRIAN ODHIAMBO OUMA,,b3
