Receipt No.,Completion Time,Initiation Time,Details,Transaction Status,Paid In,Withdrawn,Balance,Balance Confirmed,Reason Type,Other Party Info,Linked Transaction ID,A/C No.
SEN54KQD2P,23/05/2024 10:14,23/05/2024 10:14,Pay Bill from 254721***481 - MARTIN *** Acc. DFA,Completed,3000,,57600,TRUE,Pay Utility with OD via STK,254721***481 - MARTIN ***,,DFA
SEN04B2EK4,23/05/2024 08:40,23/05/2024 08:40,Pay Bill from 254720***822 - JAMES *** Acc. jgj,Completed,1700,,54600,TRUE,Pay Utility,254720***822 - JAMES ***,,jgj
SEN242Y8TK,23/05/2024 07:08,23/05/2024 07:08,Pay Bill from 254758***392 - ZIBBORAH *** Acc. v48,Completed,400,,52900,TRUE,Pay Utility,254758***392 - ZIBBORAH ***,,v48
SEN9413R95,23/05/2024 06:37,23/05/2024 06:37,Pay Bill from 254720***007 - BRENDA *** Acc. KAB,Completed,2400,,52500,TRUE,Pay Utility,254720***007 - BRENDA ***,,KAB
SEM92SBZ35,22/05/2024 18:40,22/05/2024 18:40,Pay Bill from 074337***291 - Ann *** Acc. KAD,Completed,1400,,50100,TRUE,Pay Utility,074337***291 - Ann ***,,KAD
SEM22NZ4RQ,22/05/2024 18:15,22/05/2024 18:15,Pay Bill from 011206***814 - JOHN *** Acc. V53,Completed,600,,48700,TRUE,Pay Utility,011206***814 - JOHN ***,,V53
SEM32LUWOJ,22/05/2024 18:01,22/05/2024 18:01,Pay Bill from 072977***299 - WAMBUA *** Acc. c1,Completed,400,,48100,TRUE,Pay Utility,072977***299 - WAMBUA ***,,c1
SEM128WXQZ,22/05/2024 16:30,22/05/2024 16:30,Pay Bill from 254724***488 - NICHOLAS *** Acc. JDE,Completed,200,,47700,TRUE,Pay Utility,254724***488 - NICHOLAS ***,,JDE
SEM520TPPT,22/05/2024 15:22,22/05/2024 15:22,Pay Bill from 254720***119 - LINDAH *** Acc. KFE,Completed,1000,,47500,TRUE,Pay Utility,254720***119 - LINDAH ***,,KFE
SEM7151M5D,22/05/2024 10:49,22/05/2024 10:49,Pay Bill from 254707***264 - KELVIN *** Acc. hde,Completed,900,,46500,TRUE,Pay Utility,254707***264 - KELVIN ***,,hde
SEM9ZZ2EU3,22/05/2024 09:55,22/05/2024 09:55,Pay Bill Online from 254706***634 - CLINTON *** Acc. FDB,Completed,600,,45600,TRUE,Pay Bill Online,254706***634 - CLINTON ***,,FDB
SEM0ZO4RFU,22/05/2024 08:06,22/05/2024 08:06,Pay Bill Online from 254728***908 - Teddy *** Acc. DDD,Completed,1000,,45000,TRUE,Pay Bill Online,254728***908 - Teddy ***,,DDD
SEM6ZG7IJQ,22/05/2024 06:05,22/05/2024 06:05,Pay Bill from 254722***136 - NADI *** Acc. JEA,Completed,3600,,44000,TRUE,Pay Utility,254722***136 - NADI ***,,JEA
SEM8ZFDYCE,22/05/2024 05:24,22/05/2024 05:24,Pay Bill from 074130***410 - STEVEKEVIN *** Acc. IAC,Completed,200,,40400,TRUE,Pay Utility,074130***410 - STEVEKEVIN ***,,IAC
SEM3ZBTU53,22/05/2024 00:53,22/05/2024 00:53,Pay Bill from 254792***995 - ANTHONY *** Acc. V26,Completed,200,,40200,TRUE,Pay Utility,254792***995 - ANTHONY ***,,V26
SEL0Z4C5YU,21/05/2024 21:55,21/05/2024 21:55,Pay Bill from 254113***311 - AMIR *** Acc. HGE,Completed,200,,40000,TRUE,Pay Utility,254113***311 - AMIR ***,,HGE
SEL8YYX002,21/05/2024 21:04,21/05/2024 21:04,Pay Bill from 254706***262 - cendric *** Acc. V12,Completed,200,,39800,TRUE,Pay Utility,254706***262 - cendric ***,,V12
SEL7YN10MH,21/05/2024 19:45,21/05/2024 19:45,Pay Bill from 254705***736 - SNAIDA *** Acc. hbc,Completed,1200,,39600,TRUE,Pay Utility,254705***736 - SNAIDA ***,,hbc
SEL8YKW6CE,21/05/2024 19:34,21/05/2024 19:34,Pay Bill Online from 254700***051 - CAROLYNE *** Acc. FAD,Completed,200,,38400,TRUE,Pay Bill Online,254700***051 - CAROLYNE ***,,FAD
SEL7YGSLET,21/05/2024 19:13,21/05/2024 19:13,Pay Bill from 254792***995 - ANTHONY *** Acc. V26,Completed,300,,38200,TRUE,Pay Utility,254792***995 - ANTHONY ***,,V26
SEL2Y3WGFW,21/05/2024 18:03,21/05/2024 18:03,Pay Bill Online from 070848***946 - Samson *** Acc. v20,Completed,800,,37900,TRUE,Pay Bill Online,070848***946 - Samson ***,,v20
SEL4XRJGUY,21/05/2024 16:39,21/05/2024 16:39,Pay Bill from 254725***246 - FRANCIS *** Acc. IGI,Completed,400,,37100,TRUE,Pay Utility,254725***246 - FRANCIS ***,,IGI
SEL5XPZ4UN,21/05/2024 16:26,21/05/2024 16:26,Pay Bill from 254799***755 - CAROLINE *** Acc. IEF,Completed,400,,36700,TRUE,Pay Utility,254799***755 - CAROLINE ***,,IEF
SEL6X4R4ZS,21/05/2024 13:28,21/05/2024 13:28,Pay Bill from 254727***667 - HILDA *** Acc. JBE,Completed,1500,,36300,TRUE,Pay Utility,254727***667 - HILDA ***,,JBE
SEL8WS52RO,21/05/2024 11:40,21/05/2024 11:40,Pay Bill from 254718***610 - HANNAH *** Acc. V23,Completed,200,,34800,TRUE,Pay Utility,254718***610 - HANNAH ***,,V23
SEL8WL3SO0,21/05/2024 10:37,21/05/2024 10:37,Pay Bill Online from 254745***294 - Faith *** Acc. IFC,Completed,1400,,34600,TRUE,Pay Bill Online,254745***294 - Faith ***,,IFC
SEL4WHG51S,21/05/2024 10:04,21/05/2024 10:04,Pay Bill from 254723***820 - MELVIS *** Acc. KAC,Completed,400,,33200,TRUE,Pay Utility,254723***820 - MELVIS ***,,KAC
SEL4WHE9ZC,21/05/2024 10:04,21/05/2024 10:04,Pay Bill from 011225***959 - Timothy *** Acc. jca,Completed,2000,,32800,TRUE,Pay Utility,011225***959 - Timothy ***,,jca
SEL1WG6BND,21/05/2024 09:52,21/05/2024 09:52,Pay Bill Online from 254722***338 - DANIEL *** Acc. KAA,Completed,200,,30800,TRUE,Pay Bill Online,254722***338 - DANIEL ***,,KAA
SEL2WBK67G,21/05/2024 09:08,21/05/2024 09:08,Pay Bill Online from 254711***729 - DAVID *** Acc. HFA,Completed,2000,,30600,TRUE,Pay Bill Online,254711***729 - DAVID ***,,HFA
SEL3W93SMT,21/05/2024 08:44,21/05/2024 08:44,Pay Bill from 254706***665 - CHRIS *** Acc. v22,Completed,400,,28600,TRUE,Pay Utility,254706***665 - CHRIS ***,,v22
SEL2VZAQG4,21/05/2024 06:48,21/05/2024 06:48,Pay Bill from 079580***227 - Lucy *** Acc. V36 ,Completed,200,,28200,TRUE,Pay Utility with OD via STK,079580***227 - Lucy ***,,V36 
SEK9VRJFDT,20/05/2024 23:02,20/05/2024 23:02,Pay Bill from 254715***579 - GRACE *** Acc. FDA ,Completed,2000,,28000,TRUE,Pay Utility,254715***579 - GRACE ***,,FDA 
SEK6VN2D1Q,20/05/2024 21:56,20/05/2024 21:56,Pay Bill from 070685***885 - margaret *** Acc. FCE,Completed,800,,26000,TRUE,Pay Utility,070685***885 - margaret ***,,FCE
SEK9VL6NO9,20/05/2024 21:37,20/05/2024 21:37,Pay Bill from 254717***596 - NICHOLAS *** Acc. hcf,Completed,700,,25200,TRUE,Pay Utility,254717***596 - NICHOLAS ***,,hcf
SEK8VD4OGA,20/05/2024 20:34,20/05/2024 20:34,Pay Bill from 254720***281 - KENNEDY *** Acc. KBI,Completed,400,,24500,TRUE,Pay Utility with OD via STK,254720***281 - KENNEDY ***,,KBI
SEK2VCP0LI,20/05/2024 20:31,20/05/2024 20:31,Pay Bill Online from 254720***965 - JAMES *** Acc. JBI,Completed,500,,24100,TRUE,Pay Bill Online,254720***965 - JAMES ***,,JBI
SEK6VAWLWK,20/05/2024 20:20,20/05/2024 20:20,Pay Bill Online from 254726***792 - PHILIP *** Acc. JEI,Completed,2200,,23600,TRUE,Pay Bill Online,254726***792 - PHILIP ***,,JEI
SEK9V93047,20/05/2024 20:09,20/05/2024 20:09,Pay Bill from 254728***256 - NICHOLAS *** Acc. FBE,Completed,400,,21400,TRUE,Pay Utility,254728***256 - NICHOLAS ***,,FBE
SEK2V51DZW,20/05/2024 19:46,20/05/2024 19:46,Pay Bill Online from 254719***821 - KIPKEMOI *** Acc. JDD,Completed,1000,,21000,TRUE,Pay Bill Online,254719***821 - KIPKEMOI ***,,JDD
SEK6V32VO0,20/05/2024 19:35,20/05/2024 19:35,Pay Bill from 011526***223 - WARREN *** Acc. HFC,Completed,800,,20000,TRUE,Pay Utility,011526***223 - WARREN ***,,HFC
SEK5V2XNND,20/05/2024 19:34,20/05/2024 19:34,Pay Bill Online from 254715***212 - BANCE *** Acc. JFE,Completed,800,,19200,TRUE,Pay Bill Online,254715***212 - BANCE ***,,JFE
SEK3V2GEFZ,20/05/2024 19:32,20/05/2024 19:32,Pay Bill Online from 011425***335 - ISAAC *** Acc. HAB ,Completed,2600,,18400,TRUE,Pay Bill Online,011425***335 - ISAAC ***,,HAB 
SEK3V18I0P,20/05/2024 19:26,20/05/2024 19:26,Pay Bill Online from 254718***538 - JAMES *** Acc. JBH,Completed,1600,,15800,TRUE,Pay Bill Online,254718***538 - JAMES ***,,JBH
SEK5V0E0TB,20/05/2024 19:22,20/05/2024 19:22,Pay Bill from 254729***700 - MICAH *** Acc. HFE,Completed,200,,14200,TRUE,Pay Utility,254729***700 - MICAH ***,,HFE
SEK9UYJ6WD,20/05/2024 19:12,20/05/2024 19:12,Pay Bill from 254722***516 - KORIR *** Acc. Anthony D3 ,Completed,200,,14000,TRUE,Pay Utility,254722***516 - KORIR ***,,Anthony D3 
SEK6UW5J1E,20/05/2024 19:01,20/05/2024 19:01,Pay Bill from 254706***056 - SHEILA *** Acc. V03,Completed,200,,13800,TRUE,Pay Utility,254706***056 - SHEILA ***,,V03
SEK2UQ4200,20/05/2024 18:29,20/05/2024 18:29,Pay Bill from 254724***849 - Ann *** Acc. HDA,Completed,800,,13600,TRUE,Pay Utility,254724***849 - Ann ***,,HDA
SEK0U97NJ2,20/05/2024 16:37,20/05/2024 16:37,Pay Bill Online from 254713***424 - NDUTI *** Acc. jed,Completed,1000,,12800,TRUE,Pay Bill Online,254713***424 - NDUTI ***,,jed
SEJ1QR32GH,19/05/2024 16:36,19/05/2024 16:36,Pay Bill Online from 074028***700 - SERAH *** Acc. c4,Completed,1000,,11800,TRUE,Pay Bill Online,074028***700 - SERAH ***,,c4
SEJ6QK0XR0,19/05/2024 15:41,19/05/2024 15:41,Pay Bill Online from 254720***070 - Michelle *** Acc. JEJ,Completed,400,,10800,TRUE,Pay Utility with OD Online,254720***070 - Michelle ***,,JEJ
SEJ7PHH8O1,19/05/2024 10:05,19/05/2024 10:05,Pay Bill from 254727***164 - NICHOLAS *** Acc. G2,Completed,1000,,10400,TRUE,Pay Utility,254727***164 - NICHOLAS ***,,G2
SEJ8OXO8N6,19/05/2024 02:31,19/05/2024 02:31,Pay Bill from 254711***840 - HILDA *** Acc. KTA,Completed,200,,9400,TRUE,Pay Utility with OD via STK,254711***840 - HILDA ***,,KTA
SEI7OFXZN7,18/05/2024 20:52,18/05/2024 20:52,Pay Bill from 254711***815 - NAOMI *** Acc. KBA,Completed,1300,,9200,TRUE,Pay Utility,254711***815 - NAOMI ***,,KBA
SEI8NNV4WA,18/05/2024 18:18,18/05/2024 18:18,Pay Bill from 254726***163 - HALIMA *** Acc. DDA,Completed,1000,,7900,TRUE,Pay Utility,254726***163 - HALIMA ***,,DDA
SEI4N98QTY,18/05/2024 16:41,18/05/2024 16:41,Pay Bill from 254715***408 - JONATHAN *** Acc. G1,Completed,300,,6900,TRUE,Pay Utility,254715***408 - JONATHAN ***,,G1
SEI9MSJCR1,18/05/2024 14:32,18/05/2024 14:32,Pay Bill from 070888***932 - Annfaith *** Acc. C3,Completed,800,,6600,TRUE,Pay Utility,070888***932 - Annfaith ***,,C3
SEI1LTF3K3,18/05/2024 09:42,18/05/2024 09:42,Pay Bill from 254704***133 - ELVIS *** Acc. HFD,Completed,1000,,5800,TRUE,Pay Utility,254704***133 - ELVIS ***,,HFD
SEH6JXQFPI,17/05/2024 18:07,17/05/2024 18:07,Pay Bill from 254710***036 - Allan *** Acc. F5,Completed,600,,4800,TRUE,Pay Utility,254710***036 - Allan ***,,F5
SEH3JHPK1V,17/05/2024 16:17,17/05/2024 16:17,Pay Bill Online from 254792***122 - MWENDWA *** Acc. B1,Completed,1400,,4200,TRUE,Pay Bill Online,254792***122 - MWENDWA ***,,B1
SEH1JCN9NP,17/05/2024 15:36,17/05/2024 15:36,Pay Bill from 254724***503 - GEOFREY *** Acc. JFF,Completed,400,,2800,TRUE,Pay Utility,254724***503 - GEOFREY ***,,JFF
SEH5IZ0P0H,17/05/2024 13:45,17/05/2024 13:45,Pay Bill from 254729***441 - ROBERT *** Acc. JFI,Completed,2000,,2400,TRUE,Pay Utility,254729***441 - ROBERT ***,,JFI
SEH6IX7NSW,17/05/2024 13:31,17/05/2024 13:31,Pay Bill from 254715***906 - KIPKOECH *** Acc. E2,Completed,400,,400,TRUE,Pay Utility,254715***906 - KIPKOECH ***,,E2
SEH3IRGHBT,17/05/2024 12:44,17/05/2024 12:44,Utility Account to Organization Settlement Account,Completed,,-50450,0,TRUE,Utility Account to Organization Settlement Account,846783 - ANCIENT WELLS LTD 4,,
SEH6HR9TMC,17/05/2024 07:02,17/05/2024 07:02,Pay Bill from 254717***848 - MARY *** Acc. FGD,Completed,200,,50450,TRUE,Pay Utility,254717***848 - MARY ***,,FGD
SEG8FS6Q94,16/05/2024 15:34,16/05/2024 15:34,Pay Bill Online from 254723***064 - ANDREW *** Acc. HBG ,Completed,1200,,50250,TRUE,Pay Bill Online,254723***064 - ANDREW ***,,HBG 
SEG0FHBA9I,16/05/2024 14:01,16/05/2024 14:01,Pay Bill from 254724***882 - JOEL *** Acc. fee,Completed,1200,,49050,TRUE,Pay Utility,254724***882 - JOEL ***,,fee
SEG7EZCQBJ,16/05/2024 11:31,16/05/2024 11:31,Pay Bill Online from 254711***716 - RODGERS *** Acc. IGC,Completed,500,,47850,TRUE,Pay Utility with OD Online,254711***716 - RODGERS ***,,IGC
SEG9EGMPBV,16/05/2024 08:40,16/05/2024 08:40,Pay Bill from 071568***238 - JOANNAH *** Acc. FFA,Completed,600,,47350,TRUE,Pay Utility,071568***238 - JOANNAH ***,,FFA
SEF3CVOJC5,15/05/2024 18:37,15/05/2024 18:37,Pay Bill from 254702***907 - FAITH *** Acc. KBE ,Completed,400,,46750,TRUE,Pay Utility,254702***907 - FAITH ***,,KBE 
SEF1CCLPI3,15/05/2024 16:34,15/05/2024 16:34,Pay Bill from 074681***748 - edith *** Acc. DDB,Completed,800,,46350,TRUE,Pay Utility,074681***748 - edith ***,,DDB
SEF2BPFKM4,15/05/2024 13:21,15/05/2024 13:21,Pay Bill from 254720***103 - NJENGA *** Acc. kca,Completed,1800,,45550,TRUE,Pay Utility,254720***103 - NJENGA ***,,kca
SEF8BA5ERQ,15/05/2024 11:13,15/05/2024 11:13,Pay Bill from 011127***177 - Alfred *** Acc. HBH,Completed,400,,43750,TRUE,Pay Utility,011127***177 - Alfred ***,,HBH
SEE5A0G08L,14/05/2024 21:15,14/05/2024 21:15,Pay Bill from 254722***480 - PATRICK *** Acc. KGH,Completed,600,,43350,TRUE,Pay Utility,254722***480 - PATRICK ***,,KGH
SEE995RE5J,14/05/2024 18:21,14/05/2024 18:21,Pay Bill Online from 254720***965 - JAMES *** Acc. JBI,Completed,2000,,42750,TRUE,Pay Bill Online,254720***965 - JAMES ***,,JBI
SEE96UGLFL,14/05/2024 06:27,14/05/2024 06:27,Pay Bill from 254710***394 - LUCY *** Acc. KBG ,Completed,500,,40750,TRUE,Pay Utility with OD via STK,254710***394 - LUCY ***,,KBG 
SED96EIF97,13/05/2024 21:21,13/05/2024 21:21,Pay Bill from 254724***238 - Immacurate *** Acc. V45,Completed,400,,40250,TRUE,Pay Utility,254724***238 - Immacurate ***,,V45
SED55BBKVH,13/05/2024 17:35,13/05/2024 17:35,Pay Bill from 254704***689 - ANTONY *** Acc. ICD,Completed,400,,39850,TRUE,Pay Utility,254704***689 - ANTONY ***,,ICD
SEB5X52QZ9,11/05/2024 17:49,11/05/2024 17:49,Pay Bill from 071057***069 - GLADYS *** Acc. HCC ,Completed,600,,39450,TRUE,Pay Utility,071057***069 - GLADYS ***,,HCC 
SEB3VHIM37,11/05/2024 10:26,11/05/2024 10:26,Pay Bill from 254725***547 - MWACHIRO *** Acc. DFC,Completed,1600,,38850,TRUE,Pay Utility,254725***547 - MWACHIRO ***,,DFC
SEB7VEPGD3,11/05/2024 10:03,11/05/2024 10:03,Pay Bill Online from 254722***078 - MAUREEN *** Acc. DCD,Completed,1000,,37250,TRUE,Pay Bill Online,254722***078 - MAUREEN ***,,DCD
SEB8V9687M,11/05/2024 09:14,11/05/2024 09:14,Pay Bill from 254701***102 - CHEPCHUMBA *** Acc. IFE,Completed,300,,36250,TRUE,Pay Utility,254701***102 - CHEPCHUMBA ***,,IFE
SEB3V54Q43,11/05/2024 08:36,11/05/2024 08:36,Business Pay Bill by 998094 - COOP TO PAYBILL Acc. IFF via API,Completed,200,,35950,TRUE,Business Pay Bill via API,998094 - COOP TO PAYBILL,,IFF via API
SEA1UNPMN3,10/05/2024 22:57,10/05/2024 22:57,Pay Bill from 254710***630 - DONNA *** Acc. KCC,Completed,1000,,35750,TRUE,Pay Utility,254710***630 - DONNA ***,,KCC
SEA8SQZZX6,10/05/2024 14:57,10/05/2024 14:57,Pay Bill from 254724***046 - GIDEON *** Acc. KBJ,Completed,1000,,34750,TRUE,Pay Utility,254724***046 - GIDEON ***,,KBJ
SEA0RC4MXW,10/05/2024 07:44,10/05/2024 07:44,Pay Bill Online from 254710***965 - BRENDA *** Acc. hfg,Completed,1200,,33750,TRUE,Pay Bill Online,254710***965 - BRENDA ***,,hfg
SEA9R3OKVJ,10/05/2024 01:46,10/05/2024 01:46,Pay Bill Online from 254720***253 - JIMMY *** Acc. KBD,Completed,200,,32550,TRUE,Pay Utility with OD Online,254720***253 - JIMMY ***,,KBD
SE90QVG5A2,09/05/2024 22:15,09/05/2024 22:15,Pay Bill from 254712***662 - BENARD *** Acc. V16,Completed,1200,,32350,TRUE,Pay Utility,254712***662 - BENARD ***,,V16
SE97PQKFQZ,09/05/2024 18:00,09/05/2024 18:00,Pay Bill from 254706***075 - HARON *** Acc. v 38,Completed,600,,31150,TRUE,Pay Utility,254706***075 - HARON ***,,v 38
SE97OA1J1H,09/05/2024 11:29,09/05/2024 11:29,Pay Bill from 079665***494 - Rose *** Acc. KFH,Completed,1000,,30550,TRUE,Pay Utility,079665***494 - Rose ***,,KFH
SE92NDNK44,09/05/2024 02:55,09/05/2024 02:55,Pay Bill Online from 254720***253 - JIMMY *** Acc. KBD,Completed,200,,29550,TRUE,Pay Bill Online,254720***253 - JIMMY ***,,KBD
SE80N5282K,08/05/2024 22:14,08/05/2024 22:14,Pay Bill from 254725***531 - KIPKORIR *** Acc. DFB,Completed,400,,29350,TRUE,Pay Utility with OD via STK,254725***531 - KIPKORIR ***,,DFB
SE83MUJ2PZ,08/05/2024 20:42,08/05/2024 20:42,Pay Bill from 254704***496 - PETER *** Acc. DFD,Completed,1800,,28950,TRUE,Pay Utility with OD via STK,254704***496 - PETER ***,,DFD
SE85MQAIIL,08/05/2024 20:15,08/05/2024 20:15,Pay Bill from 254725***550 - FRANKLINE *** Acc.  KAF,Completed,1800,,27150,TRUE,Pay Utility,254725***550 - FRANKLINE ***,, KAF
SE88MK8BMA,08/05/2024 19:40,08/05/2024 19:40,Pay Bill from 254797***402 - Tiberius *** Acc. KFC,Completed,200,,25350,TRUE,Pay Utility,254797***402 - Tiberius ***,,KFC
SE84LLFCWS,08/05/2024 16:16,08/05/2024 16:16,Pay Bill Online from 254729***858 - AMBROSE *** Acc. KEJ,Completed,1800,,25150,TRUE,Pay Bill Online,254729***858 - AMBROSE ***,,KEJ
SE89KKC29L,08/05/2024 11:24,08/05/2024 11:24,Pay Bill from 254714***834 - FAITH *** Acc. D4,Completed,400,,23350,TRUE,Pay Utility,254714***834 - FAITH ***,,D4
SE86KK3S64,08/05/2024 11:22,08/05/2024 11:22,Pay Bill from 254705***030 - FRIDAH *** Acc. JEH,Completed,1000,,22950,TRUE,Pay Utility,254705***030 - FRIDAH ***,,JEH
SE81K79F5Z,08/05/2024 09:31,08/05/2024 09:31,Pay Bill from 254708***289 - BERYLE *** Acc. v02,Completed,400,,21950,TRUE,Pay Utility,254708***289 - BERYLE ***,,v02
SE71JBB13L,07/05/2024 21:22,07/05/2024 21:22,Pay Bill from 254705***032 - NAOMI *** Acc. v46,Completed,650,,21550,TRUE,Pay Utility,254705***032 - NAOMI ***,,v46
SE79IWR41H,07/05/2024 19:44,07/05/2024 19:44,Pay Bill from 254725***550 - FRANKLINE *** Acc. KAF,Completed,200,,20900,TRUE,Pay Utility,254725***550 - FRANKLINE ***,,KAF
SE74ILX6WY,07/05/2024 18:49,07/05/2024 18:49,Pay Bill Online from 254720***253 - JIMMY *** Acc. KBD,Completed,200,,20700,TRUE,Pay Bill Online,254720***253 - JIMMY ***,,KBD
SE71IJDR4P,07/05/2024 18:36,07/05/2024 18:36,Pay Bill from 072438***624 - FATUMA *** Acc. FAB,Completed,1800,,20500,TRUE,Pay Utility with OD via STK,072438***624 - FATUMA ***,,FAB
SE72IJ6S9M,07/05/2024 18:35,07/05/2024 18:35,Pay Bill Online from 254742***013 - HANEST *** Acc. IED,Completed,1000,,18700,TRUE,Pay Bill Online,254742***013 - HANEST ***,,IED
SE71GYUQAP,07/05/2024 11:49,07/05/2024 11:49,Pay Bill from 254722***051 - GILBERT *** Acc. JBE,Completed,1500,,17700,TRUE,Pay Utility with OD via STK,254722***051 - GILBERT ***,,JBE
SE77GWOB8L,07/05/2024 11:31,07/05/2024 11:31,Pay Bill from 254703***305 - MARTHA *** Acc. iai,Completed,800,,16200,TRUE,Pay Utility,254703***305 - MARTHA ***,,iai
SE76GS3860,07/05/2024 10:53,07/05/2024 10:53,Pay Bill Online from 254722***473 - SAMSON *** Acc. IAB,Completed,1400,,15400,TRUE,Pay Bill Online,254722***473 - SAMSON ***,,IAB
SE74GM8B98,07/05/2024 10:03,07/05/2024 10:03,Pay Bill from 072729***129 - AISHA *** Acc. V09,Completed,800,,14000,TRUE,Pay Utility,072729***129 - AISHA ***,,V09
SE73GGNF03,07/05/2024 09:13,07/05/2024 09:13,Pay Bill Online from 254741***957 - Mercy *** Acc. Jcb,Completed,1000,,13200,TRUE,Pay Bill Online,254741***957 - Mercy ***,,Jcb
SE66FQSSWM,06/05/2024 21:53,06/05/2024 21:53,Pay Bill Online from 254725***394 - RACHAEL *** Acc. JFB,Completed,400,,12200,TRUE,Pay Bill Online,254725***394 - RACHAEL ***,,JFB
SE66FDTCNY,06/05/2024 20:16,06/05/2024 20:16,Pay Bill from 254757***090 - Laureen *** Acc. KCJ,Completed,1400,,11800,TRUE,Pay Utility,254757***090 - Laureen ***,,KCJ
SE64FBC4Y8,06/05/2024 20:02,06/05/2024 20:02,Pay Bill from 254700***449 - JOHN *** Acc. 950,Completed,950,,10400,TRUE,Pay Utility,254700***449 - JOHN ***,,950
SE69F1BQBP,06/05/2024 19:12,06/05/2024 19:12,Pay Bill from 071503***019 - Omwenga *** Acc. E1,Completed,400,,9450,TRUE,Pay Utility,071503***019 - Omwenga ***,,E1
SE65EXWUT7,06/05/2024 18:55,06/05/2024 18:55,Pay Bill from 254705***736 - SNAIDA *** Acc. hbc,Completed,1000,,9050,TRUE,Pay Utility with OD via STK,254705***736 - SNAIDA ***,,hbc
SE61EXL9HH,06/05/2024 18:54,06/05/2024 18:54,Pay Bill from 074180***396 - JAMES *** Acc. B5,Completed,400,,8050,TRUE,Pay Utility,074180***396 - JAMES ***,,B5
SE63D9RLQR,06/05/2024 11:55,06/05/2024 11:55,Pay Bill from 072938***149 - SYLVIA *** Acc. v30,Completed,350,,7650,TRUE,Pay Utility,072938***149 - SYLVIA ***,,v30
SE64D89GQW,06/05/2024 11:43,06/05/2024 11:43,Pay Bill Online from 071580***956 - Mercy *** Acc. FFE,Completed,800,,7300,TRUE,Pay Bill Online,071580***956 - Mercy ***,,FFE
SE67CZ0LKJ,06/05/2024 10:27,06/05/2024 10:27,Business Pay Bill by 3033815 - LOOP B2C. Acc. V55 via API,Completed,700,,6500,TRUE,Business Pay Bill via API,3033815 - LOOP B2C.,,V55 via API
SE66CP89YI,06/05/2024 09:01,06/05/2024 09:01,Pay Bill Online from 070640***366 - LUCY *** Acc. KDB,Completed,1400,,5800,TRUE,Pay Bill Online,070640***366 - LUCY ***,,KDB
SE63CJKAMZ,06/05/2024 08:05,06/05/2024 08:05,Pay Bill from 254701***949 - AGNES *** Acc. ICH,Completed,200,,4400,TRUE,Pay Utility,254701***949 - AGNES ***,,ICH
SE69CG9PZH,06/05/2024 07:23,06/05/2024 07:23,Pay Bill from 254708***373 - MUNINI *** Acc. IEB,Completed,600,,4200,TRUE,Pay Utility,254708***373 - MUNINI ***,,IEB
SE58C7I09M,05/05/2024 23:14,05/05/2024 23:14,Pay Bill Online from 254721***178 - PHANICE *** Acc. FBF,Completed,400,,3600,TRUE,Pay Bill Online,254721***178 - PHANICE ***,,FBF
SE54BW79SM,05/05/2024 20:54,05/05/2024 20:54,Pay Bill Online from 254716***144 - PETER *** Acc. FBB,Completed,1000,,3200,TRUE,Pay Bill Online,254716***144 - PETER ***,,FBB
SE53BSVIZZ,05/05/2024 20:29,05/05/2024 20:29,Pay Bill from 074548***142 - Daisy *** Acc. FGE,Completed,2000,,2200,TRUE,Pay Utility,074548***142 - Daisy ***,,FGE
SE52BJE490,05/05/2024 19:29,05/05/2024 19:29,Pay Bill from 070728***361 - JOSEPHIN *** Acc. HGD,Completed,200,,200,TRUE,Pay Utility,070728***361 - JOSEPHIN ***,,HGD
SE57B9A0HP,05/05/2024 18:34,05/05/2024 18:34,Utility Account to Organization Settlement Account,Completed,,-87700,0,TRUE,Utility Account to Organization Settlement Account,846783 - ANCIENT WELLS LTD 4,,
SE51B684HF,05/05/2024 18:16,05/05/2024 18:16,Pay Bill Online from 254718***397 - JIMMY *** Acc. DCB,Completed,800,,87700,TRUE,Pay Bill Online,254718***397 - JIMMY ***,,DCB
SE57AKPV7J,05/05/2024 15:44,05/05/2024 15:44,Pay Bill Online from 071414***211 - KAREN *** Acc. JDF,Completed,800,,86900,TRUE,Pay Bill Online,071414***211 - KAREN ***,,JDF
SE54A55W1G,05/05/2024 13:42,05/05/2024 13:42,Pay Bill from 254712***818 - OYUGI *** Acc. FCB,Completed,2400,,86100,TRUE,Pay Utility,254712***818 - OYUGI ***,,FCB
SE599U2N0F,05/05/2024 12:07,05/05/2024 12:07,Pay Bill from 254799***761 - Samuel *** Acc. V42,Completed,800,,83700,TRUE,Pay Utility,254799***761 - Samuel ***,,V42
SE549QJE7E,05/05/2024 11:34,05/05/2024 11:34,Pay Bill from 254729***933 - FELISTAH *** Acc. IDI,Completed,1000,,82900,TRUE,Pay Utility,254729***933 - FELISTAH ***,,IDI
SE599P1IDD,05/05/2024 11:19,05/05/2024 11:19,Pay Bill from 254719***942 - NORAH *** Acc. KDA,Completed,1200,,81900,TRUE,Pay Utility,254719***942 - NORAH ***,,KDA
SE549MST38,05/05/2024 10:58,05/05/2024 10:58,Pay Bill from 254700***550 - BENARD *** Acc. DBB,Completed,1500,,80700,TRUE,Pay Utility,254700***550 - BENARD ***,,DBB
SE599M1HPF,05/05/2024 10:51,05/05/2024 10:51,Pay Bill from 254717***430 - ALFRED *** Acc. V11,Completed,2000,,79200,TRUE,Pay Utility,254717***430 - ALFRED ***,,V11
SE579L1IEJ,05/05/2024 10:42,05/05/2024 10:42,Pay Bill Online from 254728***882 - SHARAD *** Acc. KCK,Completed,3600,,77200,TRUE,Pay Bill Online,254728***882 - SHARAD ***,,KCK
SE478MRQP9,04/05/2024 21:48,04/05/2024 21:48,Pay Bill Online from 074635***450 - Alice *** Acc. FBC,Completed,200,,73600,TRUE,Pay Bill Online,074635***450 - Alice ***,,FBC
SE428DWOEG,04/05/2024 20:38,04/05/2024 20:38,Pay Bill Online from 072225***105 - SALIM *** Acc. FGF water,Completed,2000,,73400,TRUE,Pay Bill Online,072225***105 - SALIM ***,,FGF water
SE4489B3VC,04/05/2024 20:08,04/05/2024 20:08,Pay Bill Online from 254722***929 - LIZ *** Acc. g3,Completed,1400,,71400,TRUE,Pay Bill Online,254722***929 - LIZ ***,,g3
SE4084KUQ2,04/05/2024 19:42,04/05/2024 19:42,Pay Bill from 254799***719 - Anjeline *** Acc. FCA,Completed,1000,,70000,TRUE,Pay Utility,254799***719 - Anjeline ***,,FCA
SE42823UFY,04/05/2024 19:29,04/05/2024 19:29,Pay Bill from 254798***621 - MERCY *** Acc. jcj,Completed,1600,,69000,TRUE,Pay Utility,254798***621 - MERCY ***,,jcj
SE457WIE4Z,04/05/2024 19:01,04/05/2024 19:01,Pay Bill from 254700***550 - BENARD *** Acc. DBB,Completed,16000,,67400,TRUE,Pay Utility,254700***550 - BENARD ***,,DBB
SE467NBNIY,04/05/2024 18:12,04/05/2024 18:12,Pay Bill Online from 254799***492 - HIRANI *** Acc. JDB,Completed,1200,,51400,TRUE,Pay Bill Online,254799***492 - HIRANI ***,,JDB
SE4172R4SD,04/05/2024 15:57,04/05/2024 15:57,Pay Bill from 254726***273 - JESSE *** Acc. HCH,Completed,600,,50200,TRUE,Pay Utility,254726***273 - JESSE ***,,HCH
SE476712JH,04/05/2024 12:01,04/05/2024 12:01,Pay Bill from 254798***778 - victor *** Acc. DAD,Completed,1600,,49600,TRUE,Pay Utility,254798***778 - victor ***,,DAD
SE425S51U8,04/05/2024 10:01,04/05/2024 10:01,Pay Bill Online from 254723***628 - CLINTON *** Acc. hfh,Completed,800,,48000,TRUE,Pay Bill Online,254723***628 - CLINTON ***,,hfh
SE495J24B3,04/05/2024 08:36,04/05/2024 08:36,Pay Bill Online from 254721***713 - RHODA *** Acc. Jfh,Completed,1000,,47200,TRUE,Pay Bill Online,254721***713 - RHODA ***,,Jfh
SE445GRRLI,04/05/2024 08:11,04/05/2024 08:11,Pay Bill Online from 076802***575 - DOREEN *** Acc. HCD,Completed,800,,46200,TRUE,Pay Bill Online,076802***575 - DOREEN ***,,HCD
SE323SOOT4,03/05/2024 17:46,03/05/2024 17:46,Pay Bill from 254741***886 - TERESIA *** Acc. v50,Completed,200,,45400,TRUE,Pay Utility,254741***886 - TERESIA ***,,v50
SE333KPGB3,03/05/2024 16:56,03/05/2024 16:56,Pay Bill from 254701***476 - mary *** Acc. DAA,Completed,600,,45200,TRUE,Pay Utility,254701***476 - mary ***,,DAA
SE33396OZ1,03/05/2024 15:33,03/05/2024 15:33,Pay Bill from 070656***358 - HARRIET *** Acc. HBA,Completed,800,,44600,TRUE,Pay Utility,070656***358 - HARRIET ***,,HBA
SE392MXR6T,03/05/2024 12:45,03/05/2024 12:45,Pay Bill from 254713***251 - ERIC *** Acc. JDI,Completed,1000,,43800,TRUE,Pay Utility,254713***251 - ERIC ***,,JDI
SE382JEYWC,03/05/2024 12:17,03/05/2024 12:17,Pay Bill from 254717***324 - Christine *** Acc. KDF,Completed,200,,42800,TRUE,Pay Utility,254717***324 - Christine ***,,KDF
SE392HBC75,03/05/2024 12:00,03/05/2024 12:00,Pay Bill from 254796***018 - PEACE *** Acc. jah,Completed,1400,,42600,TRUE,Pay Utility,254796***018 - PEACE ***,,jah
SE392FETJF,03/05/2024 11:44,03/05/2024 11:44,Pay Bill from 254792***128 - Edwin *** Acc. HBF,Completed,600,,41200,TRUE,Pay Utility,254792***128 - Edwin ***,,HBF
SE3820T4GM,03/05/2024 09:42,03/05/2024 09:42,Pay Bill from 254726***584 - JULIANA *** Acc. v4,Completed,400,,40600,TRUE,Pay Utility,254726***584 - JULIANA ***,,v4
SE321Z4LEC,03/05/2024 09:27,03/05/2024 09:27,Pay Bill from 254715***540 - HILLARY *** Acc. v19,Completed,1000,,40200,TRUE,Pay Utility,254715***540 - HILLARY ***,,v19
SE371UJ35T,03/05/2024 08:44,03/05/2024 08:44,Pay Bill Online from 254712***871 - PAULA *** Acc. hea,Completed,800,,39200,TRUE,Pay Bill Online,254712***871 - PAULA ***,,hea
SE2715XZ7V,02/05/2024 21:14,02/05/2024 21:14,Pay Bill Online from 254795***849 - PURITY *** Acc. kbb,Completed,400,,38400,TRUE,Pay Bill Online,254795***849 - PURITY ***,,kbb
SE25ZRVKSJ,02/05/2024 19:33,02/05/2024 19:33,Pay Bill Online from 254710***992 - SIMON *** Acc. JCD,Completed,600,,38000,TRUE,Pay Bill Online,254710***992 - SIMON ***,,JCD
SE21ZOGKNN,02/05/2024 19:15,02/05/2024 19:15,Pay Bill Online from 254703***849 - ROYAL *** Acc. F2,Completed,8000,,37400,TRUE,Pay Bill Online,254703***849 - ROYAL ***,,F2
SE22ZOF68O,02/05/2024 19:14,02/05/2024 19:14,Pay Bill Online from 254708***223 - DENNIS *** Acc. DCA,Completed,600,,29400,TRUE,Pay Bill Online,254708***223 - DENNIS ***,,DCA
SE28YOHDYG,02/05/2024 15:21,02/05/2024 15:21,Pay Bill from 254708***464 - MERCY *** Acc. IBB,Completed,1000,,28800,TRUE,Pay Utility,254708***464 - MERCY ***,,IBB
SE29XJJ0AX,02/05/2024 09:53,02/05/2024 09:53,Pay Bill Online from 254720***253 - JIMMY *** Acc. KBD,Completed,200,,27800,TRUE,Pay Utility with OD Online,254720***253 - JIMMY ***,,KBD
SE23XGKMN9,02/05/2024 09:27,02/05/2024 09:27,Pay Bill from 254703***626 - DAVID *** Acc. fcd,Completed,600,,27600,TRUE,Pay Utility,254703***626 - DAVID ***,,fcd
SE25XF5JOJ,02/05/2024 09:13,02/05/2024 09:13,Pay Bill Online from 254706***046 - STACY *** Acc. KGK,Completed,800,,27000,TRUE,Pay Bill Online,254706***046 - STACY ***,,KGK
SE24X56ADW,02/05/2024 07:27,02/05/2024 07:27,Pay Bill from 254723***380 - RHODAH *** Acc. HEG,Completed,1400,,26200,TRUE,Pay Utility,254723***380 - RHODAH ***,,HEG
SE23X3M2FN,02/05/2024 07:02,02/05/2024 07:02,Pay Bill from 254717***817 - MARTHA *** Acc. fcf,Completed,900,,24800,TRUE,Pay Utility,254717***817 - MARTHA ***,,fcf
SE29X3JOTB,02/05/2024 07:01,02/05/2024 07:01,Pay Bill from 254717***817 - MARTHA *** Acc. fcf,Completed,100,,23900,TRUE,Pay Utility,254717***817 - MARTHA ***,,fcf
SE29X1U591,02/05/2024 06:17,02/05/2024 06:17,Pay Bill Online from 071150***447 - Gabriel *** Acc. FDC,Completed,600,,23800,TRUE,Pay Bill Online,071150***447 - Gabriel ***,,FDC
SE23X0OB9V,02/05/2024 04:56,02/05/2024 04:56,Pay Bill Online from 254720***253 - JIMMY *** Acc. KBD,Completed,200,,23200,TRUE,Pay Utility with OD Online,254720***253 - JIMMY ***,,KBD
SE19WVCZ3V,01/05/2024 23:38,01/05/2024 23:38,Pay Bill from 074337***291 - Ann *** Acc. KAD,Completed,1200,,23000,TRUE,Pay Utility,074337***291 - Ann ***,,KAD
SE10WRG51Y,01/05/2024 22:21,01/05/2024 22:21,Pay Bill Online from 254717***935 - LYDIAH *** Acc. ffb,Completed,600,,21800,TRUE,Pay Bill Online,254717***935 - LYDIAH ***,,ffb
SE11W9AF8H,01/05/2024 19:55,01/05/2024 19:55,Pay Bill from 254703***239 - BENARD *** Acc. KAK,Completed,1200,,21200,TRUE,Pay Utility,254703***239 - BENARD ***,,KAK
SE10W64LEI,01/05/2024 19:37,01/05/2024 19:37,Pay Bill from 074167***394 - STANELY *** Acc. V44,Completed,400,,20000,TRUE,Pay Utility,074167***394 - STANELY ***,,V44
SE17W5J0UL,01/05/2024 19:34,01/05/2024 19:34,Pay Bill from 254706***081 - FATUMA *** Acc. HED,Completed,1000,,19600,TRUE,Pay Utility,254706***081 - FATUMA ***,,HED
SE14W3A55E,01/05/2024 19:22,01/05/2024 19:22,Pay Bill from 254743***477 - FAITH *** Acc. IGE,Completed,1000,,18600,TRUE,Pay Utility,254743***477 - FAITH ***,,IGE
SE11VTAEE3,01/05/2024 18:30,01/05/2024 18:30,Pay Bill from 254717***775 - QADRA *** Acc. jci,Completed,2500,,17600,TRUE,Pay Utility,254717***775 - QADRA ***,,jci
SE19VKBQ6P,01/05/2024 17:34,01/05/2024 17:34,Pay Bill Online from 254799***039 - LUIS *** Acc. IAE,Completed,800,,15100,TRUE,Pay Bill Online,254799***039 - LUIS ***,,IAE
SE16VET1ME,01/05/2024 16:55,01/05/2024 16:55,Pay Bill Online from 254706***429 - ROSE *** Acc. IFI,Completed,200,,14300,TRUE,Pay Bill Online,254706***429 - ROSE ***,,IFI
SE14VDUTRO,01/05/2024 16:48,01/05/2024 16:48,Pay Bill Online from 254729***719 - JACINTA *** Acc. FFF,Completed,600,,14100,TRUE,Pay Bill Online,254729***719 - JACINTA ***,,FFF
SE15V6X0MX,01/05/2024 15:54,01/05/2024 15:54,Pay Bill Online from 254707***839 - DENNIS *** Acc. FEF,Completed,800,,13500,TRUE,Pay Bill Online,254707***839 - DENNIS ***,,FEF
SE14V3NCSC,01/05/2024 15:28,01/05/2024 15:28,Pay Bill Online from 254716***364 - Wendy *** Acc. ffc,Completed,1000,,12700,TRUE,Pay Bill Online,254716***364 - Wendy ***,,ffc
SE14UYTYWU,01/05/2024 14:50,01/05/2024 14:50,Pay Bill from 254704***133 - ELVIS *** Acc. HFD,Completed,500,,11700,TRUE,Pay Utility,254704***133 - ELVIS ***,,HFD
SE15UX5L5B,01/05/2024 14:37,01/05/2024 14:37,Pay Bill Online from 254790***715 - JULIUS *** Acc. C2,Completed,200,,11200,TRUE,Pay Bill Online,254790***715 - JULIUS ***,,C2
SE17UOW3PX,01/05/2024 13:33,01/05/2024 13:33,Pay Bill from 254717***012 - WINFRED *** Acc. IDA,Completed,600,,11000,TRUE,Pay Utility,254717***012 - WINFRED ***,,IDA
SE14UDLFHI,01/05/2024 12:02,01/05/2024 12:02,Pay Bill Online from 254795***441 - LEWIS *** Acc. KEB,Completed,400,,10400,TRUE,Pay Bill Online,254795***441 - LEWIS ***,,KEB
SE11UDEB3P,01/05/2024 12:00,01/05/2024 12:00,Pay Bill Online from 254714***840 - RACHAEL *** Acc. ITE,Completed,400,,10000,TRUE,Pay Bill Online,254714***840 - RACHAEL ***,,ITE
SE13U4Q7F1,01/05/2024 10:47,01/05/2024 10:47,Pay Bill from 254717***817 - NYANGAU *** Acc. jba,Completed,1800,,9600,TRUE,Pay Utility,254717***817 - NYANGAU ***,,jba
SE17U31HHJ,01/05/2024 10:32,01/05/2024 10:32,Pay Bill from 254725***094 - ABDISALAN *** Acc. IBA,Completed,1900,,7800,TRUE,Pay Utility,254725***094 - ABDISALAN ***,,IBA
SE12TQ0NSQ,01/05/2024 08:29,01/05/2024 08:29,Pay Bill Online from 254725***080 - DENNIS *** Acc. HDH,Completed,1000,,5900,TRUE,Pay Utility with OD Online,254725***080 - DENNIS ***,,HDH
SE13TPKTG9,01/05/2024 08:24,01/05/2024 08:24,Pay Bill Online from 254720***253 - JIMMY *** Acc. KBD,Completed,500,,4900,TRUE,Pay Utility with OD Online,254720***253 - JIMMY ***,,KBD
