Receipt No.,Completion Time,Initiation Time,Details,Transaction Status,Paid In,Withdrawn,Balance,Balance Confirmed,Reason Type,Other Party Info,Linked Transaction ID,A/C No.
PLR3QXVMYR,27/12/2021 15:22,27/12/2021 15:22,Pay Bill Online from 254727725587 - IVY MACHARIA Acc. B2,Completed,400,,15700,TRUE,Pay Bill Online,254727725587 - IVY MACHARIA,,B2
PLR1QSLDF3,27/12/2021 13:42,27/12/2021 13:42,Pay Bill from 254720278119 - LINDAH OGAWO Acc. kfe,Completed,400,,15300,TRUE,Pay Utility,254720278119 - LINDAH OGAWO,,kfe
PLR0QSID4G,27/12/2021 13:41,27/12/2021 13:41,Pay Bill Online from 254724882554 - ALPHONCE WAMBUA NGELI Acc. JDA,Completed,1600,,14900,TRUE,Pay Bill Online,254724882554 - ALPHONCE WAMBUA NGELI,,JDA
PLR1QSE43B,27/12/2021 13:39,27/12/2021 13:39,Pay Bill Online from 254700379039 - MARTIN KIMANI Acc. KCI,Completed,1000,,13300,TRUE,Pay Bill Online,254700379039 - MARTIN KIMANI,,KCI
PLR7QNICOT,27/12/2021 12:07,27/12/2021 12:07,FSI to Pay Bill by 714888 - B2C LOOP VIA NCBA Acc. DCC via WEB by B2C LOOP VIA NCBA\Cbainitiator,Completed,1200,,12300,TRUE,FSI to Pay Bill via API,714888 - B2C LOOP VIA NCBA,,DCC
PLR5QGN8ON,27/12/2021 09:55,27/12/2021 09:55,Pay Bill from 254723538366 - VERONICAH SHIYENJI Acc. V40,Completed,400,,11100,TRUE,Pay Utility,254723538366 - VERONICAH SHIYENJI,,V40
PLQ1Q720AV,26/12/2021 22:46,26/12/2021 22:46,Pay Bill Online from 0711117122 - Yassir Mwinyi Abdulrazaq Acc. ICE,Completed,1000,,10700,TRUE,Pay Bill Online,0711117122 - Yassir Mwinyi Abdulrazaq,,ICE
PLQ0P9G9VU,26/12/2021 12:31,26/12/2021 12:31,Pay Bill from 254725754547 - MWACHIRO GEORGE DECHE Acc. DFC,Completed,1600,,9700,TRUE,Pay Utility,254725754547 - MWACHIRO GEORGE DECHE,,DFC
PLQ7P7TI2V,26/12/2021 11:57,26/12/2021 11:57,Pay Bill from 254799946039 - LUIS OTIENO Acc. IAE,Completed,800,,8100,TRUE,Pay Utility,254799946039 - LUIS OTIENO,,IAE
PLQ9OX6H9P,26/12/2021 07:47,26/12/2021 07:47,Pay Bill from 254726753273 - JESSE K MURIRMI NJERU Acc. HCH,Completed,1300,,7300,TRUE,Pay Utility,254726753273 - JESSE K MURIRMI NJERU,,HCH
PLP8OKPK3Q,25/12/2021 20:00,25/12/2021 20:00,Pay Bill from 254711706815 - NAOMI WANYONYI Acc. KBA,Completed,1200,,6000,TRUE,Pay Utility,254711706815 - NAOMI WANYONYI,,KBA
PLP0NYOEEQ,25/12/2021 14:10,25/12/2021 14:10,Pay Bill Online from 254727554512 - COLLINS KOECH Acc. JDJ,Completed,2400,,4800,TRUE,Pay Bill Online,254727554512 - COLLINS KOECH,,JDJ
PLP1NLRH0N,25/12/2021 10:43,25/12/2021 10:43,Pay Bill from 254702527778 - PAULINE MUKAMI MUNYI Acc. Heh,Completed,600,,2400,TRUE,Pay Utility,254702527778 - PAULINE MUKAMI MUNYI,,Heh
PLP6NG55XY,25/12/2021 09:13,25/12/2021 09:13,Pay Bill from 254714710840 - RACHAEL WANJIRU NJOROGE Acc. ITE,Completed,600,,1800,TRUE,Pay Utility,254714710840 - RACHAEL WANJIRU NJOROGE,,ITE
PLP2NE5S2K,25/12/2021 08:39,25/12/2021 08:39,Pay Bill from 254720623535 - JOSEPH MUTURI KAMAU Acc. V32,Completed,200,,1200,TRUE,Pay Utility,254720623535 - JOSEPH MUTURI KAMAU,,V32
PLP8N7TAXQ,25/12/2021 02:34,25/12/2021 02:34,Pay Bill from 254718818610 - HANNAH NALIAKA Acc. V23,Completed,400,,1000,TRUE,Pay Utility,254718818610 - HANNAH NALIAKA,,V23
PLO4MHP32K,24/12/2021 18:09,24/12/2021 18:09,Pay Bill from 254702144275 - CAROLYNE MAKENA KARIA Acc. JFB,Completed,600,,600,TRUE,Pay Utility,254702144275 - CAROLYNE MAKENA KARIA,,JFB
PLO3LRBM4D,24/12/2021 12:45,24/12/2021 12:45,Utility Account to Organization Settlement Account,Completed,,-8500,0,TRUE,Utility Account to Organization Settlement Account,846783 - ANCIENT WELLS LTD 4,,
PLO2LQO8R6,24/12/2021 12:36,24/12/2021 12:36,Pay Bill from 254721302658 - JACOB BIRUNDU Acc. DDB,Completed,400,,8500,TRUE,Pay Utility,254721302658 - JACOB BIRUNDU,,DDB
PLO8LOF0ZS,24/12/2021 12:04,24/12/2021 12:04,Pay Bill from 254722136450 - MARY EVERLYN Acc. JAI,Completed,200,,8100,TRUE,Pay Utility,254722136450 - MARY EVERLYN,,JAI
PLO9LMLE7T,24/12/2021 11:39,24/12/2021 11:39,Pay Bill Online from 254720696119 - DUNCAN OMONDI OKETCH Acc. IAG,Completed,600,,7900,TRUE,Pay Bill Online,254720696119 - DUNCAN OMONDI OKETCH,,IAG
PLO7LLED3Z,24/12/2021 11:23,24/12/2021 11:23,Pay Bill Online from 254713498554 - HENRY KINYUA WARUI Acc. Henry Warui V44,Completed,500,,7300,TRUE,Pay Bill Online,254713498554 - HENRY KINYUA WARUI,,Henry
PLO0LASROU,24/12/2021 08:41,24/12/2021 08:41,Pay Bill from 254703180395 - JANE NYAGUTHII MWAGO Acc. IBE,Completed,400,,6800,TRUE,Pay Utility,254703180395 - JANE NYAGUTHII MWAGO,,IBE
PLN9KRR0B9,23/12/2021 19:58,23/12/2021 19:58,Pay Bill Online from 254706898046 - STACY AKETCH OCHUKA Acc. KGK,Completed,1200,,6400,TRUE,Pay Bill Online,254706898046 - STACY AKETCH OCHUKA,,KGK
PLN0KQ9ISE,23/12/2021 19:41,23/12/2021 19:41,Pay Bill Online from 254728897908 - Teddy Allan Onyango Acc. KCF,Completed,1400,,5200,TRUE,Pay Bill Online,254728897908 - Teddy Allan Onyango,,KCF
PLN0KNS24I,23/12/2021 19:16,23/12/2021 19:16,Pay Bill from 254716715043 - HANNAH WATETU GACHAGUA Acc. IAI,Completed,200,,3800,TRUE,Pay Utility with OD via STK,254716715043 - HANNAH WATETU GACHAGUA,,IAI
PLN3KK2W1N,23/12/2021 18:37,23/12/2021 18:37,Pay Bill Online from 254797601911 - JORAM MASAI KILONZO Acc. KTE,Completed,400,,3600,TRUE,Pay Bill Online,254797601911 - JORAM MASAI KILONZO,,KTE
PLN6KHGYTA,23/12/2021 18:07,23/12/2021 18:07,Pay Bill from 0758741326 - ABDULLAHI ISACK BANTE Acc. KBE,Completed,600,,3200,TRUE,Pay Utility,0758741326 - ABDULLAHI ISACK BANTE,,KBE
PLN7KEQDJF,23/12/2021 17:33,23/12/2021 17:33,Pay Bill from 254719109185 - VIOLINE JEROTICH KOROS Acc. u2,Completed,1000,,2600,TRUE,Pay Utility,254719109185 - VIOLINE JEROTICH KOROS,,u2
PLN2KEOBFS,23/12/2021 17:33,23/12/2021 17:33,Pay Bill from 254741791919 - Linet Mongina Maraga Acc. u3,Completed,600,,1600,TRUE,Pay Utility,254741791919 - Linet Mongina Maraga,,u3
PLN6KBEJTS,23/12/2021 16:50,23/12/2021 16:50,Pay Bill Online from 254720107609 - DENNIS OGENDI BARAKE Acc. JAJ,Completed,1000,,1000,TRUE,Pay Bill Online,254720107609 - DENNIS OGENDI BARAKE,,JAJ
PLN4K9X20A,23/12/2021 16:30,23/12/2021 16:30,Utility Account to Organization Settlement Account,Completed,,-21800,0,TRUE,Utility Account to Organization Settlement Account,846783 - ANCIENT WELLS LTD 4,,
PLN5K4A60Z,23/12/2021 15:08,23/12/2021 15:08,Pay Bill from 254729358258 - Cliff Ombasa Acc. v05,Completed,200,,21800,TRUE,Pay Utility,254729358258 - Cliff Ombasa,,v05
PLN0JJ8HGQ,23/12/2021 09:42,23/12/2021 09:42,Pay Bill from 254710965167 - KUSA STEPHANIE HAZEL Acc. JDC,Completed,200,,21600,TRUE,Pay Utility,254710965167 - KUSA STEPHANIE HAZEL,,JDC
PLN2JI5VK4,23/12/2021 09:23,23/12/2021 09:23,Pay Bill Online from 254724211857 - OCHUODHO OUMA Acc. KBK WATER,Completed,2000,,21400,TRUE,Pay Bill Online,254724211857 - OCHUODHO OUMA,,KBK
PLN2JEXJI4,23/12/2021 08:24,23/12/2021 08:24,Pay Bill from 254728313347 - GEORGE KIMAIGA NYAMORI Acc. ici,Completed,1400,,19400,TRUE,Pay Utility with OD via STK,254728313347 - GEORGE KIMAIGA NYAMORI,,ici
PLN9JAJRIB,23/12/2021 05:47,23/12/2021 05:47,Pay Bill from 0757259130 - RASHID SUDI MCHOMBO Acc. JAF,Completed,600,,18000,TRUE,Pay Utility,0757259130 - RASHID SUDI MCHOMBO,,JAF
PLM3J1D7BR,22/12/2021 20:43,22/12/2021 20:43,Pay Bill Online from 254717463608 - DANIEL MUNIU MUGURE Acc. HGE,Completed,400,,17400,TRUE,Pay Bill Online,254717463608 - DANIEL MUNIU MUGURE,,HGE
PLM0ISZS2Y,22/12/2021 19:10,22/12/2021 19:10,Pay Bill from 254707370896 - OKECH BRIAN BRIAN Acc. FFA,Completed,1000,,17000,TRUE,Pay Utility,254707370896 - OKECH BRIAN BRIAN,,FFA
PLM6INU27G,22/12/2021 18:13,22/12/2021 18:13,Pay Bill from 254703147783 - LYDIAH NJOKI MUCHIRI Acc. Jeb,Completed,13500,,16000,TRUE,Pay Utility,254703147783 - LYDIAH NJOKI MUCHIRI,,Jeb
PLM4INOD7Y,22/12/2021 18:11,22/12/2021 18:11,Pay Bill from 254703147783 - LYDIAH NJOKI MUCHIRI Acc. Jeb,Completed,1500,,2500,TRUE,Pay Utility,254703147783 - LYDIAH NJOKI MUCHIRI,,Jeb
PLM3ILHPN9,22/12/2021 17:44,22/12/2021 17:44,Pay Bill Online from 254702118125 - ROTICH BETHWEL Acc. V20,Completed,200,,1000,TRUE,Pay Bill Online,254702118125 - ROTICH BETHWEL,,V20
PLM3I13O0H,22/12/2021 12:38,22/12/2021 12:38,Pay Bill from 0740507437 - JOY KAARI KAMENCU Acc. FAC,Completed,800,,800,TRUE,Pay Utility,0740507437 - JOY KAARI KAMENCU,,FAC
PLM1HXEFW5,22/12/2021 11:39,22/12/2021 11:39,Utility Account to Organization Settlement Account,Completed,,-14500,0,TRUE,Utility Account to Organization Settlement Account,846783 - ANCIENT WELLS LTD 4,,
PLM6HGMU2Y,22/12/2021 00:00,22/12/2021 00:00,Pay Bill from 254721671129 - CHRISPINUS ODHIAMBO Acc. DFD,Completed,1400,,14500,TRUE,Pay Utility,254721671129 - CHRISPINUS ODHIAMBO,,DFD
PLL4H1YZK2,21/12/2021 19:10,21/12/2021 19:10,Pay Bill Online from 254720451253 - JIMMY KIOGORA NKIROTE Acc. kbd,Completed,200,,13100,TRUE,Pay Utility with OD Online,254720451253 - JIMMY KIOGORA NKIROTE,,kbd
PLL6GVQTDG,21/12/2021 17:59,21/12/2021 17:59,Pay Bill from 254725381062 - VICTOR MAITHYA Acc. HEG,Completed,1800,,12900,TRUE,Pay Utility,254725381062 - VICTOR MAITHYA,,HEG
PLL2GIXB1I,21/12/2021 14:47,21/12/2021 14:47,Pay Bill Online from 0758506934 - Edgar Maxwel Wanguba Acc. IFG,Completed,800,,11100,TRUE,Pay Bill Online,0758506934 - Edgar Maxwel Wanguba,,IFG
PLL9GAUS6J,21/12/2021 12:35,21/12/2021 12:35,Pay Bill Online from 254728364280 - EMMANUEL THUMA OYIER Acc. IDF,Completed,900,,10300,TRUE,Pay Bill Online,254728364280 - EMMANUEL THUMA OYIER,,IDF
PLL3G76GAD,21/12/2021 11:34,21/12/2021 11:34,Pay Bill Online from 254704783091 - CLINTON MUSEBE KASUTI Acc. V48,Completed,400,,9400,TRUE,Pay Bill Online,254704783091 - CLINTON MUSEBE KASUTI,,V48
PLL2G4MB36,21/12/2021 10:50,21/12/2021 10:50,Pay Bill Online from 254726593769 - BONFACE BWINA Acc. DEB,Completed,3800,,9000,TRUE,Pay Bill Online,254726593769 - BONFACE BWINA,,DEB
PLL3FTXZFV,21/12/2021 07:09,21/12/2021 07:09,Pay Bill from 254704140048 - MAUREEN GACHERI KINYUA Acc. JDD,Completed,800,,5200,TRUE,Pay Utility,254704140048 - MAUREEN GACHERI KINYUA,,JDD
PLK1FNPVM5,20/12/2021 21:35,20/12/2021 21:35,Pay Bill from 254705122840 - RICHU MWANGI GATURAGA Acc. DEA,Completed,2200,,4400,TRUE,Pay Utility,254705122840 - RICHU MWANGI GATURAGA,,DEA
PLK6FNI3H0,20/12/2021 21:31,20/12/2021 21:31,Pay Bill from 0721130307 - HILLARY NGUNYI MUTINDA Acc. JCH,Completed,1000,,2200,TRUE,Pay Utility,0721130307 - HILLARY NGUNYI MUTINDA,,JCH
PLK9FITWTV,20/12/2021 20:19,20/12/2021 20:19,Pay Bill Online from 0757699775 - BENARD MUIA MUTUA Acc. HCB,Completed,1200,,1200,TRUE,Pay Bill Online,0757699775 - BENARD MUIA MUTUA,,HCB
PLK6FGNVF6,20/12/2021 19:53,20/12/2021 19:53,Utility Account to Organization Settlement Account,Completed,,-3400,0,TRUE,Utility Account to Organization Settlement Account,846783 - ANCIENT WELLS LTD 4,,
PLK9F99YVB,20/12/2021 18:35,20/12/2021 18:35,Pay Bill from 254700890378 - MERCY KIMORI Acc. JDI,Completed,1000,,3400,TRUE,Pay Utility,254700890378 - MERCY KIMORI,,JDI
PLK7EPFOEF,20/12/2021 13:38,20/12/2021 13:38,Pay Bill Online from 254722258756 - DAVID KEMBOI Acc. HDA,Completed,1200,,2400,TRUE,Pay Bill Online,254722258756 - DAVID KEMBOI,,HDA
PLK8ED3242,20/12/2021 10:11,20/12/2021 10:11,Pay Bill Online from 254799863492 - HIRANI MULJI Acc. JDB,Completed,1200,,1200,TRUE,Pay Bill Online,254799863492 - HIRANI MULJI,,JDB
PLK9E7BRJL,20/12/2021 08:23,20/12/2021 08:23,Utility Account to Organization Settlement Account,Completed,,-13800,0,TRUE,Utility Account to Organization Settlement Account,846783 - ANCIENT WELLS LTD 4,,
PLK5E2ZBGH,20/12/2021 05:12,20/12/2021 05:12,Pay Bill from 254720249209 - WILFRED NJUGUNA WANJIRA Acc. DDD,Completed,1200,,13800,TRUE,Pay Utility,254720249209 - WILFRED NJUGUNA WANJIRA,,DDD
PLJ3DPLZJF,19/12/2021 19:24,19/12/2021 19:24,Pay Bill from 254701174081 - JOSEPHINE ODUOR Acc. v34,Completed,1000,,12600,TRUE,Pay Utility,254701174081 - JOSEPHINE ODUOR,,v34
PLJ8DCW9JI,19/12/2021 16:26,19/12/2021 16:26,Pay Bill Online from 254700187806 - WINNIE OLIVIA AKOTH Acc. JEC,Completed,600,,11600,TRUE,Pay Bill Online,254700187806 - WINNIE OLIVIA AKOTH,,JEC
PLJ2CUIEPI,19/12/2021 10:49,19/12/2021 10:49,Pay Bill from 0713603056 - antony ng'ang'a muthaka Acc. IEC,Completed,600,,11000,TRUE,Pay Utility with OD via STK,0713603056 - antony ng'ang'a muthaka,,IEC
PLJ0CQCV54,19/12/2021 09:24,19/12/2021 09:24,Pay Bill Online from 0740422187 - KEVIN MAKATO KUNGA Acc. KEG,Completed,600,,10400,TRUE,Pay Utility with OD Online,0740422187 - KEVIN MAKATO KUNGA,,KEG
PLJ0CPENWY,19/12/2021 09:03,19/12/2021 09:03,Pay Bill from 0717216114 - Felix Njeru Mugambi Acc. Kdf,Completed,1000,,9800,TRUE,Pay Utility,0717216114 - Felix Njeru Mugambi,,Kdf
PLJ4CP1YJ8,19/12/2021 08:56,19/12/2021 08:56,Pay Bill from 254759390371 - RHINUS MUTWIRI KINYURU Acc. v26,Completed,400,,8800,TRUE,Pay Utility with OD via STK,254759390371 - RHINUS MUTWIRI KINYURU,,v26
PLJ9CMZCOJ,19/12/2021 08:08,19/12/2021 08:08,Pay Bill from 254712660519 - KELVIN MUTUNGA KATONYI Acc. V49,Completed,200,,8400,TRUE,Pay Utility,254712660519 - KELVIN MUTUNGA KATONYI,,V49
PLI6C6SRM6,18/12/2021 19:55,18/12/2021 19:55,Pay Bill from 254799287000 - Godfrey odhiambo oyugi Acc. kae,Completed,100,,8200,TRUE,Pay Utility,254799287000 - Godfrey odhiambo oyugi,,kae
PLI4C6SGIY,18/12/2021 19:55,18/12/2021 19:55,Pay Bill from 254723295023 - Murugan Achudhanantham Acc. HBA,Completed,600,,8100,TRUE,Pay Utility,254723295023 - Murugan Achudhanantham,,HBA
PLI5C2TWKF,18/12/2021 19:14,18/12/2021 19:14,Pay Bill from 254701047939 - Cyrus Wahome Acc. JAH,Completed,600,,7500,TRUE,Pay Utility with OD via STK,254701047939 - Cyrus Wahome,,JAH
PLI8C0F2OK,18/12/2021 18:49,18/12/2021 18:49,Pay Bill from 254720230582 - SHADRACK KITAKA NGILA Acc. hse,Completed,200,,6900,TRUE,Pay Utility,254720230582 - SHADRACK KITAKA NGILA,,hse
PLI5BPYLIB,18/12/2021 16:30,18/12/2021 16:30,Pay Bill Online from 0114735826 - PETER POCHI MAKACHA Acc. 1ac,Completed,3800,,6700,TRUE,Pay Bill Online,0114735826 - PETER POCHI MAKACHA,,1ac
PLI1BPEIM1,18/12/2021 16:22,18/12/2021 16:22,Pay Bill from 254721417560 - ANDREW SANDE Acc. JBJ,Completed,1500,,2900,TRUE,Pay Utility,254721417560 - ANDREW SANDE,,JBJ
PLI0BMNUQI,18/12/2021 15:39,18/12/2021 15:39,Pay Bill from 254728084427 - MARY NABWIRE OKELLO Acc. FDF,Completed,1200,,1400,TRUE,Pay Utility,254728084427 - MARY NABWIRE OKELLO,,FDF
PLI1BLBYQX,18/12/2021 15:18,18/12/2021 15:18,Pay Bill from 254717801919 - MARCELINE AKINYI Acc. IAF,Completed,200,,200,TRUE,Pay Utility,254717801919 - MARCELINE AKINYI,,IAF
PLI9BEWN95,18/12/2021 13:36,18/12/2021 13:36,Utility Account to Organization Settlement Account,Completed,,-12400,0,TRUE,Utility Account to Organization Settlement Account,846783 - ANCIENT WELLS LTD 4,,
PLI2BDT176,18/12/2021 13:18,18/12/2021 13:18,Pay Bill from 0748212685 - timothy odhiambo owiti Acc. JDE,Completed,1200,,12400,TRUE,Pay Utility,0748212685 - timothy odhiambo owiti,,JDE
PLI3BD42H1,18/12/2021 13:07,18/12/2021 13:07,Pay Bill from 254712461449 - CAROLINE MUTHONI GICHOHI Acc. fca,Completed,600,,11200,TRUE,Pay Utility,254712461449 - CAROLINE MUTHONI GICHOHI,,fca
PLI2B39F2W,18/12/2021 10:26,18/12/2021 10:26,Pay Bill from 254722910078 - MAUREEN MUNYIVA MUTUKU Acc. DBD,Completed,1600,,10600,TRUE,Pay Utility,254722910078 - MAUREEN MUNYIVA MUTUKU,,DBD
PLI8B06NGC,18/12/2021 09:33,18/12/2021 09:33,Pay Bill from 254713662892 - DAVID JUMA KIPTOCH Acc. JBE,Completed,600,,9000,TRUE,Pay Utility,254713662892 - DAVID JUMA KIPTOCH,,JBE
PLH7APGJ9D,17/12/2021 22:59,17/12/2021 22:59,Pay Bill from 254702346515 - ELIZABETH ACHIENG NGOME Acc. KDE,Completed,600,,8400,TRUE,Pay Utility,254702346515 - ELIZABETH ACHIENG NGOME,,KDE
PLH4AOCAYO,17/12/2021 22:21,17/12/2021 22:21,Pay Bill Online from 254728093389 - MOHAMED MUSA ALASOW Acc. KED ,Completed,400,,7800,TRUE,Pay Bill Online,254728093389 - MOHAMED MUSA ALASOW,,KED
PLH4ANN5BC,17/12/2021 22:04,17/12/2021 22:04,Pay Bill from 254729258441 - ROBERT RONO KULEI Acc. JAB,Completed,400,,7400,TRUE,Pay Utility,254729258441 - ROBERT RONO KULEI,,JAB
PLH1AEVLL9,17/12/2021 19:55,17/12/2021 19:55,Pay Bill from 254718245568 - NADI GOLICHA Acc. KAA,Completed,2000,,7000,TRUE,Pay Utility,254718245568 - NADI GOLICHA,,KAA
PLH5A333O7,17/12/2021 17:47,17/12/2021 17:47,Pay Bill from 0793999724 - JALEEL    MWERO Acc. A2,Completed,800,,5000,TRUE,Pay Utility,0793999724 - JALEEL    MWERO,,A2
PLH1A1CTVN,17/12/2021 17:25,17/12/2021 17:25,Pay Bill from 254706920646 - MIRIAM CHEPTOO Acc. V08,Completed,600,,4200,TRUE,Pay Utility with OD via STK,254706920646 - MIRIAM CHEPTOO,,V08
PLH59MH57Z,17/12/2021 13:36,17/12/2021 13:36,Pay Bill from 254722648389 - SUDI MOSES Acc. V31,Completed,200,,3600,TRUE,Pay Utility,254722648389 - SUDI MOSES,,V31
PLH49MGFR0,17/12/2021 13:36,17/12/2021 13:36,Pay Bill from 254728681775 - Faith Abigael Acc. JAC,Completed,1200,,3400,TRUE,Pay Utility,254728681775 - Faith Abigael,,JAC
PLH79M4D8V,17/12/2021 13:31,17/12/2021 13:31,Pay Bill from 0112583763 - Mercy Ndunge Nzamalu Acc. v28,Completed,1400,,2200,TRUE,Pay Utility,0112583763 - Mercy Ndunge Nzamalu,,v28
PLH29JXZQU,17/12/2021 12:55,17/12/2021 12:55,Pay Bill from 254726039536 - MERCY MESHACK Acc. FDC,Completed,400,,800,TRUE,Pay Utility,254726039536 - MERCY MESHACK,,FDC
PLH59HLK85,17/12/2021 12:15,17/12/2021 12:15,Pay Bill from 0743914369 - LYDIAH NJOKI MUCHIRI Acc. jeb,Completed,400,,400,TRUE,Pay Utility,0743914369 - LYDIAH NJOKI MUCHIRI,,jeb
PLH29GVW8G,17/12/2021 12:03,17/12/2021 12:03,Utility Account to Organization Settlement Account,Completed,,-14500,0,TRUE,Utility Account to Organization Settlement Account,846783 - ANCIENT WELLS LTD 4,,
PLH09FP2KO,17/12/2021 11:43,17/12/2021 11:43,Pay Bill from 254725111246 - FRANCIS MUUTU MWANGANGI Acc. IGI,Completed,400,,14500,TRUE,Pay Utility,254725111246 - FRANCIS MUUTU MWANGANGI,,IGI
PLH59F3NEV,17/12/2021 11:33,17/12/2021 11:33,Pay Bill Online from 254701683737 - MICHAEL NGUGI Acc. HDB,Completed,200,,14100,TRUE,Pay Bill Online,254701683737 - MICHAEL NGUGI,,HDB
PLH09F22O8,17/12/2021 11:32,17/12/2021 11:32,Pay Bill from 254720931300 - ESTHER WANJIRU NDUNGO Acc. KGE,Completed,1000,,13900,TRUE,Pay Utility,254720931300 - ESTHER WANJIRU NDUNGO,,KGE
PLH69ERKKQ,17/12/2021 11:27,17/12/2021 11:27,Pay Bill from 254111542144 - GAI MANYOK REECH Acc. KGG,Completed,200,,12900,TRUE,Pay Utility,254111542144 - GAI MANYOK REECH,,KGG
PLH59E9KGH,17/12/2021 11:19,17/12/2021 11:19,Pay Bill Online from 254722521028 - CHARLES MONYONCHO Acc. ICB,Completed,4000,,12700,TRUE,Pay Bill Online,254722521028 - CHARLES MONYONCHO,,ICB
PLH39E34IF,17/12/2021 11:16,17/12/2021 11:16,Pay Bill from 254728888511 - HAMISI MIRITI Acc. KAK,Completed,200,,8700,TRUE,Pay Utility,254728888511 - HAMISI MIRITI,,KAK
PLH59E2S93,17/12/2021 11:16,17/12/2021 11:16,Pay Bill from 254724852503 - GEOFREY YEGO Acc. JFF,Completed,400,,8500,TRUE,Pay Utility,254724852503 - GEOFREY YEGO,,JFF
PLH19DVIKZ,17/12/2021 11:12,17/12/2021 11:12,Pay Bill Online from 254792187144 - HASSAN AHMED HASSAN Acc. KGI,Completed,1000,,8100,TRUE,Pay Bill Online,254792187144 - HASSAN AHMED HASSAN,,KGI
PLH89DSG6Q,17/12/2021 11:11,17/12/2021 11:11,Pay Bill from 254726337163 - HALIMA ALI HASSAN Acc. DDA,Completed,1200,,7100,TRUE,Pay Utility,254726337163 - HALIMA ALI HASSAN,,DDA
PLH89DKBQY,17/12/2021 11:07,17/12/2021 11:07,Pay Bill Online from 254715764212 - BANCE ISHEMINYE Acc. JFE ,Completed,500,,5900,TRUE,Pay Bill Online,254715764212 - BANCE ISHEMINYE,,JFE
PLH29DF6H2,17/12/2021 11:04,17/12/2021 11:04,Pay Bill from 254723328258 - SAMUEL MAINA MURIUKI Acc. IFE,Completed,200,,5400,TRUE,Pay Utility,254723328258 - SAMUEL MAINA MURIUKI,,IFE
PLH09DE57W,17/12/2021 11:04,17/12/2021 11:04,Pay Bill Online from 254726001437 - FESTUS MUNYIRI MAINA Acc. IFF,Completed,200,,5200,TRUE,Pay Bill Online,254726001437 - FESTUS MUNYIRI MAINA,,IFF
PLH39D3AVR,17/12/2021 10:59,17/12/2021 10:59,Pay Bill from 254701006375 - EZRA MAKORI SERETI Acc. HTE,Completed,200,,5000,TRUE,Pay Utility with OD via STK,254701006375 - EZRA MAKORI SERETI,,HTE
PLH69CV9F0,17/12/2021 10:55,17/12/2021 10:55,Pay Bill Online from 254715002789 - ERICK NGUGI MAINA Acc. HAG,Completed,1200,,4800,TRUE,Pay Bill Online,254715002789 - ERICK NGUGI MAINA,,HAG
PLH09CPBWG,17/12/2021 10:52,17/12/2021 10:52,Pay Bill from 0748205997 - WHELDON MARK MASONGO Acc. HBD,Completed,2000,,3600,TRUE,Pay Utility,0748205997 - WHELDON MARK MASONGO,,HBD
PLG78QKL2Z,16/12/2021 20:35,16/12/2021 20:35,Pay Bill from 254723605941 - JOHN KARIHA Acc. KDD,Completed,600,,1600,TRUE,Pay Utility,254723605941 - JOHN KARIHA,,KDD
PLF76RXYQL,15/12/2021 19:13,15/12/2021 19:13,Pay Bill from 254723538366 - VERONICAH SHIYENJI Acc. V40,Completed,400,,1000,TRUE,Pay Utility,254723538366 - VERONICAH SHIYENJI,,V40
PLF15U027R,15/12/2021 10:48,15/12/2021 10:48,Pay Bill from 254718242028 - PAULINA NYAMWITHIA Acc. KCA,Completed,600,,600,TRUE,Pay Utility,254718242028 - PAULINA NYAMWITHIA,,KCA
PLE44XBRPY,14/12/2021 18:32,14/12/2021 18:32,Utility Account to Organization Settlement Account,Completed,,-9770,0,TRUE,Utility Account to Organization Settlement Account,846783 - ANCIENT WELLS LTD 4,,
PLE248YLDC,14/12/2021 12:13,14/12/2021 12:13,Pay Bill from 0792933158 - mary wamaitha maina Acc. kdh,Completed,400,,9770,TRUE,Pay Utility,0792933158 - mary wamaitha maina,,kdh
PLE33ZVWCP,14/12/2021 09:32,14/12/2021 09:32,Pay Bill from 254726170938 - ANNE CHEBET TALLAM Acc. hff,Completed,500,,9370,TRUE,Pay Utility,254726170938 - ANNE CHEBET TALLAM,,hff
PLD73PTA8H,13/12/2021 22:46,13/12/2021 22:46,Pay Bill from 254799287000 - Godfrey odhiambo oyugi Acc. kae,Completed,170,,8870,TRUE,Pay Utility with OD via STK,254799287000 - Godfrey odhiambo oyugi,,kae
PLD73OAEPV,13/12/2021 21:57,13/12/2021 21:57,Pay Bill from 254713916352 - WINFRED KATUNGWA NDALA Acc. V30,Completed,200,,8700,TRUE,Pay Utility,254713916352 - WINFRED KATUNGWA NDALA,,V30
PLD324JULH,13/12/2021 02:01,13/12/2021 02:01,Pay Bill Online from 254723370004 - LABAN MAINGI WAMBUA Acc. JEF,Completed,200,,8500,TRUE,Pay Bill Online,254723370004 - LABAN MAINGI WAMBUA,,JEF
PLC519QPUT,12/12/2021 15:19,12/12/2021 15:19,Pay Bill from 254707715639 - Annastacia Kimeu Acc. JFC,Completed,400,,8300,TRUE,Pay Utility,254707715639 - Annastacia Kimeu,,JFC
PLC8ZWUZ4M,12/12/2021 11:28,12/12/2021 11:28,Pay Bill from 254717909848 - MARY MBULA KATHUKU Acc. FGD,Completed,400,,7900,TRUE,Pay Utility,254717909848 - MARY MBULA KATHUKU,,FGD
PLB3Z3STB7,11/12/2021 19:40,11/12/2021 19:40,Pay Bill from 254719779657 - SAMUEL NJOROGE Acc. JGA,Completed,5000,,7500,TRUE,Pay Utility,254719779657 - SAMUEL NJOROGE,,JGA
PLA7X9W1F7,10/12/2021 19:41,10/12/2021 19:41,Pay Bill Online from 254724517378 - LIZZIE KHALAHI MUKASA Acc. HFA,Completed,1000,,2500,TRUE,Pay Bill Online,254724517378 - LIZZIE KHALAHI MUKASA,,HFA
PLA8X16GGG,10/12/2021 18:12,10/12/2021 18:12,Pay Bill from 254716958353 - EVERYNE MURUMWA BUTICHI Acc. JBH,Completed,1000,,1500,TRUE,Pay Utility,254716958353 - EVERYNE MURUMWA BUTICHI,,JBH
PLA4WNT76C,10/12/2021 15:01,10/12/2021 15:01,Pay Bill from 0758591833 - DORCUS MBULA PETER Acc. HDD,Completed,500,,500,TRUE,Pay Utility,0758591833 - DORCUS MBULA PETER,,HDD
PLA9WKBSDP,10/12/2021 14:04,10/12/2021 14:04,Utility Account to Organization Settlement Account,Completed,,-17000,0,TRUE,Utility Account to Organization Settlement Account,846783 - ANCIENT WELLS LTD 4,,
PLA2W1NMOU,10/12/2021 08:44,10/12/2021 08:44,Pay Bill Online from 254705670064 - margaret wahu wachira Acc. v35,Completed,200,,17000,TRUE,Pay Bill Online,254705670064 - margaret wahu wachira,,v35
PL97VMYMG7,09/12/2021 20:45,09/12/2021 20:45,Pay Bill from 254742395038 - PETER MTALAKI CHRISTOPHER Acc. V25,Completed,100,,16800,TRUE,Pay Utility,254742395038 - PETER MTALAKI CHRISTOPHER,,V25
PL94VMUQVE,09/12/2021 20:44,09/12/2021 20:44,Pay Bill from 254742395038 - PETER MTALAKI CHRISTOPHER Acc. V25,Completed,100,,16700,TRUE,Pay Utility,254742395038 - PETER MTALAKI CHRISTOPHER,,V25
PL98VMRS0U,09/12/2021 20:42,09/12/2021 20:42,Pay Bill from 254742395038 - PETER MTALAKI CHRISTOPHER Acc. V25,Completed,100,,16600,TRUE,Pay Utility,254742395038 - PETER MTALAKI CHRISTOPHER,,V25
PL94VBEDR8,09/12/2021 18:43,09/12/2021 18:43,Pay Bill from 254798524621 - MERCY CHESANG Acc. jcj,Completed,800,,16500,TRUE,Pay Utility,254798524621 - MERCY CHESANG,,jcj
PL91UW7QP1,09/12/2021 15:13,09/12/2021 15:13,Pay Bill Online from 254718359438 - AHMAD TAHIR MACHENGO Acc. V11,Completed,200,,15700,TRUE,Pay Bill Online,254718359438 - AHMAD TAHIR MACHENGO,,V11
PL90UVC5TS,09/12/2021 14:58,09/12/2021 14:58,Pay Bill Online from 0724386624 - FATUMA ISSE YUSSUF Acc. FAB,Completed,1000,,15500,TRUE,Pay Utility with OD Online,0724386624 - FATUMA ISSE YUSSUF,,FAB
PL97U6R23J,09/12/2021 07:45,09/12/2021 07:45,Pay Bill from 254725754547 - MWACHIRO GEORGE DECHE Acc. DFC,Completed,1800,,14500,TRUE,Pay Utility,254725754547 - MWACHIRO GEORGE DECHE,,DFC
PL85TVLOSR,08/12/2021 21:01,08/12/2021 21:01,Pay Bill from 254724655033 - SUSAN CHIMOTO Acc. KGH,Completed,800,,12700,TRUE,Pay Utility,254724655033 - SUSAN CHIMOTO,,KGH
PL84TQR19M,08/12/2021 20:02,08/12/2021 20:02,Pay Bill from 254708499439 - ROSE NDEDE Acc. HGF,Completed,900,,11900,TRUE,Pay Utility,254708499439 - ROSE NDEDE,,HGF
PL87T1SE2X,08/12/2021 14:53,08/12/2021 14:53,Pay Bill from 254729392595 - WINNIE NASICHE KERE Acc. JBF,Completed,700,,11000,TRUE,Pay Utility,254729392595 - WINNIE NASICHE KERE,,JBF
PL89SZRK81,08/12/2021 14:21,08/12/2021 14:21,Pay Bill Online from 254722769473 - SAMSON CHALO Acc. IAB,Completed,1400,,10300,TRUE,Pay Utility with OD Online,254722769473 - SAMSON CHALO,,IAB
PL87SX7L7L,08/12/2021 13:41,08/12/2021 13:41,Pay Bill from 254701196539 - GICHURI KARANJA Acc. Fee,Completed,400,,8900,TRUE,Pay Utility,254701196539 - GICHURI KARANJA,,Fee
PL86SUFFY4,08/12/2021 12:57,08/12/2021 12:57,Pay Bill Online from 254703176849 - ROYAL MUYA Acc. F2,Completed,600,,8500,TRUE,Pay Bill Online,254703176849 - ROYAL MUYA,,F2
PL89SSTH57,08/12/2021 12:31,08/12/2021 12:31,Pay Bill from 254712954563 - JOSEPH MUTISO KILONZO Acc. DAC,Completed,900,,7900,TRUE,Pay Utility,254712954563 - JOSEPH MUTISO KILONZO,,DAC
PL84SNU8HI,08/12/2021 11:10,08/12/2021 11:10,Pay Bill Online from 254714563486 - BRIAN MMATA MUSERA Acc. KBJ,Completed,600,,7000,TRUE,Pay Utility with OD Online,254714563486 - BRIAN MMATA MUSERA,,KBJ
PL89SFCKQX,08/12/2021 08:44,08/12/2021 08:44,Pay Bill from 254719398942 - NORAH WAYUA MUNYAO Acc. KDC,Completed,1600,,6400,TRUE,Pay Utility,254719398942 - NORAH WAYUA MUNYAO,,KDC
PL81SER24V,08/12/2021 08:32,08/12/2021 08:32,Pay Bill Online from 254706549634 - CLINTON OMBASA Acc. FDB,Completed,800,,4800,TRUE,Pay Bill Online,254706549634 - CLINTON OMBASA,,FDB
PL89SCI16J,08/12/2021 07:45,08/12/2021 07:45,Pay Bill Online from 254722258756 - DAVID KEMBOI Acc. HDA,Completed,1000,,4000,TRUE,Pay Bill Online,254722258756 - DAVID KEMBOI,,HDA
PL84SA2XEC,08/12/2021 06:32,08/12/2021 06:32,Pay Bill from 0743248310 - PATRICK STURRIDGE NYONGESA Acc. daa,Completed,800,,3000,TRUE,Pay Utility,0743248310 - PATRICK STURRIDGE NYONGESA,,daa
PL86S9DAPG,08/12/2021 05:45,08/12/2021 05:45,Pay Bill from 254727585857 - PETER MUOKI NGUNDO Acc. Peter mouki e6,Completed,800,,2200,TRUE,Pay Utility with OD via STK,254727585857 - PETER MUOKI NGUNDO,,Peter
PL87S8GPJB,08/12/2021 02:16,08/12/2021 02:16,Pay Bill Online from 254714597495 - WAMBUA KIOKO Acc. C1,Completed,800,,1400,TRUE,Pay Bill Online,254714597495 - WAMBUA KIOKO,,C1
PL76QZYB00,07/12/2021 13:06,07/12/2021 13:06,Pay Bill from 254723954911 - JAMES KILAVI Acc. ICG,Completed,200,,600,TRUE,Pay Utility,254723954911 - JAMES KILAVI,,ICG
PL79QSV545,07/12/2021 11:09,07/12/2021 11:09,Pay Bill from 254703108159 - JOICE OGOLLA Acc. V50,Completed,400,,400,TRUE,Pay Utility,254703108159 - JOICE OGOLLA,,V50
PL76QO56FK,07/12/2021 09:50,07/12/2021 09:50,Utility Account to Organization Settlement Account,Completed,,-27900,0,TRUE,Utility Account to Organization Settlement Account,846783 - ANCIENT WELLS LTD 4,,
PL75QMU8CR,07/12/2021 09:28,07/12/2021 09:28,Pay Bill Online from 254723643548 - KEVIN OUKO Acc. FDD,Completed,1000,,27900,TRUE,Pay Bill Online,254723643548 - KEVIN OUKO,,FDD
PL70QK15CG,07/12/2021 08:36,07/12/2021 08:36,Pay Bill Online from 254720381965 - JAMES NGUGI MWANIKI Acc. JBI,Completed,3000,,26900,TRUE,Pay Bill Online,254720381965 - JAMES NGUGI MWANIKI,,JBI
PL76QH8YDS,07/12/2021 07:35,07/12/2021 07:35,Pay Bill from 254717140158 - Peter Wanjiru Acc. HFB,Completed,400,,23900,TRUE,Pay Utility,254717140158 - Peter Wanjiru,,HFB
PL71QFUYBF,07/12/2021 06:55,07/12/2021 06:55,Pay Bill from 254726465584 - JULIANA MUKELI MUTUNGA Acc. v4,Completed,400,,23500,TRUE,Pay Utility,254726465584 - JULIANA MUKELI MUTUNGA,,v4
PL78QE59TA,07/12/2021 04:11,07/12/2021 04:11,Pay Bill Online from 254715020357 - ELIZABETH NJERI WARARI Acc. C2,Completed,400,,23100,TRUE,Pay Bill Online,254715020357 - ELIZABETH NJERI WARARI,,C2
PL78QDSQXM,07/12/2021 02:16,07/12/2021 02:16,Pay Bill from 254723499628 - CLINTON JOSEPH MUHARI Acc. hfh,Completed,400,,22700,TRUE,Pay Utility,254723499628 - CLINTON JOSEPH MUHARI,,hfh
PL62QCJT2Y,06/12/2021 23:26,06/12/2021 23:26,Pay Bill from 254726687555 - ELIUD MUTHURE MICHENI Acc. KAI,Completed,600,,22300,TRUE,Pay Utility,254726687555 - ELIUD MUTHURE MICHENI,,KAI
PL66QBIGDM,06/12/2021 22:38,06/12/2021 22:38,Pay Bill from 254721539716 - OCTAVIAN MWANYALO Acc. C6,Completed,200,,21700,TRUE,Pay Utility,254721539716 - OCTAVIAN MWANYALO,,C6
PL63QARUM3,06/12/2021 22:15,06/12/2021 22:15,Pay Bill from 254718818610 - HANNAH NALIAKA Acc. V23,Completed,200,,21500,TRUE,Pay Utility,254718818610 - HANNAH NALIAKA,,V23
PL66Q5I4MG,06/12/2021 20:43,06/12/2021 20:43,Pay Bill from 254724466518 - EUNICE NDUTA Acc. kff,Completed,1000,,21300,TRUE,Pay Utility,254724466518 - EUNICE NDUTA,,kff
PL67PUQXA3,06/12/2021 18:50,06/12/2021 18:50,Pay Bill from 254726028330 - JOHN WAMBUA Acc. IFH,Completed,1200,,20300,TRUE,Pay Utility,254726028330 - JOHN WAMBUA,,IFH
PL60PL4352,06/12/2021 16:52,06/12/2021 16:52,Pay Bill from 254791318982 - ADULLAHI HASSAN Acc. JCI,Completed,2400,,19100,TRUE,Pay Utility,254791318982 - ADULLAHI HASSAN,,JCI
PL66PKHRMK,06/12/2021 16:42,06/12/2021 16:42,Pay Bill from 254729355933 - FELISTAH NJERI WAIRIMU Acc. IDI,Completed,2000,,16700,TRUE,Pay Utility,254729355933 - FELISTAH NJERI WAIRIMU,,IDI
PL69PK36LJ,06/12/2021 16:37,06/12/2021 16:37,Pay Bill Online from 254700050190 - ANGELA GATHONI NDEGWA Acc. KCD,Completed,2400,,14700,TRUE,Pay Bill Online,254700050190 - ANGELA GATHONI NDEGWA,,KCD
PL66PIWXKI,06/12/2021 16:19,06/12/2021 16:19,Pay Bill from 254702144275 - CAROLYNE MAKENA KARIA Acc. JFB,Completed,400,,12300,TRUE,Pay Utility,254702144275 - CAROLYNE MAKENA KARIA,,JFB
PL61PGMLH5,06/12/2021 15:43,06/12/2021 15:43,Pay Bill from 254717577871 - KELVIN MUTUMA KINYUA Acc. B1,Completed,600,,11900,TRUE,Pay Utility,254717577871 - KELVIN MUTUMA KINYUA,,B1
PL65PEB7CB,06/12/2021 15:05,06/12/2021 15:05,Pay Bill from 254718233980 - KAREN ASWANI Acc. HEC,Completed,400,,11300,TRUE,Pay Utility,254718233980 - KAREN ASWANI,,HEC
PL64PD89K4,06/12/2021 14:48,06/12/2021 14:48,Pay Bill from 0711769778 - PROTASIA BONIPHACE MANOSA Acc. IBB,Completed,1600,,10900,TRUE,Pay Utility,0711769778 - PROTASIA BONIPHACE MANOSA,,IBB
PL64PB16S8,06/12/2021 14:12,06/12/2021 14:12,Pay Bill from 254703453863 - EMILY MUNANIE MALUKI Acc. KEC,Completed,1200,,9300,TRUE,Pay Utility,254703453863 - EMILY MUNANIE MALUKI,,KEC
PL67P741RD,06/12/2021 13:10,06/12/2021 13:10,Pay Bill Online from 254710382992 - SIMON KAMAU MUIRURI Acc. JCD,Completed,400,,8100,TRUE,Pay Bill Online,254710382992 - SIMON KAMAU MUIRURI,,JCD
PL64P6JRTS,06/12/2021 13:01,06/12/2021 13:01,Pay Bill Online from 254724882554 - ALPHONCE WAMBUA NGELI Acc. JDA,Completed,1600,,7700,TRUE,Pay Bill Online,254724882554 - ALPHONCE WAMBUA NGELI,,JDA
PL67OYU3Y7,06/12/2021 10:53,06/12/2021 10:53,Pay Bill from 0113803309 - DORRIS MUENI MUTIE Acc. House FBC,Completed,600,,6100,TRUE,Pay Utility,0113803309 - DORRIS MUENI MUTIE,,House
PL69OYN51R,06/12/2021 10:49,06/12/2021 10:49,Pay Bill from 254712974871 - PAULA WANJIKU GATUI Acc. HEA,Completed,600,,5500,TRUE,Pay Utility,254712974871 - PAULA WANJIKU GATUI,,HEA
PL67OYM7IH,06/12/2021 10:49,06/12/2021 10:49,Pay Bill from 254716702294 - DANIEL MULATI Acc. KBB,Completed,800,,4900,TRUE,Pay Utility,254716702294 - DANIEL MULATI,,KBB
PL66OKG0Q0,06/12/2021 00:05,06/12/2021 00:05,Pay Bill Online from 0769929240 - Calvince Klein Alal Acc. v02,Completed,1000,,4100,TRUE,Pay Bill Online,0769929240 - Calvince Klein Alal,,v02
PL53OJDTFX,05/12/2021 22:52,05/12/2021 22:52,Pay Bill from 254708915764 - GEORGE WAHOME Acc. V18,Completed,200,,3100,TRUE,Pay Utility,254708915764 - GEORGE WAHOME,,V18
PL53OHWHFX,05/12/2021 22:03,05/12/2021 22:03,Pay Bill from 254717985596 - NICHOLAS KIPKOECH BUTIA Acc. hcf,Completed,1000,,2900,TRUE,Pay Utility,254717985596 - NICHOLAS KIPKOECH BUTIA,,hcf
PL57OEXX1H,05/12/2021 21:04,05/12/2021 21:04,Pay Bill Online from 254718138578 - PAULINE KIOKO Acc. KFD,Completed,400,,1900,TRUE,Pay Bill Online,254718138578 - PAULINE KIOKO,,KFD
PL55OEXJXH,05/12/2021 21:04,05/12/2021 21:04,Pay Bill from 254712091662 - BENARD OMONDI ROBY Acc. V6,Completed,400,,1500,TRUE,Pay Utility,254712091662 - BENARD OMONDI ROBY,,V6
PL59OEE42L,05/12/2021 20:55,05/12/2021 20:55,Pay Bill from 254722578070 - SAMUEL MACHARIA Acc. v42,Completed,400,,1100,TRUE,Pay Utility,254722578070 - SAMUEL MACHARIA,,v42
PL51O8G2B5,05/12/2021 19:39,05/12/2021 19:39,Pay Bill from 254715892656 - DENNIS MUSYOKA MUOKI Acc. Kfa,Completed,200,,700,TRUE,Pay Utility,254715892656 - DENNIS MUSYOKA MUOKI,,Kfa
PL54O2QVLU,05/12/2021 18:36,05/12/2021 18:36,Pay Bill from 254722444622 - CHARITY KAGWAINI Acc. ffd,Completed,500,,500,TRUE,Pay Utility,254722444622 - CHARITY KAGWAINI,,ffd
PL53O0D4AH,05/12/2021 18:04,05/12/2021 18:04,Utility Account to Organization Settlement Account,Completed,,-9050,0,TRUE,Utility Account to Organization Settlement Account,846783 - ANCIENT WELLS LTD 4,,
PL52NRZAN4,05/12/2021 16:02,05/12/2021 16:02,Pay Bill from 254718672924 - LILIAN CHEBET NGENO Acc. KGD,Completed,60,,9050,TRUE,Pay Utility,254718672924 - LILIAN CHEBET NGENO,,KGD
PL55NRXGLZ,05/12/2021 16:01,05/12/2021 16:01,Pay Bill from 254718672924 - LILIAN CHEBET NGENO Acc. KGD,Completed,90,,8990,TRUE,Pay Utility,254718672924 - LILIAN CHEBET NGENO,,KGD
PL54NRVQKW,05/12/2021 16:01,05/12/2021 16:01,Pay Bill from 254718672924 - LILIAN CHEBET NGENO Acc. KGD,Completed,100,,8900,TRUE,Pay Utility,254718672924 - LILIAN CHEBET NGENO,,KGD
PL57NRIPZ9,05/12/2021 15:55,05/12/2021 15:55,Pay Bill from 254720107609 - DENNIS OGENDI BARAKE Acc. JAJ,Completed,1000,,8800,TRUE,Pay Utility,254720107609 - DENNIS OGENDI BARAKE,,JAJ
PL52NM916Q,05/12/2021 14:32,05/12/2021 14:32,Pay Bill from 254708570729 - MARY OGOLLA Acc. KAD,Completed,600,,7800,TRUE,Pay Utility,254708570729 - MARY OGOLLA,,KAD
PL53NFRHJ7,05/12/2021 12:40,05/12/2021 12:40,Pay Bill from 0745378455 - harriet nyanchama nyaberi Acc. FCC,Completed,400,,7200,TRUE,Pay Utility,0745378455 - harriet nyanchama nyaberi,,FCC
PL50NEJ7SO,05/12/2021 12:17,05/12/2021 12:17,Pay Bill from 254723929380 - RHODAH K WAMBUA Acc. HEF,Completed,800,,6800,TRUE,Pay Utility,254723929380 - RHODAH K WAMBUA,,HEF
PL59NC0045,05/12/2021 11:29,05/12/2021 11:29,Pay Bill from 254720623535 - JOSEPH MUTURI KAMAU Acc. V32,Completed,200,,6000,TRUE,Pay Utility,254720623535 - JOSEPH MUTURI KAMAU,,V32
PL59N79LZT,05/12/2021 09:57,05/12/2021 09:57,Pay Bill from 254723815832 - SEMEKIA ONDIALA Acc. V38,Completed,400,,5800,TRUE,Pay Utility,254723815832 - SEMEKIA ONDIALA,,V38
PL52N77MK8,05/12/2021 09:56,05/12/2021 09:56,Pay Bill Online from 254721465713 - RHODA WAMBUI MWANGI Acc. jfh,Completed,800,,5400,TRUE,Pay Bill Online,254721465713 - RHODA WAMBUI MWANGI,,jfh
PL46MVM5FG,04/12/2021 22:47,04/12/2021 22:47,Pay Bill Online from 254725218904 - SALOME MUTHONI MWANGI Acc. KFJ,Completed,1000,,4600,TRUE,Pay Bill Online,254725218904 - SALOME MUTHONI MWANGI,,KFJ
PL45MT2FWZ,04/12/2021 21:42,04/12/2021 21:42,Pay Bill from 254799946039 - LUIS OTIENO Acc. IAE,Completed,800,,3600,TRUE,Pay Utility,254799946039 - LUIS OTIENO,,IAE
PL49MOLHQ9,04/12/2021 20:33,04/12/2021 20:33,Pay Bill from 254724953672 - MERCY MBETI Acc. JCA,Completed,2800,,2800,TRUE,Pay Utility,254724953672 - MERCY MBETI,,JCA
PL48MMH5DE,04/12/2021 20:08,04/12/2021 20:08,Utility Account to Organization Settlement Account,Completed,,-34597,0,TRUE,Utility Account to Organization Settlement Account,846783 - ANCIENT WELLS LTD 4,,
PL48MFJCFA,04/12/2021 18:55,04/12/2021 18:55,Pay Bill from 0799912339 - PETER KAMAU MURIU Acc. C5,Completed,1500,,34597,TRUE,Pay Utility,0799912339 - PETER KAMAU MURIU,,C5
PL46MECXRI,04/12/2021 18:44,04/12/2021 18:44,Pay Bill from 254721302658 - JACOB BIRUNDU Acc. DDB,Completed,400,,33097,TRUE,Pay Utility,254721302658 - JACOB BIRUNDU,,DDB
PL48ME7W3A,04/12/2021 18:42,04/12/2021 18:42,Pay Bill Online from 254705951407 - CAROLINE WAITHIRA KAMAU Acc. IDH,Completed,500,,32697,TRUE,Pay Bill Online,254705951407 - CAROLINE WAITHIRA KAMAU,,IDH
PL46MDYG56,04/12/2021 18:39,04/12/2021 18:39,Pay Bill from 0715030019 - Omwenga Ong'era Stephen Acc. E1,Completed,600,,32197,TRUE,Pay Utility,0715030019 - Omwenga Ong'era Stephen,,E1
PL43LQBV8V,04/12/2021 13:16,04/12/2021 13:16,Pay Bill from 254717465142 - EPHANTUS IRURA Acc. c4 muriithi,Completed,600,,31597,TRUE,Pay Utility,254717465142 - EPHANTUS IRURA,,c4
PL46LPV0L8,04/12/2021 13:08,04/12/2021 13:08,Pay Bill Online from 254710814215 - JOAN NYAMBURA KAMAU Acc. ifb,Completed,800,,30997,TRUE,Pay Bill Online,254710814215 - JOAN NYAMBURA KAMAU,,ifb
PL43LP4VGB,04/12/2021 12:57,04/12/2021 12:57,Pay Bill Online from 254711562428 - Lionel Mutune Muoka Acc. KDI,Completed,400,,30197,TRUE,Pay Bill Online,254711562428 - Lionel Mutune Muoka,,KDI
PL40LM1V5U,04/12/2021 12:08,04/12/2021 12:08,Pay Bill from 254710239100 - PHILOMENA WOKI MUTHAMA Acc. KDK,Completed,1000,,29797,TRUE,Pay Utility,254710239100 - PHILOMENA WOKI MUTHAMA,,KDK
PL44LILN2O,04/12/2021 11:13,04/12/2021 11:13,Pay Bill from 254719134037 - KELVIN KITOO Acc. FAA,Completed,500,,28797,TRUE,Pay Utility,254719134037 - KELVIN KITOO,,FAA
PL47LC324P,04/12/2021 09:24,04/12/2021 09:24,Pay Bill from 254707244987 - CALVINCE OCHIENG ODHIAMBO Acc. JEE,Completed,400,,28297,TRUE,Pay Utility,254707244987 - CALVINCE OCHIENG ODHIAMBO,,JEE
PL41L6WA3J,04/12/2021 07:38,04/12/2021 07:38,Pay Bill from 254701006375 - EZRA MAKORI SERETI Acc. HTE,Completed,10000,,27897,TRUE,Pay Utility,254701006375 - EZRA MAKORI SERETI,,HTE
PL47L3FBSJ,04/12/2021 01:21,04/12/2021 01:21,Pay Bill Online from 254728670882 - SHARAD EDWARD ADALA OLUM Acc. KCK,Completed,400,,17897,TRUE,Pay Bill Online,254728670882 - SHARAD EDWARD ADALA OLUM,,KCK
PL36L1DPQU,03/12/2021 22:47,03/12/2021 22:47,Pay Bill from 254741791919 - Linet Mongina Maraga Acc. u3,Completed,900,,17497,TRUE,Pay Utility,254741791919 - Linet Mongina Maraga,,u3
PL38L0SRF2,03/12/2021 22:28,03/12/2021 22:28,Pay Bill Online from 254720062144 - CAROLINE AMONDI OKELO Acc. f4,Completed,400,,16597,TRUE,Pay Utility with OD Online,254720062144 - CAROLINE AMONDI OKELO,,f4
PL34KVT950,03/12/2021 20:53,03/12/2021 20:53,Pay Bill from 254702152790 - Michelle Ndunge Kyalo Acc. IDE,Completed,400,,16197,TRUE,Pay Utility,254702152790 - Michelle Ndunge Kyalo,,IDE
PL33KOCHEB,03/12/2021 19:26,03/12/2021 19:26,Pay Bill Online from 254715144865 - CAROL JULIET MUGOYA Acc. E2,Completed,600,,15797,TRUE,Pay Bill Online,254715144865 - CAROL JULIET MUGOYA,,E2
PL33KL0HB9,03/12/2021 18:54,03/12/2021 18:54,Pay Bill Online from 254707726441 - JOHN OLOO NYAULA Acc. IEH,Completed,97,,15197,TRUE,Pay Bill Online,254707726441 - JOHN OLOO NYAULA,,IEH
PL36KENTHS,03/12/2021 17:43,03/12/2021 17:43,Pay Bill from 254719779657 - SAMUEL NJOROGE Acc. JGA,Completed,4000,,15100,TRUE,Pay Utility with OD via STK,254719779657 - SAMUEL NJOROGE,,JGA
PL32KBC5MM,03/12/2021 17:00,03/12/2021 17:00,Pay Bill Online from 254722728975 - CURTIS MRIGA OMIDO Acc. IAH,Completed,600,,11100,TRUE,Pay Bill Online,254722728975 - CURTIS MRIGA OMIDO,,IAH
PL39K5Q3HX,03/12/2021 15:38,03/12/2021 15:38,Pay Bill from 254729371750 - DERRICK OTANGA Acc. FEF,Completed,800,,10500,TRUE,Pay Utility,254729371750 - DERRICK OTANGA,,FEF
PL35K4OL5B,03/12/2021 15:22,03/12/2021 15:22,Pay Bill Online from 254799863492 - HIRANI MULJI Acc. JDB,Completed,1000,,9700,TRUE,Pay Bill Online,254799863492 - HIRANI MULJI,,JDB
PL33K2B55F,03/12/2021 14:44,03/12/2021 14:44,Pay Bill from 254790837715 - JULIUS MWASHUMBE MAGHANGA Acc. F5,Completed,200,,8700,TRUE,Pay Utility,254790837715 - JULIUS MWASHUMBE MAGHANGA,,F5
PL31K0L3W5,03/12/2021 14:17,03/12/2021 14:17,Pay Bill from 254714419834 - FAITH MWIKALI MUTHAMA Acc. D4,Completed,800,,8500,TRUE,Pay Utility,254714419834 - FAITH MWIKALI MUTHAMA,,D4
PL38K03JMY,03/12/2021 14:09,03/12/2021 14:09,Pay Bill Online from 254713966424 - NDUTI MUTHUI Acc. Jed,Completed,1000,,7700,TRUE,Pay Bill Online,254713966424 - NDUTI MUTHUI,,Jed
PL30JY1W7C,03/12/2021 13:37,03/12/2021 13:37,Pay Bill from 254714710840 - RACHAEL WANJIRU NJOROGE Acc. ITE,Completed,600,,6700,TRUE,Pay Utility,254714710840 - RACHAEL WANJIRU NJOROGE,,ITE
PL38JO8EIA,03/12/2021 10:54,03/12/2021 10:54,Pay Bill from 254742395038 - PETER MTALAKI CHRISTOPHER Acc. V25,Completed,100,,6100,TRUE,Pay Utility,254742395038 - PETER MTALAKI CHRISTOPHER,,V25
PL31JO0D37,03/12/2021 10:50,03/12/2021 10:50,Pay Bill from 254742395038 - PETER MTALAKI CHRISTOPHER Acc. V25,Completed,100,,6000,TRUE,Pay Utility,254742395038 - PETER MTALAKI CHRISTOPHER,,V25
PL35JNXF55,03/12/2021 10:49,03/12/2021 10:49,Pay Bill from 254742395038 - PETER MTALAKI CHRISTOPHER Acc. V25,Completed,100,,5900,TRUE,Pay Utility,254742395038 - PETER MTALAKI CHRISTOPHER,,V25
PL32JHQVN6,03/12/2021 09:00,03/12/2021 09:00,Pay Bill Online from 254706354035 - MOSES MUOKA Acc. V03,Completed,400,,5800,TRUE,Pay Utility with OD Online,254706354035 - MOSES MUOKA,,V03
PL38JCRR4E,03/12/2021 07:04,03/12/2021 07:04,Pay Bill Online from 0796121714 - janet   mwikali Acc. KBC,Completed,400,,5400,TRUE,Pay Bill Online,0796121714 - janet   mwikali,,KBC
PL23J7VY0H,02/12/2021 22:25,02/12/2021 22:25,Pay Bill from 254716315144 - PETER MUNYIRI WAROTERE Acc. FBB,Completed,600,,5000,TRUE,Pay Utility,254716315144 - PETER MUNYIRI WAROTERE,,FBB
PL27IXUT11,02/12/2021 19:46,02/12/2021 19:46,Pay Bill from 254799287000 - Godfrey odhiambo oyugi Acc. kae,Completed,100,,4400,TRUE,Pay Utility with OD via STK,254799287000 - Godfrey odhiambo oyugi,,kae
PL22ISOD7M,02/12/2021 18:55,02/12/2021 18:55,Pay Bill from 254704934557 - BAKARI KITSAKA Acc. JAD,Completed,1200,,4300,TRUE,Pay Utility,254704934557 - BAKARI KITSAKA,,JAD
PL23IMVCL9,02/12/2021 17:52,02/12/2021 17:52,Pay Bill from 254798146452 - VALARY ODHIAMBO Acc. JEE,Completed,2500,,3100,TRUE,Pay Utility,254798146452 - VALARY ODHIAMBO,,JEE
PL26IH5C1I,02/12/2021 16:35,02/12/2021 16:35,Pay Bill from 0797758628 - jackline nyamari onyango Acc. ICF,Completed,600,,600,TRUE,Pay Utility,0797758628 - jackline nyamari onyango,,ICF
PL20IG4OQ2,02/12/2021 16:20,02/12/2021 16:20,Utility Account to Organization Settlement Account,Completed,,-9800,0,TRUE,Utility Account to Organization Settlement Account,846783 - ANCIENT WELLS LTD 4,,
PL28I6KIO2,02/12/2021 13:44,02/12/2021 13:44,Pay Bill Online from 254720787158 - AMOS CHELANG'A Acc. KFK,Completed,200,,9800,TRUE,Pay Bill Online,254720787158 - AMOS CHELANG'A,,KFK
PL24I659H4,02/12/2021 13:37,02/12/2021 13:37,Pay Bill Online from 254797601911 - JORAM MASAI KILONZO Acc. KTE,Completed,600,,9600,TRUE,Pay Bill Online,254797601911 - JORAM MASAI KILONZO,,KTE
PL24I4NQEY,02/12/2021 13:12,02/12/2021 13:12,Pay Bill Online from 254790627132 - Everline Mutave Kiio Acc. IGG,Completed,400,,9000,TRUE,Pay Bill Online,254790627132 - Everline Mutave Kiio,,IGG
PL25I2RW5B,02/12/2021 12:40,02/12/2021 12:40,Pay Bill Online from 254708225541 - JUDITH NKATHA SIMBA Acc. HDH,Completed,800,,8600,TRUE,Pay Bill Online,254708225541 - JUDITH NKATHA SIMBA,,HDH
PL20HWB4ZQ,02/12/2021 10:47,02/12/2021 10:47,Pay Bill from 254798844460 - WYCLIFFE ODHIAMBO NYAGOA Acc. KAC,Completed,600,,7800,TRUE,Pay Utility,254798844460 - WYCLIFFE ODHIAMBO NYAGOA,,KAC
PL26HVXKP0,02/12/2021 10:40,02/12/2021 10:40,Pay Bill from 0715273095 - Stacy Aketch Ochuka Acc. KGK,Completed,800,,7200,TRUE,Pay Utility,0715273095 - Stacy Aketch Ochuka,,KGK
PL28HUWDJW,02/12/2021 10:22,02/12/2021 10:22,Pay Bill from 254715939283 - alex nyamai Acc. v07,Completed,600,,6400,TRUE,Pay Utility,254715939283 - alex nyamai,,v07
PL22HUHOC2,02/12/2021 10:15,02/12/2021 10:15,Pay Bill from 254718284151 - EVERLINE MATHEKA Acc. JAG,Completed,400,,5800,TRUE,Pay Utility,254718284151 - EVERLINE MATHEKA,,JAG
PL24HRI0EI,02/12/2021 09:20,02/12/2021 09:20,Pay Bill from 254742395038 - PETER MTALAKI CHRISTOPHER Acc. V25,Completed,100,,5400,TRUE,Pay Utility,254742395038 - PETER MTALAKI CHRISTOPHER,,V25
PL25HRF5YH,02/12/2021 09:19,02/12/2021 09:19,Pay Bill from 254742395038 - PETER MTALAKI CHRISTOPHER Acc. V25,Completed,100,,5300,TRUE,Pay Utility,254742395038 - PETER MTALAKI CHRISTOPHER,,V25
PL25HR560F,02/12/2021 09:14,02/12/2021 09:14,Pay Bill from 254724952183 - MICHAEL WAMBUA MWOVE Acc. Fea,Completed,2000,,5200,TRUE,Pay Utility,254724952183 - MICHAEL WAMBUA MWOVE,,Fea
PL24HQA0I8,02/12/2021 08:57,02/12/2021 08:57,Pay Bill from 0717042461 - Sharon Nyangasi Shivachi Acc. V55,Completed,200,,3200,TRUE,Pay Utility,0717042461 - Sharon Nyangasi Shivachi,,V55
PL20HPCCTA,02/12/2021 08:39,02/12/2021 08:39,Pay Bill Online from 254716784364 - Wendy Kemunto Nyandiko Acc. FFC,Completed,800,,3000,TRUE,Pay Bill Online,254716784364 - Wendy Kemunto Nyandiko,,FFC
PL20HOZVY4,02/12/2021 08:32,02/12/2021 08:32,Pay Bill Online from 254742911013 - HANEST AMIMO Acc. IEG,Completed,600,,2200,TRUE,Pay Bill Online,254742911013 - HANEST AMIMO,,IEG
PL26HLH3NU,02/12/2021 07:07,02/12/2021 07:07,Pay Bill Online from 254714855708 - KIPLANGAT SITIENEI Acc. FAE,Completed,1000,,1600,TRUE,Pay Bill Online,254714855708 - KIPLANGAT SITIENEI,,FAE
PL17H7L50H,01/12/2021 20:06,01/12/2021 20:06,Pay Bill from 0715688238 - JOANNAH ATUHAIRE BANTU Acc. jae,Completed,600,,600,TRUE,Pay Utility,0715688238 - JOANNAH ATUHAIRE BANTU,,jae
PL14H603TE,01/12/2021 19:50,01/12/2021 19:50,Utility Account to Organization Settlement Account,Completed,,-10700,0,TRUE,Utility Account to Organization Settlement Account,846783 - ANCIENT WELLS LTD 4,,
PL10H5WQ6E,01/12/2021 19:49,01/12/2021 19:49,Pay Bill from 0727542914 - Pascal Ouma Opar Acc. pascalv45,Completed,400,,10700,TRUE,Pay Utility,0727542914 - Pascal Ouma Opar,,pascalv45
PL12H5PWI0,01/12/2021 19:47,01/12/2021 19:47,Pay Bill from 254720802644 - MESHACK MAXWELL GANDA Acc. HAB,Completed,400,,10300,TRUE,Pay Utility,254720802644 - MESHACK MAXWELL GANDA,,HAB
PL15H4JJ6F,01/12/2021 19:35,01/12/2021 19:35,Pay Bill from 254726977770 - STEPHEN MUIRURI MATHENGE Acc. KAF,Completed,800,,9900,TRUE,Pay Utility,254726977770 - STEPHEN MUIRURI MATHENGE,,KAF
PL16GZQ6FS,01/12/2021 18:50,01/12/2021 18:50,Pay Bill from 0717216114 - Felix Njeru Mugambi Acc. Kdf,Completed,1000,,9100,TRUE,Pay Utility,0717216114 - Felix Njeru Mugambi,,Kdf
PL12GYXSQ0,01/12/2021 18:43,01/12/2021 18:43,Pay Bill Online from 254714536026 - LILIAN AWUOR ONYANGO Acc. HDC,Completed,200,,8100,TRUE,Pay Bill Online,254714536026 - LILIAN AWUOR ONYANGO,,HDC
PL19GX3IYP,01/12/2021 18:23,01/12/2021 18:23,Pay Bill from 254707370896 - OKECH BRIAN BRIAN Acc. FFA,Completed,1000,,7900,TRUE,Pay Utility,254707370896 - OKECH BRIAN BRIAN,,FFA
PL13GU9FRV,01/12/2021 17:50,01/12/2021 17:50,Pay Bill from 254725771056 - CHARLES MURAGURI Acc. FCE,Completed,800,,6900,TRUE,Pay Utility,254725771056 - CHARLES MURAGURI,,FCE
PL10GRFBI8,01/12/2021 17:14,01/12/2021 17:14,Pay Bill from 254712614146 - SOPHIE MUENI MUVITHU Acc. Sophie Mueni-Hse No6,Completed,300,,6100,TRUE,Pay Utility,254712614146 - SOPHIE MUENI MUVITHU,,Sophie
PL16GOWTD2,01/12/2021 16:39,01/12/2021 16:39,Pay Bill from 254729541871 - ROBERT KULEI Acc. JAB,Completed,600,,5800,TRUE,Pay Utility,254729541871 - ROBERT KULEI,,JAB
PL10GOUG6S,01/12/2021 16:38,01/12/2021 16:38,Pay Bill from 254703690697 - CATHERINE MURAGE Acc. V21,Completed,200,,5200,TRUE,Pay Utility,254703690697 - CATHERINE MURAGE,,V21
PL12GNKUTE,01/12/2021 16:19,01/12/2021 16:19,Pay Bill Online from 254707226192 - NICHOLUS MAINGI MWANTHI Acc. HBF,Completed,600,,5000,TRUE,Pay Bill Online,254707226192 - NICHOLUS MAINGI MWANTHI,,HBF
PL14GMM8LU,01/12/2021 16:04,01/12/2021 16:04,Pay Bill Online from 254722604851 - WILFRED SAKWA Acc. IDG,Completed,800,,4400,TRUE,Pay Bill Online,254722604851 - WILFRED SAKWA,,IDG
PL11GKF9Q5,01/12/2021 15:29,01/12/2021 15:29,Pay Bill from 254115949784 - JOHN MAITHA MULWA Acc. ibh,Completed,3600,,3600,TRUE,Pay Utility,254115949784 - JOHN MAITHA MULWA,,ibh
PL15GIM8I3,01/12/2021 14:59,01/12/2021 14:59,Utility Account to Organization Settlement Account,Completed,,-2000,0,TRUE,Utility Account to Organization Settlement Account,846783 - ANCIENT WELLS LTD 4,,
PL14GFKXKK,01/12/2021 14:09,01/12/2021 14:09,Pay Bill from 254740579741 - MUHINDI MULINYA Acc. HGG,Completed,2000,,2000,TRUE,Pay Utility,254740579741 - MUHINDI MULINYA,,HGG
PL10G9IVME,01/12/2021 12:30,01/12/2021 12:30,Utility Account to Organization Settlement Account,Completed,,-23000,0,TRUE,Utility Account to Organization Settlement Account,846783 - ANCIENT WELLS LTD 4,,
PL12G2UZM2,01/12/2021 10:36,01/12/2021 10:36,Pay Bill from 254729796719 - JACINTA WANJIKU NJERI Acc. FFF,Completed,600,,23000,TRUE,Pay Utility,254729796719 - JACINTA WANJIKU NJERI,,FFF
PL14G16EWU,01/12/2021 10:07,01/12/2021 10:07,Pay Bill from 254726337163 - HALIMA ALI HASSAN Acc. DDA,Completed,500,,22400,TRUE,Pay Utility,254726337163 - HALIMA ALI HASSAN,,DDA
PL16FWXQ9Q,01/12/2021 08:53,01/12/2021 08:53,Pay Bill Online from 254700187806 - WINNIE OLIVIA AKOTH Acc. jec,Completed,800,,21900,TRUE,Pay Bill Online,254700187806 - WINNIE OLIVIA AKOTH,,jec
PL18FV4AI0,01/12/2021 08:17,01/12/2021 08:17,Pay Bill Online from 254795510441 - LEWIS MUEMA Acc. KEB,Completed,400,,21100,TRUE,Pay Bill Online,254795510441 - LEWIS MUEMA,,KEB
PL12FU2RSK,01/12/2021 07:55,01/12/2021 07:54,Pay Bill from 254742395038 - PETER MTALAKI CHRISTOPHER Acc. V25,Completed,100,,20700,TRUE,Pay Utility,254742395038 - PETER MTALAKI CHRISTOPHER,,V25
PL19FU0O7D,01/12/2021 07:53,01/12/2021 07:53,Pay Bill from 254742395038 - PETER MTALAKI CHRISTOPHER Acc. V25,Completed,100,,20600,TRUE,Pay Utility,254742395038 - PETER MTALAKI CHRISTOPHER,,V25
PL11FRX5A1,01/12/2021 06:55,01/12/2021 06:55,Pay Bill Online from 254717809935 - LYDIAH WERU Acc. idc,Completed,600,,20500,TRUE,Pay Bill Online,254717809935 - LYDIAH WERU,,idc
PL15FORLUN,01/12/2021 00:17,01/12/2021 00:17,Pay Bill from 254703180395 - JANE NYAGUTHII MWAGO Acc. IBE,Completed,200,,19900,TRUE,Pay Utility,254703180395 - JANE NYAGUTHII MWAGO,,IBE
