Receipt No.,Completion Time,Initiation Time,Details,Transaction Status,Paid In,Withdrawn,Balance,Balance Confirmed,Reason Type,Other Party Info,Linked Transaction ID,A/C No.
SCF82W63F0,15/03/2024 06:50,15/03/2024 06:50,Pay Bill from 074552***615 - COLLINS *** Acc. U6,Completed,6000,,109500,TRUE,Pay Utility,074552***615 - COLLINS ***,,U6
SCE42J8AQ4,14/03/2024 22:00,14/03/2024 22:00,Pay Bill from 079896***287 - Mary *** Acc. Z14,Completed,10000,,103500,TRUE,Pay Utility,079896***287 - Mary ***,,Z14
SCE22J6NOS,14/03/2024 21:59,14/03/2024 21:59,Pay Bill from 254726***866 - JOSEPH *** Acc. SHOP 1 SAIKA,Completed,7500,,93500,TRUE,Pay Utility,254726***866 - JOSEPH ***,,SHOP 1 SAIKA
SCE0ZXOM7E,14/03/2024 15:41,14/03/2024 15:41,Pay Bill Online from 254722***369 - FAIZ *** Acc. NAIROBI WEST 12,Completed,70000,,86000,TRUE,Pay Bill Online,254722***369 - FAIZ ***,,NAIROBI WEST 12
SCD9UZZMB1,13/03/2024 08:31,13/03/2024 08:31,Pay Bill from 254720***522 - DANIEL *** Acc. Z15 ,Completed,16000,,16000,TRUE,Pay Utility,254720***522 - DANIEL ***,,Z15 
SCC8SYPV5U,12/03/2024 16:33,12/03/2024 16:33,Utility Account to Organization Settlement Account,Completed,,-70000,0,TRUE,Utility Account to Organization Settlement Account,887264 - ANCIENT WELLS LTD 2,,
SCC6SMK312,12/03/2024 14:48,12/03/2024 14:48,Pay Bill from 254728***446 - GRACE *** Acc. ancient well ,Completed,40000,,70000,TRUE,Pay Utility with OD via STK,254728***446 - GRACE ***,,ancient well 
SCC6RX6U64,12/03/2024 11:15,12/03/2024 11:15,Pay Bill Online from 254715***633 - FIONA *** Acc. Z16,Completed,4000,,30000,TRUE,Pay Bill Online,254715***633 - FIONA ***,,Z16
SCC3R131TH,12/03/2024 00:19,12/03/2024 00:19,Pay Bill from 254728***930 - DOREEN *** Acc. Z10,Completed,10000,,26000,TRUE,Pay Utility,254728***930 - DOREEN ***,,Z10
SCB6O0EX3C,11/03/2024 09:41,11/03/2024 09:41,Pay Bill from 254729***163 - BEATRICE *** Acc. z13,Completed,4000,,16000,TRUE,Pay Utility,254729***163 - BEATRICE ***,,z13
SCA7MTXEWH,10/03/2024 20:18,10/03/2024 20:18,Pay Bill from 254722***500 - SHARON *** Acc. hse 1 Zimma,Completed,12000,,12000,TRUE,Pay Utility,254722***500 - SHARON ***,,hse 1 Zimma
SC93J9G4T1,09/03/2024 20:00,09/03/2024 20:00,Utility Account to Organization Settlement Account,Completed,,-33000,0,TRUE,Utility Account to Organization Settlement Account,887264 - ANCIENT WELLS LTD 2,,
SC91HKWU4X,09/03/2024 13:22,09/03/2024 13:22,Business Pay Bill by 998094 - COOP TO PAYBILL Acc. hse no.3 via API,Completed,12000,,33000,TRUE,Business Pay Bill via API,998094 - COOP TO PAYBILL,,hse no.3 via API
SC99HDUZEF,09/03/2024 12:27,09/03/2024 12:27,Pay Bill from 074326***203 - Patrick *** Acc. U1,Completed,5000,,21000,TRUE,Pay Utility,074326***203 - Patrick ***,,U1
SC91HAA7BB,09/03/2024 11:59,09/03/2024 11:59,Pay Bill Online from 254723***941 - ELIZABETH *** Acc. house z12,Completed,16000,,16000,TRUE,Pay Bill Online,254723***941 - ELIZABETH ***,,house z12
SC82EXD5OS,08/03/2024 18:15,08/03/2024 18:15,Utility Account to Organization Settlement Account,Completed,,-340650,0,TRUE,Utility Account to Organization Settlement Account,887264 - ANCIENT WELLS LTD 2,,
SC87ESN6JH,08/03/2024 17:46,08/03/2024 17:46,Pay Bill from 254705***845 - DENNIS *** Acc. n2,Completed,5650,,340650,TRUE,Pay Utility,254705***845 - DENNIS ***,,n2
SC74CDKQGC,07/03/2024 22:57,07/03/2024 22:57,Pay Bill Online from 254718***869 - MARK *** Acc. A3,Completed,7000,,335000,TRUE,Pay Bill Online,254718***869 - MARK ***,,A3
SC79CBFJVB,07/03/2024 22:25,07/03/2024 22:25,Pay Bill Online from 254706***442 - REUBEN *** Acc. B5,Completed,6000,,328000,TRUE,Pay Utility with OD Online,254706***442 - REUBEN ***,,B5
SC70ACGT5S,07/03/2024 14:27,07/03/2024 14:27,Pay Bill Online from 254723***653 - CHARD *** Acc. House No 7,Completed,16000,,322000,TRUE,Pay Bill Online,254723***653 - CHARD ***,,House No 7
SC789CE37S,07/03/2024 09:29,07/03/2024 09:29,Pay Bill from 254725***210 - FREDRICK *** Acc. EPZ MH ,Completed,35000,,306000,TRUE,Pay Utility,254725***210 - FREDRICK ***,,EPZ MH 
SC607BHLYU,06/03/2024 17:47,06/03/2024 17:47,Pay Bill from 254729***163 - BEATRICE *** Acc. z13,Completed,5000,,271000,TRUE,Pay Utility with OD via STK,254729***163 - BEATRICE ***,,z13
SC696ZR99X,06/03/2024 16:23,06/03/2024 16:23,Pay Bill Online from 254712***161 - ANGELA *** Acc. A202,Completed,90000,,266000,TRUE,Pay Bill Online,254712***161 - ANGELA ***,,A202
SC616UN5RF,06/03/2024 15:42,06/03/2024 15:42,Pay Bill from 254726***831 - ANDREW *** Acc. Andrew odhiambo ,Completed,12000,,176000,TRUE,Pay Utility,254726***831 - ANDREW ***,,Andrew odhiambo 
SC4315EDUZ,04/03/2024 23:14,04/03/2024 23:14,Pay Bill from 254720***537 - MARY *** Acc. 6,Completed,16000,,164000,TRUE,Pay Utility,254720***537 - MARY ***,,6
SC41XZQIWR,04/03/2024 14:04,04/03/2024 14:04,Pay Bill from 254728***930 - DOREEN *** Acc. Z10,Completed,2000,,148000,TRUE,Pay Utility,254728***930 - DOREEN ***,,Z10
SC34TE09XE,03/03/2024 09:01,03/03/2024 09:01,Pay Bill Online from 254720***854 - KAMILA *** Acc. 102,Completed,49000,,146000,TRUE,Pay Bill Online,254720***854 - KAMILA ***,,102
SC27PMFPVT,02/03/2024 09:16,02/03/2024 09:16,Pay Bill Online from 254723***186 - BRIAN *** Acc. 18,Completed,16000,,97000,TRUE,Pay Bill Online,254723***186 - BRIAN ***,,18
SC14OJ4DE0,01/03/2024 20:33,01/03/2024 20:33,Pay Bill Online from 254715***633 - FIONA *** Acc. Z16,Completed,12000,,81000,TRUE,Pay Bill Online,254715***633 - FIONA ***,,Z16
