Receipt No.,Completion Time,Initiation Time,Details,Transaction Status,Paid In,Withdrawn,Balance,Balance Confirmed,Reason Type,Other Party Info,Linked Transaction ID,A/C No.
RIA5DZ883N,10/09/2023 10:18,10/09/2023 10:18,Pay Bill Online from 254724312731 - Judith Omadi Acc. hse no.3,Completed,12000,,309000,TRUE,Pay Bill Online,254724312731 - Judith Omadi,,hse
RIA8DQRPNO,10/09/2023 08:35,10/09/2023 08:35,Pay Bill from 0798966287 - Mary Njeri Wangari Acc. Z14,Completed,16000,,297000,TRUE,Pay Utility,0798966287 - Mary Njeri Wangari,,Z14
RI97BSLNLD,09/09/2023 15:19,09/09/2023 15:19,Pay Bill from 254710966654 - MILLICENT ACHIENG ODHONE Acc. Andrew Odhiambo,Completed,12000,,281000,TRUE,Pay Utility,254710966654 - MILLICENT ACHIENG ODHONE,,Andrew
RI92BHZVY4,09/09/2023 13:43,09/09/2023 13:43,Pay Bill from 254728208930 - DOREEN MAKENA Acc. Z10,Completed,3000,,269000,TRUE,Pay Utility,254728208930 - DOREEN MAKENA,,Z10
RI8295NFP0,08/09/2023 17:44,08/09/2023 17:44,Pay Bill from 254722566566 - DANIEL KIMANTHI KAMANDI Acc. UMOJA H101,Completed,10000,,266000,TRUE,Pay Utility,254722566566 - DANIEL KIMANTHI KAMANDI,,UMOJA
RI887QN3FE,08/09/2023 10:02,08/09/2023 10:02,Pay Bill from 0748071102 - Rose  Kendi  Mutegi Acc. A202 ,Completed,90000,,256000,TRUE,Pay Utility,0748071102 - Rose  Kendi  Mutegi,,A202
RI857JHRS7,08/09/2023 08:45,08/09/2023 08:45,Pay Bill from 254712751975 - HAPPINESS SIMAMOI JOSEPH Acc. B3,Completed,6000,,166000,TRUE,Pay Utility,254712751975 - HAPPINESS SIMAMOI JOSEPH,,B3
RI756HH375,07/09/2023 19:17,07/09/2023 19:17,Pay Bill from 254725014210 - FREDRICK MOUNDE Acc. EPZ MH ,Completed,30000,,160000,TRUE,Pay Utility,254725014210 - FREDRICK MOUNDE,,EPZ
RI755TKDDP,07/09/2023 16:24,07/09/2023 16:24,Pay Bill from 254722314500 - SHARON AKINYI OBIERO Acc. hse 1 zimma,Completed,12000,,130000,TRUE,Pay Utility,254722314500 - SHARON AKINYI OBIERO,,hse
RI7545HJ8H,07/09/2023 00:06,07/09/2023 00:06,Pay Bill Online from 254718167869 - MARK OTIENO Acc. A3,Completed,7000,,118000,TRUE,Pay Bill Online,254718167869 - MARK OTIENO,,A3
RI6844DSFO,06/09/2023 23:19,06/09/2023 23:19,Pay Bill from 254728208930 - DOREEN MAKENA Acc. Z10,Completed,2000,,111000,TRUE,Pay Utility,254728208930 - DOREEN MAKENA,,Z10
RI622V5KG8,06/09/2023 17:02,06/09/2023 17:02,Pay Bill from 254726928715 - ELIZAPHAN KAMAU NDUTA Acc. z2,Completed,16000,,109000,TRUE,Pay Utility,254726928715 - ELIZAPHAN KAMAU NDUTA,,z2
RI652JWFFR,06/09/2023 15:19,06/09/2023 15:19,Pay Bill from 254722627652 - BONIFACE MWAMUTSI CHENGO Acc. D9/D10,Completed,11000,,93000,TRUE,Pay Utility with OD via STK,254722627652 - BONIFACE MWAMUTSI CHENGO,,D9/D10
RI631PVHLX,06/09/2023 10:31,06/09/2023 10:31,Pay Bill Online from 0758440469 - Tecla Emma Anyango Odongo Acc. Z4,Completed,15000,,82000,TRUE,Pay Bill Online,0758440469 - Tecla Emma Anyango Odongo,,Z4
RI52XLB09S,05/09/2023 10:32,05/09/2023 10:32,Pay Bill from 254723882311 - VERONICAH WAMBUGU Acc. house no 9,Completed,16000,,67000,TRUE,Pay Utility,254723882311 - VERONICAH WAMBUGU,,house
RI35RN4W4F,03/09/2023 11:36,03/09/2023 11:36,Pay Bill Online from 254723909186 - BRIAN LIBASIA Acc. 18,Completed,16000,,51000,TRUE,Pay Bill Online,254723909186 - BRIAN LIBASIA,,18
RI21QRP3N7,02/09/2023 22:25,02/09/2023 22:25,Pay Bill from 254724825611 - PAULINE INDIEKA Acc. D13,Completed,6000,,35000,TRUE,Pay Utility,254724825611 - PAULINE INDIEKA,,D13
RI29PR37DJ,02/09/2023 17:59,02/09/2023 17:59,Pay Bill from 254725903381 - ADELINE LUMBASI Acc. Saika A6,Completed,13000,,29000,TRUE,Pay Utility,254725903381 - ADELINE LUMBASI,,Saika
