Receipt No.,Completion Time,Initiation Time,Details,Transaction Status,Paid In,Withdrawn,Balance,Balance Confirmed,Reason Type,Other Party Info,Linked Transaction ID,A/C No.
OEA53VPPL5,10/05/2020 19:33,10/05/2020 19:33,Pay Bill from 254728464531 - JAMES MUIRURI Acc. James Kenedy Muiruri,Completed,2500,,26500,TRUE,Pay Utility,254728464531 - JAMES MUIRURI,,James
OE77ZRT2NB,07/05/2020 10:55,07/05/2020 10:55,Pay Bill from 0743263203 - Patrick theuri wachira Acc. U1,Completed,5000,,24000,TRUE,Pay Utility,0743263203 - Patrick theuri wachira,,U1
