Receipt No.,Completion Time,Initiation Time,Details,Transaction Status,Paid In,Withdrawn,Balance,Balance Confirmed,Reason Type,Other Party Info,Linked Transaction ID,A/C No.
PB75F5ALR7,07/02/2021 08:47,07/02/2021 08:47,Pay Bill from 254701196539 - GICHURI KARANJA Acc. fee,Completed,16000,,260000,TRUE,Pay Utility,254701196539 - GICHURI KARANJA,,fee
PB78F3VYWS,07/02/2021 08:00,07/02/2021 08:00,Pay Bill from 254719317219 - PHILIP MBOYA Acc. JDH,Completed,16000,,244000,TRUE,Pay Utility,254719317219 - PHILIP MBOYA,,JDH
PB60F0OFW4,06/02/2021 22:55,06/02/2021 22:55,Pay Bill Online from 254708703539 - SUSAN NDUGIRE NDUGIRE Acc. KDA,Completed,17000,,228000,TRUE,Pay Bill Online,254708703539 - SUSAN NDUGIRE NDUGIRE,,KDA
PB62F0KIUY,06/02/2021 22:49,06/02/2021 22:49,Pay Bill from 0796929370 - HALIMA BOYA GALMA Acc. DBC,Completed,20000,,211000,TRUE,Pay Utility,0796929370 - HALIMA BOYA GALMA,,DBC
PB66ESM61U,06/02/2021 19:45,06/02/2021 19:45,Pay Bill from 254723026840 - HARRISON MAINA Acc. KAH,Completed,16000,,191000,TRUE,Pay Utility,254723026840 - HARRISON MAINA,,KAH
PB67ERJ737,06/02/2021 19:30,06/02/2021 19:30,Pay Bill from 254729713741 - ALBANUS MUTISO Acc. jbd,Completed,15000,,175000,TRUE,Pay Utility,254729713741 - ALBANUS MUTISO,,jbd
PB61ENLLWZ,06/02/2021 18:32,06/02/2021 18:32,Pay Bill from 254713966424 - NDUTI MUTHUI Acc. JED,Completed,15000,,160000,TRUE,Pay Utility,254713966424 - NDUTI MUTHUI,,JED
PB67ENL6PD,06/02/2021 18:32,06/02/2021 18:32,Pay Bill from 254722546656 - AMBER HAMID TALASAM Acc. IGH,Completed,41000,,145000,TRUE,Pay Utility,254722546656 - AMBER HAMID TALASAM,,IGH
PB68EN2MSE,06/02/2021 18:24,06/02/2021 18:24,Pay Bill Online from 254716499837 - ASHA MUSA Acc. JFD,Completed,15000,,104000,TRUE,Pay Bill Online,254716499837 - ASHA MUSA,,JFD
PB69EKT8P3,06/02/2021 17:47,06/02/2021 17:47,Pay Bill from 254743775372 - SHIKUNDI PURITY KHAOYA Acc. hcd,Completed,9500,,89000,TRUE,Pay Utility,254743775372 - SHIKUNDI PURITY KHAOYA,,hcd
PB63EJURI5,06/02/2021 17:31,06/02/2021 17:31,Pay Bill from 0711769778 - PROTASIA BONIPHACE MANOSA Acc. IBB,Completed,31000,,79500,TRUE,Pay Utility,0711769778 - PROTASIA BONIPHACE MANOSA,,IBB
PB63EFWEWB,06/02/2021 16:17,06/02/2021 16:17,Pay Bill from 254720868281 - KENNEDY MWELU Acc. KBI,Completed,12500,,48500,TRUE,Pay Utility,254720868281 - KENNEDY MWELU,,KBI
PB67EE9K05,06/02/2021 15:44,06/02/2021 15:43,Pay Bill from 254714037688 - MALCOLM FORUM ODUOR JUMA Acc. JAD,Completed,4000,,36000,TRUE,Pay Utility with OD via STK,254714037688 - MALCOLM FORUM ODUOR JUMA,,JAD
PB66E6W6RQ,06/02/2021 13:12,06/02/2021 13:12,Pay Bill from 254721315975 - JOSEPH NDEGWA Acc. H E B,Completed,16000,,32000,TRUE,Pay Utility,254721315975 - JOSEPH NDEGWA,,H
PB67E6K755,06/02/2021 13:05,06/02/2021 13:05,Pay Bill from 254748895202 - MAYOL MACH MADING AWAR Acc. kfb,Completed,16000,,16000,TRUE,Pay Utility,254748895202 - MAYOL MACH MADING AWAR,,kfb
PB65E4PS1X,06/02/2021 12:25,06/02/2021 12:25,Utility Account to Organization Settlement Account,Completed,,-651500,0,TRUE,Utility Account to Organization Settlement Account,979524 - ANCIENT WELLS PROPERTY MANAGERS 2,,
PB60E3MQN2,06/02/2021 12:02,06/02/2021 12:02,Pay Bill from 254725381062 - VICTOR MAITHYA Acc. HEG,Completed,15000,,651500,TRUE,Pay Utility with OD via STK,254725381062 - VICTOR MAITHYA,,HEG
PB64DZ33UU,06/02/2021 10:21,06/02/2021 10:21,Pay Bill Online from 254728687482 - KELSEN MWIRIGI MUTIGA Acc. HCE,Completed,10500,,636500,TRUE,Pay Bill Online,254728687482 - KELSEN MWIRIGI MUTIGA,,HCE
PB66DUI96U,06/02/2021 08:29,06/02/2021 08:29,Pay Bill from 254717726012 - WINFRED MUENI PETER Acc. IDA,Completed,16000,,626000,TRUE,Pay Utility,254717726012 - WINFRED MUENI PETER,,IDA
PB66DTPCCA,06/02/2021 08:07,06/02/2021 08:07,Pay Bill from 0757259130 - RASHID SUDI MCHOMBO Acc. JAF,Completed,8000,,610000,TRUE,Pay Utility,0757259130 - RASHID SUDI MCHOMBO,,JAF
PB64DSVVVA,06/02/2021 07:39,06/02/2021 07:39,Pay Bill from 0745078843 - Venessa kwamboka Nyareru Acc. KCD,Completed,20000,,602000,TRUE,Pay Utility,0745078843 - Venessa kwamboka Nyareru,,KCD
PB67DSH01N,06/02/2021 07:22,06/02/2021 07:22,Pay Bill from 254798674917 - Egbe Okpaga Okpaga Acc. HAD,Completed,9500,,582000,TRUE,Pay Utility,254798674917 - Egbe Okpaga Okpaga,,HAD
PB61DRGN2F,06/02/2021 06:04,06/02/2021 06:04,Pay Bill from 254701006375 - EZRA MAKORI SERETI Acc. HTE,Completed,10000,,572500,TRUE,Pay Utility with OD via STK,254701006375 - EZRA MAKORI SERETI,,HTE
PB55DQAQOL,05/02/2021 23:34,05/02/2021 23:34,Pay Bill from 254703935626 - DAVID NGARI ITA Acc. FCD,Completed,1000,,562500,TRUE,Pay Utility,254703935626 - DAVID NGARI ITA,,FCD
PB51DMASE9,05/02/2021 21:05,05/02/2021 21:05,Pay Bill from 254724655033 - SUSAN CHIMOTO Acc. KGH,Completed,9500,,561500,TRUE,Pay Utility,254724655033 - SUSAN CHIMOTO,,KGH
PB57DL42K7,05/02/2021 20:43,05/02/2021 20:43,Pay Bill from 254722569870 - LUKA KEITANY Acc. jfj,Completed,15000,,552000,TRUE,Pay Utility with OD via STK,254722569870 - LUKA KEITANY,,jfj
PB50DKJSPK,05/02/2021 20:34,05/02/2021 20:34,Pay Bill Online from 254720381965 - JAMES NGUGI MWANIKI Acc. JBI,Completed,20000,,537000,TRUE,Pay Bill Online,254720381965 - JAMES NGUGI MWANIKI,,JBI
PB53DF8XE5,05/02/2021 19:18,05/02/2021 19:18,Pay Bill from 254712954563 - JOSEPH MUTISO KILONZO Acc. dac,Completed,20000,,517000,TRUE,Pay Utility,254712954563 - JOSEPH MUTISO KILONZO,,dac
PB59DC3WO5,05/02/2021 18:32,05/02/2021 18:32,Pay Bill from 254707370896 - OKECH BRIAN BRIAN Acc. FFA,Completed,15000,,497000,TRUE,Pay Utility,254707370896 - OKECH BRIAN BRIAN,,FFA
PB55DBAP1Z,05/02/2021 18:19,05/02/2021 18:19,Pay Bill from 254725771056 - CHARLES MURAGURI Acc. FCE,Completed,15000,,482000,TRUE,Pay Utility,254725771056 - CHARLES MURAGURI,,FCE
PB52DA6KFS,05/02/2021 18:00,05/02/2021 18:00,Pay Bill from 254722874715 - PATRCIAH mbesa KIOKO Acc. KBB,Completed,16000,,467000,TRUE,Pay Utility,254722874715 - PATRCIAH mbesa KIOKO,,KBB
PB54D9OHVK,05/02/2021 17:52,05/02/2021 17:52,Pay Bill from 254706010242 - SIMON OTIENO Acc. IBI,Completed,15000,,451000,TRUE,Pay Utility,254706010242 - SIMON OTIENO,,IBI
PB53D9I3SR,05/02/2021 17:49,05/02/2021 17:49,Pay Bill from 254725094113 - BRAXTON LUMWAJI Acc. DDC,Completed,15000,,436000,TRUE,Pay Utility,254725094113 - BRAXTON LUMWAJI,,DDC
PB54D8V4VC,05/02/2021 17:37,05/02/2021 17:37,Pay Bill from 254729590734 - PATRICK NDUNGA Acc. IDD,Completed,10000,,421000,TRUE,Pay Utility,254729590734 - PATRICK NDUNGA,,IDD
PB55D8NUBF,05/02/2021 17:34,05/02/2021 17:34,Pay Bill from 254723499628 - CLINTON JOSEPH MUHARI Acc. hfh,Completed,16000,,411000,TRUE,Pay Utility,254723499628 - CLINTON JOSEPH MUHARI,,hfh
PB57D898YP,05/02/2021 17:26,05/02/2021 17:26,Pay Bill from 254798524621 - MERCY CHESANG Acc. JCJ,Completed,16000,,395000,TRUE,Pay Utility,254798524621 - MERCY CHESANG,,JCJ
PB50D7SUUC,05/02/2021 17:18,05/02/2021 17:18,Pay Bill from 0743248310 - PATRICK STURRIDGE NYONGESA Acc. kaf,Completed,7000,,379000,TRUE,Pay Utility,0743248310 - PATRICK STURRIDGE NYONGESA,,kaf
PB52D7ATM6,05/02/2021 17:08,05/02/2021 17:08,Pay Bill from 254723605941 - JOHN KARIHA Acc. kdd,Completed,11000,,372000,TRUE,Pay Utility,254723605941 - JOHN KARIHA,,kdd
PB51D5FUGH,05/02/2021 16:31,05/02/2021 16:31,Pay Bill from 0722925798 - ifrah abukar adan Acc. IEI,Completed,16000,,361000,TRUE,Pay Utility,0722925798 - ifrah abukar adan,,IEI
PB59D32TN9,05/02/2021 15:40,05/02/2021 15:40,Pay Bill from 254725700000 - AMOS BELIO SIMOTWO Acc. KFH,Completed,10000,,345000,TRUE,Pay Utility,254725700000 - AMOS BELIO SIMOTWO,,KFH
PB50D2M0MG,05/02/2021 15:30,05/02/2021 15:30,Pay Bill from 254721302658 - JACOB BIRUNDU Acc. DDB,Completed,16000,,335000,TRUE,Pay Utility,254721302658 - JACOB BIRUNDU,,DDB
PB50D1QUTQ,05/02/2021 15:10,05/02/2021 15:10,Pay Bill from 254728897908 - Teddy Allan Onyango Acc. KCF,Completed,10000,,319000,TRUE,Pay Utility,254728897908 - Teddy Allan Onyango,,KCF
PB58D1I628,05/02/2021 15:04,05/02/2021 15:04,Pay Bill from 254714114228 - MWANGO AWINO VIOLET Acc. DCB,Completed,16000,,309000,TRUE,Pay Utility,254714114228 - MWANGO AWINO VIOLET,,DCB
PB53D1GW0B,05/02/2021 15:04,05/02/2021 15:04,Pay Bill Online from 254706898046 - STACY AKETCH OCHUKA Acc. KED,Completed,12000,,293000,TRUE,Pay Bill Online,254706898046 - STACY AKETCH OCHUKA,,KED
PB55D15KG5,05/02/2021 14:57,05/02/2021 14:57,Pay Bill from 254724364316 - LINET MWENDIA Acc. KEJ,Completed,16000,,281000,TRUE,Pay Utility,254724364316 - LINET MWENDIA,,KEJ
PB52CYFZYC,05/02/2021 13:55,05/02/2021 13:55,Pay Bill from 254710814215 - JOAN NYAMBURA KAMAU Acc. ifb,Completed,8500,,265000,TRUE,Pay Utility,254710814215 - JOAN NYAMBURA KAMAU,,ifb
PB52CXHP96,05/02/2021 13:34,05/02/2021 13:34,Pay Bill Online from 254792187144 - HASSAN AHMED HASSAN Acc. KGI,Completed,10000,,256500,TRUE,Pay Bill Online,254792187144 - HASSAN AHMED HASSAN,,KGI
PB54CWO1KK,05/02/2021 13:15,05/02/2021 13:15,Pay Bill from 0718838251 - MARK KINYUA MAINA Acc. kfg,Completed,10000,,246500,TRUE,Pay Utility,0718838251 - MARK KINYUA MAINA,,kfg
PB53CVZ6D1,05/02/2021 12:59,05/02/2021 12:59,Pay Bill Online from 254720044312 - ELIUD KIPKURUI Acc. FCF,Completed,17000,,236500,TRUE,Pay Bill Online,254720044312 - ELIUD KIPKURUI,,FCF
PB57CV7953,05/02/2021 12:41,05/02/2021 12:41,Pay Bill from 0769001671 - Wilson Mutangili Wambua Acc. haf,Completed,9500,,219500,TRUE,Pay Utility,0769001671 - Wilson Mutangili Wambua,,haf
PB50CTS3ZI,05/02/2021 12:08,05/02/2021 12:08,Pay Bill from 254729355933 - FELISTAH NJERI WAIRIMU Acc. IDI,Completed,15000,,210000,TRUE,Pay Utility,254729355933 - FELISTAH NJERI WAIRIMU,,IDI
PB50CTFD0Q,05/02/2021 11:59,05/02/2021 11:59,Pay Bill from 254728685098 - AIDID ISSA ABDI Acc. fdf,Completed,16000,,195000,TRUE,Pay Utility,254728685098 - AIDID ISSA ABDI,,fdf
PB56CO70AS,05/02/2021 09:58,05/02/2021 09:58,Pay Bill from 254725754547 - MWACHIRO GEORGE DECHE Acc. DFC,Completed,20000,,179000,TRUE,Pay Utility,254725754547 - MWACHIRO GEORGE DECHE,,DFC
PB52CMEQOE,05/02/2021 09:13,05/02/2021 09:13,Pay Bill Online from 254726313835 - SYLVIA JUMA Acc. hdf,Completed,9500,,159000,TRUE,Pay Bill Online,254726313835 - SYLVIA JUMA,,hdf
PB54CKWH8A,05/02/2021 08:32,05/02/2021 08:32,Pay Bill from 254723929380 - RHODAH K WAMBUA Acc. HEF,Completed,9500,,149500,TRUE,Pay Utility,254723929380 - RHODAH K WAMBUA,,HEF
PB56CJFZMS,05/02/2021 07:48,05/02/2021 07:48,Pay Bill from 254728042989 - PATRICK OMONDI Acc. IFI,Completed,15000,,140000,TRUE,Pay Utility with OD via STK,254728042989 - PATRICK OMONDI,,IFI
PB55CIQO0P,05/02/2021 07:20,05/02/2021 07:20,Pay Bill from 254722521028 - CHARLES MONYONCHO Acc. ICB,Completed,17000,,125000,TRUE,Pay Utility,254722521028 - CHARLES MONYONCHO,,ICB
PB53CI6IRR,05/02/2021 06:50,05/02/2021 06:50,Pay Bill from 254704833344 - LOISE KIMANI Acc. jfa,Completed,20000,,108000,TRUE,Pay Utility,254704833344 - LOISE KIMANI,,jfa
PB45CFO8K1,04/02/2021 22:28,04/02/2021 22:28,Pay Bill from 254703935626 - DAVID NGARI ITA Acc. FCD,Completed,1000,,88000,TRUE,Pay Utility,254703935626 - DAVID NGARI ITA,,FCD
PB45CEVUU3,04/02/2021 21:59,04/02/2021 21:59,Pay Bill from 254714563486 - BRIAN MMATA MUSERA Acc. KBJ,Completed,16000,,87000,TRUE,Pay Utility,254714563486 - BRIAN MMATA MUSERA,,KBJ
PB44CCKYME,04/02/2021 21:02,04/02/2021 21:02,Pay Bill from 254741583477 - omenda mzee aziz Acc. JEF ,Completed,8000,,71000,TRUE,Pay Utility,254741583477 - omenda mzee aziz,,JEF
PB49C8VWGP,04/02/2021 20:00,04/02/2021 20:00,Pay Bill from 254727300915 - EUNICE NJERI Acc. kff,Completed,9500,,63000,TRUE,Pay Utility,254727300915 - EUNICE NJERI,,kff
PB40C7SL5W,04/02/2021 19:45,04/02/2021 19:45,Pay Bill from 254721465713 - RHODA WAMBUI MWANGI Acc. jfh,Completed,17000,,53500,TRUE,Pay Utility,254721465713 - RHODA WAMBUI MWANGI,,jfh
PB41C7OA67,04/02/2021 19:43,04/02/2021 19:43,Pay Bill from 254720278119 - LINDAH OGAWO Acc. KFE,Completed,9500,,36500,TRUE,Pay Utility with OD via STK,254720278119 - LINDAH OGAWO,,KFE
PB47C6SYIJ,04/02/2021 19:32,04/02/2021 19:32,Pay Bill from 254724837699 - Micah Nyabuto Acc. hbd,Completed,10000,,27000,TRUE,Pay Utility,254724837699 - Micah Nyabuto,,hbd
PB44C4GFFC,04/02/2021 18:59,04/02/2021 18:59,Pay Bill from 254792946676 - ESTHER KAMAU Acc. hab,Completed,17000,,17000,TRUE,Pay Utility,254792946676 - ESTHER KAMAU,,hab
PB40C42X54,04/02/2021 18:54,04/02/2021 18:54,Utility Account to Organization Settlement Account,Completed,,-88500,0,TRUE,Utility Account to Organization Settlement Account,979524 - ANCIENT WELLS PROPERTY MANAGERS 2,,
PB47C0TS0D,04/02/2021 18:00,04/02/2021 18:00,Pay Bill from 254724882554 - ALPHONCE WAMBUA NGELI Acc. JDA,Completed,20000,,88500,TRUE,Pay Utility,254724882554 - ALPHONCE WAMBUA NGELI,,JDA
PB41BXUZY3,04/02/2021 17:03,04/02/2021 17:03,Pay Bill from 254719499823 - MOSES MWANZIA MUTHIANI Acc. Jcc,Completed,3000,,68500,TRUE,Pay Utility with OD via STK,254719499823 - MOSES MWANZIA MUTHIANI,,Jcc
PB42BWP5J0,04/02/2021 16:39,04/02/2021 16:39,Pay Bill from 254724451092 - CHRISTOPHER WAMBUA KISILU Acc. FCC,Completed,9000,,65500,TRUE,Pay Utility,254724451092 - CHRISTOPHER WAMBUA KISILU,,FCC
PB41BVI4O3,04/02/2021 16:12,04/02/2021 16:12,Pay Bill from 254701047939 - Cyrus Wahome Acc. JAH,Completed,16000,,56500,TRUE,Pay Utility,254701047939 - Cyrus Wahome,,JAH
PB42BRJ7FS,04/02/2021 14:38,04/02/2021 14:38,Pay Bill from 254706158280 - patience mutheu mbevi Acc. KFC,Completed,10000,,40500,TRUE,Pay Utility,254706158280 - patience mutheu mbevi,,KFC
PB42BPIIL4,04/02/2021 13:50,04/02/2021 13:50,Pay Bill from 254726337163 - HALIMA ALI HASSAN Acc. DDA,Completed,10000,,30500,TRUE,Pay Utility,254726337163 - HALIMA ALI HASSAN,,DDA
PB48BNVZK8,04/02/2021 13:12,04/02/2021 13:12,Pay Bill from 254719398942 - NORAH WAYUA MUNYAO Acc. KDC,Completed,10000,,20500,TRUE,Pay Utility,254719398942 - NORAH WAYUA MUNYAO,,KDC
PB41BL2BER,04/02/2021 12:05,04/02/2021 12:05,Pay Bill from 254729160700 - MICAH NDUNGI Acc. HFE,Completed,10500,,10500,TRUE,Pay Utility,254729160700 - MICAH NDUNGI,,HFE
PB45BKSJAH,04/02/2021 11:58,04/02/2021 11:58,Utility Account to Organization Settlement Account,Completed,,-212500,0,TRUE,Utility Account to Organization Settlement Account,979524 - ANCIENT WELLS PROPERTY MANAGERS 2,,
PB48BK8ZC2,04/02/2021 11:45,04/02/2021 11:45,Pay Bill from 254791318982 - ADULLAHI HASSAN Acc. jci,Completed,41000,,212500,TRUE,Pay Utility,254791318982 - ADULLAHI HASSAN,,jci
PB47BEE4NL,04/02/2021 09:22,04/02/2021 09:22,Pay Bill from 254722358654 - TOM MAKORI ONGERI Acc. icc,Completed,9000,,171500,TRUE,Pay Utility,254722358654 - TOM MAKORI ONGERI,,icc
PB37B7BXI7,03/02/2021 22:22,03/02/2021 22:22,Pay Bill from 254718233980 - KAREN ASWANI Acc. HEC,Completed,10500,,162500,TRUE,Pay Utility,254718233980 - KAREN ASWANI,,HEC
PB34B6QPJC,03/02/2021 22:01,03/02/2021 22:01,Pay Bill Online from 254711562428 - Lionel Mutune Muoka Acc. KDI,Completed,11000,,152000,TRUE,Pay Bill Online,254711562428 - Lionel Mutune Muoka,,KDI
PB32B5YHDW,03/02/2021 21:38,03/02/2021 21:38,Pay Bill Online from 254726082666 - DRUSSILA MUTHEU MUTUNGA Acc. KAH,Completed,10000,,141000,TRUE,Pay Bill Online,254726082666 - DRUSSILA MUTHEU MUTUNGA,,KAH
PB34B1XW1Q,03/02/2021 20:20,03/02/2021 20:20,Pay Bill from 254702346515 - ELIZABETH ACHIENG NGOME Acc. KDE,Completed,10000,,131000,TRUE,Pay Utility,254702346515 - ELIZABETH ACHIENG NGOME,,KDE
PB37AZGTBB,03/02/2021 19:45,03/02/2021 19:45,Pay Bill from 254716328009 - IRENE ODHIAMBO Acc. KGG,Completed,9000,,121000,TRUE,Pay Utility,254716328009 - IRENE ODHIAMBO,,KGG
PB34AZ4136,03/02/2021 19:40,03/02/2021 19:40,Pay Bill Online from 254704033042 - LESLIE KOIKAI Acc. IBD,Completed,11000,,112000,TRUE,Pay Bill Online,254704033042 - LESLIE KOIKAI,,IBD
PB35AXDNND,03/02/2021 19:18,03/02/2021 19:18,Pay Bill from 254798643998 - Judith Mwaniki Acc. kce,Completed,10000,,101000,TRUE,Pay Utility,254798643998 - Judith Mwaniki,,kce
PB34AU7ON0,03/02/2021 18:31,03/02/2021 18:31,Pay Bill from 0796121714 - janet   mwikali Acc. KEC,Completed,19000,,91000,TRUE,Pay Utility,0796121714 - janet   mwikali,,KEC
PB30ATJGP6,03/02/2021 18:20,03/02/2021 18:20,Pay Bill from 254710635630 - DONNA JESSICA OWANO Acc. KCC,Completed,10000,,72000,TRUE,Pay Utility,254710635630 - DONNA JESSICA OWANO,,KCC
PB34ARN284,03/02/2021 17:48,03/02/2021 17:48,Pay Bill from 254723510490 - JANET JEBET TANUI Acc. IDG,Completed,9000,,62000,TRUE,Pay Utility,254723510490 - JANET JEBET TANUI,,IDG
PB39APZPZJ,03/02/2021 17:17,03/02/2021 17:17,Pay Bill from 254720511734 - ENOCK KIBET Acc. FDC,Completed,9000,,53000,TRUE,Pay Utility,254720511734 - ENOCK KIBET,,FDC
PB39AJDU89,03/02/2021 14:50,03/02/2021 14:50,Pay Bill from 254703180395 - JANE NYAGUTHII MWAGO Acc. IBE,Completed,8000,,44000,TRUE,Pay Utility,254703180395 - JANE NYAGUTHII MWAGO,,IBE
PB39AIM1CL,03/02/2021 14:32,03/02/2021 14:32,Pay Bill from 0114052034 - EVANS TIOKO NANGIRO Acc. FBE,Completed,16000,,36000,TRUE,Pay Utility,0114052034 - EVANS TIOKO NANGIRO,,FBE
PB36A9TD1O,03/02/2021 11:06,03/02/2021 11:06,Pay Bill from 0758826849 -  Norah Awala Anyango Acc. JEA,Completed,20000,,20000,TRUE,Pay Utility,0758826849 -  Norah Awala Anyango,,JEA
PB33A92YQR,03/02/2021 10:48,03/02/2021 10:48,Utility Account to Organization Settlement Account,Completed,,-190250,0,TRUE,Utility Account to Organization Settlement Account,979524 - ANCIENT WELLS PROPERTY MANAGERS 2,,
PB39A8RPTP,03/02/2021 10:41,03/02/2021 10:41,Pay Bill from 254723680556 - JANET NGENO Acc. JEG,Completed,19000,,190250,TRUE,Pay Utility,254723680556 - JANET NGENO,,JEG
PB30A7PZ76,03/02/2021 10:16,03/02/2021 10:16,Pay Bill from 254703681302 - DORRIS MULE Acc. IGD,Completed,9000,,171250,TRUE,Pay Utility,254703681302 - DORRIS MULE,,IGD
PB33A7J5ZR,03/02/2021 10:12,03/02/2021 10:12,Pay Bill from 254714060203 - PATRICK MWANGOMBE MSAWUCHI Acc. KEI,Completed,12000,,162250,TRUE,Pay Utility,254714060203 - PATRICK MWANGOMBE MSAWUCHI,,KEI
PB37A73B83,03/02/2021 10:01,03/02/2021 10:01,Pay Bill from 254722136450 - MARY EVERLYN Acc. JAI,Completed,20000,,150250,TRUE,Pay Utility,254722136450 - MARY EVERLYN,,JAI
PB37A5VNWL,03/02/2021 09:30,03/02/2021 09:30,Pay Bill from 0703236529 - MARGARET WANJIRU WANJOHI Acc. IAE,Completed,8000,,130250,TRUE,Pay Utility,0703236529 - MARGARET WANJIRU WANJOHI,,IAE
PB30A2YADG,03/02/2021 08:09,03/02/2021 08:09,Pay Bill from 254722444622 - CHARITY KAGWAINI Acc. FFD,Completed,10000,,122250,TRUE,Pay Utility,254722444622 - CHARITY KAGWAINI,,FFD
PB239VB9IF,02/02/2021 20:57,02/02/2021 20:57,Pay Bill Online from 254725385966 - JOSEPH MUYA MARUA Acc. KEE,Completed,10000,,112250,TRUE,Pay Utility with OD Online,254725385966 - JOSEPH MUYA MARUA,,KEE
PB259TE87N,02/02/2021 20:24,02/02/2021 20:24,Pay Bill from 254719285750 - LILIAN ACHIENG ODONGO Acc. IGE,Completed,9000,,102250,TRUE,Pay Utility,254719285750 - LILIAN ACHIENG ODONGO,,IGE
PB229R9ZWU,02/02/2021 19:53,02/02/2021 19:53,Pay Bill from 254702355678 - JOHN NJOROGE GICHERU Acc. ITE,Completed,10000,,93250,TRUE,Pay Utility,254702355678 - JOHN NJOROGE GICHERU,,ITE
PB219PBYHF,02/02/2021 19:27,02/02/2021 19:27,Pay Bill from 0796121714 - janet   mwikali Acc. KEC,Completed,2000,,83250,TRUE,Pay Utility,0796121714 - janet   mwikali,,KEC
PB249O5H1I,02/02/2021 19:12,02/02/2021 19:12,Pay Bill from 254715742045 - FRIDAH KIEMA Acc. HGC,Completed,9500,,81250,TRUE,Pay Utility with OD via STK,254715742045 - FRIDAH KIEMA,,HGC
PB299E6RAX,02/02/2021 16:14,02/02/2021 16:14,Pay Bill from 254704682516 - Winnie Akinyi Omollo Acc. fda,Completed,17000,,71750,TRUE,Pay Utility,254704682516 - Winnie Akinyi Omollo,,fda
PB299CODMJ,02/02/2021 15:39,02/02/2021 15:39,Pay Bill Online from 254715892656 - DENNIS MUSYOKA MUOKI Acc. KFA,Completed,16000,,54750,TRUE,Pay Bill Online,254715892656 - DENNIS MUSYOKA MUOKI,,KFA
PB299C4WQ1,02/02/2021 15:26,02/02/2021 15:26,Pay Bill from 254718284151 - EVERLINE MATHEKA Acc. JAG,Completed,10000,,38750,TRUE,Pay Utility,254718284151 - EVERLINE MATHEKA,,JAG
PB2395A3GZ,02/02/2021 12:44,02/02/2021 12:44,Pay Bill from 254716702294 - DANIEL MULATI Acc. KBE,Completed,3250,,28750,TRUE,Pay Utility,254716702294 - DANIEL MULATI,,KBE
PB2794QCGZ,02/02/2021 12:32,02/02/2021 12:32,Pay Bill Online from 254717809935 - LYDIAH WERU Acc. idc,Completed,9500,,25500,TRUE,Pay Bill Online,254717809935 - LYDIAH WERU,,idc
PB2093RN1W,02/02/2021 12:09,02/02/2021 12:09,Pay Bill from 254712461449 - CAROLINE MUTHONI GICHOHI Acc. fca,Completed,16000,,16000,TRUE,Pay Utility,254712461449 - CAROLINE MUTHONI GICHOHI,,fca
PB2190HSCZ,02/02/2021 10:51,02/02/2021 10:51,Utility Account to Organization Settlement Account,Completed,,-43000,0,TRUE,Utility Account to Organization Settlement Account,979524 - ANCIENT WELLS PROPERTY MANAGERS 2,,
PB298WSYRZ,02/02/2021 09:21,02/02/2021 09:21,Pay Bill from 0798660933 - JOSEPH NEWTON GUNI Acc. IAI,Completed,15000,,43000,TRUE,Pay Utility,0798660933 - JOSEPH NEWTON GUNI,,IAI
PB208VFYKM,02/02/2021 08:44,02/02/2021 08:44,Pay Bill from 254716581384 - GREGORY KILUNGYA Acc. DAD,Completed,20000,,28000,TRUE,Pay Utility,254716581384 - GREGORY KILUNGYA,,DAD
PB208SJBJ0,02/02/2021 07:02,02/02/2021 07:02,Pay Bill from 254718009051 - STEPHEN OMOLLO Acc. JDF,Completed,8000,,8000,TRUE,Pay Utility with OD via STK,254718009051 - STEPHEN OMOLLO,,JDF
PB118QOLNJ,01/02/2021 23:24,01/02/2021 23:24,Utility Account to Organization Settlement Account,Completed,,-399500,0,TRUE,Utility Account to Organization Settlement Account,979524 - ANCIENT WELLS PROPERTY MANAGERS 2,,
PB108OV4SU,01/02/2021 21:48,01/02/2021 21:48,Pay Bill from 254708619274 - BONIFACE MUTUA Acc. JFB,Completed,14000,,399500,TRUE,Pay Utility,254708619274 - BONIFACE MUTUA,,JFB
PB158OU9IV,01/02/2021 21:47,01/02/2021 21:47,Pay Bill from 254700187806 - WINNIE OLIVIA AKOTH Acc. JEC,Completed,10000,,385500,TRUE,Pay Utility,254700187806 - WINNIE OLIVIA AKOTH,,JEC
PB128LS7Y4,01/02/2021 20:38,01/02/2021 20:38,Pay Bill Online from 254705951407 - CAROLINE WAITHIRA KAMAU Acc. IDH,Completed,16000,,375500,TRUE,Pay Bill Online,254705951407 - CAROLINE WAITHIRA KAMAU,,IDH
PB158KVXEJ,01/02/2021 20:23,01/02/2021 20:23,Pay Bill from 254721417560 - ANDREW SANDE Acc. JBJ,Completed,16000,,359500,TRUE,Pay Utility,254721417560 - ANDREW SANDE,,JBJ
PB128JX8V8,01/02/2021 20:07,01/02/2021 20:07,Pay Bill from 254714578986 - EZEKIEL MULUNGYE Acc. hac,Completed,21000,,343500,TRUE,Pay Utility,254714578986 - EZEKIEL MULUNGYE,,hac
PB188H2HBI,01/02/2021 19:28,01/02/2021 19:28,Pay Bill from 254713205244 - ROBERT OGALO Acc. KBH,Completed,21000,,322500,TRUE,Pay Utility,254713205244 - ROBERT OGALO,,KBH
PB198G9ANN,01/02/2021 19:17,01/02/2021 19:17,Pay Bill Online from 254726001437 - FESTUS MUNYIRI MAINA Acc. Iff,Completed,10000,,301500,TRUE,Pay Bill Online,254726001437 - FESTUS MUNYIRI MAINA,,Iff
PB128ENKZ2,01/02/2021 18:54,01/02/2021 18:54,Pay Bill Online from 254715400042 - BETHUEL WACHITE Acc. HFG,Completed,15000,,291500,TRUE,Pay Bill Online,254715400042 - BETHUEL WACHITE,,HFG
PB138E4DC7,01/02/2021 18:46,01/02/2021 18:46,Pay Bill from 254714814264 - PATRICIA NZOMO Acc. Hcc,Completed,10000,,276500,TRUE,Pay Utility,254714814264 - PATRICIA NZOMO,,Hcc
PB138DPGY7,01/02/2021 18:39,01/02/2021 18:39,Pay Bill from 254726753273 - JESSE K MURIRMI NJERU Acc. HCH,Completed,17000,,266500,TRUE,Pay Utility,254726753273 - JESSE K MURIRMI NJERU,,HCH
PB108CJ6KK,01/02/2021 18:20,01/02/2021 18:20,Pay Bill Online from 254718299426 - AMOS NGURE MWANGI Acc. HEE,Completed,10500,,249500,TRUE,Pay Bill Online,254718299426 - AMOS NGURE MWANGI,,HEE
PB198AU5RT,01/02/2021 17:51,01/02/2021 17:51,Pay Bill from 254740579741 - MUHINDI MULINYA Acc. HGG,Completed,28000,,239000,TRUE,Pay Utility,254740579741 - MUHINDI MULINYA,,HGG
PB19875YLT,01/02/2021 16:40,01/02/2021 16:40,Pay Bill Online from 254711724272 - EDMOND ONYANGO OKEWE Acc. FCB,Completed,16000,,211000,TRUE,Pay Bill Online,254711724272 - EDMOND ONYANGO OKEWE,,FCB
PB1986GJKF,01/02/2021 16:26,01/02/2021 16:26,Pay Bill from 254700374335 - HYLINE ONDARI Acc. KTE,Completed,9500,,195000,TRUE,Pay Utility,254700374335 - HYLINE ONDARI,,KTE
PB12863EDS,01/02/2021 16:18,01/02/2021 16:18,Pay Bill from 254720249209 - WILFRED NJUGUNA WANJIRA Acc. DDD,Completed,60000,,185500,TRUE,Pay Utility,254720249209 - WILFRED NJUGUNA WANJIRA,,DDD
PB1684VQVG,01/02/2021 15:51,01/02/2021 15:51,Pay Bill Online from 254723930071 - AMOS KITAVI KIVITE Acc. JCE,Completed,19000,,125500,TRUE,Pay Bill Online,254723930071 - AMOS KITAVI KIVITE,,JCE
PB187X1GRE,01/02/2021 12:50,01/02/2021 12:50,Pay Bill from 254724559756 - DUNCAN OMONDI OGOLA Acc. HBE,Completed,15000,,106500,TRUE,Pay Utility,254724559756 - DUNCAN OMONDI OGOLA,,HBE
PB107W5GSW,01/02/2021 12:28,01/02/2021 12:28,Pay Bill from 254707551286 - BENSON NJUGUNA WANGARI Acc. kfi,Completed,12000,,91500,TRUE,Pay Utility,254707551286 - BENSON NJUGUNA WANGARI,,kfi
PB117V1HZF,01/02/2021 12:02,01/02/2021 12:02,Pay Bill from 254721538323 - ISSA ISACK GOLLO Acc. DCC For February2021,Completed,20000,,79500,TRUE,Pay Utility,254721538323 - ISSA ISACK GOLLO,,DCC
PB147QUH54,01/02/2021 10:22,01/02/2021 10:22,Pay Bill from 254708786932 - ZUBEDAH MOHAMMED Acc. IAG,Completed,9500,,59500,TRUE,Pay Utility,254708786932 - ZUBEDAH MOHAMMED,,IAG
PB127PX2A0,01/02/2021 09:59,01/02/2021 09:59,Pay Bill from 254710814215 - JOAN NYAMBURA KAMAU Acc. IFB,Completed,8000,,50000,TRUE,Pay Utility,254710814215 - JOAN NYAMBURA KAMAU,,IFB
PB167P74DA,01/02/2021 09:41,01/02/2021 09:41,Pay Bill Online from 254795510441 - LEWIS MUEMA Acc. KEB,Completed,16000,,42000,TRUE,Pay Bill Online,254795510441 - LEWIS MUEMA,,KEB
PB187MHIAE,01/02/2021 08:28,01/02/2021 08:28,Pay Bill from 254714855708 - KIPLANGAT SITIENEI Acc. FAE,Completed,16000,,26000,TRUE,Pay Utility,254714855708 - KIPLANGAT SITIENEI,,FAE
PB127LNBSW,01/02/2021 08:03,01/02/2021 08:03,Pay Bill from 254716784364 - Wendy Kemunto Nyandiko Acc. FFC,Completed,9000,,10000,TRUE,Pay Utility,254716784364 - Wendy Kemunto Nyandiko,,FFC
PB187I28QC,01/02/2021 00:40,01/02/2021 00:40,Pay Bill from 254703935626 - DAVID NGARI ITA Acc. FCD,Completed,1000,,1000,TRUE,Pay Utility with OD via STK,254703935626 - DAVID NGARI ITA,,FCD
