Receipt No.,Completion Time,Initiation Time,Details,Transaction Status,Paid In,Withdrawn,Balance,Balance Confirmed,Reason Type,Other Party Info,Linked Transaction ID,A/C No.
RAF9G6K9DF,15/01/2023 16:38,15/01/2023 16:38,Pay Bill from 254724018163 - IRENE MUENI WILLY Acc. A4,Completed,600,,63000,TRUE,Pay Utility,254724018163 - IRENE MUENI WILLY,,A4
RAE8CGSBVK,14/01/2023 05:52,14/01/2023 05:52,Pay Bill Online from 254722910078 - MAUREEN MUNYIVA MUTUKU Acc. DCD,Completed,1000,,62400,TRUE,Pay Bill Online,254722910078 - MAUREEN MUNYIVA MUTUKU,,DCD
RAD5B48651,13/01/2023 15:24,13/01/2023 15:24,Pay Bill from 254741573910 - VINCENT ODUOR OLIENG Acc. HBC,Completed,600,,61400,TRUE,Pay Utility,254741573910 - VINCENT ODUOR OLIENG,,HBC
RAD5B0Q11V,13/01/2023 14:44,13/01/2023 14:44,Pay Bill Online from 254714596677 - IMMANUEL BARBOI Acc. KAI,Completed,300,,60800,TRUE,Pay Bill Online,254714596677 - IMMANUEL BARBOI,,KAI
RAD9AAVQUR,13/01/2023 09:45,13/01/2023 09:45,Pay Bill Online from 254714552193 - CHRISTOPHER OCHIENG Acc. JGI,Completed,200,,60500,TRUE,Pay Bill Online,254714552193 - CHRISTOPHER OCHIENG,,JGI
RAC89K730O,12/01/2023 20:28,12/01/2023 20:28,Pay Bill from 254720931007 - BRENDA NASIMIYU NYONGESA Acc. KAB,Completed,600,,60300,TRUE,Pay Utility,254720931007 - BRENDA NASIMIYU NYONGESA,,KAB
RAC49IYTY0,12/01/2023 20:18,12/01/2023 20:18,Pay Bill from 254705902606 - JOSEPH OTIENO SAGWA Acc. fed,Completed,1000,,59700,TRUE,Pay Utility,254705902606 - JOSEPH OTIENO SAGWA,,fed
RAC194Q985,12/01/2023 18:26,12/01/2023 18:26,Pay Bill from 254714597495 - WAMBUA KIOKO Acc. c1,Completed,800,,58700,TRUE,Pay Utility,254714597495 - WAMBUA KIOKO,,c1
RAC78YE4NT,12/01/2023 17:25,12/01/2023 17:25,Pay Bill from 254722826454 - CHARLES KARIMI MAITAI Acc. KDC Keila,Completed,1000,,57900,TRUE,Pay Utility,254722826454 - CHARLES KARIMI MAITAI,,KDC
RAC48SSPZU,12/01/2023 16:26,12/01/2023 16:26,Merchant Pay Utility Received from 7245661 -  OCHIENG CHEMIST  Acc. HFD,Completed,500,,56900,TRUE,Merchant Pay Utility via API,7245661 -  OCHIENG CHEMIST ,,HFD
RAC97N2Z4X,12/01/2023 08:04,12/01/2023 08:04,Pay Bill from 254720439955 - GEOPHRY OKOTH Acc. D6,Completed,400,,56400,TRUE,Pay Utility,254720439955 - GEOPHRY OKOTH,,D6
RAB46NOSDU,11/01/2023 18:23,11/01/2023 18:23,Pay Bill from 254717747775 - QADRA SHEIKH ABDULLAHI Acc. JCI,Completed,1200,,56000,TRUE,Pay Utility,254717747775 - QADRA SHEIKH ABDULLAHI,,JCI
RAB65SNXS4,11/01/2023 12:46,11/01/2023 12:46,Pay Bill Online from 254722444929 - LIZ KIHARA Acc. G3,Completed,400,,54800,TRUE,Pay Utility with OD Online,254722444929 - LIZ KIHARA,,G3
RAA64X7570,10/01/2023 22:43,10/01/2023 22:43,Pay Bill from 254722444622 - CHARITY KAGWAINI Acc. ffd,Completed,100,,54400,TRUE,Pay Utility,254722444622 - CHARITY KAGWAINI,,ffd
RAA44P5ULY,10/01/2023 20:48,10/01/2023 20:48,Pay Bill from 254720230582 - SHADRACK KITAKA NGILA Acc. hse,Completed,400,,54300,TRUE,Pay Utility,254720230582 - SHADRACK KITAKA NGILA,,hse
RAA54OS5RR,10/01/2023 20:44,10/01/2023 20:44,Merchant Pay Utility Received from 7245661 -  OCHIENG CHEMIST  Acc. HFD,Completed,600,,53900,TRUE,Merchant Pay Utility via API,7245661 -  OCHIENG CHEMIST ,,HFD
RAA82RS4NO,10/01/2023 08:41,10/01/2023 08:41,Pay Bill from 254704111133 - ELVIS OTIENO Acc. HFD,Completed,1000,,53300,TRUE,Pay Utility,254704111133 - ELVIS OTIENO,,HFD
RA922HXLMM,09/01/2023 23:29,09/01/2023 23:29,Pay Bill from 0720571944 - Ronoh   Benard Acc. D2,Completed,400,,52300,TRUE,Pay Utility with OD via STK,0720571944 - Ronoh   Benard,,D2
RA962F1DL4,09/01/2023 22:09,09/01/2023 22:09,Pay Bill Online from 254720696119 - DUNCAN OMONDI OKETCH Acc. IAG,Completed,400,,51900,TRUE,Pay Bill Online,254720696119 - DUNCAN OMONDI OKETCH,,IAG
RA922E3EFO,09/01/2023 21:54,09/01/2023 21:54,Pay Bill from 254712974871 - PAULA WANJIKU GATUI Acc. hea,Completed,800,,51500,TRUE,Pay Utility,254712974871 - PAULA WANJIKU GATUI,,hea
RA941K6S4K,09/01/2023 17:08,09/01/2023 17:08,Pay Bill Online from 254712187712 - JUDELEEN SHILOBELE AHINDUKHA Acc. IEA,Completed,600,,50700,TRUE,Pay Bill Online,254712187712 - JUDELEEN SHILOBELE AHINDUKHA,,IEA
RA95ZOM793,09/01/2023 11:15,09/01/2023 11:15,Pay Bill Online from 254715892656 - DENNIS MUSYOKA MUOKI Acc. KFA,Completed,500,,50100,TRUE,Pay Bill Online,254715892656 - DENNIS MUSYOKA MUOKI,,KFA
RA97ZOBXIV,09/01/2023 11:12,09/01/2023 11:12,Pay Bill Online from 254720086214 - SAMUEL WANJIKU Acc. B3,Completed,600,,49600,TRUE,Pay Utility with OD Online,254720086214 - SAMUEL WANJIKU,,B3
RA87YUZUP3,08/01/2023 21:04,08/01/2023 21:04,Pay Bill from 0717441870 - Steven oduor ogutu Acc. KTA,Completed,400,,49000,TRUE,Pay Utility,0717441870 - Steven oduor ogutu,,KTA
RA84XJRCEE,08/01/2023 12:30,08/01/2023 12:30,Pay Bill from 254706722732 - NAOMY ACHIENG OYUGI Acc. E5,Completed,600,,48600,TRUE,Pay Utility,254706722732 - NAOMY ACHIENG OYUGI,,E5
RA85WXIZ7P,08/01/2023 05:50,08/01/2023 05:50,Pay Bill from 254729233120 - ABDIRAHMAN MOHAMUD ABDULLAHI Acc. HTE,Completed,200,,48000,TRUE,Pay Utility,254729233120 - ABDIRAHMAN MOHAMUD ABDULLAHI,,HTE
RA76WQSM8K,07/01/2023 22:08,07/01/2023 22:08,Pay Bill from 0769858701 - DOLLARS DANIEL CIRHUZA Acc. V09,Completed,600,,47800,TRUE,Pay Utility,0769858701 - DOLLARS DANIEL CIRHUZA,,V09
RA77WMCUPV,07/01/2023 21:10,07/01/2023 21:10,Pay Bill from 254720466443 - FATUMA MOHAMED ABDALLAH Acc. V21 ,Completed,200,,47200,TRUE,Pay Utility,254720466443 - FATUMA MOHAMED ABDALLAH,,V21
RA70VU7MZK,07/01/2023 17:08,07/01/2023 17:08,Pay Bill from 254722706516 - KORIR ANTHONY Acc. Anthony D3 ,Completed,400,,47000,TRUE,Pay Utility,254722706516 - KORIR ANTHONY,,Anthony
RA71VKWZSP,07/01/2023 15:28,07/01/2023 15:28,Pay Bill from 0114093036 - Cecillia Njeri Githui Acc. c3,Completed,400,,46600,TRUE,Pay Utility,0114093036 - Cecillia Njeri Githui,,c3
RA79V3I0G1,07/01/2023 12:16,07/01/2023 12:16,Pay Bill from 0724386624 - FATUMA ISSE YUSSUF Acc. FAB,Completed,1000,,46200,TRUE,Pay Utility with OD via STK,0724386624 - FATUMA ISSE YUSSUF,,FAB
RA74UZV2AG,07/01/2023 11:34,07/01/2023 11:34,Pay Bill Online from 254726465584 - JULIANA MUKELI MUTUNGA Acc. v4,Completed,200,,45200,TRUE,Pay Bill Online,254726465584 - JULIANA MUKELI MUTUNGA,,v4
RA79UYT88Z,07/01/2023 11:22,07/01/2023 11:22,Pay Bill from 254701557211 - SUSAN KARANJA Acc. FEE,Completed,1000,,45000,TRUE,Pay Utility,254701557211 - SUSAN KARANJA,,FEE
RA79UU8TGV,07/01/2023 10:29,07/01/2023 10:29,Pay Bill Online from 254715764212 - BANCE ISHEMINYE Acc. JFE,Completed,200,,44000,TRUE,Pay Bill Online,254715764212 - BANCE ISHEMINYE,,JFE
RA77UP6EIT,07/01/2023 09:27,07/01/2023 09:27,Pay Bill Online from 254718233980 - KAREN ASWANI Acc. HEC,Completed,400,,43800,TRUE,Pay Bill Online,254718233980 - KAREN ASWANI,,HEC
RA74UMSBRG,07/01/2023 08:56,07/01/2023 08:56,Pay Bill from 0740245559 - Nduti   Muthui Acc. Jed ,Completed,1800,,43400,TRUE,Pay Utility,0740245559 - Nduti   Muthui,,Jed
RA71UHWEBR,07/01/2023 07:41,07/01/2023 07:41,Pay Bill from 254710106394 - LUCY TONKEI Acc. KBG,Completed,400,,41600,TRUE,Pay Utility,254710106394 - LUCY TONKEI,,KBG
RA71UD3OG5,07/01/2023 01:40,07/01/2023 01:40,Pay Bill Online from 254711562428 - Lionel Mutune Muoka Acc. KDI,Completed,800,,41200,TRUE,Pay Bill Online,254711562428 - Lionel Mutune Muoka,,KDI
RA63U8MA17,06/01/2023 22:23,06/01/2023 22:23,Pay Bill from 254725478531 - KIPKORIR KUTO Acc. DFB,Completed,600,,40400,TRUE,Pay Utility,254725478531 - KIPKORIR KUTO,,DFB
RA65U7IL27,06/01/2023 22:04,06/01/2023 22:04,Pay Bill from 254715764093 - GICHANA GOVAN Acc. E3,Completed,400,,39800,TRUE,Pay Utility,254715764093 - GICHANA GOVAN,,E3
RA63U0IEZB,06/01/2023 20:43,06/01/2023 20:43,Pay Bill from 0795807227 - Lucy Ncekei Kimathi Acc. V36 ,Completed,200,,39400,TRUE,Pay Utility,0795807227 - Lucy Ncekei Kimathi,,V36
RA61TBJ6ZV,06/01/2023 17:15,06/01/2023 17:15,Pay Bill from 254726945691 - JAMES RAMTU Acc. B5,Completed,600,,39200,TRUE,Pay Utility with OD via STK,254726945691 - JAMES RAMTU,,B5
RA65T2LM47,06/01/2023 15:41,06/01/2023 15:41,Pay Bill from 0791565463 - Lilian Njeri Wakagwi Acc. F6,Completed,600,,38600,TRUE,Pay Utility,0791565463 - Lilian Njeri Wakagwi,,F6
RA66SQ88HO,06/01/2023 13:23,06/01/2023 13:23,Pay Bill from 254740579741 - MUHINDI MULINYA Acc. HGG,Completed,2200,,38000,TRUE,Pay Utility,254740579741 - MUHINDI MULINYA,,HGG
RA67SM5V3X,06/01/2023 12:36,06/01/2023 12:36,Pay Bill from 254790128716 - HELLEN NAPHTAL Acc. V11,Completed,800,,35800,TRUE,Pay Utility,254790128716 - HELLEN NAPHTAL,,V11
RA62S4FCFS,06/01/2023 09:06,06/01/2023 09:06,Pay Bill from 0791379873 - Joseph Kyalo Sila Acc. HAH,Completed,900,,35000,TRUE,Pay Utility with OD via STK,0791379873 - Joseph Kyalo Sila,,HAH
RA69S46K65,06/01/2023 09:03,06/01/2023 09:03,Pay Bill Online from 254721714178 - PHANICE JEROTICH KIPTOO Acc. FBF,Completed,400,,34100,TRUE,Pay Bill Online,254721714178 - PHANICE JEROTICH KIPTOO,,FBF
RA64S42LWW,06/01/2023 09:01,06/01/2023 09:01,Pay Bill Online from 254720381965 - JAMES NGUGI MWANIKI Acc. JBI,Completed,3000,,33700,TRUE,Pay Bill Online,254720381965 - JAMES NGUGI MWANIKI,,JBI
RA64RU115A,06/01/2023 01:13,06/01/2023 01:13,Pay Bill Online from 254727425310 - DENNIS KIPKOECH CHERUIYOT Acc. JAG,Completed,400,,30700,TRUE,Pay Bill Online,254727425310 - DENNIS KIPKOECH CHERUIYOT,,JAG
RA54RQVDR0,05/01/2023 22:38,05/01/2023 22:38,Pay Bill from 254700811449 - JOHN MULIMA ENANE Acc. HCE,Completed,700,,30300,TRUE,Pay Utility,254700811449 - JOHN MULIMA ENANE,,HCE
RA56RO8GOW,05/01/2023 21:52,05/01/2023 21:52,Pay Bill from 254728670882 - SHARAD EDWARD ADALA OLUM Acc. KCK,Completed,1600,,29600,TRUE,Pay Utility,254728670882 - SHARAD EDWARD ADALA OLUM,,KCK
RA57RMBNRR,05/01/2023 21:27,05/01/2023 21:27,Pay Bill from 254796069018 - PEACE KIMEU Acc. JAH,Completed,1600,,28000,TRUE,Pay Utility,254796069018 - PEACE KIMEU,,JAH
RA55RLJW3D,05/01/2023 21:18,05/01/2023 21:18,Pay Bill from 254705641030 - FRIDAH WAENI MUITHYA Acc. JEH,Completed,1000,,26400,TRUE,Pay Utility,254705641030 - FRIDAH WAENI MUITHYA,,JEH
RA53RJH64F,05/01/2023 20:56,05/01/2023 20:56,Pay Bill Online from 254721974995 - BERNICE MANGOKA Acc. KFK,Completed,1000,,25400,TRUE,Pay Bill Online,254721974995 - BERNICE MANGOKA,,KFK
RA52R5CSFK,05/01/2023 19:01,05/01/2023 19:01,Pay Bill Online from 254729097858 - AMBROSE ADEYA AHAWO Acc. KCF,Completed,1000,,24400,TRUE,Pay Bill Online,254729097858 - AMBROSE ADEYA AHAWO,,KCF
RA54R594DG,05/01/2023 19:01,05/01/2023 19:01,Pay Bill from 0112714616 - MERCY NJERI NDUNG'U Acc. hff,Completed,200,,23400,TRUE,Pay Utility,0112714616 - MERCY NJERI NDUNG'U,,hff
RA51R00HQV,05/01/2023 18:16,05/01/2023 18:16,Pay Bill from 254712091662 - BENARD OMONDI ROBY Acc. V16,Completed,400,,23200,TRUE,Pay Utility,254712091662 - BENARD OMONDI ROBY,,V16
RA55QY1NK1,05/01/2023 17:58,05/01/2023 17:58,Pay Bill from 254741223822 - Rhoyce Kiptarus Boiyo Acc. FEC,Completed,900,,22800,TRUE,Pay Utility with OD via STK,254741223822 - Rhoyce Kiptarus Boiyo,,FEC
RA56QPLXLA,05/01/2023 16:35,05/01/2023 16:35,Pay Bill from 254723815832 - SEMEKIA ONDIALA Acc. V38,Completed,600,,21900,TRUE,Pay Utility,254723815832 - SEMEKIA ONDIALA,,V38
RA53QJXX8T,05/01/2023 15:32,05/01/2023 15:32,Pay Bill from 254702216907 - FAITH MUSA Acc. KBE ,Completed,200,,21300,TRUE,Pay Utility,254702216907 - FAITH MUSA,,KBE
RA55QER4C7,05/01/2023 14:33,05/01/2023 14:33,Pay Bill from 254717063324 - Christine Murugi Nyaga Acc. KDF,Completed,200,,21100,TRUE,Pay Utility,254717063324 - Christine Murugi Nyaga,,KDF
RA53Q78X4Z,05/01/2023 13:09,05/01/2023 13:09,Pay Bill from 254720814822 - JAMES OTIENO OPAR Acc. Jgj,Completed,400,,20900,TRUE,Pay Utility,254720814822 - JAMES OTIENO OPAR,,Jgj
RA58Q6R7K2,05/01/2023 13:03,05/01/2023 13:03,Pay Bill from 254711877988 - PATRICK KONZI Acc. b4,Completed,600,,20500,TRUE,Pay Utility with OD via STK,254711877988 - PATRICK KONZI,,b4
RA50Q5UPYU,05/01/2023 12:53,05/01/2023 12:53,Pay Bill Online from 254716702294 - DANIEL MULATI Acc. KBB,Completed,3200,,19900,TRUE,Pay Bill Online,254716702294 - DANIEL MULATI,,KBB
RA52Q09TY4,05/01/2023 11:48,05/01/2023 11:48,Pay Bill from 254712283818 - OYUGI OCHIENG Acc. FCB,Completed,1000,,16700,TRUE,Pay Utility,254712283818 - OYUGI OCHIENG,,FCB
RA52PT14IA,05/01/2023 10:22,05/01/2023 10:22,Pay Bill from 0707581625 - ALICE WANGUI GITAU Acc. HED,Completed,600,,15700,TRUE,Pay Utility,0707581625 - ALICE WANGUI GITAU,,HED
RA47PBBMNP,04/01/2023 23:13,04/01/2023 23:13,Pay Bill from 254718818610 - HANNAH NALIAKA Acc. V23,Completed,400,,15100,TRUE,Pay Utility,254718818610 - HANNAH NALIAKA,,V23
RA47PABQFP,04/01/2023 22:41,04/01/2023 22:41,Pay Bill from 254729690627 - BILLY KABIU Acc. KFJ,Completed,1400,,14700,TRUE,Pay Utility,254729690627 - BILLY KABIU,,KFJ
RA48P619FW,04/01/2023 21:27,04/01/2023 21:27,Pay Bill from 254716260268 - LUCY MUTHONI NJIRU Acc. HCB,Completed,1400,,13300,TRUE,Pay Utility,254716260268 - LUCY MUTHONI NJIRU,,HCB
RA48OUYYLA,04/01/2023 19:43,04/01/2023 19:43,Pay Bill from 254113678329 - LESLIE NAINI KOIKAI Acc. IBD ,Completed,600,,11900,TRUE,Pay Utility,254113678329 - LESLIE NAINI KOIKAI,,IBD
RA48OT6XZG,04/01/2023 19:29,04/01/2023 19:29,Pay Bill from 254723328258 - SAMUEL MAINA MURIUKI Acc. IFE,Completed,200,,11300,TRUE,Pay Utility,254723328258 - SAMUEL MAINA MURIUKI,,IFE
RA46OGOE0S,04/01/2023 17:45,04/01/2023 17:45,Pay Bill Online from 254722728975 - CURTIS MRIGA OMIDO Acc. IAH,Completed,600,,11100,TRUE,Pay Bill Online,254722728975 - CURTIS MRIGA OMIDO,,IAH
RA42N3GXAC,04/01/2023 08:13,04/01/2023 08:13,Pay Bill from 254700557767 - BAKHITA MWENDE MUANGE Acc. kcb,Completed,1500,,10500,TRUE,Pay Utility,254700557767 - BAKHITA MWENDE MUANGE,,kcb
RA41N1CGU9,04/01/2023 07:34,04/01/2023 07:34,Pay Bill Online from 254726292792 - PHILIP MIANO Acc. JEI,Completed,2600,,9000,TRUE,Pay Bill Online,254726292792 - PHILIP MIANO,,JEI
RA32M6UAUY,03/01/2023 18:34,03/01/2023 18:34,Pay Bill from 254727585857 - PETER MUOKI NGUNDO Acc. peter Ngundo e6 ,Completed,600,,6400,TRUE,Pay Utility,254727585857 - PETER MUOKI NGUNDO,,peter
RA30LDNCFQ,03/01/2023 13:24,03/01/2023 13:24,Pay Bill from 254791086424 - Martha Achieng Arodi Acc. FDC ,Completed,200,,5800,TRUE,Pay Utility,254791086424 - Martha Achieng Arodi,,FDC
RA33LCY5T7,03/01/2023 13:16,03/01/2023 13:16,Pay Bill Online from 254723499628 - CLINTON JOSEPH MUHARI Acc. hfh,Completed,1000,,5600,TRUE,Pay Bill Online,254723499628 - CLINTON JOSEPH MUHARI,,hfh
RA34L5NXXE,03/01/2023 11:51,03/01/2023 11:51,Pay Bill from 254725771056 - CHARLES MURAGURI Acc. FCE,Completed,500,,4600,TRUE,Pay Utility,254725771056 - CHARLES MURAGURI,,FCE
RA34L5F3GY,03/01/2023 11:48,03/01/2023 11:48,Pay Bill Online from 0715806956 - Mercy Jelagat Kalum Acc. FFE,Completed,600,,4100,TRUE,Pay Bill Online,0715806956 - Mercy Jelagat Kalum,,FFE
RA36KLDBIS,03/01/2023 06:43,03/01/2023 06:43,Pay Bill Online from 254721465713 - RHODA WAMBUI MWANGI Acc. Jfh,Completed,600,,3500,TRUE,Pay Bill Online,254721465713 - RHODA WAMBUI MWANGI,,Jfh
RA21KIPANP,02/01/2023 23:55,02/01/2023 23:55,Pay Bill from 0799912339 - PETER KAMAU MURIU Acc. c5,Completed,1500,,2900,TRUE,Pay Utility,0799912339 - PETER KAMAU MURIU,,c5
RA28K44F3M,02/01/2023 19:54,02/01/2023 19:54,Pay Bill from 254729450678 - GRACE NDUNGE Acc. fba,Completed,300,,1400,TRUE,Pay Utility with OD via STK,254729450678 - GRACE NDUNGE,,fba
RA22JSGUBS,02/01/2023 18:15,02/01/2023 18:15,Pay Bill Online from 0720141407 - Felix Wanjala Wafula Acc. IEB,Completed,800,,1100,TRUE,Pay Bill Online,0720141407 - Felix Wanjala Wafula,,IEB
RA21JRMH5B,02/01/2023 18:06,02/01/2023 18:06,Pay Bill from 254726732160 - CATHERINE MBETI Acc. kfi,Completed,300,,300,TRUE,Pay Utility,254726732160 - CATHERINE MBETI,,kfi
RA22JALCI2,02/01/2023 14:53,02/01/2023 14:53,Utility Account to Organization Settlement Account,Completed,,-6400,0,TRUE,Utility Account to Organization Settlement Account,846783 - ANCIENT WELLS LTD 4,,
RA27J7TYHV,02/01/2023 14:19,02/01/2023 14:19,Pay Bill from 254719398942 - NORAH WAYUA MUNYAO Acc. KDA,Completed,800,,6400,TRUE,Pay Utility,254719398942 - NORAH WAYUA MUNYAO,,KDA
RA23IYXR6P,02/01/2023 12:28,02/01/2023 12:28,Pay Bill Online from 254729796719 - JACINTA WANJIKU NJERI Acc. FFF,Completed,400,,5600,TRUE,Pay Bill Online,254729796719 - JACINTA WANJIKU NJERI,,FFF
RA29ISX21H,02/01/2023 11:13,02/01/2023 11:13,Pay Bill from 254717726012 - WINFRED MUENI PETER Acc. IDA,Completed,600,,5200,TRUE,Pay Utility with OD via STK,254717726012 - WINFRED MUENI PETER,,IDA
RA23ISJMA1,02/01/2023 11:08,02/01/2023 11:08,Pay Bill Online from 254719134037 - KELVIN KITOO Acc. FAA,Completed,1200,,4600,TRUE,Pay Bill Online,254719134037 - KELVIN KITOO,,FAA
RA26IOIPJC,02/01/2023 10:16,02/01/2023 10:16,Pay Bill from 254701112397 - ELEMA GODANA DIBA Acc. FCA,Completed,1000,,3400,TRUE,Pay Utility,254701112397 - ELEMA GODANA DIBA,,FCA
RA16I5Z2VU,01/01/2023 21:55,01/01/2023 21:55,Pay Bill from 254708875278 - ROSEMARY WANJIRU KONYE Acc. HBF,Completed,200,,2400,TRUE,Pay Utility,254708875278 - ROSEMARY WANJIRU KONYE,,HBF
RA10I5XLQC,01/01/2023 21:54,01/01/2023 21:54,Pay Bill Online from 254714563486 - BRIAN MMATA MUSERA Acc. KBJ,Completed,600,,2200,TRUE,Pay Bill Online,254714563486 - BRIAN MMATA MUSERA,,KBJ
RA10I554ZI,01/01/2023 21:40,01/01/2023 21:40,Pay Bill from 254723488259 - WILSON OKITE OKITE Acc. HCA ,Completed,1600,,1600,TRUE,Pay Utility with OD via STK,254723488259 - WILSON OKITE OKITE,,HCA
RA11HY4PX3,01/01/2023 20:10,01/01/2023 20:10,Utility Account to Organization Settlement Account,Completed,,-6400,0,TRUE,Utility Account to Organization Settlement Account,846783 - ANCIENT WELLS LTD 4,,
RA15HSEPNN,01/01/2023 19:15,01/01/2023 19:15,Pay Bill from 254702152790 - Michelle Ndunge Kyalo Acc. IDE,Completed,400,,6400,TRUE,Pay Utility,254702152790 - Michelle Ndunge Kyalo,,IDE
RA13H0O6SN,01/01/2023 13:57,01/01/2023 13:57,Pay Bill from 254718284151 - EVERLINE MATHEKA Acc. DFA,Completed,800,,6000,TRUE,Pay Utility,254718284151 - EVERLINE MATHEKA,,DFA
RA12GGVMS4,01/01/2023 09:46,01/01/2023 09:46,Pay Bill Online from 254714552193 - CHRISTOPHER OCHIENG Acc. JGI,Completed,600,,5200,TRUE,Pay Bill Online,254714552193 - CHRISTOPHER OCHIENG,,JGI
RA14GBM6E0,01/01/2023 08:31,01/01/2023 08:31,Pay Bill Online from 254795510441 - LEWIS MUEMA Acc. KEB,Completed,600,,4600,TRUE,Pay Bill Online,254795510441 - LEWIS MUEMA,,KEB
