Receipt No.,Completion Time,Initiation Time,Details,Transaction Status,Paid In,Withdrawn,Balance,Balance Confirmed,Reason Type,Other Party Info,Linked Transaction ID,A/C No.
PJL4JLZVXK,21/10/2021 17:16,21/10/2021 17:16,Pay Bill from 254713229967 - John Mugabo Simba Acc. E4,Completed,2950,,2950,TRUE,Pay Utility with OD via STK,254713229967 - John Mugabo Simba,,E4
PJK3HTDTH3,20/10/2021 14:38,20/10/2021 14:38,Utility Account to Organization Settlement Account,Completed,,-16000,0,TRUE,Utility Account to Organization Settlement Account,887075 - ANCIENT WELLS LTD 3,,
PJK3HNH7IB,20/10/2021 12:47,20/10/2021 12:47,Pay Bill from 254729110577 - GREGORY ONESMUS KIMANTHI Acc. d6,Completed,7000,,16000,TRUE,Pay Utility,254729110577 - GREGORY ONESMUS KIMANTHI,,d6
PJK5HMDTP9,20/10/2021 12:26,20/10/2021 12:26,Pay Bill from 0727881261 - Vincent muendo sila Acc. e5,Completed,5000,,9000,TRUE,Pay Utility,0727881261 - Vincent muendo sila,,e5
PJK2H9JSV8,20/10/2021 08:01,20/10/2021 08:01,Pay Bill from 254703176849 - ROYAL MUYA Acc. F2,Completed,4000,,4000,TRUE,Pay Utility,254703176849 - ROYAL MUYA,,F2
PJG1BT522R,16/10/2021 15:25,16/10/2021 15:25,Utility Account to Organization Settlement Account,Completed,,-14500,0,TRUE,Utility Account to Organization Settlement Account,887075 - ANCIENT WELLS LTD 3,,
PJG9BCGQ1N,16/10/2021 10:44,16/10/2021 10:44,Pay Bill from 0793999724 - JALEEL    MWERO Acc. House A2,Completed,500,,14500,TRUE,Pay Utility,0793999724 - JALEEL    MWERO,,House
PJG7BBIDUT,16/10/2021 10:27,16/10/2021 10:27,Pay Bill Online from 0793999724 - JALEEL    MWERO Acc. A2,Completed,1500,,14000,TRUE,Pay Bill Online,0793999724 - JALEEL    MWERO,,A2
PJF0AVHC1O,15/10/2021 21:17,15/10/2021 21:17,Pay Bill from 254726432241 - STEPHEN MAYABI Acc. A1,Completed,7500,,12500,TRUE,Pay Utility with OD via STK,254726432241 - STEPHEN MAYABI,,A1
PJF9A6J0MH,15/10/2021 15:43,15/10/2021 15:43,Pay Bill from 0748334540 - shichenga wawire mark Acc. D2,Completed,5000,,5000,TRUE,Pay Utility,0748334540 - shichenga wawire mark,,D2
PJ961I1L1O,09/10/2021 20:45,09/10/2021 20:45,Utility Account to Organization Settlement Account,Completed,,-4000,0,TRUE,Utility Account to Organization Settlement Account,887075 - ANCIENT WELLS LTD 3,,
PJ95163FMN,09/10/2021 18:17,09/10/2021 18:17,Pay Bill from 254703176849 - ROYAL MUYA Acc. F2,Completed,4000,,4000,TRUE,Pay Utility with OD via STK,254703176849 - ROYAL MUYA,,F2
PJ97Z6TQ3X,09/10/2021 08:26,09/10/2021 08:26,Utility Account to Organization Settlement Account,Completed,,-36500,0,TRUE,Utility Account to Organization Settlement Account,887075 - ANCIENT WELLS LTD 3,,
PJ83YUMQNX,08/10/2021 20:45,08/10/2021 20:45,Pay Bill from 254714419834 - FAITH MWIKALI MUTHAMA Acc. D4,Completed,7000,,36500,TRUE,Pay Utility,254714419834 - FAITH MWIKALI MUTHAMA,,D4
PJ80XQ5EMK,08/10/2021 10:51,08/10/2021 10:51,Pay Bill from 254717577871 - KELVIN MUTUMA KINYUA Acc. B1,Completed,8000,,29500,TRUE,Pay Utility,254717577871 - KELVIN MUTUMA KINYUA,,B1
PJ73X9JKED,07/10/2021 21:28,07/10/2021 21:28,Pay Bill from 0727881261 - Vincent muendo sila Acc. e5,Completed,3000,,21500,TRUE,Pay Utility,0727881261 - Vincent muendo sila,,e5
PJ71WYFCDZ,07/10/2021 18:57,07/10/2021 18:57,Pay Bill from 254714851955 - SALIM ASMAN MUSUNGULE Acc. Christopher,Completed,12000,,18500,TRUE,Pay Utility,254714851955 - SALIM ASMAN MUSUNGULE,,Christopher
PJ77W2VSQ3,07/10/2021 10:32,07/10/2021 10:32,Pay Bill Online from 254713295711 - JAMES CHEGE KAMAU Acc. A2,Completed,6500,,6500,TRUE,Pay Bill Online,254713295711 - JAMES CHEGE KAMAU,,A2
PJ79VVRBA9,07/10/2021 08:11,07/10/2021 08:11,Utility Account to Organization Settlement Account,Completed,,-40000,0,TRUE,Utility Account to Organization Settlement Account,887075 - ANCIENT WELLS LTD 3,,
PJ66VOYF9I,06/10/2021 21:59,06/10/2021 21:59,Pay Bill from 254790837715 - JULIUS MWASHUMBE MAGHANGA Acc. F5,Completed,8500,,40000,TRUE,Pay Utility,254790837715 - JULIUS MWASHUMBE MAGHANGA,,F5
PJ69VIDUJD,06/10/2021 20:03,06/10/2021 20:03,Pay Bill from 0727881261 - Vincent muendo sila Acc. e5,Completed,7000,,31500,TRUE,Pay Utility,0727881261 - Vincent muendo sila,,e5
PJ65VEIPRZ,06/10/2021 19:17,06/10/2021 19:17,Pay Bill from 254714597495 - WAMBUA KIOKO Acc. c1,Completed,8000,,24500,TRUE,Pay Utility,254714597495 - WAMBUA KIOKO,,c1
PJ63V9ZKZ3,06/10/2021 18:28,06/10/2021 18:28,Pay Bill from 254721539716 - OCTAVIAN MWANYALO Acc. C6,Completed,8000,,16500,TRUE,Pay Utility,254721539716 - OCTAVIAN MWANYALO,,C6
PJ64UXUPFQ,06/10/2021 15:28,06/10/2021 15:28,Pay Bill from 0799912339 - PETER KAMAU MURIU Acc. c5,Completed,8500,,8500,TRUE,Pay Utility,0799912339 - PETER KAMAU MURIU,,c5
PJ61U9XAVD,06/10/2021 08:12,06/10/2021 08:12,Utility Account to Organization Settlement Account,Completed,,-47500,0,TRUE,Utility Account to Organization Settlement Account,887075 - ANCIENT WELLS LTD 3,,
PJ69U66OZN,06/10/2021 05:56,06/10/2021 05:56,Pay Bill Online from 254711877988 - PATRICK KONZI Acc. b4,Completed,8500,,47500,TRUE,Pay Bill Online,254711877988 - PATRICK KONZI,,b4
PJ52TLHSW0,05/10/2021 17:57,05/10/2021 17:57,Pay Bill from 254792976771 - DANIEL MUTHAMA NDUNDA Acc. F1,Completed,8000,,39000,TRUE,Pay Utility with OD via STK,254792976771 - DANIEL MUTHAMA NDUNDA,,F1
PJ58TFT802,05/10/2021 16:31,05/10/2021 16:31,Pay Bill from 254727585857 - PETER MUOKI NGUNDO Acc. Peter muoki e6,Completed,8500,,31000,TRUE,Pay Utility,254727585857 - PETER MUOKI NGUNDO,,Peter
PJ50TF1GOU,05/10/2021 16:18,05/10/2021 16:18,Pay Bill from 0715030019 - Omwenga Ong'era Stephen Acc. E1,Completed,14000,,22500,TRUE,Pay Utility,0715030019 - Omwenga Ong'era Stephen,,E1
PJ56T92QMS,05/10/2021 14:29,05/10/2021 14:29,Pay Bill from 254717465142 - EPHANTUS IRURA Acc. c4 muriithi,Completed,8500,,8500,TRUE,Pay Utility,254717465142 - EPHANTUS IRURA,,c4
PJ51SU4U31,05/10/2021 10:05,05/10/2021 10:05,Utility Account to Organization Settlement Account,Completed,,-8500,0,TRUE,Utility Account to Organization Settlement Account,887075 - ANCIENT WELLS LTD 3,,
PJ55SRGYBT,05/10/2021 09:16,05/10/2021 09:16,Pay Bill Online from 254704213191 - VALENTINE WAVINYA Acc. e3,Completed,8500,,8500,TRUE,Pay Bill Online,254704213191 - VALENTINE WAVINYA,,e3
PJ51SPFYJZ,05/10/2021 08:34,05/10/2021 08:34,Utility Account to Organization Settlement Account,Completed,,-8500,0,TRUE,Utility Account to Organization Settlement Account,887075 - ANCIENT WELLS LTD 3,,
PJ43SAKWWL,04/10/2021 19:55,04/10/2021 19:55,Pay Bill from 254728664261 - LEVIN INGATI NYONJE Acc. B5,Completed,8500,,8500,TRUE,Pay Utility,254728664261 - LEVIN INGATI NYONJE,,B5
PJ46S2J8QI,04/10/2021 18:30,04/10/2021 18:30,Utility Account to Organization Settlement Account,Completed,,-8000,0,TRUE,Utility Account to Organization Settlement Account,887075 - ANCIENT WELLS LTD 3,,
PJ48RSENYW,04/10/2021 16:08,04/10/2021 16:08,Pay Bill from 254791273726 - JULLIET WINNIE OTIENO Acc. G1,Completed,8000,,8000,TRUE,Pay Utility,254791273726 - JULLIET WINNIE OTIENO,,G1
PJ42RMD1TU,04/10/2021 14:23,04/10/2021 14:23,Utility Account to Organization Settlement Account,Completed,,-8500,0,TRUE,Utility Account to Organization Settlement Account,887075 - ANCIENT WELLS LTD 3,,
PJ42RGVNZ0,04/10/2021 12:49,04/10/2021 12:49,Pay Bill Online from 254795983642 - OBED MOGAKA Acc. F6 OBED ,Completed,8500,,8500,TRUE,Pay Bill Online,254795983642 - OBED MOGAKA,,F6
PJ40R6WDVQ,04/10/2021 09:50,04/10/2021 09:50,Utility Account to Organization Settlement Account,Completed,,-16500,0,TRUE,Utility Account to Organization Settlement Account,887075 - ANCIENT WELLS LTD 3,,
PJ34Q8KDIE,03/10/2021 15:57,03/10/2021 15:57,Pay Bill from 254722706516 - KORIR ANTHONY Acc. Anthony d 3,Completed,8000,,16500,TRUE,Pay Utility,254722706516 - KORIR ANTHONY,,Anthony
PJ34Q75EB6,03/10/2021 15:34,03/10/2021 15:34,Pay Bill Online from 254724871526 - JOHN KAGUONGO Acc. D5 JOHN KAGUONGO,Completed,8500,,8500,TRUE,Pay Bill Online,254724871526 - JOHN KAGUONGO,,D5
PJ21OX7L0B,02/10/2021 18:12,02/10/2021 18:12,Utility Account to Organization Settlement Account,Completed,,-8000,0,TRUE,Utility Account to Organization Settlement Account,887075 - ANCIENT WELLS LTD 3,,
PJ20OHT99W,02/10/2021 14:24,02/10/2021 14:24,Pay Bill from 0702590087 - edel njoki kimani Acc. F3,Completed,8000,,8000,TRUE,Pay Utility,0702590087 - edel njoki kimani,,F3
PJ22OEAQ80,02/10/2021 13:30,02/10/2021 13:30,Utility Account to Organization Settlement Account,Completed,,-22500,0,TRUE,Utility Account to Organization Settlement Account,887075 - ANCIENT WELLS LTD 3,,
PJ24O5OM18,02/10/2021 11:09,02/10/2021 11:09,Pay Bill Online from 254715020357 - ELIZABETH NJERI WARARI Acc. C2,Completed,7500,,22500,TRUE,Pay Bill Online,254715020357 - ELIZABETH NJERI WARARI,,C2
PJ14NDQZSE,01/10/2021 19:14,01/10/2021 19:14,Pay Bill from 254714419834 - FAITH MWIKALI MUTHAMA Acc. D4,Completed,15000,,15000,TRUE,Pay Utility,254714419834 - FAITH MWIKALI MUTHAMA,,D4
