Receipt No.,Completion Time,Initiation Time,Details,Transaction Status,Paid In,Withdrawn,Balance,Balance Confirmed,Reason Type,Other Party Info,Linked Transaction ID,A/C No.
OFO27ME82O,24/06/2020 14:46,24/06/2020 14:46,Pay Bill from 254700557767 - BAKHITA MWENDE MUANGE Acc. KCB,Completed,3000,,26800,TRUE,Pay Utility,254700557767 - BAKHITA MWENDE MUANGE,,KCB
OFO87LH43G,24/06/2020 14:19,24/06/2020 14:19,Pay Bill from 0705448526 - HASSAN HAJIR MURSAL Acc. kbj,Completed,800,,23800,TRUE,Pay Utility,0705448526 - HASSAN HAJIR MURSAL,,kbj
OFN176TYHD,23/06/2020 22:08,23/06/2020 22:08,Pay Bill Online from 254720723193 - MIKA KEVIN OMONDI Acc. v03,Completed,400,,23000,TRUE,Pay Bill Online,254720723193 - MIKA KEVIN OMONDI,,v03
OFN376O1Y1,23/06/2020 21:59,23/06/2020 21:59,Pay Bill from 0719834515 - Ibsa   Usman Acc. HBH,Completed,1600,,22600,TRUE,Pay Utility,0719834515 - Ibsa   Usman,,HBH
OFN676LOW6,23/06/2020 21:55,23/06/2020 21:55,Pay Bill from 0702583480 - NANCY NEKESA OLUOCH Acc. v31,Completed,1600,,21000,TRUE,Pay Utility,0702583480 - NANCY NEKESA OLUOCH,,v31
OFN76ZWR7P,23/06/2020 18:57,23/06/2020 18:57,Pay Bill from 254712561678 - SAMUEL ADIYO OGODO Acc. KAE,Completed,600,,19400,TRUE,Pay Utility,254712561678 - SAMUEL ADIYO OGODO,,KAE
OFN46XP0BY,23/06/2020 18:13,23/06/2020 18:13,Pay Bill from 0722389924 - ISSA ISACK GOLLO Acc. DCC,Completed,3400,,18800,TRUE,Pay Utility,0722389924 - ISSA ISACK GOLLO,,DCC
OFN96RDE1D,23/06/2020 15:34,23/06/2020 15:34,FSI to Pay Bill by 714888 - B2C LOOP VIA NCBA Acc. JAD via WEB by B2C LOOP VIA NCBA\Cbainitiator,Completed,1500,,15400,TRUE,FSI to Pay Bill via API,714888 - B2C LOOP VIA NCBA,,JAD
OFN66LTZK0,23/06/2020 12:45,23/06/2020 12:45,Pay Bill from 254722910078 - MAUREEN MUNYIVA MUTUKU Acc. DBD,Completed,1000,,13900,TRUE,Pay Utility,254722910078 - MAUREEN MUNYIVA MUTUKU,,DBD
OFN96IVMEN,23/06/2020 11:13,23/06/2020 11:13,Pay Bill from 0743248310 - PATRICK STURRIDGE NYONGESA Acc. Kaf,Completed,600,,12900,TRUE,Pay Utility,0743248310 - PATRICK STURRIDGE NYONGESA,,Kaf
OFN76E4AGH,23/06/2020 08:30,23/06/2020 08:30,Pay Bill from 254702343078 - JOSEPH EBENYO Acc. V10 joseph,Completed,600,,12300,TRUE,Pay Utility,254702343078 - JOSEPH EBENYO,,V10
OFN36CNUFH,23/06/2020 07:15,23/06/2020 07:15,Pay Bill from 254708851939 - VENANT MBOGHO Acc. kch,Completed,1400,,11700,TRUE,Pay Utility,254708851939 - VENANT MBOGHO,,kch
OFM16AZ3QV,22/06/2020 22:21,22/06/2020 22:21,Pay Bill from 254707049818 - LUCKY TSUMA Acc. v19,Completed,400,,10300,TRUE,Pay Utility,254707049818 - LUCKY TSUMA,,v19
OFM864Z7QU,22/06/2020 19:11,22/06/2020 19:11,Pay Bill from 254707805729 - FAITH MUKUNDI Acc. IAF,Completed,400,,9900,TRUE,Pay Utility,254707805729 - FAITH MUKUNDI,,IAF
OFM064Q4KA,22/06/2020 19:06,22/06/2020 19:06,Pay Bill from 254715774019 - BONIFACE BARAKO KATELO Acc. HGF,Completed,400,,9500,TRUE,Pay Utility,254715774019 - BONIFACE BARAKO KATELO,,HGF
OFM4624HNM,22/06/2020 18:13,22/06/2020 18:13,Pay Bill from 0722279788 - HARRISON WACIRA MAINA Acc. KAI,Completed,2000,,9100,TRUE,Pay Utility,0722279788 - HARRISON WACIRA MAINA,,KAI
OFM061TQ9O,22/06/2020 18:06,22/06/2020 18:06,Pay Bill from 254721918811 - AHMED ABDI Acc. kaj,Completed,1200,,7100,TRUE,Pay Utility,254721918811 - AHMED ABDI,,kaj
OFM460RM54,22/06/2020 17:43,22/06/2020 17:43,Pay Bill from 254724777705 - COLLINS AKASA Acc. KEG ,Completed,600,,5900,TRUE,Pay Utility,254724777705 - COLLINS AKASA,,KEG
OFM95UM3H7,22/06/2020 15:01,22/06/2020 15:01,Pay Bill from 0757699775 - BENARD MUIA MUTUA Acc.  H C B,Completed,1400,,5300,TRUE,Pay Utility,0757699775 - BENARD MUIA MUTUA,,
OFM35SXFJD,22/06/2020 14:10,22/06/2020 14:10,Pay Bill from 0758826849 -  Norah Awala Anyango Acc. IDH,Completed,1500,,3900,TRUE,Pay Utility,0758826849 -  Norah Awala Anyango,,IDH
OFM75N4H6R,22/06/2020 11:15,22/06/2020 11:15,Pay Bill from 254726405755 - EDWARD NGONGE Acc. dgc,Completed,1800,,2400,TRUE,Pay Utility,254726405755 - EDWARD NGONGE,,dgc
OFM35JGDSR,22/06/2020 09:19,22/06/2020 09:19,Pay Bill from 254720868281 - KENNEDY MWELU Acc. KBI,Completed,600,,600,TRUE,Pay Utility with OD via STK,254720868281 - KENNEDY MWELU,,KBI
OFM45G071U,22/06/2020 05:54,22/06/2020 05:54,Utility Account to Organization Settlement Account,Completed,,-7800,0,TRUE,Utility Account to Organization Settlement Account,846783 - ANCIENT WELLS LTD 4,,
OFL95CTUCL,21/06/2020 20:55,21/06/2020 20:55,Pay Bill Online from 254720451253 - JIMMY KIOGORA NKIROTE Acc. KBD,Completed,200,,7800,TRUE,Pay Utility with OD Online,254720451253 - JIMMY KIOGORA NKIROTE,,KBD
OFL354UO41,21/06/2020 17:42,21/06/2020 17:42,Pay Bill Online from 254706549634 - CLINTON OMBASA Acc. FDB,Completed,400,,7600,TRUE,Pay Bill Online,254706549634 - CLINTON OMBASA,,FDB
OFL052G3CW,21/06/2020 16:42,21/06/2020 16:42,Pay Bill from 254724680704 - PATRICK MWANDO Acc. fbf,Completed,2800,,7200,TRUE,Pay Utility,254724680704 - PATRICK MWANDO,,fbf
OFL751JHI7,21/06/2020 16:17,21/06/2020 16:17,Pay Bill from 254716863301 - PRISCILLAH WANJIRU Acc. ICD,Completed,800,,4400,TRUE,Pay Utility,254716863301 - PRISCILLAH WANJIRU,,ICD
OFL951BELR,21/06/2020 16:11,21/06/2020 16:11,Pay Bill from 254724611087 - Francis Mukindya Muoki Acc. Kde,Completed,900,,3600,TRUE,Pay Utility with OD via STK,254724611087 - Francis Mukindya Muoki,,Kde
OFL350ZKM1,21/06/2020 16:02,21/06/2020 16:02,Pay Bill from 0702322105 - hurry ibarasi madede Acc. V52,Completed,1200,,2700,TRUE,Pay Utility,0702322105 - hurry ibarasi madede,,V52
OFL14UZ4O9,21/06/2020 13:10,21/06/2020 13:10,Pay Bill from 254718292893 - HERINE ELSEBA ATIENO Acc. IFI,Completed,1500,,1500,TRUE,Pay Utility,254718292893 - HERINE ELSEBA ATIENO,,IFI
OFL24KPVOI,21/06/2020 06:43,21/06/2020 06:43,Utility Account to Organization Settlement Account,Completed,,-4300,0,TRUE,Utility Account to Organization Settlement Account,846783 - ANCIENT WELLS LTD 4,,
OFK64D8FWY,20/06/2020 19:26,20/06/2020 19:26,Pay Bill from 254722874715 - PATRCIAH mbesa KIOKO Acc. KBB,Completed,600,,4300,TRUE,Pay Utility with OD via STK,254722874715 - PATRCIAH mbesa KIOKO,,KBB
OFK54BESG7,20/06/2020 18:55,20/06/2020 18:55,Pay Bill from 254717726012 - WINFRED MUENI PETER Acc. IDD,Completed,600,,3700,TRUE,Pay Utility,254717726012 - WINFRED MUENI PETER,,IDD
OFK44AZEP6,20/06/2020 18:47,20/06/2020 18:47,Pay Bill from 254701683737 - MICHAEL NGUGI Acc. HDB,Completed,400,,3100,TRUE,Pay Utility,254701683737 - MICHAEL NGUGI,,HDB
OFK54AXN19,20/06/2020 18:46,20/06/2020 18:46,Pay Bill from 254719285750 - LILIAN ACHIENG ODONGO Acc. IGE,Completed,400,,2700,TRUE,Pay Utility,254719285750 - LILIAN ACHIENG ODONGO,,IGE
OFK048J5AY,20/06/2020 17:59,20/06/2020 17:59,Pay Bill from 254705546387 - MICAH KAMIDI Acc. JGJ,Completed,500,,2300,TRUE,Pay Utility,254705546387 - MICAH KAMIDI,,JGJ
OFK247RG08,20/06/2020 17:43,20/06/2020 17:43,Pay Bill from 254703942021 - AFZAL MUHAMMAD Acc. HBA,Completed,800,,1800,TRUE,Pay Utility,254703942021 - AFZAL MUHAMMAD,,HBA
OFK74555I5,20/06/2020 16:43,20/06/2020 16:43,Pay Bill from 254725111246 - FRANCIS MWANGANGI Acc. IGI,Completed,600,,1000,TRUE,Pay Utility,254725111246 - FRANCIS MWANGANGI,,IGI
OFK242PFBU,20/06/2020 15:43,20/06/2020 15:43,Pay Bill from 0795807227 - Lucy Ncekei Kimathi Acc. V36,Completed,400,,400,TRUE,Pay Utility,0795807227 - Lucy Ncekei Kimathi,,V36
OFK641EN9A,20/06/2020 15:08,20/06/2020 15:08,Utility Account to Organization Settlement Account,Completed,,-9850,0,TRUE,Utility Account to Organization Settlement Account,846783 - ANCIENT WELLS LTD 4,,
OFK83W8WWQ,20/06/2020 12:45,20/06/2020 12:45,Pay Bill from 254726676041 - TOBIAS ORINA Acc. KAD,Completed,1000,,9850,TRUE,Pay Utility,254726676041 - TOBIAS ORINA,,KAD
OFK33UDV0V,20/06/2020 11:51,20/06/2020 11:51,Pay Bill from 254757840728 - SETH OMONDI ODONDI Acc. DFD ,Completed,1800,,8850,TRUE,Pay Utility,254757840728 - SETH OMONDI ODONDI,,DFD
OFK03TK7II,20/06/2020 11:26,20/06/2020 11:26,Pay Bill Online from 254704033042 - LESLIE KOIKAI Acc. IBD,Completed,1000,,7050,TRUE,Pay Bill Online,254704033042 - LESLIE KOIKAI,,IBD
OFK13SZ46P,20/06/2020 11:09,20/06/2020 11:09,Pay Bill from 254714552193 - CHRISTOPHER OCHIENG Acc. JGi,Completed,400,,6050,TRUE,Pay Utility,254714552193 - CHRISTOPHER OCHIENG,,JGi
OFK33SOE5J,20/06/2020 11:00,20/06/2020 11:00,Pay Bill from 254704597694 - JANET MWENGA Acc. jcd,Completed,1500,,5650,TRUE,Pay Utility with OD via STK,254704597694 - JANET MWENGA,,jcd
OFK53SHTWL,20/06/2020 10:54,20/06/2020 10:54,Pay Bill Online from 254722705077 - ROSALID WAMBUI NJOROGE Acc. FDD,Completed,400,,4150,TRUE,Pay Bill Online,254722705077 - ROSALID WAMBUI NJOROGE,,FDD
OFK03RJ9KC,20/06/2020 10:25,20/06/2020 10:25,Pay Bill from 254795449800 - MARTHA WANJIRU NJUGUNA Acc. HGD,Completed,800,,3750,TRUE,Pay Utility,254795449800 - MARTHA WANJIRU NJUGUNA,,HGD
OFK13RFPZV,20/06/2020 10:22,20/06/2020 10:22,Pay Bill from 254792187144 - HASSAN AHMED HASSAN Acc. KGI,Completed,600,,2950,TRUE,Pay Utility,254792187144 - HASSAN AHMED HASSAN,,KGI
OFK73RFBKL,20/06/2020 10:21,20/06/2020 10:21,Pay Bill from 254795690554 - BENARD SIMIYU WANJALA Acc. Hse V8,Completed,200,,2350,TRUE,Pay Utility,254795690554 - BENARD SIMIYU WANJALA,,Hse
OFK83REPPE,20/06/2020 10:21,20/06/2020 10:21,Pay Bill Online from 254714578997 - LINCOLN DAN MEMBA Acc. KAC,Completed,950,,2150,TRUE,Pay Bill Online,254714578997 - LINCOLN DAN MEMBA,,KAC
OFK23R6A2Y,20/06/2020 10:13,20/06/2020 10:13,Pay Bill from 254718299426 - AMOS NGURE MWANGI Acc. HEE,Completed,600,,1200,TRUE,Pay Utility,254718299426 - AMOS NGURE MWANGI,,HEE
OFK33QW3OF,20/06/2020 10:04,20/06/2020 10:04,Pay Bill from 254721315975 - JOSEPH NDEGWA Acc. H E B,Completed,600,,600,TRUE,Pay Utility,254721315975 - JOSEPH NDEGWA,,H
OFJ933O0XB,19/06/2020 15:21,19/06/2020 15:21,Utility Account to Organization Settlement Account,Completed,,-6600,0,TRUE,Utility Account to Organization Settlement Account,846783 - ANCIENT WELLS LTD 4,,
OFJ92ZA2L9,19/06/2020 13:15,19/06/2020 13:15,Pay Bill from 254797665088 - INNOCENT WANAMI Acc. V2,Completed,6600,,6600,TRUE,Pay Utility,254797665088 - INNOCENT WANAMI,,V2
OFJ42XYZNC,19/06/2020 12:36,19/06/2020 12:36,Utility Account to Organization Settlement Account,Completed,,-1250,0,TRUE,Utility Account to Organization Settlement Account,846783 - ANCIENT WELLS LTD 4,,
