Receipt No.,Completion Time,Initiation Time,Details,Transaction Status,Paid In,Withdrawn,Balance,Balance Confirmed,Reason Type,Other Party Info,Linked Transaction ID,A/C No.
QCM137FK2T,22/03/2022 08:05,22/03/2022 08:05,Pay Bill Online from 254704403532 - Mercy Chepchirchir Mary Acc. JBC,Completed,3000,,59500,TRUE,Pay Bill Online,254704403532 - Mercy Chepchirchir Mary,,JBC
QCL92U1LOV,21/03/2022 20:34,21/03/2022 20:34,Pay Bill from 0757758972 - BETH MUTHONI KASYOKA Acc. DEA,Completed,16000,,56500,TRUE,Pay Utility,0757758972 - BETH MUTHONI KASYOKA,,DEA
QCL52LTOVN,21/03/2022 19:11,21/03/2022 19:11,Pay Bill from 0746934144 - Rosemary Wangui Muiruri Acc. ICD,Completed,3000,,40500,TRUE,Pay Utility,0746934144 - Rosemary Wangui Muiruri,,ICD
QCL31T4XKV,21/03/2022 12:37,21/03/2022 12:37,Pay Bill from 254700531269 - FRANCIS GITAU MACHARIA Acc. ICC,Completed,8000,,37500,TRUE,Pay Utility,254700531269 - FRANCIS GITAU MACHARIA,,ICC
QCL71POLPB,21/03/2022 11:43,21/03/2022 11:43,Pay Bill from 254722910078 - MAUREEN MUNYIVA MUTUKU Acc. DBD,Completed,14500,,29500,TRUE,Pay Utility,254722910078 - MAUREEN MUNYIVA MUTUKU,,DBD
QCL21LIFDO,21/03/2022 10:37,21/03/2022 10:37,Pay Bill Online from 254711721087 - MUTHIANI KYULE Acc. IDB,Completed,15000,,15000,TRUE,Pay Utility with OD Online,254711721087 - MUTHIANI KYULE,,IDB
QCL91J5DEH,21/03/2022 09:59,21/03/2022 09:59,Utility Account to Organization Settlement Account,Completed,,-77500,0,TRUE,Utility Account to Organization Settlement Account,979524 - ANCIENT WELLS PROPERTY MANAGERS 2,,
QCL21INFLO,21/03/2022 09:51,21/03/2022 09:51,Pay Bill Online from 0711117122 - Yassir Mwinyi Abdulrazaq Acc. ICE,Completed,3000,,77500,TRUE,Pay Bill Online,0711117122 - Yassir Mwinyi Abdulrazaq,,ICE
QCK516BIEZ,20/03/2022 22:46,20/03/2022 22:46,Pay Bill from 254703935626 - DAVID NGARI ITA Acc. FCD,Completed,1000,,74500,TRUE,Pay Utility with OD via STK,254703935626 - DAVID NGARI ITA,,FCD
QCK4YX4PVW,20/03/2022 11:27,20/03/2022 11:27,Pay Bill from 254725062550 - FRANKLINE MASSAM Acc. KAF,Completed,11000,,73500,TRUE,Pay Utility,254725062550 - FRANKLINE MASSAM,,KAF
QCK9YKAQL3,20/03/2022 04:58,20/03/2022 04:58,Pay Bill Online from 254723370004 - LABAN MAINGI WAMBUA Acc. JEF,Completed,2000,,62500,TRUE,Pay Bill Online,254723370004 - LABAN MAINGI WAMBUA,,JEF
QCJ9XIXDMF,19/03/2022 15:29,19/03/2022 15:29,Pay Bill from 254719499823 - MOSES MWANZIA MUTHIANI Acc. Jcc,Completed,10000,,60500,TRUE,Pay Utility with OD via STK,254719499823 - MOSES MWANZIA MUTHIANI,,Jcc
QCJ4X5R1VM,19/03/2022 12:16,19/03/2022 12:16,Pay Bill Online from 254720451253 - JIMMY KIOGORA NKIROTE Acc. Kbd,Completed,1500,,50500,TRUE,Pay Utility with OD Online,254720451253 - JIMMY KIOGORA NKIROTE,,Kbd
QCJ9WST4QF,19/03/2022 08:52,19/03/2022 08:52,Pay Bill from 254701047939 - Cyrus Wahome Acc. JAH,Completed,3000,,49000,TRUE,Pay Utility,254701047939 - Cyrus Wahome,,JAH
