Receipt No.,Completion Time,Initiation Time,Details,Transaction Status,Paid In,Withdrawn,Balance,Balance Confirmed,Reason Type,Other Party Info,Linked Transaction ID,A/C No.
QHB52JR29L,11/08/2022 19:59,11/08/2022 19:59,Pay Bill from 254727585857 - PETER MUOKI NGUNDO Acc. Peter Ngundo e6 ,Completed,8500,,8500,TRUE,Pay Utility,254727585857 - PETER MUOKI NGUNDO,,Peter
QHB31ZG6RD,11/08/2022 15:53,11/08/2022 15:53,Utility Account to Organization Settlement Account,Completed,,-230700,0,TRUE,Utility Account to Organization Settlement Account,887075 - ANCIENT WELLS LTD 3,,
QH94WVZ7NG,09/08/2022 06:39,09/08/2022 06:39,Pay Bill Online from 254711877988 - PATRICK KONZI Acc. b4,Completed,8500,,230700,TRUE,Pay Utility with OD Online,254711877988 - PATRICK KONZI,,b4
QH87USRH55,08/08/2022 07:25,08/08/2022 07:25,Pay Bill from 254713229967 - John Mugabo Simba Acc. E4,Completed,5000,,222200,TRUE,Pay Utility,254713229967 - John Mugabo Simba,,E4
QH70U1HDWM,07/08/2022 17:59,07/08/2022 17:59,Pay Bill from 254721539716 - OCTAVIAN MWANYALO Acc. C6,Completed,8000,,217200,TRUE,Pay Utility,254721539716 - OCTAVIAN MWANYALO,,C6
QH78TRXOXM,07/08/2022 15:54,07/08/2022 15:54,Pay Bill Online from 254703176849 - ROYAL MUYA Acc. F2,Completed,2000,,209200,TRUE,Pay Bill Online,254703176849 - ROYAL MUYA,,F2
QH76THWN28,07/08/2022 13:35,07/08/2022 13:35,Pay Bill Online from 254720201157 - BENSON INYANJE MWAKHA Acc. b6,Completed,8100,,207200,TRUE,Pay Utility with OD Online,254720201157 - BENSON INYANJE MWAKHA,,b6
QH65RL6LW3,06/08/2022 14:30,06/08/2022 14:30,Pay Bill from 254710248036 - Allan Kimeu Mutua Acc. F5,Completed,8500,,199100,TRUE,Pay Utility,254710248036 - Allan Kimeu Mutua,,F5
QH62RGMQC4,06/08/2022 13:33,06/08/2022 13:33,Pay Bill Online from 254703176849 - ROYAL MUYA Acc. F2,Completed,7000,,190600,TRUE,Pay Bill Online,254703176849 - ROYAL MUYA,,F2
QH63QONAM3,06/08/2022 03:04,06/08/2022 03:04,Pay Bill from 0115708408 - MICHAEL ELIZA WANJALA Acc. G2,Completed,8000,,183600,TRUE,Pay Utility,0115708408 - MICHAEL ELIZA WANJALA,,G2
QH54PICG0S,05/08/2022 15:38,05/08/2022 15:38,Pay Bill from 0704120519 - Mildred   Adhiambo Acc. G1,Completed,8000,,175600,TRUE,Pay Utility,0704120519 - Mildred   Adhiambo,,G1
QH51PHM8KJ,05/08/2022 15:29,05/08/2022 15:29,Pay Bill from 0114093036 - Cecillia Njeri Githui Acc. C3,Completed,8000,,167600,TRUE,Pay Utility,0114093036 - Cecillia Njeri Githui,,C3
QH50OQRADK,05/08/2022 09:33,05/08/2022 09:33,Pay Bill from 0743437540 - Susan Nduta Muiruri Acc. B2,Completed,8200,,159600,TRUE,Pay Utility with OD via STK,0743437540 - Susan Nduta Muiruri,,B2
QH59ONL0ZL,05/08/2022 08:44,05/08/2022 08:44,Pay Bill from 0791565463 - Lilian Njeri Wakagwi Acc. F6,Completed,8500,,151400,TRUE,Pay Utility,0791565463 - Lilian Njeri Wakagwi,,F6
QH42NO1KUY,04/08/2022 17:56,04/08/2022 17:56,Pay Bill Online from 254715020357 - ELIZABETH NJERI WARARI Acc. C2,Completed,7500,,142900,TRUE,Pay Bill Online,254715020357 - ELIZABETH NJERI WARARI,,C2
QH42NGO838,04/08/2022 16:35,04/08/2022 16:35,Pay Bill from 254706248362 - BERYL HUMA Acc. E5,Completed,8500,,135400,TRUE,Pay Utility,254706248362 - BERYL HUMA,,E5
QH41NCRY55,04/08/2022 15:46,04/08/2022 15:46,Pay Bill from 254726945691 - JAMES RAMTU Acc. B5,Completed,8500,,126900,TRUE,Pay Utility,254726945691 - JAMES RAMTU,,B5
QH44N64N8A,04/08/2022 14:18,04/08/2022 14:18,Pay Bill from 254726645592 - Ephantus Muriithi Irura Acc. c4 Muriithi,Completed,8500,,118400,TRUE,Pay Utility,254726645592 - Ephantus Muriithi Irura,,c4
QH39LWS76P,03/08/2022 19:57,03/08/2022 19:57,Pay Bill from 254714419834 - FAITH MWIKALI MUTHAMA Acc. d4,Completed,8500,,109900,TRUE,Pay Utility,254714419834 - FAITH MWIKALI MUTHAMA,,d4
QH23JA8MPT,02/08/2022 17:04,02/08/2022 17:04,Pay Bill from 254791341895 - Enos Nyaosi Ayuma Acc. D5,Completed,8500,,101400,TRUE,Pay Utility,254791341895 - Enos Nyaosi Ayuma,,D5
QH15GFV0S5,01/08/2022 11:35,01/08/2022 11:35,Pay Bill from 254720439955 - GEOPHRY OKOTH Acc. D6,Completed,8500,,92900,TRUE,Pay Utility,254720439955 - GEOPHRY OKOTH,,D6
