Receipt No.,Completion Time,Initiation Time,Details,Transaction Status,Paid In,Withdrawn,Balance,Balance Confirmed,Reason Type,Other Party Info,Linked Transaction ID,A/C No.
PI90O0P8HG,09/09/2021 08:42,09/09/2021 08:42,Pay Bill from 254728259571 - ANNE KASIVA Acc. ieb,Completed,15000,,180500,TRUE,Pay Utility,254728259571 - ANNE KASIVA,,ieb
PI98O08ZQU,09/09/2021 08:31,09/09/2021 08:31,Pay Bill from 254727515326 - HARRISON WACIRA MAINA Acc. HAH,Completed,16000,,165500,TRUE,Pay Utility,254727515326 - HARRISON WACIRA MAINA,,HAH
PI82NQDLYK,08/09/2021 20:52,08/09/2021 20:52,Pay Bill from 0748212685 - timothy odhiambo owiti Acc. JDE,Completed,8000,,149500,TRUE,Pay Utility,0748212685 - timothy odhiambo owiti,,JDE
PI86NMLDWK,08/09/2021 19:54,08/09/2021 19:54,Pay Bill from 254722564580 - GLENN KISIANG'ANI Acc. DBB,Completed,16000,,141500,TRUE,Pay Utility with OD via STK,254722564580 - GLENN KISIANG'ANI,,DBB
PI86NMIK9O,08/09/2021 19:53,08/09/2021 19:53,Pay Bill from 254710106394 - LUCY TONKEI Acc. KBG,Completed,9000,,125500,TRUE,Pay Utility,254710106394 - LUCY TONKEI,,KBG
PI80NM71MA,08/09/2021 19:49,08/09/2021 19:49,Pay Bill from 254713205244 - ROBERT OGALO Acc. KBH,Completed,10000,,116500,TRUE,Pay Utility,254713205244 - ROBERT OGALO,,KBH
PI87N6GQM9,08/09/2021 16:29,08/09/2021 16:29,Pay Bill from 254724655033 - SUSAN CHIMOTO Acc. KGH,Completed,9500,,106500,TRUE,Pay Utility,254724655033 - SUSAN CHIMOTO,,KGH
PI82N445EC,08/09/2021 15:50,08/09/2021 15:50,Pay Bill from 254700050190 - ANGELA GATHONI NDEGWA Acc. KAH,Completed,15000,,97000,TRUE,Pay Utility,254700050190 - ANGELA GATHONI NDEGWA,,KAH
PI87MVPXY7,08/09/2021 13:23,08/09/2021 13:23,Pay Bill from 254727411231 - OBADIAH MASWAI Acc. JGJ,Completed,15000,,82000,TRUE,Pay Utility,254727411231 - OBADIAH MASWAI,,JGJ
PI81MU27QT,08/09/2021 12:54,08/09/2021 12:54,Pay Bill from 254723930071 - AMOS KITAVI KIVITE Acc. JCE,Completed,9000,,67000,TRUE,Pay Utility,254723930071 - AMOS KITAVI KIVITE,,JCE
PI80MORLQU,08/09/2021 11:19,08/09/2021 11:19,Pay Bill from 254708570729 - MARY OGOLLA Acc. KAD,Completed,25000,,58000,TRUE,Pay Utility,254708570729 - MARY OGOLLA,,KAD
PI80MN3KH0,08/09/2021 10:49,08/09/2021 10:49,Pay Bill from 254728238249 - ESTHER WANGUI KIBUNYI Acc. ICA,Completed,17000,,33000,TRUE,Pay Utility,254728238249 - ESTHER WANGUI KIBUNYI,,ICA
PI85MLN2S9,08/09/2021 10:22,08/09/2021 10:22,Pay Bill from 254720496449 - STANLEY KIPKOECH RONO Acc. FBE,Completed,16000,,16000,TRUE,Pay Utility,254720496449 - STANLEY KIPKOECH RONO,,FBE
PI80MJ7L0Q,08/09/2021 09:35,08/09/2021 09:35,Utility Account to Organization Settlement Account,Completed,,-528000,0,TRUE,Utility Account to Organization Settlement Account,979524 - ANCIENT WELLS PROPERTY MANAGERS 2,,
PI80MIM3QY,08/09/2021 09:23,08/09/2021 09:23,Pay Bill from 254713159153 - GUYO SANKALA Acc. DGD,Completed,20000,,528000,TRUE,Pay Utility,254713159153 - GUYO SANKALA,,DGD
PI87MBACBB,08/09/2021 01:02,08/09/2021 01:02,Pay Bill from 254703935626 - DAVID NGARI ITA Acc. FCD,Completed,1000,,508000,TRUE,Pay Utility with OD via STK,254703935626 - DAVID NGARI ITA,,FCD
PI75M53W5D,07/09/2021 20:42,07/09/2021 20:42,Pay Bill from 254717985596 - NICHOLAS KIPKOECH BUTIA Acc. hcf,Completed,9000,,507000,TRUE,Pay Utility,254717985596 - NICHOLAS KIPKOECH BUTIA,,hcf
PI78M4D8T2,07/09/2021 20:30,07/09/2021 20:30,Pay Bill from 254708499439 - ROSE NDEDE Acc. HGF,Completed,9000,,498000,TRUE,Pay Utility,254708499439 - ROSE NDEDE,,HGF
PI72LZTVFG,07/09/2021 19:31,07/09/2021 19:31,Pay Bill from 254704833344 - LOISE KIMANI Acc. jfa,Completed,20000,,489000,TRUE,Pay Utility,254704833344 - LOISE KIMANI,,jfa
PI73LZ7WV7,07/09/2021 19:24,07/09/2021 19:24,Pay Bill from 254700050190 - ANGELA GATHONI NDEGWA Acc. KAH,Completed,10000,,469000,TRUE,Pay Utility,254700050190 - ANGELA GATHONI NDEGWA,,KAH
PI75LW6MJP,07/09/2021 18:52,07/09/2021 18:52,Pay Bill from 254716260268 - LUCY MUTHONI NJIRU Acc. HCB,Completed,16000,,459000,TRUE,Pay Utility,254716260268 - LUCY MUTHONI NJIRU,,HCB
PI73LOQPNT,07/09/2021 17:11,07/09/2021 17:11,Pay Bill from 254798643998 - Judith Mwaniki Acc. kce,Completed,10000,,443000,TRUE,Pay Utility,254798643998 - Judith Mwaniki,,kce
PI76LN4NDM,07/09/2021 16:45,07/09/2021 16:45,Pay Bill Online from 254722769473 - SAMSON CHALO Acc. IAB,Completed,15000,,433000,TRUE,Pay Bill Online,254722769473 - SAMSON CHALO,,IAB
PI72LI60OI,07/09/2021 15:16,07/09/2021 15:16,Pay Bill from 0795068880 - Patrick   Kiplagat Acc. KAG,Completed,10000,,418000,TRUE,Pay Utility,0795068880 - Patrick   Kiplagat,,KAG
PI75L6LOL7,07/09/2021 11:36,07/09/2021 11:36,Pay Bill from 254726172957 - VINCENT OLIENG' Acc. HBC ,Completed,10000,,408000,TRUE,Pay Utility,254726172957 - VINCENT OLIENG',,HBC
PI73L4SGNV,07/09/2021 11:00,07/09/2021 11:00,Pay Bill Online from 254728687482 - KELSEN MWIRIGI MUTIGA Acc. HCE,Completed,10500,,398000,TRUE,Pay Bill Online,254728687482 - KELSEN MWIRIGI MUTIGA,,HCE
PI72L48R9I,07/09/2021 10:49,07/09/2021 10:49,Pay Bill from 254729541871 - ROBERT KULEI Acc. JAB,Completed,5000,,387500,TRUE,Pay Utility,254729541871 - ROBERT KULEI,,JAB
PI73L0H2U3,07/09/2021 09:33,07/09/2021 09:33,Pay Bill from 254712954563 - JOSEPH MUTISO KILONZO Acc. DAC,Completed,20000,,382500,TRUE,Pay Utility,254712954563 - JOSEPH MUTISO KILONZO,,DAC
PI76KXX9WY,07/09/2021 08:37,07/09/2021 08:37,FSI to Pay Bill by 714888 - B2C LOOP VIA NCBA Acc. FAD via WEB by B2C LOOP VIA NCBA\Cbainitiator,Completed,11000,,362500,TRUE,FSI to Pay Bill via API,714888 - B2C LOOP VIA NCBA,,FAD
PI78KV9V6Q,07/09/2021 07:27,07/09/2021 07:27,Pay Bill from 254724006242 - JOAN CHEBET Acc. JEG,Completed,9000,,351500,TRUE,Pay Utility,254724006242 - JOAN CHEBET,,JEG
PI74KTC9GI,07/09/2021 05:14,07/09/2021 05:14,Pay Bill Online from 254722521028 - CHARLES MONYONCHO Acc. ICB,Completed,17000,,342500,TRUE,Pay Bill Online,254722521028 - CHARLES MONYONCHO,,ICB
PI66KRO2XU,06/09/2021 22:46,06/09/2021 22:46,Pay Bill from 254725771056 - CHARLES MURAGURI Acc. FCE,Completed,15000,,325500,TRUE,Pay Utility,254725771056 - CHARLES MURAGURI,,FCE
PI68KRJH2I,06/09/2021 22:38,06/09/2021 22:38,Pay Bill from 254703935626 - DAVID NGARI ITA Acc. FCD,Completed,1000,,310500,TRUE,Pay Utility,254703935626 - DAVID NGARI ITA,,FCD
PI64KRI5EK,06/09/2021 22:37,06/09/2021 22:37,Pay Bill from 254721315975 - JOSEPH NDEGWA Acc. HEB,Completed,16000,,309500,TRUE,Pay Utility,254721315975 - JOSEPH NDEGWA,,HEB
PI69KQ3Y7T,06/09/2021 21:48,06/09/2021 21:48,Pay Bill from 254729590734 - PATRICK NDUNGA Acc. IDD,Completed,10000,,293500,TRUE,Pay Utility,254729590734 - PATRICK NDUNGA,,IDD
PI65KQ0KJ5,06/09/2021 21:45,06/09/2021 21:45,Pay Bill Online from 254707282140 - JECINTA NDUGIRE Acc. KDA,Completed,17000,,283500,TRUE,Pay Bill Online,254707282140 - JECINTA NDUGIRE,,KDA
PI65KNMLVN,06/09/2021 20:55,06/09/2021 20:55,Pay Bill Online from 254720044312 - ELIUD KIPKURUI Acc. FCF,Completed,17000,,266500,TRUE,Pay Bill Online,254720044312 - ELIUD KIPKURUI,,FCF
PI65KKSSQD,06/09/2021 20:10,06/09/2021 20:10,Pay Bill from 254758140048 - ABDULKADIR ABASS DAHIR Acc. KAB,Completed,16000,,249500,TRUE,Pay Utility,254758140048 - ABDULKADIR ABASS DAHIR,,KAB
PI64KG122I,06/09/2021 19:12,06/09/2021 19:12,Pay Bill from 254707715639 - Annastacia Kimeu Acc. JFC,Completed,10000,,233500,TRUE,Pay Utility,254707715639 - Annastacia Kimeu,,JFC
PI66KE4S28,06/09/2021 18:51,06/09/2021 18:51,Pay Bill Online from 254725218904 - SALOME MUTHONI MWANGI Acc. KFJ,Completed,15000,,223500,TRUE,Pay Bill Online,254725218904 - SALOME MUTHONI MWANGI,,KFJ
PI67KDBYY5,06/09/2021 18:42,06/09/2021 18:42,Pay Bill from 254719779657 - SAMUEL NJOROGE Acc. JGA,Completed,20000,,208500,TRUE,Pay Utility with OD via STK,254719779657 - SAMUEL NJOROGE,,JGA
PI62K9DNNY,06/09/2021 17:51,06/09/2021 17:51,Pay Bill from 254729355933 - FELISTAH NJERI WAIRIMU Acc. IDI,Completed,15000,,188500,TRUE,Pay Utility,254729355933 - FELISTAH NJERI WAIRIMU,,IDI
PI69K6UHOR,06/09/2021 17:14,06/09/2021 17:14,Pay Bill Online from 254705951407 - CAROLINE WAITHIRA KAMAU Acc. IDH,Completed,16000,,173500,TRUE,Pay Bill Online,254705951407 - CAROLINE WAITHIRA KAMAU,,IDH
PI67K6NUJT,06/09/2021 17:11,06/09/2021 17:11,Pay Bill Online from 254716328009 - IRENE ODHIAMBO Acc. KGG,Completed,9000,,157500,TRUE,Pay Bill Online,254716328009 - IRENE ODHIAMBO,,KGG
PI69K2IY2D,06/09/2021 16:02,06/09/2021 16:02,Pay Bill Online from 254720381965 - JAMES NGUGI MWANIKI Acc. JBI,Completed,20000,,148500,TRUE,Pay Bill Online,254720381965 - JAMES NGUGI MWANIKI,,JBI
PI69K15R7T,06/09/2021 15:38,06/09/2021 15:38,Pay Bill Online from 254718911865 - KENNEDY KELI KATUNGII Acc. HDF,Completed,9000,,128500,TRUE,Pay Bill Online,254718911865 - KENNEDY KELI KATUNGII,,HDF
PI60K0G1KI,06/09/2021 15:25,06/09/2021 15:25,Pay Bill from 254720029066 - EVANS CHERUYOT ROTICH Acc. KFI,Completed,5500,,119500,TRUE,Pay Utility,254720029066 - EVANS CHERUYOT ROTICH,,KFI
PI66JUSMTI,06/09/2021 13:42,06/09/2021 13:42,Pay Bill Online from 0724386624 - FATUMA ISSE YUSSUF Acc. FAB,Completed,16000,,114000,TRUE,Pay Utility with OD Online,0724386624 - FATUMA ISSE YUSSUF,,FAB
PI65JUKJF7,06/09/2021 13:38,06/09/2021 13:38,Pay Bill from 0722925798 - ifrah abukar adan Acc. IEI,Completed,15000,,98000,TRUE,Pay Utility,0722925798 - ifrah abukar adan,,IEI
PI63JQO2RZ,06/09/2021 12:26,06/09/2021 12:26,Pay Bill from 254726687555 - ELIUD MUTHURE MICHENI Acc. KAI,Completed,12000,,83000,TRUE,Pay Utility,254726687555 - ELIUD MUTHURE MICHENI,,KAI
PI67JIQO05,06/09/2021 09:54,06/09/2021 09:54,Pay Bill from 254729713741 - ALBANUS MUTISO Acc. DDC,Completed,20000,,71000,TRUE,Pay Utility,254729713741 - ALBANUS MUTISO,,DDC
PI69JH94MN,06/09/2021 09:25,06/09/2021 09:25,Pay Bill from 254722136450 - MARY EVERLYN Acc. JAI,Completed,13000,,51000,TRUE,Pay Utility with OD via STK,254722136450 - MARY EVERLYN,,JAI
PI61JG97GJ,06/09/2021 09:04,06/09/2021 09:04,Pay Bill from 254723699555 - DIANA NYAIREGI GICHIA Acc. FBF,Completed,6000,,38000,TRUE,Pay Utility,254723699555 - DIANA NYAIREGI GICHIA,,FBF
PI62JFQLYC,06/09/2021 08:53,06/09/2021 08:53,Pay Bill from 254720868281 - KENNEDY MWELU Acc. KBI,Completed,12500,,32000,TRUE,Pay Utility,254720868281 - KENNEDY MWELU,,KBI
PI67JFGL3D,06/09/2021 08:46,06/09/2021 08:46,Pay Bill from 254718233980 - KAREN ASWANI Acc. HEC,Completed,10500,,19500,TRUE,Pay Utility,254718233980 - KAREN ASWANI,,HEC
PI68JELL3A,06/09/2021 08:27,06/09/2021 08:27,Pay Bill from 254720511734 - ENOCK KIBET Acc. FDC,Completed,9000,,9000,TRUE,Pay Utility,254720511734 - ENOCK KIBET,,FDC
PI60JCXE3Y,06/09/2021 07:44,06/09/2021 07:44,Utility Account to Organization Settlement Account,Completed,,-736100,0,TRUE,Utility Account to Organization Settlement Account,979524 - ANCIENT WELLS PROPERTY MANAGERS 2,,
PI65JBVA6D,06/09/2021 07:09,06/09/2021 07:09,Pay Bill from 0757721640 - PURITY KANYUA NJERU Acc. Hdg,Completed,15000,,736100,TRUE,Pay Utility,0757721640 - PURITY KANYUA NJERU,,Hdg
PI68JA4GCW,06/09/2021 03:24,06/09/2021 03:24,Pay Bill from 254720351482 - Cheruiyot Langat Brian Acc. dfa,Completed,15000,,721100,TRUE,Pay Utility with OD via STK,254720351482 - Cheruiyot Langat Brian,,dfa
