Receipt No.,Completion Time,Initiation Time,Details,Transaction Status,Paid In,Withdrawn,Balance,Balance Confirmed,Reason Type,Other Party Info,Linked Transaction ID,A/C No.
QCH4TEJCCS,17/03/2022 12:58,17/03/2022 12:58,Pay Bill from 254719779657 - SAMUEL NJOROGE Acc. JGA,Completed,3200,,3200,TRUE,Pay Utility with OD via STK,254719779657 - SAMUEL NJOROGE,,JGA
QCH0T1ST3A,17/03/2022 09:36,17/03/2022 09:36,Utility Account to Organization Settlement Account,Completed,,-8100,0,TRUE,Utility Account to Organization Settlement Account,846783 - ANCIENT WELLS LTD 4,,
QCH1STJ1CH,17/03/2022 06:08,17/03/2022 06:08,Pay Bill Online from 254704403532 - Mercy Chepchirchir Mary Acc. JBC,Completed,800,,8100,TRUE,Pay Bill Online,254704403532 - Mercy Chepchirchir Mary,,JBC
QCG4S63XHC,16/03/2022 18:38,16/03/2022 18:38,Pay Bill from 254722136450 - MARY EVERLYN Acc. JAI,Completed,1200,,7300,TRUE,Pay Utility with OD via STK,254722136450 - MARY EVERLYN,,JAI
QCG9QVJSH3,16/03/2022 02:16,16/03/2022 02:16,Pay Bill from 254791318982 - ADULLAHI HASSAN Acc. JCI,Completed,1600,,6100,TRUE,Pay Utility,254791318982 - ADULLAHI HASSAN,,JCI
QCF4QQO1U2,15/03/2022 21:50,15/03/2022 21:50,Pay Bill from 254722746480 - PATRICK OPEYWA AURA Acc. KGH,Completed,800,,4500,TRUE,Pay Utility,254722746480 - PATRICK OPEYWA AURA,,KGH
QCF5PS3I65,15/03/2022 14:45,15/03/2022 14:45,Pay Bill from 254706322764 - GEORGE OUMA OCHOLA Acc. JDF,Completed,500,,3700,TRUE,Pay Utility,254706322764 - GEORGE OUMA OCHOLA,,JDF
QCF0P9YHKK,15/03/2022 10:03,15/03/2022 10:03,Pay Bill Online from 254704783091 - CLINTON MUSEBE KASUTI Acc. v48,Completed,400,,3200,TRUE,Pay Bill Online,254704783091 - CLINTON MUSEBE KASUTI,,v48
QCE6ONQU9O,14/03/2022 20:13,14/03/2022 20:13,Pay Bill from 254726337163 - HALIMA ALI HASSAN Acc. DDA,Completed,800,,2800,TRUE,Pay Utility,254726337163 - HALIMA ALI HASSAN,,DDA
QCE5OHZIY7,14/03/2022 19:19,14/03/2022 19:19,Pay Bill from 0790823150 - ALEX OMOLO OMONDI Acc. IGE,Completed,2000,,2000,TRUE,Pay Utility,0790823150 - ALEX OMOLO OMONDI,,IGE
QCE0NTGM4G,14/03/2022 13:59,14/03/2022 13:59,Utility Account to Organization Settlement Account,Completed,,-6150,0,TRUE,Utility Account to Organization Settlement Account,846783 - ANCIENT WELLS LTD 4,,
QCE5NNJZBJ,14/03/2022 12:32,14/03/2022 12:32,Pay Bill from 0796929370 - HALIMA BOYA GALMA Acc. DBC,Completed,1000,,6150,TRUE,Pay Utility with OD via STK,0796929370 - HALIMA BOYA GALMA,,DBC
QCD8MZ697Y,13/03/2022 22:02,13/03/2022 22:02,Pay Bill from 254715939283 - alex nyamai Acc. v07,Completed,400,,5150,TRUE,Pay Utility,254715939283 - alex nyamai,,v07
QCD8MK99LC,13/03/2022 18:55,13/03/2022 18:55,Pay Bill from 0799912339 - PETER KAMAU MURIU Acc. C5,Completed,400,,4750,TRUE,Pay Utility,0799912339 - PETER KAMAU MURIU,,C5
QCC2KYLPR0,12/03/2022 20:08,12/03/2022 20:08,Pay Bill from 254717465142 - EPHANTUS IRURA Acc. c4 muriithi,Completed,400,,4350,TRUE,Pay Utility,254717465142 - EPHANTUS IRURA,,c4
QCC3K1UEJJ,12/03/2022 13:24,12/03/2022 13:24,Pay Bill Online from 254714552193 - CHRISTOPHER OCHIENG Acc. JGI,Completed,1550,,3950,TRUE,Pay Bill Online,254714552193 - CHRISTOPHER OCHIENG,,JGI
QCC2JXUYB0,12/03/2022 12:26,12/03/2022 12:26,Pay Bill from 254797726484 - gideon marubua kiburu Acc. JBB,Completed,600,,2400,TRUE,Pay Utility,254797726484 - gideon marubua kiburu,,JBB
QCC4JH65M0,12/03/2022 08:01,12/03/2022 08:01,Pay Bill from 254706272908 - JOHNSTONE OKWARO Acc. B7,Completed,1800,,1800,TRUE,Pay Utility,254706272908 - JOHNSTONE OKWARO,,B7
QCB2IDC1QC,11/03/2022 15:59,11/03/2022 15:59,Utility Account to Organization Settlement Account,Completed,,-13250,0,TRUE,Utility Account to Organization Settlement Account,846783 - ANCIENT WELLS LTD 4,,
QCB1I93R8V,11/03/2022 14:56,11/03/2022 14:56,Pay Bill from 254701741613 - ELDERKIN AKOSA Acc. IFB,Completed,600,,13250,TRUE,Pay Utility,254701741613 - ELDERKIN AKOSA,,IFB
QCB9HWLVZD,11/03/2022 11:53,11/03/2022 11:53,Pay Bill Online from 254713295711 - JAMES CHEGE KAMAU Acc. A2,Completed,200,,12650,TRUE,Pay Bill Online,254713295711 - JAMES CHEGE KAMAU,,A2
QCB8HVBOGY,11/03/2022 11:34,11/03/2022 11:34,Pay Bill from 254726651764 - NICHOLAS MWANZIA Acc. HBE,Completed,1000,,12450,TRUE,Pay Utility,254726651764 - NICHOLAS MWANZIA,,HBE
QCB4HQLNIO,11/03/2022 10:23,11/03/2022 10:23,Pay Bill from 254724466518 - EUNICE NDUTA Acc. KFF,Completed,500,,11450,TRUE,Pay Utility,254724466518 - EUNICE NDUTA,,KFF
QCB7HH8S5R,11/03/2022 07:42,11/03/2022 07:42,Pay Bill from 254726028330 - JOHN WAMBUA Acc. IFH,Completed,1000,,10950,TRUE,Pay Utility with OD via STK,254726028330 - JOHN WAMBUA,,IFH
QCA0H9AMA2,10/03/2022 21:56,10/03/2022 21:56,Pay Bill from 254708499439 - ROSE NDEDE Acc. HGF,Completed,500,,9950,TRUE,Pay Utility,254708499439 - ROSE NDEDE,,HGF
QCA6GSABEM,10/03/2022 18:50,10/03/2022 18:50,Pay Bill from 0715030019 - Omwenga Ong'era Stephen Acc. E1,Completed,200,,9450,TRUE,Pay Utility,0715030019 - Omwenga Ong'era Stephen,,E1
QCA6GHOA5E,10/03/2022 16:43,10/03/2022 16:43,Pay Bill from 254710635630 - DONNA JESSICA OWANO Acc. KCC,Completed,200,,9250,TRUE,Pay Utility,254710635630 - DONNA JESSICA OWANO,,KCC
QCA8FZ53W8,10/03/2022 12:11,10/03/2022 12:11,Pay Bill from 254758070694 - naomi ndinda nzamalu Acc. v28,Completed,800,,9050,TRUE,Pay Utility,254758070694 - naomi ndinda nzamalu,,v28
QC94FDQURI,09/03/2022 23:04,09/03/2022 23:04,Pay Bill from 254706248362 - BERYL HUMA Acc. E5,Completed,400,,8250,TRUE,Pay Utility with OD via STK,254706248362 - BERYL HUMA,,E5
QC93F6Q2IL,09/03/2022 20:51,09/03/2022 20:51,Pay Bill from 0719349205 - Christabel Gakii Munene Acc. D1,Completed,400,,7850,TRUE,Pay Utility,0719349205 - Christabel Gakii Munene,,D1
QC94EMYHL6,09/03/2022 17:28,09/03/2022 17:28,Pay Bill Online from 254704995854 - james karanja wairimu Acc. V54,Completed,100,,7450,TRUE,Pay Bill Online,254704995854 - james karanja wairimu,,V54
QC97EMQIHF,09/03/2022 17:25,09/03/2022 17:25,Pay Bill Online from 254704995854 - james karanja wairimu Acc. V54,Completed,100,,7350,TRUE,Pay Bill Online,254704995854 - james karanja wairimu,,V54
QC96ECLF4K,09/03/2022 15:02,09/03/2022 15:02,Pay Bill Online from 254718359438 - AHMAD TAHIR MACHENGO Acc. V11,Completed,200,,7250,TRUE,Pay Bill Online,254718359438 - AHMAD TAHIR MACHENGO,,V11
QC92DJZZ0A,09/03/2022 07:31,09/03/2022 07:31,Pay Bill from 254707568664 - Ismael Kitsao Acc. v52,Completed,400,,7050,TRUE,Pay Utility,254707568664 - Ismael Kitsao,,v52
QC94DH0UNQ,09/03/2022 02:15,09/03/2022 02:15,Pay Bill from 254719701463 - MARY KANYI KIARIE Acc. v17,Completed,250,,6650,TRUE,Pay Utility with OD via STK,254719701463 - MARY KANYI KIARIE,,v17
QC84D4D2AC,08/03/2022 20:10,08/03/2022 20:10,Pay Bill from 254720107609 - DENNIS OGENDI BARAKE Acc. JAJ,Completed,800,,6400,TRUE,Pay Utility,254720107609 - DENNIS OGENDI BARAKE,,JAJ
QC89D0JSEZ,08/03/2022 19:34,08/03/2022 19:34,Pay Bill from 254712974871 - PAULA WANJIKU GATUI Acc. hea,Completed,800,,5600,TRUE,Pay Utility,254712974871 - PAULA WANJIKU GATUI,,hea
QC89CMHU35,08/03/2022 17:04,08/03/2022 17:04,Pay Bill Online from 254703176849 - ROYAL MUYA Acc. F2,Completed,400,,4800,TRUE,Pay Bill Online,254703176849 - ROYAL MUYA,,F2
QC86CKNG6E,08/03/2022 16:38,08/03/2022 16:38,Pay Bill Online from 254713966424 - NDUTI MUTHUI Acc. jed,Completed,1000,,4400,TRUE,Pay Bill Online,254713966424 - NDUTI MUTHUI,,jed
QC89CGMPYF,08/03/2022 15:40,08/03/2022 15:40,Pay Bill from 0115054975 - faith syovata joseph Acc. IBC,Completed,3000,,3400,TRUE,Pay Utility,0115054975 - faith syovata joseph,,IBC
QC80C6EBGQ,08/03/2022 13:11,08/03/2022 13:11,Pay Bill Online from 254701196539 - GICHURI KARANJA Acc. fee,Completed,400,,400,TRUE,Pay Bill Online,254701196539 - GICHURI KARANJA,,fee
QC87BQDLRT,08/03/2022 09:10,08/03/2022 09:10,Utility Account to Organization Settlement Account,Completed,,-26950,0,TRUE,Utility Account to Organization Settlement Account,846783 - ANCIENT WELLS LTD 4,,
QC84BQ4S14,08/03/2022 09:05,08/03/2022 09:05,Pay Bill from 0717441870 - Steven oduor ogutu Acc. KTE,Completed,800,,26950,TRUE,Pay Utility,0717441870 - Steven oduor ogutu,,KTE
QC72BG6JIW,07/03/2022 22:50,07/03/2022 22:50,Pay Bill Online from 254720062144 - CAROLINE AMONDI OKELO Acc. f4,Completed,400,,26150,TRUE,Pay Utility with OD Online,254720062144 - CAROLINE AMONDI OKELO,,f4
QC75BG3BW7,07/03/2022 22:47,07/03/2022 22:47,Pay Bill from 254715347429 - Faith Akinyi Odhiambo Acc. DAC,Completed,2000,,25750,TRUE,Pay Utility,254715347429 - Faith Akinyi Odhiambo,,DAC
QC70BEE7LI,07/03/2022 22:04,07/03/2022 22:04,Pay Bill Online from 254715892656 - DENNIS MUSYOKA MUOKI Acc. KFA,Completed,400,,23750,TRUE,Pay Bill Online,254715892656 - DENNIS MUSYOKA MUOKI,,KFA
QC72BE7QDQ,07/03/2022 22:00,07/03/2022 22:00,Pay Bill from 254714536026 - LILIAN AWUOR ONYANGO Acc. HDC,Completed,200,,23350,TRUE,Pay Utility,254714536026 - LILIAN AWUOR ONYANGO,,HDC
QC77B83GWH,07/03/2022 20:34,07/03/2022 20:34,Pay Bill from 254798844460 - WYCLIFFE ODHIAMBO NYAGOA Acc. KAC,Completed,400,,23150,TRUE,Pay Utility,254798844460 - WYCLIFFE ODHIAMBO NYAGOA,,KAC
QC70B3F07E,07/03/2022 19:47,07/03/2022 19:47,Pay Bill from 254729371750 - DERRICK OTANGA Acc. FEF,Completed,600,,22750,TRUE,Pay Utility,254729371750 - DERRICK OTANGA,,FEF
QC79AZ28FT,07/03/2022 19:09,07/03/2022 19:09,Pay Bill from 254708875278 - ROSEMARY WANJIRU KONYE Acc. Hbf,Completed,400,,22150,TRUE,Pay Utility,254708875278 - ROSEMARY WANJIRU KONYE,,Hbf
QC72AJOLWG,07/03/2022 16:10,07/03/2022 16:10,Pay Bill from 254722706516 - KORIR ANTHONY Acc. Anthony D 3,Completed,200,,21750,TRUE,Pay Utility,254722706516 - KORIR ANTHONY,,Anthony
QC79ADT97L,07/03/2022 14:43,07/03/2022 14:43,Pay Bill from 254713229967 - John Mugabo Simba Acc. E4,Completed,600,,21550,TRUE,Pay Utility,254713229967 - John Mugabo Simba,,E4
QC77AAY89L,07/03/2022 14:01,07/03/2022 14:01,Pay Bill Online from 254714597495 - WAMBUA KIOKO Acc. C1,Completed,800,,20950,TRUE,Pay Bill Online,254714597495 - WAMBUA KIOKO,,C1
QC73A79EF3,07/03/2022 13:09,07/03/2022 13:09,Pay Bill from 254703108159 - JOICE OGOLLA Acc. V50,Completed,400,,20150,TRUE,Pay Utility,254703108159 - JOICE OGOLLA,,V50
QC77A653PX,07/03/2022 12:53,07/03/2022 12:53,Pay Bill from 254725385966 - JOSEPH MUYA MARUA Acc. KEE,Completed,700,,19750,TRUE,Pay Utility with OD via STK,254725385966 - JOSEPH MUYA MARUA,,KEE
QC75A4IZWV,07/03/2022 12:29,07/03/2022 12:29,Pay Bill from 254704934557 - BAKARI KITSAKA Acc. JEI,Completed,600,,19050,TRUE,Pay Utility,254704934557 - BAKARI KITSAKA,,JEI
QC71A2UYW3,07/03/2022 12:05,07/03/2022 12:05,Pay Bill Online from 254724882554 - ALPHONCE WAMBUA NGELI Acc. JDA,Completed,2200,,18450,TRUE,Pay Bill Online,254724882554 - ALPHONCE WAMBUA NGELI,,JDA
QC72A16D1Q,07/03/2022 11:40,07/03/2022 11:40,Pay Bill Online from 254722769473 - SAMSON CHALO Acc. IAB,Completed,400,,16250,TRUE,Pay Bill Online,254722769473 - SAMSON CHALO,,IAB
QC74A09UT6,07/03/2022 11:26,07/03/2022 11:26,Merchant Pay Utility Received from 7427584 -     SELLUHTECH INVESTMENTS Acc. FBC,Completed,600,,15850,TRUE,Merchant Pay Utility via API,7427584 -     SELLUHTECH INVESTMENTS,,FBC
QC719UJY81,07/03/2022 10:00,07/03/2022 10:00,Pay Bill from 254720381965 - JAMES NGUGI MWANIKI Acc. JBI,Completed,3000,,15250,TRUE,Pay Utility,254720381965 - JAMES NGUGI MWANIKI,,JBI
QC709OUSEK,07/03/2022 08:26,07/03/2022 08:26,Pay Bill from 254718233980 - KAREN ASWANI Acc. HEC ,Completed,1200,,12250,TRUE,Pay Utility,254718233980 - KAREN ASWANI,,HEC
QC789K7BJM,07/03/2022 06:13,07/03/2022 06:13,Pay Bill Online from 254726465584 - JULIANA MUKELI MUTUNGA Acc. v4,Completed,600,,11050,TRUE,Pay Bill Online,254726465584 - JULIANA MUKELI MUTUNGA,,v4
QC689FM3I6,06/03/2022 22:17,06/03/2022 22:17,Pay Bill from 254712614146 - SOPHIE MUENI MUVITHU Acc. Sophie Mueni Hse U6 ,Completed,450,,10450,TRUE,Pay Utility,254712614146 - SOPHIE MUENI MUVITHU,,Sophie
QC649B8P6A,06/03/2022 21:05,06/03/2022 21:05,Pay Bill from 0704120519 - Mildred   Adhiambo Acc. G1,Completed,200,,10000,TRUE,Pay Utility,0704120519 - Mildred   Adhiambo,,G1
QC6599E9Q3,06/03/2022 20:41,06/03/2022 20:41,Pay Bill Online from 254711877988 - PATRICK KONZI Acc. b4,Completed,400,,9800,TRUE,Pay Bill Online,254711877988 - PATRICK KONZI,,b4
QC668LYBHA,06/03/2022 16:06,06/03/2022 16:06,Pay Bill from 0711769778 - PROTASIA BONIPHACE MANOSA Acc. IBB,Completed,1400,,9400,TRUE,Pay Utility,0711769778 - PROTASIA BONIPHACE MANOSA,,IBB
QC648JS1KS,06/03/2022 15:34,06/03/2022 15:34,Pay Bill from 254725754547 - MWACHIRO GEORGE DECHE Acc. DFC,Completed,2000,,8000,TRUE,Pay Utility,254725754547 - MWACHIRO GEORGE DECHE,,DFC
QC698EGWEZ,06/03/2022 14:16,06/03/2022 14:16,Pay Bill from 254725478531 - KIPKORIR KUTO Acc. DFB,Completed,600,,6000,TRUE,Pay Utility,254725478531 - KIPKORIR KUTO,,DFB
QC698A96SD,06/03/2022 13:12,06/03/2022 13:12,Pay Bill from 254720278119 - LINDAH OGAWO Acc. kfe,Completed,200,,5400,TRUE,Pay Utility,254720278119 - LINDAH OGAWO,,kfe
QC6183R8MX,06/03/2022 11:26,06/03/2022 11:26,Pay Bill Online from 254705846408 - JAMES OUMA Acc. HBH,Completed,600,,5200,TRUE,Pay Bill Online,254705846408 - JAMES OUMA,,HBH
QC507MPVTQ,05/03/2022 23:18,05/03/2022 23:18,Pay Bill from 254729355933 - FELISTAH NJERI WAIRIMU Acc. IDI,Completed,2400,,4600,TRUE,Pay Utility with OD via STK,254729355933 - FELISTAH NJERI WAIRIMU,,IDI
QC557KMHVX,05/03/2022 22:18,05/03/2022 22:18,Pay Bill Online from 254710732381 - JANE ACHIENG MBEKE Acc. HAF,Completed,200,,2200,TRUE,Pay Bill Online,254710732381 - JANE ACHIENG MBEKE,,HAF
QC547IJBLS,05/03/2022 21:41,05/03/2022 21:41,Pay Bill Online from 254721465713 - RHODA WAMBUI MWANGI Acc. jfh,Completed,800,,2000,TRUE,Pay Utility with OD Online,254721465713 - RHODA WAMBUI MWANGI,,jfh
QC597GZDOT,05/03/2022 21:19,05/03/2022 21:19,Pay Bill from 254718818610 - HANNAH NALIAKA Acc. v23,Completed,400,,1200,TRUE,Pay Utility,254718818610 - HANNAH NALIAKA,,v23
QC537DJVML,05/03/2022 20:37,05/03/2022 20:37,Pay Bill from 0769960650 - DORIS WAMARWA MURIUKI Acc. KEC,Completed,800,,800,TRUE,Pay Utility,0769960650 - DORIS WAMARWA MURIUKI,,KEC
QC506U7SIG,05/03/2022 17:25,05/03/2022 17:25,Utility Account to Organization Settlement Account,Completed,,-30450,0,TRUE,Utility Account to Organization Settlement Account,846783 - ANCIENT WELLS LTD 4,,
QC536N164X,05/03/2022 15:52,05/03/2022 15:52,Pay Bill from 254722282754 - HENRY SAHA Acc. V34,Completed,400,,30450,TRUE,Pay Utility,254722282754 - HENRY SAHA,,V34
QC566MDB0O,05/03/2022 15:43,05/03/2022 15:43,Pay Bill Online from 0700206427 - Clare Nabalisa Mukasa Acc. HFA,Completed,600,,30050,TRUE,Pay Bill Online,0700206427 - Clare Nabalisa Mukasa,,HFA
QC566EOD6I,05/03/2022 13:58,05/03/2022 13:58,Pay Bill from 254723815832 - SEMEKIA ONDIALA Acc. v38,Completed,800,,29450,TRUE,Pay Utility,254723815832 - SEMEKIA ONDIALA,,v38
QC566AGAMW,05/03/2022 13:01,05/03/2022 13:01,Pay Bill from 254799287000 - Godfrey odhiambo oyugi Acc. kae,Completed,250,,28650,TRUE,Pay Utility with OD via STK,254799287000 - Godfrey odhiambo oyugi,,kae
QC5665IANE,05/03/2022 11:52,05/03/2022 11:52,Pay Bill from 254723499628 - CLINTON JOSEPH MUHARI Acc. hfh,Completed,800,,28400,TRUE,Pay Utility,254723499628 - CLINTON JOSEPH MUHARI,,hfh
QC58629X80,05/03/2022 11:06,05/03/2022 11:06,Pay Bill from 254724103759 - RICHARD NKAABO Acc. jej,Completed,1200,,27600,TRUE,Pay Utility,254724103759 - RICHARD NKAABO,,jej
QC525ZN0V8,05/03/2022 10:29,05/03/2022 10:29,Pay Bill Online from 254724005780 - IVY MARGARET OGOLA Acc. FFB,Completed,600,,26400,TRUE,Pay Bill Online,254724005780 - IVY MARGARET OGOLA,,FFB
QC555WC6V9,05/03/2022 09:40,05/03/2022 09:40,Pay Bill Online from 0724386624 - FATUMA ISSE YUSSUF Acc. FAB,Completed,800,,25800,TRUE,Pay Bill Online,0724386624 - FATUMA ISSE YUSSUF,,FAB
QC565PY73C,05/03/2022 07:49,05/03/2022 07:49,Pay Bill from 254724694917 - ROSE NJERI KARANJA Acc. jfa,Completed,1000,,25000,TRUE,Pay Utility,254724694917 - ROSE NJERI KARANJA,,jfa
QC405I1YTS,04/03/2022 22:22,04/03/2022 22:22,Pay Bill Online from 254720062144 - CAROLINE AMONDI OKELO Acc. f4,Completed,14000,,24000,TRUE,Pay Bill Online,254720062144 - CAROLINE AMONDI OKELO,,f4
QC405D5SEK,04/03/2022 21:06,04/03/2022 21:06,Pay Bill Online from 254704033042 - LESLIE KOIKAI Acc. IBD ,Completed,800,,10000,TRUE,Pay Bill Online,254704033042 - LESLIE KOIKAI,,IBD
QC42543KWS,04/03/2022 19:36,04/03/2022 19:36,Pay Bill from 254723341864 - WILLIAM OSIEL WACHUDI Acc. DED,Completed,3000,,9200,TRUE,Pay Utility with OD via STK,254723341864 - WILLIAM OSIEL WACHUDI,,DED
QC434VH8QH,04/03/2022 18:15,04/03/2022 18:15,Pay Bill from 254740579741 - MUHINDI MULINYA Acc. HGG,Completed,1600,,6200,TRUE,Pay Utility,254740579741 - MUHINDI MULINYA,,HGG
QC464TGIAE,04/03/2022 17:53,04/03/2022 17:53,Pay Bill Online from 254710382992 - SIMON KAMAU MUIRURI Acc. JCD,Completed,800,,4600,TRUE,Pay Utility with OD Online,254710382992 - SIMON KAMAU MUIRURI,,JCD
QC414T1SKT,04/03/2022 17:48,04/03/2022 17:48,Pay Bill from 0795649746 - FOWZIA MOHAMED ADAN Acc. jaa,Completed,800,,3800,TRUE,Pay Utility,0795649746 - FOWZIA MOHAMED ADAN,,jaa
QC494MWL4B,04/03/2022 16:33,04/03/2022 16:33,Pay Bill from 254724543362 - MERCY CHEPKOGEI KIPRONO Acc. kdc,Completed,1000,,3000,TRUE,Pay Utility,254724543362 - MERCY CHEPKOGEI KIPRONO,,kdc
QC434MRH3F,04/03/2022 16:31,04/03/2022 16:31,Pay Bill Online from 254714855708 - KIPLANGAT SITIENEI Acc. FAE,Completed,1600,,2000,TRUE,Pay Bill Online,254714855708 - KIPLANGAT SITIENEI,,FAE
QC474HZZ4H,04/03/2022 15:26,04/03/2022 15:26,Pay Bill from 254798674917 - Egbe Okpaga Okpaga Acc. HAD,Completed,400,,400,TRUE,Pay Utility,254798674917 - Egbe Okpaga Okpaga,,HAD
QC474F0GQ1,04/03/2022 14:44,04/03/2022 14:44,Utility Account to Organization Settlement Account,Completed,,-6700,0,TRUE,Utility Account to Organization Settlement Account,846783 - ANCIENT WELLS LTD 4,,
QC4346Z3Z5,04/03/2022 12:53,04/03/2022 12:53,Pay Bill Online from 254706549634 - CLINTON OMBASA Acc. FDB,Completed,1000,,6700,TRUE,Pay Utility with OD Online,254706549634 - CLINTON OMBASA,,FDB
QC49449O17,04/03/2022 12:14,04/03/2022 12:14,Pay Bill Online from 254795510441 - LEWIS MUEMA Acc. KEB,Completed,400,,5700,TRUE,Pay Bill Online,254795510441 - LEWIS MUEMA,,KEB
QC453YI66D,04/03/2022 10:51,04/03/2022 10:51,Pay Bill from 0706563358 - HARRIET NYANCHAMA NYABERI Acc. FCC,Completed,400,,5300,TRUE,Pay Utility,0706563358 - HARRIET NYANCHAMA NYABERI,,FCC
QC413X8RU5,04/03/2022 10:32,04/03/2022 10:32,Pay Bill from 254719398942 - NORAH WAYUA MUNYAO Acc. KDA,Completed,1200,,4900,TRUE,Pay Utility,254719398942 - NORAH WAYUA MUNYAO,,KDA
QC473VHB6J,04/03/2022 10:06,04/03/2022 10:06,Pay Bill from 254708225541 - JUDITH NKATHA SIMBA Acc. HDH,Completed,800,,3700,TRUE,Pay Utility,254708225541 - JUDITH NKATHA SIMBA,,HDH
QC473PTQWR,04/03/2022 08:38,04/03/2022 08:38,Pay Bill from 254798643998 - Judith Mwaniki Acc. kce,Completed,1200,,2900,TRUE,Pay Utility,254798643998 - Judith Mwaniki,,kce
QC483LBAHQ,04/03/2022 07:01,04/03/2022 07:01,Pay Bill Online from 254742911013 - HANEST AMIMO Acc. IEG,Completed,400,,1700,TRUE,Pay Utility with OD Online,254742911013 - HANEST AMIMO,,IEG
QC322WK63O,03/03/2022 18:48,03/03/2022 18:48,Pay Bill from 254726636196 - BETHUEL KEMBOI KURUI Acc. JFD,Completed,400,,1300,TRUE,Pay Utility,254726636196 - BETHUEL KEMBOI KURUI,,JFD
QC372TO769,03/03/2022 18:17,03/03/2022 18:17,Pay Bill from 254706859500 - JULIA NJAMBI WAINAINA Acc. U4,Completed,600,,900,TRUE,Pay Utility,254706859500 - JULIA NJAMBI WAINAINA,,U4
QC382MOGVS,03/03/2022 16:55,03/03/2022 16:55,Pay Bill from 254714814264 - PATRICIA NZOMO Acc. Hbg,Completed,300,,300,TRUE,Pay Utility,254714814264 - PATRICIA NZOMO,,Hbg
QC302BQIL2,03/03/2022 14:20,03/03/2022 14:20,Utility Account to Organization Settlement Account,Completed,,-4000,0,TRUE,Utility Account to Organization Settlement Account,846783 - ANCIENT WELLS LTD 4,,
QC311ZJZLF,03/03/2022 11:28,03/03/2022 11:28,Pay Bill from 254725771056 - CHARLES MURAGURI Acc. FCE,Completed,500,,4000,TRUE,Pay Utility,254725771056 - CHARLES MURAGURI,,FCE
QC361TAAE2,03/03/2022 10:00,03/03/2022 10:00,Pay Bill Online from 254713498554 - HENRY KINYUA WARUI Acc. Henry V44,Completed,1100,,3500,TRUE,Pay Bill Online,254713498554 - HENRY KINYUA WARUI,,Henry
QC311SMQHH,03/03/2022 09:51,03/03/2022 09:51,Pay Bill Online from 254792187144 - HASSAN AHMED HASSAN Acc. KGI,Completed,800,,2400,TRUE,Pay Bill Online,254792187144 - HASSAN AHMED HASSAN,,KGI
QC301RS1T4,03/03/2022 09:39,03/03/2022 09:39,Pay Bill from 0796797612 - Daisy Dianaressa Naliaka Acc. jbf,Completed,400,,1600,TRUE,Pay Utility,0796797612 - Daisy Dianaressa Naliaka,,jbf
QC301MBA1U,03/03/2022 08:12,03/03/2022 08:12,Pay Bill Online from 254790627132 - Everline Mutave Kiio Acc. IGG,Completed,200,,1200,TRUE,Pay Bill Online,254790627132 - Everline Mutave Kiio,,IGG
QC321KK2RW,03/03/2022 07:39,03/03/2022 07:39,Pay Bill Online from 254725218904 - SALOME MUTHONI MWANGI Acc. KFJ,Completed,1000,,1000,TRUE,Pay Bill Online,254725218904 - SALOME MUTHONI MWANGI,,KFJ
QC361K9Z56,03/03/2022 07:33,03/03/2022 07:33,Utility Account to Organization Settlement Account,Completed,,-12999,0,TRUE,Utility Account to Organization Settlement Account,846783 - ANCIENT WELLS LTD 4,,
QC301IUDX0,03/03/2022 06:55,03/03/2022 06:55,Pay Bill from 254716702294 - DANIEL MULATI Acc. KBB,Completed,2000,,12999,TRUE,Pay Utility,254716702294 - DANIEL MULATI,,KBB
QC311ICBAT,03/03/2022 06:36,03/03/2022 06:36,Pay Bill from 254723929380 - RHODAH K WAMBUA Acc. HEF,Completed,800,,10999,TRUE,Pay Utility,254723929380 - RHODAH K WAMBUA,,HEF
QC231D3SPX,02/03/2022 22:29,02/03/2022 22:29,Pay Bill from 254790382466 - Lorraine Mwangi Acc. KGC,Completed,200,,10199,TRUE,Pay Utility,254790382466 - Lorraine Mwangi,,KGC
QC271BQ775,02/03/2022 22:02,02/03/2022 22:02,Pay Bill from 254741791919 - Linet Mongina Maraga Acc. u3,Completed,450,,9999,TRUE,Pay Utility,254741791919 - Linet Mongina Maraga,,u3
QC2014TOFM,02/03/2022 20:31,02/03/2022 20:31,Pay Bill Online from 254717809935 - LYDIAH WERU Acc. idc,Completed,600,,9549,TRUE,Pay Bill Online,254717809935 - LYDIAH WERU,,idc
QC23ZTNXEJ,02/03/2022 18:50,02/03/2022 18:50,Pay Bill from 254726753273 - JESSE K MURIRMI NJERU Acc. HCH,Completed,800,,8949,TRUE,Pay Utility,254726753273 - JESSE K MURIRMI NJERU,,HCH
QC29ZTH3AZ,02/03/2022 18:48,02/03/2022 18:48,Pay Bill from 254712091662 - BENARD OMONDI ROBY Acc. V16,Completed,400,,8149,TRUE,Pay Utility,254712091662 - BENARD OMONDI ROBY,,V16
QC25ZLGU2V,02/03/2022 17:19,02/03/2022 17:19,Pay Bill from 254718417450 - HARON ASUMA OROKO Acc. haron v47 ,Completed,400,,7749,TRUE,Pay Utility,254718417450 - HARON ASUMA OROKO,,haron
QC26ZJV25O,02/03/2022 16:58,02/03/2022 16:58,Pay Bill Online from 254718138578 - PAULINE KIOKO Acc. KFD,Completed,400,,7349,TRUE,Pay Bill Online,254718138578 - PAULINE KIOKO,,KFD
QC28ZIAOYM,02/03/2022 16:38,02/03/2022 16:38,Pay Bill from 0797758628 - jackline nyamari onyango Acc. ICF ,Completed,600,,6949,TRUE,Pay Utility,0797758628 - jackline nyamari onyango,,ICF
QC29ZGXOUV,02/03/2022 16:19,02/03/2022 16:19,Pay Bill from 254758140048 - ABDULKADIR ABASS DAHIR Acc. KAB,Completed,4200,,6349,TRUE,Pay Utility,254758140048 - ABDULKADIR ABASS DAHIR,,KAB
QC22ZF34BE,02/03/2022 15:53,02/03/2022 15:53,Pay Bill from 254799287000 - Godfrey odhiambo oyugi Acc. kae,Completed,280,,2149,TRUE,Pay Utility,254799287000 - Godfrey odhiambo oyugi,,kae
QC22Z72TZE,02/03/2022 13:57,02/03/2022 13:57,Pay Bill from 254718244582 - GRANT WANANGWE Acc. KAH,Completed,469,,1869,TRUE,Pay Utility,254718244582 - GRANT WANANGWE,,KAH
QC22Z3213I,02/03/2022 13:01,02/03/2022 13:01,Pay Bill from 254729450678 - GRACE NDUNGE Acc. fba,Completed,400,,1400,TRUE,Pay Utility,254729450678 - GRACE NDUNGE,,fba
QC22Z0BYSO,02/03/2022 12:22,02/03/2022 12:22,Pay Bill from 0717042461 - Sharon Nyangasi Shivachi Acc. V55,Completed,400,,1000,TRUE,Pay Utility,0717042461 - Sharon Nyangasi Shivachi,,V55
QC20Z0BEGY,02/03/2022 12:21,02/03/2022 12:21,Pay Bill from 0746078348 - GERALD ODHIAMBO OWIYO Acc. KCD,Completed,600,,600,TRUE,Pay Utility,0746078348 - GERALD ODHIAMBO OWIYO,,KCD
QC28YUBW6A,02/03/2022 10:53,02/03/2022 10:53,Utility Account to Organization Settlement Account,Completed,,-15800,0,TRUE,Utility Account to Organization Settlement Account,846783 - ANCIENT WELLS LTD 4,,
QC24YOG4QU,02/03/2022 09:25,02/03/2022 09:25,Pay Bill from 254702216907 - FAITH MUSA Acc. KBE ,Completed,200,,15800,TRUE,Pay Utility,254702216907 - FAITH MUSA,,KBE
QC24YG0ZXQ,02/03/2022 06:19,02/03/2022 06:19,Pay Bill from 254741433913 - DUNCAN OMONDI OKETCH Acc. IAG,Completed,1000,,15600,TRUE,Pay Utility,254741433913 - DUNCAN OMONDI OKETCH,,IAG
QC15YCJ3B1,01/03/2022 22:57,01/03/2022 22:57,Pay Bill from 254718284151 - EVERLINE MATHEKA Acc. JAG,Completed,400,,14600,TRUE,Pay Utility,254718284151 - EVERLINE MATHEKA,,JAG
QC16Y56KE2,01/03/2022 20:49,01/03/2022 20:49,Pay Bill from 254728670882 - SHARAD EDWARD ADALA OLUM Acc. KCK,Completed,2200,,14200,TRUE,Pay Utility,254728670882 - SHARAD EDWARD ADALA OLUM,,KCK
QC15Y1S6I3,01/03/2022 20:13,01/03/2022 20:13,Pay Bill from 254716715043 - HANNAH WATETU GACHAGUA Acc. IAI,Completed,200,,12000,TRUE,Pay Utility with OD via STK,254716715043 - HANNAH WATETU GACHAGUA,,IAI
QC17Y1D013,01/03/2022 20:09,01/03/2022 20:09,Pay Bill from 254713281251 - ERIC KIAMA Acc. JDI,Completed,1200,,11800,TRUE,Pay Utility,254713281251 - ERIC KIAMA,,JDI
QC13XXBDUD,01/03/2022 19:33,01/03/2022 19:33,Pay Bill Online from 254706158280 - patience mutheu mbevi Acc. KFC,Completed,600,,10600,TRUE,Pay Bill Online,254706158280 - patience mutheu mbevi,,KFC
QC14XWY1G8,01/03/2022 19:30,01/03/2022 19:30,Pay Bill Online from 254714250131 - NELSON ODHONG OMBUYA Acc. DCC,Completed,1000,,10000,TRUE,Pay Bill Online,254714250131 - NELSON ODHONG OMBUYA,,DCC
QC14XV5J4W,01/03/2022 19:15,01/03/2022 19:15,Pay Bill Online from 254727554512 - COLLINS KOECH Acc. JDJ,Completed,800,,9000,TRUE,Pay Bill Online,254727554512 - COLLINS KOECH,,JDJ
QC10XRTD9Y,01/03/2022 18:44,01/03/2022 18:44,Pay Bill from 254720623535 - JOSEPH MUTURI KAMAU Acc. V32,Completed,600,,8200,TRUE,Pay Utility,254720623535 - JOSEPH MUTURI KAMAU,,V32
QC17XQ4ZT5,01/03/2022 18:27,01/03/2022 18:27,Pay Bill from 254706898046 - STACY AKETCH OCHUKA Acc. KGK,Completed,1200,,7600,TRUE,Pay Utility,254706898046 - STACY AKETCH OCHUKA,,KGK
QC19XI40YP,01/03/2022 16:54,01/03/2022 16:54,Pay Bill from 0758741326 - ABDULLAHI ISACK BANTE Acc. Kbf,Completed,3200,,6400,TRUE,Pay Utility,0758741326 - ABDULLAHI ISACK BANTE,,Kbf
QC10XFNXIS,01/03/2022 16:21,01/03/2022 16:21,Pay Bill from 254729796719 - JACINTA WANJIKU NJERI Acc. FFF,Completed,400,,3200,TRUE,Pay Utility,254729796719 - JACINTA WANJIKU NJERI,,FFF
QC15XDE6C7,01/03/2022 15:48,01/03/2022 15:48,Pay Bill Online from 254716315144 - PETER MUNYIRI WAROTERE Acc. FBB,Completed,200,,2800,TRUE,Pay Bill Online,254716315144 - PETER MUNYIRI WAROTERE,,FBB
QC11XCCYAP,01/03/2022 15:33,01/03/2022 15:33,Pay Bill from 254720496449 - STANLEY KIPKOECH RONO Acc. FBE,Completed,2600,,2600,TRUE,Pay Utility with OD via STK,254720496449 - STANLEY KIPKOECH RONO,,FBE
QC14XC4F46,01/03/2022 15:30,01/03/2022 15:30,Utility Account to Organization Settlement Account,Completed,,-22400,0,TRUE,Utility Account to Organization Settlement Account,846783 - ANCIENT WELLS LTD 4,,
QC17XBKGWZ,01/03/2022 15:22,01/03/2022 15:22,Pay Bill from 254796292434 - ANTONINA HAYA Acc. HED,Completed,2700,,22400,TRUE,Pay Utility,254796292434 - ANTONINA HAYA,,HED
QC13XAZX1L,01/03/2022 15:13,01/03/2022 15:13,Pay Bill Online from 254702118125 - ROTICH BETHWEL Acc. V20,Completed,500,,19700,TRUE,Pay Bill Online,254702118125 - ROTICH BETHWEL,,V20
QC17X3WC0H,01/03/2022 13:29,01/03/2022 13:29,Pay Bill from 254711706815 - NAOMI WANYONYI Acc. KBA,Completed,2000,,19200,TRUE,Pay Utility,254711706815 - NAOMI WANYONYI,,KBA
QC10X1HSK6,01/03/2022 12:55,01/03/2022 12:55,Pay Bill Online from 254719134037 - KELVIN KITOO Acc. FAA,Completed,800,,17200,TRUE,Pay Utility with OD Online,254719134037 - KELVIN KITOO,,FAA
QC16X13KHW,01/03/2022 12:49,01/03/2022 12:49,Pay Bill Online from 254706354035 - MOSES MUOKA Acc. V03,Completed,400,,16400,TRUE,Pay Bill Online,254706354035 - MOSES MUOKA,,V03
QC15WZOUPT,01/03/2022 12:28,01/03/2022 12:28,Pay Bill Online from 254710146965 - BRENDA DORCAS MABONGA Acc. HFG,Completed,2600,,16000,TRUE,Pay Bill Online,254710146965 - BRENDA DORCAS MABONGA,,HFG
QC11WY2OPT,01/03/2022 12:04,01/03/2022 12:04,Pay Bill Online from 254723930071 - AMOS KITAVI KIVITE Acc. JCE,Completed,600,,13400,TRUE,Pay Bill Online,254723930071 - AMOS KITAVI KIVITE,,JCE
QC17WOQDZR,01/03/2022 09:42,01/03/2022 09:42,Pay Bill from 0717216114 - Felix Njeru Mugambi Acc. kdf,Completed,1000,,12800,TRUE,Pay Utility,0717216114 - Felix Njeru Mugambi,,kdf
QC14WOLIM2,01/03/2022 09:40,01/03/2022 09:40,Pay Bill from 254111542144 - GAI MANYOK REECH Acc. KGG,Completed,1200,,11800,TRUE,Pay Utility,254111542144 - GAI MANYOK REECH,,KGG
QC14WM5DCA,01/03/2022 09:00,01/03/2022 09:00,Pay Bill from 254717726012 - WINFRED MUENI PETER Acc. IDA,Completed,1000,,10600,TRUE,Pay Utility,254717726012 - WINFRED MUENI PETER,,IDA
QC17WF1ID3,01/03/2022 06:00,01/03/2022 06:00,Pay Bill Online from 254705670064 - margaret wahu wachira Acc. v35,Completed,400,,9600,TRUE,Pay Bill Online,254705670064 - margaret wahu wachira,,v35
