Receipt No.,Completion Time,Initiation Time,Details,Transaction Status,Paid In,Withdrawn,Balance,Balance Confirmed,Reason Type,Other Party Info,Linked Transaction ID,A/C No.
RHI2GTBGV4,18/08/2023 20:39,18/08/2023 20:39,Utility Account to Organization Settlement Account,Completed,,-20500,0,TRUE,Utility Account to Organization Settlement Account,887075 - ANCIENT WELLS LTD 3,,
RHI9GLIJ2D,18/08/2023 19:46,18/08/2023 19:46,Pay Bill from 254704740197 - CECILIA NJERI GITHUI Acc. C3,Completed,4000,,20500,TRUE,Pay Utility,254704740197 - CECILIA NJERI GITHUI,,C3
RHI3EEPLNV,18/08/2023 07:52,18/08/2023 07:52,Pay Bill from 254707801121 - JOHNSTONE MUTHUI MUTHAMI Acc. b4,Completed,8500,,16500,TRUE,Pay Utility,254707801121 - JOHNSTONE MUTHUI MUTHAMI,,b4
RHI9EC62ZP,18/08/2023 07:12,18/08/2023 07:12,Pay Bill from 0720571944 - Ronoh   Benard Acc. D2,Completed,8000,,8000,TRUE,Pay Utility,0720571944 - Ronoh   Benard,,D2
RHH8E24Z76,17/08/2023 22:18,17/08/2023 22:18,Utility Account to Organization Settlement Account,Completed,,-52600,0,TRUE,Utility Account to Organization Settlement Account,887075 - ANCIENT WELLS LTD 3,,
RHG98JBXQH,16/08/2023 08:26,16/08/2023 08:26,Pay Bill Online from 254720062144 - CAROLINE AMONDI OKELO Acc. f4,Completed,5100,,52600,TRUE,Pay Utility with OD Online,254720062144 - CAROLINE AMONDI OKELO,,f4
RHF373LV65,15/08/2023 17:43,15/08/2023 17:43,Pay Bill from 254714597495 - WAMBUA KIOKO Acc. c1,Completed,2000,,47500,TRUE,Pay Utility,254714597495 - WAMBUA KIOKO,,c1
RHF45IET6C,15/08/2023 08:22,15/08/2023 08:22,Pay Bill from 0758877993 - VIRGINIA MBATHA MUTINDA Acc. G1,Completed,8000,,45500,TRUE,Pay Utility,0758877993 - VIRGINIA MBATHA MUTINDA,,G1
RHE1299VFF,14/08/2023 01:24,14/08/2023 01:24,Pay Bill Online from 0799912339 - PETER KAMAU MURIU Acc. c5,Completed,8500,,37500,TRUE,Pay Bill Online,0799912339 - PETER KAMAU MURIU,,c5
RHC0VIM554,12/08/2023 03:49,12/08/2023 03:49,Pay Bill from 0748719970 - judith ndunge mwende Acc. E5,Completed,8500,,29000,TRUE,Pay Utility,0748719970 - judith ndunge mwende,,E5
RHB7STRPFD,11/08/2023 09:53,11/08/2023 09:53,Pay Bill Online from 254720086214 - SAMUEL WANJIKU Acc. B3,Completed,8500,,20500,TRUE,Pay Bill Online,254720086214 - SAMUEL WANJIKU,,B3
RHA7S8WGCB,10/08/2023 23:14,10/08/2023 23:14,Pay Bill from 254724018163 - IRENE MUENI WILLY Acc. A4,Completed,12000,,12000,TRUE,Pay Utility,254724018163 - IRENE MUENI WILLY,,A4
RHA2QG7A9E,10/08/2023 13:53,10/08/2023 13:53,Utility Account to Organization Settlement Account,Completed,,-84500,0,TRUE,Utility Account to Organization Settlement Account,887075 - ANCIENT WELLS LTD 3,,
RH99P1W4VL,09/08/2023 21:35,09/08/2023 21:35,Pay Bill Online from 0740283700 - SERAH MUKULU MULILIA Acc. c4serahmukulu,Completed,8500,,84500,TRUE,Pay Bill Online,0740283700 - SERAH MUKULU MULILIA,,c4serahmukulu
RH93O3X75V,09/08/2023 17:37,09/08/2023 17:37,Pay Bill from 254714597495 - WAMBUA KIOKO Acc. c1,Completed,6000,,76000,TRUE,Pay Utility with OD via STK,254714597495 - WAMBUA KIOKO,,c1
RH97NBIE33,09/08/2023 13:17,09/08/2023 13:17,Pay Bill from 254715764093 - GICHANA GOVAN Acc. E3,Completed,8000,,70000,TRUE,Pay Utility,254715764093 - GICHANA GOVAN,,E3
RH96ME6NXI,09/08/2023 07:21,09/08/2023 07:21,Pay Bill from 254708989835 - SUSAN NDUTA Acc. B2,Completed,8000,,62000,TRUE,Pay Utility,254708989835 - SUSAN NDUTA,,B2
RH84JP5ZXC,08/08/2023 09:55,08/08/2023 09:55,Pay Bill from 0715030019 - Omwenga Ong'era Stephen Acc. E1,Completed,8000,,54000,TRUE,Pay Utility,0715030019 - Omwenga Ong'era Stephen,,E1
RH85JJYCDN,08/08/2023 09:00,08/08/2023 09:00,Pay Bill from 0791565463 - Lilian Njeri Wakagwi Acc. F6,Completed,8500,,46000,TRUE,Pay Utility,0791565463 - Lilian Njeri Wakagwi,,F6
RH74J3G89E,07/08/2023 22:42,07/08/2023 22:42,Pay Bill from 254710248036 - Allan Kimeu Mutua Acc. F5,Completed,8500,,37500,TRUE,Pay Utility,254710248036 - Allan Kimeu Mutua,,F5
RH70IX4MMQ,07/08/2023 21:21,07/08/2023 21:21,Pay Bill from 254727585857 - PETER MUOKI NGUNDO Acc. Peter Ngundo e6,Completed,8500,,29000,TRUE,Pay Utility,254727585857 - PETER MUOKI NGUNDO,,Peter
RH70HBQQNW,07/08/2023 13:53,07/08/2023 13:53,Pay Bill from 254714419834 - FAITH MWIKALI MUTHAMA Acc. d4,Completed,8500,,20500,TRUE,Pay Utility with OD via STK,254714419834 - FAITH MWIKALI MUTHAMA,,d4
RH79H16MI5,07/08/2023 12:11,07/08/2023 12:11,Utility Account to Organization Settlement Account,Completed,,-5000,12000,TRUE,Utility Account to Organization Settlement Account,887075 - ANCIENT WELLS LTD 3,,
RH57BMWQP1,05/08/2023 14:58,05/08/2023 14:58,Pay Bill from 254726945691 - JAMES RAMTU Acc. B5,Completed,8500,,17000,TRUE,Pay Utility,254726945691 - JAMES RAMTU,,B5
RH52BBHGZ2,05/08/2023 13:14,05/08/2023 13:14,Pay Bill from 0757714694 - paul mutune musyoka Acc. D6,Completed,8500,,8500,TRUE,Pay Utility,0757714694 - paul mutune musyoka,,D6
RH58AMCA5Y,05/08/2023 09:03,05/08/2023 09:03,Utility Account to Organization Settlement Account,Completed,,-8500,0,TRUE,Utility Account to Organization Settlement Account,887075 - ANCIENT WELLS LTD 3,,
RH49909JL1,04/08/2023 17:27,04/08/2023 17:27,Pay Bill Online from 254720201157 - BENSON INYANJE MWAKHA Acc. b6,Completed,8500,,8500,TRUE,Pay Bill Online,254720201157 - BENSON INYANJE MWAKHA,,b6
RH468CM7IE,04/08/2023 13:53,04/08/2023 13:53,Utility Account to Organization Settlement Account,Completed,,-18000,0,TRUE,Utility Account to Organization Settlement Account,887075 - ANCIENT WELLS LTD 3,,
RH457AB0OX,04/08/2023 06:49,04/08/2023 06:49,Pay Bill from 254792607730 - kevin kipchirchir Acc. F3,Completed,8000,,18000,TRUE,Pay Utility,254792607730 - kevin kipchirchir,,F3
RH3374DQUX,03/08/2023 23:19,03/08/2023 23:19,Pay Bill Online from 254720062144 - CAROLINE AMONDI OKELO Acc. f4,Completed,10000,,10000,TRUE,Pay Bill Online,254720062144 - CAROLINE AMONDI OKELO,,f4
RH316UPPTB,03/08/2023 21:02,03/08/2023 21:02,Utility Account to Organization Settlement Account,Completed,,-8500,0,TRUE,Utility Account to Organization Settlement Account,887075 - ANCIENT WELLS LTD 3,,
RH376NXOLF,03/08/2023 20:11,03/08/2023 20:11,Pay Bill from 254791341895 - Enos Nyaosi Ayuma Acc. D5,Completed,8500,,8500,TRUE,Pay Utility,254791341895 - Enos Nyaosi Ayuma,,D5
RH31537RF9,03/08/2023 12:28,03/08/2023 12:28,Utility Account to Organization Settlement Account,Completed,,-24500,0,TRUE,Utility Account to Organization Settlement Account,887075 - ANCIENT WELLS LTD 3,,
RH2128KUYR,02/08/2023 13:18,02/08/2023 13:18,Pay Bill from 0748956967 - Selvin Mukami Wanjiru Acc. E4,Completed,8500,,24500,TRUE,Pay Utility,0748956967 - Selvin Mukami Wanjiru,,E4
RH2925QK83,02/08/2023 12:49,02/08/2023 12:49,Pay Bill from 254792281122 - MWENDWA MUTUNGA Acc. B1,Completed,8000,,16000,TRUE,Pay Utility,254792281122 - MWENDWA MUTUNGA,,B1
RH20233PF2,02/08/2023 12:23,02/08/2023 12:23,Pay Bill from 0719349205 - Christabel Gakii Munene Acc. D1,Completed,8000,,8000,TRUE,Pay Utility,0719349205 - Christabel Gakii Munene,,D1
RH16ZPP7GS,01/08/2023 20:18,01/08/2023 20:18,Utility Account to Organization Settlement Account,Completed,,-15000,0,TRUE,Utility Account to Organization Settlement Account,887075 - ANCIENT WELLS LTD 3,,
RH17ZKOC8D,01/08/2023 19:44,01/08/2023 19:44,Business Pay Bill by 998094 - COOP TO PAYBILL Acc. A1 via API,Completed,7500,,15000,TRUE,Business Pay Bill via API,998094 - COOP TO PAYBILL,,A1
RH18YLQK7U,01/08/2023 15:19,01/08/2023 15:19,Pay Bill Online from 254715020357 - ELIZABETH NJERI WARARI Acc. C2,Completed,7500,,7500,TRUE,Pay Bill Online,254715020357 - ELIZABETH NJERI WARARI,,C2
RH13XL536Z,01/08/2023 09:04,01/08/2023 09:04,Utility Account to Organization Settlement Account,Completed,,-16000,0,TRUE,Utility Account to Organization Settlement Account,887075 - ANCIENT WELLS LTD 3,,
