Receipt No.,Completion Time,Initiation Time,Details,Transaction Status,Paid In,Withdrawn,Balance,Balance Confirmed,Reason Type,Other Party Info,Linked Transaction ID,A/C No.
SC789UWKZW,07/03/2024 12:07,07/03/2024 12:07,Pay Bill from 070888***932 - Annfaith *** Acc. C3,Completed,8000,,166500,TRUE,Pay Utility,070888***932 - Annfaith ***,,C3
SC7895KS8S,07/03/2024 08:26,07/03/2024 08:26,Pay Bill from 254720***214 - SAMUEL *** Acc. B3,Completed,8000,,158500,TRUE,Pay Utility,254720***214 - SAMUEL ***,,B3
SC608032SE,06/03/2024 19:58,06/03/2024 19:58,Pay Bill from 074180***396 - JAMES *** Acc. B5,Completed,8500,,150500,TRUE,Pay Utility,074180***396 - JAMES ***,,B5
SC6561Z0OT,06/03/2024 11:53,06/03/2024 11:53,Pay Bill from 079156***463 - Lilian *** Acc. F6,Completed,8500,,142000,TRUE,Pay Utility with OD via STK,079156***463 - Lilian ***,,F6
SC551V5JOZ,05/03/2024 09:53,05/03/2024 09:53,Pay Bill Online from 254720***144 - CAROLINE *** Acc. f4,Completed,8500,,133500,TRUE,Pay Bill Online,254720***144 - CAROLINE ***,,f4
SC40ZY8SPU,04/03/2024 21:39,04/03/2024 21:39,Pay Bill from 254746***971 - gladys *** Acc. E4,Completed,8500,,125000,TRUE,Pay Utility,254746***971 - gladys ***,,E4
SC45ZGIH3V,04/03/2024 19:48,04/03/2024 19:48,Pay Bill Online from 254792***730 - kevin *** Acc. F3,Completed,8000,,116500,TRUE,Pay Bill Online,254792***730 - kevin ***,,F3
SC45X8XEGV,04/03/2024 10:40,04/03/2024 10:40,Pay Bill from 254768***417 - PAUL *** Acc. D6,Completed,8500,,108500,TRUE,Pay Utility,254768***417 - PAUL ***,,D6
SC35WDHOTZ,03/03/2024 23:19,03/03/2024 23:19,Pay Bill from 071503***019 - Omwenga *** Acc. E1,Completed,8000,,100000,TRUE,Pay Utility,071503***019 - Omwenga ***,,E1
SC31W6EABD,03/03/2024 21:43,03/03/2024 21:43,Pay Bill Online from 254792***122 - MWENDWA *** Acc. B1,Completed,8000,,92000,TRUE,Pay Bill Online,254792***122 - MWENDWA ***,,B1
SC38W13IOA,03/03/2024 21:02,03/03/2024 21:02,Pay Bill from 071934***205 - Christabel *** Acc. D1,Completed,8000,,84000,TRUE,Pay Utility,071934***205 - Christabel ***,,D1
SC30V1ZP4Y,03/03/2024 17:27,03/03/2024 17:27,Business Pay Bill by 998094 - COOP TO PAYBILL Acc. A1 via API,Completed,8000,,76000,TRUE,Business Pay Bill via API,998094 - COOP TO PAYBILL,,A1 via API
SC34T2UCVA,03/03/2024 06:01,03/03/2024 06:01,Pay Bill from 072977***299 - WAMBUA *** Acc. c1,Completed,1500,,68000,TRUE,Pay Utility,072977***299 - WAMBUA ***,,c1
SC27SITTK3,02/03/2024 21:07,02/03/2024 21:07,Pay Bill from 254722***516 - KORIR *** Acc. Anthony D3 ,Completed,8000,,66500,TRUE,Pay Utility,254722***516 - KORIR ***,,Anthony D3 
SC20S7BVOE,02/03/2024 20:03,02/03/2024 20:03,Pay Bill from 254715***093 - GICHANA *** Acc. E3,Completed,8000,,58500,TRUE,Pay Utility,254715***093 - GICHANA ***,,E3
SC22RURLPW,02/03/2024 19:01,02/03/2024 19:01,Pay Bill from 254791***895 - Enos *** Acc. D5,Completed,8500,,50500,TRUE,Pay Utility,254791***895 - Enos ***,,D5
SC27PRK3LL,02/03/2024 10:00,02/03/2024 10:00,Pay Bill from 254727***857 - PETER *** Acc. Peter Ngundo e6,Completed,8500,,42000,TRUE,Pay Utility,254727***857 - PETER ***,,Peter Ngundo e6
SC24PM6YIY,02/03/2024 09:13,02/03/2024 09:13,Pay Bill Online from 254715***357 - ELIZABETH *** Acc. C2,Completed,7500,,33500,TRUE,Pay Bill Online,254715***357 - ELIZABETH ***,,C2
SC14MQTSUE,01/03/2024 13:48,01/03/2024 13:48,Pay Bill from 254727***164 - NICHOLAS *** Acc. G2,Completed,8000,,26000,TRUE,Pay Utility,254727***164 - NICHOLAS ***,,G2
SC19LRWRMF,01/03/2024 09:10,01/03/2024 09:10,Pay Bill from 072977***299 - WAMBUA *** Acc. c1,Completed,1000,,18000,TRUE,Pay Utility,072977***299 - WAMBUA ***,,c1
