Receipt No.,Completion Time,Initiation Time,Details,Transaction Status,Paid In,Withdrawn,Balance,Balance Confirmed,Reason Type,Other Party Info,Linked Transaction ID,A/C No.
QDJ9LZPFPX,19/04/2022 09:43,19/04/2022 09:43,Pay Bill from 254713916352 - WINFRED KATUNGWA NDALA Acc. V30,Completed,300,,4200,TRUE,Pay Utility,254713916352 - WINFRED KATUNGWA NDALA,,V30
QDJ2LYWXYS,19/04/2022 09:30,19/04/2022 09:30,Pay Bill from 254723606895 - ABDINASI DAHIR Acc. KAB,Completed,1500,,3900,TRUE,Pay Utility with OD via STK,254723606895 - ABDINASI DAHIR,,KAB
QDI4L4X9C0,18/04/2022 18:05,18/04/2022 18:05,Pay Bill from 254716581384 - GREGORY KILUNGYA Acc. DAD,Completed,2000,,2400,TRUE,Pay Utility,254716581384 - GREGORY KILUNGYA,,DAD
QDI8L0P6OW,18/04/2022 17:08,18/04/2022 17:08,Pay Bill from 254706248362 - BERYL HUMA Acc. E5,Completed,400,,400,TRUE,Pay Utility with OD via STK,254706248362 - BERYL HUMA,,E5
QDI1KKZCIV,18/04/2022 13:03,18/04/2022 13:03,Utility Account to Organization Settlement Account,Completed,,-4800,0,TRUE,Utility Account to Organization Settlement Account,846783 - ANCIENT WELLS LTD 4,,
QDI9KHV1FP,18/04/2022 12:12,18/04/2022 12:12,Pay Bill from 254711123196 - JUDITH MUTUA Acc. Fea,Completed,2000,,4800,TRUE,Pay Utility,254711123196 - JUDITH MUTUA,,Fea
QDI2KCTHJA,18/04/2022 10:48,18/04/2022 10:48,Pay Bill from 0769858701 - DOLLARS DANIEL CIRHUZA Acc. V09,Completed,400,,2800,TRUE,Pay Utility,0769858701 - DOLLARS DANIEL CIRHUZA,,V09
QDI3KCOPYX,18/04/2022 10:46,18/04/2022 10:46,Pay Bill from 254714419834 - FAITH MWIKALI MUTHAMA Acc. d4,Completed,1400,,2400,TRUE,Pay Utility with OD via STK,254714419834 - FAITH MWIKALI MUTHAMA,,d4
QDH9J4RGMV,17/04/2022 15:08,17/04/2022 15:08,Pay Bill from 254723538366 - VERONICAH SHIYENJI Acc. V40,Completed,400,,1000,TRUE,Pay Utility,254723538366 - VERONICAH SHIYENJI,,V40
QDG6GXNPBS,16/04/2022 10:49,16/04/2022 10:49,Pay Bill from 254700218502 - GRACE NGURE Acc. v46,Completed,400,,600,TRUE,Pay Utility,254700218502 - GRACE NGURE,,v46
QDG8GN0I2E,16/04/2022 07:25,16/04/2022 07:25,Pay Bill from 254721510646 - ANTHONY IRUNGU KARIUKI Acc. v41,Completed,200,,200,TRUE,Pay Utility,254721510646 - ANTHONY IRUNGU KARIUKI,,v41
QDF9FAPNU1,15/04/2022 12:48,15/04/2022 12:48,Utility Account to Organization Settlement Account,Completed,,-8400,0,TRUE,Utility Account to Organization Settlement Account,846783 - ANCIENT WELLS LTD 4,,
QDE0E9AE94,14/04/2022 19:37,14/04/2022 19:37,Pay Bill Online from 254714597495 - WAMBUA KIOKO Acc. C1,Completed,600,,8400,TRUE,Pay Bill Online,254714597495 - WAMBUA KIOKO,,C1
QDC5ARIF2D,12/04/2022 23:24,12/04/2022 23:24,Pay Bill from 254718672924 - LILIAN CHEBET NGENO Acc. KGD,Completed,400,,7800,TRUE,Pay Utility,254718672924 - LILIAN CHEBET NGENO,,KGD
QDC6AQFF46,12/04/2022 22:42,12/04/2022 22:42,Pay Bill from 0795807227 - Lucy Ncekei Kimathi Acc. V36,Completed,200,,7400,TRUE,Pay Utility,0795807227 - Lucy Ncekei Kimathi,,V36
QDC6APF1B4,12/04/2022 22:14,12/04/2022 22:14,Pay Bill Online from 254706549634 - CLINTON OMBASA Acc. FDB,Completed,1000,,7200,TRUE,Pay Utility with OD Online,254706549634 - CLINTON OMBASA,,FDB
QDC0AOQGQ8,12/04/2022 22:00,12/04/2022 22:00,Pay Bill from 254726337163 - HALIMA ALI HASSAN Acc. DDA,Completed,500,,6200,TRUE,Pay Utility,254726337163 - HALIMA ALI HASSAN,,DDA
QDC3AEZAGN,12/04/2022 19:52,12/04/2022 19:52,Pay Bill from 254721115404 - Justine Fayuma Okwemba Acc. HAA,Completed,1000,,5700,TRUE,Pay Utility,254721115404 - Justine Fayuma Okwemba,,HAA
QDC0AD9DZ0,12/04/2022 19:36,12/04/2022 19:36,Pay Bill from 254722706516 - KORIR ANTHONY Acc. Anthony D 3,Completed,200,,4700,TRUE,Pay Utility,254722706516 - KORIR ANTHONY,,Anthony
QDC19XQDKF,12/04/2022 16:41,12/04/2022 16:41,Pay Bill from 0758591833 - DORCUS MBULA PETER Acc. HDD,Completed,700,,4500,TRUE,Pay Utility,0758591833 - DORCUS MBULA PETER,,HDD
QDC69SW64W,12/04/2022 15:30,12/04/2022 15:30,Pay Bill Online from 254703528196 - ERIC GITONGA MUGO Acc. KGJ,Completed,1800,,3800,TRUE,Pay Bill Online,254703528196 - ERIC GITONGA MUGO,,KGJ
QDC09OV2EU,12/04/2022 14:28,12/04/2022 14:28,Pay Bill from 254791318982 - ADULLAHI HASSAN Acc. JCI,Completed,2000,,2000,TRUE,Pay Utility,254791318982 - ADULLAHI HASSAN,,JCI
QDC09741GI,12/04/2022 10:03,12/04/2022 10:03,Utility Account to Organization Settlement Account,Completed,,-10400,0,TRUE,Utility Account to Organization Settlement Account,846783 - ANCIENT WELLS LTD 4,,
QDC691BVTK,12/04/2022 08:26,12/04/2022 08:26,Pay Bill from 254717294709 - CAROLINE WAVINYA NDINDA Acc. v15,Completed,400,,10400,TRUE,Pay Utility,254717294709 - CAROLINE WAVINYA NDINDA,,v15
QDB28ISBNE,11/04/2022 19:57,11/04/2022 19:57,Pay Bill from 254707080629 - Caren Osore Barasa Acc. F1,Completed,400,,10000,TRUE,Pay Utility,254707080629 - Caren Osore Barasa,,F1
QDB47LJTK8,11/04/2022 13:05,11/04/2022 13:05,Pay Bill from 0758591833 - DORCUS MBULA PETER Acc. HDD,Completed,500,,9600,TRUE,Pay Utility,0758591833 - DORCUS MBULA PETER,,HDD
QDB773O5KD,11/04/2022 08:34,11/04/2022 08:34,Pay Bill from 254713229967 - John Mugabo Simba Acc. E4,Completed,200,,9100,TRUE,Pay Utility,254713229967 - John Mugabo Simba,,E4
QDA66UUR9E,10/04/2022 22:33,10/04/2022 22:33,Pay Bill from 254721539716 - OCTAVIAN MWANYALO Acc. C6,Completed,600,,8900,TRUE,Pay Utility,254721539716 - OCTAVIAN MWANYALO,,C6
QDA96RBTVZ,10/04/2022 21:20,10/04/2022 21:20,Pay Bill from 254720439955 - GEOPHRY OKOTH Acc. D6,Completed,200,,8300,TRUE,Pay Utility with OD via STK,254720439955 - GEOPHRY OKOTH,,D6
QDA86KRLHM,10/04/2022 19:54,10/04/2022 19:54,Pay Bill from 254717465142 - EPHANTUS IRURA Acc. c4 muriithi,Completed,400,,8100,TRUE,Pay Utility,254717465142 - EPHANTUS IRURA,,c4
QDA16JAG6T,10/04/2022 19:38,10/04/2022 19:38,Pay Bill from 0719349205 - Christabel Gakii Munene Acc. D1,Completed,200,,7700,TRUE,Pay Utility,0719349205 - Christabel Gakii Munene,,D1
QDA46IWCEM,10/04/2022 19:34,10/04/2022 19:34,Pay Bill from 254720086214 - SAMUEL WANJIKU Acc. B3,Completed,200,,7500,TRUE,Pay Utility,254720086214 - SAMUEL WANJIKU,,B3
QDA36CNXCH,10/04/2022 18:26,10/04/2022 18:26,Pay Bill Online from 254710814215 - JOAN NYAMBURA KAMAU Acc. ifb,Completed,600,,7300,TRUE,Pay Bill Online,254710814215 - JOAN NYAMBURA KAMAU,,ifb
QDA166I1R3,10/04/2022 17:06,10/04/2022 17:06,Pay Bill from 254796848496 - IVY WITABA Acc. JBA,Completed,1000,,6700,TRUE,Pay Utility,254796848496 - IVY WITABA,,JBA
QDA15E7MA3,10/04/2022 09:27,10/04/2022 09:27,Pay Bill from 0743248310 - PATRICK STURRIDGE NYONGESA Acc. daa,Completed,800,,5700,TRUE,Pay Utility,0743248310 - PATRICK STURRIDGE NYONGESA,,daa
QD963WEDOA,09/04/2022 13:52,09/04/2022 13:52,Pay Bill from 254720375006 - JACOB KANGOGO Acc. IBA,Completed,400,,4900,TRUE,Pay Utility with OD via STK,254720375006 - JACOB KANGOGO,,IBA
QD953QSG25,09/04/2022 12:35,09/04/2022 12:35,Pay Bill Online from 254718359438 - AHMAD TAHIR MACHENGO Acc. V11,Completed,400,,4500,TRUE,Pay Bill Online,254718359438 - AHMAD TAHIR MACHENGO,,V11
QD993Q98UX,09/04/2022 12:27,09/04/2022 12:27,Pay Bill from 254706920646 - MIRIAM CHEPTOO Acc. V08,Completed,600,,4100,TRUE,Pay Utility with OD via STK,254706920646 - MIRIAM CHEPTOO,,V08
QD8530JDHX,08/04/2022 22:23,08/04/2022 22:23,Pay Bill Online from 254722514052 - JOSEPH NDIRANGU Acc. KCF,Completed,200,,3500,TRUE,Pay Bill Online,254722514052 - JOSEPH NDIRANGU,,KCF
QD852WOXB3,08/04/2022 21:17,08/04/2022 21:17,Pay Bill from 0758741326 - ABDULLAHI ISACK BANTE Acc. Kbf,Completed,1000,,3300,TRUE,Pay Utility,0758741326 - ABDULLAHI ISACK BANTE,,Kbf
QD862EH1Y8,08/04/2022 18:09,08/04/2022 18:09,Pay Bill from 254714536026 - LILIAN AWUOR ONYANGO Acc. HDC,Completed,400,,2300,TRUE,Pay Utility,254714536026 - LILIAN AWUOR ONYANGO,,HDC
QD8221EWT4,08/04/2022 15:24,08/04/2022 15:24,Pay Bill Online from 254701196539 - GICHURI KARANJA Acc. fee,Completed,400,,1900,TRUE,Pay Bill Online,254701196539 - GICHURI KARANJA,,fee
QD891VDXRT,08/04/2022 13:59,08/04/2022 13:59,Pay Bill Online from 254714552193 - CHRISTOPHER OCHIENG Acc. JGI,Completed,1500,,1500,TRUE,Pay Bill Online,254714552193 - CHRISTOPHER OCHIENG,,JGI
QD831ISAA1,08/04/2022 11:02,08/04/2022 11:02,Utility Account to Organization Settlement Account,Completed,,-89600,0,TRUE,Utility Account to Organization Settlement Account,846783 - ANCIENT WELLS LTD 4,,
QD8714YVF7,08/04/2022 06:57,08/04/2022 06:57,Pay Bill from 254720278119 - LINDAH OGAWO Acc. kfe,Completed,400,,89600,TRUE,Pay Utility,254720278119 - LINDAH OGAWO,,kfe
QD8614QA2S,08/04/2022 06:48,08/04/2022 06:48,Pay Bill Online from 254704995854 - james karanja wairimu Acc. V54,Completed,100,,89200,TRUE,Pay Bill Online,254704995854 - james karanja wairimu,,V54
QD8514OH2R,08/04/2022 06:46,08/04/2022 06:46,Pay Bill Online from 254704995854 - james karanja wairimu Acc. V54,Completed,100,,89100,TRUE,Pay Bill Online,254704995854 - james karanja wairimu,,V54
QD71ZRNWLX,07/04/2022 20:28,07/04/2022 20:28,Pay Bill from 254708499439 - ROSE NDEDE Acc. HGF,Completed,600,,89000,TRUE,Pay Utility with OD via STK,254708499439 - ROSE NDEDE,,HGF
QD79Z88L0R,07/04/2022 17:14,07/04/2022 17:14,Pay Bill Online from 0700206427 - Clare Nabalisa Mukasa Acc. HFA,Completed,1000,,88400,TRUE,Pay Bill Online,0700206427 - Clare Nabalisa Mukasa,,HFA
QD71Z6QIYH,07/04/2022 16:55,07/04/2022 16:55,Pay Bill Online from 254713966424 - NDUTI MUTHUI Acc. jed,Completed,800,,87400,TRUE,Pay Bill Online,254713966424 - NDUTI MUTHUI,,jed
QD72YUT4UK,07/04/2022 14:08,07/04/2022 14:08,Pay Bill from 254729450678 - GRACE NDUNGE Acc. fba,Completed,200,,86600,TRUE,Pay Utility,254729450678 - GRACE NDUNGE,,fba
QD70YQ5V9K,07/04/2022 13:05,07/04/2022 13:05,Pay Bill Online from 254718911865 - KENNEDY KELI KATUNGII Acc. HDF,Completed,1000,,86400,TRUE,Pay Bill Online,254718911865 - KENNEDY KELI KATUNGII,,HDF
QD75YD5463,07/04/2022 09:58,07/04/2022 09:58,Pay Bill from 254712954563 - JOSEPH MUTISO KILONZO Acc. dac,Completed,1000,,85400,TRUE,Pay Utility,254712954563 - JOSEPH MUTISO KILONZO,,dac
QD72Y9PL3A,07/04/2022 09:04,07/04/2022 09:04,Pay Bill from 0717441870 - Steven oduor ogutu Acc. KTA,Completed,400,,84400,TRUE,Pay Utility,0717441870 - Steven oduor ogutu,,KTA
QD78Y9EFHY,07/04/2022 08:59,07/04/2022 08:59,Pay Bill Online from 254708225541 - JUDITH NKATHA SIMBA Acc. HDH,Completed,800,,84000,TRUE,Pay Bill Online,254708225541 - JUDITH NKATHA SIMBA,,HDH
QD71Y7NAVB,07/04/2022 08:29,07/04/2022 08:29,Pay Bill from 0711769778 - PROTASIA BONIPHACE MANOSA Acc. IBB,Completed,1600,,83200,TRUE,Pay Utility,0711769778 - PROTASIA BONIPHACE MANOSA,,IBB
QD70Y3ARJ2,07/04/2022 06:45,07/04/2022 06:45,Pay Bill from 0746078348 - GERALD ODHIAMBO OWIYO Acc. KCD,Completed,1600,,81600,TRUE,Pay Utility,0746078348 - GERALD ODHIAMBO OWIYO,,KCD
QD67XECVVL,06/04/2022 18:38,06/04/2022 18:38,Pay Bill from 254712974871 - PAULA WANJIKU GATUI Acc. hea,Completed,400,,80000,TRUE,Pay Utility,254712974871 - PAULA WANJIKU GATUI,,hea
QD66XCWJ6Y,06/04/2022 18:24,06/04/2022 18:24,Pay Bill from 254725385966 - JOSEPH MUYA MARUA Acc. KEE,Completed,1400,,79600,TRUE,Pay Utility,254725385966 - JOSEPH MUYA MARUA,,KEE
QD68X4ZK60,06/04/2022 16:53,06/04/2022 16:53,Pay Bill from 254700557767 - BAKHITA MWENDE MUANGE Acc. kcb,Completed,1000,,78200,TRUE,Pay Utility,254700557767 - BAKHITA MWENDE MUANGE,,kcb
QD65X2VOFZ,06/04/2022 16:26,06/04/2022 16:26,Pay Bill Online from 254722444929 - LIZ KIHARA Acc. G3,Completed,200,,77200,TRUE,Pay Bill Online,254722444929 - LIZ KIHARA,,G3
QD69X0VLAT,06/04/2022 15:58,06/04/2022 15:58,Pay Bill from 254702152790 - Michelle Ndunge Kyalo Acc. IDE,Completed,800,,77000,TRUE,Pay Utility,254702152790 - Michelle Ndunge Kyalo,,IDE
QD65WRMLT9,06/04/2022 13:49,06/04/2022 13:49,Pay Bill from 254703108159 - JOICE OGOLLA Acc. V50,Completed,200,,76200,TRUE,Pay Utility,254703108159 - JOICE OGOLLA,,V50
QD69WOLPGV,06/04/2022 13:08,06/04/2022 13:08,Pay Bill from 254708875278 - ROSEMARY WANJIRU KONYE Acc. HBF,Completed,400,,76000,TRUE,Pay Utility,254708875278 - ROSEMARY WANJIRU KONYE,,HBF
QD61WHJ3H3,06/04/2022 11:29,06/04/2022 11:29,Pay Bill Online from 254797160610 - JAMES MWANIKI Acc. JBI,Completed,2800,,75600,TRUE,Pay Bill Online,254797160610 - JAMES MWANIKI,,JBI
QD61WERUQ7,06/04/2022 10:49,06/04/2022 10:49,Pay Bill from 254725478531 - KIPKORIR KUTO Acc. DFB,Completed,400,,72800,TRUE,Pay Utility,254725478531 - KIPKORIR KUTO,,DFB
QD67W7XDHP,06/04/2022 09:06,06/04/2022 09:06,Pay Bill Online from 254792584569 - LUCY MWALIMO Acc. AID,Completed,200,,72400,TRUE,Pay Bill Online,254792584569 - LUCY MWALIMO,,AID
QD66W5A3QK,06/04/2022 08:22,06/04/2022 08:22,Pay Bill Online from 254714563486 - BRIAN MMATA MUSERA Acc. KBJ,Completed,600,,72200,TRUE,Pay Bill Online,254714563486 - BRIAN MMATA MUSERA,,KBJ
QD69W3NWBN,06/04/2022 07:51,06/04/2022 07:51,Pay Bill Online from 254718138578 - PAULINE KIOKO Acc. KFD,Completed,600,,71600,TRUE,Pay Bill Online,254718138578 - PAULINE KIOKO,,KFD
QD55VUOHM1,05/04/2022 21:48,05/04/2022 21:48,Business Pay Bill by 488519 - NCBA  Bank M-pesa Acc. jcd via API,Completed,1000,,71000,TRUE,Business Pay Bill via API,488519 - NCBA  Bank M-pesa,,jcd
QD50VS60X2,05/04/2022 21:10,05/04/2022 21:10,Pay Bill Online from 254725218904 - SALOME MUTHONI MWANGI Acc. KFJ,Completed,800,,70000,TRUE,Pay Bill Online,254725218904 - SALOME MUTHONI MWANGI,,KFJ
QD56VQOG2M,05/04/2022 20:50,05/04/2022 20:50,Pay Bill from 254726172957 - VINCENT OLIENG' Acc. HBC,Completed,800,,69200,TRUE,Pay Utility,254726172957 - VINCENT OLIENG',,HBC
QD51VNLBWD,05/04/2022 20:15,05/04/2022 20:15,Pay Bill Online from 254703176849 - ROYAL MUYA Acc. F2,Completed,400,,68400,TRUE,Pay Bill Online,254703176849 - ROYAL MUYA,,F2
QD56VGK5D6,05/04/2022 19:11,05/04/2022 19:11,Pay Bill from 254722578070 - SAMUEL MACHARIA Acc. v42,Completed,400,,68000,TRUE,Pay Utility,254722578070 - SAMUEL MACHARIA,,v42
QD51V8XLX5,05/04/2022 17:55,05/04/2022 17:55,Pay Bill Online from 254715892656 - DENNIS MUSYOKA MUOKI Acc. KFA,Completed,400,,67600,TRUE,Pay Bill Online,254715892656 - DENNIS MUSYOKA MUOKI,,KFA
QD53V1MJ3R,05/04/2022 16:26,05/04/2022 16:26,Pay Bill from 254723815832 - SEMEKIA ONDIALA Acc. V38,Completed,600,,67200,TRUE,Pay Utility,254723815832 - SEMEKIA ONDIALA,,V38
QD51UVW9QX,05/04/2022 15:05,05/04/2022 15:05,Pay Bill from 254723929380 - RHODAH K WAMBUA Acc. HEF,Completed,800,,66600,TRUE,Pay Utility,254723929380 - RHODAH K WAMBUA,,HEF
QD56UUSZEO,05/04/2022 14:49,05/04/2022 14:49,Pay Bill from 254740579741 - MUHINDI MULINYA Acc. HGG,Completed,2600,,65800,TRUE,Pay Utility,254740579741 - MUHINDI MULINYA,,HGG
QD57UKXZL3,05/04/2022 12:30,05/04/2022 12:30,Pay Bill from 254714814264 - PATRICIA NZOMO Acc. Hbg,Completed,500,,63200,TRUE,Pay Utility with OD via STK,254714814264 - PATRICIA NZOMO,,Hbg
QD54UJ04G0,05/04/2022 12:02,05/04/2022 12:02,Pay Bill from 254723499628 - CLINTON JOSEPH MUHARI Acc. hfh,Completed,600,,62700,TRUE,Pay Utility,254723499628 - CLINTON JOSEPH MUHARI,,hfh
QD55UHAGTD,05/04/2022 11:37,05/04/2022 11:37,Pay Bill from 254722648389 - SUDI MOSES Acc. V31,Completed,400,,62100,TRUE,Pay Utility,254722648389 - SUDI MOSES,,V31
QD58UE8MZO,05/04/2022 10:53,05/04/2022 10:53,Pay Bill from 254701047939 - Cyrus Wahome Acc. JAH,Completed,800,,61700,TRUE,Pay Utility,254701047939 - Cyrus Wahome,,JAH
QD58U1O36E,05/04/2022 07:17,05/04/2022 07:17,Pay Bill Online from 254700760396 - JULIUS MBUGUA KINYAHWE Acc. v35,Completed,400,,60900,TRUE,Pay Bill Online,254700760396 - JULIUS MBUGUA KINYAHWE,,v35
QD49TUILLP,04/04/2022 21:53,04/04/2022 21:53,Pay Bill from 254716702294 - DANIEL MULATI Acc. KBB,Completed,1800,,60500,TRUE,Pay Utility,254716702294 - DANIEL MULATI,,KBB
QD47TRKFCT,04/04/2022 21:07,04/04/2022 21:07,Pay Bill from 254718818610 - HANNAH NALIAKA Acc. V23,Completed,400,,58700,TRUE,Pay Utility,254718818610 - HANNAH NALIAKA,,V23
QD47TP55UD,04/04/2022 20:36,04/04/2022 20:36,Pay Bill from 254725771056 - CHARLES MURAGURI Acc. FCE,Completed,300,,58300,TRUE,Pay Utility,254725771056 - CHARLES MURAGURI,,FCE
QD42TP399C,04/04/2022 20:36,04/04/2022 20:36,Pay Bill Online from 254710202776 - KELVIN KARIMI MACHARIA Acc. FAD,Completed,600,,58000,TRUE,Pay Bill Online,254710202776 - KELVIN KARIMI MACHARIA,,FAD
QD49TP2UNP,04/04/2022 20:35,04/04/2022 20:35,Pay Bill from 254720351482 - Cheruiyot Langat Brian Acc. dfa,Completed,1600,,57400,TRUE,Pay Utility,254720351482 - Cheruiyot Langat Brian,,dfa
QD47TMIGEN,04/04/2022 20:08,04/04/2022 20:08,Pay Bill Online from 254722769473 - SAMSON CHALO Acc. IAB,Completed,1000,,55800,TRUE,Pay Utility with OD Online,254722769473 - SAMSON CHALO,,IAB
QD44TC2K2Y,04/04/2022 18:30,04/04/2022 18:30,Pay Bill from 254711163049 - OYUGI OCHIENG Acc. FCB,Completed,400,,54800,TRUE,Pay Utility,254711163049 - OYUGI OCHIENG,,FCB
QD47T7L72V,04/04/2022 17:40,04/04/2022 17:40,Pay Bill from 254706144834 - WILKISTER OSUMO Acc. HFB,Completed,600,,54400,TRUE,Pay Utility,254706144834 - WILKISTER OSUMO,,HFB
QD44T3RY2Y,04/04/2022 16:53,04/04/2022 16:53,Pay Bill Online from 0724386624 - FATUMA ISSE YUSSUF Acc. FAB,Completed,600,,53800,TRUE,Pay Bill Online,0724386624 - FATUMA ISSE YUSSUF,,FAB
QD49T06O0F,04/04/2022 16:05,04/04/2022 16:05,Pay Bill from 254725754547 - MWACHIRO GEORGE DECHE Acc. DFC,Completed,1800,,53200,TRUE,Pay Utility,254725754547 - MWACHIRO GEORGE DECHE,,DFC
QD44SZJ976,04/04/2022 15:56,04/04/2022 15:56,Pay Bill from 254728670882 - SHARAD EDWARD ADALA OLUM Acc. KCK,Completed,1800,,51400,TRUE,Pay Utility,254728670882 - SHARAD EDWARD ADALA OLUM,,KCK
QD45SWXCOL,04/04/2022 15:18,04/04/2022 15:18,Pay Bill from 254729371750 - DERRICK OTANGA Acc. FEF,Completed,800,,49600,TRUE,Pay Utility,254729371750 - DERRICK OTANGA,,FEF
QD45SR4JNJ,04/04/2022 13:56,04/04/2022 13:56,Pay Bill from 254706859500 - JULIA NJAMBI WAINAINA Acc. U4,Completed,900,,48800,TRUE,Pay Utility,254706859500 - JULIA NJAMBI WAINAINA,,U4
QD43SIOYP9,04/04/2022 11:58,04/04/2022 11:58,Pay Bill from 254729355933 - FELISTAH NJERI WAIRIMU Acc. IDI,Completed,2200,,47900,TRUE,Pay Utility with OD via STK,254729355933 - FELISTAH NJERI WAIRIMU,,IDI
QD41SH4YO9,04/04/2022 11:35,04/04/2022 11:35,Pay Bill from 0717216114 - Felix Njeru Mugambi Acc. kdf,Completed,400,,45700,TRUE,Pay Utility,0717216114 - Felix Njeru Mugambi,,kdf
QD46S7CAW2,04/04/2022 09:07,04/04/2022 09:07,Pay Bill from 254702343078 - JOSEPH EBENYO Acc. V10joseph,Completed,600,,45300,TRUE,Pay Utility,254702343078 - JOSEPH EBENYO,,V10joseph
QD40S4CPTC,04/04/2022 08:16,04/04/2022 08:15,Pay Bill Online from 254724882554 - ALPHONCE WAMBUA NGELI Acc. JDA,Completed,1600,,44700,TRUE,Pay Bill Online,254724882554 - ALPHONCE WAMBUA NGELI,,JDA
QD45S2GD8X,04/04/2022 07:36,04/04/2022 07:36,Pay Bill from 254712091662 - BENARD OMONDI ROBY Acc. V16,Completed,400,,43100,TRUE,Pay Utility,254712091662 - BENARD OMONDI ROBY,,V16
QD49S1V6JJ,04/04/2022 07:21,04/04/2022 07:21,Pay Bill from 254726028330 - JOHN WAMBUA Acc. IFH,Completed,1200,,42700,TRUE,Pay Utility,254726028330 - JOHN WAMBUA,,IFH
QD37RXR9RJ,03/04/2022 23:23,03/04/2022 23:23,Pay Bill from 0746934144 - Rosemary Wangui Muiruri Acc. ICD,Completed,1000,,41500,TRUE,Pay Utility,0746934144 - Rosemary Wangui Muiruri,,ICD
QD34RW5KB4,03/04/2022 22:22,03/04/2022 22:22,Pay Bill from 254790382466 - Lorraine Mwangi Acc. KGC,Completed,400,,40500,TRUE,Pay Utility,254790382466 - Lorraine Mwangi,,KGC
QD34RURUGY,03/04/2022 21:50,03/04/2022 21:50,Pay Bill Online from 254717809935 - LYDIAH WERU Acc. ief,Completed,600,,40100,TRUE,Pay Bill Online,254717809935 - LYDIAH WERU,,ief
QD30RPDHK8,03/04/2022 20:28,03/04/2022 20:28,Pay Bill from 254713281251 - ERIC KIAMA Acc. JDI,Completed,1400,,39500,TRUE,Pay Utility,254713281251 - ERIC KIAMA,,JDI
QD39REOJW3,03/04/2022 18:34,03/04/2022 18:34,Pay Bill Online from 254722728975 - CURTIS MRIGA OMIDO Acc. IAH,Completed,200,,38100,TRUE,Pay Bill Online,254722728975 - CURTIS MRIGA OMIDO,,IAH
QD33R1ZZ9B,03/04/2022 15:41,03/04/2022 15:41,Pay Bill Online from 254718233980 - KAREN ASWANI Acc. HEC,Completed,1000,,37900,TRUE,Pay Bill Online,254718233980 - KAREN ASWANI,,HEC
QD31QVQPYJ,03/04/2022 14:09,03/04/2022 14:09,Pay Bill from 254704934557 - BAKARI KITSAKA Acc. JEI,Completed,1400,,36900,TRUE,Pay Utility,254704934557 - BAKARI KITSAKA,,JEI
QD38QPM10E,03/04/2022 12:32,03/04/2022 12:32,Pay Bill from 0706563358 - HARRIET NYANCHAMA NYABERI Acc. FCC,Completed,600,,35500,TRUE,Pay Utility,0706563358 - HARRIET NYANCHAMA NYABERI,,FCC
QD20Q52TC6,02/04/2022 23:45,02/04/2022 23:45,Pay Bill Online from 254722258756 - DAVID KEMBOI Acc. HDA,Completed,600,,34900,TRUE,Pay Bill Online,254722258756 - DAVID KEMBOI,,HDA
QD20Q2TC3I,02/04/2022 22:29,02/04/2022 22:29,Pay Bill Online from 0757699775 - BENARD MUIA MUTUA Acc. HCB,Completed,1200,,34300,TRUE,Pay Bill Online,0757699775 - BENARD MUIA MUTUA,,HCB
QD20Q1D2DA,02/04/2022 21:58,02/04/2022 21:58,Pay Bill from 254700290755 - MERCY GOGA Acc. FDD,Completed,1000,,33100,TRUE,Pay Utility,254700290755 - MERCY GOGA,,FDD
QD27PR39FN,02/04/2022 19:49,02/04/2022 19:49,Pay Bill Online from 254721465713 - RHODA WAMBUI MWANGI Acc. jfh,Completed,1000,,32100,TRUE,Pay Bill Online,254721465713 - RHODA WAMBUI MWANGI,,jfh
QD23PF0QYN,02/04/2022 17:53,02/04/2022 17:53,Pay Bill from 254723263681 - EDWIN KORIR Acc. kdc,Completed,1000,,31100,TRUE,Pay Utility,254723263681 - EDWIN KORIR,,kdc
QD21PEP80J,02/04/2022 17:49,02/04/2022 17:49,Pay Bill Online from 254742911013 - HANEST AMIMO Acc. IEG,Completed,200,,30100,TRUE,Pay Utility with OD Online,254742911013 - HANEST AMIMO,,IEG
QD29PB2QPZ,02/04/2022 17:06,02/04/2022 17:06,Pay Bill from 254702216907 - FAITH MUSA Acc. KBE ,Completed,200,,29900,TRUE,Pay Utility,254702216907 - FAITH MUSA,,KBE
QD27P3WCPP,02/04/2022 15:35,02/04/2022 15:35,Pay Bill Online from 254711562428 - Lionel Mutune Muoka Acc. KDI,Completed,600,,29700,TRUE,Pay Bill Online,254711562428 - Lionel Mutune Muoka,,KDI
QD28P2FWKY,02/04/2022 15:16,02/04/2022 15:16,Pay Bill Online from 254726465584 - JULIANA MUKELI MUTUNGA Acc. v4,Completed,400,,29100,TRUE,Pay Bill Online,254726465584 - JULIANA MUKELI MUTUNGA,,v4
QD27ON0AYB,02/04/2022 11:51,02/04/2022 11:51,Pay Bill from 254729796719 - JACINTA WANJIKU NJERI Acc. FFF,Completed,400,,28700,TRUE,Pay Utility,254729796719 - JACINTA WANJIKU NJERI,,FFF
QD26OMNIFY,02/04/2022 11:46,02/04/2022 11:46,Pay Bill Online from 254700187806 - WINNIE OLIVIA AKOTH Acc. jec,Completed,800,,28300,TRUE,Pay Bill Online,254700187806 - WINNIE OLIVIA AKOTH,,jec
QD26OK6D08,02/04/2022 11:11,02/04/2022 11:11,Pay Bill from 254719398942 - NORAH WAYUA MUNYAO Acc. KDA,Completed,1000,,27500,TRUE,Pay Utility,254719398942 - NORAH WAYUA MUNYAO,,KDA
QD24OGNHA4,02/04/2022 10:21,02/04/2022 10:21,Pay Bill from 254721302658 - JACOB BIRUNDU Acc. HDE,Completed,600,,26500,TRUE,Pay Utility,254721302658 - JACOB BIRUNDU,,HDE
QD25OG1UR7,02/04/2022 10:12,02/04/2022 10:12,Pay Bill Online from 254714855708 - KIPLANGAT SITIENEI Acc. FAE,Completed,1400,,25900,TRUE,Pay Bill Online,254714855708 - KIPLANGAT SITIENEI,,FAE
QD29ODQIWL,02/04/2022 09:37,02/04/2022 09:37,Pay Bill Online from 254723370004 - LABAN MAINGI WAMBUA Acc. JEF,Completed,400,,24500,TRUE,Pay Bill Online,254723370004 - LABAN MAINGI WAMBUA,,JEF
QD25O8ODLF,02/04/2022 08:13,02/04/2022 08:13,Pay Bill from 254796069018 - PEACE KIMEU Acc. Hdg,Completed,1600,,24100,TRUE,Pay Utility,254796069018 - PEACE KIMEU,,Hdg
QD25O30MZB,02/04/2022 01:24,02/04/2022 01:24,Pay Bill from 254718284151 - EVERLINE MATHEKA Acc. JAG,Completed,600,,22500,TRUE,Pay Utility,254718284151 - EVERLINE MATHEKA,,JAG
QD16NO8X9O,01/04/2022 19:57,01/04/2022 19:57,Pay Bill from 254728084427 - MARY NABWIRE OKELLO Acc. FDF,Completed,1200,,21900,TRUE,Pay Utility,254728084427 - MARY NABWIRE OKELLO,,FDF
QD14NCHUB6,01/04/2022 18:09,01/04/2022 18:09,Pay Bill from 0797758628 - jackline nyamari onyango Acc. ICF,Completed,800,,20700,TRUE,Pay Utility,0797758628 - jackline nyamari onyango,,ICF
QD16NC1O06,01/04/2022 18:05,01/04/2022 18:05,Pay Bill Online from 254713404029 - ANNE ISEUNA Acc. DED,Completed,3600,,19900,TRUE,Pay Bill Online,254713404029 - ANNE ISEUNA,,DED
QD18N6Q9JA,01/04/2022 17:05,01/04/2022 17:05,Pay Bill Online from 254707370896 - OKECH BRIAN BRIAN Acc. FFA,Completed,1000,,16300,TRUE,Pay Bill Online,254707370896 - OKECH BRIAN BRIAN,,FFA
QD12N6KTOU,01/04/2022 17:04,01/04/2022 17:04,Pay Bill Online from 254715020357 - ELIZABETH NJERI WARARI Acc. C2,Completed,400,,15300,TRUE,Pay Bill Online,254715020357 - ELIZABETH NJERI WARARI,,C2
QD16MZNE3E,01/04/2022 15:35,01/04/2022 15:35,Pay Bill Online from 254719134037 - KELVIN KITOO Acc. FAA,Completed,800,,14900,TRUE,Pay Bill Online,254719134037 - KELVIN KITOO,,FAA
QD17MYW1U3,01/04/2022 15:25,01/04/2022 15:25,Pay Bill from 254741791919 - Linet Mongina Maraga Acc. u3,Completed,1200,,14100,TRUE,Pay Utility,254741791919 - Linet Mongina Maraga,,u3
QD15MWQT7T,01/04/2022 14:56,01/04/2022 14:56,Pay Bill Online from 254720696119 - DUNCAN OMONDI OKETCH Acc. IAG,Completed,1000,,12900,TRUE,Pay Bill Online,254720696119 - DUNCAN OMONDI OKETCH,,IAG
QD18MV28SM,01/04/2022 14:33,01/04/2022 14:33,Pay Bill from 254714060203 - PATRICK MWANGOMBE MSAWUCHI Acc. KEI,Completed,200,,11900,TRUE,Pay Utility,254714060203 - PATRICK MWANGOMBE MSAWUCHI,,KEI
QD10MPNCDU,01/04/2022 13:21,01/04/2022 13:21,Pay Bill from 254717909848 - MARY MBULA KATHUKU Acc. FGD,Completed,400,,11700,TRUE,Pay Utility with OD via STK,254717909848 - MARY MBULA KATHUKU,,FGD
QD11MP1NQT,01/04/2022 13:13,01/04/2022 13:13,Pay Bill Online from 254795510441 - LEWIS MUEMA Acc. KEB,Completed,600,,11300,TRUE,Pay Bill Online,254795510441 - LEWIS MUEMA,,KEB
QD12MN62UO,01/04/2022 12:48,01/04/2022 12:48,Pay Bill Online from 0769929240 - Calvince Klein Alal Acc. v02,Completed,1000,,10700,TRUE,Pay Bill Online,0769929240 - Calvince Klein Alal,,v02
QD15MN2VY3,01/04/2022 12:46,01/04/2022 12:46,Pay Bill Online from 254706158280 - patience mutheu mbevi Acc. KFC,Completed,400,,9700,TRUE,Pay Bill Online,254706158280 - patience mutheu mbevi,,KFC
QD14ML508I,01/04/2022 12:19,01/04/2022 12:19,Pay Bill from 254703180395 - JANE NYAGUTHII MWAGO Acc. IBE,Completed,600,,9300,TRUE,Pay Utility,254703180395 - JANE NYAGUTHII MWAGO,,IBE
QD11MK0JTB,01/04/2022 12:03,01/04/2022 12:03,Pay Bill from 254718417450 - HARON ASUMA OROKO Acc. haron v47 ,Completed,200,,8700,TRUE,Pay Utility,254718417450 - HARON ASUMA OROKO,,haron
QD11MJOK7J,01/04/2022 11:59,01/04/2022 11:59,Pay Bill Online from 254716315144 - PETER MUNYIRI WAROTERE Acc. FBB,Completed,400,,8500,TRUE,Pay Bill Online,254716315144 - PETER MUNYIRI WAROTERE,,FBB
QD18MHRLK6,01/04/2022 11:32,01/04/2022 11:32,Pay Bill Online from 254706354035 - MOSES MUOKA Acc. V03,Completed,200,,8100,TRUE,Pay Bill Online,254706354035 - MOSES MUOKA,,V03
QD17MDWTQP,01/04/2022 10:37,01/04/2022 10:37,Pay Bill Online from 254723901777 - EVANS YEBEI Acc. KCH,Completed,1800,,7900,TRUE,Pay Bill Online,254723901777 - EVANS YEBEI,,KCH
QD16LXMS7U,01/04/2022 00:17,01/04/2022 00:17,Pay Bill from 254743243622 - fridah waeni muithya Acc. JEH,Completed,1500,,6100,TRUE,Pay Utility,254743243622 - fridah waeni muithya,,JEH
