Receipt No.,Completion Time,Initiation Time,Details,Transaction Status,Paid In,Withdrawn,Balance,Balance Confirmed,Reason Type,Other Party Info,Linked Transaction ID,A/C No.
OGH2TP033M,17/07/2020 16:25,17/07/2020 16:25,Pay Bill from 0111278177 - Alfred   Kishoin Acc. IBC,Completed,9000,,46000,TRUE,Pay Utility,0111278177 - Alfred   Kishoin,,IBC
OGH9TO1UXR,17/07/2020 16:00,17/07/2020 16:00,Pay Bill from 254708225541 - JUDITH NKATHA SIMBA Acc. ICF,Completed,22000,,37000,TRUE,Pay Utility with OD via STK,254708225541 - JUDITH NKATHA SIMBA,,ICF
OGH2TI4AWE,17/07/2020 13:12,17/07/2020 13:12,Pay Bill Online from 254729425253 - FATUMA MOHAMMED MWAJASI Acc. HBB,Completed,5000,,15000,TRUE,Pay Utility with OD Online,254729425253 - FATUMA MOHAMMED MWAJASI,,HBB
OGH2TBFZGQ,17/07/2020 09:50,17/07/2020 09:50,Pay Bill Online from 254725226214 - NORMAN ESHUCHI Acc. JEJ,Completed,10000,,10000,TRUE,Pay Bill Online,254725226214 - NORMAN ESHUCHI,,JEJ
OGG6T4YEBY,16/07/2020 22:07,16/07/2020 22:07,Utility Account to Organization Settlement Account,Completed,,-102000,0,TRUE,Utility Account to Organization Settlement Account,979524 - ANCIENT WELLS PROPERTY MANAGERS 2,,
OGG8T2IF7C,16/07/2020 20:37,16/07/2020 20:37,Pay Bill from 254720361605 - DAUD AMBER Acc. IGH,Completed,4500,,102000,TRUE,Pay Utility,254720361605 - DAUD AMBER,,IGH
OGG8SUQ3CY,16/07/2020 18:00,16/07/2020 18:00,Pay Bill from 254722521028 - CHARLES MONYONCHO Acc. ICB,Completed,34000,,97500,TRUE,Pay Utility,254722521028 - CHARLES MONYONCHO,,ICB
OGG8SNM4RO,16/07/2020 15:05,16/07/2020 15:05,Pay Bill from 254711397174 - JASEL HOPE ANTONINA Acc. kef,Completed,8000,,63500,TRUE,Pay Utility,254711397174 - JASEL HOPE ANTONINA,,kef
OGG8SG85LU,16/07/2020 11:30,16/07/2020 11:30,Pay Bill from 254710537468 - DONALDO AMIOL JUAC AKEC Acc. jdg,Completed,9000,,55500,TRUE,Pay Utility,254710537468 - DONALDO AMIOL JUAC AKEC,,jdg
OGG1SEHQIX,16/07/2020 10:38,16/07/2020 10:38,Pay Bill from 254795449800 - MARTHA WANJIRU NJUGUNA Acc. HGD,Completed,9500,,46500,TRUE,Pay Utility,254795449800 - MARTHA WANJIRU NJUGUNA,,HGD
OGF7RW8JHT,15/07/2020 18:08,15/07/2020 18:08,Pay Bill from 254722910078 - MAUREEN MUNYIVA MUTUKU Acc. DBD,Completed,5000,,37000,TRUE,Pay Utility,254722910078 - MAUREEN MUNYIVA MUTUKU,,DBD
OGF9RTOGXZ,15/07/2020 17:14,15/07/2020 17:14,Pay Bill from 254714818251 - MERCY AKINYI OMONDI Acc. DFB,Completed,15000,,32000,TRUE,Pay Utility,254714818251 - MERCY AKINYI OMONDI,,DFB
OGF5RQ4X87,15/07/2020 15:46,15/07/2020 15:46,Pay Bill Online from 254717712951 - AZHAR SHAH Acc. HBA,Completed,17000,,17000,TRUE,Pay Bill Online,254717712951 - AZHAR SHAH,,HBA
OGF0RL1I26,15/07/2020 13:26,15/07/2020 13:26,Utility Account to Organization Settlement Account,Completed,,-60000,0,TRUE,Utility Account to Organization Settlement Account,979524 - ANCIENT WELLS PROPERTY MANAGERS 2,,
OGF2RK1J7S,15/07/2020 12:58,15/07/2020 12:58,Pay Bill from 254705846408 - JAMES OUMA Acc. HBG,Completed,25000,,60000,TRUE,Pay Utility,254705846408 - JAMES OUMA,,HBG
OGF8RJZEUS,15/07/2020 12:56,15/07/2020 12:56,Pay Bill from 254720707838 - SHADRACK KIPCHUMBA Acc. KDI,Completed,15000,,35000,TRUE,Pay Utility with OD via STK,254720707838 - SHADRACK KIPCHUMBA,,KDI
OGF3RFV4CT,15/07/2020 10:57,15/07/2020 10:57,Pay Bill from 254729258441 - ROBERT RONO KULEI Acc. JAB,Completed,15000,,20000,TRUE,Pay Utility,254729258441 - ROBERT RONO KULEI,,JAB
OGF5RCCYKP,15/07/2020 09:09,15/07/2020 09:08,Pay Bill Online from 254725248080 - DENNIS KIPROTICH Acc. IBE,Completed,5000,,5000,TRUE,Pay Utility with OD Online,254725248080 - DENNIS KIPROTICH,,IBE
OGE5R66Z7T,14/07/2020 21:39,14/07/2020 21:39,Utility Account to Organization Settlement Account,Completed,,-155300,0,TRUE,Utility Account to Organization Settlement Account,979524 - ANCIENT WELLS PROPERTY MANAGERS 2,,
OGE8QQ83EQ,14/07/2020 15:14,14/07/2020 15:14,Pay Bill from 254722997392 - ISAAC MUKONAMBI MATUMBUFU Acc. JAH ,Completed,18000,,155300,TRUE,Pay Utility,254722997392 - ISAAC MUKONAMBI MATUMBUFU,,JAH
OGD6Q0PRE4,13/07/2020 18:21,13/07/2020 18:21,Pay Bill from 0743248310 - PATRICK STURRIDGE NYONGESA Acc. kaf,Completed,3000,,137300,TRUE,Pay Utility,0743248310 - PATRICK STURRIDGE NYONGESA,,kaf
OGD4Q0JPPE,13/07/2020 18:17,13/07/2020 18:17,Pay Bill from 254726611493 - Cornelius Kimeli Acc. HAG,Completed,16000,,134300,TRUE,Pay Utility,254726611493 - Cornelius Kimeli,,HAG
OGD7PUNF3L,13/07/2020 15:59,13/07/2020 15:59,Pay Bill from 254718032128 - ABIGAEL ADENYA Acc. jdd,Completed,3300,,118300,TRUE,Pay Utility with OD via STK,254718032128 - ABIGAEL ADENYA,,jdd
OGD3PP6IGX,13/07/2020 13:24,13/07/2020 13:24,Pay Bill from 0703549682 - MILCAH KANINI BERNARD Acc. JDF,Completed,8000,,115000,TRUE,Pay Utility,0703549682 - MILCAH KANINI BERNARD,,JDF
OGD6PHWFLQ,13/07/2020 09:48,13/07/2020 09:48,Pay Bill from 254726095979 - DOREEN MOROSIA Acc. DAD,Completed,10000,,107000,TRUE,Pay Utility,254726095979 - DOREEN MOROSIA,,DAD
OGD9PE24YF,13/07/2020 07:13,13/07/2020 07:13,Pay Bill Online from 254715764212 - BANCE ISHEMINYE Acc. JFE ,Completed,6000,,97000,TRUE,Pay Bill Online,254715764212 - BANCE ISHEMINYE,,JFE
OGC8PCQO4W,12/07/2020 23:12,12/07/2020 23:12,Pay Bill from 254726928933 - JOSHUA NDUNDA NZIOKA Acc. KCJ,Completed,4000,,91000,TRUE,Pay Utility with OD via STK,254726928933 - JOSHUA NDUNDA NZIOKA,,KCJ
OGC8P3XF6Q,12/07/2020 18:24,12/07/2020 18:24,Pay Bill from 254718292893 - HERINE ELSEBA ATIENO Acc. IFI,Completed,5000,,87000,TRUE,Pay Utility,254718292893 - HERINE ELSEBA ATIENO,,IFI
OGC5P2ANIR,12/07/2020 17:46,12/07/2020 17:46,Pay Bill from 254722458136 - NADI GOLICHA Acc. KAA,Completed,17000,,82000,TRUE,Pay Utility,254722458136 - NADI GOLICHA,,KAA
OGC1OXN8T9,12/07/2020 15:41,12/07/2020 15:41,Pay Bill from 254715326205 - GEORGE MURANGIRI KOBIA Acc. FBB,Completed,17000,,65000,TRUE,Pay Utility,254715326205 - GEORGE MURANGIRI KOBIA,,FBB
OGC7OSO2B3,12/07/2020 13:13,12/07/2020 13:13,Pay Bill from 254742736122 - yassir mwinyi abdulrazaq Acc. ICE,Completed,8000,,48000,TRUE,Pay Utility,254742736122 - yassir mwinyi abdulrazaq,,ICE
OGB6OFD2OS,11/07/2020 21:03,11/07/2020 21:03,Pay Bill from 254710814215 - JOAN NYAMBURA KAMAU Acc. jci,Completed,20000,,40000,TRUE,Pay Utility,254710814215 - JOAN NYAMBURA KAMAU,,jci
OGB4OC2BI2,11/07/2020 19:42,11/07/2020 19:41,Pay Bill Online from 254713831946 - KEVIN WAMBUA Acc. IAA,Completed,10000,,20000,TRUE,Pay Bill Online,254713831946 - KEVIN WAMBUA,,IAA
OGB0O3PF5S,11/07/2020 16:54,11/07/2020 16:54,Pay Bill from 254700052170 - EMMANUEL MUTYETU Acc. KBF,Completed,10000,,10000,TRUE,Pay Utility,254700052170 - EMMANUEL MUTYETU,,KBF
OGB6NXPMTO,11/07/2020 14:24,11/07/2020 14:24,Utility Account to Organization Settlement Account,Completed,,-92700,0,TRUE,Utility Account to Organization Settlement Account,979524 - ANCIENT WELLS PROPERTY MANAGERS 2,,
OGB2NQIFTQ,11/07/2020 11:07,11/07/2020 11:07,Pay Bill from 254725255978 - DICKSON OLUOCH Acc. JFF,Completed,10000,,92700,TRUE,Pay Utility,254725255978 - DICKSON OLUOCH,,JFF
OGB4NQGIGA,11/07/2020 11:05,11/07/2020 11:05,Pay Bill from 254707370896 - OKECH BRIAN BRIAN Acc. FFA,Completed,7000,,82700,TRUE,Pay Utility,254707370896 - OKECH BRIAN BRIAN,,FFA
OGB8NP06UY,11/07/2020 10:23,11/07/2020 10:23,Pay Bill from 254718032128 - ABIGAEL ADENYA Acc. jdd,Completed,2700,,75700,TRUE,Pay Utility with OD via STK,254718032128 - ABIGAEL ADENYA,,jdd
OGB7NNYW55,11/07/2020 09:51,11/07/2020 09:51,Pay Bill from 254716863301 - PRISCILLAH WANJIRU Acc. ICD,Completed,11000,,73000,TRUE,Pay Utility,254716863301 - PRISCILLAH WANJIRU,,ICD
OGB2NKQXC8,11/07/2020 08:03,11/07/2020 08:03,Pay Bill Online from 254706549634 - CLINTON OMBASA Acc. FDB,Completed,15000,,62000,TRUE,Pay Bill Online,254706549634 - CLINTON OMBASA,,FDB
OGB3NKPN2Z,11/07/2020 08:02,11/07/2020 08:02,Pay Bill Online from 254726116777 - MARY NDUTA GOSHO Acc. JDB,Completed,15000,,47000,TRUE,Pay Bill Online,254726116777 - MARY NDUTA GOSHO,,JDB
OGA8NIIGBC,10/07/2020 23:51,10/07/2020 23:51,Pay Bill Online from 254720451253 - JIMMY KIOGORA NKIROTE Acc. KBD,Completed,12000,,32000,TRUE,Pay Utility with OD Online,254720451253 - JIMMY KIOGORA NKIROTE,,KBD
OGA0N8JN84,10/07/2020 18:27,10/07/2020 18:27,Pay Bill Online from 254725604284 - BRIAN MURATHE WARUIRU Acc. HTE,Completed,5000,,20000,TRUE,Pay Bill Online,254725604284 - BRIAN MURATHE WARUIRU,,HTE
OGA6N286Y8,10/07/2020 16:08,10/07/2020 16:08,Pay Bill from 254722115546 - ROSELYNE MURUGUTI SUMBA Acc. JCH,Completed,15000,,15000,TRUE,Pay Utility with OD via STK,254722115546 - ROSELYNE MURUGUTI SUMBA,,JCH
OGA4N1DVWY,10/07/2020 15:46,10/07/2020 15:46,Utility Account to Organization Settlement Account,Completed,,-73000,0,TRUE,Utility Account to Organization Settlement Account,979524 - ANCIENT WELLS PROPERTY MANAGERS 2,,
OGA3MT8T4B,10/07/2020 12:01,10/07/2020 12:01,Pay Bill Online from 254724754662 - CHARLES ERUKUDI EKAI Acc. FBE,Completed,16000,,73000,TRUE,Pay Bill Online,254724754662 - CHARLES ERUKUDI EKAI,,FBE
OGA8MR52IO,10/07/2020 11:01,10/07/2020 11:01,Pay Bill from 0758591833 - DORCUS MBULA PETER Acc. JEF,Completed,8000,,57000,TRUE,Pay Utility,0758591833 - DORCUS MBULA PETER,,JEF
OGA8MQ2IR8,10/07/2020 10:30,10/07/2020 10:30,Pay Bill from 254728313347 - GEORGE KIMAIGA NYAMORI Acc. ici,Completed,16000,,49000,TRUE,Pay Utility,254728313347 - GEORGE KIMAIGA NYAMORI,,ici
OGA0MOEVZY,10/07/2020 09:41,10/07/2020 09:41,Pay Bill from 254701047939 - Cyrus Wahome Acc. kbg,Completed,10000,,33000,TRUE,Pay Utility,254701047939 - Cyrus Wahome,,kbg
OG97MIHYOR,09/07/2020 21:54,09/07/2020 21:54,Pay Bill from 254714078455 - BARRACK OTIENO OUMA Acc. IBF,Completed,11000,,23000,TRUE,Pay Utility,254714078455 - BARRACK OTIENO OUMA,,IBF
OG94MDB9T0,09/07/2020 19:37,09/07/2020 19:37,Pay Bill from 254723499628 - CLINTON JOSEPH MUHARI Acc. hfh,Completed,12000,,12000,TRUE,Pay Utility,254723499628 - CLINTON JOSEPH MUHARI,,hfh
OG98MBEQ8W,09/07/2020 19:04,09/07/2020 19:04,Utility Account to Organization Settlement Account,Completed,,-261000,0,TRUE,Utility Account to Organization Settlement Account,979524 - ANCIENT WELLS PROPERTY MANAGERS 2,,
OG95M4M23R,09/07/2020 16:41,09/07/2020 16:41,Pay Bill from 0743248310 - PATRICK STURRIDGE NYONGESA Acc. kaf,Completed,8500,,261000,TRUE,Pay Utility,0743248310 - PATRICK STURRIDGE NYONGESA,,kaf
OG96M4786E,09/07/2020 16:30,09/07/2020 16:30,Pay Bill from 254702654503 - LARRY OMBAKA Acc. KFF,Completed,2000,,252500,TRUE,Pay Utility,254702654503 - LARRY OMBAKA,,KFF
OG95LVEN2T,09/07/2020 12:27,09/07/2020 12:27,Pay Bill from 254726380203 - SHARON OLENDO Acc. HCA,Completed,18000,,250500,TRUE,Pay Utility,254726380203 - SHARON OLENDO,,HCA
OG96LON8L4,09/07/2020 09:03,09/07/2020 09:03,Pay Bill from 254708442077 - JOHN MUIRURI Acc. FAC,Completed,9000,,232500,TRUE,Pay Utility,254708442077 - JOHN MUIRURI,,FAC
OG99LNSSKJ,09/07/2020 08:33,09/07/2020 08:33,Pay Bill from 254716328009 - IRENE ODHIAMBO Acc. KGG,Completed,9000,,223500,TRUE,Pay Utility,254716328009 - IRENE ODHIAMBO,,KGG
OG86LKIEOO,08/07/2020 22:59,08/07/2020 22:59,Pay Bill from 254720458054 - ROBERT BETT Acc. ICH,Completed,18000,,214500,TRUE,Pay Utility,254720458054 - ROBERT BETT,,ICH
OG88LFXH6Q,08/07/2020 20:05,08/07/2020 20:05,Pay Bill from 254716369842 - HUMMAM HAMID MOHAMED SAID AMBER Acc. FGC,Completed,1000,,196500,TRUE,Pay Utility,254716369842 - HUMMAM HAMID MOHAMED SAID AMBER,,FGC
OG88LEMILC,08/07/2020 19:39,08/07/2020 19:39,Pay Bill Online from 254720787158 - AMOS CHELANG'A Acc. KFK,Completed,16000,,195500,TRUE,Pay Bill Online,254720787158 - AMOS CHELANG'A,,KFK
OG88L50DTA,08/07/2020 16:27,08/07/2020 16:27,Pay Bill from 0758591833 - DORCUS MBULA PETER Acc. JEF,Completed,5000,,179500,TRUE,Pay Utility,0758591833 - DORCUS MBULA PETER,,JEF
OG87L2K0LN,08/07/2020 15:23,08/07/2020 15:23,Pay Bill from 254798674917 - Egbe Okpaga Okpaga Acc. HAD,Completed,9500,,174500,TRUE,Pay Utility,254798674917 - Egbe Okpaga Okpaga,,HAD
OG86KYK6AQ,08/07/2020 13:33,08/07/2020 13:33,Pay Bill Online from 0757699775 - BENARD MUIA MUTUA Acc. HCB,Completed,16000,,165000,TRUE,Pay Bill Online,0757699775 - BENARD MUIA MUTUA,,HCB
OG88KW1Z3W,08/07/2020 12:23,08/07/2020 12:23,Pay Bill from 254724777705 - COLLINS AKASA Acc. KEG ,Completed,2000,,149000,TRUE,Pay Utility,254724777705 - COLLINS AKASA,,KEG
OG89KRIZV3,08/07/2020 10:15,08/07/2020 10:15,Pay Bill from 254721115404 - Justine Fayuma Okwemba Acc. HAA,Completed,17000,,147000,TRUE,Pay Utility,254721115404 - Justine Fayuma Okwemba,,HAA
OG85KQYWET,08/07/2020 09:58,08/07/2020 09:58,Pay Bill from 254722986239 - CLAIRE IRENE WANGARI NJERI Acc. FFE,Completed,15000,,130000,TRUE,Pay Utility,254722986239 - CLAIRE IRENE WANGARI NJERI,,FFE
OG83KQ903Z,08/07/2020 09:37,08/07/2020 09:37,Pay Bill from 0722950695 - Joshua Mbithi Kivondo Acc. Dca,Completed,17000,,115000,TRUE,Pay Utility,0722950695 - Joshua Mbithi Kivondo,,Dca
OG86KO7RIA,08/07/2020 08:29,08/07/2020 08:29,Pay Bill from 254722940643 - HERBERT MAVIAH ISWEKA Acc. HCG,Completed,10000,,98000,TRUE,Pay Utility,254722940643 - HERBERT MAVIAH ISWEKA,,HCG
OG83KMPR1D,08/07/2020 07:20,08/07/2020 07:20,Pay Bill from 254729948896 - CAROLINE V MILIZA Acc. Fec,Completed,9000,,88000,TRUE,Pay Utility,254729948896 - CAROLINE V MILIZA,,Fec
OG83KLJY95,08/07/2020 01:09,08/07/2020 01:09,Pay Bill from 254723605941 - JOHN KARIHA Acc. KDD,Completed,6000,,79000,TRUE,Pay Utility,254723605941 - JOHN KARIHA,,KDD
OG75KL47J9,07/07/2020 23:12,07/07/2020 23:12,Pay Bill from 254725754547 - MWACHIRO GEORGE DECHE Acc. DFC,Completed,23000,,73000,TRUE,Pay Utility,254725754547 - MWACHIRO GEORGE DECHE,,DFC
OG75KKPZ9V,07/07/2020 22:30,07/07/2020 22:30,Pay Bill from 254700829103 - ABADIR KEDIR Acc. HBH,Completed,18000,,50000,TRUE,Pay Utility,254700829103 - ABADIR KEDIR,,HBH
OG77KJZCO7,07/07/2020 21:49,07/07/2020 21:49,Pay Bill from 0790273411 - MUHAMEDMALIK   GAAL Acc. FDF,Completed,16000,,32000,TRUE,Pay Utility,0790273411 - MUHAMEDMALIK   GAAL,,FDF
OG77KJT027,07/07/2020 21:42,07/07/2020 21:42,Pay Bill Online from 254722170279 - GEOFFREY GETUI Acc. FDE,Completed,16000,,16000,TRUE,Pay Bill Online,254722170279 - GEOFFREY GETUI,,FDE
OG73KJ67GF,07/07/2020 21:18,07/07/2020 21:18,Utility Account to Organization Settlement Account,Completed,,-296500,0,TRUE,Utility Account to Organization Settlement Account,979524 - ANCIENT WELLS PROPERTY MANAGERS 2,,
OG72KIIMJ0,07/07/2020 20:57,07/07/2020 20:57,Pay Bill from 254729371750 - DERRICK OTANGA Acc. FEF,Completed,17000,,296500,TRUE,Pay Utility,254729371750 - DERRICK OTANGA,,FEF
OG72KII3A8,07/07/2020 20:57,07/07/2020 20:57,Pay Bill from 254723071630 - KENNEDY KARANJA NJOROGE Acc. JBI,Completed,10000,,279500,TRUE,Pay Utility,254723071630 - KENNEDY KARANJA NJOROGE,,JBI
OG73KHJQEH,07/07/2020 20:32,07/07/2020 20:32,Pay Bill from 254701196539 - GICHURI KARANJA Acc. fee,Completed,16000,,269500,TRUE,Pay Utility,254701196539 - GICHURI KARANJA,,fee
OG74KG6WSM,07/07/2020 20:01,07/07/2020 20:01,Pay Bill from 0742461415 - MUHINDI FRANCIS MULINYA Acc. HGG,Completed,15000,,253500,TRUE,Pay Utility,0742461415 - MUHINDI FRANCIS MULINYA,,HGG
OG79KFL70B,07/07/2020 19:50,07/07/2020 19:50,Pay Bill from 254721315975 - JOSEPH NDEGWA Acc. HEB,Completed,16000,,238500,TRUE,Pay Utility,254721315975 - JOSEPH NDEGWA,,HEB
OG75KE18G1,07/07/2020 19:23,07/07/2020 19:23,Pay Bill from 254712275450 - Faith muthoni mukundi Acc. IAF,Completed,11000,,222500,TRUE,Pay Utility,254712275450 - Faith muthoni mukundi,,IAF
OG75KCSR99,07/07/2020 19:03,07/07/2020 19:03,Pay Bill from 254711271263 - BENSON MWADIME JOSEPH Acc. 1EE,Completed,9000,,211500,TRUE,Pay Utility,254711271263 - BENSON MWADIME JOSEPH,,1EE
OG73KCP15F,07/07/2020 19:01,07/07/2020 19:01,Pay Bill from 254723872785 - MARY ANN NJERI NDUNG'U Acc. hed,Completed,9500,,202500,TRUE,Pay Utility,254723872785 - MARY ANN NJERI NDUNG'U,,hed
OG71KBPYP1,07/07/2020 18:45,07/07/2020 18:45,Pay Bill from 254715597659 - JOYCE KIVAI Acc. IED ,Completed,11000,,193000,TRUE,Pay Utility,254715597659 - JOYCE KIVAI,,IED
OG77KBCE0F,07/07/2020 18:38,07/07/2020 18:38,Pay Bill from 254714889853 - EUNICE WAIRIMU MWANGI Acc. KGE,Completed,9000,,182000,TRUE,Pay Utility,254714889853 - EUNICE WAIRIMU MWANGI,,KGE
OG76KAJLM4,07/07/2020 18:23,07/07/2020 18:23,Pay Bill from 254720458054 - ROBERT BETT Acc. ICH,Completed,8000,,173000,TRUE,Pay Utility,254720458054 - ROBERT BETT,,ICH
OG78K955MC,07/07/2020 17:56,07/07/2020 17:56,Pay Bill from 254728238249 - ESTHER WANGUI KIBUNYI Acc. ICA,Completed,17000,,165000,TRUE,Pay Utility,254728238249 - ESTHER WANGUI KIBUNYI,,ICA
OG71K8Q8NL,07/07/2020 17:47,07/07/2020 17:47,Pay Bill from 254717554562 - OMONDI JACK Acc. KCI ,Completed,12500,,148000,TRUE,Pay Utility,254717554562 - OMONDI JACK,,KCI
OG79K5QS2N,07/07/2020 16:41,07/07/2020 16:41,Pay Bill from 254714710698 - TABITHA MULEE KYALO Acc. ife,Completed,9000,,135500,TRUE,Pay Utility,254714710698 - TABITHA MULEE KYALO,,ife
OG79K1TX5B,07/07/2020 15:02,07/07/2020 15:02,Pay Bill from 254792946676 - ESTHER KAMAU Acc. hab,Completed,10000,,126500,TRUE,Pay Utility,254792946676 - ESTHER KAMAU,,hab
OG70K041M8,07/07/2020 14:15,07/07/2020 14:15,Pay Bill Online from 254713831946 - KEVIN WAMBUA Acc. IAA,Completed,10000,,116500,TRUE,Pay Bill Online,254713831946 - KEVIN WAMBUA,,IAA
OG70K015JU,07/07/2020 14:13,07/07/2020 14:13,Pay Bill from 254723026840 - HARRISON MAINA Acc. KAI,Completed,12500,,106500,TRUE,Pay Utility,254723026840 - HARRISON MAINA,,KAI
OG73JZLXRX,07/07/2020 14:02,07/07/2020 14:02,Pay Bill from 0715688238 - JOANNAH ATUHAIRE BANTU Acc. JAE,Completed,9000,,94000,TRUE,Pay Utility,0715688238 - JOANNAH ATUHAIRE BANTU,,JAE
OG75JZKX5N,07/07/2020 14:01,07/07/2020 14:01,Pay Bill Online from 254728687482 - KELSEN MWIRIGI MUTIGA Acc. HCE,Completed,10500,,85000,TRUE,Pay Bill Online,254728687482 - KELSEN MWIRIGI MUTIGA,,HCE
OG76JYJPSG,07/07/2020 13:33,07/07/2020 13:33,Pay Bill from 254724655033 - SUSAN CHIMOTO Acc. KGH,Completed,9500,,74500,TRUE,Pay Utility,254724655033 - SUSAN CHIMOTO,,KGH
OG70JV2T2W,07/07/2020 11:56,07/07/2020 11:56,Pay Bill from 254725771056 - CHARLES MURAGURI Acc. FCC,Completed,9000,,65000,TRUE,Pay Utility,254725771056 - CHARLES MURAGURI,,FCC
OG72JNCZIK,07/07/2020 07:51,07/07/2020 07:51,Pay Bill Online from 254715121526 - ROBERT WAINAINA KARIUKI Acc. HAH,Completed,18000,,56000,TRUE,Pay Bill Online,254715121526 - ROBERT WAINAINA KARIUKI,,HAH
OG68JLSLJK,06/07/2020 23:46,06/07/2020 23:46,Pay Bill from 254791154655 - ELISHA JURA Acc. IAH,Completed,18000,,38000,TRUE,Pay Utility,254791154655 - ELISHA JURA,,IAH
OG62JLQLO6,06/07/2020 23:34,06/07/2020 23:34,Pay Bill from 254720249209 - WILFRED NJUGUNA WANJIRI Acc. DDD,Completed,20000,,20000,TRUE,Pay Utility,254720249209 - WILFRED NJUGUNA WANJIRI,,DDD
OG66JL0R36,06/07/2020 22:14,06/07/2020 22:14,Utility Account to Organization Settlement Account,Completed,,-797500,0,TRUE,Utility Account to Organization Settlement Account,979524 - ANCIENT WELLS PROPERTY MANAGERS 2,,
OG61JKDQSP,06/07/2020 21:42,06/07/2020 21:42,Pay Bill from 254745643971 - bervon kaburu kiruthu Acc. jfc,Completed,10000,,797500,TRUE,Pay Utility with OD via STK,254745643971 - bervon kaburu kiruthu,,jfc
OG61JJVU4N,06/07/2020 21:22,06/07/2020 21:22,Pay Bill from 254710202776 - KELVIN KARIMI MACHARIA Acc. FAD,Completed,11000,,787500,TRUE,Pay Utility,254710202776 - KELVIN KARIMI MACHARIA,,FAD
OG61JIZTAF,06/07/2020 20:53,06/07/2020 20:53,Pay Bill from 254715505170 - JERRY WABWIRE Acc. IEH,Completed,16000,,776500,TRUE,Pay Utility with OD via STK,254715505170 - JERRY WABWIRE,,IEH
OG63JIB2UD,06/07/2020 20:34,06/07/2020 20:34,Pay Bill from 254726827817 - ERWIN ADHOK Acc. kba,Completed,17000,,760500,TRUE,Pay Utility,254726827817 - ERWIN ADHOK,,kba
OG66JIAW48,06/07/2020 20:34,06/07/2020 20:34,Pay Bill from 254712954563 - JOSEPH MUTISO KILONZO Acc. dac,Completed,20000,,743500,TRUE,Pay Utility,254712954563 - JOSEPH MUTISO KILONZO,,dac
OG69JGOVSV,06/07/2020 19:56,06/07/2020 19:56,Pay Bill from 254705207723 - LATIFA ALI BAKARI JUMA Acc. KFI,Completed,3000,,723500,TRUE,Pay Utility,254705207723 - LATIFA ALI BAKARI JUMA,,KFI
OG68JEJLYQ,06/07/2020 19:16,06/07/2020 19:16,Pay Bill from 254719488576 - GEORGE ONYANGO Acc. DAA,Completed,17000,,720500,TRUE,Pay Utility,254719488576 - GEORGE ONYANGO,,DAA
OG60JCRG9W,06/07/2020 18:44,06/07/2020 18:44,Pay Bill from 254725815806 - WILFRED OGAYE Acc. HSE DCD,Completed,20000,,703500,TRUE,Pay Utility,254725815806 - WILFRED OGAYE,,HSE
OG67J9U9OL,06/07/2020 17:46,06/07/2020 17:46,Pay Bill Online from 254704033042 - LESLIE KOIKAI Acc. IBD ,Completed,11000,,683500,TRUE,Pay Bill Online,254704033042 - LESLIE KOIKAI,,IBD
OG68J96W9S,06/07/2020 17:32,06/07/2020 17:32,Pay Bill from 254707370896 - OKECH BRIAN BRIAN Acc. KBC,Completed,10000,,672500,TRUE,Pay Utility,254707370896 - OKECH BRIAN BRIAN,,KBC
OG66J701FO,06/07/2020 16:43,06/07/2020 16:43,Pay Bill from 254715728688 - NAOMI HAGERERA JACOB Acc. DGC,Completed,20000,,662500,TRUE,Pay Utility,254715728688 - NAOMI HAGERERA JACOB,,DGC
OG62J581MC,06/07/2020 15:59,06/07/2020 15:59,Pay Bill from 254790280339 - BANTURA GIBSON Acc. IBA,Completed,11000,,642500,TRUE,Pay Utility,254790280339 - BANTURA GIBSON,,IBA
OG60J5127G,06/07/2020 15:54,06/07/2020 15:54,Pay Bill from 254702764047 - FERDINAND K Acc. KDB,Completed,16000,,631500,TRUE,Pay Utility,254702764047 - FERDINAND K,,KDB
OG68J4UTJC,06/07/2020 15:49,06/07/2020 15:49,Pay Bill from 0748212685 - timothy odhiambo owiti Acc. JDE,Completed,11000,,615500,TRUE,Pay Utility,0748212685 - timothy odhiambo owiti,,JDE
OG62J406PI,06/07/2020 15:27,06/07/2020 15:27,Pay Bill from 254723605941 - JOHN KARIHA Acc. KDD,Completed,11000,,604500,TRUE,Pay Utility,254723605941 - JOHN KARIHA,,KDD
OG65J3S0DR,06/07/2020 15:21,06/07/2020 15:21,Pay Bill from 254728610675 - RUTH WAKOLI KISABULI Acc. KGC,Completed,9000,,593500,TRUE,Pay Utility,254728610675 - RUTH WAKOLI KISABULI,,KGC
OG64J1FPS6,06/07/2020 14:19,06/07/2020 14:19,Pay Bill from 254722921132 - JOE MCCRAY MURIUKI KIHIA Acc. IFA,Completed,15000,,584500,TRUE,Pay Utility with OD via STK,254722921132 - JOE MCCRAY MURIUKI KIHIA,,IFA
OG67IWH0TV,06/07/2020 11:59,06/07/2020 11:59,Pay Bill from 254722705077 - ROSALID WAMBUI NJOROGE Acc. FDD,Completed,12000,,569500,TRUE,Pay Utility,254722705077 - ROSALID WAMBUI NJOROGE,,FDD
OG64IVYZAG,06/07/2020 11:45,06/07/2020 11:45,Pay Bill from 254708703539 - SUSAN NDUGIRE NDUGIRE Acc. Kda,Completed,17000,,557500,TRUE,Pay Utility,254708703539 - SUSAN NDUGIRE NDUGIRE,,Kda
OG66IUFAU8,06/07/2020 11:02,06/07/2020 11:02,Pay Bill from 254707315614 - TERESAH WANJIRU KIRAGU Acc. JDI,Completed,24000,,540500,TRUE,Pay Utility,254707315614 - TERESAH WANJIRU KIRAGU,,JDI
OG62ISAW6S,06/07/2020 10:01,06/07/2020 10:01,Pay Bill Online from 254717809935 - LYDIAH WERU Acc. IDC,Completed,9500,,516500,TRUE,Pay Utility with OD Online,254717809935 - LYDIAH WERU,,IDC
OG67IRG5F1,06/07/2020 09:35,06/07/2020 09:35,Pay Bill from 254714552193 - CHRISTOPHER OCHIENG Acc. JGI,Completed,20000,,507000,TRUE,Pay Utility,254714552193 - CHRISTOPHER OCHIENG,,JGI
OG61IQTAUD,06/07/2020 09:16,06/07/2020 09:16,Pay Bill from 254748104979 - JAMES GITHOGORI NGARI Acc. Kfb,Completed,16000,,487000,TRUE,Pay Utility,254748104979 - JAMES GITHOGORI NGARI,,Kfb
OG60IQ3W4W,06/07/2020 08:52,06/07/2020 08:52,Pay Bill from 254721383378 - JAMES MBITHI KILAVI Acc. ICG,Completed,9500,,471000,TRUE,Pay Utility,254721383378 - JAMES MBITHI KILAVI,,ICG
OG65IPS2HP,06/07/2020 08:41,06/07/2020 08:41,Pay Bill from 254718138578 - PAULINE KIOKO Acc. KFD,Completed,12000,,461500,TRUE,Pay Utility,254718138578 - PAULINE KIOKO,,KFD
OG67IPPZS1,06/07/2020 08:39,06/07/2020 08:39,Pay Bill from 254722258107 - JOHN ODIMA ODIMA Acc. KGF,Completed,10000,,449500,TRUE,Pay Utility,254722258107 - JOHN ODIMA ODIMA,,KGF
OG56IMI0M6,05/07/2020 23:22,05/07/2020 23:22,Pay Bill from 254705163028 - VICTORIA MUTHONI NJIRU Acc. IFD,Completed,11000,,439500,TRUE,Pay Utility,254705163028 - VICTORIA MUTHONI NJIRU,,IFD
OG53IMF6M5,05/07/2020 23:09,05/07/2020 23:09,Pay Bill from 254726593769 - BONFACE BWINA Acc. DEB,Completed,16000,,428500,TRUE,Pay Utility,254726593769 - BONFACE BWINA,,DEB
OG56IM6SFC,05/07/2020 22:41,05/07/2020 22:41,Pay Bill from 254713159153 - GUYO SANKALA Acc. DGD,Completed,20000,,412500,TRUE,Pay Utility,254713159153 - GUYO SANKALA,,DGD
OG51IL45CB,05/07/2020 21:36,05/07/2020 21:36,Pay Bill from 254727003033 - MARTIN NJUGUNA NYINGI Acc. JEG,Completed,11000,,392500,TRUE,Pay Utility,254727003033 - MARTIN NJUGUNA NYINGI,,JEG
OG55IK6AND,05/07/2020 21:00,05/07/2020 21:00,Pay Bill from 254714114228 - MWANGO AWINO VIOLET Acc. DCB,Completed,16000,,381500,TRUE,Pay Utility,254714114228 - MWANGO AWINO VIOLET,,DCB
OG51IJENRZ,05/07/2020 20:37,05/07/2020 20:37,Pay Bill from 254717726012 - WINFRED MUENI PETER Acc. IDD,Completed,12000,,365500,TRUE,Pay Utility,254717726012 - WINFRED MUENI PETER,,IDD
OG55IJ8O5B,05/07/2020 20:33,05/07/2020 20:33,Pay Bill from 254720868281 - KENNEDY MWELU Acc. KBI,Completed,12500,,353500,TRUE,Pay Utility with OD via STK,254720868281 - KENNEDY MWELU,,KBI
OG57II5H81,05/07/2020 20:06,05/07/2020 20:06,Pay Bill from 254708851939 - VENANT MBOGHO Acc. kch,Completed,10000,,341000,TRUE,Pay Utility with OD via STK,254708851939 - VENANT MBOGHO,,kch
OG58IHS4FG,05/07/2020 19:57,05/07/2020 19:57,Pay Bill from 254713115724 - ROTICH JUDITH JUDITH CHERONO Acc. KCK,Completed,17000,,331000,TRUE,Pay Utility,254713115724 - ROTICH JUDITH JUDITH CHERONO,,KCK
OG55IGSQQ1,05/07/2020 19:36,05/07/2020 19:36,Pay Bill from 254726001708 - MARTHA ATIENO ATIENO OSALO Acc. IBI,Completed,17000,,314000,TRUE,Pay Utility,254726001708 - MARTHA ATIENO ATIENO OSALO,,IBI
OG59IF3IBT,05/07/2020 19:03,05/07/2020 19:03,Pay Bill from 254723341864 - WILLIAM OSIEL WACHUDI Acc. DED,Completed,20000,,297000,TRUE,Pay Utility,254723341864 - WILLIAM OSIEL WACHUDI,,DED
OG57IEY367,05/07/2020 19:00,05/07/2020 19:00,Pay Bill from 254727648419 - ABDISALAN AHMED Acc. Jbh ,Completed,17000,,277000,TRUE,Pay Utility,254727648419 - ABDISALAN AHMED,,Jbh
OG58IAUQLS,05/07/2020 17:29,05/07/2020 17:29,Pay Bill Online from 254715892656 - DENNIS MUSYOKA MUOKI Acc. KFA,Completed,16000,,260000,TRUE,Pay Bill Online,254715892656 - DENNIS MUSYOKA MUOKI,,KFA
OG58I97HHA,05/07/2020 16:49,05/07/2020 16:49,Pay Bill Online from 254725385966 - JOSEPH MUYA MARUA Acc. KEE,Completed,10000,,244000,TRUE,Pay Bill Online,254725385966 - JOSEPH MUYA MARUA,,KEE
OG52I601WA,05/07/2020 15:24,05/07/2020 15:24,Pay Bill Online from 254720044312 - ELIUD KIPKURUI Acc. FCF,Completed,17000,,234000,TRUE,Pay Utility with OD Online,254720044312 - ELIUD KIPKURUI,,FCF
OG55I5PGUL,05/07/2020 15:16,05/07/2020 15:16,Pay Bill from 254721866866 - AHMED HASSAN Acc. KGI,Completed,10000,,217000,TRUE,Pay Utility,254721866866 - AHMED HASSAN,,KGI
OG57I5LEXB,05/07/2020 15:13,05/07/2020 15:13,Pay Bill from 254724364316 - LINET MWENDIA Acc. KEJ,Completed,16000,,207000,TRUE,Pay Utility,254724364316 - LINET MWENDIA,,KEJ
OG56I5GDDG,05/07/2020 15:09,05/07/2020 15:09,Pay Bill from 254798500940 - Paaul Oduor Acc. kfj,Completed,3000,,191000,TRUE,Pay Utility,254798500940 - Paaul Oduor,,kfj
OG51I4NTQL,05/07/2020 14:47,05/07/2020 14:47,Pay Bill from 254704833344 - LOISE KIMANI Acc. jfa,Completed,22000,,188000,TRUE,Pay Utility,254704833344 - LOISE KIMANI,,jfa
OG54I3C9GQ,05/07/2020 14:10,05/07/2020 14:10,Pay Bill from 254723499628 - CLINTON JOSEPH MUHARI Acc. hfh,Completed,4000,,166000,TRUE,Pay Utility with OD via STK,254723499628 - CLINTON JOSEPH MUHARI,,hfh
OG58I2778G,05/07/2020 13:38,05/07/2020 13:38,Pay Bill from 254711397174 - JASEL HOPE ANTONINA Acc. kef,Completed,4000,,162000,TRUE,Pay Utility,254711397174 - JASEL HOPE ANTONINA,,kef
OG58I0OZME,05/07/2020 12:54,05/07/2020 12:54,Pay Bill from 0759422988 - IVY   WITABA Acc. IEG,Completed,9000,,158000,TRUE,Pay Utility,0759422988 - IVY   WITABA,,IEG
OG58HXDBIQ,05/07/2020 11:17,05/07/2020 11:17,Pay Bill from 254792891094 - WINNIE ODHIAMBO Acc. HFD,Completed,9500,,149000,TRUE,Pay Utility,254792891094 - WINNIE ODHIAMBO,,HFD
OG51HX6LJP,05/07/2020 11:12,05/07/2020 11:12,Pay Bill from 254718233980 - KAREN ASWANI Acc. HEC,Completed,10500,,139500,TRUE,Pay Utility,254718233980 - KAREN ASWANI,,HEC
OG50HWWTG4,05/07/2020 11:03,05/07/2020 11:03,Pay Bill from 254710635630 - DONNA JESSICA OWANO Acc. KCC,Completed,10000,,129000,TRUE,Pay Utility,254710635630 - DONNA JESSICA OWANO,,KCC
OG57HWVRO1,05/07/2020 11:02,05/07/2020 11:02,Pay Bill from 254721302658 - JACOB BIRUNDU Acc. DDB,Completed,16000,,119000,TRUE,Pay Utility,254721302658 - JACOB BIRUNDU,,DDB
OG52HSOYEK,05/07/2020 08:43,05/07/2020 08:43,Pay Bill from 0790924905 - KEVIN   KIDAGISA Acc. IGC,Completed,9000,,103000,TRUE,Pay Utility,0790924905 - KEVIN   KIDAGISA,,IGC
OG44HPNPWC,04/07/2020 23:36,04/07/2020 23:36,Pay Bill from 254714156268 - MARY NJOKI KANYIRI Acc. IFC,Completed,9500,,94000,TRUE,Pay Utility,254714156268 - MARY NJOKI KANYIRI,,IFC
OG40HO0OVE,04/07/2020 21:36,04/07/2020 21:36,Pay Bill from 254703375006 - KEN RODGERS Acc. DBA,Completed,17000,,84500,TRUE,Pay Utility,254703375006 - KEN RODGERS,,DBA
OG43HKXF99,04/07/2020 20:08,04/07/2020 20:08,Pay Bill from 254798524621 - MERCY CHESANG Acc. JCJ,Completed,16000,,67500,TRUE,Pay Utility,254798524621 - MERCY CHESANG,,JCJ
OG45HIJ8AD,04/07/2020 19:22,04/07/2020 19:22,Pay Bill from 254720107609 - DENNIS OGENDI BARAKE Acc. JAJ,Completed,15000,,51500,TRUE,Pay Utility with OD via STK,254720107609 - DENNIS OGENDI BARAKE,,JAJ
OG42HHCK42,04/07/2020 19:02,04/07/2020 19:02,Pay Bill from 254719626804 - PAUL NJOROGE Acc. JFI,Completed,20000,,36500,TRUE,Pay Utility,254719626804 - PAUL NJOROGE,,JFI
OG46HGNXDO,04/07/2020 18:49,04/07/2020 18:49,Pay Bill from 0748059595 - Rashid NASSIR Khamis Acc. DDA,Completed,4000,,16500,TRUE,Pay Utility with OD via STK,0748059595 - Rashid NASSIR Khamis,,DDA
OG43HCW9O9,04/07/2020 17:37,04/07/2020 17:37,Pay Bill from 254798500940 - Paaul Oduor Acc. kfj,Completed,3000,,12500,TRUE,Pay Utility,254798500940 - Paaul Oduor,,kfj
OG49HABOW5,04/07/2020 16:42,04/07/2020 16:42,Pay Bill from 254729160700 - MICAH NDUNGI Acc. IDG,Completed,9500,,9500,TRUE,Pay Utility,254729160700 - MICAH NDUNGI,,IDG
OG46H8N6VQ,04/07/2020 16:03,04/07/2020 16:03,Utility Account to Organization Settlement Account,Completed,,-43500,0,TRUE,Utility Account to Organization Settlement Account,979524 - ANCIENT WELLS PROPERTY MANAGERS 2,,
OG45H3FOFB,04/07/2020 13:54,04/07/2020 13:54,Pay Bill from 254719398942 - NORAH WAYUA MUNYAO Acc. KDC,Completed,10000,,43500,TRUE,Pay Utility,254719398942 - NORAH WAYUA MUNYAO,,KDC
OG43H3DBG3,04/07/2020 13:52,04/07/2020 13:52,Pay Bill Online from 254726313835 - SYLVIA JUMA Acc. HDF,Completed,9500,,33500,TRUE,Pay Bill Online,254726313835 - SYLVIA JUMA,,HDF
OG42GZVOH4,04/07/2020 12:21,04/07/2020 12:21,Pay Bill from 254729392595 - WINNIE NASICHE KERE Acc. JBF,Completed,8000,,24000,TRUE,Pay Utility,254729392595 - WINNIE NASICHE KERE,,JBF
OG44GZVKES,04/07/2020 12:21,04/07/2020 12:21,Pay Bill from 254721911181 - UBAH ALINOOR Acc. HDG ,Completed,16000,,16000,TRUE,Pay Utility,254721911181 - UBAH ALINOOR,,HDG
OG41GVZ3WJ,04/07/2020 10:35,04/07/2020 10:35,Utility Account to Organization Settlement Account,Completed,,-117500,0,TRUE,Utility Account to Organization Settlement Account,979524 - ANCIENT WELLS PROPERTY MANAGERS 2,,
OG44GTMD2M,04/07/2020 09:24,04/07/2020 09:24,Pay Bill from 0769001671 - Wilson Mutangili Wambua Acc. haf,Completed,9500,,117500,TRUE,Pay Utility,0769001671 - Wilson Mutangili Wambua,,haf
OG41GRYBY9,04/07/2020 08:28,04/07/2020 08:28,Pay Bill from 254718292893 - HERINE ELSEBA ATIENO Acc. IFI,Completed,2500,,108000,TRUE,Pay Utility,254718292893 - HERINE ELSEBA ATIENO,,IFI
OG42GPIHU6,04/07/2020 04:07,04/07/2020 04:07,Pay Bill from 254716369842 - HUMMAM HAMID MOHAMED SAID AMBER Acc. FGC,Completed,1000,,105500,TRUE,Pay Utility with OD via STK,254716369842 - HUMMAM HAMID MOHAMED SAID AMBER,,FGC
OG31GNZSZ9,03/07/2020 22:08,03/07/2020 22:08,Pay Bill from 254718292893 - HERINE ELSEBA ATIENO Acc. IFI,Completed,4500,,104500,TRUE,Pay Utility,254718292893 - HERINE ELSEBA ATIENO,,IFI
OG31GK5X5R,03/07/2020 20:09,03/07/2020 20:09,Pay Bill from 0715251159 - mediatrix davvy malo Acc. IAC,Completed,10000,,100000,TRUE,Pay Utility with OD via STK,0715251159 - mediatrix davvy malo,,IAC
OG34GJU78O,03/07/2020 20:02,03/07/2020 20:02,Pay Bill from 254729796719 - JACINTA WANJIKU NJERI Acc. FFF,Completed,17000,,90000,TRUE,Pay Utility,254729796719 - JACINTA WANJIKU NJERI,,FFF
OG38GH8UEI,03/07/2020 19:14,03/07/2020 19:14,Pay Bill Online from 0743369961 - SALOME WANGARI KIBUGI Acc. KGD,Completed,10000,,73000,TRUE,Pay Bill Online,0743369961 - SALOME WANGARI KIBUGI,,KGD
OG37GFXZAX,03/07/2020 18:52,03/07/2020 18:52,Pay Bill from 254706237502 - STEPHEN WERE Acc. IBA,Completed,8000,,63000,TRUE,Pay Utility,254706237502 - STEPHEN WERE,,IBA
OG33GFUHWN,03/07/2020 18:50,03/07/2020 18:50,Pay Bill from 254712187712 - JUDELEEN AHINDUKHA SHILOBELE Acc. IGG,Completed,10000,,55000,TRUE,Pay Utility,254712187712 - JUDELEEN AHINDUKHA SHILOBELE,,IGG
OG35GDVU23,03/07/2020 18:14,03/07/2020 18:14,Pay Bill from 254722874715 - PATRCIAH mbesa KIOKO Acc. KBB,Completed,16000,,45000,TRUE,Pay Utility with OD via STK,254722874715 - PATRCIAH mbesa KIOKO,,KBB
OG34GBTMDS,03/07/2020 17:32,03/07/2020 17:32,Pay Bill from 254705207723 - LATIFA ALI BAKARI JUMA Acc. KFI,Completed,1000,,29000,TRUE,Pay Utility,254705207723 - LATIFA ALI BAKARI JUMA,,KFI
OG35GBGIA9,03/07/2020 17:24,03/07/2020 17:24,Pay Bill from 254705207723 - LATIFA ALI BAKARI JUMA Acc. KFI ,Completed,8000,,28000,TRUE,Pay Utility,254705207723 - LATIFA ALI BAKARI JUMA,,KFI
OG35G9AKN7,03/07/2020 16:36,03/07/2020 16:36,Pay Bill from 254725094113 - BRAXTON LUMWAJI Acc. DDC,Completed,20000,,20000,TRUE,Pay Utility,254725094113 - BRAXTON LUMWAJI,,DDC
OG36G8IH6G,03/07/2020 16:18,03/07/2020 16:18,Utility Account to Organization Settlement Account,Completed,,-80000,0,TRUE,Utility Account to Organization Settlement Account,979524 - ANCIENT WELLS PROPERTY MANAGERS 2,,
OG35G6EGIF,03/07/2020 15:24,03/07/2020 15:24,Pay Bill from 254729508187 - PATRICK SOLOMON GUDA Acc. IGF,Completed,15000,,80000,TRUE,Pay Utility,254729508187 - PATRICK SOLOMON GUDA,,IGF
OG31G4MAHH,03/07/2020 14:38,03/07/2020 14:38,Pay Bill from 254724882554 - ALPHONCE WAMBUA NGELI Acc. JDA,Completed,20000,,65000,TRUE,Pay Utility,254724882554 - ALPHONCE WAMBUA NGELI,,JDA
OG37G3LSOF,03/07/2020 14:10,03/07/2020 14:10,Pay Bill from 254740124183 - TIMOTHY OWITI Acc. JDE,Completed,10000,,45000,TRUE,Pay Utility with OD via STK,254740124183 - TIMOTHY OWITI,,JDE
OG34G2EDPO,03/07/2020 13:38,03/07/2020 13:38,Pay Bill from 254798500940 - Paaul Oduor Acc. fkj,Completed,9000,,35000,TRUE,Pay Utility,254798500940 - Paaul Oduor,,fkj
OG36G0WCEM,03/07/2020 12:57,03/07/2020 12:57,Pay Bill from 254728364280 - EMMANUEL THUMA OYIER Acc. IDF,Completed,11000,,26000,TRUE,Pay Utility,254728364280 - EMMANUEL THUMA OYIER,,IDF
OG39FZE5R3,03/07/2020 12:17,03/07/2020 12:17,Pay Bill Online from 254703528196 - ERIC GITONGA MUGO Acc. KGJ,Completed,15000,,15000,TRUE,Pay Bill Online,254703528196 - ERIC GITONGA MUGO,,KGJ
OG31FYS6WV,03/07/2020 12:00,03/07/2020 12:00,Utility Account to Organization Settlement Account,Completed,,-242500,0,TRUE,Utility Account to Organization Settlement Account,979524 - ANCIENT WELLS PROPERTY MANAGERS 2,,
OG36FY9F1C,03/07/2020 11:45,03/07/2020 11:45,Pay Bill from 254722986239 - CLAIRE IRENE WANGARI NJERI Acc. FFE,Completed,15000,,242500,TRUE,Pay Utility,254722986239 - CLAIRE IRENE WANGARI NJERI,,FFE
OG30FX50AC,03/07/2020 11:14,03/07/2020 11:14,Pay Bill from 0745440551 - DON ONYANGO ODERO KOBONG Acc. HDE,Completed,10500,,227500,TRUE,Pay Utility,0745440551 - DON ONYANGO ODERO KOBONG,,HDE
OG30FWRMN6,03/07/2020 11:03,03/07/2020 11:03,Pay Bill from 254728476791 - CAROLE ACHIENG Acc. KCF,Completed,10000,,217000,TRUE,Pay Utility,254728476791 - CAROLE ACHIENG,,KCF
OG31FWBTWR,03/07/2020 10:51,03/07/2020 10:51,Pay Bill from 254728704378 - ELIZABETH KAMENE MUSYIMI Acc. jgj,Completed,16000,,207000,TRUE,Pay Utility,254728704378 - ELIZABETH KAMENE MUSYIMI,,jgj
OG37FQ7MRF,03/07/2020 07:15,03/07/2020 07:15,Pay Bill from 254707669965 - ELVIS MOENGA OKERO Acc. IAE,Completed,9000,,191000,TRUE,Pay Utility,254707669965 - ELVIS MOENGA OKERO,,IAE
OG22FO3CRQ,02/07/2020 21:54,02/07/2020 21:54,Pay Bill from 254708786932 - ZUBEDAH MOHAMMED Acc. IAG,Completed,9500,,182000,TRUE,Pay Utility,254708786932 - ZUBEDAH MOHAMMED,,IAG
OG26FN0DK0,02/07/2020 21:12,02/07/2020 21:12,Pay Bill from 254726928933 - JOSHUA NDUNDA NZIOKA Acc. KCJ,Completed,6000,,172500,TRUE,Pay Utility,254726928933 - JOSHUA NDUNDA NZIOKA,,KCJ
OG21FMOC99,02/07/2020 21:01,02/07/2020 21:01,Pay Bill from 254725074792 - CAROLINE KURI Acc. KCA,Completed,17000,,166500,TRUE,Pay Utility with OD via STK,254725074792 - CAROLINE KURI,,KCA
OG20FLMK2A,02/07/2020 20:32,02/07/2020 20:32,Pay Bill from 254713461026 - FLORENCE MUCOKI Acc. HGC,Completed,9500,,149500,TRUE,Pay Utility,254713461026 - FLORENCE MUCOKI,,HGC
OG23FKYL0X,02/07/2020 20:16,02/07/2020 20:16,Pay Bill from 254707237792 - BRENDA WACHIRA Acc. JBC,Completed,12000,,140000,TRUE,Pay Utility with OD via STK,254707237792 - BRENDA WACHIRA,,JBC
OG29FKOTBZ,02/07/2020 20:10,02/07/2020 20:10,Pay Bill from 254717672307 - LIZZY AWUOR OBONYO Acc. HAE,Completed,11000,,128000,TRUE,Pay Utility,254717672307 - LIZZY AWUOR OBONYO,,HAE
OG29FF6KRL,02/07/2020 18:29,02/07/2020 18:29,Pay Bill from 254708619274 - BONIFACE MUTUA Acc. IFF,Completed,10000,,117000,TRUE,Pay Utility,254708619274 - BONIFACE MUTUA,,IFF
OG23FCQHFN,02/07/2020 17:40,02/07/2020 17:40,Pay Bill from 0758826849 -  Norah Awala Anyango Acc. IDH,Completed,17000,,107000,TRUE,Pay Utility,0758826849 -  Norah Awala Anyango,,IDH
OG29F2YDFZ,02/07/2020 13:32,02/07/2020 13:32,Pay Bill from 254714060203 - PATRICK MWANGOMBE MSAWUCHI Acc. KEI,Completed,12000,,90000,TRUE,Pay Utility,254714060203 - PATRICK MWANGOMBE MSAWUCHI,,KEI
OG21F09HA5,02/07/2020 12:17,02/07/2020 12:17,Pay Bill from 254716499837 - ASHA MUSA Acc. JFD,Completed,15000,,78000,TRUE,Pay Utility,254716499837 - ASHA MUSA,,JFD
OG22EZWUWY,02/07/2020 12:07,02/07/2020 12:07,Pay Bill from 254719285750 - LILIAN ACHIENG ODONGO Acc. IGE,Completed,9000,,63000,TRUE,Pay Utility,254719285750 - LILIAN ACHIENG ODONGO,,IGE
OG26EZSBP8,02/07/2020 12:03,02/07/2020 12:03,Pay Bill from 254702355678 - JOHN NJOROGE GICHERU Acc. ITE,Completed,11000,,54000,TRUE,Pay Utility,254702355678 - JOHN NJOROGE GICHERU,,ITE
OG22EY6QG6,02/07/2020 11:18,02/07/2020 11:18,Pay Bill from 254721465713 - RHODA WAMBUI MWANGI Acc. Jfh,Completed,17000,,43000,TRUE,Pay Utility,254721465713 - RHODA WAMBUI MWANGI,,Jfh
OG23EXTRMD,02/07/2020 11:08,02/07/2020 11:08,Pay Bill from 254714855708 - KIPLANGAT SITIENEI Acc. FAE,Completed,16000,,26000,TRUE,Pay Utility,254714855708 - KIPLANGAT SITIENEI,,FAE
OG16EPON32,01/07/2020 23:08,01/07/2020 23:08,Pay Bill from 254798643998 - Judith Mwaniki Acc. KCE,Completed,10000,,10000,TRUE,Pay Utility,254798643998 - Judith Mwaniki,,KCE
OG18EPMF20,01/07/2020 23:00,01/07/2020 23:00,Utility Account to Organization Settlement Account,Completed,,-460400,0,TRUE,Utility Account to Organization Settlement Account,979524 - ANCIENT WELLS PROPERTY MANAGERS 2,,
OG16EMWFXA,01/07/2020 20:48,01/07/2020 20:48,Pay Bill from 254722444622 - CHARITY KAGWAINI Acc. FFD,Completed,11000,,460400,TRUE,Pay Utility,254722444622 - CHARITY KAGWAINI,,FFD
OG16EI6PNK,01/07/2020 19:10,01/07/2020 19:10,Pay Bill from 254712561678 - SAMUEL ADIYO OGODO Acc. KAE,Completed,10000,,449400,TRUE,Pay Utility,254712561678 - SAMUEL ADIYO OGODO,,KAE
OG15EGJXET,01/07/2020 18:42,01/07/2020 18:42,Pay Bill from 254718299426 - AMOS NGURE MWANGI Acc. HEE,Completed,10500,,439400,TRUE,Pay Utility,254718299426 - AMOS NGURE MWANGI,,HEE
OG13EFLLI9,01/07/2020 18:25,01/07/2020 18:25,Pay Bill from 254708211882 - DORCAS TIBAKANYA Acc. KDG,Completed,11000,,428900,TRUE,Pay Utility,254708211882 - DORCAS TIBAKANYA,,KDG
OG18EDSVCA,01/07/2020 17:50,01/07/2020 17:50,Pay Bill from 254726753273 - JESSE K MURIRMI NJERU Acc. HCH,Completed,17000,,417900,TRUE,Pay Utility,254726753273 - JESSE K MURIRMI NJERU,,HCH
OG18EBKIS2,01/07/2020 17:04,01/07/2020 17:04,Pay Bill Online from 254711724272 - EDMOND ONYANGO OKEWE Acc. FCE,Completed,15000,,400900,TRUE,Pay Bill Online,254711724272 - EDMOND ONYANGO OKEWE,,FCE
OG14E5ZIBQ,01/07/2020 14:42,01/07/2020 14:42,Pay Bill from 254714209770 - PURITY NDUKU KYALO Acc. JEB,Completed,15000,,385900,TRUE,Pay Utility,254714209770 - PURITY NDUKU KYALO,,JEB
OG18E3FX26,01/07/2020 13:32,01/07/2020 13:32,Pay Bill from 254791910715 - BOAZ OMAE MORARO Acc. ICC,Completed,10000,,370900,TRUE,Pay Utility,254791910715 - BOAZ OMAE MORARO,,ICC
OG15DZIXCJ,01/07/2020 11:42,01/07/2020 11:42,Pay Bill from 254725439532 - Jackline Wanjiko Namboso Acc. IEH,Completed,600,,360900,TRUE,Pay Utility with OD via STK,254725439532 - Jackline Wanjiko Namboso,,IEH
OG16DVS9L4,01/07/2020 09:54,01/07/2020 09:54,Pay Bill from 254726783489 - OLIVER OKINDO Acc. JBG,Completed,10000,,360300,TRUE,Pay Utility,254726783489 - OLIVER OKINDO,,JBG
OG19DSYVYT,01/07/2020 08:22,01/07/2020 08:22,Pay Bill from 254706159636 - titus omondi abuodha Acc. HBC,Completed,5000,,350300,TRUE,Pay Utility,254706159636 - titus omondi abuodha,,HBC
OG18DSL4OI,01/07/2020 08:07,01/07/2020 08:07,Pay Bill Online from 254715764212 - BANCE ISHEMINYE Acc. JFE,Completed,6000,,345300,TRUE,Pay Bill Online,254715764212 - BANCE ISHEMINYE,,JFE
OG16DSILWY,01/07/2020 08:04,01/07/2020 08:04,Pay Bill from 254716784364 - Wendy Kemunto Nyandiko Acc. FFC,Completed,9000,,339300,TRUE,Pay Utility,254716784364 - Wendy Kemunto Nyandiko,,FFC
OG15DSHFYN,01/07/2020 08:03,01/07/2020 08:03,Pay Bill from 254721918811 - AHMED ABDI Acc. kaj,Completed,16000,,330300,TRUE,Pay Utility,254721918811 - AHMED ABDI,,kaj
OG12DRT2PG,01/07/2020 07:31,01/07/2020 07:31,Pay Bill from 254701683737 - MICHAEL NGUGI Acc. HDB,Completed,16000,,314300,TRUE,Pay Utility,254701683737 - MICHAEL NGUGI,,HDB
OG19DQZATV,01/07/2020 06:26,01/07/2020 06:26,Pay Bill from 254716369842 - HUMMAM HAMID MOHAMED SAID AMBER Acc. FGC,Completed,1500,,298300,TRUE,Pay Utility,254716369842 - HUMMAM HAMID MOHAMED SAID AMBER,,FGC
