Receipt No.,Completion Time,Initiation Time,Details,Transaction Status,Paid In,Withdrawn,Balance,Balance Confirmed,Reason Type,Other Party Info,Linked Transaction ID,A/C No.
RKA6YVPRNQ,10/11/2023 18:26,10/11/2023 18:26,Pay Bill from 0717441870 - Steven oduor ogutu Acc. KTA,Completed,1500,,11900,TRUE,Pay Utility,0717441870 - Steven oduor ogutu,,KTA
RKA9YIGKJR,10/11/2023 16:57,10/11/2023 16:57,Pay Bill from 254729358258 - Cliff Ombasa Acc. v05,Completed,200,,10400,TRUE,Pay Utility,254729358258 - Cliff Ombasa,,v05
RKA6Y2ZY9C,10/11/2023 14:47,10/11/2023 14:47,Pay Bill from 254717899065 - MASELINE ONDIJO Acc. HCG,Completed,1800,,10200,TRUE,Pay Utility,254717899065 - MASELINE ONDIJO,,HCG
RKA2XNOTDU,10/11/2023 12:35,10/11/2023 12:35,Pay Bill from 0715688238 - JOANNAH ATUHAIRE BANTU Acc. FFA,Completed,600,,8400,TRUE,Pay Utility,0715688238 - JOANNAH ATUHAIRE BANTU,,FFA
RKA3X8B3HL,10/11/2023 10:12,10/11/2023 10:12,Pay Bill from 254724201046 - GIDEON NDOLO Acc. KFH,Completed,1000,,7800,TRUE,Pay Utility,254724201046 - GIDEON NDOLO,,KFH
RKA2WZLC5M,10/11/2023 08:46,10/11/2023 08:46,Pay Bill Online from 254713966424 - NDUTI MUTHUI Acc. jed,Completed,1500,,6800,TRUE,Pay Bill Online,254713966424 - NDUTI MUTHUI,,jed
RK97VGJN0D,09/11/2023 18:11,09/11/2023 18:11,Pay Bill Online from 254720381965 - JAMES NGUGI MWANIKI Acc. JBI,Completed,3600,,5300,TRUE,Pay Bill Online,254720381965 - JAMES NGUGI MWANIKI,,JBI
RK99V0XL13,09/11/2023 16:13,09/11/2023 16:13,Pay Bill Online from 254720201157 - BENSON INYANJE MWAKHA Acc. b6,Completed,200,,1700,TRUE,Pay Bill Online,254720201157 - BENSON INYANJE MWAKHA,,b6
RK99UVL4SP,09/11/2023 15:24,09/11/2023 15:24,Pay Bill from 254726337163 - HALIMA ALI HASSAN Acc. DDA,Completed,500,,1500,TRUE,Pay Utility,254726337163 - HALIMA ALI HASSAN,,DDA
RK92U9K4EA,09/11/2023 12:01,09/11/2023 12:01,Pay Bill Online from 254728091282 - ALI OMAR MZEE Acc. FGF,Completed,1000,,1000,TRUE,Pay Bill Online,254728091282 - ALI OMAR MZEE,,FGF
RK92TFD6EA,09/11/2023 05:56,09/11/2023 05:56,Utility Account to Organization Settlement Account,Completed,,-11800,0,TRUE,Utility Account to Organization Settlement Account,846783 - ANCIENT WELLS LTD 4,,
RK81T2VTG9,08/11/2023 21:27,08/11/2023 21:27,Utility Account to Organization Settlement Account,Completed,,-10000,11800,TRUE,Utility Account to Organization Settlement Account,846783 - ANCIENT WELLS LTD 4,,
RK86SFJNGK,08/11/2023 18:51,08/11/2023 18:51,Pay Bill from 254796069018 - PEACE KIMEU Acc. JAH,Completed,2000,,21800,TRUE,Pay Utility,254796069018 - PEACE KIMEU,,JAH
RK86S9WBJC,08/11/2023 18:17,08/11/2023 18:17,Pay Bill from 0724386624 - FATUMA ISSE YUSSUF Acc. FAB,Completed,1200,,19800,TRUE,Pay Utility,0724386624 - FATUMA ISSE YUSSUF,,FAB
RK85RI5NMZ,08/11/2023 14:28,08/11/2023 14:28,Pay Bill Online from 0741500311 - ALLAN GISONI NYANGARESI Acc. dba,Completed,600,,18600,TRUE,Pay Bill Online,0741500311 - ALLAN GISONI NYANGARESI,,dba
RK88REEWO2,08/11/2023 13:53,08/11/2023 13:53,Pay Bill from 254725754547 - MWACHIRO GEORGE DECHE Acc. DFC,Completed,2200,,18000,TRUE,Pay Utility,254725754547 - MWACHIRO GEORGE DECHE,,DFC
RK83R7AVBH,08/11/2023 12:48,08/11/2023 12:48,Merchant Pay Utility Received from 6227093 -     RACHAEL WANZA MUIA      Acc. wines,Completed,200,,15800,TRUE,Merchant Pay Utility via API,6227093 -     RACHAEL WANZA MUIA     ,,wines
RK87R3XHI9,08/11/2023 12:17,08/11/2023 12:17,Pay Bill from 254700430569 - EDITH   GAKII Acc. DDB,Completed,1000,,15600,TRUE,Pay Utility,254700430569 - EDITH   GAKII,,DDB
RK82R1IKZQ,08/11/2023 11:53,08/11/2023 11:53,Pay Bill Online from 254715020357 - ELIZABETH NJERI WARARI Acc. C2,Completed,400,,14600,TRUE,Pay Bill Online,254715020357 - ELIZABETH NJERI WARARI,,C2
RK87QG54VP,08/11/2023 08:14,08/11/2023 08:14,Pay Bill from 254705641030 - FRIDAH WAENI MUITHYA Acc. JEH,Completed,500,,14200,TRUE,Pay Utility,254705641030 - FRIDAH WAENI MUITHYA,,JEH
RK86Q97W0M,08/11/2023 06:24,08/11/2023 06:24,Utility Account to Organization Settlement Account,Completed,,-20000,13700,TRUE,Utility Account to Organization Settlement Account,846783 - ANCIENT WELLS LTD 4,,
RK73Q094DL,07/11/2023 22:06,07/11/2023 22:06,Pay Bill from 254712091662 - BENARD OMONDI ROBY Acc. V16,Completed,600,,33700,TRUE,Pay Utility,254712091662 - BENARD OMONDI ROBY,,V16
RK75PY9QXX,07/11/2023 21:42,07/11/2023 21:42,Pay Bill from 254705890736 - SNAIDA MMBONE Acc. FEC,Completed,200,,33100,TRUE,Pay Utility,254705890736 - SNAIDA MMBONE,,FEC
RK70PWJMNO,07/11/2023 21:24,07/11/2023 21:24,Pay Bill Online from 254720451253 - JIMMY KIOGORA NKIROTE Acc. KBD,Completed,100,,32900,TRUE,Pay Utility with OD Online,254720451253 - JIMMY KIOGORA NKIROTE,,KBD
RK75PBEAYV,07/11/2023 19:02,07/11/2023 19:02,Utility Account to Organization Settlement Account,Completed,,-10000,32800,TRUE,Utility Account to Organization Settlement Account,846783 - ANCIENT WELLS LTD 4,,
RK73P7FIPX,07/11/2023 18:40,07/11/2023 18:40,Pay Bill from 254799188200 - PURITY KURUI Acc. HDC,Completed,800,,42800,TRUE,Pay Utility,254799188200 - PURITY KURUI,,HDC
RK73ONL8WF,07/11/2023 16:20,07/11/2023 16:20,Pay Bill from 254705346201 - NZIOKA SILA Acc. JDG,Completed,800,,42000,TRUE,Pay Utility,254705346201 - NZIOKA SILA,,JDG
RK73OKIBYB,07/11/2023 15:53,07/11/2023 15:53,Pay Bill from 254723499628 - CLINTON JOSEPH MUHARI Acc. hfh,Completed,800,,41200,TRUE,Pay Utility,254723499628 - CLINTON JOSEPH MUHARI,,hfh
RK77NUO4LZ,07/11/2023 12:00,07/11/2023 12:00,Pay Bill from 254721667039 - ELIAS KIPLAGAT Acc. KAC,Completed,400,,40400,TRUE,Pay Utility,254721667039 - ELIAS KIPLAGAT,,KAC
RK70NUM7PI,07/11/2023 12:00,07/11/2023 12:00,Pay Bill Online from 254703285159 - Enock Michieka Mochoge Acc. KAE,Completed,400,,40000,TRUE,Pay Bill Online,254703285159 - Enock Michieka Mochoge,,KAE
RK76NQ5QZ6,07/11/2023 11:16,07/11/2023 11:16,Pay Bill from 254725478531 - KIPKORIR KUTO Acc. DFB,Completed,800,,39600,TRUE,Pay Utility,254725478531 - KIPKORIR KUTO,,DFB
RK75N8MYI5,07/11/2023 08:19,07/11/2023 08:19,Pay Bill from 254726292792 - PHILIP MIANO Acc. jei,Completed,3200,,38800,TRUE,Pay Utility,254726292792 - PHILIP MIANO,,jei
RK64MGIE90,06/11/2023 20:23,06/11/2023 20:23,Pay Bill from 0741807396 - JAMES  WAMBUGU RAMTU Acc. B5,Completed,400,,35600,TRUE,Pay Utility,0741807396 - JAMES  WAMBUGU RAMTU,,B5
RK68ME1OIY,06/11/2023 20:07,06/11/2023 20:07,Pay Bill Online from 254718663397 - JIMMY MUNYAO NZIOKI Acc. DCB,Completed,1000,,35200,TRUE,Pay Bill Online,254718663397 - JIMMY MUNYAO NZIOKI,,DCB
RK66M918S8,06/11/2023 19:36,06/11/2023 19:36,Pay Bill from 254716167517 - BENARD MUTUA Acc. Hcb,Completed,2000,,34200,TRUE,Pay Utility,254716167517 - BENARD MUTUA,,Hcb
RK60LZJP32,06/11/2023 18:44,06/11/2023 18:44,Pay Bill from 0746542458 - Hannah   Naliaka Acc. V23,Completed,200,,32200,TRUE,Pay Utility,0746542458 - Hannah   Naliaka,,V23
RK65LDR9EB,06/11/2023 16:09,06/11/2023 16:09,Pay Bill Online from 254715939283 - alex nyamai Acc. v7,Completed,200,,32000,TRUE,Pay Bill Online,254715939283 - alex nyamai,,v7
RK60L8DUJO,06/11/2023 15:22,06/11/2023 15:22,Pay Bill Online from 254714552193 - CHRISTOPHER OCHIENG Acc. JGI,Completed,800,,31800,TRUE,Pay Bill Online,254714552193 - CHRISTOPHER OCHIENG,,JGI
RK63L5DO5F,06/11/2023 14:55,06/11/2023 14:55,Pay Bill from 254704303496 - PETER MACHARIA WAIGANJO Acc. DFD,Completed,2400,,31000,TRUE,Pay Utility,254704303496 - PETER MACHARIA WAIGANJO,,DFD
RK68L0O846,06/11/2023 14:13,06/11/2023 14:13,Pay Bill from 254792840128 - Edwin Kingori Acc. HBF,Completed,400,,28600,TRUE,Pay Utility,254792840128 - Edwin Kingori,,HBF
RK64KZJSDE,06/11/2023 14:03,06/11/2023 14:03,Pay Bill Online from 254703276305 - MARTHA MUSYOKA Acc. IAI,Completed,1000,,28200,TRUE,Pay Bill Online,254703276305 - MARTHA MUSYOKA,,IAI
RK64KYIL74,06/11/2023 13:54,06/11/2023 13:54,Pay Bill from 254798524621 - MERCY CHESANG Acc. jcj,Completed,2800,,27200,TRUE,Pay Utility,254798524621 - MERCY CHESANG,,jcj
RK68KMMZ2W,06/11/2023 12:09,06/11/2023 12:09,Pay Bill from 0114973420 - WENDY KEMUNTO NYANDIKO Acc. ffc,Completed,1000,,24400,TRUE,Pay Utility,0114973420 - WENDY KEMUNTO NYANDIKO,,ffc
RK65KIUOB7,06/11/2023 11:33,06/11/2023 11:33,Pay Bill from 254700811449 - JOHN MULIMA ENANE Acc. HCE,Completed,1200,,23400,TRUE,Pay Utility,254700811449 - JOHN MULIMA ENANE,,HCE
RK65KATLMX,06/11/2023 10:18,06/11/2023 10:18,Pay Bill Online from 0798951042 - fridah kathure kinyua Acc. HGE,Completed,800,,22200,TRUE,Pay Bill Online,0798951042 - fridah kathure kinyua,,HGE
RK63JXB7RV,06/11/2023 07:56,06/11/2023 07:56,Pay Bill Online from 254706144834 - WILKISTER OSUMO Acc. HGH,Completed,800,,21400,TRUE,Pay Bill Online,254706144834 - WILKISTER OSUMO,,HGH
RK69JSK6IN,06/11/2023 06:46,06/11/2023 06:46,Pay Bill from 254700557767 - BAKHITA MWENDE MUANGE Acc. Kcb,Completed,1000,,20600,TRUE,Pay Utility,254700557767 - BAKHITA MWENDE MUANGE,,Kcb
RK52JMCQYY,05/11/2023 23:15,05/11/2023 23:15,Pay Bill from 254722578070 - SAMUEL MACHARIA Acc. v42,Completed,1200,,19600,TRUE,Pay Utility,254722578070 - SAMUEL MACHARIA,,v42
RK54JLXIFS,05/11/2023 23:04,05/11/2023 23:04,Pay Bill Online from 254721417560 - ANDREW SANDE Acc. JBJ,Completed,1000,,18400,TRUE,Pay Bill Online,254721417560 - ANDREW SANDE,,JBJ
RK53JLLPUR,05/11/2023 22:55,05/11/2023 22:55,Pay Bill from 0715030019 - Omwenga Ong'era Stephen Acc. E1,Completed,700,,17400,TRUE,Pay Utility,0715030019 - Omwenga Ong'era Stephen,,E1
RK50JJF6XI,05/11/2023 22:12,05/11/2023 22:12,Pay Bill from 254708910373 - MUNINI ISAAC Acc. IEB ,Completed,600,,16700,TRUE,Pay Utility,254708910373 - MUNINI ISAAC,,IEB
RK55JENXCT,05/11/2023 21:13,05/11/2023 21:13,Pay Bill from 254723411873 - FREDRICK CHERUIYOT Acc. jbf,Completed,1000,,16100,TRUE,Pay Utility,254723411873 - FREDRICK CHERUIYOT,,jbf
RK57J7IBI9,05/11/2023 20:12,05/11/2023 20:12,Pay Bill from 0729382149 - SYLVIA NABALAYO MASABULE Acc. v30,Completed,200,,15100,TRUE,Pay Utility,0729382149 - SYLVIA NABALAYO MASABULE,,v30
RK50J69EUC,05/11/2023 20:02,05/11/2023 20:02,Pay Bill from 254729450678 - GRACE NDUNGE Acc. fba,Completed,600,,14900,TRUE,Pay Utility,254729450678 - GRACE NDUNGE,,fba
RK53J4F4GZ,05/11/2023 19:50,05/11/2023 19:50,Pay Bill Online from 0759605060 - ELVIS MUSA MORARA Acc. V47,Completed,400,,14300,TRUE,Pay Bill Online,0759605060 - ELVIS MUSA MORARA,,V47
RK52IFD6Z0,05/11/2023 16:59,05/11/2023 16:59,Pay Bill from 254720814822 - JAMES OTIENO OPAR Acc. jgj,Completed,700,,13900,TRUE,Pay Utility,254720814822 - JAMES OTIENO OPAR,,jgj
RK56IBSZAY,05/11/2023 16:30,05/11/2023 16:30,Pay Bill from 254712283818 - OYUGI OCHIENG Acc. FCB,Completed,2600,,13200,TRUE,Pay Utility,254712283818 - OYUGI OCHIENG,,FCB
RK53I9Z2J5,05/11/2023 16:15,05/11/2023 16:15,Pay Bill Online from 254715892656 - DENNIS MUSYOKA MUOKI Acc. KFA,Completed,600,,10600,TRUE,Pay Bill Online,254715892656 - DENNIS MUSYOKA MUOKI,,KFA
RK58I5N4D0,05/11/2023 15:37,05/11/2023 15:37,Pay Bill Online from 254721974995 - BERNICE MANGOKA Acc. KFK,Completed,1000,,10000,TRUE,Pay Bill Online,254721974995 - BERNICE MANGOKA,,KFK
RK54HS822C,05/11/2023 13:37,05/11/2023 13:37,Pay Bill from 254726753273 - JESSE K MURIRMI NJERU Acc. HCH,Completed,800,,9000,TRUE,Pay Utility,254726753273 - JESSE K MURIRMI NJERU,,HCH
RK50HLAFWA,05/11/2023 12:29,05/11/2023 12:29,Pay Bill from 254743487420 - Margaret Wacu Muia Acc. FCE,Completed,2000,,8200,TRUE,Pay Utility,254743487420 - Margaret Wacu Muia,,FCE
RK55H8E78V,05/11/2023 10:12,05/11/2023 10:12,Pay Bill Online from 254718233980 - KAREN ASWANI Acc. HEC,Completed,1000,,6200,TRUE,Pay Bill Online,254718233980 - KAREN ASWANI,,HEC
RK58H15SWA,05/11/2023 08:54,05/11/2023 08:54,Pay Bill from 254722219253 - DAVID NJOGU Acc. v32,Completed,400,,5200,TRUE,Pay Utility with OD via STK,254722219253 - DAVID NJOGU,,v32
RK53GP1G3H,05/11/2023 02:24,05/11/2023 02:24,Pay Bill from 254723488259 - WILSON OKITE OKITE Acc. hca,Completed,1800,,4800,TRUE,Pay Utility,254723488259 - WILSON OKITE OKITE,,hca
RK45G1R4M5,04/11/2023 20:02,04/11/2023 20:02,Pay Bill from 254728670882 - SHARAD EDWARD ADALA OLUM Acc. KCK,Completed,3000,,3000,TRUE,Pay Utility,254728670882 - SHARAD EDWARD ADALA OLUM,,KCK
RK44EFY2EK,04/11/2023 13:19,04/11/2023 13:19,Utility Account to Organization Settlement Account,Completed,,-6400,0,TRUE,Utility Account to Organization Settlement Account,846783 - ANCIENT WELLS LTD 4,,
RK43EFB4T5,04/11/2023 13:14,04/11/2023 13:14,Pay Bill from 254729355933 - FELISTAH NJERI WAIRIMU Acc. IDI,Completed,2200,,6400,TRUE,Pay Utility with OD via STK,254729355933 - FELISTAH NJERI WAIRIMU,,IDI
RK48EBQIA4,04/11/2023 12:43,04/11/2023 12:43,Pay Bill from 0710572069 - GLADYS NYAMBURA MAINA Acc. HCC,Completed,1000,,4200,TRUE,Pay Utility,0710572069 - GLADYS NYAMBURA MAINA,,HCC
RK42E7TG4C,04/11/2023 12:10,04/11/2023 12:10,Pay Bill from 0745484142 - Daisy   Chebet Acc. FGE,Completed,1200,,3200,TRUE,Pay Utility with OD via STK,0745484142 - Daisy   Chebet,,FGE
RK49E4AF65,04/11/2023 11:38,04/11/2023 11:38,Pay Bill from 0769858701 - DOLLARS DANIEL CIRHUZA Acc. V09,Completed,400,,2000,TRUE,Pay Utility,0769858701 - DOLLARS DANIEL CIRHUZA,,V09
RK40DZ3ZDG,04/11/2023 10:52,04/11/2023 10:52,Pay Bill from 254798642778 - victor musyoka Acc. DAD,Completed,1000,,1600,TRUE,Pay Utility,254798642778 - victor musyoka,,DAD
RK43DYRIND,04/11/2023 10:49,04/11/2023 10:49,Pay Bill Online from 254726001437 - FESTUS MUNYIRI MAINA Acc. IFF,Completed,200,,600,TRUE,Pay Utility with OD Online,254726001437 - FESTUS MUNYIRI MAINA,,IFF
RK40DV0OLG,04/11/2023 10:16,04/11/2023 10:16,Pay Bill from 254722136450 - MARY EVERLYN Acc. JAI,Completed,200,,400,TRUE,Pay Utility,254722136450 - MARY EVERLYN,,JAI
RK42DSEM5U,04/11/2023 09:52,04/11/2023 09:52,Pay Bill from 254790128716 - HELLEN NAPHTAL Acc. V11,Completed,200,,200,TRUE,Pay Utility with OD via STK,254790128716 - HELLEN NAPHTAL,,V11
RK47DDIVOD,04/11/2023 07:02,04/11/2023 07:02,Utility Account to Organization Settlement Account,Completed,,-28150,0,TRUE,Utility Account to Organization Settlement Account,846783 - ANCIENT WELLS LTD 4,,
RK49DBQS6P,04/11/2023 06:20,04/11/2023 06:20,Pay Bill from 254711515672 - ALLAN MUTEMBEI Acc. IEI,Completed,1400,,28150,TRUE,Pay Utility,254711515672 - ALLAN MUTEMBEI,,IEI
RK33D4JPPH,03/11/2023 22:55,03/11/2023 22:55,Pay Bill Online from 254714563486 - BRIAN MMATA MUSERA Acc. KBJ,Completed,400,,26750,TRUE,Pay Bill Online,254714563486 - BRIAN MMATA MUSERA,,KBJ
RK31D1YL75,03/11/2023 22:10,03/11/2023 22:10,Pay Bill Online from 254722769473 - SAMSON CHALO Acc. IAB,Completed,1600,,26350,TRUE,Pay Bill Online,254722769473 - SAMSON CHALO,,IAB
RK39CPBRK9,03/11/2023 20:15,03/11/2023 20:15,Pay Bill from 254710635630 - DONNA JESSICA OWANO Acc. KCC,Completed,600,,24750,TRUE,Pay Utility,254710635630 - DONNA JESSICA OWANO,,KCC
RK30C8JBKK,03/11/2023 18:36,03/11/2023 18:36,Pay Bill from 254722889574 - ALLAN MWANGI Acc. jcg,Completed,600,,24150,TRUE,Pay Utility,254722889574 - ALLAN MWANGI,,jcg
RK39BTK17L,03/11/2023 16:59,03/11/2023 16:59,Pay Bill from 0706563358 - HARRIET NYANCHAMA NYABERI Acc. HBA,Completed,600,,23550,TRUE,Pay Utility,0706563358 - HARRIET NYANCHAMA NYABERI,,HBA
RK39BSK6N1,03/11/2023 16:51,03/11/2023 16:51,Pay Bill from 254741791919 - Linet Mongina Maraga Acc. u3,Completed,300,,22950,TRUE,Pay Utility,254741791919 - Linet Mongina Maraga,,u3
RK35BRDQCB,03/11/2023 16:42,03/11/2023 16:42,Pay Bill from 254719398942 - NORAH WAYUA MUNYAO Acc. KDA,Completed,1000,,22650,TRUE,Pay Utility,254719398942 - NORAH WAYUA MUNYAO,,KDA
RK34BMP1PK,03/11/2023 16:05,03/11/2023 16:05,Pay Bill Online from 254792281122 - MWENDWA MUTUNGA Acc. B1,Completed,400,,21650,TRUE,Pay Bill Online,254792281122 - MWENDWA MUTUNGA,,B1
RK31B5UI8J,03/11/2023 13:41,03/11/2023 13:41,Pay Bill Online from 254724211857 - OCHUODHO OUMA Acc. KBK,Completed,2000,,21250,TRUE,Pay Bill Online,254724211857 - OCHUODHO OUMA,,KBK
RK30AK8ZKC,03/11/2023 10:26,03/11/2023 10:26,Pay Bill Online from 254721465713 - RHODA WAMBUI MWANGI Acc. Jfh,Completed,1000,,19250,TRUE,Pay Bill Online,254721465713 - RHODA WAMBUI MWANGI,,Jfh
RK34AI1C2G,03/11/2023 10:06,03/11/2023 10:06,Pay Bill Online from 254710382992 - SIMON KAMAU MUIRURI Acc. JCD,Completed,600,,18250,TRUE,Pay Bill Online,254710382992 - SIMON KAMAU MUIRURI,,JCD
RK37A3T7HL,03/11/2023 07:35,03/11/2023 07:35,Pay Bill Online from 254700379039 - MARTIN KIMANI Acc. ICB,Completed,1200,,17650,TRUE,Pay Bill Online,254700379039 - MARTIN KIMANI,,ICB
RK36A3Q5P2,03/11/2023 07:33,03/11/2023 07:33,Pay Bill from 254703724744 - Esther Njambi Maina Acc. KEF,Completed,800,,16450,TRUE,Pay Utility,254703724744 - Esther Njambi Maina,,KEF
RK299U12L1,02/11/2023 23:03,02/11/2023 23:03,Pay Bill from 254795008751 - caroline owala Acc. KBF,Completed,600,,15650,TRUE,Pay Utility,254795008751 - caroline owala,,KBF
RK209TP5XE,02/11/2023 22:55,02/11/2023 22:55,Pay Bill from 254742825965 - DOMINIC MUTISYA KELI Acc. KDC,Completed,171,,15050,TRUE,Pay Utility,254742825965 - DOMINIC MUTISYA KELI,,KDC
RK259GZQNL,02/11/2023 20:35,02/11/2023 20:35,Pay Bill Online from 254721714178 - PHANICE JEROTICH KIPTOO Acc. FBF,Completed,800,,14879,TRUE,Pay Bill Online,254721714178 - PHANICE JEROTICH KIPTOO,,FBF
RK298UZ3CL,02/11/2023 18:26,02/11/2023 18:26,Pay Bill from 254791602823 - rachel mati kalundi Acc. JEG,Completed,200,,14079,TRUE,Pay Utility,254791602823 - rachel mati kalundi,,JEG
RK268Q5ZHK,02/11/2023 17:55,02/11/2023 17:55,Pay Bill from 254700430569 - EDITH   GAKII Acc. DDB,Completed,200,,13879,TRUE,Pay Utility,254700430569 - EDITH   GAKII,,DDB
RK288MC2DG,02/11/2023 17:29,02/11/2023 17:29,Pay Bill from 254715309540 - HILLARY   AKHANYISI Acc. V19,Completed,1600,,13679,TRUE,Pay Utility,254715309540 - HILLARY   AKHANYISI,,V19
RK257VN1L7,02/11/2023 13:46,02/11/2023 13:46,Pay Bill Online from 254742023558 - PEACEMARY NJERI MAINA Acc. jbc,Completed,200,,12079,TRUE,Pay Bill Online,254742023558 - PEACEMARY NJERI MAINA,,jbc
RK287KWJAA,02/11/2023 12:10,02/11/2023 12:10,Pay Bill Online from 254791251803 - JOHN PAUL OGWANGI Acc. V14,Completed,200,,11879,TRUE,Pay Bill Online,254791251803 - JOHN PAUL OGWANGI,,V14
RK277H0N6T,02/11/2023 11:34,02/11/2023 11:34,Pay Bill from 254716504398 - HYVENE MAYETI Acc. KDE ,Completed,300,,11679,TRUE,Pay Utility,254716504398 - HYVENE MAYETI,,KDE
RK296MOBGF,02/11/2023 02:37,02/11/2023 02:37,Pay Bill from 254702216907 - FAITH MUSA Acc. kbe,Completed,400,,11379,TRUE,Pay Utility,254702216907 - FAITH MUSA,,kbe
RK156H723F,01/11/2023 22:38,01/11/2023 22:38,Pay Bill Online from 254797260402 - Tiberius Ogera Omoro Acc. KFC,Completed,400,,10979,TRUE,Pay Bill Online,254797260402 - Tiberius Ogera Omoro,,KFC
RK116AHUQ7,01/11/2023 21:23,01/11/2023 21:23,Pay Bill from 254724862849 - Ann Fresiah Kinyua Acc. HDA,Completed,800,,10579,TRUE,Pay Utility,254724862849 - Ann Fresiah Kinyua,,HDA
RK1669TB8I,01/11/2023 21:17,01/11/2023 21:17,Pay Bill from 254728084427 - MARY NABWIRE OKELLO Acc. FDF,Completed,2400,,9779,TRUE,Pay Utility,254728084427 - MARY NABWIRE OKELLO,,FDF
RK1966D71L,01/11/2023 20:50,01/11/2023 20:50,Pay Bill from 254726702082 - STEPHEN WAHINYA NJUGUNA Acc. V02,Completed,200,,7379,TRUE,Pay Utility,254726702082 - STEPHEN WAHINYA NJUGUNA,,V02
RK1764O0CB,01/11/2023 20:38,01/11/2023 20:38,Pay Bill Online from 254708357223 - DENNIS KIRIMI Acc. DCA,Completed,800,,7179,TRUE,Pay Bill Online,254708357223 - DENNIS KIRIMI,,DCA
RK1361VP5P,01/11/2023 20:19,01/11/2023 20:19,Pay Bill from 254710106394 - LUCY TONKEI Acc. KBG,Completed,400,,6379,TRUE,Pay Utility with OD via STK,254710106394 - LUCY TONKEI,,KBG
RK1961956R,01/11/2023 20:15,01/11/2023 20:15,Pay Bill Online from 254702118125 - ROTICH BETHWEL Acc. V20,Completed,300,,5979,TRUE,Pay Bill Online,254702118125 - ROTICH BETHWEL,,V20
RK135FSXHZ,01/11/2023 18:19,01/11/2023 18:19,Pay Bill Online from 254729796719 - JACINTA WANJIKU NJERI Acc. FFF,Completed,600,,5679,TRUE,Pay Bill Online,254729796719 - JACINTA WANJIKU NJERI,,FFF
RK125CKIYS,01/11/2023 17:58,01/11/2023 17:58,Pay Bill Online from 254726465584 - JULIANA MUKELI MUTUNGA Acc. v4,Completed,800,,5079,TRUE,Pay Bill Online,254726465584 - JULIANA MUKELI MUTUNGA,,v4
RK104ZPJPC,01/11/2023 16:23,01/11/2023 16:23,Pay Bill from 254723929380 - RHODAH K WAMBUA Acc. HEG,Completed,1600,,4279,TRUE,Pay Utility,254723929380 - RHODAH K WAMBUA,,HEG
RK164R8LM4,01/11/2023 15:10,01/11/2023 15:10,Pay Bill from 254791318982 - ADULLAHI HASSAN Acc. jci,Completed,1400,,2679,TRUE,Pay Utility,254791318982 - ADULLAHI HASSAN,,jci
RK184R3N6U,01/11/2023 15:09,01/11/2023 15:09,Pay Bill from 0704346708 - WENDY GLADYS ADIENGE Acc. V17,Completed,279,,1279,TRUE,Pay Utility,0704346708 - WENDY GLADYS ADIENGE,,V17
RK104MNZEW,01/11/2023 14:30,01/11/2023 14:30,Pay Bill Online from 254799863492 - HIRANI MULJI Acc. JDB,Completed,1000,,1000,TRUE,Pay Bill Online,254799863492 - HIRANI MULJI,,JDB
RK114DM3TZ,01/11/2023 13:13,01/11/2023 13:13,Utility Account to Organization Settlement Account,Completed,,-2300,0,TRUE,Utility Account to Organization Settlement Account,846783 - ANCIENT WELLS LTD 4,,
RK124BUL5G,01/11/2023 12:58,01/11/2023 12:58,Pay Bill from 254798609376 - Oliva Wafula Juma Acc. DEA,Completed,1100,,2300,TRUE,Pay Utility,254798609376 - Oliva Wafula Juma,,DEA
RK1749CZS9,01/11/2023 12:36,01/11/2023 12:36,Pay Bill Online from 254706784429 - ROSE JEPKOECH RUTTO Acc. IFI,Completed,400,,1200,TRUE,Pay Bill Online,254706784429 - ROSE JEPKOECH RUTTO,,IFI
RK183RO5IG,01/11/2023 09:51,01/11/2023 09:51,Pay Bill Online from 254707966839 - DENNIS KIPTOO MAIYO Acc. FEF,Completed,800,,800,TRUE,Pay Bill Online,254707966839 - DENNIS KIPTOO MAIYO,,FEF
RK143OL7CM,01/11/2023 09:21,01/11/2023 09:21,Utility Account to Organization Settlement Account,Completed,,-13000,0,TRUE,Utility Account to Organization Settlement Account,846783 - ANCIENT WELLS LTD 4,,
RK193DXJOH,01/11/2023 07:23,01/11/2023 07:23,Pay Bill Online from 254795510441 - LEWIS MUEMA Acc. KEB,Completed,600,,13000,TRUE,Pay Bill Online,254795510441 - LEWIS MUEMA,,KEB
RJV7331M0X,31/10/2023 22:42,31/10/2023 22:42,Pay Bill Online from 254720787158 - AMOS CHELANG'A Acc. KCG,Completed,1200,,12400,TRUE,Pay Bill Online,254720787158 - AMOS CHELANG'A,,KCG
RJV227I98S,31/10/2023 18:45,31/10/2023 18:45,Pay Bill Online from 254704934557 - BAKARI KITSAKA Acc. HDG ,Completed,400,,11200,TRUE,Pay Bill Online,254704934557 - BAKARI KITSAKA,,HDG
RJV01Y932G,31/10/2023 17:48,31/10/2023 17:48,Pay Bill from 254717726012 - WINFRED MUENI PETER Acc. IDA,Completed,1000,,10800,TRUE,Pay Utility,254717726012 - WINFRED MUENI PETER,,IDA
RJV11PI971,31/10/2023 16:42,31/10/2023 16:42,Pay Bill Online from 254706298810 - Morgan Mudengani Kisarago Acc. f1,Completed,600,,9800,TRUE,Pay Bill Online,254706298810 - Morgan Mudengani Kisarago,,f1
RJV31JUNWN,31/10/2023 15:54,31/10/2023 15:54,Pay Bill Online from 254717809935 - LYDIAH WERU Acc. ffb,Completed,600,,9200,TRUE,Pay Bill Online,254717809935 - LYDIAH WERU,,ffb
RJV51F64DB,31/10/2023 15:11,31/10/2023 15:11,Pay Bill from 254729557859 - AUDREY KASINDAHA KASINDAHA Acc. KFB,Completed,2000,,8600,TRUE,Pay Utility,254729557859 - AUDREY KASINDAHA KASINDAHA,,KFB
RJV61E4O08,31/10/2023 15:02,31/10/2023 15:02,Pay Bill Online from 254717490969 - IAN MUOKA Acc. FDD,Completed,600,,6600,TRUE,Pay Bill Online,254717490969 - IAN MUOKA,,FDD
RJV11AHK1H,31/10/2023 14:28,31/10/2023 14:28,Pay Bill Online from 254707726441 - JOHN OLOO NYAULA Acc. IEH,Completed,1800,,6000,TRUE,Pay Bill Online,254707726441 - JOHN OLOO NYAULA,,IEH
RJV31AD1YJ,31/10/2023 14:27,31/10/2023 14:27,Pay Bill Online from 254725381062 - VICTOR MAITHYA Acc. DEC,Completed,200,,4200,TRUE,Pay Bill Online,254725381062 - VICTOR MAITHYA,,DEC
RJV814SFUU,31/10/2023 13:37,31/10/2023 13:37,Pay Bill Online from 254716315144 - PETER MUNYIRI WAROTERE Acc. FBB,Completed,1000,,4000,TRUE,Pay Bill Online,254716315144 - PETER MUNYIRI WAROTERE,,FBB
RJV6ZYXDQ0,31/10/2023 12:44,31/10/2023 12:44,Pay Bill from 0110664258 - lucky  nafula ngoya Acc. JAA,Completed,2600,,3000,TRUE,Pay Utility,0110664258 - lucky  nafula ngoya,,JAA
RJV0ZUUIA2,31/10/2023 12:05,31/10/2023 12:05,Pay Bill Online from 254722604851 - WILFRED SAKWA Acc. KEE,Completed,400,,400,TRUE,Pay Bill Online,254722604851 - WILFRED SAKWA,,KEE
RJV0ZBBKWQ,31/10/2023 08:48,31/10/2023 08:48,Utility Account to Organization Settlement Account,Completed,,-1600,0,TRUE,Utility Account to Organization Settlement Account,846783 - ANCIENT WELLS LTD 4,,
RJV6Z7O6U4,31/10/2023 08:07,31/10/2023 08:07,Pay Bill Online from 254700187806 - WINNIE OLIVIA AKOTH Acc. JEC,Completed,1000,,1600,TRUE,Pay Bill Online,254700187806 - WINNIE OLIVIA AKOTH,,JEC
RJV6Z1KN98,31/10/2023 06:33,31/10/2023 06:33,Pay Bill from 254729806880 - Eunice Akinyi Were Acc. V33,Completed,200,,600,TRUE,Pay Utility,254729806880 - Eunice Akinyi Were,,V33
RJU6YL0CK4,30/10/2023 20:52,30/10/2023 20:52,FSI to Pay Bill by 3033815 - LOOP B2C. Acc. V40 via WEB by LOOP B2C.\TRINITYAPI,Completed,400,,400,TRUE,FSI to Pay Bill via API,3033815 - LOOP B2C.,,V40
RJU8YGBLCO,30/10/2023 20:18,30/10/2023 20:18,Utility Account to Organization Settlement Account,Completed,,-5400,0,TRUE,Utility Account to Organization Settlement Account,846783 - ANCIENT WELLS LTD 4,,
RJU2YG4C4C,30/10/2023 20:16,30/10/2023 20:16,Pay Bill from 254726028330 - JOHN WAMBUA Acc. IFH,Completed,2200,,5400,TRUE,Pay Utility,254726028330 - JOHN WAMBUA,,IFH
RJU9XLD0EX,30/10/2023 17:08,30/10/2023 17:08,Pay Bill from 254701174081 - JOSEPHINE ODUOR Acc. v34,Completed,200,,3200,TRUE,Pay Utility,254701174081 - JOSEPHINE ODUOR,,v34
RJU9XEKFVB,30/10/2023 16:12,30/10/2023 16:12,Pay Bill Online from 254714710840 - RACHAEL WANJIRU NJOROGE Acc. ITE,Completed,600,,3000,TRUE,Pay Bill Online,254714710840 - RACHAEL WANJIRU NJOROGE,,ITE
RJU2WWDDGQ,30/10/2023 13:28,30/10/2023 13:28,Pay Bill Online from 254725381062 - VICTOR MAITHYA Acc. DEC,Completed,1200,,2400,TRUE,Pay Utility with OD Online,254725381062 - VICTOR MAITHYA,,DEC
RJU7WN3X15,30/10/2023 12:02,30/10/2023 12:02,Pay Bill from 254723370004 - LABAN MAINGI WAMBUA Acc. JEF,Completed,200,,1200,TRUE,Pay Utility with OD via STK,254723370004 - LABAN MAINGI WAMBUA,,JEF
RJU8WAJLC4,30/10/2023 10:01,30/10/2023 10:01,FSI to Pay Bill by 3033815 - LOOP B2C. Acc. DCC via WEB by LOOP B2C.\TRINITYAPI,Completed,1000,,1000,TRUE,FSI to Pay Bill via API,3033815 - LOOP B2C.,,DCC
RJT1UXI6Q3,29/10/2023 19:02,29/10/2023 19:02,Utility Account to Organization Settlement Account,Completed,,-3200,0,TRUE,Utility Account to Organization Settlement Account,846783 - ANCIENT WELLS LTD 4,,
RJT0U8MA32,29/10/2023 15:55,29/10/2023 15:55,Pay Bill from 254713473646 - AGNETA LICHUNGU Acc. HFA,Completed,800,,3200,TRUE,Pay Utility,254713473646 - AGNETA LICHUNGU,,HFA
RJT9U6S8P7,29/10/2023 15:39,29/10/2023 15:39,Pay Bill Online from 0711502447 - Gabriel gatehi mwaura Acc. FDC,Completed,800,,2400,TRUE,Pay Bill Online,0711502447 - Gabriel gatehi mwaura,,FDC
RJT2TH4UDY,29/10/2023 11:31,29/10/2023 11:31,Pay Bill from 254727585857 - PETER MUOKI NGUNDO Acc. Peter Ngundo e6 ,Completed,600,,1600,TRUE,Pay Utility,254727585857 - PETER MUOKI NGUNDO,,Peter
RJT6TDGR4C,29/10/2023 10:51,29/10/2023 10:51,Pay Bill Online from 0719349205 - Christabel Gakii Munene Acc. D1,Completed,400,,1000,TRUE,Pay Bill Online,0719349205 - Christabel Gakii Munene,,D1
RJT7T3TT9N,29/10/2023 09:06,29/10/2023 09:06,Pay Bill Online from 254729690627 - BILLY KABIU Acc. KFJ,Completed,600,,600,TRUE,Pay Bill Online,254729690627 - BILLY KABIU,,KFJ
RJT4T2A6RU,29/10/2023 08:48,29/10/2023 08:48,Utility Account to Organization Settlement Account,Completed,,-400,0,TRUE,Utility Account to Organization Settlement Account,846783 - ANCIENT WELLS LTD 4,,
RJS8SDME4C,28/10/2023 21:15,28/10/2023 21:15,Pay Bill from 254702152790 - Michelle Ndunge Kyalo Acc. IDE ,Completed,400,,400,TRUE,Pay Utility,254702152790 - Michelle Ndunge Kyalo,,IDE
RJS7RARJNB,28/10/2023 17:06,28/10/2023 17:06,Utility Account to Organization Settlement Account,Completed,,-7500,0,TRUE,Utility Account to Organization Settlement Account,846783 - ANCIENT WELLS LTD 4,,
RJS4QMRN6K,28/10/2023 13:51,28/10/2023 13:51,Pay Bill from 254729258441 - ROBERT RONO KULEI Acc. JFI,Completed,1800,,7500,TRUE,Pay Utility,254729258441 - ROBERT RONO KULEI,,JFI
RJS2QC7TPI,28/10/2023 12:21,28/10/2023 12:21,Pay Bill from 0701151700 - Anabel Mwikali Gichuru Acc. jdj,Completed,1400,,5700,TRUE,Pay Utility,0701151700 - Anabel Mwikali Gichuru,,jdj
RJS5Q0L3AF,28/10/2023 10:37,28/10/2023 10:37,Pay Bill Online from 254715764212 - BANCE ISHEMINYE Acc. JFE,Completed,400,,4300,TRUE,Pay Bill Online,254715764212 - BANCE ISHEMINYE,,JFE
RJS6PZXH2O,28/10/2023 10:32,28/10/2023 10:32,Pay Bill from 254797726484 - gideon marubua kiburu Acc. jbb,Completed,1000,,3900,TRUE,Pay Utility with OD via STK,254797726484 - gideon marubua kiburu,,jbb
RJS5PW6UM5,28/10/2023 09:57,28/10/2023 09:57,Pay Bill from 0796929370 - HALIMA BOYA GALMA Acc. DBC,Completed,2500,,2900,TRUE,Pay Utility,0796929370 - HALIMA BOYA GALMA,,DBC
RJS2POPCQU,28/10/2023 08:43,28/10/2023 08:43,Pay Bill Online from 254724587401 - RAPHAEL IRUNGU WAIHURA Acc. KGG,Completed,400,,400,TRUE,Pay Bill Online,254724587401 - RAPHAEL IRUNGU WAIHURA,,KGG
RJS1PEU66P,28/10/2023 06:25,28/10/2023 06:25,Utility Account to Organization Settlement Account,Completed,,-19400,0,TRUE,Utility Account to Organization Settlement Account,846783 - ANCIENT WELLS LTD 4,,
RJR5P6O0X7,27/10/2023 22:45,27/10/2023 22:45,Pay Bill from 254796848496 - IVY WITABA Acc. FAA,Completed,800,,19400,TRUE,Pay Utility,254796848496 - IVY WITABA,,FAA
RJR4ORF34Q,27/10/2023 20:21,27/10/2023 20:21,Pay Bill Online from 254706898046 - STACY AKETCH OCHUKA Acc. KGK,Completed,800,,18600,TRUE,Pay Bill Online,254706898046 - STACY AKETCH OCHUKA,,KGK
RJR0OBBPQ8,27/10/2023 18:51,27/10/2023 18:51,Pay Bill from 0721436195 - KIPKOECH   CHARLES Acc. E2,Completed,1400,,17800,TRUE,Pay Utility,0721436195 - KIPKOECH   CHARLES,,E2
RJR2NQHACE,27/10/2023 16:29,27/10/2023 16:29,Pay Bill from 254720814822 - JAMES OTIENO OPAR Acc. jgj,Completed,1000,,16400,TRUE,Pay Utility,254720814822 - JAMES OTIENO OPAR,,jgj
RJR8NJTA6G,27/10/2023 15:31,27/10/2023 15:31,Pay Bill from 254718548744 - ALBERT LOPAI ESINYEN Acc. IBH,Completed,1200,,15400,TRUE,Pay Utility,254718548744 - ALBERT LOPAI ESINYEN,,IBH
RJR0NFHM4O,27/10/2023 14:53,27/10/2023 14:53,Pay Bill from 254720931007 - BRENDA NASIMIYU NYONGESA Acc. KAB,Completed,2400,,14200,TRUE,Pay Utility,254720931007 - BRENDA NASIMIYU NYONGESA,,KAB
RJR9N7JF4V,27/10/2023 13:44,27/10/2023 13:44,Pay Bill from 254714596677 - IMMANUEL BARBOI Acc. KAI,Completed,200,,11800,TRUE,Pay Utility,254714596677 - IMMANUEL BARBOI,,KAI
RJR4MTIJR4,27/10/2023 11:36,27/10/2023 11:36,Pay Bill from 254725621394 - RACHAEL WACHIRA Acc. Jfb,Completed,800,,11600,TRUE,Pay Utility,254725621394 - RACHAEL WACHIRA,,Jfb
RJR3MR4KD7,27/10/2023 11:14,27/10/2023 11:14,Pay Bill from 254704166365 - JOAN WANJIRU NDIRANGU Acc. KDH,Completed,600,,10800,TRUE,Pay Utility,254704166365 - JOAN WANJIRU NDIRANGU,,KDH
RJR5M40T23,27/10/2023 07:13,27/10/2023 07:13,Pay Bill from 254702346515 - ELIZABETH ACHIENG NGOME Acc. ICH,Completed,400,,10200,TRUE,Pay Utility,254702346515 - ELIZABETH ACHIENG NGOME,,ICH
RJR9M22PX5,27/10/2023 06:39,27/10/2023 06:39,Pay Bill Online from 254722617724 - Cosmas Leitich Kiptoo Acc. KAG,Completed,1000,,9800,TRUE,Pay Bill Online,254722617724 - Cosmas Leitich Kiptoo,,KAG
RJQ0LQ7LQO,26/10/2023 21:41,26/10/2023 21:41,Pay Bill from 0745341318 - Joyce Makena Nyaga Acc. V10,Completed,400,,8800,TRUE,Pay Utility,0745341318 - Joyce Makena Nyaga,,V10
RJQ1LKO0MJ,26/10/2023 20:51,26/10/2023 20:51,Pay Bill Online from 254717463608 - DANIEL MUNIU MUGURE Acc. JFD,Completed,1000,,8400,TRUE,Pay Bill Online,254717463608 - DANIEL MUNIU MUGURE,,JFD
RJQ8LBAELQ,26/10/2023 19:47,26/10/2023 19:47,Pay Bill from 254723966777 - BONIFACE MUTHAKA NGANGA Acc. IDG,Completed,1800,,7400,TRUE,Pay Utility,254723966777 - BONIFACE MUTHAKA NGANGA,,IDG
RJQ0KYC0E0,26/10/2023 18:36,26/10/2023 18:36,Pay Bill from 254726599835 - LAWRENCE BUDI MURIITHI Acc. kdj,Completed,2000,,5600,TRUE,Pay Utility,254726599835 - LAWRENCE BUDI MURIITHI,,kdj
RJQ6KVIU0W,26/10/2023 18:19,26/10/2023 18:19,Pay Bill from 254728213256 - NICHOLAS NJOROGE Acc. HAD,Completed,400,,3600,TRUE,Pay Utility,254728213256 - NICHOLAS NJOROGE,,HAD
RJQ6KQAPEG,26/10/2023 17:44,26/10/2023 17:44,Pay Bill from 0713841898 - STACY MAUA KILONZO Acc. v37,Completed,1000,,3200,TRUE,Pay Utility,0713841898 - STACY MAUA KILONZO,,v37
RJQ6KDGC96,26/10/2023 15:59,26/10/2023 15:59,Pay Bill from 0721130307 - HILLARY NGUNYI MUTINDA Acc. JCH,Completed,1200,,2200,TRUE,Pay Utility,0721130307 - HILLARY NGUNYI MUTINDA,,JCH
RJQ0KD6OLG,26/10/2023 15:56,26/10/2023 15:56,Pay Bill from 254703980239 - BENARD MUTETI Acc. KAK,Completed,1000,,1000,TRUE,Pay Utility,254703980239 - BENARD MUTETI,,KAK
RJQ8KBRXSY,26/10/2023 15:43,26/10/2023 15:43,Utility Account to Organization Settlement Account,Completed,,-3200,0,TRUE,Utility Account to Organization Settlement Account,846783 - ANCIENT WELLS LTD 4,,
RJQ7JHDIJL,26/10/2023 10:56,26/10/2023 10:56,Pay Bill from 254797675450 - JOHN NYAREGA NYAKUNDI Acc. FAF,Completed,3000,,3200,TRUE,Pay Utility,254797675450 - JOHN NYAREGA NYAKUNDI,,FAF
RJQ7JFG543,26/10/2023 10:38,26/10/2023 10:38,Pay Bill from 254724379488 - NICHOLAS KOOME Acc. JDE,Completed,200,,200,TRUE,Pay Utility,254724379488 - NICHOLAS KOOME,,JDE
RJQ3J2SIGP,26/10/2023 08:28,26/10/2023 08:28,Utility Account to Organization Settlement Account,Completed,,-4800,0,TRUE,Utility Account to Organization Settlement Account,846783 - ANCIENT WELLS LTD 4,,
RJP4IM4AEQ,25/10/2023 22:19,25/10/2023 22:19,Pay Bill from 0112066814 - JOHN AMBAISI ANUNDA Acc. V53,Completed,400,,4800,TRUE,Pay Utility with OD via STK,0112066814 - JOHN AMBAISI ANUNDA,,V53
RJP7I1KHFV,25/10/2023 19:33,25/10/2023 19:33,Pay Bill from 0717216114 - Felix Njeru Mugambi Acc. kcj,Completed,2400,,4400,TRUE,Pay Utility,0717216114 - Felix Njeru Mugambi,,kcj
RJP0I0ISU6,25/10/2023 19:27,25/10/2023 19:27,Pay Bill from 254799511755 - CAROLINE BOSIRE Acc. V59,Completed,200,,2000,TRUE,Pay Utility,254799511755 - CAROLINE BOSIRE,,V59
RJP7HHKTEZ,25/10/2023 17:34,25/10/2023 17:34,Pay Bill Online from 254728897908 - Teddy Allan Onyango Acc. DDD,Completed,1800,,1800,TRUE,Pay Bill Online,254728897908 - Teddy Allan Onyango,,DDD
RJP1HCS4ZF,25/10/2023 16:57,25/10/2023 16:57,Utility Account to Organization Settlement Account,Completed,,-8800,0,TRUE,Utility Account to Organization Settlement Account,846783 - ANCIENT WELLS LTD 4,,
RJP5GO6S8N,25/10/2023 13:11,25/10/2023 13:11,Pay Bill from 0115365438 - zibborah nzilani maundu Acc. V48,Completed,800,,8800,TRUE,Pay Utility,0115365438 - zibborah nzilani maundu,,V48
RJP4GMZWW2,25/10/2023 13:00,25/10/2023 13:00,Pay Bill from 254707690557 - GRACE KARWITHA SAFARI Acc. V60,Completed,1200,,8000,TRUE,Pay Utility,254707690557 - GRACE KARWITHA SAFARI,,V60
RJP3GGTCU5,25/10/2023 12:01,25/10/2023 12:01,Pay Bill from 0768906522 - Jael Akinyi Kunga Acc. hef,Completed,600,,6800,TRUE,Pay Utility,0768906522 - Jael Akinyi Kunga,,hef
RJP3GESTC9,25/10/2023 11:41,25/10/2023 11:41,Pay Bill Online from 0111278177 - Alfred   Kishoin Acc. DAB,Completed,800,,6200,TRUE,Pay Bill Online,0111278177 - Alfred   Kishoin,,DAB
RJP1GCNUJL,25/10/2023 11:19,25/10/2023 11:19,Pay Bill from 254714710944 - MERCY NDUNG'U Acc. hff,Completed,200,,5400,TRUE,Pay Utility,254714710944 - MERCY NDUNG'U,,hff
RJP4GAG7OQ,25/10/2023 10:58,25/10/2023 10:58,Pay Bill Online from 254705951407 - CAROLINE WAITHIRA KAMAU Acc. IDH,Completed,1000,,5200,TRUE,Pay Bill Online,254705951407 - CAROLINE WAITHIRA KAMAU,,IDH
RJP9FS0JX9,25/10/2023 07:47,25/10/2023 07:47,Pay Bill from 254722458136 - NADI GOLICHA Acc. JEA,Completed,3600,,4200,TRUE,Pay Utility with OD via STK,254722458136 - NADI GOLICHA,,JEA
RJP9FP22OV,25/10/2023 07:07,25/10/2023 07:07,Pay Bill Online from 254703180395 - JANE NYAGUTHII MWAGO Acc. IBE,Completed,600,,600,TRUE,Pay Bill Online,254703180395 - JANE NYAGUTHII MWAGO,,IBE
RJP4FMO8R8,25/10/2023 06:21,25/10/2023 06:21,Utility Account to Organization Settlement Account,Completed,,-17700,0,TRUE,Utility Account to Organization Settlement Account,846783 - ANCIENT WELLS LTD 4,,
RJO3F7J0JN,24/10/2023 21:07,24/10/2023 21:07,Pay Bill from 0799122666 - ERIC WAWERU KIAMA Acc. JDI,Completed,2800,,17700,TRUE,Pay Utility,0799122666 - ERIC WAWERU KIAMA,,JDI
RJO8F53EOC,24/10/2023 20:48,24/10/2023 20:48,Pay Bill from 0707674271 - Victor   Mwilu Acc. v37,Completed,1000,,14900,TRUE,Pay Utility,0707674271 - Victor   Mwilu,,v37
RJO5EWTA69,24/10/2023 19:52,24/10/2023 19:52,Pay Bill from 0743262596 - EMILY ADHIAMBO OTIENO Acc. V58,Completed,100,,13900,TRUE,Pay Utility with OD via STK,0743262596 - EMILY ADHIAMBO OTIENO,,V58
RJO0EMQSGY,24/10/2023 18:58,24/10/2023 18:58,Pay Bill from 0714747222 - WILSON KIMANI MWANGI Acc. v25,Completed,200,,13800,TRUE,Pay Utility,0714747222 - WILSON KIMANI MWANGI,,v25
RJO8EF6F2G,24/10/2023 18:13,24/10/2023 18:13,Pay Bill from 254716579300 - BRIAN KIPKOECH RONO Acc. HEH,Completed,1600,,13600,TRUE,Pay Utility,254716579300 - BRIAN KIPKOECH RONO,,HEH
RJO1ED98TD,24/10/2023 18:01,24/10/2023 18:01,Pay Bill Online from 254710732381 - JANE ACHIENG MBEKE Acc. HAF,Completed,400,,12000,TRUE,Pay Bill Online,254710732381 - JANE ACHIENG MBEKE,,HAF
RJO1EA0AGB,24/10/2023 17:37,24/10/2023 17:37,Pay Bill from 0741300410 - STEVEKEVIN POUNGUI DIFFO Acc. IAC,Completed,200,,11600,TRUE,Pay Utility,0741300410 - STEVEKEVIN POUNGUI DIFFO,,IAC
RJO1E5L4XJ,24/10/2023 17:03,24/10/2023 17:03,Pay Bill Online from 254701683737 - MICHAEL NGUGI Acc. HDB,Completed,200,,11400,TRUE,Pay Bill Online,254701683737 - MICHAEL NGUGI,,HDB
RJO9E4G0HN,24/10/2023 16:54,24/10/2023 16:54,Pay Bill Online from 254706427665 - CHRIS KIRIMI Acc. v22,Completed,700,,11200,TRUE,Pay Bill Online,254706427665 - CHRIS KIRIMI,,v22
RJO2E3K4M4,24/10/2023 16:46,24/10/2023 16:46,Pay Bill from 0743262596 - EMILY ADHIAMBO OTIENO Acc. v58,Completed,500,,10500,TRUE,Pay Utility,0743262596 - EMILY ADHIAMBO OTIENO,,v58
RJO1E1TXP9,24/10/2023 16:31,24/10/2023 16:31,Pay Bill from 254704977689 - ANTONY MUTHONI Acc. Icd,Completed,600,,10000,TRUE,Pay Utility,254704977689 - ANTONY MUTHONI,,Icd
RJO3E1NUI7,24/10/2023 16:30,24/10/2023 16:30,Pay Bill from 254721780448 - EVERLYNE MIDEVA CHOGO Acc. JCA ,Completed,2200,,9400,TRUE,Pay Utility with OD via STK,254721780448 - EVERLYNE MIDEVA CHOGO,,JCA
RJO1E0WRTT,24/10/2023 16:23,24/10/2023 16:23,Pay Bill from 254702338689 - ISAIAH OMODING Acc. V49,Completed,600,,7200,TRUE,Pay Utility,254702338689 - ISAIAH OMODING,,V49
RJO7DZCSV3,24/10/2023 16:09,24/10/2023 16:09,Pay Bill from 254722521028 - CHARLES MONYONCHO Acc. JDA,Completed,4000,,6600,TRUE,Pay Utility,254722521028 - CHARLES MONYONCHO,,JDA
RJO2DYKJBA,24/10/2023 16:01,24/10/2023 16:01,Pay Bill Online from 254729160700 - MICAH NDUNGI Acc. HFE,Completed,200,,2600,TRUE,Pay Bill Online,254729160700 - MICAH NDUNGI,,HFE
RJO4DY1L96,24/10/2023 15:57,24/10/2023 15:57,Pay Bill from 254725111246 - FRANCIS MUUTU MWANGANGI Acc. IGI,Completed,600,,2400,TRUE,Pay Utility,254725111246 - FRANCIS MUUTU MWANGANGI,,IGI
RJO4DX4BAS,24/10/2023 15:48,24/10/2023 15:48,Pay Bill Online from 254706549634 - CLINTON OMBASA Acc. FDB,Completed,1000,,1800,TRUE,Pay Bill Online,254706549634 - CLINTON OMBASA,,FDB
RJO5CVS0PJ,24/10/2023 09:51,24/10/2023 09:51,Pay Bill Online from 254725248080 - DENNIS KIPROTICH Acc. HDH,Completed,800,,800,TRUE,Pay Utility with OD Online,254725248080 - DENNIS KIPROTICH,,HDH
RJO2CJWCIE,24/10/2023 07:43,24/10/2023 07:43,Utility Account to Organization Settlement Account,Completed,,-3200,0,TRUE,Utility Account to Organization Settlement Account,846783 - ANCIENT WELLS LTD 4,,
RJO6CJQ6XU,24/10/2023 07:41,24/10/2023 07:41,Pay Bill from 0794630078 - Sylvanus   Kiplangat Acc. IFE,Completed,500,,3200,TRUE,Pay Utility,0794630078 - Sylvanus   Kiplangat,,IFE
RJO2CFML9S,24/10/2023 06:40,24/10/2023 06:40,Pay Bill Online from 254728364280 - EMMANUEL THUMA OYIER Acc. IBI,Completed,500,,2700,TRUE,Pay Bill Online,254728364280 - EMMANUEL THUMA OYIER,,IBI
RJN8A23PYE,23/10/2023 12:08,23/10/2023 12:08,Pay Bill from 254720051502 - JOHN OCHIENG ONYANGO Acc. JFA ,Completed,1000,,2200,TRUE,Pay Utility,254720051502 - JOHN OCHIENG ONYANGO,,JFA
RJM28ZGTT0,22/10/2023 22:24,22/10/2023 22:24,Pay Bill from 254726337163 - HALIMA ALI HASSAN Acc. DDA,Completed,200,,1200,TRUE,Pay Utility,254726337163 - HALIMA ALI HASSAN,,DDA
RJM27U6978,22/10/2023 16:47,22/10/2023 16:47,Pay Bill from 254710239100 - PHILOMENA WOKI MUTHAMA Acc. KDK,Completed,1000,,1000,TRUE,Pay Utility,254710239100 - PHILOMENA WOKI MUTHAMA,,KDK
RJL64VLAF0,21/10/2023 16:58,21/10/2023 16:58,Utility Account to Organization Settlement Account,Completed,,-3600,0,TRUE,Utility Account to Organization Settlement Account,846783 - ANCIENT WELLS LTD 4,,
RJL345YFPP,21/10/2023 13:13,21/10/2023 13:13,Pay Bill Online from 254711721087 - MUTHIANI KYULE Acc. IDB ,Completed,3000,,3600,TRUE,Pay Bill Online,254711721087 - MUTHIANI KYULE,,IDB
RJL9412IFT,21/10/2023 12:28,21/10/2023 12:28,Pay Bill from 0745516938 - MARION REBECCA BARASA Acc. House no A2,Completed,600,,600,TRUE,Pay Utility,0745516938 - MARION REBECCA BARASA,,House
RJK3ZT80LF,20/10/2023 12:04,20/10/2023 12:04,Utility Account to Organization Settlement Account,Completed,,-3000,0,TRUE,Utility Account to Organization Settlement Account,846783 - ANCIENT WELLS LTD 4,,
RJK5ZO5C9P,20/10/2023 11:15,20/10/2023 11:15,Pay Bill Online from 254792187144 - HASSAN AHMED HASSAN Acc. KGI,Completed,1000,,3000,TRUE,Pay Bill Online,254792187144 - HASSAN AHMED HASSAN,,KGI
RJK3ZFK4SL,20/10/2023 09:51,20/10/2023 09:51,Pay Bill Online from 254710584332 - KENNEDY MUSYOKA MAWILU Acc. KAG,Completed,1000,,2000,TRUE,Pay Bill Online,254710584332 - KENNEDY MUSYOKA MAWILU,,KAG
RJJ0VT18NI,19/10/2023 07:38,19/10/2023 07:38,Pay Bill from 254713205244 - ROBERT OGALO Acc. HFB,Completed,1000,,1000,TRUE,Pay Utility,254713205244 - ROBERT OGALO,,HFB
RJI3SYOD3B,18/10/2023 10:16,18/10/2023 10:16,Utility Account to Organization Settlement Account,Completed,,-4400,0,TRUE,Utility Account to Organization Settlement Account,846783 - ANCIENT WELLS LTD 4,,
RJI1SPZ76F,18/10/2023 08:45,18/10/2023 08:45,Pay Bill Online from 254715939283 - alex nyamai Acc. v7,Completed,600,,4400,TRUE,Pay Bill Online,254715939283 - alex nyamai,,v7
RJI6SN10JU,18/10/2023 08:11,18/10/2023 08:11,Pay Bill from 254719779657 - SAMUEL NJOROGE Acc. JGA,Completed,3800,,3800,TRUE,Pay Utility,254719779657 - SAMUEL NJOROGE,,JGA
RJG3P36YYB,16/10/2023 22:51,16/10/2023 22:51,Utility Account to Organization Settlement Account,Completed,,-4600,0,TRUE,Utility Account to Organization Settlement Account,846783 - ANCIENT WELLS LTD 4,,
RJG0MW4N1S,16/10/2023 11:55,16/10/2023 11:55,Pay Bill Online from 254704111133 - ELVIS OTIENO Acc. HFD,Completed,800,,4600,TRUE,Pay Bill Online,254704111133 - ELVIS OTIENO,,HFD
RJF2LU848Q,15/10/2023 21:58,15/10/2023 21:58,Pay Bill from 254715390903 - GLADYS NTHULE KIVULUI Acc. DBD,Completed,2400,,3800,TRUE,Pay Utility,254715390903 - GLADYS NTHULE KIVULUI,,DBD
RJE5II0LVH,14/10/2023 20:04,14/10/2023 20:04,Pay Bill from 254722746480 - PATRICK OPEYWA AURA Acc. KGH,Completed,400,,1400,TRUE,Pay Utility,254722746480 - PATRICK OPEYWA AURA,,KGH
RJE4HHAF9Q,14/10/2023 15:57,14/10/2023 15:57,Pay Bill from 254720466443 - FATUMA MOHAMED ABDALLAH Acc. V21,Completed,600,,1000,TRUE,Pay Utility,254720466443 - FATUMA MOHAMED ABDALLAH,,V21
RJE7HE4LKB,14/10/2023 15:29,14/10/2023 15:29,Pay Bill Online from 0715806956 - Mercy Jelagat Kalum Acc. FFE,Completed,400,,400,TRUE,Pay Bill Online,0715806956 - Mercy Jelagat Kalum,,FFE
RJE6H4HON6,14/10/2023 14:06,14/10/2023 14:06,Utility Account to Organization Settlement Account,Completed,,-3700,0,TRUE,Utility Account to Organization Settlement Account,846783 - ANCIENT WELLS LTD 4,,
RJE2GE2BL8,14/10/2023 09:46,14/10/2023 09:46,Pay Bill Online from 254722910078 - MAUREEN MUNYIVA MUTUKU Acc. DCD,Completed,1300,,3700,TRUE,Pay Utility with OD Online,254722910078 - MAUREEN MUNYIVA MUTUKU,,DCD
RJD7FR1P8V,13/10/2023 22:57,13/10/2023 22:57,Pay Bill from 0748719970 - judith ndunge mwende Acc. E5,Completed,2400,,2400,TRUE,Pay Utility,0748719970 - judith ndunge mwende,,E5
RJD9DWYOND,13/10/2023 14:17,13/10/2023 14:17,Utility Account to Organization Settlement Account,Completed,,-34750,0,TRUE,Utility Account to Organization Settlement Account,846783 - ANCIENT WELLS LTD 4,,
RJD6DU9NWO,13/10/2023 13:53,13/10/2023 13:53,Pay Bill from 254722706516 - KORIR ANTHONY Acc. Anthony D3 ,Completed,200,,34750,TRUE,Pay Utility,254722706516 - KORIR ANTHONY,,Anthony
RJD0DNH868,13/10/2023 12:52,13/10/2023 12:52,Pay Bill from 254714597495 - WAMBUA KIOKO Acc. c1,Completed,400,,34550,TRUE,Pay Utility with OD via STK,254714597495 - WAMBUA KIOKO,,c1
RJD3DEJ6A1,13/10/2023 11:26,13/10/2023 11:26,Pay Bill from 254710248036 - Allan Kimeu Mutua Acc. F5,Completed,400,,34150,TRUE,Pay Utility,254710248036 - Allan Kimeu Mutua,,F5
RJD7D7C8ZR,13/10/2023 10:18,13/10/2023 10:18,Pay Bill from 0743262596 - EMILY ADHIAMBO OTIENO Acc. V58,Completed,4000,,33750,TRUE,Pay Utility,0743262596 - EMILY ADHIAMBO OTIENO,,V58
RJD6CU7I36,13/10/2023 08:02,13/10/2023 08:02,Pay Bill from 0791379873 - Joseph Kyalo Sila Acc. HAH,Completed,900,,29750,TRUE,Pay Utility with OD via STK,0791379873 - Joseph Kyalo Sila,,HAH
RJC0C6YKSK,12/10/2023 20:58,12/10/2023 20:58,Pay Bill Online from 254720451253 - JIMMY KIOGORA NKIROTE Acc. KBD,Completed,100,,28850,TRUE,Pay Bill Online,254720451253 - JIMMY KIOGORA NKIROTE,,KBD
RJB8991DGU,11/10/2023 22:36,11/10/2023 22:36,Pay Bill Online from 254720451253 - JIMMY KIOGORA NKIROTE Acc. KBD,Completed,100,,28750,TRUE,Pay Utility with OD Online,254720451253 - JIMMY KIOGORA NKIROTE,,KBD
RJB8989FR0,11/10/2023 22:22,11/10/2023 22:22,Pay Bill from 0720571944 - Ronoh   Benard Acc. D2,Completed,1200,,28650,TRUE,Pay Utility,0720571944 - Ronoh   Benard,,D2
RJB077PPEM,11/10/2023 12:57,11/10/2023 12:57,Pay Bill from 254717985596 - NICHOLAS KIPKOECH BUTIA Acc. hcf,Completed,1000,,27450,TRUE,Pay Utility,254717985596 - NICHOLAS KIPKOECH BUTIA,,hcf
RJB16M4Z4P,11/10/2023 09:26,11/10/2023 09:26,Pay Bill from 254712990240 - GLORY KARIUKI Acc. KAA,Completed,400,,26450,TRUE,Pay Utility,254712990240 - GLORY KARIUKI,,KAA
RJB06LIADW,11/10/2023 09:19,11/10/2023 09:19,Pay Bill from 254722444622 - CHARITY KAGWAINI Acc. ffd,Completed,100,,26050,TRUE,Pay Utility,254722444622 - CHARITY KAGWAINI,,ffd
RJB56ER279,11/10/2023 08:06,11/10/2023 08:06,Pay Bill Online from 0759605060 - ELVIS MUSA MORARA Acc. V47,Completed,600,,25950,TRUE,Pay Bill Online,0759605060 - ELVIS MUSA MORARA,,V47
RJB46A1IV8,11/10/2023 07:05,11/10/2023 07:05,Pay Bill Online from 254726292792 - PHILIP MIANO Acc. JEI,Completed,3000,,25350,TRUE,Pay Bill Online,254726292792 - PHILIP MIANO,,JEI
RJA061I3Y8,10/10/2023 22:52,10/10/2023 22:52,Pay Bill from 254708989835 - SUSAN NDUTA Acc. B2,Completed,200,,22350,TRUE,Pay Utility,254708989835 - SUSAN NDUTA,,B2
RJA65BSTDU,10/10/2023 19:11,10/10/2023 19:11,Pay Bill from 254722444622 - CHARITY KAGWAINI Acc. ffd,Completed,100,,22150,TRUE,Pay Utility,254722444622 - CHARITY KAGWAINI,,ffd
RJA855SO4W,10/10/2023 18:38,10/10/2023 18:38,Pay Bill from 254792712192 - KELVIN MASIBO Acc. ICE,Completed,600,,22050,TRUE,Pay Utility,254792712192 - KELVIN MASIBO,,ICE
RJA24KVGLU,10/10/2023 15:57,10/10/2023 15:57,Pay Bill from 254708612464 - MERCY KINANU KIWOTI Acc. IBB,Completed,900,,21450,TRUE,Pay Utility,254708612464 - MERCY KINANU KIWOTI,,IBB
RJA23WL510,10/10/2023 12:13,10/10/2023 12:13,Pay Bill from 0113888957 - BONVENTURE MASINGA MUTINDA Acc. JEH,Completed,2000,,20550,TRUE,Pay Utility,0113888957 - BONVENTURE MASINGA MUTINDA,,JEH
RJA83RZ580,10/10/2023 11:30,10/10/2023 11:30,Pay Bill from 254791848695 - RACHEAL WANZA MUIA Acc. wines ,Completed,200,,18550,TRUE,Pay Utility,254791848695 - RACHEAL WANZA MUIA,,wines
RJA23RNXHE,10/10/2023 11:27,10/10/2023 11:27,Pay Bill from 254796069018 - PEACE KIMEU Acc. Jah,Completed,1800,,18350,TRUE,Pay Utility,254796069018 - PEACE KIMEU,,Jah
RJA33IIMN9,10/10/2023 10:00,10/10/2023 10:00,Utility Account to Organization Settlement Account,Completed,,-20000,16550,TRUE,Utility Account to Organization Settlement Account,846783 - ANCIENT WELLS LTD 4,,
RJ962XUZHE,09/10/2023 23:46,09/10/2023 23:46,Pay Bill from 0757714694 - paul mutune musyoka Acc. D6,Completed,2000,,36550,TRUE,Pay Utility,0757714694 - paul mutune musyoka,,D6
RJ902BEQK2,09/10/2023 19:45,09/10/2023 19:45,Utility Account to Organization Settlement Account,Completed,,-10000,34550,TRUE,Utility Account to Organization Settlement Account,846783 - ANCIENT WELLS LTD 4,,
RJ901J01B8,09/10/2023 16:48,09/10/2023 16:48,Pay Bill Online from 0740283700 - SERAH MUKULU MULILIA Acc. c4,Completed,1000,,44550,TRUE,Pay Bill Online,0740283700 - SERAH MUKULU MULILIA,,c4
RJ9015T8AC,09/10/2023 14:50,09/10/2023 14:50,Utility Account to Organization Settlement Account,Completed,,-20000,43550,TRUE,Utility Account to Organization Settlement Account,846783 - ANCIENT WELLS LTD 4,,
RJ9911UOIZ,09/10/2023 14:14,09/10/2023 14:14,Pay Bill from 254724423882 - JOEL GICHURI KARANJA Acc. fee,Completed,400,,63550,TRUE,Pay Utility,254724423882 - JOEL GICHURI KARANJA,,fee
RJ94ZNV366,09/10/2023 12:10,09/10/2023 12:10,Pay Bill from 254712367486 - JACKLINE JUMA Acc. ked,Completed,200,,63150,TRUE,Pay Utility,254712367486 - JACKLINE JUMA,,ked
RJ96ZHQ242,09/10/2023 11:13,09/10/2023 11:13,Pay Bill from 0798015497 - GODWIN OLUKWA AMBUGA Acc. c6,Completed,600,,62950,TRUE,Pay Utility,0798015497 - GODWIN OLUKWA AMBUGA,,c6
RJ97ZH2YQX,09/10/2023 11:07,09/10/2023 11:07,Pay Bill from 0791565463 - Lilian Njeri Wakagwi Acc. F6,Completed,800,,62350,TRUE,Pay Utility,0791565463 - Lilian Njeri Wakagwi,,F6
RJ98ZF38NY,09/10/2023 10:49,09/10/2023 10:49,Pay Bill Online from 254715764212 - BANCE ISHEMINYE Acc. JFE,Completed,200,,61550,TRUE,Pay Bill Online,254715764212 - BANCE ISHEMINYE,,JFE
RJ81XYG82X,08/10/2023 19:21,08/10/2023 19:21,Pay Bill from 0742599061 - Judy Masese Samwel Acc. hgf,Completed,400,,61350,TRUE,Pay Utility,0742599061 - Judy Masese Samwel,,hgf
RJ83XXD58L,08/10/2023 19:14,08/10/2023 19:14,Pay Bill Online from 254745391294 - Faith Moraa Sitemba Acc. IFC,Completed,1200,,60950,TRUE,Pay Bill Online,254745391294 - Faith Moraa Sitemba,,IFC
RJ80XL06HI,08/10/2023 17:55,08/10/2023 17:55,Pay Bill Online from 254720381965 - JAMES NGUGI MWANIKI Acc. JBI,Completed,2400,,59750,TRUE,Pay Bill Online,254720381965 - JAMES NGUGI MWANIKI,,JBI
RJ83WZA4A7,08/10/2023 14:54,08/10/2023 14:54,Pay Bill from 254704303496 - PETER MACHARIA WAIGANJO Acc. DFD,Completed,1600,,57350,TRUE,Pay Utility,254704303496 - PETER MACHARIA WAIGANJO,,DFD
RJ89WJ1JHV,08/10/2023 12:22,08/10/2023 12:22,Pay Bill from 254712974871 - PAULA WANJIKU GATUI Acc. hea,Completed,800,,55750,TRUE,Pay Utility,254712974871 - PAULA WANJIKU GATUI,,hea
RJ82VQV806,08/10/2023 07:03,08/10/2023 07:03,Pay Bill Online from 254703285159 - Enock Michieka Mochoge Acc. KAE,Completed,400,,54950,TRUE,Pay Bill Online,254703285159 - Enock Michieka Mochoge,,KAE
RJ74VIM1XE,07/10/2023 23:10,07/10/2023 23:10,Utility Account to Organization Settlement Account,Completed,,-5000,54550,TRUE,Utility Account to Organization Settlement Account,846783 - ANCIENT WELLS LTD 4,,
RJ79V85YO7,07/10/2023 21:06,07/10/2023 21:06,Pay Bill Online from 254720451253 - JIMMY KIOGORA NKIROTE Acc. KBD,Completed,100,,59550,TRUE,Pay Bill Online,254720451253 - JIMMY KIOGORA NKIROTE,,KBD
RJ72UU9VDO,07/10/2023 19:37,07/10/2023 19:37,Pay Bill Online from 254710814215 - JOAN NYAMBURA KAMAU Acc. ifb,Completed,1200,,59450,TRUE,Pay Bill Online,254710814215 - JOAN NYAMBURA KAMAU,,ifb
RJ70UOZ4N4,07/10/2023 19:10,07/10/2023 19:10,Pay Bill from 0704346708 - WENDY GLADYS ADIENGE Acc. V17,Completed,7000,,58250,TRUE,Pay Utility,0704346708 - WENDY GLADYS ADIENGE,,V17
RJ72TFQ462,07/10/2023 13:40,07/10/2023 13:40,Pay Bill from 0798121865 - Purity Jelagat Kurui Acc. HDC,Completed,500,,51250,TRUE,Pay Utility,0798121865 - Purity Jelagat Kurui,,HDC
RJ74SZ5PZG,07/10/2023 11:19,07/10/2023 11:19,Pay Bill from 254706613908 - joseph mbugua karumbi Acc. V45,Completed,450,,50750,TRUE,Pay Utility,254706613908 - joseph mbugua karumbi,,V45
RJ73SWAI4B,07/10/2023 10:54,07/10/2023 10:54,Pay Bill from 254740579741 - MUHINDI MULINYA Acc. HGG,Completed,2800,,50300,TRUE,Pay Utility,254740579741 - MUHINDI MULINYA,,HGG
RJ74SEZIUO,07/10/2023 08:09,07/10/2023 08:09,Pay Bill from 0715688238 - JOANNAH ATUHAIRE BANTU Acc. FFA,Completed,800,,47500,TRUE,Pay Utility,0715688238 - JOANNAH ATUHAIRE BANTU,,FFA
RJ75SE3RSZ,07/10/2023 07:59,07/10/2023 07:59,Utility Account to Organization Settlement Account,Completed,,-15000,46700,TRUE,Utility Account to Organization Settlement Account,846783 - ANCIENT WELLS LTD 4,,
RJ76SAKBZM,07/10/2023 07:14,07/10/2023 07:14,Pay Bill Online from 0722255105 - SALIM OMAR MZEE Acc. FGF water,Completed,2600,,61700,TRUE,Pay Utility with OD Online,0722255105 - SALIM OMAR MZEE,,FGF
RJ71SA6IL3,07/10/2023 07:08,07/10/2023 07:08,Pay Bill from 0724386624 - FATUMA ISSE YUSSUF Acc. FAB,Completed,1000,,59100,TRUE,Pay Utility,0724386624 - FATUMA ISSE YUSSUF,,FAB
RJ79S4650L,07/10/2023 01:32,07/10/2023 01:32,Pay Bill Online from 254720451253 - JIMMY KIOGORA NKIROTE Acc. KBD,Completed,100,,58100,TRUE,Pay Bill Online,254720451253 - JIMMY KIOGORA NKIROTE,,KBD
RJ65RQNT7X,06/10/2023 21:11,06/10/2023 21:11,Pay Bill from 254798524621 - MERCY CHESANG Acc. jcj,Completed,200,,58000,TRUE,Pay Utility,254798524621 - MERCY CHESANG,,jcj
RJ66RCUXT0,06/10/2023 19:41,06/10/2023 19:41,Pay Bill from 254711742716 - RODGERS KIPLANGAT KORIR Acc. IGC,Completed,400,,57800,TRUE,Pay Utility,254711742716 - RODGERS KIPLANGAT KORIR,,IGC
RJ66QZFG9A,06/10/2023 18:31,06/10/2023 18:31,Pay Bill Online from 254710382992 - SIMON KAMAU MUIRURI Acc. JCD,Completed,400,,57400,TRUE,Pay Bill Online,254710382992 - SIMON KAMAU MUIRURI,,JCD
RJ64QY1TAY,06/10/2023 18:22,06/10/2023 18:22,Pay Bill from 254725478531 - KIPKORIR KUTO Acc. DFB,Completed,400,,57000,TRUE,Pay Utility,254725478531 - KIPKORIR KUTO,,DFB
RJ63QOKNGT,06/10/2023 17:20,06/10/2023 17:20,Pay Bill from 254716167517 - BENARD MUTUA Acc. Hcb,Completed,1400,,56600,TRUE,Pay Utility,254716167517 - BENARD MUTUA,,Hcb
RJ68QHJW72,06/10/2023 16:27,06/10/2023 16:27,Pay Bill Online from 254715892656 - DENNIS MUSYOKA MUOKI Acc. KFA,Completed,400,,55200,TRUE,Pay Bill Online,254715892656 - DENNIS MUSYOKA MUOKI,,KFA
RJ68Q9KJTA,06/10/2023 15:19,06/10/2023 15:19,Pay Bill from 0717441870 - Steven oduor ogutu Acc. KTA,Completed,1500,,54800,TRUE,Pay Utility,0717441870 - Steven oduor ogutu,,KTA
RJ60Q1S988,06/10/2023 14:12,06/10/2023 14:12,Pay Bill Online from 254799654490 - DANIEL MUTIO MAUNDU Acc. V28,Completed,1300,,53300,TRUE,Pay Bill Online,254799654490 - DANIEL MUTIO MAUNDU,,V28
RJ61PI3LYF,06/10/2023 11:18,06/10/2023 11:18,Pay Bill Online from 254799863492 - HIRANI MULJI Acc. JDB,Completed,800,,52000,TRUE,Pay Bill Online,254799863492 - HIRANI MULJI,,JDB
RJ65PERRPH,06/10/2023 10:48,06/10/2023 10:48,Pay Bill from 254723499628 - CLINTON JOSEPH MUHARI Acc. hfh,Completed,1000,,51200,TRUE,Pay Utility,254723499628 - CLINTON JOSEPH MUHARI,,hfh
RJ65OYLVA5,06/10/2023 08:12,06/10/2023 08:12,Pay Bill from 254717690295 - MARCELLA JELIMO Acc. IGE,Completed,800,,50200,TRUE,Pay Utility,254717690295 - MARCELLA JELIMO,,IGE
RJ66OVK010,06/10/2023 07:37,06/10/2023 07:37,Pay Bill Online from 0741500311 - ALLAN GISONI NYANGARESI Acc. DBA,Completed,600,,49400,TRUE,Pay Bill Online,0741500311 - ALLAN GISONI NYANGARESI,,DBA
RJ50OLG7E8,05/10/2023 23:56,05/10/2023 23:56,Pay Bill Online from 254729097858 - AMBROSE ADEYA AHAWO Acc. KCF,Completed,600,,48800,TRUE,Pay Bill Online,254729097858 - AMBROSE ADEYA AHAWO,,KCF
RJ50OG1MUW,05/10/2023 22:07,05/10/2023 22:07,Pay Bill from 254798642778 - victor musyoka Acc. DAD,Completed,1400,,48200,TRUE,Pay Utility,254798642778 - victor musyoka,,DAD
RJ58OCJ6HA,05/10/2023 21:32,05/10/2023 21:32,Pay Bill from 254729450678 - GRACE NDUNGE Acc. fba,Completed,600,,46800,TRUE,Pay Utility with OD via STK,254729450678 - GRACE NDUNGE,,fba
RJ54OAT948,05/10/2023 21:17,05/10/2023 21:17,Pay Bill from 254712091662 - BENARD OMONDI ROBY Acc. V16,Completed,800,,46200,TRUE,Pay Utility with OD via STK,254712091662 - BENARD OMONDI ROBY,,V16
RJ58O9GH2U,05/10/2023 21:06,05/10/2023 21:06,Pay Bill from 254712283818 - OYUGI OCHIENG Acc. FCB,Completed,2000,,45400,TRUE,Pay Utility,254712283818 - OYUGI OCHIENG,,FCB
RJ50O5DU1M,05/10/2023 20:37,05/10/2023 20:37,Pay Bill from 254708910373 - MUNINI ISAAC Acc. IEB,Completed,400,,43400,TRUE,Pay Utility,254708910373 - MUNINI ISAAC,,IEB
RJ58O1R2PY,05/10/2023 20:14,05/10/2023 20:14,Pay Bill from 0741807396 - JAMES  WAMBUGU RAMTU Acc. B5,Completed,400,,43000,TRUE,Pay Utility,0741807396 - JAMES  WAMBUGU RAMTU,,B5
RJ57O0FE6N,05/10/2023 20:06,05/10/2023 20:06,Pay Bill from 254700811449 - JOHN MULIMA ENANE Acc. HCE,Completed,1000,,42600,TRUE,Pay Utility,254700811449 - JOHN MULIMA ENANE,,HCE
RJ59NVCYL3,05/10/2023 19:37,05/10/2023 19:37,Pay Bill from 254717748212 - PATRICK KIOKO MUTUKU Acc. kce,Completed,1500,,41600,TRUE,Pay Utility,254717748212 - PATRICK KIOKO MUTUKU,,kce
RJ53NM4Y2D,05/10/2023 18:50,05/10/2023 18:50,Pay Bill from 0719726347 - ROSEMARY DAYO KILUMBE Acc. KGE,Completed,400,,40100,TRUE,Pay Utility,0719726347 - ROSEMARY DAYO KILUMBE,,KGE
RJ51NG3HKR,05/10/2023 18:15,05/10/2023 18:15,Pay Bill from 254725754547 - MWACHIRO GEORGE DECHE Acc. DFC,Completed,1600,,39700,TRUE,Pay Utility,254725754547 - MWACHIRO GEORGE DECHE,,DFC
RJ56N9CZWU,05/10/2023 17:30,05/10/2023 17:30,Pay Bill Online from 254721974995 - BERNICE MANGOKA Acc. KFK,Completed,800,,38100,TRUE,Pay Bill Online,254721974995 - BERNICE MANGOKA,,KFK
RJ54MJ2AMO,05/10/2023 13:46,05/10/2023 13:46,Pay Bill from 254700198550 - BENARD ONYANGO Acc. DBB,Completed,4000,,37300,TRUE,Pay Utility,254700198550 - BENARD ONYANGO,,DBB
RJ51MC069H,05/10/2023 12:43,05/10/2023 12:43,Pay Bill from 254727095667 - HILDA JEPKEMOI KIMELIEL Acc. JBE,Completed,1000,,33300,TRUE,Pay Utility,254727095667 - HILDA JEPKEMOI KIMELIEL,,JBE
RJ51MA526L,05/10/2023 12:26,05/10/2023 12:26,Pay Bill from 254721667039 - ELIAS KIPLAGAT Acc. KAC,Completed,400,,32300,TRUE,Pay Utility,254721667039 - ELIAS KIPLAGAT,,KAC
RJ53M1AOP1,05/10/2023 11:03,05/10/2023 11:03,Pay Bill from 254717247817 - NYANGAU HARONI Acc. jba,Completed,1400,,31900,TRUE,Pay Utility,254717247817 - NYANGAU HARONI,,jba
RJ52LF55VK,05/10/2023 07:08,05/10/2023 07:08,Utility Account to Organization Settlement Account,Completed,,-10000,30500,TRUE,Utility Account to Organization Settlement Account,846783 - ANCIENT WELLS LTD 4,,
RJ43L6D0OJ,04/10/2023 23:01,04/10/2023 23:01,Pay Bill from 254718818610 - HANNAH NALIAKA Acc. V23,Completed,200,,40500,TRUE,Pay Utility,254718818610 - HANNAH NALIAKA,,V23
RJ40L0PWGG,04/10/2023 21:39,04/10/2023 21:39,Pay Bill Online from 254720451253 - JIMMY KIOGORA NKIROTE Acc. KBD,Completed,100,,40300,TRUE,Pay Bill Online,254720451253 - JIMMY KIOGORA NKIROTE,,KBD
RJ42KXCSJU,04/10/2023 21:09,04/10/2023 21:09,Pay Bill from 254716881682 - JUSTINE FAYUMA OKWEMBA Acc. HAA,Completed,2800,,40200,TRUE,Pay Utility,254716881682 - JUSTINE FAYUMA OKWEMBA,,HAA
RJ49KNHG3F,04/10/2023 20:00,04/10/2023 20:00,Pay Bill Online from 254792281122 - MWENDWA MUTUNGA Acc. B1,Completed,800,,37400,TRUE,Pay Bill Online,254792281122 - MWENDWA MUTUNGA,,B1
RJ48KG9QW0,04/10/2023 19:20,04/10/2023 19:20,Pay Bill from 254700085051 - HUMPHREY WANJIKU Acc. v46,Completed,900,,36600,TRUE,Pay Utility,254700085051 - HUMPHREY WANJIKU,,v46
RJ49KD140L,04/10/2023 19:03,04/10/2023 19:03,Pay Bill Online from 254721714178 - PHANICE JEROTICH KIPTOO Acc. FBF,Completed,600,,35700,TRUE,Pay Bill Online,254721714178 - PHANICE JEROTICH KIPTOO,,FBF
RJ43K3444N,04/10/2023 18:07,04/10/2023 18:07,Pay Bill from 254729355933 - FELISTAH NJERI WAIRIMU Acc. IDI,Completed,2000,,35100,TRUE,Pay Utility,254729355933 - FELISTAH NJERI WAIRIMU,,IDI
RJ47JORE6H,04/10/2023 16:20,04/10/2023 16:20,Pay Bill from 254728670882 - SHARAD EDWARD ADALA OLUM Acc. KCK,Completed,2800,,33100,TRUE,Pay Utility,254728670882 - SHARAD EDWARD ADALA OLUM,,KCK
RJ42IUK1JY,04/10/2023 11:45,04/10/2023 11:45,Pay Bill from 0795807227 - Lucy Ncekei Kimathi Acc. V36 ,Completed,200,,30300,TRUE,Pay Utility,0795807227 - Lucy Ncekei Kimathi,,V36
RJ47IRNIE7,04/10/2023 11:18,04/10/2023 11:18,Pay Bill Online from 254720696119 - DUNCAN OMONDI OKETCH Acc. FAE,Completed,400,,30100,TRUE,Pay Bill Online,254720696119 - DUNCAN OMONDI OKETCH,,FAE
RJ47IQ41KD,04/10/2023 11:04,04/10/2023 11:04,Pay Bill from 0729382149 - SYLVIA NABALAYO MASABULE Acc. V30,Completed,400,,29700,TRUE,Pay Utility,0729382149 - SYLVIA NABALAYO MASABULE,,V30
RJ46IAWWY0,04/10/2023 08:35,04/10/2023 08:35,Pay Bill from 254706144834 - WILKISTER OSUMO Acc. HGH,Completed,800,,29300,TRUE,Pay Utility,254706144834 - WILKISTER OSUMO,,HGH
RJ47HWWJU7,04/10/2023 00:28,04/10/2023 00:28,Pay Bill Online from 254712040302 - EMMANUEL MWARO BARASA Acc. KEA,Completed,1600,,28500,TRUE,Pay Bill Online,254712040302 - EMMANUEL MWARO BARASA,,KEA
RJ35HRIGJ3,03/10/2023 22:15,03/10/2023 22:15,Pay Bill Online from 254742023558 - PEACEMARY NJERI MAINA Acc. jbc,Completed,200,,26900,TRUE,Pay Utility with OD Online,254742023558 - PEACEMARY NJERI MAINA,,jbc
RJ30HM4RFK,03/10/2023 21:20,03/10/2023 21:20,Pay Bill from 254704977689 - ANTONY MUTHONI Acc. ICD,Completed,400,,26700,TRUE,Pay Utility,254704977689 - ANTONY MUTHONI,,ICD
RJ38HHBLNY,03/10/2023 20:44,03/10/2023 20:44,Pay Bill Online from 254714552193 - CHRISTOPHER OCHIENG Acc. JGI,Completed,650,,26300,TRUE,Pay Bill Online,254714552193 - CHRISTOPHER OCHIENG,,JGI
RJ30HFVHRS,03/10/2023 20:34,03/10/2023 20:34,Pay Bill from 254726753273 - JESSE K MURIRMI NJERU Acc. HCH,Completed,600,,25650,TRUE,Pay Utility,254726753273 - JESSE K MURIRMI NJERU,,HCH
RJ32H2ZSDW,03/10/2023 19:20,03/10/2023 19:20,Pay Bill from 254720947704 - JOSPHAT JOHN MUSYOKI Acc. HDD,Completed,3800,,25050,TRUE,Pay Utility,254720947704 - JOSPHAT JOHN MUSYOKI,,HDD
RJ35GOGGOT,03/10/2023 17:58,03/10/2023 17:58,Pay Bill from 254716504398 - HYVENE MAYETI Acc. KDE ,Completed,200,,21250,TRUE,Pay Utility,254716504398 - HYVENE MAYETI,,KDE
RJ30GGQOLW,03/10/2023 17:03,03/10/2023 17:03,Pay Bill from 254717063324 - Christine Murugi Nyaga Acc. kdf,Completed,200,,21050,TRUE,Pay Utility,254717063324 - Christine Murugi Nyaga,,kdf
RJ39G9936V,03/10/2023 16:01,03/10/2023 16:01,Pay Bill Online from 0111278177 - Alfred   Kishoin Acc. DAB,Completed,1200,,20850,TRUE,Pay Bill Online,0111278177 - Alfred   Kishoin,,DAB
RJ38G8T16S,03/10/2023 15:56,03/10/2023 15:56,Pay Bill from 254710635630 - DONNA JESSICA OWANO Acc. KCC ,Completed,600,,19650,TRUE,Pay Utility,254710635630 - DONNA JESSICA OWANO,,KCC
RJ38FFOKMW,03/10/2023 11:30,03/10/2023 11:30,Pay Bill from 254720814822 - JAMES OTIENO OPAR Acc. jgj,Completed,750,,19050,TRUE,Pay Utility,254720814822 - JAMES OTIENO OPAR,,jgj
RJ32F6DWAQ,03/10/2023 10:02,03/10/2023 10:02,Pay Bill from 254719398942 - NORAH WAYUA MUNYAO Acc. KDA,Completed,800,,18300,TRUE,Pay Utility,254719398942 - NORAH WAYUA MUNYAO,,KDA
RJ37F454BD,03/10/2023 09:39,03/10/2023 09:39,Pay Bill Online from 254729796719 - JACINTA WANJIKU NJERI Acc. FFF,Completed,400,,17500,TRUE,Pay Bill Online,254729796719 - JACINTA WANJIKU NJERI,,FFF
RJ38ERVIX0,03/10/2023 07:23,03/10/2023 07:23,Pay Bill from 254711515672 - ALLAN MUTEMBEI Acc. IEI,Completed,1200,,17100,TRUE,Pay Utility,254711515672 - ALLAN MUTEMBEI,,IEI
RJ23EGDIJD,02/10/2023 22:29,02/10/2023 22:29,Pay Bill from 254723488259 - WILSON OKITE OKITE Acc. hca,Completed,1200,,15900,TRUE,Pay Utility,254723488259 - WILSON OKITE OKITE,,hca
RJ27EECM0F,02/10/2023 22:01,02/10/2023 22:01,Pay Bill from 254702216907 - FAITH MUSA Acc. kbe,Completed,600,,14700,TRUE,Pay Utility,254702216907 - FAITH MUSA,,kbe
RJ21ECTM13,02/10/2023 21:44,02/10/2023 21:44,Pay Bill from 0711502447 - Gabriel gatehi mwaura Acc. FDC,Completed,400,,14100,TRUE,Pay Utility,0711502447 - Gabriel gatehi mwaura,,FDC
RJ23ECMDVB,02/10/2023 21:41,02/10/2023 21:41,Pay Bill from 254728084427 - MARY NABWIRE OKELLO Acc. FDF,Completed,1600,,13700,TRUE,Pay Utility,254728084427 - MARY NABWIRE OKELLO,,FDF
RJ26DZDVR2,02/10/2023 20:00,02/10/2023 20:00,Pay Bill Online from 254702118125 - ROTICH BETHWEL Acc. V20,Completed,500,,12100,TRUE,Pay Bill Online,254702118125 - ROTICH BETHWEL,,V20
RJ23DYW955,02/10/2023 19:57,02/10/2023 19:57,Pay Bill from 254740579741 - MUHINDI MULINYA Acc. HGG,Completed,2000,,11600,TRUE,Pay Utility with OD via STK,254740579741 - MUHINDI MULINYA,,HGG
RJ25DU60L5,02/10/2023 19:30,02/10/2023 19:30,Pay Bill from 254720931007 - BRENDA NASIMIYU NYONGESA Acc. KAB,Completed,2400,,9600,TRUE,Pay Utility,254720931007 - BRENDA NASIMIYU NYONGESA,,KAB
RJ23DSU1QF,02/10/2023 19:23,02/10/2023 19:23,Pay Bill Online from 254715020357 - ELIZABETH NJERI WARARI Acc. C2,Completed,400,,7200,TRUE,Pay Bill Online,254715020357 - ELIZABETH NJERI WARARI,,C2
RJ20DRJMSQ,02/10/2023 19:16,02/10/2023 19:16,Pay Bill Online from 254718663397 - JIMMY MUNYAO NZIOKI Acc. DCB,Completed,600,,6800,TRUE,Pay Bill Online,254718663397 - JIMMY MUNYAO NZIOKI,,DCB
RJ23D5F0XH,02/10/2023 16:58,02/10/2023 16:58,Pay Bill Online from 254708357223 - DENNIS KIRIMI Acc. DCA,Completed,800,,6200,TRUE,Pay Utility with OD Online,254708357223 - DENNIS KIRIMI,,DCA
RJ29D3Q8LN,02/10/2023 16:45,02/10/2023 16:45,Pay Bill from 0798435532 - FELISTER MUTIO KIOKO Acc. HDF,Completed,1200,,5400,TRUE,Pay Utility,0798435532 - FELISTER MUTIO KIOKO,,HDF
RJ25CRP2D1,02/10/2023 15:00,02/10/2023 15:00,Pay Bill from 254729258441 - ROBERT RONO KULEI Acc. JFI,Completed,1800,,4200,TRUE,Pay Utility,254729258441 - ROBERT RONO KULEI,,JFI
RJ28CIQ1CE,02/10/2023 13:39,02/10/2023 13:39,Pay Bill from 254791318982 - ADULLAHI HASSAN Acc. jci,Completed,800,,2400,TRUE,Pay Utility,254791318982 - ADULLAHI HASSAN,,jci
RJ23BH5K55,02/10/2023 07:35,02/10/2023 07:35,Pay Bill from 254723929380 - RHODAH K WAMBUA Acc. HEG,Completed,1600,,1600,TRUE,Pay Utility,254723929380 - RHODAH K WAMBUA,,HEG
RJ22BH33QW,02/10/2023 07:34,02/10/2023 07:34,Utility Account to Organization Settlement Account,Completed,,-11100,0,TRUE,Utility Account to Organization Settlement Account,846783 - ANCIENT WELLS LTD 4,,
RJ17B1GRS9,01/10/2023 21:49,01/10/2023 21:49,Pay Bill from 0748956967 - Selvin Mukami Wanjiru Acc. E4,Completed,1000,,11100,TRUE,Pay Utility,0748956967 - Selvin Mukami Wanjiru,,E4
RJ10B0UVOY,01/10/2023 21:42,01/10/2023 21:42,Pay Bill Online from 254720451253 - JIMMY KIOGORA NKIROTE Acc. KBD,Completed,100,,10100,TRUE,Pay Bill Online,254720451253 - JIMMY KIOGORA NKIROTE,,KBD
RJ14AZMXDQ,01/10/2023 21:28,01/10/2023 21:28,Pay Bill Online from 254706784429 - ROSE JEPKOECH RUTTO Acc. IFI,Completed,200,,10000,TRUE,Pay Bill Online,254706784429 - ROSE JEPKOECH RUTTO,,IFI
RJ14AU326S,01/10/2023 20:38,01/10/2023 20:38,Pay Bill from 0743262596 - EMILY ADHIAMBO OTIENO Acc. V58,Completed,3000,,9800,TRUE,Pay Utility with OD via STK,0743262596 - EMILY ADHIAMBO OTIENO,,V58
RJ19A5NBXH,01/10/2023 17:57,01/10/2023 17:57,Pay Bill Online from 254721465713 - RHODA WAMBUI MWANGI Acc. Jfh,Completed,1000,,6800,TRUE,Pay Bill Online,254721465713 - RHODA WAMBUI MWANGI,,Jfh
RJ12A50OVC,01/10/2023 17:52,01/10/2023 17:52,Pay Bill from 254725621394 - RACHAEL WACHIRA Acc. Jfb,Completed,600,,5800,TRUE,Pay Utility,254725621394 - RACHAEL WACHIRA,,Jfb
RJ14A4HM7E,01/10/2023 17:48,01/10/2023 17:48,Pay Bill from 254700430569 - EDITH   GAKII Acc. DDB,Completed,800,,5200,TRUE,Pay Utility with OD via STK,254700430569 - EDITH   GAKII,,DDB
RJ129Y7HA0,01/10/2023 16:59,01/10/2023 16:59,Pay Bill Online from 254726465584 - JULIANA MUKELI MUTUNGA Acc. v4,Completed,400,,4400,TRUE,Pay Bill Online,254726465584 - JULIANA MUKELI MUTUNGA,,v4
RJ199XNBHL,01/10/2023 16:54,01/10/2023 16:54,Pay Bill Online from 254726001437 - FESTUS MUNYIRI MAINA Acc. IFF,Completed,400,,4000,TRUE,Pay Bill Online,254726001437 - FESTUS MUNYIRI MAINA,,IFF
RJ119WJEIJ,01/10/2023 16:45,01/10/2023 16:45,Pay Bill from 0706563358 - HARRIET NYANCHAMA NYABERI Acc. HBA,Completed,400,,3600,TRUE,Pay Utility,0706563358 - HARRIET NYANCHAMA NYABERI,,HBA
RJ119M35VV,01/10/2023 15:14,01/10/2023 15:14,Pay Bill Online from 254707966839 - DENNIS KIPTOO MAIYO Acc. FEF,Completed,600,,3200,TRUE,Pay Bill Online,254707966839 - DENNIS KIPTOO MAIYO,,FEF
RJ109AX0RG,01/10/2023 13:33,01/10/2023 13:33,Pay Bill Online from 254714710840 - RACHAEL WANJIRU NJOROGE Acc. ITE,Completed,600,,2600,TRUE,Pay Bill Online,254714710840 - RACHAEL WANJIRU NJOROGE,,ITE
RJ1293LBLC,01/10/2023 12:19,01/10/2023 12:19,Pay Bill from 0745472241 - Tonny Nyachieo Onsinyo Acc. idc,Completed,1000,,2000,TRUE,Pay Utility,0745472241 - Tonny Nyachieo Onsinyo,,idc
RJ108WB4K0,01/10/2023 11:02,01/10/2023 11:02,Pay Bill Online from 254795510441 - LEWIS MUEMA Acc. KEB,Completed,400,,1000,TRUE,Pay Bill Online,254795510441 - LEWIS MUEMA,,KEB
RJ198OLY9X,01/10/2023 09:41,01/10/2023 09:41,Pay Bill from 0798951042 - fridah kathure kinyua Acc. HGE,Completed,600,,600,TRUE,Pay Utility,0798951042 - fridah kathure kinyua,,HGE
