Receipt No.,Completion Time,Initiation Time,Details,Transaction Status,Paid In,Withdrawn,Balance,Balance Confirmed,Reason Type,Other Party Info,Linked Transaction ID,A/C No.
QBM4JPLLVM,22/02/2022 08:18,22/02/2022 08:18,Utility Account to Organization Settlement Account,Completed,,-7400,0,TRUE,Utility Account to Organization Settlement Account,846783 - ANCIENT WELLS LTD 4,,
QBL8IYWVFI,21/02/2022 18:16,21/02/2022 18:16,Pay Bill from 254717465142 - EPHANTUS IRURA Acc. c4 muriithi,Completed,200,,7400,TRUE,Pay Utility,254717465142 - EPHANTUS IRURA,,c4
QBL4I5Y0VG,21/02/2022 10:51,21/02/2022 10:51,Pay Bill from 254729713741 - ALBANUS MUTISO Acc. DDC,Completed,1000,,7200,TRUE,Pay Utility,254729713741 - ALBANUS MUTISO,,DDC
QBL2I1PJ86,21/02/2022 09:38,21/02/2022 09:38,Pay Bill from 0746934144 - Rosemary Wangui Muiruri Acc. ICD,Completed,600,,6200,TRUE,Pay Utility,0746934144 - Rosemary Wangui Muiruri,,ICD
QBK4HM53PM,20/02/2022 21:01,20/02/2022 21:01,Pay Bill from 254701261592 - VICTOR MWILU Acc. v37,Completed,600,,5600,TRUE,Pay Utility,254701261592 - VICTOR MWILU,,v37
QBK8GPGT7U,20/02/2022 13:25,20/02/2022 13:25,Pay Bill from 254791355838 - Jane Muthoni Munyua Acc. KGJ,Completed,800,,5000,TRUE,Pay Utility,254791355838 - Jane Muthoni Munyua,,KGJ
QBJ7ES9VHX,19/02/2022 12:15,19/02/2022 12:15,Pay Bill from 254791318982 - ADULLAHI HASSAN Acc. JCI,Completed,1600,,4200,TRUE,Pay Utility,254791318982 - ADULLAHI HASSAN,,JCI
QBI1DE6IR3,18/02/2022 16:31,18/02/2022 16:31,Pay Bill from 0727542914 - Pascal Ouma Opar Acc. pascalv45,Completed,400,,2600,TRUE,Pay Utility,0727542914 - Pascal Ouma Opar,,pascalv45
QBI5D9B72X,18/02/2022 15:16,18/02/2022 15:16,Pay Bill Online from 254703176849 - ROYAL MUYA Acc. F2,Completed,800,,2200,TRUE,Pay Utility with OD Online,254703176849 - ROYAL MUYA,,F2
QBI2D6I1OK,18/02/2022 14:32,18/02/2022 14:32,Pay Bill Online from 254711877988 - PATRICK KONZI Acc. b4,Completed,600,,1400,TRUE,Pay Bill Online,254711877988 - PATRICK KONZI,,b4
QBI3D2LU4N,18/02/2022 13:31,18/02/2022 13:31,Pay Bill from 0769960650 - DORIS WAMARWA MURIUKI Acc. KEC,Completed,800,,800,TRUE,Pay Utility,0769960650 - DORIS WAMARWA MURIUKI,,KEC
QBI7CXKAGB,18/02/2022 12:09,18/02/2022 12:09,Utility Account to Organization Settlement Account,Completed,,-800,0,TRUE,Utility Account to Organization Settlement Account,846783 - ANCIENT WELLS LTD 4,,
QBI5CGQMHR,18/02/2022 06:34,18/02/2022 06:34,Pay Bill from 254724852503 - GEOFREY YEGO Acc. JFF,Completed,600,,800,TRUE,Pay Utility,254724852503 - GEOFREY YEGO,,JFF
QBH8BTEKXG,17/02/2022 18:35,17/02/2022 18:35,Pay Bill from 254712660519 - KELVIN MUTUNGA KATONYI Acc. V49,Completed,200,,200,TRUE,Pay Utility,254712660519 - KELVIN MUTUNGA KATONYI,,V49
QBG796PE9T,16/02/2022 11:31,16/02/2022 11:31,Utility Account to Organization Settlement Account,Completed,,-800,0,TRUE,Utility Account to Organization Settlement Account,846783 - ANCIENT WELLS LTD 4,,
QBG58YXO7J,16/02/2022 09:19,16/02/2022 09:19,Pay Bill from 254715939283 - alex nyamai Acc. alex v07,Completed,600,,800,TRUE,Pay Utility with OD via STK,254715939283 - alex nyamai,,alex
QBF78K66RZ,15/02/2022 21:14,15/02/2022 21:14,Pay Bill from 254720278119 - LINDAH OGAWO Acc. kfe,Completed,200,,200,TRUE,Pay Utility,254720278119 - LINDAH OGAWO,,kfe
QBF47S0GVW,15/02/2022 15:38,15/02/2022 15:38,Utility Account to Organization Settlement Account,Completed,,-1200,0,TRUE,Utility Account to Organization Settlement Account,846783 - ANCIENT WELLS LTD 4,,
QBF77Q8TQ1,15/02/2022 15:09,15/02/2022 15:09,Pay Bill from 254724655033 - SUSAN CHIMOTO Acc. KGH,Completed,1200,,1200,TRUE,Pay Utility,254724655033 - SUSAN CHIMOTO,,KGH
QBF877AAKE,15/02/2022 09:57,15/02/2022 09:57,Utility Account to Organization Settlement Account,Completed,,-20099,0,TRUE,Utility Account to Organization Settlement Account,846783 - ANCIENT WELLS LTD 4,,
QBE06HJ9X6,14/02/2022 19:31,14/02/2022 19:31,Pay Bill from 254722578070 - SAMUEL MACHARIA Acc. v42,Completed,400,,20099,TRUE,Pay Utility,254722578070 - SAMUEL MACHARIA,,v42
QBE767CU9N,14/02/2022 17:41,14/02/2022 17:41,Pay Bill from 254719779657 - SAMUEL NJOROGE Acc. JGA,Completed,1400,,19699,TRUE,Pay Utility with OD via STK,254719779657 - SAMUEL NJOROGE,,JGA
QBE262PVS0,14/02/2022 16:40,14/02/2022 16:40,Pay Bill from 254729371750 - DERRICK OTANGA Acc. FEF,Completed,800,,18299,TRUE,Pay Utility,254729371750 - DERRICK OTANGA,,FEF
QBE85LPBG0,14/02/2022 12:19,14/02/2022 12:19,Pay Bill from 0758457508 - PETER KINGORI KAGUNDA Acc. V06,Completed,200,,17499,TRUE,Pay Utility,0758457508 - PETER KINGORI KAGUNDA,,V06
QBD24Y80PQ,13/02/2022 21:50,13/02/2022 21:50,Pay Bill from 254718672924 - LILIAN CHEBET NGENO Acc. KGD,Completed,100,,17299,TRUE,Pay Utility,254718672924 - LILIAN CHEBET NGENO,,KGD
QBD94Y5ZFL,13/02/2022 21:49,13/02/2022 21:49,Pay Bill from 254718672924 - LILIAN CHEBET NGENO Acc. KGD,Completed,99,,17199,TRUE,Pay Utility,254718672924 - LILIAN CHEBET NGENO,,KGD
QBD24Y4SDO,13/02/2022 21:48,13/02/2022 21:48,Pay Bill from 254718672924 - LILIAN CHEBET NGENO Acc. KGD,Completed,100,,17100,TRUE,Pay Utility,254718672924 - LILIAN CHEBET NGENO,,KGD
QBD14421F5,13/02/2022 15:00,13/02/2022 15:00,Pay Bill from 0758741326 - ABDULLAHI ISACK BANTE Acc. Kbf,Completed,600,,17000,TRUE,Pay Utility,0758741326 - ABDULLAHI ISACK BANTE,,Kbf
QBD03E3OI8,13/02/2022 02:07,13/02/2022 02:07,Pay Bill from 254723699555 - DIANA NYAIREGI GICHIA Acc. FBF,Completed,1000,,16400,TRUE,Pay Utility,254723699555 - DIANA NYAIREGI GICHIA,,FBF
QBC12YU3CZ,12/02/2022 19:38,12/02/2022 19:38,Pay Bill Online from 0700206427 - Clare Nabalisa Mukasa Acc. 1000,Completed,1000,,15400,TRUE,Pay Bill Online,0700206427 - Clare Nabalisa Mukasa,,1000
QBC829BV64,12/02/2022 14:15,12/02/2022 14:15,Pay Bill from 254701339690 - ASHA BAGANWA NDAHIRU Acc. F3,Completed,800,,14400,TRUE,Pay Utility,254701339690 - ASHA BAGANWA NDAHIRU,,F3
QBC527Z8U3,12/02/2022 13:55,12/02/2022 13:55,Pay Bill from 254748666537 - LABAN MACHARIA GITAU Acc. ICC,Completed,700,,13600,TRUE,Pay Utility,254748666537 - LABAN MACHARIA GITAU,,ICC
QBB61B6TBS,11/02/2022 21:11,11/02/2022 21:11,Pay Bill Online from 254714552193 - CHRISTOPHER OCHIENG Acc. JGI,Completed,1200,,12900,TRUE,Pay Bill Online,254714552193 - CHRISTOPHER OCHIENG,,JGI
QBB716XYK3,11/02/2022 20:19,11/02/2022 20:19,Pay Bill from 254702032278 - ANTONY MAINA Acc. jbg,Completed,2700,,11700,TRUE,Pay Utility with OD via STK,254702032278 - ANTONY MAINA,,jbg
QBB3115OGV,11/02/2022 19:23,11/02/2022 19:23,Pay Bill Online from 254710814215 - JOAN NYAMBURA KAMAU Acc. ifb,Completed,800,,9000,TRUE,Pay Bill Online,254710814215 - JOAN NYAMBURA KAMAU,,ifb
QBB0ZNCK1O,11/02/2022 16:44,11/02/2022 16:44,Pay Bill Online from 254713295711 - JAMES CHEGE KAMAU Acc. A2,Completed,1600,,8200,TRUE,Pay Bill Online,254713295711 - JAMES CHEGE KAMAU,,A2
QBB9Z393KT,11/02/2022 11:34,11/02/2022 11:34,Pay Bill from 0707376535 - veronicah    shiyenji Acc. V40,Completed,400,,6600,TRUE,Pay Utility,0707376535 - veronicah    shiyenji,,V40
QBB4YRHS26,11/02/2022 08:12,11/02/2022 08:12,Pay Bill from 254715208293 - METHOD AMOLO Acc. kiosk ,Completed,200,,6200,TRUE,Pay Utility,254715208293 - METHOD AMOLO,,kiosk
QBA5YCTR6R,10/02/2022 20:35,10/02/2022 20:35,Pay Bill from 254712614146 - SOPHIE MUENI MUVITHU Acc. Sophie Mueni Hse U6,Completed,300,,6000,TRUE,Pay Utility,254712614146 - SOPHIE MUENI MUVITHU,,Sophie
QBA8Y8CMVQ,10/02/2022 19:49,10/02/2022 19:49,Pay Bill from 254719109185 - VIOLINE JEROTICH KOROS Acc. u2,Completed,500,,5700,TRUE,Pay Utility,254719109185 - VIOLINE JEROTICH KOROS,,u2
QBA9Y7V2EL,10/02/2022 19:45,10/02/2022 19:45,Pay Bill from 254720278119 - LINDAH OGAWO Acc. kfe,Completed,200,,5200,TRUE,Pay Utility with OD via STK,254720278119 - LINDAH OGAWO,,kfe
QBA2XK7E0I,10/02/2022 14:41,10/02/2022 14:41,Pay Bill from 0799912339 - PETER KAMAU MURIU Acc. C5,Completed,400,,5000,TRUE,Pay Utility,0799912339 - PETER KAMAU MURIU,,C5
QBA6XH9CDM,10/02/2022 13:54,10/02/2022 13:54,Pay Bill Online from 254722769473 - SAMSON CHALO Acc. IAB,Completed,400,,4600,TRUE,Pay Bill Online,254722769473 - SAMSON CHALO,,IAB
QBA6X9LRRO,10/02/2022 11:54,10/02/2022 11:54,Pay Bill Online from 254718359438 - AHMAD TAHIR MACHENGO Acc. V11,Completed,400,,4200,TRUE,Pay Bill Online,254718359438 - AHMAD TAHIR MACHENGO,,V11
QB97WNHK0P,09/02/2022 21:47,09/02/2022 21:47,Pay Bill from 254708499439 - ROSE NDEDE Acc. HGF,Completed,700,,3800,TRUE,Pay Utility,254708499439 - ROSE NDEDE,,HGF
QB92WN9IA0,09/02/2022 21:43,09/02/2022 21:43,Pay Bill from 254721884037 - ERIC MISIANI Acc. HCG,Completed,800,,3100,TRUE,Pay Utility,254721884037 - ERIC MISIANI,,HCG
QB95WJKHNJ,09/02/2022 20:50,09/02/2022 20:50,Pay Bill Online from 254726465584 - JULIANA MUKELI MUTUNGA Acc. v4,Completed,400,,2300,TRUE,Pay Bill Online,254726465584 - JULIANA MUKELI MUTUNGA,,v4
QB96WCUGB0,09/02/2022 19:39,09/02/2022 19:39,Pay Bill from 254799287000 - Godfrey odhiambo oyugi Acc. kae,Completed,300,,1900,TRUE,Pay Utility with OD via STK,254799287000 - Godfrey odhiambo oyugi,,kae
QB98VTS6OU,09/02/2022 15:52,09/02/2022 15:52,Pay Bill from 254703108159 - JOICE OGOLLA Acc. V50,Completed,200,,1600,TRUE,Pay Utility,254703108159 - JOICE OGOLLA,,V50
QB97VRXHSB,09/02/2022 15:22,09/02/2022 15:22,Pay Bill from 254706722732 - NAOMY ACHIENG OYUGI Acc. E5,Completed,600,,1400,TRUE,Pay Utility,254706722732 - NAOMY ACHIENG OYUGI,,E5
QB91VO0J0H,09/02/2022 14:22,09/02/2022 14:22,Pay Bill from 254701196539 - GICHURI KARANJA Acc. Fee,Completed,800,,800,TRUE,Pay Utility,254701196539 - GICHURI KARANJA,,Fee
QB91VMGM9B,09/02/2022 13:57,09/02/2022 13:57,Utility Account to Organization Settlement Account,Completed,,-88731,0,TRUE,Utility Account to Organization Settlement Account,846783 - ANCIENT WELLS LTD 4,,
QB96VD7TSS,09/02/2022 11:30,09/02/2022 11:30,Pay Bill from 254711290022 - FELIX MUOKI MAUNDU Acc. IDA,Completed,1400,,88731,TRUE,Pay Utility with OD via STK,254711290022 - FELIX MUOKI MAUNDU,,IDA
QB90UZADA2,09/02/2022 06:48,09/02/2022 06:48,Pay Bill Online from 254706427665 - CHRIS KIRIMI Acc. v22,Completed,200,,87331,TRUE,Pay Bill Online,254706427665 - CHRIS KIRIMI,,v22
QB84US83VO,08/02/2022 21:33,08/02/2022 21:33,Pay Bill from 254721417560 - ANDREW SANDE Acc. JBJ,Completed,600,,87131,TRUE,Pay Utility,254721417560 - ANDREW SANDE,,JBJ
QB80U2FPD0,08/02/2022 16:34,08/02/2022 16:34,Pay Bill from 0715030019 - Omwenga Ong'era Stephen Acc. E1,Completed,600,,86531,TRUE,Pay Utility,0715030019 - Omwenga Ong'era Stephen,,E1
QB85U2F5CV,08/02/2022 16:34,08/02/2022 16:34,Pay Bill Online from 254704783091 - CLINTON MUSEBE KASUTI Acc. V48,Completed,200,,85931,TRUE,Pay Bill Online,254704783091 - CLINTON MUSEBE KASUTI,,V48
QB83T4VKH7,08/02/2022 06:57,08/02/2022 06:57,Pay Bill from 254713205244 - ROBERT OGALO Acc. KBH,Completed,500,,85731,TRUE,Pay Utility,254713205244 - ROBERT OGALO,,KBH
QB81T3310Z,08/02/2022 02:20,08/02/2022 02:20,Pay Bill from 254727585857 - PETER MUOKI NGUNDO Acc. Peter ngundo e6,Completed,600,,85231,TRUE,Pay Utility,254727585857 - PETER MUOKI NGUNDO,,Peter
QB77SWZPPR,07/02/2022 21:12,07/02/2022 21:12,Pay Bill from 254707568664 - Ismael Kitsao Acc. v52,Completed,1600,,84631,TRUE,Pay Utility,254707568664 - Ismael Kitsao,,v52
QB71SWFP1P,07/02/2022 21:04,07/02/2022 21:04,Pay Bill from 254718818610 - HANNAH NALIAKA Acc. V23,Completed,400,,83031,TRUE,Pay Utility,254718818610 - HANNAH NALIAKA,,V23
QB76SKI8I4,07/02/2022 18:55,07/02/2022 18:55,Pay Bill Online from 254710382992 - SIMON KAMAU MUIRURI Acc. JCD,Completed,200,,82631,TRUE,Pay Bill Online,254710382992 - SIMON KAMAU MUIRURI,,JCD
QB76SK2KXI,07/02/2022 18:50,07/02/2022 18:50,Pay Bill from 254720623535 - JOSEPH MUTURI KAMAU Acc. V32,Completed,600,,82431,TRUE,Pay Utility with OD via STK,254720623535 - JOSEPH MUTURI KAMAU,,V32
QB76SGB9E8,07/02/2022 18:09,07/02/2022 18:09,Pay Bill from 254720086214 - SAMUEL WANJIKU Acc. B3,Completed,200,,81831,TRUE,Pay Utility,254720086214 - SAMUEL WANJIKU,,B3
QB78S1UEWI,07/02/2022 14:46,07/02/2022 14:46,Pay Bill Online from 254713966424 - NDUTI MUTHUI Acc. jed,Completed,800,,81631,TRUE,Pay Bill Online,254713966424 - NDUTI MUTHUI,,jed
QB71RPXCYF,07/02/2022 11:41,07/02/2022 11:41,Pay Bill from 254700218502 - GRACE NGURE Acc. v46,Completed,1000,,80831,TRUE,Pay Utility,254700218502 - GRACE NGURE,,v46
QB74RNA1XU,07/02/2022 10:58,07/02/2022 10:58,Pay Bill Online from 254720062144 - CAROLINE AMONDI OKELO Acc. f4,Completed,200,,79831,TRUE,Pay Bill Online,254720062144 - CAROLINE AMONDI OKELO,,f4
QB77RMMVCX,07/02/2022 10:48,07/02/2022 10:48,Pay Bill Online from 254719317219 - PHILIP MBOYA Acc. JDH,Completed,400,,79631,TRUE,Pay Bill Online,254719317219 - PHILIP MBOYA,,JDH
QB76RMEG7K,07/02/2022 10:44,07/02/2022 10:44,Pay Bill from 254720086214 - SAMUEL WANJIKU Acc. B3,Completed,600,,79231,TRUE,Pay Utility,254720086214 - SAMUEL WANJIKU,,B3
QB76RJHIOQ,07/02/2022 09:57,07/02/2022 09:57,Pay Bill from 254713229967 - John Mugabo Simba Acc. E4,Completed,800,,78631,TRUE,Pay Utility,254713229967 - John Mugabo Simba,,E4
QB74RIBVNE,07/02/2022 09:37,07/02/2022 09:37,Pay Bill from 254723389922 - ANNE WANJIKU NDUNGU Acc. v53,Completed,400,,77831,TRUE,Pay Utility,254723389922 - ANNE WANJIKU NDUNGU,,v53
QB74RHE7KE,07/02/2022 09:21,07/02/2022 09:21,Pay Bill from 254723815832 - SEMEKIA ONDIALA Acc. v38,Completed,800,,77431,TRUE,Pay Utility,254723815832 - SEMEKIA ONDIALA,,v38
QB71RHC99R,07/02/2022 09:20,07/02/2022 09:20,Pay Bill from 254720230582 - SHADRACK KITAKA NGILA Acc. hse,Completed,200,,76631,TRUE,Pay Utility,254720230582 - SHADRACK KITAKA NGILA,,hse
QB78RF5I6C,07/02/2022 08:40,07/02/2022 08:40,Pay Bill Online from 254715213277 - ELIZABETH MTTHAMA Acc. D5,Completed,2000,,76431,TRUE,Pay Bill Online,254715213277 - ELIZABETH MTTHAMA,,D5
QB73REFT8F,07/02/2022 08:27,07/02/2022 08:27,Pay Bill Online from 254797160610 - JAMES MWANIKI Acc. JBI,Completed,3600,,74431,TRUE,Pay Bill Online,254797160610 - JAMES MWANIKI,,JBI
QB65QWXYOV,06/02/2022 20:02,06/02/2022 20:02,Pay Bill from 254726687555 - ELIUD MUTHURE MICHENI Acc. KAI,Completed,600,,70831,TRUE,Pay Utility,254726687555 - ELIUD MUTHURE MICHENI,,KAI
QB60QOT16O,06/02/2022 18:36,06/02/2022 18:36,Pay Bill Online from 254790627132 - Everline Mutave Kiio Acc. IGG,Completed,600,,70231,TRUE,Pay Bill Online,254790627132 - Everline Mutave Kiio,,IGG
QB62QJYDB4,06/02/2022 17:33,06/02/2022 17:33,Pay Bill from 0795807227 - Lucy Ncekei Kimathi Acc. V36,Completed,400,,69631,TRUE,Pay Utility,0795807227 - Lucy Ncekei Kimathi,,V36
QB60QAPTQO,06/02/2022 15:15,06/02/2022 15:15,Pay Bill from 0711769778 - PROTASIA BONIPHACE MANOSA Acc. IBB,Completed,1600,,69231,TRUE,Pay Utility,0711769778 - PROTASIA BONIPHACE MANOSA,,IBB
QB64PVU6YS,06/02/2022 11:01,06/02/2022 11:01,Pay Bill Online from 254714563486 - BRIAN MMATA MUSERA Acc. KBJ,Completed,600,,67631,TRUE,Pay Bill Online,254714563486 - BRIAN MMATA MUSERA,,KBJ
QB65PVG02V,06/02/2022 10:54,06/02/2022 10:54,Pay Bill Online from 0724386624 - FATUMA ISSE YUSSUF Acc. FAB,Completed,1200,,67031,TRUE,Pay Utility with OD Online,0724386624 - FATUMA ISSE YUSSUF,,FAB
QB64PRDRMU,06/02/2022 09:36,06/02/2022 09:36,Pay Bill from 254722136450 - MARY EVERLYN Acc. JAI,Completed,400,,65831,TRUE,Pay Utility,254722136450 - MARY EVERLYN,,JAI
QB69PJI0UR,06/02/2022 02:07,06/02/2022 02:07,Pay Bill from 254704995854 - james karanja wairimu Acc. V54,Completed,100,,65431,TRUE,Pay Utility,254704995854 - james karanja wairimu,,V54
QB66PJHFHI,06/02/2022 02:01,06/02/2022 02:01,Pay Bill from 254704995854 - james karanja wairimu Acc. V54,Completed,100,,65331,TRUE,Pay Utility,254704995854 - james karanja wairimu,,V54
QB61PJ9EBN,06/02/2022 01:21,06/02/2022 01:21,Pay Bill from 254723488259 - WILSON OKITE OKITE Acc. HCA,Completed,1000,,65231,TRUE,Pay Utility,254723488259 - WILSON OKITE OKITE,,HCA
QB69PJ4DV7,06/02/2022 01:02,06/02/2022 01:02,Pay Bill from 254729355933 - FELISTAH NJERI WAIRIMU Acc. IDI,Completed,1700,,64231,TRUE,Pay Utility,254729355933 - FELISTAH NJERI WAIRIMU,,IDI
QB52PHDYIA,05/02/2022 23:02,05/02/2022 23:02,Pay Bill Online from 254715892656 - DENNIS MUSYOKA MUOKI Acc. kfa,Completed,400,,62531,TRUE,Pay Bill Online,254715892656 - DENNIS MUSYOKA MUOKI,,kfa
QB56P0HK9U,05/02/2022 19:07,05/02/2022 19:07,Pay Bill Online from 254718138578 - PAULINE KIOKO Acc. KFD,Completed,400,,62131,TRUE,Pay Bill Online,254718138578 - PAULINE KIOKO,,KFD
QB58OMKYDA,05/02/2022 16:22,05/02/2022 16:22,Pay Bill from 254723499628 - CLINTON JOSEPH MUHARI Acc. hfh,Completed,600,,61731,TRUE,Pay Utility,254723499628 - CLINTON JOSEPH MUHARI,,hfh
QB54OIZRTG,05/02/2022 15:30,05/02/2022 15:30,Pay Bill from 254700890378 - MERCY KIMORI Acc. JDI,Completed,1400,,61131,TRUE,Pay Utility,254700890378 - MERCY KIMORI,,JDI
QB52OCSJSG,05/02/2022 14:01,05/02/2022 14:01,Pay Bill Online from 254721465713 - RHODA WAMBUI MWANGI Acc. Jfh,Completed,1000,,59731,TRUE,Pay Bill Online,254721465713 - RHODA WAMBUI MWANGI,,Jfh
QB55OBJYI9,05/02/2022 13:43,05/02/2022 13:43,Pay Bill Online from 254726170938 - ANNE CHEBET TALLAM Acc. hff,Completed,850,,58731,TRUE,Pay Bill Online,254726170938 - ANNE CHEBET TALLAM,,hff
QB51O9XZR3,05/02/2022 13:20,05/02/2022 13:20,Pay Bill from 254719779657 - SAMUEL NJOROGE Acc. JGA,Completed,2000,,57881,TRUE,Pay Utility with OD via STK,254719779657 - SAMUEL NJOROGE,,JGA
QB59O3I9M3,05/02/2022 11:43,05/02/2022 11:43,Pay Bill from 0717042461 - Sharon Nyangasi Shivachi Acc. V55,Completed,200,,55881,TRUE,Pay Utility,0717042461 - Sharon Nyangasi Shivachi,,V55
QB50NVK2UE,05/02/2022 09:38,05/02/2022 09:38,Pay Bill from 0715688238 - JOANNAH ATUHAIRE BANTU Acc. jae,Completed,800,,55681,TRUE,Pay Utility,0715688238 - JOANNAH ATUHAIRE BANTU,,jae
QB54NUI0ZI,05/02/2022 09:20,05/02/2022 09:20,Pay Bill from 254727515326 - HARRISON WACIRA MAINA Acc. HAH,Completed,1000,,54881,TRUE,Pay Utility with OD via STK,254727515326 - HARRISON WACIRA MAINA,,HAH
QB51NQAWDH,05/02/2022 08:00,05/02/2022 08:00,Pay Bill from 0795068880 - Patrick   Kiplagat Acc. KAG,Completed,900,,53881,TRUE,Pay Utility,0795068880 - Patrick   Kiplagat,,KAG
QB59NOT7FB,05/02/2022 07:19,05/02/2022 07:19,Pay Bill from 254723929380 - RHODAH K WAMBUA Acc. HEF,Completed,1600,,52981,TRUE,Pay Utility,254723929380 - RHODAH K WAMBUA,,HEF
QB52NM2CIA,05/02/2022 01:02,05/02/2022 01:02,Pay Bill from 254724952183 - MICHAEL WAMBUA MWOVE Acc. FEA,Completed,1500,,51381,TRUE,Pay Utility,254724952183 - MICHAEL WAMBUA MWOVE,,FEA
QB41NKDE0V,04/02/2022 23:04,04/02/2022 23:04,Pay Bill from 254741791919 - Linet Mongina Maraga Acc. u3,Completed,450,,49881,TRUE,Pay Utility,254741791919 - Linet Mongina Maraga,,u3
QB42NBA5LC,04/02/2022 20:27,04/02/2022 20:27,Pay Bill Online from 254722728975 - CURTIS MRIGA OMIDO Acc. IAH,Completed,800,,49431,TRUE,Pay Bill Online,254722728975 - CURTIS MRIGA OMIDO,,IAH
QB43N7X767,04/02/2022 19:53,04/02/2022 19:53,Pay Bill from 254720550403 - GRACE WANGONDU Acc. JFI,Completed,1400,,48631,TRUE,Pay Utility,254720550403 - GRACE WANGONDU,,JFI
QB43N31OY3,04/02/2022 19:08,04/02/2022 19:08,Pay Bill from 254798524621 - MERCY CHESANG Acc. jcj,Completed,2200,,47231,TRUE,Pay Utility,254798524621 - MERCY CHESANG,,jcj
QB44MF4X0U,04/02/2022 13:50,04/02/2022 13:50,Pay Bill from 254718233980 - KAREN ASWANI Acc. HEC,Completed,400,,45031,TRUE,Pay Utility,254718233980 - KAREN ASWANI,,HEC
QB40MF3KNC,04/02/2022 13:50,04/02/2022 13:50,Pay Bill from 254716702294 - DANIEL MULATI Acc. KBB,Completed,2000,,44631,TRUE,Pay Utility,254716702294 - DANIEL MULATI,,KBB
QB47M9QU6T,04/02/2022 12:27,04/02/2022 12:27,Pay Bill from 254719398942 - NORAH WAYUA MUNYAO Acc. KDA,Completed,1200,,42631,TRUE,Pay Utility,254719398942 - NORAH WAYUA MUNYAO,,KDA
QB49M9P2R9,04/02/2022 12:27,04/02/2022 12:27,Pay Bill from 254703108159 - JOICE OGOLLA Acc. V50,Completed,400,,41431,TRUE,Pay Utility,254703108159 - JOICE OGOLLA,,V50
QB43M9G8FN,04/02/2022 12:23,04/02/2022 12:23,Pay Bill from 254723341864 - WILLIAM OSIEL WACHUDI Acc. DED,Completed,3400,,41031,TRUE,Pay Utility with OD via STK,254723341864 - WILLIAM OSIEL WACHUDI,,DED
QB48LWODEY,04/02/2022 08:52,04/02/2022 08:52,Pay Bill from 0704120519 - Mildred   Adhiambo Acc. G1,Completed,200,,37631,TRUE,Pay Utility,0704120519 - Mildred   Adhiambo,,G1
QB49LUQC73,04/02/2022 08:14,04/02/2022 08:14,Pay Bill from 254723259734 - SALOME NJERI NGURE Acc. KCD,Completed,400,,37431,TRUE,Pay Utility,254723259734 - SALOME NJERI NGURE,,KCD
QB43LSVJDV,04/02/2022 07:31,04/02/2022 07:31,Pay Bill from 254717294709 - CAROLINE WAVINYA NDINDA Acc. v15,Completed,600,,37031,TRUE,Pay Utility,254717294709 - CAROLINE WAVINYA NDINDA,,v15
QB41LRP7X3,04/02/2022 06:53,04/02/2022 06:53,Pay Bill from 254718284151 - EVERLINE MATHEKA Acc. JAG,Completed,400,,36431,TRUE,Pay Utility,254718284151 - EVERLINE MATHEKA,,JAG
QB41LP6OI7,04/02/2022 00:11,04/02/2022 00:11,Pay Bill from 254728670882 - SHARAD EDWARD ADALA OLUM Acc. KCK,Completed,1800,,36031,TRUE,Pay Utility,254728670882 - SHARAD EDWARD ADALA OLUM,,KCK
QB30LNDYMM,03/02/2022 22:33,03/02/2022 22:33,Pay Bill from 254706920646 - MIRIAM CHEPTOO Acc. V08,Completed,800,,34231,TRUE,Pay Utility,254706920646 - MIRIAM CHEPTOO,,V08
QB34LL4G7K,03/02/2022 21:43,03/02/2022 21:43,Pay Bill from 254721539716 - OCTAVIAN MWANYALO Acc. C6,Completed,600,,33431,TRUE,Pay Utility,254721539716 - OCTAVIAN MWANYALO,,C6
QB36LHJ5WW,03/02/2022 20:50,03/02/2022 20:50,Pay Bill from 254720278119 - LINDAH OGAWO Acc. kfe,Completed,200,,32831,TRUE,Pay Utility with OD via STK,254720278119 - LINDAH OGAWO,,kfe
QB34KV67L4,03/02/2022 16:39,03/02/2022 16:39,Pay Bill Online from 254715144865 - CAROL JULIET MUGOYA Acc. E2,Completed,600,,32631,TRUE,Pay Bill Online,254715144865 - CAROL JULIET MUGOYA,,E2
QB35KTJOMB,03/02/2022 16:15,03/02/2022 16:15,Pay Bill from 0706563358 - HARRIET NYANCHAMA NYABERI Acc. FCC,Completed,800,,32031,TRUE,Pay Utility,0706563358 - HARRIET NYANCHAMA NYABERI,,FCC
QB39KPIWM7,03/02/2022 15:13,03/02/2022 15:13,Pay Bill from 254714419834 - FAITH MWIKALI MUTHAMA Acc. d4,Completed,600,,31231,TRUE,Pay Utility,254714419834 - FAITH MWIKALI MUTHAMA,,d4
QB33KLTLRF,03/02/2022 14:13,03/02/2022 14:13,Pay Bill from 254718244582 - GRANT WANANGWE Acc. KAH,Completed,131,,30631,TRUE,Pay Utility,254718244582 - GRANT WANANGWE,,KAH
QB37KL7EZF,03/02/2022 14:03,03/02/2022 14:03,Pay Bill Online from 254714597495 - WAMBUA KIOKO Acc. C1,Completed,600,,30500,TRUE,Pay Bill Online,254714597495 - WAMBUA KIOKO,,C1
QB34KK5LQ2,03/02/2022 13:47,03/02/2022 13:47,Pay Bill Online from 254710732381 - JANE ACHIENG MBEKE Acc. HAF,Completed,10000,,29900,TRUE,Pay Bill Online,254710732381 - JANE ACHIENG MBEKE,,HAF
QB35K8U4KX,03/02/2022 10:46,03/02/2022 10:46,Pay Bill from 254705902606 - JOSEPH OTIENO SAGWA Acc. fed,Completed,500,,19900,TRUE,Pay Utility,254705902606 - JOSEPH OTIENO SAGWA,,fed
QB38K85Z32,03/02/2022 10:34,03/02/2022 10:34,Pay Bill from 254710239100 - PHILOMENA WOKI MUTHAMA Acc. KDK,Completed,1000,,19400,TRUE,Pay Utility,254710239100 - PHILOMENA WOKI MUTHAMA,,KDK
QB38K08EWE,03/02/2022 08:13,03/02/2022 08:13,Pay Bill Online from 254725218904 - SALOME MUTHONI MWANGI Acc. KFJ,Completed,800,,18400,TRUE,Pay Bill Online,254725218904 - SALOME MUTHONI MWANGI,,KFJ
QB28JRBGLY,02/02/2022 21:49,02/02/2022 21:49,Pay Bill Online from 0757699775 - BENARD MUIA MUTUA Acc. HCB,Completed,1600,,17600,TRUE,Pay Bill Online,0757699775 - BENARD MUIA MUTUA,,HCB
QB23JQZITL,02/02/2022 21:43,02/02/2022 21:43,Pay Bill from 254720351482 - Cheruiyot Langat Brian Acc. dfa,Completed,2200,,16000,TRUE,Pay Utility,254720351482 - Cheruiyot Langat Brian,,dfa
QB26JJKYO0,02/02/2022 20:07,02/02/2022 20:07,Pay Bill Online from 254720107609 - DENNIS OGENDI BARAKE Acc. JAJ,Completed,600,,13800,TRUE,Pay Bill Online,254720107609 - DENNIS OGENDI BARAKE,,JAJ
QB24JJ1HUS,02/02/2022 20:02,02/02/2022 20:02,Pay Bill Online from 254710202776 - KELVIN KARIMI MACHARIA Acc. FAD,Completed,400,,13200,TRUE,Pay Bill Online,254710202776 - KELVIN KARIMI MACHARIA,,FAD
QB26JC93UI,02/02/2022 18:57,02/02/2022 18:57,Pay Bill from 0719349205 - Christabel Gakii Munene Acc. D1,Completed,400,,12800,TRUE,Pay Utility,0719349205 - Christabel Gakii Munene,,D1
QB24JANBO2,02/02/2022 18:40,02/02/2022 18:40,Pay Bill from 254702152790 - Michelle Ndunge Kyalo Acc. IDE,Completed,400,,12400,TRUE,Pay Utility,254702152790 - Michelle Ndunge Kyalo,,IDE
QB21J3FTH3,02/02/2022 17:16,02/02/2022 17:16,Pay Bill from 0769714506 - edith      gakii Acc. FCB,Completed,1400,,12000,TRUE,Pay Utility,0769714506 - edith      gakii,,FCB
QB23J0FVSP,02/02/2022 16:34,02/02/2022 16:34,Pay Bill from 254712091662 - BENARD OMONDI ROBY Acc. V16,Completed,600,,10600,TRUE,Pay Utility,254712091662 - BENARD OMONDI ROBY,,V16
QB22J000ZS,02/02/2022 16:27,02/02/2022 16:27,Pay Bill from 0797758628 - jackline nyamari onyango Acc. ICF,Completed,800,,10000,TRUE,Pay Utility,0797758628 - jackline nyamari onyango,,ICF
QB24IQDC14,02/02/2022 13:55,02/02/2022 13:55,Pay Bill from 254702144275 - CAROLYNE MAKENA KARIA Acc. jfb,Completed,400,,9200,TRUE,Pay Utility,254702144275 - CAROLYNE MAKENA KARIA,,jfb
QB26IOY5WI,02/02/2022 13:33,02/02/2022 13:33,Pay Bill from 254714536026 - LILIAN AWUOR ONYANGO Acc. HDC,Completed,400,,8800,TRUE,Pay Utility,254714536026 - LILIAN AWUOR ONYANGO,,HDC
QB20INM7EG,02/02/2022 13:13,02/02/2022 13:13,Pay Bill Online from 254724005780 - IVY MARGARET OGOLA Acc. FFB,Completed,600,,8400,TRUE,Pay Bill Online,254724005780 - IVY MARGARET OGOLA,,FFB
QB25IL6KYV,02/02/2022 12:34,02/02/2022 12:34,Pay Bill Online from 254702118125 - ROTICH BETHWEL Acc. V20,Completed,200,,7800,TRUE,Pay Bill Online,254702118125 - ROTICH BETHWEL,,V20
QB29IKB8VL,02/02/2022 12:20,02/02/2022 12:20,Pay Bill from 254717606114 - KELVIN TONDO NGUMBAO Acc. HCE,Completed,400,,7600,TRUE,Pay Utility,254717606114 - KELVIN TONDO NGUMBAO,,HCE
QB23IK94FR,02/02/2022 12:20,02/02/2022 12:20,Pay Bill from 254720375006 - JACOB KANGOGO Acc. IBA,Completed,400,,7200,TRUE,Pay Utility,254720375006 - JACOB KANGOGO,,IBA
QB29IJBL3H,02/02/2022 12:04,02/02/2022 12:04,Pay Bill from 254701047939 - Cyrus Wahome Acc. JAH,Completed,600,,6800,TRUE,Pay Utility,254701047939 - Cyrus Wahome,,JAH
QB29IHP4FF,02/02/2022 11:38,02/02/2022 11:38,Pay Bill from 254708570729 - MARY OGOLLA Acc. KAD,Completed,1000,,6200,TRUE,Pay Utility,254708570729 - MARY OGOLLA,,KAD
QB24IGGBJE,02/02/2022 11:18,02/02/2022 11:18,Pay Bill Online from 254708225541 - JUDITH NKATHA SIMBA Acc. HDH,Completed,400,,5200,TRUE,Pay Bill Online,254708225541 - JUDITH NKATHA SIMBA,,HDH
QB27IFLRVF,02/02/2022 11:04,02/02/2022 11:04,Pay Bill from 254712974871 - PAULA WANJIKU GATUI Acc. hea,Completed,400,,4800,TRUE,Pay Utility,254712974871 - PAULA WANJIKU GATUI,,hea
QB28I77RZE,02/02/2022 08:40,02/02/2022 08:40,Pay Bill Online from 254706549634 - CLINTON OMBASA Acc. FDB,Completed,600,,4400,TRUE,Pay Bill Online,254706549634 - CLINTON OMBASA,,FDB
QB21I2P7GN,02/02/2022 06:42,02/02/2022 06:42,Pay Bill Online from 254742911013 - HANEST AMIMO Acc. IEG,Completed,200,,3800,TRUE,Pay Bill Online,254742911013 - HANEST AMIMO,,IEG
QB28I2K9EA,02/02/2022 06:35,02/02/2022 06:35,Pay Bill from 254723328258 - SAMUEL MAINA MURIUKI Acc. IFE,Completed,200,,3600,TRUE,Pay Utility,254723328258 - SAMUEL MAINA MURIUKI,,IFE
QB14HY6U1Q,01/02/2022 22:12,01/02/2022 22:12,Pay Bill Online from 254726028330 - JOHN WAMBUA Acc. IFH,Completed,1200,,3400,TRUE,Pay Utility with OD Online,254726028330 - JOHN WAMBUA,,IFH
QB19HPLPVF,01/02/2022 20:08,01/02/2022 20:08,Business Pay Bill by 488519 - NCBA  Bank M-pesa Acc. V18 via API,Completed,200,,2200,TRUE,Business Pay Bill via API,488519 - NCBA  Bank M-pesa,,V18
QB12HOMVFI,01/02/2022 19:58,01/02/2022 19:58,Pay Bill Online from 254714855708 - KIPLANGAT SITIENEI Acc. FAE,Completed,1200,,2000,TRUE,Pay Bill Online,254714855708 - KIPLANGAT SITIENEI,,FAE
QB18HEC0V4,01/02/2022 18:15,01/02/2022 18:15,Pay Bill Online from 254717809935 - LYDIAH WERU Acc. idc,Completed,800,,800,TRUE,Pay Bill Online,254717809935 - LYDIAH WERU,,idc
QB14H6O5PW,01/02/2022 16:38,01/02/2022 16:38,Utility Account to Organization Settlement Account,Completed,,-37850,0,TRUE,Utility Account to Organization Settlement Account,846783 - ANCIENT WELLS LTD 4,,
QB12H47VO4,01/02/2022 16:01,01/02/2022 16:01,Pay Bill from 254726753273 - JESSE K MURIRMI NJERU Acc. HCH,Completed,600,,37850,TRUE,Pay Utility,254726753273 - JESSE K MURIRMI NJERU,,HCH
QB13H38PIH,01/02/2022 15:46,01/02/2022 15:46,Pay Bill from 254798844460 - WYCLIFFE ODHIAMBO NYAGOA Acc. KAC,Completed,400,,37250,TRUE,Pay Utility,254798844460 - WYCLIFFE ODHIAMBO NYAGOA,,KAC
QB11GTK8C1,01/02/2022 13:13,01/02/2022 13:13,Pay Bill Online from 254795510441 - LEWIS MUEMA Acc. KEB,Completed,600,,36850,TRUE,Pay Bill Online,254795510441 - LEWIS MUEMA,,KEB
QB19GSSQU1,01/02/2022 13:01,01/02/2022 13:01,Pay Bill Online from 254706158280 - patience mutheu mbevi Acc. KFC,Completed,800,,36250,TRUE,Pay Bill Online,254706158280 - patience mutheu mbevi,,KFC
QB19GBA83V,01/02/2022 08:02,01/02/2022 08:02,Pay Bill Online from 254700187806 - WINNIE OLIVIA AKOTH Acc. jec,Completed,400,,35450,TRUE,Pay Bill Online,254700187806 - WINNIE OLIVIA AKOTH,,jec
