Receipt No.,Completion Time,Initiation Time,Details,Transaction Status,Paid In,Withdrawn,Balance,Balance Confirmed,Reason Type,Other Party Info,Linked Transaction ID,A/C No.
QCN556231X,23/03/2022 09:29,23/03/2022 09:29,Pay Bill from 0722531422 - ANTHONY ITIMU MAINA Acc. JBD,Completed,16000,,83000,TRUE,Pay Utility,0722531422 - ANTHONY ITIMU MAINA,,JBD
QCN053FGBA,23/03/2022 08:42,23/03/2022 08:42,Pay Bill Online from 254724719419 - ROBERT GARAMA Acc. KDH,Completed,15500,,67000,TRUE,Pay Utility with OD Online,254724719419 - ROBERT GARAMA,,KDH
QCM24UN72Q,22/03/2022 22:23,22/03/2022 22:23,Pay Bill from 254703935626 - DAVID NGARI ITA Acc. FCD,Completed,1000,,51500,TRUE,Pay Utility,254703935626 - DAVID NGARI ITA,,FCD
QCM94FR8TB,22/03/2022 19:09,22/03/2022 19:09,Pay Bill from 254721884037 - ERIC MISIANI Acc. HCG,Completed,15000,,50500,TRUE,Pay Utility,254721884037 - ERIC MISIANI,,HCG
QCM93YE5RV,22/03/2022 15:26,22/03/2022 15:26,Pay Bill from 254720814822 - JAMES OTIENO OPAR Acc. Jgj,Completed,2500,,35500,TRUE,Pay Utility with OD via STK,254720814822 - JAMES OTIENO OPAR,,Jgj
QCM23WHMYY,22/03/2022 14:56,22/03/2022 14:56,Pay Bill Online from 254712990240 - GLORY KARIUKI Acc. KAA,Completed,17000,,33000,TRUE,Pay Bill Online,254712990240 - GLORY KARIUKI,,KAA
QCM13W1K0P,22/03/2022 14:49,22/03/2022 14:49,Pay Bill from 254728888511 - HAMISI MIRITI Acc. KAK,Completed,16000,,16000,TRUE,Pay Utility,254728888511 - HAMISI MIRITI,,KAK
QCM33SFD6X,22/03/2022 13:52,22/03/2022 13:52,Utility Account to Organization Settlement Account,Completed,,-69500,0,TRUE,Utility Account to Organization Settlement Account,979524 - ANCIENT WELLS PROPERTY MANAGERS 2,,
QCM73OEF47,22/03/2022 12:51,22/03/2022 12:51,Pay Bill from 254725062550 - FRANKLINE MASSAM Acc. KAF,Completed,10000,,69500,TRUE,Pay Utility,254725062550 - FRANKLINE MASSAM,,KAF
QCM137FK2T,22/03/2022 08:05,22/03/2022 08:05,Pay Bill Online from 254704403532 - Mercy Chepchirchir Mary Acc. JBC,Completed,3000,,59500,TRUE,Pay Bill Online,254704403532 - Mercy Chepchirchir Mary,,JBC
QCL92U1LOV,21/03/2022 20:34,21/03/2022 20:34,Pay Bill from 0757758972 - BETH MUTHONI KASYOKA Acc. DEA,Completed,16000,,56500,TRUE,Pay Utility,0757758972 - BETH MUTHONI KASYOKA,,DEA
QCL52LTOVN,21/03/2022 19:11,21/03/2022 19:11,Pay Bill from 0746934144 - Rosemary Wangui Muiruri Acc. ICD,Completed,3000,,40500,TRUE,Pay Utility,0746934144 - Rosemary Wangui Muiruri,,ICD
QCL31T4XKV,21/03/2022 12:37,21/03/2022 12:37,Pay Bill from 254700531269 - FRANCIS GITAU MACHARIA Acc. ICC,Completed,8000,,37500,TRUE,Pay Utility,254700531269 - FRANCIS GITAU MACHARIA,,ICC
QCL71POLPB,21/03/2022 11:43,21/03/2022 11:43,Pay Bill from 254722910078 - MAUREEN MUNYIVA MUTUKU Acc. DBD,Completed,14500,,29500,TRUE,Pay Utility,254722910078 - MAUREEN MUNYIVA MUTUKU,,DBD
QCL21LIFDO,21/03/2022 10:37,21/03/2022 10:37,Pay Bill Online from 254711721087 - MUTHIANI KYULE Acc. IDB,Completed,15000,,15000,TRUE,Pay Utility with OD Online,254711721087 - MUTHIANI KYULE,,IDB
QCL91J5DEH,21/03/2022 09:59,21/03/2022 09:59,Utility Account to Organization Settlement Account,Completed,,-77500,0,TRUE,Utility Account to Organization Settlement Account,979524 - ANCIENT WELLS PROPERTY MANAGERS 2,,
QCL21INFLO,21/03/2022 09:51,21/03/2022 09:51,Pay Bill Online from 0711117122 - Yassir Mwinyi Abdulrazaq Acc. ICE,Completed,3000,,77500,TRUE,Pay Bill Online,0711117122 - Yassir Mwinyi Abdulrazaq,,ICE
QCK516BIEZ,20/03/2022 22:46,20/03/2022 22:46,Pay Bill from 254703935626 - DAVID NGARI ITA Acc. FCD,Completed,1000,,74500,TRUE,Pay Utility with OD via STK,254703935626 - DAVID NGARI ITA,,FCD
QCK4YX4PVW,20/03/2022 11:27,20/03/2022 11:27,Pay Bill from 254725062550 - FRANKLINE MASSAM Acc. KAF,Completed,11000,,73500,TRUE,Pay Utility,254725062550 - FRANKLINE MASSAM,,KAF
QCK9YKAQL3,20/03/2022 04:58,20/03/2022 04:58,Pay Bill Online from 254723370004 - LABAN MAINGI WAMBUA Acc. JEF,Completed,2000,,62500,TRUE,Pay Bill Online,254723370004 - LABAN MAINGI WAMBUA,,JEF
QCJ9XIXDMF,19/03/2022 15:29,19/03/2022 15:29,Pay Bill from 254719499823 - MOSES MWANZIA MUTHIANI Acc. Jcc,Completed,10000,,60500,TRUE,Pay Utility with OD via STK,254719499823 - MOSES MWANZIA MUTHIANI,,Jcc
QCJ4X5R1VM,19/03/2022 12:16,19/03/2022 12:16,Pay Bill Online from 254720451253 - JIMMY KIOGORA NKIROTE Acc. Kbd,Completed,1500,,50500,TRUE,Pay Utility with OD Online,254720451253 - JIMMY KIOGORA NKIROTE,,Kbd
QCJ9WST4QF,19/03/2022 08:52,19/03/2022 08:52,Pay Bill from 254701047939 - Cyrus Wahome Acc. JAH,Completed,3000,,49000,TRUE,Pay Utility,254701047939 - Cyrus Wahome,,JAH
QCI7WL11FH,18/03/2022 23:51,18/03/2022 23:51,Pay Bill from 254725539787 - EVERLYNE MOGAKA Acc. KEF,Completed,10000,,46000,TRUE,Pay Utility,254725539787 - EVERLYNE MOGAKA,,KEF
QCI7WJBFKP,18/03/2022 22:38,18/03/2022 22:38,Pay Bill from 254703935626 - DAVID NGARI ITA Acc. FCD,Completed,1000,,36000,TRUE,Pay Utility with OD via STK,254703935626 - DAVID NGARI ITA,,FCD
QCI0W9MI6I,18/03/2022 20:11,18/03/2022 20:11,Pay Bill from 254701047939 - Cyrus Wahome Acc. JAH,Completed,10000,,35000,TRUE,Pay Utility,254701047939 - Cyrus Wahome,,JAH
QCI5VXS9SL,18/03/2022 18:17,18/03/2022 18:17,Pay Bill from 0743248310 - PATRICK STURRIDGE NYONGESA Acc. daa,Completed,5000,,25000,TRUE,Pay Utility,0743248310 - PATRICK STURRIDGE NYONGESA,,daa
QCI3VXPBXZ,18/03/2022 18:16,18/03/2022 18:16,Pay Bill from 254728313347 - GEORGE KIMAIGA NYAMORI Acc. ici,Completed,10000,,20000,TRUE,Pay Utility,254728313347 - GEORGE KIMAIGA NYAMORI,,ici
QCI0VU9P8W,18/03/2022 17:36,18/03/2022 17:36,Pay Bill from 254717300111 - SAMUEL MUCHIRI MAINA Acc. JEE,Completed,10000,,10000,TRUE,Pay Utility,254717300111 - SAMUEL MUCHIRI MAINA,,JEE
QCI3VQ6HAD,18/03/2022 16:45,18/03/2022 16:45,Utility Account to Organization Settlement Account,Completed,,-134500,0,TRUE,Utility Account to Organization Settlement Account,979524 - ANCIENT WELLS PROPERTY MANAGERS 2,,
QCI3VM4PI3,18/03/2022 15:48,18/03/2022 15:48,Pay Bill Online from 254722514052 - JOSEPH NDIRANGU Acc. JCF,Completed,8000,,134500,TRUE,Pay Bill Online,254722514052 - JOSEPH NDIRANGU,,JCF
QCI3VHLEXH,18/03/2022 14:41,18/03/2022 14:41,Pay Bill Online from 254715764212 - BANCE ISHEMINYE Acc. JFE,Completed,2000,,126500,TRUE,Pay Utility with OD Online,254715764212 - BANCE ISHEMINYE,,JFE
QCI7V9VBEB,18/03/2022 12:46,18/03/2022 12:46,Pay Bill Online from 254707133738 - MARTIN TONKEI Acc. KBG,Completed,9000,,124500,TRUE,Pay Bill Online,254707133738 - MARTIN TONKEI,,KBG
QCI3V9HTVL,18/03/2022 12:40,18/03/2022 12:40,Pay Bill from 254720883049 - SIMON AMUKOCHE Acc. IED,Completed,18000,,115500,TRUE,Pay Utility,254720883049 - SIMON AMUKOCHE,,IED
QCI8V4VHKA,18/03/2022 11:29,18/03/2022 11:29,Pay Bill from 254723389177 - NELSON MOI Acc. ibf,Completed,5500,,97500,TRUE,Pay Utility,254723389177 - NELSON MOI,,ibf
QCI2UZFSUY,18/03/2022 10:02,18/03/2022 10:02,Pay Bill from 0724110456 - Fredrick Otieno Onege Acc. ICH,Completed,6000,,92000,TRUE,Pay Utility,0724110456 - Fredrick Otieno Onege,,ICH
QCH4UC83IS,17/03/2022 20:06,17/03/2022 20:06,Pay Bill from 254720703769 - MOHAMED ABUKAR SIYAD Acc. HBA,Completed,17000,,86000,TRUE,Pay Utility,254720703769 - MOHAMED ABUKAR SIYAD,,HBA
QCH8UBMW76,17/03/2022 20:00,17/03/2022 20:00,Pay Bill from 254717909848 - MARY MBULA KATHUKU Acc. 9000,Completed,9000,,69000,TRUE,Pay Utility,254717909848 - MARY MBULA KATHUKU,,9000
QCH6U5HF4A,17/03/2022 19:03,17/03/2022 19:03,Pay Bill Online from 254722258107 - JOHN ODIMA ODIMA Acc. KGF,Completed,10000,,60000,TRUE,Pay Bill Online,254722258107 - JOHN ODIMA ODIMA,,KGF
QCH2TAJ072,17/03/2022 11:56,17/03/2022 11:56,Pay Bill Online from 254723370004 - LABAN MAINGI WAMBUA Acc. JEF,Completed,6000,,50000,TRUE,Pay Utility with OD Online,254723370004 - LABAN MAINGI WAMBUA,,JEF
QCH9STL2JZ,17/03/2022 06:14,17/03/2022 06:14,Pay Bill Online from 254704403532 - Mercy Chepchirchir Mary Acc. JBC,Completed,11000,,44000,TRUE,Pay Bill Online,254704403532 - Mercy Chepchirchir Mary,,JBC
QCG4SMV2I8,16/03/2022 21:36,16/03/2022 21:36,Pay Bill from 254726928933 - JOSHUA NDUNDA NZIOKA Acc. KCJ,Completed,16000,,33000,TRUE,Pay Utility,254726928933 - JOSHUA NDUNDA NZIOKA,,KCJ
QCG3S7P693,16/03/2022 18:54,16/03/2022 18:54,Pay Bill from 254719779657 - SAMUEL NJOROGE Acc. JGA,Completed,15000,,17000,TRUE,Pay Utility with OD via STK,254719779657 - SAMUEL NJOROGE,,JGA
QCG2S6DZVY,16/03/2022 18:41,16/03/2022 18:41,Pay Bill Online from 254727554512 - COLLINS KOECH Acc. JDJ,Completed,2000,,2000,TRUE,Pay Bill Online,254727554512 - COLLINS KOECH,,JDJ
QCG3S0YZ01,16/03/2022 17:39,16/03/2022 17:39,Utility Account to Organization Settlement Account,Completed,,-160100,0,TRUE,Utility Account to Organization Settlement Account,979524 - ANCIENT WELLS PROPERTY MANAGERS 2,,
QCG1RR6NV7,16/03/2022 15:21,16/03/2022 15:21,Pay Bill from 0757259130 - RASHID SUDI MCHOMBO Acc. JAF,Completed,5000,,160100,TRUE,Pay Utility,0757259130 - RASHID SUDI MCHOMBO,,JAF
QCF0QQINDY,15/03/2022 21:48,15/03/2022 21:48,Pay Bill from 254722746480 - PATRICK OPEYWA AURA Acc. Kgh,Completed,9500,,155100,TRUE,Pay Utility,254722746480 - PATRICK OPEYWA AURA,,Kgh
QCF8QN493S,15/03/2022 20:57,15/03/2022 20:57,Pay Bill Online from 254726116777 - MARY NDUTA GOSHO Acc. JDB ,Completed,15000,,145600,TRUE,Pay Bill Online,254726116777 - MARY NDUTA GOSHO,,JDB
QCF8QDJC2Q,15/03/2022 19:21,15/03/2022 19:21,Pay Bill from 254723606895 - ABDINASI DAHIR Acc. KAB,Completed,16000,,130600,TRUE,Pay Utility with OD via STK,254723606895 - ABDINASI DAHIR,,KAB
QCF0Q928SC,15/03/2022 18:37,15/03/2022 18:37,Pay Bill from 254796848496 - IVY WITABA Acc. JBA,Completed,20000,,114600,TRUE,Pay Utility,254796848496 - IVY WITABA,,JBA
QCF1PSMDWB,15/03/2022 14:53,15/03/2022 14:53,Pay Bill from 254702190887 - Nax Ochieng Acc. FDE,Completed,15000,,94600,TRUE,Pay Utility,254702190887 - Nax Ochieng,,FDE
QCF6PHWXOA,15/03/2022 12:10,15/03/2022 12:10,Pay Bill Online from 254799214498 - EMMILY LWAMBA Acc. KCF ,Completed,4100,,79600,TRUE,Pay Bill Online,254799214498 - EMMILY LWAMBA,,KCF
QCF6PCTC3A,15/03/2022 10:49,15/03/2022 10:49,Pay Bill from 254727766786 - JOHN MAITHA MULWA Acc. IBH,Completed,20000,,75500,TRUE,Pay Utility,254727766786 - JOHN MAITHA MULWA,,IBH
QCF1P734XJ,15/03/2022 09:15,15/03/2022 09:15,Pay Bill Online from 254725381062 - VICTOR MAITHYA Acc. HEG,Completed,2000,,55500,TRUE,Pay Utility with OD Online,254725381062 - VICTOR MAITHYA,,HEG
QCF6P5DUHG,15/03/2022 08:46,15/03/2022 08:46,Pay Bill from 254704111133 - ELVIS OTIENO Acc. HFD,Completed,2000,,53500,TRUE,Pay Utility,254704111133 - ELVIS OTIENO,,HFD
QCE8ONL2L2,14/03/2022 20:12,14/03/2022 20:12,Pay Bill from 254725111246 - FRANCIS MUUTU MWANGANGI Acc. IGI,Completed,15000,,51500,TRUE,Pay Utility,254725111246 - FRANCIS MUUTU MWANGANGI,,IGI
QCE4OHUEKE,14/03/2022 19:17,14/03/2022 19:17,Pay Bill from 0790823150 - ALEX OMOLO OMONDI Acc. IGE,Completed,18000,,36500,TRUE,Pay Utility,0790823150 - ALEX OMOLO OMONDI,,IGE
QCE9OET11F,14/03/2022 18:48,14/03/2022 18:48,Pay Bill from 254703555717 - SENGA SALIM Acc. hbb,Completed,4000,,18500,TRUE,Pay Utility,254703555717 - SENGA SALIM,,hbb
QCE4OBARPM,14/03/2022 18:10,14/03/2022 18:10,Pay Bill from 254720868281 - KENNEDY MWELU Acc. KBI,Completed,12500,,14500,TRUE,Pay Utility,254720868281 - KENNEDY MWELU,,KBI
QCE5O6PT0B,14/03/2022 17:14,14/03/2022 17:14,Pay Bill Online from 0711117122 - Yassir Mwinyi Abdulrazaq Acc. ICE,Completed,2000,,2000,TRUE,Pay Bill Online,0711117122 - Yassir Mwinyi Abdulrazaq,,ICE
QCE7NW5LJ7,14/03/2022 14:40,14/03/2022 14:40,Utility Account to Organization Settlement Account,Completed,,-210500,0,TRUE,Utility Account to Organization Settlement Account,979524 - ANCIENT WELLS PROPERTY MANAGERS 2,,
QCE3NAJQTL,14/03/2022 09:07,14/03/2022 09:07,Pay Bill Online from 254718772336 - DAVID SERUGO Acc. DCD,Completed,20000,,210500,TRUE,Pay Bill Online,254718772336 - DAVID SERUGO,,DCD
QCE6N3CLB6,14/03/2022 04:39,14/03/2022 04:39,Pay Bill Online from 254715764212 - BANCE ISHEMINYE Acc. JFE,Completed,4000,,190500,TRUE,Pay Utility with OD Online,254715764212 - BANCE ISHEMINYE,,JFE
QCD4N0KW7W,13/03/2022 22:39,13/03/2022 22:39,Pay Bill from 0720599684 - CHEMUTAI   JACKLINE Acc. KGD,Completed,5000,,186500,TRUE,Pay Utility,0720599684 - CHEMUTAI   JACKLINE,,KGD
QCD6MSQ4YM,13/03/2022 20:23,13/03/2022 20:23,Pay Bill from 254718672924 - LILIAN CHEBET NGENO Acc. KGD,Completed,5000,,181500,TRUE,Pay Utility,254718672924 - LILIAN CHEBET NGENO,,KGD
QCD8MLYUF6,13/03/2022 19:13,13/03/2022 19:13,Pay Bill from 0746934144 - Rosemary Wangui Muiruri Acc. ICD,Completed,8000,,176500,TRUE,Pay Utility,0746934144 - Rosemary Wangui Muiruri,,ICD
QCD9MIXWDL,13/03/2022 18:40,13/03/2022 18:40,Pay Bill from 254725385966 - JOSEPH MUYA MARUA Acc. KEE,Completed,10000,,168500,TRUE,Pay Utility,254725385966 - JOSEPH MUYA MARUA,,KEE
QCD4M4V1CY,13/03/2022 15:20,13/03/2022 15:20,Pay Bill from 254718245568 - NADI GOLICHA Acc. JEA,Completed,28500,,158500,TRUE,Pay Utility,254718245568 - NADI GOLICHA,,JEA
QCD1M1TGVH,13/03/2022 14:34,13/03/2022 14:34,Pay Bill from 0716115127 - MOHAMED SHEIKH ABDI Acc. FFE,Completed,23500,,130000,TRUE,Pay Utility,0716115127 - MOHAMED SHEIKH ABDI,,FFE
QCD2LP5LTG,13/03/2022 11:00,13/03/2022 11:00,Pay Bill from 254723747228 - MORARA ASANYO Acc. pool ,Completed,22000,,106500,TRUE,Pay Utility,254723747228 - MORARA ASANYO,,pool
QCC1L7ABV1,12/03/2022 22:02,12/03/2022 22:02,Pay Bill from 254707715639 - Annastacia Kimeu Acc. JFC,Completed,10000,,84500,TRUE,Pay Utility,254707715639 - Annastacia Kimeu,,JFC
QCC2KSOK1E,12/03/2022 19:14,12/03/2022 19:14,Pay Bill Online from 254720787158 - AMOS CHELANG'A Acc. KCG,Completed,4500,,74500,TRUE,Pay Bill Online,254720787158 - AMOS CHELANG'A,,KCG
QCC2KSI7VS,12/03/2022 19:12,12/03/2022 19:12,Pay Bill Online from 254720787158 - AMOS CHELANG'A Acc. KFK,Completed,8000,,70000,TRUE,Pay Bill Online,254720787158 - AMOS CHELANG'A,,KFK
QCC1KM3HS1,12/03/2022 18:04,12/03/2022 18:04,Pay Bill Online from 254714552193 - CHRISTOPHER OCHIENG Acc. JGI ,Completed,20000,,62000,TRUE,Pay Bill Online,254714552193 - CHRISTOPHER OCHIENG,,JGI
QCC0KIJJBS,12/03/2022 17:21,12/03/2022 17:21,Pay Bill from 254722889574 - ALLAN MWANGI Acc. JCG,Completed,10000,,42000,TRUE,Pay Utility with OD via STK,254722889574 - ALLAN MWANGI,,JCG
QCC5KIETSL,12/03/2022 17:19,12/03/2022 17:19,Pay Bill from 254799036148 - HYCENT BOREH Acc. HAC,Completed,10000,,32000,TRUE,Pay Utility,254799036148 - HYCENT BOREH,,HAC
QCC3K71KMX,12/03/2022 14:38,12/03/2022 14:38,Pay Bill from 254703555717 - SENGA SALIM Acc. hbb,Completed,2000,,22000,TRUE,Pay Utility,254703555717 - SENGA SALIM,,hbb
QCC1JV5PQF,12/03/2022 11:46,12/03/2022 11:46,Pay Bill from 254791318982 - ADULLAHI HASSAN Acc. JCI,Completed,20000,,20000,TRUE,Pay Utility,254791318982 - ADULLAHI HASSAN,,JCI
QCC4JQMS3G,12/03/2022 10:40,12/03/2022 10:40,Utility Account to Organization Settlement Account,Completed,,-726730,0,TRUE,Utility Account to Organization Settlement Account,979524 - ANCIENT WELLS PROPERTY MANAGERS 2,,
QCC8JE4PN8,12/03/2022 06:14,12/03/2022 06:14,Pay Bill from 0743248310 - PATRICK STURRIDGE NYONGESA Acc. daa,Completed,3000,,726730,TRUE,Pay Utility,0743248310 - PATRICK STURRIDGE NYONGESA,,daa
QCB5J4HQR7,11/03/2022 21:03,11/03/2022 21:03,Pay Bill from 0722950695 - Joshua Mbithi Kivondo Acc. Dca ,Completed,10000,,723730,TRUE,Pay Utility,0722950695 - Joshua Mbithi Kivondo,,Dca
QCB4IKJWQE,11/03/2022 17:36,11/03/2022 17:36,Pay Bill Online from 254796720014 - DEBORA KEMUNTO NYAKINA Acc. KAJ,Completed,16000,,713730,TRUE,Pay Bill Online,254796720014 - DEBORA KEMUNTO NYAKINA,,KAJ
QCB0IKADFO,11/03/2022 17:33,11/03/2022 17:33,Pay Bill from 254720029066 - EVANS CHERUYOT ROTICH Acc. KFI,Completed,15000,,697730,TRUE,Pay Utility,254720029066 - EVANS CHERUYOT ROTICH,,KFI
QCB6IGYHOC,11/03/2022 16:50,11/03/2022 16:50,Pay Bill from 254727515326 - HARRISON WACIRA MAINA Acc. HAH,Completed,16000,,682730,TRUE,Pay Utility,254727515326 - HARRISON WACIRA MAINA,,HAH
QCB4IDB5WU,11/03/2022 15:58,11/03/2022 15:58,Pay Bill from 254720496449 - STANLEY KIPKOECH RONO Acc. FBE,Completed,16000,,666730,TRUE,Pay Utility,254720496449 - STANLEY KIPKOECH RONO,,FBE
QCB0IBUPF6,11/03/2022 15:37,11/03/2022 15:37,Pay Bill Online from 254720451253 - JIMMY KIOGORA NKIROTE Acc. kbd,Completed,2000,,650730,TRUE,Pay Utility with OD Online,254720451253 - JIMMY KIOGORA NKIROTE,,kbd
QCB8I8301I,11/03/2022 14:41,11/03/2022 14:41,Pay Bill from 254701741613 - ELDERKIN AKOSA Acc. HOUSE NO. IFB,Completed,15000,,648730,TRUE,Pay Utility,254701741613 - ELDERKIN AKOSA,,HOUSE
QCB4I120S0,11/03/2022 12:59,11/03/2022 12:59,Pay Bill Online from 254706549634 - CLINTON OMBASA Acc. FDB,Completed,4000,,633730,TRUE,Pay Utility with OD Online,254706549634 - CLINTON OMBASA,,FDB
QCB3HWLQJN,11/03/2022 11:53,11/03/2022 11:53,Pay Bill Online from 254723930071 - AMOS KITAVI KIVITE Acc. JCE,Completed,9000,,629730,TRUE,Pay Bill Online,254723930071 - AMOS KITAVI KIVITE,,JCE
QCB3HV8QXN,11/03/2022 11:33,11/03/2022 11:33,Pay Bill from 254726651764 - NICHOLAS MWANZIA Acc. HBE,Completed,10500,,620730,TRUE,Pay Utility,254726651764 - NICHOLAS MWANZIA,,HBE
QCB7HV4EYR,11/03/2022 11:31,11/03/2022 11:31,Pay Bill Online from 0769918050 - newton   mutethia Acc. JBG,Completed,10000,,610230,TRUE,Pay Bill Online,0769918050 - newton   mutethia,,JBG
QCB9HU7YI3,11/03/2022 11:18,11/03/2022 11:18,Utility Account to Organization Settlement Account,Completed,,-500000,600230,TRUE,Utility Account to Organization Settlement Account,979524 - ANCIENT WELLS PROPERTY MANAGERS 2,,
QCB5HQIOVJ,11/03/2022 10:22,11/03/2022 10:22,Pay Bill from 254724466518 - EUNICE NDUTA Acc. KFF,Completed,9500,,1100230,TRUE,Pay Utility,254724466518 - EUNICE NDUTA,,KFF
QCA6H97YB8,10/03/2022 21:55,10/03/2022 21:55,Pay Bill from 254708499439 - ROSE NDEDE Acc. HGF,Completed,9000,,1090730,TRUE,Pay Utility,254708499439 - ROSE NDEDE,,HGF
QCA9H6AJ61,10/03/2022 21:09,10/03/2022 21:09,Pay Bill Online from 254720451253 - JIMMY KIOGORA NKIROTE Acc. KBD,Completed,3000,,1081730,TRUE,Pay Utility with OD Online,254720451253 - JIMMY KIOGORA NKIROTE,,KBD
QCA0H65N22,10/03/2022 21:07,10/03/2022 21:07,Pay Bill from 0796929370 - HALIMA BOYA GALMA Acc. DBC,Completed,20000,,1078730,TRUE,Pay Utility with OD via STK,0796929370 - HALIMA BOYA GALMA,,DBC
QCA6H5CJ9E,10/03/2022 20:57,10/03/2022 20:57,Pay Bill from 254725753814 - CARLYNE CHEPNGENO Acc. IFC,Completed,8000,,1058730,TRUE,Pay Utility with OD via STK,254725753814 - CARLYNE CHEPNGENO,,IFC
QCA1GHJGVH,10/03/2022 16:42,10/03/2022 16:42,Pay Bill from 254710635630 - DONNA JESSICA OWANO Acc. KCC,Completed,10000,,1050730,TRUE,Pay Utility,254710635630 - DONNA JESSICA OWANO,,KCC
QCA4G8HQXY,10/03/2022 14:27,10/03/2022 14:27,Pay Bill from 0715688238 - JOANNAH ATUHAIRE BANTU Acc. JAE,Completed,9000,,1040730,TRUE,Pay Utility,0715688238 - JOANNAH ATUHAIRE BANTU,,JAE
QCA7G3IBIB,10/03/2022 13:15,10/03/2022 13:15,Pay Bill from 254729258441 - ROBERT RONO KULEI Acc. JAB,Completed,10000,,1031730,TRUE,Pay Utility,254729258441 - ROBERT RONO KULEI,,JAB
QCA4FXIW5G,10/03/2022 11:46,10/03/2022 11:46,Pay Bill Online from 254725381062 - VICTOR MAITHYA Acc. HEG,Completed,2000,,1021730,TRUE,Pay Utility with OD Online,254725381062 - VICTOR MAITHYA,,HEG
QCA5FK81Q5,10/03/2022 08:12,10/03/2022 08:12,Pay Bill Online from 254718009051 - STEPHEN OMOLLO Acc. JDF,Completed,8000,,1019730,TRUE,Pay Bill Online,254718009051 - STEPHEN OMOLLO,,JDF
QC92F249H0,09/03/2022 20:01,09/03/2022 20:01,Pay Bill from 254700290755 - MERCY GOGA Acc. FDD,Completed,1000,,1011730,TRUE,Pay Utility,254700290755 - MERCY GOGA,,FDD
QC90E9OGYS,09/03/2022 14:19,09/03/2022 14:19,Pay Bill from 0758741326 - ABDULLAHI ISACK BANTE Acc. KBF,Completed,10000,,1010730,TRUE,Pay Utility,0758741326 - ABDULLAHI ISACK BANTE,,KBF
QC90E81UZ2,09/03/2022 13:55,09/03/2022 13:55,Pay Bill from 0724110456 - Fredrick Otieno Onege Acc. ICH,Completed,8000,,1000730,TRUE,Pay Utility with OD via STK,0724110456 - Fredrick Otieno Onege,,ICH
QC97E4UZGX,09/03/2022 13:11,09/03/2022 13:11,Pay Bill from 0718838251 - MARK KINYUA MAINA Acc. kfg,Completed,10000,,992730,TRUE,Pay Utility,0718838251 - MARK KINYUA MAINA,,kfg
QC96DYQZYE,09/03/2022 11:40,09/03/2022 11:40,Pay Bill Online from 254705846408 - JAMES OUMA Acc. HBH,Completed,16000,,982730,TRUE,Pay Bill Online,254705846408 - JAMES OUMA,,HBH
QC97DSHOI7,09/03/2022 10:04,09/03/2022 10:04,Pay Bill Online from 254725381062 - VICTOR MAITHYA Acc. HEG,Completed,2000,,966730,TRUE,Pay Bill Online,254725381062 - VICTOR MAITHYA,,HEG
QC98DRWT7A,09/03/2022 09:55,09/03/2022 09:55,Pay Bill from 254722790857 - SALINA JEPKOECH TUWEI Acc. 87902,Completed,480,,964730,TRUE,Pay Utility,254722790857 - SALINA JEPKOECH TUWEI,,87902
QC99DRL3JV,09/03/2022 09:50,09/03/2022 09:50,Pay Bill Online from 254715764212 - BANCE ISHEMINYE Acc. JFE ,Completed,5000,,964250,TRUE,Pay Bill Online,254715764212 - BANCE ISHEMINYE,,JFE
QC97DM8NL5,09/03/2022 08:19,09/03/2022 08:19,Pay Bill Online from 0740422187 - KEVIN MAKATO KUNGA Acc. KEG,Completed,10000,,959250,TRUE,Pay Bill Online,0740422187 - KEVIN MAKATO KUNGA,,KEG
QC91DHUX6R,09/03/2022 06:00,09/03/2022 06:00,Pay Bill Online from 254799371069 - ALPHONCE OCHIENG WAREGA Acc. IEE,Completed,8500,,949250,TRUE,Pay Bill Online,254799371069 - ALPHONCE OCHIENG WAREGA,,IEE
QC98DH0EBI,09/03/2022 02:09,09/03/2022 02:09,Pay Bill Online from 254725381062 - VICTOR MAITHYA Acc. HEG,Completed,2000,,940750,TRUE,Pay Utility with OD Online,254725381062 - VICTOR MAITHYA,,HEG
QC83DCZ8I7,08/03/2022 22:03,08/03/2022 22:03,Pay Bill from 0758591833 - DORCUS MBULA PETER Acc. HDD,Completed,9000,,938750,TRUE,Pay Utility,0758591833 - DORCUS MBULA PETER,,HDD
QC89D48RS9,08/03/2022 20:09,08/03/2022 20:09,Pay Bill from 254720107609 - DENNIS OGENDI BARAKE Acc. JAJ,Completed,15000,,929750,TRUE,Pay Utility,254720107609 - DENNIS OGENDI BARAKE,,JAJ
QC83CS7D3Z,08/03/2022 18:12,08/03/2022 18:12,Pay Bill from 254720814822 - JAMES OTIENO OPAR Acc. Jgj,Completed,500,,914750,TRUE,Pay Utility with OD via STK,254720814822 - JAMES OTIENO OPAR,,Jgj
QC87CKP2PX,08/03/2022 16:39,08/03/2022 16:39,Pay Bill Online from 254713966424 - NDUTI MUTHUI Acc. jed,Completed,15000,,914250,TRUE,Pay Bill Online,254713966424 - NDUTI MUTHUI,,jed
QC84CFPR96,08/03/2022 15:26,08/03/2022 15:26,Utility Account to Organization Settlement Account,Completed,,-500000,899250,TRUE,Utility Account to Organization Settlement Account,979524 - ANCIENT WELLS PROPERTY MANAGERS 2,,
QC81C7OG6V,08/03/2022 13:29,08/03/2022 13:29,Pay Bill from 254704111133 - ELVIS OTIENO Acc. HFD,Completed,1000,,1399250,TRUE,Pay Utility,254704111133 - ELVIS OTIENO,,HFD
QC83C679LN,08/03/2022 13:08,08/03/2022 13:08,Pay Bill Online from 254701196539 - GICHURI KARANJA Acc. fee,Completed,16000,,1398250,TRUE,Pay Bill Online,254701196539 - GICHURI KARANJA,,fee
QC88C54VI8,08/03/2022 12:54,08/03/2022 12:53,Pay Bill Online from 254725452946 - GODFREY THIANE KIBAYA Acc. HEE,Completed,10000,,1382250,TRUE,Pay Utility with OD Online,254725452946 - GODFREY THIANE KIBAYA,,HEE
QC89BZX8HP,08/03/2022 11:41,08/03/2022 11:41,Pay Bill Online from 254710146965 - BRENDA DORCAS MABONGA Acc. HFG ,Completed,15000,,1372250,TRUE,Pay Bill Online,254710146965 - BRENDA DORCAS MABONGA,,HFG
QC85BQ1T0N,08/03/2022 09:04,08/03/2022 09:04,Pay Bill from 0717441870 - Steven oduor ogutu Acc. KTE,Completed,9500,,1357250,TRUE,Pay Utility,0717441870 - Steven oduor ogutu,,KTE
QC86BL1JZE,08/03/2022 07:26,08/03/2022 07:26,Pay Bill from 254701006375 - EZRA MAKORI SERETI Acc. HTA,Completed,10000,,1347750,TRUE,Pay Utility with OD via STK,254701006375 - EZRA MAKORI SERETI,,HTA
QC85BKIUI3,08/03/2022 07:12,08/03/2022 07:12,Pay Bill from 0769118645 - kennedy kipkurui korir Acc. IGC,Completed,9000,,1337750,TRUE,Pay Utility,0769118645 - kennedy kipkurui korir,,IGC
QC78BGWZVI,07/03/2022 23:22,07/03/2022 23:22,Pay Bill from 254704111133 - ELVIS OTIENO Acc. HFD,Completed,1000,,1328750,TRUE,Pay Utility,254704111133 - ELVIS OTIENO,,HFD
QC74BG0TH6,07/03/2022 22:44,07/03/2022 22:44,Pay Bill from 254715347429 - Faith Akinyi Odhiambo Acc. DAC,Completed,20000,,1327750,TRUE,Pay Utility,254715347429 - Faith Akinyi Odhiambo,,DAC
QC72BE5HQO,07/03/2022 21:59,07/03/2022 21:59,Pay Bill from 254714536026 - LILIAN AWUOR ONYANGO Acc. HDC,Completed,10500,,1307750,TRUE,Pay Utility,254714536026 - LILIAN AWUOR ONYANGO,,HDC
QC71BCCZFV,07/03/2022 21:28,07/03/2022 21:28,Pay Bill from 254729713741 - ALBANUS MUTISO Acc. DDC,Completed,20000,,1297250,TRUE,Pay Utility,254729713741 - ALBANUS MUTISO,,DDC
QC75B9NS1X,07/03/2022 20:52,07/03/2022 20:52,Pay Bill from 254728238249 - ESTHER WANGUI KIBUNYI Acc. ICA,Completed,17000,,1277250,TRUE,Pay Utility,254728238249 - ESTHER WANGUI KIBUNYI,,ICA
QC72B5UB2I,07/03/2022 20:10,07/03/2022 20:10,Pay Bill from 254722444622 - CHARITY KAGWAINI Acc. ffd,Completed,11000,,1260250,TRUE,Pay Utility,254722444622 - CHARITY KAGWAINI,,ffd
QC74B4098M,07/03/2022 19:52,07/03/2022 19:52,Pay Bill from 254721315975 - JOSEPH NDEGWA Acc. HEB,Completed,16000,,1249250,TRUE,Pay Utility,254721315975 - JOSEPH NDEGWA,,HEB
QC79B3ARM1,07/03/2022 19:46,07/03/2022 19:46,Pay Bill from 254729371750 - DERRICK OTANGA Acc. FEF,Completed,17000,,1233250,TRUE,Pay Utility,254729371750 - DERRICK OTANGA,,FEF
QC76AZN4HW,07/03/2022 19:14,07/03/2022 19:14,Pay Bill from 254713205244 - ROBERT OGALO Acc. KBH,Completed,10000,,1216250,TRUE,Pay Utility,254713205244 - ROBERT OGALO,,KBH
QC73AYIG0Z,07/03/2022 19:04,07/03/2022 19:04,Pay Bill from 254708875278 - ROSEMARY WANJIRU KONYE Acc. HBF,Completed,9000,,1206250,TRUE,Pay Utility,254708875278 - ROSEMARY WANJIRU KONYE,,HBF
QC75AVGB1L,07/03/2022 18:34,07/03/2022 18:34,Pay Bill from 254723699555 - DIANA NYAIREGI GICHIA Acc. FBF,Completed,7500,,1197250,TRUE,Pay Utility,254723699555 - DIANA NYAIREGI GICHIA,,FBF
QC75AQMB3D,07/03/2022 17:41,07/03/2022 17:41,Pay Bill from 0115054975 - faith syovata joseph Acc. IBC,Completed,9500,,1189750,TRUE,Pay Utility with OD via STK,0115054975 - faith syovata joseph,,IBC
QC73AM2ZM7,07/03/2022 16:43,07/03/2022 16:43,Pay Bill from 254728259571 - ANNE KASIVA Acc. ieb,Completed,15000,,1180250,TRUE,Pay Utility with OD via STK,254728259571 - ANNE KASIVA,,ieb
QC73AIE3AD,07/03/2022 15:51,07/03/2022 15:51,Pay Bill Online from 254720381965 - JAMES NGUGI MWANIKI Acc. JBI,Completed,20000,,1165250,TRUE,Pay Bill Online,254720381965 - JAMES NGUGI MWANIKI,,JBI
QC72AI5Q1M,07/03/2022 15:47,07/03/2022 15:47,Pay Bill Online from 254727554512 - COLLINS KOECH Acc. JDJ,Completed,8000,,1145250,TRUE,Pay Bill Online,254727554512 - COLLINS KOECH,,JDJ
QC72AAMPTQ,07/03/2022 13:56,07/03/2022 13:56,Pay Bill from 254717985596 - NICHOLAS KIPKOECH BUTIA Acc. HCF,Completed,9000,,1137250,TRUE,Pay Utility,254717985596 - NICHOLAS KIPKOECH BUTIA,,HCF
QC74A9S99O,07/03/2022 13:44,07/03/2022 13:44,Pay Bill from 0769714506 - edith      gakii Acc. DDB,Completed,23750,,1128250,TRUE,Pay Utility,0769714506 - edith      gakii,,DDB
QC72A9MTF2,07/03/2022 13:42,07/03/2022 13:42,Pay Bill from 254704934557 - BAKARI KITSAKA Acc. JEI,Completed,20000,,1104500,TRUE,Pay Utility,254704934557 - BAKARI KITSAKA,,JEI
QC72A6WFV8,07/03/2022 13:03,07/03/2022 13:03,Pay Bill Online from 0757699775 - BENARD MUIA MUTUA Acc. HCB,Completed,16000,,1084500,TRUE,Pay Bill Online,0757699775 - BENARD MUIA MUTUA,,HCB
QC73A50QTN,07/03/2022 12:36,07/03/2022 12:36,Pay Bill from 254724878751 - NAOMI CHEPKOECH Acc. FBD,Completed,11000,,1068500,TRUE,Pay Utility,254724878751 - NAOMI CHEPKOECH,,FBD
QC71A4K82R,07/03/2022 12:30,07/03/2022 12:30,Pay Bill from 254716581384 - GREGORY KILUNGYA Acc. DAD,Completed,20000,,1057500,TRUE,Pay Utility,254716581384 - GREGORY KILUNGYA,,DAD
QC79A495RT,07/03/2022 12:25,07/03/2022 12:25,Pay Bill Online from 0715273095 - Stacy Aketch Ochuka Acc. KGK,Completed,5000,,1037500,TRUE,Pay Bill Online,0715273095 - Stacy Aketch Ochuka,,KGK
QC70A397RY,07/03/2022 12:11,07/03/2022 12:11,Pay Bill Online from 254715892656 - DENNIS MUSYOKA MUOKI Acc. KFA,Completed,16000,,1032500,TRUE,Pay Bill Online,254715892656 - DENNIS MUSYOKA MUOKI,,KFA
QC77A1NA17,07/03/2022 11:47,07/03/2022 11:47,Pay Bill from 254723488259 - WILSON OKITE OKITE Acc. HCA,Completed,15000,,1016500,TRUE,Pay Utility,254723488259 - WILSON OKITE OKITE,,HCA
QC70A17I1I,07/03/2022 11:40,07/03/2022 11:40,Pay Bill Online from 254722769473 - SAMSON CHALO Acc. IAB,Completed,15000,,1001500,TRUE,Pay Utility with OD Online,254722769473 - SAMSON CHALO,,IAB
QC72A131R0,07/03/2022 11:38,07/03/2022 11:38,Pay Bill from 254719439717 - Cecilia Omondi Acc. HFC,Completed,9000,,986500,TRUE,Pay Utility,254719439717 - Cecilia Omondi,,HFC
QC73A0OQ8F,07/03/2022 11:33,07/03/2022 11:33,Pay Bill from 254713281251 - ERIC KIAMA Acc. JDI,Completed,20000,,977500,TRUE,Pay Utility,254713281251 - ERIC KIAMA,,JDI
QC78A056BQ,07/03/2022 11:24,07/03/2022 11:24,Merchant Pay Utility Received from 7427584 -     SELLUHTECH INVESTMENTS Acc. FBC,Completed,9000,,957500,TRUE,Merchant Pay Utility via API,7427584 -     SELLUHTECH INVESTMENTS,,FBC
QC709WES3O,07/03/2022 10:28,07/03/2022 10:28,Pay Bill Online from 254718233980 - KAREN ASWANI Acc. HEC,Completed,10500,,948500,TRUE,Pay Utility with OD Online,254718233980 - KAREN ASWANI,,HEC
QC769T1I18,07/03/2022 09:37,07/03/2022 09:37,Pay Bill from 0746078348 - GERALD ODHIAMBO OWIYO Acc. KCD,Completed,12000,,938000,TRUE,Pay Utility,0746078348 - GERALD ODHIAMBO OWIYO,,KCD
QC759R9BUT,07/03/2022 09:08,07/03/2022 09:08,Pay Bill from 0700851010 - Njenga    Kuria Acc. kca,Completed,16000,,926000,TRUE,Pay Utility,0700851010 - Njenga    Kuria,,kca
QC789ORJV8,07/03/2022 08:25,07/03/2022 08:25,Pay Bill Online from 254718911865 - KENNEDY KELI KATUNGII Acc. HDF,Completed,9000,,910000,TRUE,Pay Utility with OD Online,254718911865 - KENNEDY KELI KATUNGII,,HDF
QC769LHXJC,07/03/2022 07:12,07/03/2022 07:12,Pay Bill Online from 254720451253 - JIMMY KIOGORA NKIROTE Acc. kbd,Completed,2000,,901000,TRUE,Pay Bill Online,254720451253 - JIMMY KIOGORA NKIROTE,,kbd
QC609GJKIS,06/03/2022 22:38,06/03/2022 22:38,Pay Bill from 254723328258 - SAMUEL MAINA MURIUKI Acc. IFE,Completed,8000,,899000,TRUE,Pay Utility,254723328258 - SAMUEL MAINA MURIUKI,,IFE
QC609FQTMY,06/03/2022 22:19,06/03/2022 22:19,Pay Bill from 254703935626 - DAVID NGARI ITA Acc. FCD,Completed,1000,,891000,TRUE,Pay Utility,254703935626 - DAVID NGARI ITA,,FCD
QC689FJR3K,06/03/2022 22:15,06/03/2022 22:15,Pay Bill from 254703555717 - SENGA SALIM Acc. hbb,Completed,5000,,890000,TRUE,Pay Utility,254703555717 - SENGA SALIM,,hbb
QC679BQ079,06/03/2022 21:12,06/03/2022 21:12,Pay Bill Online from 254726636196 - BETHUEL KEMBOI KURUI Acc. JFD,Completed,15000,,885000,TRUE,Pay Bill Online,254726636196 - BETHUEL KEMBOI KURUI,,JFD
QC658MC9YZ,06/03/2022 16:12,06/03/2022 16:12,Pay Bill from 254702346515 - ELIZABETH ACHIENG NGOME Acc. KDE,Completed,10000,,870000,TRUE,Pay Utility,254702346515 - ELIZABETH ACHIENG NGOME,,KDE
QC668LSNJW,06/03/2022 16:04,06/03/2022 16:04,Pay Bill from 0711769778 - PROTASIA BONIPHACE MANOSA Acc. IBB,Completed,15000,,860000,TRUE,Pay Utility,0711769778 - PROTASIA BONIPHACE MANOSA,,IBB
QC658JNBJ5,06/03/2022 15:32,06/03/2022 15:32,Pay Bill from 254725754547 - MWACHIRO GEORGE DECHE Acc. DFC,Completed,20000,,845000,TRUE,Pay Utility,254725754547 - MWACHIRO GEORGE DECHE,,DFC
QC668IUO2E,06/03/2022 15:21,06/03/2022 15:21,Pay Bill from 254724400729 - Robert Kipchirchir Kipkosgei Acc. JBH,Completed,16000,,825000,TRUE,Pay Utility,254724400729 - Robert Kipchirchir Kipkosgei,,JBH
QC638GV5H1,06/03/2022 14:52,06/03/2022 14:52,Pay Bill from 254720814822 - JAMES OTIENO OPAR Acc. Jgj,Completed,3000,,809000,TRUE,Pay Utility with OD via STK,254720814822 - JAMES OTIENO OPAR,,Jgj
QC698EJXWD,06/03/2022 14:17,06/03/2022 14:17,Pay Bill from 254725478531 - KIPKORIR KUTO Acc. DFB,Completed,15000,,806000,TRUE,Pay Utility,254725478531 - KIPKORIR KUTO,,DFB
QC668B6N3U,06/03/2022 13:26,06/03/2022 13:26,Pay Bill from 254795534849 - PURITY NJERU Acc. FEB,Completed,31000,,791000,TRUE,Pay Utility,254795534849 - PURITY NJERU,,FEB
QC6789XAS9,06/03/2022 13:07,06/03/2022 13:07,Pay Bill from 254716056537 - KIRUI KIPLANGAT HILLARY Acc. JCJ,Completed,16000,,760000,TRUE,Pay Utility,254716056537 - KIRUI KIPLANGAT HILLARY,,JCJ
QC6787MKRN,06/03/2022 12:31,06/03/2022 12:31,Pay Bill from 254719779657 - SAMUEL NJOROGE Acc. JGA,Completed,5000,,744000,TRUE,Pay Utility,254719779657 - SAMUEL NJOROGE,,JGA
QC698020B3,06/03/2022 10:21,06/03/2022 10:21,Pay Bill Online from 0114735826 - PETER POCHI MAKACHA Acc. IAC,Completed,8000,,739000,TRUE,Pay Bill Online,0114735826 - PETER POCHI MAKACHA,,IAC
QC617XGT6P,06/03/2022 09:36,06/03/2022 09:36,Pay Bill Online from 0700206427 - Clare Nabalisa Mukasa Acc. HFA,Completed,16000,,731000,TRUE,Pay Bill Online,0700206427 - Clare Nabalisa Mukasa,,HFA
QC637VXEBR,06/03/2022 09:10,06/03/2022 09:10,Pay Bill from 254711706815 - NAOMI WANYONYI Acc. KBA,Completed,12000,,715000,TRUE,Pay Utility,254711706815 - NAOMI WANYONYI,,KBA
QC547MYKBA,05/03/2022 23:28,05/03/2022 23:28,Pay Bill from 254722605513 - HELLEN W NGUGI Acc. DCC,Completed,20000,,703000,TRUE,Pay Utility,254722605513 - HELLEN W NGUGI,,DCC
QC527MOH0C,05/03/2022 23:16,05/03/2022 23:16,Pay Bill from 254729355933 - FELISTAH NJERI WAIRIMU Acc. IDI,Completed,15000,,683000,TRUE,Pay Utility,254729355933 - FELISTAH NJERI WAIRIMU,,IDI
QC557LEF21,05/03/2022 22:36,05/03/2022 22:36,Pay Bill from 254703935626 - DAVID NGARI ITA Acc. FCD,Completed,1000,,668000,TRUE,Pay Utility,254703935626 - DAVID NGARI ITA,,FCD
QC507KKZIK,05/03/2022 22:18,05/03/2022 22:18,Pay Bill Online from 254710732381 - JANE ACHIENG MBEKE Acc. HAF,Completed,10000,,667000,TRUE,Pay Bill Online,254710732381 - JANE ACHIENG MBEKE,,HAF
QC517K6WR9,05/03/2022 22:10,05/03/2022 22:10,Pay Bill Online from 254718663397 - JIMMY MUNYAO NZIOKI Acc. DCB,Completed,16000,,657000,TRUE,Pay Bill Online,254718663397 - JIMMY MUNYAO NZIOKI,,DCB
QC567J4FL0,05/03/2022 21:51,05/03/2022 21:51,Pay Bill from 254720375006 - JACOB KANGOGO Acc. IBA,Completed,15000,,641000,TRUE,Pay Utility,254720375006 - JACOB KANGOGO,,IBA
QC587I986U,05/03/2022 21:37,05/03/2022 21:37,Pay Bill from 254720550403 - GRACE WANGONDU Acc. JFI,Completed,20000,,626000,TRUE,Pay Utility,254720550403 - GRACE WANGONDU,,JFI
QC547I2BMO,05/03/2022 21:34,05/03/2022 21:34,Pay Bill Online from 254721465713 - RHODA WAMBUI MWANGI Acc. Jfh,Completed,17000,,606000,TRUE,Pay Bill Online,254721465713 - RHODA WAMBUI MWANGI,,Jfh
QC567EPJAG,05/03/2022 20:50,05/03/2022 20:50,Pay Bill from 254720278119 - LINDAH OGAWO Acc. kfe,Completed,8500,,589000,TRUE,Pay Utility,254720278119 - LINDAH OGAWO,,kfe
QC587DSEGK,05/03/2022 20:40,05/03/2022 20:40,Pay Bill from 254724821898 - ALLAN GISONI NYANGARESI Acc. DBA,Completed,16000,,580500,TRUE,Pay Utility,254724821898 - ALLAN GISONI NYANGARESI,,DBA
QC577DHNTN,05/03/2022 20:37,05/03/2022 20:37,Pay Bill from 0769960650 - DORIS WAMARWA MURIUKI Acc. KEC,Completed,10000,,564500,TRUE,Pay Utility,0769960650 - DORIS WAMARWA MURIUKI,,KEC
QC567B52LK,05/03/2022 20:13,05/03/2022 20:13,Pay Bill from 254722521028 - CHARLES MONYONCHO Acc. ICB,Completed,17000,,554500,TRUE,Pay Utility,254722521028 - CHARLES MONYONCHO,,ICB
QC50794B2W,05/03/2022 19:55,05/03/2022 19:55,Pay Bill Online from 254715002789 - ERICK NGUGI MAINA Acc. HAG,Completed,16000,,537500,TRUE,Pay Bill Online,254715002789 - ERICK NGUGI MAINA,,HAG
QC5876LJSM,05/03/2022 19:33,05/03/2022 19:33,Pay Bill from 254724952183 - MICHAEL WAMBUA MWOVE Acc. FEA,Completed,15000,,521500,TRUE,Pay Utility,254724952183 - MICHAEL WAMBUA MWOVE,,FEA
QC5970QXKD,05/03/2022 18:38,05/03/2022 18:38,Pay Bill from 254720802644 - MESHACK MAXWELL GANDA Acc. HAB,Completed,15000,,506500,TRUE,Pay Utility,254720802644 - MESHACK MAXWELL GANDA,,HAB
QC546WC8X8,05/03/2022 17:49,05/03/2022 17:49,Pay Bill from 254700290755 - MERCY GOGA Acc. FDD,Completed,10000,,491500,TRUE,Pay Utility with OD via STK,254700290755 - MERCY GOGA,,FDD
QC536ULLX7,05/03/2022 17:30,05/03/2022 17:30,Pay Bill Online from 254798022849 - MARTIN BUNDI RUGENDO Acc. KFH,Completed,10000,,481500,TRUE,Pay Bill Online,254798022849 - MARTIN BUNDI RUGENDO,,KFH
QC546RNH7Y,05/03/2022 16:54,05/03/2022 16:54,Pay Bill from 254712040302 - EMMANUEL MWARO BARASA Acc. KEA,Completed,33000,,471500,TRUE,Pay Utility,254712040302 - EMMANUEL MWARO BARASA,,KEA
QC526QQPGS,05/03/2022 16:42,05/03/2022 16:42,Pay Bill from 254702216907 - FAITH MUSA Acc. KBE ,Completed,10000,,438500,TRUE,Pay Utility with OD via STK,254702216907 - FAITH MUSA,,KBE
QC576PBB3B,05/03/2022 16:23,05/03/2022 16:23,Pay Bill from 254700811449 - JOHN MULIMA ENANE Acc. HCE,Completed,22000,,428500,TRUE,Pay Utility,254700811449 - JOHN MULIMA ENANE,,HCE
QC586P6I7G,05/03/2022 16:21,05/03/2022 16:21,Pay Bill Online from 254712187712 - JUDELEEN SHILOBELE AHINDUKHA Acc. IEA,Completed,14000,,406500,TRUE,Pay Bill Online,254712187712 - JUDELEEN SHILOBELE AHINDUKHA,,IEA
QC556OLYL9,05/03/2022 16:14,05/03/2022 16:14,Pay Bill from 254717801919 - MARCELINE AKINYI Acc. IAF,Completed,10000,,392500,TRUE,Pay Utility,254717801919 - MARCELINE AKINYI,,IAF
QC506I3J22,05/03/2022 14:45,05/03/2022 14:45,Pay Bill from 254722136450 - MARY EVERLYN Acc. JAI,Completed,20000,,382500,TRUE,Pay Utility with OD via STK,254722136450 - MARY EVERLYN,,JAI
QC506D2ZMC,05/03/2022 13:37,05/03/2022 13:37,Pay Bill from 254796069018 - PEACE KIMEU Acc. Hdg,Completed,15000,,362500,TRUE,Pay Utility,254796069018 - PEACE KIMEU,,Hdg
QC536AA95X,05/03/2022 12:58,05/03/2022 12:58,Pay Bill from 254799287000 - Godfrey odhiambo oyugi Acc. kae,Completed,3000,,347500,TRUE,Pay Utility,254799287000 - Godfrey odhiambo oyugi,,kae
QC5066UCPG,05/03/2022 12:10,05/03/2022 12:10,Pay Bill from 254702266191 - IRINE MOMBO Acc. FEC,Completed,9000,,344500,TRUE,Pay Utility,254702266191 - IRINE MOMBO,,FEC
QC5565EBL3,05/03/2022 11:50,05/03/2022 11:50,Pay Bill from 254723499628 - CLINTON JOSEPH MUHARI Acc. hfh,Completed,16000,,335500,TRUE,Pay Utility,254723499628 - CLINTON JOSEPH MUHARI,,hfh
QC58636GJS,05/03/2022 11:19,05/03/2022 11:19,Pay Bill from 254722569870 - LUKA KEITANY Acc. jfj,Completed,15000,,319500,TRUE,Pay Utility,254722569870 - LUKA KEITANY,,jfj
QC5162D4YH,05/03/2022 11:07,05/03/2022 11:07,Pay Bill from 254726337163 - HALIMA ALI HASSAN Acc. DDA,Completed,4000,,304500,TRUE,Pay Utility,254726337163 - HALIMA ALI HASSAN,,DDA
QC5261UTVK,05/03/2022 11:00,05/03/2022 11:00,Pay Bill from 254724103759 - RICHARD NKAABO Acc. jej,Completed,16000,,300500,TRUE,Pay Utility,254724103759 - RICHARD NKAABO,,jej
QC5660MFIK,05/03/2022 10:43,05/03/2022 10:43,Pay Bill from 254706898046 - STACY AKETCH OCHUKA Acc. KGK,Completed,5000,,284500,TRUE,Pay Utility,254706898046 - STACY AKETCH OCHUKA,,KGK
QC535ZILF9,05/03/2022 10:27,05/03/2022 10:27,Pay Bill Online from 254724005780 - IVY MARGARET OGOLA Acc. FFB,Completed,15000,,279500,TRUE,Pay Bill Online,254724005780 - IVY MARGARET OGOLA,,FFB
QC545R1P4W,05/03/2022 08:11,05/03/2022 08:11,Pay Bill from 254724852503 - GEOFREY YEGO Acc. JFF,Completed,10000,,264500,TRUE,Pay Utility,254724852503 - GEOFREY YEGO,,JFF
QC595PSW8B,05/03/2022 07:45,05/03/2022 07:45,Pay Bill from 254724694917 - ROSE NJERI KARANJA Acc. jfa,Completed,20000,,254500,TRUE,Pay Utility,254724694917 - ROSE NJERI KARANJA,,jfa
QC595P5RK7,05/03/2022 07:29,05/03/2022 07:29,Pay Bill Online from 254704403532 - Mercy Chepchirchir Mary Acc. JBC,Completed,6000,,234500,TRUE,Pay Utility with OD Online,254704403532 - Mercy Chepchirchir Mary,,JBC
QC545P1L7A,05/03/2022 07:26,05/03/2022 07:26,Pay Bill Online from 0724386624 - FATUMA ISSE YUSSUF Acc. FAB,Completed,16000,,228500,TRUE,Pay Bill Online,0724386624 - FATUMA ISSE YUSSUF,,FAB
QC565MHDI6,05/03/2022 03:12,05/03/2022 03:12,Pay Bill from 254702355678 - JOHN NJOROGE GICHERU Acc. ITE,Completed,10000,,212500,TRUE,Pay Utility,254702355678 - JOHN NJOROGE GICHERU,,ITE
QC435D3K11,04/03/2022 21:06,04/03/2022 21:06,Pay Bill Online from 254704033042 - LESLIE KOIKAI Acc. IBD,Completed,11000,,202500,TRUE,Pay Bill Online,254704033042 - LESLIE KOIKAI,,IBD
QC465C3SP8,04/03/2022 20:54,04/03/2022 20:54,Pay Bill from 254721115404 - Justine Fayuma Okwemba Acc. HAA,Completed,17000,,191500,TRUE,Pay Utility,254721115404 - Justine Fayuma Okwemba,,HAA
QC4953B8QV,04/03/2022 19:30,04/03/2022 19:30,Pay Bill from 254723341864 - WILLIAM OSIEL WACHUDI Acc. DED,Completed,20000,,174500,TRUE,Pay Utility with OD via STK,254723341864 - WILLIAM OSIEL WACHUDI,,DED
QC414W76S9,04/03/2022 18:23,04/03/2022 18:23,Pay Bill from 254792584569 - LUCY MWALIMO Acc. IAD,Completed,23000,,154500,TRUE,Pay Utility,254792584569 - LUCY MWALIMO,,IAD
QC484UVDLY,04/03/2022 18:08,04/03/2022 18:08,Pay Bill from 254740579741 - MUHINDI MULINYA Acc. HGG,Completed,15000,,131500,TRUE,Pay Utility,254740579741 - MUHINDI MULINYA,,HGG
QC474OVD5Z,04/03/2022 16:58,04/03/2022 16:58,Pay Bill from 254701112397 - ELEMA GODANA DIBA Acc. FCA,Completed,16000,,116500,TRUE,Pay Utility,254701112397 - ELEMA GODANA DIBA,,FCA
QC464O65PC,04/03/2022 16:50,04/03/2022 16:50,Pay Bill from 254720814822 - JAMES OTIENO OPAR Acc. Jgj,Completed,3000,,100500,TRUE,Pay Utility,254720814822 - JAMES OTIENO OPAR,,Jgj
QC464N1SGY,04/03/2022 16:35,04/03/2022 16:35,Pay Bill Online from 254714710698 - TABITHA MULEE KYALO Acc. IFD,Completed,11500,,97500,TRUE,Pay Bill Online,254714710698 - TABITHA MULEE KYALO,,IFD
QC414MTS8F,04/03/2022 16:32,04/03/2022 16:32,Pay Bill from 254724543362 - MERCY CHEPKOGEI KIPRONO Acc. kdc,Completed,10000,,86000,TRUE,Pay Utility,254724543362 - MERCY CHEPKOGEI KIPRONO,,kdc
QC424MQ370,04/03/2022 16:31,04/03/2022 16:31,Pay Bill Online from 254714855708 - KIPLANGAT SITIENEI Acc. FAE,Completed,16000,,76000,TRUE,Pay Bill Online,254714855708 - KIPLANGAT SITIENEI,,FAE
QC464MJB1O,04/03/2022 16:28,04/03/2022 16:28,Pay Bill from 0796797612 - Daisy Dianaressa Naliaka Acc. jbf,Completed,8000,,60000,TRUE,Pay Utility,0796797612 - Daisy Dianaressa Naliaka,,jbf
QC424MABIM,04/03/2022 16:25,04/03/2022 16:25,Pay Bill from 254712974871 - PAULA WANJIKU GATUI Acc. hea,Completed,16000,,52000,TRUE,Pay Utility,254712974871 - PAULA WANJIKU GATUI,,hea
QC404D0LBQ,04/03/2022 14:16,04/03/2022 14:16,Pay Bill from 254715591919 - JOHN O OCHIENG Acc. hcc,Completed,10000,,36000,TRUE,Pay Utility,254715591919 - JOHN O OCHIENG,,hcc
QC4546YJLB,04/03/2022 12:52,04/03/2022 12:52,Pay Bill Online from 254706549634 - CLINTON OMBASA Acc. FDB,Completed,10000,,26000,TRUE,Pay Bill Online,254706549634 - CLINTON OMBASA,,FDB
QC464494IM,04/03/2022 12:13,04/03/2022 12:13,Pay Bill Online from 254795510441 - LEWIS MUEMA Acc. KEB,Completed,16000,,16000,TRUE,Pay Bill Online,254795510441 - LEWIS MUEMA,,KEB
QC4941YS4D,04/03/2022 11:40,04/03/2022 11:40,Utility Account to Organization Settlement Account,Completed,,-661900,0,TRUE,Utility Account to Organization Settlement Account,979524 - ANCIENT WELLS PROPERTY MANAGERS 2,,
QC443YG0N8,04/03/2022 10:50,04/03/2022 10:50,Pay Bill from 0706563358 - HARRIET NYANCHAMA NYABERI Acc. FCC,Completed,9000,,661900,TRUE,Pay Utility,0706563358 - HARRIET NYANCHAMA NYABERI,,FCC
QC423X343G,04/03/2022 10:30,04/03/2022 10:30,Pay Bill from 254719398942 - NORAH WAYUA MUNYAO Acc. KDA,Completed,16000,,652900,TRUE,Pay Utility,254719398942 - NORAH WAYUA MUNYAO,,KDA
QC473VGHTB,04/03/2022 10:06,04/03/2022 10:06,Pay Bill from 254708225541 - JUDITH NKATHA SIMBA Acc. HDH,Completed,16000,,636900,TRUE,Pay Utility,254708225541 - JUDITH NKATHA SIMBA,,HDH
QC433UXEDF,04/03/2022 09:58,04/03/2022 09:58,Pay Bill Online from 0796121714 - janet   mwikali Acc. KBC,Completed,10000,,620900,TRUE,Pay Bill Online,0796121714 - janet   mwikali,,KBC
QC403Q7E32,04/03/2022 08:44,04/03/2022 08:44,Pay Bill from 254798643998 - Judith Mwaniki Acc. kce,Completed,10000,,610900,TRUE,Pay Utility,254798643998 - Judith Mwaniki,,kce
QC493O3JSH,04/03/2022 08:07,04/03/2022 08:07,Pay Bill Online from 254710202776 - KELVIN KARIMI MACHARIA Acc. FAD,Completed,11000,,600900,TRUE,Pay Bill Online,254710202776 - KELVIN KARIMI MACHARIA,,FAD
QC463LBQV4,04/03/2022 07:01,04/03/2022 07:01,Pay Bill from 254729160700 - MICAH NDUNGI Acc. HFE,Completed,10500,,589900,TRUE,Pay Utility,254729160700 - MICAH NDUNGI,,HFE
QC433LAAU9,04/03/2022 07:00,04/03/2022 07:00,Pay Bill Online from 254742911013 - HANEST AMIMO Acc. IEG,Completed,8000,,579400,TRUE,Pay Utility with OD Online,254742911013 - HANEST AMIMO,,IEG
QC393GVMJX,03/03/2022 22:58,03/03/2022 22:58,Pay Bill from 254703935626 - DAVID NGARI ITA Acc. FCD,Completed,1000,,571400,TRUE,Pay Utility,254703935626 - DAVID NGARI ITA,,FCD
QC353D6X3H,03/03/2022 21:39,03/03/2022 21:39,Pay Bill Online from 254705951407 - CAROLINE WAITHIRA KAMAU Acc. IDH,Completed,17000,,570400,TRUE,Pay Bill Online,254705951407 - CAROLINE WAITHIRA KAMAU,,IDH
QC333CUC65,03/03/2022 21:34,03/03/2022 21:34,Pay Bill Online from 254710382992 - SIMON KAMAU MUIRURI Acc. JCD,Completed,15000,,553400,TRUE,Pay Bill Online,254710382992 - SIMON KAMAU MUIRURI,,JCD
QC303CU7FI,03/03/2022 21:33,03/03/2022 21:33,Pay Bill from 254700557767 - BAKHITA MWENDE MUANGE Acc. kcb ,Completed,16000,,538400,TRUE,Pay Utility,254700557767 - BAKHITA MWENDE MUANGE,,kcb
QC32354RQC,03/03/2022 20:05,03/03/2022 20:05,Pay Bill Online from 254717780356 - ALFRED MAIRURA Acc. FAF,Completed,16000,,522400,TRUE,Pay Bill Online,254717780356 - ALFRED MAIRURA,,FAF
QC3632I1E8,03/03/2022 19:41,03/03/2022 19:41,Pay Bill from 0757758972 - BETH MUTHONI KASYOKA Acc. DEA,Completed,16000,,506400,TRUE,Pay Utility,0757758972 - BETH MUTHONI KASYOKA,,DEA
QC352SI3H7,03/03/2022 18:04,03/03/2022 18:04,Pay Bill from 254713497971 - GERISHON NDUNG'U KOMU Acc. HGH,Completed,17000,,490400,TRUE,Pay Utility,254713497971 - GERISHON NDUNG'U KOMU,,HGH
QC372MRXFD,03/03/2022 16:56,03/03/2022 16:56,Pay Bill from 254714814264 - PATRICIA NZOMO Acc. Hbg,Completed,16000,,473400,TRUE,Pay Utility with OD via STK,254714814264 - PATRICIA NZOMO,,Hbg
QC332D0W0V,03/03/2022 14:38,03/03/2022 14:38,Pay Bill from 254720044312 - ELIUD KIPKURUI Acc. FCF,Completed,5000,,457400,TRUE,Pay Utility with OD via STK,254720044312 - ELIUD KIPKURUI,,FCF
QC312ASZAB,03/03/2022 14:07,03/03/2022 14:07,Pay Bill from 254721852723 - HASSAN ABDINOOR MOHAMED Acc. jaa,Completed,15400,,452400,TRUE,Pay Utility,254721852723 - HASSAN ABDINOOR MOHAMED,,jaa
QC3229YHQE,03/03/2022 13:55,03/03/2022 13:55,Pay Bill Online from 254722728975 - CURTIS MRIGA OMIDO Acc. IAH,Completed,16000,,437000,TRUE,Pay Bill Online,254722728975 - CURTIS MRIGA OMIDO,,IAH
QC3424UK4Y,03/03/2022 12:44,03/03/2022 12:44,Pay Bill from 254721780448 - EVERLYNE MIDEVA CHOGO Acc. JCA,Completed,21000,,421000,TRUE,Pay Utility,254721780448 - EVERLYNE MIDEVA CHOGO,,JCA
QC3722OTDH,03/03/2022 12:13,03/03/2022 12:13,Pay Bill from 254702144275 - CAROLYNE MAKENA KARIA Acc. JFB,Completed,15000,,400000,TRUE,Pay Utility,254702144275 - CAROLYNE MAKENA KARIA,,JFB
QC37210ALN,03/03/2022 11:49,03/03/2022 11:49,Pay Bill Online from 254720044312 - ELIUD KIPKURUI Acc. FCF,Completed,9000,,385000,TRUE,Pay Utility with OD Online,254720044312 - ELIUD KIPKURUI,,FCF
QC3120GQBV,03/03/2022 11:41,03/03/2022 11:41,Pay Bill from 254723966777 - BONIFACE MUTHAKA NGANGA Acc. IEC,Completed,9000,,376000,TRUE,Pay Utility,254723966777 - BONIFACE MUTHAKA NGANGA,,IEC
QC361ZHQ52,03/03/2022 11:28,03/03/2022 11:28,Pay Bill from 254725771056 - CHARLES MURAGURI Acc. FCE,Completed,15000,,367000,TRUE,Pay Utility,254725771056 - CHARLES MURAGURI,,FCE
QC321WJCYE,03/03/2022 10:46,03/03/2022 10:46,Pay Bill from 254728854349 - JOSEPH MUSYOKA Acc. IBG,Completed,8000,,352000,TRUE,Pay Utility,254728854349 - JOSEPH MUSYOKA,,IBG
QC381W4WS6,03/03/2022 10:41,03/03/2022 10:41,Pay Bill from 254704111133 - ELVIS OTIENO Acc. HFD,Completed,2000,,344000,TRUE,Pay Utility,254704111133 - ELVIS OTIENO,,HFD
QC301U4WJ4,03/03/2022 10:13,03/03/2022 10:13,Pay Bill from 254743243622 - fridah waeni muithya Acc. JEH,Completed,16000,,342000,TRUE,Pay Utility,254743243622 - fridah waeni muithya,,JEH
QC351SJAUH,03/03/2022 09:49,03/03/2022 09:49,Pay Bill Online from 254792187144 - HASSAN AHMED HASSAN Acc. KGI,Completed,10000,,326000,TRUE,Pay Bill Online,254792187144 - HASSAN AHMED HASSAN,,KGI
QC341S2KKI,03/03/2022 09:43,03/03/2022 09:43,Pay Bill Online from 254704403532 - Mercy Chepchirchir Mary Acc. JBC,Completed,5000,,316000,TRUE,Pay Utility with OD Online,254704403532 - Mercy Chepchirchir Mary,,JBC
QC301M96X4,03/03/2022 08:12,03/03/2022 08:12,Pay Bill Online from 254790627132 - Everline Mutave Kiio Acc. IGG,Completed,8000,,311000,TRUE,Pay Bill Online,254790627132 - Everline Mutave Kiio,,IGG
QC351KIEY3,03/03/2022 07:38,03/03/2022 07:38,Pay Bill Online from 254725218904 - SALOME MUTHONI MWANGI Acc. KFJ,Completed,15000,,303000,TRUE,Pay Bill Online,254725218904 - SALOME MUTHONI MWANGI,,KFJ
QC371ISODN,03/03/2022 06:53,03/03/2022 06:53,Pay Bill from 254716702294 - DANIEL MULATI Acc. KBB,Completed,22000,,288000,TRUE,Pay Utility,254716702294 - DANIEL MULATI,,KBB
QC311IBV7X,03/03/2022 06:35,03/03/2022 06:35,Pay Bill from 254723929380 - RHODAH K WAMBUA Acc. HEF,Completed,9500,,266000,TRUE,Pay Utility,254723929380 - RHODAH K WAMBUA,,HEF
QC311GA5PT,03/03/2022 01:21,03/03/2022 01:21,Pay Bill from 0758001057 - sahara mohamed edow Acc. IGF,Completed,10000,,256500,TRUE,Pay Utility,0758001057 - sahara mohamed edow,,IGF
QC231D38KD,02/03/2022 22:28,02/03/2022 22:28,Pay Bill Online from 254708300413 - ROBINSON AYAKO Acc. KEH,Completed,10000,,246500,TRUE,Pay Bill Online,254708300413 - ROBINSON AYAKO,,KEH
QC271CYCDF,02/03/2022 22:25,02/03/2022 22:25,Pay Bill from 254790382466 - Lorraine Mwangi Acc. KGC,Completed,9000,,236500,TRUE,Pay Utility,254790382466 - Lorraine Mwangi,,KGC
QC2213CNGM,02/03/2022 20:16,02/03/2022 20:16,Pay Bill from 254721417560 - ANDREW SANDE Acc. JBJ,Completed,16000,,227500,TRUE,Pay Utility,254721417560 - ANDREW SANDE,,JBJ
QC21ZY3HY3,02/03/2022 19:29,02/03/2022 19:29,Pay Bill Online from 254704682516 - Winnie Akinyi Omollo Acc. FDA,Completed,16000,,211500,TRUE,Pay Bill Online,254704682516 - Winnie Akinyi Omollo,,FDA
QC26ZUULZ0,02/03/2022 19:01,02/03/2022 19:01,Pay Bill from 254712283818 - OYUGI OCHIENG Acc. FCB,Completed,21500,,195500,TRUE,Pay Utility with OD via STK,254712283818 - OYUGI OCHIENG,,FCB
QC29ZTKN11,02/03/2022 18:49,02/03/2022 18:49,Pay Bill from 254726753273 - JESSE K MURIRMI NJERU Acc. HCH,Completed,17000,,174000,TRUE,Pay Utility,254726753273 - JESSE K MURIRMI NJERU,,HCH
QC22ZSTO6K,02/03/2022 18:41,02/03/2022 18:41,Pay Bill from 254114394078 - pascaline iteriteka Acc. JEG,Completed,10000,,157000,TRUE,Pay Utility,254114394078 - pascaline iteriteka,,JEG
QC26ZPRTLY,02/03/2022 18:09,02/03/2022 18:09,Pay Bill from 254723389177 - NELSON MOI Acc. ibf,Completed,1000,,147000,TRUE,Pay Utility,254723389177 - NELSON MOI,,ibf
QC29ZPMUJ3,02/03/2022 18:07,02/03/2022 18:07,Pay Bill from 254720814822 - JAMES OTIENO OPAR Acc. Jgj,Completed,3000,,146000,TRUE,Pay Utility,254720814822 - JAMES OTIENO OPAR,,Jgj
QC25ZPCUPN,02/03/2022 18:04,02/03/2022 18:04,Pay Bill from 254798674917 - Egbe Okpaga Okpaga Acc. HAD,Completed,9500,,143000,TRUE,Pay Utility,254798674917 - Egbe Okpaga Okpaga,,HAD
QC25ZJWSYH,02/03/2022 16:59,02/03/2022 16:59,Pay Bill Online from 254718138578 - PAULINE KIOKO Acc. KFD,Completed,12000,,133500,TRUE,Pay Bill Online,254718138578 - PAULINE KIOKO,,KFD
QC21ZJBUPL,02/03/2022 16:52,02/03/2022 16:52,Pay Bill from 254726172957 - VINCENT OLIENG' Acc. HBC,Completed,10000,,121500,TRUE,Pay Utility,254726172957 - VINCENT OLIENG',,HBC
QC20ZI5NLS,02/03/2022 16:36,02/03/2022 16:36,Pay Bill from 0797758628 - jackline nyamari onyango Acc. ICF ,Completed,11000,,111500,TRUE,Pay Utility,0797758628 - jackline nyamari onyango,,ICF
QC28ZERPE8,02/03/2022 15:48,02/03/2022 15:48,Pay Bill from 254799287000 - Godfrey odhiambo oyugi Acc. kae,Completed,7000,,100500,TRUE,Pay Utility,254799287000 - Godfrey odhiambo oyugi,,kae
QC21ZD1KLV,02/03/2022 15:23,02/03/2022 15:23,Pay Bill from 0115702401 - John Kamau Kanyiri Acc. HFF,Completed,10000,,93500,TRUE,Pay Utility,0115702401 - John Kamau Kanyiri,,HFF
QC23ZAIMRL,02/03/2022 14:46,02/03/2022 14:46,Pay Bill from 254716000009 - EVANS KIPROTICH YEBEI Acc. KCH,Completed,10000,,83500,TRUE,Pay Utility with OD via STK,254716000009 - EVANS KIPROTICH YEBEI,,KCH
QC21Z9J03Z,02/03/2022 14:32,02/03/2022 14:32,Pay Bill from 254723389177 - NELSON MOI Acc. ibf,Completed,1000,,73500,TRUE,Pay Utility,254723389177 - NELSON MOI,,ibf
QC26Z7P266,02/03/2022 14:05,02/03/2022 14:05,Pay Bill Online from 254722917617 - MOSES BARBOI Acc. KAI,Completed,12000,,72500,TRUE,Pay Bill Online,254722917617 - MOSES BARBOI,,KAI
QC20Z6YLCM,02/03/2022 13:55,02/03/2022 13:55,Pay Bill from 254718244582 - GRANT WANANGWE Acc. KAH,Completed,10000,,60500,TRUE,Pay Utility,254718244582 - GRANT WANANGWE,,KAH
QC26Z3UKXU,02/03/2022 13:12,02/03/2022 13:12,Pay Bill from 254714060203 - PATRICK MWANGOMBE MSAWUCHI Acc. KEI,Completed,12000,,50500,TRUE,Pay Utility,254714060203 - PATRICK MWANGOMBE MSAWUCHI,,KEI
QC22Z3NXYO,02/03/2022 13:09,02/03/2022 13:09,Pay Bill from 254715742045 - FRIDAH KIEMA Acc. HGC,Completed,9500,,38500,TRUE,Pay Utility,254715742045 - FRIDAH KIEMA,,HGC
QC27Z2WQ6L,02/03/2022 12:59,02/03/2022 12:59,Pay Bill from 0727767977 - Amos Kipkemboi Kiplagat Acc. IBI,Completed,5000,,29000,TRUE,Pay Utility,0727767977 - Amos Kipkemboi Kiplagat,,IBI
QC26Z24M0S,02/03/2022 12:48,02/03/2022 12:48,Pay Bill Online from 254720696119 - DUNCAN OMONDI OKETCH Acc. IAG,Completed,9000,,24000,TRUE,Pay Bill Online,254720696119 - DUNCAN OMONDI OKETCH,,IAG
QC26YVSLZC,02/03/2022 11:15,02/03/2022 11:15,Pay Bill from 254717438676 - SHIHAB THIIRU Acc. IEI,Completed,15000,,15000,TRUE,Pay Utility with OD via STK,254717438676 - SHIHAB THIIRU,,IEI
QC22YS6S3S,02/03/2022 10:22,02/03/2022 10:22,Utility Account to Organization Settlement Account,Completed,,-407500,0,TRUE,Utility Account to Organization Settlement Account,979524 - ANCIENT WELLS PROPERTY MANAGERS 2,,
QC29YQFFN1,02/03/2022 09:55,02/03/2022 09:55,Pay Bill Online from 254725381062 - VICTOR MAITHYA Acc. HEG,Completed,3000,,407500,TRUE,Pay Utility with OD Online,254725381062 - VICTOR MAITHYA,,HEG
QC25YKMUO5,02/03/2022 08:21,02/03/2022 08:21,Pay Bill from 254728084427 - MARY NABWIRE OKELLO Acc. FDF,Completed,16000,,404500,TRUE,Pay Utility,254728084427 - MARY NABWIRE OKELLO,,FDF
QC18YCDV1C,01/03/2022 22:52,01/03/2022 22:52,Pay Bill from 254718284151 - EVERLINE MATHEKA Acc. JAG,Completed,9000,,388500,TRUE,Pay Utility,254718284151 - EVERLINE MATHEKA,,JAG
QC10YC0PXG,01/03/2022 22:41,01/03/2022 22:41,Pay Bill from 254724477912 - SAMUEL MURIMI Acc. HCD,Completed,10000,,379500,TRUE,Pay Utility with OD via STK,254724477912 - SAMUEL MURIMI,,HCD
QC13YB5IX7,01/03/2022 22:19,01/03/2022 22:19,Pay Bill from 254703935626 - DAVID NGARI ITA Acc. FCD,Completed,1000,,369500,TRUE,Pay Utility,254703935626 - DAVID NGARI ITA,,FCD
QC13Y7XH1L,01/03/2022 21:24,01/03/2022 21:24,Pay Bill from 254720931300 - ESTHER WANJIRU NDUNGO Acc. KGE ,Completed,9000,,368500,TRUE,Pay Utility,254720931300 - ESTHER WANJIRU NDUNGO,,KGE
QC15Y4WG63,01/03/2022 20:46,01/03/2022 20:46,Pay Bill from 254728670882 - SHARAD EDWARD ADALA OLUM Acc. KCK,Completed,15000,,359500,TRUE,Pay Utility,254728670882 - SHARAD EDWARD ADALA OLUM,,KCK
QC19Y3VIUX,01/03/2022 20:35,01/03/2022 20:35,Pay Bill from 0726465363 - ISAAC KITONGA JOSEPH Acc. IDG,Completed,10000,,344500,TRUE,Pay Utility,0726465363 - ISAAC KITONGA JOSEPH,,IDG
QC13Y316BD,01/03/2022 20:26,01/03/2022 20:26,Pay Bill from 254728888511 - HAMISI MIRITI Acc. KAK,Completed,16000,,334500,TRUE,Pay Utility,254728888511 - HAMISI MIRITI,,KAK
QC10Y1L0XQ,01/03/2022 20:11,01/03/2022 20:11,Pay Bill from 254716715043 - HANNAH WATETU GACHAGUA Acc. IAI,Completed,5000,,318500,TRUE,Pay Utility with OD via STK,254716715043 - HANNAH WATETU GACHAGUA,,IAI
QC15XX7KMP,01/03/2022 19:32,01/03/2022 19:32,Pay Bill Online from 254706158280 - patience mutheu mbevi Acc. KFC,Completed,10000,,313500,TRUE,Pay Bill Online,254706158280 - patience mutheu mbevi,,KFC
QC19XWBHFB,01/03/2022 19:25,01/03/2022 19:25,Pay Bill from 254729450678 - GRACE NDUNGE Acc. fba,Completed,6000,,303500,TRUE,Pay Utility with OD via STK,254729450678 - GRACE NDUNGE,,fba
QC13XQYQ8V,01/03/2022 18:35,01/03/2022 18:35,Pay Bill Online from 254728093389 - MOHAMED MUSA ALASOW Acc. KED ,Completed,12000,,297500,TRUE,Pay Bill Online,254728093389 - MOHAMED MUSA ALASOW,,KED
QC12XPI0GA,01/03/2022 18:20,01/03/2022 18:20,Pay Bill Online from 254711562428 - Lionel Mutune Muoka Acc. KDI,Completed,11000,,285500,TRUE,Pay Bill Online,254711562428 - Lionel Mutune Muoka,,KDI
QC13XKM6T3,01/03/2022 17:25,01/03/2022 17:25,Pay Bill Online from 254726028330 - JOHN WAMBUA Acc. IFH,Completed,15000,,274500,TRUE,Pay Bill Online,254726028330 - JOHN WAMBUA,,IFH
QC12XJ0ZOG,01/03/2022 17:06,01/03/2022 17:06,Pay Bill from 254721302658 - JACOB BIRUNDU Acc. HDE,Completed,10000,,259500,TRUE,Pay Utility,254721302658 - JACOB BIRUNDU,,HDE
QC19XI6P93,01/03/2022 16:55,01/03/2022 16:55,Pay Bill Online from 254725381062 - VICTOR MAITHYA Acc. HEG,Completed,8000,,249500,TRUE,Pay Bill Online,254725381062 - VICTOR MAITHYA,,HEG
QC17XGYCS9,01/03/2022 16:39,01/03/2022 16:39,Pay Bill from 254701112397 - ELEMA GODANA DIBA Acc. FCA,Completed,10500,,241500,TRUE,Pay Utility,254701112397 - ELEMA GODANA DIBA,,FCA
QC18XFM60W,01/03/2022 16:20,01/03/2022 16:20,Pay Bill from 254729796719 - JACINTA WANJIKU NJERI Acc. FFF,Completed,17000,,231000,TRUE,Pay Utility,254729796719 - JACINTA WANJIKU NJERI,,FFF
QC14XDPLEI,01/03/2022 15:53,01/03/2022 15:53,Pay Bill Online from 254716315144 - PETER MUNYIRI WAROTERE Acc. FBB,Completed,16000,,214000,TRUE,Pay Bill Online,254716315144 - PETER MUNYIRI WAROTERE,,FBB
QC14XBI5HU,01/03/2022 15:21,01/03/2022 15:21,Pay Bill from 254796292434 - ANTONINA HAYA Acc. HED,Completed,10000,,198000,TRUE,Pay Utility,254796292434 - ANTONINA HAYA,,HED
QC15X9GD0T,01/03/2022 14:50,01/03/2022 14:50,Pay Bill from 254729450678 - GRACE NDUNGE Acc. fba,Completed,9000,,188000,TRUE,Pay Utility with OD via STK,254729450678 - GRACE NDUNGE,,fba
QC10X2D49Y,01/03/2022 13:07,01/03/2022 13:07,Pay Bill from 0757319222 - ATEM KUOL JOHN BOL Acc. fac,Completed,20000,,179000,TRUE,Pay Utility,0757319222 - ATEM KUOL JOHN BOL,,fac
QC14X1EU56,01/03/2022 12:54,01/03/2022 12:54,Pay Bill Online from 254719134037 - KELVIN KITOO Acc. FAA,Completed,16000,,159000,TRUE,Pay Utility with OD Online,254719134037 - KELVIN KITOO,,FAA
QC11WYT83F,01/03/2022 12:15,01/03/2022 12:15,Pay Bill from 254111542144 - GAI MANYOK REECH Acc. KGG,Completed,10000,,143000,TRUE,Pay Utility,254111542144 - GAI MANYOK REECH,,KGG
QC14WSFLZ8,01/03/2022 10:38,01/03/2022 10:38,Pay Bill from 254728901013 - ALEX MOSE ARWASA Acc. HGD,Completed,10000,,133000,TRUE,Pay Utility,254728901013 - ALEX MOSE ARWASA,,HGD
QC11WROBMZ,01/03/2022 10:27,01/03/2022 10:27,Pay Bill Online from 254722921132 - JOE MCCRAY MURIUKI KIHIA Acc. IFA,Completed,15000,,123000,TRUE,Pay Utility with OD Online,254722921132 - JOE MCCRAY MURIUKI KIHIA,,IFA
QC19WP92YH,01/03/2022 09:50,01/03/2022 09:50,Pay Bill Online from 254725381062 - VICTOR MAITHYA Acc. HEG,Completed,3000,,108000,TRUE,Pay Bill Online,254725381062 - VICTOR MAITHYA,,HEG
QC19WONQ6X,01/03/2022 09:41,01/03/2022 09:41,Pay Bill from 0717216114 - Felix Njeru Mugambi Acc. kdf,Completed,10000,,105000,TRUE,Pay Utility,0717216114 - Felix Njeru Mugambi,,kdf
QC10WM2Y1Y,01/03/2022 08:59,01/03/2022 08:59,Pay Bill from 254717726012 - WINFRED MUENI PETER Acc. IDA,Completed,16000,,95000,TRUE,Pay Utility,254717726012 - WINFRED MUENI PETER,,IDA
QC19WKCFKP,01/03/2022 08:29,01/03/2022 08:29,Pay Bill Online from 254725381062 - VICTOR MAITHYA Acc.  ,Completed,12000,,79000,TRUE,Pay Bill Online,254725381062 - VICTOR MAITHYA,,
QC10WCGDBQ,01/03/2022 00:05,01/03/2022 00:05,Pay Bill from 254708570729 - MARY OGOLLA Acc. KAD,Completed,12000,,67000,TRUE,Pay Utility,254708570729 - MARY OGOLLA,,KAD
