Receipt No.,Completion Time,Initiation Time,Details,Transaction Status,Paid In,Withdrawn,Balance,Balance Confirmed,Reason Type,Other Party Info,Linked Transaction ID,A/C No.
SB565RJ7SU,05/02/2024 14:42,05/02/2024 14:42,Pay Bill Online from 254712***161 - ANGELA *** Acc. A202,Completed,90000,,144000,TRUE,Pay Bill Online,254712***161 - ANGELA ***,,A202
SB491CNWG5,04/02/2024 09:23,04/02/2024 09:23,Pay Bill Online from 254723***186 - BRIAN *** Acc. 18,Completed,16000,,54000,TRUE,Pay Bill Online,254723***186 - BRIAN ***,,18
SB29TVW0JX,02/02/2024 13:55,02/02/2024 13:55,Utility Account to Organization Settlement Account,Completed,,-20000,38000,TRUE,Utility Account to Organization Settlement Account,887264 - ANCIENT WELLS LTD 2,,
SB17RYV0TV,01/02/2024 20:41,01/02/2024 20:41,Pay Bill from 254741***919 - Linet *** Acc. u3,Completed,5000,,58000,TRUE,Pay Utility,254741***919 - Linet ***,,u3
