Receipt No.,Completion Time,Initiation Time,Details,Transaction Status,Paid In,Withdrawn,Balance,Balance Confirmed,Reason Type,Other Party Info,Linked Transaction ID,A/C No.
OFH1ZYKZNJ,17/06/2020 10:21,17/06/2020 10:21,Pay Bill from 0705448526 - HASSAN HAJIR MURSAL Acc. kbj,Completed,16000,,77000,TRUE,Pay Utility,0705448526 - HASSAN HAJIR MURSAL,,kbj
OFH2ZWK4H4,17/06/2020 09:14,17/06/2020 09:14,Pay Bill from 254703935626 - DAVID NGARI ITA Acc. FCD,Completed,9000,,61000,TRUE,Pay Utility,254703935626 - DAVID NGARI ITA,,FCD
OFG5ZOBSCZ,16/06/2020 20:09,16/06/2020 20:09,Pay Bill from 0748059595 - Rashid NASSIR Khamis Acc. DDA,Completed,5000,,52000,TRUE,Pay Utility,0748059595 - Rashid NASSIR Khamis,,DDA
OFG1ZNN5VT,16/06/2020 19:53,16/06/2020 19:53,Pay Bill from 0722950695 - Joshua Mbithi Kivondo Acc. Dca,Completed,15000,,47000,TRUE,Pay Utility,0722950695 - Joshua Mbithi Kivondo,,Dca
OFG3ZMQPCX,16/06/2020 19:34,16/06/2020 19:34,Pay Bill from 254720927770 - CHRISTOPHER MWANGE Acc. HFC,Completed,10000,,32000,TRUE,Pay Utility with OD via STK,254720927770 - CHRISTOPHER MWANGE,,HFC
OFG9Z9YNV7,16/06/2020 14:36,16/06/2020 14:36,Pay Bill Online from 254729425253 - FATUMA MOHAMMED MWAJASI Acc. HBB,Completed,7000,,22000,TRUE,Pay Utility with OD Online,254729425253 - FATUMA MOHAMMED MWAJASI,,HBB
OFG4Z9LMZ2,16/06/2020 14:25,16/06/2020 14:25,Pay Bill from 254729258441 - ROBERT RONO KULEI Acc. JAB,Completed,15000,,15000,TRUE,Pay Utility,254729258441 - ROBERT RONO KULEI,,JAB
OFG2Z18JK4,16/06/2020 10:10,16/06/2020 10:10,Utility Account to Organization Settlement Account,Completed,,-123000,0,TRUE,Utility Account to Organization Settlement Account,979524 - ANCIENT WELLS PROPERTY MANAGERS 2,,
OFG3YZZ185,16/06/2020 09:28,16/06/2020 09:28,Pay Bill Online from 254724398579 - PETER DAVID OWINO OLENDI Acc.  ,Completed,10500,,123000,TRUE,Pay Bill Online,254724398579 - PETER DAVID OWINO OLENDI,,
OFG8YY7OGI,16/06/2020 08:22,16/06/2020 08:22,Pay Bill from 254700627058 - SUSY NABALAYO CHELONGO Acc. dbb,Completed,16000,,112500,TRUE,Pay Utility,254700627058 - SUSY NABALAYO CHELONGO,,dbb
OFG4YX8CZ2,16/06/2020 07:35,16/06/2020 07:35,Pay Bill from 254710370277 - MAYAKA NYABOKE BRIGED Acc. HBA,Completed,17000,,96500,TRUE,Pay Utility,254710370277 - MAYAKA NYABOKE BRIGED,,HBA
OFF7YQYUDP,15/06/2020 19:45,15/06/2020 19:45,Pay Bill from 254727003033 - MARTIN NJUGUNA NYINGI Acc. JEG,Completed,1500,,79500,TRUE,Pay Utility,254727003033 - MARTIN NJUGUNA NYINGI,,JEG
OFF1YMLTUF,15/06/2020 18:14,15/06/2020 18:14,Pay Bill from 254720795510 - JONAH KIPKEMBOI ROTICH Acc. KAK,Completed,17000,,78000,TRUE,Pay Utility,254720795510 - JONAH KIPKEMBOI ROTICH,,KAK
OFF8YI17F8,15/06/2020 16:28,15/06/2020 16:28,Pay Bill from 254706135188 - GABRIELLA EMMY Acc. JDD,Completed,4000,,61000,TRUE,Pay Utility,254706135188 - GABRIELLA EMMY,,JDD
OFF5YHPWON,15/06/2020 16:20,15/06/2020 16:20,Pay Bill Online from 254728103722 - YASSIR MWINYI ABDULRAZAQ Acc. ICE,Completed,6000,,57000,TRUE,Pay Bill Online,254728103722 - YASSIR MWINYI ABDULRAZAQ,,ICE
OFF2YDLN88,15/06/2020 14:24,15/06/2020 14:24,Pay Bill from 254702654503 - LARRY OMBAKA Acc. KFF,Completed,3000,,51000,TRUE,Pay Utility with OD via STK,254702654503 - LARRY OMBAKA,,KFF
OFF0Y9EECW,15/06/2020 12:20,15/06/2020 12:20,Pay Bill from 254706159636 - titus omondi abuodha Acc. HBC,Completed,9000,,48000,TRUE,Pay Utility,254706159636 - titus omondi abuodha,,HBC
OFF9Y964OR,15/06/2020 12:13,15/06/2020 12:13,Pay Bill from 254726227698 - Victor Omondi Acc. JDC ,Completed,5000,,39000,TRUE,Pay Utility,254726227698 - Victor Omondi,,JDC
OFF2Y8EERU,15/06/2020 11:50,15/06/2020 11:50,Pay Bill from 254710537468 - DONALDO AMIOL JUAC AKEC Acc. jdg,Completed,5000,,34000,TRUE,Pay Utility,254710537468 - DONALDO AMIOL JUAC AKEC,,jdg
OFF7Y6PDT5,15/06/2020 10:59,15/06/2020 10:59,Pay Bill from 254726405755 - EDWARD NGONGE Acc. dgc,Completed,29000,,29000,TRUE,Pay Utility,254726405755 - EDWARD NGONGE,,dgc
OFE2XYHNVO,14/06/2020 21:41,14/06/2020 21:41,Utility Account to Organization Settlement Account,Completed,,-204500,0,TRUE,Utility Account to Organization Settlement Account,979524 - ANCIENT WELLS PROPERTY MANAGERS 2,,
OFE6XMEXW2,14/06/2020 16:08,14/06/2020 16:08,Pay Bill from 254713966424 - NDUTI MUTHUI Acc. jed,Completed,15000,,204500,TRUE,Pay Utility,254713966424 - NDUTI MUTHUI,,jed
OFE6XE6I78,14/06/2020 11:58,14/06/2020 11:58,Pay Bill Online from 254725248080 - DENNIS KIPROTICH Acc. IBE,Completed,9500,,189500,TRUE,Pay Bill Online,254725248080 - DENNIS KIPROTICH,,IBE
OFE2X9QP3G,14/06/2020 09:26,14/06/2020 09:26,Pay Bill from 254726928933 - JOSHUA NDUNDA NZIOKA Acc. KCJ,Completed,12000,,180000,TRUE,Pay Utility with OD via STK,254726928933 - JOSHUA NDUNDA NZIOKA,,KCJ
OFE9X7Q4H7,14/06/2020 07:59,14/06/2020 07:59,Pay Bill from 254791154655 - ELISHA JURA Acc. IAH,Completed,18000,,168000,TRUE,Pay Utility,254791154655 - ELISHA JURA,,IAH
OFE9X5UEYX,14/06/2020 01:00,14/06/2020 01:00,Pay Bill from 254716369842 - HUMMAM HAMID MOHAMED SAID AMBER Acc. FGC,Completed,1000,,150000,TRUE,Pay Utility with OD via STK,254716369842 - HUMMAM HAMID MOHAMED SAID AMBER,,FGC
OFD7X54R9J,13/06/2020 22:30,13/06/2020 22:30,Pay Bill from 254715326205 - GEORGE MURANGIRI KOBIA Acc. FBB,Completed,17000,,149000,TRUE,Pay Utility,254715326205 - GEORGE MURANGIRI KOBIA,,FBB
OFD8X27J9S,13/06/2020 20:19,13/06/2020 20:19,Pay Bill from 254715764212 - BANCE ISHEMINYE Acc. JFE ,Completed,5000,,132000,TRUE,Pay Utility,254715764212 - BANCE ISHEMINYE,,JFE
OFD8WVFI0W,13/06/2020 17:51,13/06/2020 17:51,Pay Bill from 254720458054 - ROBERT BETT Acc. ICH,Completed,10000,,127000,TRUE,Pay Utility,254720458054 - ROBERT BETT,,ICH
OFD7WSCFNR,13/06/2020 16:39,13/06/2020 16:39,Pay Bill from 0790273411 - MUHAMEDMALIK   GAAL Acc. FDF,Completed,16000,,117000,TRUE,Pay Utility,0790273411 - MUHAMEDMALIK   GAAL,,FDF
OFD8WP0786,13/06/2020 15:12,13/06/2020 15:12,Pay Bill from 254722249092 - MARIAM ABDULLAHI Acc. KEH,Completed,8000,,101000,TRUE,Pay Utility,254722249092 - MARIAM ABDULLAHI,,KEH
OFD9WJ3OZL,13/06/2020 12:23,13/06/2020 12:23,Pay Bill from 254790799823 - HINO ASAFA AILA Acc. FGE,Completed,32000,,93000,TRUE,Pay Utility,254790799823 - HINO ASAFA AILA,,FGE
OFD4WH9X0S,13/06/2020 11:27,13/06/2020 11:27,Pay Bill from 254724680704 - PATRICK MWANDO Acc. fbf,Completed,17000,,61000,TRUE,Pay Utility,254724680704 - PATRICK MWANDO,,fbf
OFD7WA9C31,13/06/2020 06:38,13/06/2020 06:38,Pay Bill from 254721894887 - EDMOND NYAMWEYA Acc. dad ,Completed,20000,,44000,TRUE,Pay Utility,254721894887 - EDMOND NYAMWEYA,,dad
OFC5W49KTL,12/06/2020 19:41,12/06/2020 19:41,Pay Bill from 254718292893 - HERINE ELSEBA ATIENO Acc. IFI,Completed,5000,,24000,TRUE,Pay Utility,254718292893 - HERINE ELSEBA ATIENO,,IFI
OFC4W35MNO,12/06/2020 19:17,12/06/2020 19:17,Pay Bill Online from 254722170279 - GEOFFREY GETUI Acc. FDE,Completed,16000,,19000,TRUE,Pay Bill Online,254722170279 - GEOFFREY GETUI,,FDE
OFC2W27KH4,12/06/2020 18:58,12/06/2020 18:58,Pay Bill from 254710381003 - ALFRED KISHOIN Acc. IBC ,Completed,3000,,3000,TRUE,Pay Utility,254710381003 - ALFRED KISHOIN,,IBC
OFC1VLIPM9,12/06/2020 11:43,12/06/2020 11:43,Utility Account to Organization Settlement Account,Completed,,-111000,0,TRUE,Utility Account to Organization Settlement Account,979524 - ANCIENT WELLS PROPERTY MANAGERS 2,,
OFB5V92XLJ,11/06/2020 20:16,11/06/2020 20:16,Pay Bill from 254714710698 - TABITHA MULEE KYALO Acc. IFE,Completed,9000,,111000,TRUE,Pay Utility,254714710698 - TABITHA MULEE KYALO,,IFE
OFB9V3YP47,11/06/2020 18:24,11/06/2020 18:24,Pay Bill from 254703375006 - KEN RODGERS Acc. DBA,Completed,5000,,102000,TRUE,Pay Utility with OD via STK,254703375006 - KEN RODGERS,,DBA
OFB3V0CNJX,11/06/2020 17:03,11/06/2020 17:03,Pay Bill from 254700052170 - EMMANUEL MUTYETU Acc. KBF,Completed,10000,,97000,TRUE,Pay Utility,254700052170 - EMMANUEL MUTYETU,,KBF
OFB6UVKOD8,11/06/2020 14:51,11/06/2020 14:51,Pay Bill from 254711397174 - JASEL HOPE ANTONINA Acc. kef,Completed,6000,,87000,TRUE,Pay Utility,254711397174 - JASEL HOPE ANTONINA,,kef
OFB1UQEYUR,11/06/2020 12:13,11/06/2020 12:13,Pay Bill from 254725255978 - DICKSON OLUOCH Acc. JFF,Completed,10000,,81000,TRUE,Pay Utility,254725255978 - DICKSON OLUOCH,,JFF
OFB3UPKPHB,11/06/2020 11:47,11/06/2020 11:47,Pay Bill from 254726380203 - SHARON OLENDO Acc. HCA,Completed,18000,,71000,TRUE,Pay Utility,254726380203 - SHARON OLENDO,,HCA
OFB0UOA5XI,11/06/2020 11:06,11/06/2020 11:06,Pay Bill from 254710814215 - JOAN NYAMBURA KAMAU Acc. jci,Completed,20000,,53000,TRUE,Pay Utility,254710814215 - JOAN NYAMBURA KAMAU,,jci
