Receipt No.,Completion Time,Initiation Time,Details,Transaction Status,Paid In,Withdrawn,Balance,Balance Confirmed,Reason Type,Other Party Info,Linked Transaction ID,A/C No.
RG46N1UND6,04/07/2023 04:39,04/07/2023 04:39,Pay Bill from 254728670882 - SHARAD EDWARD ADALA OLUM Acc. KCK,Completed,2400,,49150,TRUE,Pay Utility,254728670882 - SHARAD EDWARD ADALA OLUM,,KCK
RG45N0A6UB,04/07/2023 00:38,04/07/2023 00:38,Pay Bill Online from 254705846408 - JAMES OUMA Acc. HBH,Completed,2000,,46750,TRUE,Pay Bill Online,254705846408 - JAMES OUMA,,HBH
RG34MXLXA0,03/07/2023 22:49,03/07/2023 22:49,Pay Bill from 254741791919 - Linet Mongina Maraga Acc. u3,Completed,450,,44750,TRUE,Pay Utility,254741791919 - Linet Mongina Maraga,,u3
RG39MX7RDH,03/07/2023 22:41,03/07/2023 22:41,Pay Bill Online from 0722255105 - SALIM OMAR MZEE Acc. FGF water,Completed,3600,,44300,TRUE,Pay Utility with OD Online,0722255105 - SALIM OMAR MZEE,,FGF
RG39MPJS91,03/07/2023 21:05,03/07/2023 21:05,Pay Bill Online from 254715892656 - DENNIS MUSYOKA MUOKI Acc. KFA,Completed,400,,40700,TRUE,Pay Bill Online,254715892656 - DENNIS MUSYOKA MUOKI,,KFA
RG36M9U9VA,03/07/2023 19:18,03/07/2023 19:18,Pay Bill Online from 254723394064 - ANDREW LAGAT Acc. HBG ,Completed,200,,40300,TRUE,Pay Bill Online,254723394064 - ANDREW LAGAT,,HBG
RG39LXRDAZ,03/07/2023 18:02,03/07/2023 18:02,Pay Bill from 0759811306 - Bonface asigo yanguza Acc. IAG,Completed,1000,,40100,TRUE,Pay Utility,0759811306 - Bonface asigo yanguza,,IAG
RG34LU3ORY,03/07/2023 17:35,03/07/2023 17:35,Pay Bill from 254712367486 - JACKLINE JUMA Acc. ked,Completed,800,,39100,TRUE,Pay Utility,254712367486 - JACKLINE JUMA,,ked
RG38LKSMUC,03/07/2023 16:17,03/07/2023 16:17,Pay Bill from 254741223822 - Rhoyce Kiptarus Boiyo Acc. FEC,Completed,1000,,38300,TRUE,Pay Utility,254741223822 - Rhoyce Kiptarus Boiyo,,FEC
RG31LA5RE9,03/07/2023 14:37,03/07/2023 14:37,Pay Bill from 254719398942 - NORAH WAYUA MUNYAO Acc. KDA,Completed,800,,37300,TRUE,Pay Utility,254719398942 - NORAH WAYUA MUNYAO,,KDA
RG36L6HJNA,03/07/2023 14:02,03/07/2023 14:02,Pay Bill from 0115365438 - zibborah nzilani maundu Acc. V48,Completed,800,,36500,TRUE,Pay Utility,0115365438 - zibborah nzilani maundu,,V48
RG37KYIJAL,03/07/2023 12:49,03/07/2023 12:49,Pay Bill from 254723499628 - CLINTON JOSEPH MUHARI Acc. hfh,Completed,1600,,35700,TRUE,Pay Utility,254723499628 - CLINTON JOSEPH MUHARI,,hfh
RG33KN6V71,03/07/2023 10:58,03/07/2023 10:58,Pay Bill Online from 254700187806 - WINNIE OLIVIA AKOTH Acc. JEC,Completed,800,,34100,TRUE,Pay Bill Online,254700187806 - WINNIE OLIVIA AKOTH,,JEC
RG31KISCTT,03/07/2023 10:14,03/07/2023 10:14,Pay Bill from 254725478531 - KIPKORIR KUTO Acc. DFB,Completed,600,,33300,TRUE,Pay Utility,254725478531 - KIPKORIR KUTO,,DFB
RG38KIBJUK,03/07/2023 10:09,03/07/2023 10:09,Pay Bill from 254728084427 - MARY NABWIRE OKELLO Acc. FDF,Completed,1400,,32700,TRUE,Pay Utility,254728084427 - MARY NABWIRE OKELLO,,FDF
RG34KHV3V2,03/07/2023 10:05,03/07/2023 10:05,Pay Bill Online from 254726465584 - JULIANA MUKELI MUTUNGA Acc. v4,Completed,400,,31300,TRUE,Pay Bill Online,254726465584 - JULIANA MUKELI MUTUNGA,,v4
RG27J4XH8B,02/07/2023 18:46,02/07/2023 18:46,Pay Bill from 254725754547 - MWACHIRO GEORGE DECHE Acc. DFC,Completed,2200,,30900,TRUE,Pay Utility,254725754547 - MWACHIRO GEORGE DECHE,,DFC
RG25IIAS6P,02/07/2023 15:29,02/07/2023 15:29,Pay Bill from 254702152790 - Michelle Ndunge Kyalo Acc. IDE,Completed,400,,28700,TRUE,Pay Utility,254702152790 - Michelle Ndunge Kyalo,,IDE
RG22IDD3SC,02/07/2023 14:41,02/07/2023 14:41,Pay Bill from 0748045445 - Hellen tsikhabi naphtal Acc. V11,Completed,800,,28300,TRUE,Pay Utility,0748045445 - Hellen tsikhabi naphtal,,V11
RG26I98NPS,02/07/2023 13:59,02/07/2023 13:59,Pay Bill from 254717063324 - Christine Murugi Nyaga Acc. kdf,Completed,200,,27500,TRUE,Pay Utility,254717063324 - Christine Murugi Nyaga,,kdf
RG26HT1ACW,02/07/2023 10:54,02/07/2023 10:54,Pay Bill from 254720375006 - JACOB KANGOGO Acc. IBA,Completed,1000,,27300,TRUE,Pay Utility with OD via STK,254720375006 - JACOB KANGOGO,,IBA
RG28HOQMCC,02/07/2023 10:02,02/07/2023 10:02,Pay Bill from 0748956967 - Selvin Mukami Wanjiru Acc. E4,Completed,800,,26300,TRUE,Pay Utility,0748956967 - Selvin Mukami Wanjiru,,E4
RG24H99JJ6,02/07/2023 02:17,02/07/2023 02:17,Pay Bill from 254723488259 - WILSON OKITE OKITE Acc. HCA,Completed,1600,,25500,TRUE,Pay Utility,254723488259 - WILSON OKITE OKITE,,HCA
RG11H51OEZ,01/07/2023 22:59,01/07/2023 22:59,Pay Bill Online from 254708875278 - ROSEMARY WANJIRU KONYE Acc. HBF,Completed,400,,23900,TRUE,Pay Bill Online,254708875278 - ROSEMARY WANJIRU KONYE,,HBF
RG19H4J4UF,01/07/2023 22:48,01/07/2023 22:48,Pay Bill Online from 254712040302 - EMMANUEL MWARO BARASA Acc. KEA,Completed,600,,23500,TRUE,Pay Bill Online,254712040302 - EMMANUEL MWARO BARASA,,KEA
RG18H2J0I2,01/07/2023 22:14,01/07/2023 22:14,Pay Bill from 254700811449 - JOHN MULIMA ENANE Acc. HCE,Completed,600,,22900,TRUE,Pay Utility,254700811449 - JOHN MULIMA ENANE,,HCE
RG14GZFKVM,01/07/2023 21:37,01/07/2023 21:37,Pay Bill from 0714842476 - Rebecca  jerop kemei Acc. KDI,Completed,1000,,22300,TRUE,Pay Utility,0714842476 - Rebecca  jerop kemei,,KDI
RG19GODGEV,01/07/2023 20:06,01/07/2023 20:06,Pay Bill Online from 254716315144 - PETER MUNYIRI WAROTERE Acc. FBB,Completed,1000,,21300,TRUE,Pay Bill Online,254716315144 - PETER MUNYIRI WAROTERE,,FBB
RG15GEMFAD,01/07/2023 19:05,01/07/2023 19:05,Pay Bill from 0715806956 - Mercy Jelagat Kalum Acc. FFE,Completed,400,,20300,TRUE,Pay Utility,0715806956 - Mercy Jelagat Kalum,,FFE
RG10G664JY,01/07/2023 18:10,01/07/2023 18:10,Pay Bill from 254726702082 - STEPHEN WAHINYA NJUGUNA Acc. V02,Completed,600,,19900,TRUE,Pay Utility,254726702082 - STEPHEN WAHINYA NJUGUNA,,V02
RG12G0K5Y2,01/07/2023 17:29,01/07/2023 17:29,Pay Bill from 254723929380 - RHODAH K WAMBUA Acc. HEG,Completed,1400,,19300,TRUE,Pay Utility,254723929380 - RHODAH K WAMBUA,,HEG
RG18FHZVFA,01/07/2023 14:45,01/07/2023 14:45,Pay Bill Online from 254742023558 - PEACEMARY NJERI MAINA Acc. jbc,Completed,400,,17900,TRUE,Pay Bill Online,254742023558 - PEACEMARY NJERI MAINA,,jbc
RG12F87XCC,01/07/2023 13:14,01/07/2023 13:14,Pay Bill from 0719726347 - ROSEMARY DAYO KILUMBE Acc. KGE,Completed,3000,,17500,TRUE,Pay Utility,0719726347 - ROSEMARY DAYO KILUMBE,,KGE
RG14EZ3FSE,01/07/2023 11:45,01/07/2023 11:45,Pay Bill Online from 0759605060 - ELVIS MUSA MORARA Acc. V47,Completed,400,,14500,TRUE,Pay Bill Online,0759605060 - ELVIS MUSA MORARA,,V47
RG10EZ2PTU,01/07/2023 11:45,01/07/2023 11:45,Pay Bill from 0706563358 - HARRIET NYANCHAMA NYABERI Acc. HBA,Completed,400,,14100,TRUE,Pay Utility,0706563358 - HARRIET NYANCHAMA NYABERI,,HBA
RG11EUCG4F,01/07/2023 10:58,01/07/2023 10:58,Pay Bill Online from 0111278177 - Alfred   Kishoin Acc. DAB,Completed,2000,,13700,TRUE,Pay Bill Online,0111278177 - Alfred   Kishoin,,DAB
RG10ESE3Y2,01/07/2023 10:38,01/07/2023 10:38,Pay Bill Online from 254703180395 - JANE NYAGUTHII MWAGO Acc. IBE,Completed,200,,11700,TRUE,Pay Bill Online,254703180395 - JANE NYAGUTHII MWAGO,,IBE
RG10ERTVKE,01/07/2023 10:33,01/07/2023 10:33,Pay Bill Online from 254714710840 - RACHAEL WANJIRU NJOROGE Acc. ITE,Completed,500,,11500,TRUE,Pay Bill Online,254714710840 - RACHAEL WANJIRU NJOROGE,,ITE
RG19EP2KYJ,01/07/2023 10:04,01/07/2023 10:04,Pay Bill from 254717690295 - MARCELLA JELIMO Acc. IGE,Completed,600,,11000,TRUE,Pay Utility,254717690295 - MARCELLA JELIMO,,IGE
RG11EOTOT1,01/07/2023 10:02,01/07/2023 10:02,Pay Bill from 254704303496 - PETER MACHARIA WAIGANJO Acc. DFD,Completed,2400,,10400,TRUE,Pay Utility,254704303496 - PETER MACHARIA WAIGANJO,,DFD
RG13ENGDTX,01/07/2023 09:47,01/07/2023 09:47,Pay Bill Online from 254795510441 - LEWIS MUEMA Acc. KEB,Completed,800,,8000,TRUE,Pay Bill Online,254795510441 - LEWIS MUEMA,,KEB
RG18EFZXFQ,01/07/2023 08:25,01/07/2023 08:25,Pay Bill from 254720814822 - JAMES OTIENO OPAR Acc. jgj,Completed,700,,7200,TRUE,Pay Utility,254720814822 - JAMES OTIENO OPAR,,jgj
RFU1E0A1BP,30/06/2023 22:22,30/06/2023 22:22,Pay Bill from 254716504398 - HYVENE MAYETI Acc. KDE ,Completed,400,,6500,TRUE,Pay Utility,254716504398 - HYVENE MAYETI,,KDE
RFU8DXODHI,30/06/2023 21:48,30/06/2023 21:48,Pay Bill Online from 254722444929 - LIZ KIHARA Acc. g3,Completed,400,,6100,TRUE,Pay Bill Online,254722444929 - LIZ KIHARA,,g3
RFU5DVSW1Z,30/06/2023 21:29,30/06/2023 21:29,Pay Bill from 254722746480 - PATRICK OPEYWA AURA Acc. KGH,Completed,900,,5700,TRUE,Pay Utility,254722746480 - PATRICK OPEYWA AURA,,KGH
RFU4D3GN7M,30/06/2023 18:14,30/06/2023 18:14,Pay Bill Online from 254720451253 - JIMMY KIOGORA NKIROTE Acc. KBD,Completed,100,,4800,TRUE,Pay Utility with OD Online,254720451253 - JIMMY KIOGORA NKIROTE,,KBD
RFU8CZ8IC8,30/06/2023 17:45,30/06/2023 17:45,Pay Bill from 254741968254 - VERONICA MUMBUA MULINGE Acc. V43,Completed,400,,4700,TRUE,Pay Utility,254741968254 - VERONICA MUMBUA MULINGE,,V43
RFU4CY7M9K,30/06/2023 17:37,30/06/2023 17:37,Pay Bill from 254720814822 - JAMES OTIENO OPAR Acc. jgj,Completed,500,,4300,TRUE,Pay Utility with OD via STK,254720814822 - JAMES OTIENO OPAR,,jgj
RFU0CXARXU,30/06/2023 17:30,30/06/2023 17:30,Pay Bill Online from 254716784364 - Wendy Kemunto Nyandiko Acc. FFC,Completed,1000,,3800,TRUE,Pay Bill Online,254716784364 - Wendy Kemunto Nyandiko,,FFC
RFU8CM0RTI,30/06/2023 15:56,30/06/2023 15:56,Pay Bill Online from 254702118125 - ROTICH BETHWEL Acc. V20,Completed,1000,,2800,TRUE,Pay Bill Online,254702118125 - ROTICH BETHWEL,,V20
RFU6CFVRYM,30/06/2023 14:59,30/06/2023 14:59,Pay Bill from 254726753273 - JESSE K MURIRMI NJERU Acc. HCH,Completed,1400,,1800,TRUE,Pay Utility,254726753273 - JESSE K MURIRMI NJERU,,HCH
RFU4CBO516,30/06/2023 14:19,30/06/2023 14:19,Pay Bill Online from 254717809935 - LYDIAH WERU Acc. ffb,Completed,400,,400,TRUE,Pay Bill Online,254717809935 - LYDIAH WERU,,ffb
RFU2BWKWLG,30/06/2023 11:54,30/06/2023 11:54,Utility Account to Organization Settlement Account,Completed,,-4800,0,TRUE,Utility Account to Organization Settlement Account,846783 - ANCIENT WELLS LTD 4,,
RFU9BM2HRZ,30/06/2023 10:07,30/06/2023 10:07,Pay Bill from 254717801919 - MARCELINE AKINYI Acc. IAF,Completed,800,,4800,TRUE,Pay Utility,254717801919 - MARCELINE AKINYI,,IAF
RFU9BGYULR,30/06/2023 09:14,30/06/2023 09:14,Pay Bill from 0110664258 - lucky  nafula ngoya Acc. JAA,Completed,1000,,4000,TRUE,Pay Utility,0110664258 - lucky  nafula ngoya,,JAA
RFU2B7JU4G,30/06/2023 07:11,30/06/2023 07:11,Pay Bill Online from 254726593769 - BONFACE BWINA Acc. DEB,Completed,3000,,3000,TRUE,Pay Bill Online,254726593769 - BONFACE BWINA,,DEB
RFT1AIKA8P,29/06/2023 19:51,29/06/2023 19:51,Utility Account to Organization Settlement Account,Completed,,-9380,0,TRUE,Utility Account to Organization Settlement Account,846783 - ANCIENT WELLS LTD 4,,
RFT2AFV7PO,29/06/2023 19:34,29/06/2023 19:34,Pay Bill from 254723699555 - DIANA NYAIREGI GICHIA Acc. IGH,Completed,1000,,9380,TRUE,Pay Utility,254723699555 - DIANA NYAIREGI GICHIA,,IGH
RFT1AC3I35,29/06/2023 19:11,29/06/2023 19:11,Pay Bill Online from 254714552193 - CHRISTOPHER OCHIENG Acc. JGI,Completed,1180,,8380,TRUE,Pay Bill Online,254714552193 - CHRISTOPHER OCHIENG,,JGI
RFT8AAUV34,29/06/2023 19:04,29/06/2023 19:04,Pay Bill from 254727095667 - HILDA JEPKEMOI KIMELIEL Acc. JBE,Completed,500,,7200,TRUE,Pay Utility,254727095667 - HILDA JEPKEMOI KIMELIEL,,JBE
RFT09QNRFA,29/06/2023 16:31,29/06/2023 16:31,Pay Bill Online from 254720696119 - DUNCAN OMONDI OKETCH Acc. FAE,Completed,1000,,6700,TRUE,Pay Bill Online,254720696119 - DUNCAN OMONDI OKETCH,,FAE
RFT49DWB6I,29/06/2023 14:23,29/06/2023 14:23,Pay Bill from 254720814822 - JAMES OTIENO OPAR Acc. jgj,Completed,1500,,5700,TRUE,Pay Utility,254720814822 - JAMES OTIENO OPAR,,jgj
RFT98TF3F9,29/06/2023 10:54,29/06/2023 10:54,Pay Bill Online from 254729097858 - AMBROSE ADEYA AHAWO Acc. KCF,Completed,2000,,4200,TRUE,Pay Bill Online,254729097858 - AMBROSE ADEYA AHAWO,,KCF
RFT28LF9FY,29/06/2023 09:29,29/06/2023 09:29,Pay Bill from 254722458136 - NADI GOLICHA Acc. JEA,Completed,2200,,2200,TRUE,Pay Utility,254722458136 - NADI GOLICHA,,JEA
RFT188RLEN,29/06/2023 05:52,29/06/2023 05:52,Utility Account to Organization Settlement Account,Completed,,-6050,0,TRUE,Utility Account to Organization Settlement Account,846783 - ANCIENT WELLS LTD 4,,
RFS084Y0CW,28/06/2023 23:25,28/06/2023 23:25,Pay Bill from 254720407659 - FRANCIS CHUMO Acc. KDG,Completed,500,,6050,TRUE,Pay Utility,254720407659 - FRANCIS CHUMO,,KDG
RFS87KXT7M,28/06/2023 19:36,28/06/2023 19:36,Pay Bill from 254726337163 - HALIMA ALI HASSAN Acc. DDA,Completed,150,,5550,TRUE,Pay Utility,254726337163 - HALIMA ALI HASSAN,,DDA
RFS07KCVNC,28/06/2023 19:32,28/06/2023 19:32,Pay Bill from 0799122666 - ERIC WAWERU KIAMA Acc. JDI,Completed,1800,,5400,TRUE,Pay Utility,0799122666 - ERIC WAWERU KIAMA,,JDI
RFS179NSBD,28/06/2023 18:22,28/06/2023 18:22,Pay Bill from 254706549634 - CLINTON OMBASA Acc. FDB,Completed,1000,,3600,TRUE,Pay Utility,254706549634 - CLINTON OMBASA,,FDB
RFS174VS65,28/06/2023 17:45,28/06/2023 17:45,Pay Bill Online from 254728897908 - Teddy Allan Onyango Acc. DDD,Completed,1400,,2600,TRUE,Pay Bill Online,254728897908 - Teddy Allan Onyango,,DDD
RFS06F0VY4,28/06/2023 13:27,28/06/2023 13:27,Pay Bill Online from 254716702294 - DANIEL MULATI Acc. KBB,Completed,600,,1200,TRUE,Pay Bill Online,254716702294 - DANIEL MULATI,,KBB
RFS26CT1QS,28/06/2023 13:05,28/06/2023 13:05,Pay Bill Online from 254706784429 - ROSE JEPKOECH RUTTO Acc. IFI,Completed,400,,600,TRUE,Pay Bill Online,254706784429 - ROSE JEPKOECH RUTTO,,IFI
RFS263RXOO,28/06/2023 11:32,28/06/2023 11:32,Pay Bill from 254714060203 - PATRICK MWANGOMBE MSAWUCHI Acc. KEI,Completed,200,,200,TRUE,Pay Utility,254714060203 - PATRICK MWANGOMBE MSAWUCHI,,KEI
RFS75U4UJT,28/06/2023 09:44,28/06/2023 09:44,Utility Account to Organization Settlement Account,Completed,,-1500,0,TRUE,Utility Account to Organization Settlement Account,846783 - ANCIENT WELLS LTD 4,,
RFS85SIFVG,28/06/2023 09:25,28/06/2023 09:25,Pay Bill from 0743262596 - EMILY ADHIAMBO OTIENO Acc. V58,Completed,400,,1500,TRUE,Pay Utility,0743262596 - EMILY ADHIAMBO OTIENO,,V58
RFS75S01HV,28/06/2023 09:20,28/06/2023 09:20,Pay Bill from 254722444622 - CHARITY KAGWAINI Acc. ffd,Completed,100,,1100,TRUE,Pay Utility,254722444622 - CHARITY KAGWAINI,,ffd
RFS35DNGLZ,28/06/2023 00:03,28/06/2023 00:03,FSI to Pay Bill by 3033815 - NCBA LOOP B2C Acc. DCC via WEB by NCBA LOOP B2C\TRINITYAPI,Completed,1000,,1000,TRUE,FSI to Pay Bill via API,3033815 - NCBA LOOP B2C,,DCC
RFR958RCS9,27/06/2023 22:05,27/06/2023 22:05,Utility Account to Organization Settlement Account,Completed,,-56800,0,TRUE,Utility Account to Organization Settlement Account,846783 - ANCIENT WELLS LTD 4,,
RFR5557SMX,27/06/2023 21:22,27/06/2023 21:22,Pay Bill Online from 254726028330 - JOHN WAMBUA Acc. IFH,Completed,1000,,56800,TRUE,Pay Utility with OD Online,254726028330 - JOHN WAMBUA,,IFH
RFR74WOQ0L,27/06/2023 20:11,27/06/2023 20:11,Pay Bill Online from 254724587401 - RAPHAEL IRUNGU WAIHURA Acc. KGG,Completed,800,,55800,TRUE,Pay Bill Online,254724587401 - RAPHAEL IRUNGU WAIHURA,,KGG
RFR14HHTY5,27/06/2023 18:35,27/06/2023 18:35,Pay Bill Online from 254728042370 - MARY GAUDENSIA MANYASI Acc. JDG ,Completed,1000,,55000,TRUE,Pay Bill Online,254728042370 - MARY GAUDENSIA MANYASI,,JDG
RFR24EODRU,27/06/2023 18:15,27/06/2023 18:15,Pay Bill Online from 254718513411 - Michelle mwangi Acc. Had,Completed,200,,54000,TRUE,Pay Bill Online,254718513411 - Michelle mwangi,,Had
RFR642NJ0S,27/06/2023 16:41,27/06/2023 16:41,FSI to Pay Bill by 3033815 - NCBA LOOP B2C Acc. V40 via WEB by NCBA LOOP B2C\TRINITYAPI,Completed,600,,53800,TRUE,FSI to Pay Bill via API,3033815 - NCBA LOOP B2C,,V40
RFR43SDN16,27/06/2023 15:03,27/06/2023 15:03,Pay Bill from 254719499823 - MOSES MWANZIA MUTHIANI Acc. Jcc,Completed,4000,,53200,TRUE,Pay Utility with OD via STK,254719499823 - MOSES MWANZIA MUTHIANI,,Jcc
RFR63RTJGM,27/06/2023 14:57,27/06/2023 14:57,Pay Bill Online from 254704143476 - DICKSON MZUNGU Acc. JCB,Completed,1400,,49200,TRUE,Pay Bill Online,254704143476 - DICKSON MZUNGU,,JCB
RFR03NGDWI,27/06/2023 14:14,27/06/2023 14:14,Pay Bill Online from 254799863492 - HIRANI MULJI Acc. JDB,Completed,800,,47800,TRUE,Pay Bill Online,254799863492 - HIRANI MULJI,,JDB
RFR43J7NIO,27/06/2023 13:34,27/06/2023 13:34,Pay Bill from 254718548744 - ALBERT LOPAI ESINYEN Acc. IBH,Completed,1000,,47000,TRUE,Pay Utility,254718548744 - ALBERT LOPAI ESINYEN,,IBH
RFR13FHAYR,27/06/2023 12:58,27/06/2023 12:58,Pay Bill from 254715742045 - FRIDAH KIEMA Acc. HGC,Completed,400,,46000,TRUE,Pay Utility,254715742045 - FRIDAH KIEMA,,HGC
RFR932FQBH,27/06/2023 10:45,27/06/2023 10:45,Pay Bill Online from 254700379039 - MARTIN KIMANI Acc. ICB,Completed,600,,45600,TRUE,Pay Bill Online,254700379039 - MARTIN KIMANI,,ICB
RFR22IL8VM,27/06/2023 06:06,27/06/2023 06:06,Pay Bill Online from 254720451253 - JIMMY KIOGORA NKIROTE Acc. KBD,Completed,100,,45000,TRUE,Pay Utility with OD Online,254720451253 - JIMMY KIOGORA NKIROTE,,KBD
RFQ82FGTOW,26/06/2023 23:53,26/06/2023 23:53,Pay Bill from 254722444622 - CHARITY KAGWAINI Acc. ffd,Completed,100,,44900,TRUE,Pay Utility,254722444622 - CHARITY KAGWAINI,,ffd
RFQ425SLH6,26/06/2023 21:05,26/06/2023 21:05,Pay Bill from 0708931111 - NJENGA   KURIA Acc. kca,Completed,2000,,44800,TRUE,Pay Utility,0708931111 - NJENGA   KURIA,,kca
RFQ824HUVO,26/06/2023 20:53,26/06/2023 20:53,Pay Bill from 0768906522 - Jael Akinyi Kunga Acc. hef,Completed,600,,42800,TRUE,Pay Utility,0768906522 - Jael Akinyi Kunga,,hef
RFQ523BTJL,26/06/2023 20:44,26/06/2023 20:44,Pay Bill Online from 254724211857 - OCHUODHO OUMA Acc. KBK,Completed,1500,,42200,TRUE,Pay Bill Online,254724211857 - OCHUODHO OUMA,,KBK
RFQ31PODS7,26/06/2023 19:15,26/06/2023 19:15,Pay Bill from 254704325949 - SYLVIA AKINYI OTIENO Acc. KEC,Completed,1000,,40700,TRUE,Pay Utility,254704325949 - SYLVIA AKINYI OTIENO,,KEC
RFQ4195SBU,26/06/2023 17:19,26/06/2023 17:19,Pay Bill from 0721130307 - HILLARY NGUNYI MUTINDA Acc. JCH,Completed,2000,,39700,TRUE,Pay Utility,0721130307 - HILLARY NGUNYI MUTINDA,,JCH
RFQ214EUW6,26/06/2023 16:38,26/06/2023 16:38,Pay Bill from 0757259130 - RASHID SUDI MCHOMBO Acc. JAF,Completed,400,,37700,TRUE,Pay Utility,0757259130 - RASHID SUDI MCHOMBO,,JAF
RFQ7ZMF0QT,26/06/2023 13:43,26/06/2023 13:43,Pay Bill from 254722617724 - Cosmas Leitich Kiptoo Acc. KAG ,Completed,1000,,37300,TRUE,Pay Utility with OD via STK,254722617724 - Cosmas Leitich Kiptoo,,KAG
RFQ3YTFANH,26/06/2023 08:35,26/06/2023 08:35,Pay Bill from 254720931007 - BRENDA NASIMIYU NYONGESA Acc. KAB,Completed,3400,,36300,TRUE,Pay Utility,254720931007 - BRENDA NASIMIYU NYONGESA,,KAB
RFQ7YLEYXL,26/06/2023 06:05,26/06/2023 06:05,Pay Bill Online from 254703176849 - ROYAL MUYA Acc. F2,Completed,1000,,32900,TRUE,Pay Bill Online,254703176849 - ROYAL MUYA,,F2
RFP8XOW4KU,25/06/2023 18:32,25/06/2023 18:32,Pay Bill from 254798524621 - MERCY CHESANG Acc. jcj,Completed,4000,,31900,TRUE,Pay Utility,254798524621 - MERCY CHESANG,,jcj
RFP9XF8PW1,25/06/2023 17:08,25/06/2023 17:08,Pay Bill Online from 254718233980 - KAREN ASWANI Acc. HEC,Completed,600,,27900,TRUE,Pay Bill Online,254718233980 - KAREN ASWANI,,HEC
RFP6XEL77Y,25/06/2023 17:02,25/06/2023 17:02,Pay Bill from 254704166365 - JOAN WANJIRU NDIRANGU Acc. KDH,Completed,600,,27300,TRUE,Pay Utility,254704166365 - JOAN WANJIRU NDIRANGU,,KDH
RFP1WKKCCP,25/06/2023 11:31,25/06/2023 11:31,Pay Bill Online from 254720451253 - JIMMY KIOGORA NKIROTE Acc. KBD,Completed,100,,26700,TRUE,Pay Utility with OD Online,254720451253 - JIMMY KIOGORA NKIROTE,,KBD
RFP0WCRGVC,25/06/2023 09:51,25/06/2023 09:51,Pay Bill Online from 254724821898 - ALLAN GISONI NYANGARESI Acc. DBA,Completed,600,,26600,TRUE,Pay Bill Online,254724821898 - ALLAN GISONI NYANGARESI,,DBA
RFO2VM19YU,24/06/2023 21:07,24/06/2023 21:07,Pay Bill Online from 254799696271 - CALVIN OCHIDO Acc. FEB,Completed,600,,26000,TRUE,Pay Bill Online,254799696271 - CALVIN OCHIDO,,FEB
RFO1UVLK59,24/06/2023 18:06,24/06/2023 18:06,Pay Bill Online from 254728364280 - EMMANUEL THUMA OYIER Acc. IBI,Completed,600,,25400,TRUE,Pay Bill Online,254728364280 - EMMANUEL THUMA OYIER,,IBI
RFO5UGRE6H,24/06/2023 16:01,24/06/2023 16:01,Pay Bill Online from 254726001437 - FESTUS MUNYIRI MAINA Acc. IFF,Completed,200,,24800,TRUE,Pay Bill Online,254726001437 - FESTUS MUNYIRI MAINA,,IFF
RFO0U6AX88,24/06/2023 14:20,24/06/2023 14:20,Pay Bill Online from 254702346515 - ELIZABETH ACHIENG NGOME Acc. ICH,Completed,1000,,24600,TRUE,Pay Bill Online,254702346515 - ELIZABETH ACHIENG NGOME,,ICH
RFO4U60RP6,24/06/2023 14:17,24/06/2023 14:17,Pay Bill Online from 254705951407 - CAROLINE WAITHIRA KAMAU Acc. IDH,Completed,500,,23600,TRUE,Pay Bill Online,254705951407 - CAROLINE WAITHIRA KAMAU,,IDH
RFO6U2EOJM,24/06/2023 13:43,24/06/2023 13:43,Pay Bill from 254729557859 - AUDREY KASINDAHA KASINDAHA Acc. KFB,Completed,1400,,23100,TRUE,Pay Utility,254729557859 - AUDREY KASINDAHA KASINDAHA,,KFB
RFO3U0VOJJ,24/06/2023 13:28,24/06/2023 13:28,Pay Bill from 254726337163 - HALIMA ALI HASSAN Acc. DDA,Completed,200,,21700,TRUE,Pay Utility,254726337163 - HALIMA ALI HASSAN,,DDA
RFO5TU7EGJ,24/06/2023 12:21,24/06/2023 12:21,Pay Bill from 254700518930 - RENE EMMANUEL AURA Acc. fbd,Completed,100,,21500,TRUE,Pay Utility,254700518930 - RENE EMMANUEL AURA,,fbd
RFO9TU2SYB,24/06/2023 12:20,24/06/2023 12:20,Pay Bill from 254700518930 - RENE EMMANUEL AURA Acc. fbd,Completed,400,,21400,TRUE,Pay Utility,254700518930 - RENE EMMANUEL AURA,,fbd
RFO7TT0ZW7,24/06/2023 12:09,24/06/2023 12:09,Pay Bill from 254791573608 - MICHELLE KARANJA Acc. V50,Completed,400,,21000,TRUE,Pay Utility,254791573608 - MICHELLE KARANJA,,V50
RFO4TNJSRI,24/06/2023 11:12,24/06/2023 11:12,Pay Bill from 0745472241 - Tonny Nyachieo Onsinyo Acc. idc,Completed,500,,20600,TRUE,Pay Utility,0745472241 - Tonny Nyachieo Onsinyo,,idc
RFO6TF7I5C,24/06/2023 09:44,24/06/2023 09:44,Pay Bill Online from 254726292792 - PHILIP MIANO Acc. JEI,Completed,5600,,20100,TRUE,Pay Bill Online,254726292792 - PHILIP MIANO,,JEI
RFO6T9YU9K,24/06/2023 08:47,24/06/2023 08:47,Pay Bill from 254726599835 - LAWRENCE MURIITHI Acc. kdj,Completed,2400,,14500,TRUE,Pay Utility,254726599835 - LAWRENCE MURIITHI,,kdj
RFO5T63Y7L,24/06/2023 08:00,24/06/2023 08:00,Pay Bill from 254703528196 - ERIC GITONGA MUGO Acc. KGJ,Completed,3400,,12100,TRUE,Pay Utility with OD via STK,254703528196 - ERIC GITONGA MUGO,,KGJ
RFN0SSPI1A,23/06/2023 22:14,23/06/2023 22:14,Pay Bill from 254722444622 - CHARITY KAGWAINI Acc. ffd,Completed,100,,8700,TRUE,Pay Utility,254722444622 - CHARITY KAGWAINI,,ffd
RFN0SPBB50,23/06/2023 21:34,23/06/2023 21:34,Pay Bill from 0748772429 - MUSA YUSUF AHMED Acc. FCB,Completed,900,,8600,TRUE,Pay Utility with OD via STK,0748772429 - MUSA YUSUF AHMED,,FCB
RFN4SOSXBA,23/06/2023 21:29,23/06/2023 21:29,Pay Bill from 254725497388 - ALBERT MAINA Acc. V15,Completed,1100,,7700,TRUE,Pay Utility,254725497388 - ALBERT MAINA,,V15
RFN0RWSG7U,23/06/2023 18:16,23/06/2023 18:16,Pay Bill Online from 254111303204 - JAMES MUEMA KIKUVI Acc. JFI,Completed,3600,,6600,TRUE,Pay Utility with OD Online,254111303204 - JAMES MUEMA KIKUVI,,JFI
RFN4RVF65U,23/06/2023 18:07,23/06/2023 18:07,Pay Bill from 0794630078 - Sylvanus   Kiplangat Acc. IFE,Completed,2600,,3000,TRUE,Pay Utility,0794630078 - Sylvanus   Kiplangat,,IFE
RFN2RRVB7O,23/06/2023 17:41,23/06/2023 17:41,Pay Bill Online from 254701683737 - MICHAEL NGUGI Acc. HDB,Completed,400,,400,TRUE,Pay Bill Online,254701683737 - MICHAEL NGUGI,,HDB
RFN1RPN9KR,23/06/2023 17:24,23/06/2023 17:24,Utility Account to Organization Settlement Account,Completed,,-7500,0,TRUE,Utility Account to Organization Settlement Account,846783 - ANCIENT WELLS LTD 4,,
RFN2RL1ISW,23/06/2023 16:46,23/06/2023 16:46,Pay Bill Online from 254712187712 - JUDELEEN SHILOBELE AHINDUKHA Acc. IEA,Completed,2000,,7500,TRUE,Pay Utility with OD Online,254712187712 - JUDELEEN SHILOBELE AHINDUKHA,,IEA
RFN4R1KEI4,23/06/2023 13:40,23/06/2023 13:40,Pay Bill from 0717216114 - Felix Njeru Mugambi Acc. kcj,Completed,2200,,5500,TRUE,Pay Utility,0717216114 - Felix Njeru Mugambi,,kcj
RFN5R0JL5N,23/06/2023 13:30,23/06/2023 13:30,Pay Bill from 254710107500 - ERICK MISIANI Acc. HCG,Completed,1400,,3300,TRUE,Pay Utility,254710107500 - ERICK MISIANI,,HCG
RFN0QZVDQY,23/06/2023 13:23,23/06/2023 13:23,Pay Bill from 254717726012 - WINFRED MUENI PETER Acc. IDA,Completed,200,,1900,TRUE,Pay Utility,254717726012 - WINFRED MUENI PETER,,IDA
RFN4QYLM2E,23/06/2023 13:11,23/06/2023 13:11,Pay Bill from 254722444622 - CHARITY KAGWAINI Acc. ffd,Completed,100,,1700,TRUE,Pay Utility,254722444622 - CHARITY KAGWAINI,,ffd
RFN4QX49HA,23/06/2023 12:55,23/06/2023 12:55,Pay Bill from 254722826454 - CHARLES KARIMI MAITAI Acc. KDC Keila,Completed,800,,1600,TRUE,Pay Utility,254722826454 - CHARLES KARIMI MAITAI,,KDC
RFN4QSGJKK,23/06/2023 12:07,23/06/2023 12:07,FSI to Pay Bill by 972701 - Credit Bank Limited B2C Acc. KEH via WEB by Credit Bank Limited B2C\CREDIT BANK SAF DI,Completed,400,,800,TRUE,FSI to Pay Bill via API,972701 - Credit Bank Limited B2C,,KEH
RFN9QLCOM9,23/06/2023 10:52,23/06/2023 10:52,Pay Bill from 254720490298 - ERIC SIMIYU WAFULA Acc. A5,Completed,400,,400,TRUE,Pay Utility,254720490298 - ERIC SIMIYU WAFULA,,A5
RFN7QE29LZ,23/06/2023 09:33,23/06/2023 09:33,Utility Account to Organization Settlement Account,Completed,,-14100,0,TRUE,Utility Account to Organization Settlement Account,846783 - ANCIENT WELLS LTD 4,,
RFN1QBJD1L,23/06/2023 09:06,23/06/2023 09:06,Pay Bill Online from 254720044312 - ELIUD KIPKURUI Acc. FCF,Completed,2400,,14100,TRUE,Pay Bill Online,254720044312 - ELIUD KIPKURUI,,FCF
RFN4Q81SC4,23/06/2023 08:25,23/06/2023 08:25,Pay Bill from 254717747775 - QADRA SHEIKH ABDULLAHI Acc. JCI,Completed,2000,,11700,TRUE,Pay Utility,254717747775 - QADRA SHEIKH ABDULLAHI,,JCI
RFM0PVAHXO,22/06/2023 23:05,22/06/2023 23:05,Pay Bill Online from 254720451253 - JIMMY KIOGORA NKIROTE Acc. KBD,Completed,100,,9700,TRUE,Pay Bill Online,254720451253 - JIMMY KIOGORA NKIROTE,,KBD
RFM3PMPAVZ,22/06/2023 21:02,22/06/2023 21:02,Pay Bill Online from 254707966839 - DENNIS KIPTOO MAIYO Acc. KFC,Completed,800,,9600,TRUE,Pay Bill Online,254707966839 - DENNIS KIPTOO MAIYO,,KFC
RFM1PEXHWF,22/06/2023 20:01,22/06/2023 20:01,Pay Bill from 254797675450 - JOHN NYAREGA NYAKUNDI Acc. FAF,Completed,3800,,8800,TRUE,Pay Utility,254797675450 - JOHN NYAREGA NYAKUNDI,,FAF
RFM7PCP3QB,22/06/2023 19:46,22/06/2023 19:46,Pay Bill from 254703285159 - Enock Michieka Mochoge Acc. KAE,Completed,200,,5000,TRUE,Pay Utility,254703285159 - Enock Michieka Mochoge,,KAE
RFM3P31OZF,22/06/2023 18:48,22/06/2023 18:48,Pay Bill from 0705959083 - Mary Rita Osoma Acc. HED,Completed,200,,4800,TRUE,Pay Utility,0705959083 - Mary Rita Osoma,,HED
RFM1P20SMJ,22/06/2023 18:41,22/06/2023 18:41,Pay Bill from 254720931007 - BRENDA NASIMIYU NYONGESA Acc. KAB,Completed,2400,,4600,TRUE,Pay Utility,254720931007 - BRENDA NASIMIYU NYONGESA,,KAB
RFM7O68RYN,22/06/2023 13:56,22/06/2023 13:56,Pay Bill from 254717148989 - ALLAN MUTHONI Acc. HAC,Completed,400,,2200,TRUE,Pay Utility,254717148989 - ALLAN MUTHONI,,HAC
RFM0NWKO6U,22/06/2023 12:17,22/06/2023 12:17,Pay Bill from 254745338401 - mirriam ngina jane Acc. KGC,Completed,600,,1800,TRUE,Pay Utility,254745338401 - mirriam ngina jane,,KGC
RFM8NQNSQM,22/06/2023 11:14,22/06/2023 11:14,Pay Bill Online from 254712757681 - DENNIS MURANGO Acc. HAG,Completed,1200,,1200,TRUE,Pay Utility with OD Online,254712757681 - DENNIS MURANGO,,HAG
RFL7MZ9R09,21/06/2023 23:02,21/06/2023 23:02,Utility Account to Organization Settlement Account,Completed,,-10997,0,TRUE,Utility Account to Organization Settlement Account,846783 - ANCIENT WELLS LTD 4,,
RFL1MXQ4F1,21/06/2023 22:25,21/06/2023 22:25,Pay Bill Online from 254711507729 - DAVID ANYONGE MALIJAMBO Acc. HFA,Completed,2000,,10997,TRUE,Pay Bill Online,254711507729 - DAVID ANYONGE MALIJAMBO,,HFA
RFL5MUDYAL,21/06/2023 21:37,21/06/2023 21:37,Pay Bill Online from 254712999232 - MARRIAN PAUL Acc. DCB,Completed,1000,,8997,TRUE,Pay Bill Online,254712999232 - MARRIAN PAUL,,DCB
RFL0LJH6DY,21/06/2023 15:20,21/06/2023 15:20,Pay Bill from 254708221710 - REGINA OBWOCHA Acc. DFA,Completed,197,,7997,TRUE,Pay Utility,254708221710 - REGINA OBWOCHA,,DFA
RFL8KUQD3G,21/06/2023 10:55,21/06/2023 10:55,Pay Bill Online from 254720451253 - JIMMY KIOGORA NKIROTE Acc. KBD,Completed,100,,7800,TRUE,Pay Utility with OD Online,254720451253 - JIMMY KIOGORA NKIROTE,,KBD
RFL8KQR5HI,21/06/2023 10:10,21/06/2023 10:10,Pay Bill Online from 254720107609 - DENNIS OGENDI BARAKE Acc. JAJ,Completed,600,,7700,TRUE,Pay Bill Online,254720107609 - DENNIS OGENDI BARAKE,,JAJ
RFK1K1JYHP,20/06/2023 21:50,20/06/2023 21:50,Pay Bill from 254729690627 - BILLY KABIU Acc. kfj,Completed,1600,,7100,TRUE,Pay Utility,254729690627 - BILLY KABIU,,kfj
RFK4JSBQAA,20/06/2023 20:23,20/06/2023 20:23,Pay Bill from 254719194821 - KIPKEMOI SANG GEOFFREY Acc. JDD,Completed,1600,,5500,TRUE,Pay Utility,254719194821 - KIPKEMOI SANG GEOFFREY,,JDD
RFK5JOQ281,20/06/2023 19:57,20/06/2023 19:57,Pay Bill Online from 254720451253 - JIMMY KIOGORA NKIROTE Acc. KBD,Completed,100,,3900,TRUE,Pay Utility with OD Online,254720451253 - JIMMY KIOGORA NKIROTE,,KBD
RFK2JE7W6Y,20/06/2023 18:52,20/06/2023 18:52,Pay Bill Online from 0757758972 - BETH MUTHONI KASYOKA Acc. 1800,Completed,1800,,3800,TRUE,Pay Bill Online,0757758972 - BETH MUTHONI KASYOKA,,1800
RFK6J9CQ4Q,20/06/2023 18:19,20/06/2023 18:19,Pay Bill from 254725621394 - RACHAEL WACHIRA Acc. Jfb,Completed,1000,,2000,TRUE,Pay Utility,254725621394 - RACHAEL WACHIRA,,Jfb
RFK8IZLNR4,20/06/2023 17:00,20/06/2023 17:00,Pay Bill from 254725111246 - FRANCIS MUUTU MWANGANGI Acc. IGI,Completed,600,,1000,TRUE,Pay Utility,254725111246 - FRANCIS MUUTU MWANGANGI,,IGI
RFK3IQDU97,20/06/2023 15:28,20/06/2023 15:28,Pay Bill Online from 254717490969 - IAN MUOKA Acc. FDD,Completed,400,,400,TRUE,Pay Bill Online,254717490969 - IAN MUOKA,,FDD
RFK2IO5JME,20/06/2023 15:05,20/06/2023 15:05,Utility Account to Organization Settlement Account,Completed,,-16600,0,TRUE,Utility Account to Organization Settlement Account,846783 - ANCIENT WELLS LTD 4,,
RFK8IL2W8W,20/06/2023 14:31,20/06/2023 14:31,Pay Bill Online from 254720451253 - JIMMY KIOGORA NKIROTE Acc. KBD,Completed,100,,16600,TRUE,Pay Utility with OD Online,254720451253 - JIMMY KIOGORA NKIROTE,,KBD
RFK7IHPFIT,20/06/2023 13:56,20/06/2023 13:56,Pay Bill Online from 254715764212 - BANCE ISHEMINYE Acc. JFE ,Completed,500,,16500,TRUE,Pay Bill Online,254715764212 - BANCE ISHEMINYE,,JFE
RFK5ICG7VL,20/06/2023 13:02,20/06/2023 13:02,Pay Bill from 254791848695 - RACHEAL WANZA MUIA Acc. wines,Completed,200,,16000,TRUE,Pay Utility,254791848695 - RACHEAL WANZA MUIA,,wines
RFK3IAXRYV,20/06/2023 12:46,20/06/2023 12:46,Pay Bill from 254720002225 - DAVID NDENGWA Acc. V29,Completed,1000,,15800,TRUE,Pay Utility,254720002225 - DAVID NDENGWA,,V29
RFK1I8C373,20/06/2023 12:18,20/06/2023 12:18,Pay Bill from 254724379488 - NICHOLAS KOOME Acc. JDE,Completed,400,,14800,TRUE,Pay Utility,254724379488 - NICHOLAS KOOME,,JDE
RFK1I83IZT,20/06/2023 12:15,20/06/2023 12:15,Pay Bill Online from 254706427665 - CHRIS KIRIMI Acc. v22,Completed,100,,14400,TRUE,Pay Bill Online,254706427665 - CHRIS KIRIMI,,v22
RFK8I7MXGW,20/06/2023 12:10,20/06/2023 12:10,Pay Bill from 254726337163 - HALIMA ALI HASSAN Acc. DDA,Completed,300,,14300,TRUE,Pay Utility,254726337163 - HALIMA ALI HASSAN,,DDA
RFK0I7HMEM,20/06/2023 12:09,20/06/2023 12:09,Pay Bill Online from 254706427665 - CHRIS KIRIMI Acc. v22,Completed,100,,14000,TRUE,Pay Bill Online,254706427665 - CHRIS KIRIMI,,v22
RFK3I7191H,20/06/2023 12:04,20/06/2023 12:04,Pay Bill Online from 0740422187 - KEVIN MAKATO KUNGA Acc. KEG,Completed,3500,,13900,TRUE,Pay Bill Online,0740422187 - KEVIN MAKATO KUNGA,,KEG
RFK1I6VK15,20/06/2023 12:02,20/06/2023 12:02,Pay Bill from 254710239100 - PHILOMENA WOKI MUTHAMA Acc. KDK,Completed,1400,,10400,TRUE,Pay Utility,254710239100 - PHILOMENA WOKI MUTHAMA,,KDK
RFK8I5WGXY,20/06/2023 11:51,20/06/2023 11:51,Pay Bill from 254729160700 - MICAH NDUNGI Acc. HFE,Completed,200,,9000,TRUE,Pay Utility,254729160700 - MICAH NDUNGI,,HFE
RFK4I3W5YM,20/06/2023 11:29,20/06/2023 11:29,Pay Bill Online from 254700909152 - ANNAH ONDIEKI Acc. v56,Completed,7000,,8800,TRUE,Pay Bill Online,254700909152 - ANNAH ONDIEKI,,v56
RFK2I3UO3O,20/06/2023 11:28,20/06/2023 11:28,Pay Bill Online from 254715939283 - alex nyamai Acc. v7,Completed,1000,,1800,TRUE,Pay Bill Online,254715939283 - alex nyamai,,v7
RFK5I3Q7ER,20/06/2023 11:27,20/06/2023 11:27,Pay Bill Online from 254700909152 - ANNAH ONDIEKI Acc. v56,Completed,400,,800,TRUE,Pay Bill Online,254700909152 - ANNAH ONDIEKI,,v56
RFK8HVJIS0,20/06/2023 09:55,20/06/2023 09:55,Pay Bill from 254713062617 - ISAAC KIPROTICH INCHERE Acc. F3,Completed,400,,400,TRUE,Pay Utility with OD via STK,254713062617 - ISAAC KIPROTICH INCHERE,,F3
RFK9HEKOL3,20/06/2023 01:22,20/06/2023 01:22,Utility Account to Organization Settlement Account,Completed,,-2400,0,TRUE,Utility Account to Organization Settlement Account,846783 - ANCIENT WELLS LTD 4,,
RFJ6GW1F8E,19/06/2023 19:59,19/06/2023 19:59,Pay Bill from 254722706516 - KORIR ANTHONY Acc. Anthony D3 ,Completed,200,,2400,TRUE,Pay Utility,254722706516 - KORIR ANTHONY,,Anthony
RFJ2FO8I6Q,19/06/2023 13:51,19/06/2023 13:51,Pay Bill from 254728670882 - SHARAD EDWARD ADALA OLUM Acc. KCK,Completed,1600,,2200,TRUE,Pay Utility,254728670882 - SHARAD EDWARD ADALA OLUM,,KCK
RFJ4EM8BV8,19/06/2023 04:19,19/06/2023 04:19,Utility Account to Organization Settlement Account,Completed,,-11000,600,TRUE,Utility Account to Organization Settlement Account,846783 - ANCIENT WELLS LTD 4,,
RFI5CMHN8D,18/06/2023 11:23,18/06/2023 11:23,Utility Account to Organization Settlement Account,Completed,,-10000,11600,TRUE,Utility Account to Organization Settlement Account,846783 - ANCIENT WELLS LTD 4,,
RFI6CBVUFW,18/06/2023 09:09,18/06/2023 09:09,Pay Bill from 0705687898 - JORDAN KIPNGETICH THOMAS KIKWAI Acc. kff,Completed,400,,21600,TRUE,Pay Utility,0705687898 - JORDAN KIPNGETICH THOMAS KIKWAI,,kff
RFI3C6R1GB,18/06/2023 07:58,18/06/2023 07:57,Pay Bill from 254708989835 - SUSAN NDUTA Acc. B2,Completed,400,,21200,TRUE,Pay Utility,254708989835 - SUSAN NDUTA,,B2
RFI4C516LO,18/06/2023 07:25,18/06/2023 07:25,Utility Account to Organization Settlement Account,Completed,,-10000,20800,TRUE,Utility Account to Organization Settlement Account,846783 - ANCIENT WELLS LTD 4,,
RFH8AJ9GNQ,17/06/2023 15:48,17/06/2023 15:48,Pay Bill Online from 254707726441 - JOHN OLOO NYAULA Acc. IEH,Completed,1200,,30800,TRUE,Pay Bill Online,254707726441 - JOHN OLOO NYAULA,,IEH
RFH89YHC0G,17/06/2023 12:19,17/06/2023 12:19,Pay Bill from 254719779657 - SAMUEL NJOROGE Acc. JGA,Completed,3200,,29600,TRUE,Pay Utility,254719779657 - SAMUEL NJOROGE,,JGA
RFH19TVTTJ,17/06/2023 11:30,17/06/2023 11:30,Pay Bill Online from 254720451253 - JIMMY KIOGORA NKIROTE Acc. KBD,Completed,100,,26400,TRUE,Pay Bill Online,254720451253 - JIMMY KIOGORA NKIROTE,,KBD
RFG18XBDXD,16/06/2023 21:58,16/06/2023 21:58,Pay Bill from 254722746480 - PATRICK OPEYWA AURA Acc. KGH,Completed,600,,26300,TRUE,Pay Utility,254722746480 - PATRICK OPEYWA AURA,,KGH
RFG77TL8W5,16/06/2023 17:00,16/06/2023 17:00,Pay Bill Online from 254790672018 - CALEB SAGINI MAKORI Acc. FCC,Completed,100,,25700,TRUE,Pay Bill Online,254790672018 - CALEB SAGINI MAKORI,,FCC
RFG07RIH60,16/06/2023 16:42,16/06/2023 16:42,Pay Bill from 254711742716 - RODGERS KIPLANGAT KORIR Acc. IGC,Completed,400,,25600,TRUE,Pay Utility,254711742716 - RODGERS KIPLANGAT KORIR,,IGC
RFG07J8Q2S,16/06/2023 15:22,16/06/2023 15:22,Pay Bill from 254720278119 - LINDAH OGAWO Acc. kfe,Completed,500,,25200,TRUE,Pay Utility,254720278119 - LINDAH OGAWO,,kfe
RFG078FABO,16/06/2023 13:33,16/06/2023 13:33,Pay Bill from 254707653264 - KELVIN MWANGI MUCHORI Acc. HDE,Completed,600,,24700,TRUE,Pay Utility,254707653264 - KELVIN MWANGI MUCHORI,,HDE
RFG76TI775,16/06/2023 10:55,16/06/2023 10:55,Pay Bill from 254702216907 - FAITH MUSA Acc. kbe,Completed,200,,24100,TRUE,Pay Utility,254702216907 - FAITH MUSA,,kbe
RFG16KF7CB,16/06/2023 09:16,16/06/2023 09:16,Pay Bill from 0715688238 - JOANNAH ATUHAIRE BANTU Acc. JAE,Completed,600,,23900,TRUE,Pay Utility,0715688238 - JOANNAH ATUHAIRE BANTU,,JAE
RFG76HOCZ3,16/06/2023 08:45,16/06/2023 08:45,Pay Bill Online from 254710146965 - BRENDA DORCAS MABONGA Acc. hfg,Completed,1600,,23300,TRUE,Pay Bill Online,254710146965 - BRENDA DORCAS MABONGA,,hfg
RFG66HD20I,16/06/2023 08:41,16/06/2023 08:41,Pay Bill from 254704111133 - ELVIS OTIENO Acc. HFD,Completed,1500,,21700,TRUE,Pay Utility,254704111133 - ELVIS OTIENO,,HFD
RFG469MCKK,16/06/2023 06:47,16/06/2023 06:47,Pay Bill from 254717748212 - PATRICK KIOKO MUTUKU Acc. kce,Completed,800,,20200,TRUE,Pay Utility,254717748212 - PATRICK KIOKO MUTUKU,,kce
RFG1682M03,16/06/2023 05:57,16/06/2023 05:57,Pay Bill Online from 254790672018 - CALEB SAGINI MAKORI Acc. FCC,Completed,100,,19400,TRUE,Pay Bill Online,254790672018 - CALEB SAGINI MAKORI,,FCC
RFF63K926Q,15/06/2023 08:27,15/06/2023 08:27,Pay Bill from 254714597495 - WAMBUA KIOKO Acc. c1,Completed,400,,19300,TRUE,Pay Utility with OD via STK,254714597495 - WAMBUA KIOKO,,c1
RFE72FIQ8D,14/06/2023 18:34,14/06/2023 18:34,Pay Bill from 254720466443 - FATUMA MOHAMED ABDALLAH Acc. V21,Completed,600,,18900,TRUE,Pay Utility,254720466443 - FATUMA MOHAMED ABDALLAH,,V21
RFE42FGMA4,14/06/2023 18:34,14/06/2023 18:34,Pay Bill from 254714419834 - FAITH MWIKALI MUTHAMA Acc. D4,Completed,1600,,18300,TRUE,Pay Utility,254714419834 - FAITH MWIKALI MUTHAMA,,D4
RFE117I6VX,14/06/2023 11:29,14/06/2023 11:29,Pay Bill from 0705687898 - JORDAN KIPNGETICH THOMAS KIKWAI Acc. kff,Completed,300,,16700,TRUE,Pay Utility,0705687898 - JORDAN KIPNGETICH THOMAS KIKWAI,,kff
RFD2ZFW5LO,13/06/2023 23:15,13/06/2023 23:15,Pay Bill Online from 0799912339 - PETER KAMAU MURIU Acc. C5,Completed,600,,16400,TRUE,Pay Bill Online,0799912339 - PETER KAMAU MURIU,,C5
RFD6Z5J7HS,13/06/2023 20:45,13/06/2023 20:45,Pay Bill from 254720868281 - KENNEDY MWELU Acc. KBI,Completed,1000,,15800,TRUE,Pay Utility with OD via STK,254720868281 - KENNEDY MWELU,,KBI
RFD9YKZ3Y3,13/06/2023 18:26,13/06/2023 18:26,Pay Bill from 0112254959 - Timothy muoka musyoka Acc. jca,Completed,2000,,14800,TRUE,Pay Utility,0112254959 - Timothy muoka musyoka,,jca
RFC8WG9S5I,12/06/2023 21:30,12/06/2023 21:30,Pay Bill Online from 0740283700 - SERAH MUKULU MULILIA Acc. c4,Completed,1200,,12800,TRUE,Pay Bill Online,0740283700 - SERAH MUKULU MULILIA,,c4
RFC9W92MA9,12/06/2023 20:24,12/06/2023 20:24,Pay Bill from 254723341864 - WILLIAM OSIEL WACHUDI Acc. DED,Completed,4200,,11600,TRUE,Pay Utility with OD via STK,254723341864 - WILLIAM OSIEL WACHUDI,,DED
RFC9VMIKNZ,12/06/2023 17:54,12/06/2023 17:54,Pay Bill Online from 254713372862 - serah nthoki kioko Acc. HDF,Completed,1000,,7400,TRUE,Pay Bill Online,254713372862 - serah nthoki kioko,,HDF
RFC0V9ZPFA,12/06/2023 16:04,12/06/2023 16:04,Pay Bill from 254714710944 - MERCY NDUNG'U Acc. hff,Completed,500,,6400,TRUE,Pay Utility,254714710944 - MERCY NDUNG'U,,hff
RFC6UHJKGE,12/06/2023 11:07,12/06/2023 11:07,Pay Bill Online from 254722910078 - MAUREEN MUNYIVA MUTUKU Acc. DCD,Completed,1000,,5900,TRUE,Pay Bill Online,254722910078 - MAUREEN MUNYIVA MUTUKU,,DCD
RFB9TDBTVL,11/06/2023 20:11,11/06/2023 20:11,Pay Bill from 0724386624 - FATUMA ISSE YUSSUF Acc. FAB,Completed,800,,4900,TRUE,Pay Utility,0724386624 - FATUMA ISSE YUSSUF,,FAB
RFB3S0QZ13,11/06/2023 12:52,11/06/2023 12:52,Pay Bill from 0745516938 - MARION REBECCA BARASA Acc. house A2,Completed,800,,4100,TRUE,Pay Utility,0745516938 - MARION REBECCA BARASA,,house
RFA3R17VYD,10/06/2023 22:34,10/06/2023 22:34,Pay Bill from 0717441870 - Steven oduor ogutu Acc. KTA,Completed,500,,3300,TRUE,Pay Utility,0717441870 - Steven oduor ogutu,,KTA
RFA0QMGW18,10/06/2023 20:11,10/06/2023 20:11,Pay Bill from 254724018163 - IRENE MUENI WILLY Acc. A4,Completed,1200,,2800,TRUE,Pay Utility,254724018163 - IRENE MUENI WILLY,,A4
RFA0QIEETE,10/06/2023 19:43,10/06/2023 19:43,Pay Bill from 254791341895 - Enos Nyaosi Ayuma Acc. D5,Completed,800,,1600,TRUE,Pay Utility,254791341895 - Enos Nyaosi Ayuma,,D5
RFA6Q3RBUY,10/06/2023 18:11,10/06/2023 18:11,Pay Bill from 254707690557 - GRACE KARWITHA SAFARI Acc. V60,Completed,400,,800,TRUE,Pay Utility,254707690557 - GRACE KARWITHA SAFARI,,V60
RFA1PUWQIZ,10/06/2023 17:04,10/06/2023 17:04,Pay Bill from 0714747222 - WILSON KIMANI MWANGI Acc. V25,Completed,400,,400,TRUE,Pay Utility,0714747222 - WILSON KIMANI MWANGI,,V25
RFA4P27CFI,10/06/2023 12:33,10/06/2023 12:33,Utility Account to Organization Settlement Account,Completed,,-112600,0,TRUE,Utility Account to Organization Settlement Account,846783 - ANCIENT WELLS LTD 4,,
RF94NSOF8Q,09/06/2023 21:03,09/06/2023 21:03,Pay Bill from 0796929370 - HALIMA BOYA GALMA Acc. DBC,Completed,2200,,112600,TRUE,Pay Utility,0796929370 - HALIMA BOYA GALMA,,DBC
RF98MECM8K,09/06/2023 14:36,09/06/2023 14:36,Pay Bill from 254724423882 - JOEL GICHURI KARANJA Acc. fee,Completed,1000,,110400,TRUE,Pay Utility,254724423882 - JOEL GICHURI KARANJA,,fee
RF83KYYQCR,08/06/2023 22:20,08/06/2023 22:20,Pay Bill from 0768386417 - PAUL MUTUNE MUSYOKA Acc. D6,Completed,1000,,109400,TRUE,Pay Utility,0768386417 - PAUL MUTUNE MUSYOKA,,D6
RF81KM2WK5,08/06/2023 20:14,08/06/2023 20:14,Pay Bill Online from 254715764212 - BANCE ISHEMINYE Acc. JFE ,Completed,400,,108400,TRUE,Pay Bill Online,254715764212 - BANCE ISHEMINYE,,JFE
RF73HYZ1XN,07/06/2023 22:02,07/06/2023 22:02,Pay Bill from 254796069018 - PEACE KIMEU Acc. Jah,Completed,1100,,108000,TRUE,Pay Utility,254796069018 - PEACE KIMEU,,Jah
RF72HPANTI,07/06/2023 20:29,07/06/2023 20:29,Pay Bill Online from 254724821898 - ALLAN GISONI NYANGARESI Acc. DBA,Completed,400,,106900,TRUE,Pay Bill Online,254724821898 - ALLAN GISONI NYANGARESI,,DBA
RF75HNGBIP,07/06/2023 20:16,07/06/2023 20:16,Pay Bill from 254703276305 - MARTHA MUSYOKA Acc. IAI,Completed,800,,106500,TRUE,Pay Utility,254703276305 - MARTHA MUSYOKA,,IAI
RF76GW7MI6,07/06/2023 17:13,07/06/2023 17:13,Pay Bill from 254725478531 - KIPKORIR KUTO Acc. DFB,Completed,400,,105700,TRUE,Pay Utility,254725478531 - KIPKORIR KUTO,,DFB
RF76GLKJ9Q,07/06/2023 15:32,07/06/2023 15:32,Pay Bill from 254741223822 - Rhoyce Kiptarus Boiyo Acc. FEC,Completed,600,,105300,TRUE,Pay Utility,254741223822 - Rhoyce Kiptarus Boiyo,,FEC
RF75FGYXRP,07/06/2023 08:25,07/06/2023 08:25,Pay Bill from 254705641030 - FRIDAH WAENI MUITHYA Acc. JEH,Completed,2000,,104700,TRUE,Pay Utility,254705641030 - FRIDAH WAENI MUITHYA,,JEH
RF79FE00KP,07/06/2023 07:48,07/06/2023 07:48,Pay Bill Online from 254797160610 - JAMES MWANIKI Acc. JBI,Completed,2200,,102700,TRUE,Pay Bill Online,254797160610 - JAMES MWANIKI,,JBI
RF60F59W3Q,06/06/2023 23:27,06/06/2023 23:27,Pay Bill from 254712974871 - PAULA WANJIKU GATUI Acc. hea,Completed,800,,100500,TRUE,Pay Utility,254712974871 - PAULA WANJIKU GATUI,,hea
RF62F308BK,06/06/2023 22:28,06/06/2023 22:28,Pay Bill Online from 254723499628 - CLINTON JOSEPH MUHARI Acc. hfh,Completed,1000,,99700,TRUE,Pay Bill Online,254723499628 - CLINTON JOSEPH MUHARI,,hfh
RF61EX5A0T,06/06/2023 21:14,06/06/2023 21:14,Pay Bill from 254700557767 - BAKHITA MWENDE MUANGE Acc. kcb,Completed,1000,,98700,TRUE,Pay Utility,254700557767 - BAKHITA MWENDE MUANGE,,kcb
RF61ERISXL,06/06/2023 20:26,06/06/2023 20:26,Pay Bill from 254710635630 - DONNA JESSICA OWANO Acc. KCC,Completed,800,,97700,TRUE,Pay Utility,254710635630 - DONNA JESSICA OWANO,,KCC
RF66EQZFWE,06/06/2023 20:22,06/06/2023 20:22,Pay Bill from 254729355933 - FELISTAH NJERI WAIRIMU Acc. IDI,Completed,1000,,96900,TRUE,Pay Utility with OD via STK,254729355933 - FELISTAH NJERI WAIRIMU,,IDI
RF64EP5DOS,06/06/2023 20:09,06/06/2023 20:09,Pay Bill from 254710965167 - KUSA STEPHANIE HAZEL Acc. JDC,Completed,800,,95900,TRUE,Pay Utility,254710965167 - KUSA STEPHANIE HAZEL,,JDC
RF68EN5CZO,06/06/2023 19:55,06/06/2023 19:55,Pay Bill from 0740208174 - Josephine adhiambo koyi Acc. ifg,Completed,200,,95100,TRUE,Pay Utility,0740208174 - Josephine adhiambo koyi,,ifg
RF67DVFU99,06/06/2023 16:44,06/06/2023 16:44,Pay Bill Online from 254710382992 - SIMON KAMAU MUIRURI Acc. JCD,Completed,600,,94900,TRUE,Pay Bill Online,254710382992 - SIMON KAMAU MUIRURI,,JCD
RF65DSSETD,06/06/2023 16:19,06/06/2023 16:19,Pay Bill from 254717909848 - MARY MBULA KATHUKU Acc. FGD,Completed,200,,94300,TRUE,Pay Utility with OD via STK,254717909848 - MARY MBULA KATHUKU,,FGD
RF61DDKJO7,06/06/2023 13:47,06/06/2023 13:47,Pay Bill Online from 254799654490 - DANIEL MUTIO MAUNDU Acc. V28,Completed,1100,,94100,TRUE,Pay Bill Online,254799654490 - DANIEL MUTIO MAUNDU,,V28
RF67CZO0FB,06/06/2023 11:27,06/06/2023 11:27,Pay Bill from 254721667039 - ELIAS KIPLAGAT Acc. KAC,Completed,400,,93000,TRUE,Pay Utility,254721667039 - ELIAS KIPLAGAT,,KAC
RF61CPO9VP,06/06/2023 09:42,06/06/2023 09:42,Pay Bill from 254725754547 - MWACHIRO GEORGE DECHE Acc. DFC,Completed,1600,,92600,TRUE,Pay Utility,254725754547 - MWACHIRO GEORGE DECHE,,DFC
RF66C87F6I,06/06/2023 00:25,06/06/2023 00:25,Pay Bill from 254700198550 - BENARD ONYANGO Acc. DBB,Completed,900,,91000,TRUE,Pay Utility,254700198550 - BENARD ONYANGO,,DBB
RF54C4BKUM,05/06/2023 22:20,05/06/2023 22:20,Pay Bill from 254722578070 - SAMUEL MACHARIA Acc. v42,Completed,1000,,90100,TRUE,Pay Utility,254722578070 - SAMUEL MACHARIA,,v42
RF51BPZYHT,05/06/2023 20:06,05/06/2023 20:06,Pay Bill from 254701528627 - TURGAY ELDEN Acc.  BB,Completed,1500,,89100,TRUE,Pay Utility,254701528627 - TURGAY ELDEN,,
RF59BNI4HL,05/06/2023 19:50,05/06/2023 19:50,Pay Bill from 254708910373 - MUNINI ISAAC Acc. IEB,Completed,2400,,87600,TRUE,Pay Utility,254708910373 - MUNINI ISAAC,,IEB
RF57BMK55J,05/06/2023 19:44,05/06/2023 19:44,Pay Bill from 254712091662 - BENARD OMONDI ROBY Acc. V16,Completed,600,,85200,TRUE,Pay Utility,254712091662 - BENARD OMONDI ROBY,,V16
RF59BHJ4NF,05/06/2023 19:16,05/06/2023 19:16,Pay Bill Online from 254721465713 - RHODA WAMBUI MWANGI Acc. Jfh,Completed,1200,,84600,TRUE,Pay Bill Online,254721465713 - RHODA WAMBUI MWANGI,,Jfh
RF54BGAX0Y,05/06/2023 19:09,05/06/2023 19:09,Pay Bill from 254712283818 - OYUGI OCHIENG Acc. FCB,Completed,2000,,83400,TRUE,Pay Utility,254712283818 - OYUGI OCHIENG,,FCB
RF52AYA54O,05/06/2023 17:03,05/06/2023 17:03,Pay Bill Online from 254710814215 - JOAN NYAMBURA KAMAU Acc. ifb,Completed,1000,,81400,TRUE,Pay Bill Online,254710814215 - JOAN NYAMBURA KAMAU,,ifb
RF56AIF1A2,05/06/2023 14:28,05/06/2023 14:28,Pay Bill Online from 254715892656 - DENNIS MUSYOKA MUOKI Acc. KFA,Completed,400,,80400,TRUE,Pay Bill Online,254715892656 - DENNIS MUSYOKA MUOKI,,KFA
RF56AFV442,05/06/2023 14:03,05/06/2023 14:03,Pay Bill from 254700430569 - EDITH   GAKII Acc. DDB,Completed,1000,,80000,TRUE,Pay Utility with OD via STK,254700430569 - EDITH   GAKII,,DDB
RF57AAZW91,05/06/2023 13:16,05/06/2023 13:16,Pay Bill from 254724882610 - ALINOOR IBRAHIM Acc. v52,Completed,600,,79000,TRUE,Pay Utility,254724882610 - ALINOOR IBRAHIM,,v52
RF58A9E2Y4,05/06/2023 13:01,05/06/2023 13:01,Pay Bill from 254729371750 - DERRICK OTANGA Acc. DAC,Completed,600,,78400,TRUE,Pay Utility,254729371750 - DERRICK OTANGA,,DAC
RF57A0897N,05/06/2023 11:26,05/06/2023 11:26,Pay Bill Online from 254721974995 - BERNICE MANGOKA Acc. KFK,Completed,1000,,77800,TRUE,Pay Bill Online,254721974995 - BERNICE MANGOKA,,KFK
RF589SVZ78,05/06/2023 10:11,05/06/2023 10:11,Pay Bill from 0715806956 - Mercy Jelagat Kalum Acc. FFE,Completed,600,,76800,TRUE,Pay Utility,0715806956 - Mercy Jelagat Kalum,,FFE
RF549KTVW8,05/06/2023 08:43,05/06/2023 08:43,Pay Bill from 254715309540 - HILLARY   AKHANYISI Acc. V19,Completed,1000,,76200,TRUE,Pay Utility,254715309540 - HILLARY   AKHANYISI,,V19
RF509HB3FA,05/06/2023 08:01,05/06/2023 08:01,Pay Bill Online from 254706144834 - WILKISTER OSUMO Acc. HGH,Completed,600,,75200,TRUE,Pay Bill Online,254706144834 - WILKISTER OSUMO,,HGH
RF529FBMV4,05/06/2023 07:33,05/06/2023 07:33,Pay Bill from 254723929380 - RHODAH K WAMBUA Acc. HEG,Completed,1000,,74600,TRUE,Pay Utility,254723929380 - RHODAH K WAMBUA,,HEG
RF4894ZHOO,04/06/2023 22:21,04/06/2023 22:21,Pay Bill Online from 254721714178 - PHANICE JEROTICH KIPTOO Acc. FBF,Completed,600,,73600,TRUE,Pay Bill Online,254721714178 - PHANICE JEROTICH KIPTOO,,FBF
RF4892YZTO,04/06/2023 21:49,04/06/2023 21:49,Pay Bill Online from 254718253322 - DUNCAN MOCHOGE Acc. JFJ,Completed,1000,,73000,TRUE,Pay Bill Online,254718253322 - DUNCAN MOCHOGE,,JFJ
RF4590Q90V,04/06/2023 21:22,04/06/2023 21:22,Pay Bill from 254726945691 - JAMES RAMTU Acc. B5,Completed,600,,72000,TRUE,Pay Utility,254726945691 - JAMES RAMTU,,B5
RF418ZCTKH,04/06/2023 21:08,04/06/2023 21:08,Pay Bill from 254798642778 - victor musyoka Acc. DAD,Completed,1400,,71400,TRUE,Pay Utility with OD via STK,254798642778 - victor musyoka,,DAD
RF4186V4V1,04/06/2023 17:30,04/06/2023 17:30,Pay Bill Online from 254726465584 - JULIANA MUKELI MUTUNGA Acc. v4,Completed,400,,70000,TRUE,Pay Bill Online,254726465584 - JULIANA MUKELI MUTUNGA,,v4
RF4981GYG9,04/06/2023 16:40,04/06/2023 16:40,Pay Bill Online from 0757699775 - BENARD MUIA MUTUA Acc. HCB,Completed,1400,,69600,TRUE,Pay Utility with OD Online,0757699775 - BENARD MUIA MUTUA,,HCB
RF437A19VZ,04/06/2023 11:54,04/06/2023 11:54,Pay Bill from 254719398942 - NORAH WAYUA MUNYAO Acc. KDA,Completed,1200,,68200,TRUE,Pay Utility,254719398942 - NORAH WAYUA MUNYAO,,KDA
RF4575GQ29,04/06/2023 10:58,04/06/2023 10:58,Pay Bill Online from 254706549634 - CLINTON OMBASA Acc. FDB,Completed,800,,67000,TRUE,Pay Bill Online,254706549634 - CLINTON OMBASA,,FDB
RF456P3OCF,04/06/2023 07:24,04/06/2023 07:24,Pay Bill from 254724882610 - ALINOOR IBRAHIM Acc. v53,Completed,600,,66200,TRUE,Pay Utility,254724882610 - ALINOOR IBRAHIM,,v53
RF346GUQK6,03/06/2023 22:55,03/06/2023 22:55,Pay Bill from 254741791919 - Linet Mongina Maraga Acc. U3,Completed,750,,65600,TRUE,Pay Utility,254741791919 - Linet Mongina Maraga,,U3
RF3869CMMW,03/06/2023 21:15,03/06/2023 21:15,Pay Bill from 254724862849 - Ann Fresiah Kinyua Acc. HDA,Completed,200,,64850,TRUE,Pay Utility,254724862849 - Ann Fresiah Kinyua,,HDA
RF3869A1DO,03/06/2023 21:14,03/06/2023 21:14,Pay Bill from 254722136450 - MARY EVERLYN Acc. JAI,Completed,200,,64650,TRUE,Pay Utility,254722136450 - MARY EVERLYN,,JAI
RF3063DOIG,03/06/2023 20:26,03/06/2023 20:26,Pay Bill from 0795807227 - Lucy Ncekei Kimathi Acc. V36 ,Completed,200,,64450,TRUE,Pay Utility,0795807227 - Lucy Ncekei Kimathi,,V36
RF375FNVSZ,03/06/2023 17:51,03/06/2023 17:51,Pay Bill from 254727425310 - DENNIS KIPKOECH CHERUIYOT Acc. JAG,Completed,400,,64250,TRUE,Pay Utility,254727425310 - DENNIS KIPKOECH CHERUIYOT,,JAG
RF384O6CBQ,03/06/2023 13:50,03/06/2023 13:50,Pay Bill Online from 254717490969 - IAN MUOKA Acc. FDD,Completed,12000,,63850,TRUE,Pay Bill Online,254717490969 - IAN MUOKA,,FDD
RF344C9GBM,03/06/2023 11:55,03/06/2023 11:55,Pay Bill from 254704166365 - JOAN WANJIRU NDIRANGU Acc. KDH,Completed,400,,51850,TRUE,Pay Utility,254704166365 - JOAN WANJIRU NDIRANGU,,KDH
RF374BUGTH,03/06/2023 11:51,03/06/2023 11:51,Pay Bill Online from 254714552193 - CHRISTOPHER OCHIENG Acc. JGI,Completed,850,,51450,TRUE,Pay Bill Online,254714552193 - CHRISTOPHER OCHIENG,,JGI
RF3746AYX5,03/06/2023 10:54,03/06/2023 10:54,Pay Bill Online from 254720407659 - FRANCIS CHUMO Acc. kdg,Completed,400,,50600,TRUE,Pay Bill Online,254720407659 - FRANCIS CHUMO,,kdg
RF3745MXLH,03/06/2023 10:48,03/06/2023 10:48,Pay Bill Online from 254720407659 - FRANCIS CHUMO Acc. kdg,Completed,10000,,50200,TRUE,Pay Bill Online,254720407659 - FRANCIS CHUMO,,kdg
RF243527SE,02/06/2023 20:46,02/06/2023 20:46,Pay Bill Online from 254729796719 - JACINTA WANJIKU NJERI Acc. FFF,Completed,400,,40200,TRUE,Pay Bill Online,254729796719 - JACINTA WANJIKU NJERI,,FFF
RF292ZJWNN,02/06/2023 20:05,02/06/2023 20:05,Pay Bill Online from 0796894862 - MERCY      MUTETHYA Acc. HBH,Completed,1000,,39800,TRUE,Pay Bill Online,0796894862 - MERCY      MUTETHYA,,HBH
RF262WYR1K,02/06/2023 19:48,02/06/2023 19:48,Pay Bill Online from 254723394064 - ANDREW LAGAT Acc. HBG ,Completed,600,,38800,TRUE,Pay Bill Online,254723394064 - ANDREW LAGAT,,HBG
RF212UGL2P,02/06/2023 19:33,02/06/2023 19:33,Pay Bill from 254717690295 - MARCELLA JELIMO Acc. IGE,Completed,600,,38200,TRUE,Pay Utility,254717690295 - MARCELLA JELIMO,,IGE
RF212O5IOD,02/06/2023 18:57,02/06/2023 18:57,Pay Bill from 0115818416 - dennis   spence Acc. n2,Completed,300,,37600,TRUE,Pay Utility,0115818416 - dennis   spence,,n2
RF271Y2VGD,02/06/2023 15:29,02/06/2023 15:29,Pay Bill Online from 254716011092 - BRIAN OPIYO OMONDI Acc. icb,Completed,400,,37300,TRUE,Pay Bill Online,254716011092 - BRIAN OPIYO OMONDI,,icb
RF211VWPCP,02/06/2023 15:08,02/06/2023 15:08,Pay Bill from 254704303496 - PETER MACHARIA WAIGANJO Acc. DFD,Completed,2000,,36900,TRUE,Pay Utility,254704303496 - PETER MACHARIA WAIGANJO,,DFD
RF281VQS2A,02/06/2023 15:07,02/06/2023 15:07,Pay Bill Online from 254726001437 - FESTUS MUNYIRI MAINA Acc. IFF,Completed,200,,34900,TRUE,Pay Bill Online,254726001437 - FESTUS MUNYIRI MAINA,,IFF
RF271UC3E7,02/06/2023 14:53,02/06/2023 14:53,Pay Bill Online from 254717809935 - LYDIAH WERU Acc. ffb,Completed,400,,34700,TRUE,Pay Bill Online,254717809935 - LYDIAH WERU,,ffb
RF211TULCX,02/06/2023 14:48,02/06/2023 14:48,Pay Bill from 0740819767 - ABIYAH NELIMA LIAMBULA Acc. V44,Completed,1200,,34300,TRUE,Pay Utility,0740819767 - ABIYAH NELIMA LIAMBULA,,V44
RF281NG5TE,02/06/2023 13:45,02/06/2023 13:45,Pay Bill from 254724379544 - MERCYLINE AKINYI OTIENO Acc. HCG,Completed,1400,,33100,TRUE,Pay Utility,254724379544 - MERCYLINE AKINYI OTIENO,,HCG
RF22ZSC8GS,02/06/2023 08:17,02/06/2023 08:17,Pay Bill Online from 254703180395 - JANE NYAGUTHII MWAGO Acc. IBE,Completed,600,,31700,TRUE,Pay Bill Online,254703180395 - JANE NYAGUTHII MWAGO,,IBE
RF20ZO9GUG,02/06/2023 07:18,02/06/2023 07:18,Pay Bill from 254700811449 - JOHN MULIMA ENANE Acc. HCE,Completed,800,,31100,TRUE,Pay Utility,254700811449 - JOHN MULIMA ENANE,,HCE
RF18ZC9MUA,01/06/2023 21:49,01/06/2023 21:49,Pay Bill from 254717726012 - WINFRED MUENI PETER Acc. IDA,Completed,400,,30300,TRUE,Pay Utility,254717726012 - WINFRED MUENI PETER,,IDA
RF17Z8RN5J,01/06/2023 21:11,01/06/2023 21:11,Pay Bill from 254708875278 - ROSEMARY WANJIRU KONYE Acc. Hbf,Completed,600,,29900,TRUE,Pay Utility,254708875278 - ROSEMARY WANJIRU KONYE,,Hbf
RF18Z6HEJC,01/06/2023 20:51,01/06/2023 20:51,Pay Bill Online from 254742023558 - PEACEMARY NJERI MAINA Acc. JBC,Completed,200,,29300,TRUE,Pay Bill Online,254742023558 - PEACEMARY NJERI MAINA,,JBC
RF13YP2BWT,01/06/2023 18:53,01/06/2023 18:53,Pay Bill Online from 0114973420 - WENDY KEMUNTO NYANDIKO Acc. FFC,Completed,600,,29100,TRUE,Pay Bill Online,0114973420 - WENDY KEMUNTO NYANDIKO,,FFC
RF17YI9H4Z,01/06/2023 18:05,01/06/2023 18:05,Pay Bill Online from 254700379039 - MARTIN KIMANI Acc. KCI,Completed,12000,,28500,TRUE,Pay Bill Online,254700379039 - MARTIN KIMANI,,KCI
RF17XYHR8X,01/06/2023 15:05,01/06/2023 15:05,Pay Bill from 0705959083 - Mary Rita Osoma Acc. HED,Completed,200,,16500,TRUE,Pay Utility,0705959083 - Mary Rita Osoma,,HED
RF12X7J3PK,01/06/2023 10:28,01/06/2023 10:28,Pay Bill from 0706563358 - HARRIET NYANCHAMA NYABERI Acc. HBA,Completed,400,,16300,TRUE,Pay Utility,0706563358 - HARRIET NYANCHAMA NYABERI,,HBA
RF11X6QM0J,01/06/2023 10:20,01/06/2023 10:20,Pay Bill from 254790128716 - HELLEN NAPHTAL Acc. V11,Completed,600,,15900,TRUE,Pay Utility,254790128716 - HELLEN NAPHTAL,,V11
RF19WWVNXX,01/06/2023 08:30,01/06/2023 08:30,Pay Bill from 0748956967 - Selvin Mukami Wanjiru Acc. E4,Completed,1200,,15300,TRUE,Pay Utility,0748956967 - Selvin Mukami Wanjiru,,E4
