Receipt No.,Completion Time,Initiation Time,Details,Transaction Status,Paid In,Withdrawn,Balance,Balance Confirmed,Reason Type,Other Party Info,Linked Transaction ID,A/C No.
REF2MZ2EFY,15/05/2023 20:58,15/05/2023 20:58,Pay Bill from 254720213934 - TERRY KAWIRA SALESIO Acc. z20 ,Completed,2000,,24000,TRUE,Pay Utility,254720213934 - TERRY KAWIRA SALESIO,,z20
REF3LW8BUB,15/05/2023 16:01,15/05/2023 16:01,Utility Account to Organization Settlement Account,Completed,,-10000,22000,TRUE,Utility Account to Organization Settlement Account,887264 - ANCIENT WELLS LTD 2,,
REF0LUA946,15/05/2023 15:41,15/05/2023 15:41,Pay Bill Online from 0798280554 - Joseph Wambugu Macharia Acc. house number 17,Completed,16000,,32000,TRUE,Pay Bill Online,0798280554 - Joseph Wambugu Macharia,,house
REF7KZ0S6N,15/05/2023 10:07,15/05/2023 10:07,Pay Bill from 254714033354 - George njoroge Acc. Z11,Completed,16000,,16000,TRUE,Pay Utility,254714033354 - George njoroge,,Z11
REE5JGSHNH,14/05/2023 17:34,14/05/2023 17:34,Utility Account to Organization Settlement Account,Completed,,-26000,0,TRUE,Utility Account to Organization Settlement Account,887264 - ANCIENT WELLS LTD 2,,
REE4I0BTP6,14/05/2023 07:19,14/05/2023 07:19,FSI to Pay Bill by 998094 - COOP TO PAYBILL Acc. SaikaA6 via WEB by COOP TO PAYBILL\COOPAYBILLTRNS,Completed,26000,,26000,TRUE,FSI to Pay Bill via API,998094 - COOP TO PAYBILL,,SaikaA6
RED3FCODTZ,13/05/2023 09:30,13/05/2023 09:30,Utility Account to Organization Settlement Account,Completed,,-16000,0,TRUE,Utility Account to Organization Settlement Account,887264 - ANCIENT WELLS LTD 2,,
RED3FCJJ9T,13/05/2023 09:28,13/05/2023 09:28,Pay Bill Online from 254723853941 - ELIZABETH MUTIO MUTUKU Acc. house z12,Completed,16000,,16000,TRUE,Pay Bill Online,254723853941 - ELIZABETH MUTIO MUTUKU,,house
REC4EGSCVS,12/05/2023 20:26,12/05/2023 20:26,Utility Account to Organization Settlement Account,Completed,,-60000,0,TRUE,Utility Account to Organization Settlement Account,887264 - ANCIENT WELLS LTD 2,,
REC2DPZ7NY,12/05/2023 17:17,12/05/2023 17:17,Pay Bill from 254741791919 - Linet Mongina Maraga Acc. u3,Completed,4000,,60000,TRUE,Pay Utility,254741791919 - Linet Mongina Maraga,,u3
REC9DIS3NJ,12/05/2023 16:11,12/05/2023 16:11,Pay Bill Online from 254723634653 - CHARD MASHANGA Acc. House No 7,Completed,16000,,56000,TRUE,Pay Bill Online,254723634653 - CHARD MASHANGA,,House
REC4D7GQYS,12/05/2023 14:14,12/05/2023 14:14,Pay Bill from 254728912446 - GRACE NJERI KIMANI Acc. ancient well ,Completed,40000,,40000,TRUE,Pay Utility,254728912446 - GRACE NJERI KIMANI,,ancient
REC2CEMGO4,12/05/2023 09:04,12/05/2023 09:04,Utility Account to Organization Settlement Account,Completed,,-500,0,TRUE,Utility Account to Organization Settlement Account,887264 - ANCIENT WELLS LTD 2,,
REC1C8247X,12/05/2023 07:40,12/05/2023 07:40,Utility Account to Organization Settlement Account,Completed,,-10000,500,TRUE,Utility Account to Organization Settlement Account,887264 - ANCIENT WELLS LTD 2,,
REB0AVEB36,11/05/2023 17:15,11/05/2023 17:15,Pay Bill Online from 0743263203 - Patrick theuri wachira Acc. U1,Completed,5000,,10500,TRUE,Pay Bill Online,0743263203 - Patrick theuri wachira,,U1
REB7AAHMZN,11/05/2023 13:43,11/05/2023 13:43,Pay Bill from 254721226492 - MICHAEL OKEYO CURTIS Acc. uu4,Completed,5500,,5500,TRUE,Pay Utility with OD via STK,254721226492 - MICHAEL OKEYO CURTIS,,uu4
REB3A8QD65,11/05/2023 13:25,11/05/2023 13:25,Utility Account to Organization Settlement Account,Completed,,-311000,0,TRUE,Utility Account to Organization Settlement Account,887264 - ANCIENT WELLS LTD 2,,
REB3A1ASW7,11/05/2023 12:06,11/05/2023 12:06,Utility Account to Organization Settlement Account,Completed,,-110000,311000,TRUE,Utility Account to Organization Settlement Account,887264 - ANCIENT WELLS LTD 2,,
REA27P8T1M,10/05/2023 15:02,10/05/2023 15:02,Pay Bill from 0115556359 - CHEPNGENO   EDITH Acc. C701,Completed,20000,,421000,TRUE,Pay Utility,0115556359 - CHEPNGENO   EDITH,,C701
REA67HXVMG,10/05/2023 13:47,10/05/2023 13:47,FSI to Pay Bill by 998094 - COOP TO PAYBILL Acc. hse no3 via WEB by COOP TO PAYBILL\COOPAYBILLTRNS,Completed,12000,,401000,TRUE,FSI to Pay Bill via API,998094 - COOP TO PAYBILL,,hse
REA674RX2I,10/05/2023 11:31,10/05/2023 11:31,Pay Bill Online from 254715776633 - FIONA KIMANI Acc. Z16,Completed,3000,,389000,TRUE,Pay Bill Online,254715776633 - FIONA KIMANI,,Z16
REA56V97JN,10/05/2023 09:49,10/05/2023 09:49,Pay Bill from 254720867522 - DANIEL WAMBUI Acc. Z15 ,Completed,16000,,386000,TRUE,Pay Utility,254720867522 - DANIEL WAMBUI,,Z15
REA76QJC9F,10/05/2023 08:57,10/05/2023 08:57,Pay Bill from 254722314500 - SHARON AKINYI OBIERO Acc. hse 1,Completed,12000,,370000,TRUE,Pay Utility,254722314500 - SHARON AKINYI OBIERO,,hse
RE926CJBTA,09/05/2023 23:25,09/05/2023 23:25,Pay Bill from 254729140163 - BEATRICE OMADI NYANDIGA Acc. Z13,Completed,4000,,358000,TRUE,Pay Utility with OD via STK,254729140163 - BEATRICE OMADI NYANDIGA,,Z13
RE9068TOYY,09/05/2023 22:04,09/05/2023 22:04,Pay Bill from 254720213934 - TERRY KAWIRA SALESIO Acc. z20 ,Completed,10000,,354000,TRUE,Pay Utility,254720213934 - TERRY KAWIRA SALESIO,,z20
RE9940BO0P,09/05/2023 10:10,09/05/2023 10:10,Pay Bill from 0113698856 - Fredrick Mosoti Mounde Acc. EPZ MH,Completed,30000,,344000,TRUE,Pay Utility,0113698856 - Fredrick Mosoti Mounde,,EPZ
RE8039EVNA,08/05/2023 21:37,08/05/2023 21:37,Pay Bill from 254723877938 - SALOME ONGELE Acc. 369S,Completed,13000,,314000,TRUE,Pay Utility,254723877938 - SALOME ONGELE,,369S
RE8019VOUK,08/05/2023 11:36,08/05/2023 11:36,Utility Account to Organization Settlement Account,Completed,,-23000,301000,TRUE,Utility Account to Organization Settlement Account,887264 - ANCIENT WELLS LTD 2,,
RE71WVQCPF,07/05/2023 02:27,07/05/2023 02:27,Pay Bill Online from 254728208930 - DOREEN MAKENA Acc. Z10,Completed,5000,,324000,TRUE,Pay Bill Online,254728208930 - DOREEN MAKENA,,Z10
RE64V3PGX6,06/05/2023 14:20,06/05/2023 14:20,Pay Bill Online from 254715776633 - FIONA KIMANI Acc. Z16,Completed,3000,,319000,TRUE,Pay Bill Online,254715776633 - FIONA KIMANI,,Z16
RE67U58U1N,06/05/2023 08:32,06/05/2023 08:32,Pay Bill from 254721392330 - ROSE KENDI MUTEGI Acc. A202 ,Completed,90000,,316000,TRUE,Pay Utility,254721392330 - ROSE KENDI MUTEGI,,A202
RE68U0DHBM,06/05/2023 07:24,06/05/2023 07:24,Pay Bill from 0759385844 - ROSEMARY WAMBUI GITAU Acc. B5,Completed,6000,,226000,TRUE,Pay Utility with OD via STK,0759385844 - ROSEMARY WAMBUI GITAU,,B5
RE57SNAGDR,05/05/2023 17:24,05/05/2023 17:24,Pay Bill Online from 254745713921 - LAUREEN WANJIRU MAINA Acc. B3,Completed,6000,,220000,TRUE,Pay Bill Online,254745713921 - LAUREEN WANJIRU MAINA,,B3
RE57QWRHK5,05/05/2023 05:28,05/05/2023 05:28,Pay Bill from 254703573478 - ANTONY MAINA GICHINA Acc. Gichina A5 ,Completed,6000,,214000,TRUE,Pay Utility,254703573478 - ANTONY MAINA GICHINA,,Gichina
RE51QU9CSV,05/05/2023 00:11,05/05/2023 00:11,Pay Bill from 254718167869 - MARK OTIENO Acc. A3,Completed,7000,,208000,TRUE,Pay Utility,254718167869 - MARK OTIENO,,A3
RE43P6QH0T,04/05/2023 14:29,04/05/2023 14:29,Pay Bill Online from 254723909186 - BRIAN LIBASIA Acc. 18,Completed,16000,,201000,TRUE,Pay Bill Online,254723909186 - BRIAN LIBASIA,,18
RE42NXO1B0,04/05/2023 00:00,04/05/2023 00:00,Pay Bill from 254720084537 - MARY NDUKU WAMBUA Acc. 6,Completed,16000,,185000,TRUE,Pay Utility,254720084537 - MARY NDUKU WAMBUA,,6
RE35N77SPZ,03/05/2023 19:05,03/05/2023 19:05,Pay Bill from 254723882311 - VERONICAH WAMBUGU Acc. house number 9,Completed,16000,,169000,TRUE,Pay Utility,254723882311 - VERONICAH WAMBUGU,,house
RE31LOMCZ7,03/05/2023 10:45,03/05/2023 10:45,Pay Bill Online from 254715776633 - FIONA KIMANI Acc. Z16,Completed,10000,,153000,TRUE,Pay Utility with OD Online,254715776633 - FIONA KIMANI,,Z16
RE22KAEYUY,02/05/2023 18:47,02/05/2023 18:47,Pay Bill from 0795150586 - Millicent Achieng Odhone Acc. Andrew Odhiambo ,Completed,20000,,143000,TRUE,Pay Utility,0795150586 - Millicent Achieng Odhone,,Andrew
RE21JYMHLX,02/05/2023 17:19,02/05/2023 17:19,Pay Bill from 254722627652 - BONIFACE MWAMUTSI CHENGO Acc. D9/D10,Completed,22000,,123000,TRUE,Pay Utility,254722627652 - BONIFACE MWAMUTSI CHENGO,,D9/D10
RE11H81U9V,01/05/2023 17:07,01/05/2023 17:07,Pay Bill from 254726731040 - ISAAC NDUNGU Acc. D 8,Completed,6000,,101000,TRUE,Pay Utility,254726731040 - ISAAC NDUNGU,,D
RE17G3LQGZ,01/05/2023 10:03,01/05/2023 10:03,Pay Bill from 0111633679 - JOSEPH ESILABA NDUKA Acc. savannah 102,Completed,36000,,95000,TRUE,Pay Utility,0111633679 - JOSEPH ESILABA NDUKA,,savannah
