Receipt No.,Completion Time,Initiation Time,Details,Transaction Status,Paid In,Withdrawn,Balance,Balance Confirmed,Reason Type,Other Party Info,Linked Transaction ID,A/C No.
QKB1P3Z6MP,11/11/2022 09:50,11/11/2022 09:50,Pay Bill Online from 254703176849 - ROYAL MUYA Acc. F2,Completed,4000,,108400,TRUE,Pay Utility with OD Online,254703176849 - ROYAL MUYA,,F2
QKA4ON5NHW,10/11/2022 22:42,10/11/2022 22:42,Pay Bill from 254727585857 - PETER MUOKI NGUNDO Acc. peter Ngundo e6 ,Completed,8500,,104400,TRUE,Pay Utility,254727585857 - PETER MUOKI NGUNDO,,peter
QKA0OB4NFS,10/11/2022 20:04,10/11/2022 20:04,Pay Bill Online from 0793999724 - JALEEL    MWERO Acc. A2,Completed,7500,,95900,TRUE,Pay Bill Online,0793999724 - JALEEL    MWERO,,A2
QKA2O10OTO,10/11/2022 18:48,10/11/2022 18:48,Pay Bill from 254720086214 - SAMUEL WANJIKU Acc. B3,Completed,8000,,88400,TRUE,Pay Utility,254720086214 - SAMUEL WANJIKU,,B3
QKA6N9HL5G,10/11/2022 13:52,10/11/2022 13:52,Utility Account to Organization Settlement Account,Completed,,-100000,80400,TRUE,Utility Account to Organization Settlement Account,887075 - ANCIENT WELLS LTD 3,,
QKA9N0EJD5,10/11/2022 11:59,10/11/2022 11:59,Pay Bill from 254713229967 - John Mugabo Simba Acc. E4,Completed,5000,,180400,TRUE,Pay Utility,254713229967 - John Mugabo Simba,,E4
QK92KWA15O,09/11/2022 14:00,09/11/2022 14:00,Pay Bill from 254714597495 - WAMBUA KIOKO Acc. c1,Completed,8000,,175400,TRUE,Pay Utility,254714597495 - WAMBUA KIOKO,,c1
QK90KNKENA,09/11/2022 12:15,09/11/2022 12:15,Pay Bill Online from 254715020357 - ELIZABETH NJERI WARARI Acc. C2,Completed,7500,,167400,TRUE,Pay Bill Online,254715020357 - ELIZABETH NJERI WARARI,,C2
QK87JQ0G01,08/11/2022 21:07,08/11/2022 21:07,Pay Bill from 0743437540 - Susan Nduta Muiruri Acc. B2,Completed,8000,,159900,TRUE,Pay Utility,0743437540 - Susan Nduta Muiruri,,B2
QK88JJE4WU,08/11/2022 20:03,08/11/2022 20:03,Pay Bill Online from 254711877988 - PATRICK KONZI Acc. b4,Completed,8500,,151900,TRUE,Pay Utility with OD Online,254711877988 - PATRICK KONZI,,b4
QK86J7G12Q,08/11/2022 18:34,08/11/2022 18:34,Pay Bill from 254720439955 - GEOPHRY OKOTH Acc. D6,Completed,8500,,143400,TRUE,Pay Utility,254720439955 - GEOPHRY OKOTH,,D6
QK89IR87EZ,08/11/2022 15:54,08/11/2022 15:54,Pay Bill from 0115708408 - MICHAEL ELIZA WANJALA Acc. g2,Completed,8000,,134900,TRUE,Pay Utility,0115708408 - MICHAEL ELIZA WANJALA,,g2
QK72GKVQ2M,07/11/2022 17:06,07/11/2022 17:06,Pay Bill from 254713062617 - ISAAC KIPROTICH INCHERE Acc. F3,Completed,8000,,126900,TRUE,Pay Utility,254713062617 - ISAAC KIPROTICH INCHERE,,F3
QK71GIK92B,07/11/2022 16:41,07/11/2022 16:41,Pay Bill Online from 254720201157 - BENSON INYANJE MWAKHA Acc. b6,Completed,8500,,118900,TRUE,Pay Bill Online,254720201157 - BENSON INYANJE MWAKHA,,b6
QK75FXA0GL,07/11/2022 12:26,07/11/2022 12:26,Pay Bill from 254726945691 - JAMES RAMTU Acc. B5,Completed,8500,,110400,TRUE,Pay Utility,254726945691 - JAMES RAMTU,,B5
QK69EJIOZJ,06/11/2022 18:36,06/11/2022 18:36,Pay Bill from 254710248036 - Allan Kimeu Mutua Acc. F5,Completed,8500,,101900,TRUE,Pay Utility,254710248036 - Allan Kimeu Mutua,,F5
QK69E6EQ7R,06/11/2022 16:18,06/11/2022 16:18,Pay Bill from 0704120519 - Mildred   Adhiambo Acc. G1,Completed,8000,,93400,TRUE,Pay Utility,0704120519 - Mildred   Adhiambo,,G1
QK61DAAJDL,06/11/2022 09:21,06/11/2022 09:21,Pay Bill from 254726645592 - Ephantus Muriithi Irura Acc. c4 muriithi,Completed,8500,,85400,TRUE,Pay Utility,254726645592 - Ephantus Muriithi Irura,,c4
QK56CSWHIO,05/11/2022 21:46,05/11/2022 21:46,Pay Bill from 254715764093 - GICHANA GOVAN Acc. ACC E3,Completed,8000,,76900,TRUE,Pay Utility,254715764093 - GICHANA GOVAN,,ACC
QK57AQPKID,05/11/2022 08:55,05/11/2022 08:55,Pay Bill from 0114093036 - Cecillia Njeri Githui Acc. c3,Completed,8400,,68900,TRUE,Pay Utility,0114093036 - Cecillia Njeri Githui,,c3
QK439P9WGH,04/11/2022 18:35,04/11/2022 18:35,Pay Bill from 0791565463 - Lilian Njeri Wakagwi Acc. F6,Completed,8500,,60500,TRUE,Pay Utility,0791565463 - Lilian Njeri Wakagwi,,F6
QK498WUMBL,04/11/2022 13:43,04/11/2022 13:43,Utility Account to Organization Settlement Account,Completed,,-50000,52000,TRUE,Utility Account to Organization Settlement Account,887075 - ANCIENT WELLS LTD 3,,
QK458I76U1,04/11/2022 10:43,04/11/2022 10:43,Pay Bill from 254791341895 - Enos Nyaosi Ayuma Acc. D5,Completed,8500,,102000,TRUE,Pay Utility,254791341895 - Enos Nyaosi Ayuma,,D5
QK4984HKR3,04/11/2022 07:29,04/11/2022 07:29,Pay Bill Online from 254720062144 - CAROLINE AMONDI OKELO Acc. f4,Completed,11000,,93500,TRUE,Pay Utility with OD Online,254720062144 - CAROLINE AMONDI OKELO,,f4
QK397KEE3L,03/11/2022 19:57,03/11/2022 19:57,Pay Bill from 254721539716 - OCTAVIAN MWANYALO Acc. C6,Completed,8000,,82500,TRUE,Pay Utility,254721539716 - OCTAVIAN MWANYALO,,C6
QK35729GVP,03/11/2022 17:38,03/11/2022 17:38,Pay Bill from 0715030019 - Omwenga Ong'era Stephen Acc. E1,Completed,8000,,74500,TRUE,Pay Utility,0715030019 - Omwenga Ong'era Stephen,,E1
QK294R8O7J,02/11/2022 18:27,02/11/2022 18:27,Pay Bill from 254714419834 - FAITH MWIKALI MUTHAMA Acc. d4,Completed,8500,,66500,TRUE,Pay Utility,254714419834 - FAITH MWIKALI MUTHAMA,,d4
QK284N3ADA,02/11/2022 17:51,02/11/2022 17:51,Pay Bill from 0720571944 - Ronoh   Benard Acc. D2,Completed,10000,,58000,TRUE,Pay Utility,0720571944 - Ronoh   Benard,,D2
QK243YP732,02/11/2022 13:09,02/11/2022 13:09,Pay Bill from 0793999724 - JALEEL    MWERO Acc. A2,Completed,7500,,48000,TRUE,Pay Utility,0793999724 - JALEEL    MWERO,,A2
