Receipt No.,Completion Time,Initiation Time,Details,Transaction Status,Paid In,Withdrawn,Balance,Balance Confirmed,Reason Type,Other Party Info,Linked Transaction ID,A/C No.
PL36K01JF6,03/12/2021 14:09,03/12/2021 14:09,Pay Bill Online from 254713966424 - NDUTI MUTHUI Acc. Jed,Completed,15000,,76450,TRUE,Pay Bill Online,254713966424 - NDUTI MUTHUI,,Jed
PL37JXA61X,03/12/2021 13:25,03/12/2021 13:25,Pay Bill from 254723901777 - EVANS YEBEI Acc. KCH,Completed,10000,,61450,TRUE,Pay Utility with OD via STK,254723901777 - EVANS YEBEI,,KCH
PL37JWDZT9,03/12/2021 13:11,03/12/2021 13:11,Pay Bill from 254719398942 - NORAH WAYUA MUNYAO Acc. KDA,Completed,16500,,51450,TRUE,Pay Utility,254719398942 - NORAH WAYUA MUNYAO,,KDA
PL30JVXD2W,03/12/2021 13:03,03/12/2021 13:03,Pay Bill from 254726385675 - JAMES OENGA Acc. JEI,Completed,1450,,34950,TRUE,Pay Utility,254726385675 - JAMES OENGA,,JEI
PL32JVCCS0,03/12/2021 12:53,03/12/2021 12:53,Pay Bill from 254717606114 - KELVIN TONDO NGUMBAO Acc. HCE,Completed,12000,,33500,TRUE,Pay Utility,254717606114 - KELVIN TONDO NGUMBAO,,HCE
PL30JM9JAQ,03/12/2021 10:21,03/12/2021 10:21,Pay Bill Online from 254728093389 - MOHAMED MUSA ALASOW Acc. KED ,Completed,12000,,21500,TRUE,Pay Bill Online,254728093389 - MOHAMED MUSA ALASOW,,KED
PL33JG8QTF,03/12/2021 08:31,03/12/2021 08:31,Pay Bill from 254715742045 - FRIDAH KIEMA Acc. HGC ,Completed,9500,,9500,TRUE,Pay Utility with OD via STK,254715742045 - FRIDAH KIEMA,,HGC
PL37JE3PMT,03/12/2021 07:43,03/12/2021 07:43,Utility Account to Organization Settlement Account,Completed,,-100800,0,TRUE,Utility Account to Organization Settlement Account,979524 - ANCIENT WELLS PROPERTY MANAGERS 2,,
PL32JCQ4GU,03/12/2021 07:03,03/12/2021 07:03,Pay Bill Online from 0796121714 - janet   mwikali Acc. KBC,Completed,10000,,100800,TRUE,Pay Bill Online,0796121714 - janet   mwikali,,KBC
PL21J7UX11,02/12/2021 22:24,02/12/2021 22:24,Pay Bill from 254716315144 - PETER MUNYIRI WAROTERE Acc. FBB,Completed,16000,,90800,TRUE,Pay Utility,254716315144 - PETER MUNYIRI WAROTERE,,FBB
PL22J5CY0W,02/12/2021 21:28,02/12/2021 21:28,Pay Bill from 254700382442 - EVERLYNE MWENDE MUMO Acc. FGC,Completed,9000,,74800,TRUE,Pay Utility,254700382442 - EVERLYNE MWENDE MUMO,,FGC
PL22J4Y9SS,02/12/2021 21:20,02/12/2021 21:20,Pay Bill from 254721417560 - ANDREW SANDE Acc. JBJ,Completed,16000,,65800,TRUE,Pay Utility,254721417560 - ANDREW SANDE,,JBJ
PL27IYL4F5,02/12/2021 19:55,02/12/2021 19:55,Pay Bill from 254720375006 - JACOB KANGOGO Acc. IBA,Completed,15000,,49800,TRUE,Pay Utility,254720375006 - JACOB KANGOGO,,IBA
PL22IXIBRK,02/12/2021 19:43,02/12/2021 19:43,Pay Bill from 254799287000 - Godfrey odhiambo oyugi Acc. kae,Completed,9800,,34800,TRUE,Pay Utility with OD via STK,254799287000 - Godfrey odhiambo oyugi,,kae
PL22ISKECU,02/12/2021 18:54,02/12/2021 18:54,Pay Bill from 254704934557 - BAKARI KITSAKA Acc. JAD,Completed,15000,,25000,TRUE,Pay Utility,254704934557 - BAKARI KITSAKA,,JAD
PL22ILDJHO,02/12/2021 17:33,02/12/2021 17:33,Pay Bill from 254798146452 - VALARY ODHIAMBO Acc. JEE,Completed,10000,,10000,TRUE,Pay Utility,254798146452 - VALARY ODHIAMBO,,JEE
PL29IIO38X,02/12/2021 16:57,02/12/2021 16:57,Utility Account to Organization Settlement Account,Completed,,-171700,0,TRUE,Utility Account to Organization Settlement Account,979524 - ANCIENT WELLS PROPERTY MANAGERS 2,,
PL28IHCT84,02/12/2021 16:38,02/12/2021 16:38,Pay Bill from 0795068880 - Patrick   Kiplagat Acc. KAG,Completed,10600,,171700,TRUE,Pay Utility,0795068880 - Patrick   Kiplagat,,KAG
PL24IH9TGK,02/12/2021 16:37,02/12/2021 16:37,Pay Bill from 0797758628 - jackline nyamari onyango Acc. ICF ,Completed,11000,,161100,TRUE,Pay Utility,0797758628 - jackline nyamari onyango,,ICF
PL22IDG1G8,02/12/2021 15:38,02/12/2021 15:38,Pay Bill from 254726385675 - JAMES OENGA Acc. JEI,Completed,27100,,150100,TRUE,Pay Utility,254726385675 - JAMES OENGA,,JEI
PL28I9MXBA,02/12/2021 14:35,02/12/2021 14:35,Pay Bill Online from 254715764212 - BANCE ISHEMINYE Acc. JFE ,Completed,4000,,123000,TRUE,Pay Bill Online,254715764212 - BANCE ISHEMINYE,,JFE
PL23I76G6Z,02/12/2021 13:54,02/12/2021 13:54,Pay Bill from 254724852503 - GEOFREY YEGO Acc. JFF,Completed,10000,,119000,TRUE,Pay Utility,254724852503 - GEOFREY YEGO,,JFF
PL22I4T5UG,02/12/2021 13:15,02/12/2021 13:15,Pay Bill Online from 254790627132 - Everline Mutave Kiio Acc. IGG,Completed,8000,,109000,TRUE,Pay Bill Online,254790627132 - Everline Mutave Kiio,,IGG
PL26I3GFYU,02/12/2021 12:52,02/12/2021 12:52,Pay Bill from 254721852723 - HASSAN ABDINOOR MOHAMED Acc. jaa,Completed,17000,,101000,TRUE,Pay Utility,254721852723 - HASSAN ABDINOOR MOHAMED,,jaa
PL26I362RK,02/12/2021 12:47,02/12/2021 12:47,Pay Bill from 0705569029 - phillip nyongesa wamocha Acc. DGC,Completed,20000,,84000,TRUE,Pay Utility,0705569029 - phillip nyongesa wamocha,,DGC
PL22I2NGIU,02/12/2021 12:38,02/12/2021 12:38,Pay Bill Online from 254708225541 - JUDITH NKATHA SIMBA Acc. HDH,Completed,16000,,64000,TRUE,Pay Bill Online,254708225541 - JUDITH NKATHA SIMBA,,HDH
PL20I0KTU8,02/12/2021 12:02,02/12/2021 12:02,Pay Bill from 254729557859 - AUDREY KASINDAHA KASINDAHA Acc. KFB,Completed,16000,,48000,TRUE,Pay Utility with OD via STK,254729557859 - AUDREY KASINDAHA KASINDAHA,,KFB
PL21HZRN1X,02/12/2021 11:48,02/12/2021 11:48,Pay Bill Online from 254720787158 - AMOS CHELANG'A Acc. KFK,Completed,32000,,32000,TRUE,Pay Bill Online,254720787158 - AMOS CHELANG'A,,KFK
PL28HUSFIU,02/12/2021 10:20,02/12/2021 10:20,Utility Account to Organization Settlement Account,Completed,,-140000,0,TRUE,Utility Account to Organization Settlement Account,979524 - ANCIENT WELLS PROPERTY MANAGERS 2,,
PL24HUE89Q,02/12/2021 10:13,02/12/2021 10:13,Pay Bill from 254718284151 - EVERLINE MATHEKA Acc. JAG,Completed,9000,,140000,TRUE,Pay Utility,254718284151 - EVERLINE MATHEKA,,JAG
PL29HUDG7V,02/12/2021 10:12,02/12/2021 10:12,Pay Bill from 254720814822 - JAMES OTIENO OPAR Acc. Jgj,Completed,2000,,131000,TRUE,Pay Utility,254720814822 - JAMES OTIENO OPAR,,Jgj
PL21HQXERJ,02/12/2021 09:10,02/12/2021 09:10,Pay Bill from 254724952183 - MICHAEL WAMBUA MWOVE Acc. Fea,Completed,16000,,129000,TRUE,Pay Utility,254724952183 - MICHAEL WAMBUA MWOVE,,Fea
PL28HP91S8,02/12/2021 08:37,02/12/2021 08:37,Pay Bill Online from 254716784364 - Wendy Kemunto Nyandiko Acc. FFC,Completed,9000,,113000,TRUE,Pay Bill Online,254716784364 - Wendy Kemunto Nyandiko,,FFC
PL26HOY754,02/12/2021 08:31,02/12/2021 08:31,Pay Bill Online from 254742911013 - HANEST AMIMO Acc. IEG,Completed,8000,,104000,TRUE,Pay Bill Online,254742911013 - HANEST AMIMO,,IEG
PL26HLEQHG,02/12/2021 07:05,02/12/2021 07:05,Pay Bill Online from 254714855708 - KIPLANGAT SITIENEI Acc. FAE,Completed,16000,,96000,TRUE,Pay Bill Online,254714855708 - KIPLANGAT SITIENEI,,FAE
PL11HH8L3F,01/12/2021 22:45,01/12/2021 22:45,Pay Bill from 254726977770 - STEPHEN MUIRURI MATHENGE Acc. KAF,Completed,10000,,80000,TRUE,Pay Utility,254726977770 - STEPHEN MUIRURI MATHENGE,,KAF
PL16HDP1VO,01/12/2021 21:24,01/12/2021 21:24,Pay Bill from 254708570729 - MARY OGOLLA Acc. KAD,Completed,12000,,70000,TRUE,Pay Utility,254708570729 - MARY OGOLLA,,KAD
PL16HB9DIS,01/12/2021 20:48,01/12/2021 20:48,Pay Bill from 254717726012 - WINFRED MUENI PETER Acc. IDA,Completed,16000,,58000,TRUE,Pay Utility,254717726012 - WINFRED MUENI PETER,,IDA
PL12H7IEJW,01/12/2021 20:05,01/12/2021 20:05,Pay Bill from 0715688238 - JOANNAH ATUHAIRE BANTU Acc. jae,Completed,4500,,42000,TRUE,Pay Utility,0715688238 - JOANNAH ATUHAIRE BANTU,,jae
PL15GZLCI3,01/12/2021 18:49,01/12/2021 18:49,Pay Bill from 0717216114 - Felix Njeru Mugambi Acc. Kdf,Completed,10000,,37500,TRUE,Pay Utility,0717216114 - Felix Njeru Mugambi,,Kdf
PL12GYRKFU,01/12/2021 18:41,01/12/2021 18:41,Pay Bill from 0740123933 - MAVIN AYOO OMONDI Acc. IGE,Completed,2000,,27500,TRUE,Pay Utility,0740123933 - MAVIN AYOO OMONDI,,IGE
PL10GYOWP4,01/12/2021 18:40,01/12/2021 18:40,Pay Bill Online from 254714536026 - LILIAN AWUOR ONYANGO Acc. HDC,Completed,10500,,25500,TRUE,Pay Bill Online,254714536026 - LILIAN AWUOR ONYANGO,,HDC
PL12GXEYG4,01/12/2021 18:27,01/12/2021 18:27,Pay Bill from 254707370896 - OKECH BRIAN BRIAN Acc. FFA,Completed,15000,,15000,TRUE,Pay Utility,254707370896 - OKECH BRIAN BRIAN,,FFA
PL10GV17LY,01/12/2021 18:00,01/12/2021 18:00,Utility Account to Organization Settlement Account,Completed,,-152500,0,TRUE,Utility Account to Organization Settlement Account,979524 - ANCIENT WELLS PROPERTY MANAGERS 2,,
PL15GU61OX,01/12/2021 17:49,01/12/2021 17:49,Pay Bill from 254725771056 - CHARLES MURAGURI Acc. FCE,Completed,15000,,152500,TRUE,Pay Utility,254725771056 - CHARLES MURAGURI,,FCE
PL13GQDS0P,01/12/2021 17:00,01/12/2021 17:00,Pay Bill from 254703528196 - ERIC GITONGA MUGO Acc. KGJ,Completed,15000,,137500,TRUE,Pay Utility,254703528196 - ERIC GITONGA MUGO,,KGJ
PL14GOSPYC,01/12/2021 16:37,01/12/2021 16:37,Pay Bill from 254729541871 - ROBERT KULEI Acc. JAB,Completed,5000,,122500,TRUE,Pay Utility,254729541871 - ROBERT KULEI,,JAB
PL14GNVIEW,01/12/2021 16:23,01/12/2021 16:23,Pay Bill Online from 254727554512 - COLLINS KOECH Acc. JDJ,Completed,15000,,117500,TRUE,Pay Bill Online,254727554512 - COLLINS KOECH,,JDJ
PL10GNHNL0,01/12/2021 16:17,01/12/2021 16:17,Pay Bill Online from 254707226192 - NICHOLUS MAINGI MWANTHI Acc. HBF,Completed,9000,,102500,TRUE,Pay Bill Online,254707226192 - NICHOLUS MAINGI MWANTHI,,HBF
PL13GMIOGH,01/12/2021 16:02,01/12/2021 16:02,Pay Bill Online from 254722604851 - WILFRED SAKWA Acc. IDG,Completed,10000,,93500,TRUE,Pay Bill Online,254722604851 - WILFRED SAKWA,,IDG
PL13GKD6VR,01/12/2021 15:28,01/12/2021 15:28,Pay Bill from 254115949784 - JOHN MAITHA MULWA Acc. ibh,Completed,20000,,83500,TRUE,Pay Utility,254115949784 - JOHN MAITHA MULWA,,ibh
PL10GILMCG,01/12/2021 14:59,01/12/2021 14:59,Pay Bill from 254724477912 - SAMUEL MURIMI Acc. HCD,Completed,10000,,63500,TRUE,Pay Utility,254724477912 - SAMUEL MURIMI,,HCD
PL13GIITJN,01/12/2021 14:57,01/12/2021 14:57,Pay Bill from 254720814822 - JAMES OTIENO OPAR Acc. Jgj,Completed,2500,,53500,TRUE,Pay Utility with OD via STK,254720814822 - JAMES OTIENO OPAR,,Jgj
PL17GGHM33,01/12/2021 14:24,01/12/2021 14:24,Pay Bill from 254726172957 - VINCENT OLIENG' Acc. HBC,Completed,10000,,51000,TRUE,Pay Utility,254726172957 - VINCENT OLIENG',,HBC
PL15GF068P,01/12/2021 13:59,01/12/2021 13:59,Pay Bill from 254740579741 - MUHINDI MULINYA Acc. HGG,Completed,15000,,41000,TRUE,Pay Utility,254740579741 - MUHINDI MULINYA,,HGG
PL18GAMCVW,01/12/2021 12:48,01/12/2021 12:48,Pay Bill from 254700430569 - EDITH   GAKII Acc. FCB,Completed,16000,,26000,TRUE,Pay Utility,254700430569 - EDITH   GAKII,,FCB
PL12GA0B5K,01/12/2021 12:38,01/12/2021 12:38,Pay Bill from 254728901013 - ALEX MOSE ARWASA Acc. HGD,Completed,10000,,10000,TRUE,Pay Utility,254728901013 - ALEX MOSE ARWASA,,HGD
PL12G96EUW,01/12/2021 12:24,01/12/2021 12:24,Utility Account to Organization Settlement Account,Completed,,-43000,0,TRUE,Utility Account to Organization Settlement Account,979524 - ANCIENT WELLS PROPERTY MANAGERS 2,,
PL13G7YVVJ,01/12/2021 12:03,01/12/2021 12:03,Merchant Pay Utility Received from 7040090 - Amina Haji Salah Acc. JEH,Completed,6000,,43000,TRUE,Merchant Pay Utility via API,7040090 - Amina Haji Salah,,JEH
PL17G4SR9D,01/12/2021 11:09,01/12/2021 11:09,Pay Bill Online from 254726001437 - FESTUS MUNYIRI MAINA Acc. IFF,Completed,10000,,37000,TRUE,Pay Bill Online,254726001437 - FESTUS MUNYIRI MAINA,,IFF
PL10G2SXB0,01/12/2021 10:35,01/12/2021 10:35,Pay Bill from 254729796719 - JACINTA WANJIKU NJERI Acc. FFF,Completed,17000,,27000,TRUE,Pay Utility,254729796719 - JACINTA WANJIKU NJERI,,FFF
PL13FWWQKD,01/12/2021 08:52,01/12/2021 08:52,Pay Bill Online from 254700187806 - WINNIE OLIVIA AKOTH Acc. jec,Completed,10000,,10000,TRUE,Pay Bill Online,254700187806 - WINNIE OLIVIA AKOTH,,jec
PL11FV7XAP,01/12/2021 08:19,01/12/2021 08:19,Utility Account to Organization Settlement Account,Completed,,-181500,0,TRUE,Utility Account to Organization Settlement Account,979524 - ANCIENT WELLS PROPERTY MANAGERS 2,,
PL16FV1PGS,01/12/2021 08:15,01/12/2021 08:15,Pay Bill Online from 254795510441 - LEWIS MUEMA Acc. KEB,Completed,16000,,181500,TRUE,Pay Bill Online,254795510441 - LEWIS MUEMA,,KEB
PL10FRWDKS,01/12/2021 06:54,01/12/2021 06:54,Pay Bill Online from 254717809935 - LYDIAH WERU Acc. IDC,Completed,9500,,165500,TRUE,Pay Bill Online,254717809935 - LYDIAH WERU,,IDC
PL15FPMAET,01/12/2021 02:16,01/12/2021 02:16,Pay Bill from 254723488259 - WILSON OKITE OKITE Acc. HCA,Completed,15000,,156000,TRUE,Pay Utility,254723488259 - WILSON OKITE OKITE,,HCA
PL12FORBJ6,01/12/2021 00:15,01/12/2021 00:15,Pay Bill from 254703180395 - JANE NYAGUTHII MWAGO Acc. IBE,Completed,8000,,141000,TRUE,Pay Utility,254703180395 - JANE NYAGUTHII MWAGO,,IBE
PKU5FI5MWX,30/11/2021 20:51,30/11/2021 20:51,Pay Bill from 254791419907 - ALEX OMOLO OMONDI Acc. IGE,Completed,17000,,133000,TRUE,Pay Utility with OD via STK,254791419907 - ALEX OMOLO OMONDI,,IGE
PKU4FFV760,30/11/2021 20:21,30/11/2021 20:21,Pay Bill from 254111542144 - GAI MANYOK REECH Acc. KGG,Completed,10000,,116000,TRUE,Pay Utility,254111542144 - GAI MANYOK REECH,,KGG
PKU8FAC1DM,30/11/2021 19:20,30/11/2021 19:20,Pay Bill from 254705122840 - RICHU MWANGI GATURAGA Acc. DEA,Completed,16000,,106000,TRUE,Pay Utility,254705122840 - RICHU MWANGI GATURAGA,,DEA
PKU0F9709U,30/11/2021 19:09,30/11/2021 19:09,Pay Bill from 254716715043 - HANNAH WATETU GACHAGUA Acc. IAI,Completed,15000,,90000,TRUE,Pay Utility with OD via STK,254716715043 - HANNAH WATETU GACHAGUA,,IAI
PKU6F8JJYQ,30/11/2021 19:03,30/11/2021 19:03,Pay Bill from 254720351482 - Cheruiyot Langat Brian Acc. dfa,Completed,15000,,75000,TRUE,Pay Utility,254720351482 - Cheruiyot Langat Brian,,dfa
PKU2EXL4ZA,30/11/2021 16:52,30/11/2021 16:52,Pay Bill from 254725381062 - VICTOR MAITHYA Acc. HEG,Completed,3000,,60000,TRUE,Pay Utility,254725381062 - VICTOR MAITHYA,,HEG
PKU2EWFYI4,30/11/2021 16:35,30/11/2021 16:35,Pay Bill from 254725478531 - KIPKORIR KUTO Acc. DFB,Completed,31000,,57000,TRUE,Pay Utility,254725478531 - KIPKORIR KUTO,,DFB
PKU9EUX14R,30/11/2021 16:11,30/11/2021 16:11,Pay Bill from 254719398942 - NORAH WAYUA MUNYAO Acc. KDA,Completed,10000,,26000,TRUE,Pay Utility,254719398942 - NORAH WAYUA MUNYAO,,KDA
PKU4ERKUNK,30/11/2021 15:17,30/11/2021 15:17,Pay Bill from 254720814822 - JAMES OTIENO OPAR Acc. Jgj,Completed,5000,,16000,TRUE,Pay Utility with OD via STK,254720814822 - JAMES OTIENO OPAR,,Jgj
PKU7ELVCRR,30/11/2021 13:41,30/11/2021 13:41,Pay Bill from 254720883049 - SIMON AMUKOCHE Acc. IED,Completed,11000,,11000,TRUE,Pay Utility with OD via STK,254720883049 - SIMON AMUKOCHE,,IED
PKU0EG7XC8,30/11/2021 12:03,30/11/2021 12:03,Utility Account to Organization Settlement Account,Completed,,-30000,0,TRUE,Utility Account to Organization Settlement Account,979524 - ANCIENT WELLS PROPERTY MANAGERS 2,,
PKU8ECXZUE,30/11/2021 11:04,30/11/2021 11:04,Pay Bill from 254723966777 - BONIFACE MUTHAKA NGANGA Acc. IEC,Completed,9000,,30000,TRUE,Pay Utility,254723966777 - BONIFACE MUTHAKA NGANGA,,IEC
PKU0EB2IOG,30/11/2021 10:30,30/11/2021 10:30,Pay Bill from 254725385966 - JOSEPH MUYA MARUA Acc. KEE,Completed,10000,,21000,TRUE,Pay Utility,254725385966 - JOSEPH MUYA MARUA,,KEE
PKU2E92GPQ,30/11/2021 09:53,30/11/2021 09:53,Pay Bill Online from 254728364280 - EMMANUEL THUMA OYIER Acc. IDF,Completed,11000,,11000,TRUE,Pay Bill Online,254728364280 - EMMANUEL THUMA OYIER,,IDF
PKU8E3B35C,30/11/2021 07:52,30/11/2021 07:52,Utility Account to Organization Settlement Account,Completed,,-77800,0,TRUE,Utility Account to Organization Settlement Account,979524 - ANCIENT WELLS PROPERTY MANAGERS 2,,
PKT3DY489Z,29/11/2021 22:35,29/11/2021 22:35,Pay Bill from 254710110273 - AGNES NTOITI Acc. Jbb,Completed,3800,,77800,TRUE,Pay Utility with OD via STK,254710110273 - AGNES NTOITI,,Jbb
PKT4DNLBEC,29/11/2021 19:36,29/11/2021 19:36,Pay Bill from 254705902606 - JOSEPH OTIENO SAGWA Acc. fed,Completed,11000,,74000,TRUE,Pay Utility,254705902606 - JOSEPH OTIENO SAGWA,,fed
PKT1DD7UCL,29/11/2021 17:40,29/11/2021 17:40,Pay Bill from 254729450678 - GRACE NDUNGE Acc. fba,Completed,15000,,63000,TRUE,Pay Utility with OD via STK,254729450678 - GRACE NDUNGE,,fba
PKT3D992A5,29/11/2021 16:44,29/11/2021 16:44,Pay Bill from 254726599835 - LAWRENCE MURIITHI Acc. kdj,Completed,15000,,48000,TRUE,Pay Utility,254726599835 - LAWRENCE MURIITHI,,kdj
PKT4CZSP4K,29/11/2021 14:06,29/11/2021 14:06,Pay Bill from 254702527778 - PAULINE MUKAMI MUNYI Acc. HEH,Completed,16000,,33000,TRUE,Pay Utility,254702527778 - PAULINE MUKAMI MUNYI,,HEH
PKT7CPFJJR,29/11/2021 11:06,29/11/2021 11:06,Pay Bill from 254726753273 - JESSE K MURIRMI NJERU Acc. HCH,Completed,17000,,17000,TRUE,Pay Utility,254726753273 - JESSE K MURIRMI NJERU,,HCH
PKT6CLSI0C,29/11/2021 10:00,29/11/2021 10:00,Utility Account to Organization Settlement Account,Completed,,-204180,0,TRUE,Utility Account to Organization Settlement Account,979524 - ANCIENT WELLS PROPERTY MANAGERS 2,,
PKS9BVKAY3,28/11/2021 18:45,28/11/2021 18:45,Pay Bill Online from 254713404029 - ANNE ISEUNA Acc. DED,Completed,20000,,204180,TRUE,Pay Bill Online,254713404029 - ANNE ISEUNA,,DED
PKS7BL7JBX,28/11/2021 16:14,28/11/2021 16:14,Pay Bill from 0722531422 - ANTHONY ITIMU MAINA Acc. JBD,Completed,17000,,184180,TRUE,Pay Utility,0722531422 - ANTHONY ITIMU MAINA,,JBD
PKS1BHYJKZ,28/11/2021 15:21,28/11/2021 15:21,Pay Bill from 254726599835 - LAWRENCE MURIITHI Acc. kdj,Completed,18000,,167180,TRUE,Pay Utility with OD via STK,254726599835 - LAWRENCE MURIITHI,,kdj
PKS4BGPY6M,28/11/2021 15:01,28/11/2021 15:01,Pay Bill from 254714060203 - PATRICK MWANGOMBE MSAWUCHI Acc. KEI,Completed,12000,,149180,TRUE,Pay Utility,254714060203 - PATRICK MWANGOMBE MSAWUCHI,,KEI
PKS9BG1277,28/11/2021 14:49,28/11/2021 14:49,Pay Bill Online from 254724211857 - OCHUODHO OUMA Acc. KBK,Completed,17000,,137180,TRUE,Pay Bill Online,254724211857 - OCHUODHO OUMA,,KBK
PKS5B9R7I3,28/11/2021 12:59,28/11/2021 12:59,Pay Bill from 0115972564 - MARSELA MUO ELIAS Acc. 94571,Completed,1480,,120180,TRUE,Pay Utility,0115972564 - MARSELA MUO ELIAS,,94571
PKS7B4C43N,28/11/2021 11:11,28/11/2021 11:11,Pay Bill from 254728888511 - HAMISI MIRITI Acc. KAK,Completed,16000,,118700,TRUE,Pay Utility,254728888511 - HAMISI MIRITI,,KAK
PKS0B001NA,28/11/2021 09:41,28/11/2021 09:41,Pay Bill from 254710635630 - DONNA JESSICA OWANO Acc. KCC,Completed,2000,,102700,TRUE,Pay Utility,254710635630 - DONNA JESSICA OWANO,,KCC
PKR7AQ2LU3,27/11/2021 22:45,27/11/2021 22:45,Pay Bill from 254721671129 - CHRISPINUS ODHIAMBO Acc. DFD,Completed,20000,,100700,TRUE,Pay Utility,254721671129 - CHRISPINUS ODHIAMBO,,DFD
PKR4A6I0VE,27/11/2021 18:04,27/11/2021 18:04,Pay Bill from 254799287000 - Godfrey odhiambo oyugi Acc. kae,Completed,200,,80700,TRUE,Pay Utility,254799287000 - Godfrey odhiambo oyugi,,kae
PKR89Q2CKE,27/11/2021 14:04,27/11/2021 14:04,Pay Bill Online from 254717780356 - ALFRED MAIRURA Acc. FAF,Completed,16000,,80500,TRUE,Pay Bill Online,254717780356 - ALFRED MAIRURA,,FAF
PKR69MAUOG,27/11/2021 13:04,27/11/2021 13:04,Pay Bill from 254703555717 - SENGA SALIM Acc. hbb,Completed,3000,,64500,TRUE,Pay Utility,254703555717 - SENGA SALIM,,hbb
PKR69COREU,27/11/2021 10:21,27/11/2021 10:21,Pay Bill from 254714814264 - PATRICIA NZOMO Acc. Hbg,Completed,26500,,61500,TRUE,Pay Utility with OD via STK,254714814264 - PATRICIA NZOMO,,Hbg
PKR29CNTRM,27/11/2021 10:20,27/11/2021 10:20,Pay Bill from 254717801919 - MARCELINE AKINYI Acc. IAF,Completed,20000,,35000,TRUE,Pay Utility with OD via STK,254717801919 - MARCELINE AKINYI,,IAF
PKR29938M6,27/11/2021 09:15,27/11/2021 09:15,Pay Bill from 254704140048 - MAUREEN GACHERI KINYUA Acc. JDD,Completed,15000,,15000,TRUE,Pay Utility,254704140048 - MAUREEN GACHERI KINYUA,,JDD
PKR3979LOX,27/11/2021 08:38,27/11/2021 08:38,Utility Account to Organization Settlement Account,Completed,,-96000,0,TRUE,Utility Account to Organization Settlement Account,979524 - ANCIENT WELLS PROPERTY MANAGERS 2,,
PKQ98YBXIP,26/11/2021 22:06,26/11/2021 22:06,Pay Bill from 254700557767 - BAKHITA MWENDE MUANGE Acc. KCB,Completed,15000,,96000,TRUE,Pay Utility,254700557767 - BAKHITA MWENDE MUANGE,,KCB
PKQ58M4DQR,26/11/2021 19:11,26/11/2021 19:11,Pay Bill from 254720814822 - JAMES OTIENO OPAR Acc. Jgj,Completed,3000,,81000,TRUE,Pay Utility,254720814822 - JAMES OTIENO OPAR,,Jgj
PKQ38KI44T,26/11/2021 18:55,26/11/2021 18:55,Pay Bill from 254725381062 - VICTOR MAITHYA Acc. HEG,Completed,4000,,78000,TRUE,Pay Utility with OD via STK,254725381062 - VICTOR MAITHYA,,HEG
PKQ98I2U83,26/11/2021 18:30,26/11/2021 18:30,Pay Bill Online from 254700379039 - MARTIN KIMANI Acc. KCI,Completed,12000,,74000,TRUE,Pay Bill Online,254700379039 - MARTIN KIMANI,,KCI
PKQ18HOPON,26/11/2021 18:25,26/11/2021 18:25,Pay Bill Online from 254717463608 - DANIEL MUNIU MUGURE Acc. HGE,Completed,10000,,62000,TRUE,Pay Bill Online,254717463608 - DANIEL MUNIU MUGURE,,HGE
PKQ38C8G3V,26/11/2021 17:17,26/11/2021 17:17,Pay Bill from 254702061696 - STACY OCHIENG Acc. IGD,Completed,21000,,52000,TRUE,Pay Utility,254702061696 - STACY OCHIENG,,IGD
PKQ58AAUVB,26/11/2021 16:50,26/11/2021 16:50,Pay Bill from 254726178084 - CHRISTOPHER OCHIENG Acc. ffe,Completed,20000,,31000,TRUE,Pay Utility,254726178084 - CHRISTOPHER OCHIENG,,ffe
PKQ587VW6B,26/11/2021 16:14,26/11/2021 16:14,Pay Bill Online from 254704033042 - LESLIE KOIKAI Acc. IBD,Completed,11000,,11000,TRUE,Pay Bill Online,254704033042 - LESLIE KOIKAI,,IBD
PKQ7866BVF,26/11/2021 15:47,26/11/2021 15:47,Utility Account to Organization Settlement Account,Completed,,-21000,0,TRUE,Utility Account to Organization Settlement Account,979524 - ANCIENT WELLS PROPERTY MANAGERS 2,,
PKQ5828IIB,26/11/2021 14:41,26/11/2021 14:41,Pay Bill from 254722910078 - MAUREEN MUNYIVA MUTUKU Acc. DBD,Completed,5000,,21000,TRUE,Pay Utility,254722910078 - MAUREEN MUNYIVA MUTUKU,,DBD
PKQ47WE4XE,26/11/2021 13:04,26/11/2021 13:04,Pay Bill from 0721130307 - HILLARY NGUNYI MUTINDA Acc. JCH,Completed,16000,,16000,TRUE,Pay Utility,0721130307 - HILLARY NGUNYI MUTINDA,,JCH
PKQ27QNA1U,26/11/2021 11:22,26/11/2021 11:22,Utility Account to Organization Settlement Account,Completed,,-96000,0,TRUE,Utility Account to Organization Settlement Account,979524 - ANCIENT WELLS PROPERTY MANAGERS 2,,
PKQ77Q3EGL,26/11/2021 11:12,26/11/2021 11:12,Pay Bill Online from 0758506934 - Edgar Maxwel Wanguba Acc. IFG,Completed,8000,,96000,TRUE,Pay Bill Online,0758506934 - Edgar Maxwel Wanguba,,IFG
PKQ17NLM2L,26/11/2021 10:27,26/11/2021 10:27,Pay Bill Online from 254705951407 - CAROLINE WAITHIRA KAMAU Acc. IDH,Completed,10000,,88000,TRUE,Pay Bill Online,254705951407 - CAROLINE WAITHIRA KAMAU,,IDH
PKQ47HGDLA,26/11/2021 08:30,26/11/2021 08:30,Pay Bill from 254723389177 - NELSON MOI Acc. ibf,Completed,9000,,78000,TRUE,Pay Utility,254723389177 - NELSON MOI,,ibf
PKQ27CMTMA,26/11/2021 05:47,26/11/2021 05:47,Pay Bill from 0757259130 - RASHID SUDI MCHOMBO Acc. JAF,Completed,8000,,69000,TRUE,Pay Utility,0757259130 - RASHID SUDI MCHOMBO,,JAF
PKP175XSIZ,25/11/2021 21:00,25/11/2021 21:00,Pay Bill from 254720931300 - ESTHER WANJIRU NDUNGO Acc. KGE,Completed,9000,,61000,TRUE,Pay Utility,254720931300 - ESTHER WANJIRU NDUNGO,,KGE
PKP374VVL9,25/11/2021 20:43,25/11/2021 20:43,FSI to Pay Bill by 714888 - B2C LOOP VIA NCBA Acc. DCC via WEB by B2C LOOP VIA NCBA\Cbainitiator,Completed,20000,,52000,TRUE,FSI to Pay Bill via API,714888 - B2C LOOP VIA NCBA,,DCC
PKP774K0ZV,25/11/2021 20:38,25/11/2021 20:38,FSI to Pay Bill by 576777 - I&M BANK LTD - BANK TO TILL Acc. KBA via WEB by I&M BANK LTD - BANK TO TILL\B2BUser1,Completed,16000,,32000,TRUE,FSI to Pay Bill via API,576777 - I&M BANK LTD - BANK TO TILL,,KBA
PKP66ZQ50E,25/11/2021 19:38,25/11/2021 19:38,Pay Bill from 0724110456 - Fredrick Otieno Onege Acc. ICH,Completed,16000,,16000,TRUE,Pay Utility,0724110456 - Fredrick Otieno Onege,,ICH
PKP26KC658,25/11/2021 16:27,25/11/2021 16:27,Utility Account to Organization Settlement Account,Completed,,-126500,0,TRUE,Utility Account to Organization Settlement Account,979524 - ANCIENT WELLS PROPERTY MANAGERS 2,,
PKP66JLQ9K,25/11/2021 16:15,25/11/2021 16:15,Pay Bill from 254727955151 - NKONGE MAURICE Acc. Fge,Completed,15000,,126500,TRUE,Pay Utility,254727955151 - NKONGE MAURICE,,Fge
PKP66GGLSO,25/11/2021 15:21,25/11/2021 15:21,Pay Bill from 254713497971 - GERISHON NDUNG'U KOMU Acc. HGH,Completed,17000,,111500,TRUE,Pay Utility with OD via STK,254713497971 - GERISHON NDUNG'U KOMU,,HGH
PKP66ETSL8,25/11/2021 14:52,25/11/2021 14:52,Pay Bill from 254720249209 - WILFRED NJUGUNA WANJIRA Acc. DDD,Completed,40000,,94500,TRUE,Pay Utility,254720249209 - WILFRED NJUGUNA WANJIRA,,DDD
PKP966E2MT,25/11/2021 12:25,25/11/2021 12:25,Pay Bill from 254719210828 - BELLAH ATIENO OUMA Acc. KAH,Completed,10000,,54500,TRUE,Pay Utility,254719210828 - BELLAH ATIENO OUMA,,KAH
PKP463NBX8,25/11/2021 11:35,25/11/2021 11:35,Pay Bill from 254720814822 - JAMES OTIENO OPAR Acc. Jgj,Completed,18000,,44500,TRUE,Pay Utility,254720814822 - JAMES OTIENO OPAR,,Jgj
PKP762AHIT,25/11/2021 11:11,25/11/2021 11:11,Pay Bill from 254720029066 - EVANS CHERUYOT ROTICH Acc. KFI,Completed,11000,,26500,TRUE,Pay Utility,254720029066 - EVANS CHERUYOT ROTICH,,KFI
PKP361CZD1,25/11/2021 10:54,25/11/2021 10:54,Pay Bill from 0718838251 - MARK KINYUA MAINA Acc. kfg,Completed,10000,,15500,TRUE,Pay Utility,0718838251 - MARK KINYUA MAINA,,kfg
PKP25TC7MW,25/11/2021 08:22,25/11/2021 08:22,Pay Bill from 0114735826 - PETER POCHI MAKACHA Acc. IAC,Completed,5500,,5500,TRUE,Pay Utility,0114735826 - PETER POCHI MAKACHA,,IAC
PKP05RCN44,25/11/2021 07:35,25/11/2021 07:35,Utility Account to Organization Settlement Account,Completed,,-99500,0,TRUE,Utility Account to Organization Settlement Account,979524 - ANCIENT WELLS PROPERTY MANAGERS 2,,
PKP35P4P09,25/11/2021 06:12,25/11/2021 06:12,Pay Bill Online from 254719317219 - PHILIP MBOYA Acc. JDH,Completed,16000,,99500,TRUE,Pay Bill Online,254719317219 - PHILIP MBOYA,,JDH
PKO65KMVJ4,24/11/2021 21:52,24/11/2021 21:52,Pay Bill Online from 254728886864 - MOULINE ONYANGO Acc. IAA,Completed,16000,,83500,TRUE,Pay Bill Online,254728886864 - MOULINE ONYANGO,,IAA
PKO85DAQ6S,24/11/2021 20:00,24/11/2021 20:00,Pay Bill from 254791206178 - LORINE MUGANDA Acc. FBD,Completed,11000,,67500,TRUE,Pay Utility,254791206178 - LORINE MUGANDA,,FBD
PKO54T3Z2R,24/11/2021 15:48,24/11/2021 15:48,Pay Bill from 254713662892 - DAVID JUMA KIPTOCH Acc. JBE,Completed,8500,,56500,TRUE,Pay Utility,254713662892 - DAVID JUMA KIPTOCH,,JBE
PKO34REXDR,24/11/2021 15:19,24/11/2021 15:19,Pay Bill Online from 254701683737 - MICHAEL NGUGI Acc. HDB,Completed,16000,,48000,TRUE,Pay Bill Online,254701683737 - MICHAEL NGUGI,,HDB
PKO74PG665,24/11/2021 14:44,24/11/2021 14:44,Pay Bill Online from 254720044312 - ELIUD KIPKURUI Acc. FCF,Completed,17000,,32000,TRUE,Pay Bill Online,254720044312 - ELIUD KIPKURUI,,FCF
PKO94MVZGL,24/11/2021 14:00,24/11/2021 14:00,Pay Bill from 254725111246 - FRANCIS MUUTU MWANGANGI Acc. IGI,Completed,15000,,15000,TRUE,Pay Utility,254725111246 - FRANCIS MUUTU MWANGANGI,,IGI
PKO541V4WD,24/11/2021 07:43,24/11/2021 07:43,Utility Account to Organization Settlement Account,Completed,,-40000,0,TRUE,Utility Account to Organization Settlement Account,979524 - ANCIENT WELLS PROPERTY MANAGERS 2,,
PKO440COYU,24/11/2021 07:00,24/11/2021 07:00,Pay Bill Online from 254710965167 - KUSA STEPHANIE HAZEL Acc. JDC,Completed,11000,,40000,TRUE,Pay Bill Online,254710965167 - KUSA STEPHANIE HAZEL,,JDC
PKN43EE0JE,23/11/2021 18:33,23/11/2021 18:33,Pay Bill from 254796848496 - IVY WITABA Acc. JBA,Completed,10000,,29000,TRUE,Pay Utility,254796848496 - IVY WITABA,,JBA
PKN13A08BT,23/11/2021 17:39,23/11/2021 17:39,Pay Bill from 254702266191 - IRINE MOMBO Acc. FEC ,Completed,19000,,19000,TRUE,Pay Utility,254702266191 - IRINE MOMBO,,FEC
PKM31JW27H,22/11/2021 17:47,22/11/2021 17:47,Utility Account to Organization Settlement Account,Completed,,-21000,0,TRUE,Utility Account to Organization Settlement Account,979524 - ANCIENT WELLS PROPERTY MANAGERS 2,,
PKM91JDTHZ,22/11/2021 17:40,22/11/2021 17:40,Pay Bill Online from 254708300413 - ROBINSON AYAKO Acc. KEH,Completed,21000,,21000,TRUE,Pay Bill Online,254708300413 - ROBINSON AYAKO,,KEH
PKM4ZOSNQI,22/11/2021 09:18,22/11/2021 09:18,Utility Account to Organization Settlement Account,Completed,,-9000,0,TRUE,Utility Account to Organization Settlement Account,979524 - ANCIENT WELLS PROPERTY MANAGERS 2,,
PKL7ZFNUAT,21/11/2021 23:03,21/11/2021 23:03,Pay Bill from 254703935626 - DAVID NGARI ITA Acc. FCD,Completed,2000,,9000,TRUE,Pay Utility,254703935626 - DAVID NGARI ITA,,FCD
PKL6ZESBLM,21/11/2021 22:22,21/11/2021 22:22,Pay Bill from 254703555717 - SENGA SALIM Acc. hbb,Completed,3000,,7000,TRUE,Pay Utility,254703555717 - SENGA SALIM,,hbb
PKL5XZ29RT,21/11/2021 04:51,21/11/2021 04:51,Pay Bill from 254703555717 - SENGA SALIM Acc. hbb,Completed,3000,,4000,TRUE,Pay Utility,254703555717 - SENGA SALIM,,hbb
PKK5XWWJYZ,20/11/2021 23:07,20/11/2021 23:07,Pay Bill from 254703935626 - DAVID NGARI ITA Acc. FCD,Completed,1000,,1000,TRUE,Pay Utility,254703935626 - DAVID NGARI ITA,,FCD
PKK9X1N2HD,20/11/2021 15:11,20/11/2021 15:11,Utility Account to Organization Settlement Account,Completed,,-45000,0,TRUE,Utility Account to Organization Settlement Account,979524 - ANCIENT WELLS PROPERTY MANAGERS 2,,
PKK9WZRNVV,20/11/2021 14:42,20/11/2021 14:42,Pay Bill from 0722950695 - Joshua Mbithi Kivondo Acc. Dca,Completed,10000,,45000,TRUE,Pay Utility,0722950695 - Joshua Mbithi Kivondo,,Dca
PKK4WYJB76,20/11/2021 14:23,20/11/2021 14:23,Pay Bill from 254724821898 - ALLAN GISONI NYANGARESI Acc. DBA,Completed,16000,,35000,TRUE,Pay Utility,254724821898 - ALLAN GISONI NYANGARESI,,DBA
PKK6WTZV7M,20/11/2021 13:12,20/11/2021 13:12,Pay Bill Online from 254720642644 - BRIDGITTE NDONG' Acc. DCB,Completed,19000,,19000,TRUE,Pay Bill Online,254720642644 - BRIDGITTE NDONG',,DCB
PKK1WKTGOP,20/11/2021 10:42,20/11/2021 10:42,Utility Account to Organization Settlement Account,Completed,,-31000,0,TRUE,Utility Account to Organization Settlement Account,979524 - ANCIENT WELLS PROPERTY MANAGERS 2,,
PKK2WCJ5DG,20/11/2021 08:11,20/11/2021 08:11,Pay Bill from 254722458136 - NADI GOLICHA Acc. kAA,Completed,17000,,31000,TRUE,Pay Utility with OD via STK,254722458136 - NADI GOLICHA,,kAA
PKK3WABLS1,20/11/2021 07:15,20/11/2021 07:15,Pay Bill from 254791318982 - ADULLAHI HASSAN Acc. JCI,Completed,10000,,14000,TRUE,Pay Utility,254791318982 - ADULLAHI HASSAN,,JCI
PKJ7VUBXH5,19/11/2021 19:36,19/11/2021 19:36,Pay Bill Online from 254724005780 - IVY MARGARET OGOLA Acc. FFB,Completed,4000,,4000,TRUE,Pay Bill Online,254724005780 - IVY MARGARET OGOLA,,FFB
PKJ9VIP0TV,19/11/2021 17:24,19/11/2021 17:24,Utility Account to Organization Settlement Account,Completed,,-56000,0,TRUE,Utility Account to Organization Settlement Account,979524 - ANCIENT WELLS PROPERTY MANAGERS 2,,
PKJ7VAP7F9,19/11/2021 15:23,19/11/2021 15:23,Pay Bill Online from 254710732381 - JANE ACHIENG MBEKE Acc. HAF,Completed,16000,,56000,TRUE,Pay Bill Online,254710732381 - JANE ACHIENG MBEKE,,HAF
PKJ9UZ8HIL,19/11/2021 12:16,19/11/2021 12:16,Pay Bill from 254724882554 - ALPHONCE WAMBUA NGELI Acc. JDA,Completed,40000,,40000,TRUE,Pay Utility,254724882554 - ALPHONCE WAMBUA NGELI,,JDA
PKJ0UYHYUU,19/11/2021 12:03,19/11/2021 12:03,Utility Account to Organization Settlement Account,Completed,,-5000,0,TRUE,Utility Account to Organization Settlement Account,979524 - ANCIENT WELLS PROPERTY MANAGERS 2,,
PKJ9URIH89,19/11/2021 10:04,19/11/2021 10:04,Pay Bill from 254710537468 - DONALDO AMIOL JUAC AKEC Acc. jdg,Completed,5000,,5000,TRUE,Pay Utility,254710537468 - DONALDO AMIOL JUAC AKEC,,jdg
PKJ9UQQUSJ,19/11/2021 09:50,19/11/2021 09:50,Utility Account to Organization Settlement Account,Completed,,-25500,0,TRUE,Utility Account to Organization Settlement Account,979524 - ANCIENT WELLS PROPERTY MANAGERS 2,,
PKJ3UMNFXP,19/11/2021 08:35,19/11/2021 08:35,Pay Bill from 254725539787 - EVERLYNE MOGAKA Acc. KEF,Completed,10000,,25500,TRUE,Pay Utility,254725539787 - EVERLYNE MOGAKA,,KEF
PKI6UEQEIY,18/11/2021 22:33,18/11/2021 22:33,Pay Bill Online from 254711721087 - MUTHIANI KYULE Acc. IDB ,Completed,15000,,15500,TRUE,Pay Bill Online,254711721087 - MUTHIANI KYULE,,IDB
PKI7U9O6A3,18/11/2021 20:45,18/11/2021 20:45,Pay Bill from 254729948896 - CAROLINE V MILIZA Acc. Fec,Completed,500,,500,TRUE,Pay Utility,254729948896 - CAROLINE V MILIZA,,Fec
PKI6TR9W7W,18/11/2021 17:02,18/11/2021 17:02,Utility Account to Organization Settlement Account,Completed,,-34500,0,TRUE,Utility Account to Organization Settlement Account,979524 - ANCIENT WELLS PROPERTY MANAGERS 2,,
PKI8T5HHKA,18/11/2021 10:48,18/11/2021 10:48,Pay Bill from 254723954911 - JAMES KILAVI Acc. ICG,Completed,9500,,34500,TRUE,Pay Utility,254723954911 - JAMES KILAVI,,ICG
PKH8SICPQ4,17/11/2021 20:06,17/11/2021 20:06,Pay Bill from 254726337163 - HALIMA ALI HASSAN Acc. DDA,Completed,5000,,25000,TRUE,Pay Utility,254726337163 - HALIMA ALI HASSAN,,DDA
PKH3SFDZIJ,17/11/2021 19:32,17/11/2021 19:32,Pay Bill from 254703528196 - ERIC GITONGA MUGO Acc. KGJ,Completed,20000,,20000,TRUE,Pay Utility,254703528196 - ERIC GITONGA MUGO,,KGJ
PKH3RYXFZ9,17/11/2021 15:58,17/11/2021 15:58,Utility Account to Organization Settlement Account,Completed,,-16000,0,TRUE,Utility Account to Organization Settlement Account,979524 - ANCIENT WELLS PROPERTY MANAGERS 2,,
PKH4RXYL1S,17/11/2021 15:41,17/11/2021 15:41,Pay Bill from 0111278177 - Alfred   Kishoin Acc. DAB,Completed,16000,,16000,TRUE,Pay Utility,0111278177 - Alfred   Kishoin,,DAB
PKH4RI177O,17/11/2021 10:58,17/11/2021 10:58,Utility Account to Organization Settlement Account,Completed,,-106200,0,TRUE,Utility Account to Organization Settlement Account,979524 - ANCIENT WELLS PROPERTY MANAGERS 2,,
PKH7R80PL1,17/11/2021 07:38,17/11/2021 07:38,Pay Bill from 254719439717 - Cecilia Omondi Acc. hfc,Completed,9000,,106200,TRUE,Pay Utility,254719439717 - Cecilia Omondi,,hfc
PKH9R6DTIV,17/11/2021 06:46,17/11/2021 06:46,Pay Bill from 254701047939 - Cyrus Wahome Acc. JAH,Completed,16000,,97200,TRUE,Pay Utility,254701047939 - Cyrus Wahome,,JAH
PKH3R4RH5N,17/11/2021 02:13,17/11/2021 02:13,Pay Bill from 254703555717 - SENGA SALIM Acc. hbb,Completed,2000,,81200,TRUE,Pay Utility,254703555717 - SENGA SALIM,,hbb
PKG1QZTY7Z,16/11/2021 21:11,16/11/2021 21:11,Pay Bill from 0740507437 - JOY KAARI KAMENCU Acc. FAC,Completed,8100,,79200,TRUE,Pay Utility,0740507437 - JOY KAARI KAMENCU,,FAC
PKG2QZQ6EU,16/11/2021 21:09,16/11/2021 21:09,Pay Bill from 0740507437 - JOY KAARI KAMENCU Acc. FAC,Completed,900,,71100,TRUE,Pay Utility,0740507437 - JOY KAARI KAMENCU,,FAC
PKG8QV4QH4,16/11/2021 19:59,16/11/2021 19:59,Pay Bill from 0795068880 - Patrick   Kiplagat Acc. KAG,Completed,2700,,70200,TRUE,Pay Utility,0795068880 - Patrick   Kiplagat,,KAG
PKG2QKXCS8,16/11/2021 18:01,16/11/2021 18:01,Merchant Pay Utility Received from 7040090 - Amina Haji Salah Acc. JEH,Completed,10000,,67500,TRUE,Merchant Pay Utility via API,7040090 - Amina Haji Salah,,JEH
PKG3QKD6HB,16/11/2021 17:53,16/11/2021 17:53,Pay Bill from 0748059595 - Rashid NASSIR Khamis Acc. DDA,Completed,5000,,57500,TRUE,Pay Utility,0748059595 - Rashid NASSIR Khamis,,DDA
PKG3QDG2QP,16/11/2021 16:06,16/11/2021 16:06,Pay Bill from 254721112592 - PATRICK MALABA Acc. JEG,Completed,32500,,52500,TRUE,Pay Utility,254721112592 - PATRICK MALABA,,JEG
PKG2QABCLW,16/11/2021 15:09,16/11/2021 15:09,Pay Bill from 254711220005 - ENOS NJERU Acc. KCE,Completed,10000,,20000,TRUE,Pay Utility,254711220005 - ENOS NJERU,,KCE
PKG8Q1Y89U,16/11/2021 12:35,16/11/2021 12:35,Pay Bill from 254722514052 - JOSEPH NDIRANGU Acc. JCF,Completed,8000,,10000,TRUE,Pay Utility,254722514052 - JOSEPH NDIRANGU,,JCF
PKG0PYWYB4,16/11/2021 11:37,16/11/2021 11:37,Pay Bill Online from 254715764212 - BANCE ISHEMINYE Acc. JFE ,Completed,2000,,2000,TRUE,Pay Bill Online,254715764212 - BANCE ISHEMINYE,,JFE
PKG5PVOYKL,16/11/2021 10:34,16/11/2021 10:34,Utility Account to Organization Settlement Account,Completed,,-108500,0,TRUE,Utility Account to Organization Settlement Account,979524 - ANCIENT WELLS PROPERTY MANAGERS 2,,
PKG3PTM2EV,16/11/2021 09:54,16/11/2021 09:54,Pay Bill from 254799214498 - EMMILY LWAMBA Acc. KCF,Completed,4100,,108500,TRUE,Pay Utility,254799214498 - EMMILY LWAMBA,,KCF
PKG6POYX6E,16/11/2021 08:15,16/11/2021 08:15,Pay Bill Online from 254726116777 - MARY NDUTA GOSHO Acc. JDB,Completed,15000,,104400,TRUE,Pay Utility with OD Online,254726116777 - MARY NDUTA GOSHO,,JDB
PKG0PKIJ6M,16/11/2021 02:42,16/11/2021 02:42,Pay Bill from 254710110273 - AGNES NTOITI Acc. Jbb,Completed,11500,,89400,TRUE,Pay Utility,254710110273 - AGNES NTOITI,,Jbb
PKG7PK9U6R,16/11/2021 01:08,16/11/2021 01:08,FSI to Pay Bill by 714888 - B2C LOOP VIA NCBA Acc. KCF via WEB by B2C LOOP VIA NCBA\Cbainitiator,Completed,5900,,77900,TRUE,FSI to Pay Bill via API,714888 - B2C LOOP VIA NCBA,,KCF
PKF0PIXJ9G,15/11/2021 22:42,15/11/2021 22:42,Pay Bill from 254703935626 - DAVID NGARI ITA Acc. FCD,Completed,1000,,72000,TRUE,Pay Utility with OD via STK,254703935626 - DAVID NGARI ITA,,FCD
PKF6PBPD9I,15/11/2021 20:12,15/11/2021 20:12,Pay Bill from 254758140048 - ABDULKADIR ABASS DAHIR Acc. KAB,Completed,16000,,71000,TRUE,Pay Utility,254758140048 - ABDULKADIR ABASS DAHIR,,KAB
PKF4P9OYEI,15/11/2021 19:46,15/11/2021 19:46,Pay Bill from 254729948896 - CAROLINE V MILIZA Acc. Fec,Completed,9500,,55000,TRUE,Pay Utility,254729948896 - CAROLINE V MILIZA,,Fec
PKF8OX4VT2,15/11/2021 17:16,15/11/2021 17:16,Pay Bill from 254722910078 - MAUREEN MUNYIVA MUTUKU Acc. DBD,Completed,5000,,45500,TRUE,Pay Utility,254722910078 - MAUREEN MUNYIVA MUTUKU,,DBD
PKF4OWBKT8,15/11/2021 17:04,15/11/2021 17:04,Pay Bill from 0759217545 - Angela Syombua Lole Acc. HDE,Completed,10000,,40500,TRUE,Pay Utility,0759217545 - Angela Syombua Lole,,HDE
PKF7ON2YJP,15/11/2021 14:22,15/11/2021 14:22,Pay Bill Online from 254790549449 - ABUKAR MOHAMED Acc. HBA,Completed,1500,,30500,TRUE,Pay Bill Online,254790549449 - ABUKAR MOHAMED,,HBA
PKF8OGDNFC,15/11/2021 12:21,15/11/2021 12:21,Pay Bill from 254704111133 - ELVIS OTIENO Acc. HFD,Completed,10000,,29000,TRUE,Pay Utility,254704111133 - ELVIS OTIENO,,HFD
PKF1OA8MN9,15/11/2021 10:24,15/11/2021 10:24,Pay Bill from 254725381062 - VICTOR MAITHYA Acc. HEG,Completed,4000,,19000,TRUE,Pay Utility with OD via STK,254725381062 - VICTOR MAITHYA,,HEG
PKF9O35MNH,15/11/2021 07:54,15/11/2021 07:54,Pay Bill from 254702190887 - Nax Ochieng Acc. FDE,Completed,15000,,15000,TRUE,Pay Utility,254702190887 - Nax Ochieng,,FDE
PKF5O2SVX7,15/11/2021 07:44,15/11/2021 07:44,Utility Account to Organization Settlement Account,Completed,,-80500,0,TRUE,Utility Account to Organization Settlement Account,979524 - ANCIENT WELLS PROPERTY MANAGERS 2,,
PKE1NIV0V3,14/11/2021 18:24,14/11/2021 18:24,Pay Bill from 254740657547 - WINNIE KERE Acc. JBF,Completed,4000,,80500,TRUE,Pay Utility,254740657547 - WINNIE KERE,,JBF
PKE7MRUINR,14/11/2021 09:38,14/11/2021 09:38,Pay Bill from 0757337421 - HASSAN ISSACK BANTE Acc. KBE,Completed,21000,,76500,TRUE,Pay Utility,0757337421 - HASSAN ISSACK BANTE,,KBE
PKE3MPMKGD,14/11/2021 08:46,14/11/2021 08:46,Pay Bill from 254700382442 - EVERLYNE MWENDE MUMO Acc. FGC,Completed,9000,,55500,TRUE,Pay Utility,254700382442 - EVERLYNE MWENDE MUMO,,FGC
PKE3MK3DPZ,14/11/2021 01:08,14/11/2021 01:08,Pay Bill Online from 0711117122 - Yassir Mwinyi Abdulrazaq Acc. ICE,Completed,3000,,46500,TRUE,Pay Bill Online,0711117122 - Yassir Mwinyi Abdulrazaq,,ICE
PKD3MJ6U5B,13/11/2021 23:38,13/11/2021 23:38,Pay Bill from 254710605251 - PAULINE OCHIENG Acc. ICH,Completed,6500,,43500,TRUE,Pay Utility with OD via STK,254710605251 - PAULINE OCHIENG,,ICH
PKD2MI324I,13/11/2021 22:41,13/11/2021 22:41,Pay Bill from 254703935626 - DAVID NGARI ITA Acc. FCD,Completed,1000,,37000,TRUE,Pay Utility,254703935626 - DAVID NGARI ITA,,FCD
PKD5M1VTRP,13/11/2021 18:31,13/11/2021 18:31,Pay Bill from 254791318982 - ADULLAHI HASSAN Acc. JCI,Completed,10000,,36000,TRUE,Pay Utility,254791318982 - ADULLAHI HASSAN,,JCI
PKD4LK9EKK,13/11/2021 13:56,13/11/2021 13:56,Pay Bill Online from 254790549449 - ABUKAR MOHAMED Acc. HBA,Completed,17000,,26000,TRUE,Pay Bill Online,254790549449 - ABUKAR MOHAMED,,HBA
PKD1LHFKKX,13/11/2021 13:07,13/11/2021 13:07,Pay Bill from 254703555717 - SENGA SALIM Acc. hbb,Completed,5000,,9000,TRUE,Pay Utility,254703555717 - SENGA SALIM,,hbb
PKD5LBCE7Z,13/11/2021 11:17,13/11/2021 11:17,Pay Bill from 0723409745 - Kelvin Kitonga Mutyetu Acc. kbf,Completed,4000,,4000,TRUE,Pay Utility with OD via STK,0723409745 - Kelvin Kitonga Mutyetu,,kbf
PKD4LB4IR8,13/11/2021 11:13,13/11/2021 11:13,Utility Account to Organization Settlement Account,Completed,,-252800,0,TRUE,Utility Account to Organization Settlement Account,979524 - ANCIENT WELLS PROPERTY MANAGERS 2,,
PKD1L9WRE3,13/11/2021 10:50,13/11/2021 10:50,Pay Bill from 0746934144 - Rosemary Wangui Muiruri Acc. ICD,Completed,11000,,252800,TRUE,Pay Utility,0746934144 - Rosemary Wangui Muiruri,,ICD
PKD0L9IRYG,13/11/2021 10:43,13/11/2021 10:43,Pay Bill from 0746934144 - Rosemary Wangui Muiruri Acc. ICI,Completed,16000,,241800,TRUE,Pay Utility,0746934144 - Rosemary Wangui Muiruri,,ICI
PKC1KAB0H3,12/11/2021 17:38,12/11/2021 17:38,Pay Bill from 254723699555 - DIANA NYAIREGI GICHIA Acc. FBF,Completed,6800,,225800,TRUE,Pay Utility,254723699555 - DIANA NYAIREGI GICHIA,,FBF
PKC4K6LU52,12/11/2021 16:42,12/11/2021 16:42,Pay Bill from 254717909848 - MARY MBULA KATHUKU Acc. FGD,Completed,9000,,219000,TRUE,Pay Utility with OD via STK,254717909848 - MARY MBULA KATHUKU,,FGD
PKC6K0NXAU,12/11/2021 15:00,12/11/2021 15:00,Pay Bill from 254729371750 - DERRICK OTANGA Acc. FEF,Completed,17000,,210000,TRUE,Pay Utility,254729371750 - DERRICK OTANGA,,FEF
PKC6JRYONE,12/11/2021 12:24,12/11/2021 12:24,Pay Bill from 254724655033 - SUSAN CHIMOTO Acc. KGH,Completed,9500,,193000,TRUE,Pay Utility,254724655033 - SUSAN CHIMOTO,,KGH
PKC0JRI894,12/11/2021 12:15,12/11/2021 12:15,Pay Bill from 254722514052 - JOSEPH NDIRANGU Acc. JCF,Completed,8000,,183500,TRUE,Pay Utility,254722514052 - JOSEPH NDIRANGU,,JCF
PKC1JOZ0RB,12/11/2021 11:27,12/11/2021 11:27,Pay Bill from 254724103759 - RICHARD NKAABO Acc. jej,Completed,7000,,175500,TRUE,Pay Utility,254724103759 - RICHARD NKAABO,,jej
PKC7JEAUOZ,12/11/2021 07:47,12/11/2021 07:47,Pay Bill from 254722910078 - MAUREEN MUNYIVA MUTUKU Acc. DBD,Completed,10000,,168500,TRUE,Pay Utility,254722910078 - MAUREEN MUNYIVA MUTUKU,,DBD
PKC0JE2B18,12/11/2021 07:41,12/11/2021 07:41,Pay Bill from 254716958353 - EVERYNE MURUMWA BUTICHI Acc. JBH,Completed,16000,,158500,TRUE,Pay Utility,254716958353 - EVERYNE MURUMWA BUTICHI,,JBH
PKB2J95HF2,11/11/2021 22:45,11/11/2021 22:45,Pay Bill Online from 254714552193 - CHRISTOPHER OCHIENG Acc. JGI ,Completed,20000,,142500,TRUE,Pay Bill Online,254714552193 - CHRISTOPHER OCHIENG,,JGI
PKB3J7KLRJ,11/11/2021 21:53,11/11/2021 21:53,Pay Bill from 254710635630 - DONNA JESSICA OWANO Acc. KCC,Completed,8000,,122500,TRUE,Pay Utility,254710635630 - DONNA JESSICA OWANO,,KCC
PKB3ITHEWX,11/11/2021 18:38,11/11/2021 18:38,Pay Bill from 0748205997 - WHELDON MARK MASONGO Acc. HBD,Completed,10000,,114500,TRUE,Pay Utility,0748205997 - WHELDON MARK MASONGO,,HBD
PKB7IP2R7X,11/11/2021 17:41,11/11/2021 17:41,Pay Bill from 254719779657 - SAMUEL NJOROGE Acc. JGA,Completed,20000,,104500,TRUE,Pay Utility with OD via STK,254719779657 - SAMUEL NJOROGE,,JGA
PKB1IF1EOT,11/11/2021 14:50,11/11/2021 14:50,Pay Bill Online from 254722258107 - JOHN ODIMA ODIMA Acc. KGF,Completed,10000,,84500,TRUE,Pay Bill Online,254722258107 - JOHN ODIMA ODIMA,,KGF
PKB4IDA738,11/11/2021 14:17,11/11/2021 14:17,Pay Bill Online from 254722276550 - ISAAC NYAMRER Acc. KGC,Completed,9000,,74500,TRUE,Pay Bill Online,254722276550 - ISAAC NYAMRER,,KGC
PKB1I6M25X,11/11/2021 12:16,11/11/2021 12:16,Pay Bill from 254704481218 - Asenath Kivunga Mwakio Acc. KDG,Completed,10000,,65500,TRUE,Pay Utility,254704481218 - Asenath Kivunga Mwakio,,KDG
PKB3HRBD0P,11/11/2021 06:39,11/11/2021 06:39,Pay Bill from 0790631952 - Guyo Boru Guyo Acc. Dbc,Completed,20000,,55500,TRUE,Pay Utility with OD via STK,0790631952 - Guyo Boru Guyo,,Dbc
PKA5HK4R4D,10/11/2021 20:59,10/11/2021 20:59,Pay Bill from 254718242028 - PAULINA NYAMWITHIA Acc. KCA,Completed,9700,,35500,TRUE,Pay Utility,254718242028 - PAULINA NYAMWITHIA,,KCA
PKA3HK3WO7,10/11/2021 20:58,10/11/2021 20:58,Pay Bill from 254729858484 - ANTONY CHEGE Acc. KCA,Completed,6300,,25800,TRUE,Pay Utility,254729858484 - ANTONY CHEGE,,KCA
PKA3HESAK9,10/11/2021 19:44,10/11/2021 19:44,Pay Bill from 254706158280 - patience mutheu mbevi Acc. KFC,Completed,10000,,19500,TRUE,Pay Utility,254706158280 - patience mutheu mbevi,,KFC
PKA6HBOZYK,10/11/2021 19:09,10/11/2021 19:09,Pay Bill from 254798674917 - Egbe Okpaga Okpaga Acc. HAD,Completed,9500,,9500,TRUE,Pay Utility,254798674917 - Egbe Okpaga Okpaga,,HAD
PKA5HADJ3N,10/11/2021 18:55,10/11/2021 18:55,Utility Account to Organization Settlement Account,Completed,,-98500,0,TRUE,Utility Account to Organization Settlement Account,979524 - ANCIENT WELLS PROPERTY MANAGERS 2,,
PKA0H55FJO,10/11/2021 17:52,10/11/2021 17:52,Pay Bill from 0748059595 - Rashid NASSIR Khamis Acc. DDA,Completed,9000,,98500,TRUE,Pay Utility,0748059595 - Rashid NASSIR Khamis,,DDA
PKA6GZ9PNI,10/11/2021 16:22,10/11/2021 16:22,Pay Bill from 254710106394 - LUCY TONKEI Acc. KBG,Completed,9000,,89500,TRUE,Pay Utility,254710106394 - LUCY TONKEI,,KBG
PKA7GYUK3J,10/11/2021 16:14,10/11/2021 16:14,Pay Bill from 0743248310 - PATRICK STURRIDGE NYONGESA Acc. daa,Completed,17000,,80500,TRUE,Pay Utility,0743248310 - PATRICK STURRIDGE NYONGESA,,daa
PKA7GY1VLT,10/11/2021 16:00,10/11/2021 16:00,Pay Bill from 254726928933 - JOSHUA NDUNDA NZIOKA Acc. KCJ,Completed,17000,,63500,TRUE,Pay Utility,254726928933 - JOSHUA NDUNDA NZIOKA,,KCJ
PKA6GUW9WW,10/11/2021 15:02,10/11/2021 15:02,Pay Bill from 0758591833 - DORCUS MBULA PETER Acc. HDD,Completed,9000,,46500,TRUE,Pay Utility,0758591833 - DORCUS MBULA PETER,,HDD
PKA1GR30LT,10/11/2021 13:51,10/11/2021 13:51,Pay Bill Online from 254797601911 - JORAM MASAI KILONZO Acc. KTE,Completed,9500,,37500,TRUE,Pay Bill Online,254797601911 - JORAM MASAI KILONZO,,KTE
PKA3GNP2D9,10/11/2021 12:51,10/11/2021 12:51,Pay Bill from 0792933158 - mary wamaitha maina Acc. kdh,Completed,10000,,28000,TRUE,Pay Utility,0792933158 - mary wamaitha maina,,kdh
PKA8GJ958Q,10/11/2021 11:26,10/11/2021 11:26,Pay Bill from 254798844460 - WYCLIFFE ODHIAMBO NYAGOA Acc. KAC,Completed,10000,,18000,TRUE,Pay Utility,254798844460 - WYCLIFFE ODHIAMBO NYAGOA,,KAC
PKA6GEDQ1Q,10/11/2021 09:52,10/11/2021 09:52,Pay Bill from 254706322764 - GEORGE OUMA OCHOLA Acc. JDF,Completed,8000,,8000,TRUE,Pay Utility,254706322764 - GEORGE OUMA OCHOLA,,JDF
PKA4G7CTJG,10/11/2021 07:07,10/11/2021 07:07,Utility Account to Organization Settlement Account,Completed,,-221000,0,TRUE,Utility Account to Organization Settlement Account,979524 - ANCIENT WELLS PROPERTY MANAGERS 2,,
PK90G3UEU2,09/11/2021 22:52,09/11/2021 22:52,Pay Bill from 254714578986 - EZEKIEL MULUNGYE Acc. Hac,Completed,10000,,221000,TRUE,Pay Utility,254714578986 - EZEKIEL MULUNGYE,,Hac
PK92G3HK6U,09/11/2021 22:35,09/11/2021 22:35,Pay Bill Online from 0740422187 - KEVIN MAKATO KUNGA Acc. KEG,Completed,10000,,211000,TRUE,Pay Bill Online,0740422187 - KEVIN MAKATO KUNGA,,KEG
PK92FX3Y1Q,09/11/2021 20:24,09/11/2021 20:24,Pay Bill from 254720107609 - DENNIS OGENDI BARAKE Acc. JAJ,Completed,15000,,201000,TRUE,Pay Utility,254720107609 - DENNIS OGENDI BARAKE,,JAJ
PK92FUVZ1K,09/11/2021 19:54,09/11/2021 19:54,Pay Bill from 254708499439 - ROSE NDEDE Acc. HGF,Completed,9000,,186000,TRUE,Pay Utility,254708499439 - ROSE NDEDE,,HGF
PK93FMOE99,09/11/2021 18:27,09/11/2021 18:27,Pay Bill from 0795068880 - Patrick   Kiplagat Acc. KAG,Completed,5000,,177000,TRUE,Pay Utility,0795068880 - Patrick   Kiplagat,,KAG
PK95FJS12F,09/11/2021 17:50,09/11/2021 17:50,Pay Bill from 254700385346 - JESCA ATIENO OKOTH Acc. kcg,Completed,10000,,172000,TRUE,Pay Utility,254700385346 - JESCA ATIENO OKOTH,,kcg
PK93FGLGMN,09/11/2021 17:03,09/11/2021 17:03,Pay Bill Online from 0711117122 - Yassir Mwinyi Abdulrazaq Acc. ICE,Completed,4000,,162000,TRUE,Pay Bill Online,0711117122 - Yassir Mwinyi Abdulrazaq,,ICE
PK96FE8CRA,09/11/2021 16:25,09/11/2021 16:25,Pay Bill from 254790304204 - DORCAS NDINDA MBIU Acc. JDG,Completed,10000,,158000,TRUE,Pay Utility,254790304204 - DORCAS NDINDA MBIU,,JDG
PK98FC3GD4,09/11/2021 15:47,09/11/2021 15:47,Pay Bill from 254723747228 - MORARA ASANYO Acc. pool,Completed,12000,,148000,TRUE,Pay Utility,254723747228 - MORARA ASANYO,,pool
PK93FAZA8F,09/11/2021 15:27,09/11/2021 15:27,Pay Bill from 254729590734 - PATRICK NDUNGA Acc. IDD,Completed,10000,,136000,TRUE,Pay Utility with OD via STK,254729590734 - PATRICK NDUNGA,,IDD
PK97FAVAS3,09/11/2021 15:25,09/11/2021 15:25,Pay Bill from 254799371069 - ALPHONCE OCHIENG WAREGA Acc. IEE,Completed,8500,,126000,TRUE,Pay Utility,254799371069 - ALPHONCE OCHIENG WAREGA,,IEE
PK96F7LGS4,09/11/2021 14:24,09/11/2021 14:24,Pay Bill Online from 254705846408 - JAMES OUMA Acc. HBH,Completed,16000,,117500,TRUE,Pay Bill Online,254705846408 - JAMES OUMA,,HBH
PK97F7EOV1,09/11/2021 14:20,09/11/2021 14:20,Pay Bill Online from 254722769473 - SAMSON CHALO Acc. IAB,Completed,15000,,101500,TRUE,Pay Bill Online,254722769473 - SAMSON CHALO,,IAB
PK95F72UT7,09/11/2021 14:14,09/11/2021 14:14,Pay Bill from 254729258441 - ROBERT RONO KULEI Acc. JAB,Completed,10000,,86500,TRUE,Pay Utility,254729258441 - ROBERT RONO KULEI,,JAB
PK98F5FS5U,09/11/2021 13:45,09/11/2021 13:45,FSI to Pay Bill by 714888 - B2C LOOP VIA NCBA Acc. FAD via WEB by B2C LOOP VIA NCBA\Cbainitiator,Completed,4000,,76500,TRUE,FSI to Pay Bill via API,714888 - B2C LOOP VIA NCBA,,FAD
PK95F56S2J,09/11/2021 13:40,09/11/2021 13:40,Pay Bill Online from 254718772336 - DAVID SERUGO Acc. DCD,Completed,20000,,72500,TRUE,Pay Bill Online,254718772336 - DAVID SERUGO,,DCD
PK95F4UW8V,09/11/2021 13:34,09/11/2021 13:34,Pay Bill Online from 254720451253 - JIMMY KIOGORA NKIROTE Acc. KBD,Completed,10500,,52500,TRUE,Pay Utility with OD Online,254720451253 - JIMMY KIOGORA NKIROTE,,KBD
PK98F28FYY,09/11/2021 12:47,09/11/2021 12:47,Pay Bill Online from 254718911865 - KENNEDY KELI KATUNGII Acc. HDF,Completed,9000,,42000,TRUE,Pay Bill Online,254718911865 - KENNEDY KELI KATUNGII,,HDF
PK97F0TPOJ,09/11/2021 12:21,09/11/2021 12:21,Pay Bill from 254728259571 - ANNE KASIVA Acc. ieb,Completed,15000,,33000,TRUE,Pay Utility,254728259571 - ANNE KASIVA,,ieb
PK91ESXJ07,09/11/2021 09:51,09/11/2021 09:51,Pay Bill from 254717140158 - Peter Wanjiru Acc. HFB,Completed,15000,,18000,TRUE,Pay Utility,254717140158 - Peter Wanjiru,,HFB
PK98EQRGZ0,09/11/2021 09:08,09/11/2021 09:08,Pay Bill Online from 254715764212 - BANCE ISHEMINYE Acc. JFE ,Completed,3000,,3000,TRUE,Pay Bill Online,254715764212 - BANCE ISHEMINYE,,JFE
PK92ENMCI8,09/11/2021 08:00,09/11/2021 08:00,Utility Account to Organization Settlement Account,Completed,,-89000,0,TRUE,Utility Account to Organization Settlement Account,979524 - ANCIENT WELLS PROPERTY MANAGERS 2,,
PK88EBQ37W,08/11/2021 20:26,08/11/2021 20:26,Pay Bill from 254722889574 - ALLAN MWANGI Acc. JCG,Completed,10000,,89000,TRUE,Pay Utility,254722889574 - ALLAN MWANGI,,JCG
PK87E7QD07,08/11/2021 19:36,08/11/2021 19:36,Pay Bill Online from 254710146965 - BRENDA DORCAS MABONGA Acc. HFG,Completed,15000,,79000,TRUE,Pay Utility with OD Online,254710146965 - BRENDA DORCAS MABONGA,,HFG
PK80E769DG,08/11/2021 19:30,08/11/2021 19:30,Pay Bill Online from 254700050190 - ANGELA GATHONI NDEGWA Acc. KCA,Completed,12000,,64000,TRUE,Pay Utility with OD Online,254700050190 - ANGELA GATHONI NDEGWA,,KCA
PK81E4GLMJ,08/11/2021 19:02,08/11/2021 19:02,Pay Bill from 254713205244 - ROBERT OGALO Acc. KBH,Completed,10000,,52000,TRUE,Pay Utility,254713205244 - ROBERT OGALO,,KBH
PK87DRP2Q9,08/11/2021 16:11,08/11/2021 16:11,Pay Bill Online from 254713966424 - NDUTI MUTHUI Acc. jed,Completed,15000,,42000,TRUE,Pay Bill Online,254713966424 - NDUTI MUTHUI,,jed
PK82DQNEV0,08/11/2021 15:53,08/11/2021 15:53,Pay Bill from 254726039536 - MERCY MESHACK Acc. FDC,Completed,11000,,27000,TRUE,Pay Utility,254726039536 - MERCY MESHACK,,FDC
PK87DPYFWN,08/11/2021 15:40,08/11/2021 15:40,Pay Bill from 254701196539 - GICHURI KARANJA Acc. Fee,Completed,16000,,16000,TRUE,Pay Utility,254701196539 - GICHURI KARANJA,,Fee
PK84DKVFB4,08/11/2021 14:09,08/11/2021 14:09,Utility Account to Organization Settlement Account,Completed,,-91000,0,TRUE,Utility Account to Organization Settlement Account,979524 - ANCIENT WELLS PROPERTY MANAGERS 2,,
PK83DJX8TL,08/11/2021 13:52,08/11/2021 13:52,Pay Bill Online from 254706549634 - CLINTON OMBASA Acc. FDB,Completed,17000,,91000,TRUE,Pay Bill Online,254706549634 - CLINTON OMBASA,,FDB
PK88DJVE06,08/11/2021 13:51,08/11/2021 13:51,Pay Bill Online from 254722854426 - OLIVE WANJIKU MACHAMBA Acc. JBG,Completed,10000,,74000,TRUE,Pay Bill Online,254722854426 - OLIVE WANJIKU MACHAMBA,,JBG
PK80DGVAPU,08/11/2021 12:59,08/11/2021 12:59,Pay Bill from 254723328258 - SAMUEL MAINA MURIUKI Acc. IFE,Completed,8000,,64000,TRUE,Pay Utility,254723328258 - SAMUEL MAINA MURIUKI,,IFE
PK86DEK2DE,08/11/2021 12:17,08/11/2021 12:17,Pay Bill from 254724466518 - EUNICE NDUTA Acc. KFF,Completed,9500,,56000,TRUE,Pay Utility,254724466518 - EUNICE NDUTA,,KFF
PK82DCRVOU,08/11/2021 11:44,08/11/2021 11:44,Pay Bill from 254729713741 - ALBANUS MUTISO Acc. DDC,Completed,20000,,46500,TRUE,Pay Utility,254729713741 - ALBANUS MUTISO,,DDC
PK85DC1GXF,08/11/2021 11:31,08/11/2021 11:31,Pay Bill from 254720868281 - KENNEDY MWELU Acc. KBI,Completed,12500,,26500,TRUE,Pay Utility with OD via STK,254720868281 - KENNEDY MWELU,,KBI
PK81D76E3D,08/11/2021 10:01,08/11/2021 10:01,Pay Bill from 254707715639 - Annastacia Kimeu Acc. JFC,Completed,10000,,14000,TRUE,Pay Utility,254707715639 - Annastacia Kimeu,,JFC
PK80D3PM98,08/11/2021 08:54,08/11/2021 08:54,Pay Bill from 254722564580 - GLENN KISIANG'ANI Acc. DBB,Completed,4000,,4000,TRUE,Pay Utility,254722564580 - GLENN KISIANG'ANI,,DBB
PK80D2OTRU,08/11/2021 08:32,08/11/2021 08:32,Utility Account to Organization Settlement Account,Completed,,-319500,0,TRUE,Utility Account to Organization Settlement Account,979524 - ANCIENT WELLS PROPERTY MANAGERS 2,,
PK79CVKD4T,07/11/2021 22:48,07/11/2021 22:48,Pay Bill from 254790627132 - Everline Mutave Kiio Acc. IGG,Completed,8000,,319500,TRUE,Pay Utility,254790627132 - Everline Mutave Kiio,,IGG
PK74CIIEDE,07/11/2021 18:53,07/11/2021 18:53,Pay Bill from 254703555717 - SENGA SALIM Acc. hbb,Completed,5000,,311500,TRUE,Pay Utility,254703555717 - SENGA SALIM,,hbb
PK78CDFMB0,07/11/2021 17:45,07/11/2021 17:45,Pay Bill Online from 254717985596 - NICHOLAS KIPKOECH BUTIA Acc. hcf,Completed,9000,,306500,TRUE,Pay Bill Online,254717985596 - NICHOLAS KIPKOECH BUTIA,,hcf
PK79CC114T,07/11/2021 17:24,07/11/2021 17:24,Pay Bill from 254728238249 - ESTHER WANGUI KIBUNYI Acc. ICA,Completed,17000,,297500,TRUE,Pay Utility,254728238249 - ESTHER WANGUI KIBUNYI,,ICA
PK71CBJHQL,07/11/2021 17:16,07/11/2021 17:16,Pay Bill from 254702346515 - ELIZABETH ACHIENG NGOME Acc. KDE,Completed,10000,,280500,TRUE,Pay Utility,254702346515 - ELIZABETH ACHIENG NGOME,,KDE
PK77C4STO5,07/11/2021 15:28,07/11/2021 15:28,Pay Bill from 254721115404 - Justine Fayuma Okwemba Acc. HAA,Completed,17000,,270500,TRUE,Pay Utility,254721115404 - Justine Fayuma Okwemba,,HAA
PK75BYCLTX,07/11/2021 13:34,07/11/2021 13:34,Pay Bill Online from 0757699775 - BENARD MUIA MUTUA Acc. HCB,Completed,16000,,253500,TRUE,Pay Bill Online,0757699775 - BENARD MUIA MUTUA,,HCB
PK75BOGMGB,07/11/2021 10:15,07/11/2021 10:15,Pay Bill from 254701112397 - ELEMA GODANA DIBA Acc. IAD,Completed,10000,,237500,TRUE,Pay Utility with OD via STK,254701112397 - ELEMA GODANA DIBA,,IAD
PK72BN8DXY,07/11/2021 09:50,07/11/2021 09:50,Pay Bill from 254721315975 - JOSEPH NDEGWA Acc. HEB,Completed,16000,,227500,TRUE,Pay Utility,254721315975 - JOSEPH NDEGWA,,HEB
PK77BMB45J,07/11/2021 09:32,07/11/2021 09:32,Pay Bill Online from 254797160610 - JAMES MWANIKI Acc. JBI,Completed,20000,,211500,TRUE,Pay Bill Online,254797160610 - JAMES MWANIKI,,JBI
PK65BD16RH,06/11/2021 22:51,06/11/2021 22:51,Pay Bill from 254704111133 - ELVIS OTIENO Acc. HFD,Completed,1000,,191500,TRUE,Pay Utility,254704111133 - ELVIS OTIENO,,HFD
PK63B9P9QN,06/11/2021 21:23,06/11/2021 21:23,Pay Bill from 254718233980 - KAREN ASWANI Acc. HEC,Completed,10500,,190500,TRUE,Pay Utility,254718233980 - KAREN ASWANI,,HEC
PK67B3XOFV,06/11/2021 19:59,06/11/2021 19:59,Pay Bill from 254703453863 - EMILY MUNANIE MALUKI Acc. KEC,Completed,10000,,180000,TRUE,Pay Utility,254703453863 - EMILY MUNANIE MALUKI,,KEC
PK60AZGFOA,06/11/2021 19:08,06/11/2021 19:08,Pay Bill from 254722564580 - GLENN KISIANG'ANI Acc. DBB,Completed,2000,,170000,TRUE,Pay Utility with OD via STK,254722564580 - GLENN KISIANG'ANI,,DBB
PK61ATOPLR,06/11/2021 18:03,06/11/2021 18:03,Pay Bill from 254721302658 - JACOB BIRUNDU Acc. DDB,Completed,10000,,168000,TRUE,Pay Utility,254721302658 - JACOB BIRUNDU,,DDB
PK68AKL3P4,06/11/2021 15:55,06/11/2021 15:55,Pay Bill Online from 254724590178 - Silvanus Ongiri Acc. HAE,Completed,10000,,158000,TRUE,Pay Bill Online,254724590178 - Silvanus Ongiri,,HAE
PK69AFHLXN,06/11/2021 14:39,06/11/2021 14:39,Pay Bill from 254726636196 - BETHUEL KEMBOI KURUI Acc. JFD,Completed,15000,,148000,TRUE,Pay Utility with OD via STK,254726636196 - BETHUEL KEMBOI KURUI,,JFD
PK68ADC7MO,06/11/2021 14:06,06/11/2021 14:06,Pay Bill from 254716581384 - GREGORY KILUNGYA Acc. DAD,Completed,20000,,133000,TRUE,Pay Utility,254716581384 - GREGORY KILUNGYA,,DAD
PK65A6TSEX,06/11/2021 12:23,06/11/2021 12:23,Pay Bill from 254726028330 - JOHN WAMBUA Acc. IFH,Completed,15000,,113000,TRUE,Pay Utility,254726028330 - JOHN WAMBUA,,IFH
PK69A6T8WT,06/11/2021 12:23,06/11/2021 12:23,Pay Bill from 254740657547 - WINNIE KERE Acc. JBF,Completed,500,,98000,TRUE,Pay Utility,254740657547 - WINNIE KERE,,JBF
PK67A57N93,06/11/2021 11:57,06/11/2021 11:57,Pay Bill Online from 254723930071 - AMOS KITAVI KIVITE Acc. JCE,Completed,9000,,97500,TRUE,Pay Bill Online,254723930071 - AMOS KITAVI KIVITE,,JCE
PK61A54MK5,06/11/2021 11:55,06/11/2021 11:55,Pay Bill from 254712954563 - JOSEPH MUTISO KILONZO Acc. DAC,Completed,20000,,88500,TRUE,Pay Utility,254712954563 - JOSEPH MUTISO KILONZO,,DAC
PK61A2NVSH,06/11/2021 11:14,06/11/2021 11:14,Pay Bill from 254723643548 - KEVIN OUKO Acc. FDD,Completed,11000,,68500,TRUE,Pay Utility,254723643548 - KEVIN OUKO,,FDD
PK60A1M6O2,06/11/2021 10:56,06/11/2021 10:56,Pay Bill from 0711769778 - PROTASIA BONIPHACE MANOSA Acc. IBB,Completed,15000,,57500,TRUE,Pay Utility,0711769778 - PROTASIA BONIPHACE MANOSA,,IBB
PK69A0SGHX,06/11/2021 10:42,06/11/2021 10:42,Pay Bill Online from 254722521028 - CHARLES MONYONCHO Acc. ICB,Completed,17000,,42500,TRUE,Pay Bill Online,254722521028 - CHARLES MONYONCHO,,ICB
PK609ZBRUI,06/11/2021 10:17,06/11/2021 10:17,Pay Bill from 254727515326 - HARRISON WACIRA MAINA Acc. HAH,Completed,16000,,25500,TRUE,Pay Utility,254727515326 - HARRISON WACIRA MAINA,,HAH
PK689WINQA,06/11/2021 09:27,06/11/2021 09:27,Pay Bill from 254798674917 - Egbe Okpaga Okpaga Acc. HAD,Completed,9500,,9500,TRUE,Pay Utility,254798674917 - Egbe Okpaga Okpaga,,HAD
PK629VO95Y,06/11/2021 09:11,06/11/2021 09:11,Utility Account to Organization Settlement Account,Completed,,-233000,0,TRUE,Utility Account to Organization Settlement Account,979524 - ANCIENT WELLS PROPERTY MANAGERS 2,,
PK599K4Z6F,05/11/2021 21:58,05/11/2021 21:58,Pay Bill from 254722564580 - GLENN KISIANG'ANI Acc. DBB,Completed,8000,,233000,TRUE,Pay Utility with OD via STK,254722564580 - GLENN KISIANG'ANI,,DBB
PK539JXHWD,05/11/2021 21:54,05/11/2021 21:54,Pay Bill from 254718672924 - LILIAN CHEBET NGENO Acc. KGD,Completed,10000,,225000,TRUE,Pay Utility,254718672924 - LILIAN CHEBET NGENO,,KGD
PK539IXYCR,05/11/2021 21:33,05/11/2021 21:33,Pay Bill Online from 254798022849 - MARTIN BUNDI RUGENDO Acc. KFH,Completed,10000,,215000,TRUE,Pay Bill Online,254798022849 - MARTIN BUNDI RUGENDO,,KFH
PK509IX0UU,05/11/2021 21:32,05/11/2021 21:32,Pay Bill from 0724110456 - Fredrick Otieno Onege Acc. ICH,Completed,9500,,205000,TRUE,Pay Utility,0724110456 - Fredrick Otieno Onege,,ICH
PK529GGXV2,05/11/2021 20:50,05/11/2021 20:50,Pay Bill Online from 254714250131 - NELSON ODHONG OMBUYA Acc. DCC,Completed,20000,,195500,TRUE,Pay Bill Online,254714250131 - NELSON ODHONG OMBUYA,,DCC
PK539CO2K1,05/11/2021 19:59,05/11/2021 19:59,Pay Bill Online from 254792187144 - HASSAN AHMED HASSAN Acc. KGI,Completed,10000,,175500,TRUE,Pay Bill Online,254792187144 - HASSAN AHMED HASSAN,,KGI
PK519A6KJR,05/11/2021 19:31,05/11/2021 19:31,Pay Bill Online from 254714563486 - BRIAN MMATA MUSERA Acc. KBJ,Completed,16000,,165500,TRUE,Pay Bill Online,254714563486 - BRIAN MMATA MUSERA,,KBJ
PK57991R3D,05/11/2021 19:20,05/11/2021 19:20,Pay Bill from 254720802644 - MESHACK MAXWELL GANDA Acc. HAB,Completed,15000,,149500,TRUE,Pay Utility,254720802644 - MESHACK MAXWELL GANDA,,HAB
PK54943RTC,05/11/2021 18:30,05/11/2021 18:30,Business Pay Bill by 488519 - NCBA  Bank M-pesa Acc. JCD via API,Completed,15000,,134500,TRUE,Business Pay Bill via API,488519 - NCBA  Bank M-pesa,,JCD
PK5492R4EI,05/11/2021 18:14,05/11/2021 18:14,Pay Bill Online from 254715892656 - DENNIS MUSYOKA MUOKI Acc. KFA,Completed,16000,,119500,TRUE,Pay Bill Online,254715892656 - DENNIS MUSYOKA MUOKI,,KFA
PK598YF9H1,05/11/2021 17:20,05/11/2021 17:20,Pay Bill from 254726977770 - STEPHEN MUIRURI MATHENGE Acc. KAF,Completed,10000,,103500,TRUE,Pay Utility,254726977770 - STEPHEN MUIRURI MATHENGE,,KAF
PK588V5F5Y,05/11/2021 16:33,05/11/2021 16:33,Pay Bill from 0715688238 - JOANNAH ATUHAIRE BANTU Acc. jae,Completed,9000,,93500,TRUE,Pay Utility,0715688238 - JOANNAH ATUHAIRE BANTU,,jae
PK558TI2W1,05/11/2021 16:07,05/11/2021 16:07,Pay Bill from 0115054975 - faith syovata joseph Acc. IBC,Completed,9500,,84500,TRUE,Pay Utility,0115054975 - faith syovata joseph,,IBC
PK538QH48P,05/11/2021 15:17,05/11/2021 15:17,Pay Bill from 254712461449 - CAROLINE MUTHONI GICHOHI Acc. fca,Completed,16000,,75000,TRUE,Pay Utility,254712461449 - CAROLINE MUTHONI GICHOHI,,fca
PK578NCQQR,05/11/2021 14:24,05/11/2021 14:24,Pay Bill Online from 254708703539 - SUSAN NDUGIRE NDUGIRE Acc. kda,Completed,17000,,59000,TRUE,Pay Bill Online,254708703539 - SUSAN NDUGIRE NDUGIRE,,kda
PK548MFL4E,05/11/2021 14:09,05/11/2021 14:09,Pay Bill from 254716056537 - KIRUI KIPLANGAT HILLARY Acc. JCJ,Completed,16000,,42000,TRUE,Pay Utility,254716056537 - KIRUI KIPLANGAT HILLARY,,JCJ
PK598KTG47,05/11/2021 13:42,05/11/2021 13:42,Pay Bill from 254728042989 - PATRICK OMONDI Acc. IFI,Completed,15000,,26000,TRUE,Pay Utility with OD via STK,254728042989 - PATRICK OMONDI,,IFI
PK508K3NZQ,05/11/2021 13:30,05/11/2021 13:30,Pay Bill Online from 254711562428 - Lionel Mutune Muoka Acc. KDI,Completed,11000,,11000,TRUE,Pay Bill Online,254711562428 - Lionel Mutune Muoka,,KDI
PK568DF6Z4,05/11/2021 11:33,05/11/2021 11:33,Utility Account to Organization Settlement Account,Completed,,-380500,0,TRUE,Utility Account to Organization Settlement Account,979524 - ANCIENT WELLS PROPERTY MANAGERS 2,,
PK538CJ3YH,05/11/2021 11:17,05/11/2021 11:17,Pay Bill Online from 254715002789 - ERICK NGUGI MAINA Acc. HAG,Completed,16000,,380500,TRUE,Pay Bill Online,254715002789 - ERICK NGUGI MAINA,,HAG
PK508CCIZ0,05/11/2021 11:13,05/11/2021 11:13,Pay Bill from 254713281251 - ERIC KIAMA Acc. JDI,Completed,20000,,364500,TRUE,Pay Utility,254713281251 - ERIC KIAMA,,JDI
PK5387B8W7,05/11/2021 09:42,05/11/2021 09:42,Pay Bill from 254722569870 - LUKA KEITANY Acc. jfj,Completed,15000,,344500,TRUE,Pay Utility,254722569870 - LUKA KEITANY,,jfj
PK5284VSDI,05/11/2021 08:55,05/11/2021 08:55,Pay Bill from 254723929380 - RHODAH K WAMBUA Acc. HEF,Completed,9500,,329500,TRUE,Pay Utility,254723929380 - RHODAH K WAMBUA,,HEF
PK437WVM79,04/11/2021 23:18,04/11/2021 23:18,Pay Bill from 254703935626 - DAVID NGARI ITA Acc. FCD,Completed,7000,,320000,TRUE,Pay Utility,254703935626 - DAVID NGARI ITA,,FCD
PK427TD34Q,04/11/2021 21:28,04/11/2021 21:28,Pay Bill Online from 254713404029 - ANNE ISEUNA Acc. DED,Completed,20000,,313000,TRUE,Pay Bill Online,254713404029 - ANNE ISEUNA,,DED
PK437PDFJ9,04/11/2021 20:24,04/11/2021 20:24,Pay Bill from 0757721640 - PURITY KANYUA NJERU Acc. HDG,Completed,15000,,293000,TRUE,Pay Utility,0757721640 - PURITY KANYUA NJERU,,HDG
PK407P5PTY,04/11/2021 20:21,04/11/2021 20:21,Pay Bill from 254720278119 - LINDAH OGAWO Acc. KFE,Completed,9500,,278000,TRUE,Pay Utility,254720278119 - LINDAH OGAWO,,KFE
PK477MQFJD,04/11/2021 19:51,04/11/2021 19:51,Pay Bill from 254716702294 - DANIEL MULATI Acc. KBB,Completed,20000,,268500,TRUE,Pay Utility,254716702294 - DANIEL MULATI,,KBB
PK427MDVFE,04/11/2021 19:47,04/11/2021 19:47,Pay Bill from 254795023150 - FAITH MORAA SITEMBA Acc. IFC,Completed,8000,,248500,TRUE,Pay Utility with OD via STK,254795023150 - FAITH MORAA SITEMBA,,IFC
PK497GZX35,04/11/2021 18:52,04/11/2021 18:52,Pay Bill from 254729355933 - FELISTAH NJERI WAIRIMU Acc. IDI,Completed,15000,,240500,TRUE,Pay Utility,254729355933 - FELISTAH NJERI WAIRIMU,,IDI
PK457FLK4X,04/11/2021 18:38,04/11/2021 18:38,Pay Bill from 254717606114 - KELVIN TONDO NGUMBAO Acc. HCE,Completed,8000,,225500,TRUE,Pay Utility,254717606114 - KELVIN TONDO NGUMBAO,,HCE
PK487CX6F0,04/11/2021 18:07,04/11/2021 18:07,Pay Bill Online from 254710202776 - KELVIN KARIMI MACHARIA Acc. FAD,Completed,11000,,217500,TRUE,Pay Bill Online,254710202776 - KELVIN KARIMI MACHARIA,,FAD
PK447BCLWQ,04/11/2021 17:47,04/11/2021 17:47,Pay Bill from 254723966777 - BONIFACE MUTHAKA NGANGA Acc. IEC,Completed,9000,,206500,TRUE,Pay Utility,254723966777 - BONIFACE MUTHAKA NGANGA,,IEC
PK42785VO2,04/11/2021 17:03,04/11/2021 17:03,Pay Bill from 254702152790 - Michelle Ndunge Kyalo Acc. IDE,Completed,8000,,197500,TRUE,Pay Utility,254702152790 - Michelle Ndunge Kyalo,,IDE
PK4273F9BM,04/11/2021 15:47,04/11/2021 15:47,Pay Bill Online from 254717780356 - ALFRED MAIRURA Acc. FAF,Completed,16000,,189500,TRUE,Pay Utility with OD Online,254717780356 - ALFRED MAIRURA,,FAF
PK427380LS,04/11/2021 15:43,04/11/2021 15:43,Pay Bill Online from 254710814215 - JOAN NYAMBURA KAMAU Acc. ifb,Completed,15000,,173500,TRUE,Pay Bill Online,254710814215 - JOAN NYAMBURA KAMAU,,ifb
PK4272KX0U,04/11/2021 15:32,04/11/2021 15:32,Pay Bill Online from 0745378455 - harriet nyanchama nyaberi Acc. FCC,Completed,9000,,158500,TRUE,Pay Bill Online,0745378455 - harriet nyanchama nyaberi,,FCC
PK40704TB4,04/11/2021 14:49,04/11/2021 14:49,Pay Bill from 254727955151 - NKONGE MAURICE Acc. Fge ,Completed,15000,,149500,TRUE,Pay Utility,254727955151 - NKONGE MAURICE,,Fge
PK406ZAMSO,04/11/2021 14:34,04/11/2021 14:34,Pay Bill from 254704481218 - Asenath Kivunga Mwakio Acc. KDG,Completed,10000,,134500,TRUE,Pay Utility,254704481218 - Asenath Kivunga Mwakio,,KDG
PK486QJL24,04/11/2021 12:01,04/11/2021 12:01,Pay Bill from 254728854349 - JOSEPH MUSYOKA Acc. IBG,Completed,8000,,124500,TRUE,Pay Utility,254728854349 - JOSEPH MUSYOKA,,IBG
PK486NKGI0,04/11/2021 11:07,04/11/2021 11:07,Pay Bill from 254724611087 - Francis Mukindya Muoki Acc. dfb,Completed,4000,,116500,TRUE,Pay Utility,254724611087 - Francis Mukindya Muoki,,dfb
PK496NHXF5,04/11/2021 11:06,04/11/2021 11:06,Pay Bill from 254714814264 - PATRICIA NZOMO Acc. Hcc,Completed,10000,,112500,TRUE,Pay Utility,254714814264 - PATRICIA NZOMO,,Hcc
PK426N0ETA,04/11/2021 10:57,04/11/2021 10:57,Pay Bill from 254713159153 - GUYO SANKALA Acc. DGD,Completed,20000,,102500,TRUE,Pay Utility,254713159153 - GUYO SANKALA,,DGD
PK486MXHCS,04/11/2021 10:56,04/11/2021 10:56,Pay Bill Online from 254708225541 - JUDITH NKATHA SIMBA Acc. HDH,Completed,16000,,82500,TRUE,Pay Bill Online,254708225541 - JUDITH NKATHA SIMBA,,HDH
PK446MN4CM,04/11/2021 10:50,04/11/2021 10:50,Pay Bill Online from 0796121714 - janet   mwikali Acc. KBC,Completed,10000,,66500,TRUE,Pay Bill Online,0796121714 - janet   mwikali,,KBC
PK466LG2V0,04/11/2021 10:29,04/11/2021 10:29,Pay Bill from 254726687555 - ELIUD MUTHURE MICHENI Acc. KAI,Completed,12000,,56500,TRUE,Pay Utility,254726687555 - ELIUD MUTHURE MICHENI,,KAI
PK466KX2R8,04/11/2021 10:19,04/11/2021 10:19,Pay Bill Online from 0724386624 - FATUMA ISSE YUSSUF Acc. FAB,Completed,16000,,44500,TRUE,Pay Utility with OD Online,0724386624 - FATUMA ISSE YUSSUF,,FAB
PK446JZHZM,04/11/2021 10:01,04/11/2021 10:01,Pay Bill from 254720029066 - EVANS CHERUYOT ROTICH Acc. KFI,Completed,8000,,28500,TRUE,Pay Utility,254720029066 - EVANS CHERUYOT ROTICH,,KFI
PK416IOCPV,04/11/2021 09:37,04/11/2021 09:37,Pay Bill from 254719398942 - NORAH WAYUA MUNYAO Acc. KDC,Completed,10000,,20500,TRUE,Pay Utility,254719398942 - NORAH WAYUA MUNYAO,,KDC
PK486HLBM6,04/11/2021 09:16,04/11/2021 09:16,Pay Bill from 254729160700 - MICAH NDUNGI Acc. HFE,Completed,10500,,10500,TRUE,Pay Utility,254729160700 - MICAH NDUNGI,,HFE
PK466FJUH4,04/11/2021 08:34,04/11/2021 08:34,Utility Account to Organization Settlement Account,Completed,,-190000,0,TRUE,Utility Account to Organization Settlement Account,979524 - ANCIENT WELLS PROPERTY MANAGERS 2,,
PK436EHXJT,04/11/2021 08:12,04/11/2021 08:12,Pay Bill from 254791206178 - LORINE MUGANDA Acc. FBD,Completed,11000,,190000,TRUE,Pay Utility,254791206178 - LORINE MUGANDA,,FBD
PK466DHIGQ,04/11/2021 07:48,04/11/2021 07:48,Pay Bill Online from 254723370004 - LABAN MAINGI WAMBUA Acc. JEF,Completed,8000,,179000,TRUE,Pay Utility with OD Online,254723370004 - LABAN MAINGI WAMBUA,,JEF
PK446CZQVO,04/11/2021 07:35,04/11/2021 07:35,Pay Bill Online from 254717053159 - FREDRICK NYATIKA Acc. IEF,Completed,11000,,171000,TRUE,Pay Bill Online,254717053159 - FREDRICK NYATIKA,,IEF
PK416CVJP3,04/11/2021 07:32,04/11/2021 07:32,Pay Bill Online from 0794582647 - PETER POCHI MAKHACHA Acc. IAC,Completed,10000,,160000,TRUE,Pay Bill Online,0794582647 - PETER POCHI MAKHACHA,,IAC
PK33636LTD,03/11/2021 20:54,03/11/2021 20:54,Pay Bill from 254708570729 - MARY OGOLLA Acc. KAD,Completed,12000,,150000,TRUE,Pay Utility,254708570729 - MARY OGOLLA,,KAD
PK31632LHR,03/11/2021 20:52,03/11/2021 20:52,Pay Bill from 254704111133 - ELVIS OTIENO Acc. HFD,Completed,1000,,138000,TRUE,Pay Utility,254704111133 - ELVIS OTIENO,,HFD
PK3060DOS4,03/11/2021 20:14,03/11/2021 20:14,Pay Bill from 254723605941 - JOHN KARIHA Acc. kdd,Completed,6000,,137000,TRUE,Pay Utility,254723605941 - JOHN KARIHA,,kdd
PK386079H4,03/11/2021 20:12,03/11/2021 20:12,Pay Bill Online from 254722921132 - JOE MCCRAY MURIUKI KIHIA Acc. IFA,Completed,15000,,131000,TRUE,Pay Utility with OD Online,254722921132 - JOE MCCRAY MURIUKI KIHIA,,IFA
PK375W298B,03/11/2021 19:25,03/11/2021 19:25,Pay Bill from 254728670882 - SHARAD EDWARD ADALA OLUM Acc. KCK,Completed,15000,,116000,TRUE,Pay Utility,254728670882 - SHARAD EDWARD ADALA OLUM,,KCK
PK335M0OJD,03/11/2021 17:34,03/11/2021 17:34,Pay Bill from 254721852723 - HASSAN ABDINOOR MOHAMED Acc. jaa,Completed,19000,,101000,TRUE,Pay Utility,254721852723 - HASSAN ABDINOOR MOHAMED,,jaa
PK355HZ10R,03/11/2021 16:35,03/11/2021 16:35,Pay Bill from 254700430569 - EDITH   GAKII Acc. FCB,Completed,16000,,82000,TRUE,Pay Utility,254700430569 - EDITH   GAKII,,FCB
PK325GTPNE,03/11/2021 16:17,03/11/2021 16:17,Pay Bill from 254723499628 - CLINTON JOSEPH MUHARI Acc. hfh,Completed,16000,,66000,TRUE,Pay Utility with OD via STK,254723499628 - CLINTON JOSEPH MUHARI,,hfh
PK375FVTL1,03/11/2021 16:01,03/11/2021 16:01,Pay Bill Online from 254718138578 - PAULINE KIOKO Acc. KFD,Completed,14000,,50000,TRUE,Pay Bill Online,254718138578 - PAULINE KIOKO,,KFD
PK305DMWJY,03/11/2021 15:23,03/11/2021 15:23,Pay Bill Online from 254712187712 - JUDELEEN AHINDUKHA SHILOBELE Acc. IEA,Completed,16000,,36000,TRUE,Pay Bill Online,254712187712 - JUDELEEN AHINDUKHA SHILOBELE,,IEA
PK31512GXT,03/11/2021 11:44,03/11/2021 11:44,Pay Bill from 254722136450 - MARY EVERLYN Acc. JAI,Completed,20000,,20000,TRUE,Pay Utility,254722136450 - MARY EVERLYN,,JAI
PK314ZYJ09,03/11/2021 11:24,03/11/2021 11:24,Utility Account to Organization Settlement Account,Completed,,-545200,0,TRUE,Utility Account to Organization Settlement Account,979524 - ANCIENT WELLS PROPERTY MANAGERS 2,,
PK304TG0AG,03/11/2021 09:23,03/11/2021 09:23,Pay Bill from 254715742045 - FRIDAH KIEMA Acc. HGC,Completed,9500,,545200,TRUE,Pay Utility,254715742045 - FRIDAH KIEMA,,HGC
PK334SSD91,03/11/2021 09:10,03/11/2021 09:10,Pay Bill from 254703555717 - SENGA SALIM Acc. hbb,Completed,7000,,535700,TRUE,Pay Utility,254703555717 - SENGA SALIM,,hbb
PK334S55DD,03/11/2021 08:57,03/11/2021 08:57,Pay Bill from 254726172957 - VINCENT OLIENG' Acc. HBC,Completed,10000,,528700,TRUE,Pay Utility,254726172957 - VINCENT OLIENG',,HBC
PK354L6VC1,03/11/2021 02:22,03/11/2021 02:22,Pay Bill Online from 254720451253 - JIMMY KIOGORA NKIROTE Acc. KBD,Completed,10000,,518700,TRUE,Pay Bill Online,254720451253 - JIMMY KIOGORA NKIROTE,,KBD
PK264IXA24,02/11/2021 22:28,02/11/2021 22:28,Pay Bill Online from 254720451253 - JIMMY KIOGORA NKIROTE Acc. KBD,Completed,7500,,508700,TRUE,Pay Bill Online,254720451253 - JIMMY KIOGORA NKIROTE,,KBD
PK274IG7Y3,02/11/2021 22:12,02/11/2021 22:12,Pay Bill from 254796292434 - ANTONINA HAYA Acc. HED,Completed,6000,,501200,TRUE,Pay Utility,254796292434 - ANTONINA HAYA,,HED
PK214HMHPB,02/11/2021 21:50,02/11/2021 21:50,Pay Bill from 254720351482 - Cheruiyot Langat Brian Acc. dfa,Completed,15000,,495200,TRUE,Pay Utility with OD via STK,254720351482 - Cheruiyot Langat Brian,,dfa
PK234BB705,02/11/2021 20:07,02/11/2021 20:07,Pay Bill from 254719285750 - LILIAN ACHIENG ODONGO Acc. IGE,Completed,9000,,480200,TRUE,Pay Utility,254719285750 - LILIAN ACHIENG ODONGO,,IGE
PK284AK856,02/11/2021 19:58,02/11/2021 19:58,Pay Bill from 254704934557 - BAKARI KITSAKA Acc. JAD,Completed,15000,,471200,TRUE,Pay Utility,254704934557 - BAKARI KITSAKA,,JAD
PK224517PA,02/11/2021 19:00,02/11/2021 19:00,Pay Bill from 254702144275 - CAROLYNE MAKENA KARIA Acc. JFB,Completed,15000,,456200,TRUE,Pay Utility,254702144275 - CAROLYNE MAKENA KARIA,,JFB
PK2242LXGG,02/11/2021 18:35,02/11/2021 18:35,Pay Bill from 254720496449 - STANLEY KIPKOECH RONO Acc. FBE,Completed,16000,,441200,TRUE,Pay Utility,254720496449 - STANLEY KIPKOECH RONO,,FBE
PK273Y03NJ,02/11/2021 17:41,02/11/2021 17:41,Pay Bill from 254726651764 - NICHOLAS MWANZIA Acc. HBE,Completed,22000,,425200,TRUE,Pay Utility,254726651764 - NICHOLAS MWANZIA,,HBE
PK203TI0M8,02/11/2021 16:37,02/11/2021 16:37,Pay Bill from 0797758628 - jackline nyamari onyango Acc. ICF,Completed,11000,,403200,TRUE,Pay Utility,0797758628 - jackline nyamari onyango,,ICF
PK213SF5WN,02/11/2021 16:20,02/11/2021 16:20,Pay Bill from 254704403532 - Mercy Chepchirchir Mary Acc. JBC,Completed,11000,,392200,TRUE,Pay Utility with OD via STK,254704403532 - Mercy Chepchirchir Mary,,JBC
PK293Q4FU1,02/11/2021 15:41,02/11/2021 15:41,Pay Bill from 0113473583 - GERARD   HAVYARIMANA Acc. HEE,Completed,22000,,381200,TRUE,Pay Utility,0113473583 - GERARD   HAVYARIMANA,,HEE
PK243PB8JI,02/11/2021 15:27,02/11/2021 15:27,Pay Bill from 254701006375 - EZRA MAKORI SERETI Acc. HTE,Completed,10000,,359200,TRUE,Pay Utility,254701006375 - EZRA MAKORI SERETI,,HTE
PK263MNQWA,02/11/2021 14:41,02/11/2021 14:41,Pay Bill from 0722925798 - ifrah abukar adan Acc. IEI,Completed,15000,,349200,TRUE,Pay Utility,0722925798 - ifrah abukar adan,,IEI
PK203LYQTM,02/11/2021 14:29,02/11/2021 14:29,Pay Bill from 254799287000 - Godfrey odhiambo oyugi Acc. Kae,Completed,200,,334200,TRUE,Pay Utility,254799287000 - Godfrey odhiambo oyugi,,Kae
PK233KDAVL,02/11/2021 14:01,02/11/2021 14:01,Pay Bill Online from 254700187806 - WINNIE OLIVIA AKOTH Acc. JEC,Completed,10000,,334000,TRUE,Pay Bill Online,254700187806 - WINNIE OLIVIA AKOTH,,JEC
PK263HGBDG,02/11/2021 13:12,02/11/2021 13:12,Pay Bill from 254722992162 - JAEL MWANDILOH Acc. DCB,Completed,10000,,324000,TRUE,Pay Utility,254722992162 - JAEL MWANDILOH,,DCB
PK203DA3Q0,02/11/2021 11:59,02/11/2021 11:59,Pay Bill from 254724852503 - GEOFREY YEGO Acc. JFF,Completed,10000,,314000,TRUE,Pay Utility,254724852503 - GEOFREY YEGO,,JFF
PK233B1F53,02/11/2021 11:19,02/11/2021 11:19,Pay Bill from 254740579741 - MUHINDI MULINYA Acc. HGG,Completed,15000,,304000,TRUE,Pay Utility,254740579741 - MUHINDI MULINYA,,HGG
PK223AMH6E,02/11/2021 11:11,02/11/2021 11:11,Pay Bill from 254724952183 - MICHAEL WAMBUA MWOVE Acc. FEA,Completed,16000,,289000,TRUE,Pay Utility,254724952183 - MICHAEL WAMBUA MWOVE,,FEA
PK23398B89,02/11/2021 10:46,02/11/2021 10:46,Pay Bill from 254712974871 - PAULA WANJIKU GATUI Acc. hea,Completed,16000,,273000,TRUE,Pay Utility,254712974871 - PAULA WANJIKU GATUI,,hea
PK2731JC4N,02/11/2021 08:17,02/11/2021 08:17,Pay Bill from 254722444622 - CHARITY KAGWAINI Acc. ffd,Completed,11000,,257000,TRUE,Pay Utility,254722444622 - CHARITY KAGWAINI,,ffd
PK2730EPDR,02/11/2021 07:51,02/11/2021 07:51,Pay Bill from 0715273095 - Stacy Aketch Ochuka Acc. KGK,Completed,15000,,246000,TRUE,Pay Utility,0715273095 - Stacy Aketch Ochuka,,KGK
PK222Z6TK0,02/11/2021 07:19,02/11/2021 07:19,Pay Bill Online from 254722728975 - CURTIS MRIGA OMIDO Acc. IAH,Completed,16000,,231000,TRUE,Pay Bill Online,254722728975 - CURTIS MRIGA OMIDO,,IAH
PK212XWJDR,02/11/2021 06:33,02/11/2021 06:33,Pay Bill Online from 254715764212 - BANCE ISHEMINYE Acc. JFE ,Completed,5000,,215000,TRUE,Pay Bill Online,254715764212 - BANCE ISHEMINYE,,JFE
PK102VFL6K,01/11/2021 23:10,01/11/2021 23:10,Pay Bill from 254725771056 - CHARLES MURAGURI Acc. FCE,Completed,15000,,210000,TRUE,Pay Utility,254725771056 - CHARLES MURAGURI,,FCE
PK172VCPC5,01/11/2021 23:05,01/11/2021 23:05,Pay Bill Online from 254742911013 - HANEST AMIMO Acc. IEG,Completed,8000,,195000,TRUE,Pay Bill Online,254742911013 - HANEST AMIMO,,IEG
PK122VAT1O,01/11/2021 23:02,01/11/2021 23:02,Pay Bill Online from 254722258756 - DAVID KEMBOI Acc. HDA,Completed,18000,,187000,TRUE,Pay Bill Online,254722258756 - DAVID KEMBOI,,HDA
PK102RGZ6O,01/11/2021 21:13,01/11/2021 21:13,Pay Bill Online from 254707226192 - NICHOLUS MAINGI MWANTHI Acc. HBF,Completed,9000,,169000,TRUE,Pay Bill Online,254707226192 - NICHOLUS MAINGI MWANTHI,,HBF
PK112QKQVB,01/11/2021 20:58,01/11/2021 20:58,Pay Bill from 254799946039 - LUIS OTIENO Acc. IAE,Completed,8000,,160000,TRUE,Pay Utility,254799946039 - LUIS OTIENO,,IAE
PK162NLC6W,01/11/2021 20:14,01/11/2021 20:14,Pay Bill from 254724477912 - SAMUEL MURIMI Acc. HCD,Completed,10000,,152000,TRUE,Pay Utility with OD via STK,254724477912 - SAMUEL MURIMI,,HCD
PK172MG2CX,01/11/2021 20:00,01/11/2021 20:00,Pay Bill Online from 254725385966 - JOSEPH MUYA MARUA Acc. KEE,Completed,10000,,142000,TRUE,Pay Utility with OD Online,254725385966 - JOSEPH MUYA MARUA,,KEE
PK112J5K19,01/11/2021 19:23,01/11/2021 19:23,Pay Bill from 254710239100 - PHILOMENA WOKI MUTHAMA Acc. KDK,Completed,17000,,132000,TRUE,Pay Utility,254710239100 - PHILOMENA WOKI MUTHAMA,,KDK
PK192FJVR5,01/11/2021 18:47,01/11/2021 18:47,Pay Bill from 0717216114 - Felix Njeru Mugambi Acc. Kdf,Completed,10000,,115000,TRUE,Pay Utility,0717216114 - Felix Njeru Mugambi,,Kdf
PK142EFKXU,01/11/2021 18:35,01/11/2021 18:35,Pay Bill from 254721417560 - ANDREW SANDE Acc. JBJ,Completed,16000,,105000,TRUE,Pay Utility,254721417560 - ANDREW SANDE,,JBJ
PK152ACM6X,01/11/2021 17:47,01/11/2021 17:47,Pay Bill from 254728901013 - ALEX MOSE ARWASA Acc. HGD,Completed,10000,,89000,TRUE,Pay Utility,254728901013 - ALEX MOSE ARWASA,,HGD
PK1028M332,01/11/2021 17:23,01/11/2021 17:23,Pay Bill Online from 254714855708 - KIPLANGAT SITIENEI Acc. FAE,Completed,16000,,79000,TRUE,Pay Bill Online,254714855708 - KIPLANGAT SITIENEI,,FAE
PK11289647,01/11/2021 17:18,01/11/2021 17:18,Pay Bill Online from 254724005780 - IVY MARGARET OGOLA Acc. FFB,Completed,20000,,63000,TRUE,Pay Bill Online,254724005780 - IVY MARGARET OGOLA,,FFB
PK1322I95R,01/11/2021 15:47,01/11/2021 15:47,Pay Bill Online from 254728093389 - MOHAMED MUSA ALASOW Acc. KED ,Completed,12000,,43000,TRUE,Pay Bill Online,254728093389 - MOHAMED MUSA ALASOW,,KED
PK1622AFSO,01/11/2021 15:43,01/11/2021 15:43,Pay Bill from 254704833344 - LOISE KIMANI Acc. jfa,Completed,20000,,31000,TRUE,Pay Utility,254704833344 - LOISE KIMANI,,jfa
PK1720ZSKH,01/11/2021 15:21,01/11/2021 15:21,Pay Bill Online from 254704033042 - LESLIE KOIKAI Acc. IBD,Completed,11000,,11000,TRUE,Pay Bill Online,254704033042 - LESLIE KOIKAI,,IBD
PK1620PK1S,01/11/2021 15:16,01/11/2021 15:16,Utility Account to Organization Settlement Account,Completed,,-142000,0,TRUE,Utility Account to Organization Settlement Account,979524 - ANCIENT WELLS PROPERTY MANAGERS 2,,
PK101XBR9Y,01/11/2021 14:17,01/11/2021 14:17,Pay Bill from 254726753273 - JESSE K MURIRMI NJERU Acc. HCH,Completed,17000,,142000,TRUE,Pay Utility,254726753273 - JESSE K MURIRMI NJERU,,HCH
PK181VQE06,01/11/2021 13:49,01/11/2021 13:49,Pay Bill from 254724953672 - MERCY MBETI Acc. JCA,Completed,20000,,125000,TRUE,Pay Utility,254724953672 - MERCY MBETI,,JCA
PK111QRFVL,01/11/2021 12:24,01/11/2021 12:24,Pay Bill from 254720375006 - JACOB KANGOGO Acc. IBA,Completed,15000,,105000,TRUE,Pay Utility,254720375006 - JACOB KANGOGO,,IBA
PK111MEH4X,01/11/2021 11:05,01/11/2021 11:05,Pay Bill Online from 254722604851 - WILFRED SAKWA Acc. IDG,Completed,10000,,90000,TRUE,Pay Bill Online,254722604851 - WILFRED SAKWA,,IDG
PK151LU5ZD,01/11/2021 10:55,01/11/2021 10:55,Pay Bill from 254729796719 - JACINTA WANJIKU NJERI Acc. FFF,Completed,17000,,80000,TRUE,Pay Utility,254729796719 - JACINTA WANJIKU NJERI,,FFF
PK121KYWOG,01/11/2021 10:39,01/11/2021 10:39,Pay Bill from 254717726012 - WINFRED MUENI PETER Acc. IDA,Completed,16000,,63000,TRUE,Pay Utility,254717726012 - WINFRED MUENI PETER,,IDA
PK181KNO0K,01/11/2021 10:34,01/11/2021 10:34,Pay Bill Online from 254795510441 - LEWIS MUEMA Acc. KEB,Completed,16000,,47000,TRUE,Pay Bill Online,254795510441 - LEWIS MUEMA,,KEB
PK131FZFL1,01/11/2021 09:06,01/11/2021 09:06,Pay Bill Online from 254725218904 - SALOME MUTHONI MWANGI Acc. KFJ,Completed,15000,,31000,TRUE,Pay Bill Online,254725218904 - SALOME MUTHONI MWANGI,,KFJ
PK171DWOTN,01/11/2021 08:24,01/11/2021 08:24,Pay Bill Online from 254704682516 - Winnie Akinyi Omollo Acc. FDA,Completed,16000,,16000,TRUE,Pay Bill Online,254704682516 - Winnie Akinyi Omollo,,FDA
PK131AYDX7,01/11/2021 07:13,01/11/2021 07:13,Utility Account to Organization Settlement Account,Completed,,-102500,0,TRUE,Utility Account to Organization Settlement Account,979524 - ANCIENT WELLS PROPERTY MANAGERS 2,,
PK101A5Q8K,01/11/2021 06:47,01/11/2021 06:47,Pay Bill Online from 254717809935 - LYDIAH WERU Acc. IDC,Completed,9500,,102500,TRUE,Pay Bill Online,254717809935 - LYDIAH WERU,,IDC
PK131A2D3J,01/11/2021 06:44,01/11/2021 06:44,Pay Bill from 254743329119 - Bevaline Khayi Wekesa Acc. DGC,Completed,20000,,93000,TRUE,Pay Utility with OD via STK,254743329119 - Bevaline Khayi Wekesa,,DGC
PK1619V92O,01/11/2021 06:36,01/11/2021 06:36,Pay Bill from 254718284151 - EVERLINE MATHEKA Acc. JAG,Completed,9000,,73000,TRUE,Pay Utility,254718284151 - EVERLINE MATHEKA,,JAG
PK1618DMEI,01/11/2021 03:34,01/11/2021 03:34,Pay Bill from 254725381062 - VICTOR MAITHYA Acc. HEG,Completed,3000,,64000,TRUE,Pay Utility,254725381062 - VICTOR MAITHYA,,HEG
