Receipt No.,Completion Time,Initiation Time,Details,Transaction Status,Paid In,Withdrawn,Balance,Balance Confirmed,Reason Type,Other Party Info,Linked Transaction ID,A/C No.
QEV0XNEPAK,31/05/2022 20:05,31/05/2022 20:05,Pay Bill from 0706286171 - Ivan Ofweja Katimi Acc. V13,Completed,17500,,24100,TRUE,Pay Utility,0706286171 - Ivan Ofweja Katimi,,V13
QEV2XLK87I,31/05/2022 19:48,31/05/2022 19:48,Pay Bill from 0717042461 - Sharon Nyangasi Shivachi Acc. V55,Completed,6600,,6600,TRUE,Pay Utility,0717042461 - Sharon Nyangasi Shivachi,,V55
QEV9WHGI2J,31/05/2022 11:33,31/05/2022 11:33,Utility Account to Organization Settlement Account,Completed,,-8050,0,TRUE,Utility Account to Organization Settlement Account,887674 - ANCIENT WELLS LTD 1,,
QEU6VGI26I,30/05/2022 18:53,30/05/2022 18:53,Pay Bill from 0768384843 - Augastine   Omeri Acc. V51,Completed,7000,,8050,TRUE,Pay Utility,0768384843 - Augastine   Omeri,,V51
QEU8VB4MIM,30/05/2022 18:01,30/05/2022 18:01,Pay Bill Online from 254712375036 - ISAAC MWAURA KIMANI Acc. Kas480d ,Completed,50,,1050,TRUE,Pay Bill Online,254712375036 - ISAAC MWAURA KIMANI,,Kas480d
QET1TGZJ4X,29/05/2022 18:40,29/05/2022 18:40,Pay Bill Online from 0769929240 - Calvince Klein Alal Acc. v02,Completed,1000,,1000,TRUE,Pay Utility with OD Online,0769929240 - Calvince Klein Alal,,v02
QET4SJ7GHW,29/05/2022 10:20,29/05/2022 10:20,Utility Account to Organization Settlement Account,Completed,,-8000,0,TRUE,Utility Account to Organization Settlement Account,887674 - ANCIENT WELLS LTD 1,,
QES2QVCMLK,28/05/2022 13:20,28/05/2022 13:20,Pay Bill from 254713894468 - RAPHAEL . NTHAMBURI Acc. v26,Completed,8000,,8000,TRUE,Pay Utility,254713894468 - RAPHAEL . NTHAMBURI,,v26
QES5QKHIDL,28/05/2022 10:42,28/05/2022 10:42,Utility Account to Organization Settlement Account,Completed,,-3000,0,TRUE,Utility Account to Organization Settlement Account,887674 - ANCIENT WELLS LTD 1,,
QER0PGYYWE,27/05/2022 18:00,27/05/2022 18:00,Pay Bill from 0703406243 - LEVITAN    SHALIMBA Acc. VK3,Completed,3000,,3000,TRUE,Pay Utility,0703406243 - LEVITAN    SHALIMBA,,VK3
QER0P3X1Z8,27/05/2022 15:21,27/05/2022 15:21,Utility Account to Organization Settlement Account,Completed,,-7000,0,TRUE,Utility Account to Organization Settlement Account,887674 - ANCIENT WELLS LTD 1,,
QEP5KR10TN,25/05/2022 11:58,25/05/2022 11:58,Pay Bill from 254722648389 - SUDI MOSES Acc. V31,Completed,7000,,7000,TRUE,Pay Utility,254722648389 - SUDI MOSES,,V31
QEP0KOOO6C,25/05/2022 11:22,25/05/2022 11:22,Utility Account to Organization Settlement Account,Completed,,-13100,0,TRUE,Utility Account to Organization Settlement Account,887674 - ANCIENT WELLS LTD 1,,
QEP2KNQUMQ,25/05/2022 11:07,25/05/2022 11:07,Pay Bill Online from 254706427665 - CHRIS KIRIMI Acc. v22,Completed,6900,,13100,TRUE,Pay Bill Online,254706427665 - CHRIS KIRIMI,,v22
QEO8JFOB4A,24/05/2022 17:16,24/05/2022 17:16,Pay Bill Online from 254722369373 - JUSTUS NDISYA MUSYOKA Acc. V40,Completed,6200,,6200,TRUE,Pay Bill Online,254722369373 - JUSTUS NDISYA MUSYOKA,,V40
QEN0H31UV8,23/05/2022 13:20,23/05/2022 13:20,Utility Account to Organization Settlement Account,Completed,,-6600,0,TRUE,Utility Account to Organization Settlement Account,887674 - ANCIENT WELLS LTD 1,,
QEN7GHRD2H,23/05/2022 07:26,23/05/2022 07:26,Pay Bill Online from 254707049818 - LUCKY TSUMA Acc. v19,Completed,6600,,6600,TRUE,Pay Bill Online,254707049818 - LUCKY TSUMA,,v19
QEN1GFZVHR,23/05/2022 06:28,23/05/2022 06:28,Utility Account to Organization Settlement Account,Completed,,-13300,0,TRUE,Utility Account to Organization Settlement Account,887674 - ANCIENT WELLS LTD 1,,
QEN3GDLRGP,23/05/2022 00:06,23/05/2022 00:06,Pay Bill from 254719808077 - ANTHONY KARIUKI Acc. V41,Completed,6600,,13300,TRUE,Pay Utility,254719808077 - ANTHONY KARIUKI,,V41
QEM4G7UAKG,22/05/2022 21:09,22/05/2022 21:09,Pay Bill Online from 254706427665 - CHRIS KIRIMI Acc. v22,Completed,100,,6700,TRUE,Pay Bill Online,254706427665 - CHRIS KIRIMI,,v22
QEM9FNTBFB,22/05/2022 17:16,22/05/2022 17:16,Pay Bill from 254702343078 - JOSEPH EBENYO Acc. V10 Joseph.,Completed,6600,,6600,TRUE,Pay Utility,254702343078 - JOSEPH EBENYO,,V10
QEM8FBBQ50,22/05/2022 14:18,22/05/2022 14:18,Utility Account to Organization Settlement Account,Completed,,-8500,0,TRUE,Utility Account to Organization Settlement Account,887674 - ANCIENT WELLS LTD 1,,
QEM6F26MFG,22/05/2022 11:46,22/05/2022 11:46,Pay Bill Online from 254702118125 - ROTICH BETHWEL Acc. V20,Completed,5000,,8500,TRUE,Pay Utility with OD Online,254702118125 - ROTICH BETHWEL,,V20
QEL7EBIW7Z,21/05/2022 20:22,21/05/2022 20:22,Pay Bill from 0727266858 - winrose imbuga mudenyo Acc. vk5,Completed,3500,,3500,TRUE,Pay Utility,0727266858 - winrose imbuga mudenyo,,vk5
QEL6D971RE,21/05/2022 12:36,21/05/2022 12:36,Utility Account to Organization Settlement Account,Completed,,-2600,0,TRUE,Utility Account to Organization Settlement Account,887674 - ANCIENT WELLS LTD 1,,
QEL2D49XL2,21/05/2022 11:21,21/05/2022 11:21,Pay Bill from 0727542914 - Pascal Ouma Opar Acc. pascalv45,Completed,2600,,2600,TRUE,Pay Utility,0727542914 - Pascal Ouma Opar,,pascalv45
QEK0B9I4JE,20/05/2022 12:31,20/05/2022 12:31,Utility Account to Organization Settlement Account,Completed,,-33100,0,TRUE,Utility Account to Organization Settlement Account,887674 - ANCIENT WELLS LTD 1,,
QEK5AOKDV7,20/05/2022 01:19,20/05/2022 01:19,Pay Bill from 254722282754 - HENRY SAHA Acc. V34,Completed,11000,,33100,TRUE,Pay Utility,254722282754 - HENRY SAHA,,V34
QEJ2A5KXAE,19/05/2022 18:57,19/05/2022 18:57,Pay Bill from 254715939283 - alex nyamai Acc. v07,Completed,4600,,22100,TRUE,Pay Utility,254715939283 - alex nyamai,,v07
QEJ19FB49X,19/05/2022 13:07,19/05/2022 13:07,Pay Bill Online from 0791992967 - JOCELYN AKINYI ODONGO Acc. V47,Completed,17500,,17500,TRUE,Pay Bill Online,0791992967 - JOCELYN AKINYI ODONGO,,V47
QEH3671PI1,17/05/2022 17:37,17/05/2022 17:37,Utility Account to Organization Settlement Account,Completed,,-19800,0,TRUE,Utility Account to Organization Settlement Account,887674 - ANCIENT WELLS LTD 1,,
QEH65GQ2L6,17/05/2022 11:05,17/05/2022 11:05,Pay Bill from 254707220622 - EVERLYN SYOMBUA KAKUI Acc. v57,Completed,7000,,19800,TRUE,Pay Utility,254707220622 - EVERLYN SYOMBUA KAKUI,,v57
QEH6599ATE,17/05/2022 09:00,17/05/2022 09:00,Pay Bill Online from 254729569271 - MESHACK OBOTTA OBARE Acc. V12,Completed,6200,,12800,TRUE,Pay Bill Online,254729569271 - MESHACK OBOTTA OBARE,,V12
QEG94LUF2H,16/05/2022 19:27,16/05/2022 19:27,Pay Bill Online from 254704783091 - CLINTON MUSEBE KASUTI Acc. v48,Completed,6600,,6600,TRUE,Pay Bill Online,254704783091 - CLINTON MUSEBE KASUTI,,v48
QEE5ZADQLP,14/05/2022 15:05,14/05/2022 15:05,Utility Account to Organization Settlement Account,Completed,,-2000,0,TRUE,Utility Account to Organization Settlement Account,887674 - ANCIENT WELLS LTD 1,,
QEE4Z9YA6K,14/05/2022 14:59,14/05/2022 14:59,Pay Bill from 0727542914 - Pascal Ouma Opar Acc. pascalv45,Completed,2000,,2000,TRUE,Pay Utility,0727542914 - Pascal Ouma Opar,,pascalv45
QEC7VXP8IH,12/05/2022 19:16,12/05/2022 19:16,Utility Account to Organization Settlement Account,Completed,,-35600,0,TRUE,Utility Account to Organization Settlement Account,887674 - ANCIENT WELLS LTD 1,,
QEC3V1G12H,12/05/2022 12:15,12/05/2022 12:15,Pay Bill from 0727542914 - Pascal Ouma Opar Acc. pascalv45,Completed,2000,,35600,TRUE,Pay Utility,0727542914 - Pascal Ouma Opar,,pascalv45
QEB6UDM78Q,11/05/2022 21:59,11/05/2022 21:59,Pay Bill from 0112583763 - Mercy Ndunge Nzamalu Acc. v28,Completed,6600,,33600,TRUE,Pay Utility,0112583763 - Mercy Ndunge Nzamalu,,v28
QEB3U11PIX,11/05/2022 19:27,11/05/2022 19:27,Pay Bill from 254729806880 - Eunice Akinyi Were Acc. V33,Completed,7000,,27000,TRUE,Pay Utility,254729806880 - Eunice Akinyi Were,,V33
QEB5TV29PT,11/05/2022 18:34,11/05/2022 18:34,Pay Bill from 254707568664 - Ismael Kitsao Acc. v52,Completed,5000,,20000,TRUE,Pay Utility,254707568664 - Ismael Kitsao,,v52
QEB8TCRH6C,11/05/2022 14:40,11/05/2022 14:40,Pay Bill from 254720230582 - SHADRACK KITAKA NGILA Acc. v01,Completed,7000,,15000,TRUE,Pay Utility,254720230582 - SHADRACK KITAKA NGILA,,v01
QEB3T5ET9R,11/05/2022 12:54,11/05/2022 12:54,Pay Bill Online from 0792514260 - Wilkister Irako Harambee Acc. 37847739,Completed,2000,,8000,TRUE,Pay Bill Online,0792514260 - Wilkister Irako Harambee,,37847739
QEB4SWSD3A,11/05/2022 10:41,11/05/2022 10:41,Pay Bill Online from 254702118125 - ROTICH BETHWEL Acc. V20,Completed,2000,,6000,TRUE,Pay Utility with OD Online,254702118125 - ROTICH BETHWEL,,V20
QEB7SW7ZVJ,11/05/2022 10:33,11/05/2022 10:33,Pay Bill from 254701174081 - JOSEPHINE ODUOR Acc. v34,Completed,4000,,4000,TRUE,Pay Utility,254701174081 - JOSEPHINE ODUOR,,v34
QEB9SQPREJ,11/05/2022 09:03,11/05/2022 09:03,Utility Account to Organization Settlement Account,Completed,,-36000,0,TRUE,Utility Account to Organization Settlement Account,887674 - ANCIENT WELLS LTD 1,,
QEB8SISLG2,11/05/2022 03:09,11/05/2022 03:09,Pay Bill from 254719701463 - MARY KANYI KIARIE Acc. v17,Completed,7000,,36000,TRUE,Pay Utility,254719701463 - MARY KANYI KIARIE,,v17
QEA2RZSYJO,10/05/2022 19:08,10/05/2022 19:08,Pay Bill from 254701261592 - VICTOR MWILU Acc. v37,Completed,7000,,29000,TRUE,Pay Utility with OD via STK,254701261592 - VICTOR MWILU,,v37
QEA6RM12H2,10/05/2022 16:38,10/05/2022 16:38,Pay Bill from 254729358258 - Cliff Ombasa Acc. V05,Completed,4500,,22000,TRUE,Pay Utility,254729358258 - Cliff Ombasa,,V05
QEA1RFJ48D,10/05/2022 15:05,10/05/2022 15:05,Pay Bill from 0704562877 - RYAN WILBERT KOJWANG Acc. V35,Completed,17500,,17500,TRUE,Pay Utility with OD via STK,0704562877 - RYAN WILBERT KOJWANG,,V35
QEA3R4R70N,10/05/2022 12:29,10/05/2022 12:29,Utility Account to Organization Settlement Account,Completed,,-20200,0,TRUE,Utility Account to Organization Settlement Account,887674 - ANCIENT WELLS LTD 1,,
QEA5QS6AE1,10/05/2022 09:12,10/05/2022 09:12,Pay Bill Online from 254718359438 - AHMAD TAHIR MACHENGO Acc. V11,Completed,6600,,20200,TRUE,Pay Bill Online,254718359438 - AHMAD TAHIR MACHENGO,,V11
QEA8QOQM8C,10/05/2022 08:12,10/05/2022 08:12,Pay Bill from 254720056285 - DAMARIS NDURU Acc. V18,Completed,6600,,13600,TRUE,Pay Utility,254720056285 - DAMARIS NDURU,,V18
QE96PO1YFC,09/05/2022 16:45,09/05/2022 16:45,Pay Bill from 254712660519 - KELVIN MUTUNGA KATONYI Acc. V49,Completed,7000,,7000,TRUE,Pay Utility,254712660519 - KELVIN MUTUNGA KATONYI,,V49
QE95PFXBBZ,09/05/2022 14:51,09/05/2022 14:51,Utility Account to Organization Settlement Account,Completed,,-2500,0,TRUE,Utility Account to Organization Settlement Account,887674 - ANCIENT WELLS LTD 1,,
QE81O7EJQV,08/05/2022 19:48,08/05/2022 19:48,Pay Bill from 254701174081 - JOSEPHINE ODUOR Acc. v34 ,Completed,2500,,2500,TRUE,Pay Utility,254701174081 - JOSEPHINE ODUOR,,v34
QE80NKH51Y,08/05/2022 15:15,08/05/2022 15:15,Utility Account to Organization Settlement Account,Completed,,-30700,0,TRUE,Utility Account to Organization Settlement Account,887674 - ANCIENT WELLS LTD 1,,
QE82NJH9QS,08/05/2022 15:01,08/05/2022 15:01,Pay Bill from 254700218502 - GRACE NGURE Acc. v46,Completed,6600,,30700,TRUE,Pay Utility,254700218502 - GRACE NGURE,,v46
QE85NJ579H,08/05/2022 14:56,08/05/2022 14:56,Pay Bill from 0705911928 - THADDAEUS   MWANGANGI Acc. V 58,Completed,7000,,24100,TRUE,Pay Utility,0705911928 - THADDAEUS   MWANGANGI,,V
QE84N3KYWW,08/05/2022 10:47,08/05/2022 10:47,Pay Bill Online from 254704995854 - james karanja wairimu Acc. V54,Completed,6600,,17100,TRUE,Pay Bill Online,254704995854 - james karanja wairimu,,V54
QE83MTK949,08/05/2022 07:26,08/05/2022 07:26,Pay Bill from 0758457508 - PETER KINGORI KAGUNDA Acc. V06,Completed,7000,,10500,TRUE,Pay Utility,0758457508 - PETER KINGORI KAGUNDA,,V06
QE79MMHO0J,07/05/2022 22:09,07/05/2022 22:09,"Pay Bill from 0702360376 - Bonface aganga nyamongo Acc. vk4
",Completed,3500,,3500,TRUE,Pay Utility,0702360376 - Bonface aganga nyamongo,,"vk4
"
QE75KTVFF5,07/05/2022 08:16,07/05/2022 08:16,Utility Account to Organization Settlement Account,Completed,,-32600,0,TRUE,Utility Account to Organization Settlement Account,887674 - ANCIENT WELLS LTD 1,,
QE78KSW896,07/05/2022 07:56,07/05/2022 07:56,Pay Bill Online from 254710693464 - BENARD OLANDO OKUMU Acc. V59,Completed,7000,,32600,TRUE,Pay Bill Online,254710693464 - BENARD OLANDO OKUMU,,V59
QE68KK1EO4,06/05/2022 21:54,06/05/2022 21:54,Pay Bill from 254726465584 - JULIANA MUKELI MUTUNGA Acc. v4,Completed,6600,,25600,TRUE,Pay Utility,254726465584 - JULIANA MUKELI MUTUNGA,,v4
QE60KFQXQK,06/05/2022 20:49,06/05/2022 20:49,Pay Bill Online from 0792514260 - Wilkister Irako Harambee Acc. 37847739,Completed,5000,,19000,TRUE,Pay Bill Online,0792514260 - Wilkister Irako Harambee,,37847739
QE69JDLB91,06/05/2022 13:32,06/05/2022 13:32,Pay Bill from 254706920646 - MIRIAM CHEPTOO Acc. V08,Completed,7000,,14000,TRUE,Pay Utility with OD via STK,254706920646 - MIRIAM CHEPTOO,,V08
QE61J711J9,06/05/2022 11:59,06/05/2022 11:59,Pay Bill from 0769858701 - DOLLARS DANIEL CIRHUZA Acc. V09,Completed,7000,,7000,TRUE,Pay Utility,0769858701 - DOLLARS DANIEL CIRHUZA,,V09
QE65J2P5HR,06/05/2022 10:55,06/05/2022 10:55,Utility Account to Organization Settlement Account,Completed,,-27200,0,TRUE,Utility Account to Organization Settlement Account,887674 - ANCIENT WELLS LTD 1,,
QE62J1U0RA,06/05/2022 10:42,06/05/2022 10:42,Pay Bill from 254703108159 - JOICE OGOLLA Acc. V50,Completed,6600,,27200,TRUE,Pay Utility,254703108159 - JOICE OGOLLA,,V50
QE63IXTR6P,06/05/2022 09:42,06/05/2022 09:42,Pay Bill from 254704551142 - KEVIN MORGAN MUTWIRI Acc. V25,Completed,7000,,20600,TRUE,Pay Utility,254704551142 - KEVIN MORGAN MUTWIRI,,V25
QE57HWEIXX,05/05/2022 17:49,05/05/2022 17:49,Pay Bill Online from 254700043446 - JUSTICE MUHOLO AKHAHENDA Acc. v39,Completed,7000,,13600,TRUE,Pay Bill Online,254700043446 - JUSTICE MUHOLO AKHAHENDA,,v39
QE58HS0YZE,05/05/2022 16:57,05/05/2022 16:57,Pay Bill from 254723815832 - SEMEKIA ONDIALA Acc. V38,Completed,6600,,6600,TRUE,Pay Utility,254723815832 - SEMEKIA ONDIALA,,V38
QE56HNL9A6,05/05/2022 15:59,05/05/2022 15:59,Utility Account to Organization Settlement Account,Completed,,-64900,0,TRUE,Utility Account to Organization Settlement Account,887674 - ANCIENT WELLS LTD 1,,
QE49GLE9A9,04/05/2022 22:49,04/05/2022 22:49,Pay Bill from 254718818610 - HANNAH NALIAKA Acc. V23,Completed,6600,,64900,TRUE,Pay Utility,254718818610 - HANNAH NALIAKA,,V23
QE41GED3SR,04/05/2022 20:36,04/05/2022 20:36,Pay Bill from 254722578070 - SAMUEL MACHARIA Acc. V42,Completed,7000,,58300,TRUE,Pay Utility,254722578070 - SAMUEL MACHARIA,,V42
QE47GD7ZLF,04/05/2022 20:22,04/05/2022 20:22,Pay Bill from 254719658678 - KELVIN SOMBA MAUNDU Acc. vk6,Completed,3500,,51300,TRUE,Pay Utility,254719658678 - KELVIN SOMBA MAUNDU,,vk6
QE44GBIS2Y,04/05/2022 20:04,04/05/2022 20:04,Pay Bill from 0717042461 - Sharon Nyangasi Shivachi Acc. V55 ,Completed,6600,,47800,TRUE,Pay Utility,0717042461 - Sharon Nyangasi Shivachi,,V55
QE45G4OAP1,04/05/2022 18:59,04/05/2022 18:59,Pay Bill Online from 254710693464 - BENARD OLANDO OKUMU Acc. V59,Completed,7000,,41200,TRUE,Pay Utility with OD Online,254710693464 - BENARD OLANDO OKUMU,,V59
QE41FXLLKV,04/05/2022 17:48,04/05/2022 17:48,Pay Bill from 254723389922 - ANNE WANJIKU NDUNGU Acc. v53,Completed,6600,,34200,TRUE,Pay Utility,254723389922 - ANNE WANJIKU NDUNGU,,v53
QE49FWF2ZP,04/05/2022 17:34,04/05/2022 17:34,Pay Bill from 254717294709 - CAROLINE WAVINYA NDINDA Acc. v15,Completed,7000,,27600,TRUE,Pay Utility,254717294709 - CAROLINE WAVINYA NDINDA,,v15
QE47FUVFGP,04/05/2022 17:16,04/05/2022 17:16,Pay Bill from 0795807227 - Lucy Ncekei Kimathi Acc. V36 ,Completed,6600,,20600,TRUE,Pay Utility,0795807227 - Lucy Ncekei Kimathi,,V36
QE43F8PPV9,04/05/2022 12:08,04/05/2022 12:08,Pay Bill Online from 254706354035 - MOSES MUOKA Acc. V03,Completed,7000,,14000,TRUE,Pay Bill Online,254706354035 - MOSES MUOKA,,V03
QE49F8H36F,04/05/2022 12:05,04/05/2022 12:05,Pay Bill from 254700904994 - HUSSEIN HASSAN LAMA Acc. V43,Completed,7000,,7000,TRUE,Pay Utility,254700904994 - HUSSEIN HASSAN LAMA,,V43
QE45F0I4RL,04/05/2022 10:04,04/05/2022 10:04,Utility Account to Organization Settlement Account,Completed,,-6600,0,TRUE,Utility Account to Organization Settlement Account,887674 - ANCIENT WELLS LTD 1,,
QE41ETKMJR,04/05/2022 08:06,04/05/2022 08:06,Pay Bill from 254712091662 - BENARD OMONDI ROBY Acc. V16,Completed,6600,,6600,TRUE,Pay Utility,254712091662 - BENARD OMONDI ROBY,,V16
QE36D502XI,03/05/2022 10:03,03/05/2022 10:03,Utility Account to Organization Settlement Account,Completed,,-41700,0,TRUE,Utility Account to Organization Settlement Account,887674 - ANCIENT WELLS LTD 1,,
QE27BGYK7T,02/05/2022 11:45,02/05/2022 11:45,Pay Bill from 254727729395 - ROBERT OUKO OSORO Acc. V29,Completed,6600,,41700,TRUE,Pay Utility,254727729395 - ROBERT OUKO OSORO,,V29
QE18AGPGLK,01/05/2022 18:33,01/05/2022 18:33,Pay Bill from 254701174081 - JOSEPHINE ODUOR Acc. v34,Completed,3500,,35100,TRUE,Pay Utility,254701174081 - JOSEPHINE ODUOR,,v34
