Receipt No.,Completion Time,Initiation Time,Details,Transaction Status,Paid In,Withdrawn,Balance,Balance Confirmed,Reason Type,Other Party Info,Linked Transaction ID,A/C No.
OCQ01OEV2S,26/03/2020 10:45,26/03/2020 10:45,Pay Bill Online from 254722398338 - LUCY GACHARA Acc. HAE,Completed,10500,,26500,TRUE,Pay Bill Online,254722398338 - LUCY GACHARA,,HAE
OCQ81NXQSC,26/03/2020 10:29,26/03/2020 10:29,Pay Bill from 254729279767 - ZAKAYO KIMUTAI A NGENO Acc. DFA,Completed,16000,,16000,TRUE,Pay Utility,254729279767 - ZAKAYO KIMUTAI A NGENO,,DFA
OCQ91NECPJ,26/03/2020 10:10,26/03/2020 10:10,Utility Account to Organization Settlement Account,Completed,,-25000,0,TRUE,Utility Account to Organization Settlement Account,979524 - ANCIENT WELLS PROPERTY MANAGERS 2,,
OCP41GCAZK,25/03/2020 21:14,25/03/2020 21:14,Pay Bill Online from 254720787158 - AMOS CHELANG'A Acc. KFK,Completed,16000,,25000,TRUE,Pay Bill Online,254720787158 - AMOS CHELANG'A,,KFK
OCP519TRI1,25/03/2020 18:34,25/03/2020 18:34,Pay Bill from 254705902606 - JOSEPH OTIENO SAGWA Acc. HGD,Completed,9000,,9000,TRUE,Pay Utility,254705902606 - JOSEPH OTIENO SAGWA,,HGD
OCP9ZWQCCR,25/03/2020 11:49,25/03/2020 11:49,Utility Account to Organization Settlement Account,Completed,,-97800,0,TRUE,Utility Account to Organization Settlement Account,979524 - ANCIENT WELLS PROPERTY MANAGERS 2,,
OCP4ZRMSFM,25/03/2020 08:38,25/03/2020 08:38,Pay Bill Online from 254715892656 - DENNIS MUSYOKA MUOKI Acc. kfa,Completed,16000,,97800,TRUE,Pay Bill Online,254715892656 - DENNIS MUSYOKA MUOKI,,kfa
OCO7ZKUOPN,24/03/2020 20:02,24/03/2020 20:02,Pay Bill from 254713662892 - DAVID JUMA KIPTOCH Acc. JBE,Completed,8500,,81800,TRUE,Pay Utility,254713662892 - DAVID JUMA KIPTOCH,,JBE
OCO9ZIOZFH,24/03/2020 19:11,24/03/2020 19:11,Pay Bill from 254719488576 - GEORGE ONYANGO Acc. DAA,Completed,38300,,73300,TRUE,Pay Utility,254719488576 - GEORGE ONYANGO,,DAA
OCO1ZBOUX3,24/03/2020 15:57,24/03/2020 15:57,Pay Bill from 254727515326 - HARRISON WACIRA MAINA Acc. fed,Completed,25000,,35000,TRUE,Pay Utility,254727515326 - HARRISON WACIRA MAINA,,fed
OCN7YT25JX,23/03/2020 19:55,23/03/2020 19:55,Pay Bill from 0792933158 - mary wamaitha maina Acc. kdh,Completed,10000,,10000,TRUE,Pay Utility,0792933158 - mary wamaitha maina,,kdh
OCN2YH1X34,23/03/2020 14:06,23/03/2020 14:06,Utility Account to Organization Settlement Account,Completed,,-59000,0,TRUE,Utility Account to Organization Settlement Account,979524 - ANCIENT WELLS PROPERTY MANAGERS 2,,
OCN0YCE0FK,23/03/2020 11:23,23/03/2020 11:23,Pay Bill from 254723499628 - CLINTON JOSEPH MUHARI Acc. hfh,Completed,17000,,59000,TRUE,Pay Utility,254723499628 - CLINTON JOSEPH MUHARI,,hfh
OCN0YBGEZA,23/03/2020 10:49,23/03/2020 10:49,Pay Bill from 254703247825 - GERALD OMUMBO Acc. KCB,Completed,22000,,42000,TRUE,Pay Utility,254703247825 - GERALD OMUMBO,,KCB
OCM3XKBO2D,22/03/2020 09:36,22/03/2020 09:36,Pay Bill from 254795418073 - WINNIE OWILLI BEVERLY Acc. HAC,Completed,10000,,20000,TRUE,Pay Utility,254795418073 - WINNIE OWILLI BEVERLY,,HAC
OCL4XCIGB4,21/03/2020 20:12,21/03/2020 20:12,Pay Bill from 254720361605 - DAUD AMBER Acc. IGH,Completed,10000,,10000,TRUE,Pay Utility,254720361605 - DAUD AMBER,,IGH
OCL9X170TT,21/03/2020 15:04,21/03/2020 15:04,Utility Account to Organization Settlement Account,Completed,,-46240,0,TRUE,Utility Account to Organization Settlement Account,979524 - ANCIENT WELLS PROPERTY MANAGERS 2,,
OCL3WX571P,21/03/2020 12:42,21/03/2020 12:42,Pay Bill from 254722824718 - LILIAN MACKENZIE Acc. HCF,Completed,9500,,46240,TRUE,Pay Utility,254722824718 - LILIAN MACKENZIE,,HCF
OCL5WUBRFF,21/03/2020 11:03,21/03/2020 11:03,Pay Bill from 254725475321 - ANTONY MWANGI Acc. IEH,Completed,17000,,36740,TRUE,Pay Utility,254725475321 - ANTONY MWANGI,,IEH
OCK5WH23VF,20/03/2020 19:22,20/03/2020 19:22,Pay Bill Online from 254790806930 - DANIEL WANJALA Acc. IGD,Completed,5000,,19740,TRUE,Pay Bill Online,254790806930 - DANIEL WANJALA,,IGD
OCK9VXNXLN,20/03/2020 09:19,20/03/2020 09:19,Pay Bill from 254720041583 - KIPROTICH YEGON Acc. HBD,Completed,14740,,14740,TRUE,Pay Utility,254720041583 - KIPROTICH YEGON,,HBD
