Receipt No.,Completion Time,Initiation Time,Details,Transaction Status,Paid In,Withdrawn,Balance,Balance Confirmed,Reason Type,Other Party Info,Linked Transaction ID,A/C No.
RCV21GRSJ6,31/03/2023 09:11,31/03/2023 09:11,Utility Account to Organization Settlement Account,Completed,,-117500,0,TRUE,Utility Account to Organization Settlement Account,979524 - ANCIENT WELLS PROPERTY MANAGERS 2,,
RCV91BTK7L,31/03/2023 08:10,31/03/2023 08:10,Pay Bill from 254725062550 - FRANKLINE MASSAM Acc. kAF,Completed,10000,,117500,TRUE,Pay Utility,254725062550 - FRANKLINE MASSAM,,kAF
RCU7Z5HHH1,30/03/2023 17:57,30/03/2023 17:57,Pay Bill from 254113678329 - LESLIE NAINI KOIKAI Acc. IBD ,Completed,11000,,107500,TRUE,Pay Utility,254113678329 - LESLIE NAINI KOIKAI,,IBD
RCU6YT2MKY,30/03/2023 15:52,30/03/2023 15:52,Pay Bill from 0748059595 - Rashid NASSIR Khamis Acc. DDA,Completed,5000,,96500,TRUE,Pay Utility with OD via STK,0748059595 - Rashid NASSIR Khamis,,DDA
RCU5Y9JO6X,30/03/2023 12:09,30/03/2023 12:09,Pay Bill Online from 254722910078 - MAUREEN MUNYIVA MUTUKU Acc. DCD,Completed,2500,,91500,TRUE,Pay Bill Online,254722910078 - MAUREEN MUNYIVA MUTUKU,,DCD
RCT9WO36TF,29/03/2023 18:43,29/03/2023 18:43,Pay Bill Online from 254798639242 - Christian Kiragu Acc. FGE,Completed,5000,,89000,TRUE,Pay Bill Online,254798639242 - Christian Kiragu,,FGE
RCT7VX2E0H,29/03/2023 14:22,29/03/2023 14:22,Pay Bill from 254723341864 - WILLIAM OSIEL WACHUDI Acc. DED,Completed,20000,,84000,TRUE,Pay Utility,254723341864 - WILLIAM OSIEL WACHUDI,,DED
RCT3VOYOYL,29/03/2023 12:55,29/03/2023 12:55,FSI to Pay Bill by 3033815 - NCBA LOOP B2C Acc. DCC via WEB by NCBA LOOP B2C\TRINITYAPI,Completed,19000,,64000,TRUE,FSI to Pay Bill via API,3033815 - NCBA LOOP B2C,,DCC
RCT4VI9EFM,29/03/2023 11:39,29/03/2023 11:39,Pay Bill Online from 254724587401 - RAPHAEL IRUNGU WAIHURA Acc. KGG,Completed,10000,,45000,TRUE,Pay Bill Online,254724587401 - RAPHAEL IRUNGU WAIHURA,,KGG
RCT1VBEXRP,29/03/2023 10:22,29/03/2023 10:22,Pay Bill from 254728888511 - HAMISI MIRITI Acc. KAK,Completed,16000,,35000,TRUE,Pay Utility,254728888511 - HAMISI MIRITI,,KAK
RCT0V9CMAG,29/03/2023 09:59,29/03/2023 09:58,Pay Bill Online from 0722950695 - Joshua Mbithi Kivondo Acc.  ,Completed,19000,,19000,TRUE,Pay Bill Online,0722950695 - Joshua Mbithi Kivondo,,
RCT6V53TIA,29/03/2023 09:07,29/03/2023 09:07,Utility Account to Organization Settlement Account,Completed,,-322000,0,TRUE,Utility Account to Organization Settlement Account,979524 - ANCIENT WELLS PROPERTY MANAGERS 2,,
RCS2UEUMGK,28/03/2023 20:25,28/03/2023 20:25,Pay Bill Online from 254729097858 - AMBROSE ADEYA AHAWO Acc. KCF,Completed,10000,,322000,TRUE,Pay Bill Online,254729097858 - AMBROSE ADEYA AHAWO,,KCF
RCS1TT083R,28/03/2023 17:48,28/03/2023 17:48,Pay Bill Online from 254700379039 - MARTIN KIMANI Acc. KCI,Completed,12000,,312000,TRUE,Pay Bill Online,254700379039 - MARTIN KIMANI,,KCI
RCS4TPA0FU,28/03/2023 17:16,28/03/2023 17:16,Pay Bill Online from 254799696271 - CALVIN OCHIDO Acc. FEB,Completed,15000,,300000,TRUE,Pay Bill Online,254799696271 - CALVIN OCHIDO,,FEB
RCS9T1994R,28/03/2023 13:03,28/03/2023 13:03,Pay Bill from 0721130307 - HILLARY NGUNYI MUTINDA Acc. JCH,Completed,16000,,285000,TRUE,Pay Utility,0721130307 - HILLARY NGUNYI MUTINDA,,JCH
RCS7SUDIGR,28/03/2023 11:49,28/03/2023 11:49,Pay Bill from 0745472241 - Tonny Nyachieo Onsinyo Acc. Idc,Completed,9500,,269000,TRUE,Pay Utility,0745472241 - Tonny Nyachieo Onsinyo,,Idc
RCR2RYJKRA,27/03/2023 21:47,27/03/2023 21:47,Pay Bill Online from 254705951407 - CAROLINE WAITHIRA KAMAU Acc. IDH,Completed,15000,,259500,TRUE,Pay Bill Online,254705951407 - CAROLINE WAITHIRA KAMAU,,IDH
RCR4RUOPFI,27/03/2023 21:00,27/03/2023 21:00,Pay Bill from 254703935626 - DAVID NGARI ITA Acc. FCD,Completed,1000,,244500,TRUE,Pay Utility with OD via STK,254703935626 - DAVID NGARI ITA,,FCD
RCR8RT0PB6,27/03/2023 20:44,27/03/2023 20:44,Pay Bill from 0722531422 - ANTHONY ITIMU MAINA Acc. JBD,Completed,5000,,243500,TRUE,Pay Utility,0722531422 - ANTHONY ITIMU MAINA,,JBD
RCR7RMD5YV,27/03/2023 19:51,27/03/2023 19:51,Pay Bill Online from 254720107609 - DENNIS OGENDI BARAKE Acc. JAJ,Completed,2000,,238500,TRUE,Pay Bill Online,254720107609 - DENNIS OGENDI BARAKE,,JAJ
RCR5RFP93L,27/03/2023 19:06,27/03/2023 19:06,Pay Bill from 254726599835 - LAWRENCE MURIITHI Acc. kdj,Completed,16000,,236500,TRUE,Pay Utility with OD via STK,254726599835 - LAWRENCE MURIITHI,,kdj
RCR2RDYC7E,27/03/2023 18:54,27/03/2023 18:54,Pay Bill from 0768906522 - Jael Akinyi Kunga Acc. HEF,Completed,9000,,220500,TRUE,Pay Utility,0768906522 - Jael Akinyi Kunga,,HEF
RCR1R99WG3,27/03/2023 18:19,27/03/2023 18:19,Pay Bill Online from 254717463608 - DANIEL MUNIU MUGURE Acc. HGE,Completed,10000,,211500,TRUE,Pay Bill Online,254717463608 - DANIEL MUNIU MUGURE,,HGE
RCR5QSOXEP,27/03/2023 15:36,27/03/2023 15:36,Pay Bill from 254720931007 - BRENDA NASIMIYU NYONGESA Acc. KAB,Completed,16000,,201500,TRUE,Pay Utility,254720931007 - BRENDA NASIMIYU NYONGESA,,KAB
RCR6QMZKVC,27/03/2023 14:29,27/03/2023 14:29,Pay Bill Online from 254722917617 - MOSES BARBOI Acc. KAI,Completed,12000,,185500,TRUE,Pay Bill Online,254722917617 - MOSES BARBOI,,KAI
RCR4QLVJK2,27/03/2023 14:16,27/03/2023 14:16,Pay Bill from 0714842476 - Rebecca  jerop kemei Acc. KDI,Completed,1000,,173500,TRUE,Pay Utility,0714842476 - Rebecca  jerop kemei,,KDI
RCR3QLS1HF,27/03/2023 14:15,27/03/2023 14:15,Pay Bill from 0714842476 - Rebecca  jerop kemei Acc. KDI,Completed,22000,,172500,TRUE,Pay Utility,0714842476 - Rebecca  jerop kemei,,KDI
RCR7QHGMQ5,27/03/2023 13:27,27/03/2023 13:27,Pay Bill from 0758621214 - PETER KYALO KIIO Acc. DBD,Completed,40000,,150500,TRUE,Pay Utility,0758621214 - PETER KYALO KIIO,,DBD
RCR1Q7TRYD,27/03/2023 11:34,27/03/2023 11:34,Pay Bill from 254701112397 - ELEMA GODANA DIBA Acc. FCA,Completed,5000,,110500,TRUE,Pay Utility,254701112397 - ELEMA GODANA DIBA,,FCA
RCQ8PHC98W,26/03/2023 22:34,26/03/2023 22:34,Pay Bill from 0743789968 - Dallias Thanare Githara Acc. hbb,Completed,4000,,105500,TRUE,Pay Utility,0743789968 - Dallias Thanare Githara,,hbb
RCQ3OM7RSZ,26/03/2023 17:24,26/03/2023 17:24,Pay Bill from 254706613908 - joseph mbugua karumbi Acc. V45,Completed,7000,,101500,TRUE,Pay Utility,254706613908 - joseph mbugua karumbi,,V45
RCQ5OI250L,26/03/2023 16:42,26/03/2023 16:42,Pay Bill from 254711507729 - DAVID ANYONGE MALIJAMBO Acc. HFA,Completed,33000,,94500,TRUE,Pay Utility,254711507729 - DAVID ANYONGE MALIJAMBO,,HFA
RCQ3NWVAQB,26/03/2023 12:39,26/03/2023 12:39,Pay Bill from 254729557859 - AUDREY KASINDAHA KASINDAHA Acc. KFB,Completed,16000,,61500,TRUE,Pay Utility,254729557859 - AUDREY KASINDAHA KASINDAHA,,KFB
RCQ1NFBWY1,26/03/2023 08:44,26/03/2023 08:44,Pay Bill from 0758591833 - DORCUS MBULA PETER Acc. HDD,Completed,500,,45500,TRUE,Pay Utility with OD via STK,0758591833 - DORCUS MBULA PETER,,HDD
RCP4MYUFHQ,25/03/2023 21:31,25/03/2023 21:31,Pay Bill from 254703935626 - DAVID NGARI ITA Acc. FCD,Completed,1000,,45000,TRUE,Pay Utility,254703935626 - DAVID NGARI ITA,,FCD
RCP2MDTNLE,25/03/2023 18:43,25/03/2023 18:43,Pay Bill Online from 254710146965 - BRENDA DORCAS MABONGA Acc. hfa,Completed,5000,,44000,TRUE,Pay Bill Online,254710146965 - BRENDA DORCAS MABONGA,,hfa
RCP0MCDMC4,25/03/2023 18:32,25/03/2023 18:32,Pay Bill Online from 254721417560 - ANDREW SANDE Acc. JBJ,Completed,16000,,39000,TRUE,Pay Bill Online,254721417560 - ANDREW SANDE,,JBJ
RCP9LW3BRZ,25/03/2023 16:08,25/03/2023 16:08,Pay Bill Online from 0758506934 - Edgar Maxwel Wanguba Acc. IDF,Completed,23000,,23000,TRUE,Pay Bill Online,0758506934 - Edgar Maxwel Wanguba,,IDF
RCP7LUG9SD,25/03/2023 15:51,25/03/2023 15:51,Utility Account to Organization Settlement Account,Completed,,-152000,0,TRUE,Utility Account to Organization Settlement Account,979524 - ANCIENT WELLS PROPERTY MANAGERS 2,,
RCP5L5KEGT,25/03/2023 11:24,25/03/2023 11:24,Pay Bill from 0758591833 - DORCUS MBULA PETER Acc. HDD,Completed,9000,,152000,TRUE,Pay Utility with OD via STK,0758591833 - DORCUS MBULA PETER,,HDD
RCP8KQKMJG,25/03/2023 08:18,25/03/2023 08:18,Pay Bill Online from 254722910078 - MAUREEN MUNYIVA MUTUKU Acc. DCD,Completed,8000,,143000,TRUE,Pay Bill Online,254722910078 - MAUREEN MUNYIVA MUTUKU,,DCD
RCP4KIIWGU,25/03/2023 00:00,25/03/2023 00:00,Pay Bill from 254797726484 - gideon marubua kiburu Acc. JBB,Completed,15000,,135000,TRUE,Pay Utility,254797726484 - gideon marubua kiburu,,JBB
RCO4KGRJEI,24/03/2023 22:56,24/03/2023 22:56,Pay Bill Online from 254728364280 - EMMANUEL THUMA OYIER Acc. IBI,Completed,16000,,120000,TRUE,Pay Bill Online,254728364280 - EMMANUEL THUMA OYIER,,IBI
RCO6KFNGP2,24/03/2023 22:31,24/03/2023 22:31,Pay Bill from 0748205997 - WHELDON MARK MASONGO Acc. JAD,Completed,15000,,104000,TRUE,Pay Utility,0748205997 - WHELDON MARK MASONGO,,JAD
RCO7KBRT6T,24/03/2023 21:32,24/03/2023 21:32,Pay Bill from 0717216114 - Felix Njeru Mugambi Acc. kcj,Completed,16000,,89000,TRUE,Pay Utility,0717216114 - Felix Njeru Mugambi,,kcj
RCO6K9M8KW,24/03/2023 21:08,24/03/2023 21:08,Pay Bill from 254724201046 - GIDEON NDOLO Acc. KFH,Completed,8000,,73000,TRUE,Pay Utility with OD via STK,254724201046 - GIDEON NDOLO,,KFH
RCO0JY5LRY,24/03/2023 19:34,24/03/2023 19:34,Pay Bill Online from 254710965167 - KUSA STEPHANIE HAZEL Acc. JDC,Completed,11000,,65000,TRUE,Pay Bill Online,254710965167 - KUSA STEPHANIE HAZEL,,JDC
RCO8JWST28,24/03/2023 19:25,24/03/2023 19:25,Pay Bill from 254720814822 - JAMES OTIENO OPAR Acc. jgj,Completed,1000,,54000,TRUE,Pay Utility,254720814822 - JAMES OTIENO OPAR,,jgj
RCO2JQ3TAA,24/03/2023 18:40,24/03/2023 18:40,Pay Bill from 254797001100 - CHRISTIAN KIMANI KIRAGU Acc. FGE,Completed,8000,,53000,TRUE,Pay Utility,254797001100 - CHRISTIAN KIMANI KIRAGU,,FGE
RCO2JNHRVK,24/03/2023 18:20,24/03/2023 18:20,Pay Bill Online from 254701683737 - MICHAEL NGUGI Acc. HDB,Completed,16000,,45000,TRUE,Pay Bill Online,254701683737 - MICHAEL NGUGI,,HDB
RCO4JN83Y2,24/03/2023 18:18,24/03/2023 18:18,Pay Bill Online from 254721884037 - ERIC MISIANI Acc. HCG,Completed,15000,,29000,TRUE,Pay Bill Online,254721884037 - ERIC MISIANI,,HCG
RCO3J51F99,24/03/2023 15:32,24/03/2023 15:32,Pay Bill from 0748059595 - Rashid NASSIR Khamis Acc. DDA,Completed,4000,,14000,TRUE,Pay Utility,0748059595 - Rashid NASSIR Khamis,,DDA
RCO9I4XJXR,24/03/2023 08:50,24/03/2023 08:50,Pay Bill from 0757259130 - RASHID SUDI MCHOMBO Acc. JAF,Completed,10000,,10000,TRUE,Pay Utility,0757259130 - RASHID SUDI MCHOMBO,,JAF
RCO7HYJ6H9,24/03/2023 07:16,24/03/2023 07:16,Utility Account to Organization Settlement Account,Completed,,-121000,0,TRUE,Utility Account to Organization Settlement Account,979524 - ANCIENT WELLS PROPERTY MANAGERS 2,,
RCO1HW0MH3,24/03/2023 06:01,24/03/2023 06:01,Pay Bill from 0743789968 - Dallias Thanare Githara Acc. hbb,Completed,4000,,121000,TRUE,Pay Utility,0743789968 - Dallias Thanare Githara,,hbb
RCN3HKY101,23/03/2023 21:00,23/03/2023 21:00,Business Pay Bill by 488519 - NCBA  Bank M-pesa Acc. ICC via API,Completed,18000,,117000,TRUE,Business Pay Bill via API,488519 - NCBA  Bank M-pesa,,ICC
RCN4H2YKWO,23/03/2023 18:40,23/03/2023 18:40,Pay Bill from 254796848496 - IVY WITABA Acc. JBA,Completed,8000,,99000,TRUE,Pay Utility,254796848496 - IVY WITABA,,JBA
RCN0GTZJBA,23/03/2023 17:26,23/03/2023 17:26,Pay Bill from 254721780448 - EVERLYNE MIDEVA CHOGO Acc. JCA ,Completed,30000,,91000,TRUE,Pay Utility,254721780448 - EVERLYNE MIDEVA CHOGO,,JCA
RCN8GIKJ96,23/03/2023 15:30,23/03/2023 15:30,Pay Bill Online from 254705951407 - CAROLINE WAITHIRA KAMAU Acc. IDH,Completed,10000,,61000,TRUE,Pay Bill Online,254705951407 - CAROLINE WAITHIRA KAMAU,,IDH
RCN2G4FLVK,23/03/2023 12:54,23/03/2023 12:54,Pay Bill Online from 254728681775 - Faith Abigael Acc. JAC,Completed,22000,,51000,TRUE,Pay Bill Online,254728681775 - Faith Abigael,,JAC
RCN4FP81HI,23/03/2023 10:01,23/03/2023 10:01,Pay Bill Online from 254725452946 - GODFREY THIANE KIBAYA Acc. HEE,Completed,15000,,29000,TRUE,Pay Bill Online,254725452946 - GODFREY THIANE KIBAYA,,HEE
RCN5FGZ7HF,23/03/2023 08:18,23/03/2023 08:18,Pay Bill from 254722444622 - CHARITY KAGWAINI Acc. ffd,Completed,6000,,14000,TRUE,Pay Utility,254722444622 - CHARITY KAGWAINI,,ffd
RCN5FGT31B,23/03/2023 08:16,23/03/2023 08:16,Pay Bill from 0796929370 - HALIMA BOYA GALMA Acc. DBC,Completed,8000,,8000,TRUE,Pay Utility,0796929370 - HALIMA BOYA GALMA,,DBC
RCN6FFVVVS,23/03/2023 08:03,23/03/2023 08:03,Utility Account to Organization Settlement Account,Completed,,-50100,0,TRUE,Utility Account to Organization Settlement Account,979524 - ANCIENT WELLS PROPERTY MANAGERS 2,,
RCM2EOQ5VW,22/03/2023 19:39,22/03/2023 19:39,Pay Bill from 0792933158 - mary wamaitha maina Acc. DGD,Completed,10000,,50100,TRUE,Pay Utility,0792933158 - mary wamaitha maina,,DGD
RCM9E6SWUT,22/03/2023 17:26,22/03/2023 17:26,Pay Bill from 0740488793 - Twince   Korir Acc. DGC,Completed,19000,,40100,TRUE,Pay Utility,0740488793 - Twince   Korir,,DGC
RCM3E3Z957,22/03/2023 16:59,22/03/2023 16:59,Pay Bill from 254720931007 - BRENDA NASIMIYU NYONGESA Acc. KAB,Completed,3600,,21100,TRUE,Pay Utility,254720931007 - BRENDA NASIMIYU NYONGESA,,KAB
RCM3E1NLKJ,22/03/2023 16:37,22/03/2023 16:37,Pay Bill from 254720814822 - JAMES OTIENO OPAR Acc. jgj,Completed,2500,,17500,TRUE,Pay Utility,254720814822 - JAMES OTIENO OPAR,,jgj
RCM0DMVXR4,22/03/2023 13:54,22/03/2023 13:54,Pay Bill from 0720015317 - mohamed maalim hassan Acc. ffa,Completed,15000,,15000,TRUE,Pay Utility,0720015317 - mohamed maalim hassan,,ffa
RCM7DHTD9L,22/03/2023 12:59,22/03/2023 12:59,Utility Account to Organization Settlement Account,Completed,,-124400,0,TRUE,Utility Account to Organization Settlement Account,979524 - ANCIENT WELLS PROPERTY MANAGERS 2,,
RCM1DCUM8V,22/03/2023 12:02,22/03/2023 12:02,Pay Bill from 254722458136 - NADI GOLICHA Acc. JEA,Completed,5000,,124400,TRUE,Pay Utility,254722458136 - NADI GOLICHA,,JEA
RCM4DCJORO,22/03/2023 11:59,22/03/2023 11:59,Pay Bill Online from 254722910078 - MAUREEN MUNYIVA MUTUKU Acc. DCD,Completed,5000,,119400,TRUE,Pay Bill Online,254722910078 - MAUREEN MUNYIVA MUTUKU,,DCD
RCM3D5SORL,22/03/2023 10:42,22/03/2023 10:42,Pay Bill Online from 254711721087 - MUTHIANI KYULE Acc. IDB ,Completed,15000,,114400,TRUE,Pay Bill Online,254711721087 - MUTHIANI KYULE,,IDB
RCM3CLXLQP,22/03/2023 00:27,22/03/2023 00:27,Pay Bill from 254720814822 - JAMES OTIENO OPAR Acc. jgj,Completed,3000,,99400,TRUE,Pay Utility,254720814822 - JAMES OTIENO OPAR,,jgj
RCL7CL6AFD,21/03/2023 23:37,21/03/2023 23:37,Pay Bill from 254725539787 - EVERLYNE MOGAKA Acc. KEF,Completed,10000,,96400,TRUE,Pay Utility,254725539787 - EVERLYNE MOGAKA,,KEF
RCL6CB1MU0,21/03/2023 20:43,21/03/2023 20:43,Pay Bill from 0757758972 - BETH MUTHONI KASYOKA Acc. DEA,Completed,12000,,86400,TRUE,Pay Utility,0757758972 - BETH MUTHONI KASYOKA,,DEA
RCL6BB2SOK,21/03/2023 15:45,21/03/2023 15:45,Pay Bill from 254722514052 - JOSEPH NDIRANGU Acc. JCF,Completed,10000,,74400,TRUE,Pay Utility,254722514052 - JOSEPH NDIRANGU,,JCF
RCL5AXQZDX,21/03/2023 13:23,21/03/2023 13:23,Pay Bill Online from 254723901777 - EVANS YEBEI Acc. KCH,Completed,5000,,64400,TRUE,Pay Utility with OD Online,254723901777 - EVANS YEBEI,,KCH
RCL8ARN4YA,21/03/2023 12:18,21/03/2023 12:18,Pay Bill from 254718245568 - NADI GOLICHA Acc. JEA,Completed,5000,,59400,TRUE,Pay Utility,254718245568 - NADI GOLICHA,,JEA
RCL5AODYA9,21/03/2023 11:42,21/03/2023 11:42,Pay Bill Online from 254722258107 - JOHN ODIMA ODIMA Acc. KGF,Completed,10000,,54400,TRUE,Pay Bill Online,254722258107 - JOHN ODIMA ODIMA,,KGF
RCL4AJVC3O,21/03/2023 10:54,21/03/2023 10:54,Pay Bill Online from 254728897908 - Teddy Allan Onyango Acc. DDD,Completed,15900,,44400,TRUE,Pay Bill Online,254728897908 - Teddy Allan Onyango,,DDD
RCL2AGOXJ0,21/03/2023 10:20,21/03/2023 10:20,Pay Bill Online from 254716579300 - BRIAN KIPKOECH RONO Acc. HEH,Completed,16000,,28500,TRUE,Pay Bill Online,254716579300 - BRIAN KIPKOECH RONO,,HEH
RCL2AE85PU,21/03/2023 09:52,21/03/2023 09:52,Pay Bill from 254720868281 - KENNEDY MWELU Acc. KBI,Completed,12500,,12500,TRUE,Pay Utility with OD via STK,254720868281 - KENNEDY MWELU,,KBI
RCL4ACSOJ6,21/03/2023 09:36,21/03/2023 09:36,Utility Account to Organization Settlement Account,Completed,,-544100,0,TRUE,Utility Account to Organization Settlement Account,979524 - ANCIENT WELLS PROPERTY MANAGERS 2,,
RCL8AC6P96,21/03/2023 09:30,21/03/2023 09:30,Pay Bill from 0705687898 - JORDAN KIPNGETICH THOMAS KIKWAI Acc. kff,Completed,1000,,544100,TRUE,Pay Utility,0705687898 - JORDAN KIPNGETICH THOMAS KIKWAI,,kff
RCL49ZX318,21/03/2023 05:47,21/03/2023 05:47,FSI to Pay Bill by 972701 - Credit Bank Limited B2C Acc. KEH via WEB by Credit Bank Limited B2C\CREDIT BANK SAF DI,Completed,10500,,543100,TRUE,FSI to Pay Bill via API,972701 - Credit Bank Limited B2C,,KEH
RCK098TTT6,20/03/2023 18:41,20/03/2023 18:41,Pay Bill from 0745318652 - Hesbon Otieno Onyango Acc. JDF,Completed,8000,,532600,TRUE,Pay Utility,0745318652 - Hesbon Otieno Onyango,,JDF
RCK58NB46D,20/03/2023 15:09,20/03/2023 15:09,Pay Bill from 0748508142 - Samuel Onyango Ouma Acc. ifg,Completed,13000,,524600,TRUE,Pay Utility,0748508142 - Samuel Onyango Ouma,,ifg
RCK0874AA6,20/03/2023 12:07,20/03/2023 12:07,Pay Bill Online from 254715764212 - BANCE ISHEMINYE Acc. JFE,Completed,1000,,511600,TRUE,Pay Bill Online,254715764212 - BANCE ISHEMINYE,,JFE
RCK07ZTE3W,20/03/2023 10:44,20/03/2023 10:44,Pay Bill from 254720814822 - JAMES OTIENO OPAR Acc. jgj,Completed,1500,,510600,TRUE,Pay Utility,254720814822 - JAMES OTIENO OPAR,,jgj
RCK27Y75EA,20/03/2023 10:26,20/03/2023 10:26,Pay Bill from 0743789968 - Dallias Thanare Githara Acc. hbb,Completed,2000,,509100,TRUE,Pay Utility,0743789968 - Dallias Thanare Githara,,hbb
RCK37WTBYP,20/03/2023 10:10,20/03/2023 10:10,Pay Bill from 254711123196 - JUDITH MUTUA Acc. Fea,Completed,13000,,507100,TRUE,Pay Utility,254711123196 - JUDITH MUTUA,,Fea
RCK17JVC9X,20/03/2023 07:18,20/03/2023 07:18,Pay Bill from 0790631952 - Guyo Boru Guyo Acc. DBC,Completed,12000,,494100,TRUE,Pay Utility with OD via STK,0790631952 - Guyo Boru Guyo,,DBC
RCJ27ET6TW,19/03/2023 23:51,19/03/2023 23:51,Pay Bill Online from 254719317219 - PHILIP MBOYA Acc. JDH,Completed,16000,,482100,TRUE,Pay Bill Online,254719317219 - PHILIP MBOYA,,JDH
RCJ27BXQ9G,19/03/2023 22:23,19/03/2023 22:23,Pay Bill from 254720814822 - JAMES OTIENO OPAR Acc. jgj,Completed,2000,,466100,TRUE,Pay Utility,254720814822 - JAMES OTIENO OPAR,,jgj
RCJ16TATRP,19/03/2023 19:18,19/03/2023 19:18,Pay Bill from 0743789968 - Dallias Thanare Githara Acc. hbb,Completed,2000,,464100,TRUE,Pay Utility,0743789968 - Dallias Thanare Githara,,hbb
RCJ16OG0HX,19/03/2023 18:42,19/03/2023 18:42,Pay Bill from 254711123196 - JUDITH MUTUA Acc. Fea,Completed,20000,,462100,TRUE,Pay Utility,254711123196 - JUDITH MUTUA,,Fea
RCJ45VMTB6,19/03/2023 13:51,19/03/2023 13:51,Pay Bill from 254720814822 - JAMES OTIENO OPAR Acc. jgj,Completed,1000,,442100,TRUE,Pay Utility,254720814822 - JAMES OTIENO OPAR,,jgj
RCJ25P15K6,19/03/2023 12:32,19/03/2023 12:32,Pay Bill Online from 254715764212 - BANCE ISHEMINYE Acc. JFE,Completed,1000,,441100,TRUE,Pay Bill Online,254715764212 - BANCE ISHEMINYE,,JFE
RCJ15NBJ35,19/03/2023 12:10,19/03/2023 12:10,Pay Bill from 254720814822 - JAMES OTIENO OPAR Acc. jgj,Completed,4000,,440100,TRUE,Pay Utility,254720814822 - JAMES OTIENO OPAR,,jgj
RCJ45AKLJO,19/03/2023 09:28,19/03/2023 09:28,Pay Bill from 0705687898 - JORDAN KIPNGETICH THOMAS KIKWAI Acc. kff,Completed,2000,,436100,TRUE,Pay Utility,0705687898 - JORDAN KIPNGETICH THOMAS KIKWAI,,kff
RCI243U258,18/03/2023 18:44,18/03/2023 18:44,Pay Bill from 254728126621 - RUTH NJERI GICHIA Acc. HFF,Completed,10000,,434100,TRUE,Pay Utility,254728126621 - RUTH NJERI GICHIA,,HFF
RCI9421SRR,18/03/2023 18:31,18/03/2023 18:31,Pay Bill from 254711123196 - JUDITH MUTUA Acc. Fea,Completed,10000,,424100,TRUE,Pay Utility,254711123196 - JUDITH MUTUA,,Fea
RCI72W8T47,18/03/2023 11:49,18/03/2023 11:49,Pay Bill Online from 254706549634 - CLINTON OMBASA Acc. FDB,Completed,7000,,414100,TRUE,Pay Bill Online,254706549634 - CLINTON OMBASA,,FDB
RCI82NVIN6,18/03/2023 10:20,18/03/2023 10:20,Pay Bill from 254724435274 - WINFRED MBINYA MUNUVE Acc. DDC,Completed,4000,,407100,TRUE,Pay Utility,254724435274 - WINFRED MBINYA MUNUVE,,DDC
RCI82J7HYE,18/03/2023 09:28,18/03/2023 09:28,Pay Bill from 0792933158 - mary wamaitha maina Acc. DGD,Completed,10000,,403100,TRUE,Pay Utility,0792933158 - mary wamaitha maina,,DGD
RCH11ZYC81,17/03/2023 22:03,17/03/2023 22:03,Merchant Pay Utility Received from 7245661 -  OCHIENG CHEMIST  Acc. HFD,Completed,1000,,393100,TRUE,Merchant Pay Utility via API,7245661 -  OCHIENG CHEMIST ,,HFD
RCH71VEB7X,17/03/2023 21:11,17/03/2023 21:11,Pay Bill from 0743789968 - Dallias Thanare Githara Acc. hbb,Completed,5000,,392100,TRUE,Pay Utility,0743789968 - Dallias Thanare Githara,,hbb
RCH511NRY9,17/03/2023 17:29,17/03/2023 17:29,Pay Bill Online from 254712187712 - JUDELEEN SHILOBELE AHINDUKHA Acc. IEA,Completed,16000,,387100,TRUE,Pay Utility with OD Online,254712187712 - JUDELEEN SHILOBELE AHINDUKHA,,IEA
RCH7ZYJF6X,17/03/2023 17:01,17/03/2023 17:01,Pay Bill from 254715865256 - RABECCA NABEA Acc. JDG,Completed,10000,,371100,TRUE,Pay Utility,254715865256 - RABECCA NABEA,,JDG
RCH1ZNC7D1,17/03/2023 15:08,17/03/2023 15:08,Pay Bill from 0748059595 - Rashid NASSIR Khamis Acc. DDA,Completed,5000,,361100,TRUE,Pay Utility with OD via STK,0748059595 - Rashid NASSIR Khamis,,DDA
RCH4ZI4RXW,17/03/2023 14:13,17/03/2023 14:13,Pay Bill from 254725111246 - FRANCIS MUUTU MWANGANGI Acc. IGI,Completed,15000,,356100,TRUE,Pay Utility,254725111246 - FRANCIS MUUTU MWANGANGI,,IGI
RCH7ZGTORL,17/03/2023 14:00,17/03/2023 14:00,Pay Bill Online from 254799805832 - NATHANIEl MAMBO MBITHI Acc. KBH,Completed,10000,,341100,TRUE,Pay Bill Online,254799805832 - NATHANIEl MAMBO MBITHI,,KBH
RCH0ZC0JAO,17/03/2023 13:11,17/03/2023 13:11,Pay Bill Online from 254728800338 - GEOFFREY SERSER KIPROTICH Acc. KCH,Completed,5000,,331100,TRUE,Pay Bill Online,254728800338 - GEOFFREY SERSER KIPROTICH,,KCH
RCH3YU1SX7,17/03/2023 09:57,17/03/2023 09:57,Pay Bill from 254719779657 - SAMUEL NJOROGE Acc. JGA,Completed,15000,,326100,TRUE,Pay Utility,254719779657 - SAMUEL NJOROGE,,JGA
RCH4YFPIBQ,17/03/2023 06:05,17/03/2023 06:05,Pay Bill from 254717909848 - MARY MBULA KATHUKU Acc. 979524,Completed,9000,,311100,TRUE,Pay Utility with OD via STK,254717909848 - MARY MBULA KATHUKU,,979524
RCG1XV6RE5,16/03/2023 20:00,16/03/2023 20:00,FSI to Pay Bill by 100401 - 100401HFC Acc. HDH via WEB by 100401HFC\hfcappinit,Completed,16000,,302100,TRUE,FSI to Pay Bill via API,100401 - 100401HFC,,HDH
RCG2WPL2HU,16/03/2023 13:59,16/03/2023 13:59,Pay Bill Online from 254712211351 - NYAVANGA OTENGO THOMAS Acc. KDB,Completed,16000,,286100,TRUE,Pay Bill Online,254712211351 - NYAVANGA OTENGO THOMAS,,KDB
RCG1W0ZZQN,16/03/2023 09:31,16/03/2023 09:31,Pay Bill Online from 254715764212 - BANCE ISHEMINYE Acc. JFE,Completed,2000,,270100,TRUE,Pay Bill Online,254715764212 - BANCE ISHEMINYE,,JFE
RCG2W0181K,16/03/2023 09:20,16/03/2023 09:20,Pay Bill from 254718672924 - LILIAN CHEBET NGENO Acc. KGD,Completed,10000,,268100,TRUE,Pay Utility,254718672924 - LILIAN CHEBET NGENO,,KGD
RCG5VZAYK5,16/03/2023 09:11,16/03/2023 09:11,Pay Bill Online from 254702190887 - Nax Ochieng Acc. FDE,Completed,15000,,258100,TRUE,Pay Bill Online,254702190887 - Nax Ochieng,,FDE
RCF7VMI1KF,15/03/2023 23:45,15/03/2023 23:45,Pay Bill Online from 254725381062 - VICTOR MAITHYA Acc. DEC,Completed,5000,,243100,TRUE,Pay Bill Online,254725381062 - VICTOR MAITHYA,,DEC
RCF5VDDIUP,15/03/2023 21:03,15/03/2023 21:03,Pay Bill from 254722746480 - PATRICK OPEYWA AURA Acc. KGH,Completed,9500,,238100,TRUE,Pay Utility,254722746480 - PATRICK OPEYWA AURA,,KGH
RCF7VAEYPN,15/03/2023 20:36,15/03/2023 20:36,Pay Bill from 254721520535 - NYAMWAYA MATARA Acc. jdb,Completed,15000,,228600,TRUE,Pay Utility,254721520535 - NYAMWAYA MATARA,,jdb
RCF4UW668C,15/03/2023 18:58,15/03/2023 18:58,Pay Bill Online from 254725385966 - JOSEPH MUYA MARUA Acc. KEE,Completed,12000,,213600,TRUE,Pay Bill Online,254725385966 - JOSEPH MUYA MARUA,,KEE
RCF6TTHXI0,15/03/2023 12:45,15/03/2023 12:45,Pay Bill from 0722531422 - ANTHONY ITIMU MAINA Acc. JBD,Completed,10000,,201600,TRUE,Pay Utility,0722531422 - ANTHONY ITIMU MAINA,,JBD
RCF8TTFAW8,15/03/2023 12:44,15/03/2023 12:44,Pay Bill Online from 254725381062 - VICTOR MAITHYA Acc. DEC,Completed,10000,,191600,TRUE,Pay Bill Online,254725381062 - VICTOR MAITHYA,,DEC
RCF2TSU2T4,15/03/2023 12:38,15/03/2023 12:38,Pay Bill from 254728704935 - ALFRED KISHOIN Acc. DAB,Completed,16000,,181600,TRUE,Pay Utility,254728704935 - ALFRED KISHOIN,,DAB
RCF5TP7F8L,15/03/2023 11:57,15/03/2023 11:57,Pay Bill from 254717801919 - MARCELINE AKINYI Acc. IAF,Completed,10000,,165600,TRUE,Pay Utility,254717801919 - MARCELINE AKINYI,,IAF
RCF2TLSH5M,15/03/2023 11:17,15/03/2023 11:17,Pay Bill Online from 254799031749 - KENNEDY WAINAINA NJOROGE Acc. DDD,Completed,4100,,155600,TRUE,Pay Bill Online,254799031749 - KENNEDY WAINAINA NJOROGE,,DDD
RCF2TGABKG,15/03/2023 10:13,15/03/2023 10:13,Pay Bill from 254718245568 - NADI GOLICHA Acc. JEA,Completed,10000,,151500,TRUE,Pay Utility,254718245568 - NADI GOLICHA,,JEA
RCF4TBVGZ2,15/03/2023 09:22,15/03/2023 09:22,Pay Bill Online from 254798639242 - Christian Kiragu Acc. FGE,Completed,2000,,141500,TRUE,Pay Bill Online,254798639242 - Christian Kiragu,,FGE
RCE6SMPAI8,14/03/2023 20:49,14/03/2023 20:49,Pay Bill from 0769118645 - kennedy kipkurui korir Acc. IGC,Completed,1000,,139500,TRUE,Pay Utility,0769118645 - kennedy kipkurui korir,,IGC
RCE0S5IM20,14/03/2023 18:48,14/03/2023 18:48,Pay Bill Online from 254722889574 - ALLAN MWANGI Acc. jcg,Completed,10000,,138500,TRUE,Pay Utility with OD Online,254722889574 - ALLAN MWANGI,,jcg
RCE9QSBEQT,14/03/2023 10:16,14/03/2023 10:16,Pay Bill Online from 0711117122 - Yassir Mwinyi Abdulrazaq Acc. ICE,Completed,3000,,128500,TRUE,Pay Bill Online,0711117122 - Yassir Mwinyi Abdulrazaq,,ICE
RCE1QLNQRX,14/03/2023 08:57,14/03/2023 08:57,Pay Bill from 0743248310 - PATRICK STURRIDGE NYONGESA Acc. daa,Completed,5000,,125500,TRUE,Pay Utility,0743248310 - PATRICK STURRIDGE NYONGESA,,daa
RCD3Q1IPJJ,13/03/2023 21:12,13/03/2023 21:12,Pay Bill from 254722715235 - AHMED ABDULLANI MOHAMMED Acc. IGD,Completed,10000,,120500,TRUE,Pay Utility,254722715235 - AHMED ABDULLANI MOHAMMED,,IGD
RCD2PRJ33K,13/03/2023 19:50,13/03/2023 19:50,Pay Bill Online from 254111303204 - JAMES MUEMA KIKUVI Acc. DFA,Completed,15000,,110500,TRUE,Pay Bill Online,254111303204 - JAMES MUEMA KIKUVI,,DFA
RCD0PQW0OI,13/03/2023 19:46,13/03/2023 19:46,Pay Bill from 254740579741 - MUHINDI MULINYA Acc. HGG,Completed,7000,,95500,TRUE,Pay Utility with OD via STK,254740579741 - MUHINDI MULINYA,,HGG
RCD3PQ0GP1,13/03/2023 19:40,13/03/2023 19:40,Pay Bill Online from 254792187144 - HASSAN AHMED HASSAN Acc. KGI,Completed,10000,,88500,TRUE,Pay Bill Online,254792187144 - HASSAN AHMED HASSAN,,KGI
RCD1PMRJCB,13/03/2023 19:19,13/03/2023 19:19,Pay Bill Online from 0740422187 - KEVIN MAKATO KUNGA Acc. KEG,Completed,9000,,78500,TRUE,Pay Bill Online,0740422187 - KEVIN MAKATO KUNGA,,KEG
RCD1PIJGTT,13/03/2023 18:51,13/03/2023 18:51,Pay Bill Online from 254722921132 - JOE MCCRAY MURIUKI KIHIA Acc. IFA,Completed,15000,,69500,TRUE,Pay Utility with OD Online,254722921132 - JOE MCCRAY MURIUKI KIHIA,,IFA
RCD4PH3KOA,13/03/2023 18:40,13/03/2023 18:40,Pay Bill from 254718672924 - LILIAN CHEBET NGENO Acc. HAB,Completed,9500,,54500,TRUE,Pay Utility,254718672924 - LILIAN CHEBET NGENO,,HAB
RCD4PCHCCG,13/03/2023 18:04,13/03/2023 18:04,Pay Bill from 254724423882 - JOEL GICHURI KARANJA Acc. fee,Completed,16000,,45000,TRUE,Pay Utility,254724423882 - JOEL GICHURI KARANJA,,fee
RCD1P9ODFP,13/03/2023 17:41,13/03/2023 17:41,Pay Bill from 254710635630 - DONNA JESSICA OWANO Acc. KCC,Completed,10000,,29000,TRUE,Pay Utility,254710635630 - DONNA JESSICA OWANO,,KCC
RCD2P7032K,13/03/2023 17:16,13/03/2023 17:16,Pay Bill Online from 254723930071 - AMOS KITAVI KIVITE Acc. JCE,Completed,9000,,19000,TRUE,Pay Bill Online,254723930071 - AMOS KITAVI KIVITE,,JCE
RCD2P581TY,13/03/2023 16:59,13/03/2023 16:59,Pay Bill from 254722826454 - CHARLES KARIMI MAITAI Acc. KDC Keila,Completed,10000,,10000,TRUE,Pay Utility,254722826454 - CHARLES KARIMI MAITAI,,KDC
RCD3P2QY0V,13/03/2023 16:34,13/03/2023 16:34,Utility Account to Organization Settlement Account,Completed,,-420600,0,TRUE,Utility Account to Organization Settlement Account,979524 - ANCIENT WELLS PROPERTY MANAGERS 2,,
RCD0OL0EBK,13/03/2023 13:18,13/03/2023 13:18,Pay Bill Online from 254742911013 - HANEST AMIMO Acc. IEG,Completed,5000,,420600,TRUE,Pay Utility with OD Online,254742911013 - HANEST AMIMO,,IEG
RCD7OKQFVL,13/03/2023 13:15,13/03/2023 13:15,Pay Bill from 0743248310 - PATRICK STURRIDGE NYONGESA Acc. daa,Completed,7000,,415600,TRUE,Pay Utility,0743248310 - PATRICK STURRIDGE NYONGESA,,daa
RCD8OHZTZI,13/03/2023 12:44,13/03/2023 12:44,Pay Bill from 254716581384 - GREGORY KILUNGYA Acc. DAD,Completed,20000,,408600,TRUE,Pay Utility,254716581384 - GREGORY KILUNGYA,,DAD
RCD5OHV5PD,13/03/2023 12:43,13/03/2023 12:43,Pay Bill from 254723747228 - MORARA ASANYO Acc. pool,Completed,25000,,388600,TRUE,Pay Utility,254723747228 - MORARA ASANYO,,pool
RCD7OFE16H,13/03/2023 12:15,13/03/2023 12:15,Pay Bill from 254707126523 - MARY WAVINYA KIOKO Acc. IFG,Completed,14500,,363600,TRUE,Pay Utility with OD via STK,254707126523 - MARY WAVINYA KIOKO,,IFG
RCD7O7YIJF,13/03/2023 10:50,13/03/2023 10:50,Pay Bill from 254715591919 - JOHN O OCHIENG Acc. JFA,Completed,5000,,349100,TRUE,Pay Utility,254715591919 - JOHN O OCHIENG,,JFA
RCD2O4NMLI,13/03/2023 10:12,13/03/2023 10:12,Pay Bill from 254728238249 - ESTHER WANGUI KIBUNYI Acc. ICA,Completed,17000,,344100,TRUE,Pay Utility,254728238249 - ESTHER WANGUI KIBUNYI,,ICA
RCD6O3PMW0,13/03/2023 10:01,13/03/2023 10:01,Pay Bill from 254707715639 - Annastacia Kimeu Acc. JFC ,Completed,10000,,327100,TRUE,Pay Utility,254707715639 - Annastacia Kimeu,,JFC
RCC3NMAY81,12/03/2023 23:49,12/03/2023 23:49,Pay Bill from 254703935626 - DAVID NGARI ITA Acc. FCD,Completed,1000,,317100,TRUE,Pay Utility,254703935626 - DAVID NGARI ITA,,FCD
RCC8NK77F6,12/03/2023 22:35,12/03/2023 22:35,Pay Bill Online from 0700206427 - Clare Nabalisa Mukasa Acc. HFA,Completed,32000,,316100,TRUE,Pay Bill Online,0700206427 - Clare Nabalisa Mukasa,,HFA
RCC2NHFDR2,12/03/2023 21:46,12/03/2023 21:46,Pay Bill Online from 254722769473 - SAMSON CHALO Acc. IAB,Completed,15000,,284100,TRUE,Pay Utility with OD Online,254722769473 - SAMSON CHALO,,IAB
RCC9NGLD6P,12/03/2023 21:35,12/03/2023 21:35,Pay Bill Online from 254718233980 - KAREN ASWANI Acc. HEC,Completed,10500,,269100,TRUE,Pay Bill Online,254718233980 - KAREN ASWANI,,HEC
RCC2MMA50I,12/03/2023 17:07,12/03/2023 17:07,Pay Bill from 0743789968 - Dallias Thanare Githara Acc. hbb,Completed,4000,,258600,TRUE,Pay Utility,0743789968 - Dallias Thanare Githara,,hbb
RCC9LX9A01,12/03/2023 12:30,12/03/2023 12:30,Pay Bill from 0700408952 - FAITH NDUNGE WILLIAM Acc. v10,Completed,2500,,254600,TRUE,Pay Utility,0700408952 - FAITH NDUNGE WILLIAM,,v10
RCB1KULYFL,11/03/2023 20:53,11/03/2023 20:53,Pay Bill from 0705687898 - JORDAN KIPNGETICH THOMAS KIKWAI Acc. kff,Completed,4000,,252100,TRUE,Pay Utility,0705687898 - JORDAN KIPNGETICH THOMAS KIKWAI,,kff
RCB8KOVRCY,11/03/2023 20:08,11/03/2023 20:08,Pay Bill from 254711271263 - BENSON MWADIME JOSEPH Acc. HFC,Completed,9000,,248100,TRUE,Pay Utility,254711271263 - BENSON MWADIME JOSEPH,,HFC
RCB8KAQG7Y,11/03/2023 18:29,11/03/2023 18:29,Pay Bill from 254719499823 - MOSES MWANZIA MUTHIANI Acc. Jcc,Completed,5000,,239100,TRUE,Pay Utility,254719499823 - MOSES MWANZIA MUTHIANI,,Jcc
RCB1K54X2H,11/03/2023 17:45,11/03/2023 17:45,Pay Bill Online from 254710146965 - BRENDA DORCAS MABONGA Acc. hfg,Completed,15000,,234100,TRUE,Pay Bill Online,254710146965 - BRENDA DORCAS MABONGA,,hfg
RCB5K4MSUB,11/03/2023 17:40,11/03/2023 17:40,Pay Bill from 0708931111 - NJENGA   KURIA Acc. kca,Completed,16000,,219100,TRUE,Pay Utility,0708931111 - NJENGA   KURIA,,kca
RCB2JSH8UA,11/03/2023 15:47,11/03/2023 15:47,Pay Bill Online from 254704143476 - DICKSON MZUNGU Acc. JCB,Completed,15000,,203100,TRUE,Pay Utility with OD Online,254704143476 - DICKSON MZUNGU,,JCB
RCB0JLF4Y2,11/03/2023 14:36,11/03/2023 14:36,Pay Bill from 254743916064 - KAI AIKENY IDOKO Acc. IBC ,Completed,9500,,188100,TRUE,Pay Utility,254743916064 - KAI AIKENY IDOKO,,IBC
RCB5JI1ERV,11/03/2023 14:03,11/03/2023 14:03,Pay Bill from 0715566922 - diramu ollo galgalo Acc. HBD,Completed,10000,,178600,TRUE,Pay Utility,0715566922 - diramu ollo galgalo,,HBD
RCB7JH3KNP,11/03/2023 13:54,11/03/2023 13:54,Pay Bill from 254707653264 - KELVIN MWANGI MUCHORI Acc. HDE,Completed,10500,,168600,TRUE,Pay Utility,254707653264 - KELVIN MWANGI MUCHORI,,HDE
RCB8JG1ROQ,11/03/2023 13:43,11/03/2023 13:43,Pay Bill Online from 254720451253 - JIMMY KIOGORA NKIROTE Acc. KBD,Completed,3000,,158100,TRUE,Pay Bill Online,254720451253 - JIMMY KIOGORA NKIROTE,,KBD
RCB9JAFPOL,11/03/2023 12:46,11/03/2023 12:46,Pay Bill from 254791743185 - AGNETA WECHULI Acc. IFG,Completed,3600,,155100,TRUE,Pay Utility,254791743185 - AGNETA WECHULI,,IFG
RCB2J4K1CQ,11/03/2023 11:43,11/03/2023 11:43,Pay Bill Online from 254712040302 - EMMANUEL MWARO BARASA Acc. KEA,Completed,16000,,151500,TRUE,Pay Bill Online,254712040302 - EMMANUEL MWARO BARASA,,KEA
RCB0IXCOU8,11/03/2023 10:24,11/03/2023 10:24,Pay Bill from 254741573910 - VINCENT ODUOR OLIENG Acc. HBC,Completed,10000,,135500,TRUE,Pay Utility,254741573910 - VINCENT ODUOR OLIENG,,HBC
RCB7IRA9C1,11/03/2023 09:15,11/03/2023 09:15,Pay Bill Online from 254723370004 - LABAN MAINGI WAMBUA Acc. JEF,Completed,10000,,125500,TRUE,Pay Bill Online,254723370004 - LABAN MAINGI WAMBUA,,JEF
RCB1IMTZ4N,11/03/2023 08:20,11/03/2023 08:20,Pay Bill Online from 254722910078 - MAUREEN MUNYIVA MUTUKU Acc. DCD,Completed,5000,,115500,TRUE,Pay Bill Online,254722910078 - MAUREEN MUNYIVA MUTUKU,,DCD
RCB1ILPPG1,11/03/2023 08:05,11/03/2023 08:05,Pay Bill Online from 254720451253 - JIMMY KIOGORA NKIROTE Acc. KBD,Completed,1000,,110500,TRUE,Pay Utility with OD Online,254720451253 - JIMMY KIOGORA NKIROTE,,KBD
RCA2IBSML2,10/03/2023 23:08,10/03/2023 23:08,Pay Bill from 254720278119 - LINDAH OGAWO Acc. kfe,Completed,9500,,109500,TRUE,Pay Utility,254720278119 - LINDAH OGAWO,,kfe
RCA3IAL7BB,10/03/2023 22:40,10/03/2023 22:40,Pay Bill Online from 254712990240 - GLORY KARIUKI Acc. KAA,Completed,16000,,100000,TRUE,Pay Bill Online,254712990240 - GLORY KARIUKI,,KAA
RCA7IA58AB,10/03/2023 22:31,10/03/2023 22:31,Pay Bill Online from 254720107609 - DENNIS OGENDI BARAKE Acc. JAJ,Completed,13000,,84000,TRUE,Pay Bill Online,254720107609 - DENNIS OGENDI BARAKE,,JAJ
RCA4I8GPFC,10/03/2023 22:04,10/03/2023 22:04,Merchant Pay Utility Received from 7245661 -  OCHIENG CHEMIST  Acc. HFD,Completed,1000,,71000,TRUE,Merchant Pay Utility via API,7245661 -  OCHIENG CHEMIST ,,HFD
RCA9HEBL2J,10/03/2023 18:05,10/03/2023 18:05,Pay Bill from 254795079977 - COLLINS BOB OMOLLO Acc. IGG,Completed,10000,,70000,TRUE,Pay Utility,254795079977 - COLLINS BOB OMOLLO,,IGG
RCA0HADTD8,10/03/2023 17:32,10/03/2023 17:32,Pay Bill Online from 254712757681 - DENNIS MURANGO Acc. HAG,Completed,25000,,60000,TRUE,Pay Utility with OD Online,254712757681 - DENNIS MURANGO,,HAG
RCA1H7KIGN,10/03/2023 17:06,10/03/2023 17:06,Pay Bill Online from 254728103722 - YASSIR MWINYI ABDULRAZAQ Acc. ICE,Completed,4000,,35000,TRUE,Pay Bill Online,254728103722 - YASSIR MWINYI ABDULRAZAQ,,ICE
RCA4H3D5AQ,10/03/2023 16:26,10/03/2023 16:26,Pay Bill Online from 254720451253 - JIMMY KIOGORA NKIROTE Acc. KBD,Completed,1000,,31000,TRUE,Pay Bill Online,254720451253 - JIMMY KIOGORA NKIROTE,,KBD
RCA2H33IUG,10/03/2023 16:23,10/03/2023 16:23,Pay Bill from 254718911865 - KENNEDY KELI KATUNGII Acc. HDF,Completed,9000,,30000,TRUE,Pay Utility,254718911865 - KENNEDY KELI KATUNGII,,HDF
RCA3GX9OQZ,10/03/2023 15:22,10/03/2023 15:22,Pay Bill Online from 254714552193 - CHRISTOPHER OCHIENG Acc. JGI ,Completed,21000,,21000,TRUE,Pay Bill Online,254714552193 - CHRISTOPHER OCHIENG,,JGI
RCA8GQ44YE,10/03/2023 14:05,10/03/2023 14:05,Utility Account to Organization Settlement Account,Completed,,-554300,0,TRUE,Utility Account to Organization Settlement Account,979524 - ANCIENT WELLS PROPERTY MANAGERS 2,,
RCA3GMTHU9,10/03/2023 13:30,10/03/2023 13:30,Pay Bill from 254729371750 - DERRICK OTANGA Acc. DAC,Completed,20000,,554300,TRUE,Pay Utility,254729371750 - DERRICK OTANGA,,DAC
RCA2GDWCJK,10/03/2023 11:54,10/03/2023 11:54,Pay Bill from 0715688238 - JOANNAH ATUHAIRE BANTU Acc. JAE,Completed,9000,,534300,TRUE,Pay Utility,0715688238 - JOANNAH ATUHAIRE BANTU,,JAE
RCA8G3KA9A,10/03/2023 09:59,10/03/2023 09:59,Pay Bill from 254715591919 - JOHN O OCHIENG Acc. JFA,Completed,5000,,525300,TRUE,Pay Utility,254715591919 - JOHN O OCHIENG,,JFA
RCA6G35JNU,10/03/2023 09:54,10/03/2023 09:54,Pay Bill from 0742599061 - Judy Masese Samwel Acc. HGF,Completed,10000,,520300,TRUE,Pay Utility,0742599061 - Judy Masese Samwel,,HGF
RCA9FVCNOT,10/03/2023 08:22,10/03/2023 08:22,Pay Bill from 0792256626 - Susan  Oronje Angiyo Acc. IAE,Completed,500,,510300,TRUE,Pay Utility,0792256626 - Susan  Oronje Angiyo,,IAE
RCA4FO50MS,10/03/2023 05:58,10/03/2023 05:58,Pay Bill Online from 254716702294 - DANIEL MULATI Acc. KBB,Completed,8000,,509800,TRUE,Pay Bill Online,254716702294 - DANIEL MULATI,,KBB
RC91FKULJ1,09/03/2023 23:36,09/03/2023 23:36,Pay Bill from 254703935626 - DAVID NGARI ITA Acc. FCD,Completed,1000,,501800,TRUE,Pay Utility with OD via STK,254703935626 - DAVID NGARI ITA,,FCD
RC92FFTV5C,09/03/2023 21:54,09/03/2023 21:54,Pay Bill from 254745391294 - Faith Moraa Sitemba Acc. IFC,Completed,8000,,500800,TRUE,Pay Utility,254745391294 - Faith Moraa Sitemba,,IFC
RC90FE8ZMG,09/03/2023 21:35,09/03/2023 21:35,Merchant Pay Utility Received from 7245661 -  OCHIENG CHEMIST  Acc. HFD,Completed,600,,492800,TRUE,Merchant Pay Utility via API,7245661 -  OCHIENG CHEMIST ,,HFD
RC93FDFPPP,09/03/2023 21:26,09/03/2023 21:26,Pay Bill from 0111788761 - MARIA ZACHARIA JOHN Acc. FGC,Completed,8500,,492200,TRUE,Pay Utility,0111788761 - MARIA ZACHARIA JOHN,,FGC
RC99FD4DS1,09/03/2023 21:23,09/03/2023 21:23,Pay Bill from 254722444622 - CHARITY KAGWAINI Acc. ffd,Completed,5000,,483700,TRUE,Pay Utility,254722444622 - CHARITY KAGWAINI,,ffd
RC99EQJOE7,09/03/2023 18:41,09/03/2023 18:41,Pay Bill from 0702801469 - sharon   awuor Acc. KDH,Completed,10000,,478700,TRUE,Pay Utility with OD via STK,0702801469 - sharon   awuor,,KDH
RC96EMKJX8,09/03/2023 18:11,09/03/2023 18:11,Pay Bill Online from 0769918050 - newton   mutethia Acc. JBG,Completed,10000,,468700,TRUE,Pay Bill Online,0769918050 - newton   mutethia,,JBG
RC91EG96YR,09/03/2023 17:17,09/03/2023 17:17,Pay Bill from 254726028330 - JOHN WAMBUA Acc. IFH,Completed,15000,,458700,TRUE,Pay Utility,254726028330 - JOHN WAMBUA,,IFH
RC98DICIJ8,09/03/2023 11:16,09/03/2023 11:16,Pay Bill from 254723966777 - BONIFACE MUTHAKA NGANGA Acc. IDG,Completed,10000,,443700,TRUE,Pay Utility,254723966777 - BONIFACE MUTHAKA NGANGA,,IDG
RC99DBUZ23,09/03/2023 10:04,09/03/2023 10:04,Pay Bill from 0743789968 - Dallias Thanare Githara Acc. hbb,Completed,3000,,433700,TRUE,Pay Utility,0743789968 - Dallias Thanare Githara,,hbb
RC94D4B74K,09/03/2023 08:39,09/03/2023 08:39,Pay Bill from 0717441870 - Steven oduor ogutu Acc. KTA,Completed,9500,,430700,TRUE,Pay Utility,0717441870 - Steven oduor ogutu,,KTA
RC90CXBTFK,09/03/2023 06:59,09/03/2023 06:59,Pay Bill Online from 254726292792 - PHILIP MIANO Acc. JEI,Completed,20000,,421200,TRUE,Pay Bill Online,254726292792 - PHILIP MIANO,,JEI
RC97CWA1PH,09/03/2023 06:32,09/03/2023 06:32,Pay Bill from 254704111133 - ELVIS OTIENO Acc. HFD,Completed,2500,,401200,TRUE,Pay Utility,254704111133 - ELVIS OTIENO,,HFD
RC89CO0BQB,08/03/2023 22:10,08/03/2023 22:10,Pay Bill from 254704111133 - ELVIS OTIENO Acc. HFD,Completed,2100,,398700,TRUE,Pay Utility,254704111133 - ELVIS OTIENO,,HFD
RC82BO7D84,08/03/2023 16:54,08/03/2023 16:54,Pay Bill Online from 254715764212 - BANCE ISHEMINYE Acc. JFE,Completed,8000,,396600,TRUE,Pay Bill Online,254715764212 - BANCE ISHEMINYE,,JFE
RC87BC84PH,08/03/2023 14:52,08/03/2023 14:52,Pay Bill Online from 254716011092 - BRIAN OPIYO OMONDI Acc. icb,Completed,16000,,388600,TRUE,Pay Bill Online,254716011092 - BRIAN OPIYO OMONDI,,icb
RC89B8NNRR,08/03/2023 14:12,08/03/2023 14:12,Pay Bill Online from 254720451253 - JIMMY KIOGORA NKIROTE Acc. KBD,Completed,1000,,372600,TRUE,Pay Utility with OD Online,254720451253 - JIMMY KIOGORA NKIROTE,,KBD
RC83B67CD9,08/03/2023 13:46,08/03/2023 13:46,Pay Bill Online from 254728886864 - MOULINE ONYANGO Acc. IAA,Completed,23000,,371600,TRUE,Pay Bill Online,254728886864 - MOULINE ONYANGO,,IAA
RC88B2398A,08/03/2023 13:02,08/03/2023 13:02,Pay Bill Online from 254720451253 - JIMMY KIOGORA NKIROTE Acc. KBD,Completed,1000,,348600,TRUE,Pay Utility with OD Online,254720451253 - JIMMY KIOGORA NKIROTE,,KBD
RC83AZG3S1,08/03/2023 12:34,08/03/2023 12:34,Pay Bill from 254719779657 - SAMUEL NJOROGE Acc. JGA,Completed,5000,,347600,TRUE,Pay Utility,254719779657 - SAMUEL NJOROGE,,JGA
RC87AT3TY7,08/03/2023 11:23,08/03/2023 11:23,Pay Bill from 0769118645 - kennedy kipkurui korir Acc. IGC,Completed,7000,,342600,TRUE,Pay Utility,0769118645 - kennedy kipkurui korir,,IGC
RC80AP79LI,08/03/2023 10:39,08/03/2023 10:39,Pay Bill from 254726732160 - CATHERINE MBETI Acc. kfi,Completed,12000,,335600,TRUE,Pay Utility,254726732160 - CATHERINE MBETI,,kfi
RC83AHU2P9,08/03/2023 09:16,08/03/2023 09:16,Pay Bill from 254721315975 - JOSEPH NDEGWA Acc. H E B,Completed,16000,,323600,TRUE,Pay Utility,254721315975 - JOSEPH NDEGWA,,H
RC89AB2LG9,08/03/2023 07:51,08/03/2023 07:51,Pay Bill from 254703528196 - ERIC GITONGA MUGO Acc. KGJ,Completed,19000,,307600,TRUE,Pay Utility,254703528196 - ERIC GITONGA MUGO,,KGJ
RC86A6RKLM,08/03/2023 06:25,08/03/2023 06:25,Pay Bill Online from 254705846408 - JAMES OUMA Acc. HBH,Completed,16000,,288600,TRUE,Pay Bill Online,254705846408 - JAMES OUMA,,HBH
RC81A58H3D,08/03/2023 03:32,08/03/2023 03:32,Pay Bill from 254700198550 - BENARD ONYANGO Acc. DBB,Completed,16000,,272600,TRUE,Pay Utility,254700198550 - BENARD ONYANGO,,DBB
RC86A4C9D8,08/03/2023 00:59,08/03/2023 00:59,Pay Bill from 254703935626 - DAVID NGARI ITA Acc. FCD,Completed,1000,,256600,TRUE,Pay Utility,254703935626 - DAVID NGARI ITA,,FCD
RC74A3EOQC,07/03/2023 23:53,07/03/2023 23:53,Pay Bill Online from 254720451253 - JIMMY KIOGORA NKIROTE Acc. KBD,Completed,1000,,255600,TRUE,Pay Utility with OD Online,254720451253 - JIMMY KIOGORA NKIROTE,,KBD
RC71A30L3J,07/03/2023 23:35,07/03/2023 23:35,Pay Bill from 254726928933 - JOSHUA NDUNDA NZIOKA Acc. KAJ,Completed,12500,,254600,TRUE,Pay Utility,254726928933 - JOSHUA NDUNDA NZIOKA,,KAJ
RC729RE0AM,07/03/2023 20:50,07/03/2023 20:50,Pay Bill from 254723699555 - DIANA NYAIREGI GICHIA Acc. IGH,Completed,10000,,242100,TRUE,Pay Utility,254723699555 - DIANA NYAIREGI GICHIA,,IGH
RC799QN4WP,07/03/2023 20:44,07/03/2023 20:44,Pay Bill Online from 254717985596 - NICHOLAS KIPKOECH BUTIA Acc. hcf,Completed,9000,,232100,TRUE,Pay Bill Online,254717985596 - NICHOLAS KIPKOECH BUTIA,,hcf
RC759DM04R,07/03/2023 19:15,07/03/2023 19:15,Pay Bill Online from 254720451253 - JIMMY KIOGORA NKIROTE Acc. KBD,Completed,1000,,223100,TRUE,Pay Utility with OD Online,254720451253 - JIMMY KIOGORA NKIROTE,,KBD
RC729B4MGU,07/03/2023 18:59,07/03/2023 18:59,Pay Bill Online from 0703634804 - SYLVIA NYAMBURA NJOROGE Acc. KCD,Completed,11000,,222100,TRUE,Pay Bill Online,0703634804 - SYLVIA NYAMBURA NJOROGE,,KCD
RC7195YI73,07/03/2023 18:20,07/03/2023 18:20,Pay Bill from 254713205244 - ROBERT OGALO Acc. HFB,Completed,16000,,211100,TRUE,Pay Utility,254713205244 - ROBERT OGALO,,HFB
RC7590UP15,07/03/2023 17:37,07/03/2023 17:37,Pay Bill Online from 254722604851 - WILFRED SAKWA Acc. KEJ,Completed,10000,,195100,TRUE,Pay Bill Online,254722604851 - WILFRED SAKWA,,KEJ
RC728WB3XA,07/03/2023 16:55,07/03/2023 16:55,Pay Bill Online from 254713966424 - NDUTI MUTHUI Acc. jed,Completed,15000,,185100,TRUE,Pay Bill Online,254713966424 - NDUTI MUTHUI,,jed
RC738NYKG7,07/03/2023 15:26,07/03/2023 15:26,Pay Bill Online from 254799371069 - ALPHONCE OCHIENG WAREGA Acc. IEE,Completed,8500,,170100,TRUE,Pay Bill Online,254799371069 - ALPHONCE OCHIENG WAREGA,,IEE
RC778MLVH3,07/03/2023 15:11,07/03/2023 15:11,Pay Bill from 254715591919 - JOHN O OCHIENG Acc. JFA,Completed,10000,,161600,TRUE,Pay Utility,254715591919 - JOHN O OCHIENG,,JFA
RC748JRR44,07/03/2023 14:39,07/03/2023 14:39,Pay Bill from 254702346515 - ELIZABETH ACHIENG NGOME Acc. KDE,Completed,10000,,151600,TRUE,Pay Utility,254702346515 - ELIZABETH ACHIENG NGOME,,KDE
RC798F93Y5,07/03/2023 13:50,07/03/2023 13:50,Pay Bill Online from 254706898046 - STACY AKETCH OCHUKA Acc. KGK,Completed,3000,,141600,TRUE,Pay Bill Online,254706898046 - STACY AKETCH OCHUKA,,KGK
RC788D2IUW,07/03/2023 13:28,07/03/2023 13:28,Pay Bill from 254710357391 - CHEPKOECH VALENTINE Acc. KAH,Completed,11500,,138600,TRUE,Pay Utility,254710357391 - CHEPKOECH VALENTINE,,KAH
RC788CFJKE,07/03/2023 13:21,07/03/2023 13:21,Pay Bill from 254796069018 - PEACE KIMEU Acc. JAH,Completed,16000,,127100,TRUE,Pay Utility,254796069018 - PEACE KIMEU,,JAH
RC7581XVK7,07/03/2023 11:28,07/03/2023 11:28,Pay Bill Online from 254757569672 - BRIAN MARITA NYANGAU Acc. KDD,Completed,12000,,111100,TRUE,Pay Bill Online,254757569672 - BRIAN MARITA NYANGAU,,KDD
RC78816ZMG,07/03/2023 11:20,07/03/2023 11:20,Pay Bill from 254791318982 - ADULLAHI HASSAN Acc. JCI,Completed,20000,,99100,TRUE,Pay Utility,254791318982 - ADULLAHI HASSAN,,JCI
RC7880K7BW,07/03/2023 11:13,07/03/2023 11:13,Pay Bill Online from 0757319222 - ATEM KUOL JOHN BOL Acc. FAC,Completed,9500,,79100,TRUE,Pay Bill Online,0757319222 - ATEM KUOL JOHN BOL,,FAC
RC757YN9ZH,07/03/2023 10:53,07/03/2023 10:53,Pay Bill Online from 254710732381 - JANE ACHIENG MBEKE Acc. HAF,Completed,600,,69600,TRUE,Pay Bill Online,254710732381 - JANE ACHIENG MBEKE,,HAF
RC797YKQTX,07/03/2023 10:52,07/03/2023 10:52,Pay Bill from 254721667039 - ELIAS KIPLAGAT Acc. KAC,Completed,11000,,69000,TRUE,Pay Utility,254721667039 - ELIAS KIPLAGAT,,KAC
RC717U2NXB,07/03/2023 10:03,07/03/2023 10:03,Pay Bill from 0799122666 - ERIC WAWERU KIAMA Acc. JDI,Completed,20000,,58000,TRUE,Pay Utility,0799122666 - ERIC WAWERU KIAMA,,JDI
RC727Q5MSO,07/03/2023 09:19,07/03/2023 09:19,Pay Bill Online from 254742911013 - HANEST AMIMO Acc. IEG,Completed,3000,,38000,TRUE,Pay Utility with OD Online,254742911013 - HANEST AMIMO,,IEG
RC727NKF3O,07/03/2023 08:48,07/03/2023 08:48,Pay Bill from 254723774861 - NGENO C NAOM Acc. JDD,Completed,15000,,35000,TRUE,Pay Utility,254723774861 - NGENO C NAOM,,JDD
RC737MTIPH,07/03/2023 08:39,07/03/2023 08:39,Pay Bill from 0722903166 - VICKLINE KERUBO DONGE Acc. JDA,Completed,20000,,20000,TRUE,Pay Utility,0722903166 - VICKLINE KERUBO DONGE,,JDA
RC707L8XV0,07/03/2023 08:19,07/03/2023 08:19,Utility Account to Organization Settlement Account,Completed,,-854000,0,TRUE,Utility Account to Organization Settlement Account,979524 - ANCIENT WELLS PROPERTY MANAGERS 2,,
RC707IWQY8,07/03/2023 07:47,07/03/2023 07:47,Pay Bill Online from 254710382992 - SIMON KAMAU MUIRURI Acc. JCD,Completed,15000,,854000,TRUE,Pay Bill Online,254710382992 - SIMON KAMAU MUIRURI,,JCD
RC747HEBCI,07/03/2023 07:23,07/03/2023 07:23,Pay Bill from 0791379873 - Joseph Kyalo Sila Acc. HAH,Completed,16000,,839000,TRUE,Pay Utility,0791379873 - Joseph Kyalo Sila,,HAH
RC637AJEVH,06/03/2023 23:06,06/03/2023 23:06,Pay Bill from 254716167517 - BENARD MUTUA Acc. Hcb,Completed,16000,,823000,TRUE,Pay Utility,254716167517 - BENARD MUTUA,,Hcb
RC606YS15G,06/03/2023 20:37,06/03/2023 20:37,Pay Bill Online from 254720044312 - ELIUD KIPKURUI Acc. FCF,Completed,17000,,807000,TRUE,Pay Bill Online,254720044312 - ELIUD KIPKURUI,,FCF
RC696VLNHV,06/03/2023 20:13,06/03/2023 20:13,Pay Bill from 254723488259 - WILSON OKITE OKITE Acc. HCA,Completed,15000,,790000,TRUE,Pay Utility,254723488259 - WILSON OKITE OKITE,,HCA
RC646KUEWC,06/03/2023 19:04,06/03/2023 19:04,Pay Bill from 254700557767 - BAKHITA MWENDE MUANGE Acc. kcb,Completed,16000,,775000,TRUE,Pay Utility,254700557767 - BAKHITA MWENDE MUANGE,,kcb
RC616KBLW1,06/03/2023 19:01,06/03/2023 19:01,Pay Bill from 0705402025 - patrick kioko mutuku Acc. kce,Completed,10000,,759000,TRUE,Pay Utility,0705402025 - patrick kioko mutuku,,kce
RC666HSTMY,06/03/2023 18:43,06/03/2023 18:43,Pay Bill Online from 254718253322 - DUNCAN MOCHOGE Acc. JFJ,Completed,15000,,749000,TRUE,Pay Bill Online,254718253322 - DUNCAN MOCHOGE,,JFJ
RC636HJG73,06/03/2023 18:41,06/03/2023 18:41,Pay Bill from 0719726347 - ROSEMARY DAYO KILUMBE Acc. KGE,Completed,8500,,734000,TRUE,Pay Utility,0719726347 - ROSEMARY DAYO KILUMBE,,KGE
RC626C1TKO,06/03/2023 17:58,06/03/2023 17:58,Pay Bill from 254729233120 - ABDIRAHMAN MOHAMUD ABDULLAHI Acc. HTE,Completed,9000,,725500,TRUE,Pay Utility,254729233120 - ABDIRAHMAN MOHAMUD ABDULLAHI,,HTE
RC655ZDQKV,06/03/2023 15:56,06/03/2023 15:56,Pay Bill from 254724477912 - SAMUEL MURIMI Acc. HCD,Completed,10000,,716500,TRUE,Pay Utility,254724477912 - SAMUEL MURIMI,,HCD
RC695Q3J51,06/03/2023 14:15,06/03/2023 14:15,Pay Bill from 254797675450 - JOHN NYAREGA NYAKUNDI Acc. FAF,Completed,16000,,706500,TRUE,Pay Utility,254797675450 - JOHN NYAREGA NYAKUNDI,,FAF
RC605NG94I,06/03/2023 13:48,06/03/2023 13:48,Pay Bill Online from 254718663397 - JIMMY MUNYAO NZIOKI Acc. DCB,Completed,16000,,690500,TRUE,Pay Bill Online,254718663397 - JIMMY MUNYAO NZIOKI,,DCB
RC625GYGA6,06/03/2023 12:41,06/03/2023 12:41,Pay Bill from 254724606819 - LUCIA KIMENYE Acc. JDJ,Completed,15000,,674500,TRUE,Pay Utility,254724606819 - LUCIA KIMENYE,,JDJ
RC615G3UDT,06/03/2023 12:32,06/03/2023 12:32,Pay Bill from 254703276305 - MARTHA MUSYOKA Acc. IAI,Completed,15000,,659500,TRUE,Pay Utility,254703276305 - MARTHA MUSYOKA,,IAI
RC615BXABL,06/03/2023 11:46,06/03/2023 11:46,Pay Bill Online from 254724862849 - Ann Fresiah Kinyua Acc. HDA,Completed,16000,,644500,TRUE,Pay Utility with OD Online,254724862849 - Ann Fresiah Kinyua,,HDA
RC655AH38H,06/03/2023 11:30,06/03/2023 11:30,Pay Bill from 254701112397 - ELEMA GODANA DIBA Acc. FCA,Completed,10000,,628500,TRUE,Pay Utility,254701112397 - ELEMA GODANA DIBA,,FCA
RC65562JEJ,06/03/2023 10:43,06/03/2023 10:43,Pay Bill from 254725478531 - KIPKORIR KUTO Acc. DFB,Completed,15000,,618500,TRUE,Pay Utility,254725478531 - KIPKORIR KUTO,,DFB
RC6355N9ZV,06/03/2023 10:38,06/03/2023 10:38,Pay Bill from 254710239100 - PHILOMENA WOKI MUTHAMA Acc. KDK,Completed,17000,,603500,TRUE,Pay Utility,254710239100 - PHILOMENA WOKI MUTHAMA,,KDK
RC624W06Q4,06/03/2023 08:52,06/03/2023 08:52,Pay Bill Online from 254707726441 - JOHN OLOO NYAULA Acc. IEH,Completed,15000,,586500,TRUE,Pay Bill Online,254707726441 - JOHN OLOO NYAULA,,IEH
RC614UZBID,06/03/2023 08:39,06/03/2023 08:39,Pay Bill Online from 254720620070 - Michelle Mwihaki Ngaruiya Acc. JEJ,Completed,15000,,571500,TRUE,Pay Bill Online,254720620070 - Michelle Mwihaki Ngaruiya,,JEJ
RC644QYZXC,06/03/2023 07:48,06/03/2023 07:48,Pay Bill from 254726928933 - JOSHUA NDUNDA NZIOKA Acc. KAJ,Completed,8500,,556500,TRUE,Pay Utility with OD via STK,254726928933 - JOSHUA NDUNDA NZIOKA,,KAJ
RC684Q4QJY,06/03/2023 07:35,06/03/2023 07:35,Pay Bill from 254705641030 - FRIDAH WAENI MUITHYA Acc. JEH,Completed,16000,,548000,TRUE,Pay Utility,254705641030 - FRIDAH WAENI MUITHYA,,JEH
RC674MUSPN,06/03/2023 06:28,06/03/2023 06:28,Pay Bill Online from 254710814215 - JOAN NYAMBURA KAMAU Acc. ifb,Completed,15000,,532000,TRUE,Pay Bill Online,254710814215 - JOAN NYAMBURA KAMAU,,ifb
RC694JLRS5,06/03/2023 00:03,06/03/2023 00:03,Pay Bill Online from 254727425310 - DENNIS KIPKOECH CHERUIYOT Acc. JAG,Completed,10000,,517000,TRUE,Pay Bill Online,254727425310 - DENNIS KIPKOECH CHERUIYOT,,JAG
RC674JJE2J,06/03/2023 00:00,06/03/2023 00:00,Pay Bill Online from 254700518930 - RENE EMMANUEL AURA Acc. fbd,Completed,10000,,507000,TRUE,Pay Bill Online,254700518930 - RENE EMMANUEL AURA,,fbd
RC584J91UK,05/03/2023 23:45,05/03/2023 23:45,Pay Bill from 0114123024 - Sharad Edward Adala Olum Acc. kck,Completed,15000,,497000,TRUE,Pay Utility,0114123024 - Sharad Edward Adala Olum,,kck
RC564HEY3E,05/03/2023 22:47,05/03/2023 22:47,Pay Bill from 254725621394 - RACHAEL WACHIRA Acc. Jfb,Completed,15000,,482000,TRUE,Pay Utility,254725621394 - RACHAEL WACHIRA,,Jfb
RC524F3KC8,05/03/2023 22:06,05/03/2023 22:06,Pay Bill Online from 254799735661 - ALBRIGHT SUNGUTI Acc. JEB,Completed,15000,,467000,TRUE,Pay Bill Online,254799735661 - ALBRIGHT SUNGUTI,,JEB
RC514E0X23,05/03/2023 21:52,05/03/2023 21:52,Pay Bill from 254703935626 - DAVID NGARI ITA Acc. FCD,Completed,1000,,452000,TRUE,Pay Utility,254703935626 - DAVID NGARI ITA,,FCD
RC514CHEDL,05/03/2023 21:34,05/03/2023 21:34,FSI to Pay Bill by 998094 - COOP TO PAYBILL Acc. Kbe via WEB by COOP TO PAYBILL\COOPAYBILLTRNS,Completed,10000,,451000,TRUE,FSI to Pay Bill via API,998094 - COOP TO PAYBILL,,Kbe
RC5243A4M4,05/03/2023 20:06,05/03/2023 20:06,Pay Bill Online from 254723411873 - FREDRICK CHERUIYOT Acc. jbf,Completed,8000,,441000,TRUE,Pay Bill Online,254723411873 - FREDRICK CHERUIYOT,,jbf
RC5540ZR6X,05/03/2023 19:48,05/03/2023 19:48,Pay Bill Online from 254706144834 - WILKISTER OSUMO Acc. HGH,Completed,15000,,433000,TRUE,Pay Bill Online,254706144834 - WILKISTER OSUMO,,HGH
RC563ZJF68,05/03/2023 19:38,05/03/2023 19:38,Pay Bill from 254723328258 - SAMUEL MAINA MURIUKI Acc. IFE,Completed,8000,,418000,TRUE,Pay Utility,254723328258 - SAMUEL MAINA MURIUKI,,IFE
RC503VPO8O,05/03/2023 19:13,05/03/2023 19:13,Pay Bill from 254743487420 - Margaret Wacu Muia Acc. HGD,Completed,10000,,410000,TRUE,Pay Utility,254743487420 - Margaret Wacu Muia,,HGD
RC573TEHD1,05/03/2023 18:57,05/03/2023 18:57,Pay Bill from 254715742045 - FRIDAH KIEMA Acc. HGC,Completed,9500,,400000,TRUE,Pay Utility with OD via STK,254715742045 - FRIDAH KIEMA,,HGC
RC583QR5IO,05/03/2023 18:35,05/03/2023 18:35,Pay Bill Online from 254724821898 - ALLAN GISONI NYANGARESI Acc. DBA,Completed,16000,,390500,TRUE,Pay Bill Online,254724821898 - ALLAN GISONI NYANGARESI,,DBA
RC573O4Q4L,05/03/2023 18:13,05/03/2023 18:13,Pay Bill from 0743789968 - Dallias Thanare Githara Acc. hbb,Completed,5000,,374500,TRUE,Pay Utility,0743789968 - Dallias Thanare Githara,,hbb
RC573KQ1LB,05/03/2023 17:42,05/03/2023 17:42,Pay Bill from 254712283818 - OYUGI OCHIENG Acc. FCB,Completed,16000,,369500,TRUE,Pay Utility,254712283818 - OYUGI OCHIENG,,FCB
RC513IJMXV,05/03/2023 17:22,05/03/2023 17:22,Pay Bill from 0724386624 - FATUMA ISSE YUSSUF Acc. FAB,Completed,16000,,353500,TRUE,Pay Utility,0724386624 - FATUMA ISSE YUSSUF,,FAB
RC5738Z0QZ,05/03/2023 15:45,05/03/2023 15:45,Pay Bill from 0742599061 - Judy Masese Samwel Acc. HGF,Completed,9500,,337500,TRUE,Pay Utility,0742599061 - Judy Masese Samwel,,HGF
RC5837JGFS,05/03/2023 15:30,05/03/2023 15:30,Pay Bill from 254726599835 - LAWRENCE MURIITHI Acc. kdj,Completed,16000,,328000,TRUE,Pay Utility,254726599835 - LAWRENCE MURIITHI,,kdj
RC57364Q7L,05/03/2023 15:15,05/03/2023 15:15,Pay Bill from 254799520265 - SYLVIA KIRINGA NJERI Acc. IAD,Completed,5000,,312000,TRUE,Pay Utility,254799520265 - SYLVIA KIRINGA NJERI,,IAD
RC51338LRJ,05/03/2023 14:44,05/03/2023 14:44,Pay Bill Online from 254723499628 - CLINTON JOSEPH MUHARI Acc. hfh,Completed,16000,,307000,TRUE,Pay Bill Online,254723499628 - CLINTON JOSEPH MUHARI,,hfh
RC5132XS1J,05/03/2023 14:41,05/03/2023 14:41,Pay Bill Online from 254721714178 - PHANICE JEROTICH KIPTOO Acc. FBF,Completed,16000,,291000,TRUE,Pay Bill Online,254721714178 - PHANICE JEROTICH KIPTOO,,FBF
RC5931VVXZ,05/03/2023 14:30,05/03/2023 14:30,Pay Bill Online from 254706549634 - CLINTON OMBASA Acc. FDB,Completed,10000,,275000,TRUE,Pay Bill Online,254706549634 - CLINTON OMBASA,,FDB
RC502RHLPI,05/03/2023 12:33,05/03/2023 12:33,Pay Bill from 254716056537 - KIRUI KIPLANGAT HILLARY Acc. JCJ,Completed,16000,,265000,TRUE,Pay Utility with OD via STK,254716056537 - KIRUI KIPLANGAT HILLARY,,JCJ
RC582P2298,05/03/2023 12:03,05/03/2023 12:03,Pay Bill Online from 254720451253 - JIMMY KIOGORA NKIROTE Acc. KBD,Completed,1000,,249000,TRUE,Pay Utility with OD Online,254720451253 - JIMMY KIOGORA NKIROTE,,KBD
RC592NDYON,05/03/2023 11:42,05/03/2023 11:42,Pay Bill from 254799188200 - PURITY KURUI Acc. HDC,Completed,10500,,248000,TRUE,Pay Utility,254799188200 - PURITY KURUI,,HDC
RC542GQTF6,05/03/2023 10:18,05/03/2023 10:18,Pay Bill from 254712974871 - PAULA WANJIKU GATUI Acc. HEA,Completed,16000,,237500,TRUE,Pay Utility,254712974871 - PAULA WANJIKU GATUI,,HEA
RC552CZ6FP,05/03/2023 09:32,05/03/2023 09:32,Pay Bill Online from 254716315144 - PETER MUNYIRI WAROTERE Acc. FBB,Completed,16000,,221500,TRUE,Pay Bill Online,254716315144 - PETER MUNYIRI WAROTERE,,FBB
RC5726RBYR,05/03/2023 08:10,05/03/2023 08:10,Pay Bill Online from 254724587401 - RAPHAEL IRUNGU WAIHURA Acc. KGG,Completed,10000,,205500,TRUE,Pay Bill Online,254724587401 - RAPHAEL IRUNGU WAIHURA,,KGG
RC52251MAM,05/03/2023 07:43,05/03/2023 07:43,Pay Bill from 254719747910 - KEVIN NDERITU GAKINGO Acc. iDD,Completed,11000,,195500,TRUE,Pay Utility,254719747910 - KEVIN NDERITU GAKINGO,,iDD
RC501ZNRAE,05/03/2023 01:17,05/03/2023 01:17,Pay Bill from 254703935626 - DAVID NGARI ITA Acc. FCD,Completed,1000,,184500,TRUE,Pay Utility,254703935626 - DAVID NGARI ITA,,FCD
RC511YQCK3,05/03/2023 00:11,05/03/2023 00:11,Pay Bill from 254717148989 - ALLAN MUTHONI Acc. HAC,Completed,10000,,183500,TRUE,Pay Utility,254717148989 - ALLAN MUTHONI,,HAC
RC471VL405,04/03/2023 22:31,04/03/2023 22:31,Pay Bill Online from 254720381965 - JAMES NGUGI MWANIKI Acc. JBI,Completed,20000,,173500,TRUE,Pay Bill Online,254720381965 - JAMES NGUGI MWANIKI,,JBI
RC481TFT5Y,04/03/2023 21:55,04/03/2023 21:55,Pay Bill from 0768727221 - ERICK FORESTER BUYUKA Acc. IAC,Completed,9000,,153500,TRUE,Pay Utility,0768727221 - ERICK FORESTER BUYUKA,,IAC
RC421P56CS,04/03/2023 21:04,04/03/2023 21:04,Pay Bill from 254717747775 - QADRA SHEIKH ABDULLAHI Acc. JCI,Completed,20000,,144500,TRUE,Pay Utility,254717747775 - QADRA SHEIKH ABDULLAHI,,JCI
RC411B1C29,04/03/2023 19:16,04/03/2023 19:16,Pay Bill from 254708875278 - ROSEMARY WANJIRU KONYE Acc. HBF,Completed,9000,,124500,TRUE,Pay Utility,254708875278 - ROSEMARY WANJIRU KONYE,,HBF
RC4614AILC,04/03/2023 18:29,04/03/2023 18:29,Pay Bill from 254729160700 - MICAH NDUNGI Acc. HFE,Completed,10500,,115500,TRUE,Pay Utility,254729160700 - MICAH NDUNGI,,HFE
RC45ZZ0SM5,04/03/2023 17:49,04/03/2023 17:49,Pay Bill from 0715806956 - Mercy Jelagat Kalum Acc. FFE,Completed,15000,,105000,TRUE,Pay Utility,0715806956 - Mercy Jelagat Kalum,,FFE
RC44ZXJVEC,04/03/2023 17:37,04/03/2023 17:37,Pay Bill Online from 254710202776 - KELVIN KARIMI MACHARIA Acc. FAD,Completed,11000,,90000,TRUE,Pay Bill Online,254710202776 - KELVIN KARIMI MACHARIA,,FAD
RC48ZX48C6,04/03/2023 17:34,04/03/2023 17:34,Pay Bill Online from 254113678329 - LESLIE NAINI KOIKAI Acc. IBD,Completed,11000,,79000,TRUE,Pay Bill Online,254113678329 - LESLIE NAINI KOIKAI,,IBD
RC43ZBVZ0V,04/03/2023 14:12,04/03/2023 14:12,Pay Bill Online from 254706898046 - STACY AKETCH OCHUKA Acc. KGK,Completed,10000,,68000,TRUE,Pay Bill Online,254706898046 - STACY AKETCH OCHUKA,,KGK
RC46ZBQXI8,04/03/2023 14:11,04/03/2023 14:11,Pay Bill from 254722801352 - NZAMBU NASSON MWATHE Acc. KBG,Completed,5000,,58000,TRUE,Pay Utility with OD via STK,254722801352 - NZAMBU NASSON MWATHE,,KBG
RC44Z6T7Y8,04/03/2023 13:23,04/03/2023 13:23,Pay Bill Online from 254714563486 - BRIAN MMATA MUSERA Acc. KBJ,Completed,16000,,53000,TRUE,Pay Bill Online,254714563486 - BRIAN MMATA MUSERA,,KBJ
RC45Z63MAJ,04/03/2023 13:16,04/03/2023 13:16,Pay Bill from 254700430569 - EDITH   GAKII Acc. DDB,Completed,16000,,37000,TRUE,Pay Utility,254700430569 - EDITH   GAKII,,DDB
RC45Z5QQY9,04/03/2023 13:12,04/03/2023 13:12,Pay Bill from 254114394078 - pascaline iteriteka Acc. JEG,Completed,9000,,21000,TRUE,Pay Utility,254114394078 - pascaline iteriteka,,JEG
RC49Z1O167,04/03/2023 12:31,04/03/2023 12:31,Pay Bill from 254717063324 - Christine Murugi Nyaga Acc. KDF,Completed,10000,,12000,TRUE,Pay Utility,254717063324 - Christine Murugi Nyaga,,KDF
RC47YS0AAF,04/03/2023 10:50,04/03/2023 10:50,Pay Bill from 254724201046 - GIDEON NDOLO Acc. KFH,Completed,2000,,2000,TRUE,Pay Utility,254724201046 - GIDEON NDOLO,,KFH
RC48YOYESO,04/03/2023 10:18,04/03/2023 10:18,Utility Account to Organization Settlement Account,Completed,,-148000,0,TRUE,Utility Account to Organization Settlement Account,979524 - ANCIENT WELLS PROPERTY MANAGERS 2,,
RC46YECCOK,04/03/2023 08:18,04/03/2023 08:18,Pay Bill from 254705425553 - ALEX MATHENGE Acc. JFD,Completed,15000,,148000,TRUE,Pay Utility,254705425553 - ALEX MATHENGE,,JFD
RC48YB4I4C,04/03/2023 07:33,04/03/2023 07:33,Pay Bill Online from 254722728975 - CURTIS MRIGA OMIDO Acc. IAH,Completed,16000,,133000,TRUE,Pay Bill Online,254722728975 - CURTIS MRIGA OMIDO,,IAH
RC33Y37L5N,03/03/2023 23:27,03/03/2023 23:27,Pay Bill from 254720496449 - STANLEY KIPKOECH RONO Acc. FBE,Completed,8000,,117000,TRUE,Pay Utility,254720496449 - STANLEY KIPKOECH RONO,,FBE
RC39XYZYQ7,03/03/2023 22:02,03/03/2023 22:02,Pay Bill Online from 254716702294 - DANIEL MULATI Acc. KBB,Completed,6000,,109000,TRUE,Pay Bill Online,254716702294 - DANIEL MULATI,,KBB
RC37XVY1UX,03/03/2023 21:27,03/03/2023 21:27,Pay Bill from 254715636579 - GRACE KALUKI MULI Acc. FDA ,Completed,16000,,103000,TRUE,Pay Utility,254715636579 - GRACE KALUKI MULI,,FDA
RC35XPQY3T,03/03/2023 20:32,03/03/2023 20:32,Pay Bill Online from 254725218904 - SALOME MUTHONI MWANGI Acc. KFJ,Completed,15000,,87000,TRUE,Pay Bill Online,254725218904 - SALOME MUTHONI MWANGI,,KFJ
RC33XO18MZ,03/03/2023 20:20,03/03/2023 20:20,Pay Bill Online from 254720451253 - JIMMY KIOGORA NKIROTE Acc. KBD,Completed,1000,,72000,TRUE,Pay Utility with OD Online,254720451253 - JIMMY KIOGORA NKIROTE,,KBD
RC39XDP2TH,03/03/2023 19:12,03/03/2023 19:12,Pay Bill from 254701112397 - ELEMA GODANA DIBA Acc. FCA,Completed,500,,71000,TRUE,Pay Utility with OD via STK,254701112397 - ELEMA GODANA DIBA,,FCA
RC30X7HHQA,03/03/2023 18:29,03/03/2023 18:29,Pay Bill from 254707461196 - DAMARICE KARIUKI Acc. fbc,Completed,9500,,70500,TRUE,Pay Utility,254707461196 - DAMARICE KARIUKI,,fbc
RC38X19VPE,03/03/2023 17:40,03/03/2023 17:40,Pay Bill Online from 0722255105 - SALIM OMAR MZEE Acc. FGF,Completed,16000,,61000,TRUE,Pay Bill Online,0722255105 - SALIM OMAR MZEE,,FGF
RC39WZLTHZ,03/03/2023 17:26,03/03/2023 17:26,Pay Bill from 0706563358 - HARRIET NYANCHAMA NYABERI Acc. HBA,Completed,16000,,45000,TRUE,Pay Utility,0706563358 - HARRIET NYANCHAMA NYABERI,,HBA
RC33WQO8HV,03/03/2023 16:01,03/03/2023 16:01,Pay Bill from 0757604316 - MOHAMED AYUB MUCHEKE Acc. FCA,Completed,6000,,29000,TRUE,Pay Utility,0757604316 - MOHAMED AYUB MUCHEKE,,FCA
RC32WQ7JW6,03/03/2023 15:57,03/03/2023 15:57,Pay Bill from 254728854349 - JOSEPH MUSYOKA Acc. IBG,Completed,8000,,23000,TRUE,Pay Utility with OD via STK,254728854349 - JOSEPH MUSYOKA,,IBG
RC38WNUPD0,03/03/2023 15:32,03/03/2023 15:32,Pay Bill from 254729355933 - FELISTAH NJERI WAIRIMU Acc. IDI,Completed,15000,,15000,TRUE,Pay Utility with OD via STK,254729355933 - FELISTAH NJERI WAIRIMU,,IDI
RC38WD6B10,03/03/2023 13:40,03/03/2023 13:40,Utility Account to Organization Settlement Account,Completed,,-460100,0,TRUE,Utility Account to Organization Settlement Account,979524 - ANCIENT WELLS PROPERTY MANAGERS 2,,
RC38W9Y8AU,03/03/2023 13:07,03/03/2023 13:07,Pay Bill Online from 254700187806 - WINNIE OLIVIA AKOTH Acc. JEC,Completed,10000,,460100,TRUE,Pay Bill Online,254700187806 - WINNIE OLIVIA AKOTH,,JEC
RC35W99XCF,03/03/2023 13:00,03/03/2023 13:00,Pay Bill from 254796848496 - IVY WITABA Acc. JBA,Completed,10000,,450100,TRUE,Pay Utility,254796848496 - IVY WITABA,,JBA
RC36W0R9CG,03/03/2023 11:27,03/03/2023 11:27,Pay Bill Online from 254721465713 - RHODA WAMBUI MWANGI Acc. Jfh,Completed,17000,,440100,TRUE,Pay Bill Online,254721465713 - RHODA WAMBUI MWANGI,,Jfh
RC31VXBXIZ,03/03/2023 10:49,03/03/2023 10:49,Pay Bill from 254726753273 - JESSE K MURIRMI NJERU Acc. HCH,Completed,17000,,423100,TRUE,Pay Utility,254726753273 - JESSE K MURIRMI NJERU,,HCH
RC30VVMG1Y,03/03/2023 10:31,03/03/2023 10:31,Pay Bill Online from 254721974995 - BERNICE MANGOKA Acc. KFK,Completed,16000,,406100,TRUE,Pay Utility with OD Online,254721974995 - BERNICE MANGOKA,,KFK
RC35VTIIJZ,03/03/2023 10:08,03/03/2023 10:08,Pay Bill from 0719637249 - grace nyambura mwaura Acc. IAD,Completed,4500,,390100,TRUE,Pay Utility,0719637249 - grace nyambura mwaura,,IAD
RC35VRADDV,03/03/2023 09:44,03/03/2023 09:44,Pay Bill from 254719398942 - NORAH WAYUA MUNYAO Acc. KDA,Completed,16000,,385600,TRUE,Pay Utility,254719398942 - NORAH WAYUA MUNYAO,,KDA
RC32VMRV10,03/03/2023 08:52,03/03/2023 08:52,Pay Bill from 254714060203 - PATRICK MWANGOMBE MSAWUCHI Acc. KEI,Completed,12000,,369600,TRUE,Pay Utility,254714060203 - PATRICK MWANGOMBE MSAWUCHI,,KEI
RC33VE5VPR,03/03/2023 06:43,03/03/2023 06:43,Pay Bill Online from 254722136450 - MARY EVERLYN Acc. JAI,Completed,20000,,357600,TRUE,Pay Bill Online,254722136450 - MARY EVERLYN,,JAI
RC29V7I5N5,02/03/2023 23:03,02/03/2023 23:03,Pay Bill from 254703935626 - DAVID NGARI ITA Acc. FCD,Completed,1000,,337600,TRUE,Pay Utility with OD via STK,254703935626 - DAVID NGARI ITA,,FCD
RC29V5PHNN,02/03/2023 22:23,02/03/2023 22:23,Pay Bill Online from 254799946039 - LUIS OTIENO Acc. IAE,Completed,8000,,336600,TRUE,Pay Bill Online,254799946039 - LUIS OTIENO,,IAE
RC21V5J5KL,02/03/2023 22:20,02/03/2023 22:20,Pay Bill Online from 254721884037 - ERIC MISIANI Acc. HCG,Completed,15000,,328600,TRUE,Pay Utility with OD Online,254721884037 - ERIC MISIANI,,HCG
RC23V4LG4H,02/03/2023 22:05,02/03/2023 22:05,Pay Bill Online from 254728055159 - LEE NDUATI FRANCIS Acc. FEF,Completed,16000,,313600,TRUE,Pay Bill Online,254728055159 - LEE NDUATI FRANCIS,,FEF
RC28V3GCEC,02/03/2023 21:50,02/03/2023 21:50,Pay Bill from 254704934557 - BAKARI KITSAKA Acc. HDG,Completed,15000,,297600,TRUE,Pay Utility,254704934557 - BAKARI KITSAKA,,HDG
RC21V2NH99,02/03/2023 21:40,02/03/2023 21:40,Pay Bill Online from 254723394064 - ANDREW LAGAT Acc. HBG,Completed,15600,,282600,TRUE,Pay Bill Online,254723394064 - ANDREW LAGAT,,HBG
RC22V2F1M6,02/03/2023 21:37,02/03/2023 21:37,Pay Bill Online from 254723394064 - ANDREW LAGAT Acc. HBG,Completed,400,,267000,TRUE,Pay Bill Online,254723394064 - ANDREW LAGAT,,HBG
RC21UQY5O7,02/03/2023 20:00,02/03/2023 20:00,Pay Bill from 254717801919 - MARCELINE AKINYI Acc. IAF,Completed,10000,,266600,TRUE,Pay Utility,254717801919 - MARCELINE AKINYI,,IAF
RC21UQSJIZ,02/03/2023 19:59,02/03/2023 19:59,Pay Bill from 254729450678 - GRACE NDUNGE Acc. fba,Completed,2000,,256600,TRUE,Pay Utility with OD via STK,254729450678 - GRACE NDUNGE,,fba
RC26UQ1LUI,02/03/2023 19:54,02/03/2023 19:54,Pay Bill from 254729450678 - GRACE NDUNGE Acc. fba,Completed,5000,,254600,TRUE,Pay Utility with OD via STK,254729450678 - GRACE NDUNGE,,fba
RC25UPK0A5,02/03/2023 19:51,02/03/2023 19:51,Pay Bill from 254725754547 - MWACHIRO GEORGE DECHE Acc. DFC,Completed,20000,,249600,TRUE,Pay Utility,254725754547 - MWACHIRO GEORGE DECHE,,DFC
RC28UNCNF0,02/03/2023 19:36,02/03/2023 19:36,Pay Bill from 254729450678 - GRACE NDUNGE Acc. FBA,Completed,8000,,229600,TRUE,Pay Utility,254729450678 - GRACE NDUNGE,,FBA
RC28UJVML0,02/03/2023 19:15,02/03/2023 19:15,Pay Bill from 254724852503 - GEOFREY YEGO Acc. JFF,Completed,10000,,221600,TRUE,Pay Utility,254724852503 - GEOFREY YEGO,,JFF
RC24UJDSM2,02/03/2023 19:12,02/03/2023 19:12,Pay Bill Online from 254707966839 - DENNIS KIPTOO MAIYO Acc. KFC,Completed,21000,,211600,TRUE,Pay Bill Online,254707966839 - DENNIS KIPTOO MAIYO,,KFC
RC21UDJRJN,02/03/2023 18:31,02/03/2023 18:31,Pay Bill from 254718513411 - Michelle mwangi Acc. Had,Completed,10000,,190600,TRUE,Pay Utility,254718513411 - Michelle mwangi,,Had
RC28UAV6OC,02/03/2023 18:10,02/03/2023 18:10,Pay Bill Online from 254729097858 - AMBROSE ADEYA AHAWO Acc. KCF,Completed,10000,,180600,TRUE,Pay Bill Online,254729097858 - AMBROSE ADEYA AHAWO,,KCF
RC21U9YNI7,02/03/2023 18:02,02/03/2023 18:02,Pay Bill from 254720550403 - GRACE WANGONDU Acc. jfi,Completed,20000,,170600,TRUE,Pay Utility,254720550403 - GRACE WANGONDU,,jfi
RC23U6FK0R,02/03/2023 17:32,02/03/2023 17:32,Pay Bill Online from 254719134037 - KELVIN KITOO Acc. FAA,Completed,16000,,150600,TRUE,Pay Utility with OD Online,254719134037 - KELVIN KITOO,,FAA
RC23TX6TPL,02/03/2023 16:02,02/03/2023 16:02,Pay Bill from 254712367486 - JACKLINE JUMA Acc. ked,Completed,11000,,134600,TRUE,Pay Utility,254712367486 - JACKLINE JUMA,,ked
RC26TUPX9U,02/03/2023 15:35,02/03/2023 15:35,Pay Bill from 254728084427 - MARY NABWIRE OKELLO Acc. FDF,Completed,16000,,123600,TRUE,Pay Utility,254728084427 - MARY NABWIRE OKELLO,,FDF
RC29TQRLZV,02/03/2023 14:51,02/03/2023 14:51,Pay Bill from 254723954911 - JAMES KILAVI Acc. ICG,Completed,9500,,107600,TRUE,Pay Utility,254723954911 - JAMES KILAVI,,ICG
RC29TQFF8B,02/03/2023 14:47,02/03/2023 14:47,Pay Bill from 254700811449 - JOHN MULIMA ENANE Acc. HCE,Completed,10500,,98100,TRUE,Pay Utility,254700811449 - JOHN MULIMA ENANE,,HCE
RC27TPOH6V,02/03/2023 14:39,02/03/2023 14:39,Pay Bill Online from 254718138578 - PAULINE KIOKO Acc. KFD,Completed,12000,,87600,TRUE,Pay Bill Online,254718138578 - PAULINE KIOKO,,KFD
RC24TCG22S,02/03/2023 12:19,02/03/2023 12:19,Pay Bill from 254791848695 - RACHEAL WANZA MUIA Acc. wines,Completed,6000,,75600,TRUE,Pay Utility,254791848695 - RACHEAL WANZA MUIA,,wines
RC20TCBOUO,02/03/2023 12:17,02/03/2023 12:17,Pay Bill from 254791848695 - RACHEAL WANZA MUIA Acc. wines,Completed,600,,69600,TRUE,Pay Utility,254791848695 - RACHEAL WANZA MUIA,,wines
RC20TBVS7O,02/03/2023 12:12,02/03/2023 12:12,Pay Bill Online from 254703180395 - JANE NYAGUTHII MWAGO Acc. IBE,Completed,8000,,69000,TRUE,Pay Bill Online,254703180395 - JANE NYAGUTHII MWAGO,,IBE
RC29T57V4X,02/03/2023 10:58,02/03/2023 10:58,Pay Bill from 254725771056 - CHARLES MURAGURI Acc. FCE,Completed,15000,,61000,TRUE,Pay Utility,254725771056 - CHARLES MURAGURI,,FCE
RC27T03A9B,02/03/2023 10:01,02/03/2023 10:01,Pay Bill from 254711650034 - Lucky Ngoya Acc. JAA,Completed,20000,,46000,TRUE,Pay Utility,254711650034 - Lucky Ngoya,,JAA
RC26SZK6CU,02/03/2023 09:56,02/03/2023 09:56,Pay Bill from 254741223822 - Rhoyce Kiptarus Boiyo Acc. FEC,Completed,9000,,26000,TRUE,Pay Utility,254741223822 - Rhoyce Kiptarus Boiyo,,FEC
RC24STXILK,02/03/2023 08:50,02/03/2023 08:50,Pay Bill from 254716881682 - JUSTINE FAYUMA OKWEMBA Acc. HAA,Completed,17000,,17000,TRUE,Pay Utility,254716881682 - JUSTINE FAYUMA OKWEMBA,,HAA
RC20SR46G4,02/03/2023 08:14,02/03/2023 08:14,Utility Account to Organization Settlement Account,Completed,,-200500,0,TRUE,Utility Account to Organization Settlement Account,979524 - ANCIENT WELLS PROPERTY MANAGERS 2,,
RC28SOFOBQ,02/03/2023 07:35,02/03/2023 07:35,Pay Bill from 254723929380 - RHODAH K WAMBUA Acc. HEG,Completed,15000,,200500,TRUE,Pay Utility,254723929380 - RHODAH K WAMBUA,,HEG
RC21SJY56T,02/03/2023 04:38,02/03/2023 04:38,Pay Bill Online from 254720451253 - JIMMY KIOGORA NKIROTE Acc. KBD,Completed,1000,,185500,TRUE,Pay Utility with OD Online,254720451253 - JIMMY KIOGORA NKIROTE,,KBD
RC15S9R9V1,01/03/2023 21:23,01/03/2023 21:23,Pay Bill from 254725062550 - FRANKLINE MASSAM Acc. KAF,Completed,10000,,184500,TRUE,Pay Utility,254725062550 - FRANKLINE MASSAM,,KAF
RC16S9IOZC,01/03/2023 21:21,01/03/2023 21:21,Pay Bill from 254745338401 - mirriam ngina jane Acc. KGC,Completed,9000,,174500,TRUE,Pay Utility,254745338401 - mirriam ngina jane,,KGC
RC16S8JM04,01/03/2023 21:11,01/03/2023 21:11,Pay Bill from 254720375006 - JACOB KANGOGO Acc. IBA,Completed,15000,,165500,TRUE,Pay Utility,254720375006 - JACOB KANGOGO,,IBA
RC14S1U3WA,01/03/2023 20:16,01/03/2023 20:16,Pay Bill from 254711515672 - ALLAN MUTEMBEI Acc. IEI,Completed,15000,,150500,TRUE,Pay Utility,254711515672 - ALLAN MUTEMBEI,,IEI
RC12RYOZB6,01/03/2023 19:54,01/03/2023 19:54,Pay Bill from 254717726012 - WINFRED MUENI PETER Acc. IDA,Completed,16000,,135500,TRUE,Pay Utility,254717726012 - WINFRED MUENI PETER,,IDA
RC16RWKDD6,01/03/2023 19:41,01/03/2023 19:41,Pay Bill Online from 254742023558 - PEACEMARY NJERI MAINA Acc. JBC,Completed,11000,,119500,TRUE,Pay Bill Online,254742023558 - PEACEMARY NJERI MAINA,,JBC
RC14ROUE86,01/03/2023 18:52,01/03/2023 18:52,Pay Bill Online from 254720696119 - DUNCAN OMONDI OKETCH Acc. FAE,Completed,15000,,108500,TRUE,Pay Bill Online,254720696119 - DUNCAN OMONDI OKETCH,,FAE
RC14RLSRSI,01/03/2023 18:30,01/03/2023 18:30,Pay Bill from 0708143086 - Bonface Asigo Yanguza Acc. IAG,Completed,9000,,93500,TRUE,Pay Utility,0708143086 - Bonface Asigo Yanguza,,IAG
RC15R84BRN,01/03/2023 16:29,01/03/2023 16:29,Pay Bill from 254723389177 - NELSON MOI Acc. ibf,Completed,4500,,84500,TRUE,Pay Utility,254723389177 - NELSON MOI,,ibf
RC14R3U45U,01/03/2023 15:43,01/03/2023 15:43,Pay Bill from 254791086424 - Martha Achieng Arodi Acc. FDC,Completed,9000,,80000,TRUE,Pay Utility,254791086424 - Martha Achieng Arodi,,FDC
RC13R0H9FF,01/03/2023 15:06,01/03/2023 15:06,Pay Bill Online from 254729796719 - JACINTA WANJIKU NJERI Acc. FFF,Completed,17000,,71000,TRUE,Pay Bill Online,254729796719 - JACINTA WANJIKU NJERI,,FFF
RC18QVIGBG,01/03/2023 14:11,01/03/2023 14:11,Pay Bill from 254724201046 - GIDEON NDOLO Acc. KFH,Completed,10000,,54000,TRUE,Pay Utility,254724201046 - GIDEON NDOLO,,KFH
RC10QT5CYY,01/03/2023 13:46,01/03/2023 13:46,Pay Bill Online from 254720787158 - AMOS CHELANG'A Acc. KCG,Completed,10000,,44000,TRUE,Pay Bill Online,254720787158 - AMOS CHELANG'A,,KCG
RC19QT31HD,01/03/2023 13:45,01/03/2023 13:45,Pay Bill from 254717690295 - MARCELLA JELIMO Acc. IGE,Completed,9000,,34000,TRUE,Pay Utility,254717690295 - MARCELLA JELIMO,,IGE
RC18QJPC8S,01/03/2023 12:03,01/03/2023 12:03,Pay Bill from 0705687898 - JORDAN KIPNGETICH THOMAS KIKWAI Acc. kff,Completed,6000,,25000,TRUE,Pay Utility,0705687898 - JORDAN KIPNGETICH THOMAS KIKWAI,,kff
RC18QI665M,01/03/2023 11:45,01/03/2023 11:45,Pay Bill from 254721784820 - YVONNE OKELLO Acc. IEC,Completed,9000,,19000,TRUE,Pay Utility,254721784820 - YVONNE OKELLO,,IEC
RC15QG09B3,01/03/2023 11:20,01/03/2023 11:20,Pay Bill from 0705959083 - Mary Rita Osoma Acc. HED,Completed,10000,,10000,TRUE,Pay Utility,0705959083 - Mary Rita Osoma,,HED
RC18QDO1OU,01/03/2023 10:54,01/03/2023 10:54,Utility Account to Organization Settlement Account,Completed,,-249000,0,TRUE,Utility Account to Organization Settlement Account,979524 - ANCIENT WELLS PROPERTY MANAGERS 2,,
RC18QCLFUO,01/03/2023 10:42,01/03/2023 10:42,Pay Bill Online from 254795510441 - LEWIS MUEMA Acc. KEB,Completed,16000,,249000,TRUE,Pay Bill Online,254795510441 - LEWIS MUEMA,,KEB
RC19Q9HE99,01/03/2023 10:07,01/03/2023 10:07,Pay Bill from 254724379488 - NICHOLAS KOOME Acc. JDE,Completed,9500,,233000,TRUE,Pay Utility,254724379488 - NICHOLAS KOOME,,JDE
RC17Q4E4EP,01/03/2023 09:08,01/03/2023 09:08,Pay Bill from 254727095667 - HILDA JEPKEMOI KIMELIEL Acc. JBH,Completed,17000,,223500,TRUE,Pay Utility,254727095667 - HILDA JEPKEMOI KIMELIEL,,JBH
RC15Q43WZ5,01/03/2023 09:04,01/03/2023 09:04,Pay Bill Online from 254726116777 - MARY NDUTA GOSHO Acc. JDB ,Completed,15000,,206500,TRUE,Pay Bill Online,254726116777 - MARY NDUTA GOSHO,,JDB
RC19Q1F6DD,01/03/2023 08:30,01/03/2023 08:30,Pay Bill Online from 254715892656 - DENNIS MUSYOKA MUOKI Acc. kfa,Completed,7000,,191500,TRUE,Pay Bill Online,254715892656 - DENNIS MUSYOKA MUOKI,,kfa
RC17PTGFVB,01/03/2023 05:37,01/03/2023 05:37,Pay Bill from 254720718594 - GEORGE MOTURI MATIANA Acc. jbe,Completed,9000,,184500,TRUE,Pay Utility,254720718594 - GEORGE MOTURI MATIANA,,jbe
RC12PQXHXI,01/03/2023 00:17,01/03/2023 00:17,Pay Bill Online from 254706784429 - ROSE JEPKOECH RUTTO Acc. IFI,Completed,15000,,175500,TRUE,Pay Bill Online,254706784429 - ROSE JEPKOECH RUTTO,,IFI
