Receipt No.,Completion Time,Initiation Time,Details,Transaction Status,Paid In,Withdrawn,Balance,Balance Confirmed,Reason Type,Other Party Info,Linked Transaction ID,A/C No.
PC359V3RJB,03/03/2021 13:24,03/03/2021 13:24,Utility Account to Organization Settlement Account,Completed,,-11000,0,TRUE,Utility Account to Organization Settlement Account,887264 - ANCIENT WELLS LTD 2,,
PC2197SMTL,02/03/2021 20:34,02/03/2021 20:34,Pay Bill from 254715979027 - NICHOLAS MWANGI Acc. leah b3,Completed,11000,,11000,TRUE,Pay Utility,254715979027 - NICHOLAS MWANGI,,leah
PC278N2BHV,02/03/2021 14:34,02/03/2021 14:34,Utility Account to Organization Settlement Account,Completed,,-2000,0,TRUE,Utility Account to Organization Settlement Account,887264 - ANCIENT WELLS LTD 2,,
PC117GXW7L,01/03/2021 16:20,01/03/2021 16:20,Pay Bill from 254723174583 - BRIAN ODHIAMBO OUMA Acc. B3,Completed,2000,,2000,TRUE,Pay Utility,254723174583 - BRIAN ODHIAMBO OUMA,,B3
PBJ1TMKQLD,19/02/2021 07:29,19/02/2021 07:29,Utility Account to Organization Settlement Account,Completed,,-10750,0,TRUE,Utility Account to Organization Settlement Account,887264 - ANCIENT WELLS LTD 2,,
PBI5TI2AJ7,18/02/2021 22:07,18/02/2021 22:07,Pay Bill from 254715979027 - NICHOLAS MWANGI Acc. leah b3,Completed,10000,,10750,TRUE,Pay Utility with OD via STK,254715979027 - NICHOLAS MWANGI,,leah
PBI2THZCBI,18/02/2021 22:04,18/02/2021 22:04,Pay Bill from 254726403551 - VICTOR KIRUMA Acc. u2,Completed,750,,750,TRUE,Pay Utility,254726403551 - VICTOR KIRUMA,,u2
PBI8SXCDRA,18/02/2021 15:37,18/02/2021 15:37,Utility Account to Organization Settlement Account,Completed,,-8000,0,TRUE,Utility Account to Organization Settlement Account,887264 - ANCIENT WELLS LTD 2,,
PBI1SIWAF3,18/02/2021 09:41,18/02/2021 09:41,Pay Bill from 254720537967 - PIUS WAMBUA Acc. U4,Completed,8000,,8000,TRUE,Pay Utility with OD via STK,254720537967 - PIUS WAMBUA,,U4
PBF3OZVMLF,15/02/2021 11:34,15/02/2021 11:34,Utility Account to Organization Settlement Account,Completed,,-4000,0,TRUE,Utility Account to Organization Settlement Account,887264 - ANCIENT WELLS LTD 2,,
PBD6ND4WCC,13/02/2021 20:12,13/02/2021 20:12,Pay Bill Online from 254723174583 - BRIAN ODHIAMBO OUMA Acc. b3,Completed,4000,,4000,TRUE,Pay Bill Online,254723174583 - BRIAN ODHIAMBO OUMA,,b3
PBD7MNKDSV,13/02/2021 12:20,13/02/2021 12:20,Utility Account to Organization Settlement Account,Completed,,-4000,0,TRUE,Utility Account to Organization Settlement Account,887264 - ANCIENT WELLS LTD 2,,
PBD6MFT3S4,13/02/2021 09:17,13/02/2021 09:17,Pay Bill from 254723174583 - BRIAN ODHIAMBO OUMA Acc. B3,Completed,4000,,4000,TRUE,Pay Utility,254723174583 - BRIAN ODHIAMBO OUMA,,B3
PBC2LWTHZS,12/02/2021 18:28,12/02/2021 18:28,Utility Account to Organization Settlement Account,Completed,,-5000,0,TRUE,Utility Account to Organization Settlement Account,887264 - ANCIENT WELLS LTD 2,,
PBB4L0DVFO,11/02/2021 21:45,11/02/2021 21:45,Pay Bill from 254741791919 - Linet Mongina Maraga Acc. linet,Completed,5000,,5000,TRUE,Pay Utility,254741791919 - Linet Mongina Maraga,,linet
PBB0KFMNUK,11/02/2021 15:20,11/02/2021 15:20,Utility Account to Organization Settlement Account,Completed,,-29000,0,TRUE,Utility Account to Organization Settlement Account,887264 - ANCIENT WELLS LTD 2,,
PBB3KDTPV5,11/02/2021 14:37,11/02/2021 14:37,Pay Bill from 254725014210 - FREDRICK MOUNDE Acc. Epz mh,Completed,29000,,29000,TRUE,Pay Utility,254725014210 - FREDRICK MOUNDE,,Epz
PBB1JV7BC1,11/02/2021 00:47,11/02/2021 00:47,Utility Account to Organization Settlement Account,Completed,,-47000,0,TRUE,Utility Account to Organization Settlement Account,887264 - ANCIENT WELLS LTD 2,,
PBA4JAJ4V6,10/02/2021 16:43,10/02/2021 16:43,Pay Bill from 254728912446 - GRACE NJERI KIMANI Acc. ancient Wells LTD,Completed,40000,,47000,TRUE,Pay Utility,254728912446 - GRACE NJERI KIMANI,,ancient
PB84GSFGHW,08/02/2021 15:46,08/02/2021 15:46,Pay Bill from 0745710417 - Okusimba Sylvia Elizabeth Acc. B7,Completed,7000,,7000,TRUE,Pay Utility,0745710417 - Okusimba Sylvia Elizabeth,,B7
PB81G99GL5,08/02/2021 07:57,08/02/2021 07:57,Utility Account to Organization Settlement Account,Completed,,-13000,0,TRUE,Utility Account to Organization Settlement Account,887264 - ANCIENT WELLS LTD 2,,
PB68ELZ5QM,06/02/2021 18:06,06/02/2021 18:06,Pay Bill from 254706011442 - REUBEN MURIUKI Acc. B5,Completed,6000,,13000,TRUE,Pay Utility,254706011442 - REUBEN MURIUKI,,B5
PB50DM9OUM,05/02/2021 21:05,05/02/2021 21:05,Pay Bill from 254705755947 - METRINE REPHAH MATETE Acc. A3,Completed,7000,,7000,TRUE,Pay Utility,254705755947 - METRINE REPHAH MATETE,,A3
PB46BFJ0JC,04/02/2021 09:51,04/02/2021 09:51,Utility Account to Organization Settlement Account,Completed,,-5000,0,TRUE,Utility Account to Organization Settlement Account,887264 - ANCIENT WELLS LTD 2,,
PB30AD0KKM,03/02/2021 12:22,03/02/2021 12:22,Pay Bill from 0743263203 - Patrick theuri wachira Acc. U1,Completed,5000,,5000,TRUE,Pay Utility with OD via STK,0743263203 - Patrick theuri wachira,,U1
PB2491X7RW,02/02/2021 11:24,02/02/2021 11:24,Utility Account to Organization Settlement Account,Completed,,-9500,0,TRUE,Utility Account to Organization Settlement Account,887264 - ANCIENT WELLS LTD 2,,
PB168MOV9C,01/02/2021 20:55,01/02/2021 20:55,Pay Bill from 254726403551 - VICTOR KIRUMA Acc. u2,Completed,5500,,9500,TRUE,Pay Utility,254726403551 - VICTOR KIRUMA,,u2
PB177YTFYX,01/02/2021 13:31,01/02/2021 13:31,Pay Bill from 254726524831 - ANDREW ODHIAMBO Acc. Andrew odhiambo ,Completed,4000,,4000,TRUE,Pay Utility,254726524831 - ANDREW ODHIAMBO,,Andrew
