Receipt No.,Completion Time,Initiation Time,Details,Transaction Status,Paid In,Withdrawn,Balance,Balance Confirmed,Reason Type,Other Party Info,Linked Transaction ID,A/C No.
OC56J8830I,05/03/2020 00:08,05/03/2020 00:08,Pay Bill Online from 254720723193 - MIKA KEVIN OMONDI Acc. v03,Completed,6600,,125400,TRUE,Pay Bill Online,254720723193 - MIKA KEVIN OMONDI,,v03
OC40J7DW4K,04/03/2020 22:26,04/03/2020 22:26,Pay Bill from 254708915764 - GEORGE WAHOME Acc. V18,Completed,6600,,118800,TRUE,Pay Utility,254708915764 - GEORGE WAHOME,,V18
OC44J1DOBG,04/03/2020 19:28,04/03/2020 19:28,Pay Bill from 254712091662 - BENARD OMONDI ROBY Acc. Benard V16,Completed,6600,,112200,TRUE,Pay Utility,254712091662 - BENARD OMONDI ROBY,,Benard
OC48IV5M52,04/03/2020 17:05,04/03/2020 17:05,Pay Bill from 254795690554 - BENARD SIMIYU WANJALA Acc. House No. V8,Completed,6600,,105600,TRUE,Pay Utility,254795690554 - BENARD SIMIYU WANJALA,,House
OC45IRBS8N,04/03/2020 15:06,04/03/2020 15:06,Pay Bill from 254718417450 - HARON ASUMA OROKO Acc. haron V 47,Completed,6600,,99000,TRUE,Pay Utility,254718417450 - HARON ASUMA OROKO,,haron
OC42IIKCOK,04/03/2020 10:08,04/03/2020 10:08,Pay Bill from 254723935789 - EDWIN MWITI Acc. V43,Completed,6600,,92400,TRUE,Pay Utility,254723935789 - EDWIN MWITI,,V43
OC47IIJ18X,04/03/2020 10:07,04/03/2020 10:07,Pay Bill from 254718818610 - HANNAH NALIAKA Acc. V23,Completed,6600,,85800,TRUE,Pay Utility,254718818610 - HANNAH NALIAKA,,V23
OC36IB3US6,03/03/2020 21:35,03/03/2020 21:35,Pay Bill from 254718359438 - AHMAD TAHIR MACHENGO Acc. V11,Completed,6600,,79200,TRUE,Pay Utility,254718359438 - AHMAD TAHIR MACHENGO,,V11
OC36I399PC,03/03/2020 18:37,03/03/2020 18:37,Pay Bill from 254705670064 - margaret wahu wachira Acc. v35,Completed,6600,,72600,TRUE,Pay Utility,254705670064 - margaret wahu wachira,,v35
OC36HHOLUW,03/03/2020 05:33,03/03/2020 05:33,Pay Bill from 254722307003 - NIGEL BOMETT Acc. V01,Completed,6600,,66000,TRUE,Pay Utility,254722307003 - NIGEL BOMETT,,V01
