Receipt No.,Completion Time,Initiation Time,Details,Transaction Status,Paid In,Withdrawn,Balance,Balance Confirmed,Reason Type,Other Party Info,Linked Transaction ID,A/C No.
OLU14K9H29,30/12/2020 14:25,30/12/2020 14:25,Utility Account to Organization Settlement Account,Completed,,-17500,0,TRUE,Utility Account to Organization Settlement Account,887674 - ANCIENT WELLS LTD 1,,
OLU34H0I3L,30/12/2020 13:12,30/12/2020 13:12,Pay Bill from 254700904994 - HUSSEIN HASSAN LAMA Acc. v57,Completed,17500,,17500,TRUE,Pay Utility,254700904994 - HUSSEIN HASSAN LAMA,,v57
OLT73XAZ4H,29/12/2020 20:53,29/12/2020 20:53,Utility Account to Organization Settlement Account,Completed,,-17500,0,TRUE,Utility Account to Organization Settlement Account,887674 - ANCIENT WELLS LTD 1,,
OLT63DHUP8,29/12/2020 14:35,29/12/2020 14:35,Pay Bill from 254722648389 - SUDI MOSES Acc. V31,Completed,9500,,17500,TRUE,Pay Utility,254722648389 - SUDI MOSES,,V31
OLT43A6YAQ,29/12/2020 13:18,29/12/2020 13:18,Pay Bill from 254722648389 - SUDI MOSES Acc. V31,Completed,8000,,8000,TRUE,Pay Utility,254722648389 - SUDI MOSES,,V31
OLT937Y09B,29/12/2020 12:27,29/12/2020 12:27,Utility Account to Organization Settlement Account,Completed,,-6600,0,TRUE,Utility Account to Organization Settlement Account,887674 - ANCIENT WELLS LTD 1,,
OLS8299GUW,28/12/2020 15:30,28/12/2020 15:30,Pay Bill from 254718417450 - HARON ASUMA OROKO Acc. Haron v47,Completed,6600,,6600,TRUE,Pay Utility,254718417450 - HARON ASUMA OROKO,,Haron
OLS821G4EQ,28/12/2020 12:27,28/12/2020 12:27,Utility Account to Organization Settlement Account,Completed,,-55900,0,TRUE,Utility Account to Organization Settlement Account,887674 - ANCIENT WELLS LTD 1,,
OLS61ZO8AS,28/12/2020 11:46,28/12/2020 11:46,Pay Bill from 254702170403 - LUCY KATHAMBI KOOME Acc. v25,Completed,6600,,55900,TRUE,Pay Utility,254702170403 - LUCY KATHAMBI KOOME,,v25
OLR11CN2Z3,27/12/2020 18:20,27/12/2020 18:20,Pay Bill from 254712569636 - BENSON NYAGA Acc. v60,Completed,6600,,49300,TRUE,Pay Utility,254712569636 - BENSON NYAGA,,v60
OLR6137CPI,27/12/2020 14:37,27/12/2020 14:37,Pay Bill from 254702921564 - DENNIS MAHERO SHIUNDU Acc. Dennis v21,Completed,1300,,42700,TRUE,Pay Utility,254702921564 - DENNIS MAHERO SHIUNDU,,Dennis
OLR6ZU75U4,27/12/2020 10:28,27/12/2020 10:28,Pay Bill from 254702921564 - DENNIS MAHERO SHIUNDU Acc. Dennis v21,Completed,2400,,41400,TRUE,Pay Utility,254702921564 - DENNIS MAHERO SHIUNDU,,Dennis
OLR7ZTFPH1,27/12/2020 10:06,27/12/2020 10:06,Pay Bill from 254702343078 - JOSEPH EBENYO Acc. V10 Joseph ,Completed,6600,,39000,TRUE,Pay Utility,254702343078 - JOSEPH EBENYO,,V10
OLR3ZQ7IJD,27/12/2020 08:26,27/12/2020 08:26,Pay Bill from 0746254323 - EPHANTUS OKUMU ODUNDO Acc. v34,Completed,14000,,32400,TRUE,Pay Utility,0746254323 - EPHANTUS OKUMU ODUNDO,,v34
OLQ1ZBOWPJ,26/12/2020 18:27,26/12/2020 18:27,Pay Bill from 254723389922 - ANNE WANJIKU Acc. v53,Completed,6800,,18400,TRUE,Pay Utility,254723389922 - ANNE WANJIKU,,v53
OLP4XJGTVG,25/12/2020 09:12,25/12/2020 09:12,Pay Bill from 254790610309 - MESHACK CHUMBA Acc. V39,Completed,6600,,11600,TRUE,Pay Utility,254790610309 - MESHACK CHUMBA,,V39
OLO9WTK319,24/12/2020 17:54,24/12/2020 17:54,Pay Bill from 254704480791 - LYDIA AWUOR OMENO Acc. Samson v33,Completed,5000,,5000,TRUE,Pay Utility with OD via STK,254704480791 - LYDIA AWUOR OMENO,,Samson
OLO4WRIBA6,24/12/2020 17:25,24/12/2020 17:25,Utility Account to Organization Settlement Account,Completed,,-16200,0,TRUE,Utility Account to Organization Settlement Account,887674 - ANCIENT WELLS LTD 1,,
OLO9WHHVXT,24/12/2020 14:43,24/12/2020 14:43,Pay Bill from 0795807227 - Lucy Ncekei Kimathi Acc. V36,Completed,3000,,16200,TRUE,Pay Utility,0795807227 - Lucy Ncekei Kimathi,,V36
OLO5VUNYJN,24/12/2020 07:08,24/12/2020 07:08,Pay Bill from 254712305555 - peris kiragu Acc. V17,Completed,6600,,13200,TRUE,Pay Utility,254712305555 - peris kiragu,,V17
OLN2V24LFO,23/12/2020 15:13,23/12/2020 15:13,Pay Bill from 254720623535 - JOSEPH MUTURI KAMAU Acc. V32,Completed,6600,,6600,TRUE,Pay Utility,254720623535 - JOSEPH MUTURI KAMAU,,V32
OLN8V0XW52,23/12/2020 14:49,23/12/2020 14:49,Utility Account to Organization Settlement Account,Completed,,-6600,0,TRUE,Utility Account to Organization Settlement Account,887674 - ANCIENT WELLS LTD 1,,
OLN6UH0BLC,23/12/2020 07:39,23/12/2020 07:39,Pay Bill from 254707049818 - LUCKY TSUMA Acc. v19,Completed,6600,,6600,TRUE,Pay Utility,254707049818 - LUCKY TSUMA,,v19
OLM2TLVDBM,22/12/2020 13:46,22/12/2020 13:46,Utility Account to Organization Settlement Account,Completed,,-7000,0,TRUE,Utility Account to Organization Settlement Account,887674 - ANCIENT WELLS LTD 1,,
OLL5S8QP71,21/12/2020 12:31,21/12/2020 12:31,Pay Bill Online from 254702118125 - ROTICH BETHWEL Acc. V20,Completed,7000,,7000,TRUE,Pay Bill Online,254702118125 - ROTICH BETHWEL,,V20
OLK3R8E4BJ,20/12/2020 15:01,20/12/2020 15:01,Utility Account to Organization Settlement Account,Completed,,-4600,0,TRUE,Utility Account to Organization Settlement Account,887674 - ANCIENT WELLS LTD 1,,
OLJ8Q66ETC,19/12/2020 16:59,19/12/2020 16:59,Pay Bill from 254723389922 - ANNE WANJIKU Acc. v53,Completed,2000,,4600,TRUE,Pay Utility,254723389922 - ANNE WANJIKU,,v53
OLJ4Q5AQHU,19/12/2020 16:42,19/12/2020 16:42,Pay Bill from 254758070694 - naomi ndinda nzamalu Acc. v28,Completed,2600,,2600,TRUE,Pay Utility,254758070694 - naomi ndinda nzamalu,,v28
OLJ7PSTSCZ,19/12/2020 12:24,19/12/2020 12:24,Utility Account to Organization Settlement Account,Completed,,-23700,0,TRUE,Utility Account to Organization Settlement Account,887674 - ANCIENT WELLS LTD 1,,
OLI6OW09YM,18/12/2020 17:21,18/12/2020 17:21,Pay Bill from 254721510646 - ANTHONY IRUNGU KARIUKI Acc. V41,Completed,6600,,23700,TRUE,Pay Utility,254721510646 - ANTHONY IRUNGU KARIUKI,,V41
OLI6OOG250,18/12/2020 14:49,18/12/2020 14:49,Pay Bill from 254705133053 - PASCAL OPAR Acc. pascalv45,Completed,6600,,17100,TRUE,Pay Utility,254705133053 - PASCAL OPAR,,pascalv45
OLI9ONDZSV,18/12/2020 14:26,18/12/2020 14:26,Pay Bill from 254702921564 - DENNIS MAHERO SHIUNDU Acc. Dennis v21,Completed,2000,,10500,TRUE,Pay Utility,254702921564 - DENNIS MAHERO SHIUNDU,,Dennis
OLI8OL8HZ8,18/12/2020 13:41,18/12/2020 13:41,Pay Bill from 254712305555 - peris kiragu Acc. V17,Completed,1000,,8500,TRUE,Pay Utility,254712305555 - peris kiragu,,V17
OLI8OKJ38E,18/12/2020 13:26,18/12/2020 13:26,Pay Bill Online from 254720360607 - MARITIM SUSAN CHEBET Acc. V49,Completed,7500,,7500,TRUE,Pay Bill Online,254720360607 - MARITIM SUSAN CHEBET,,V49
OLI7OKEM7P,18/12/2020 13:23,18/12/2020 13:23,Utility Account to Organization Settlement Account,Completed,,-13000,0,TRUE,Utility Account to Organization Settlement Account,887674 - ANCIENT WELLS LTD 1,,
OLI4OJYH1O,18/12/2020 13:14,18/12/2020 13:14,Pay Bill from 254797665088 - INNOCENT WANAMI Acc. v2,Completed,6400,,13000,TRUE,Pay Utility with OD via STK,254797665088 - INNOCENT WANAMI,,v2
OLI5OE0RW3,18/12/2020 11:03,18/12/2020 11:03,Pay Bill from 254725756974 - MARTIN MUGAMBI Acc. v56,Completed,6600,,6600,TRUE,Pay Utility,254725756974 - MARTIN MUGAMBI,,v56
OLF5KSNH2F,15/12/2020 14:08,15/12/2020 14:08,Utility Account to Organization Settlement Account,Completed,,-2600,0,TRUE,Utility Account to Organization Settlement Account,887674 - ANCIENT WELLS LTD 1,,
OLF0KO7B0I,15/12/2020 12:29,15/12/2020 12:29,Pay Bill Online from 254725639425 - CHRISPINE OMONDI Acc. V13,Completed,600,,2600,TRUE,Pay Bill Online,254725639425 - CHRISPINE OMONDI,,V13
OLE4K6LL4M,14/12/2020 21:09,14/12/2020 21:09,Pay Bill Online from 254725639425 - CHRISPINE OMONDI Acc. V13,Completed,2000,,2000,TRUE,Pay Bill Online,254725639425 - CHRISPINE OMONDI,,V13
OLD2IMKOA8,13/12/2020 17:34,13/12/2020 17:34,Utility Account to Organization Settlement Account,Completed,,-4000,0,TRUE,Utility Account to Organization Settlement Account,887674 - ANCIENT WELLS LTD 1,,
OLD1I9K2P7,13/12/2020 12:34,13/12/2020 12:34,Pay Bill from 254758070694 - naomi ndinda nzamalu Acc. v28,Completed,4000,,4000,TRUE,Pay Utility,254758070694 - naomi ndinda nzamalu,,v28
OLD6I3YQ3C,13/12/2020 10:04,13/12/2020 10:04,Utility Account to Organization Settlement Account,Completed,,-6600,0,TRUE,Utility Account to Organization Settlement Account,887674 - ANCIENT WELLS LTD 1,,
OLD7I298YB,13/12/2020 09:17,13/12/2020 09:17,Pay Bill from 254700218502 - GRACE NGURE Acc. v46,Completed,6600,,6600,TRUE,Pay Utility,254700218502 - GRACE NGURE,,v46
OLC5GYVN4R,12/12/2020 11:28,12/12/2020 11:28,Utility Account to Organization Settlement Account,Completed,,-6600,0,TRUE,Utility Account to Organization Settlement Account,887674 - ANCIENT WELLS LTD 1,,
OLC9GWGGTZ,12/12/2020 10:34,12/12/2020 10:34,Pay Bill from 254720056285 - DAMARIS NDURU Acc. V09,Completed,6600,,6600,TRUE,Pay Utility,254720056285 - DAMARIS NDURU,,V09
OLC0GQSTEM,12/12/2020 08:23,12/12/2020 08:23,Utility Account to Organization Settlement Account,Completed,,-10600,0,TRUE,Utility Account to Organization Settlement Account,887674 - ANCIENT WELLS LTD 1,,
OLB6GD43GO,11/12/2020 19:33,11/12/2020 19:33,Pay Bill Online from 254725639425 - CHRISPINE OMONDI Acc. V13,Completed,4000,,10600,TRUE,Pay Bill Online,254725639425 - CHRISPINE OMONDI,,V13
OLB9G1ZHEV,11/12/2020 16:35,11/12/2020 16:35,Pay Bill from 254790610309 - MESHACK CHUMBA Acc. V39,Completed,6600,,6600,TRUE,Pay Utility,254790610309 - MESHACK CHUMBA,,V39
OLB5FOZ30D,11/12/2020 11:53,11/12/2020 11:53,Utility Account to Organization Settlement Account,Completed,,-13200,0,TRUE,Utility Account to Organization Settlement Account,887674 - ANCIENT WELLS LTD 1,,
OLB3FN7GM5,11/12/2020 11:14,11/12/2020 11:14,Pay Bill Online from 254729569271 - MESHACK OBOTTA OBOTTA OBARE Acc. V12,Completed,6600,,13200,TRUE,Pay Bill Online,254729569271 - MESHACK OBOTTA OBOTTA OBARE,,V12
OLA9F8KFJR,10/12/2020 21:28,10/12/2020 21:28,Pay Bill from 254710262457 - PETER VIKATSI Acc. V26,Completed,6600,,6600,TRUE,Pay Utility,254710262457 - PETER VIKATSI,,V26
OLA5EFO4DP,10/12/2020 12:25,10/12/2020 12:25,Utility Account to Organization Settlement Account,Completed,,-19800,0,TRUE,Utility Account to Organization Settlement Account,887674 - ANCIENT WELLS LTD 1,,
OLA3EBFQAH,10/12/2020 10:49,10/12/2020 10:49,Pay Bill Online from 254713498554 - HENRY KINYUA WARUI Acc. Henry V44,Completed,6600,,19800,TRUE,Pay Bill Online,254713498554 - HENRY KINYUA WARUI,,Henry
OL94DZU6I2,09/12/2020 22:04,09/12/2020 22:04,Pay Bill from 254703108159 - JOICE OGOLLA Acc. V50,Completed,6600,,13200,TRUE,Pay Utility,254703108159 - JOICE OGOLLA,,V50
OL97DMTZYT,09/12/2020 18:18,09/12/2020 18:18,Pay Bill Online from 254704995854 - james karanja wairimu Acc. V54,Completed,6600,,6600,TRUE,Pay Bill Online,254704995854 - james karanja wairimu,,V54
OL98DL8YH0,09/12/2020 17:51,09/12/2020 17:51,Utility Account to Organization Settlement Account,Completed,,-22200,0,TRUE,Utility Account to Organization Settlement Account,887674 - ANCIENT WELLS LTD 1,,
OL84CILRJM,08/12/2020 19:39,08/12/2020 19:39,Pay Bill from 254713388942 - UKONU CHRISTOPHER OBINNA Acc. v22,Completed,8600,,22200,TRUE,Pay Utility,254713388942 - UKONU CHRISTOPHER OBINNA,,v22
OL84CH622A,08/12/2020 19:20,08/12/2020 19:20,Pay Bill from 254706920646 - MIRIAM CHEPTOO Acc. V08,Completed,7000,,13600,TRUE,Pay Utility,254706920646 - MIRIAM CHEPTOO,,V08
OL83C27VAV,08/12/2020 14:52,08/12/2020 14:52,Pay Bill from 254723737647 - BRIAN MANGADE Acc. V51,Completed,6600,,6600,TRUE,Pay Utility,254723737647 - BRIAN MANGADE,,V51
OL82BTU9HQ,08/12/2020 11:45,08/12/2020 11:45,Utility Account to Organization Settlement Account,Completed,,-20800,0,TRUE,Utility Account to Organization Settlement Account,887674 - ANCIENT WELLS LTD 1,,
OL80BLZH1K,08/12/2020 08:40,08/12/2020 08:40,Pay Bill from 254704783091 - CLINTON MUSEBE KASUTI Acc. v48,Completed,6600,,20800,TRUE,Pay Utility,254704783091 - CLINTON MUSEBE KASUTI,,v48
OL74BDK66S,07/12/2020 20:57,07/12/2020 20:57,Pay Bill from 254712569636 - BENSON NYAGA Acc. V60,Completed,6600,,14200,TRUE,Pay Utility,254712569636 - BENSON NYAGA,,V60
OL73B9SK37,07/12/2020 19:49,07/12/2020 19:49,Pay Bill from 254712091662 - BENARD OMONDI ROBY Acc. V16,Completed,6600,,7600,TRUE,Pay Utility,254712091662 - BENARD OMONDI ROBY,,V16
OL76AZHAWM,07/12/2020 17:14,07/12/2020 17:14,Pay Bill from 254713498554 - HENRY KINYUA WARUI Acc. v44 henry warui,Completed,1000,,1000,TRUE,Pay Utility,254713498554 - HENRY KINYUA WARUI,,v44
OL76ANTUN6,07/12/2020 13:06,07/12/2020 13:06,Utility Account to Organization Settlement Account,Completed,,-90900,0,TRUE,Utility Account to Organization Settlement Account,887674 - ANCIENT WELLS LTD 1,,
OL73ACSVL1,07/12/2020 08:59,07/12/2020 08:59,Pay Bill from 0797876668 - PATRICK DOVOI AMURAVU Acc. patrick v37,Completed,6600,,90900,TRUE,Pay Utility,0797876668 - PATRICK DOVOI AMURAVU,,patrick
OL66A78V50,06/12/2020 23:49,06/12/2020 23:49,Pay Bill from 254720623535 - JOSEPH MUTURI KAMAU Acc. V32,Completed,6600,,84300,TRUE,Pay Utility,254720623535 - JOSEPH MUTURI KAMAU,,V32
OL60A69C44,06/12/2020 22:20,06/12/2020 22:20,"Pay Bill from 254717294709 - CAROLINE WAVINYA NDINDA Acc. V 15
",Completed,7400,,77700,TRUE,Pay Utility,254717294709 - CAROLINE WAVINYA NDINDA,,V
OL60A50RKS,06/12/2020 21:35,06/12/2020 21:35,Pay Bill from 254712305555 - peris kiragu Acc. V17,Completed,7200,,70300,TRUE,Pay Utility,254712305555 - peris kiragu,,V17
OL64A4XQZQ,06/12/2020 21:33,06/12/2020 21:33,Pay Bill from 254723389922 - ANNE WANJIKU Acc. v53,Completed,4000,,63100,TRUE,Pay Utility,254723389922 - ANNE WANJIKU,,v53
OL62A4DG86,06/12/2020 21:17,06/12/2020 21:17,Pay Bill from 254721524677 - SAMSON AHOLO Acc. Samson v33,Completed,4000,,59100,TRUE,Pay Utility with OD via STK,254721524677 - SAMSON AHOLO,,Samson
OL689Y24AO,06/12/2020 19:15,06/12/2020 19:15,Pay Bill from 254702921564 - DENNIS MAHERO SHIUNDU Acc. Denis v21,Completed,1000,,55100,TRUE,Pay Utility,254702921564 - DENNIS MAHERO SHIUNDU,,Denis
OL639PWUPR,06/12/2020 16:48,06/12/2020 16:48,Pay Bill from 254722307003 - NIGEL BOMETT Acc. V01,Completed,6600,,54100,TRUE,Pay Utility,254722307003 - NIGEL BOMETT,,V01
OL699OECSH,06/12/2020 16:17,06/12/2020 16:17,Pay Bill from 254797665088 - INNOCENT WANAMI Acc. v2,Completed,1600,,47500,TRUE,Pay Utility,254797665088 - INNOCENT WANAMI,,v2
OL6696SOO0,06/12/2020 09:14,06/12/2020 09:14,Pay Bill from 254790552440 - ANGEL MAIMA Acc. vk3,Completed,5000,,45900,TRUE,Pay Utility,254790552440 - ANGEL MAIMA,,vk3
OL548ZS0FI,05/12/2020 22:26,05/12/2020 22:26,Pay Bill from 254726465584 - JULIANA MUKELI MUTUNGA Acc. v4,Completed,6600,,40900,TRUE,Pay Utility,254726465584 - JULIANA MUKELI MUTUNGA,,v4
OL538S0U6V,05/12/2020 19:41,05/12/2020 19:41,Pay Bill from 254758951969 - WILKISTER IRAKO HARAMBEE Acc. 37847739,Completed,7000,,34300,TRUE,Pay Utility,254758951969 - WILKISTER IRAKO HARAMBEE,,37847739
OL598HIY1B,05/12/2020 17:00,05/12/2020 17:00,Pay Bill from 254718818610 - HANNAH NALIAKA Acc. V23,Completed,6600,,27300,TRUE,Pay Utility,254718818610 - HANNAH NALIAKA,,V23
OL50885LZ8,05/12/2020 13:53,05/12/2020 13:53,Pay Bill from 254722578070 - SAMUEL MACHARIA Acc. v42,Completed,7000,,20700,TRUE,Pay Utility,254722578070 - SAMUEL MACHARIA,,v42
OL5481NKMK,05/12/2020 11:36,05/12/2020 11:36,Pay Bill from 254701086112 - CAROLYNE KOKI MULWA Acc. V30,Completed,6600,,13700,TRUE,Pay Utility,254701086112 - CAROLYNE KOKI MULWA,,V30
OL547XEMMG,05/12/2020 10:04,05/12/2020 10:04,Pay Bill from 254708915764 - GEORGE WAHOME Acc. V18,Completed,7100,,7100,TRUE,Pay Utility,254708915764 - GEORGE WAHOME,,V18
OL507RY0Q6,05/12/2020 07:51,05/12/2020 07:51,Utility Account to Organization Settlement Account,Completed,,-13400,0,TRUE,Utility Account to Organization Settlement Account,887674 - ANCIENT WELLS LTD 1,,
OL4575FT3V,04/12/2020 16:55,04/12/2020 16:55,Pay Bill from 254722160984 - PENINNAH MUNYWOKI Acc. Anita V27,Completed,6600,,13400,TRUE,Pay Utility,254722160984 - PENINNAH MUNYWOKI,,Anita
OL396DLD9R,03/12/2020 22:43,03/12/2020 22:43,Pay Bill Online from 254700760396 - JULIUS MBUGUA KINYAHWE Acc. v35,Completed,6800,,6800,TRUE,Pay Bill Online,254700760396 - JULIUS MBUGUA KINYAHWE,,v35
OL325Q0ENO,03/12/2020 15:09,03/12/2020 15:09,Utility Account to Organization Settlement Account,Completed,,-12600,0,TRUE,Utility Account to Organization Settlement Account,887674 - ANCIENT WELLS LTD 1,,
OL385LGF5Q,03/12/2020 13:28,03/12/2020 13:28,Pay Bill from 254799376885 - DERRICK OSORE SONGORO Acc. Derrick V58,Completed,6000,,12600,TRUE,Pay Utility with OD via STK,254799376885 - DERRICK OSORE SONGORO,,Derrick
OL325JLJCQ,03/12/2020 12:47,03/12/2020 12:47,Pay Bill from 254723815832 - SEMEKIA ONDIALA Acc. v38,Completed,6600,,6600,TRUE,Pay Utility,254723815832 - SEMEKIA ONDIALA,,v38
OL244Z28VO,02/12/2020 20:38,02/12/2020 20:38,Utility Account to Organization Settlement Account,Completed,,-37300,0,TRUE,Utility Account to Organization Settlement Account,887674 - ANCIENT WELLS LTD 1,,
OL224N4ME0,02/12/2020 17:38,02/12/2020 17:38,Pay Bill from 254702170403 - LUCY KATHAMBI KOOME Acc. V25,Completed,6600,,37300,TRUE,Pay Utility,254702170403 - LUCY KATHAMBI KOOME,,V25
OL123T4F2Y,01/12/2020 22:27,01/12/2020 22:27,Pay Bill from 254718359438 - AHMAD TAHIR MACHENGO Acc. V11,Completed,6600,,30700,TRUE,Pay Utility,254718359438 - AHMAD TAHIR MACHENGO,,V11
OL193PCPVN,01/12/2020 20:43,01/12/2020 20:43,Pay Bill from 0717042461 - Sharon Nyangasi Shivachi Acc. V55,Completed,6600,,24100,TRUE,Pay Utility,0717042461 - Sharon Nyangasi Shivachi,,V55
OL193KIQ3T,01/12/2020 19:25,01/12/2020 19:25,Pay Bill Online from 254702118125 - ROTICH BETHWEL Acc. V20,Completed,17500,,17500,TRUE,Pay Bill Online,254702118125 - ROTICH BETHWEL,,V20
OL1530DNW9,01/12/2020 13:06,01/12/2020 13:06,Utility Account to Organization Settlement Account,Completed,,-6600,0,TRUE,Utility Account to Organization Settlement Account,887674 - ANCIENT WELLS LTD 1,,
OL142PPQQ0,01/12/2020 08:59,01/12/2020 08:59,Pay Bill from 254727729395 - ROBERT OUKO OSORO Acc. V29,Completed,6600,,6600,TRUE,Pay Utility,254727729395 - ROBERT OUKO OSORO,,V29
OL132KYHXR,01/12/2020 05:21,01/12/2020 05:21,Utility Account to Organization Settlement Account,Completed,,-40500,0,TRUE,Utility Account to Organization Settlement Account,887674 - ANCIENT WELLS LTD 1,,
