Receipt No.,Completion Time,Initiation Time,Details,Transaction Status,Paid In,Withdrawn,Balance,Balance Confirmed,Reason Type,Other Party Info,Linked Transaction ID,A/C No.
OI82D6S7N0,08/09/2020 19:15,08/09/2020 19:15,Pay Bill from 254701330588 - EDGER WAFULA BUTALI Acc. D1,Completed,8000,,75000,TRUE,Pay Utility,254701330588 - EDGER WAFULA BUTALI,,D1
OI86D61PFQ,08/09/2020 19:02,08/09/2020 19:02,Pay Bill from 254723892997 - TERRY MUTHONI WAMAITHA Acc. Terry room 101,Completed,52000,,67000,TRUE,Pay Utility,254723892997 - TERRY MUTHONI WAMAITHA,,Terry
OI81CVF2PL,08/09/2020 15:28,08/09/2020 15:28,Pay Bill from 254712030950 - JOYFAVOUR NABADE MUGENYA Acc. Joyfavor 702 ,Completed,15000,,15000,TRUE,Pay Utility,254712030950 - JOYFAVOUR NABADE MUGENYA,,Joyfavor
OI75CBEBCZ,07/09/2020 21:53,07/09/2020 21:53,Utility Account to Organization Settlement Account,Completed,,-29000,0,TRUE,Utility Account to Organization Settlement Account,887075 - ANCIENT WELLS LTD 3,,
OI70C0JEM8,07/09/2020 17:55,07/09/2020 17:55,Pay Bill from 0110023089 - Nicholus Kioko Kilungya Acc. 302,Completed,13000,,29000,TRUE,Pay Utility,0110023089 - Nicholus Kioko Kilungya,,302
OI66BAHLM0,06/09/2020 23:23,06/09/2020 23:23,Pay Bill Online from 0745163721 - WELDALINE BIYAKI NYABUTO Acc. B2,Completed,8000,,16000,TRUE,Pay Bill Online,0745163721 - WELDALINE BIYAKI NYABUTO,,B2
OI60AW5CZ6,06/09/2020 16:35,06/09/2020 16:35,Pay Bill from 254700745283 - WINFRED MUTHEU NYAMAI Acc. E5,Completed,8000,,8000,TRUE,Pay Utility,254700745283 - WINFRED MUTHEU NYAMAI,,E5
OI69AQU0L7,06/09/2020 14:22,06/09/2020 14:22,Utility Account to Organization Settlement Account,Completed,,-85800,0,TRUE,Utility Account to Organization Settlement Account,887075 - ANCIENT WELLS LTD 3,,
OI60AOH77A,06/09/2020 13:19,06/09/2020 13:19,Pay Bill from 254722395959 - THEOPHILUS MUSYOKA Acc. 601,Completed,15000,,85800,TRUE,Pay Utility,254722395959 - THEOPHILUS MUSYOKA,,601
