Receipt No.,Completion Time,Initiation Time,Details,Transaction Status,Paid In,Withdrawn,Balance,Balance Confirmed,Reason Type,Other Party Info,Linked Transaction ID,A/C No.
RJN5BQMQPZ,23/10/2023 19:57,23/10/2023 19:57,Utility Account to Organization Settlement Account,Completed,,-9000,0,TRUE,Utility Account to Organization Settlement Account,887674 - ANCIENT WELLS LTD 1,,
RJN3BG7ROD,23/10/2023 18:59,23/10/2023 18:59,Pay Bill from 0742753405 - esther luseno Wefunya Acc. V35,Completed,9000,,9000,TRUE,Pay Utility,0742753405 - esther luseno Wefunya,,V35
RJN3A77A9P,23/10/2023 12:56,23/10/2023 12:56,Utility Account to Organization Settlement Account,Completed,,-175500,0,TRUE,Utility Account to Organization Settlement Account,887674 - ANCIENT WELLS LTD 1,,
RJN09ZJ8IG,23/10/2023 11:43,23/10/2023 11:43,Pay Bill Online from 254720643686 - VICTOR OMARE Acc. B1,Completed,73000,,175500,TRUE,Pay Bill Online,254720643686 - VICTOR OMARE,,B1
RJN99A3VTH,23/10/2023 07:15,23/10/2023 07:15,Pay Bill from 254701174081 - JOSEPHINE ODUOR Acc. v34,Completed,1000,,102500,TRUE,Pay Utility,254701174081 - JOSEPHINE ODUOR,,v34
RJL95X3HRJ,21/10/2023 21:17,21/10/2023 21:17,Pay Bill from 254717294709 - CAROLINE WAVINYA NDINDA Acc. v15,Completed,1500,,101500,TRUE,Pay Utility,254717294709 - CAROLINE WAVINYA NDINDA,,v15
RJL35N1DXN,21/10/2023 19:57,21/10/2023 19:57,Pay Bill Online from 0798504340 - SAMUEL KIRURI KARANJA Acc. 06,Completed,100000,,100000,TRUE,Pay Bill Online,0798504340 - SAMUEL KIRURI KARANJA,,6
RJL15E8HQL,21/10/2023 19:04,21/10/2023 19:04,Utility Account to Organization Settlement Account,Completed,,-72000,0,TRUE,Utility Account to Organization Settlement Account,887674 - ANCIENT WELLS LTD 1,,
RJL95DOSI1,21/10/2023 19:01,21/10/2023 19:01,Pay Bill from 254700136136 - DAYVEE DAVID EPHRAIM NGUGI NJARAMBA Acc. B3,Completed,65000,,72000,TRUE,Pay Utility,254700136136 - DAYVEE DAVID EPHRAIM NGUGI NJARAMBA,,B3
RJL25A0GF6,21/10/2023 18:40,21/10/2023 18:40,Pay Bill from 254720230582 - SHADRACK KITAKA NGILA Acc. v01,Completed,7000,,7000,TRUE,Pay Utility,254720230582 - SHADRACK KITAKA NGILA,,v01
RJK72UQC6B,20/10/2023 21:59,20/10/2023 21:59,Utility Account to Organization Settlement Account,Completed,,-55000,0,TRUE,Utility Account to Organization Settlement Account,887674 - ANCIENT WELLS LTD 1,,
RJK22JMBQM,20/10/2023 20:18,20/10/2023 20:18,Business Pay Bill by 488519 - NCBA  Bank M-pesa Acc. T29 via API,Completed,55000,,55000,TRUE,Business Pay Bill via API,488519 - NCBA  Bank M-pesa,,T29
RJK8ZSY0YC,20/10/2023 12:01,20/10/2023 12:01,Utility Account to Organization Settlement Account,Completed,,-9000,0,TRUE,Utility Account to Organization Settlement Account,887674 - ANCIENT WELLS LTD 1,,
RJK0Z39BC0,20/10/2023 07:31,20/10/2023 07:31,Pay Bill from 254717294709 - CAROLINE WAVINYA NDINDA Acc. v15,Completed,500,,9000,TRUE,Pay Utility,254717294709 - CAROLINE WAVINYA NDINDA,,v15
RJJ1WPAYI7,19/10/2023 12:49,19/10/2023 12:49,Pay Bill from 0741672394 - STANELY MASINDE WABWILE Acc. V44,Completed,1500,,8500,TRUE,Pay Utility with OD via STK,0741672394 - STANELY MASINDE WABWILE,,V44
RJJ2WKXE7G,19/10/2023 12:08,19/10/2023 12:08,Pay Bill from 254703135064 - KENNEDY GEORGE Acc. V26,Completed,7000,,7000,TRUE,Pay Utility with OD via STK,254703135064 - KENNEDY GEORGE,,V26
RJI2SQ35EQ,18/10/2023 08:46,18/10/2023 08:46,Utility Account to Organization Settlement Account,Completed,,-16100,0,TRUE,Utility Account to Organization Settlement Account,887674 - ANCIENT WELLS LTD 1,,
RJH3SBPAYZ,17/10/2023 23:53,17/10/2023 23:53,Pay Bill Online from 0745729178 - RODGERS DOGOI KABARAGI Acc. v27,Completed,7000,,16100,TRUE,Pay Utility with OD Online,0745729178 - RODGERS DOGOI KABARAGI,,v27
RJH6RPKQXU,17/10/2023 19:45,17/10/2023 19:45,Pay Bill from 0707674271 - Victor   Mwilu Acc. v37,Completed,2500,,9100,TRUE,Pay Utility,0707674271 - Victor   Mwilu,,v37
RJH7RCPM83,17/10/2023 18:35,17/10/2023 18:35,Pay Bill from 254705396032 - NAOMI NYAWIRA NGURE Acc. v46,Completed,6600,,6600,TRUE,Pay Utility,254705396032 - NAOMI NYAWIRA NGURE,,v46
RJH9P9BC3J,17/10/2023 06:18,17/10/2023 06:18,Utility Account to Organization Settlement Account,Completed,,-7000,0,TRUE,Utility Account to Organization Settlement Account,887674 - ANCIENT WELLS LTD 1,,
RJG9P3SZF3,16/10/2023 23:06,16/10/2023 23:06,Pay Bill Online from 254727457630 - martha osare awinja Acc. V31,Completed,7000,,7000,TRUE,Pay Bill Online,254727457630 - martha osare awinja,,V31
RJG1P3092H,16/10/2023 22:47,16/10/2023 22:47,Utility Account to Organization Settlement Account,Completed,,-5800,0,TRUE,Utility Account to Organization Settlement Account,887674 - ANCIENT WELLS LTD 1,,
RJG4OZ3JPI,16/10/2023 21:47,16/10/2023 21:47,Pay Bill from 0741308473 - KEVIN ONYANCHA MOSIORI Acc. vk5,Completed,3300,,5800,TRUE,Pay Utility,0741308473 - KEVIN ONYANCHA MOSIORI,,vk5
RJG6M4VOJQ,16/10/2023 06:55,16/10/2023 06:55,Pay Bill from 254701174081 - JOSEPHINE ODUOR Acc. v34,Completed,1000,,2500,TRUE,Pay Utility,254701174081 - JOSEPHINE ODUOR,,v34
RJF9LE5BNZ,15/10/2023 19:40,15/10/2023 19:40,Pay Bill from 254723688790 - HILLARY KIBET MUTAI Acc. v08,Completed,1500,,1500,TRUE,Pay Utility with OD via STK,254723688790 - HILLARY KIBET MUTAI,,v08
RJF8KT3JCA,15/10/2023 17:15,15/10/2023 17:15,Utility Account to Organization Settlement Account,Completed,,-10500,0,TRUE,Utility Account to Organization Settlement Account,887674 - ANCIENT WELLS LTD 1,,
RJE8HPQD7K,14/10/2023 17:07,14/10/2023 17:07,Pay Bill from 0703406243 - LEVITAN    SHALIMBA Acc. vk3,Completed,3500,,10500,TRUE,Pay Utility,0703406243 - LEVITAN    SHALIMBA,,vk3
RJE4HH4P5G,14/10/2023 15:56,14/10/2023 15:56,Pay Bill from 254720466443 - FATUMA MOHAMED ABDALLAH Acc. V21,Completed,7000,,7000,TRUE,Pay Utility,254720466443 - FATUMA MOHAMED ABDALLAH,,V21
RJE5H4J9GZ,14/10/2023 14:06,14/10/2023 14:06,Utility Account to Organization Settlement Account,Completed,,-3000,0,TRUE,Utility Account to Organization Settlement Account,887674 - ANCIENT WELLS LTD 1,,
RJE0H16TO8,14/10/2023 13:37,14/10/2023 13:37,Pay Bill from 254723688790 - HILLARY KIBET MUTAI Acc. vo8,Completed,3000,,3000,TRUE,Pay Utility,254723688790 - HILLARY KIBET MUTAI,,vo8
RJE3GCIW7N,14/10/2023 09:30,14/10/2023 09:30,Utility Account to Organization Settlement Account,Completed,,-5000,0,TRUE,Utility Account to Organization Settlement Account,887674 - ANCIENT WELLS LTD 1,,
RJD0F3UPTS,13/10/2023 19:32,13/10/2023 19:32,Pay Bill from 0707032788 - CLIFF ONDIBA OMBASA Acc. V05,Completed,5000,,5000,TRUE,Pay Utility,0707032788 - CLIFF ONDIBA OMBASA,,V05
RJD3DO355N,13/10/2023 12:58,13/10/2023 12:58,Utility Account to Organization Settlement Account,Completed,,-5000,0,TRUE,Utility Account to Organization Settlement Account,887674 - ANCIENT WELLS LTD 1,,
RJD8CLGL1C,13/10/2023 04:19,13/10/2023 04:19,Pay Bill from 254723688790 - HILLARY KIBET MUTAI Acc. v08,Completed,5000,,5000,TRUE,Pay Utility,254723688790 - HILLARY KIBET MUTAI,,v08
RJC5ADFYJT,12/10/2023 12:35,12/10/2023 12:35,Utility Account to Organization Settlement Account,Completed,,-3500,0,TRUE,Utility Account to Organization Settlement Account,887674 - ANCIENT WELLS LTD 1,,
RJC39KRMLT,12/10/2023 07:43,12/10/2023 07:43,Pay Bill from 0728578101 - MIRIAM   CHEPTOO Acc. V08 ,Completed,3500,,3500,TRUE,Pay Utility,0728578101 - MIRIAM   CHEPTOO,,V08
RJB081BY9M,11/10/2023 17:23,11/10/2023 17:23,Utility Account to Organization Settlement Account,Completed,,-288000,0,TRUE,Utility Account to Organization Settlement Account,887674 - ANCIENT WELLS LTD 1,,
RJB87DNKTQ,11/10/2023 13:51,11/10/2023 13:51,Business Pay Bill by 488519 - NCBA  Bank M-pesa Acc. T29 via API,Completed,60000,,288000,TRUE,Business Pay Bill via API,488519 - NCBA  Bank M-pesa,,T29
RJB86VB7U8,11/10/2023 10:57,11/10/2023 10:57,Business Pay Bill by 488519 - NCBA  Bank M-pesa Acc. Number 4 via API,Completed,50000,,228000,TRUE,Business Pay Bill via API,488519 - NCBA  Bank M-pesa,,Number
RJB66KKNSE,11/10/2023 09:09,11/10/2023 09:09,Pay Bill Online from 254720643686 - VICTOR OMARE Acc. B1,Completed,65000,,178000,TRUE,Pay Bill Online,254720643686 - VICTOR OMARE,,B1
RJB06ESVII,11/10/2023 08:07,11/10/2023 08:07,Pay Bill Online from 0759605060 - ELVIS MUSA MORARA Acc. V47,Completed,7000,,113000,TRUE,Pay Bill Online,0759605060 - ELVIS MUSA MORARA,,V47
RJA46082FS,10/10/2023 22:26,10/10/2023 22:26,Pay Bill from 254707690557 - GRACE KARWITHA SAFARI Acc. V60,Completed,7000,,106000,TRUE,Pay Utility,254707690557 - GRACE KARWITHA SAFARI,,V60
RJA55D5IUJ,10/10/2023 19:18,10/10/2023 19:18,Pay Bill from 254729806880 - Eunice Akinyi Were Acc. V33,Completed,7000,,99000,TRUE,Pay Utility,254729806880 - Eunice Akinyi Were,,V33
RJA459FPLY,10/10/2023 18:58,10/10/2023 18:58,Pay Bill from 0112066814 - JOHN AMBAISI ANUNDA Acc. V53,Completed,7000,,92000,TRUE,Pay Utility,0112066814 - JOHN AMBAISI ANUNDA,,V53
RJA04VFKKA,10/10/2023 17:26,10/10/2023 17:26,Pay Bill Online from 254705012945 - PATRICK NYAGISERA ATANDI Acc. House # 4,Completed,20000,,85000,TRUE,Pay Bill Online,254705012945 - PATRICK NYAGISERA ATANDI,,House
RJA04ICLSC,10/10/2023 15:33,10/10/2023 15:33,Pay Bill Online from 254722775210 - KENNETH MAUNDU Acc. B5,Completed,65000,,65000,TRUE,Pay Bill Online,254722775210 - KENNETH MAUNDU,,B5
RJA43HJLYU,10/10/2023 09:50,10/10/2023 09:50,Utility Account to Organization Settlement Account,Completed,,-2100,0,TRUE,Utility Account to Organization Settlement Account,887674 - ANCIENT WELLS LTD 1,,
RJ942P46YS,09/10/2023 21:22,09/10/2023 21:22,Pay Bill Online from 254715939283 - alex nyamai Acc. v7,Completed,2100,,2100,TRUE,Pay Bill Online,254715939283 - alex nyamai,,v7
RJ95297ESF,09/10/2023 19:32,09/10/2023 19:32,Utility Account to Organization Settlement Account,Completed,,-4500,0,TRUE,Utility Account to Organization Settlement Account,887674 - ANCIENT WELLS LTD 1,,
RJ951DBIXT,09/10/2023 15:59,09/10/2023 15:59,Pay Bill Online from 254715939283 - alex nyamai Acc. v7,Completed,4500,,4500,TRUE,Pay Bill Online,254715939283 - alex nyamai,,v7
RJ9914ILJL,09/10/2023 14:38,09/10/2023 14:38,Utility Account to Organization Settlement Account,Completed,,-3500,0,TRUE,Utility Account to Organization Settlement Account,887674 - ANCIENT WELLS LTD 1,,
RJ91ZZLKXR,09/10/2023 13:54,09/10/2023 13:54,Pay Bill from 254706287075 - HARON MWANDAWA Acc. v38,Completed,3500,,3500,TRUE,Pay Utility,254706287075 - HARON MWANDAWA,,v38
RJ93ZW7WHF,09/10/2023 13:25,09/10/2023 13:25,Utility Account to Organization Settlement Account,Completed,,-2000,0,TRUE,Utility Account to Organization Settlement Account,887674 - ANCIENT WELLS LTD 1,,
RJ95ZF781T,09/10/2023 10:50,09/10/2023 10:50,Pay Bill from 254717294709 - CAROLINE WAVINYA NDINDA Acc. v15,Completed,2000,,2000,TRUE,Pay Utility,254717294709 - CAROLINE WAVINYA NDINDA,,v15
RJ99Z705KR,09/10/2023 09:33,09/10/2023 09:33,Utility Account to Organization Settlement Account,Completed,,-14001,0,TRUE,Utility Account to Organization Settlement Account,887674 - ANCIENT WELLS LTD 1,,
RJ83Y47GHZ,08/10/2023 19:58,08/10/2023 19:58,Pay Bill from 0115365438 - zibborah nzilani maundu Acc. V48,Completed,7000,,14001,TRUE,Pay Utility,0115365438 - zibborah nzilani maundu,,V48
RJ81XCFL9L,08/10/2023 16:47,08/10/2023 16:47,Pay Bill from 254702495335 - IMMACULATE ATIENO KAGORO Acc. V39,Completed,7000,,7001,TRUE,Pay Utility,254702495335 - IMMACULATE ATIENO KAGORO,,V39
RJ84XC9QS6,08/10/2023 16:46,08/10/2023 16:46,Pay Bill from 254702495335 - IMMACULATE ATIENO KAGORO Acc. V39,Completed,1,,1,TRUE,Pay Utility,254702495335 - IMMACULATE ATIENO KAGORO,,V39
RJ79UXXNOB,07/10/2023 19:58,07/10/2023 19:58,Utility Account to Organization Settlement Account,Completed,,-5550,0,TRUE,Utility Account to Organization Settlement Account,887674 - ANCIENT WELLS LTD 1,,
RJ74U552L6,07/10/2023 17:03,07/10/2023 17:03,Pay Bill from 254717294709 - CAROLINE WAVINYA NDINDA Acc. v15,Completed,2000,,5550,TRUE,Pay Utility,254717294709 - CAROLINE WAVINYA NDINDA,,v15
RJ74SZMNH4,07/10/2023 11:23,07/10/2023 11:23,Pay Bill from 254768699581 - GEORGE WILLIAM ESHIROYO Acc. kcu359l,Completed,50,,3550,TRUE,Pay Utility,254768699581 - GEORGE WILLIAM ESHIROYO,,kcu359l
RJ78SUR6CA,07/10/2023 10:41,07/10/2023 10:41,Pay Bill from 254706613908 - joseph mbugua karumbi Acc. V45,Completed,3500,,3500,TRUE,Pay Utility,254706613908 - joseph mbugua karumbi,,V45
RJ67R55B9F,06/10/2023 19:01,06/10/2023 19:01,Utility Account to Organization Settlement Account,Completed,,-13600,0,TRUE,Utility Account to Organization Settlement Account,887674 - ANCIENT WELLS LTD 1,,
RJ66QSZWRS,06/10/2023 17:51,06/10/2023 17:51,Pay Bill Online from 254720056285 - DAMARIS NDURU Acc. V18,Completed,6600,,13600,TRUE,Pay Bill Online,254720056285 - DAMARIS NDURU,,V18
RJ62Q18BF6,06/10/2023 14:07,06/10/2023 14:07,Pay Bill Online from 254799654490 - DANIEL MUTIO MAUNDU Acc. V28,Completed,7000,,7000,TRUE,Pay Bill Online,254799654490 - DANIEL MUTIO MAUNDU,,V28
RJ69PUZX83,06/10/2023 13:14,06/10/2023 13:14,Utility Account to Organization Settlement Account,Completed,,-14000,0,TRUE,Utility Account to Organization Settlement Account,887674 - ANCIENT WELLS LTD 1,,
RJ66P3QF1G,06/10/2023 09:05,06/10/2023 09:05,Pay Bill from 254724882610 - ALINOOR IBRAHIM Acc. v52,Completed,7000,,14000,TRUE,Pay Utility,254724882610 - ALINOOR IBRAHIM,,v52
RJ68P3PDPM,06/10/2023 09:05,06/10/2023 09:05,Pay Bill Online from 254720057303 - PAUL NJOROGE KIMANI Acc. V13,Completed,7000,,7000,TRUE,Pay Bill Online,254720057303 - PAUL NJOROGE KIMANI,,V13
RJ61OPHWP3,06/10/2023 05:41,06/10/2023 05:41,Utility Account to Organization Settlement Account,Completed,,-41600,0,TRUE,Utility Account to Organization Settlement Account,887674 - ANCIENT WELLS LTD 1,,
RJ56OARYQA,05/10/2023 21:17,05/10/2023 21:17,Pay Bill from 254722578070 - SAMUEL MACHARIA Acc. v42,Completed,7000,,41600,TRUE,Pay Utility,254722578070 - SAMUEL MACHARIA,,v42
RJ50OAMUTK,05/10/2023 21:15,05/10/2023 21:15,Pay Bill from 254712091662 - BENARD OMONDI ROBY Acc. V16,Completed,6600,,34600,TRUE,Pay Utility,254712091662 - BENARD OMONDI ROBY,,V16
RJ59NZQTVP,05/10/2023 20:02,05/10/2023 20:02,Pay Bill from 0714747222 - WILSON KIMANI MWANGI Acc. V25,Completed,7000,,28000,TRUE,Pay Utility,0714747222 - WILSON KIMANI MWANGI,,V25
RJ51N3ZHW1,05/10/2023 16:50,05/10/2023 16:50,Pay Bill from 0769858701 - DOLLARS DANIEL CIRHUZA Acc. V09,Completed,7000,,21000,TRUE,Pay Utility,0769858701 - DOLLARS DANIEL CIRHUZA,,V09
RJ54MZD194,05/10/2023 16:12,05/10/2023 16:12,Pay Bill from 254722808623 - SUSAN OCHIENG' Acc. v56,Completed,7000,,14000,TRUE,Pay Utility,254722808623 - SUSAN OCHIENG',,v56
RJ52MXJH1K,05/10/2023 15:56,05/10/2023 15:56,Pay Bill from 0729277890 - HALIMA MOHAMED EDIN Acc. v03,Completed,7000,,7000,TRUE,Pay Utility,0729277890 - HALIMA MOHAMED EDIN,,v03
RJ54MRGKCC,05/10/2023 15:01,05/10/2023 15:01,Utility Account to Organization Settlement Account,Completed,,-7000,0,TRUE,Utility Account to Organization Settlement Account,887674 - ANCIENT WELLS LTD 1,,
RJ51MI9Z2Z,05/10/2023 13:39,05/10/2023 13:39,Pay Bill from 254703232096 - KEVIN MAINA Acc. V51,Completed,7000,,7000,TRUE,Pay Utility,254703232096 - KEVIN MAINA,,V51
RJ51LBGJTF,05/10/2023 05:38,05/10/2023 05:38,Utility Account to Organization Settlement Account,Completed,,-6600,0,TRUE,Utility Account to Organization Settlement Account,887674 - ANCIENT WELLS LTD 1,,
RJ48L68JAE,04/10/2023 22:58,04/10/2023 22:58,Pay Bill from 254718818610 - HANNAH NALIAKA Acc. V23,Completed,6600,,6600,TRUE,Pay Utility,254718818610 - HANNAH NALIAKA,,V23
RJ40IXFNUG,04/10/2023 12:13,04/10/2023 12:13,Utility Account to Organization Settlement Account,Completed,,-34600,0,TRUE,Utility Account to Organization Settlement Account,887674 - ANCIENT WELLS LTD 1,,
RJ47IUQ779,04/10/2023 11:47,04/10/2023 11:47,Pay Bill from 0795807227 - Lucy Ncekei Kimathi Acc. V36 ,Completed,6600,,34600,TRUE,Pay Utility,0795807227 - Lucy Ncekei Kimathi,,V36
RJ45IPJ1MZ,04/10/2023 10:58,04/10/2023 10:58,Pay Bill from 0729382149 - SYLVIA NABALAYO MASABULE Acc. V30,Completed,7000,,28000,TRUE,Pay Utility,0729382149 - SYLVIA NABALAYO MASABULE,,V30
RJ34HO53CS,03/10/2023 21:38,03/10/2023 21:38,Pay Bill from 254791023764 - ISAIAH OMODING Acc. V49,Completed,7000,,21000,TRUE,Pay Utility,254791023764 - ISAIAH OMODING,,V49
RJ31HMH2XP,03/10/2023 21:23,03/10/2023 21:23,Pay Bill from 254799511755 - CAROLINE BOSIRE Acc. V59,Completed,7000,,14000,TRUE,Pay Utility,254799511755 - CAROLINE BOSIRE,,V59
RJ32H3CC26,03/10/2023 19:22,03/10/2023 19:22,Pay Bill from 254740157844 - LINA WANGUI MWANIKI Acc. v29,Completed,7000,,7000,TRUE,Pay Utility,254740157844 - LINA WANGUI MWANIKI,,v29
RJ31GPRNVJ,03/10/2023 18:07,03/10/2023 18:07,Utility Account to Organization Settlement Account,Completed,,-10500,0,TRUE,Utility Account to Organization Settlement Account,887674 - ANCIENT WELLS LTD 1,,
RJ33FYPRGB,03/10/2023 14:24,03/10/2023 14:24,Pay Bill Online from 254706427665 - CHRIS KIRIMI Acc. v22,Completed,7000,,10500,TRUE,Pay Bill Online,254706427665 - CHRIS KIRIMI,,v22
RJ35FOCCQ1,03/10/2023 12:52,03/10/2023 12:52,Pay Bill from 0795650610 - Janet Kavata Muandiko Acc. vk4 ,Completed,3500,,3500,TRUE,Pay Utility with OD via STK,0795650610 - Janet Kavata Muandiko,,vk4
RJ30FLT7E4,03/10/2023 12:29,03/10/2023 12:29,Utility Account to Organization Settlement Account,Completed,,-21000,0,TRUE,Utility Account to Organization Settlement Account,887674 - ANCIENT WELLS LTD 1,,
RJ28EDH7YI,02/10/2023 21:51,02/10/2023 21:51,Pay Bill from 254706287075 - HARON MWANDAWA Acc. v38,Completed,14000,,21000,TRUE,Pay Utility with OD via STK,254706287075 - HARON MWANDAWA,,v38
RJ23DZANRP,02/10/2023 20:00,02/10/2023 20:00,Pay Bill Online from 254702118125 - ROTICH BETHWEL Acc. V20,Completed,7000,,7000,TRUE,Pay Bill Online,254702118125 - ROTICH BETHWEL,,V20
RJ14AEU4WE,01/10/2023 18:58,01/10/2023 18:58,Utility Account to Organization Settlement Account,Completed,,-6600,0,TRUE,Utility Account to Organization Settlement Account,887674 - ANCIENT WELLS LTD 1,,
RJ199Y3C1P,01/10/2023 16:58,01/10/2023 16:58,Pay Bill Online from 254726465584 - JULIANA MUKELI MUTUNGA Acc. v4,Completed,6600,,6600,TRUE,Pay Bill Online,254726465584 - JULIANA MUKELI MUTUNGA,,v4
