Receipt No.,Completion Time,Initiation Time,Details,Transaction Status,Paid In,Withdrawn,Balance,Balance Confirmed,Reason Type,Other Party Info,Linked Transaction ID,A/C No.
PE85PU8R9B,08/05/2021 16:20,08/05/2021 16:20,Pay Bill from 254723026840 - HARRISON MAINA Acc. HAH,Completed,16000,,24000,TRUE,Pay Utility,254723026840 - HARRISON MAINA,,HAH
PE80PS8VDA,08/05/2021 15:43,08/05/2021 15:43,Pay Bill from 254721852723 - HASSAN ABDINOOR MOHAMED Acc. jaa,Completed,8000,,8000,TRUE,Pay Utility,254721852723 - HASSAN ABDINOOR MOHAMED,,jaa
PE80PNNGLM,08/05/2021 14:17,08/05/2021 14:17,Utility Account to Organization Settlement Account,Completed,,-336500,0,TRUE,Utility Account to Organization Settlement Account,979524 - ANCIENT WELLS PROPERTY MANAGERS 2,,
PE86PNL1HY,08/05/2021 14:16,08/05/2021 14:16,Pay Bill from 254713159153 - GUYO SANKALA Acc. DGD,Completed,20000,,336500,TRUE,Pay Utility,254713159153 - GUYO SANKALA,,DGD
PE89PN0YMZ,08/05/2021 14:06,08/05/2021 14:06,Pay Bill from 254729557859 - AUDREY KASINDAHA KASINDAHA Acc. KAI,Completed,12000,,316500,TRUE,Pay Utility,254729557859 - AUDREY KASINDAHA KASINDAHA,,KAI
PE84PJKLZY,08/05/2021 13:01,08/05/2021 13:01,Pay Bill from 254713205244 - ROBERT OGALO Acc. KBH,Completed,10000,,304500,TRUE,Pay Utility,254713205244 - ROBERT OGALO,,KBH
PE83PF5YCH,08/05/2021 11:35,08/05/2021 11:35,Pay Bill from 254724364316 - LINET MWENDIA Acc. KEJ,Completed,16000,,294500,TRUE,Pay Utility,254724364316 - LINET MWENDIA,,KEJ
PE86PC60NK,08/05/2021 10:35,08/05/2021 10:35,Pay Bill from 0114052034 - EVANS TIOKO NANGIRO Acc. Fbe,Completed,16000,,278500,TRUE,Pay Utility,0114052034 - EVANS TIOKO NANGIRO,,Fbe
PE83PA9SM9,08/05/2021 09:55,08/05/2021 09:55,Pay Bill from 254748903322 - MARILYN MKAWUGHANGA KIRIGHO Acc. ICD,Completed,9000,,262500,TRUE,Pay Utility,254748903322 - MARILYN MKAWUGHANGA KIRIGHO,,ICD
PE87P466TR,08/05/2021 07:15,08/05/2021 07:15,Pay Bill from 254720029066 - EVANS CHERUYOT ROTICH Acc. KFI,Completed,11000,,253500,TRUE,Pay Utility,254720029066 - EVANS CHERUYOT ROTICH,,KFI
PE73P1OQVV,07/05/2021 23:13,07/05/2021 23:13,Pay Bill from 254729392595 - WINNIE NASICHE KERE Acc. JBF,Completed,8000,,242500,TRUE,Pay Utility,254729392595 - WINNIE NASICHE KERE,,JBF
PE73OZZ5O5,07/05/2021 21:48,07/05/2021 21:48,Pay Bill from 0790924905 - KEVIN   KIDAGISA Acc. IGC,Completed,9000,,234500,TRUE,Pay Utility,0790924905 - KEVIN   KIDAGISA,,IGC
PE74OYY4JY,07/05/2021 21:20,07/05/2021 21:20,Pay Bill Online from 254720044312 - ELIUD KIPKURUI Acc. FCF,Completed,17000,,225500,TRUE,Pay Bill Online,254720044312 - ELIUD KIPKURUI,,FCF
PE70OY5YBC,07/05/2021 21:01,07/05/2021 21:01,Pay Bill from 254726178084 - CHRISTOPHER OCHIENG Acc. FFE,Completed,10000,,208500,TRUE,Pay Utility,254726178084 - CHRISTOPHER OCHIENG,,FFE
PE72OQEEX6,07/05/2021 19:00,07/05/2021 19:00,Pay Bill Online from 254711724272 - EDMOND ONYANGO OKEWE Acc. FCB,Completed,16000,,198500,TRUE,Pay Bill Online,254711724272 - EDMOND ONYANGO OKEWE,,FCB
PE77OPRRAT,07/05/2021 18:52,07/05/2021 18:52,Pay Bill from 254725094113 - BRAXTON LUMWAJI Acc. DDC,Completed,17000,,182500,TRUE,Pay Utility with OD via STK,254725094113 - BRAXTON LUMWAJI,,DDC
PE77OMFSXZ,07/05/2021 18:05,07/05/2021 18:05,Pay Bill from 0713851252 - GRACE   OMUNG'ANA Acc. Vc,Completed,3000,,165500,TRUE,Pay Utility,0713851252 - GRACE   OMUNG'ANA,,Vc
PE73OGT3SN,07/05/2021 16:36,07/05/2021 16:36,Pay Bill from 254713966424 - NDUTI MUTHUI Acc. jed,Completed,15000,,162500,TRUE,Pay Utility,254713966424 - NDUTI MUTHUI,,jed
PE74OCJUPE,07/05/2021 15:16,07/05/2021 15:16,Pay Bill from 254716581384 - GREGORY KILUNGYA Acc. DAD,Completed,20000,,147500,TRUE,Pay Utility,254716581384 - GREGORY KILUNGYA,,DAD
PE72OBLOHK,07/05/2021 14:57,07/05/2021 14:57,Pay Bill Online from 254718772336 - DAVID SERUGO Acc. DCD,Completed,20000,,127500,TRUE,Pay Bill Online,254718772336 - DAVID SERUGO,,DCD
PE73OA82YZ,07/05/2021 14:31,07/05/2021 14:31,Pay Bill from 254708619274 - BONIFACE MUTUA Acc. JFB,Completed,14000,,107500,TRUE,Pay Utility,254708619274 - BONIFACE MUTUA,,JFB
PE70O8DK1E,07/05/2021 13:55,07/05/2021 13:55,Pay Bill from 254725771056 - CHARLES MURAGURI Acc. FCE,Completed,15000,,93500,TRUE,Pay Utility,254725771056 - CHARLES MURAGURI,,FCE
PE70O5S5PI,07/05/2021 13:03,07/05/2021 13:03,Pay Bill from 254796292434 - ANTONINA HAYA Acc. HED,Completed,9000,,78500,TRUE,Pay Utility,254796292434 - ANTONINA HAYA,,HED
PE76O5CKN2,07/05/2021 12:55,07/05/2021 12:55,Pay Bill Online from 254724282299 - KEVIN OGUTU Acc. KDG,Completed,10000,,69500,TRUE,Pay Bill Online,254724282299 - KEVIN OGUTU,,KDG
PE71O1PFR9,07/05/2021 11:40,07/05/2021 11:40,Pay Bill from 254708499439 - ROSE NDEDE Acc. HGF,Completed,9000,,59500,TRUE,Pay Utility,254708499439 - ROSE NDEDE,,HGF
PE70O1K032,07/05/2021 11:37,07/05/2021 11:37,Pay Bill Online from 254728687482 - KELSEN MWIRIGI MUTIGA Acc. HCE,Completed,10500,,50500,TRUE,Pay Bill Online,254728687482 - KELSEN MWIRIGI MUTIGA,,HCE
PE72NXP83U,07/05/2021 10:16,07/05/2021 10:16,Pay Bill from 254728238249 - ESTHER WANGUI KIBUNYI Acc. ICA,Completed,17000,,40000,TRUE,Pay Utility,254728238249 - ESTHER WANGUI KIBUNYI,,ICA
PE75NUZNBD,07/05/2021 09:16,07/05/2021 09:16,Pay Bill from 254716479709 - PAUL MUSYOKI Acc. IEC,Completed,8000,,23000,TRUE,Pay Utility,254716479709 - PAUL MUSYOKI,,IEC
PE77NT1ADL,07/05/2021 08:28,07/05/2021 08:28,Pay Bill from 254714209770 - PURITY NDUKU KYALO Acc. JEB,Completed,15000,,15000,TRUE,Pay Utility,254714209770 - PURITY NDUKU KYALO,,JEB
PE73NR2HP9,07/05/2021 07:29,07/05/2021 07:29,Utility Account to Organization Settlement Account,Completed,,-356500,0,TRUE,Utility Account to Organization Settlement Account,979524 - ANCIENT WELLS PROPERTY MANAGERS 2,,
PE74NQB19E,07/05/2021 06:56,07/05/2021 06:56,Pay Bill from 254714578986 - EZEKIEL MULUNGYE Acc. HAC,Completed,10000,,356500,TRUE,Pay Utility,254714578986 - EZEKIEL MULUNGYE,,HAC
PE69NNQ23R,06/05/2021 22:36,06/05/2021 22:36,Pay Bill Online from 254729590734 - PATRICK NDUNGA Acc. IDD,Completed,10000,,346500,TRUE,Pay Bill Online,254729590734 - PATRICK NDUNGA,,IDD
PE63NN3V2L,06/05/2021 22:08,06/05/2021 22:08,Pay Bill from 254724611087 - Francis Mukindya Muoki Acc. dfb,Completed,3000,,336500,TRUE,Pay Utility with OD via STK,254724611087 - Francis Mukindya Muoki,,dfb
PE62NLDA6O,06/05/2021 21:18,06/05/2021 21:18,Pay Bill from 254729713741 - ALBANUS MUTISO Acc. jbd,Completed,15000,,333500,TRUE,Pay Utility,254729713741 - ALBANUS MUTISO,,jbd
PE66NHH9AA,06/05/2021 20:05,06/05/2021 20:05,Pay Bill from 254713404029 - ANNE ISEUNA Acc. DED,Completed,20000,,318500,TRUE,Pay Utility,254713404029 - ANNE ISEUNA,,DED
PE63NDQGDH,06/05/2021 19:13,06/05/2021 19:13,Pay Bill from 254727300915 - EUNICE NJERI Acc. KFF,Completed,9500,,298500,TRUE,Pay Utility,254727300915 - EUNICE NJERI,,KFF
PE64NCBB3Y,06/05/2021 18:55,06/05/2021 18:55,Pay Bill Online from 254706549634 - CLINTON OMBASA Acc. FDB,Completed,17000,,289000,TRUE,Pay Bill Online,254706549634 - CLINTON OMBASA,,FDB
PE63N7FMVF,06/05/2021 17:45,06/05/2021 17:45,Pay Bill from 254703555717 - SENGA SALIM Acc. hbb,Completed,2000,,272000,TRUE,Pay Utility,254703555717 - SENGA SALIM,,hbb
PE67N6EJOB,06/05/2021 17:28,06/05/2021 17:28,Pay Bill from 0769001671 - Wilson Mutangili Wambua Acc. haf,Completed,9500,,270000,TRUE,Pay Utility,0769001671 - Wilson Mutangili Wambua,,haf
PE65N4NMBH,06/05/2021 16:59,06/05/2021 16:59,Pay Bill from 254724810512 - BENARDET Ochieng Acc. IEH ,Completed,11000,,260500,TRUE,Pay Utility with OD via STK,254724810512 - BENARDET Ochieng,,IEH
PE66N2LQIG,06/05/2021 16:22,06/05/2021 16:22,Pay Bill from 254700788416 - MERCY KASILI Acc. IFE,Completed,8000,,249500,TRUE,Pay Utility,254700788416 - MERCY KASILI,,IFE
PE68N26NHC,06/05/2021 16:14,06/05/2021 16:14,Pay Bill from 254701006375 - EZRA MAKORI SERETI Acc. HTE,Completed,10000,,241500,TRUE,Pay Utility,254701006375 - EZRA MAKORI SERETI,,HTE
PE69N1KPU5,06/05/2021 16:03,06/05/2021 16:03,Pay Bill from 254701112397 - ELEMA GODANA DIBA Acc. IAD,Completed,10000,,231500,TRUE,Pay Utility,254701112397 - ELEMA GODANA DIBA,,IAD
PE60N16KYG,06/05/2021 15:55,06/05/2021 15:55,Pay Bill from 254798844460 - WYCLIFFE ODHIAMBO NYAGOA Acc. KAC,Completed,10000,,221500,TRUE,Pay Utility,254798844460 - WYCLIFFE ODHIAMBO NYAGOA,,KAC
PE61N0JT0Z,06/05/2021 15:43,06/05/2021 15:43,Pay Bill from 254717985596 - NICHOLAS KIPKOECH BUTIA Acc. hcf,Completed,9000,,211500,TRUE,Pay Utility,254717985596 - NICHOLAS KIPKOECH BUTIA,,hcf
PE62N0C21Y,06/05/2021 15:39,06/05/2021 15:39,Pay Bill from 254712187712 - JUDELEEN AHINDUKHA SHILOBELE Acc. IEA,Completed,10000,,202500,TRUE,Pay Utility,254712187712 - JUDELEEN AHINDUKHA SHILOBELE,,IEA
PE68MY186C,06/05/2021 14:53,06/05/2021 14:53,Pay Bill from 254722919144 - IBRAHIM HUSSEIN ALI Acc. JEH,Completed,10000,,192500,TRUE,Pay Utility,254722919144 - IBRAHIM HUSSEIN ALI,,JEH
PE61MX22D9,06/05/2021 14:33,06/05/2021 14:33,Pay Bill from 254716499837 - ASHA MUSA Acc. jfd,Completed,15000,,182500,TRUE,Pay Utility,254716499837 - ASHA MUSA,,jfd
PE61MUWJM1,06/05/2021 13:50,06/05/2021 13:50,Pay Bill Online from 254717809935 - LYDIAH WERU Acc. IDC,Completed,9500,,167500,TRUE,Pay Bill Online,254717809935 - LYDIAH WERU,,IDC
PE69MUK4IP,06/05/2021 13:43,06/05/2021 13:43,Pay Bill from 254723930071 - AMOS KITAVI KIVITE Acc. JCE,Completed,9000,,158000,TRUE,Pay Utility,254723930071 - AMOS KITAVI KIVITE,,JCE
PE69MUCYZ1,06/05/2021 13:39,06/05/2021 13:39,Pay Bill from 254721315975 - JOSEPH NDEGWA Acc. HEB,Completed,16000,,149000,TRUE,Pay Utility,254721315975 - JOSEPH NDEGWA,,HEB
PE62MT2OX2,06/05/2021 13:13,06/05/2021 13:13,Pay Bill from 254791318982 - ADULLAHI HASSAN Acc. jci,Completed,20000,,133000,TRUE,Pay Utility,254791318982 - ADULLAHI HASSAN,,jci
PE61MN9LG5,06/05/2021 11:12,06/05/2021 11:12,Pay Bill Online from 254722769473 - SAMSON CHALO Acc. IAB,Completed,15000,,113000,TRUE,Pay Bill Online,254722769473 - SAMSON CHALO,,IAB
PE67MMCX3Z,06/05/2021 10:53,06/05/2021 10:53,Pay Bill Online from 254710382992 - SIMON KAMAU MUIRURI Acc. JCD,Completed,15000,,98000,TRUE,Pay Bill Online,254710382992 - SIMON KAMAU MUIRURI,,JCD
PE67MLTT1Z,06/05/2021 10:41,06/05/2021 10:41,Pay Bill from 254712954563 - JOSEPH MUTISO KILONZO Acc. dac,Completed,20000,,83000,TRUE,Pay Utility,254712954563 - JOSEPH MUTISO KILONZO,,dac
PE62MKMQVG,06/05/2021 10:16,06/05/2021 10:16,Pay Bill from 254728670882 - SHARAD EDWARD ADALA OLUM Acc. KCK,Completed,15000,,63000,TRUE,Pay Utility,254728670882 - SHARAD EDWARD ADALA OLUM,,KCK
PE63MJN0SB,06/05/2021 09:54,06/05/2021 09:54,Pay Bill Online from 254708328466 - VENESSA NYARERU Acc. kcd,Completed,12000,,48000,TRUE,Pay Bill Online,254708328466 - VENESSA NYARERU,,kcd
PE61MH5C1J,06/05/2021 08:56,06/05/2021 08:56,Pay Bill Online from 254705951407 - CAROLINE WAITHIRA KAMAU Acc. IDH,Completed,16000,,36000,TRUE,Pay Utility with OD Online,254705951407 - CAROLINE WAITHIRA KAMAU,,IDH
PE67MG6M8D,06/05/2021 08:32,06/05/2021 08:32,Pay Bill Online from 254720381965 - JAMES NGUGI MWANIKI Acc. JBI,Completed,20000,,20000,TRUE,Pay Bill Online,254720381965 - JAMES NGUGI MWANIKI,,JBI
PE69MDO839,06/05/2021 07:13,06/05/2021 07:13,Utility Account to Organization Settlement Account,Completed,,-452000,0,TRUE,Utility Account to Organization Settlement Account,979524 - ANCIENT WELLS PROPERTY MANAGERS 2,,
PE67MDBBFF,06/05/2021 06:56,06/05/2021 06:56,Pay Bill from 254725218904 - SALOME MUTHONI MWANGI Acc. KFJ,Completed,15000,,452000,TRUE,Pay Utility,254725218904 - SALOME MUTHONI MWANGI,,KFJ
PE67MD4XWX,06/05/2021 06:46,06/05/2021 06:46,Pay Bill from 254700379039 - MARTIN KIMANI Acc. KCI,Completed,12000,,437000,TRUE,Pay Utility,254700379039 - MARTIN KIMANI,,KCI
PE69MCY0BP,06/05/2021 06:32,06/05/2021 06:32,Pay Bill from 254722358654 - TOM MAKORI ONGERI Acc. icc,Completed,9000,,425000,TRUE,Pay Utility,254722358654 - TOM MAKORI ONGERI,,icc
PE63MCR561,06/05/2021 06:15,06/05/2021 06:15,Pay Bill from 254722521028 - CHARLES MONYONCHO Acc. ICB,Completed,17000,,416000,TRUE,Pay Utility,254722521028 - CHARLES MONYONCHO,,ICB
PE67MCG7LT,06/05/2021 05:13,06/05/2021 05:13,Pay Bill Online from 254705846408 - JAMES OUMA Acc. HBH,Completed,19000,,399000,TRUE,Pay Bill Online,254705846408 - JAMES OUMA,,HBH
PE69MBX1QV,06/05/2021 01:18,06/05/2021 01:18,Pay Bill from 254798643998 - Judith Mwaniki Acc. kce,Completed,10000,,380000,TRUE,Pay Utility,254798643998 - Judith Mwaniki,,kce
PE63MBM6H5,06/05/2021 00:17,06/05/2021 00:17,Pay Bill from 254729355933 - FELISTAH NJERI WAIRIMU Acc. IDI,Completed,15000,,370000,TRUE,Pay Utility,254729355933 - FELISTAH NJERI WAIRIMU,,IDI
PE55MB05H5,05/05/2021 23:06,05/05/2021 23:06,Pay Bill from 254726028330 - JOHN WAMBUA Acc. IFH,Completed,15000,,355000,TRUE,Pay Utility,254726028330 - JOHN WAMBUA,,IFH
PE51MAKG1H,05/05/2021 22:37,05/05/2021 22:37,Pay Bill from 254716056537 - KIRUI KIPLANGAT HILLARY Acc. JCJ,Completed,16000,,340000,TRUE,Pay Utility,254716056537 - KIRUI KIPLANGAT HILLARY,,JCJ
PE55MAK83R,05/05/2021 22:36,05/05/2021 22:36,Pay Bill from 0757259130 - RASHID SUDI MCHOMBO Acc. JAF,Completed,8000,,324000,TRUE,Pay Utility,0757259130 - RASHID SUDI MCHOMBO,,JAF
PE51MAB0PD,05/05/2021 22:22,05/05/2021 22:22,Pay Bill Online from 254728897908 - Teddy Allan Onyango Acc. KCF,Completed,10000,,316000,TRUE,Pay Bill Online,254728897908 - Teddy Allan Onyango,,KCF
PE59M83GS7,05/05/2021 21:15,05/05/2021 21:15,Pay Bill from 0792441884 - CORNELIA CONRAD MVULA Acc. IBB,Completed,15000,,306000,TRUE,Pay Utility,0792441884 - CORNELIA CONRAD MVULA,,IBB
PE53M7O2S5,05/05/2021 21:05,05/05/2021 21:05,Pay Bill Online from 254711721087 - MUTHIANI KYULE Acc. IDB ,Completed,15000,,291000,TRUE,Pay Bill Online,254711721087 - MUTHIANI KYULE,,IDB
PE50M63C2U,05/05/2021 20:35,05/05/2021 20:35,Pay Bill from 254717140158 - Peter Wanjiru Acc. HFB,Completed,15000,,276000,TRUE,Pay Utility,254717140158 - Peter Wanjiru,,HFB
PE57M36WE5,05/05/2021 19:48,05/05/2021 19:48,Pay Bill from 254710106394 - LUCY TONKEI Acc. KBG,Completed,9000,,261000,TRUE,Pay Utility,254710106394 - LUCY TONKEI,,KBG
PE54M2ZBDG,05/05/2021 19:46,05/05/2021 19:46,Pay Bill from 254725909984 - TIMOTHY ODHIAMBO OWITI Acc. JDE,Completed,10000,,252000,TRUE,Pay Utility,254725909984 - TIMOTHY ODHIAMBO OWITI,,JDE
PE50LYWQ1G,05/05/2021 18:54,05/05/2021 18:54,Pay Bill from 254792224857 - FRANKLIN MIWO OGUNDA ODHIAMBO Acc. IAG,Completed,9500,,242000,TRUE,Pay Utility,254792224857 - FRANKLIN MIWO OGUNDA ODHIAMBO,,IAG
PE59LYSVFZ,05/05/2021 18:52,05/05/2021 18:52,Pay Bill Online from 254703550369 - ANASTASIA jepkoech Acc. KAG,Completed,10000,,232500,TRUE,Pay Bill Online,254703550369 - ANASTASIA jepkoech,,KAG
PE57LY3X79,05/05/2021 18:43,05/05/2021 18:43,Pay Bill from 0799122666 - ERIC WAWERU KIAMA Acc. FAA,Completed,16000,,222500,TRUE,Pay Utility,0799122666 - ERIC WAWERU KIAMA,,FAA
PE56LX8Y4Q,05/05/2021 18:32,05/05/2021 18:32,Pay Bill from 254722569870 - LUKA KEITANY Acc. jfj,Completed,15000,,206500,TRUE,Pay Utility,254722569870 - LUKA KEITANY,,jfj
PE59LW0AMT,05/05/2021 18:14,05/05/2021 18:14,Pay Bill from 254723643548 - KEVIN OUKO Acc. FDD,Completed,11000,,191500,TRUE,Pay Utility with OD via STK,254723643548 - KEVIN OUKO,,FDD
PE53LRTJ2Z,05/05/2021 17:10,05/05/2021 17:10,Pay Bill from 254724882554 - ALPHONCE WAMBUA NGELI Acc. JDA,Completed,20000,,180500,TRUE,Pay Utility,254724882554 - ALPHONCE WAMBUA NGELI,,JDA
PE53LRGI5V,05/05/2021 17:04,05/05/2021 17:04,Pay Bill Online from 254710814215 - JOAN NYAMBURA KAMAU Acc. ifb,Completed,15000,,160500,TRUE,Pay Bill Online,254710814215 - JOAN NYAMBURA KAMAU,,ifb
PE59LOTZM3,05/05/2021 16:19,05/05/2021 16:19,Pay Bill from 254792187144 - HASSAN AHMED HASSAN Acc. KGI,Completed,10000,,145500,TRUE,Pay Utility,254792187144 - HASSAN AHMED HASSAN,,KGI
PE50LMXWDO,05/05/2021 15:43,05/05/2021 15:43,Pay Bill Online from 0724386624 - FATUMA ISSE YUSSUF Acc. FAB,Completed,16000,,135500,TRUE,Pay Utility with OD Online,0724386624 - FATUMA ISSE YUSSUF,,FAB
PE52LM211K,05/05/2021 15:26,05/05/2021 15:26,Pay Bill from 254716328009 - IRENE ODHIAMBO Acc. KGG,Completed,9000,,119500,TRUE,Pay Utility,254716328009 - IRENE ODHIAMBO,,KGG
PE58LL3ZZ8,05/05/2021 15:07,05/05/2021 15:07,Pay Bill Online from 254715892656 - DENNIS MUSYOKA MUOKI Acc. KFA,Completed,16000,,110500,TRUE,Pay Bill Online,254715892656 - DENNIS MUSYOKA MUOKI,,KFA
PE58LK4314,05/05/2021 14:48,05/05/2021 14:48,Pay Bill from 254769102712 - VALARIA VUTALE AZENGA Acc. KAD,Completed,11000,,94500,TRUE,Pay Utility with OD via STK,254769102712 - VALARIA VUTALE AZENGA,,KAD
PE53LH8UVV,05/05/2021 13:51,05/05/2021 13:51,Pay Bill from 254728259571 - ANNE KASIVA Acc. ieb,Completed,15000,,83500,TRUE,Pay Utility,254728259571 - ANNE KASIVA,,ieb
PE53LB8IEV,05/05/2021 11:52,05/05/2021 11:52,Pay Bill from 254722992162 - JAEL MWANDILOH Acc. DCB,Completed,16000,,68500,TRUE,Pay Utility,254722992162 - JAEL MWANDILOH,,DCB
PE55L71ZRT,05/05/2021 10:27,05/05/2021 10:27,Pay Bill Online from 0757699775 - BENARD MUIA MUTUA Acc. HCB,Completed,16000,,52500,TRUE,Pay Bill Online,0757699775 - BENARD MUIA MUTUA,,HCB
PE58L6A7F4,05/05/2021 10:10,05/05/2021 10:10,Pay Bill Online from 254706898046 - STACY AKETCH OCHUKA Acc. KED,Completed,4000,,36500,TRUE,Pay Bill Online,254706898046 - STACY AKETCH OCHUKA,,KED
PE57L64RNL,05/05/2021 10:07,05/05/2021 10:07,Pay Bill from 254720868281 - KENNEDY MWELU Acc. KBI,Completed,12500,,32500,TRUE,Pay Utility,254720868281 - KENNEDY MWELU,,KBI
PE56L5021C,05/05/2021 09:43,05/05/2021 09:43,Pay Bill from 254725754547 - MWACHIRO GEORGE DECHE Acc. DFC,Completed,20000,,20000,TRUE,Pay Utility,254725754547 - MWACHIRO GEORGE DECHE,,DFC
PE57L45CIH,05/05/2021 09:25,05/05/2021 09:25,Utility Account to Organization Settlement Account,Completed,,-332500,0,TRUE,Utility Account to Organization Settlement Account,979524 - ANCIENT WELLS PROPERTY MANAGERS 2,,
PE50L1OYDM,05/05/2021 08:26,05/05/2021 08:26,Pay Bill from 254798022849 - MARTIN BUNDI RUGENDO Acc. KFH,Completed,10000,,332500,TRUE,Pay Utility,254798022849 - MARTIN BUNDI RUGENDO,,KFH
PE51L02R3D,05/05/2021 07:39,05/05/2021 07:39,Pay Bill from 254720511734 - ENOCK KIBET Acc. FDC,Completed,9000,,322500,TRUE,Pay Utility,254720511734 - ENOCK KIBET,,FDC
