Receipt No.,Completion Time,Initiation Time,Details,Transaction Status,Paid In,Withdrawn,Balance,Balance Confirmed,Reason Type,Other Party Info,Linked Transaction ID,A/C No.
PIM98OUTBR,22/09/2021 11:46,22/09/2021 11:46,Pay Bill from 0711117122 - Yassir Mwinyi Abdulrazaq Acc. ICE,Completed,1200,,11900,TRUE,Pay Utility,0711117122 - Yassir Mwinyi Abdulrazaq,,ICE
PIM78L0BST,22/09/2021 10:27,22/09/2021 10:27,Pay Bill Online from 254706427665 - CHRIS KIRIMI Acc. V22,Completed,200,,10700,TRUE,Pay Bill Online,254706427665 - CHRIS KIRIMI,,V22
PIL989QF8X,21/09/2021 22:46,21/09/2021 22:46,Pay Bill Online from 254707049818 - LUCKY TSUMA Acc. V19,Completed,400,,10500,TRUE,Pay Bill Online,254707049818 - LUCKY TSUMA,,V19
PIL6896XX2,21/09/2021 22:19,21/09/2021 22:19,Pay Bill from 0740422187 - KEVIN MAKATO KUNGA Acc. KEG,Completed,1600,,10100,TRUE,Pay Utility,0740422187 - KEVIN MAKATO KUNGA,,KEG
PIL985IMBF,21/09/2021 20:50,21/09/2021 20:50,Pay Bill from 0743914369 - LYDIAH NJOKI MUCHIRI Acc. jeb,Completed,600,,8500,TRUE,Pay Utility,0743914369 - LYDIAH NJOKI MUCHIRI,,jeb
PIL882265K,21/09/2021 19:58,21/09/2021 19:58,Pay Bill from 254725111246 - FRANCIS MUUTU MWANGANGI Acc. IGI,Completed,600,,7900,TRUE,Pay Utility,254725111246 - FRANCIS MUUTU MWANGANGI,,IGI
PIL181NSX3,21/09/2021 19:52,21/09/2021 19:52,Pay Bill from 0758457508 - PETER KINGORI KAGUNDA Acc. V06,Completed,200,,7300,TRUE,Pay Utility,0758457508 - PETER KINGORI KAGUNDA,,V06
PIL281LIOK,21/09/2021 19:51,21/09/2021 19:51,Pay Bill Online from 254728093389 - MOHAMED MUSA ALASOW Acc. KED,Completed,400,,7100,TRUE,Pay Bill Online,254728093389 - MOHAMED MUSA ALASOW,,KED
PIL180K9BN,21/09/2021 19:38,21/09/2021 19:38,Pay Bill Online from 254799723423 - REGINA WANGUI MAINA Acc. DCD,Completed,1400,,6700,TRUE,Pay Bill Online,254799723423 - REGINA WANGUI MAINA,,DCD
PIL5806JOD,21/09/2021 19:34,21/09/2021 19:34,Pay Bill from 0792933158 - mary wamaitha maina Acc. kdh,Completed,400,,5300,TRUE,Pay Utility,0792933158 - mary wamaitha maina,,kdh
PIL7805R9N,21/09/2021 19:34,21/09/2021 19:34,Pay Bill from 254720931300 - ESTHER WANJIRU NDUNGO Acc. KGE,Completed,800,,4900,TRUE,Pay Utility,254720931300 - ESTHER WANJIRU NDUNGO,,KGE
PIL77ZIILD,21/09/2021 19:26,21/09/2021 19:26,Pay Bill from 254720249209 - WILFRED NJUGUNA WANJIRA Acc. DDD,Completed,1800,,4100,TRUE,Pay Utility,254720249209 - WILFRED NJUGUNA WANJIRA,,DDD
PIL87XB9M6,21/09/2021 19:02,21/09/2021 19:02,Pay Bill from 254700382442 - EVERLYNE MWENDE MUMO Acc. FGC,Completed,200,,2300,TRUE,Pay Utility,254700382442 - EVERLYNE MWENDE MUMO,,FGC
PIK66K0F5U,20/09/2021 20:01,20/09/2021 20:01,Pay Bill from 254724852503 - GEOFREY YEGO Acc. JFF,Completed,300,,2100,TRUE,Pay Utility,254724852503 - GEOFREY YEGO,,JFF
PIK05JQLHW,20/09/2021 09:52,20/09/2021 09:52,Pay Bill from 0769929240 - Calvince Klein Alal Acc. v02,Completed,1000,,1800,TRUE,Pay Utility with OD via STK,0769929240 - Calvince Klein Alal,,v02
PIJ1502MXT,19/09/2021 19:18,19/09/2021 19:18,Pay Bill Online from 254715020357 - ELIZABETH NJERI WARARI Acc. C2,Completed,200,,800,TRUE,Pay Bill Online,254715020357 - ELIZABETH NJERI WARARI,,C2
PIJ74ZWLAP,19/09/2021 19:16,19/09/2021 19:16,Pay Bill Online from 254715020357 - ELIZABETH NJERI WARARI Acc. C2,Completed,200,,600,TRUE,Pay Bill Online,254715020357 - ELIZABETH NJERI WARARI,,C2
PIJ149NEHJ,19/09/2021 11:35,19/09/2021 11:35,Pay Bill from 254728888511 - HAMISI MIRITI Acc. KAK,Completed,400,,400,TRUE,Pay Utility,254728888511 - HAMISI MIRITI,,KAK
PIH714IRGB,17/09/2021 10:03,17/09/2021 10:03,Utility Account to Organization Settlement Account,Completed,,-13100,0,TRUE,Utility Account to Organization Settlement Account,846783 - ANCIENT WELLS LTD 4,,
PIH210GGWW,17/09/2021 08:34,17/09/2021 08:34,Pay Bill Online from 254711721087 - MUTHIANI KYULE Acc. IDB,Completed,1500,,13100,TRUE,Pay Bill Online,254711721087 - MUTHIANI KYULE,,IDB
PIG0YQ01J0,16/09/2021 11:12,16/09/2021 11:12,Pay Bill from 254727585857 - PETER MUOKI NGUNDO Acc. peter muoki e6,Completed,600,,11600,TRUE,Pay Utility,254727585857 - PETER MUOKI NGUNDO,,peter
PIF6YCFE9C,15/09/2021 22:38,15/09/2021 22:38,Pay Bill from 254720351482 - Cheruiyot Langat Brian Acc. dfa,Completed,800,,11000,TRUE,Pay Utility with OD via STK,254720351482 - Cheruiyot Langat Brian,,dfa
PIF6Y48SA2,15/09/2021 19:54,15/09/2021 19:54,Pay Bill from 0727542914 - Pascal Ouma Opar Acc. pascalv45,Completed,600,,10200,TRUE,Pay Utility,0727542914 - Pascal Ouma Opar,,pascalv45
PIF4XT7A50,15/09/2021 17:44,15/09/2021 17:44,Pay Bill Online from 254720062144 - CAROLINE AMONDI OKELO Acc. f4,Completed,1000,,9600,TRUE,Pay Bill Online,254720062144 - CAROLINE AMONDI OKELO,,f4
PIF6XLUIM2,15/09/2021 15:45,15/09/2021 15:45,Pay Bill Online from 254722249092 - MARIAM ABDULLAHI Acc. KEH,Completed,400,,8600,TRUE,Pay Utility with OD Online,254722249092 - MARIAM ABDULLAHI,,KEH
PIF7XGOI2J,15/09/2021 14:08,15/09/2021 14:08,Pay Bill from 254704111133 - ELVIS OTIENO Acc. HFD,Completed,2000,,8200,TRUE,Pay Utility,254704111133 - ELVIS OTIENO,,HFD
PIF5XE8Q3B,15/09/2021 13:23,15/09/2021 13:23,Pay Bill from 254715213277 - ELIZABETH MTTHAMA Acc. D5,Completed,1000,,6200,TRUE,Pay Utility,254715213277 - ELIZABETH MTTHAMA,,D5
PIF3XAKJ01,15/09/2021 12:13,15/09/2021 12:13,Pay Bill Online from 254715764212 - BANCE ISHEMINYE Acc. JFE ,Completed,600,,5200,TRUE,Pay Bill Online,254715764212 - BANCE ISHEMINYE,,JFE
PIF7X7WXMZ,15/09/2021 11:21,15/09/2021 11:21,Pay Bill from 0722950695 - Joshua Mbithi Kivondo Acc. Dca,Completed,2000,,4600,TRUE,Pay Utility,0722950695 - Joshua Mbithi Kivondo,,Dca
PIF3WXB5WZ,15/09/2021 07:22,15/09/2021 07:22,Pay Bill from 254718009051 - STEPHEN OMOLLO Acc. JDF,Completed,1000,,2600,TRUE,Pay Utility with OD via STK,254718009051 - STEPHEN OMOLLO,,JDF
PIE6W8C7ES,14/09/2021 17:20,14/09/2021 17:20,Pay Bill from 254703528196 - ERIC GITONGA MUGO Acc. KGJ,Completed,1000,,1600,TRUE,Pay Utility with OD via STK,254703528196 - ERIC GITONGA MUGO,,KGJ
PIE9VHDA3P,14/09/2021 08:51,14/09/2021 08:51,Pay Bill Online from 254720360607 - MARITIM SUSAN CHEBET Acc. V49,Completed,600,,600,TRUE,Pay Utility with OD Online,254720360607 - MARITIM SUSAN CHEBET,,V49
PID6V8O6IO,13/09/2021 21:50,13/09/2021 21:50,Utility Account to Organization Settlement Account,Completed,,-800,0,TRUE,Utility Account to Organization Settlement Account,846783 - ANCIENT WELLS LTD 4,,
PID5V87CPR,13/09/2021 21:38,13/09/2021 21:38,Pay Bill from 0717042461 - Sharon Nyangasi Shivachi Acc. V55,Completed,200,,800,TRUE,Pay Utility,0717042461 - Sharon Nyangasi Shivachi,,V55
PID8UTFSA6,13/09/2021 18:16,13/09/2021 18:16,Pay Bill from 254728238249 - ESTHER WANGUI KIBUNYI Acc. ICA,Completed,200,,600,TRUE,Pay Utility,254728238249 - ESTHER WANGUI KIBUNYI,,ICA
PID5U3ODK5,13/09/2021 10:31,13/09/2021 10:31,Pay Bill from 254716702294 - DANIEL MULATI Acc. KBE,Completed,400,,400,TRUE,Pay Utility,254716702294 - DANIEL MULATI,,KBE
PID4U1GOVM,13/09/2021 09:47,13/09/2021 09:47,Utility Account to Organization Settlement Account,Completed,,-2500,0,TRUE,Utility Account to Organization Settlement Account,846783 - ANCIENT WELLS LTD 4,,
PIB7RNCVOF,11/09/2021 15:46,11/09/2021 15:46,Pay Bill from 254717189880 - TABITHA MAISIBA Acc. JEI,Completed,2500,,2500,TRUE,Pay Utility,254717189880 - TABITHA MAISIBA,,JEI
PIB2RG6MJW,11/09/2021 13:45,11/09/2021 13:45,Utility Account to Organization Settlement Account,Completed,,-400,0,TRUE,Utility Account to Organization Settlement Account,846783 - ANCIENT WELLS LTD 4,,
PIA7QMBXF5,10/09/2021 20:10,10/09/2021 20:10,Pay Bill from 254703451075 - SHICHENGA MARK Acc. D2,Completed,400,,400,TRUE,Pay Utility,254703451075 - SHICHENGA MARK,,D2
PIA3PMXOC7,10/09/2021 10:47,10/09/2021 10:47,Utility Account to Organization Settlement Account,Completed,,-22100,0,TRUE,Utility Account to Organization Settlement Account,846783 - ANCIENT WELLS LTD 4,,
PIA9PD79G9,10/09/2021 06:45,10/09/2021 06:45,Pay Bill from 0799028632 - WILSON MUTANGILI WAMBUA Acc. haf,Completed,400,,22100,TRUE,Pay Utility,0799028632 - WILSON MUTANGILI WAMBUA,,haf
PI94OGRVFQ,09/09/2021 14:11,09/09/2021 14:11,Pay Bill from 0792933158 - mary wamaitha maina Acc. kdh,Completed,400,,21700,TRUE,Pay Utility,0792933158 - mary wamaitha maina,,kdh
PI91OG9F8J,09/09/2021 14:01,09/09/2021 14:01,Pay Bill from 254701196539 - GICHURI KARANJA Acc. Fee,Completed,1600,,21300,TRUE,Pay Utility,254701196539 - GICHURI KARANJA,,Fee
PI90OFJBAQ,09/09/2021 13:47,09/09/2021 13:47,Pay Bill Online from 254706549634 - CLINTON OMBASA Acc. FDB,Completed,600,,19700,TRUE,Pay Utility with OD Online,254706549634 - CLINTON OMBASA,,FDB
PI90OAO6C4,09/09/2021 12:12,09/09/2021 12:12,Pay Bill Online from 254703176849 - ROYAL MUYA Acc. F2,Completed,800,,19100,TRUE,Pay Bill Online,254703176849 - ROYAL MUYA,,F2
PI88NUSO7Q,08/09/2021 23:00,08/09/2021 23:00,Pay Bill from 254713229967 - John Mugabo Simba Acc. E4,Completed,1800,,18300,TRUE,Pay Utility,254713229967 - John Mugabo Simba,,E4
PI81NNXAKH,08/09/2021 20:13,08/09/2021 20:13,Pay Bill from 254791318982 - ADULLAHI HASSAN Acc. JCI,Completed,2000,,16500,TRUE,Pay Utility,254791318982 - ADULLAHI HASSAN,,JCI
PI87NGRHFJ,08/09/2021 18:49,08/09/2021 18:49,Pay Bill from 254702044732 - GUYATU OLLO GALGALO Acc. DGD,Completed,2800,,14500,TRUE,Pay Utility,254702044732 - GUYATU OLLO GALGALO,,DGD
PI89NBM0C1,08/09/2021 17:45,08/09/2021 17:45,Pay Bill from 254707872947 - PRISCILA AGUNGA ALUGANJA Acc. V16,Completed,800,,11700,TRUE,Pay Utility,254707872947 - PRISCILA AGUNGA ALUGANJA,,V16
PI84N6JHAY,08/09/2021 16:30,08/09/2021 16:30,Pay Bill from 254724655033 - SUSAN CHIMOTO Acc. KGH,Completed,800,,10900,TRUE,Pay Utility,254724655033 - SUSAN CHIMOTO,,KGH
PI87MU6TR3,08/09/2021 12:56,08/09/2021 12:56,Pay Bill from 254723930071 - AMOS KITAVI KIVITE Acc. JCE,Completed,400,,10100,TRUE,Pay Utility,254723930071 - AMOS KITAVI KIVITE,,JCE
PI86MLOUY0,08/09/2021 10:23,08/09/2021 10:23,Pay Bill from 254720496449 - STANLEY KIPKOECH RONO Acc. FBE,Completed,1500,,9700,TRUE,Pay Utility,254720496449 - STANLEY KIPKOECH RONO,,FBE
PI84MITEJC,08/09/2021 09:27,08/09/2021 09:27,Pay Bill from 254742395038 - PETER MTALAKI CHRISTOPHER Acc. V25,Completed,100,,8200,TRUE,Pay Utility,254742395038 - PETER MTALAKI CHRISTOPHER,,V25
PI85MIQ8F1,08/09/2021 09:25,08/09/2021 09:25,Pay Bill from 254742395038 - PETER MTALAKI CHRISTOPHER Acc. V25,Completed,100,,8100,TRUE,Pay Utility,254742395038 - PETER MTALAKI CHRISTOPHER,,V25
PI82MEJELW,08/09/2021 07:46,08/09/2021 07:46,Pay Bill Online from 254714597495 - WAMBUA KIOKO Acc. C1,Completed,800,,8000,TRUE,Pay Bill Online,254714597495 - WAMBUA KIOKO,,C1
PI73M4WY1F,07/09/2021 20:39,07/09/2021 20:39,Pay Bill from 254717985596 - NICHOLAS KIPKOECH BUTIA Acc. hcf,Completed,800,,7200,TRUE,Pay Utility,254717985596 - NICHOLAS KIPKOECH BUTIA,,hcf
PI71M4GQQH,07/09/2021 20:32,07/09/2021 20:32,Pay Bill from 254708499439 - ROSE NDEDE Acc. HGF,Completed,400,,6400,TRUE,Pay Utility with OD via STK,254708499439 - ROSE NDEDE,,HGF
PI76M2KWEG,07/09/2021 20:05,07/09/2021 20:05,Pay Bill from 254726337163 - HALIMA ALI HASSAN Acc. DDA,Completed,1000,,6000,TRUE,Pay Utility,254726337163 - HALIMA ALI HASSAN,,DDA
PI76M27FGE,07/09/2021 20:00,07/09/2021 20:00,Pay Bill from 254704833344 - LOISE KIMANI Acc. jfa,Completed,400,,5000,TRUE,Pay Utility,254704833344 - LOISE KIMANI,,jfa
PI73LS72PP,07/09/2021 18:02,07/09/2021 18:02,Pay Bill from 254703690697 - CATHERINE MURAGE Acc. V21,Completed,200,,4600,TRUE,Pay Utility,254703690697 - CATHERINE MURAGE,,V21
PI77LOTM3X,07/09/2021 17:13,07/09/2021 17:13,Pay Bill from 254798643998 - Judith Mwaniki Acc. kce,Completed,1400,,4400,TRUE,Pay Utility,254798643998 - Judith Mwaniki,,kce
PI70LMPJOO,07/09/2021 16:38,07/09/2021 16:38,Pay Bill Online from 254722769473 - SAMSON CHALO Acc. IAB,Completed,600,,3000,TRUE,Pay Bill Online,254722769473 - SAMSON CHALO,,IAB
PI70LGWO48,07/09/2021 14:52,07/09/2021 14:52,Pay Bill from 254726172957 - VINCENT OLIENG' Acc. HBC,Completed,800,,2400,TRUE,Pay Utility,254726172957 - VINCENT OLIENG',,HBC
PI79L4T70X,07/09/2021 11:01,07/09/2021 11:01,Pay Bill Online from 254728687482 - KELSEN MWIRIGI MUTIGA Acc. HCE,Completed,800,,1600,TRUE,Pay Bill Online,254728687482 - KELSEN MWIRIGI MUTIGA,,HCE
PI76L4ECZA,07/09/2021 10:53,07/09/2021 10:53,Pay Bill from 254721539716 - OCTAVIAN MWANYALO Acc. C6,Completed,200,,800,TRUE,Pay Utility,254721539716 - OCTAVIAN MWANYALO,,C6
PI77L4AB9H,07/09/2021 10:50,07/09/2021 10:50,Pay Bill from 254729541871 - ROBERT KULEI Acc. JAB,Completed,200,,600,TRUE,Pay Utility,254729541871 - ROBERT KULEI,,JAB
PI70L2YTS6,07/09/2021 10:24,07/09/2021 10:24,Pay Bill from 0799912339 - PETER KAMAU MURIU Acc. c5,Completed,400,,400,TRUE,Pay Utility,0799912339 - PETER KAMAU MURIU,,c5
PI70L09C4Y,07/09/2021 09:29,07/09/2021 09:29,Utility Account to Organization Settlement Account,Completed,,-43100,0,TRUE,Utility Account to Organization Settlement Account,846783 - ANCIENT WELLS LTD 4,,
PI70KXV8C6,07/09/2021 08:36,07/09/2021 08:36,FSI to Pay Bill by 714888 - B2C LOOP VIA NCBA Acc. FAD via WEB by B2C LOOP VIA NCBA\Cbainitiator,Completed,400,,43100,TRUE,FSI to Pay Bill via API,714888 - B2C LOOP VIA NCBA,,FAD
PI76KVBDZG,07/09/2021 07:28,07/09/2021 07:28,Pay Bill from 254724006242 - JOAN CHEBET Acc. JEG,Completed,300,,42700,TRUE,Pay Utility,254724006242 - JOAN CHEBET,,JEG
PI77KTCIFD,07/09/2021 05:16,07/09/2021 05:16,Pay Bill from 254742395038 - PETER MTALAKI CHRISTOPHER Acc. V25,Completed,100,,42400,TRUE,Pay Utility,254742395038 - PETER MTALAKI CHRISTOPHER,,V25
PI74KT9TV6,07/09/2021 04:57,07/09/2021 04:57,Pay Bill from 254742395038 - PETER MTALAKI CHRISTOPHER Acc. V25,Completed,100,,42300,TRUE,Pay Utility,254742395038 - PETER MTALAKI CHRISTOPHER,,V25
PI76KT8ZO0,07/09/2021 04:49,07/09/2021 04:49,Pay Bill from 254742395038 - PETER MTALAKI CHRISTOPHER Acc. V25,Completed,100,,42200,TRUE,Pay Utility,254742395038 - PETER MTALAKI CHRISTOPHER,,V25
PI64KSCN5Q,06/09/2021 23:46,06/09/2021 23:46,Pay Bill from 254726704782 - SALHA ROBBI MUSTAFA Acc. IGC,Completed,400,,42100,TRUE,Pay Utility,254726704782 - SALHA ROBBI MUSTAFA,,IGC
PI62KRP74O,06/09/2021 22:47,06/09/2021 22:47,Pay Bill from 254725771056 - CHARLES MURAGURI Acc. FCE,Completed,800,,41700,TRUE,Pay Utility,254725771056 - CHARLES MURAGURI,,FCE
PI61KQ5K73,06/09/2021 21:49,06/09/2021 21:49,Pay Bill from 254729590734 - PATRICK NDUNGA Acc. IDD,Completed,200,,40900,TRUE,Pay Utility,254729590734 - PATRICK NDUNGA,,IDD
PI60KON75Q,06/09/2021 21:14,06/09/2021 21:14,Pay Bill from 254724477912 - SAMUEL MURIMI Acc. HCD,Completed,200,,40700,TRUE,Pay Utility with OD via STK,254724477912 - SAMUEL MURIMI,,HCD
PI62KK9PXU,06/09/2021 20:03,06/09/2021 20:03,Pay Bill Online from 254705951407 - CAROLINE WAITHIRA KAMAU Acc. IDH,Completed,700,,40500,TRUE,Pay Utility with OD Online,254705951407 - CAROLINE WAITHIRA KAMAU,,IDH
PI63KFC3WV,06/09/2021 19:04,06/09/2021 19:04,Pay Bill from 254724882554 - ALPHONCE WAMBUA NGELI Acc. JDA,Completed,1600,,39800,TRUE,Pay Utility,254724882554 - ALPHONCE WAMBUA NGELI,,JDA
PI60KEAIUS,06/09/2021 18:53,06/09/2021 18:53,Pay Bill Online from 254725218904 - SALOME MUTHONI MWANGI Acc. KFJ,Completed,1000,,38200,TRUE,Pay Bill Online,254725218904 - SALOME MUTHONI MWANGI,,KFJ
PI61K8EIDX,06/09/2021 17:37,06/09/2021 17:37,Pay Bill Online from 254707315614 - TERESAH WANJIRU KIRAGU Acc. JDI,Completed,800,,37200,TRUE,Pay Bill Online,254707315614 - TERESAH WANJIRU KIRAGU,,JDI
PI63K7A7LX,06/09/2021 17:21,06/09/2021 17:21,Pay Bill from 254726465584 - JULIANA MUKELI MUTUNGA Acc. v4,Completed,600,,36400,TRUE,Pay Utility,254726465584 - JULIANA MUKELI MUTUNGA,,v4
PI62K70D0W,06/09/2021 17:17,06/09/2021 17:17,Pay Bill Online from 254716328009 - IRENE ODHIAMBO Acc. KGG,Completed,400,,35800,TRUE,Pay Bill Online,254716328009 - IRENE ODHIAMBO,,KGG
PI69K3BZZZ,06/09/2021 16:17,06/09/2021 16:17,Pay Bill from 254701379512 - veronicah minoo mwanza Acc. C3,Completed,10200,,35400,TRUE,Pay Utility with OD via STK,254701379512 - veronicah minoo mwanza,,C3
PI65K2HHHH,06/09/2021 16:02,06/09/2021 16:02,FSI to Pay Bill by 714888 - B2C LOOP VIA NCBA Acc. V40 via WEB by B2C LOOP VIA NCBA\Cbainitiator,Completed,400,,25200,TRUE,FSI to Pay Bill via API,714888 - B2C LOOP VIA NCBA,,V40
PI63JWIVOT,06/09/2021 14:13,06/09/2021 14:13,Pay Bill from 254723389922 - ANNE WANJIKU NDUNGU Acc. v53,Completed,500,,24800,TRUE,Pay Utility,254723389922 - ANNE WANJIKU NDUNGU,,v53
PI63JUUULX,06/09/2021 13:43,06/09/2021 13:43,Pay Bill from 254722136450 - MARY EVERLYN Acc. JAI,Completed,400,,24300,TRUE,Pay Utility with OD via STK,254722136450 - MARY EVERLYN,,JAI
PI60JUTYSA,06/09/2021 13:42,06/09/2021 13:42,Pay Bill Online from 0724386624 - FATUMA ISSE YUSSUF Acc. FAB,Completed,1000,,23900,TRUE,Pay Utility with OD Online,0724386624 - FATUMA ISSE YUSSUF,,FAB
PI64JR4JA0,06/09/2021 12:34,06/09/2021 12:34,Pay Bill from 254726687555 - ELIUD MUTHURE MICHENI Acc. KAI,Completed,600,,22900,TRUE,Pay Utility,254726687555 - ELIUD MUTHURE MICHENI,,KAI
PI62JG1F38,06/09/2021 08:59,06/09/2021 08:59,Pay Bill from 254792976771 - DANIEL MUTHAMA NDUNDA Acc. F1,Completed,400,,22300,TRUE,Pay Utility with OD via STK,254792976771 - DANIEL MUTHAMA NDUNDA,,F1
PI68JFLN4G,06/09/2021 08:50,06/09/2021 08:50,Pay Bill from 254718233980 - KAREN ASWANI Acc. HEC,Completed,600,,21900,TRUE,Pay Utility,254718233980 - KAREN ASWANI,,HEC
PI65JERTY7,06/09/2021 08:31,06/09/2021 08:31,Pay Bill from 254720511734 - ENOCK KIBET Acc. FDC,Completed,400,,21300,TRUE,Pay Utility,254720511734 - ENOCK KIBET,,FDC
PI68JE61ZS,06/09/2021 08:17,06/09/2021 08:17,Pay Bill Online from 254720381965 - JAMES NGUGI MWANIKI Acc. JBI,Completed,1800,,20900,TRUE,Pay Bill Online,254720381965 - JAMES NGUGI MWANIKI,,JBI
PI65JAIQHF,06/09/2021 05:38,06/09/2021 05:38,Pay Bill from 254742395038 - PETER MTALAKI CHRISTOPHER Acc. V25,Completed,100,,19100,TRUE,Pay Utility,254742395038 - PETER MTALAKI CHRISTOPHER,,V25
PI66JAIDEC,06/09/2021 05:36,06/09/2021 05:36,Pay Bill from 254742395038 - PETER MTALAKI CHRISTOPHER Acc. V25,Completed,100,,19000,TRUE,Pay Utility,254742395038 - PETER MTALAKI CHRISTOPHER,,V25
PI63JAHYMV,06/09/2021 05:34,06/09/2021 05:34,Pay Bill from 254742395038 - PETER MTALAKI CHRISTOPHER Acc. V25,Completed,100,,18900,TRUE,Pay Utility,254742395038 - PETER MTALAKI CHRISTOPHER,,V25
PI50J9B75E,05/09/2021 23:39,05/09/2021 23:39,Pay Bill from 254703555717 - SENGA SALIM Acc. hbb,Completed,600,,18800,TRUE,Pay Utility,254703555717 - SENGA SALIM,,hbb
PI58J99BHS,05/09/2021 23:33,05/09/2021 23:33,Pay Bill from 0792441884 - CORNELIA CONRAD MVULA Acc. IBB,Completed,1600,,18200,TRUE,Pay Utility,0792441884 - CORNELIA CONRAD MVULA,,IBB
PI59IZ6IJX,05/09/2021 19:29,05/09/2021 19:29,Pay Bill from 254110161166 - silvia khavai Acc. dbb,Completed,1000,,16600,TRUE,Pay Utility,254110161166 - silvia khavai,,dbb
PI52IYLNVU,05/09/2021 19:22,05/09/2021 19:22,Pay Bill Online from 254714563486 - BRIAN MMATA MUSERA Acc. KBJ,Completed,200,,15600,TRUE,Pay Bill Online,254714563486 - BRIAN MMATA MUSERA,,KBJ
PI55IYA1OD,05/09/2021 19:18,05/09/2021 19:18,Pay Bill from 0798115228 - samwel kariuki wanjigi Acc. kaf,Completed,400,,15400,TRUE,Pay Utility,0798115228 - samwel kariuki wanjigi,,kaf
PI57IP257F,05/09/2021 17:04,05/09/2021 17:04,Pay Bill from 254725754547 - MWACHIRO GEORGE DECHE Acc. DFC,Completed,2000,,15000,TRUE,Pay Utility,254725754547 - MWACHIRO GEORGE DECHE,,DFC
PI51IKJY9B,05/09/2021 15:44,05/09/2021 15:44,Pay Bill from 254790837715 - JULIUS MWASHUMBE MAGHANGA Acc. F5,Completed,1000,,13000,TRUE,Pay Utility,254790837715 - JULIUS MWASHUMBE MAGHANGA,,F5
PI52IJPTQU,05/09/2021 15:28,05/09/2021 15:28,Pay Bill from 0711494312 - CALVIN MAKWAKA AMULIOTO Acc. V08,Completed,800,,12000,TRUE,Pay Utility,0711494312 - CALVIN MAKWAKA AMULIOTO,,V08
PI58ICT2HK,05/09/2021 13:15,05/09/2021 13:15,Pay Bill from 254717465142 - EPHANTUS IRURA Acc. c4 muriithi,Completed,400,,11200,TRUE,Pay Utility,254717465142 - EPHANTUS IRURA,,c4
PI59I29IZ7,05/09/2021 09:20,05/09/2021 09:20,Pay Bill from 254723815832 - SEMEKIA ONDIALA Acc. v38,Completed,800,,10800,TRUE,Pay Utility,254723815832 - SEMEKIA ONDIALA,,v38
PI44HVDK94,04/09/2021 23:37,04/09/2021 23:37,Pay Bill from 254717140158 - Peter Wanjiru Acc. HFB,Completed,1000,,10000,TRUE,Pay Utility,254717140158 - Peter Wanjiru,,HFB
PI46HU8BS2,04/09/2021 22:29,04/09/2021 22:29,Pay Bill from 254724953672 - MERCY MBETI Acc. JCA,Completed,1800,,9000,TRUE,Pay Utility,254724953672 - MERCY MBETI,,JCA
PI42HTSC9M,04/09/2021 22:12,04/09/2021 22:12,Pay Bill from 254707183471 - PETINA NEKESA Acc. v23,Completed,400,,7200,TRUE,Pay Utility,254707183471 - PETINA NEKESA,,v23
PI48HOD0WC,04/09/2021 20:24,04/09/2021 20:24,Pay Bill from 254723643548 - KEVIN OUKO Acc. FDD,Completed,1000,,6800,TRUE,Pay Utility with OD via STK,254723643548 - KEVIN OUKO,,FDD
PI49HNBAKD,04/09/2021 20:10,04/09/2021 20:10,Pay Bill from 254718138578 - PAULINE KIOKO Acc. KFD,Completed,400,,5800,TRUE,Pay Utility,254718138578 - PAULINE KIOKO,,KFD
PI40HMIIAK,04/09/2021 19:59,04/09/2021 19:59,Pay Bill Online from 254715892656 - DENNIS MUSYOKA MUOKI Acc. KFA,Completed,200,,5400,TRUE,Pay Bill Online,254715892656 - DENNIS MUSYOKA MUOKI,,KFA
PI45HLARVT,04/09/2021 19:44,04/09/2021 19:44,Pay Bill from 254729355933 - FELISTAH NJERI WAIRIMU Acc. IDI,Completed,2000,,5200,TRUE,Pay Utility,254729355933 - FELISTAH NJERI WAIRIMU,,IDI
PI46HHGM4K,04/09/2021 19:00,04/09/2021 19:00,Pay Bill Online from 254711877988 - PATRICK KONZI Acc. b4,Completed,600,,3200,TRUE,Pay Bill Online,254711877988 - PATRICK KONZI,,b4
PI42HC8PUK,04/09/2021 17:53,04/09/2021 17:53,Pay Bill from 254729948896 - CAROLINE V MILIZA Acc. Fec,Completed,400,,2600,TRUE,Pay Utility,254729948896 - CAROLINE V MILIZA,,Fec
PI44HC69ZA,04/09/2021 17:53,04/09/2021 17:53,Pay Bill from 254703108159 - JOICE OGOLLA Acc. V50,Completed,200,,2200,TRUE,Pay Utility,254703108159 - JOICE OGOLLA,,V50
PI49H63CRJ,04/09/2021 16:19,04/09/2021 16:19,Pay Bill from 254723929380 - RHODAH K WAMBUA Acc. HEF,Completed,1000,,2000,TRUE,Pay Utility,254723929380 - RHODAH K WAMBUA,,HEF
PI45H34I7L,04/09/2021 15:28,04/09/2021 15:28,Pay Bill from 254719398942 - NORAH WAYUA MUNYAO Acc. KDC,Completed,600,,1000,TRUE,Pay Utility,254719398942 - NORAH WAYUA MUNYAO,,KDC
PI44H1QSZM,04/09/2021 15:04,04/09/2021 15:04,Pay Bill from 254715144865 - CAROL JULIET MUGOYA Acc. E2,Completed,400,,400,TRUE,Pay Utility,254715144865 - CAROL JULIET MUGOYA,,E2
PI41H0JACX,04/09/2021 14:43,04/09/2021 14:43,Utility Account to Organization Settlement Account,Completed,,-2800,0,TRUE,Utility Account to Organization Settlement Account,846783 - ANCIENT WELLS LTD 4,,
PI40GSMXJW,04/09/2021 12:22,04/09/2021 12:22,Pay Bill from 254710605251 - PAULINE OCHIENG Acc. hdc,Completed,400,,2800,TRUE,Pay Utility,254710605251 - PAULINE OCHIENG,,hdc
PI43GS3U79,04/09/2021 12:12,04/09/2021 12:12,Pay Bill Online from 254708225541 - JUDITH NKATHA SIMBA Acc. HDH,Completed,600,,2400,TRUE,Pay Bill Online,254708225541 - JUDITH NKATHA SIMBA,,HDH
PI40GQ1ACK,04/09/2021 11:33,04/09/2021 11:33,Pay Bill from 254723597642 - EMMANUEL RONO Acc. IFF,Completed,1000,,1800,TRUE,Pay Utility with OD via STK,254723597642 - EMMANUEL RONO,,IFF
PI42GOXYB4,04/09/2021 11:13,04/09/2021 11:13,Pay Bill from 254791273726 - JULLIET WINNIE OTIENO Acc. G1,Completed,200,,800,TRUE,Pay Utility,254791273726 - JULLIET WINNIE OTIENO,,G1
PI48GODFIC,04/09/2021 11:02,04/09/2021 11:02,Pay Bill from 254713701237 - Michael Wanjala Acc. G2,Completed,200,,600,TRUE,Pay Utility,254713701237 - Michael Wanjala,,G2
PI48GKSJX2,04/09/2021 09:52,04/09/2021 09:52,Pay Bill from 254720623535 - JOSEPH MUTURI KAMAU Acc. V32,Completed,400,,400,TRUE,Pay Utility with OD via STK,254720623535 - JOSEPH MUTURI KAMAU,,V32
PI43GIA5N1,04/09/2021 09:00,04/09/2021 09:00,Utility Account to Organization Settlement Account,Completed,,-7300,0,TRUE,Utility Account to Organization Settlement Account,846783 - ANCIENT WELLS LTD 4,,
PI48GHVSSS,04/09/2021 08:51,04/09/2021 08:51,Pay Bill from 254741791919 - Linet Mongina Maraga Acc. u3,Completed,900,,7300,TRUE,Pay Utility,254741791919 - Linet Mongina Maraga,,u3
PI40GHLIO4,04/09/2021 08:44,04/09/2021 08:44,Pay Bill from 254708915764 - GEORGE WAHOME Acc. V18,Completed,400,,6400,TRUE,Pay Utility,254708915764 - GEORGE WAHOME,,V18
PI46GFSQY2,04/09/2021 08:00,04/09/2021 08:00,Pay Bill from 254722514052 - JOSEPH NDIRANGU Acc. JCF,Completed,400,,6000,TRUE,Pay Utility,254722514052 - JOSEPH NDIRANGU,,JCF
PI36G4TGA6,03/09/2021 20:24,03/09/2021 20:24,Pay Bill from 254790627132 - Everline Mutave Kiio Acc. IGG,Completed,600,,5600,TRUE,Pay Utility,254790627132 - Everline Mutave Kiio,,IGG
PI39FRM8LL,03/09/2021 17:39,03/09/2021 17:39,Pay Bill from 254713404029 - ANNE ISEUNA Acc. DED,Completed,2800,,5000,TRUE,Pay Utility,254713404029 - ANNE ISEUNA,,DED
PI34FQKE5Y,03/09/2021 17:24,03/09/2021 17:24,Pay Bill from 254728670882 - SHARAD EDWARD ADALA OLUM Acc. KCK,Completed,1000,,2200,TRUE,Pay Utility,254728670882 - SHARAD EDWARD ADALA OLUM,,KCK
PI39FJYGB9,03/09/2021 15:37,03/09/2021 15:37,Pay Bill Online from 254799863492 - HIRANI MULJI Acc. JDB,Completed,1200,,1200,TRUE,Pay Bill Online,254799863492 - HIRANI MULJI,,JDB
PI36F7WYZI,03/09/2021 11:54,03/09/2021 11:54,Utility Account to Organization Settlement Account,Completed,,-6100,0,TRUE,Utility Account to Organization Settlement Account,846783 - ANCIENT WELLS LTD 4,,
PI30F726PA,03/09/2021 11:37,03/09/2021 11:37,Pay Bill Online from 254713498554 - HENRY KINYUA WARUI Acc. V44 Henry Warui,Completed,400,,6100,TRUE,Pay Bill Online,254713498554 - HENRY KINYUA WARUI,,V44
PI39EVZQZN,03/09/2021 07:42,03/09/2021 07:42,Pay Bill from 254722444622 - CHARITY KAGWAINI Acc. Ffd,Completed,400,,5700,TRUE,Pay Utility,254722444622 - CHARITY KAGWAINI,,Ffd
PI25ES83LB,02/09/2021 23:20,02/09/2021 23:20,Pay Bill from 254729796719 - JACINTA WANJIKU NJERI Acc. FFF,Completed,600,,5300,TRUE,Pay Utility,254729796719 - JACINTA WANJIKU NJERI,,FFF
PI27EQYLGL,02/09/2021 22:12,02/09/2021 22:12,Pay Bill Online from 254717809935 - LYDIAH WERU Acc. idc,Completed,400,,4700,TRUE,Pay Bill Online,254717809935 - LYDIAH WERU,,idc
PI25EN37ZD,02/09/2021 20:46,02/09/2021 20:46,Pay Bill from 254716315144 - PETER MUNYIRI WAROTERE Acc. FBB,Completed,400,,4300,TRUE,Pay Utility,254716315144 - PETER MUNYIRI WAROTERE,,FBB
PI28EM7FAU,02/09/2021 20:32,02/09/2021 20:32,Pay Bill Online from 254717780356 - ALFRED MAIRURA Acc. FAF,Completed,1500,,3900,TRUE,Pay Bill Online,254717780356 - ALFRED MAIRURA,,FAF
PI20EIDB22,02/09/2021 19:39,02/09/2021 19:39,Pay Bill from 254724466518 - EUNICE NDUTA Acc. KFF,Completed,1000,,2400,TRUE,Pay Utility,254724466518 - EUNICE NDUTA,,KFF
PI28E9SUDY,02/09/2021 17:57,02/09/2021 17:57,Pay Bill from 254718672924 - LILIAN CHEBET NGENO Acc. KGD,Completed,100,,1400,TRUE,Pay Utility,254718672924 - LILIAN CHEBET NGENO,,KGD
PI24E3IHKW,02/09/2021 16:19,02/09/2021 16:19,Pay Bill Online from 254718359438 - AHMAD TAHIR MACHENGO Acc. V11,Completed,400,,1300,TRUE,Pay Bill Online,254718359438 - AHMAD TAHIR MACHENGO,,V11
PI23DRYKR7,02/09/2021 12:43,02/09/2021 12:43,Pay Bill from 254718672924 - LILIAN CHEBET NGENO Acc. KGD,Completed,100,,900,TRUE,Pay Utility,254718672924 - LILIAN CHEBET NGENO,,KGD
PI22DR9H0G,02/09/2021 12:30,02/09/2021 12:30,Pay Bill Online from 254710814215 - JOAN NYAMBURA KAMAU Acc. ifb,Completed,800,,800,TRUE,Pay Bill Online,254710814215 - JOAN NYAMBURA KAMAU,,ifb
PI25DJOVJT,02/09/2021 10:01,02/09/2021 10:01,Utility Account to Organization Settlement Account,Completed,,-13800,0,TRUE,Utility Account to Organization Settlement Account,846783 - ANCIENT WELLS LTD 4,,
PI24DIVEG2,02/09/2021 09:45,02/09/2021 09:45,Pay Bill from 254722569870 - LUKA KEITANY Acc. jfj,Completed,400,,13800,TRUE,Pay Utility,254722569870 - LUKA KEITANY,,jfj
PI20DH42VI,02/09/2021 09:08,02/09/2021 09:08,Pay Bill from 0745378455 - harriet nyanchama nyaberi Acc. FCC,Completed,400,,13400,TRUE,Pay Utility,0745378455 - harriet nyanchama nyaberi,,FCC
PI10D6PHJA,01/09/2021 21:19,01/09/2021 21:19,Pay Bill from 254723499628 - CLINTON JOSEPH MUHARI Acc. hfh,Completed,1000,,13000,TRUE,Pay Utility,254723499628 - CLINTON JOSEPH MUHARI,,hfh
PI13D3C0V9,01/09/2021 20:20,01/09/2021 20:20,Pay Bill from 254721465713 - RHODA WAMBUI MWANGI Acc. jfh,Completed,800,,12000,TRUE,Pay Utility,254721465713 - RHODA WAMBUI MWANGI,,jfh
PI15D01UBF,01/09/2021 19:36,01/09/2021 19:36,Pay Bill from 254717726012 - WINFRED MUENI PETER Acc. IDA,Completed,600,,11200,TRUE,Pay Utility,254717726012 - WINFRED MUENI PETER,,IDA
PI19CZ6R1N,01/09/2021 19:26,01/09/2021 19:26,Pay Bill from 254721302658 - JACOB BIRUNDU Acc. DDB,Completed,400,,10600,TRUE,Pay Utility,254721302658 - JACOB BIRUNDU,,DDB
PI15CYH1WT,01/09/2021 19:18,01/09/2021 19:18,Pay Bill from 0114558202 - Bakari Ali Kitsaka Acc. JAD,Completed,400,,10200,TRUE,Pay Utility,0114558202 - Bakari Ali Kitsaka,,JAD
PI15CRANDF,01/09/2021 17:50,01/09/2021 17:50,Pay Bill from 254758951969 - WILKISTER IRAKO HARAMBEE Acc. 37847739,Completed,600,,9800,TRUE,Pay Utility,254758951969 - WILKISTER IRAKO HARAMBEE,,37847739
PI17CPOAQP,01/09/2021 17:27,01/09/2021 17:27,Pay Bill Online from 254711562428 - Lionel Mutune Muoka Acc. KDI,Completed,200,,9200,TRUE,Pay Bill Online,254711562428 - Lionel Mutune Muoka,,KDI
PI18CKNMGU,01/09/2021 16:06,01/09/2021 16:06,Pay Bill from 254798844460 - WYCLIFFE ODHIAMBO NYAGOA Acc. KAC,Completed,400,,9000,TRUE,Pay Utility,254798844460 - WYCLIFFE ODHIAMBO NYAGOA,,KAC
PI18CJNVUS,01/09/2021 15:48,01/09/2021 15:48,FSI to Pay Bill by 714888 - B2C LOOP VIA NCBA Acc. KCF via WEB by B2C LOOP VIA NCBA\Cbainitiator,Completed,1200,,8600,TRUE,FSI to Pay Bill via API,714888 - B2C LOOP VIA NCBA,,KCF
PI14CDNTNY,01/09/2021 13:56,01/09/2021 13:56,Pay Bill Online from 254711123196 - JUDITH MUTUA Acc. Fea,Completed,1800,,7400,TRUE,Pay Bill Online,254711123196 - JUDITH MUTUA,,Fea
PI11CCNMWZ,01/09/2021 13:37,01/09/2021 13:37,Pay Bill from 254710239100 - PHILOMENA WOKI MUTHAMA Acc. KDK,Completed,1000,,5600,TRUE,Pay Utility,254710239100 - PHILOMENA WOKI MUTHAMA,,KDK
PI16C9HVM0,01/09/2021 12:38,01/09/2021 12:38,Pay Bill from 254729371750 - DERRICK OTANGA Acc. FEF,Completed,600,,4600,TRUE,Pay Utility,254729371750 - DERRICK OTANGA,,FEF
PI18C7J8FW,01/09/2021 12:00,01/09/2021 12:00,Pay Bill Online from 254795510441 - LEWIS MUEMA Acc. KEB,Completed,400,,4000,TRUE,Pay Bill Online,254795510441 - LEWIS MUEMA,,KEB
PI12C4UXYE,01/09/2021 11:07,01/09/2021 11:07,Pay Bill from 0717216114 - Felix Njeru Mugambi Acc. kdf,Completed,800,,3600,TRUE,Pay Utility,0717216114 - Felix Njeru Mugambi,,kdf
PI13C0Y59X,01/09/2021 09:49,01/09/2021 09:49,Pay Bill Online from 254727766786 - JOHN MAITHA MULWA Acc. IBH,Completed,400,,2800,TRUE,Pay Bill Online,254727766786 - JOHN MAITHA MULWA,,IBH
PI15BYWN4V,01/09/2021 09:06,01/09/2021 09:06,Pay Bill from 254726753273 - JESSE K MURIRMI NJERU Acc. HCH,Completed,2400,,2400,TRUE,Pay Utility,254726753273 - JESSE K MURIRMI NJERU,,HCH
PI17BYGWNV,01/09/2021 08:57,01/09/2021 08:57,Utility Account to Organization Settlement Account,Completed,,-4800,0,TRUE,Utility Account to Organization Settlement Account,846783 - ANCIENT WELLS LTD 4,,
PI14BV3KM2,01/09/2021 07:32,01/09/2021 07:32,Pay Bill Online from 254714855708 - KIPLANGAT SITIENEI Acc. FAE,Completed,1000,,4800,TRUE,Pay Bill Online,254714855708 - KIPLANGAT SITIENEI,,FAE
PI16BTDVO8,01/09/2021 06:11,01/09/2021 06:11,Pay Bill from 254707226192 - NICHOLUS MAINGI MWANTHI Acc. HBF,Completed,200,,3800,TRUE,Pay Utility,254707226192 - NICHOLUS MAINGI MWANTHI,,HBF
PI15BSTQQP,01/09/2021 04:28,01/09/2021 04:28,Pay Bill Online from 254724005780 - IVY MARGARET OGOLA Acc. FFB,Completed,1000,,3600,TRUE,Pay Bill Online,254724005780 - IVY MARGARET OGOLA,,FFB
PI13BS3AND,01/09/2021 01:37,01/09/2021 01:37,Pay Bill from 254718284151 - EVERLINE MATHEKA Acc. JAG,Completed,400,,2600,TRUE,Pay Utility,254718284151 - EVERLINE MATHEKA,,JAG
