Receipt No.,Completion Time,Initiation Time,Details,Transaction Status,Paid In,Withdrawn,Balance,Balance Confirmed,Reason Type,Other Party Info,Linked Transaction ID,A/C No.
OLI1OE2WDL,18/12/2020 11:05,18/12/2020 11:05,Pay Bill from 254725756974 - MARTIN MUGAMBI Acc. v56,Completed,200,,17600,TRUE,Pay Utility,254725756974 - MARTIN MUGAMBI,,v56
OLI9OBOZL9,18/12/2020 10:12,18/12/2020 10:12,Pay Bill Online from 254723295023 - Murugan Achudhanantham Acc. HBA,Completed,600,,17400,TRUE,Pay Bill Online,254723295023 - Murugan Achudhanantham,,HBA
OLI1O9YFXL,18/12/2020 09:31,18/12/2020 09:31,Pay Bill from 254720068224 - ESAU JARREL MUNYWOKI Acc. V27,Completed,1000,,16800,TRUE,Pay Utility,254720068224 - ESAU JARREL MUNYWOKI,,V27
OLI5O3QHEL,18/12/2020 03:17,18/12/2020 03:17,Pay Bill Online from 254720451253 - JIMMY KIOGORA NKIROTE Acc. KBD,Completed,400,,15800,TRUE,Pay Bill Online,254720451253 - JIMMY KIOGORA NKIROTE,,KBD
OLH5O2AQ0D,17/12/2020 22:31,17/12/2020 22:31,Pay Bill from 254722910078 - MAUREEN MUNYIVA MUTUKU Acc. DBD,Completed,1000,,15400,TRUE,Pay Utility,254722910078 - MAUREEN MUNYIVA MUTUKU,,DBD
OLH0O1IVQA,17/12/2020 21:58,17/12/2020 21:58,Pay Bill from 254720868281 - KENNEDY MWELU Acc. KBI,Completed,400,,14400,TRUE,Pay Utility with OD via STK,254720868281 - KENNEDY MWELU,,KBI
OLH1NSY7B3,17/12/2020 19:13,17/12/2020 19:13,Pay Bill from 254723605941 - JOHN KARIHA Acc. KDD,Completed,500,,14000,TRUE,Pay Utility,254723605941 - JOHN KARIHA,,KDD
OLH5NRRQHF,17/12/2020 18:57,17/12/2020 18:57,Pay Bill from 254725756974 - MARTIN MUGAMBI Acc. v56,Completed,6600,,13500,TRUE,Pay Utility with OD via STK,254725756974 - MARTIN MUGAMBI,,v56
OLH4NOH7GC,17/12/2020 18:05,17/12/2020 18:05,Pay Bill Online from 254703624678 - Zacharia Gesora Omwoyo Acc. igd,Completed,600,,6900,TRUE,Pay Bill Online,254703624678 - Zacharia Gesora Omwoyo,,igd
OLH0NN7DJK,17/12/2020 17:44,17/12/2020 17:44,Pay Bill from 254725111246 - FRANCIS MWANGANGI Acc. IGI,Completed,400,,6300,TRUE,Pay Utility,254725111246 - FRANCIS MWANGANGI,,IGI
OLH9NHTSG1,17/12/2020 15:59,17/12/2020 15:59,Pay Bill Online from 254714889853 - EUNICE WAIRIMU MWANGI Acc. kge,Completed,800,,5900,TRUE,Pay Bill Online,254714889853 - EUNICE WAIRIMU MWANGI,,kge
OLH0N5RMA8,17/12/2020 11:30,17/12/2020 11:30,Pay Bill from 254715512742 - SHADRACK OGONJI Acc. KDG,Completed,800,,5100,TRUE,Pay Utility,254715512742 - SHADRACK OGONJI,,KDG
OLH0N5NZ9K,17/12/2020 11:28,17/12/2020 11:28,Pay Bill from 254728888511 - HAMISI MIRITI Acc. KAK,Completed,200,,4300,TRUE,Pay Utility,254728888511 - HAMISI MIRITI,,KAK
OLH3N5J5I3,17/12/2020 11:25,17/12/2020 11:25,Pay Bill from 254741583477 - omenda mzee aziz Acc. JEF,Completed,200,,4100,TRUE,Pay Utility,254741583477 - omenda mzee aziz,,JEF
OLH9N4Q3BH,17/12/2020 11:06,17/12/2020 11:06,Pay Bill from 0700206427 - Clare Nabalisa Mukasa Acc. HFA,Completed,600,,3900,TRUE,Pay Utility,0700206427 - Clare Nabalisa Mukasa,,HFA
OLH2N20SVS,17/12/2020 10:05,17/12/2020 10:05,Pay Bill from 254726337163 - HALIMA ALI HASSAN Acc. DDA,Completed,500,,3300,TRUE,Pay Utility,254726337163 - HALIMA ALI HASSAN,,DDA
OLH7N18J33,17/12/2020 09:47,17/12/2020 09:47,Pay Bill from 254720249209 - WILFRED NJUGUNA WANJIRI Acc. DDD,Completed,1400,,2800,TRUE,Pay Utility,254720249209 - WILFRED NJUGUNA WANJIRI,,DDD
OLH8N18JI4,17/12/2020 09:47,17/12/2020 09:47,Pay Bill from 254718772336 - DAVID SERUGO Acc. DCD,Completed,400,,1400,TRUE,Pay Utility,254718772336 - DAVID SERUGO,,DCD
OLG1MQ0NF5,16/12/2020 21:07,16/12/2020 21:07,Pay Bill from 254720062144 - CAROLINE AMONDI OKELO Acc. f4,Completed,1000,,1000,TRUE,Pay Utility,254720062144 - CAROLINE AMONDI OKELO,,f4
OLG8M1QUKY,16/12/2020 13:45,16/12/2020 13:45,Utility Account to Organization Settlement Account,Completed,,-3000,0,TRUE,Utility Account to Organization Settlement Account,846783 - ANCIENT WELLS LTD 4,,
OLG0LZZEFU,16/12/2020 13:06,16/12/2020 13:06,Pay Bill from 254700627058 - SUSY NABALAYO CHELONGO Acc. dbb,Completed,200,,3000,TRUE,Pay Utility,254700627058 - SUSY NABALAYO CHELONGO,,dbb
OLF9LISSPT,15/12/2020 22:42,15/12/2020 22:42,Pay Bill from 254710262457 - PETER VIKATSI Acc. V26,Completed,600,,2800,TRUE,Pay Utility,254710262457 - PETER VIKATSI,,V26
OLF6LB0WSO,15/12/2020 19:46,15/12/2020 19:46,Pay Bill from 254701086112 - CAROLYNE KOKI MULWA Acc. V30,Completed,200,,2200,TRUE,Pay Utility,254701086112 - CAROLYNE KOKI MULWA,,V30
OLF1L4AUYH,15/12/2020 18:09,15/12/2020 18:09,Pay Bill from 254702355678 - JOHN NJOROGE GICHERU Acc. ITE,Completed,200,,2000,TRUE,Pay Utility,254702355678 - JOHN NJOROGE GICHERU,,ITE
OLE1K6WHID,14/12/2020 21:17,14/12/2020 21:17,Pay Bill from 254798146452 - VALARY ODHIAMBO Acc. JEE,Completed,800,,1800,TRUE,Pay Utility,254798146452 - VALARY ODHIAMBO,,JEE
OLE3K1KTSP,14/12/2020 19:40,14/12/2020 19:40,Pay Bill from 254700627058 - SUSY NABALAYO CHELONGO Acc. dbb,Completed,1000,,1000,TRUE,Pay Utility,254700627058 - SUSY NABALAYO CHELONGO,,dbb
OLE5JEW177,14/12/2020 12:14,14/12/2020 12:14,Utility Account to Organization Settlement Account,Completed,,-2000,0,TRUE,Utility Account to Organization Settlement Account,846783 - ANCIENT WELLS LTD 4,,
OLE8J69PB8,14/12/2020 08:53,14/12/2020 08:53,Pay Bill from 254714114228 - MWANGO AWINO VIOLET Acc. DCB,Completed,1000,,2000,TRUE,Pay Utility,254714114228 - MWANGO AWINO VIOLET,,DCB
OLD7IUAMI9,13/12/2020 19:48,13/12/2020 19:48,Pay Bill from 254716581384 - GREGORY KILUNGYA Acc. DAD,Completed,1000,,1000,TRUE,Pay Utility,254716581384 - GREGORY KILUNGYA,,DAD
OLD7IPPF31,13/12/2020 18:36,13/12/2020 18:36,Utility Account to Organization Settlement Account,Completed,,-200,0,TRUE,Utility Account to Organization Settlement Account,846783 - ANCIENT WELLS LTD 4,,
OLD9IJQWB3,13/12/2020 16:34,13/12/2020 16:34,Pay Bill Online from 254704995854 - james karanja wairimu Acc. V54,Completed,100,,200,TRUE,Pay Bill Online,254704995854 - james karanja wairimu,,V54
OLD6IJP7NO,13/12/2020 16:33,13/12/2020 16:33,Pay Bill Online from 254704995854 - james karanja wairimu Acc. V54,Completed,100,,100,TRUE,Pay Bill Online,254704995854 - james karanja wairimu,,V54
OLD9I41461,13/12/2020 10:05,13/12/2020 10:05,Utility Account to Organization Settlement Account,Completed,,-3400,0,TRUE,Utility Account to Organization Settlement Account,846783 - ANCIENT WELLS LTD 4,,
OLD2I36QC2,13/12/2020 09:43,13/12/2020 09:43,Pay Bill from 254713158275 - JOHN CHEGE Acc. A4,Completed,600,,3400,TRUE,Pay Utility,254713158275 - JOHN CHEGE,,A4
OLC6HNBXHK,12/12/2020 19:28,12/12/2020 19:28,Pay Bill from 254798605303 - SAMUEL ADIYO OGODO Acc. KAE,Completed,600,,2800,TRUE,Pay Utility,254798605303 - SAMUEL ADIYO OGODO,,KAE
OLC9HKE891,12/12/2020 18:47,12/12/2020 18:47,Pay Bill from 0743248310 - PATRICK STURRIDGE NYONGESA Acc. kaf,Completed,600,,2200,TRUE,Pay Utility,0743248310 - PATRICK STURRIDGE NYONGESA,,kaf
OLC6HHKZ5M,12/12/2020 18:00,12/12/2020 18:00,Pay Bill from 254722458136 - NADI GOLICHA Acc. KAA,Completed,1600,,1600,TRUE,Pay Utility,254722458136 - NADI GOLICHA,,KAA
OLC7GYRZ0P,12/12/2020 11:25,12/12/2020 11:25,Utility Account to Organization Settlement Account,Completed,,-8200,0,TRUE,Utility Account to Organization Settlement Account,846783 - ANCIENT WELLS LTD 4,,
OLC6GWI708,12/12/2020 10:35,12/12/2020 10:35,Pay Bill from 254720056285 - DAMARIS NDURU Acc. V09,Completed,400,,8200,TRUE,Pay Utility,254720056285 - DAMARIS NDURU,,V09
OLC1GTIV1L,12/12/2020 09:29,12/12/2020 09:29,Pay Bill from 254727460527 - KENNETH GACHUHI Acc. HAB,Completed,2000,,7800,TRUE,Pay Utility,254727460527 - KENNETH GACHUHI,,HAB
OLB3G5QOFR,11/12/2020 17:44,11/12/2020 17:44,Pay Bill from 254719808077 - ANTHONY KARIUKI Acc. V41,Completed,200,,5800,TRUE,Pay Utility,254719808077 - ANTHONY KARIUKI,,V41
OLB8G41C78,11/12/2020 17:14,11/12/2020 17:14,Pay Bill Online from 254711184244 - KIPROP FESTUS Acc. Festus Kiprop C1p,Completed,400,,5600,TRUE,Pay Bill Online,254711184244 - KIPROP FESTUS,,Festus
OLB5G246MF,11/12/2020 16:38,11/12/2020 16:38,Pay Bill from 254790610309 - MESHACK CHUMBA Acc. V39,Completed,200,,5200,TRUE,Pay Utility,254790610309 - MESHACK CHUMBA,,V39
OLB8FN8JR6,11/12/2020 11:15,11/12/2020 11:15,Pay Bill Online from 254729569271 - MESHACK OBOTTA OBOTTA OBARE Acc. V12,Completed,600,,5000,TRUE,Pay Bill Online,254729569271 - MESHACK OBOTTA OBOTTA OBARE,,V12
OLB0FL48TS,11/12/2020 10:29,11/12/2020 10:29,Pay Bill from 254728313347 - GEORGE KIMAIGA NYAMORI Acc. ici,Completed,1000,,4400,TRUE,Pay Utility with OD via STK,254728313347 - GEORGE KIMAIGA NYAMORI,,ici
OLB0FHE4QE,11/12/2020 09:02,11/12/2020 09:02,Pay Bill from 254740579741 - MUHINDI MULINYA Acc. HGG,Completed,2000,,3400,TRUE,Pay Utility,254740579741 - MUHINDI MULINYA,,HGG
OLA7FB1YLZ,10/12/2020 23:07,10/12/2020 23:07,Pay Bill from 254714209770 - PURITY NDUKU KYALO Acc. JEB,Completed,1200,,1400,TRUE,Pay Utility,254714209770 - PURITY NDUKU KYALO,,JEB
OLA4F9BPG8,10/12/2020 21:49,10/12/2020 21:49,Pay Bill from 254715597659 - JOYCE KIVAI Acc. IED,Completed,200,,200,TRUE,Pay Utility,254715597659 - JOYCE KIVAI,,IED
OLA4EHT1D0,10/12/2020 13:13,10/12/2020 13:13,Utility Account to Organization Settlement Account,Completed,,-8200,0,TRUE,Utility Account to Organization Settlement Account,846783 - ANCIENT WELLS LTD 4,,
OLA4E902E0,10/12/2020 09:53,10/12/2020 09:53,Pay Bill from 254707715639 - Annastacia Kimeu Acc. JFC,Completed,200,,8200,TRUE,Pay Utility,254707715639 - Annastacia Kimeu,,JFC
OLA4E67O8K,10/12/2020 08:44,10/12/2020 08:44,FSI to Pay Bill by 714888 - B2C LOOP VIA NCBA Acc. FAD via WEB by B2C LOOP VIA NCBA\Cbainitiator,Completed,400,,8000,TRUE,FSI to Pay Bill via API,714888 - B2C LOOP VIA NCBA,,FAD
OLA9E2B6XN,10/12/2020 06:05,10/12/2020 06:05,Pay Bill from 254716328009 - IRENE ODHIAMBO Acc. KGG,Completed,600,,7600,TRUE,Pay Utility,254716328009 - IRENE ODHIAMBO,,KGG
OL92DZXA60,09/12/2020 22:07,09/12/2020 22:07,Pay Bill from 254703108159 - JOICE OGOLLA Acc. V50,Completed,400,,7000,TRUE,Pay Utility,254703108159 - JOICE OGOLLA,,V50
OL93DZ1I6F,09/12/2020 21:38,09/12/2020 21:38,Pay Bill from 254723341864 - WILLIAM OSIEL WACHUDI Acc. DED,Completed,2400,,6600,TRUE,Pay Utility with OD via STK,254723341864 - WILLIAM OSIEL WACHUDI,,DED
OL90DNOF0U,09/12/2020 18:31,09/12/2020 18:31,Pay Bill from 254722521028 - CHARLES MONYONCHO Acc. ICB,Completed,1600,,4200,TRUE,Pay Utility,254722521028 - CHARLES MONYONCHO,,ICB
OL84CQ2VMQ,08/12/2020 22:15,08/12/2020 22:15,Pay Bill from 254714138456 - HEZEK ATIANI ATIANI Acc. HEH,Completed,500,,2600,TRUE,Pay Utility,254714138456 - HEZEK ATIANI ATIANI,,HEH
OL82CO78IS,08/12/2020 21:18,08/12/2020 21:18,Pay Bill from 254790799823 - HINO ASAFA AILA Acc. hdh,Completed,1500,,2100,TRUE,Pay Utility,254790799823 - HINO ASAFA AILA,,hdh
OL88CE5LGU,08/12/2020 18:39,08/12/2020 18:39,Pay Bill from 254723499628 - CLINTON JOSEPH MUHARI Acc. hfh,Completed,600,,600,TRUE,Pay Utility,254723499628 - CLINTON JOSEPH MUHARI,,hfh
OL88BU62FE,08/12/2020 11:53,08/12/2020 11:53,Utility Account to Organization Settlement Account,Completed,,-62500,0,TRUE,Utility Account to Organization Settlement Account,846783 - ANCIENT WELLS LTD 4,,
OL82BSDQ6I,08/12/2020 11:12,08/12/2020 11:12,Pay Bill from 254717554562 - OMONDI JACK Acc. kci,Completed,200,,62500,TRUE,Pay Utility,254717554562 - OMONDI JACK,,kci
OL73BH8XQD,07/12/2020 23:22,07/12/2020 23:22,Pay Bill from 254792976771 - DANIEL MUTHAMA NDUNDA Acc. F1,Completed,1000,,62300,TRUE,Pay Utility,254792976771 - DANIEL MUTHAMA NDUNDA,,F1
OL77BCF1M1,07/12/2020 20:34,07/12/2020 20:34,Pay Bill from 254713966424 - NDUTI MUTHUI Acc. JED,Completed,600,,61300,TRUE,Pay Utility,254713966424 - NDUTI MUTHUI,,JED
OL78BB8O40,07/12/2020 20:13,07/12/2020 20:13,Pay Bill from 254719626804 - PAUL NJOROGE Acc. JFI,Completed,1400,,60700,TRUE,Pay Utility,254719626804 - PAUL NJOROGE,,JFI
OL71AZDRGZ,07/12/2020 17:12,07/12/2020 17:12,Pay Bill from 254713498554 - HENRY KINYUA WARUI Acc. v44 henry warui,Completed,800,,59300,TRUE,Pay Utility,254713498554 - HENRY KINYUA WARUI,,v44
OL78AHUPRE,07/12/2020 10:54,07/12/2020 10:54,Pay Bill from 254724655033 - SUSAN CHIMOTO Acc. KGH,Completed,600,,58500,TRUE,Pay Utility,254724655033 - SUSAN CHIMOTO,,KGH
OL70ABHYXA,07/12/2020 08:26,07/12/2020 08:26,Pay Bill from 254718138578 - PAULINE KIOKO Acc. KFD,Completed,400,,57900,TRUE,Pay Utility,254718138578 - PAULINE KIOKO,,KFD
OL71A8VNFT,07/12/2020 06:56,07/12/2020 06:56,Pay Bill Online from 254720044312 - ELIUD KIPKURUI Acc. FCF,Completed,2000,,57500,TRUE,Pay Bill Online,254720044312 - ELIUD KIPKURUI,,FCF
OL70A8KJJ4,07/12/2020 06:39,07/12/2020 06:39,Pay Bill from 254712569636 - BENSON NYAGA Acc. v60,Completed,600,,55500,TRUE,Pay Utility,254712569636 - BENSON NYAGA,,v60
OL77A81Y3B,07/12/2020 05:43,07/12/2020 05:43,Pay Bill from 0722987578 - Kezia Chepkoech Chirchir Acc. kcd,Completed,200,,54900,TRUE,Pay Utility,0722987578 - Kezia Chepkoech Chirchir,,kcd
OL62A79OOI,06/12/2020 23:53,06/12/2020 23:53,Pay Bill from 254720623535 - JOSEPH MUTURI KAMAU Acc. V32,Completed,200,,54700,TRUE,Pay Utility,254720623535 - JOSEPH MUTURI KAMAU,,V32
OL66A60P6O,06/12/2020 22:09,06/12/2020 22:09,Pay Bill from 254729392595 - WINNIE NASICHE KERE Acc. JBF,Completed,200,,54500,TRUE,Pay Utility,254729392595 - WINNIE NASICHE KERE,,JBF
OL65A2A7DX,06/12/2020 20:27,06/12/2020 20:27,Pay Bill from 254720107609 - DENNIS OGENDI BARAKE Acc. JAJ,Completed,1000,,54300,TRUE,Pay Utility,254720107609 - DENNIS OGENDI BARAKE,,JAJ
OL609Y4GBG,06/12/2020 19:16,06/12/2020 19:16,Pay Bill Online from 254722249092 - MARIAM ABDULLAHI Acc. KEH,Completed,1000,,53300,TRUE,Pay Bill Online,254722249092 - MARIAM ABDULLAHI,,KEH
OL689XJCP0,06/12/2020 19:08,06/12/2020 19:08,Pay Bill from 254710814215 - JOAN NYAMBURA KAMAU Acc. jci,Completed,800,,52300,TRUE,Pay Utility,254710814215 - JOAN NYAMBURA KAMAU,,jci
OL649SXY0K,06/12/2020 17:49,06/12/2020 17:49,Pay Bill from 254701196539 - GICHURI KARANJA Acc. Fee,Completed,1400,,51500,TRUE,Pay Utility,254701196539 - GICHURI KARANJA,,Fee
OL619SAL8Z,06/12/2020 17:36,06/12/2020 17:36,Pay Bill Online from 254726844965 - LAMECK OGOT Acc. V3,Completed,7000,,50100,TRUE,Pay Bill Online,254726844965 - LAMECK OGOT,,V3
OL609PV7BC,06/12/2020 16:47,06/12/2020 16:47,Pay Bill from 254722307003 - NIGEL BOMETT Acc. V01,Completed,600,,43100,TRUE,Pay Utility,254722307003 - NIGEL BOMETT,,V01
OL639MU2KF,06/12/2020 15:43,06/12/2020 15:43,Pay Bill from 254722706516 - KORIR ANTHONY Acc. Anthony d 3,Completed,400,,42500,TRUE,Pay Utility,254722706516 - KORIR ANTHONY,,Anthony
OL609C7I8G,06/12/2020 11:33,06/12/2020 11:33,Pay Bill from 254717726012 - WINFRED MUENI PETER Acc. IDA,Completed,200,,42100,TRUE,Pay Utility,254717726012 - WINFRED MUENI PETER,,IDA
OL6095QEDI,06/12/2020 08:45,06/12/2020 08:45,Pay Bill from 254728238249 - ESTHER WANGUI KIBUNYI Acc. ICA,Completed,600,,41900,TRUE,Pay Utility,254728238249 - ESTHER WANGUI KIBUNYI,,ICA
OL6994IAY9,06/12/2020 08:09,06/12/2020 08:09,Pay Bill from 254715774019 - BONIFACE BARAKO KATELO Acc. HCF,Completed,200,,41300,TRUE,Pay Utility,254715774019 - BONIFACE BARAKO KATELO,,HCF
OL6494GAI2,06/12/2020 08:07,06/12/2020 08:07,Pay Bill from 254715774019 - BONIFACE BARAKO KATELO Acc. HCF,Completed,1000,,41100,TRUE,Pay Utility,254715774019 - BONIFACE BARAKO KATELO,,HCF
OL508Z8V30,05/12/2020 22:05,05/12/2020 22:05,Pay Bill from 254726465584 - JULIANA MUKELI MUTUNGA Acc. v4,Completed,600,,40100,TRUE,Pay Utility,254726465584 - JULIANA MUKELI MUTUNGA,,v4
OL558XJ08H,05/12/2020 21:17,05/12/2020 21:17,Pay Bill from 254721465713 - RHODA WAMBUI MWANGI Acc. jfh,Completed,1400,,39500,TRUE,Pay Utility,254721465713 - RHODA WAMBUI MWANGI,,jfh
OL588WXX84,05/12/2020 21:04,05/12/2020 21:04,Pay Bill from 254726676041 - TOBIAS ORINA Acc. KAD,Completed,1000,,38100,TRUE,Pay Utility,254726676041 - TOBIAS ORINA,,KAD
OL588UIMPA,05/12/2020 20:19,05/12/2020 20:19,Pay Bill Online from 254704033042 - LESLIE KOIKAI Acc. IBD ,Completed,200,,37100,TRUE,Pay Bill Online,254704033042 - LESLIE KOIKAI,,IBD
OL578T4DSF,05/12/2020 19:57,05/12/2020 19:57,Pay Bill from 254725909984 - TIMOTHY ODHIAMBO OWITI Acc. JDE,Completed,2200,,36900,TRUE,Pay Utility,254725909984 - TIMOTHY ODHIAMBO OWITI,,JDE
OL538SB5GZ,05/12/2020 19:45,05/12/2020 19:45,Pay Bill from 0757259130 - RASHID SUDI MCHOMBO Acc. JAF,Completed,600,,34700,TRUE,Pay Utility,0757259130 - RASHID SUDI MCHOMBO,,JAF
OL518MVYID,05/12/2020 18:30,05/12/2020 18:30,Pay Bill Online from 254725248080 - DENNIS KIPROTICH Acc. IBE,Completed,1100,,34100,TRUE,Pay Utility with OD Online,254725248080 - DENNIS KIPROTICH,,IBE
OL588HU7Y2,05/12/2020 17:06,05/12/2020 17:06,Pay Bill from 254718818610 - HANNAH NALIAKA Acc. V23,Completed,200,,33000,TRUE,Pay Utility,254718818610 - HANNAH NALIAKA,,V23
OL558HIHIR,05/12/2020 17:00,05/12/2020 17:00,Pay Bill from 254704833344 - LOISE KIMANI Acc. jfa,Completed,1000,,32800,TRUE,Pay Utility,254704833344 - LOISE KIMANI,,jfa
OL508A8KPY,05/12/2020 14:35,05/12/2020 14:35,Pay Bill from 254719398942 - NORAH WAYUA MUNYAO Acc. KDC,Completed,600,,31800,TRUE,Pay Utility,254719398942 - NORAH WAYUA MUNYAO,,KDC
OL5188A0QJ,05/12/2020 13:56,05/12/2020 13:56,Pay Bill from 254722578070 - SAMUEL MACHARIA Acc. v42,Completed,1200,,31200,TRUE,Pay Utility,254722578070 - SAMUEL MACHARIA,,v42
OL5683OSDA,05/12/2020 12:19,05/12/2020 12:19,Pay Bill from 254708703539 - SUSAN NDUGIRE NDUGIRE Acc. KDA,Completed,1200,,30000,TRUE,Pay Utility,254708703539 - SUSAN NDUGIRE NDUGIRE,,KDA
OL5682HO4Q,05/12/2020 11:53,05/12/2020 11:53,Pay Bill from 254798524621 - MERCY CHESANG Acc. jcj,Completed,1400,,28800,TRUE,Pay Utility,254798524621 - MERCY CHESANG,,jcj
OL507XG7E8,05/12/2020 10:05,05/12/2020 10:05,Pay Bill from 254708915764 - GEORGE WAHOME Acc. V18,Completed,400,,27400,TRUE,Pay Utility,254708915764 - GEORGE WAHOME,,V18
OL527UJVAK,05/12/2020 08:59,05/12/2020 08:59,FSI to Pay Bill by 714888 - B2C LOOP VIA NCBA Acc. JAD via WEB by B2C LOOP VIA NCBA\Cbainitiator,Completed,500,,27000,TRUE,FSI to Pay Bill via API,714888 - B2C LOOP VIA NCBA,,JAD
OL507SPRKS,05/12/2020 08:13,05/12/2020 08:13,Pay Bill Online from 254716499837 - ASHA MUSA Acc. jfd,Completed,1000,,26500,TRUE,Pay Bill Online,254716499837 - ASHA MUSA,,jfd
OL537OTF5D,05/12/2020 00:08,05/12/2020 00:08,Pay Bill from 254711562428 - Lionel Mutune Muoka Acc. KDI,Completed,200,,25500,TRUE,Pay Utility,254711562428 - Lionel Mutune Muoka,,KDI
OL497NXNCB,04/12/2020 22:41,04/12/2020 22:41,Pay Bill from 254728664261 - LEVIN INGATI NYONJE Acc. B5,Completed,400,,25300,TRUE,Pay Utility,254728664261 - LEVIN INGATI NYONJE,,B5
OL487K111S,04/12/2020 20:46,04/12/2020 20:46,Pay Bill from 0715688238 - JOANNAH ATUHAIRE BANTU Acc. jae,Completed,400,,24900,TRUE,Pay Utility,0715688238 - JOANNAH ATUHAIRE BANTU,,jae
OL437GF8VL,04/12/2020 19:45,04/12/2020 19:45,Pay Bill from 254725771056 - CHARLES MURAGURI Acc. FCE,Completed,1200,,24500,TRUE,Pay Utility,254725771056 - CHARLES MURAGURI,,FCE
OL477FDR73,04/12/2020 19:30,04/12/2020 19:30,Pay Bill from 254704658943 - IRENE MUTHUI Acc. E5,Completed,10100,,23300,TRUE,Pay Utility,254704658943 - IRENE MUTHUI,,E5
OL477EX5OJ,04/12/2020 19:23,04/12/2020 19:23,Pay Bill from 254702764047 - FERDINAND K Acc. KDB,Completed,1000,,13200,TRUE,Pay Utility,254702764047 - FERDINAND K,,KDB
OL417EM9OZ,04/12/2020 19:19,04/12/2020 19:19,Pay Bill from 0712498531 - Paul Kiragu Muriuki Acc. hed,Completed,400,,12200,TRUE,Pay Utility,0712498531 - Paul Kiragu Muriuki,,hed
OL417BN2QH,04/12/2020 18:39,04/12/2020 18:39,Pay Bill from 254717465142 - EPHANTUS IRURA Acc. C4 MURIITHI,Completed,400,,11800,TRUE,Pay Utility,254717465142 - EPHANTUS IRURA,,C4
OL44775JZQ,04/12/2020 17:26,04/12/2020 17:26,Pay Bill from 254743775372 - SHIKUNDI PURITY KHAOYA Acc. hcd,Completed,200,,11400,TRUE,Pay Utility,254743775372 - SHIKUNDI PURITY KHAOYA,,hcd
OL41771KIN,04/12/2020 17:24,04/12/2020 17:24,Pay Bill from 254728897908 - Teddy Allan Onyango Acc. KCF,Completed,1000,,11200,TRUE,Pay Utility,254728897908 - Teddy Allan Onyango,,KCF
OL4073MM1U,04/12/2020 16:19,04/12/2020 16:19,Pay Bill from 0769001671 - Wilson Mutangili Wambua Acc. haf,Completed,600,,10200,TRUE,Pay Utility,0769001671 - Wilson Mutangili Wambua,,haf
OL436F7A91,04/12/2020 05:54,04/12/2020 05:54,Pay Bill from 254703528196 - ERIC GITONGA MUGO Acc. KGJ,Completed,1400,,9600,TRUE,Pay Utility,254703528196 - ERIC GITONGA MUGO,,KGJ
OL346DNBRY,03/12/2020 22:46,03/12/2020 22:46,Pay Bill Online from 254700760396 - JULIUS MBUGUA KINYAHWE Acc. v35,Completed,400,,8200,TRUE,Pay Bill Online,254700760396 - JULIUS MBUGUA KINYAHWE,,v35
OL316CHEOD,03/12/2020 21:55,03/12/2020 21:55,Pay Bill Online from 254720787158 - AMOS CHELANG'A Acc. KFK,Completed,1800,,7800,TRUE,Pay Utility with OD Online,254720787158 - AMOS CHELANG'A,,KFK
OL376BWLYN,03/12/2020 21:37,03/12/2020 21:37,Pay Bill from 254703246217 - AMBROSE ADOCHE MIRASI Acc. D4,Completed,600,,6000,TRUE,Pay Utility,254703246217 - AMBROSE ADOCHE MIRASI,,D4
OL346AF9P4,03/12/2020 21:00,03/12/2020 21:00,Pay Bill Online from 254714552193 - CHRISTOPHER OCHIENG Acc. JGI,Completed,1200,,5400,TRUE,Pay Bill Online,254714552193 - CHRISTOPHER OCHIENG,,JGI
OL336AC5CX,03/12/2020 20:58,03/12/2020 20:58,Pay Bill from 0790924905 - KEVIN   KIDAGISA Acc. IGC,Completed,1200,,4200,TRUE,Pay Utility,0790924905 - KEVIN   KIDAGISA,,IGC
OL3566NJDD,03/12/2020 19:54,03/12/2020 19:54,Pay Bill Online from 254799863492 - HIRANI MULJI Acc. JDB,Completed,1400,,3000,TRUE,Pay Bill Online,254799863492 - HIRANI MULJI,,JDB
OL3365W7WB,03/12/2020 19:43,03/12/2020 19:43,Pay Bill from 254721539716 - OCTAVIAN MWANYALO Acc. C6,Completed,200,,1600,TRUE,Pay Utility,254721539716 - OCTAVIAN MWANYALO,,C6
OL3760AECF,03/12/2020 18:26,03/12/2020 18:26,Pay Bill Online from 254795983642 - OBED MOGAKA Acc. F6 OBED ,Completed,600,,1400,TRUE,Pay Bill Online,254795983642 - OBED MOGAKA,,F6
OL345ZU0JK,03/12/2020 18:19,03/12/2020 18:19,Pay Bill from 0799838354 - Brian Kyengo Ndambuki Acc. B-3,Completed,200,,800,TRUE,Pay Utility,0799838354 - Brian Kyengo Ndambuki,,B-3
OL355XNK63,03/12/2020 17:43,03/12/2020 17:43,Pay Bill from 254708225541 - JUDITH NKATHA SIMBA Acc. icf,Completed,600,,600,TRUE,Pay Utility with OD via STK,254708225541 - JUDITH NKATHA SIMBA,,icf
OL355Q15OT,03/12/2020 15:09,03/12/2020 15:09,Utility Account to Organization Settlement Account,Completed,,-28000,0,TRUE,Utility Account to Organization Settlement Account,846783 - ANCIENT WELLS LTD 4,,
OL375PUY2V,03/12/2020 15:06,03/12/2020 15:06,Pay Bill from 254701330588 - EDGER WAFULA BUTALI Acc. D1,Completed,600,,28000,TRUE,Pay Utility,254701330588 - EDGER WAFULA BUTALI,,D1
OL375O6CUF,03/12/2020 14:28,03/12/2020 14:28,Pay Bill from 254707669965 - ELVIS MOENGA OKERO Acc. IAE,Completed,700,,27400,TRUE,Pay Utility,254707669965 - ELVIS MOENGA OKERO,,IAE
OL385LBPYC,03/12/2020 13:25,03/12/2020 13:25,Pay Bill Online from 254717809935 - LYDIAH WERU Acc. IDC,Completed,400,,26700,TRUE,Pay Bill Online,254717809935 - LYDIAH WERU,,IDC
OL385JBWFQ,03/12/2020 12:41,03/12/2020 12:41,Pay Bill from 254701006375 - EZRA MAKORI SERETI Acc. HTE,Completed,800,,26300,TRUE,Pay Utility with OD via STK,254701006375 - EZRA MAKORI SERETI,,HTE
OL345HGCIG,03/12/2020 11:58,03/12/2020 11:58,Pay Bill Online from 254728687482 - KELSEN MWIRIGI MUTIGA Acc. HCE,Completed,1000,,25500,TRUE,Pay Bill Online,254728687482 - KELSEN MWIRIGI MUTIGA,,HCE
OL305CV2AU,03/12/2020 10:15,03/12/2020 10:15,Pay Bill from 254726313835 - SYLVIA JUMA Acc. Hdf,Completed,600,,24500,TRUE,Pay Utility,254726313835 - SYLVIA JUMA,,Hdf
OL29511ALB,02/12/2020 21:21,02/12/2020 21:21,Pay Bill Online from 254715144865 - CAROL JULIET MUGOYA Acc. E2,Completed,600,,23900,TRUE,Pay Utility with OD Online,254715144865 - CAROL JULIET MUGOYA,,E2
OL2350UIFZ,02/12/2020 21:16,02/12/2020 21:16,Pay Bill from 254713701237 - Michael Wanjala Acc. G2,Completed,600,,23300,TRUE,Pay Utility,254713701237 - Michael Wanjala,,G2
OL254Z5A29,02/12/2020 20:39,02/12/2020 20:39,Pay Bill from 254706237502 - STEPHEN WERE Acc. IBA ,Completed,500,,22700,TRUE,Pay Utility,254706237502 - STEPHEN WERE,,IBA
OL234VWKA1,02/12/2020 19:46,02/12/2020 19:46,Pay Bill from 254729590734 - PATRICK NDUNGA Acc. IDD,Completed,200,,22200,TRUE,Pay Utility,254729590734 - PATRICK NDUNGA,,IDD
OL284V1AJI,02/12/2020 19:34,02/12/2020 19:34,Pay Bill Online from 254714578997 - LINCOLN DAN MEMBA Acc. KAC,Completed,600,,22000,TRUE,Pay Bill Online,254714578997 - LINCOLN DAN MEMBA,,KAC
OL204URHA2,02/12/2020 19:30,02/12/2020 19:30,Pay Bill Online from 254711724272 - EDMOND ONYANGO OKEWE Acc. FCB,Completed,1800,,21400,TRUE,Pay Bill Online,254711724272 - EDMOND ONYANGO OKEWE,,FCB
OL274ULJ5X,02/12/2020 19:28,02/12/2020 19:28,Pay Bill from 254798643998 - Judith Mwaniki Acc. KCE ,Completed,600,,19600,TRUE,Pay Utility,254798643998 - Judith Mwaniki,,KCE
OL234TFK5P,02/12/2020 19:12,02/12/2020 19:12,Pay Bill from 254708786932 - ZUBEDAH MOHAMMED Acc. IAG,Completed,1000,,19000,TRUE,Pay Utility,254708786932 - ZUBEDAH MOHAMMED,,IAG
OL234N2GY9,02/12/2020 17:37,02/12/2020 17:37,Pay Bill from 254702170403 - LUCY KATHAMBI KOOME Acc. V25,Completed,800,,18000,TRUE,Pay Utility,254702170403 - LUCY KATHAMBI KOOME,,V25
OL2541LDRT,02/12/2020 09:48,02/12/2020 09:48,Pay Bill from 254727575146 - SUSAN NJERI KIBE Acc. KEC,Completed,200,,17200,TRUE,Pay Utility,254727575146 - SUSAN NJERI KIBE,,KEC
OL273ZDHWR,02/12/2020 08:54,02/12/2020 08:54,Pay Bill from 254722444622 - CHARITY KAGWAINI Acc. ffd,Completed,200,,17000,TRUE,Pay Utility,254722444622 - CHARITY KAGWAINI,,ffd
OL243Y5MWI,02/12/2020 08:22,02/12/2020 08:22,Pay Bill from 254726753273 - JESSE K MURIRMI NJERU Acc. HCH,Completed,600,,16800,TRUE,Pay Utility,254726753273 - JESSE K MURIRMI NJERU,,HCH
OL163TIJKW,01/12/2020 22:50,01/12/2020 22:50,Pay Bill from 254708376721 - Millicent Achieng Akuka Acc. KCA,Completed,1000,,16200,TRUE,Pay Utility,254708376721 - Millicent Achieng Akuka,,KCA
OL143T7MBC,01/12/2020 22:32,01/12/2020 22:32,Pay Bill from 254718359438 - AHMAD TAHIR MACHENGO Acc. V11,Completed,200,,15200,TRUE,Pay Utility,254718359438 - AHMAD TAHIR MACHENGO,,V11
OL103SC8JK,01/12/2020 21:57,01/12/2020 21:57,Pay Bill Online from 254726082666 - DRUSSILA MUTHEU MUTUNGA Acc. KAH,Completed,400,,15000,TRUE,Pay Bill Online,254726082666 - DRUSSILA MUTHEU MUTUNGA,,KAH
OL153RXMN7,01/12/2020 21:44,01/12/2020 21:44,Pay Bill from 254703375006 - KEN RODGERS Acc. DBA,Completed,600,,14600,TRUE,Pay Utility with OD via STK,254703375006 - KEN RODGERS,,DBA
OL193NH731,01/12/2020 20:10,01/12/2020 20:10,Pay Bill from 254714855708 - KIPLANGAT SITIENEI Acc. FAE,Completed,1000,,14000,TRUE,Pay Utility,254714855708 - KIPLANGAT SITIENEI,,FAE
OL173J3K6L,01/12/2020 19:07,01/12/2020 19:07,Pay Bill from 254729796719 - JACINTA WANJIKU NJERI Acc. FFF,Completed,400,,13000,TRUE,Pay Utility,254729796719 - JACINTA WANJIKU NJERI,,FFF
OL113IYJF7,01/12/2020 19:05,01/12/2020 19:05,Pay Bill from 254729948896 - CAROLINE V MILIZA Acc. Fec,Completed,800,,12600,TRUE,Pay Utility,254729948896 - CAROLINE V MILIZA,,Fec
OL133CZW65,01/12/2020 17:34,01/12/2020 17:34,Pay Bill from 254721302658 - JACOB BIRUNDU Acc. DDB,Completed,400,,11800,TRUE,Pay Utility,254721302658 - JACOB BIRUNDU,,DDB
OL173ASSB7,01/12/2020 16:53,01/12/2020 16:53,Pay Bill from 254724953672 - MERCY MBETI Acc. JCA,Completed,2200,,11400,TRUE,Pay Utility,254724953672 - MERCY MBETI,,JCA
OL1432VTBI,01/12/2020 14:02,01/12/2020 14:02,Pay Bill from 0111278177 - Alfred   Kishoin Acc. IBC ,Completed,200,,9200,TRUE,Pay Utility,0111278177 - Alfred   Kishoin,,IBC
OL1130FTE5,01/12/2020 13:08,01/12/2020 13:08,Pay Bill from 254703147783 - LYDIAH NJOKI MUCHIRI Acc. Hge,Completed,9000,,9000,TRUE,Pay Utility,254703147783 - LYDIAH NJOKI MUCHIRI,,Hge
OL1630FAXA,01/12/2020 13:07,01/12/2020 13:07,Utility Account to Organization Settlement Account,Completed,,-25400,0,TRUE,Utility Account to Organization Settlement Account,846783 - ANCIENT WELLS LTD 4,,
OL152VYPCL,01/12/2020 11:27,01/12/2020 11:27,Pay Bill Online from 254728103722 - YASSIR MWINYI ABDULRAZAQ Acc. ICE,Completed,600,,25400,TRUE,Pay Bill Online,254728103722 - YASSIR MWINYI ABDULRAZAQ,,ICE
OL122T6T6A,01/12/2020 10:23,01/12/2020 10:23,Pay Bill from 254707370896 - OKECH BRIAN BRIAN Acc. FFA,Completed,1000,,24800,TRUE,Pay Utility,254707370896 - OKECH BRIAN BRIAN,,FFA
OL182T6G28,01/12/2020 10:23,01/12/2020 10:23,Pay Bill Online from 254795510441 - LEWIS MUEMA Acc. KEB,Completed,400,,23800,TRUE,Pay Bill Online,254795510441 - LEWIS MUEMA,,KEB
OL102SHYG8,01/12/2020 10:07,01/12/2020 10:07,Pay Bill from 254712954563 - JOSEPH MUTISO KILONZO Acc. dac,Completed,2800,,23400,TRUE,Pay Utility,254712954563 - JOSEPH MUTISO KILONZO,,dac
OL122RPLXE,01/12/2020 09:48,01/12/2020 09:48,Pay Bill from 254722940643 - HERBERT MAVIAH MAVIAH ISWEKA Acc. HCG,Completed,1200,,20600,TRUE,Pay Utility,254722940643 - HERBERT MAVIAH MAVIAH ISWEKA,,HCG
OL172QCF89,01/12/2020 09:15,01/12/2020 09:15,Pay Bill from 254720511734 - ENOCK KIBET Acc. FDC,Completed,400,,19400,TRUE,Pay Utility,254720511734 - ENOCK KIBET,,FDC
OL192PRIAR,01/12/2020 09:00,01/12/2020 09:00,Pay Bill from 254727729395 - ROBERT OUKO OSORO Acc. V29,Completed,400,,19000,TRUE,Pay Utility,254727729395 - ROBERT OUKO OSORO,,V29
OL132LTJMP,01/12/2020 06:53,01/12/2020 06:53,Pay Bill from 254723929380 - RHODAH K WAMBUA Acc. HEF,Completed,1200,,18600,TRUE,Pay Utility,254723929380 - RHODAH K WAMBUA,,HEF
