Receipt No.,Completion Time,Initiation Time,Details,Transaction Status,Paid In,Withdrawn,Balance,Balance Confirmed,Reason Type,Other Party Info,Linked Transaction ID,A/C No.
PI98PBD5F4,09/09/2021 23:37,09/09/2021 23:37,Pay Bill from 254710635630 - DONNA JESSICA OWANO Acc. KCC,Completed,7000,,364500,TRUE,Pay Utility,254710635630 - DONNA JESSICA OWANO,,KCC
PI96P9U7AU,09/09/2021 22:06,09/09/2021 22:06,Pay Bill from 254798844460 - WYCLIFFE ODHIAMBO NYAGOA Acc. KAC,Completed,10000,,357500,TRUE,Pay Utility,254798844460 - WYCLIFFE ODHIAMBO NYAGOA,,KAC
PI97P9M7G3,09/09/2021 21:59,09/09/2021 21:59,Pay Bill from 254791318982 - ADULLAHI HASSAN Acc. JCI,Completed,20000,,347500,TRUE,Pay Utility,254791318982 - ADULLAHI HASSAN,,JCI
PI94P976FW,09/09/2021 21:47,09/09/2021 21:47,Pay Bill from 254726928933 - JOSHUA NDUNDA NZIOKA Acc. KCJ,Completed,15000,,327500,TRUE,Pay Utility,254726928933 - JOSHUA NDUNDA NZIOKA,,KCJ
PI99P69DR9,09/09/2021 20:44,09/09/2021 20:44,Pay Bill from 0723409745 - Kelvin Kitonga Mutyetu Acc. kbf,Completed,10000,,312500,TRUE,Pay Utility with OD via STK,0723409745 - Kelvin Kitonga Mutyetu,,kbf
PI98OKTCKI,09/09/2021 15:29,09/09/2021 15:29,Pay Bill from 254724611087 - Francis Mukindya Muoki Acc. dfb,Completed,5000,,302500,TRUE,Pay Utility with OD via STK,254724611087 - Francis Mukindya Muoki,,dfb
PI96OGLCEE,09/09/2021 14:07,09/09/2021 14:07,Pay Bill from 0792933158 - mary wamaitha maina Acc. KDH,Completed,10000,,297500,TRUE,Pay Utility,0792933158 - mary wamaitha maina,,KDH
PI96OG7MGG,09/09/2021 14:00,09/09/2021 14:00,Pay Bill from 254701196539 - GICHURI KARANJA Acc. Fee,Completed,16000,,287500,TRUE,Pay Utility,254701196539 - GICHURI KARANJA,,Fee
PI94OFGE0A,09/09/2021 13:45,09/09/2021 13:45,Pay Bill Online from 254706549634 - CLINTON OMBASA Acc. FDB,Completed,17000,,271500,TRUE,Pay Bill Online,254706549634 - CLINTON OMBASA,,FDB
PI90OEYPLW,09/09/2021 13:36,09/09/2021 13:36,Pay Bill from 254715338158 - REBECCA MUTHONI KARIUKI Acc. JCB,Completed,15000,,254500,TRUE,Pay Utility with OD via STK,254715338158 - REBECCA MUTHONI KARIUKI,,JCB
PI91OELK3J,09/09/2021 13:29,09/09/2021 13:29,Pay Bill from 254740579741 - MUHINDI MULINYA Acc. HGG,Completed,10000,,239500,TRUE,Pay Utility with OD via STK,254740579741 - MUHINDI MULINYA,,HGG
PI95OEB4XJ,09/09/2021 13:24,09/09/2021 13:24,Pay Bill from 254723699555 - DIANA NYAIREGI GICHIA Acc. FBF,Completed,30000,,229500,TRUE,Pay Utility,254723699555 - DIANA NYAIREGI GICHIA,,FBF
PI95ODF9QN,09/09/2021 13:07,09/09/2021 13:07,Pay Bill from 0713284902 - Julia Naliaka william Makhacha Acc. 1AC,Completed,2000,,199500,TRUE,Pay Utility,0713284902 - Julia Naliaka william Makhacha,,1AC
PI95OC1ZUX,09/09/2021 12:40,09/09/2021 12:40,Pay Bill Online from 254715764212 - BANCE ISHEMINYE Acc. JFE ,Completed,3000,,197500,TRUE,Pay Bill Online,254715764212 - BANCE ISHEMINYE,,JFE
PI97O92241,09/09/2021 11:39,09/09/2021 11:39,Pay Bill from 0713284902 - Julia Naliaka william Makhacha Acc. Iac,Completed,4000,,194500,TRUE,Pay Utility,0713284902 - Julia Naliaka william Makhacha,,Iac
PI94O876W2,09/09/2021 11:22,09/09/2021 11:22,Pay Bill Online from 254722854426 - OLIVE WANJIKU MACHAMBA Acc. JBG,Completed,10000,,190500,TRUE,Pay Bill Online,254722854426 - OLIVE WANJIKU MACHAMBA,,JBG
PI90O0P8HG,09/09/2021 08:42,09/09/2021 08:42,Pay Bill from 254728259571 - ANNE KASIVA Acc. ieb,Completed,15000,,180500,TRUE,Pay Utility,254728259571 - ANNE KASIVA,,ieb
PI98O08ZQU,09/09/2021 08:31,09/09/2021 08:31,Pay Bill from 254727515326 - HARRISON WACIRA MAINA Acc. HAH,Completed,16000,,165500,TRUE,Pay Utility,254727515326 - HARRISON WACIRA MAINA,,HAH
PI82NQDLYK,08/09/2021 20:52,08/09/2021 20:52,Pay Bill from 0748212685 - timothy odhiambo owiti Acc. JDE,Completed,8000,,149500,TRUE,Pay Utility,0748212685 - timothy odhiambo owiti,,JDE
PI86NMLDWK,08/09/2021 19:54,08/09/2021 19:54,Pay Bill from 254722564580 - GLENN KISIANG'ANI Acc. DBB,Completed,16000,,141500,TRUE,Pay Utility with OD via STK,254722564580 - GLENN KISIANG'ANI,,DBB
PI86NMIK9O,08/09/2021 19:53,08/09/2021 19:53,Pay Bill from 254710106394 - LUCY TONKEI Acc. KBG,Completed,9000,,125500,TRUE,Pay Utility,254710106394 - LUCY TONKEI,,KBG
PI80NM71MA,08/09/2021 19:49,08/09/2021 19:49,Pay Bill from 254713205244 - ROBERT OGALO Acc. KBH,Completed,10000,,116500,TRUE,Pay Utility,254713205244 - ROBERT OGALO,,KBH
PI87N6GQM9,08/09/2021 16:29,08/09/2021 16:29,Pay Bill from 254724655033 - SUSAN CHIMOTO Acc. KGH,Completed,9500,,106500,TRUE,Pay Utility,254724655033 - SUSAN CHIMOTO,,KGH
PI82N445EC,08/09/2021 15:50,08/09/2021 15:50,Pay Bill from 254700050190 - ANGELA GATHONI NDEGWA Acc. KAH,Completed,15000,,97000,TRUE,Pay Utility,254700050190 - ANGELA GATHONI NDEGWA,,KAH
PI87MVPXY7,08/09/2021 13:23,08/09/2021 13:23,Pay Bill from 254727411231 - OBADIAH MASWAI Acc. JGJ,Completed,15000,,82000,TRUE,Pay Utility,254727411231 - OBADIAH MASWAI,,JGJ
PI81MU27QT,08/09/2021 12:54,08/09/2021 12:54,Pay Bill from 254723930071 - AMOS KITAVI KIVITE Acc. JCE,Completed,9000,,67000,TRUE,Pay Utility,254723930071 - AMOS KITAVI KIVITE,,JCE
PI80MORLQU,08/09/2021 11:19,08/09/2021 11:19,Pay Bill from 254708570729 - MARY OGOLLA Acc. KAD,Completed,25000,,58000,TRUE,Pay Utility,254708570729 - MARY OGOLLA,,KAD
PI80MN3KH0,08/09/2021 10:49,08/09/2021 10:49,Pay Bill from 254728238249 - ESTHER WANGUI KIBUNYI Acc. ICA,Completed,17000,,33000,TRUE,Pay Utility,254728238249 - ESTHER WANGUI KIBUNYI,,ICA
PI85MLN2S9,08/09/2021 10:22,08/09/2021 10:22,Pay Bill from 254720496449 - STANLEY KIPKOECH RONO Acc. FBE,Completed,16000,,16000,TRUE,Pay Utility,254720496449 - STANLEY KIPKOECH RONO,,FBE
PI80MJ7L0Q,08/09/2021 09:35,08/09/2021 09:35,Utility Account to Organization Settlement Account,Completed,,-528000,0,TRUE,Utility Account to Organization Settlement Account,979524 - ANCIENT WELLS PROPERTY MANAGERS 2,,
PI80MIM3QY,08/09/2021 09:23,08/09/2021 09:23,Pay Bill from 254713159153 - GUYO SANKALA Acc. DGD,Completed,20000,,528000,TRUE,Pay Utility,254713159153 - GUYO SANKALA,,DGD
PI87MBACBB,08/09/2021 01:02,08/09/2021 01:02,Pay Bill from 254703935626 - DAVID NGARI ITA Acc. FCD,Completed,1000,,508000,TRUE,Pay Utility with OD via STK,254703935626 - DAVID NGARI ITA,,FCD
PI75M53W5D,07/09/2021 20:42,07/09/2021 20:42,Pay Bill from 254717985596 - NICHOLAS KIPKOECH BUTIA Acc. hcf,Completed,9000,,507000,TRUE,Pay Utility,254717985596 - NICHOLAS KIPKOECH BUTIA,,hcf
PI78M4D8T2,07/09/2021 20:30,07/09/2021 20:30,Pay Bill from 254708499439 - ROSE NDEDE Acc. HGF,Completed,9000,,498000,TRUE,Pay Utility,254708499439 - ROSE NDEDE,,HGF
PI72LZTVFG,07/09/2021 19:31,07/09/2021 19:31,Pay Bill from 254704833344 - LOISE KIMANI Acc. jfa,Completed,20000,,489000,TRUE,Pay Utility,254704833344 - LOISE KIMANI,,jfa
PI73LZ7WV7,07/09/2021 19:24,07/09/2021 19:24,Pay Bill from 254700050190 - ANGELA GATHONI NDEGWA Acc. KAH,Completed,10000,,469000,TRUE,Pay Utility,254700050190 - ANGELA GATHONI NDEGWA,,KAH
PI75LW6MJP,07/09/2021 18:52,07/09/2021 18:52,Pay Bill from 254716260268 - LUCY MUTHONI NJIRU Acc. HCB,Completed,16000,,459000,TRUE,Pay Utility,254716260268 - LUCY MUTHONI NJIRU,,HCB
PI73LOQPNT,07/09/2021 17:11,07/09/2021 17:11,Pay Bill from 254798643998 - Judith Mwaniki Acc. kce,Completed,10000,,443000,TRUE,Pay Utility,254798643998 - Judith Mwaniki,,kce
PI76LN4NDM,07/09/2021 16:45,07/09/2021 16:45,Pay Bill Online from 254722769473 - SAMSON CHALO Acc. IAB,Completed,15000,,433000,TRUE,Pay Bill Online,254722769473 - SAMSON CHALO,,IAB
PI72LI60OI,07/09/2021 15:16,07/09/2021 15:16,Pay Bill from 0795068880 - Patrick   Kiplagat Acc. KAG,Completed,10000,,418000,TRUE,Pay Utility,0795068880 - Patrick   Kiplagat,,KAG
PI75L6LOL7,07/09/2021 11:36,07/09/2021 11:36,Pay Bill from 254726172957 - VINCENT OLIENG' Acc. HBC ,Completed,10000,,408000,TRUE,Pay Utility,254726172957 - VINCENT OLIENG',,HBC
PI73L4SGNV,07/09/2021 11:00,07/09/2021 11:00,Pay Bill Online from 254728687482 - KELSEN MWIRIGI MUTIGA Acc. HCE,Completed,10500,,398000,TRUE,Pay Bill Online,254728687482 - KELSEN MWIRIGI MUTIGA,,HCE
PI72L48R9I,07/09/2021 10:49,07/09/2021 10:49,Pay Bill from 254729541871 - ROBERT KULEI Acc. JAB,Completed,5000,,387500,TRUE,Pay Utility,254729541871 - ROBERT KULEI,,JAB
PI73L0H2U3,07/09/2021 09:33,07/09/2021 09:33,Pay Bill from 254712954563 - JOSEPH MUTISO KILONZO Acc. DAC,Completed,20000,,382500,TRUE,Pay Utility,254712954563 - JOSEPH MUTISO KILONZO,,DAC
PI76KXX9WY,07/09/2021 08:37,07/09/2021 08:37,FSI to Pay Bill by 714888 - B2C LOOP VIA NCBA Acc. FAD via WEB by B2C LOOP VIA NCBA\Cbainitiator,Completed,11000,,362500,TRUE,FSI to Pay Bill via API,714888 - B2C LOOP VIA NCBA,,FAD
PI78KV9V6Q,07/09/2021 07:27,07/09/2021 07:27,Pay Bill from 254724006242 - JOAN CHEBET Acc. JEG,Completed,9000,,351500,TRUE,Pay Utility,254724006242 - JOAN CHEBET,,JEG
PI74KTC9GI,07/09/2021 05:14,07/09/2021 05:14,Pay Bill Online from 254722521028 - CHARLES MONYONCHO Acc. ICB,Completed,17000,,342500,TRUE,Pay Bill Online,254722521028 - CHARLES MONYONCHO,,ICB
