Receipt No.,Completion Time,Initiation Time,Details,Transaction Status,Paid In,Withdrawn,Balance,Balance Confirmed,Reason Type,Other Party Info,Linked Transaction ID,A/C No.
QEA2QOF9TO,10/05/2022 08:06,10/05/2022 08:06,Pay Bill Online from 254701196539 - GICHURI KARANJA Acc. fee,Completed,16000,,16000,TRUE,Pay Bill Online,254701196539 - GICHURI KARANJA,,fee
QEA2QO27EY,10/05/2022 07:58,10/05/2022 07:58,Utility Account to Organization Settlement Account,Completed,,-743000,0,TRUE,Utility Account to Organization Settlement Account,979524 - ANCIENT WELLS PROPERTY MANAGERS 2,,
QE94QHVLM2,09/05/2022 23:05,09/05/2022 23:05,Pay Bill from 0769118645 - kennedy kipkurui korir Acc. IGC,Completed,9000,,743000,TRUE,Pay Utility,0769118645 - kennedy kipkurui korir,,IGC
QE99PO4A3N,09/05/2022 16:46,09/05/2022 16:46,Pay Bill from 254798844460 - WYCLIFFE ODHIAMBO NYAGOA Acc. KAC,Completed,10000,,734000,TRUE,Pay Utility,254798844460 - WYCLIFFE ODHIAMBO NYAGOA,,KAC
QE91PGXIOF,09/05/2022 15:06,09/05/2022 15:06,Pay Bill from 254726039536 - MERCY MESHACK Acc. FDC,Completed,9000,,724000,TRUE,Pay Utility,254726039536 - MERCY MESHACK,,FDC
QE98PDWMQ0,09/05/2022 14:22,09/05/2022 14:22,Pay Bill from 254727515326 - HARRISON WACIRA MAINA Acc. HAH,Completed,16000,,715000,TRUE,Pay Utility,254727515326 - HARRISON WACIRA MAINA,,HAH
QE94PA0WRA,09/05/2022 13:27,09/05/2022 13:27,Pay Bill from 0718838251 - MARK KINYUA MAINA Acc. kfg,Completed,10000,,699000,TRUE,Pay Utility,0718838251 - MARK KINYUA MAINA,,kfg
QE96OYIWEE,09/05/2022 10:38,09/05/2022 10:38,Pay Bill from 254707715639 - Annastacia Kimeu Acc. JFC,Completed,10000,,689000,TRUE,Pay Utility,254707715639 - Annastacia Kimeu,,JFC
QE91ONH98F,09/05/2022 07:26,09/05/2022 07:26,Pay Bill Online from 254705846408 - JAMES OUMA Acc. HBH,Completed,16000,,679000,TRUE,Pay Bill Online,254705846408 - JAMES OUMA,,HBH
QE95OKYM87,09/05/2022 05:22,09/05/2022 05:22,Pay Bill from 254717300111 - SAMUEL MUCHIRI MAINA Acc. JEE,Completed,10000,,663000,TRUE,Pay Utility,254717300111 - SAMUEL MUCHIRI MAINA,,JEE
QE99OJVTX3,09/05/2022 00:49,09/05/2022 00:49,Pay Bill from 254716581384 - GREGORY KILUNGYA Acc. DAD,Completed,20000,,653000,TRUE,Pay Utility,254716581384 - GREGORY KILUNGYA,,DAD
QE89OJ0XS5,08/05/2022 23:28,08/05/2022 23:28,Pay Bill from 0743248310 - PATRICK STURRIDGE NYONGESA Acc. daa,Completed,24000,,633000,TRUE,Pay Utility,0743248310 - PATRICK STURRIDGE NYONGESA,,daa
QE82OI38VS,08/05/2022 22:43,08/05/2022 22:43,Pay Bill from 254722444622 - CHARITY KAGWAINI Acc. FFD,Completed,8500,,609000,TRUE,Pay Utility,254722444622 - CHARITY KAGWAINI,,FFD
QE83OHE1FR,08/05/2022 22:20,08/05/2022 22:20,Pay Bill from 254703935626 - DAVID NGARI ITA Acc. FCD,Completed,1000,,600500,TRUE,Pay Utility,254703935626 - DAVID NGARI ITA,,FCD
QE81OF5BAB,08/05/2022 21:30,08/05/2022 21:30,Pay Bill Online from 0700206427 - Clare Nabalisa Mukasa Acc. 15000,Completed,15000,,599500,TRUE,Pay Utility with OD Online,0700206427 - Clare Nabalisa Mukasa,,15000
QE82OCJKGQ,08/05/2022 20:49,08/05/2022 20:49,Pay Bill Online from 254722769473 - SAMSON CHALO Acc. IAB,Completed,15000,,584500,TRUE,Pay Bill Online,254722769473 - SAMSON CHALO,,IAB
QE83OBI5WD,08/05/2022 20:35,08/05/2022 20:35,Pay Bill Online from 254710146965 - BRENDA DORCAS MABONGA Acc. HFG,Completed,15000,,569500,TRUE,Pay Utility with OD Online,254710146965 - BRENDA DORCAS MABONGA,,HFG
QE82O846AU,08/05/2022 19:55,08/05/2022 19:55,Pay Bill from 0721653903 - Mohamed Maalim Hassan Acc. FCB,Completed,9500,,554500,TRUE,Pay Utility,0721653903 - Mohamed Maalim Hassan,,FCB
QE80NVVJZ6,08/05/2022 17:46,08/05/2022 17:46,Pay Bill from 254724466518 - EUNICE NDUTA Acc. kff,Completed,9500,,545000,TRUE,Pay Utility,254724466518 - EUNICE NDUTA,,kff
QE83NTDPEJ,08/05/2022 17:14,08/05/2022 17:14,Pay Bill from 0700851010 - Njenga    Kuria Acc. kca,Completed,16000,,535500,TRUE,Pay Utility,0700851010 - Njenga    Kuria,,kca
QE80NORZ2E,08/05/2022 16:13,08/05/2022 16:13,Pay Bill from 254702764047 - FERDINAND K Acc. KDB,Completed,16000,,519500,TRUE,Pay Utility,254702764047 - FERDINAND K,,KDB
QE80NJL5UW,08/05/2022 15:02,08/05/2022 15:02,Pay Bill Online from 254712990240 - GLORY KARIUKI Acc. KAA,Completed,16000,,503500,TRUE,Pay Bill Online,254712990240 - GLORY KARIUKI,,KAA
QE88NJI6AC,08/05/2022 15:01,08/05/2022 15:01,Pay Bill Online from 254712040302 - EMMANUEL MWARO BARASA Acc. kea,Completed,16000,,487500,TRUE,Pay Bill Online,254712040302 - EMMANUEL MWARO BARASA,,kea
QE81NEQ16L,08/05/2022 13:53,08/05/2022 13:53,Pay Bill Online from 254710814215 - JOAN NYAMBURA KAMAU Acc. ifb,Completed,15000,,471500,TRUE,Pay Bill Online,254710814215 - JOAN NYAMBURA KAMAU,,ifb
QE80NEI514,08/05/2022 13:50,08/05/2022 13:50,Pay Bill from 0769960650 - DORIS WAMARWA MURIUKI Acc. KEC,Completed,10000,,456500,TRUE,Pay Utility with OD via STK,0769960650 - DORIS WAMARWA MURIUKI,,KEC
QE80N7BJDM,08/05/2022 11:54,08/05/2022 11:54,Pay Bill Online from 0715273095 - Stacy Aketch Ochuka Acc. KGK,Completed,3000,,446500,TRUE,Pay Bill Online,0715273095 - Stacy Aketch Ochuka,,KGK
QE84N5D7MY,08/05/2022 11:19,08/05/2022 11:19,Pay Bill Online from 254718772336 - DAVID SERUGO Acc. DCD,Completed,20000,,443500,TRUE,Pay Bill Online,254718772336 - DAVID SERUGO,,DCD
QE85N51MYF,08/05/2022 11:13,08/05/2022 11:13,Pay Bill Online from 254795534849 - PURITY NJERU Acc. feb,Completed,15000,,423500,TRUE,Pay Bill Online,254795534849 - PURITY NJERU,,feb
QE87MQQO6D,08/05/2022 01:56,08/05/2022 01:56,Pay Bill Online from 254718009051 - STEPHEN OMOLLO Acc. JDF,Completed,8000,,408500,TRUE,Pay Utility with OD Online,254718009051 - STEPHEN OMOLLO,,JDF
QE74MOICX0,07/05/2022 23:07,07/05/2022 23:07,Pay Bill from 254714814264 - PATRICIA NZOMO Acc. Hbg,Completed,16000,,400500,TRUE,Pay Utility,254714814264 - PATRICIA NZOMO,,Hbg
QE72MNXUPE,07/05/2022 22:46,07/05/2022 22:46,Pay Bill from 254700290755 - MERCY GOGA Acc. FDD,Completed,11000,,384500,TRUE,Pay Utility,254700290755 - MERCY GOGA,,FDD
QE70MFYE50,07/05/2022 20:32,07/05/2022 20:32,Pay Bill from 254702346515 - ELIZABETH ACHIENG NGOME Acc. KDE,Completed,10000,,373500,TRUE,Pay Utility,254702346515 - ELIZABETH ACHIENG NGOME,,KDE
QE71M9BEMN,07/05/2022 19:26,07/05/2022 19:26,Pay Bill Online from 254718233980 - KAREN ASWANI Acc. HEC,Completed,10500,,363500,TRUE,Pay Bill Online,254718233980 - KAREN ASWANI,,HEC
QE78M8UDKA,07/05/2022 19:22,07/05/2022 19:22,Pay Bill Online from 254725218904 - SALOME MUTHONI MWANGI Acc. KFJ,Completed,15000,,353000,TRUE,Pay Bill Online,254725218904 - SALOME MUTHONI MWANGI,,KFJ
QE77M1SHY5,07/05/2022 18:16,07/05/2022 18:16,Pay Bill from 0717441870 - Steven oduor ogutu Acc. KTA,Completed,9500,,338000,TRUE,Pay Utility,0717441870 - Steven oduor ogutu,,KTA
QE79LYKPU9,07/05/2022 17:41,07/05/2022 17:41,Pay Bill from 254728238249 - ESTHER WANGUI KIBUNYI Acc. ICA,Completed,17000,,328500,TRUE,Pay Utility,254728238249 - ESTHER WANGUI KIBUNYI,,ICA
QE78LXTKIC,07/05/2022 17:32,07/05/2022 17:32,Pay Bill from 254701006375 - EZRA MAKORI SERETI Acc. HTA,Completed,10000,,311500,TRUE,Pay Utility with OD via STK,254701006375 - EZRA MAKORI SERETI,,HTA
QE77LNN4GZ,07/05/2022 15:29,07/05/2022 15:29,Pay Bill from 254722910078 - MAUREEN MUNYIVA MUTUKU Acc. DBD,Completed,16500,,301500,TRUE,Pay Utility,254722910078 - MAUREEN MUNYIVA MUTUKU,,DBD
QE78LLNXIW,07/05/2022 15:03,07/05/2022 15:03,Pay Bill Online from 254725909984 - TIMOTHY ODHIAMBO OWITI Acc. jde,Completed,5000,,285000,TRUE,Pay Bill Online,254725909984 - TIMOTHY ODHIAMBO OWITI,,jde
QE72LGH8Q4,07/05/2022 13:54,07/05/2022 13:54,Pay Bill from 254719779657 - SAMUEL NJOROGE Acc. JGA,Completed,5000,,280000,TRUE,Pay Utility,254719779657 - SAMUEL NJOROGE,,JGA
QE77LF8UL7,07/05/2022 13:38,07/05/2022 13:38,Pay Bill from 254792601532 - ABDULLAHI ISACK BANTE Acc. Kbf,Completed,15000,,275000,TRUE,Pay Utility,254792601532 - ABDULLAHI ISACK BANTE,,Kbf
QE79L6DKJP,07/05/2022 11:35,07/05/2022 11:35,Pay Bill from 254725452946 - GODFREY THIANE KIBAYA Acc. HEE,Completed,5000,,260000,TRUE,Pay Utility with OD via STK,254725452946 - GODFREY THIANE KIBAYA,,HEE
QE71L43FP3,07/05/2022 11:02,07/05/2022 11:02,Pay Bill Online from 254714536026 - LILIAN AWUOR ONYANGO Acc. HDC,Completed,10500,,255000,TRUE,Pay Bill Online,254714536026 - LILIAN AWUOR ONYANGO,,HDC
QE71L2M3WV,07/05/2022 10:40,07/05/2022 10:40,Pay Bill Online from 254713966424 - NDUTI MUTHUI Acc. jed,Completed,15000,,244500,TRUE,Pay Bill Online,254713966424 - NDUTI MUTHUI,,jed
QE74L0VTV2,07/05/2022 10:14,07/05/2022 10:14,Pay Bill from 254712954563 - JOSEPH MUTISO KILONZO Acc. DAC ,Completed,20000,,229500,TRUE,Pay Utility,254712954563 - JOSEPH MUTISO KILONZO,,DAC
QE71L0RQ43,07/05/2022 10:12,07/05/2022 10:12,Pay Bill Online from 0757699775 - BENARD MUIA MUTUA Acc. HCB,Completed,16000,,209500,TRUE,Pay Bill Online,0757699775 - BENARD MUIA MUTUA,,HCB
QE77KZJQ9N,07/05/2022 09:53,07/05/2022 09:53,Pay Bill Online from 254797160610 - JAMES MWANIKI Acc. JBI,Completed,20000,,193500,TRUE,Pay Bill Online,254797160610 - JAMES MWANIKI,,JBI
QE79KXU0BZ,07/05/2022 09:26,07/05/2022 09:26,Pay Bill Online from 0711117122 - Yassir Mwinyi Abdulrazaq Acc. ICE,Completed,1000,,173500,TRUE,Pay Bill Online,0711117122 - Yassir Mwinyi Abdulrazaq,,ICE
QE71KWE5RD,07/05/2022 09:02,07/05/2022 09:02,Pay Bill from 254713281251 - ERIC KIAMA Acc. JDI,Completed,20000,,172500,TRUE,Pay Utility,254713281251 - ERIC KIAMA,,JDI
QE72KP40FI,07/05/2022 03:44,07/05/2022 03:44,Pay Bill from 254703555717 - SENGA SALIM Acc. hbb,Completed,3000,,152500,TRUE,Pay Utility,254703555717 - SENGA SALIM,,hbb
QE79KOI0PH,07/05/2022 01:36,07/05/2022 01:36,Pay Bill from 254722136450 - MARY EVERLYN Acc. JAI,Completed,20000,,149500,TRUE,Pay Utility,254722136450 - MARY EVERLYN,,JAI
QE68KLQ8O4,06/05/2022 22:34,06/05/2022 22:34,Pay Bill from 254708875278 - ROSEMARY WANJIRU KONYE Acc. HBF,Completed,9000,,129500,TRUE,Pay Utility,254708875278 - ROSEMARY WANJIRU KONYE,,HBF
QE61KI52JH,06/05/2022 21:22,06/05/2022 21:22,Pay Bill from 254723488259 - WILSON OKITE OKITE Acc. HCA,Completed,15000,,120500,TRUE,Pay Utility with OD via STK,254723488259 - WILSON OKITE OKITE,,HCA
QE68KG6SXU,06/05/2022 20:54,06/05/2022 20:54,Pay Bill from 0711769778 - PROTASIA BONIPHACE MANOSA Acc. IBB,Completed,15000,,105500,TRUE,Pay Utility,0711769778 - PROTASIA BONIPHACE MANOSA,,IBB
QE64KDJUBQ,06/05/2022 20:23,06/05/2022 20:23,Pay Bill from 254713205244 - ROBERT OGALO Acc. KBH,Completed,10000,,90500,TRUE,Pay Utility,254713205244 - ROBERT OGALO,,KBH
QE66K93WLQ,06/05/2022 19:38,06/05/2022 19:38,Pay Bill from 254726636196 - BETHUEL KEMBOI KURUI Acc. JFD,Completed,15000,,80500,TRUE,Pay Utility with OD via STK,254726636196 - BETHUEL KEMBOI KURUI,,JFD
QE65K7WL4L,06/05/2022 19:27,06/05/2022 19:27,Pay Bill Online from 254722521028 - CHARLES MONYONCHO Acc. ICB,Completed,17000,,65500,TRUE,Pay Bill Online,254722521028 - CHARLES MONYONCHO,,ICB
QE67JNHQYD,06/05/2022 15:48,06/05/2022 15:48,Pay Bill Online from 254718911865 - KENNEDY KELI KATUNGII Acc. HDF,Completed,9000,,48500,TRUE,Pay Utility with OD Online,254718911865 - KENNEDY KELI KATUNGII,,HDF
QE65JKTDYF,06/05/2022 15:11,06/05/2022 15:11,Pay Bill from 254717801919 - MARCELINE AKINYI Acc. IAF,Completed,10000,,39500,TRUE,Pay Utility,254717801919 - MARCELINE AKINYI,,IAF
QE69JHGX09,06/05/2022 14:25,06/05/2022 14:25,Pay Bill Online from 0757319222 - ATEM KUOL JOHN BOL Acc. FAC,Completed,9500,,29500,TRUE,Pay Bill Online,0757319222 - ATEM KUOL JOHN BOL,,FAC
QE67JCU1O1,06/05/2022 13:22,06/05/2022 13:22,Pay Bill Online from 254714552193 - CHRISTOPHER OCHIENG Acc. JGI ,Completed,20000,,20000,TRUE,Pay Bill Online,254714552193 - CHRISTOPHER OCHIENG,,JGI
QE65J8FGYN,06/05/2022 12:19,06/05/2022 12:19,Utility Account to Organization Settlement Account,Completed,,-969000,0,TRUE,Utility Account to Organization Settlement Account,979524 - ANCIENT WELLS PROPERTY MANAGERS 2,,
QE65J4TPNZ,06/05/2022 11:26,06/05/2022 11:26,Pay Bill from 254717985596 - NICHOLAS KIPKOECH BUTIA Acc. hcf,Completed,9000,,969000,TRUE,Pay Utility,254717985596 - NICHOLAS KIPKOECH BUTIA,,hcf
QE65J46UNN,06/05/2022 11:17,06/05/2022 11:17,Pay Bill Online from 254720620070 - Michelle Mwihaki Ngaruiya Acc. JEB,Completed,15000,,960000,TRUE,Pay Bill Online,254720620070 - Michelle Mwihaki Ngaruiya,,JEB
QE66J373B8,06/05/2022 11:02,06/05/2022 11:02,Pay Bill Online from 254723901777 - EVANS YEBEI Acc. KCH,Completed,10000,,945000,TRUE,Pay Utility with OD Online,254723901777 - EVANS YEBEI,,KCH
QE64J2LYCG,06/05/2022 10:54,06/05/2022 10:54,Pay Bill Online from 254713404029 - ANNE ISEUNA Acc. DED,Completed,20000,,935000,TRUE,Pay Bill Online,254713404029 - ANNE ISEUNA,,DED
QE62J0UW8I,06/05/2022 10:28,06/05/2022 10:28,Pay Bill Online from 254723930071 - AMOS KITAVI KIVITE Acc. JCE,Completed,9000,,915000,TRUE,Pay Bill Online,254723930071 - AMOS KITAVI KIVITE,,JCE
QE66IYZVW6,06/05/2022 10:00,06/05/2022 10:00,Pay Bill from 254798643998 - Judith Mwaniki Acc. KCE,Completed,10000,,906000,TRUE,Pay Utility,254798643998 - Judith Mwaniki,,KCE
QE65IY77KT,06/05/2022 09:48,06/05/2022 09:48,Pay Bill from 254700430569 - EDITH   GAKII Acc. Ddb,Completed,16000,,896000,TRUE,Pay Utility,254700430569 - EDITH   GAKII,,Ddb
QE69IWVOZ9,06/05/2022 09:28,06/05/2022 09:28,Pay Bill from 254725754547 - MWACHIRO GEORGE DECHE Acc. DFC,Completed,20000,,880000,TRUE,Pay Utility,254725754547 - MWACHIRO GEORGE DECHE,,DFC
QE68IU6H2A,06/05/2022 08:44,06/05/2022 08:44,Pay Bill from 0716115127 - MOHAMED SHEIKH ABDI Acc. FFE,Completed,15000,,860000,TRUE,Pay Utility,0716115127 - MOHAMED SHEIKH ABDI,,FFE
QE62ITQPWM,06/05/2022 08:36,06/05/2022 08:36,Pay Bill Online from 254718138578 - PAULINE KIOKO Acc. KFD,Completed,12000,,845000,TRUE,Pay Bill Online,254718138578 - PAULINE KIOKO,,KFD
QE68IR4IWY,06/05/2022 07:46,06/05/2022 07:46,Pay Bill Online from 254715002789 - ERICK NGUGI MAINA Acc. HAG,Completed,16000,,833000,TRUE,Pay Bill Online,254715002789 - ERICK NGUGI MAINA,,HAG
QE66IN5ORO,06/05/2022 02:31,06/05/2022 02:31,Pay Bill from 0746078348 - GERALD ODHIAMBO OWIYO Acc. KCD,Completed,12000,,817000,TRUE,Pay Utility,0746078348 - GERALD ODHIAMBO OWIYO,,KCD
QE54IM02XE,05/05/2022 23:42,05/05/2022 23:42,Pay Bill from 254715865256 - RABECCA NABEA Acc. JDG,Completed,10000,,805000,TRUE,Pay Utility,254715865256 - RABECCA NABEA,,JDG
QE53ILX80X,05/05/2022 23:37,05/05/2022 23:37,Pay Bill from 254729355933 - FELISTAH NJERI WAIRIMU Acc. IDI,Completed,15000,,795000,TRUE,Pay Utility with OD via STK,254729355933 - FELISTAH NJERI WAIRIMU,,IDI
QE58IK7RFQ,05/05/2022 22:25,05/05/2022 22:25,Pay Bill from 254790382466 - Lorraine Mwangi Acc. KGC,Completed,9000,,780000,TRUE,Pay Utility,254790382466 - Lorraine Mwangi,,KGC
QE54IJ2WFI,05/05/2022 21:58,05/05/2022 21:58,Pay Bill from 254720802644 - MESHACK MAXWELL GANDA Acc. Hab,Completed,15000,,771000,TRUE,Pay Utility with OD via STK,254720802644 - MESHACK MAXWELL GANDA,,Hab
QE54II7VAK,05/05/2022 21:42,05/05/2022 21:42,Pay Bill Online from 254792584569 - LUCY MWALIMO Acc. IAD,Completed,11000,,756000,TRUE,Pay Bill Online,254792584569 - LUCY MWALIMO,,IAD
QE51IHIR3X,05/05/2022 21:30,05/05/2022 21:30,Pay Bill from 0111788761 - MARIA ZACHARIA JOHN Acc. Faf,Completed,16000,,745000,TRUE,Pay Utility,0111788761 - MARIA ZACHARIA JOHN,,Faf
QE59IFU097,05/05/2022 21:05,05/05/2022 21:05,Pay Bill Online from 254718663397 - JIMMY MUNYAO NZIOKI Acc. DCB,Completed,16000,,729000,TRUE,Pay Bill Online,254718663397 - JIMMY MUNYAO NZIOKI,,DCB
QE54ID5JOK,05/05/2022 20:32,05/05/2022 20:32,Pay Bill from 254724005366 - BEATRICE KOKU ALOO Acc. JGJ,Completed,12000,,713000,TRUE,Pay Utility,254724005366 - BEATRICE KOKU ALOO,,JGJ
QE53I6VU9T,05/05/2022 19:29,05/05/2022 19:29,Pay Bill from 254724477912 - SAMUEL MURIMI Acc. HCD,Completed,10000,,701000,TRUE,Pay Utility with OD via STK,254724477912 - SAMUEL MURIMI,,HCD
QE59I6DRR3,05/05/2022 19:25,05/05/2022 19:25,Pay Bill Online from 254799371069 - ALPHONCE OCHIENG WAREGA Acc. IEE,Completed,8500,,691000,TRUE,Pay Bill Online,254799371069 - ALPHONCE OCHIENG WAREGA,,IEE
QE50I434UG,05/05/2022 19:04,05/05/2022 19:04,Pay Bill from 254724821898 - ALLAN GISONI NYANGARESI Acc. DBA,Completed,16000,,682500,TRUE,Pay Utility,254724821898 - ALLAN GISONI NYANGARESI,,DBA
QE54I3R3MG,05/05/2022 19:01,05/05/2022 19:01,Pay Bill from 254798524621 - MERCY CHESANG Acc. jcj,Completed,16000,,666500,TRUE,Pay Utility,254798524621 - MERCY CHESANG,,jcj
QE58I2BCMS,05/05/2022 18:49,05/05/2022 18:49,Pay Bill Online from 254715892656 - DENNIS MUSYOKA MUOKI Acc. KFA,Completed,16000,,650500,TRUE,Pay Bill Online,254715892656 - DENNIS MUSYOKA MUOKI,,KFA
QE50HZV8UO,05/05/2022 18:25,05/05/2022 18:25,Pay Bill Online from 254722921132 - JOE MCCRAY MURIUKI KIHIA Acc. IFA,Completed,15000,,634500,TRUE,Pay Utility with OD Online,254722921132 - JOE MCCRAY MURIUKI KIHIA,,IFA
QE57HX26BX,05/05/2022 17:56,05/05/2022 17:56,Pay Bill from 254700198550 - BENARD ONYANGO Acc. DBB,Completed,16000,,619500,TRUE,Pay Utility,254700198550 - BENARD ONYANGO,,DBB
QE55HWWAGN,05/05/2022 17:54,05/05/2022 17:54,Pay Bill from 254725549603 - ELIZABETH OKELLO Acc. IDC,Completed,9500,,603500,TRUE,Pay Utility,254725549603 - ELIZABETH OKELLO,,IDC
QE59HTMKVP,05/05/2022 17:17,05/05/2022 17:17,Pay Bill from 254716702294 - DANIEL MULATI Acc. KBB,Completed,6000,,594000,TRUE,Pay Utility,254716702294 - DANIEL MULATI,,KBB
QE54HJBPXE,05/05/2022 14:58,05/05/2022 14:58,Pay Bill from 254724852503 - GEOFREY YEGO Acc. JFF,Completed,10000,,588000,TRUE,Pay Utility,254724852503 - GEOFREY YEGO,,JFF
QE50HIZI7K,05/05/2022 14:53,05/05/2022 14:53,Pay Bill from 254724450782 - DENNIS MUSAU Acc. JCB,Completed,6000,,578000,TRUE,Pay Utility,254724450782 - DENNIS MUSAU,,JCB
QE51HIB6XV,05/05/2022 14:43,05/05/2022 14:43,Pay Bill Online from 254715892656 - DENNIS MUSYOKA MUOKI Acc. KFA,Completed,16000,,572000,TRUE,Pay Bill Online,254715892656 - DENNIS MUSYOKA MUOKI,,KFA
QE54HHNJ3A,05/05/2022 14:34,05/05/2022 14:34,Pay Bill Online from 254707726441 - JOHN OLOO NYAULA Acc. IEH,Completed,4000,,556000,TRUE,Pay Utility with OD Online,254707726441 - JOHN OLOO NYAULA,,IEH
QE57HHDW5N,05/05/2022 14:30,05/05/2022 14:30,Pay Bill from 0724386624 - FATUMA ISSE YUSSUF Acc. FAB,Completed,16000,,552000,TRUE,Pay Utility with OD via STK,0724386624 - FATUMA ISSE YUSSUF,,FAB
QE51HH8XUL,05/05/2022 14:28,05/05/2022 14:28,Pay Bill from 254796069018 - PEACE KIMEU Acc. hdg,Completed,15000,,536000,TRUE,Pay Utility,254796069018 - PEACE KIMEU,,hdg
QE53HDCJX9,05/05/2022 13:33,05/05/2022 13:33,Pay Bill from 254720375006 - JACOB KANGOGO Acc. IBA,Completed,15000,,521000,TRUE,Pay Utility with OD via STK,254720375006 - JACOB KANGOGO,,IBA
QE54HDA2V6,05/05/2022 13:32,05/05/2022 13:32,Pay Bill Online from 254728364280 - EMMANUEL THUMA OYIER Acc. IDF,Completed,11000,,506000,TRUE,Pay Bill Online,254728364280 - EMMANUEL THUMA OYIER,,IDF
QE51HCIDLZ,05/05/2022 13:22,05/05/2022 13:22,Pay Bill Online from 254798022849 - MARTIN BUNDI RUGENDO Acc. KFH,Completed,10000,,495000,TRUE,Pay Bill Online,254798022849 - MARTIN BUNDI RUGENDO,,KFH
QE56HB6R1O,05/05/2022 13:03,05/05/2022 13:03,Pay Bill Online from 254714563486 - BRIAN MMATA MUSERA Acc. KBJ,Completed,16000,,485000,TRUE,Pay Bill Online,254714563486 - BRIAN MMATA MUSERA,,KBJ
QE56HAXITE,05/05/2022 12:59,05/05/2022 12:59,Pay Bill from 0726465363 - ISAAC KITONGA JOSEPH Acc. IDG,Completed,9000,,469000,TRUE,Pay Utility,0726465363 - ISAAC KITONGA JOSEPH,,IDG
QE51H9WWKB,05/05/2022 12:44,05/05/2022 12:44,Pay Bill from 254700557767 - BAKHITA MWENDE MUANGE Acc. kcb,Completed,16000,,460000,TRUE,Pay Utility,254700557767 - BAKHITA MWENDE MUANGE,,kcb
QE56H8Y232,05/05/2022 12:30,05/05/2022 12:30,Pay Bill Online from 254712187712 - JUDELEEN SHILOBELE AHINDUKHA Acc. IEA,Completed,15000,,444000,TRUE,Pay Utility with OD Online,254712187712 - JUDELEEN SHILOBELE AHINDUKHA,,IEA
QE57H8UVFV,05/05/2022 12:29,05/05/2022 12:29,Pay Bill from 254726172957 - VINCENT OLIENG' Acc. HBC,Completed,10000,,429000,TRUE,Pay Utility,254726172957 - VINCENT OLIENG',,HBC
QE51H75UHZ,05/05/2022 12:04,05/05/2022 12:04,Pay Bill Online from 254710202776 - KELVIN KARIMI MACHARIA Acc. FAD,Completed,11000,,419000,TRUE,Pay Bill Online,254710202776 - KELVIN KARIMI MACHARIA,,FAD
QE52H4VG2M,05/05/2022 11:30,05/05/2022 11:30,Pay Bill from 254729258441 - ROBERT RONO KULEI Acc. JAB,Completed,9000,,408000,TRUE,Pay Utility,254729258441 - ROBERT RONO KULEI,,JAB
QE55GXB5RN,05/05/2022 09:33,05/05/2022 09:33,Pay Bill from 254728854349 - JOSEPH MUSYOKA Acc. IBG,Completed,8000,,399000,TRUE,Pay Utility,254728854349 - JOSEPH MUSYOKA,,IBG
QE52GVOQEQ,05/05/2022 09:06,05/05/2022 09:06,Pay Bill from 254704111133 - ELVIS OTIENO Acc. HFD,Completed,2000,,391000,TRUE,Pay Utility,254704111133 - ELVIS OTIENO,,HFD
QE53GU2JT7,05/05/2022 08:38,05/05/2022 08:38,Pay Bill from 254726705886 - JULIUS NZONGO Acc. JFB,Completed,15000,,389000,TRUE,Pay Utility,254726705886 - JULIUS NZONGO,,JFB
QE59GTSJRZ,05/05/2022 08:33,05/05/2022 08:33,Pay Bill from 254720550403 - GRACE WANGONDU Acc. jfi,Completed,20000,,374000,TRUE,Pay Utility,254720550403 - GRACE WANGONDU,,jfi
QE52GRT3HA,05/05/2022 07:55,05/05/2022 07:55,Pay Bill from 254718244582 - GRANT WANANGWE Acc. KAH,Completed,10000,,354000,TRUE,Pay Utility,254718244582 - GRANT WANANGWE,,KAH
QE58GQC2QQ,05/05/2022 07:20,05/05/2022 07:20,Pay Bill from 0746419751 - Faith Nduku Musa Acc. KBE ,Completed,10000,,344000,TRUE,Pay Utility,0746419751 - Faith Nduku Musa,,KBE
QE50GOV2QQ,05/05/2022 06:27,05/05/2022 06:27,Pay Bill from 254711163049 - OYUGI OCHIENG Acc. FCB,Completed,16000,,334000,TRUE,Pay Utility,254711163049 - OYUGI OCHIENG,,FCB
QE57GOLQLJ,05/05/2022 06:12,05/05/2022 06:12,Pay Bill Online from 0796121714 - janet   mwikali Acc. KBC,Completed,10000,,318000,TRUE,Pay Bill Online,0796121714 - janet   mwikali,,KBC
QE47GM2Z11,04/05/2022 23:21,04/05/2022 23:21,Pay Bill from 0113888957 - BONVENTURE MASINGA MUTINDA Acc. jeh,Completed,16000,,308000,TRUE,Pay Utility,0113888957 - BONVENTURE MASINGA MUTINDA,,jeh
QE42GIM6FU,04/05/2022 21:39,04/05/2022 21:39,Pay Bill from 254725478531 - KIPKORIR KUTO Acc. DFB,Completed,15000,,292000,TRUE,Pay Utility,254725478531 - KIPKORIR KUTO,,DFB
QE43GGM2BV,04/05/2022 21:07,04/05/2022 21:07,Pay Bill Online from 254700187806 - WINNIE OLIVIA AKOTH Acc. jec,Completed,10000,,277000,TRUE,Pay Bill Online,254700187806 - WINNIE OLIVIA AKOTH,,jec
QE41GEAJW5,04/05/2022 20:35,04/05/2022 20:35,Pay Bill from 254712974871 - PAULA WANJIKU GATUI Acc. hea,Completed,16000,,267000,TRUE,Pay Utility,254712974871 - PAULA WANJIKU GATUI,,hea
QE40GCU2A0,04/05/2022 20:18,04/05/2022 20:18,Pay Bill from 254720278119 - LINDAH OGAWO Acc. kfe,Completed,10000,,251000,TRUE,Pay Utility,254720278119 - LINDAH OGAWO,,kfe
QE46G7XUP0,04/05/2022 19:28,04/05/2022 19:28,Pay Bill from 254716881682 - JUSTINE FAYUMA OKWEMBA Acc. HAA,Completed,17000,,241000,TRUE,Pay Utility,254716881682 - JUSTINE FAYUMA OKWEMBA,,HAA
QE44G30P9Q,04/05/2022 18:43,04/05/2022 18:43,Pay Bill from 0717216114 - Felix Njeru Mugambi Acc. kdf,Completed,10000,,224000,TRUE,Pay Utility,0717216114 - Felix Njeru Mugambi,,kdf
QE48G14Z34,04/05/2022 18:25,04/05/2022 18:25,Pay Bill from 254727766786 - JOHN MAITHA MULWA Acc. ibh,Completed,25000,,214000,TRUE,Pay Utility,254727766786 - JOHN MAITHA MULWA,,ibh
QE42G0YE6M,04/05/2022 18:23,04/05/2022 18:23,Pay Bill from 0797758628 - jackline nyamari onyango Acc. ICF,Completed,11000,,189000,TRUE,Pay Utility,0797758628 - jackline nyamari onyango,,ICF
QE42FYO2EI,04/05/2022 17:59,04/05/2022 17:59,Pay Bill from 254723328258 - SAMUEL MAINA MURIUKI Acc. IFE,Completed,8000,,178000,TRUE,Pay Utility,254723328258 - SAMUEL MAINA MURIUKI,,IFE
QE40FQZOFA,04/05/2022 16:28,04/05/2022 16:28,Pay Bill Online from 254719134037 - KELVIN KITOO Acc. FAA,Completed,16000,,170000,TRUE,Pay Utility with OD Online,254719134037 - KELVIN KITOO,,FAA
QE45FQ8CCH,04/05/2022 16:18,04/05/2022 16:18,Pay Bill from 254702061696 - STACY OCHIENG Acc. IGD,Completed,10000,,154000,TRUE,Pay Utility,254702061696 - STACY OCHIENG,,IGD
QE44FO58GG,04/05/2022 15:49,04/05/2022 15:49,Pay Bill from 254704111133 - ELVIS OTIENO Acc. HFD,Completed,4000,,144000,TRUE,Pay Utility,254704111133 - ELVIS OTIENO,,HFD
QE44FITEWQ,04/05/2022 14:33,04/05/2022 14:33,Pay Bill from 254723499628 - CLINTON JOSEPH MUHARI Acc. hfh,Completed,16000,,140000,TRUE,Pay Utility,254723499628 - CLINTON JOSEPH MUHARI,,hfh
QE46FGD8DG,04/05/2022 13:58,04/05/2022 13:58,Pay Bill from 254798844460 - WYCLIFFE ODHIAMBO NYAGOA Acc. kac,Completed,10000,,124000,TRUE,Pay Utility,254798844460 - WYCLIFFE ODHIAMBO NYAGOA,,kac
QE41FE743N,04/05/2022 13:28,04/05/2022 13:28,Pay Bill Online from 254792187144 - HASSAN AHMED HASSAN Acc. KGI ,Completed,10000,,114000,TRUE,Pay Bill Online,254792187144 - HASSAN AHMED HASSAN,,KGI
QE48FE4DBG,04/05/2022 13:27,04/05/2022 13:27,Pay Bill Online from 254726001437 - FESTUS MUNYIRI MAINA Acc. IFF,Completed,10000,,104000,TRUE,Pay Bill Online,254726001437 - FESTUS MUNYIRI MAINA,,IFF
QE43FDFPYV,04/05/2022 13:17,04/05/2022 13:17,Pay Bill from 0115702401 - John Kamau Kanyiri Acc. HFF,Completed,10000,,94000,TRUE,Pay Utility,0115702401 - John Kamau Kanyiri,,HFF
QE43FBKQ0B,04/05/2022 12:51,04/05/2022 12:51,Pay Bill Online from 0791158325 - WHELDON MARK MASONGO GORI Acc. JAD,Completed,15000,,84000,TRUE,Pay Bill Online,0791158325 - WHELDON MARK MASONGO GORI,,JAD
QE41FALZUZ,04/05/2022 12:37,04/05/2022 12:37,Pay Bill from 254715742045 - FRIDAH KIEMA Acc. HGC,Completed,9500,,69000,TRUE,Pay Utility,254715742045 - FRIDAH KIEMA,,HGC
QE48FAB1VK,04/05/2022 12:32,04/05/2022 12:32,Pay Bill Online from 254790627132 - Everline Mutave Kiio Acc. IGG,Completed,8000,,59500,TRUE,Pay Bill Online,254790627132 - Everline Mutave Kiio,,IGG
QE43F54HA7,04/05/2022 11:15,04/05/2022 11:15,Pay Bill from 254729160700 - MICAH NDUNGI Acc. HFE,Completed,10500,,51500,TRUE,Pay Utility,254729160700 - MICAH NDUNGI,,HFE
QE45F46997,04/05/2022 11:01,04/05/2022 11:01,Pay Bill from 0748059595 - Rashid NASSIR Khamis Acc. DDA,Completed,17000,,41000,TRUE,Pay Utility,0748059595 - Rashid NASSIR Khamis,,DDA
QE40F0T45M,04/05/2022 10:09,04/05/2022 10:09,Pay Bill Online from 254720696119 - DUNCAN OMONDI OKETCH Acc. IAG,Completed,9000,,24000,TRUE,Pay Bill Online,254720696119 - DUNCAN OMONDI OKETCH,,IAG
QE42F0QI4O,04/05/2022 10:08,04/05/2022 10:08,Pay Bill Online from 254727554512 - COLLINS KOECH Acc. JDJ,Completed,15000,,15000,TRUE,Pay Bill Online,254727554512 - COLLINS KOECH,,JDJ
QE41F0OXLN,04/05/2022 10:07,04/05/2022 10:07,Utility Account to Organization Settlement Account,Completed,,-526900,0,TRUE,Utility Account to Organization Settlement Account,979524 - ANCIENT WELLS PROPERTY MANAGERS 2,,
QE49EZQPR7,04/05/2022 09:52,04/05/2022 09:52,Pay Bill from 254719398942 - NORAH WAYUA MUNYAO Acc. KDA,Completed,16000,,526900,TRUE,Pay Utility,254719398942 - NORAH WAYUA MUNYAO,,KDA
QE44EXIJIM,04/05/2022 09:16,04/05/2022 09:16,FSI to Pay Bill by 714888 - B2C LOOP VIA NCBA Acc. DCC via WEB by B2C LOOP VIA NCBA\Cbainitiator,Completed,20000,,510900,TRUE,FSI to Pay Bill via API,714888 - B2C LOOP VIA NCBA,,DCC
QE40EXAAM6,04/05/2022 09:13,04/05/2022 09:13,Pay Bill from 254723017892 - JUDY MUTHEU Acc. ICI,Completed,16000,,490900,TRUE,Pay Utility,254723017892 - JUDY MUTHEU,,ICI
QE43EX8LHF,04/05/2022 09:12,04/05/2022 09:12,Pay Bill from 254706144834 - WILKISTER OSUMO Acc. HFB,Completed,15000,,474900,TRUE,Pay Utility,254706144834 - WILKISTER OSUMO,,HFB
QE45EWAGKN,04/05/2022 08:56,04/05/2022 08:56,Pay Bill from 0758506934 - Edgar Maxwel Wanguba Acc. IFG,Completed,8000,,459900,TRUE,Pay Utility,0758506934 - Edgar Maxwel Wanguba,,IFG
QE33EM9MHJ,03/05/2022 22:30,03/05/2022 22:30,Pay Bill from 254745661722 - MUHAMEDMALIK GAAL Acc. DEC,Completed,8000,,451900,TRUE,Pay Utility,254745661722 - MUHAMEDMALIK GAAL,,DEC
QE32EJ0WH0,03/05/2022 21:18,03/05/2022 21:18,Pay Bill from 254708570729 - MARY OGOLLA Acc. HOUSE KAD,Completed,12000,,443900,TRUE,Pay Utility,254708570729 - MARY OGOLLA,,HOUSE
QE33EH8Y41,03/05/2022 20:50,03/05/2022 20:50,Pay Bill Online from 254714855708 - KIPLANGAT SITIENEI Acc. FAE,Completed,16000,,431900,TRUE,Pay Bill Online,254714855708 - KIPLANGAT SITIENEI,,FAE
QE32EFYB12,03/05/2022 20:33,03/05/2022 20:33,Pay Bill from 254728084427 - MARY NABWIRE OKELLO Acc. FDF,Completed,16000,,415900,TRUE,Pay Utility,254728084427 - MARY NABWIRE OKELLO,,FDF
QE37EE9AT1,03/05/2022 20:12,03/05/2022 20:12,Pay Bill Online from 254721417560 - ANDREW SANDE Acc. JBJ,Completed,16000,,399900,TRUE,Pay Bill Online,254721417560 - ANDREW SANDE,,JBJ
QE34E162J2,03/05/2022 17:56,03/05/2022 17:56,Pay Bill Online from 254742911013 - HANEST AMIMO Acc. IEG,Completed,8000,,383900,TRUE,Pay Bill Online,254742911013 - HANEST AMIMO,,IEG
QE31E0M0ZF,03/05/2022 17:49,03/05/2022 17:49,Pay Bill from 254723966777 - BONIFACE MUTHAKA NGANGA Acc. IEC,Completed,9000,,375900,TRUE,Pay Utility,254723966777 - BONIFACE MUTHAKA NGANGA,,IEC
QE34DXTNYW,03/05/2022 17:15,03/05/2022 17:15,Pay Bill from 254710348242 - KENNETH MAKAU Acc. FCC,Completed,9000,,366900,TRUE,Pay Utility,254710348242 - KENNETH MAKAU,,FCC
QE35DWTFIN,03/05/2022 17:03,03/05/2022 17:03,Pay Bill from 254720029066 - EVANS CHERUYOT ROTICH Acc. KFI,Completed,2000,,357900,TRUE,Pay Utility,254720029066 - EVANS CHERUYOT ROTICH,,KFI
QE36DU5RYM,03/05/2022 16:27,03/05/2022 16:27,Pay Bill from 254721974995 - BERNICE MANGOKA Acc. KFK,Completed,16000,,355900,TRUE,Pay Utility,254721974995 - BERNICE MANGOKA,,KFK
QE35DKNRGL,03/05/2022 14:07,03/05/2022 14:07,Pay Bill Online from 254708300413 - ROBINSON AYAKO Acc. KEH,Completed,10000,,339900,TRUE,Pay Bill Online,254708300413 - ROBINSON AYAKO,,KEH
QE31DAHEF7,03/05/2022 11:32,03/05/2022 11:32,Pay Bill Online from 0711117122 - Yassir Mwinyi Abdulrazaq Acc. ICE,Completed,5000,,329900,TRUE,Pay Bill Online,0711117122 - Yassir Mwinyi Abdulrazaq,,ICE
QE36D31CEI,03/05/2022 09:29,03/05/2022 09:29,Pay Bill from 254729796719 - JACINTA WANJIKU NJERI Acc. FFF,Completed,17000,,324900,TRUE,Pay Utility,254729796719 - JACINTA WANJIKU NJERI,,FFF
QE30D09ILY,03/05/2022 08:37,03/05/2022 08:37,Pay Bill Online from 254722728975 - CURTIS MRIGA OMIDO Acc. IAH,Completed,16000,,307900,TRUE,Pay Bill Online,254722728975 - CURTIS MRIGA OMIDO,,IAH
QE37CZ2EAT,03/05/2022 08:11,03/05/2022 08:11,Pay Bill from 254719747910 - KEVIN NDERITU GAKINGO Acc. iDD,Completed,11000,,291900,TRUE,Pay Utility,254719747910 - KEVIN NDERITU GAKINGO,,iDD
QE30CY02XE,03/05/2022 07:46,03/05/2022 07:46,Pay Bill from 254723929380 - RHODAH K WAMBUA Acc. HEF,Completed,9500,,280900,TRUE,Pay Utility,254723929380 - RHODAH K WAMBUA,,HEF
QE36CVMC7C,03/05/2022 05:50,03/05/2022 05:50,Pay Bill Online from 254113678329 - LESLIE NAINI KOIKAI Acc. IBD ,Completed,11000,,271400,TRUE,Pay Bill Online,254113678329 - LESLIE NAINI KOIKAI,,IBD
QE27COIAWB,02/05/2022 21:15,02/05/2022 21:15,Pay Bill from 254703935626 - DAVID NGARI ITA Acc. FCD,Completed,1000,,260400,TRUE,Pay Utility,254703935626 - DAVID NGARI ITA,,FCD
QE25CLDMYN,02/05/2022 20:31,02/05/2022 20:31,Pay Bill Online from 254706158280 - patience mutheu mbevi Acc. KFC,Completed,10000,,259400,TRUE,Pay Bill Online,254706158280 - patience mutheu mbevi,,KFC
QE22C3522S,02/05/2022 17:12,02/05/2022 17:12,Pay Bill from 254724694917 - ROSE NJERI KARANJA Acc. jfa,Completed,20000,,249400,TRUE,Pay Utility,254724694917 - ROSE NJERI KARANJA,,jfa
QE28C29W3U,02/05/2022 17:00,02/05/2022 17:00,Pay Bill from 254722826454 - CHARLES KARIMI MAITAI Acc. KDC,Completed,11000,,229400,TRUE,Pay Utility,254722826454 - CHARLES KARIMI MAITAI,,KDC
QE28BUCQBI,02/05/2022 15:06,02/05/2022 15:06,Pay Bill from 254703555717 - SENGA SALIM Acc. hbb,Completed,4000,,218400,TRUE,Pay Utility,254703555717 - SENGA SALIM,,hbb
QE23B48XGB,02/05/2022 08:09,02/05/2022 08:09,Pay Bill from 254725771056 - CHARLES MURAGURI Acc. FCE,Completed,15000,,214400,TRUE,Pay Utility,254725771056 - CHARLES MURAGURI,,FCE
QE27B2I3KD,02/05/2022 07:24,02/05/2022 07:24,Pay Bill from 254728901013 - ALEX MOSE ARWASA Acc. hgd,Completed,10000,,199400,TRUE,Pay Utility with OD via STK,254728901013 - ALEX MOSE ARWASA,,hgd
QE10AXQQRI,01/05/2022 22:51,01/05/2022 22:51,Pay Bill Online from 254728093389 - MOHAMED MUSA ALASOW Acc. KED ,Completed,12000,,189400,TRUE,Pay Bill Online,254728093389 - MOHAMED MUSA ALASOW,,KED
QE18AUOV0S,01/05/2022 21:30,01/05/2022 21:30,Pay Bill from 254714060203 - PATRICK MWANGOMBE MSAWUCHI Acc. KEI,Completed,12000,,177400,TRUE,Pay Utility,254714060203 - PATRICK MWANGOMBE MSAWUCHI,,KEI
QE119X8J07,01/05/2022 14:03,01/05/2022 14:03,Pay Bill Online from 254795510441 - LEWIS MUEMA Acc. KEB,Completed,16000,,165400,TRUE,Pay Bill Online,254795510441 - LEWIS MUEMA,,KEB
QE129VLAGK,01/05/2022 13:38,01/05/2022 13:38,Pay Bill Online from 254728897908 - Teddy Allan Onyango Acc. DDD,Completed,30400,,149400,TRUE,Pay Bill Online,254728897908 - Teddy Allan Onyango,,DDD
QE189SH5FE,01/05/2022 12:47,01/05/2022 12:47,Pay Bill Online from 254706549634 - CLINTON OMBASA Acc. FDB,Completed,6000,,119000,TRUE,Pay Utility with OD Online,254706549634 - CLINTON OMBASA,,FDB
QE159JEVH5,01/05/2022 10:03,01/05/2022 10:03,Pay Bill from 254721302658 - JACOB BIRUNDU Acc. HDE,Completed,10000,,113000,TRUE,Pay Utility,254721302658 - JACOB BIRUNDU,,HDE
QE129I0LRM,01/05/2022 09:37,01/05/2022 09:37,Pay Bill from 254717726012 - WINFRED MUENI PETER Acc. IDA,Completed,16000,,103000,TRUE,Pay Utility,254717726012 - WINFRED MUENI PETER,,IDA
QE159BEGKF,01/05/2022 07:04,01/05/2022 07:04,Pay Bill from 254702355678 - JOHN NJOROGE GICHERU Acc. ITE,Completed,10000,,87000,TRUE,Pay Utility,254702355678 - JOHN NJOROGE GICHERU,,ITE
QE189AMWOG,01/05/2022 06:18,01/05/2022 06:18,Pay Bill from 254791318982 - ADULLAHI HASSAN Acc. JCI,Completed,20000,,77000,TRUE,Pay Utility,254791318982 - ADULLAHI HASSAN,,JCI
