Receipt No.,Completion Time,Initiation Time,Details,Transaction Status,Paid In,Withdrawn,Balance,Balance Confirmed,Reason Type,Other Party Info,Linked Transaction ID,A/C No.
OHO2WGDEB6,24/08/2020 19:16,24/08/2020 19:16,Pay Bill from 254715259756 - SYNTHIA OTIENO Acc. FBC,Completed,9500,,18000,TRUE,Pay Utility,254715259756 - SYNTHIA OTIENO,,FBC
OHO8WAJNDQ,24/08/2020 17:26,24/08/2020 17:26,Pay Bill from 254713662892 - DAVID JUMA KIPTOCH Acc. JBE,Completed,8500,,8500,TRUE,Pay Utility,254713662892 - DAVID JUMA KIPTOCH,,JBE
OHO9W2P8QL,24/08/2020 14:04,24/08/2020 14:04,Utility Account to Organization Settlement Account,Completed,,-23000,0,TRUE,Utility Account to Organization Settlement Account,979524 - ANCIENT WELLS PROPERTY MANAGERS 2,,
OHO5W079CP,24/08/2020 12:56,24/08/2020 12:56,Pay Bill from 254703555717 - SENGA SALIM Acc. hbb,Completed,4000,,23000,TRUE,Pay Utility,254703555717 - SENGA SALIM,,hbb
OHO5VZPA2R,24/08/2020 12:42,24/08/2020 12:42,Pay Bill from 0790468027 - MESHACK OJOWI OMONDI Acc. jdc,Completed,8000,,19000,TRUE,Pay Utility,0790468027 - MESHACK OJOWI OMONDI,,jdc
OHO6VZNDC2,24/08/2020 12:41,24/08/2020 12:41,Pay Bill from 254720933350 - AMOS NJAU Acc. IAF,Completed,11000,,11000,TRUE,Pay Utility,254720933350 - AMOS NJAU,,IAF
OHO5VXC5G3,24/08/2020 11:37,24/08/2020 11:37,Utility Account to Organization Settlement Account,Completed,,-3000,0,TRUE,Utility Account to Organization Settlement Account,979524 - ANCIENT WELLS PROPERTY MANAGERS 2,,
OHO9VUDGKJ,24/08/2020 10:14,24/08/2020 10:14,Pay Bill Online from 254725385966 - JOSEPH MUYA MARUA Acc. KEE,Completed,2000,,3000,TRUE,Pay Utility with OD Online,254725385966 - JOSEPH MUYA MARUA,,KEE
OHN5VMJJBN,23/08/2020 21:34,23/08/2020 21:34,Pay Bill from 254703935626 - DAVID NGARI ITA Acc. FCD,Completed,1000,,1000,TRUE,Pay Utility with OD via STK,254703935626 - DAVID NGARI ITA,,FCD
OHN4VLT5WQ,23/08/2020 21:08,23/08/2020 21:08,Utility Account to Organization Settlement Account,Completed,,-20000,0,TRUE,Utility Account to Organization Settlement Account,979524 - ANCIENT WELLS PROPERTY MANAGERS 2,,
OHN9VJFXDN,23/08/2020 20:05,23/08/2020 20:05,Pay Bill Online from 254703122244 - MABEL KAMANDA Acc. JGA,Completed,20000,,20000,TRUE,Pay Bill Online,254703122244 - MABEL KAMANDA,,JGA
OHN6V3972Y,23/08/2020 13:38,23/08/2020 13:38,Utility Account to Organization Settlement Account,Completed,,-28500,0,TRUE,Utility Account to Organization Settlement Account,979524 - ANCIENT WELLS PROPERTY MANAGERS 2,,
OHN9URDPI1,23/08/2020 01:06,23/08/2020 01:06,Pay Bill from 254795449800 - MARTHA WANJIRU NJUGUNA Acc. HGD,Completed,4000,,28500,TRUE,Pay Utility,254795449800 - MARTHA WANJIRU NJUGUNA,,HGD
OHM0UMGW6Y,22/08/2020 20:11,22/08/2020 20:11,Pay Bill from 254724680704 - PATRICK MWANDO Acc. fbf,Completed,17000,,24500,TRUE,Pay Utility,254724680704 - PATRICK MWANDO,,fbf
OHM6UKYFOI,22/08/2020 19:41,22/08/2020 19:41,Pay Bill from 254724611087 - Francis Mukindya Muoki Acc. KDE,Completed,2500,,7500,TRUE,Pay Utility with OD via STK,254724611087 - Francis Mukindya Muoki,,KDE
OHM5UG7AYD,22/08/2020 18:18,22/08/2020 18:18,Pay Bill from 254708442077 - JOHN MUIRURI Acc. Fac,Completed,5000,,5000,TRUE,Pay Utility,254708442077 - JOHN MUIRURI,,Fac
OHM7UCY5GF,22/08/2020 17:12,22/08/2020 17:12,Utility Account to Organization Settlement Account,Completed,,-16200,0,TRUE,Utility Account to Organization Settlement Account,979524 - ANCIENT WELLS PROPERTY MANAGERS 2,,
OHM1UCQ0OT,22/08/2020 17:07,22/08/2020 17:07,Pay Bill from 254726337163 - HALIMA ALI HASSAN Acc. DDA,Completed,5000,,16200,TRUE,Pay Utility,254726337163 - HALIMA ALI HASSAN,,DDA
OHM5UCLM2D,22/08/2020 17:05,22/08/2020 17:05,Pay Bill from 254729258441 - ROBERT RONO KULEI Acc. JAB,Completed,5000,,11200,TRUE,Pay Utility,254729258441 - ROBERT RONO KULEI,,JAB
OHM4UBFKSA,22/08/2020 16:39,22/08/2020 16:39,Pay Bill from 254725226214 - NORMAN ESHUCHI Acc. jej,Completed,1200,,6200,TRUE,Pay Utility,254725226214 - NORMAN ESHUCHI,,jej
OHM5UAYIJJ,22/08/2020 16:28,22/08/2020 16:28,Pay Bill from 254719499823 - MOSES MWANZIA MUTHIANI Acc. JCC,Completed,5000,,5000,TRUE,Pay Utility,254719499823 - MOSES MWANZIA MUTHIANI,,JCC
OHM1U8V453,22/08/2020 15:39,22/08/2020 15:39,Utility Account to Organization Settlement Account,Completed,,-48000,0,TRUE,Utility Account to Organization Settlement Account,979524 - ANCIENT WELLS PROPERTY MANAGERS 2,,
OHM1U75KI1,22/08/2020 14:56,22/08/2020 14:56,Pay Bill Online from 254726116777 - MARY NDUTA GOSHO Acc. JDB,Completed,15000,,48000,TRUE,Pay Utility with OD Online,254726116777 - MARY NDUTA GOSHO,,JDB
OHM4TWGFFM,22/08/2020 10:02,22/08/2020 10:02,Pay Bill from 254703624678 - Zacharia Gesora Omwoyo Acc. IGD,Completed,5000,,33000,TRUE,Pay Utility,254703624678 - Zacharia Gesora Omwoyo,,IGD
OHL4TOCMW0,21/08/2020 21:28,21/08/2020 21:28,Pay Bill from 254703935626 - DAVID NGARI ITA Acc. FCD,Completed,1000,,28000,TRUE,Pay Utility with OD via STK,254703935626 - DAVID NGARI ITA,,FCD
OHL7TO9WWB,21/08/2020 21:26,21/08/2020 21:26,Pay Bill from 254798146452 - VALARY ODHIAMBO Acc. JEE,Completed,10000,,27000,TRUE,Pay Utility,254798146452 - VALARY ODHIAMBO,,JEE
OHL8THNGOE,21/08/2020 19:04,21/08/2020 19:04,Pay Bill Online from 254724211857 - OCHUODHO OUMA Acc. KBK,Completed,17000,,17000,TRUE,Pay Bill Online,254724211857 - OCHUODHO OUMA,,KBK
OHL9TBVV43,21/08/2020 17:15,21/08/2020 17:15,Utility Account to Organization Settlement Account,Completed,,-33000,0,TRUE,Utility Account to Organization Settlement Account,979524 - ANCIENT WELLS PROPERTY MANAGERS 2,,
OHL7TA8N0H,21/08/2020 16:38,21/08/2020 16:38,Pay Bill from 254712749429 - ANNE MBITHE Acc. jcd,Completed,8000,,33000,TRUE,Pay Utility,254712749429 - ANNE MBITHE,,jcd
OHL9T7RKYR,21/08/2020 15:38,21/08/2020 15:38,Pay Bill from 0722950695 - Joshua Mbithi Kivondo Acc. DCA,Completed,25000,,25000,TRUE,Pay Utility,0722950695 - Joshua Mbithi Kivondo,,DCA
OHL6T7CYQ8,21/08/2020 15:28,21/08/2020 15:28,Utility Account to Organization Settlement Account,Completed,,-61300,0,TRUE,Utility Account to Organization Settlement Account,979524 - ANCIENT WELLS PROPERTY MANAGERS 2,,
OHL1T6UH4Z,21/08/2020 15:15,21/08/2020 15:15,Pay Bill from 254710537468 - DONALDO AMIOL JUAC AKEC Acc. jdg,Completed,9000,,61300,TRUE,Pay Utility,254710537468 - DONALDO AMIOL JUAC AKEC,,jdg
OHL3SZY7JP,21/08/2020 12:12,21/08/2020 12:12,Pay Bill from 254722910078 - MAUREEN MUNYIVA MUTUKU Acc. DBD,Completed,6000,,52300,TRUE,Pay Utility,254722910078 - MAUREEN MUNYIVA MUTUKU,,DBD
OHK5SOV3VD,20/08/2020 23:18,20/08/2020 23:18,Pay Bill from 254703935626 - DAVID NGARI ITA Acc. FCD,Completed,800,,46300,TRUE,Pay Utility with OD via STK,254703935626 - DAVID NGARI ITA,,FCD
OHK0SLFFVU,20/08/2020 20:40,20/08/2020 20:40,Pay Bill from 254720361605 - DAUD AMBER Acc. IGH,Completed,500,,45500,TRUE,Pay Utility,254720361605 - DAUD AMBER,,IGH
OHK3S69EU1,20/08/2020 15:33,20/08/2020 15:33,Pay Bill from 254724109599 - THOMAS EDWIN MUSUNGU Acc. IAD,Completed,11250,,45000,TRUE,Pay Utility,254724109599 - THOMAS EDWIN MUSUNGU,,IAD
OHK3S66N0Z,20/08/2020 15:31,20/08/2020 15:31,Pay Bill from 254724109599 - THOMAS EDWIN MUSUNGU Acc. IAD,Completed,1250,,33750,TRUE,Pay Utility,254724109599 - THOMAS EDWIN MUSUNGU,,IAD
OHK8S1MQBK,20/08/2020 13:28,20/08/2020 13:28,Pay Bill from 254722458136 - NADI GOLICHA Acc. KAA,Completed,17000,,32500,TRUE,Pay Utility,254722458136 - NADI GOLICHA,,KAA
OHK1S0JVFX,20/08/2020 12:57,20/08/2020 12:57,Pay Bill Online from 254714578997 - LINCOLN DAN MEMBA Acc. KAC,Completed,4000,,15500,TRUE,Pay Bill Online,254714578997 - LINCOLN DAN MEMBA,,KAC
OHK0RYYSLQ,20/08/2020 12:13,20/08/2020 12:13,Pay Bill from 254706159636 - titus omondi abuodha Acc. HBC,Completed,11000,,11500,TRUE,Pay Utility,254706159636 - titus omondi abuodha,,HBC
OHJ7RLKWD9,19/08/2020 21:28,19/08/2020 21:28,Pay Bill from 254720361605 - DAUD AMBER Acc. IGH,Completed,500,,500,TRUE,Pay Utility,254720361605 - DAUD AMBER,,IGH
OHJ4QVLS94,19/08/2020 11:17,19/08/2020 11:17,Utility Account to Organization Settlement Account,Completed,,-24500,0,TRUE,Utility Account to Organization Settlement Account,979524 - ANCIENT WELLS PROPERTY MANAGERS 2,,
OHI8QL32JC,18/08/2020 21:59,18/08/2020 21:59,Pay Bill from 254716369842 - HUMMAM HAMID MOHAMED SAID AMBER Acc. FGC,Completed,500,,24500,TRUE,Pay Utility with OD via STK,254716369842 - HUMMAM HAMID MOHAMED SAID AMBER,,FGC
OHI0PSVVH8,18/08/2020 10:26,18/08/2020 10:26,Pay Bill from 254726227698 - Victor Omondi Acc. JDC,Completed,10000,,24000,TRUE,Pay Utility,254726227698 - Victor Omondi,,JDC
OHH5P53WT1,17/08/2020 15:58,17/08/2020 15:58,Pay Bill from 254720707838 - SHADRACK KIPCHUMBA Acc. KDI,Completed,6000,,14000,TRUE,Pay Utility,254720707838 - SHADRACK KIPCHUMBA,,KDI
OHH0P3JD5A,17/08/2020 15:16,17/08/2020 15:16,Pay Bill from 0748059595 - Rashid NASSIR Khamis Acc. DDA,Completed,6000,,8000,TRUE,Pay Utility,0748059595 - Rashid NASSIR Khamis,,DDA
OHH8P0XC3K,17/08/2020 14:05,17/08/2020 14:05,Pay Bill Online from 254724777705 - COLLINS AKASA Acc. KEG,Completed,2000,,2000,TRUE,Pay Bill Online,254724777705 - COLLINS AKASA,,KEG
OHH2OZSINE,17/08/2020 13:35,17/08/2020 13:35,Utility Account to Organization Settlement Account,Completed,,-74250,0,TRUE,Utility Account to Organization Settlement Account,979524 - ANCIENT WELLS PROPERTY MANAGERS 2,,
OHH3OTFOGZ,17/08/2020 10:41,17/08/2020 10:41,Pay Bill from 254722244406 - NOAH MELI Acc. jac,Completed,10000,,74250,TRUE,Pay Utility,254722244406 - NOAH MELI,,jac
OHG6OIB4OK,16/08/2020 20:29,16/08/2020 20:29,Pay Bill from 254720361605 - DAUD AMBER Acc. IGH,Completed,1500,,64250,TRUE,Pay Utility,254720361605 - DAUD AMBER,,IGH
OHG3OHR5C3,16/08/2020 20:16,16/08/2020 20:16,Pay Bill from 254743775372 - SHIKUNDI PURITY KHAOYA Acc. HCD,Completed,15250,,62750,TRUE,Pay Utility,254743775372 - SHIKUNDI PURITY KHAOYA,,HCD
OHF6NN7PEE,15/08/2020 21:43,15/08/2020 21:43,Pay Bill from 254703375006 - KEN RODGERS Acc. DBA,Completed,17000,,47500,TRUE,Pay Utility with OD via STK,254703375006 - KEN RODGERS,,DBA
OHF6NLGO84,15/08/2020 20:48,15/08/2020 20:48,Pay Bill from 254720361605 - DAUD AMBER Acc. IGH,Completed,500,,30500,TRUE,Pay Utility,254720361605 - DAUD AMBER,,IGH
OHF0NFIXQ0,15/08/2020 18:56,15/08/2020 18:56,Pay Bill from 254712187712 - JUDELEEN AHINDUKHA SHILOBELE Acc. IGG,Completed,4000,,30000,TRUE,Pay Utility with OD via STK,254712187712 - JUDELEEN AHINDUKHA SHILOBELE,,IGG
OHF0N10DRG,15/08/2020 13:33,15/08/2020 13:33,Pay Bill from 0723409745 - Kelvin Kitonga Mutyetu Acc. kbf,Completed,10000,,26000,TRUE,Pay Utility with OD via STK,0723409745 - Kelvin Kitonga Mutyetu,,kbf
OHF8MXSSTI,15/08/2020 12:09,15/08/2020 12:09,Pay Bill Online from 254722170279 - GEOFFREY GETUI Acc. FDE,Completed,16000,,16000,TRUE,Pay Bill Online,254722170279 - GEOFFREY GETUI,,FDE
OHF1MVA20V,15/08/2020 10:59,15/08/2020 10:59,Utility Account to Organization Settlement Account,Completed,,-59000,0,TRUE,Utility Account to Organization Settlement Account,979524 - ANCIENT WELLS PROPERTY MANAGERS 2,,
OHF2MO3D6E,15/08/2020 06:40,15/08/2020 06:40,Pay Bill from 254716369842 - HUMMAM HAMID MOHAMED SAID AMBER Acc. FGC,Completed,500,,59000,TRUE,Pay Utility,254716369842 - HUMMAM HAMID MOHAMED SAID AMBER,,FGC
OHF0MNMBPC,15/08/2020 03:35,15/08/2020 03:35,Pay Bill Online from 254720451253 - JIMMY KIOGORA NKIROTE Acc. KBD,Completed,12000,,58500,TRUE,Pay Utility with OD Online,254720451253 - JIMMY KIOGORA NKIROTE,,KBD
OHE1MJ3223,14/08/2020 20:28,14/08/2020 20:28,Pay Bill from 254711397174 - JASEL HOPE ANTONINA Acc. kef,Completed,3500,,46500,TRUE,Pay Utility,254711397174 - JASEL HOPE ANTONINA,,kef
OHE8MIL1II,14/08/2020 20:17,14/08/2020 20:17,Pay Bill from 254742736122 - yassir mwinyi abdulrazaq Acc. ICE,Completed,10000,,43000,TRUE,Pay Utility,254742736122 - yassir mwinyi abdulrazaq,,ICE
OHE6MFGRDS,14/08/2020 19:17,14/08/2020 19:17,Pay Bill from 254720361605 - DAUD AMBER Acc. IGH,Completed,1000,,33000,TRUE,Pay Utility,254720361605 - DAUD AMBER,,IGH
OHE3M6PO9H,14/08/2020 16:28,14/08/2020 16:28,Pay Bill from 254701006375 - EZRA MAKORI SERETI Acc. IFB,Completed,16000,,32000,TRUE,Pay Utility with OD via STK,254701006375 - EZRA MAKORI SERETI,,IFB
OHE1M03VOB,14/08/2020 13:40,14/08/2020 13:40,Pay Bill from 254726611493 - Cornelius Kimeli Acc. HAG,Completed,16000,,16000,TRUE,Pay Utility with OD via STK,254726611493 - Cornelius Kimeli,,HAG
OHE2LR6G8O,14/08/2020 09:45,14/08/2020 09:45,Utility Account to Organization Settlement Account,Completed,,-242400,0,TRUE,Utility Account to Organization Settlement Account,979524 - ANCIENT WELLS PROPERTY MANAGERS 2,,
OHD8LLKYZM,13/08/2020 23:20,13/08/2020 23:20,Pay Bill from 254716369842 - HUMMAM HAMID MOHAMED SAID AMBER Acc. FGC,Completed,500,,242400,TRUE,Pay Utility with OD via STK,254716369842 - HUMMAM HAMID MOHAMED SAID AMBER,,FGC
OHD8LL5MYA,13/08/2020 22:32,13/08/2020 22:32,Pay Bill from 254703555717 - SENGA SALIM Acc. hbb,Completed,10000,,241900,TRUE,Pay Utility,254703555717 - SENGA SALIM,,hbb
OHD6LG8Q8M,13/08/2020 19:55,13/08/2020 19:55,Pay Bill from 254720361605 - DAUD AMBER Acc. IGH,Completed,1000,,231900,TRUE,Pay Utility,254720361605 - DAUD AMBER,,IGH
OHD0LBE64Y,13/08/2020 18:29,13/08/2020 18:29,Pay Bill from 254714774979 - ALICE KALEKYE MUTUA Acc. JCH,Completed,14500,,230900,TRUE,Pay Utility,254714774979 - ALICE KALEKYE MUTUA,,JCH
OHD1L8YA21,13/08/2020 17:40,13/08/2020 17:40,Pay Bill Online from 254759076603 - GORDON OUMA OKELLO Acc. KFE,Completed,10200,,216400,TRUE,Pay Bill Online,254759076603 - GORDON OUMA OKELLO,,KFE
OHD7L39MJD,13/08/2020 15:22,13/08/2020 15:22,Pay Bill from 254711758134 - SAMUEL WAKOOLI Acc. FBA,Completed,17000,,206200,TRUE,Pay Utility,254711758134 - SAMUEL WAKOOLI,,FBA
OHD2KSXYW0,13/08/2020 10:39,13/08/2020 10:39,Pay Bill from 0758591833 - DORCUS MBULA PETER Acc. JEF,Completed,8000,,189200,TRUE,Pay Utility,0758591833 - DORCUS MBULA PETER,,JEF
OHD6KS57O2,13/08/2020 10:16,13/08/2020 10:16,Pay Bill from 254718292893 - HERINE ELSEBA ATIENO Acc. IFI,Completed,5000,,181200,TRUE,Pay Utility,254718292893 - HERINE ELSEBA ATIENO,,IFI
OHD9KNW49B,13/08/2020 07:58,13/08/2020 07:58,Pay Bill from 0703549682 - MILCAH KANINI BERNARD Acc. JDF,Completed,8000,,176200,TRUE,Pay Utility,0703549682 - MILCAH KANINI BERNARD,,JDF
OHD3KM3X69,13/08/2020 04:22,13/08/2020 04:22,Pay Bill Online from 254715764212 - BANCE ISHEMINYE Acc. JFE,Completed,8000,,168200,TRUE,Pay Bill Online,254715764212 - BANCE ISHEMINYE,,JFE
OHC4KKPTWS,12/08/2020 22:06,12/08/2020 22:06,Pay Bill Online from 254713831946 - KEVIN WAMBUA Acc. IAA,Completed,3000,,160200,TRUE,Pay Utility with OD Online,254713831946 - KEVIN WAMBUA,,IAA
OHC1KASOWH,12/08/2020 18:10,12/08/2020 18:10,Pay Bill from 254720361605 - DAUD AMBER Acc. IGH,Completed,1000,,157200,TRUE,Pay Utility,254720361605 - DAUD AMBER,,IGH
OHC9K8K90R,12/08/2020 17:27,12/08/2020 17:27,Pay Bill Online from 254720787158 - AMOS CHELANG'A Acc. KFK,Completed,16000,,156200,TRUE,Pay Utility with OD Online,254720787158 - AMOS CHELANG'A,,KFK
OHC9JM2HIV,12/08/2020 08:15,12/08/2020 08:15,Pay Bill from 254790799823 - HINO ASAFA AILA Acc. fge,Completed,16000,,140200,TRUE,Pay Utility,254790799823 - HINO ASAFA AILA,,fge
OHB4JGXAPQ,11/08/2020 21:06,11/08/2020 21:06,Pay Bill Online from 254714889853 - EUNICE WAIRIMU MWANGI Acc. kge,Completed,9000,,124200,TRUE,Pay Bill Online,254714889853 - EUNICE WAIRIMU MWANGI,,kge
OHB1JFAB7J,11/08/2020 20:22,11/08/2020 20:22,Pay Bill from 254722426713 - NANCY ADENYA Acc. jdd,Completed,5700,,115200,TRUE,Pay Utility with OD via STK,254722426713 - NANCY ADENYA,,jdd
OHB5JD4D6F,11/08/2020 19:38,11/08/2020 19:38,Pay Bill from 254720361605 - DAUD AMBER Acc. IGH,Completed,1000,,109500,TRUE,Pay Utility,254720361605 - DAUD AMBER,,IGH
OHB9J7F46D,11/08/2020 17:53,11/08/2020 17:53,Pay Bill from 254722387899 - ADAN ALI Acc. Jba,Completed,22000,,108500,TRUE,Pay Utility,254722387899 - ADAN ALI,,Jba
OHB7J66H1X,11/08/2020 17:27,11/08/2020 17:27,Pay Bill from 0743248310 - PATRICK STURRIDGE NYONGESA Acc. kaf,Completed,7000,,86500,TRUE,Pay Utility,0743248310 - PATRICK STURRIDGE NYONGESA,,kaf
OHB0J54X0Y,11/08/2020 17:04,11/08/2020 17:04,Pay Bill from 254720707838 - SHADRACK KIPCHUMBA Acc. KDI,Completed,6000,,79500,TRUE,Pay Utility,254720707838 - SHADRACK KIPCHUMBA,,KDI
OHB9J2X5D7,11/08/2020 16:11,11/08/2020 16:11,Pay Bill from 254728313347 - GEORGE KIMAIGA NYAMORI Acc. ici,Completed,16000,,73500,TRUE,Pay Utility,254728313347 - GEORGE KIMAIGA NYAMORI,,ici
OHB0IT3Q86,11/08/2020 11:44,11/08/2020 11:44,Pay Bill from 254720703769 - MOHAMED ABUKAR SIYAD Acc. afzal,Completed,17000,,57500,TRUE,Pay Utility,254720703769 - MOHAMED ABUKAR SIYAD,,afzal
OHB6IQTVMA,11/08/2020 10:41,11/08/2020 10:41,Pay Bill from 254728687482 - KELSEN MWIRIGI MUTIGA Acc. HCE,Completed,10500,,40500,TRUE,Pay Utility,254728687482 - KELSEN MWIRIGI MUTIGA,,HCE
OHB3IO7FY5,11/08/2020 09:25,11/08/2020 09:25,Pay Bill from 254701741613 - ELDERKIN AKOSA Acc. JCI,Completed,20000,,30000,TRUE,Pay Utility,254701741613 - ELDERKIN AKOSA,,JCI
OHB8IKRZ6M,11/08/2020 07:09,11/08/2020 07:09,Pay Bill from 254725255978 - DICKSON OLUOCH Acc. JFF,Completed,10000,,10000,TRUE,Pay Utility,254725255978 - DICKSON OLUOCH,,JFF
OHA6IJC0AM,10/08/2020 23:09,10/08/2020 23:09,Utility Account to Organization Settlement Account,Completed,,-110000,0,TRUE,Utility Account to Organization Settlement Account,979524 - ANCIENT WELLS PROPERTY MANAGERS 2,,
OHA8IGE00K,10/08/2020 20:52,10/08/2020 20:52,Pay Bill from 254720107609 - DENNIS OGENDI BARAKE Acc. JAJ,Completed,15000,,110000,TRUE,Pay Utility with OD via STK,254720107609 - DENNIS OGENDI BARAKE,,JAJ
OHA7IG66NX,10/08/2020 20:46,10/08/2020 20:46,Pay Bill from 254720361605 - DAUD AMBER Acc. IGH,Completed,1000,,95000,TRUE,Pay Utility,254720361605 - DAUD AMBER,,IGH
OHA8IE5YT8,10/08/2020 20:02,10/08/2020 20:02,Pay Bill from 254726928933 - JOSHUA NDUNDA NZIOKA Acc. KCJ,Completed,10000,,94000,TRUE,Pay Utility,254726928933 - JOSHUA NDUNDA NZIOKA,,KCJ
OHA8IAC9KO,10/08/2020 18:57,10/08/2020 18:57,Pay Bill from 254707315614 - TERESAH WANJIRU KIRAGU Acc. JDI,Completed,24000,,84000,TRUE,Pay Utility,254707315614 - TERESAH WANJIRU KIRAGU,,JDI
OHA2I82VGC,10/08/2020 18:16,10/08/2020 18:16,Pay Bill from 254716328009 - IRENE ODHIAMBO Acc. KGG,Completed,9000,,60000,TRUE,Pay Utility,254716328009 - IRENE ODHIAMBO,,KGG
OHA4HT00K8,10/08/2020 12:07,10/08/2020 12:07,Pay Bill Online from 254715121526 - ROBERT WAINAINA KARIUKI Acc. HAH,Completed,18000,,51000,TRUE,Pay Bill Online,254715121526 - ROBERT WAINAINA KARIUKI,,HAH
OHA2HSKDUO,10/08/2020 11:56,10/08/2020 11:56,Pay Bill from 254708851939 - VENANT MBOGHO Acc. KCH,Completed,10000,,33000,TRUE,Pay Utility with OD via STK,254708851939 - VENANT MBOGHO,,KCH
OHA3HRJO3N,10/08/2020 11:28,10/08/2020 11:28,Pay Bill from 254729371750 - DERRICK OTANGA Acc. FEF,Completed,17000,,23000,TRUE,Pay Utility,254729371750 - DERRICK OTANGA,,FEF
OHA5HQT1NJ,10/08/2020 11:08,10/08/2020 11:08,FSI to Pay Bill by 714888 - B2C LOOP VIA NCBA Acc. JAD via WEB by B2C LOOP VIA NCBA\Cbainitiator,Completed,6000,,6000,TRUE,FSI to Pay Bill via API,714888 - B2C LOOP VIA NCBA,,JAD
OHA6HPCYUI,10/08/2020 10:30,10/08/2020 10:30,Utility Account to Organization Settlement Account,Completed,,-1392900,0,TRUE,Utility Account to Organization Settlement Account,979524 - ANCIENT WELLS PROPERTY MANAGERS 2,,
OHA7HNLR3L,10/08/2020 09:40,10/08/2020 09:40,Pay Bill from 254722921132 - JOE MCCRAY MURIUKI KIHIA Acc. IFA ,Completed,15000,,1392900,TRUE,Pay Utility,254722921132 - JOE MCCRAY MURIUKI KIHIA,,IFA
OH99HFAUZ7,09/08/2020 20:45,09/08/2020 20:45,Pay Bill from 254720361605 - DAUD AMBER Acc. IGH,Completed,500,,1377900,TRUE,Pay Utility,254720361605 - DAUD AMBER,,IGH
OH98H66D2Y,09/08/2020 17:30,09/08/2020 17:30,Pay Bill from 0757259130 - RASHID SUDI MCHOMBO Acc. JAF,Completed,17000,,1377400,TRUE,Pay Utility,0757259130 - RASHID SUDI MCHOMBO,,JAF
OH90H5GJAI,09/08/2020 17:12,09/08/2020 17:12,Pay Bill from 254721115404 - Justine Fayuma Okwemba Acc. HAA,Completed,17000,,1360400,TRUE,Pay Utility,254721115404 - Justine Fayuma Okwemba,,HAA
OH97H4S0LR,09/08/2020 16:56,09/08/2020 16:56,Pay Bill from 254722249092 - MARIAM ABDULLAHI Acc. KEH,Completed,10000,,1343400,TRUE,Pay Utility,254722249092 - MARIAM ABDULLAHI,,KEH
OH83GKN5OZ,08/08/2020 23:05,08/08/2020 23:05,Pay Bill from 254703935626 - DAVID NGARI ITA Acc. FCD,Completed,1800,,1333400,TRUE,Pay Utility with OD via STK,254703935626 - DAVID NGARI ITA,,FCD
OH80GIO6OC,08/08/2020 21:24,08/08/2020 21:24,Pay Bill from 254714209770 - PURITY NDUKU KYALO Acc. JEB,Completed,15000,,1331600,TRUE,Pay Utility,254714209770 - PURITY NDUKU KYALO,,JEB
OH83GILA17,08/08/2020 21:22,08/08/2020 21:22,Pay Bill from 0757699775 - BENARD MUIA MUTUA Acc. HCB,Completed,16000,,1316600,TRUE,Pay Utility with OD via STK,0757699775 - BENARD MUIA MUTUA,,HCB
OH87GHXWY5,08/08/2020 21:03,08/08/2020 21:03,Pay Bill from 254720361605 - DAUD AMBER Acc. IGH,Completed,500,,1300600,TRUE,Pay Utility,254720361605 - DAUD AMBER,,IGH
OH89GE28F9,08/08/2020 19:40,08/08/2020 19:40,Pay Bill from 254728849248 - ISABELA KARIMI KIOGORA Acc. FAB,Completed,4000,,1300100,TRUE,Pay Utility,254728849248 - ISABELA KARIMI KIOGORA,,FAB
OH82G5W6P8,08/08/2020 17:12,08/08/2020 17:12,Pay Bill from 254715597659 - JOYCE KIVAI Acc. IED ,Completed,11000,,1296100,TRUE,Pay Utility,254715597659 - JOYCE KIVAI,,IED
OH87G3PCT7,08/08/2020 16:23,08/08/2020 16:23,Pay Bill from 254727648419 - ABDISALAN AHMED Acc. Jbh,Completed,17000,,1285100,TRUE,Pay Utility,254727648419 - ABDISALAN AHMED,,Jbh
OH84G3GNW4,08/08/2020 16:18,08/08/2020 16:18,Pay Bill Online from 254725385966 - JOSEPH MUYA MARUA Acc. KEE,Completed,8000,,1268100,TRUE,Pay Utility with OD Online,254725385966 - JOSEPH MUYA MARUA,,KEE
OH89G3AXD9,08/08/2020 16:14,08/08/2020 16:14,Pay Bill from 254722910078 - MAUREEN MUNYIVA MUTUKU Acc. DBD,Completed,14000,,1260100,TRUE,Pay Utility,254722910078 - MAUREEN MUNYIVA MUTUKU,,DBD
OH84FZS9M0,08/08/2020 14:48,08/08/2020 14:48,Pay Bill from 254708669783 - SYLVIA EVA OLENDO Acc. HCA,Completed,18000,,1246100,TRUE,Pay Utility,254708669783 - SYLVIA EVA OLENDO,,HCA
OH89FTFTMJ,08/08/2020 12:04,08/08/2020 12:04,Pay Bill from 254723499628 - CLINTON JOSEPH MUHARI Acc. hfh,Completed,16000,,1228100,TRUE,Pay Utility with OD via STK,254723499628 - CLINTON JOSEPH MUHARI,,hfh
OH88FMJ3VS,08/08/2020 08:51,08/08/2020 08:51,Pay Bill from 0790924905 - KEVIN   KIDAGISA Acc. IGC,Completed,9000,,1212100,TRUE,Pay Utility,0790924905 - KEVIN   KIDAGISA,,IGC
OH80FLQR42,08/08/2020 08:26,08/08/2020 08:26,Pay Bill from 254716863301 - PRISCILLAH WANJIRU Acc. ICD,Completed,11000,,1203100,TRUE,Pay Utility,254716863301 - PRISCILLAH WANJIRU,,ICD
OH71FIFRKV,07/08/2020 23:19,07/08/2020 23:19,Pay Bill from 254716369842 - HUMMAM HAMID MOHAMED SAID AMBER Acc. FGC,Completed,1000,,1192100,TRUE,Pay Utility,254716369842 - HUMMAM HAMID MOHAMED SAID AMBER,,FGC
OH79FIC7F7,07/08/2020 23:05,07/08/2020 23:05,Pay Bill from 254701047939 - Cyrus Wahome Acc. kbg,Completed,10000,,1191100,TRUE,Pay Utility,254701047939 - Cyrus Wahome,,kbg
OH74FHI4RS,07/08/2020 22:03,07/08/2020 22:03,Pay Bill from 254703935626 - DAVID NGARI ITA Acc. FCD,Completed,2000,,1181100,TRUE,Pay Utility with OD via STK,254703935626 - DAVID NGARI ITA,,FCD
OH73FER9KN,07/08/2020 20:34,07/08/2020 20:34,Pay Bill from 254720361605 - DAUD AMBER Acc. IGH,Completed,1000,,1179100,TRUE,Pay Utility,254720361605 - DAUD AMBER,,IGH
OH74FBKIIW,07/08/2020 19:29,07/08/2020 19:29,Pay Bill from 0715688238 - JOANNAH ATUHAIRE BANTU Acc. jae,Completed,9000,,1178100,TRUE,Pay Utility,0715688238 - JOANNAH ATUHAIRE BANTU,,jae
OH72F5GMUY,07/08/2020 17:41,07/08/2020 17:41,Pay Bill from 0759422988 - IVY   WITABA Acc. IEI,Completed,3500,,1169100,TRUE,Pay Utility,0759422988 - IVY   WITABA,,IEI
OH70F4JQ74,07/08/2020 17:23,07/08/2020 17:23,Pay Bill from 254710381003 - ALFRED KISHOIN Acc. IBC,Completed,10000,,1165600,TRUE,Pay Utility,254710381003 - ALFRED KISHOIN,,IBC
OH76F398LA,07/08/2020 16:56,07/08/2020 16:56,Pay Bill from 254729948896 - CAROLINE V MILIZA Acc. Fec,Completed,9000,,1155600,TRUE,Pay Utility,254729948896 - CAROLINE V MILIZA,,Fec
OH74EWH4XO,07/08/2020 14:18,07/08/2020 14:18,Pay Bill from 254722940643 - HERBERT MAVIAH ISWEKA Acc. HCG,Completed,28000,,1146600,TRUE,Pay Utility,254722940643 - HERBERT MAVIAH ISWEKA,,HCG
OH75EW3RNV,07/08/2020 14:09,07/08/2020 14:09,Pay Bill from 254729392595 - WINNIE NASICHE KERE Acc. JBF,Completed,8000,,1118600,TRUE,Pay Utility,254729392595 - WINNIE NASICHE KERE,,JBF
OH77EU6X5T,07/08/2020 13:21,07/08/2020 13:21,Pay Bill Online from 254706549634 - CLINTON OMBASA Acc. FDB,Completed,15000,,1110600,TRUE,Pay Bill Online,254706549634 - CLINTON OMBASA,,FDB
OH75ET71TP,07/08/2020 12:55,07/08/2020 12:55,Pay Bill from 254724655033 - SUSAN CHIMOTO Acc. KGH,Completed,9500,,1095600,TRUE,Pay Utility,254724655033 - SUSAN CHIMOTO,,KGH
OH71ERKHEJ,07/08/2020 12:12,07/08/2020 12:12,Pay Bill from 254721383378 - JAMES MBITHI KILAVI Acc. ICG,Completed,9500,,1086100,TRUE,Pay Utility,254721383378 - JAMES MBITHI KILAVI,,ICG
OH76EREVXW,07/08/2020 12:08,07/08/2020 12:08,Pay Bill from 254740579741 - MUHINDI MULINYA Acc. HGG,Completed,15000,,1076600,TRUE,Pay Utility,254740579741 - MUHINDI MULINYA,,HGG
OH71EPYQLV,07/08/2020 11:31,07/08/2020 11:31,Pay Bill from 0790273411 - MUHAMEDMALIK   GAAL Acc. FDF,Completed,16000,,1061600,TRUE,Pay Utility,0790273411 - MUHAMEDMALIK   GAAL,,FDF
OH70EPO4IU,07/08/2020 11:24,07/08/2020 11:24,Pay Bill from 254726827817 - ERWIN ADHOK Acc. kba,Completed,17000,,1045600,TRUE,Pay Utility,254726827817 - ERWIN ADHOK,,kba
OH71EMRD5P,07/08/2020 10:08,07/08/2020 10:08,Pay Bill Online from 254704033042 - LESLIE KOIKAI Acc. IBD,Completed,11000,,1028600,TRUE,Pay Bill Online,254704033042 - LESLIE KOIKAI,,IBD
OH75EK26NF,07/08/2020 08:50,07/08/2020 08:50,Pay Bill from 254720249209 - WILFRED NJUGUNA WANJIRI Acc. DDD,Completed,20000,,1017600,TRUE,Pay Utility,254720249209 - WILFRED NJUGUNA WANJIRI,,DDD
OH75EHTDA7,07/08/2020 07:26,07/08/2020 07:26,Pay Bill from 254718138578 - PAULINE KIOKO Acc. KFD,Completed,600,,997600,TRUE,Pay Utility,254718138578 - PAULINE KIOKO,,KFD
OH65EF7GKN,06/08/2020 23:08,06/08/2020 23:08,Pay Bill from 0700206427 - Clare Nabalisa Mukasa Acc. HFA,Completed,16000,,997000,TRUE,Pay Utility,0700206427 - Clare Nabalisa Mukasa,,HFA
OH66ECK3WU,06/08/2020 21:06,06/08/2020 21:06,Pay Bill from 254726001708 - MARTHA ATIENO ATIENO OSALO Acc. IBI,Completed,17000,,981000,TRUE,Pay Utility,254726001708 - MARTHA ATIENO ATIENO OSALO,,IBI
OH65EBZ6W7,06/08/2020 20:50,06/08/2020 20:50,Pay Bill from 254720361605 - DAUD AMBER Acc. IGH,Completed,1000,,964000,TRUE,Pay Utility,254720361605 - DAUD AMBER,,IGH
OH60EABUKK,06/08/2020 20:11,06/08/2020 20:11,Pay Bill from 254792946676 - ESTHER KAMAU Acc. hab,Completed,17000,,963000,TRUE,Pay Utility,254792946676 - ESTHER KAMAU,,hab
OH69E9ZUXX,06/08/2020 20:04,06/08/2020 20:04,Pay Bill from 254714710698 - TABITHA MULEE KYALO Acc. IFD,Completed,6000,,946000,TRUE,Pay Utility,254714710698 - TABITHA MULEE KYALO,,IFD
OH61E6RZJ5,06/08/2020 19:09,06/08/2020 19:09,Pay Bill from 254720583235 - JOHN ODIMA Acc. KGF,Completed,10000,,940000,TRUE,Pay Utility,254720583235 - JOHN ODIMA,,KGF
OH69DXK66L,06/08/2020 16:01,06/08/2020 16:01,Pay Bill from 254719488576 - GEORGE ONYANGO Acc. DAA,Completed,17000,,930000,TRUE,Pay Utility,254719488576 - GEORGE ONYANGO,,DAA
OH66DWQAL4,06/08/2020 15:40,06/08/2020 15:40,Pay Bill from 254700627058 - SUSY NABALAYO CHELONGO Acc. dbb,Completed,16000,,913000,TRUE,Pay Utility,254700627058 - SUSY NABALAYO CHELONGO,,dbb
OH64DVYUBK,06/08/2020 15:21,06/08/2020 15:21,Pay Bill from 254713115724 - ROTICH JUDITH JUDITH CHERONO Acc. KCK,Completed,17000,,897000,TRUE,Pay Utility,254713115724 - ROTICH JUDITH JUDITH CHERONO,,KCK
OH66DSL860,06/08/2020 13:53,06/08/2020 13:53,Pay Bill from 254798111377 - FLORENTINA KIENI Acc. IAI,Completed,17000,,880000,TRUE,Pay Utility,254798111377 - FLORENTINA KIENI,,IAI
OH65DR3TUX,06/08/2020 13:15,06/08/2020 13:15,Pay Bill from 254701196539 - GICHURI KARANJA Acc. Fee,Completed,16000,,863000,TRUE,Pay Utility,254701196539 - GICHURI KARANJA,,Fee
OH66DQKEXK,06/08/2020 13:00,06/08/2020 13:00,Pay Bill from 254725754547 - MWACHIRO GEORGE DECHE Acc. DFC,Completed,23000,,847000,TRUE,Pay Utility,254725754547 - MWACHIRO GEORGE DECHE,,DFC
OH69DKZXNP,06/08/2020 10:35,06/08/2020 10:35,Pay Bill from 254708619274 - BONIFACE MUTUA Acc. IFF,Completed,10000,,824000,TRUE,Pay Utility,254708619274 - BONIFACE MUTUA,,IFF
OH67DGTC5R,06/08/2020 08:33,06/08/2020 08:33,Pay Bill from 254703555717 - SENGA SALIM Acc. hbb,Completed,3000,,814000,TRUE,Pay Utility,254703555717 - SENGA SALIM,,hbb
OH62DGE1QC,06/08/2020 08:19,06/08/2020 08:19,Pay Bill from 254726676041 - TOBIAS ORINA Acc. KAD,Completed,12000,,811000,TRUE,Pay Utility,254726676041 - TOBIAS ORINA,,KAD
OH61DCY8F9,06/08/2020 00:59,06/08/2020 00:59,Pay Bill from 254721302658 - JACOB BIRUNDU Acc. DDB,Completed,16000,,799000,TRUE,Pay Utility,254721302658 - JACOB BIRUNDU,,DDB
OH53DBTHPD,05/08/2020 22:30,05/08/2020 22:30,Pay Bill from 254718233980 - KAREN ASWANI Acc. HEC,Completed,10500,,783000,TRUE,Pay Utility,254718233980 - KAREN ASWANI,,HEC
OH55DBPBRD,05/08/2020 22:23,05/08/2020 22:23,Pay Bill Online from 254720044312 - ELIUD KIPKURUI Acc. FCF,Completed,17000,,772500,TRUE,Pay Bill Online,254720044312 - ELIUD KIPKURUI,,FCF
OH59DBMN9B,05/08/2020 22:18,05/08/2020 22:18,Pay Bill from 254726593769 - BONFACE BWINA Acc. DEB,Completed,16000,,755500,TRUE,Pay Utility,254726593769 - BONFACE BWINA,,DEB
OH58D9JFC0,05/08/2020 21:05,05/08/2020 21:05,Pay Bill from 254722874715 - PATRCIAH mbesa KIOKO Acc. KBB,Completed,16000,,739500,TRUE,Pay Utility,254722874715 - PATRCIAH mbesa KIOKO,,KBB
OH57D8JJMV,05/08/2020 20:41,05/08/2020 20:41,Pay Bill from 254700347490 - PERIS NYAGUTHII MAINA Acc. JBB,Completed,15000,,723500,TRUE,Pay Utility,254700347490 - PERIS NYAGUTHII MAINA,,JBB
OH53D764ZD,05/08/2020 20:12,05/08/2020 20:12,Pay Bill from 254792187144 - HASSAN AHMED HASSAN Acc. KGI,Completed,10000,,708500,TRUE,Pay Utility,254792187144 - HASSAN AHMED HASSAN,,KGI
OH56D6JO6I,05/08/2020 20:00,05/08/2020 20:00,Pay Bill from 254790280339 - BANTURA GIBSON Acc. IBA,Completed,11000,,698500,TRUE,Pay Utility,254790280339 - BANTURA GIBSON,,IBA
OH59D694BV,05/08/2020 19:55,05/08/2020 19:55,Pay Bill from 254728476791 - CAROLE ACHIENG Acc. KCF,Completed,10000,,687500,TRUE,Pay Utility,254728476791 - CAROLE ACHIENG,,KCF
OH50D5O7MO,05/08/2020 19:45,05/08/2020 19:45,Pay Bill from 254713966424 - NDUTI MUTHUI Acc. JED,Completed,15000,,677500,TRUE,Pay Utility,254713966424 - NDUTI MUTHUI,,JED
OH54D5L3RK,05/08/2020 19:43,05/08/2020 19:43,Pay Bill from 254717554562 - OMONDI JACK Acc. KCI,Completed,12500,,662500,TRUE,Pay Utility,254717554562 - OMONDI JACK,,KCI
OH58D3EKMQ,05/08/2020 19:08,05/08/2020 19:08,Pay Bill from 254723026840 - HARRISON MAINA Acc. KAI,Completed,12500,,650000,TRUE,Pay Utility,254723026840 - HARRISON MAINA,,KAI
OH50D3C5GG,05/08/2020 19:07,05/08/2020 19:07,Pay Bill from 254708211882 - DORCAS TIBAKANYA Acc. KDG,Completed,11000,,637500,TRUE,Pay Utility,254708211882 - DORCAS TIBAKANYA,,KDG
OH52D2DQKS,05/08/2020 18:52,05/08/2020 18:52,FSI to Pay Bill by 714888 - B2C LOOP VIA NCBA Acc. JAD via WEB by B2C LOOP VIA NCBA\Cbainitiator,Completed,10000,,626500,TRUE,FSI to Pay Bill via API,714888 - B2C LOOP VIA NCBA,,JAD
OH58D17PLQ,05/08/2020 18:31,05/08/2020 18:31,Pay Bill from 254721911181 - UBAH ALINOOR Acc. HDG ,Completed,16000,,616500,TRUE,Pay Utility,254721911181 - UBAH ALINOOR,,HDG
OH59CZC63V,05/08/2020 17:55,05/08/2020 17:55,Pay Bill Online from 254726313835 - SYLVIA JUMA Acc. hdf,Completed,9500,,600500,TRUE,Pay Bill Online,254726313835 - SYLVIA JUMA,,hdf
OH50CXN4XA,05/08/2020 17:21,05/08/2020 17:21,Pay Bill from 254708328466 - VENESSA NYARERU Acc. KCD,Completed,12000,,591000,TRUE,Pay Utility with OD via STK,254708328466 - VENESSA NYARERU,,KCD
OH54CX9GS6,05/08/2020 17:13,05/08/2020 17:13,Pay Bill Online from 254715892656 - DENNIS MUSYOKA MUOKI Acc. KFA,Completed,6000,,579000,TRUE,Pay Bill Online,254715892656 - DENNIS MUSYOKA MUOKI,,KFA
OH51CWXN5V,05/08/2020 17:06,05/08/2020 17:06,Pay Bill from 254707237792 - BRENDA WACHIRA Acc. jbc,Completed,1500,,573000,TRUE,Pay Utility with OD via STK,254707237792 - BRENDA WACHIRA,,jbc
OH52CWPNTG,05/08/2020 17:01,05/08/2020 17:01,FSI to Pay Bill by 714888 - B2C LOOP VIA NCBA Acc. jbc via WEB by B2C LOOP VIA NCBA\Cbainitiator,Completed,10500,,571500,TRUE,FSI to Pay Bill via API,714888 - B2C LOOP VIA NCBA,,jbc
OH51CWFTFN,05/08/2020 16:55,05/08/2020 16:55,Pay Bill from 254798524621 - MERCY CHESANG Acc. jcj,Completed,16000,,561000,TRUE,Pay Utility,254798524621 - MERCY CHESANG,,jcj
OH52CVG0FS,05/08/2020 16:32,05/08/2020 16:32,Pay Bill from 254728238249 - ESTHER WANGUI KIBUNYI Acc. ICA,Completed,17000,,545000,TRUE,Pay Utility,254728238249 - ESTHER WANGUI KIBUNYI,,ICA
OH54CVBHS0,05/08/2020 16:29,05/08/2020 16:29,Pay Bill from 254722705077 - ROSALID WAMBUI NJOROGE Acc. FDD,Completed,12000,,528000,TRUE,Pay Utility,254722705077 - ROSALID WAMBUI NJOROGE,,FDD
OH54CUWE24,05/08/2020 16:19,05/08/2020 16:19,Pay Bill from 254719398942 - NORAH WAYUA MUNYAO Acc. KDC,Completed,10000,,516000,TRUE,Pay Utility,254719398942 - NORAH WAYUA MUNYAO,,KDC
OH51CO5DGL,05/08/2020 13:26,05/08/2020 13:26,Pay Bill from 254725074792 - CAROLINE KURI Acc. KCA,Completed,17000,,506000,TRUE,Pay Utility with OD via STK,254725074792 - CAROLINE KURI,,KCA
OH59CNO5L9,05/08/2020 13:13,05/08/2020 13:13,Pay Bill from 254725771056 - CHARLES MURAGURI Acc. FCC,Completed,9000,,489000,TRUE,Pay Utility,254725771056 - CHARLES MURAGURI,,FCC
OH54CLO0QG,05/08/2020 12:20,05/08/2020 12:20,Pay Bill from 254720361605 - DAUD AMBER Acc. IGH,Completed,10000,,480000,TRUE,Pay Utility,254720361605 - DAUD AMBER,,IGH
OH58CH6RW4,05/08/2020 10:21,05/08/2020 10:21,Pay Bill from 254713159153 - GUYO SANKALA Acc. DGD,Completed,20000,,470000,TRUE,Pay Utility,254713159153 - GUYO SANKALA,,DGD
OH51CGUZ4T,05/08/2020 10:12,05/08/2020 10:12,Pay Bill from 254724109599 - THOMAS EDWIN MUSUNGU Acc. IAD,Completed,9500,,450000,TRUE,Pay Utility with OD via STK,254724109599 - THOMAS EDWIN MUSUNGU,,IAD
OH53CFKWVX,05/08/2020 09:36,05/08/2020 09:36,Pay Bill from 254722940643 - HERBERT MAVIAH ISWEKA Acc. HCG,Completed,10000,,440500,TRUE,Pay Utility,254722940643 - HERBERT MAVIAH ISWEKA,,HCG
OH56CE0BAE,05/08/2020 08:47,05/08/2020 08:47,Pay Bill from 254703935626 - DAVID NGARI ITA Acc. FCD,Completed,1000,,430500,TRUE,Pay Utility with OD via STK,254703935626 - DAVID NGARI ITA,,FCD
OH50CDY2T0,05/08/2020 08:45,05/08/2020 08:45,Pay Bill from 254723929380 - RHODAH K WAMBUA Acc. HEF,Completed,9500,,429500,TRUE,Pay Utility,254723929380 - RHODAH K WAMBUA,,HEF
OH52CDQBQY,05/08/2020 08:38,05/08/2020 08:38,Pay Bill from 254729508187 - PATRICK SOLOMON GUDA Acc. IGF,Completed,13000,,420000,TRUE,Pay Utility,254729508187 - PATRICK SOLOMON GUDA,,IGF
OH49C9COCF,04/08/2020 23:29,04/08/2020 23:29,Pay Bill from 254721315975 - JOSEPH NDEGWA Acc. HEB,Completed,16000,,407000,TRUE,Pay Utility,254721315975 - JOSEPH NDEGWA,,HEB
OH42C7EP2C,04/08/2020 21:27,04/08/2020 21:27,Pay Bill Online from 0743369961 - SALOME WANGARI KIBUGI Acc. KGD,Completed,10000,,391000,TRUE,Pay Bill Online,0743369961 - SALOME WANGARI KIBUGI,,KGD
OH45C5LX0T,04/08/2020 20:35,04/08/2020 20:35,Pay Bill from 254729713741 - ALBANUS MUTISO Acc. J B D,Completed,15000,,381000,TRUE,Pay Utility,254729713741 - ALBANUS MUTISO,,J
OH48C4LEUW,04/08/2020 20:12,04/08/2020 20:12,Pay Bill Online from 254711724272 - EDMOND ONYANGO OKEWE Acc. FCE,Completed,30000,,366000,TRUE,Pay Bill Online,254711724272 - EDMOND ONYANGO OKEWE,,FCE
OH41C3SF3P,04/08/2020 19:55,04/08/2020 19:55,Pay Bill Online from 254724777705 - COLLINS AKASA Acc. KEG,Completed,6000,,336000,TRUE,Pay Bill Online,254724777705 - COLLINS AKASA,,KEG
OH45C3C8JL,04/08/2020 19:47,04/08/2020 19:47,Pay Bill Online from 254718299426 - AMOS NGURE MWANGI Acc. HEE,Completed,10500,,330000,TRUE,Pay Bill Online,254718299426 - AMOS NGURE MWANGI,,HEE
OH43C38LSB,04/08/2020 19:45,04/08/2020 19:45,Pay Bill from 254725094113 - BRAXTON LUMWAJI Acc. DDC,Completed,20000,,319500,TRUE,Pay Utility,254725094113 - BRAXTON LUMWAJI,,DDC
OH43C0SW3X,04/08/2020 19:04,04/08/2020 19:04,Pay Bill from 254723605941 - JOHN KARIHA Acc. KDD,Completed,5000,,299500,TRUE,Pay Utility,254723605941 - JOHN KARIHA,,KDD
OH48BZKTJ4,04/08/2020 18:42,04/08/2020 18:42,Pay Bill from 0769001671 - Wilson Mutangili Wambua Acc. haf,Completed,9500,,294500,TRUE,Pay Utility,0769001671 - Wilson Mutangili Wambua,,haf
OH43BWJ3ZN,04/08/2020 17:43,04/08/2020 17:43,Pay Bill from 254702764047 - FERDINAND K Acc. KDB,Completed,16000,,285000,TRUE,Pay Utility,254702764047 - FERDINAND K,,KDB
OH42BWDWDG,04/08/2020 17:40,04/08/2020 17:40,Pay Bill Online from 254716499837 - ASHA MUSA Acc. JFD,Completed,15000,,269000,TRUE,Pay Bill Online,254716499837 - ASHA MUSA,,JFD
OH48BWBLG2,04/08/2020 17:39,04/08/2020 17:39,Pay Bill from 254714114228 - MWANGO AWINO VIOLET Acc. DCB,Completed,16000,,254000,TRUE,Pay Utility,254714114228 - MWANGO AWINO VIOLET,,DCB
OH48BRZZBY,04/08/2020 15:59,04/08/2020 15:59,Pay Bill from 254704833344 - LOISE KIMANI Acc. jfa,Completed,23000,,238000,TRUE,Pay Utility,254704833344 - LOISE KIMANI,,jfa
OH41BR1WXR,04/08/2020 15:34,04/08/2020 15:34,Pay Bill from 254717672307 - LIZZY AWUOR OBONYO Acc. HAE,Completed,11000,,215000,TRUE,Pay Utility,254717672307 - LIZZY AWUOR OBONYO,,HAE
OH44BPEMS4,04/08/2020 14:50,04/08/2020 14:50,Pay Bill from 254714156268 - MARY NJOKI KANYIRI Acc. IFC,Completed,9500,,204000,TRUE,Pay Utility,254714156268 - MARY NJOKI KANYIRI,,IFC
OH46BP71UM,04/08/2020 14:45,04/08/2020 14:45,Pay Bill from 254700829103 - ABADIR KEDIR Acc. HBH,Completed,18000,,194500,TRUE,Pay Utility,254700829103 - ABADIR KEDIR,,HBH
OH44BP50R6,04/08/2020 14:43,04/08/2020 14:43,Pay Bill from 254718292893 - HERINE ELSEBA ATIENO Acc. IFI,Completed,7000,,176500,TRUE,Pay Utility,254718292893 - HERINE ELSEBA ATIENO,,IFI
OH48BO5U9Y,04/08/2020 14:17,04/08/2020 14:17,Pay Bill from 0748212685 - timothy odhiambo owiti Acc. JDE,Completed,10000,,169500,TRUE,Pay Utility with OD via STK,0748212685 - timothy odhiambo owiti,,JDE
OH42BHET6K,04/08/2020 11:13,04/08/2020 11:13,FSI to Pay Bill by 714888 - B2C LOOP VIA NCBA Acc. FAD via WEB by B2C LOOP VIA NCBA\Cbainitiator,Completed,11000,,159500,TRUE,FSI to Pay Bill via API,714888 - B2C LOOP VIA NCBA,,FAD
OH40BGDC1C,04/08/2020 10:44,04/08/2020 10:44,Pay Bill from 254720868281 - KENNEDY MWELU Acc. KBI,Completed,12500,,148500,TRUE,Pay Utility,254720868281 - KENNEDY MWELU,,KBI
OH43BG7KMH,04/08/2020 10:40,04/08/2020 10:40,Pay Bill Online from 254705846408 - JAMES OUMA Acc. HBG,Completed,16000,,136000,TRUE,Pay Bill Online,254705846408 - JAMES OUMA,,HBG
OH40BFZPPY,04/08/2020 10:33,04/08/2020 10:33,Pay Bill from 254724882554 - ALPHONCE WAMBUA NGELI Acc. JDA,Completed,20000,,120000,TRUE,Pay Utility,254724882554 - ALPHONCE WAMBUA NGELI,,JDA
OH45BFLSY1,04/08/2020 10:23,04/08/2020 10:23,Pay Bill from 254708703539 - SUSAN NDUGIRE NDUGIRE Acc. Kda,Completed,17000,,100000,TRUE,Pay Utility with OD via STK,254708703539 - SUSAN NDUGIRE NDUGIRE,,Kda
OH45BD4PRF,04/08/2020 09:08,04/08/2020 09:08,Pay Bill from 0717216114 - Felix Njeru Mugambi Acc. KDF,Completed,10000,,83000,TRUE,Pay Utility,0717216114 - Felix Njeru Mugambi,,KDF
OH39B8SMQJ,03/08/2020 23:05,03/08/2020 23:05,Pay Bill from 254706176550 - CELINE ADOYO WERE Acc. KAC,Completed,10000,,73000,TRUE,Pay Utility,254706176550 - CELINE ADOYO WERE,,KAC
OH39B7U82B,03/08/2020 21:52,03/08/2020 21:52,Pay Bill Online from 254715892656 - DENNIS MUSYOKA MUOKI Acc. KFA,Completed,10000,,63000,TRUE,Pay Bill Online,254715892656 - DENNIS MUSYOKA MUOKI,,KFA
OH32B6PVS6,03/08/2020 21:08,03/08/2020 21:08,Pay Bill from 254721465713 - RHODA WAMBUI MWANGI Acc. jfh,Completed,17000,,53000,TRUE,Pay Utility,254721465713 - RHODA WAMBUI MWANGI,,jfh
OH30B5TME4,03/08/2020 20:43,03/08/2020 20:43,Pay Bill from 0792933158 - mary wamaitha maina Acc. kdh,Completed,10000,,36000,TRUE,Pay Utility,0792933158 - mary wamaitha maina,,kdh
OH34B5JKRC,03/08/2020 20:36,03/08/2020 20:36,Pay Bill from 254719285750 - LILIAN ACHIENG ODONGO Acc. IGE,Completed,9000,,26000,TRUE,Pay Utility,254719285750 - LILIAN ACHIENG ODONGO,,IGE
OH38B1QEDI,03/08/2020 19:19,03/08/2020 19:19,Pay Bill from 0758826849 -  Norah Awala Anyango Acc. idh,Completed,17000,,17000,TRUE,Pay Utility,0758826849 -  Norah Awala Anyango,,idh
OH39B1J31J,03/08/2020 19:15,03/08/2020 19:15,Utility Account to Organization Settlement Account,Completed,,-639900,0,TRUE,Utility Account to Organization Settlement Account,979524 - ANCIENT WELLS PROPERTY MANAGERS 2,,
OH38B02RRQ,03/08/2020 18:50,03/08/2020 18:50,Pay Bill from 254708786932 - ZUBEDAH MOHAMMED Acc. IAG,Completed,9500,,639900,TRUE,Pay Utility,254708786932 - ZUBEDAH MOHAMMED,,IAG
OH38AQATI0,03/08/2020 15:12,03/08/2020 15:12,Pay Bill Online from 254717809935 - LYDIAH WERU Acc. IDC,Completed,9500,,630400,TRUE,Pay Bill Online,254717809935 - LYDIAH WERU,,IDC
OH36AMT3RU,03/08/2020 13:38,03/08/2020 13:38,Pay Bill from 254723872785 - MARY ANN NJERI NDUNG'U Acc. hed,Completed,9500,,620900,TRUE,Pay Utility,254723872785 - MARY ANN NJERI NDUNG'U,,hed
OH32AMONE4,03/08/2020 13:35,03/08/2020 13:35,Pay Bill from 254728704378 - ELIZABETH KAMENE MUSYIMI Acc. jgj,Completed,16000,,611400,TRUE,Pay Utility,254728704378 - ELIZABETH KAMENE MUSYIMI,,jgj
OH33AKSVZJ,03/08/2020 12:44,03/08/2020 12:44,Pay Bill from 254707669965 - ELVIS MOENGA OKERO Acc. IAE,Completed,9000,,595400,TRUE,Pay Utility,254707669965 - ELVIS MOENGA OKERO,,IAE
OH31AGBPPT,03/08/2020 10:41,03/08/2020 10:41,Pay Bill Online from 254724754662 - CHARLES ERUKUDI EKAI Acc. FBE,Completed,16000,,586400,TRUE,Pay Bill Online,254724754662 - CHARLES ERUKUDI EKAI,,FBE
OH32ACMQDE,03/08/2020 08:49,03/08/2020 08:49,Pay Bill from 254714710698 - TABITHA MULEE KYALO Acc. IFD,Completed,8000,,570400,TRUE,Pay Utility,254714710698 - TABITHA MULEE KYALO,,IFD
OH36ACB7KG,03/08/2020 08:38,03/08/2020 08:38,Pay Bill from 254714552193 - CHRISTOPHER OCHIENG Acc. JGI,Completed,20000,,562400,TRUE,Pay Utility,254714552193 - CHRISTOPHER OCHIENG,,JGI
OH34AAOE4C,03/08/2020 07:30,03/08/2020 07:30,Pay Bill from 254721268633 - JOSEPH OLENDI Acc. hbe,Completed,10000,,542400,TRUE,Pay Utility,254721268633 - JOSEPH OLENDI,,hbe
OH36AA475K,03/08/2020 06:50,03/08/2020 06:50,Pay Bill from 254720361605 - DAUD AMBER Acc. IGH,Completed,1000,,532400,TRUE,Pay Utility,254720361605 - DAUD AMBER,,IGH
OH35A9ZS8Z,03/08/2020 06:36,03/08/2020 06:36,Pay Bill from 254798605303 - SAMUEL ADIYO OGODO Acc. KAE,Completed,10000,,531400,TRUE,Pay Utility,254798605303 - SAMUEL ADIYO OGODO,,KAE
OH37A9TGOT,03/08/2020 06:07,03/08/2020 06:07,Pay Bill from 254724953672 - MERCY MBETI Acc. JCA,Completed,20000,,521400,TRUE,Pay Utility,254724953672 - MERCY MBETI,,JCA
OH25A7LFED,02/08/2020 21:31,02/08/2020 21:31,Pay Bill from 254703935626 - DAVID NGARI ITA Acc. FCD,Completed,4500,,501400,TRUE,Pay Utility with OD via STK,254703935626 - DAVID NGARI ITA,,FCD
OH28A6YJ8G,02/08/2020 21:07,02/08/2020 21:07,Pay Bill from 254729796719 - JACINTA WANJIKU NJERI Acc. FFF,Completed,17000,,496900,TRUE,Pay Utility,254729796719 - JACINTA WANJIKU NJERI,,FFF
OH24A5UPOK,02/08/2020 20:33,02/08/2020 20:33,Pay Bill from 254722444622 - CHARITY KAGWAINI Acc. FFD,Completed,11000,,479900,TRUE,Pay Utility,254722444622 - CHARITY KAGWAINI,,FFD
OH26A3YDMO,02/08/2020 19:48,02/08/2020 19:48,Pay Bill from 254716369842 - HUMMAM HAMID MOHAMED SAID AMBER Acc. FGC,Completed,1000,,468900,TRUE,Pay Utility,254716369842 - HUMMAM HAMID MOHAMED SAID AMBER,,FGC
OH24A36P14,02/08/2020 19:32,02/08/2020 19:32,Pay Bill from 254702355678 - JOHN NJOROGE GICHERU Acc. ITE,Completed,10000,,467900,TRUE,Pay Utility,254702355678 - JOHN NJOROGE GICHERU,,ITE
OH27A2M39L,02/08/2020 19:21,02/08/2020 19:21,Pay Bill from 254724364316 - LINET MWENDIA Acc. KEJ,Completed,16000,,457900,TRUE,Pay Utility,254724364316 - LINET MWENDIA,,KEJ
OH22A1L5BY,02/08/2020 19:01,02/08/2020 19:01,Pay Bill from 254703555717 - SENGA SALIM Acc. hbb,Completed,7000,,441900,TRUE,Pay Utility,254703555717 - SENGA SALIM,,hbb
OH239RY6DJ,02/08/2020 14:59,02/08/2020 14:59,Pay Bill from 254722965785 - HENRY THOMAS ONDERI Acc. JCB,Completed,30000,,434900,TRUE,Pay Utility,254722965785 - HENRY THOMAS ONDERI,,JCB
OH299QZ8WJ,02/08/2020 14:31,02/08/2020 14:31,Pay Bill from 254701688732 - Brenda Mwongeli Mawili Acc. jag,Completed,6000,,404900,TRUE,Pay Utility with OD via STK,254701688732 - Brenda Mwongeli Mawili,,jag
OH229P9068,02/08/2020 13:41,02/08/2020 13:41,Pay Bill from 254722136450 - MARY EVERLYN Acc. FAF,Completed,17000,,398900,TRUE,Pay Utility,254722136450 - MARY EVERLYN,,FAF
OH299NARNH,02/08/2020 12:41,02/08/2020 12:41,Pay Bill from 254710635630 - DONNA JESSICA OWANO Acc. KCC,Completed,10000,,381900,TRUE,Pay Utility,254710635630 - DONNA JESSICA OWANO,,KCC
OH299MW9YN,02/08/2020 12:29,02/08/2020 12:29,Pay Bill from 254724611087 - Francis Mukindya Muoki Acc. KDE,Completed,4500,,371900,TRUE,Pay Utility with OD via STK,254724611087 - Francis Mukindya Muoki,,KDE
OH229M4XSQ,02/08/2020 12:05,02/08/2020 12:05,Pay Bill from 254714855708 - KIPLANGAT SITIENEI Acc. FAE,Completed,16000,,367400,TRUE,Pay Utility,254714855708 - KIPLANGAT SITIENEI,,FAE
OH259KZMLD,02/08/2020 11:29,02/08/2020 11:29,Pay Bill from 254728788938 - MOHAMED ISSAK ADAN Acc. jaa,Completed,42000,,351400,TRUE,Pay Utility,254728788938 - MOHAMED ISSAK ADAN,,jaa
OH249JYTUS,02/08/2020 10:55,02/08/2020 10:55,Pay Bill from 254791910715 - BOAZ OMAE MORARO Acc. ICC,Completed,9500,,309400,TRUE,Pay Utility,254791910715 - BOAZ OMAE MORARO,,ICC
OH289DUVDW,02/08/2020 05:49,02/08/2020 05:49,Pay Bill from 254720361605 - DAUD AMBER Acc. IGH,Completed,1000,,299900,TRUE,Pay Utility,254720361605 - DAUD AMBER,,IGH
OH269DTVO0,02/08/2020 05:34,02/08/2020 05:34,Pay Bill from 254716784364 - Wendy Kemunto Nyandiko Acc. FFC,Completed,9000,,298900,TRUE,Pay Utility,254716784364 - Wendy Kemunto Nyandiko,,FFC
OH159C2S27,01/08/2020 22:05,01/08/2020 22:05,Pay Bill from 254715949223 - JAMES ONYANGO Acc. KAG,Completed,10000,,289900,TRUE,Pay Utility,254715949223 - JAMES ONYANGO,,KAG
OH199AM4EF,01/08/2020 21:06,01/08/2020 21:06,Pay Bill from 254700829103 - ABADIR KEDIR Acc. HBH,Completed,18000,,279900,TRUE,Pay Utility,254700829103 - ABADIR KEDIR,,HBH
OH1199J3E7,01/08/2020 20:34,01/08/2020 20:34,Pay Bill from 254703624678 - Zacharia Gesora Omwoyo Acc. Igd,Completed,12900,,261900,TRUE,Pay Utility with OD via STK,254703624678 - Zacharia Gesora Omwoyo,,Igd
OH1498HZ8M,01/08/2020 20:10,01/08/2020 20:10,Pay Bill from 254717726012 - WINFRED MUENI PETER Acc. IDD,Completed,12000,,249000,TRUE,Pay Utility,254717726012 - WINFRED MUENI PETER,,IDD
OH1891RP1K,01/08/2020 18:11,01/08/2020 18:11,Pay Bill from 254717171860 - ANDREW LENNA GACHERI Acc. JCC,Completed,10000,,237000,TRUE,Pay Utility,254717171860 - ANDREW LENNA GACHERI,,JCC
OH198X8ZDR,01/08/2020 16:35,01/08/2020 16:35,Pay Bill from 0748059595 - Rashid NASSIR Khamis Acc. DDA,Completed,5000,,227000,TRUE,Pay Utility,0748059595 - Rashid NASSIR Khamis,,DDA
OH158TITGP,01/08/2020 15:03,01/08/2020 15:03,Pay Bill from 254711397174 - JASEL HOPE ANTONINA Acc. kef,Completed,5500,,222000,TRUE,Pay Utility,254711397174 - JASEL HOPE ANTONINA,,kef
OH158SHF93,01/08/2020 14:36,01/08/2020 14:36,Pay Bill Online from 254795510441 - LEWIS MUEMA Acc. KEB,Completed,16000,,216500,TRUE,Pay Bill Online,254795510441 - LEWIS MUEMA,,KEB
OH198S1IIB,01/08/2020 14:24,01/08/2020 14:24,Pay Bill Online from 254725248080 - DENNIS KIPROTICH Acc. IBE,Completed,12000,,200500,TRUE,Pay Bill Online,254725248080 - DENNIS KIPROTICH,,IBE
OH158RFCKX,01/08/2020 14:08,01/08/2020 14:08,Pay Bill from 254727575146 - SUSAN NJERI KIBE Acc. KEC,Completed,10000,,188500,TRUE,Pay Utility,254727575146 - SUSAN NJERI KIBE,,KEC
OH178QBUPR,01/08/2020 13:40,01/08/2020 13:40,Pay Bill from 254712954563 - JOSEPH MUTISO KILONZO Acc. dac,Completed,20000,,178500,TRUE,Pay Utility,254712954563 - JOSEPH MUTISO KILONZO,,dac
OH128PP6BC,01/08/2020 13:23,01/08/2020 13:23,Pay Bill from 254722569870 - LUKA KEITANY Acc. jfj,Completed,15000,,158500,TRUE,Pay Utility,254722569870 - LUKA KEITANY,,jfj
OH178OS435,01/08/2020 12:58,01/08/2020 12:58,Pay Bill from 0759422988 - IVY   WITABA Acc. IEI,Completed,24000,,143500,TRUE,Pay Utility,0759422988 - IVY   WITABA,,IEI
OH158N7Y0X,01/08/2020 12:17,01/08/2020 12:17,Pay Bill from 254791315477 - VERAH MIRERI Acc. JEC,Completed,4000,,119500,TRUE,Pay Utility,254791315477 - VERAH MIRERI,,JEC
OH138LZ9U5,01/08/2020 11:44,01/08/2020 11:44,Pay Bill from 254719626804 - PAUL NJOROGE Acc. JFI,Completed,20000,,115500,TRUE,Pay Utility,254719626804 - PAUL NJOROGE,,JFI
OH148LHEC2,01/08/2020 11:30,01/08/2020 11:30,Pay Bill from 0729704534 - HABIBA MOHAMED SIGALA Acc. ifg,Completed,17500,,95500,TRUE,Pay Utility,0729704534 - HABIBA MOHAMED SIGALA,,ifg
OH148JC410,01/08/2020 10:31,01/08/2020 10:31,Pay Bill from 254711271263 - BENSON MWADIME JOSEPH Acc. 1EE,Completed,9000,,78000,TRUE,Pay Utility,254711271263 - BENSON MWADIME JOSEPH,,1EE
OH168GCLYU,01/08/2020 09:01,01/08/2020 09:01,Pay Bill from 254723772794 - EMELDA OBONG' Acc. HDE,Completed,10500,,69000,TRUE,Pay Utility,254723772794 - EMELDA OBONG',,HDE
OH108FP6QK,01/08/2020 08:39,01/08/2020 08:39,Pay Bill from 254723071630 - KENNEDY KARANJA NJOROGE Acc. JBI,Completed,20000,,58500,TRUE,Pay Utility,254723071630 - KENNEDY KARANJA NJOROGE,,JBI
OH118CVV3B,01/08/2020 05:04,01/08/2020 05:04,Pay Bill Online from 254715764212 - BANCE ISHEMINYE Acc. JFE ,Completed,5000,,38500,TRUE,Pay Bill Online,254715764212 - BANCE ISHEMINYE,,JFE
