Receipt No.,Completion Time,Initiation Time,Details,Transaction Status,Paid In,Withdrawn,Balance,Balance Confirmed,Reason Type,Other Party Info,Linked Transaction ID,A/C No.
QJ306R8RNY,03/10/2022 19:35,03/10/2022 19:35,Pay Bill Online from 254719134037 - KELVIN KITOO Acc. FAA,Completed,1000,,42650,TRUE,Pay Utility with OD Online,254719134037 - KELVIN KITOO,,FAA
QJ376P7H3J,03/10/2022 19:19,03/10/2022 19:19,Pay Bill from 254720550403 - GRACE WANGONDU Acc. jfi,Completed,2000,,41650,TRUE,Pay Utility,254720550403 - GRACE WANGONDU,,jfi
QJ336KJU5N,03/10/2022 18:44,03/10/2022 18:44,Pay Bill from 254726337163 - HALIMA ALI HASSAN Acc. DDA,Completed,500,,39650,TRUE,Pay Utility,254726337163 - HALIMA ALI HASSAN,,DDA
QJ3668Z0ZM,03/10/2022 16:57,03/10/2022 16:57,Pay Bill from 0711769778 - PROTASIA BONIPHACE MANOSA Acc. IBB,Completed,1600,,39150,TRUE,Pay Utility,0711769778 - PROTASIA BONIPHACE MANOSA,,IBB
QJ35648YJT,03/10/2022 16:03,03/10/2022 16:03,Pay Bill from 254722136450 - MARY EVERLYN Acc. JAI ,Completed,400,,37550,TRUE,Pay Utility,254722136450 - MARY EVERLYN,,JAI
QJ356279Q5,03/10/2022 15:38,03/10/2022 15:38,Pay Bill Online from 254723389922 - ANNE WANJIKU NDUNGU Acc. v53,Completed,600,,37150,TRUE,Pay Bill Online,254723389922 - ANNE WANJIKU NDUNGU,,v53
QJ325WMPWQ,03/10/2022 14:29,03/10/2022 14:29,Pay Bill from 0706563358 - HARRIET NYANCHAMA NYABERI Acc. FCC,Completed,600,,36550,TRUE,Pay Utility,0706563358 - HARRIET NYANCHAMA NYABERI,,FCC
QJ365PKNUI,03/10/2022 13:08,03/10/2022 13:08,Pay Bill from 254726753273 - JESSE K MURIRMI NJERU Acc. HCH,Completed,1200,,35950,TRUE,Pay Utility,254726753273 - JESSE K MURIRMI NJERU,,HCH
QJ345NWYKK,03/10/2022 12:49,03/10/2022 12:49,Pay Bill Online from 254706144834 - WILKISTER OSUMO Acc. HFB,Completed,600,,34750,TRUE,Pay Bill Online,254706144834 - WILKISTER OSUMO,,HFB
QJ385MY8LI,03/10/2022 12:37,03/10/2022 12:37,Pay Bill from 254722444622 - CHARITY KAGWAINI Acc. ffd,Completed,100,,34150,TRUE,Pay Utility,254722444622 - CHARITY KAGWAINI,,ffd
QJ305LNEAC,03/10/2022 12:21,03/10/2022 12:21,Pay Bill Online from 254795510441 - LEWIS MUEMA Acc. KEB,Completed,400,,34050,TRUE,Pay Bill Online,254795510441 - LEWIS MUEMA,,KEB
QJ3154Y2WT,03/10/2022 08:39,03/10/2022 08:39,Pay Bill from 254719398942 - NORAH WAYUA MUNYAO Acc. KDA,Completed,800,,33650,TRUE,Pay Utility,254719398942 - NORAH WAYUA MUNYAO,,KDA
QJ32546VIS,03/10/2022 08:27,03/10/2022 08:27,Pay Bill from 254701086112 - CAROLYNE KOKI MULWA Acc. V30,Completed,300,,32850,TRUE,Pay Utility,254701086112 - CAROLYNE KOKI MULWA,,V30
QJ3053S8FQ,03/10/2022 08:21,03/10/2022 08:21,Pay Bill Online from 254722728975 - CURTIS MRIGA OMIDO Acc. IAH,Completed,600,,32550,TRUE,Pay Bill Online,254722728975 - CURTIS MRIGA OMIDO,,IAH
QJ274V59S5,02/10/2022 23:29,02/10/2022 23:29,Pay Bill Online from 254720696119 - DUNCAN OMONDI OKETCH Acc. IAG,Completed,400,,31950,TRUE,Pay Bill Online,254720696119 - DUNCAN OMONDI OKETCH,,IAG
QJ244BVX4Q,02/10/2022 18:59,02/10/2022 18:59,Pay Bill Online from 254729796719 - JACINTA WANJIKU NJERI Acc. FFF,Completed,600,,31550,TRUE,Pay Bill Online,254729796719 - JACINTA WANJIKU NJERI,,FFF
QJ263TVTRW,02/10/2022 15:51,02/10/2022 15:51,Pay Bill from 254708079935 - JACKLINE WANJIKO NAMBOSO Acc. JDA,Completed,1800,,30950,TRUE,Pay Utility,254708079935 - JACKLINE WANJIKO NAMBOSO,,JDA
QJ263CQFMS,02/10/2022 12:13,02/10/2022 12:13,Pay Bill from 254725754547 - MWACHIRO GEORGE DECHE Acc. DFC,Completed,1800,,29150,TRUE,Pay Utility,254725754547 - MWACHIRO GEORGE DECHE,,DFC
QJ2934HV0J,02/10/2022 10:09,02/10/2022 10:09,Pay Bill Online from 254720201157 - BENSON INYANJE MWAKHA Acc. b6,Completed,200,,27350,TRUE,Pay Utility with OD Online,254720201157 - BENSON INYANJE MWAKHA,,b6
QJ162P3H8G,01/10/2022 23:39,01/10/2022 23:39,Pay Bill Online from 254729097858 - AMBROSE ADEYA AHAWO Acc. KCF,Completed,1000,,27150,TRUE,Pay Bill Online,254729097858 - AMBROSE ADEYA AHAWO,,KCF
QJ181XRO0I,01/10/2022 18:13,01/10/2022 18:13,Pay Bill from 254708875278 - ROSEMARY WANJIRU KONYE Acc. HBF,Completed,800,,26150,TRUE,Pay Utility,254708875278 - ROSEMARY WANJIRU KONYE,,HBF
QJ181TM6Y6,01/10/2022 17:34,01/10/2022 17:34,Pay Bill from 254741791919 - Linet Mongina Maraga Acc. u3,Completed,600,,25350,TRUE,Pay Utility,254741791919 - Linet Mongina Maraga,,u3
QJ141JEPUA,01/10/2022 15:48,01/10/2022 15:48,Pay Bill from 254722458136 - NADI GOLICHA Acc. JEA,Completed,1000,,24750,TRUE,Pay Utility,254722458136 - NADI GOLICHA,,JEA
QJ141BLCMW,01/10/2022 14:19,01/10/2022 14:19,Pay Bill Online from 254799946039 - LUIS OTIENO Acc. IAE,Completed,2600,,23750,TRUE,Pay Bill Online,254799946039 - LUIS OTIENO,,IAE
QJ14ZW5IKO,01/10/2022 11:21,01/10/2022 11:21,Pay Bill from 254723017892 - JUDY MUTHEU Acc. ICI,Completed,800,,21150,TRUE,Pay Utility,254723017892 - JUDY MUTHEU,,ICI
QJ19ZSMI9R,01/10/2022 10:37,01/10/2022 10:37,Pay Bill from 254717726012 - WINFRED MUENI PETER Acc. IDA,Completed,1000,,20350,TRUE,Pay Utility,254717726012 - WINFRED MUENI PETER,,IDA
QJ15ZR8LEP,01/10/2022 10:19,01/10/2022 10:19,Pay Bill Online from 254706549634 - CLINTON OMBASA Acc. FDB,Completed,1200,,19350,TRUE,Pay Bill Online,254706549634 - CLINTON OMBASA,,FDB
QJ15ZMBZYX,01/10/2022 09:15,01/10/2022 09:15,Pay Bill Online from 254714855708 - KIPLANGAT SITIENEI Acc. FAE,Completed,600,,18150,TRUE,Pay Bill Online,254714855708 - KIPLANGAT SITIENEI,,FAE
QJ14ZM43UA,01/10/2022 09:12,01/10/2022 09:12,Pay Bill Online from 254717809935 - LYDIAH WERU Acc. ief,Completed,600,,17550,TRUE,Pay Bill Online,254717809935 - LYDIAH WERU,,ief
QJ19ZIVVKT,01/10/2022 08:25,01/10/2022 08:25,Pay Bill from 0717216114 - Felix Njeru Mugambi Acc. kdf,Completed,800,,16950,TRUE,Pay Utility,0717216114 - Felix Njeru Mugambi,,kdf
QJ14ZH5PIY,01/10/2022 07:58,01/10/2022 07:58,Pay Bill Online from 254706784429 - ROSE JEPKOECH RUTTO Acc. IFI,Completed,200,,16150,TRUE,Pay Bill Online,254706784429 - ROSE JEPKOECH RUTTO,,IFI
QJ16ZC5H6G,01/10/2022 04:12,01/10/2022 04:12,Pay Bill from 0724110456 - Fredrick Otieno Onege Acc. ICH,Completed,300,,15950,TRUE,Pay Utility with OD via STK,0724110456 - Fredrick Otieno Onege,,ICH
QIU6Y7Y5QU,30/09/2022 16:46,30/09/2022 16:46,Pay Bill Online from 254716784364 - Wendy Kemunto Nyandiko Acc. ffc,Completed,800,,15650,TRUE,Pay Bill Online,254716784364 - Wendy Kemunto Nyandiko,,ffc
QIU6XZIK3M,30/09/2022 15:10,30/09/2022 15:10,FSI to Pay Bill by 714888 - B2C LOOP VIA NCBA Acc. V40 via WEB by B2C LOOP VIA NCBA\Cbainitiator,Completed,200,,14850,TRUE,FSI to Pay Bill via API,714888 - B2C LOOP VIA NCBA,,V40
QIU1XVQ5VP,30/09/2022 14:24,30/09/2022 14:24,Pay Bill from 254798643998 - Judith Mwaniki Acc. kce ,Completed,800,,14650,TRUE,Pay Utility,254798643998 - Judith Mwaniki,,kce
QIU5XNOWLH,30/09/2022 12:47,30/09/2022 12:47,Pay Bill from 254720814822 - JAMES OTIENO OPAR Acc. Jgj,Completed,700,,13850,TRUE,Pay Utility,254720814822 - JAMES OTIENO OPAR,,Jgj
QIU2XKAWSY,30/09/2022 12:04,30/09/2022 12:04,Pay Bill from 254711650034 - Lucky Ngoya Acc. JAA,Completed,900,,13150,TRUE,Pay Utility,254711650034 - Lucky Ngoya,,JAA
QIU0XE71NC,30/09/2022 10:44,30/09/2022 10:44,Pay Bill Online from 254700187806 - WINNIE OLIVIA AKOTH Acc. jec,Completed,600,,12250,TRUE,Pay Bill Online,254700187806 - WINNIE OLIVIA AKOTH,,jec
QIU8WZT7JG,30/09/2022 06:59,30/09/2022 06:59,Pay Bill from 254723295023 - Murugan Achudhanantham Acc. HBA,Completed,800,,11650,TRUE,Pay Utility,254723295023 - Murugan Achudhanantham,,HBA
QIU3WXLURZ,30/09/2022 04:50,30/09/2022 04:50,Pay Bill Online from 254724587401 - RAPHAEL IRUNGU WAIHURA Acc. KGG,Completed,200,,10850,TRUE,Pay Bill Online,254724587401 - RAPHAEL IRUNGU WAIHURA,,KGG
QIT8WKROAU,29/09/2022 20:20,29/09/2022 20:20,Pay Bill from 254702152790 - Michelle Ndunge Kyalo Acc. IDE,Completed,400,,10650,TRUE,Pay Utility,254702152790 - Michelle Ndunge Kyalo,,IDE
QIT7V61DSX,29/09/2022 10:54,29/09/2022 10:54,Pay Bill from 254714710840 - RACHAEL WANJIRU NJOROGE Acc. ITE,Completed,700,,10250,TRUE,Pay Utility,254714710840 - RACHAEL WANJIRU NJOROGE,,ITE
QIT0V33CI8,29/09/2022 10:13,29/09/2022 10:13,Pay Bill from 254705396032 - NAOMI NYAWIRA NGURE Acc. v46,Completed,700,,9550,TRUE,Pay Utility with OD via STK,254705396032 - NAOMI NYAWIRA NGURE,,v46
QIT3V269U5,29/09/2022 10:00,29/09/2022 10:00,Pay Bill Online from 254723901777 - EVANS YEBEI Acc. KCH,Completed,1500,,8850,TRUE,Pay Utility with OD Online,254723901777 - EVANS YEBEI,,KCH
QIS4T4HUQI,28/09/2022 12:21,28/09/2022 12:21,Pay Bill Online from 254722444929 - LIZ KIHARA Acc. g3,Completed,400,,7350,TRUE,Pay Bill Online,254722444929 - LIZ KIHARA,,g3
QIS1SOLCJH,28/09/2022 08:38,28/09/2022 08:38,Pay Bill Online from 254726292792 - PHILIP MIANO Acc. JEI,Completed,2600,,6950,TRUE,Pay Bill Online,254726292792 - PHILIP MIANO,,JEI
QIS2SN04JI,28/09/2022 08:13,28/09/2022 08:13,Pay Bill Online from 254715892656 - DENNIS MUSYOKA MUOKI Acc. KFA,Completed,400,,4350,TRUE,Pay Bill Online,254715892656 - DENNIS MUSYOKA MUOKI,,KFA
QIS6SMKEI4,28/09/2022 08:05,28/09/2022 08:05,Pay Bill from 254720230582 - SHADRACK KITAKA NGILA Acc. hse,Completed,800,,3950,TRUE,Pay Utility,254720230582 - SHADRACK KITAKA NGILA,,hse
QIS5SKKD0J,28/09/2022 07:28,28/09/2022 07:28,Pay Bill from 0708931111 - NJENGA   KURIA Acc. kca,Completed,1000,,3150,TRUE,Pay Utility,0708931111 - NJENGA   KURIA,,kca
QIR1SCG9SX,27/09/2022 22:05,27/09/2022 22:05,Pay Bill from 254720496449 - STANLEY KIPKOECH RONO Acc. FBE,Completed,750,,2150,TRUE,Pay Utility with OD via STK,254720496449 - STANLEY KIPKOECH RONO,,FBE
QIR9ROD1ZJ,27/09/2022 18:06,27/09/2022 18:06,Pay Bill from 0111788761 - MARIA ZACHARIA JOHN Acc. Hse faf,Completed,1400,,1400,TRUE,Pay Utility,0111788761 - MARIA ZACHARIA JOHN,,Hse
QIR8RHJRKI,27/09/2022 16:55,27/09/2022 16:55,Utility Account to Organization Settlement Account,Completed,,-13100,0,TRUE,Utility Account to Organization Settlement Account,846783 - ANCIENT WELLS LTD 4,,
QIR0R4MU84,27/09/2022 14:10,27/09/2022 14:10,Pay Bill from 254717801919 - MARCELINE AKINYI Acc. IAF,Completed,200,,13100,TRUE,Pay Utility,254717801919 - MARCELINE AKINYI,,IAF
QIR5QS0907,27/09/2022 11:29,27/09/2022 11:29,Pay Bill Online from 254704403532 - Mercy Chepchirchir Mary Acc. JBC,Completed,400,,12900,TRUE,Pay Bill Online,254704403532 - Mercy Chepchirchir Mary,,JBC
QIR5QK2H73,27/09/2022 09:43,27/09/2022 09:43,Pay Bill Online from 254707726441 - JOHN OLOO NYAULA Acc. IEH,Completed,400,,12500,TRUE,Pay Bill Online,254707726441 - JOHN OLOO NYAULA,,IEH
QIQ3Q5DGZ3,26/09/2022 22:46,26/09/2022 22:46,Pay Bill Online from 254741433913 - DUNCAN OMONDI OKETCH Acc. IAG,Completed,800,,12100,TRUE,Pay Bill Online,254741433913 - DUNCAN OMONDI OKETCH,,IAG
QIQ8PRT3HM,26/09/2022 19:46,26/09/2022 19:46,Pay Bill from 254710106394 - LUCY TONKEI Acc. KBG,Completed,500,,11300,TRUE,Pay Utility,254710106394 - LUCY TONKEI,,KBG
QIQ4PQQ7LY,26/09/2022 19:37,26/09/2022 19:37,Pay Bill Online from 254700379039 - MARTIN KIMANI Acc. KCI,Completed,1600,,10800,TRUE,Pay Bill Online,254700379039 - MARTIN KIMANI,,KCI
QIQ5PF6MST,26/09/2022 18:04,26/09/2022 18:04,Pay Bill from 0721130307 - HILLARY NGUNYI MUTINDA Acc. JCH,Completed,1200,,9200,TRUE,Pay Utility,0721130307 - HILLARY NGUNYI MUTINDA,,JCH
QIQ6OXXGUA,26/09/2022 14:52,26/09/2022 14:52,Pay Bill Online from 254719317219 - PHILIP MBOYA Acc. JDH,Completed,2400,,8000,TRUE,Pay Utility with OD Online,254719317219 - PHILIP MBOYA,,JDH
QIQ9ON3IBP,26/09/2022 12:38,26/09/2022 12:38,Pay Bill from 254704140048 - MAUREEN GACHERI KINYUA Acc. JDD ,Completed,600,,5600,TRUE,Pay Utility,254704140048 - MAUREEN GACHERI KINYUA,,JDD
QIQ8OECZZ8,26/09/2022 10:45,26/09/2022 10:45,Pay Bill Online from 254717463608 - DANIEL MUNIU MUGURE Acc. HGE,Completed,600,,5000,TRUE,Pay Bill Online,254717463608 - DANIEL MUNIU MUGURE,,HGE
QIQ3O7SCS9,26/09/2022 09:14,26/09/2022 09:14,Pay Bill from 254710381003 - ALFRED KISHOIN Acc. DAB,Completed,2400,,4400,TRUE,Pay Utility,254710381003 - ALFRED KISHOIN,,DAB
QIP9NWV1HZ,25/09/2022 23:50,25/09/2022 23:50,Pay Bill Online from 254710965167 - KUSA STEPHANIE HAZEL Acc. JDC,Completed,400,,2000,TRUE,Pay Bill Online,254710965167 - KUSA STEPHANIE HAZEL,,JDC
QIP9NR6RI3,25/09/2022 21:11,25/09/2022 21:11,Pay Bill from 254726599835 - LAWRENCE MURIITHI Acc. kdj,Completed,1200,,1600,TRUE,Pay Utility,254726599835 - LAWRENCE MURIITHI,,kdj
QIP5MWJA1L,25/09/2022 15:31,25/09/2022 15:31,Pay Bill from 254724201046 - GIDEON NDOLO Acc. KFH,Completed,400,,400,TRUE,Pay Utility,254724201046 - GIDEON NDOLO,,KFH
QIP4MR41GO,25/09/2022 14:18,25/09/2022 14:18,Utility Account to Organization Settlement Account,Completed,,-18700,0,TRUE,Utility Account to Organization Settlement Account,846783 - ANCIENT WELLS LTD 4,,
QIP6MM31BW,25/09/2022 13:07,25/09/2022 13:07,Pay Bill from 254708570729 - MARY OGOLLA Acc. HOUSE NO. KAD,Completed,1400,,18700,TRUE,Pay Utility,254708570729 - MARY OGOLLA,,HOUSE
QIO0LVDG22,24/09/2022 22:22,24/09/2022 22:22,Pay Bill Online from 0796121714 - janet   mwikali Acc. KBC,Completed,800,,17300,TRUE,Pay Bill Online,0796121714 - janet   mwikali,,KBC
QIO4LO69OU,24/09/2022 20:37,24/09/2022 20:37,Pay Bill from 254723341864 - WILLIAM OSIEL WACHUDI Acc. DED,Completed,4800,,16500,TRUE,Pay Utility with OD via STK,254723341864 - WILLIAM OSIEL WACHUDI,,DED
QIO2KSLEBI,24/09/2022 15:23,24/09/2022 15:23,Pay Bill Online from 254728364280 - EMMANUEL THUMA OYIER Acc. IBI,Completed,800,,11700,TRUE,Pay Bill Online,254728364280 - EMMANUEL THUMA OYIER,,IBI
QIO5KMVZ0R,24/09/2022 14:11,24/09/2022 14:11,Pay Bill Online from 0791992967 - JOCELYN AKINYI ODONGO Acc. V47,Completed,1000,,10900,TRUE,Pay Bill Online,0791992967 - JOCELYN AKINYI ODONGO,,V47
QIO6KMP95K,24/09/2022 14:09,24/09/2022 14:09,Pay Bill Online from 254716315144 - PETER MUNYIRI WAROTERE Acc. FBB,Completed,400,,9900,TRUE,Pay Bill Online,254716315144 - PETER MUNYIRI WAROTERE,,FBB
QIO8K7USTY,24/09/2022 10:57,24/09/2022 10:57,Pay Bill from 254758054136 - SCOVIAH DAYO Acc. JCA,Completed,3000,,9500,TRUE,Pay Utility,254758054136 - SCOVIAH DAYO,,JCA
QIO1JVZXHV,24/09/2022 08:02,24/09/2022 08:02,Pay Bill from 254729557859 - AUDREY KASINDAHA KASINDAHA Acc. KFB,Completed,1000,,6500,TRUE,Pay Utility,254729557859 - AUDREY KASINDAHA KASINDAHA,,KFB
QIN9JJ3X87,23/09/2022 21:24,23/09/2022 21:24,Pay Bill from 254729450678 - GRACE NDUNGE Acc. fba,Completed,800,,5500,TRUE,Pay Utility,254729450678 - GRACE NDUNGE,,fba
QIN0JEMYIS,23/09/2022 20:31,23/09/2022 20:31,Pay Bill Online from 0758506934 - Edgar Maxwel Wanguba Acc. IFG,Completed,3000,,4700,TRUE,Pay Bill Online,0758506934 - Edgar Maxwel Wanguba,,IFG
QIN2IYNRIC,23/09/2022 18:15,23/09/2022 18:15,Pay Bill from 254717899065 - MASELINE ONDIJO Acc. HCG,Completed,800,,1700,TRUE,Pay Utility,254717899065 - MASELINE ONDIJO,,HCG
QIN1IWEDOP,23/09/2022 17:54,23/09/2022 17:54,Pay Bill from 254721784820 - YVONNE OKELLO Acc. KGC,Completed,200,,900,TRUE,Pay Utility with OD via STK,254721784820 - YVONNE OKELLO,,KGC
QIN6IVZDM2,23/09/2022 17:50,23/09/2022 17:50,Pay Bill from 254726337163 - HALIMA ALI HASSAN Acc. DDA,Completed,700,,700,TRUE,Pay Utility,254726337163 - HALIMA ALI HASSAN,,DDA
QIN1IU65XJ,23/09/2022 17:32,23/09/2022 17:32,Utility Account to Organization Settlement Account,Completed,,-15500,0,TRUE,Utility Account to Organization Settlement Account,846783 - ANCIENT WELLS LTD 4,,
QIN6IOX9J8,23/09/2022 16:35,23/09/2022 16:35,Pay Bill from 254729355933 - FELISTAH NJERI WAIRIMU Acc. IDI,Completed,1000,,15500,TRUE,Pay Utility,254729355933 - FELISTAH NJERI WAIRIMU,,IDI
QIN5INUO2N,23/09/2022 16:22,23/09/2022 16:22,Pay Bill from 254722263593 - GLADYS KAMAU Acc. kcj,Completed,400,,14500,TRUE,Pay Utility,254722263593 - GLADYS KAMAU,,kcj
QIN8IHNLOA,23/09/2022 15:06,23/09/2022 15:06,Pay Bill from 0726465363 - ISAAC KITONGA JOSEPH Acc. IDG,Completed,600,,14100,TRUE,Pay Utility,0726465363 - ISAAC KITONGA JOSEPH,,IDG
QIN5IC96PF,23/09/2022 13:58,23/09/2022 13:58,Pay Bill from 254722458136 - NADI GOLICHA Acc. JEA,Completed,1500,,13500,TRUE,Pay Utility with OD via STK,254722458136 - NADI GOLICHA,,JEA
QIN9I8WSXZ,23/09/2022 13:17,23/09/2022 13:17,Pay Bill Online from 254718513411 - Michelle mwangi Acc. HAD,Completed,200,,12000,TRUE,Pay Bill Online,254718513411 - Michelle mwangi,,HAD
QIN4I8LYV2,23/09/2022 13:13,23/09/2022 13:13,Pay Bill from 0700616526 - Lionel Uchechukwu Kibathi Acc. Leah b2,Completed,1000,,11800,TRUE,Pay Utility with OD via STK,0700616526 - Lionel Uchechukwu Kibathi,,Leah
QIN1I22OEL,23/09/2022 11:48,23/09/2022 11:48,Pay Bill from 254713662892 - DAVID JUMA KIPTOCH Acc. JBE,Completed,200,,10800,TRUE,Pay Utility,254713662892 - DAVID JUMA KIPTOCH,,JBE
QIN5I1WGXP,23/09/2022 11:46,23/09/2022 11:46,Pay Bill from 254729541871 - ROBERT KULEI Acc. JAB,Completed,1200,,10600,TRUE,Pay Utility with OD via STK,254729541871 - ROBERT KULEI,,JAB
QIN3I0EOWP,23/09/2022 11:25,23/09/2022 11:25,Pay Bill Online from 254720787158 - AMOS CHELANG'A Acc. KAG,Completed,1800,,9400,TRUE,Pay Bill Online,254720787158 - AMOS CHELANG'A,,KAG
QIN5HSVMCZ,23/09/2022 09:40,23/09/2022 09:40,Pay Bill from 254718253322 - DUNCAN MOCHOGE Acc. JFJ,Completed,1000,,7600,TRUE,Pay Utility,254718253322 - DUNCAN MOCHOGE,,JFJ
QIN7HOQDGB,23/09/2022 08:37,23/09/2022 08:37,Pay Bill Online from 254706427665 - CHRIS KIRIMI Acc. v22,Completed,100,,6600,TRUE,Pay Bill Online,254706427665 - CHRIS KIRIMI,,v22
QIN7HON3MD,23/09/2022 08:36,23/09/2022 08:36,Pay Bill Online from 254706427665 - CHRIS KIRIMI Acc. v22,Completed,100,,6500,TRUE,Pay Bill Online,254706427665 - CHRIS KIRIMI,,v22
QIN9HN79WV,23/09/2022 08:12,23/09/2022 08:12,Pay Bill Online from 254701683737 - MICHAEL NGUGI Acc. HDB,Completed,200,,6400,TRUE,Pay Bill Online,254701683737 - MICHAEL NGUGI,,HDB
QIM4HGMO6E,22/09/2022 23:53,22/09/2022 23:53,Pay Bill from 0769858701 - DOLLARS DANIEL CIRHUZA Acc. V09,Completed,400,,6200,TRUE,Pay Utility,0769858701 - DOLLARS DANIEL CIRHUZA,,V09
QIM5H1RKYL,22/09/2022 19:39,22/09/2022 19:39,Pay Bill from 254722746480 - PATRICK OPEYWA AURA Acc. KGH,Completed,800,,5800,TRUE,Pay Utility,254722746480 - PATRICK OPEYWA AURA,,KGH
QIM6H1LA98,22/09/2022 19:37,22/09/2022 19:37,Pay Bill from 254713090384 - SUSAN AKINYI OMOLLO Acc. HTA,Completed,1000,,5000,TRUE,Pay Utility,254713090384 - SUSAN AKINYI OMOLLO,,HTA
QIM4G8UWPS,22/09/2022 14:29,22/09/2022 14:29,Pay Bill from 0720015317 - mohamed maalim hassan Acc. fbc,Completed,4000,,4000,TRUE,Pay Utility,0720015317 - mohamed maalim hassan,,fbc
QIM7G2BKD5,22/09/2022 13:05,22/09/2022 13:05,Utility Account to Organization Settlement Account,Completed,,-10200,0,TRUE,Utility Account to Organization Settlement Account,846783 - ANCIENT WELLS LTD 4,,
QIM4FUL0O4,22/09/2022 11:21,22/09/2022 11:21,Pay Bill from 254715591919 - JOHN O OCHIENG Acc. HCC ,Completed,1000,,10200,TRUE,Pay Utility,254715591919 - JOHN O OCHIENG,,HCC
QIM0FNWHG2,22/09/2022 09:47,22/09/2022 09:47,Pay Bill Online from 254718663397 - JIMMY MUNYAO NZIOKI Acc. DCB,Completed,800,,9200,TRUE,Pay Bill Online,254718663397 - JIMMY MUNYAO NZIOKI,,DCB
QIM7FMSHT1,22/09/2022 09:30,22/09/2022 09:30,Pay Bill Online from 254708300413 - ROBINSON AYAKO Acc. KEH,Completed,800,,8400,TRUE,Pay Bill Online,254708300413 - ROBINSON AYAKO,,KEH
QIM9FLQMLT,22/09/2022 09:15,22/09/2022 09:15,Pay Bill Online from 254720044312 - ELIUD KIPKURUI Acc. FCF,Completed,1600,,7600,TRUE,Pay Utility with OD Online,254720044312 - ELIUD KIPKURUI,,FCF
QIM6FFAGB4,22/09/2022 07:19,22/09/2022 07:19,Pay Bill from 254702346515 - ELIZABETH ACHIENG NGOME Acc. KDE,Completed,400,,6000,TRUE,Pay Utility,254702346515 - ELIZABETH ACHIENG NGOME,,KDE
QIM3FCS4WR,22/09/2022 04:24,22/09/2022 04:24,Pay Bill Online from 254728897908 - Teddy Allan Onyango Acc. DDD,Completed,1600,,5600,TRUE,Pay Bill Online,254728897908 - Teddy Allan Onyango,,DDD
QIL6FBDE6W,21/09/2022 23:53,21/09/2022 23:53,Pay Bill from 254715636579 - GRACE KALUKI MULI Acc. FDA ,Completed,1200,,4000,TRUE,Pay Utility,254715636579 - GRACE KALUKI MULI,,FDA
QIL9FA79QH,21/09/2022 22:55,21/09/2022 22:55,Pay Bill from 254723488259 - WILSON OKITE OKITE Acc. HCA,Completed,1400,,2800,TRUE,Pay Utility,254723488259 - WILSON OKITE OKITE,,HCA
QIL0F5RC7E,21/09/2022 21:21,21/09/2022 21:21,Pay Bill Online from 254715002789 - ERICK NGUGI MAINA Acc. HAG,Completed,1200,,1400,TRUE,Pay Bill Online,254715002789 - ERICK NGUGI MAINA,,HAG
QIL3F5GJAN,21/09/2022 21:17,21/09/2022 21:17,Pay Bill Online from 254726001437 - FESTUS MUNYIRI MAINA Acc. IFF,Completed,200,,200,TRUE,Pay Bill Online,254726001437 - FESTUS MUNYIRI MAINA,,IFF
QIL9F4OFG5,21/09/2022 21:06,21/09/2022 21:06,Utility Account to Organization Settlement Account,Completed,,-3200,0,TRUE,Utility Account to Organization Settlement Account,846783 - ANCIENT WELLS LTD 4,,
QIL6F3VU20,21/09/2022 20:56,21/09/2022 20:56,Pay Bill from 0707674271 - Victor   Mwilu Acc. V37,Completed,600,,3200,TRUE,Pay Utility,0707674271 - Victor   Mwilu,,V37
QIL8F158Q8,21/09/2022 20:26,21/09/2022 20:26,Pay Bill Online from 254728093389 - MOHAMED MUSA ALASOW Acc. KED ,Completed,400,,2600,TRUE,Pay Bill Online,254728093389 - MOHAMED MUSA ALASOW,,KED
QIL0EMWVHY,21/09/2022 18:24,21/09/2022 18:24,Pay Bill Online from 254706549634 - CLINTON OMBASA Acc. FDB,Completed,1000,,2200,TRUE,Pay Bill Online,254706549634 - CLINTON OMBASA,,FDB
QIL3EMIEDR,21/09/2022 18:20,21/09/2022 18:20,Pay Bill from 254725111246 - FRANCIS MUUTU MWANGANGI Acc. IGI,Completed,600,,1200,TRUE,Pay Utility,254725111246 - FRANCIS MUUTU MWANGANGI,,IGI
QIL3EI8ASF,21/09/2022 17:37,21/09/2022 17:37,Pay Bill from 254722826454 - CHARLES KARIMI MAITAI Acc. KDC  Keila,Completed,600,,600,TRUE,Pay Utility,254722826454 - CHARLES KARIMI MAITAI,,KDC
QIL9ED7ZQJ,21/09/2022 16:39,21/09/2022 16:39,Utility Account to Organization Settlement Account,Completed,,-10500,0,TRUE,Utility Account to Organization Settlement Account,846783 - ANCIENT WELLS LTD 4,,
QIL7EAPAOJ,21/09/2022 16:08,21/09/2022 16:08,Pay Bill Online from 254715764212 - BANCE ISHEMINYE Acc. JFE ,Completed,200,,10500,TRUE,Pay Bill Online,254715764212 - BANCE ISHEMINYE,,JFE
QIL2E6V2J0,21/09/2022 15:17,21/09/2022 15:17,Pay Bill from 254721315975 - JOSEPH NDEGWA Acc. H E B ,Completed,2400,,10300,TRUE,Pay Utility,254721315975 - JOSEPH NDEGWA,,H
QIL7E4O7DP,21/09/2022 14:47,21/09/2022 14:47,Pay Bill Online from 254720451253 - JIMMY KIOGORA NKIROTE Acc. Kbd,Completed,500,,7900,TRUE,Pay Utility with OD Online,254720451253 - JIMMY KIOGORA NKIROTE,,Kbd
QIL7E3A6C7,21/09/2022 14:28,21/09/2022 14:28,Pay Bill Online from 254724211857 - OCHUODHO OUMA Acc. KBK,Completed,2000,,7400,TRUE,Pay Bill Online,254724211857 - OCHUODHO OUMA,,KBK
QIL2E0FMKQ,21/09/2022 13:50,21/09/2022 13:50,Pay Bill Online from 254799863492 - HIRANI MULJI Acc. JDB,Completed,600,,5400,TRUE,Pay Bill Online,254799863492 - HIRANI MULJI,,JDB
QIL3DXIGCV,21/09/2022 13:13,21/09/2022 13:13,Pay Bill Online from 254712040302 - EMMANUEL MWARO BARASA Acc. KEA,Completed,200,,4800,TRUE,Pay Bill Online,254712040302 - EMMANUEL MWARO BARASA,,KEA
QIL3DXH81L,21/09/2022 13:13,21/09/2022 13:13,Pay Bill Online from 254712040302 - EMMANUEL MWARO BARASA Acc. KEA,Completed,1200,,4600,TRUE,Pay Bill Online,254712040302 - EMMANUEL MWARO BARASA,,KEA
QIL0DUNN7E,21/09/2022 12:36,21/09/2022 12:36,Pay Bill from 254728888511 - HAMISI MIRITI Acc. KAK,Completed,200,,3400,TRUE,Pay Utility,254728888511 - HAMISI MIRITI,,KAK
QIL1DTB08P,21/09/2022 12:18,21/09/2022 12:18,Pay Bill Online from 0722255105 - SALIM OMAR MZEE Acc. KGE,Completed,600,,3200,TRUE,Pay Utility with OD Online,0722255105 - SALIM OMAR MZEE,,KGE
QIL6DSY25O,21/09/2022 12:13,21/09/2022 12:13,Pay Bill Online from 254792584569 - LUCY MWALIMO Acc. IAD,Completed,1200,,2600,TRUE,Pay Bill Online,254792584569 - LUCY MWALIMO,,IAD
QIL5DSS73B,21/09/2022 12:11,21/09/2022 12:11,Pay Bill from 254729160700 - MICAH NDUNGI Acc. HFE,Completed,200,,1400,TRUE,Pay Utility,254729160700 - MICAH NDUNGI,,HFE
QIL7DSIEE5,21/09/2022 12:08,21/09/2022 12:08,Pay Bill from 254703555717 - SENGA SALIM Acc. hbb,Completed,400,,1200,TRUE,Pay Utility,254703555717 - SENGA SALIM,,hbb
QIL7DS790Z,21/09/2022 12:04,21/09/2022 12:04,Pay Bill Online from 254722258756 - DAVID KEMBOI Acc. HDA,Completed,800,,800,TRUE,Pay Bill Online,254722258756 - DAVID KEMBOI,,HDA
QIK9BJAPYF,20/09/2022 11:07,20/09/2022 11:07,Utility Account to Organization Settlement Account,Completed,,-156660,0,TRUE,Utility Account to Organization Settlement Account,846783 - ANCIENT WELLS LTD 4,,
QIK5B3TJY9,20/09/2022 06:39,20/09/2022 06:39,Pay Bill Online from 254725381062 - VICTOR MAITHYA Acc. HEG,Completed,1200,,156660,TRUE,Pay Bill Online,254725381062 - VICTOR MAITHYA,,HEG
QII5884NS9,18/09/2022 17:53,18/09/2022 17:53,Pay Bill from 254720466443 - FATUMA MOHAMED ABDALLAH Acc. V21,Completed,400,,155460,TRUE,Pay Utility,254720466443 - FATUMA MOHAMED ABDALLAH,,V21
QII46ZAPIU,18/09/2022 00:50,18/09/2022 00:50,Pay Bill Online from 254711877988 - PATRICK KONZI Acc. b4,Completed,500,,155060,TRUE,Pay Bill Online,254711877988 - PATRICK KONZI,,b4
QIH26RLY4U,17/09/2022 21:08,17/09/2022 21:08,Pay Bill from 254724852503 - GEOFREY YEGO Acc. JFF,Completed,800,,154560,TRUE,Pay Utility,254724852503 - GEOFREY YEGO,,JFF
QIH66HRPLA,17/09/2022 19:28,17/09/2022 19:28,Pay Bill from 0790631952 - Guyo Boru Guyo Acc. DBC,Completed,600,,153760,TRUE,Pay Utility with OD via STK,0790631952 - Guyo Boru Guyo,,DBC
QIH25LFI5S,17/09/2022 13:41,17/09/2022 13:41,Pay Bill from 254719779657 - SAMUEL NJOROGE Acc. JGA,Completed,4400,,153160,TRUE,Pay Utility,254719779657 - SAMUEL NJOROGE,,JGA
QIH85JINEY,17/09/2022 13:18,17/09/2022 13:18,Pay Bill Online from 254721663113 - BEATRICE KIMINZA MUNYOKI Acc. KEJ,Completed,800,,148760,TRUE,Pay Bill Online,254721663113 - BEATRICE KIMINZA MUNYOKI,,KEJ
QIH85H4BKQ,17/09/2022 12:48,17/09/2022 12:48,Pay Bill from 254724103759 - RICHARD NKAABO Acc. jej,Completed,400,,147960,TRUE,Pay Utility,254724103759 - RICHARD NKAABO,,jej
QIG13LR01J,16/09/2022 15:34,16/09/2022 15:34,Pay Bill Online from 254703176849 - ROYAL MUYA Acc. F2,Completed,400,,147560,TRUE,Pay Utility with OD Online,254703176849 - ROYAL MUYA,,F2
QIG33ICUPF,16/09/2022 14:51,16/09/2022 14:51,Pay Bill Online from 254714596677 - IMMANUEL BARBOI Acc. KAI,Completed,400,,147160,TRUE,Pay Bill Online,254714596677 - IMMANUEL BARBOI,,KAI
QIG53B30ML,16/09/2022 13:20,16/09/2022 13:20,Pay Bill from 254740579741 - MUHINDI MULINYA Acc. HGG,Completed,600,,146760,TRUE,Pay Utility,254740579741 - MUHINDI MULINYA,,HGG
QIG832HEKC,16/09/2022 11:27,16/09/2022 11:27,Pay Bill from 254726337163 - HALIMA ALI HASSAN Acc. DDA,Completed,500,,146160,TRUE,Pay Utility,254726337163 - HALIMA ALI HASSAN,,DDA
QIF419ICZ4,15/09/2022 14:36,15/09/2022 14:36,Pay Bill from 254713229967 - John Mugabo Simba Acc. E4,Completed,800,,145660,TRUE,Pay Utility with OD via STK,254713229967 - John Mugabo Simba,,E4
QIF815JG3Y,15/09/2022 13:45,15/09/2022 13:45,Pay Bill Online from 254722604851 - WILFRED SAKWA Acc. kej,Completed,300,,144860,TRUE,Pay Bill Online,254722604851 - WILFRED SAKWA,,kej
QIF8ZVHR5I,15/09/2022 11:29,15/09/2022 11:29,Pay Bill from 254791318982 - ADULLAHI HASSAN Acc. JCI,Completed,1600,,144560,TRUE,Pay Utility,254791318982 - ADULLAHI HASSAN,,JCI
QIE4Y7U6JS,14/09/2022 15:15,14/09/2022 15:15,Pay Bill from 254713631869 - ZABIBA HIRBO Acc. Hbd,Completed,1400,,142960,TRUE,Pay Utility,254713631869 - ZABIBA HIRBO,,Hbd
QID2VDAFP8,13/09/2022 07:19,13/09/2022 07:19,Pay Bill from 254724581472 - ROSEMARY ADHIAMBO ONGWESO Acc. Vo3,Completed,200,,141560,TRUE,Pay Utility,254724581472 - ROSEMARY ADHIAMBO ONGWESO,,Vo3
QIC1U34FZT,12/09/2022 14:45,12/09/2022 14:45,Pay Bill from 254703555717 - SENGA SALIM Acc. hbb,Completed,800,,141360,TRUE,Pay Utility,254703555717 - SENGA SALIM,,hbb
QIC1TV5ME5,12/09/2022 13:01,12/09/2022 13:01,Pay Bill Online from 254714538946 - GRACE WANJIRU KIBUE Acc. deb,Completed,1400,,140560,TRUE,Pay Bill Online,254714538946 - GRACE WANJIRU KIBUE,,deb
QIC9TUS8ZJ,12/09/2022 12:56,12/09/2022 12:56,Pay Bill Online from 254722604851 - WILFRED SAKWA Acc. KEJ,Completed,100,,139160,TRUE,Pay Utility with OD Online,254722604851 - WILFRED SAKWA,,KEJ
QIC6TKM956,12/09/2022 10:35,12/09/2022 10:35,Pay Bill from 254719439717 - Cecilia Omondi Acc. HFC,Completed,1200,,139060,TRUE,Pay Utility,254719439717 - Cecilia Omondi,,HFC
QIA9QZNFCX,10/09/2022 21:21,10/09/2022 21:21,Pay Bill from 254700811449 - JOHN MULIMA ENANE Acc. HCE,Completed,160,,137860,TRUE,Pay Utility,254700811449 - JOHN MULIMA ENANE,,HCE
QIA6QJGX7U,10/09/2022 18:47,10/09/2022 18:47,Pay Bill from 254706722732 - NAOMY ACHIENG OYUGI Acc. E5,Completed,800,,137700,TRUE,Pay Utility,254706722732 - NAOMY ACHIENG OYUGI,,E5
QIA3PDN0HF,10/09/2022 10:27,10/09/2022 10:27,Pay Bill from 254722910078 - MAUREEN MUNYIVA MUTUKU Acc. DCD,Completed,800,,136900,TRUE,Pay Utility,254722910078 - MAUREEN MUNYIVA MUTUKU,,DCD
QIA2P0C95G,10/09/2022 04:12,10/09/2022 04:12,Pay Bill Online from 254725385966 - JOSEPH MUYA MARUA Acc. KEE,Completed,1000,,136100,TRUE,Pay Bill Online,254725385966 - JOSEPH MUYA MARUA,,KEE
QI99OXJ4QX,09/09/2022 23:06,09/09/2022 23:06,Pay Bill from 254724201046 - GIDEON NDOLO Acc. KFH,Completed,200,,135100,TRUE,Pay Utility,254724201046 - GIDEON NDOLO,,KFH
QI91O6OP2Z,09/09/2022 17:54,09/09/2022 17:54,Pay Bill from 254710635630 - DONNA JESSICA OWANO Acc. KCC,Completed,400,,134900,TRUE,Pay Utility,254710635630 - DONNA JESSICA OWANO,,KCC
QI96O66XX4,09/09/2022 17:49,09/09/2022 17:49,Pay Bill from 254714597495 - WAMBUA KIOKO Acc. c1,Completed,200,,134500,TRUE,Pay Utility,254714597495 - WAMBUA KIOKO,,c1
QI94NZV8IO,09/09/2022 16:42,09/09/2022 16:42,Pay Bill from 254716702294 - DANIEL MULATI Acc. KBB,Completed,1600,,134300,TRUE,Pay Utility,254716702294 - DANIEL MULATI,,KBB
QI98NWE0W2,09/09/2022 16:01,09/09/2022 16:01,Pay Bill Online from 254714596677 - IMMANUEL BARBOI Acc. KAI,Completed,400,,132700,TRUE,Pay Bill Online,254714596677 - IMMANUEL BARBOI,,KAI
QI95NVECH3,09/09/2022 15:49,09/09/2022 15:49,Pay Bill from 0114093036 - Cecillia Njeri Githui Acc. C3,Completed,400,,132300,TRUE,Pay Utility,0114093036 - Cecillia Njeri Githui,,C3
QI99NQGZ45,09/09/2022 14:45,09/09/2022 14:45,Pay Bill from 254717148989 - ALLAN MUTHONI Acc. HAC,Completed,800,,131900,TRUE,Pay Utility,254717148989 - ALLAN MUTHONI,,HAC
QI90NHD54I,09/09/2022 12:44,09/09/2022 12:44,Pay Bill from 0704120519 - Mildred   Adhiambo Acc. G1,Completed,800,,131100,TRUE,Pay Utility,0704120519 - Mildred   Adhiambo,,G1
QI94NG1Y0U,09/09/2022 12:26,09/09/2022 12:26,Pay Bill from 0717441870 - Steven oduor ogutu Acc. KTA,Completed,1000,,130300,TRUE,Pay Utility with OD via STK,0717441870 - Steven oduor ogutu,,KTA
QI97N802JF,09/09/2022 10:32,09/09/2022 10:32,Pay Bill from 254720086214 - SAMUEL WANJIKU Acc. B3,Completed,400,,129300,TRUE,Pay Utility,254720086214 - SAMUEL WANJIKU,,B3
QI99N3VFMP,09/09/2022 09:32,09/09/2022 09:32,Pay Bill from 254707715639 - Annastacia Kimeu Acc. JFC ,Completed,600,,128900,TRUE,Pay Utility,254707715639 - Annastacia Kimeu,,JFC
QI91MY49CP,09/09/2022 07:58,09/09/2022 07:58,Pay Bill from 0769118645 - kennedy kipkurui korir Acc. IGC,Completed,400,,128300,TRUE,Pay Utility,0769118645 - kennedy kipkurui korir,,IGC
QI87MNOL8T,08/09/2022 21:40,08/09/2022 21:40,Pay Bill from 254706859500 - JULIA NJAMBI WAINAINA Acc. U4,Completed,600,,127900,TRUE,Pay Utility,254706859500 - JULIA NJAMBI WAINAINA,,U4
QI82LRL4JU,08/09/2022 16:12,08/09/2022 16:12,Pay Bill from 254700198550 - BENARD ONYANGO Acc. DBB,Completed,1400,,127300,TRUE,Pay Utility,254700198550 - BENARD ONYANGO,,DBB
QI83LMLV6R,08/09/2022 15:06,08/09/2022 15:06,Pay Bill Online from 254726028330 - JOHN WAMBUA Acc. IFH,Completed,2200,,125900,TRUE,Pay Bill Online,254726028330 - JOHN WAMBUA,,IFH
QI80LM3LSK,08/09/2022 14:59,08/09/2022 14:59,Pay Bill from 0791391378 - Sophie Mueni Muvithu Acc. Sophie Mueni Hse no6,Completed,100,,123700,TRUE,Pay Utility,0791391378 - Sophie Mueni Muvithu,,Sophie
QI85LM0DA9,08/09/2022 14:58,08/09/2022 14:58,Pay Bill from 0791391378 - Sophie Mueni Muvithu Acc. Sophie Mueni Hse no6,Completed,300,,123600,TRUE,Pay Utility,0791391378 - Sophie Mueni Muvithu,,Sophie
QI89LJJHBH,08/09/2022 14:24,08/09/2022 14:24,Pay Bill from 254741223822 - Rhoyce Kiptarus Boiyo Acc. FEC,Completed,800,,123300,TRUE,Pay Utility with OD via STK,254741223822 - Rhoyce Kiptarus Boiyo,,FEC
QI89LCCRO3,08/09/2022 12:49,08/09/2022 12:49,Pay Bill from 254724423882 - JOEL GICHURI KARANJA Acc. fee,Completed,1200,,122500,TRUE,Pay Utility,254724423882 - JOEL GICHURI KARANJA,,fee
QI84KZV5OY,08/09/2022 09:52,08/09/2022 09:52,Pay Bill Online from 254727554512 - COLLINS KOECH Acc. JDJ,Completed,600,,121300,TRUE,Pay Bill Online,254727554512 - COLLINS KOECH,,JDJ
QI88KWNSW8,08/09/2022 09:03,08/09/2022 09:03,Pay Bill from 254710693464 - BENARD OLANDO OKUMU Acc. v59,Completed,400,,120700,TRUE,Pay Utility,254710693464 - BENARD OLANDO OKUMU,,v59
QI74KFYASW,07/09/2022 20:51,07/09/2022 20:51,Merchant Pay Utility Received from 7245661 -  OCHIENG CHEMIST  Acc. HFD,Completed,400,,120300,TRUE,Merchant Pay Utility via API,7245661 -  OCHIENG CHEMIST ,,HFD
QI73KDAA41,07/09/2022 20:19,07/09/2022 20:19,Pay Bill Online from 254795534849 - PURITY NJERU Acc. feb,Completed,400,,119900,TRUE,Pay Utility with OD Online,254795534849 - PURITY NJERU,,feb
QI75KAG7U7,07/09/2022 19:50,07/09/2022 19:50,Pay Bill from 0799912339 - PETER KAMAU MURIU Acc. C5,Completed,500,,119500,TRUE,Pay Utility,0799912339 - PETER KAMAU MURIU,,C5
QI73K0HI3P,07/09/2022 18:24,07/09/2022 18:24,Pay Bill from 254702764047 - FERDINAND K Acc. KDB,Completed,1400,,119000,TRUE,Pay Utility,254702764047 - FERDINAND K,,KDB
QI79JXDR2F,07/09/2022 17:54,07/09/2022 17:54,Pay Bill Online from 254708808085 - MICHAEL APUDO Acc. u2,Completed,4750,,117600,TRUE,Pay Bill Online,254708808085 - MICHAEL APUDO,,u2
QI79JVOVL3,07/09/2022 17:38,07/09/2022 17:38,Pay Bill from 0705687898 - JORDAN KIPNGETICH THOMAS KIKWAI Acc. kff,Completed,2500,,112850,TRUE,Pay Utility,0705687898 - JORDAN KIPNGETICH THOMAS KIKWAI,,kff
QI79JGSTEN,07/09/2022 14:36,07/09/2022 14:36,Pay Bill Online from 254710814215 - JOAN NYAMBURA KAMAU Acc. ifb,Completed,800,,110350,TRUE,Pay Bill Online,254710814215 - JOAN NYAMBURA KAMAU,,ifb
QI79IZ3IMX,07/09/2022 10:31,07/09/2022 10:31,Pay Bill from 254702190887 - Nax Ochieng Acc. FDE,Completed,1200,,109550,TRUE,Pay Utility,254702190887 - Nax Ochieng,,FDE
QI79IVY349,07/09/2022 09:45,07/09/2022 09:45,Pay Bill from 254725754547 - MWACHIRO GEORGE DECHE Acc. DFC,Completed,2000,,108350,TRUE,Pay Utility,254725754547 - MWACHIRO GEORGE DECHE,,DFC
QI74IUSHJW,07/09/2022 09:27,07/09/2022 09:27,Pay Bill Online from 254710202776 - KELVIN KARIMI MACHARIA Acc. FAD,Completed,400,,106350,TRUE,Pay Bill Online,254710202776 - KELVIN KARIMI MACHARIA,,FAD
QI75IUERQZ,07/09/2022 09:21,07/09/2022 09:21,Pay Bill from 254726945691 - JAMES RAMTU Acc. B5,Completed,1000,,105950,TRUE,Pay Utility,254726945691 - JAMES RAMTU,,B5
QI74IU3ATE,07/09/2022 09:16,07/09/2022 09:16,Pay Bill from 0795807227 - Lucy Ncekei Kimathi Acc. V36 ,Completed,200,,104950,TRUE,Pay Utility,0795807227 - Lucy Ncekei Kimathi,,V36
QI70ITRHQS,07/09/2022 09:11,07/09/2022 09:11,Pay Bill from 254723488259 - WILSON OKITE OKITE Acc. HCA,Completed,1400,,104750,TRUE,Pay Utility,254723488259 - WILSON OKITE OKITE,,HCA
QI71ILBC9P,07/09/2022 05:11,07/09/2022 05:11,Pay Bill from 254726753273 - JESSE K MURIRMI NJERU Acc. HCH,Completed,1200,,103350,TRUE,Pay Utility,254726753273 - JESSE K MURIRMI NJERU,,HCH
QI64IH5UQI,06/09/2022 22:06,06/09/2022 22:06,Pay Bill from 0720599684 - CHEMUTAI   JACKLINE Acc. KGD,Completed,700,,102150,TRUE,Pay Utility,0720599684 - CHEMUTAI   JACKLINE,,KGD
QI61I7WMJD,06/09/2022 20:04,06/09/2022 20:04,Pay Bill from 0724386624 - FATUMA ISSE YUSSUF Acc. FAB,Completed,1000,,101450,TRUE,Pay Utility with OD via STK,0724386624 - FATUMA ISSE YUSSUF,,FAB
QI68I3UK2U,06/09/2022 19:28,06/09/2022 19:28,Pay Bill from 254721539716 - OCTAVIAN MWANYALO Acc. C6,Completed,200,,100450,TRUE,Pay Utility,254721539716 - OCTAVIAN MWANYALO,,C6
QI65I2L1HB,06/09/2022 19:18,06/09/2022 19:18,Pay Bill from 254722706516 - KORIR ANTHONY Acc. Anthony D 3 ,Completed,200,,100250,TRUE,Pay Utility,254722706516 - KORIR ANTHONY,,Anthony
QI62HZQGP8,06/09/2022 18:55,06/09/2022 18:55,Pay Bill Online from 254718233980 - KAREN ASWANI Acc. HEC,Completed,600,,100050,TRUE,Pay Bill Online,254718233980 - KAREN ASWANI,,HEC
QI60HSSE9Y,06/09/2022 17:53,06/09/2022 17:53,Pay Bill Online from 254720107609 - DENNIS OGENDI BARAKE Acc. JAJ,Completed,1300,,99450,TRUE,Pay Bill Online,254720107609 - DENNIS OGENDI BARAKE,,JAJ
QI62HPY0LK,06/09/2022 17:24,06/09/2022 17:24,Pay Bill Online from 0700206427 - Clare Nabalisa Mukasa Acc. HFA,Completed,800,,98150,TRUE,Pay Bill Online,0700206427 - Clare Nabalisa Mukasa,,HFA
QI62HO694M,06/09/2022 17:04,06/09/2022 17:04,Pay Bill from 254700811449 - JOHN MULIMA ENANE Acc. HCE,Completed,600,,97350,TRUE,Pay Utility,254700811449 - JOHN MULIMA ENANE,,HCE
QI60HH7HTI,06/09/2022 15:38,06/09/2022 15:38,Pay Bill Online from 254723499628 - CLINTON JOSEPH MUHARI Acc. hfh,Completed,1400,,96750,TRUE,Pay Bill Online,254723499628 - CLINTON JOSEPH MUHARI,,hfh
QI63H8S2AX,06/09/2022 13:46,06/09/2022 13:46,Pay Bill from 254725478531 - KIPKORIR KUTO Acc. DFB,Completed,200,,95350,TRUE,Pay Utility,254725478531 - KIPKORIR KUTO,,DFB
QI64H5JWY2,06/09/2022 13:04,06/09/2022 13:04,Pay Bill from 254720814822 - JAMES OTIENO OPAR Acc. Jgj,Completed,700,,95150,TRUE,Pay Utility,254720814822 - JAMES OTIENO OPAR,,Jgj
QI60H458SI,06/09/2022 12:45,06/09/2022 12:45,Pay Bill Online from 254722769473 - SAMSON CHALO Acc. IAB,Completed,1600,,94450,TRUE,Pay Bill Online,254722769473 - SAMSON CHALO,,IAB
QI65H2JHS7,06/09/2022 12:23,06/09/2022 12:23,Pay Bill from 254728364280 - EMMANUEL THUMA OYIER Acc. IBI,Completed,600,,92850,TRUE,Pay Utility with OD via STK,254728364280 - EMMANUEL THUMA OYIER,,IBI
QI64H113WU,06/09/2022 12:03,06/09/2022 12:03,Pay Bill from 254703108159 - JOICE OGOLLA Acc. V50,Completed,200,,92250,TRUE,Pay Utility,254703108159 - JOICE OGOLLA,,V50
QI65H0B0R5,06/09/2022 11:53,06/09/2022 11:53,Pay Bill from 254706298810 - Morgan Mudengani Kisarago Acc. f1,Completed,200,,92050,TRUE,Pay Utility,254706298810 - Morgan Mudengani Kisarago,,f1
QI63GZOYOZ,06/09/2022 11:44,06/09/2022 11:44,Pay Bill Online from 254714563486 - BRIAN MMATA MUSERA Acc. KBJ,Completed,600,,91850,TRUE,Pay Bill Online,254714563486 - BRIAN MMATA MUSERA,,KBJ
QI62GVLKAO,06/09/2022 10:47,06/09/2022 10:47,Pay Bill from 254722889574 - ALLAN MWANGI Acc. jcg,Completed,3600,,91250,TRUE,Pay Utility,254722889574 - ALLAN MWANGI,,jcg
QI64GQSOWI,06/09/2022 09:38,06/09/2022 09:38,Pay Bill from 0791565463 - Lilian Njeri Wakagwi Acc. F6,Completed,200,,87650,TRUE,Pay Utility with OD via STK,0791565463 - Lilian Njeri Wakagwi,,F6
QI62GLCBH0,06/09/2022 08:11,06/09/2022 08:11,Pay Bill Online from 254718138578 - PAULINE KIOKO Acc. KFD,Completed,600,,87450,TRUE,Pay Bill Online,254718138578 - PAULINE KIOKO,,KFD
QI61GKXIGD,06/09/2022 08:04,06/09/2022 08:04,Pay Bill from 254701086112 - CAROLYNE KOKI MULWA Acc. V30,Completed,400,,86850,TRUE,Pay Utility,254701086112 - CAROLYNE KOKI MULWA,,V30
QI68GKQWR2,06/09/2022 08:01,06/09/2022 08:01,Pay Bill Online from 254710382992 - SIMON KAMAU MUIRURI Acc. JCD,Completed,1000,,86450,TRUE,Pay Bill Online,254710382992 - SIMON KAMAU MUIRURI,,JCD
QI69GJ9IZR,06/09/2022 07:31,06/09/2022 07:31,Pay Bill from 254700557767 - BAKHITA MWENDE MUANGE Acc. kcb,Completed,1000,,85450,TRUE,Pay Utility,254700557767 - BAKHITA MWENDE MUANGE,,kcb
QI60GHN3MY,06/09/2022 06:49,06/09/2022 06:49,Pay Bill from 254722578070 - SAMUEL MACHARIA Acc. V42,Completed,1000,,84450,TRUE,Pay Utility,254722578070 - SAMUEL MACHARIA,,V42
QI61GHHHH7,06/09/2022 06:43,06/09/2022 06:43,Pay Bill from 254796069018 - PEACE KIMEU Acc. JAH,Completed,1800,,83450,TRUE,Pay Utility,254796069018 - PEACE KIMEU,,JAH
QI54GAPM2O,05/09/2022 21:38,05/09/2022 21:38,Pay Bill from 254717899065 - MASELINE ONDIJO Acc. HCG,Completed,1400,,81650,TRUE,Pay Utility,254717899065 - MASELINE ONDIJO,,HCG
QI59G8LO9L,05/09/2022 21:05,05/09/2022 21:05,Pay Bill from 254729355933 - FELISTAH NJERI WAIRIMU Acc. IDI ,Completed,1800,,80250,TRUE,Pay Utility with OD via STK,254729355933 - FELISTAH NJERI WAIRIMU,,IDI
QI56G8D3MO,05/09/2022 21:01,05/09/2022 21:01,Pay Bill from 254725749776 - BEN KORIR Acc. IDF,Completed,500,,78450,TRUE,Pay Utility,254725749776 - BEN KORIR,,IDF
QI58G7H0VM,05/09/2022 20:50,05/09/2022 20:50,Pay Bill from 254743243622 - fridah waeni muithya Acc. JEH,Completed,2000,,77950,TRUE,Pay Utility,254743243622 - fridah waeni muithya,,JEH
QI59G5E5EZ,05/09/2022 20:26,05/09/2022 20:26,Pay Bill from 0757758972 - BETH MUTHONI KASYOKA Acc. DEA,Completed,3000,,75950,TRUE,Pay Utility,0757758972 - BETH MUTHONI KASYOKA,,DEA
QI52FYX1D6,05/09/2022 19:25,05/09/2022 19:25,Pay Bill from 254723815832 - SEMEKIA ONDIALA Acc. V38,Completed,800,,72950,TRUE,Pay Utility,254723815832 - SEMEKIA ONDIALA,,V38
QI55FWMSIF,05/09/2022 19:05,05/09/2022 19:05,Pay Bill from 0721436195 - KIPKOECH   CHARLES Acc. E2,Completed,800,,72150,TRUE,Pay Utility,0721436195 - KIPKOECH   CHARLES,,E2
QI54FV6FDO,05/09/2022 18:53,05/09/2022 18:53,Pay Bill Online from 254715892656 - DENNIS MUSYOKA MUOKI Acc. KFA,Completed,400,,71350,TRUE,Pay Bill Online,254715892656 - DENNIS MUSYOKA MUOKI,,KFA
QI59FSRGFD,05/09/2022 18:32,05/09/2022 18:32,Pay Bill Online from 254792187144 - HASSAN AHMED HASSAN Acc. KGI,Completed,1200,,70950,TRUE,Pay Bill Online,254792187144 - HASSAN AHMED HASSAN,,KGI
QI51FOPMMX,05/09/2022 17:54,05/09/2022 17:54,Pay Bill from 254721974995 - BERNICE MANGOKA Acc. KFK,Completed,600,,69750,TRUE,Pay Utility,254721974995 - BERNICE MANGOKA,,KFK
QI59FNBXTD,05/09/2022 17:40,05/09/2022 17:40,Pay Bill Online from 254711562428 - Lionel Mutune Muoka Acc. KDI,Completed,1200,,69150,TRUE,Pay Bill Online,254711562428 - Lionel Mutune Muoka,,KDI
QI54FBZ2FQ,05/09/2022 15:18,05/09/2022 15:18,Pay Bill from 254723017892 - JUDY MUTHEU Acc. ICI,Completed,600,,67950,TRUE,Pay Utility with OD via STK,254723017892 - JUDY MUTHEU,,ICI
QI51F88E15,05/09/2022 14:26,05/09/2022 14:26,Pay Bill from 254719701463 - MARY KANYI KIARIE Acc. v17,Completed,1000,,67350,TRUE,Pay Utility,254719701463 - MARY KANYI KIARIE,,v17
QI55EXH0WJ,05/09/2022 11:49,05/09/2022 11:49,Pay Bill from 254723929380 - RHODAH K WAMBUA Acc. HEF,Completed,1400,,66350,TRUE,Pay Utility,254723929380 - RHODAH K WAMBUA,,HEF
QI57ETPP5J,05/09/2022 10:57,05/09/2022 10:57,Pay Bill Online from 0711117122 - Yassir Mwinyi Abdulrazaq Acc. ICE,Completed,1000,,64950,TRUE,Pay Bill Online,0711117122 - Yassir Mwinyi Abdulrazaq,,ICE
QI55ETI3YH,05/09/2022 10:54,05/09/2022 10:54,Pay Bill from 254712954563 - JOSEPH MUTISO KILONZO Acc. DAC ,Completed,600,,63950,TRUE,Pay Utility,254712954563 - JOSEPH MUTISO KILONZO,,DAC
QI53ESSUYT,05/09/2022 10:45,05/09/2022 10:45,Pay Bill from 254702216907 - FAITH MUSA Acc. KBE,Completed,600,,63350,TRUE,Pay Utility,254702216907 - FAITH MUSA,,KBE
QI51EREJUR,05/09/2022 10:25,05/09/2022 10:25,Pay Bill Online from 254728670882 - SHARAD EDWARD ADALA OLUM Acc. KCK,Completed,1800,,62750,TRUE,Pay Bill Online,254728670882 - SHARAD EDWARD ADALA OLUM,,KCK
QI57EO8PCJ,05/09/2022 09:39,05/09/2022 09:39,Pay Bill Online from 254792584569 - LUCY MWALIMO Acc. IAD,Completed,1400,,60950,TRUE,Pay Bill Online,254792584569 - LUCY MWALIMO,,IAD
QI53ENLVLD,05/09/2022 09:30,05/09/2022 09:30,Pay Bill from 254711163049 - OYUGI OCHIENG Acc. FCB,Completed,2000,,59550,TRUE,Pay Utility,254711163049 - OYUGI OCHIENG,,FCB
QI57EJ5GW1,05/09/2022 08:19,05/09/2022 08:19,Pay Bill from 254718818610 - HANNAH NALIAKA Acc. V23,Completed,400,,57550,TRUE,Pay Utility,254718818610 - HANNAH NALIAKA,,V23
QI55EIRGYB,05/09/2022 08:13,05/09/2022 08:13,Pay Bill Online from 254703180395 - JANE NYAGUTHII MWAGO Acc. IBE,Completed,200,,57150,TRUE,Pay Bill Online,254703180395 - JANE NYAGUTHII MWAGO,,IBE
QI54EFJ8JY,05/09/2022 07:03,05/09/2022 07:03,Pay Bill from 254721780448 - EVERLYNE MIDEVA CHOGO Acc. JCA,Completed,2000,,56950,TRUE,Pay Utility,254721780448 - EVERLYNE MIDEVA CHOGO,,JCA
QI45E8WEDJ,04/09/2022 22:00,04/09/2022 22:00,Pay Bill from 254714060203 - PATRICK MWANGOMBE MSAWUCHI Acc. KEI,Completed,200,,54950,TRUE,Pay Utility,254714060203 - PATRICK MWANGOMBE MSAWUCHI,,KEI
QI45E7S6RD,04/09/2022 21:39,04/09/2022 21:39,Pay Bill from 0717042461 - Sharon Nyangasi Shivachi Acc. V55 ,Completed,200,,54750,TRUE,Pay Utility,0717042461 - Sharon Nyangasi Shivachi,,V55
QI48E2GJU2,04/09/2022 20:30,04/09/2022 20:30,Pay Bill from 254724018163 - IRENE MUENI WILLY Acc. A4,Completed,600,,54550,TRUE,Pay Utility,254724018163 - IRENE MUENI WILLY,,A4
QI46DI14CI,04/09/2022 16:54,04/09/2022 16:54,Pay Bill from 0114765287 - JUDELEEN SHILOBELE AHINDUKHA Acc. IEA,Completed,400,,53950,TRUE,Pay Utility,0114765287 - JUDELEEN SHILOBELE AHINDUKHA,,IEA
QI44D3TDMO,04/09/2022 13:49,04/09/2022 13:49,Pay Bill Online from 254714855708 - KIPLANGAT SITIENEI Acc. FAE,Completed,1600,,53550,TRUE,Pay Bill Online,254714855708 - KIPLANGAT SITIENEI,,FAE
QI42D2COJW,04/09/2022 13:29,04/09/2022 13:29,Pay Bill from 254714536026 - LILIAN AWUOR ONYANGO Acc. HDC,Completed,600,,51950,TRUE,Pay Utility,254714536026 - LILIAN AWUOR ONYANGO,,HDC
QI41CYSIOZ,04/09/2022 12:35,04/09/2022 12:35,Pay Bill Online from 254721465713 - RHODA WAMBUI MWANGI Acc. jfh,Completed,1200,,51350,TRUE,Pay Bill Online,254721465713 - RHODA WAMBUI MWANGI,,jfh
QI40CW4KAC,04/09/2022 11:52,04/09/2022 11:52,Business Pay Bill by 488519 - NCBA  Bank M-pesa Acc. DCC via API,Completed,200,,50150,TRUE,Business Pay Bill via API,488519 - NCBA  Bank M-pesa,,DCC
QI41CQXWJT,04/09/2022 10:25,04/09/2022 10:25,Pay Bill from 0706563358 - HARRIET NYANCHAMA NYABERI Acc. FCC,Completed,600,,49950,TRUE,Pay Utility,0706563358 - HARRIET NYANCHAMA NYABERI,,FCC
QI40CPHXXK,04/09/2022 10:01,04/09/2022 10:01,Pay Bill from 254791341895 - Enos Nyaosi Ayuma Acc. D5,Completed,600,,49350,TRUE,Pay Utility,254791341895 - Enos Nyaosi Ayuma,,D5
QI45COFFK9,04/09/2022 09:43,04/09/2022 09:43,Pay Bill from 0718838251 - MARK KINYUA MAINA Acc. kfg,Completed,500,,48750,TRUE,Pay Utility,0718838251 - MARK KINYUA MAINA,,kfg
QI49CME1K5,04/09/2022 09:08,04/09/2022 09:08,Pay Bill from 0719349205 - Christabel Gakii Munene Acc. D1,Completed,200,,48250,TRUE,Pay Utility,0719349205 - Christabel Gakii Munene,,D1
QI39CA84HX,03/09/2022 22:04,03/09/2022 22:04,Pay Bill from 0715030019 - Omwenga Ong'era Stephen Acc. E1,Completed,600,,48050,TRUE,Pay Utility,0715030019 - Omwenga Ong'era Stephen,,E1
QI37BQCHZV,03/09/2022 18:34,03/09/2022 18:34,Pay Bill Online from 254721714178 - PHANICE JEROTICH KIPTOO Acc. FBF,Completed,600,,47450,TRUE,Pay Bill Online,254721714178 - PHANICE JEROTICH KIPTOO,,FBF
QI36BEG66I,03/09/2022 16:31,03/09/2022 16:31,Pay Bill from 254712091662 - BENARD OMONDI ROBY Acc. V16,Completed,400,,46850,TRUE,Pay Utility,254712091662 - BENARD OMONDI ROBY,,V16
QI35B1S1BN,03/09/2022 13:58,03/09/2022 13:58,Pay Bill from 254704934557 - BAKARI KITSAKA Acc. HDG,Completed,1400,,46450,TRUE,Pay Utility,254704934557 - BAKARI KITSAKA,,HDG
QI39ATHKIZ,03/09/2022 12:14,03/09/2022 12:14,Pay Bill Online from 254719134037 - KELVIN KITOO Acc. FAA,Completed,1000,,45050,TRUE,Pay Bill Online,254719134037 - KELVIN KITOO,,FAA
QI34ASZLP0,03/09/2022 12:08,03/09/2022 12:08,Pay Bill from 0769714506 - edith      gakii Acc. DDB,Completed,1200,,44050,TRUE,Pay Utility,0769714506 - edith      gakii,,DDB
QI38AMMA1S,03/09/2022 10:42,03/09/2022 10:42,Pay Bill from 254719398942 - NORAH WAYUA MUNYAO Acc. KDA,Completed,800,,42850,TRUE,Pay Utility,254719398942 - NORAH WAYUA MUNYAO,,KDA
QI36AFV898,03/09/2022 09:02,03/09/2022 09:02,Pay Bill from 254720439955 - GEOPHRY OKOTH Acc. D6,Completed,200,,42050,TRUE,Pay Utility,254720439955 - GEOPHRY OKOTH,,D6
QI30ACIOVU,03/09/2022 08:05,03/09/2022 08:05,Pay Bill Online from 254722258756 - DAVID KEMBOI Acc. HDA,Completed,600,,41850,TRUE,Pay Bill Online,254722258756 - DAVID KEMBOI,,HDA
QI25A4YHS7,02/09/2022 22:54,02/09/2022 22:54,Pay Bill from 254710239100 - PHILOMENA WOKI MUTHAMA Acc. KDK,Completed,1000,,41250,TRUE,Pay Utility,254710239100 - PHILOMENA WOKI MUTHAMA,,KDK
QI27A209ZB,02/09/2022 21:44,02/09/2022 21:44,Pay Bill from 254726636196 - BETHUEL KEMBOI KURUI Acc. JFD,Completed,400,,40250,TRUE,Pay Utility,254726636196 - BETHUEL KEMBOI KURUI,,JFD
QI22A1GBJU,02/09/2022 21:35,02/09/2022 21:35,Merchant Pay Utility Received from 7245661 -  OCHIENG CHEMIST  Acc. HFD,Completed,800,,39850,TRUE,Merchant Pay Utility via API,7245661 -  OCHIENG CHEMIST ,,HFD
QI249OJV8S,02/09/2022 19:18,02/09/2022 19:18,Pay Bill Online from 254722728975 - CURTIS MRIGA OMIDO Acc. IAH,Completed,800,,39050,TRUE,Pay Bill Online,254722728975 - CURTIS MRIGA OMIDO,,IAH
QI229995RI,02/09/2022 16:55,02/09/2022 16:55,Pay Bill from 254720550403 - GRACE WANGONDU Acc. jfi,Completed,1400,,38250,TRUE,Pay Utility,254720550403 - GRACE WANGONDU,,jfi
QI26977K44,02/09/2022 16:31,02/09/2022 16:31,Pay Bill Online from 254706898046 - STACY AKETCH OCHUKA Acc. KGK,Completed,600,,36850,TRUE,Pay Bill Online,254706898046 - STACY AKETCH OCHUKA,,KGK
QI2895F3C4,02/09/2022 16:09,02/09/2022 16:09,Pay Bill from 254714419834 - FAITH MWIKALI MUTHAMA Acc. d4,Completed,400,,36250,TRUE,Pay Utility,254714419834 - FAITH MWIKALI MUTHAMA,,d4
QI238X82MF,02/09/2022 14:23,02/09/2022 14:23,Pay Bill from 254722444622 - CHARITY KAGWAINI Acc. ffd,Completed,500,,35850,TRUE,Pay Utility,254722444622 - CHARITY KAGWAINI,,ffd
QI278P807J,02/09/2022 12:37,02/09/2022 12:37,Pay Bill Online from 254714552193 - CHRISTOPHER OCHIENG Acc. JGI,Completed,1050,,35350,TRUE,Pay Bill Online,254714552193 - CHRISTOPHER OCHIENG,,JGI
QI298NXO8N,02/09/2022 12:19,02/09/2022 12:19,Pay Bill from 254729690627 - BILLY KABIU Acc. KFJ,Completed,2200,,34300,TRUE,Pay Utility,254729690627 - BILLY KABIU,,KFJ
QI298KTWOB,02/09/2022 11:36,02/09/2022 11:36,Pay Bill from 0711769778 - PROTASIA BONIPHACE MANOSA Acc. IBB,Completed,1000,,32100,TRUE,Pay Utility,0711769778 - PROTASIA BONIPHACE MANOSA,,IBB
QI218GLFA1,02/09/2022 10:35,02/09/2022 10:35,Pay Bill from 254705396032 - NAOMI NYAWIRA NGURE Acc. V46,Completed,500,,31100,TRUE,Pay Utility,254705396032 - NAOMI NYAWIRA NGURE,,V46
QI228FDO9I,02/09/2022 10:17,02/09/2022 10:17,Pay Bill from 254790128716 - HELLEN NAPHTAL Acc. V11,Completed,800,,30600,TRUE,Pay Utility,254790128716 - HELLEN NAPHTAL,,V11
QI288E3S32,02/09/2022 09:58,02/09/2022 09:58,Pay Bill from 254798844460 - WYCLIFFE ODHIAMBO NYAGOA Acc. Kac,Completed,400,,29800,TRUE,Pay Utility,254798844460 - WYCLIFFE ODHIAMBO NYAGOA,,Kac
QI2189SN35,02/09/2022 08:52,02/09/2022 08:52,FSI to Pay Bill by 714888 - B2C LOOP VIA NCBA Acc. V40 via WEB by B2C LOOP VIA NCBA\Cbainitiator,Completed,1000,,29400,TRUE,FSI to Pay Bill via API,714888 - B2C LOOP VIA NCBA,,V40
QI167Q787G,01/09/2022 20:28,01/09/2022 20:28,Pay Bill from 0717216114 - Felix Njeru Mugambi Acc. kdf,Completed,1200,,28400,TRUE,Pay Utility,0717216114 - Felix Njeru Mugambi,,kdf
QI107Q6SQ2,01/09/2022 20:28,01/09/2022 20:28,Pay Bill Online from 0796121714 - janet   mwikali Acc. KBC,Completed,200,,27200,TRUE,Pay Bill Online,0796121714 - janet   mwikali,,KBC
QI177OBB13,01/09/2022 20:09,01/09/2022 20:09,Pay Bill from 254741573910 - VINCENT ODUOR OLIENG Acc. HBC,Completed,800,,27000,TRUE,Pay Utility,254741573910 - VINCENT ODUOR OLIENG,,HBC
QI147NQND2,01/09/2022 20:04,01/09/2022 20:04,Pay Bill Online from 254729796719 - JACINTA WANJIKU NJERI Acc. FFF,Completed,200,,26200,TRUE,Pay Bill Online,254729796719 - JACINTA WANJIKU NJERI,,FFF
QI187NGQCY,01/09/2022 20:02,01/09/2022 20:02,Pay Bill from 254715939283 - alex nyamai Acc. v07,Completed,1000,,26000,TRUE,Pay Utility,254715939283 - alex nyamai,,v07
QI157IGEZZ,01/09/2022 19:19,01/09/2022 19:19,Pay Bill Online from 254724587401 - RAPHAEL IRUNGU WAIHURA Acc. KGG,Completed,400,,25000,TRUE,Pay Bill Online,254724587401 - RAPHAEL IRUNGU WAIHURA,,KGG
QI1779FR6N,01/09/2022 17:59,01/09/2022 17:59,Pay Bill Online from 254700187806 - WINNIE OLIVIA AKOTH Acc. jec,Completed,600,,24600,TRUE,Pay Bill Online,254700187806 - WINNIE OLIVIA AKOTH,,jec
QI10763R20,01/09/2022 17:24,01/09/2022 17:24,Pay Bill from 254728084427 - MARY NABWIRE OKELLO Acc. FDF,Completed,1200,,24000,TRUE,Pay Utility,254728084427 - MARY NABWIRE OKELLO,,FDF
QI176TVRXV,01/09/2022 14:47,01/09/2022 14:47,Pay Bill Online from 254790130650 - CELESTINE AMBOKA Acc. B1,Completed,600,,22800,TRUE,Pay Bill Online,254790130650 - CELESTINE AMBOKA,,B1
QI156OAKUF,01/09/2022 13:31,01/09/2022 13:31,Pay Bill from 254726702082 - STEPHEN NJUGUNA Acc. V02,Completed,2000,,22200,TRUE,Pay Utility,254726702082 - STEPHEN NJUGUNA,,V02
QI166K9LL4,01/09/2022 12:36,01/09/2022 12:36,Pay Bill Online from 254795510441 - LEWIS MUEMA Acc. KEB,Completed,600,,20200,TRUE,Pay Bill Online,254795510441 - LEWIS MUEMA,,KEB
QI116B4WGR,01/09/2022 10:23,01/09/2022 10:23,Pay Bill Online from 254715002789 - ERICK NGUGI MAINA Acc. HAG,Completed,1400,,19600,TRUE,Pay Bill Online,254715002789 - ERICK NGUGI MAINA,,HAG
QI146AW844,01/09/2022 10:20,01/09/2022 10:20,Pay Bill Online from 0757699775 - BENARD MUIA MUTUA Acc. HCB,Completed,1800,,18200,TRUE,Pay Bill Online,0757699775 - BENARD MUIA MUTUA,,HCB
QI176ACXJH,01/09/2022 10:12,01/09/2022 10:12,Pay Bill Online from 254720696119 - DUNCAN OMONDI OKETCH Acc. IAG,Completed,400,,16400,TRUE,Pay Bill Online,254720696119 - DUNCAN OMONDI OKETCH,,IAG
QI1769OW5B,01/09/2022 10:02,01/09/2022 10:02,Pay Bill Online from 254720407659 - FRANCIS CHUMO Acc. KDG,Completed,600,,16000,TRUE,Pay Bill Online,254720407659 - FRANCIS CHUMO,,KDG
QI1967B825,01/09/2022 09:25,01/09/2022 09:25,Pay Bill Online from 254724821898 - ALLAN GISONI NYANGARESI Acc. DBA,Completed,200,,15400,TRUE,Pay Bill Online,254724821898 - ALLAN GISONI NYANGARESI,,DBA
QI1466Z2CS,01/09/2022 09:20,01/09/2022 09:20,Pay Bill Online from 254706144834 - WILKISTER OSUMO Acc. HFB,Completed,600,,15200,TRUE,Pay Bill Online,254706144834 - WILKISTER OSUMO,,HFB
QI176359XV,01/09/2022 08:17,01/09/2022 08:17,Pay Bill Online from 254706158280 - patience mutheu mbevi Acc. KFC,Completed,1200,,14600,TRUE,Pay Bill Online,254706158280 - patience mutheu mbevi,,KFC
