Receipt No.,Completion Time,Initiation Time,Details,Transaction Status,Paid In,Withdrawn,Balance,Balance Confirmed,Reason Type,Other Party Info,Linked Transaction ID,A/C No.
OHM0TRU70C,22/08/2020 07:13,22/08/2020 07:13,Utility Account to Organization Settlement Account,Completed,,-2200,0,TRUE,Utility Account to Organization Settlement Account,887674 - ANCIENT WELLS LTD 1,,
OHL8TO2IEG,21/08/2020 21:19,21/08/2020 21:19,Pay Bill from 254798083394 - LYDIAH AWUOR OKELLO Acc. V34,Completed,2200,,2200,TRUE,Pay Utility,254798083394 - LYDIAH AWUOR OKELLO,,V34
OHL6T0AY6C,21/08/2020 12:22,21/08/2020 12:22,Utility Account to Organization Settlement Account,Completed,,-18800,0,TRUE,Utility Account to Organization Settlement Account,887674 - ANCIENT WELLS LTD 1,,
OHK7SMAVUL,20/08/2020 21:03,20/08/2020 21:03,Pay Bill from 254707049818 - LUCKY TSUMA Acc. v19,Completed,6600,,18800,TRUE,Pay Utility,254707049818 - LUCKY TSUMA,,v19
OHJ3RMRGX3,19/08/2020 22:18,19/08/2020 22:18,Pay Bill from 254798083394 - LYDIAH AWUOR OKELLO Acc. V34,Completed,5600,,12200,TRUE,Pay Utility,254798083394 - LYDIAH AWUOR OKELLO,,V34
OHJ7R64ZPF,19/08/2020 16:01,19/08/2020 16:01,Pay Bill from 254721510646 - ANTHONY IRUNGU KARIUKI Acc. v41,Completed,6600,,6600,TRUE,Pay Utility,254721510646 - ANTHONY IRUNGU KARIUKI,,v41
