Receipt No.,Completion Time,Initiation Time,Details,Transaction Status,Paid In,Withdrawn,Balance,Balance Confirmed,Reason Type,Other Party Info,Linked Transaction ID,A/C No.
OKI6MTKL9U,18/11/2020 17:57,18/11/2020 17:57,Pay Bill from 254718138578 - PAULINE KIOKO Acc. KFD,Completed,12000,,27000,TRUE,Pay Utility,254718138578 - PAULINE KIOKO,,KFD
OKI9MOVN9P,18/11/2020 16:23,18/11/2020 16:23,Pay Bill from 254724611087 - Francis Mukindya Muoki Acc. kde,Completed,5000,,15000,TRUE,Pay Utility,254724611087 - Francis Mukindya Muoki,,kde
OKI6MHY12A,18/11/2020 13:34,18/11/2020 13:34,Pay Bill from 254798146452 - VALARY ODHIAMBO Acc. JEE,Completed,10000,,10000,TRUE,Pay Utility,254798146452 - VALARY ODHIAMBO,,JEE
OKI5M8KE6Z,18/11/2020 09:43,18/11/2020 09:43,Utility Account to Organization Settlement Account,Completed,,-4000,0,TRUE,Utility Account to Organization Settlement Account,979524 - ANCIENT WELLS PROPERTY MANAGERS 2,,
OKH3LK28MF,17/11/2020 16:47,17/11/2020 16:47,Pay Bill from 254703935626 - DAVID NGARI ITA Acc. FCD,Completed,1000,,4000,TRUE,Pay Utility with OD via STK,254703935626 - DAVID NGARI ITA,,FCD
OKH8LHN9B2,17/11/2020 15:56,17/11/2020 15:56,Pay Bill from 0748059595 - Rashid NASSIR Khamis Acc. DDA,Completed,3000,,3000,TRUE,Pay Utility,0748059595 - Rashid NASSIR Khamis,,DDA
OKH8LD1E9U,17/11/2020 14:05,17/11/2020 14:05,Utility Account to Organization Settlement Account,Completed,,-24500,0,TRUE,Utility Account to Organization Settlement Account,979524 - ANCIENT WELLS PROPERTY MANAGERS 2,,
OKH5L6UBS9,17/11/2020 11:34,17/11/2020 11:34,Pay Bill from 254703375006 - KEN RODGERS Acc. DBA,Completed,18000,,24500,TRUE,Pay Utility with OD via STK,254703375006 - KEN RODGERS,,DBA
OKH3L2N56L,17/11/2020 09:48,17/11/2020 09:48,Pay Bill from 254720927770 - CHRISTOPHER MWANGE Acc. HFC,Completed,6500,,6500,TRUE,Pay Utility with OD via STK,254720927770 - CHRISTOPHER MWANGE,,HFC
OKH6L24L9O,17/11/2020 09:34,17/11/2020 09:34,Utility Account to Organization Settlement Account,Completed,,-34500,0,TRUE,Utility Account to Organization Settlement Account,979524 - ANCIENT WELLS PROPERTY MANAGERS 2,,
OKH8L0JAA8,17/11/2020 08:51,17/11/2020 08:51,Pay Bill from 254722458136 - NADI GOLICHA Acc. KAA,Completed,7000,,34500,TRUE,Pay Utility,254722458136 - NADI GOLICHA,,KAA
OKG7KUOIO1,16/11/2020 22:18,16/11/2020 22:18,Pay Bill from 254720361605 - DAUD AMBER Acc. IGH,Completed,500,,27500,TRUE,Pay Utility,254720361605 - DAUD AMBER,,IGH
OKG8KC2XN8,16/11/2020 16:06,16/11/2020 16:06,Pay Bill from 254714774979 - ALICE KALEKYE MUTUA Acc. JCH,Completed,17000,,27000,TRUE,Pay Utility,254714774979 - ALICE KALEKYE MUTUA,,JCH
OKG7K88V69,16/11/2020 14:35,16/11/2020 14:35,Pay Bill from 0794446314 - Vincent Omondi Munjal Acc. jdc,Completed,10000,,10000,TRUE,Pay Utility,0794446314 - Vincent Omondi Munjal,,jdc
OKG5K82BA9,16/11/2020 14:31,16/11/2020 14:31,Utility Account to Organization Settlement Account,Completed,,-20000,0,TRUE,Utility Account to Organization Settlement Account,979524 - ANCIENT WELLS PROPERTY MANAGERS 2,,
OKG0K4CTO6,16/11/2020 13:03,16/11/2020 13:03,Pay Bill from 254720771562 - JEMIMAH WANGUI MAINA Acc. HAE,Completed,10000,,20000,TRUE,Pay Utility with OD via STK,254720771562 - JEMIMAH WANGUI MAINA,,HAE
OKG2K21KPY,16/11/2020 12:05,16/11/2020 12:05,Pay Bill Online from 254720451253 - JIMMY KIOGORA NKIROTE Acc. KBD,Completed,10000,,10000,TRUE,Pay Utility with OD Online,254720451253 - JIMMY KIOGORA NKIROTE,,KBD
OKG6K0J7VO,16/11/2020 11:27,16/11/2020 11:27,Utility Account to Organization Settlement Account,Completed,,-45500,0,TRUE,Utility Account to Organization Settlement Account,979524 - ANCIENT WELLS PROPERTY MANAGERS 2,,
OKG0JZJ7PK,16/11/2020 11:02,16/11/2020 11:02,Pay Bill from 254710537468 - DONALDO AMIOL JUAC AKEC Acc. jdg,Completed,1000,,45500,TRUE,Pay Utility,254710537468 - DONALDO AMIOL JUAC AKEC,,jdg
OKG8JQ1JSA,16/11/2020 01:56,16/11/2020 01:56,Pay Bill from 254703935626 - DAVID NGARI ITA Acc. FCD,Completed,1000,,44500,TRUE,Pay Utility,254703935626 - DAVID NGARI ITA,,FCD
