Receipt No.,Completion Time,Initiation Time,Details,Transaction Status,Paid In,Withdrawn,Balance,Balance Confirmed,Reason Type,Other Party Info,Linked Transaction ID,A/C No.
OFO67BTF0O,24/06/2020 09:22,24/06/2020 09:22,Pay Bill from 254728849248 - ISABELA KARIMI KIOGORA Acc. FAB,Completed,13000,,123500,TRUE,Pay Utility,254728849248 - ISABELA KARIMI KIOGORA,,FAB
OFN46RR3W4,23/06/2020 15:45,23/06/2020 15:45,Pay Bill from 254708225541 - JUDITH NKATHA SIMBA Acc. ICF,Completed,14000,,110500,TRUE,Pay Utility with OD via STK,254708225541 - JUDITH NKATHA SIMBA,,ICF
OFN36RBN6F,23/06/2020 15:32,23/06/2020 15:32,FSI to Pay Bill by 714888 - B2C LOOP VIA NCBA Acc. JAD via WEB by B2C LOOP VIA NCBA\Cbainitiator,Completed,16000,,96500,TRUE,FSI to Pay Bill via API,714888 - B2C LOOP VIA NCBA,,JAD
OFN26O9YKE,23/06/2020 14:00,23/06/2020 14:00,Pay Bill from 254724777705 - COLLINS AKASA Acc. KEG ,Completed,6000,,80500,TRUE,Pay Utility,254724777705 - COLLINS AKASA,,KEG
OFN56KLRF1,23/06/2020 12:07,23/06/2020 12:07,Pay Bill from 254729713741 - ALBANUS MUTISO Acc. JBD,Completed,16000,,74500,TRUE,Pay Utility,254729713741 - ALBANUS MUTISO,,JBD
OFM46A1ZV6,22/06/2020 21:29,22/06/2020 21:29,Pay Bill from 254726928933 - JOSHUA NDUNDA NZIOKA Acc. KCJ,Completed,2500,,58500,TRUE,Pay Utility with OD via STK,254726928933 - JOSHUA NDUNDA NZIOKA,,KCJ
OFM368UXHT,22/06/2020 20:43,22/06/2020 20:43,Pay Bill from 254727332450 - SALAH OSMAN ROBOW Acc. jba,Completed,22000,,56000,TRUE,Pay Utility,254727332450 - SALAH OSMAN ROBOW,,jba
OFM464OER4,22/06/2020 19:05,22/06/2020 19:05,Pay Bill from 254715774019 - BONIFACE BARAKO KATELO Acc. HGF,Completed,9000,,34000,TRUE,Pay Utility,254715774019 - BONIFACE BARAKO KATELO,,HGF
OFM15UWPLN,22/06/2020 15:10,22/06/2020 15:10,Pay Bill from 254722244406 - NOAH MELI Acc. Jac,Completed,10000,,25000,TRUE,Pay Utility,254722244406 - NOAH MELI,,Jac
OFM45UR1TW,22/06/2020 15:05,22/06/2020 15:05,Pay Bill from 254722569870 - LUKA KEITANY Acc. jfj,Completed,15000,,15000,TRUE,Pay Utility,254722569870 - LUKA KEITANY,,jfj
OFM25PJEQS,22/06/2020 12:28,22/06/2020 12:28,Utility Account to Organization Settlement Account,Completed,,-179000,0,TRUE,Utility Account to Organization Settlement Account,979524 - ANCIENT WELLS PROPERTY MANAGERS 2,,
OFM45NO674,22/06/2020 11:32,22/06/2020 11:32,Pay Bill from 254710370277 - MAYAKA NYABOKE BRIGED Acc. KFF,Completed,6000,,179000,TRUE,Pay Utility,254710370277 - MAYAKA NYABOKE BRIGED,,KFF
OFM25NM5KW,22/06/2020 11:30,22/06/2020 11:30,Pay Bill from 254719499823 - MOSES MWANZIA MUTHIANI Acc. JCC,Completed,10000,,173000,TRUE,Pay Utility with OD via STK,254719499823 - MOSES MWANZIA MUTHIANI,,JCC
OFM85FHRJ0,22/06/2020 01:18,22/06/2020 01:18,Pay Bill from 254721417560 - ANDREW SANDE Acc. JBJ,Completed,16000,,163000,TRUE,Pay Utility,254721417560 - ANDREW SANDE,,JBJ
OFL44WE4O6,21/06/2020 13:52,21/06/2020 13:52,Pay Bill from 254724611087 - Francis Mukindya Muoki Acc. Kde,Completed,5000,,147000,TRUE,Pay Utility,254724611087 - Francis Mukindya Muoki,,Kde
OFL74SPG8V,21/06/2020 12:02,21/06/2020 12:02,Pay Bill from 254720707838 - SHADRACK KIPCHUMBA Acc. KDI,Completed,5000,,142000,TRUE,Pay Utility with OD via STK,254720707838 - SHADRACK KIPCHUMBA,,KDI
OFK541NV8N,20/06/2020 15:15,20/06/2020 15:15,Pay Bill from 254725059213 - BRENDA MSHAI Acc. HCF,Completed,20000,,137000,TRUE,Pay Utility,254725059213 - BRENDA MSHAI,,HCF
OFK63W7EAK,20/06/2020 12:44,20/06/2020 12:44,Pay Bill from 254726676041 - TOBIAS ORINA Acc. KAD,Completed,22000,,117000,TRUE,Pay Utility,254726676041 - TOBIAS ORINA,,KAD
OFK93SJM4D,20/06/2020 10:56,20/06/2020 10:56,Pay Bill from 254704597694 - JANET MWENGA Acc. Jcd,Completed,18000,,95000,TRUE,Pay Utility,254704597694 - JANET MWENGA,,Jcd
OFK93REFPZ,20/06/2020 10:20,20/06/2020 10:20,Pay Bill from 254795449800 - MARTHA WANJIRU NJUGUNA Acc. HGD,Completed,500,,77000,TRUE,Pay Utility,254795449800 - MARTHA WANJIRU NJUGUNA,,HGD
OFK23QT2ZM,20/06/2020 10:02,20/06/2020 10:02,Pay Bill from 254712187712 - JUDELEEN AHINDUKHA SHILOBELE Acc. IGG,Completed,7500,,76500,TRUE,Pay Utility,254712187712 - JUDELEEN AHINDUKHA SHILOBELE,,IGG
OFJ532MPTT,19/06/2020 14:52,19/06/2020 14:52,Pay Bill Online from 254713831946 - KEVIN WAMBUA Acc. IAA,Completed,5000,,69000,TRUE,Pay Utility with OD Online,254713831946 - KEVIN WAMBUA,,IAA
OFJ732344V,19/06/2020 14:36,19/06/2020 14:36,Pay Bill from 0746736111 - juliet   kitondo Acc. IFH,Completed,33000,,64000,TRUE,Pay Utility,0746736111 - juliet   kitondo,,IFH
OFJ030C1D6,19/06/2020 13:45,19/06/2020 13:45,Pay Bill Online from 254726116777 - MARY NDUTA GOSHO Acc. JDB,Completed,15000,,31000,TRUE,Pay Bill Online,254726116777 - MARY NDUTA GOSHO,,JDB
OFJ82V2AZS,19/06/2020 11:09,19/06/2020 11:09,Pay Bill from 254741311105 - Simon Odala Wabwire Acc. KAC,Completed,2500,,16000,TRUE,Pay Utility,254741311105 - Simon Odala Wabwire,,KAC
OFI72H3PFP,18/06/2020 19:27,18/06/2020 19:27,Pay Bill from 254716369842 - HUMMAM HAMID MOHAMED SAID AMBER Acc. FGC,Completed,4000,,13500,TRUE,Pay Utility,254716369842 - HUMMAM HAMID MOHAMED SAID AMBER,,FGC
OFI02F1MLY,18/06/2020 18:49,18/06/2020 18:49,Pay Bill from 254711397174 - JASEL HOPE ANTONINA Acc. kef,Completed,4000,,9500,TRUE,Pay Utility,254711397174 - JASEL HOPE ANTONINA,,kef
OFI12B9AFT,18/06/2020 17:29,18/06/2020 17:29,Pay Bill from 254724702305 - MARY MATHENGE Acc. KAC,Completed,2500,,5500,TRUE,Pay Utility,254724702305 - MARY MATHENGE,,KAC
OFI629R3L4,18/06/2020 16:55,18/06/2020 16:55,FSI to Pay Bill by 714888 - B2C LOOP VIA NCBA Acc. JAD via WEB by B2C LOOP VIA NCBA\Cbainitiator,Completed,3000,,3000,TRUE,FSI to Pay Bill via API,714888 - B2C LOOP VIA NCBA,,JAD
OFI424L19C,18/06/2020 14:32,18/06/2020 14:32,Utility Account to Organization Settlement Account,Completed,,-10000,0,TRUE,Utility Account to Organization Settlement Account,979524 - ANCIENT WELLS PROPERTY MANAGERS 2,,
OFI221UUN6,18/06/2020 13:13,18/06/2020 13:13,Pay Bill from 254726676041 - TOBIAS ORINA Acc. KAD,Completed,10000,,10000,TRUE,Pay Utility,254726676041 - TOBIAS ORINA,,KAD
OFI620M624,18/06/2020 12:37,18/06/2020 12:37,Utility Account to Organization Settlement Account,Completed,,-87000,0,TRUE,Utility Account to Organization Settlement Account,979524 - ANCIENT WELLS PROPERTY MANAGERS 2,,
