Receipt No.,Completion Time,Initiation Time,Details,Transaction Status,Paid In,Withdrawn,Balance,Balance Confirmed,Reason Type,Other Party Info,Linked Transaction ID,A/C No.
RKA8XHEBXU,10/11/2023 11:36,10/11/2023 11:36,Utility Account to Organization Settlement Account,Completed,,-45000,0,TRUE,Utility Account to Organization Settlement Account,979524 - ANCIENT WELLS PROPERTY MANAGERS 2,,
RKA9XCTCPN,10/11/2023 10:54,10/11/2023 10:54,Pay Bill from 254726028330 - JOHN WAMBUA Acc. IFH,Completed,15000,,45000,TRUE,Pay Utility,254726028330 - JOHN WAMBUA,,IFH
RKA6X850KK,10/11/2023 10:11,10/11/2023 10:11,Pay Bill from 254724201046 - GIDEON NDOLO Acc. KFH,Completed,8000,,30000,TRUE,Pay Utility,254724201046 - GIDEON NDOLO,,KFH
RKA4X1N9O4,10/11/2023 09:07,10/11/2023 09:07,Pay Bill from 254713205244 - ROBERT OGALO Acc. HFB,Completed,16000,,22000,TRUE,Pay Utility,254713205244 - ROBERT OGALO,,HFB
RK93WHPSOH,09/11/2023 22:51,09/11/2023 22:51,Pay Bill from 0743789968 - Dallias Thanare Githara Acc. hbb,Completed,2000,,6000,TRUE,Pay Utility,0743789968 - Dallias Thanare Githara,,hbb
RK90VUTCZI,09/11/2023 19:31,09/11/2023 19:31,Pay Bill from 254720814822 - JAMES OTIENO OPAR Acc. jgj,Completed,4000,,4000,TRUE,Pay Utility,254720814822 - JAMES OTIENO OPAR,,jgj
RK94VNFWZ8,09/11/2023 18:51,09/11/2023 18:51,Utility Account to Organization Settlement Account,Completed,,-113500,0,TRUE,Utility Account to Organization Settlement Account,979524 - ANCIENT WELLS PROPERTY MANAGERS 2,,
RK95VAEWLR,09/11/2023 17:29,09/11/2023 17:29,Pay Bill from 254757172090 - Laureen Adhiambo Situma Acc. KCJ,Completed,33000,,113500,TRUE,Pay Utility with OD via STK,254757172090 - Laureen Adhiambo Situma,,KCJ
RK95UV931L,09/11/2023 15:21,09/11/2023 15:21,Pay Bill from 254726337163 - HALIMA ALI HASSAN Acc. DDA,Completed,8500,,80500,TRUE,Pay Utility,254726337163 - HALIMA ALI HASSAN,,DDA
RK91UU8SUZ,09/11/2023 15:11,09/11/2023 15:11,Pay Bill Online from 254715892656 - DENNIS MUSYOKA MUOKI Acc. kfa,Completed,2000,,72000,TRUE,Pay Bill Online,254715892656 - DENNIS MUSYOKA MUOKI,,kfa
RK93UNZLBN,09/11/2023 14:13,09/11/2023 14:13,Pay Bill from 254718599145 - KITEMI KIEMA Acc. KGD,Completed,10000,,70000,TRUE,Pay Utility,254718599145 - KITEMI KIEMA,,KGD
RK99UCHJQP,09/11/2023 12:29,09/11/2023 12:29,Pay Bill Online from 254710146965 - BRENDA DORCAS MABONGA Acc. hfg,Completed,15000,,60000,TRUE,Pay Bill Online,254710146965 - BRENDA DORCAS MABONGA,,hfg
RK96U6Y3J4,09/11/2023 11:35,09/11/2023 11:35,Pay Bill Online from 0797251813 - Maureen   njoki Acc. HAC,Completed,10000,,45000,TRUE,Pay Bill Online,0797251813 - Maureen   njoki,,HAC
RK95U6SY0H,09/11/2023 11:34,09/11/2023 11:34,Pay Bill from 254717747775 - QADRA SHEIKH ABDULLAHI Acc. DAB,Completed,33000,,35000,TRUE,Pay Utility,254717747775 - QADRA SHEIKH ABDULLAHI,,DAB
RK97TXPW7L,09/11/2023 10:06,09/11/2023 10:06,Pay Bill Online from 254715892656 - DENNIS MUSYOKA MUOKI Acc. kfa,Completed,2000,,2000,TRUE,Pay Bill Online,254715892656 - DENNIS MUSYOKA MUOKI,,kfa
RK94TP4QN2,09/11/2023 08:36,09/11/2023 08:36,Utility Account to Organization Settlement Account,Completed,,-198100,0,TRUE,Utility Account to Organization Settlement Account,979524 - ANCIENT WELLS PROPERTY MANAGERS 2,,
RK84SM7MK0,08/11/2023 19:27,08/11/2023 19:27,Pay Bill from 254724477912 - SAMUEL MURIMI Acc. HCD,Completed,10000,,198100,TRUE,Pay Utility,254724477912 - SAMUEL MURIMI,,HCD
RK83SKQ9NH,08/11/2023 19:19,08/11/2023 19:19,Pay Bill Online from 254720451253 - JIMMY KIOGORA NKIROTE Acc. KBD,Completed,100,,188100,TRUE,Pay Utility with OD Online,254720451253 - JIMMY KIOGORA NKIROTE,,KBD
RK88SF9HZE,08/11/2023 18:49,08/11/2023 18:49,Pay Bill from 254796069018 - PEACE KIMEU Acc. JAH,Completed,16000,,188000,TRUE,Pay Utility,254796069018 - PEACE KIMEU,,JAH
RK88S6UNHY,08/11/2023 17:57,08/11/2023 17:57,Pay Bill Online from 254710814215 - JOAN NYAMBURA KAMAU Acc. ifb,Completed,15000,,172000,TRUE,Pay Bill Online,254710814215 - JOAN NYAMBURA KAMAU,,ifb
RK85S6M509,08/11/2023 17:56,08/11/2023 17:56,Pay Bill Online from 254715892656 - DENNIS MUSYOKA MUOKI Acc. kfa,Completed,2000,,157000,TRUE,Pay Bill Online,254715892656 - DENNIS MUSYOKA MUOKI,,kfa
RK82S4MKT4,08/11/2023 17:42,08/11/2023 17:42,Pay Bill from 254719779657 - SAMUEL NJOROGE Acc. JGA,Completed,15000,,155000,TRUE,Pay Utility,254719779657 - SAMUEL NJOROGE,,JGA
RK80S09HN8,08/11/2023 17:10,08/11/2023 17:10,Pay Bill Online from 254720620070 - Michelle Mwihaki Ngaruiya Acc. JEJ,Completed,15000,,140000,TRUE,Pay Utility with OD Online,254720620070 - Michelle Mwihaki Ngaruiya,,JEJ
RK81RUWW9V,08/11/2023 16:25,08/11/2023 16:25,Pay Bill from 254717801919 - MARCELINE AKINYI Acc. IAF,Completed,20000,,125000,TRUE,Pay Utility,254717801919 - MARCELINE AKINYI,,IAF
RK89RMCTR7,08/11/2023 15:07,08/11/2023 15:07,Pay Bill Online from 254722521028 - CHARLES MONYONCHO Acc. JDA,Completed,20000,,105000,TRUE,Pay Bill Online,254722521028 - CHARLES MONYONCHO,,JDA
RK89RJBBXN,08/11/2023 14:38,08/11/2023 14:38,Pay Bill from 254799432095 - Patricia Vilita Mutisya Acc. HBE,Completed,10000,,85000,TRUE,Pay Utility,254799432095 - Patricia Vilita Mutisya,,HBE
RK85RFA17Z,08/11/2023 14:01,08/11/2023 14:01,Pay Bill from 254717985596 - NICHOLAS KIPKOECH BUTIA Acc. hcf,Completed,9000,,75000,TRUE,Pay Utility,254717985596 - NICHOLAS KIPKOECH BUTIA,,hcf
RK85RE8L7X,08/11/2023 13:52,08/11/2023 13:52,Pay Bill from 254700198550 - BENARD ONYANGO Acc. DBB,Completed,16000,,66000,TRUE,Pay Utility,254700198550 - BENARD ONYANGO,,DBB
RK89R6DVEN,08/11/2023 12:40,08/11/2023 12:40,Merchant Pay Utility Received from 6227093 -     RACHAEL WANZA MUIA      Acc. Wines,Completed,6000,,50000,TRUE,Merchant Pay Utility via API,6227093 -     RACHAEL WANZA MUIA     ,,Wines
RK88R22HWS,08/11/2023 11:59,08/11/2023 11:59,Pay Bill from 254714710944 - MERCY NDUNG'U Acc. hff,Completed,10000,,44000,TRUE,Pay Utility,254714710944 - MERCY NDUNG'U,,hff
RK85R1R6IL,08/11/2023 11:55,08/11/2023 11:55,Pay Bill from 254711123196 - JUDITH MUTUA Acc. FEA,Completed,26000,,34000,TRUE,Pay Utility,254711123196 - JUDITH MUTUA,,FEA
RK81R0OSW5,08/11/2023 11:45,08/11/2023 11:45,Pay Bill from 0115327960 - JOSEPH WAMBUA MUSYOKA Acc. IBG,Completed,8000,,8000,TRUE,Pay Utility,0115327960 - JOSEPH WAMBUA MUSYOKA,,IBG
RK89QWAV37,08/11/2023 11:02,08/11/2023 11:02,Utility Account to Organization Settlement Account,Completed,,-65000,0,TRUE,Utility Account to Organization Settlement Account,979524 - ANCIENT WELLS PROPERTY MANAGERS 2,,
RK83QL6FYB,08/11/2023 09:10,08/11/2023 09:10,Pay Bill Online from 254728886864 - MOULINE ONYANGO Acc. IAA,Completed,25000,,65000,TRUE,Pay Bill Online,254728886864 - MOULINE ONYANGO,,IAA
RK84QI71FC,08/11/2023 08:37,08/11/2023 08:37,Pay Bill from 254725621394 - RACHAEL WACHIRA Acc. Jfb,Completed,15000,,40000,TRUE,Pay Utility,254725621394 - RACHAEL WACHIRA,,Jfb
RK85QFLLS9,08/11/2023 08:08,08/11/2023 08:08,Pay Bill from 254705641030 - FRIDAH WAENI MUITHYA Acc. JEH,Completed,16000,,25000,TRUE,Pay Utility,254705641030 - FRIDAH WAENI MUITHYA,,JEH
RK83QEFKQR,08/11/2023 07:53,08/11/2023 07:53,Pay Bill from 0757053882 - FAITH MWENDE MBINYA Acc. HDF,Completed,9000,,9000,TRUE,Pay Utility,0757053882 - FAITH MWENDE MBINYA,,HDF
RK82QEEZV2,08/11/2023 07:53,08/11/2023 07:53,Utility Account to Organization Settlement Account,Completed,,-127500,0,TRUE,Utility Account to Organization Settlement Account,979524 - ANCIENT WELLS PROPERTY MANAGERS 2,,
RK89QC7I1F,08/11/2023 07:23,08/11/2023 07:23,Pay Bill from 254720814822 - JAMES OTIENO OPAR Acc. jgj,Completed,5000,,127500,TRUE,Pay Utility,254720814822 - JAMES OTIENO OPAR,,jgj
RK87QA27I9,08/11/2023 06:45,08/11/2023 06:45,Pay Bill from 254721780448 - EVERLYNE MIDEVA CHOGO Acc. JCA ,Completed,20000,,122500,TRUE,Pay Utility with OD via STK,254721780448 - EVERLYNE MIDEVA CHOGO,,JCA
RK85Q570YD,08/11/2023 00:02,08/11/2023 00:02,Pay Bill from 0714142211 - KAREN KENDI NGERE Acc. JDF,Completed,8000,,102500,TRUE,Pay Utility,0714142211 - KAREN KENDI NGERE,,JDF
RK73PSPYX3,07/11/2023 20:50,07/11/2023 20:50,Pay Bill from 0799122666 - ERIC WAWERU KIAMA Acc. JDI,Completed,20000,,94500,TRUE,Pay Utility,0799122666 - ERIC WAWERU KIAMA,,JDI
RK73P76UYL,07/11/2023 18:39,07/11/2023 18:39,Pay Bill from 254799188200 - PURITY KURUI Acc. HDC,Completed,10500,,74500,TRUE,Pay Utility,254799188200 - PURITY KURUI,,HDC
RK70OOXE6O,07/11/2023 16:32,07/11/2023 16:32,Pay Bill from 254703393963 - WYCLIFF JUMA Acc. IBC,Completed,9000,,64000,TRUE,Pay Utility,254703393963 - WYCLIFF JUMA,,IBC
RK71ONGHQP,07/11/2023 16:19,07/11/2023 16:19,Pay Bill from 254705346201 - NZIOKA SILA Acc. JDG,Completed,10000,,55000,TRUE,Pay Utility,254705346201 - NZIOKA SILA,,JDG
RK78OLNL22,07/11/2023 16:03,07/11/2023 16:03,Pay Bill from 254725754547 - MWACHIRO GEORGE DECHE Acc. DFC,Completed,20000,,45000,TRUE,Pay Utility,254725754547 - MWACHIRO GEORGE DECHE,,DFC
RK79OKF7JJ,07/11/2023 15:52,07/11/2023 15:52,Pay Bill from 254723499628 - CLINTON JOSEPH MUHARI Acc. hfh,Completed,16000,,25000,TRUE,Pay Utility,254723499628 - CLINTON JOSEPH MUHARI,,hfh
RK74OKA6GS,07/11/2023 15:51,07/11/2023 15:51,Pay Bill from 0769952691 - ANNA ALUOCH OPONDO Acc. KGC,Completed,7000,,9000,TRUE,Pay Utility,0769952691 - ANNA ALUOCH OPONDO,,KGC
RK78OJK9CE,07/11/2023 15:44,07/11/2023 15:44,Pay Bill from 254710106394 - LUCY TONKEI Acc. KBG,Completed,2000,,2000,TRUE,Pay Utility with OD via STK,254710106394 - LUCY TONKEI,,KBG
RK78O52LRE,07/11/2023 13:34,07/11/2023 13:34,Utility Account to Organization Settlement Account,Completed,,-36000,0,TRUE,Utility Account to Organization Settlement Account,979524 - ANCIENT WELLS PROPERTY MANAGERS 2,,
RK76O4NMDK,07/11/2023 13:30,07/11/2023 13:30,Pay Bill from 254715742045 - FRIDAH KIEMA Acc. HGC,Completed,9000,,36000,TRUE,Pay Utility,254715742045 - FRIDAH KIEMA,,HGC
RK78O4CZVC,07/11/2023 13:28,07/11/2023 13:28,Pay Bill from 0757604316 - MOHAMED AYUB MUCHEKE Acc. FCA,Completed,6000,,27000,TRUE,Pay Utility,0757604316 - MOHAMED AYUB MUCHEKE,,FCA
RK75NZ5HBT,07/11/2023 12:41,07/11/2023 12:41,Pay Bill Online from 254742911013 - HANEST AMIMO Acc. IED,Completed,11000,,21000,TRUE,Pay Bill Online,254742911013 - HANEST AMIMO,,IED
RK75NXYJIN,07/11/2023 12:31,07/11/2023 12:31,Business Pay Bill by 998094 - COOP TO PAYBILL Acc. IFF via API,Completed,10000,,10000,TRUE,Business Pay Bill via API,998094 - COOP TO PAYBILL,,IFF
RK72NWLLIC,07/11/2023 12:18,07/11/2023 12:18,Utility Account to Organization Settlement Account,Completed,,-125500,0,TRUE,Utility Account to Organization Settlement Account,979524 - ANCIENT WELLS PROPERTY MANAGERS 2,,
RK72NUZSQA,07/11/2023 12:03,07/11/2023 12:03,Pay Bill from 254716167517 - BENARD MUTUA Acc. Hcb,Completed,16000,,125500,TRUE,Pay Utility,254716167517 - BENARD MUTUA,,Hcb
RK76NUKVN4,07/11/2023 11:59,07/11/2023 11:59,Pay Bill from 254721667039 - ELIAS KIPLAGAT Acc. KAC,Completed,11000,,109500,TRUE,Pay Utility,254721667039 - ELIAS KIPLAGAT,,KAC
RK74NUERVE,07/11/2023 11:58,07/11/2023 11:58,Pay Bill Online from 254703285159 - Enock Michieka Mochoge Acc. KAE,Completed,10000,,98500,TRUE,Pay Bill Online,254703285159 - Enock Michieka Mochoge,,KAE
RK77NQO1BH,07/11/2023 11:21,07/11/2023 11:21,Pay Bill from 254724379488 - NICHOLAS KOOME Acc. JDE,Completed,9500,,88500,TRUE,Pay Utility,254724379488 - NICHOLAS KOOME,,JDE
RK79NQ2KO9,07/11/2023 11:15,07/11/2023 11:15,Pay Bill from 254725478531 - KIPKORIR KUTO Acc. DFB,Completed,15000,,79000,TRUE,Pay Utility,254725478531 - KIPKORIR KUTO,,DFB
RK72NOTZ2O,07/11/2023 11:03,07/11/2023 11:03,Pay Bill Online from 254720381965 - JAMES NGUGI MWANIKI Acc. JBI,Completed,20000,,64000,TRUE,Pay Bill Online,254720381965 - JAMES NGUGI MWANIKI,,JBI
RK71NJEDQV,07/11/2023 10:12,07/11/2023 10:12,Pay Bill from 254724862849 - Ann Fresiah Kinyua Acc. HDD,Completed,16000,,44000,TRUE,Pay Utility,254724862849 - Ann Fresiah Kinyua,,HDD
RK73NG0WU7,07/11/2023 09:38,07/11/2023 09:38,Pay Bill from 0743258188 - NANCY WANJIRU KIRATHE Acc. KFD,Completed,19000,,28000,TRUE,Pay Utility,0743258188 - NANCY WANJIRU KIRATHE,,KFD
RK75NFI3ND,07/11/2023 09:33,07/11/2023 09:33,Pay Bill from 0740208174 - Josephine adhiambo koyi Acc. Ifg,Completed,9000,,9000,TRUE,Pay Utility,0740208174 - Josephine adhiambo koyi,,Ifg
RK77NCH1OZ,07/11/2023 09:01,07/11/2023 09:01,Utility Account to Organization Settlement Account,Completed,,-279500,0,TRUE,Utility Account to Organization Settlement Account,979524 - ANCIENT WELLS PROPERTY MANAGERS 2,,
RK73N4EUWZ,07/11/2023 07:28,07/11/2023 07:28,Pay Bill from 0791379873 - Joseph Kyalo Sila Acc. HAH,Completed,16000,,279500,TRUE,Pay Utility,0791379873 - Joseph Kyalo Sila,,HAH
RK75N3O3O3,07/11/2023 07:17,07/11/2023 07:17,Pay Bill from 254700557767 - BAKHITA MWENDE MUANGE Acc. kcb,Completed,16000,,263500,TRUE,Pay Utility,254700557767 - BAKHITA MWENDE MUANGE,,kcb
RK72MX48PA,07/11/2023 00:30,07/11/2023 00:30,Pay Bill from 254700430569 - EDITH   GAKII Acc. DDB,Completed,16000,,247500,TRUE,Pay Utility,254700430569 - EDITH   GAKII,,DDB
RK67ML8GCN,06/11/2023 21:00,06/11/2023 21:00,Pay Bill Online from 254745391294 - Faith Moraa Sitemba Acc. IFC,Completed,8000,,231500,TRUE,Pay Bill Online,254745391294 - Faith Moraa Sitemba,,IFC
RK64MDZ14Y,06/11/2023 20:06,06/11/2023 20:06,Pay Bill Online from 254718663397 - JIMMY MUNYAO NZIOKI Acc. DCB,Completed,16000,,223500,TRUE,Pay Bill Online,254718663397 - JIMMY MUNYAO NZIOKI,,DCB
RK65M7W8OR,06/11/2023 19:29,06/11/2023 19:29,Pay Bill from 0707289361 - JOSEPHIN ANYANGO OLUOCH Acc. HGD,Completed,9000,,207500,TRUE,Pay Utility,0707289361 - JOSEPHIN ANYANGO OLUOCH,,HGD
RK61LTVKEL,06/11/2023 18:10,06/11/2023 18:10,Pay Bill from 254741472886 - TERESIA NGINA MWANGI Acc. v50,Completed,10000,,198500,TRUE,Pay Utility,254741472886 - TERESIA NGINA MWANGI,,v50
RK62LLLJKK,06/11/2023 17:13,06/11/2023 17:13,Pay Bill Online from 0790097091 - Daisy Akinyi ochieng Acc. KFI,Completed,25000,,188500,TRUE,Pay Bill Online,0790097091 - Daisy Akinyi ochieng,,KFI
RK64LHZ52E,06/11/2023 16:45,06/11/2023 16:45,Pay Bill from 254720947704 - JOSPHAT JOHN MUSYOKI Acc. HDD,Completed,10000,,163500,TRUE,Pay Utility with OD via STK,254720947704 - JOSPHAT JOHN MUSYOKI,,HDD
RK66LEW2DE,06/11/2023 16:19,06/11/2023 16:19,Business Pay Bill by 488519 - NCBA  Bank M-pesa Acc. DEC via API,Completed,19500,,153500,TRUE,Business Pay Bill via API,488519 - NCBA  Bank M-pesa,,DEC
RK63LAJFC1,06/11/2023 15:41,06/11/2023 15:41,Pay Bill from 0743789968 - Dallias Thanare Githara Acc. hbb,Completed,4000,,134000,TRUE,Pay Utility,0743789968 - Dallias Thanare Githara,,hbb
RK61L595BP,06/11/2023 14:54,06/11/2023 14:54,Pay Bill from 254704303496 - PETER MACHARIA WAIGANJO Acc. DFD,Completed,20000,,130000,TRUE,Pay Utility,254704303496 - PETER MACHARIA WAIGANJO,,DFD
RK61L51H39,06/11/2023 14:52,06/11/2023 14:52,Pay Bill Online from 254718253322 - DUNCAN MOCHOGE Acc. JFJ,Completed,15000,,110000,TRUE,Pay Bill Online,254718253322 - DUNCAN MOCHOGE,,JFJ
RK66L0LSD8,06/11/2023 14:12,06/11/2023 14:12,Pay Bill from 254792840128 - Edwin Kingori Acc. HBF,Completed,9000,,95000,TRUE,Pay Utility,254792840128 - Edwin Kingori,,HBF
RK68KZ7XC6,06/11/2023 14:00,06/11/2023 14:00,Pay Bill from 254703276305 - MARTHA MUSYOKA Acc. IAI,Completed,15000,,86000,TRUE,Pay Utility,254703276305 - MARTHA MUSYOKA,,IAI
RK64KYTHE0,06/11/2023 13:57,06/11/2023 13:57,Pay Bill Online from 254715764212 - BANCE ISHEMINYE Acc. JFE,Completed,9000,,71000,TRUE,Pay Bill Online,254715764212 - BANCE ISHEMINYE,,JFE
RK69KXJCO1,06/11/2023 13:46,06/11/2023 13:46,Pay Bill from 254798524621 - MERCY CHESANG Acc. jcj,Completed,16000,,62000,TRUE,Pay Utility,254798524621 - MERCY CHESANG,,jcj
RK69KWIE8H,06/11/2023 13:37,06/11/2023 13:37,Pay Bill Online from 254713966424 - NDUTI MUTHUI Acc. jed,Completed,15000,,46000,TRUE,Pay Bill Online,254713966424 - NDUTI MUTHUI,,jed
RK68KP3PGY,06/11/2023 12:32,06/11/2023 12:32,Pay Bill from 254720051502 - JOHN OCHIENG ONYANGO Acc. JFA ,Completed,5000,,31000,TRUE,Pay Utility,254720051502 - JOHN OCHIENG ONYANGO,,JFA
RK65KMIZTL,06/11/2023 12:08,06/11/2023 12:08,Pay Bill from 0114973420 - WENDY KEMUNTO NYANDIKO Acc. ffc,Completed,9000,,26000,TRUE,Pay Utility,0114973420 - WENDY KEMUNTO NYANDIKO,,ffc
RK61KK06S7,06/11/2023 11:44,06/11/2023 11:44,Pay Bill from 254721698818 - SAIDA SHUKRI GUFU Acc. JEA,Completed,17000,,17000,TRUE,Pay Utility,254721698818 - SAIDA SHUKRI GUFU,,JEA
RK63KJNQJV,06/11/2023 11:41,06/11/2023 11:41,Utility Account to Organization Settlement Account,Completed,,-159500,0,TRUE,Utility Account to Organization Settlement Account,979524 - ANCIENT WELLS PROPERTY MANAGERS 2,,
RK67KIN1LT,06/11/2023 11:31,06/11/2023 11:31,Pay Bill from 254700811449 - JOHN MULIMA ENANE Acc. HCE,Completed,10500,,159500,TRUE,Pay Utility,254700811449 - JOHN MULIMA ENANE,,HCE
RK60K98N5U,06/11/2023 10:03,06/11/2023 10:03,Pay Bill Online from 254799696271 - CALVIN OCHIDO Acc. FEB,Completed,15000,,149000,TRUE,Pay Bill Online,254799696271 - CALVIN OCHIDO,,FEB
RK65K4DR47,06/11/2023 09:14,06/11/2023 09:14,Pay Bill from 254719317219 - PHILIP MBOYA Acc. JDH,Completed,16000,,134000,TRUE,Pay Utility with OD via STK,254719317219 - PHILIP MBOYA,,JDH
RK66JZOBWA,06/11/2023 08:23,06/11/2023 08:23,Pay Bill Online from 254704111133 - ELVIS OTIENO Acc. HFD,Completed,1000,,118000,TRUE,Pay Bill Online,254704111133 - ELVIS OTIENO,,HFD
RK67JZ3PWD,06/11/2023 08:17,06/11/2023 08:17,Pay Bill from 254714180761 - MARTIN MBAU Acc. KDI,Completed,11000,,117000,TRUE,Pay Utility,254714180761 - MARTIN MBAU,,KDI
RK67JX0ZB9,06/11/2023 07:53,06/11/2023 07:53,Business Pay Bill by 488519 - NCBA  Bank M-pesa Acc. HGH via API,Completed,15000,,106000,TRUE,Business Pay Bill via API,488519 - NCBA  Bank M-pesa,,HGH
RK58JM6EBQ,05/11/2023 23:10,05/11/2023 23:10,Pay Bill from 254703935626 - DAVID NGARI ITA Acc. FCD,Completed,1000,,91000,TRUE,Pay Utility,254703935626 - DAVID NGARI ITA,,FCD
RK54JJDFSA,05/11/2023 22:11,05/11/2023 22:11,Pay Bill from 254708910373 - MUNINI ISAAC Acc. IEB,Completed,15000,,90000,TRUE,Pay Utility,254708910373 - MUNINI ISAAC,,IEB
RK50JIDHKI,05/11/2023 21:57,05/11/2023 21:57,Pay Bill from 0111786209 - Jacob Kipkogei Kangogo Acc. IBA,Completed,15000,,75000,TRUE,Pay Utility,0111786209 - Jacob Kipkogei Kangogo,,IBA
RK56JEKD6Y,05/11/2023 21:12,05/11/2023 21:12,Pay Bill from 254723411873 - FREDRICK CHERUIYOT Acc. jbf,Completed,8000,,60000,TRUE,Pay Utility,254723411873 - FREDRICK CHERUIYOT,,jbf
RK53J5S7Y5,05/11/2023 19:59,05/11/2023 19:59,Pay Bill from 254729450678 - GRACE NDUNGE Acc. fba,Completed,15000,,52000,TRUE,Pay Utility,254729450678 - GRACE NDUNGE,,fba
RK52J3KEHY,05/11/2023 19:44,05/11/2023 19:44,Pay Bill Online from 254720787158 - AMOS CHELANG'A Acc. KCG,Completed,10000,,37000,TRUE,Pay Bill Online,254720787158 - AMOS CHELANG'A,,KCG
RK55J1Y03N,05/11/2023 19:33,05/11/2023 19:33,Pay Bill Online from 254706063848 - KELVIN NJUGUNA MAINA Acc. ICF,Completed,11000,,27000,TRUE,Pay Utility with OD Online,254706063848 - KELVIN NJUGUNA MAINA,,ICF
RK50I7RGQG,05/11/2023 15:56,05/11/2023 15:56,Pay Bill from 254712283818 - OYUGI OCHIENG Acc. FCB,Completed,16000,,16000,TRUE,Pay Utility,254712283818 - OYUGI OCHIENG,,FCB
RK57I5J05F,05/11/2023 15:36,05/11/2023 15:36,Utility Account to Organization Settlement Account,Completed,,-304400,0,TRUE,Utility Account to Organization Settlement Account,979524 - ANCIENT WELLS PROPERTY MANAGERS 2,,
RK56I5IS3E,05/11/2023 15:36,05/11/2023 15:36,Pay Bill Online from 254721974995 - BERNICE MANGOKA Acc. KFK,Completed,16000,,304400,TRUE,Pay Bill Online,254721974995 - BERNICE MANGOKA,,KFK
RK50I4400O,05/11/2023 15:24,05/11/2023 15:24,Pay Bill from 254701112397 - ELEMA GODANA DIBA Acc. FCA,Completed,10000,,288400,TRUE,Pay Utility,254701112397 - ELEMA GODANA DIBA,,FCA
RK57I0XERZ,05/11/2023 14:56,05/11/2023 14:56,Pay Bill Online from 254711507729 - DAVID ANYONGE MALIJAMBO Acc. HFA,Completed,16000,,278400,TRUE,Pay Bill Online,254711507729 - DAVID ANYONGE MALIJAMBO,,HFA
RK54HS1B6Q,05/11/2023 13:36,05/11/2023 13:36,Pay Bill from 254726753273 - JESSE K MURIRMI NJERU Acc. HCH,Completed,17000,,262400,TRUE,Pay Utility,254726753273 - JESSE K MURIRMI NJERU,,HCH
RK51HL7C9F,05/11/2023 12:28,05/11/2023 12:28,Pay Bill from 254743487420 - Margaret Wacu Muia Acc. FCE,Completed,15000,,245400,TRUE,Pay Utility,254743487420 - Margaret Wacu Muia,,FCE
RK52HDL844,05/11/2023 11:07,05/11/2023 11:07,Pay Bill from 254727095667 - HILDA JEPKEMOI KIMELIEL Acc. JBE,Completed,5000,,230400,TRUE,Pay Utility,254727095667 - HILDA JEPKEMOI KIMELIEL,,JBE
RK51HBY50T,05/11/2023 10:50,05/11/2023 10:50,Pay Bill from 0769118645 - kennedy kipkurui korir Acc. IGC,Completed,9000,,225400,TRUE,Pay Utility,0769118645 - kennedy kipkurui korir,,IGC
RK56HB16UG,05/11/2023 10:40,05/11/2023 10:40,Pay Bill Online from 254723370004 - LABAN MAINGI WAMBUA Acc. JEF,Completed,2000,,216400,TRUE,Pay Utility with OD Online,254723370004 - LABAN MAINGI WAMBUA,,JEF
RK55HAF0YJ,05/11/2023 10:34,05/11/2023 10:34,Pay Bill from 254704977689 - ANTONY MUTHONI Acc. ICD,Completed,11000,,214400,TRUE,Pay Utility,254704977689 - ANTONY MUTHONI,,ICD
RK59H8A8RJ,05/11/2023 10:11,05/11/2023 10:11,Pay Bill Online from 254718233980 - KAREN ASWANI Acc. HEC,Completed,10500,,203400,TRUE,Pay Bill Online,254718233980 - KAREN ASWANI,,HEC
RK55H7MRMP,05/11/2023 10:05,05/11/2023 10:05,Pay Bill Online from 0741500311 - ALLAN GISONI NYANGARESI Acc. DBA,Completed,16000,,192900,TRUE,Pay Bill Online,0741500311 - ALLAN GISONI NYANGARESI,,DBA
RK50H56F5M,05/11/2023 09:38,05/11/2023 09:38,Pay Bill from 254719747910 - KEVIN NDERITU GAKINGO Acc. iDD,Completed,11000,,176900,TRUE,Pay Utility,254719747910 - KEVIN NDERITU GAKINGO,,iDD
RK59GVMZJV,05/11/2023 07:44,05/11/2023 07:44,Pay Bill from 254722659738 - MARY NYABOKE MARITA Acc. KDD,Completed,12000,,165900,TRUE,Pay Utility,254722659738 - MARY NYABOKE MARITA,,KDD
RK56GP14MI,05/11/2023 02:23,05/11/2023 02:23,Pay Bill from 254723488259 - WILSON OKITE OKITE Acc. hca,Completed,15000,,153900,TRUE,Pay Utility,254723488259 - WILSON OKITE OKITE,,hca
RK56GNHTV0,05/11/2023 00:40,05/11/2023 00:40,Pay Bill from 254720407659 - FRANCIS CHUMO Acc. kdg,Completed,10000,,138900,TRUE,Pay Utility,254720407659 - FRANCIS CHUMO,,kdg
RK59GN87EL,05/11/2023 00:28,05/11/2023 00:28,Pay Bill from 0701151700 - Anabel Mwikali Gichuru Acc. jdj,Completed,15000,,128900,TRUE,Pay Utility,0701151700 - Anabel Mwikali Gichuru,,jdj
RK43GKUB4H,04/11/2023 23:13,04/11/2023 23:13,Pay Bill from 254702216907 - FAITH MUSA Acc. kbe,Completed,10000,,113900,TRUE,Pay Utility,254702216907 - FAITH MUSA,,kbe
RK48GI9IX4,04/11/2023 22:28,04/11/2023 22:28,Pay Bill from 0716248065 - TABITHA NJERI MAINA Acc. JEE,Completed,10000,,103900,TRUE,Pay Utility,0716248065 - TABITHA NJERI MAINA,,JEE
RK41GGRKRP,04/11/2023 22:06,04/11/2023 22:06,Pay Bill from 0757721640 - PURITY KANYUA NJERU Acc. kbb,Completed,16000,,93900,TRUE,Pay Utility with OD via STK,0757721640 - PURITY KANYUA NJERU,,kbb
RK44G6ZXYU,04/11/2023 20:37,04/11/2023 20:37,Pay Bill Online from 254728897908 - Teddy Allan Onyango Acc. DDD,Completed,15900,,77900,TRUE,Pay Bill Online,254728897908 - Teddy Allan Onyango,,DDD
RK41G1GDCX,04/11/2023 20:01,04/11/2023 20:01,Pay Bill from 254728670882 - SHARAD EDWARD ADALA OLUM Acc. KCK,Completed,15000,,62000,TRUE,Pay Utility,254728670882 - SHARAD EDWARD ADALA OLUM,,KCK
RK49FS59AH,04/11/2023 19:07,04/11/2023 19:07,Pay Bill from 0743371291 - Ann Murugi Gichohi Acc. KAD,Completed,11000,,47000,TRUE,Pay Utility,0743371291 - Ann Murugi Gichohi,,KAD
RK48FHU7TU,04/11/2023 18:08,04/11/2023 18:08,Pay Bill from 254725062550 - FRANKLINE MASSAM Acc. KAF,Completed,10000,,36000,TRUE,Pay Utility,254725062550 - FRANKLINE MASSAM,,KAF
RK42EXL4CS,04/11/2023 15:39,04/11/2023 15:39,Pay Bill from 0724386624 - FATUMA ISSE YUSSUF Acc. FAB,Completed,16000,,26000,TRUE,Pay Utility,0724386624 - FATUMA ISSE YUSSUF,,FAB
RK40EUE9US,04/11/2023 15:15,04/11/2023 15:15,Pay Bill from 254724852503 - GEOFREY YEGO Acc. JFF,Completed,10000,,10000,TRUE,Pay Utility,254724852503 - GEOFREY YEGO,,JFF
RK44ERR46G,04/11/2023 14:53,04/11/2023 14:53,Utility Account to Organization Settlement Account,Completed,,-194000,0,TRUE,Utility Account to Organization Settlement Account,979524 - ANCIENT WELLS PROPERTY MANAGERS 2,,
RK44EJQV6I,04/11/2023 13:49,04/11/2023 13:49,Pay Bill Online from 254792187144 - HASSAN AHMED HASSAN Acc. KGI,Completed,10000,,194000,TRUE,Pay Bill Online,254792187144 - HASSAN AHMED HASSAN,,KGI
RK42EIQZTA,04/11/2023 13:41,04/11/2023 13:41,Pay Bill from 254728213256 - NICHOLAS NJOROGE Acc. HAD,Completed,10000,,184000,TRUE,Pay Utility,254728213256 - NICHOLAS NJOROGE,,HAD
RK45EGADP7,04/11/2023 13:22,04/11/2023 13:22,Pay Bill Online from 0722255105 - SALIM OMAR MZEE Acc. FGF,Completed,16000,,174000,TRUE,Pay Bill Online,0722255105 - SALIM OMAR MZEE,,FGF
RK43EG21FP,04/11/2023 13:20,04/11/2023 13:20,Pay Bill from 254720051502 - JOHN OCHIENG ONYANGO Acc. JFA ,Completed,5000,,158000,TRUE,Pay Utility,254720051502 - JOHN OCHIENG ONYANGO,,JFA
RK46EF7096,04/11/2023 13:13,04/11/2023 13:13,Pay Bill from 254729355933 - FELISTAH NJERI WAIRIMU Acc. IDI,Completed,15000,,153000,TRUE,Pay Utility,254729355933 - FELISTAH NJERI WAIRIMU,,IDI
RK48EBIHCQ,04/11/2023 12:41,04/11/2023 12:41,Pay Bill from 0710572069 - GLADYS NYAMBURA MAINA Acc. HCC,Completed,10000,,138000,TRUE,Pay Utility,0710572069 - GLADYS NYAMBURA MAINA,,HCC
RK49E9UG37,04/11/2023 12:27,04/11/2023 12:27,Pay Bill from 0746078642 - OLIVE WANGARI KAIYA Acc. KCF,Completed,11000,,128000,TRUE,Pay Utility,0746078642 - OLIVE WANGARI KAIYA,,KCF
RK45E7HPJX,04/11/2023 12:07,04/11/2023 12:07,Pay Bill Online from 0706402366 - LUCY WANJIKU MICHINO Acc. KDB,Completed,20000,,117000,TRUE,Pay Bill Online,0706402366 - LUCY WANJIKU MICHINO,,KDB
RK44E7DAAU,04/11/2023 12:06,04/11/2023 12:06,Pay Bill from 0745484142 - Daisy   Chebet Acc. FGE,Completed,15000,,97000,TRUE,Pay Utility,0745484142 - Daisy   Chebet,,FGE
RK48E5R4S0,04/11/2023 11:51,04/11/2023 11:51,Pay Bill from 254720051502 - JOHN OCHIENG ONYANGO Acc. JFA ,Completed,10000,,82000,TRUE,Pay Utility,254720051502 - JOHN OCHIENG ONYANGO,,JFA
RK45E033OB,04/11/2023 11:01,04/11/2023 11:01,Pay Bill Online from 254723394064 - ANDREW LAGAT Acc. HBG ,Completed,16000,,72000,TRUE,Pay Bill Online,254723394064 - ANDREW LAGAT,,HBG
RK49DVWNJL,04/11/2023 10:24,04/11/2023 10:24,Pay Bill from 0798951042 - fridah kathure kinyua Acc. HGE,Completed,9000,,56000,TRUE,Pay Utility,0798951042 - fridah kathure kinyua,,HGE
RK47DV6J4T,04/11/2023 10:17,04/11/2023 10:17,Pay Bill from 254748051777 - SAGE KIMANI WANJIKU Acc. IAD,Completed,11000,,47000,TRUE,Pay Utility with OD via STK,254748051777 - SAGE KIMANI WANJIKU,,IAD
RK43DUS21T,04/11/2023 10:14,04/11/2023 10:14,Pay Bill from 254722136450 - MARY EVERLYN Acc. JAI,Completed,20000,,36000,TRUE,Pay Utility,254722136450 - MARY EVERLYN,,JAI
RK47DUBE6N,04/11/2023 10:09,04/11/2023 10:09,Business Pay Bill by 998094 - COOP TO PAYBILL Acc. Hea via API,Completed,16000,,16000,TRUE,Business Pay Bill via API,998094 - COOP TO PAYBILL,,Hea
RK46DSKD66,04/11/2023 09:53,04/11/2023 09:53,Utility Account to Organization Settlement Account,Completed,,-31000,0,TRUE,Utility Account to Organization Settlement Account,979524 - ANCIENT WELLS PROPERTY MANAGERS 2,,
RK44DQ75IA,04/11/2023 09:30,04/11/2023 09:30,Pay Bill Online from 254719194821 - KIPKEMOI SANG GEOFFREY Acc. JDD,Completed,15000,,31000,TRUE,Pay Bill Online,254719194821 - KIPKEMOI SANG GEOFFREY,,JDD
RK48DIRGAO,04/11/2023 08:13,04/11/2023 08:13,Pay Bill from 254726599835 - LAWRENCE BUDI MURIITHI Acc. KDJ,Completed,16000,,16000,TRUE,Pay Utility with OD via STK,254726599835 - LAWRENCE BUDI MURIITHI,,KDJ
RK42DGFPLW,04/11/2023 07:46,04/11/2023 07:46,Utility Account to Organization Settlement Account,Completed,,-130600,0,TRUE,Utility Account to Organization Settlement Account,979524 - ANCIENT WELLS PROPERTY MANAGERS 2,,
RK47DBOZGN,04/11/2023 06:19,04/11/2023 06:19,Pay Bill from 254711515672 - ALLAN MUTEMBEI Acc. IEI,Completed,15000,,130600,TRUE,Pay Utility,254711515672 - ALLAN MUTEMBEI,,IEI
RK44D9BLRI,04/11/2023 02:54,04/11/2023 02:54,Pay Bill Online from 254710202776 - KELVIN KARIMI MACHARIA Acc. FAD,Completed,15000,,115600,TRUE,Pay Bill Online,254710202776 - KELVIN KARIMI MACHARIA,,FAD
RK30D4J234,03/11/2023 22:55,03/11/2023 22:55,Pay Bill Online from 254714563486 - BRIAN MMATA MUSERA Acc. KBJ,Completed,16000,,100600,TRUE,Pay Bill Online,254714563486 - BRIAN MMATA MUSERA,,KBJ
RK38D1ZQVW,03/11/2023 22:10,03/11/2023 22:10,Pay Bill Online from 254722769473 - SAMSON CHALO Acc. IAB,Completed,15000,,84600,TRUE,Pay Utility with OD Online,254722769473 - SAMSON CHALO,,IAB
RK31COV8XD,03/11/2023 20:12,03/11/2023 20:12,Pay Bill from 254710635630 - DONNA JESSICA OWANO Acc. KCC ,Completed,10000,,69600,TRUE,Pay Utility,254710635630 - DONNA JESSICA OWANO,,KCC
RK32CIVIB2,03/11/2023 19:33,03/11/2023 19:33,Pay Bill from 0710604910 - Peninah Purity Muthoni Ndogo Acc. FCC,Completed,9000,,59600,TRUE,Pay Utility,0710604910 - Peninah Purity Muthoni Ndogo,,FCC
RK36C8DE36,03/11/2023 18:35,03/11/2023 18:35,Pay Bill from 254722889574 - ALLAN MWANGI Acc. jcg,Completed,18600,,50600,TRUE,Pay Utility,254722889574 - ALLAN MWANGI,,jcg
RK30BTGR6Q,03/11/2023 16:58,03/11/2023 16:58,Pay Bill from 0706563358 - HARRIET NYANCHAMA NYABERI Acc. HBA,Completed,16000,,32000,TRUE,Pay Utility,0706563358 - HARRIET NYANCHAMA NYABERI,,HBA
RK31BR7VSH,03/11/2023 16:41,03/11/2023 16:41,Pay Bill from 254719398942 - NORAH WAYUA MUNYAO Acc. KDA,Completed,16000,,16000,TRUE,Pay Utility,254719398942 - NORAH WAYUA MUNYAO,,KDA
RK39BBG9BB,03/11/2023 14:28,03/11/2023 14:28,Utility Account to Organization Settlement Account,Completed,,-117000,0,TRUE,Utility Account to Organization Settlement Account,979524 - ANCIENT WELLS PROPERTY MANAGERS 2,,
RK34B9L6NO,03/11/2023 14:12,03/11/2023 14:12,Pay Bill from 0768413584 - Faith Mwelu Kivindyo Acc. IDF,Completed,11000,,117000,TRUE,Pay Utility,0768413584 - Faith Mwelu Kivindyo,,IDF
RK33B5AH7D,03/11/2023 13:36,03/11/2023 13:36,Pay Bill Online from 254724211857 - OCHUODHO OUMA Acc. KBK,Completed,17000,,106000,TRUE,Pay Bill Online,254724211857 - OCHUODHO OUMA,,KBK
RK36AZ4P34,03/11/2023 12:42,03/11/2023 12:42,Pay Bill from 254723954911 - JAMES KILAVI Acc. ICG,Completed,9500,,89000,TRUE,Pay Utility,254723954911 - JAMES KILAVI,,ICG
RK39AMQKDD,03/11/2023 10:49,03/11/2023 10:49,Pay Bill from 254710381003 - ALFRED KISHOIN Acc. HBH,Completed,21500,,79500,TRUE,Pay Utility,254710381003 - ALFRED KISHOIN,,HBH
RK33AMHGDF,03/11/2023 10:46,03/11/2023 10:46,Pay Bill from 254717063324 - Christine Murugi Nyaga Acc. KDF,Completed,10000,,58000,TRUE,Pay Utility,254717063324 - Christine Murugi Nyaga,,KDF
RK31AMH61F,03/11/2023 10:46,03/11/2023 10:46,Pay Bill Online from 254702346515 - ELIZABETH ACHIENG NGOME Acc. ICH,Completed,16000,,48000,TRUE,Pay Bill Online,254702346515 - ELIZABETH ACHIENG NGOME,,ICH
RK34AK5XRY,03/11/2023 10:25,03/11/2023 10:25,Pay Bill Online from 254721465713 - RHODA WAMBUI MWANGI Acc. Jfh,Completed,17000,,32000,TRUE,Pay Bill Online,254721465713 - RHODA WAMBUI MWANGI,,Jfh
RK36AI526U,03/11/2023 10:06,03/11/2023 10:06,Pay Bill Online from 254710382992 - SIMON KAMAU MUIRURI Acc. JCD,Completed,15000,,15000,TRUE,Pay Bill Online,254710382992 - SIMON KAMAU MUIRURI,,JCD
RK30AI1N8K,03/11/2023 10:06,03/11/2023 10:06,Utility Account to Organization Settlement Account,Completed,,-75500,0,TRUE,Utility Account to Organization Settlement Account,979524 - ANCIENT WELLS PROPERTY MANAGERS 2,,
RK37A7LPFT,03/11/2023 08:20,03/11/2023 08:20,Pay Bill from 0719184067 - SOSPETER KIPLETING LAGAT Acc. KFF ,Completed,9000,,75500,TRUE,Pay Utility,0719184067 - SOSPETER KIPLETING LAGAT,,KFF
RK31A56J15,03/11/2023 07:52,03/11/2023 07:52,Pay Bill Online from 254729160700 - MICAH NDUNGI Acc. HFE,Completed,10500,,66500,TRUE,Pay Bill Online,254729160700 - MICAH NDUNGI,,HFE
RK37A3IB19,03/11/2023 07:31,03/11/2023 07:31,Pay Bill from 254703724744 - Esther Njambi Maina Acc. KEF,Completed,10000,,56000,TRUE,Pay Utility,254703724744 - Esther Njambi Maina,,KEF
RK269TX0GE,02/11/2023 23:01,02/11/2023 23:01,Pay Bill from 254795008751 - caroline owala Acc. KBF,Completed,9000,,46000,TRUE,Pay Utility,254795008751 - caroline owala,,KBF
RK299TM667,02/11/2023 22:54,02/11/2023 22:54,Pay Bill from 254742825965 - DOMINIC MUTISYA KELI Acc. KDC,Completed,10000,,37000,TRUE,Pay Utility,254742825965 - DOMINIC MUTISYA KELI,,KDC
RK219GKJYX,02/11/2023 20:31,02/11/2023 20:31,Pay Bill Online from 254721714178 - PHANICE JEROTICH KIPTOO Acc. FBF,Completed,16000,,27000,TRUE,Pay Bill Online,254721714178 - PHANICE JEROTICH KIPTOO,,FBF
RK268UOZAE,02/11/2023 18:24,02/11/2023 18:24,Pay Bill from 254791602823 - rachel mati kalundi Acc. JEG,Completed,9000,,11000,TRUE,Pay Utility,254791602823 - rachel mati kalundi,,JEG
RK248KRMHK,02/11/2023 17:18,02/11/2023 17:18,Pay Bill from 0743789968 - Dallias Thanare Githara Acc. hbb,Completed,2000,,2000,TRUE,Pay Utility,0743789968 - Dallias Thanare Githara,,hbb
RK278JLTZ5,02/11/2023 17:09,02/11/2023 17:09,Utility Account to Organization Settlement Account,Completed,,-20000,0,TRUE,Utility Account to Organization Settlement Account,979524 - ANCIENT WELLS PROPERTY MANAGERS 2,,
RK287ZGNC0,02/11/2023 14:18,02/11/2023 14:18,Pay Bill from 0741300410 - STEVEKEVIN POUNGUI DIFFO Acc. IAC,Completed,9000,,20000,TRUE,Pay Utility,0741300410 - STEVEKEVIN POUNGUI DIFFO,,IAC
RK247VII96,02/11/2023 13:44,02/11/2023 13:44,Pay Bill Online from 254742023558 - PEACEMARY NJERI MAINA Acc. JBC,Completed,11000,,11000,TRUE,Pay Bill Online,254742023558 - PEACEMARY NJERI MAINA,,JBC
RK267PB0QW,02/11/2023 12:50,02/11/2023 12:50,Utility Account to Organization Settlement Account,Completed,,-41000,0,TRUE,Utility Account to Organization Settlement Account,979524 - ANCIENT WELLS PROPERTY MANAGERS 2,,
RK207KDYGK,02/11/2023 12:06,02/11/2023 12:06,Pay Bill from 254702070444 - RANDY OCHIENG ONDITI Acc. JAB,Completed,15000,,41000,TRUE,Pay Utility,254702070444 - RANDY OCHIENG ONDITI,,JAB
RK227GQNGO,02/11/2023 11:31,02/11/2023 11:31,Pay Bill from 254716504398 - HYVENE MAYETI Acc. KDE,Completed,10000,,26000,TRUE,Pay Utility,254716504398 - HYVENE MAYETI,,KDE
RK2578MGL1,02/11/2023 10:17,02/11/2023 10:17,Pay Bill from 254721707481 - MARTIN ONSONGO Acc. DFA,Completed,16000,,16000,TRUE,Pay Utility,254721707481 - MARTIN ONSONGO,,DFA
RK266VC41W,02/11/2023 08:02,02/11/2023 08:02,Utility Account to Organization Settlement Account,Completed,,-141000,0,TRUE,Utility Account to Organization Settlement Account,979524 - ANCIENT WELLS PROPERTY MANAGERS 2,,
RK276UA09H,02/11/2023 07:50,02/11/2023 07:50,Pay Bill from 254720814822 - JAMES OTIENO OPAR Acc. jgj,Completed,2000,,141000,TRUE,Pay Utility with OD via STK,254720814822 - JAMES OTIENO OPAR,,jgj
RK236M8Y2B,02/11/2023 01:47,02/11/2023 01:47,Pay Bill from 254796848496 - IVY WITABA Acc. FAA,Completed,2000,,139000,TRUE,Pay Utility,254796848496 - IVY WITABA,,FAA
RK116H4QLR,01/11/2023 22:37,01/11/2023 22:37,Pay Bill Online from 254797260402 - Tiberius Ogera Omoro Acc. KFC,Completed,9000,,137000,TRUE,Pay Bill Online,254797260402 - Tiberius Ogera Omoro,,KFC
RK1869QEK8,01/11/2023 21:16,01/11/2023 21:16,Pay Bill from 254728084427 - MARY NABWIRE OKELLO Acc. FDF,Completed,16000,,128000,TRUE,Pay Utility,254728084427 - MARY NABWIRE OKELLO,,FDF
RK1264JSGY,01/11/2023 20:37,01/11/2023 20:37,Pay Bill Online from 254708357223 - DENNIS KIRIMI Acc. DCA,Completed,16000,,112000,TRUE,Pay Bill Online,254708357223 - DENNIS KIRIMI,,DCA
RK1160IZIJ,01/11/2023 20:11,01/11/2023 20:11,Pay Bill from 254710106394 - LUCY TONKEI Acc. 6000,Completed,6000,,96000,TRUE,Pay Utility with OD via STK,254710106394 - LUCY TONKEI,,6000
RK155JCGIP,01/11/2023 18:39,01/11/2023 18:39,Pay Bill Online from 254706549634 - CLINTON OMBASA Acc. FDB,Completed,17000,,90000,TRUE,Pay Bill Online,254706549634 - CLINTON OMBASA,,FDB
RK115J4E0T,01/11/2023 18:38,01/11/2023 18:38,Pay Bill Online from 254721981294 - GRACE WAMBUI KIHANYA Acc. IGH,Completed,15000,,73000,TRUE,Pay Bill Online,254721981294 - GRACE WAMBUI KIHANYA,,IGH
RK135FPS87,01/11/2023 18:18,01/11/2023 18:18,Pay Bill Online from 254729796719 - JACINTA WANJIKU NJERI Acc. FFF,Completed,17000,,58000,TRUE,Pay Bill Online,254729796719 - JACINTA WANJIKU NJERI,,FFF
RK195AD4ZH,01/11/2023 17:43,01/11/2023 17:43,Pay Bill from 254722802705 - ERIC KAMITI MBURU Acc. FCF,Completed,16000,,41000,TRUE,Pay Utility with OD via STK,254722802705 - ERIC KAMITI MBURU,,FCF
RK13526OSX,01/11/2023 16:43,01/11/2023 16:43,Pay Bill from 254729598338 - REGINA GATHONI Acc. IEC,Completed,10000,,25000,TRUE,Pay Utility,254729598338 - REGINA GATHONI,,IEC
RK124ZG6FQ,01/11/2023 16:21,01/11/2023 16:21,Pay Bill from 254723929380 - RHODAH K WAMBUA Acc. HEG,Completed,15000,,15000,TRUE,Pay Utility,254723929380 - RHODAH K WAMBUA,,HEG
RK164W4WGI,01/11/2023 15:53,01/11/2023 15:53,Utility Account to Organization Settlement Account,Completed,,-98000,0,TRUE,Utility Account to Organization Settlement Account,979524 - ANCIENT WELLS PROPERTY MANAGERS 2,,
RK194QK725,01/11/2023 15:04,01/11/2023 15:04,Pay Bill from 254791318982 - ADULLAHI HASSAN Acc. jci,Completed,20000,,98000,TRUE,Pay Utility,254791318982 - ADULLAHI HASSAN,,jci
RK184MD9IM,01/11/2023 14:28,01/11/2023 14:28,Pay Bill Online from 254705890736 - SNAIDA MMBONE Acc. FEC,Completed,9000,,78000,TRUE,Pay Bill Online,254705890736 - SNAIDA MMBONE,,FEC
RK194KZXGB,01/11/2023 14:16,01/11/2023 14:16,Pay Bill Online from 254718588538 - JAMES NGURE Acc. JBH,Completed,16000,,69000,TRUE,Pay Bill Online,254718588538 - JAMES NGURE,,JBH
RK184D83XC,01/11/2023 13:10,01/11/2023 13:10,Pay Bill from 254714060203 - PATRICK MWANGOMBE MSAWUCHI Acc. KEI,Completed,12000,,53000,TRUE,Pay Utility,254714060203 - PATRICK MWANGOMBE MSAWUCHI,,KEI
RK124BMQCW,01/11/2023 12:56,01/11/2023 12:56,Pay Bill from 254798609376 - Oliva Wafula Juma Acc. DEA,Completed,16000,,41000,TRUE,Pay Utility,254798609376 - Oliva Wafula Juma,,DEA
RK1649HE5W,01/11/2023 12:38,01/11/2023 12:38,Pay Bill Online from 254706784429 - ROSE JEPKOECH RUTTO Acc. IFI,Completed,15000,,25000,TRUE,Pay Bill Online,254706784429 - ROSE JEPKOECH RUTTO,,IFI
RK1648C0PM,01/11/2023 12:27,01/11/2023 12:27,Pay Bill from 254714710840 - RACHAEL WANJIRU NJOROGE Acc. ITE,Completed,10000,,10000,TRUE,Pay Utility,254714710840 - RACHAEL WANJIRU NJOROGE,,ITE
RK1840KU4A,01/11/2023 11:15,01/11/2023 11:15,Utility Account to Organization Settlement Account,Completed,,-211000,0,TRUE,Utility Account to Organization Settlement Account,979524 - ANCIENT WELLS PROPERTY MANAGERS 2,,
RK123R7JDS,01/11/2023 09:47,01/11/2023 09:47,Pay Bill Online from 254707966839 - DENNIS KIPTOO MAIYO Acc. FEF,Completed,16000,,211000,TRUE,Pay Bill Online,254707966839 - DENNIS KIPTOO MAIYO,,FEF
RK123QC5M4,01/11/2023 09:38,01/11/2023 09:38,Pay Bill from 254716881682 - JUSTINE FAYUMA OKWEMBA Acc. HAA,Completed,17000,,195000,TRUE,Pay Utility,254716881682 - JUSTINE FAYUMA OKWEMBA,,HAA
RK183DWTWE,01/11/2023 07:22,01/11/2023 07:22,Pay Bill Online from 254795510441 - LEWIS MUEMA Acc. KEB,Completed,16000,,178000,TRUE,Pay Bill Online,254795510441 - LEWIS MUEMA,,KEB
