Receipt No.,Completion Time,Initiation Time,Details,Transaction Status,Paid In,Withdrawn,Balance,Balance Confirmed,Reason Type,Other Party Info,Linked Transaction ID,A/C No.
SA84FKHBNS,08/01/2024 14:11,08/01/2024 14:11,Pay Bill from 254710***036 - Allan *** Acc. F5,Completed,8500,,142200,TRUE,Pay Utility,254710***036 - Allan ***,,F5
SA76B4NLAM,07/01/2024 00:32,07/01/2024 00:32,Pay Bill from 079156***463 - Lilian *** Acc. F6,Completed,8500,,133700,TRUE,Pay Utility with OD via STK,079156***463 - Lilian ***,,F6
SA54592QC0,05/01/2024 11:07,05/01/2024 11:07,Pay Bill Online from 074028***700 - SERAH *** Acc. c4serahmukulu,Completed,8500,,125200,TRUE,Pay Bill Online,074028***700 - SERAH ***,,c4serahmukulu
SA514W6XJR,05/01/2024 09:06,05/01/2024 09:06,Pay Bill from 254727***857 - PETER *** Acc. Peter Ngundo e6,Completed,8500,,116700,TRUE,Pay Utility,254727***857 - PETER ***,,Peter
SA534NZ30N,05/01/2024 07:29,05/01/2024 07:29,Pay Bill from 254768***417 - PAUL *** Acc. D6,Completed,8500,,108200,TRUE,Pay Utility,254768***417 - PAUL ***,,D6
SA463SHA4Y,04/01/2024 19:42,04/01/2024 19:42,Pay Bill from 074180***396 - JAMES *** Acc. B5,Completed,8500,,99700,TRUE,Pay Utility,074180***396 - JAMES ***,,B5
SA423O3JZI,04/01/2024 19:18,04/01/2024 19:18,Pay Bill Online from 254792***730 - kevin *** Acc. F3,Completed,8000,,91200,TRUE,Pay Bill Online,254792***730 - kevin ***,,F3
SA493ME44H,04/01/2024 19:08,04/01/2024 19:08,Pay Bill from 071934***205 - Christabel *** Acc. D1,Completed,8000,,83200,TRUE,Pay Utility,071934***205 - Christabel ***,,D1
SA423G1OGM,04/01/2024 18:29,04/01/2024 18:29,Pay Bill Online from 254720***157 - BENSON *** Acc. b6,Completed,8500,,75200,TRUE,Pay Bill Online,254720***157 - BENSON ***,,b6
SA4219PAC0,04/01/2024 02:09,04/01/2024 02:09,Pay Bill from 254715***093 - GICHANA *** Acc. E3,Completed,8000,,66700,TRUE,Pay Utility,254715***093 - GICHANA ***,,E3
SA33YSW8MT,03/01/2024 16:39,03/01/2024 16:39,Pay Bill from 071503***019 - Omwenga *** Acc. E1,Completed,8000,,58700,TRUE,Pay Utility,071503***019 - Omwenga ***,,E1
SA38YBNRGM,03/01/2024 14:05,03/01/2024 14:05,Pay Bill from 254790***422 - david *** Acc. g2,Completed,9000,,50700,TRUE,Pay Utility,254790***422 - david ***,,g2
SA29UF859H,02/01/2024 09:35,02/01/2024 09:35,Pay Bill Online from 254792***122 - MWENDWA *** Acc. B1,Completed,8000,,41700,TRUE,Pay Bill Online,254792***122 - MWENDWA ***,,B1
SA15TTYQZH,01/01/2024 22:03,01/01/2024 22:03,Pay Bill from 079801***497 - GODWIN *** Acc. c6,Completed,8500,,33700,TRUE,Pay Utility,079801***497 - GODWIN ***,,c6
SA13SITXWD,01/01/2024 14:53,01/01/2024 14:53,Pay Bill Online from 254720***214 - SAMUEL *** Acc. B3,Completed,16000,,25200,TRUE,Pay Bill Online,254720***214 - SAMUEL ***,,B3
RLV8QE03D2,31/12/2023 19:58,31/12/2023 19:58,Pay Bill Online from 071309***615 - samwel *** Acc. D4,Completed,8500,,9200,TRUE,Pay Bill Online,071309***615 - samwel ***,,D4
RLV4OMAQVQ,31/12/2023 11:07,31/12/2023 11:07,Pay Bill from 072977***299 - WAMBUA *** Acc. c1,Completed,700,,700,TRUE,Pay Utility,072977***299 - WAMBUA ***,,c1
RLV0OKAR8G,31/12/2023 10:46,31/12/2023 10:46,Utility Account to Organization Settlement Account,Completed,,-8500,0,TRUE,Utility Account to Organization Settlement Account,887075 - ANCIENT WELLS LTD 3,,
RLU4LM3RM4,30/12/2023 11:48,30/12/2023 11:48,Pay Bill from 254746***971 - gladys *** Acc. E4,Completed,8500,,8500,TRUE,Pay Utility,254746***971 - gladys ***,,E4
RLT5IMZT3D,29/12/2023 12:43,29/12/2023 12:43,Utility Account to Organization Settlement Account,Completed,,-26000,0,TRUE,Utility Account to Organization Settlement Account,887075 - ANCIENT WELLS LTD 3,,
RLS6GYHDU6,28/12/2023 19:40,28/12/2023 19:40,Pay Bill from 072143***195 - KIPKOECH *** Acc. E2,Completed,8000,,26000,TRUE,Pay Utility,072143***195 - KIPKOECH ***,,E2
RLS5GRKT3Z,28/12/2023 19:00,28/12/2023 19:00,Pay Bill from 254722***516 - KORIR *** Acc. Anthony D3 ,Completed,8000,,18000,TRUE,Pay Utility,254722***516 - KORIR ***,,Anthony
RLR4CVBKEG,27/12/2023 14:28,27/12/2023 14:28,Pay Bill from 072977***299 - WAMBUA *** Acc. c1,Completed,1500,,10000,TRUE,Pay Utility,072977***299 - WAMBUA ***,,c1
RLR2CS846E,27/12/2023 13:59,27/12/2023 13:59,Pay Bill Online from 254791***895 - Enos *** Acc. D5,Completed,8500,,8500,TRUE,Pay Bill Online,254791***895 - Enos ***,,D5
RLR7BYT6QV,27/12/2023 09:06,27/12/2023 09:06,Utility Account to Organization Settlement Account,Completed,,-8000,0,TRUE,Utility Account to Organization Settlement Account,887075 - ANCIENT WELLS LTD 3,,
RLR8BUVS62,27/12/2023 08:17,27/12/2023 08:17,FSI to Pay Bill by 576777 - I&M BANK LTD - BANK TO TILL Acc. C3 via WEB by I&M BANK LTD - BANK TO TILL\B2BUser1,Completed,8000,,8000,TRUE,FSI to Pay Bill via API,576777 - I&M BANK LTD - BANK TO TILL,,C3
RLQ2AH26Y8,26/12/2023 17:06,26/12/2023 17:06,Utility Account to Organization Settlement Account,Completed,,-1500,0,TRUE,Utility Account to Organization Settlement Account,887075 - ANCIENT WELLS LTD 3,,
RLQ1A1YU97,26/12/2023 14:35,26/12/2023 14:35,Pay Bill from 072977***299 - WAMBUA *** Acc. c1,Completed,1500,,1500,TRUE,Pay Utility,072977***299 - WAMBUA ***,,c1
RLP972Q3ZB,25/12/2023 13:03,25/12/2023 13:03,Utility Account to Organization Settlement Account,Completed,,-10000,0,TRUE,Utility Account to Organization Settlement Account,887075 - ANCIENT WELLS LTD 3,,
RLP96Z6B1P,25/12/2023 12:31,25/12/2023 12:31,Pay Bill from 072057***944 - Ronoh *** Acc. D2,Completed,8000,,10000,TRUE,Pay Utility,072057***944 - Ronoh ***,,D2
RLO65CHM2S,24/12/2023 20:34,24/12/2023 20:34,Pay Bill from 072977***299 - WAMBUA *** Acc. c1,Completed,2000,,2000,TRUE,Pay Utility,072977***299 - WAMBUA ***,,c1
RLO83Y64PQ,24/12/2023 14:51,24/12/2023 14:51,Utility Account to Organization Settlement Account,Completed,,-15500,0,TRUE,Utility Account to Organization Settlement Account,887075 - ANCIENT WELLS LTD 3,,
RLO72LZ9F5,24/12/2023 06:53,24/12/2023 06:53,Business Pay Bill by 998094 - COOP TO PAYBILL Acc. A1 via API,Completed,8000,,15500,TRUE,Business Pay Bill via API,998094 - COOP TO PAYBILL,,A1
RLN41NMM1A,23/12/2023 19:41,23/12/2023 19:41,Pay Bill from 254706***810 - Morgan *** Acc. f1,Completed,7500,,7500,TRUE,Pay Utility,254706***810 - Morgan ***,,f1
RLN9ZQ2H6X,23/12/2023 16:10,23/12/2023 16:10,Utility Account to Organization Settlement Account,Completed,,-2000,0,TRUE,Utility Account to Organization Settlement Account,887075 - ANCIENT WELLS LTD 3,,
RLN2YK2H54,23/12/2023 10:39,23/12/2023 10:39,Pay Bill from 072977***299 - WAMBUA *** Acc. c1,Completed,2000,,2000,TRUE,Pay Utility,072977***299 - WAMBUA ***,,c1
RLM2VA6DXY,22/12/2023 12:19,22/12/2023 12:19,Utility Account to Organization Settlement Account,Completed,,-11000,0,TRUE,Utility Account to Organization Settlement Account,887075 - ANCIENT WELLS LTD 3,,
RLL1U6L51X,21/12/2023 23:58,21/12/2023 23:58,Pay Bill from 254720***298 - ERIC *** Acc. A5,Completed,11000,,11000,TRUE,Pay Utility with OD via STK,254720***298 - ERIC ***,,A5
RLL4U0KF2M,21/12/2023 22:10,21/12/2023 22:10,Utility Account to Organization Settlement Account,Completed,,-21400,0,TRUE,Utility Account to Organization Settlement Account,887075 - ANCIENT WELLS LTD 3,,
RLL2TLY828,21/12/2023 20:15,21/12/2023 20:15,Pay Bill from 254722***929 - LIZ *** Acc. G3,Completed,8000,,21400,TRUE,Pay Utility,254722***929 - LIZ ***,,G3
RLL4SPKR7W,21/12/2023 16:50,21/12/2023 16:50,Utility Account to Organization Settlement Account,Completed,,-20000,13400,TRUE,Utility Account to Organization Settlement Account,887075 - ANCIENT WELLS LTD 3,,
RLL7SMUY2L,21/12/2023 16:28,21/12/2023 16:28,Utility Account to Organization Settlement Account,Completed,,-10000,33400,TRUE,Utility Account to Organization Settlement Account,887075 - ANCIENT WELLS LTD 3,,
RLL3SGA6YJ,21/12/2023 15:32,21/12/2023 15:32,Utility Account to Organization Settlement Account,Completed,,-20000,43400,TRUE,Utility Account to Organization Settlement Account,887075 - ANCIENT WELLS LTD 3,,
RLL4S472T4,21/12/2023 13:47,21/12/2023 13:47,Pay Bill from 072977***299 - WAMBUA *** Acc. c1,Completed,2000,,63400,TRUE,Pay Utility,072977***299 - WAMBUA ***,,c1
RLJ3NELCJ9,19/12/2023 23:38,19/12/2023 23:38,Pay Bill Online from 079991***339 - PETER *** Acc. c5,Completed,7500,,61400,TRUE,Pay Bill Online,079991***339 - PETER ***,,c5
RLJ1LHY6YJ,19/12/2023 14:12,19/12/2023 14:12,Pay Bill Online from 254703***849 - ROYAL *** Acc. F2,Completed,8000,,53900,TRUE,Pay Utility with OD Online,254703***849 - ROYAL ***,,F2
RLH1GQVPD5,17/12/2023 22:39,17/12/2023 22:39,Pay Bill Online from 079991***339 - PETER *** Acc. c5,Completed,3400,,45900,TRUE,Pay Bill Online,079991***339 - PETER ***,,c5
RLG1CNZT8T,16/12/2023 17:59,16/12/2023 17:59,Pay Bill Online from 254720***144 - CAROLINE *** Acc. f4,Completed,13000,,42500,TRUE,Pay Bill Online,254720***144 - CAROLINE ***,,f4
RLG9CJOB7B,16/12/2023 17:29,16/12/2023 17:29,Utility Account to Organization Settlement Account,Completed,,-40000,29500,TRUE,Utility Account to Organization Settlement Account,887075 - ANCIENT WELLS LTD 3,,
RLG3CE8NV5,16/12/2023 16:48,16/12/2023 16:48,Pay Bill Online from 254792***999 - QIAN *** Acc. E5,Completed,8500,,69500,TRUE,Pay Bill Online,254792***999 - QIAN ***,,E5
RLF59E7V0T,15/12/2023 18:24,15/12/2023 18:24,Pay Bill from 254715***408 - JONATHAN *** Acc. G1,Completed,8000,,61000,TRUE,Pay Utility,254715***408 - JONATHAN ***,,G1
RLD93RZSNN,13/12/2023 23:05,13/12/2023 23:05,Pay Bill Online from 079991***339 - PETER *** Acc. c5,Completed,2000,,53000,TRUE,Pay Bill Online,079991***339 - PETER ***,,c5
RLD91ODXMV,13/12/2023 12:48,13/12/2023 12:48,Utility Account to Organization Settlement Account,Completed,,-170000,51000,TRUE,Utility Account to Organization Settlement Account,887075 - ANCIENT WELLS LTD 3,,
RLD9ZNK7KJ,13/12/2023 04:48,13/12/2023 04:48,Pay Bill from 254714***834 - FAITH *** Acc. d4,Completed,8500,,221000,TRUE,Pay Utility,254714***834 - FAITH ***,,d4
RLD6ZMTMRQ,13/12/2023 03:02,13/12/2023 03:02,Pay Bill Online from 079991***339 - PETER *** Acc. c5,Completed,5000,,212500,TRUE,Pay Bill Online,079991***339 - PETER ***,,c5
RLC5XCGME3,12/12/2023 12:17,12/12/2023 12:17,Pay Bill from 254707***121 - JOHNSTONE *** Acc. b4,Completed,8500,,207500,TRUE,Pay Utility,254707***121 - JOHNSTONE ***,,b4
RLB1W5UU4P,11/12/2023 22:02,11/12/2023 22:02,Pay Bill from 254708***835 - SUSAN *** Acc. B2,Completed,8000,,199000,TRUE,Pay Utility,254708***835 - SUSAN ***,,B2
RLB8V9WLJQ,11/12/2023 18:28,11/12/2023 18:28,Pay Bill from 072977***299 - WAMBUA *** Acc. c1,Completed,1000,,191000,TRUE,Pay Utility,072977***299 - WAMBUA ***,,c1
RLB7UJXOUL,11/12/2023 15:05,11/12/2023 15:05,Pay Bill from 254724***163 - IRENE *** Acc. A4,Completed,12000,,190000,TRUE,Pay Utility,254724***163 - IRENE ***,,A4
RLA8R3A09E,10/12/2023 13:04,10/12/2023 13:04,Pay Bill from 074551***938 - MARION *** Acc. House A2,Completed,4000,,178000,TRUE,Pay Utility,074551***938 - MARION ***,,House
RL84MJ2TKW,08/12/2023 23:28,08/12/2023 23:28,Pay Bill from 254710***036 - Allan *** Acc. F5,Completed,8500,,174000,TRUE,Pay Utility,254710***036 - Allan ***,,F5
RL86LI9QGG,08/12/2023 18:40,08/12/2023 18:40,Pay Bill from 074551***938 - MARION *** Acc. HOUSE NO A2,Completed,7500,,165500,TRUE,Pay Utility,074551***938 - MARION ***,,HOUSE
RL79ILJZAL,07/12/2023 20:33,07/12/2023 20:33,Pay Bill Online from 254720***157 - BENSON *** Acc. b6,Completed,8500,,158000,TRUE,Pay Bill Online,254720***157 - BENSON ***,,b6
RL75IEIFKZ,07/12/2023 19:50,07/12/2023 19:50,Pay Bill Online from 074028***700 - SERAH *** Acc. c4serahmukulu,Completed,8500,,149500,TRUE,Pay Bill Online,074028***700 - SERAH ***,,c4serahmukulu
RL76GQAUEK,07/12/2023 12:23,07/12/2023 12:23,Pay Bill from 079156***463 - Lilian *** Acc. F6,Completed,8500,,141000,TRUE,Pay Utility,079156***463 - Lilian ***,,F6
RL69EXLCF9,06/12/2023 19:49,06/12/2023 19:49,Pay Bill from 074180***396 - JAMES *** Acc. B5,Completed,8500,,132500,TRUE,Pay Utility,074180***396 - JAMES ***,,B5
RL61EO0CR9,06/12/2023 18:59,06/12/2023 18:59,Pay Bill Online from 254715***357 - ELIZABETH *** Acc. C2,Completed,7500,,124000,TRUE,Pay Bill Online,254715***357 - ELIZABETH ***,,C2
RL64E9MAOA,06/12/2023 17:33,06/12/2023 17:33,Pay Bill Online from 254792***730 - kevin *** Acc. F3,Completed,8000,,116500,TRUE,Pay Bill Online,254792***730 - kevin ***,,F3
RL69DWRYI5,06/12/2023 16:03,06/12/2023 16:03,Pay Bill Online from 254703***849 - ROYAL *** Acc. F2,Completed,1000,,108500,TRUE,Pay Utility with OD Online,254703***849 - ROYAL ***,,F2
RL62DND4R2,06/12/2023 14:43,06/12/2023 14:43,Pay Bill from 254715***093 - GICHANA *** Acc. E3,Completed,8000,,107500,TRUE,Pay Utility,254715***093 - GICHANA ***,,E3
RL50BVXP9Q,05/12/2023 21:55,05/12/2023 21:55,Pay Bill from 254746***971 - gladys *** Acc. E4,Completed,8500,,99500,TRUE,Pay Utility,254746***971 - gladys ***,,E4
RL4085QC90,04/12/2023 20:34,04/12/2023 20:34,Pay Bill from 076838***417 - PAUL *** Acc. D6,Completed,8500,,91000,TRUE,Pay Utility,076838***417 - PAUL ***,,D6
RL407GTH7E,04/12/2023 18:13,04/12/2023 18:13,Pay Bill from 071503***019 - Omwenga *** Acc. E1,Completed,8000,,82500,TRUE,Pay Utility,071503***019 - Omwenga ***,,E1
RL40622BQI,04/12/2023 11:17,04/12/2023 11:17,Pay Bill from 072977***299 - WAMBUA *** Acc. c1,Completed,2500,,74500,TRUE,Pay Utility,072977***299 - WAMBUA ***,,c1
RL3355GRT1,03/12/2023 23:08,03/12/2023 23:08,Business Pay Bill by 998094 - COOP TO PAYBILL Acc. G2 via API,Completed,12000,,72000,TRUE,Business Pay Bill via API,998094 - COOP TO PAYBILL,,G2
RL323Z8ZME,03/12/2023 17:16,03/12/2023 17:16,FSI to Pay Bill by 576777 - I&M BANK LTD - BANK TO TILL Acc. C3 via WEB by I&M BANK LTD - BANK TO TILL\B2BUser1,Completed,18000,,60000,TRUE,FSI to Pay Bill via API,576777 - I&M BANK LTD - BANK TO TILL,,C3
RL333685QZ,03/12/2023 13:03,03/12/2023 13:03,Pay Bill from 254722***516 - KORIR *** Acc. Anthony D3 ,Completed,8000,,42000,TRUE,Pay Utility,254722***516 - KORIR ***,,Anthony
RL382IVHZA,03/12/2023 09:03,03/12/2023 09:03,Pay Bill from 071934***205 - Christabel *** Acc. D1,Completed,8000,,34000,TRUE,Pay Utility with OD via STK,071934***205 - Christabel ***,,D1
RL23ZI4X8F,02/12/2023 16:31,02/12/2023 16:31,Pay Bill from 254727***857 - PETER *** Acc. Peter Ngundo e6,Completed,8500,,26000,TRUE,Pay Utility,254727***857 - PETER ***,,Peter
RL20Y0IPV2,02/12/2023 08:54,02/12/2023 08:54,Pay Bill from 254792***122 - MWENDWA *** Acc. B1,Completed,8000,,17500,TRUE,Pay Utility,254792***122 - MWENDWA ***,,B1
RL27XZYIED,02/12/2023 08:49,02/12/2023 08:49,Business Pay Bill by 998094 - COOP TO PAYBILL Acc. A1 via API,Completed,6500,,9500,TRUE,Business Pay Bill via API,998094 - COOP TO PAYBILL,,A1
RL11WHY391,01/12/2023 18:42,01/12/2023 18:42,FSI to Pay Bill by 576777 - I&M BANK LTD - BANK TO TILL Acc. C3 via WEB by I&M BANK LTD - BANK TO TILL\B2BUser1,Completed,3000,,3000,TRUE,FSI to Pay Bill via API,576777 - I&M BANK LTD - BANK TO TILL,,C3
RL15U62I45,01/12/2023 06:43,01/12/2023 06:43,Utility Account to Organization Settlement Account,Completed,,-8500,0,TRUE,Utility Account to Organization Settlement Account,887075 - ANCIENT WELLS LTD 3,,
