Receipt No.,Completion Time,Initiation Time,Details,Transaction Status,Paid In,Withdrawn,Balance,Balance Confirmed,Reason Type,Other Party Info,Linked Transaction ID,A/C No.
RH354U3BCF,03/08/2023 10:56,03/08/2023 10:56,Pay Bill Online from 254720057303 - PAUL NJOROGE KIMANI Acc. V13,Completed,7000,,13600,TRUE,Pay Bill Online,254720057303 - PAUL NJOROGE KIMANI,,V13
RH232GYWKJ,02/08/2023 14:40,02/08/2023 14:40,Pay Bill Online from 254726465584 - JULIANA MUKELI MUTUNGA Acc. v4,Completed,6600,,6600,TRUE,Pay Bill Online,254726465584 - JULIANA MUKELI MUTUNGA,,v4
RH261RTCQ6,02/08/2023 10:28,02/08/2023 10:28,Utility Account to Organization Settlement Account,Completed,,-28700,0,TRUE,Utility Account to Organization Settlement Account,887674 - ANCIENT WELLS LTD 1,,
RH121474MY,01/08/2023 22:59,01/08/2023 22:59,Pay Bill from 254720002225 - DAVID NDENGWA Acc. V29,Completed,7000,,28700,TRUE,Pay Utility,254720002225 - DAVID NDENGWA,,V29
RH1013T03Y,01/08/2023 22:50,01/08/2023 22:50,Pay Bill from 0707077137 - samuel maundu mwanzia Acc. V57,Completed,7000,,21700,TRUE,Pay Utility with OD via STK,0707077137 - samuel maundu mwanzia,,V57
RH1712UCE3,01/08/2023 22:30,01/08/2023 22:30,Pay Bill from 254717294709 - CAROLINE WAVINYA NDINDA Acc. v15,Completed,1500,,14700,TRUE,Pay Utility,254717294709 - CAROLINE WAVINYA NDINDA,,v15
RH1712FJV9,01/08/2023 22:23,01/08/2023 22:23,Pay Bill from 0717042461 - Sharon Nyangasi Shivachi Acc. V55,Completed,13200,,13200,TRUE,Pay Utility,0717042461 - Sharon Nyangasi Shivachi,,V55
RH17ZPLUAV,01/08/2023 20:17,01/08/2023 20:17,Utility Account to Organization Settlement Account,Completed,,-6600,0,TRUE,Utility Account to Organization Settlement Account,887674 - ANCIENT WELLS LTD 1,,
RH12Z5OOWM,01/08/2023 18:10,01/08/2023 18:10,FSI to Pay Bill by 3033815 - NCBA LOOP B2C Acc. V40 via WEB by NCBA LOOP B2C\TRINITYAPI,Completed,6600,,6600,TRUE,FSI to Pay Bill via API,3033815 - NCBA LOOP B2C,,V40
RH19Z00D1F,01/08/2023 17:29,01/08/2023 17:29,Utility Account to Organization Settlement Account,Completed,,-6600,0,TRUE,Utility Account to Organization Settlement Account,887674 - ANCIENT WELLS LTD 1,,
RH14YQCDTU,01/08/2023 16:05,01/08/2023 16:05,Pay Bill Online from 254715939283 - alex nyamai Acc. v7,Completed,6600,,6600,TRUE,Pay Bill Online,254715939283 - alex nyamai,,v7
RH16XL023C,01/08/2023 09:02,01/08/2023 09:02,Utility Account to Organization Settlement Account,Completed,,-21000,0,TRUE,Utility Account to Organization Settlement Account,887674 - ANCIENT WELLS LTD 1,,
RH16XJFN6K,01/08/2023 08:44,01/08/2023 08:44,Pay Bill from 0748045445 - Hellen tsikhabi naphtal Acc. V11,Completed,7000,,21000,TRUE,Pay Utility,0748045445 - Hellen tsikhabi naphtal,,V11
RH10XIQ1PC,01/08/2023 08:36,01/08/2023 08:36,Pay Bill from 254741968254 - VERONICA MUMBUA MULINGE Acc. V43,Completed,7000,,14000,TRUE,Pay Utility,254741968254 - VERONICA MUMBUA MULINGE,,V43
RGV2V4CTBK,31/07/2023 12:21,31/07/2023 12:21,Pay Bill Online from 254702118125 - ROTICH BETHWEL Acc. V20,Completed,7000,,7000,TRUE,Pay Bill Online,254702118125 - ROTICH BETHWEL,,V20
RGV7U9U4PT,31/07/2023 04:19,31/07/2023 04:19,Utility Account to Organization Settlement Account,Completed,,-7000,0,TRUE,Utility Account to Organization Settlement Account,887674 - ANCIENT WELLS LTD 1,,
RGU9U79VGB,30/07/2023 23:49,30/07/2023 23:49,Pay Bill Online from 0759605060 - ELVIS MUSA MORARA Acc. V47,Completed,7000,,7000,TRUE,Pay Bill Online,0759605060 - ELVIS MUSA MORARA,,V47
RGU3TBAFRV,30/07/2023 18:20,30/07/2023 18:20,Utility Account to Organization Settlement Account,Completed,,-10000,0,TRUE,Utility Account to Organization Settlement Account,887674 - ANCIENT WELLS LTD 1,,
RGU4S9LSPS,30/07/2023 11:54,30/07/2023 11:54,Pay Bill from 254701174081 - JOSEPHINE ODUOR Acc. v34,Completed,3000,,10000,TRUE,Pay Utility,254701174081 - JOSEPHINE ODUOR,,v34
RGU9S5MQWV,30/07/2023 11:07,30/07/2023 11:07,Pay Bill from 254726702082 - STEPHEN WAHINYA NJUGUNA Acc. V02,Completed,7000,,7000,TRUE,Pay Utility,254726702082 - STEPHEN WAHINYA NJUGUNA,,V02
RGT8Q1TVAG,29/07/2023 15:51,29/07/2023 15:51,Utility Account to Organization Settlement Account,Completed,,-10500,0,TRUE,Utility Account to Organization Settlement Account,887674 - ANCIENT WELLS LTD 1,,
RGT3PNPZ2N,29/07/2023 13:34,29/07/2023 13:34,Pay Bill from 254722219253 - DAVID NJOGU Acc. v32,Completed,10500,,10500,TRUE,Pay Utility with OD via STK,254722219253 - DAVID NJOGU,,v32
RGT0OOFL06,29/07/2023 06:30,29/07/2023 06:30,Utility Account to Organization Settlement Account,Completed,,-6300,0,TRUE,Utility Account to Organization Settlement Account,887674 - ANCIENT WELLS LTD 1,,
RGS0N97J7U,28/07/2023 16:50,28/07/2023 16:50,Pay Bill from 254704562877 - RYAN WILBERT KOJWANG Acc. V35,Completed,6300,,6300,TRUE,Pay Utility,254704562877 - RYAN WILBERT KOJWANG,,V35
RGS2MWOYUK,28/07/2023 14:49,28/07/2023 14:49,Utility Account to Organization Settlement Account,Completed,,-3500,0,TRUE,Utility Account to Organization Settlement Account,887674 - ANCIENT WELLS LTD 1,,
RGS8MFJQQ0,28/07/2023 11:50,28/07/2023 11:50,Pay Bill from 0729382149 - SYLVIA NABALAYO MASABULE Acc. v30,Completed,3500,,3500,TRUE,Pay Utility,0729382149 - SYLVIA NABALAYO MASABULE,,v30
RGQ0IA0070,26/07/2023 20:32,26/07/2023 20:32,Utility Account to Organization Settlement Account,Completed,,-14300,0,TRUE,Utility Account to Organization Settlement Account,887674 - ANCIENT WELLS LTD 1,,
RGQ4HN7IC2,26/07/2023 18:04,26/07/2023 18:04,Pay Bill from 0704479066 - KISIA   MUMO Acc. vk2,Completed,300,,14300,TRUE,Pay Utility,0704479066 - KISIA   MUMO,,vk2
RGQ4H8EPZA,26/07/2023 15:54,26/07/2023 15:54,Pay Bill from 0729382149 - SYLVIA NABALAYO MASABULE Acc. v30,Completed,14000,,14000,TRUE,Pay Utility,0729382149 - SYLVIA NABALAYO MASABULE,,v30
RGQ6H0WA3O,26/07/2023 14:36,26/07/2023 14:36,Utility Account to Organization Settlement Account,Completed,,-7500,0,TRUE,Utility Account to Organization Settlement Account,887674 - ANCIENT WELLS LTD 1,,
RGP1EQVRR1,25/07/2023 17:55,25/07/2023 17:55,Pay Bill from 254717294709 - CAROLINE WAVINYA NDINDA Acc. v15,Completed,500,,7500,TRUE,Pay Utility,254717294709 - CAROLINE WAVINYA NDINDA,,v15
RGP0DYB0T8,25/07/2023 13:18,25/07/2023 13:18,Pay Bill from 254724882610 - ALINOOR IBRAHIM Acc. v52,Completed,7000,,7000,TRUE,Pay Utility,254724882610 - ALINOOR IBRAHIM,,v52
RGO8CV0AEQ,24/07/2023 22:21,24/07/2023 22:21,Utility Account to Organization Settlement Account,Completed,,-500,0,TRUE,Utility Account to Organization Settlement Account,887674 - ANCIENT WELLS LTD 1,,
RGO7CMWRM7,24/07/2023 20:48,24/07/2023 20:48,Pay Bill from 254717294709 - CAROLINE WAVINYA NDINDA Acc. v15,Completed,500,,500,TRUE,Pay Utility,254717294709 - CAROLINE WAVINYA NDINDA,,v15
RGO3BBT92L,24/07/2023 14:20,24/07/2023 14:20,Utility Account to Organization Settlement Account,Completed,,-500,0,TRUE,Utility Account to Organization Settlement Account,887674 - ANCIENT WELLS LTD 1,,
RGO0ALUNVK,24/07/2023 09:43,24/07/2023 09:43,Pay Bill from 254717294709 - CAROLINE WAVINYA NDINDA Acc. v15,Completed,500,,500,TRUE,Pay Utility,254717294709 - CAROLINE WAVINYA NDINDA,,v15
RGN897HIY8,23/07/2023 17:55,23/07/2023 17:55,Utility Account to Organization Settlement Account,Completed,,-9800,0,TRUE,Utility Account to Organization Settlement Account,887674 - ANCIENT WELLS LTD 1,,
RGN28FEHOO,23/07/2023 13:00,23/07/2023 13:00,Pay Bill from 254722219253 - DAVID NJOGU Acc. V32,Completed,7000,,9800,TRUE,Pay Utility,254722219253 - DAVID NJOGU,,V32
RGM379NIG5,22/07/2023 21:04,22/07/2023 21:04,Pay Bill from 0703406243 - LEVITAN    SHALIMBA Acc. vk3,Completed,2800,,2800,TRUE,Pay Utility,0703406243 - LEVITAN    SHALIMBA,,vk3
RGL24MLTTM,21/07/2023 23:37,21/07/2023 23:37,Utility Account to Organization Settlement Account,Completed,,-7000,0,TRUE,Utility Account to Organization Settlement Account,887674 - ANCIENT WELLS LTD 1,,
RGL848PK9C,21/07/2023 20:28,21/07/2023 20:28,Pay Bill Online from 254799654490 - DANIEL MUTIO MAUNDU Acc. V28,Completed,7000,,7000,TRUE,Pay Bill Online,254799654490 - DANIEL MUTIO MAUNDU,,V28
RGI9TQTFIR,18/07/2023 13:41,18/07/2023 13:41,Utility Account to Organization Settlement Account,Completed,,-7000,0,TRUE,Utility Account to Organization Settlement Account,887674 - ANCIENT WELLS LTD 1,,
RGI4TEVP5U,18/07/2023 11:36,18/07/2023 11:36,Pay Bill Online from 0745729178 - RODGERS DOGOI KABARAGI Acc. v27,Completed,7000,,7000,TRUE,Pay Bill Online,0745729178 - RODGERS DOGOI KABARAGI,,v27
RGH7R9I8IH,17/07/2023 16:20,17/07/2023 16:20,Utility Account to Organization Settlement Account,Completed,,-16000,0,TRUE,Utility Account to Organization Settlement Account,887674 - ANCIENT WELLS LTD 1,,
RGH3R08XA5,17/07/2023 14:45,17/07/2023 14:45,Pay Bill from 254701174081 - JOSEPHINE ODUOR Acc. v34,Completed,6000,,16000,TRUE,Pay Utility,254701174081 - JOSEPHINE ODUOR,,v34
RGH2QEUZEI,17/07/2023 11:07,17/07/2023 11:07,Pay Bill from 254705396032 - NAOMI NYAWIRA NGURE Acc. v46,Completed,5000,,10000,TRUE,Pay Utility with OD via STK,254705396032 - NAOMI NYAWIRA NGURE,,v46
RGG1OVYH91,16/07/2023 18:33,16/07/2023 18:33,Pay Bill from 0114513649 - Nashon Lubanga Ong'ale Acc. V31,Completed,5000,,5000,TRUE,Pay Utility,0114513649 - Nashon Lubanga Ong'ale,,V31
RGE4H9YCYI,14/07/2023 07:00,14/07/2023 07:00,Utility Account to Organization Settlement Account,Completed,,-35000,0,TRUE,Utility Account to Organization Settlement Account,887674 - ANCIENT WELLS LTD 1,,
RGD3GX9E8N,13/07/2023 21:30,13/07/2023 21:30,Pay Bill from 254706920646 - MIRIAM CHEPTOO Acc. V08,Completed,7000,,35000,TRUE,Pay Utility,254706920646 - MIRIAM CHEPTOO,,V08
RGD7GQ9OJD,13/07/2023 20:28,13/07/2023 20:28,Pay Bill from 254759313176 - christine ajwang barasa Acc. vk1,Completed,3500,,28000,TRUE,Pay Utility,254759313176 - christine ajwang barasa,,vk1
RGD3GCNEJ9,13/07/2023 19:01,13/07/2023 19:01,Pay Bill from 254723688790 - HILLARY KIBET MUTAI Acc. v08,Completed,3500,,24500,TRUE,Pay Utility,254723688790 - HILLARY KIBET MUTAI,,v08
RGD2G8Z33C,13/07/2023 18:38,13/07/2023 18:38,Pay Bill from 254720466443 - FATUMA MOHAMED ABDALLAH Acc. V21,Completed,7000,,21000,TRUE,Pay Utility,254720466443 - FATUMA MOHAMED ABDALLAH,,V21
RGD3EZBXMN,13/07/2023 11:29,13/07/2023 11:29,Pay Bill from 254706731390 - ELIZABETH Otieno Acc. V06,Completed,7000,,14000,TRUE,Pay Utility,254706731390 - ELIZABETH Otieno,,V06
RGC2E5ZLZC,12/07/2023 22:52,12/07/2023 22:52,Pay Bill from 254703232096 - KEVIN MAINA Acc. V51,Completed,7000,,7000,TRUE,Pay Utility,254703232096 - KEVIN MAINA,,V51
RGC8D9OUD4,12/07/2023 18:14,12/07/2023 18:14,Utility Account to Organization Settlement Account,Completed,,-7000,0,TRUE,Utility Account to Organization Settlement Account,887674 - ANCIENT WELLS LTD 1,,
RGC2BSQB1K,12/07/2023 08:40,12/07/2023 08:40,Pay Bill from 254791573608 - MICHELLE KARANJA Acc. V50,Completed,7000,,7000,TRUE,Pay Utility,254791573608 - MICHELLE KARANJA,,V50
RGB2B1OTD4,11/07/2023 20:21,11/07/2023 20:21,Utility Account to Organization Settlement Account,Completed,,-8000,0,TRUE,Utility Account to Organization Settlement Account,887674 - ANCIENT WELLS LTD 1,,
RGB3AYKM7P,11/07/2023 20:00,11/07/2023 20:00,Pay Bill from 254729358258 - Cliff Ombasa Acc. V05,Completed,5000,,8000,TRUE,Pay Utility,254729358258 - Cliff Ombasa,,V05
RGB0AHA896,11/07/2023 18:09,11/07/2023 18:09,Pay Bill from 254717294709 - CAROLINE WAVINYA NDINDA Acc. v15,Completed,3000,,3000,TRUE,Pay Utility,254717294709 - CAROLINE WAVINYA NDINDA,,v15
RGB39N5G7D,11/07/2023 13:23,11/07/2023 13:23,Utility Account to Organization Settlement Account,Completed,,-19000,0,TRUE,Utility Account to Organization Settlement Account,887674 - ANCIENT WELLS LTD 1,,
RGA788BWVR,10/07/2023 20:53,10/07/2023 20:53,Pay Bill from 254701174081 - JOSEPHINE ODUOR Acc. V34,Completed,5000,,19000,TRUE,Pay Utility,254701174081 - JOSEPHINE ODUOR,,V34
RGA67P3AII,10/07/2023 18:49,10/07/2023 18:49,Pay Bill from 254707690557 - GRACE KARWITHA SAFARI Acc. V60,Completed,7000,,14000,TRUE,Pay Utility,254707690557 - GRACE KARWITHA SAFARI,,V60
RGA67HVCZO,10/07/2023 17:58,10/07/2023 17:58,Pay Bill from 254729806880 - Eunice Akinyi Were Acc. V33 ,Completed,7000,,7000,TRUE,Pay Utility,254729806880 - Eunice Akinyi Were,,V33
RGA66EKF0Q,10/07/2023 11:38,10/07/2023 11:38,Utility Account to Organization Settlement Account,Completed,,-117000,0,TRUE,Utility Account to Organization Settlement Account,887674 - ANCIENT WELLS LTD 1,,
RG964WOYAC,09/07/2023 19:13,09/07/2023 19:13,Pay Bill Online from 254704199700 - JOYCE ACHIENG OWAGA Acc. T29,Completed,110000,,117000,TRUE,Pay Bill Online,254704199700 - JOYCE ACHIENG OWAGA,,T29
RG90474RBC,09/07/2023 15:28,09/07/2023 15:28,Pay Bill from 254791023764 - ISAIAH OMODING Acc. V49,Completed,7000,,7000,TRUE,Pay Utility,254791023764 - ISAIAH OMODING,,V49
RG983C7G2S,09/07/2023 09:37,09/07/2023 09:37,Utility Account to Organization Settlement Account,Completed,,-13600,0,TRUE,Utility Account to Organization Settlement Account,887674 - ANCIENT WELLS LTD 1,,
RG933B25ZH,09/07/2023 09:23,09/07/2023 09:23,Pay Bill from 0790520264 - FAITH NDUNGE WILLIAM Acc. v10,Completed,7000,,13600,TRUE,Pay Utility,0790520264 - FAITH NDUNGE WILLIAM,,v10
RG892LEEJJ,08/07/2023 21:00,08/07/2023 21:00,Pay Bill from 0795807227 - Lucy Ncekei Kimathi Acc. V36 ,Completed,6600,,6600,TRUE,Pay Utility,0795807227 - Lucy Ncekei Kimathi,,V36
RG801IR20W,08/07/2023 16:23,08/07/2023 16:23,Utility Account to Organization Settlement Account,Completed,,-7000,0,TRUE,Utility Account to Organization Settlement Account,887674 - ANCIENT WELLS LTD 1,,
RG881I6LDO,08/07/2023 16:18,08/07/2023 16:18,Pay Bill Online from 254799654490 - DANIEL MUTIO MAUNDU Acc. V28,Completed,7000,,7000,TRUE,Pay Bill Online,254799654490 - DANIEL MUTIO MAUNDU,,V28
RG8912MXIX,08/07/2023 13:52,08/07/2023 13:52,Utility Account to Organization Settlement Account,Completed,,-7000,0,TRUE,Utility Account to Organization Settlement Account,887674 - ANCIENT WELLS LTD 1,,
RG891240JD,08/07/2023 13:47,08/07/2023 13:47,Pay Bill from 0769858701 - DOLLARS DANIEL CIRHUZA Acc. V09,Completed,7000,,7000,TRUE,Pay Utility,0769858701 - DOLLARS DANIEL CIRHUZA,,V09
RG76WQ46KS,07/07/2023 11:18,07/07/2023 11:18,Utility Account to Organization Settlement Account,Completed,,-13600,0,TRUE,Utility Account to Organization Settlement Account,887674 - ANCIENT WELLS LTD 1,,
RG73WFBRWV,07/07/2023 09:24,07/07/2023 09:24,Pay Bill from 254724882610 - ALINOOR IBRAHIM Acc. v53,Completed,7000,,13600,TRUE,Pay Utility,254724882610 - ALINOOR IBRAHIM,,v53
RG79W5YVZR,07/07/2023 07:16,07/07/2023 07:16,Pay Bill from 254712091662 - BENARD OMONDI ROBY Acc. V16,Completed,6600,,6600,TRUE,Pay Utility,254712091662 - BENARD OMONDI ROBY,,V16
RG66UY8Z36,06/07/2023 18:03,06/07/2023 18:03,Utility Account to Organization Settlement Account,Completed,,-13600,0,TRUE,Utility Account to Organization Settlement Account,887674 - ANCIENT WELLS LTD 1,,
RG69TZ9VZ5,06/07/2023 12:42,06/07/2023 12:42,Pay Bill from 0713841898 - STACY MAUA KILONZO Acc. v37,Completed,7000,,13600,TRUE,Pay Utility,0713841898 - STACY MAUA KILONZO,,v37
RG67TREZK7,06/07/2023 11:22,06/07/2023 11:22,Pay Bill Online from 254720056285 - DAMARIS NDURU Acc. V18,Completed,6600,,6600,TRUE,Pay Bill Online,254720056285 - DAMARIS NDURU,,V18
RG55SU6T7F,05/07/2023 21:49,05/07/2023 21:49,Utility Account to Organization Settlement Account,Completed,,-38100,0,TRUE,Utility Account to Organization Settlement Account,887674 - ANCIENT WELLS LTD 1,,
RG58SRUGHK,05/07/2023 21:25,05/07/2023 21:25,Pay Bill from 254722578070 - SAMUEL MACHARIA Acc. V42,Completed,7000,,38100,TRUE,Pay Utility,254722578070 - SAMUEL MACHARIA,,V42
RG55SOOZ0J,05/07/2023 20:57,05/07/2023 20:57,Pay Bill from 254715309540 - HILLARY   AKHANYISI Acc. V19,Completed,7000,,31100,TRUE,Pay Utility,254715309540 - HILLARY   AKHANYISI,,V19
RG52SNY4QM,05/07/2023 20:51,05/07/2023 20:51,Pay Bill from 0795650610 - Janet Kavata Muandiko Acc. vk4,Completed,3500,,24100,TRUE,Pay Utility,0795650610 - Janet Kavata Muandiko,,vk4
RG56S030IW,05/07/2023 18:18,05/07/2023 18:18,Pay Bill from 0729277890 - HALIMA MOHAMED EDIN Acc. V03,Completed,7000,,20600,TRUE,Pay Utility,0729277890 - HALIMA MOHAMED EDIN,,V03
RG56RFVJ5O,05/07/2023 15:25,05/07/2023 15:25,Pay Bill from 254723815832 - SEMEKIA ONDIALA Acc. v38,Completed,6600,,13600,TRUE,Pay Utility,254723815832 - SEMEKIA ONDIALA,,v38
RG52RE88UA,05/07/2023 15:09,05/07/2023 15:09,Pay Bill from 0115365438 - zibborah nzilani maundu Acc. v48,Completed,7000,,7000,TRUE,Pay Utility,0115365438 - zibborah nzilani maundu,,v48
RG58QYT0I6,05/07/2023 12:38,05/07/2023 12:38,Utility Account to Organization Settlement Account,Completed,,-20600,0,TRUE,Utility Account to Organization Settlement Account,887674 - ANCIENT WELLS LTD 1,,
RG59QCIH3X,05/07/2023 08:46,05/07/2023 08:46,Pay Bill Online from 254720057303 - PAUL NJOROGE KIMANI Acc. V13,Completed,7000,,20600,TRUE,Pay Bill Online,254720057303 - PAUL NJOROGE KIMANI,,V13
RG45PUPZX7,04/07/2023 21:56,04/07/2023 21:56,Pay Bill from 254718818610 - HANNAH NALIAKA Acc. V23,Completed,6600,,13600,TRUE,Pay Utility,254718818610 - HANNAH NALIAKA,,V23
RG49PQG8IV,04/07/2023 21:11,04/07/2023 21:11,Pay Bill from 0714747222 - WILSON KIMANI MWANGI Acc. V25,Completed,7000,,7000,TRUE,Pay Utility,0714747222 - WILSON KIMANI MWANGI,,V25
RG43OP3T1V,04/07/2023 16:49,04/07/2023 16:49,Utility Account to Organization Settlement Account,Completed,,-7000,0,TRUE,Utility Account to Organization Settlement Account,887674 - ANCIENT WELLS LTD 1,,
RG47OMI4Y5,04/07/2023 16:26,04/07/2023 16:26,Pay Bill from 254703135064 - KENNEDY GEORGE Acc. V26,Completed,7000,,7000,TRUE,Pay Utility,254703135064 - KENNEDY GEORGE,,V26
RG44NP0IG2,04/07/2023 11:00,04/07/2023 11:00,Utility Account to Organization Settlement Account,Completed,,-10100,0,TRUE,Utility Account to Organization Settlement Account,887674 - ANCIENT WELLS LTD 1,,
RG36M8R4ZU,03/07/2023 19:12,03/07/2023 19:12,Pay Bill from 0727266858 - winrose imbuga mudenyo Acc. vk5,Completed,3500,,10100,TRUE,Pay Utility,0727266858 - winrose imbuga mudenyo,,vk5
RG38KHQDC0,03/07/2023 10:03,03/07/2023 10:03,Pay Bill Online from 254726465584 - JULIANA MUKELI MUTUNGA Acc. v4,Completed,6600,,6600,TRUE,Pay Bill Online,254726465584 - JULIANA MUKELI MUTUNGA,,v4
RG26IVLTFW,02/07/2023 17:32,02/07/2023 17:32,Utility Account to Organization Settlement Account,Completed,,-27600,0,TRUE,Utility Account to Organization Settlement Account,887674 - ANCIENT WELLS LTD 1,,
RG23IGYGLX,02/07/2023 15:15,02/07/2023 15:15,Pay Bill Online from 254715939283 - alex nyamai Acc. alexv07,Completed,6600,,27600,TRUE,Pay Bill Online,254715939283 - alex nyamai,,alexv07
RG26ID6LT4,02/07/2023 14:39,02/07/2023 14:39,Pay Bill from 0748045445 - Hellen tsikhabi naphtal Acc. V11,Completed,7000,,21000,TRUE,Pay Utility,0748045445 - Hellen tsikhabi naphtal,,V11
RG23H7O9GF,02/07/2023 00:23,02/07/2023 00:23,Pay Bill from 254720002225 - DAVID NDENGWA Acc. V29,Completed,7000,,14000,TRUE,Pay Utility with OD via STK,254720002225 - DAVID NDENGWA,,V29
RG12GZQBNG,01/07/2023 21:40,01/07/2023 21:40,Pay Bill from 0707077137 - samuel maundu mwanzia Acc. V57,Completed,7000,,7000,TRUE,Pay Utility,0707077137 - samuel maundu mwanzia,,V57
RG19G9CTLH,01/07/2023 18:32,01/07/2023 18:32,Utility Account to Organization Settlement Account,Completed,,-40500,0,TRUE,Utility Account to Organization Settlement Account,887674 - ANCIENT WELLS LTD 1,,
RG10G8X8YG,01/07/2023 18:29,01/07/2023 18:29,Merchant Pay Utility Received from 7456988 - SUSAN MURINGO NDUNGU 2 Acc. v44,Completed,17500,,40500,TRUE,Merchant Pay Utility via API,7456988 - SUSAN MURINGO NDUNGU 2,,v44
RG18G5XKUO,01/07/2023 18:09,01/07/2023 18:09,Pay Bill from 254726702082 - STEPHEN WAHINYA NJUGUNA Acc. V02,Completed,7000,,23000,TRUE,Pay Utility,254726702082 - STEPHEN WAHINYA NJUGUNA,,V02
RG18FQNWRU,01/07/2023 16:05,01/07/2023 16:05,Pay Bill from 0743262596 - EMILY ADHIAMBO OTIENO Acc. V58,Completed,9000,,16000,TRUE,Pay Utility,0743262596 - EMILY ADHIAMBO OTIENO,,V58
RG10EYYBH0,01/07/2023 11:44,01/07/2023 11:44,Pay Bill Online from 0759605060 - ELVIS MUSA MORARA Acc. V47,Completed,7000,,7000,TRUE,Pay Bill Online,0759605060 - ELVIS MUSA MORARA,,V47
RG17EURKSX,01/07/2023 11:02,01/07/2023 11:02,Utility Account to Organization Settlement Account,Completed,,-28000,0,TRUE,Utility Account to Organization Settlement Account,887674 - ANCIENT WELLS LTD 1,,
