Receipt No.,Completion Time,Initiation Time,Details,Transaction Status,Paid In,Withdrawn,Balance,Balance Confirmed,Reason Type,Other Party Info,Linked Transaction ID,A/C No.
QGP624XI7W,25/07/2022 09:54,25/07/2022 09:54,Utility Account to Organization Settlement Account,Completed,,-16000,0,TRUE,Utility Account to Organization Settlement Account,887264 - ANCIENT WELLS LTD 2,,
QGP41Y1VX4,25/07/2022 07:51,25/07/2022 07:51,Pay Bill from 0746573434 - Beatrice Omadi Nyandiga Acc. Z13,Completed,16000,,16000,TRUE,Pay Utility,0746573434 - Beatrice Omadi Nyandiga,,Z13
QGK1S67SQB,20/07/2022 15:43,20/07/2022 15:43,Utility Account to Organization Settlement Account,Completed,,-43000,0,TRUE,Utility Account to Organization Settlement Account,887264 - ANCIENT WELLS LTD 2,,
QGK4RP989G,20/07/2022 11:30,20/07/2022 11:30,Pay Bill from 254724001269 - PURITY NDUNGU Acc. Z8,Completed,16000,,43000,TRUE,Pay Utility,254724001269 - PURITY NDUNGU,,Z8
QGJ8QYDGX6,19/07/2022 20:17,19/07/2022 20:17,Pay Bill from 254721623212 - MOSES KARANJA WAMBURA Acc. Z16,Completed,16000,,27000,TRUE,Pay Utility,254721623212 - MOSES KARANJA WAMBURA,,Z16
QGI7O70Y61,18/07/2022 14:45,18/07/2022 14:45,Pay Bill from 254722627652 - BONIFACE MWAMUTSI CHENGO Acc. D9,Completed,11000,,11000,TRUE,Pay Utility,254722627652 - BONIFACE MWAMUTSI CHENGO,,D9
QGH0LMFRY6,17/07/2022 07:43,17/07/2022 07:43,Utility Account to Organization Settlement Account,Completed,,-16000,0,TRUE,Utility Account to Organization Settlement Account,887264 - ANCIENT WELLS LTD 2,,
QGG6LI33XI,16/07/2022 23:49,16/07/2022 23:49,Pay Bill Online from 0798280554 - Joseph Wambugu Macharia Acc. house number 17,Completed,16000,,16000,TRUE,Pay Bill Online,0798280554 - Joseph Wambugu Macharia,,house
QGG0KKXSDQ,16/07/2022 16:35,16/07/2022 16:35,Utility Account to Organization Settlement Account,Completed,,-15000,0,TRUE,Utility Account to Organization Settlement Account,887264 - ANCIENT WELLS LTD 2,,
QGG6KB7MSS,16/07/2022 14:23,16/07/2022 14:23,Pay Bill Online from 254724362830 - Evan Mwangi Mutungu Acc. Z19,Completed,15000,,15000,TRUE,Pay Bill Online,254724362830 - Evan Mwangi Mutungu,,Z19
QGF0HM6MB2,15/07/2022 08:41,15/07/2022 08:41,Utility Account to Organization Settlement Account,Completed,,-5000,0,TRUE,Utility Account to Organization Settlement Account,887264 - ANCIENT WELLS LTD 2,,
QGE9H2FC8F,14/07/2022 20:02,14/07/2022 20:02,Pay Bill from 254741791919 - Linet Mongina Maraga Acc. u3,Completed,5000,,5000,TRUE,Pay Utility,254741791919 - Linet Mongina Maraga,,u3
QGD8EDMUI6,13/07/2022 15:32,13/07/2022 15:32,Utility Account to Organization Settlement Account,Completed,,-12000,0,TRUE,Utility Account to Organization Settlement Account,887264 - ANCIENT WELLS LTD 2,,
QGD3DQMP3T,13/07/2022 10:05,13/07/2022 10:05,Pay Bill from 254722314500 - SHARON AKINYI OBIERO Acc. house 1,Completed,12000,,12000,TRUE,Pay Utility,254722314500 - SHARON AKINYI OBIERO,,house
QGD8DF6P1S,13/07/2022 05:41,13/07/2022 05:41,Utility Account to Organization Settlement Account,Completed,,-45000,0,TRUE,Utility Account to Organization Settlement Account,887264 - ANCIENT WELLS LTD 2,,
QGC1D5KYAJ,12/07/2022 20:46,12/07/2022 20:46,Pay Bill Online from 0743263203 - Patrick theuri wachira Acc. U1,Completed,5000,,45000,TRUE,Pay Bill Online,0743263203 - Patrick theuri wachira,,U1
QGC3CYAY6R,12/07/2022 19:32,12/07/2022 19:32,Pay Bill from 254728912446 - GRACE NJERI KIMANI Acc. ancient wells ,Completed,40000,,40000,TRUE,Pay Utility with OD via STK,254728912446 - GRACE NJERI KIMANI,,ancient
QGC8C3C560,12/07/2022 13:34,12/07/2022 13:34,Utility Account to Organization Settlement Account,Completed,,-254500,0,TRUE,Utility Account to Organization Settlement Account,887264 - ANCIENT WELLS LTD 2,,
QGC7BQK9N3,12/07/2022 10:40,12/07/2022 10:40,Utility Account to Organization Settlement Account,Completed,,-70000,254500,TRUE,Utility Account to Organization Settlement Account,887264 - ANCIENT WELLS LTD 2,,
QGC4BESCO0,12/07/2022 07:20,12/07/2022 07:20,Pay Bill from 254725014210 - FREDRICK MOUNDE Acc. epz mh,Completed,30000,,324500,TRUE,Pay Utility,254725014210 - FREDRICK MOUNDE,,epz
QGB3BB0OUR,11/07/2022 23:46,11/07/2022 23:46,Pay Bill Online from 254722949879 - KAMANDE JOSEPH Acc. 10,Completed,15000,,294500,TRUE,Pay Utility with OD Online,254722949879 - KAMANDE JOSEPH,,10
QGB9ANXCBP,11/07/2022 18:25,11/07/2022 18:25,Pay Bill from 254704421840 - RACHEAL WAMBUI MURIUKI Acc. Z15,Completed,16000,,279500,TRUE,Pay Utility,254704421840 - RACHEAL WAMBUI MURIUKI,,Z15
QGB6AMBJQS,11/07/2022 18:09,11/07/2022 18:09,Pay Bill from 254724312731 - Judith Omadi Acc. house no.3,Completed,12000,,263500,TRUE,Pay Utility,254724312731 - Judith Omadi,,house
QGB8AJMLDI,11/07/2022 17:39,11/07/2022 17:39,Pay Bill from 254724825611 - PAULINE INDIEKA Acc. D13,Completed,6000,,251500,TRUE,Pay Utility,254724825611 - PAULINE INDIEKA,,D13
QGA67ZWMZK,10/07/2022 12:55,10/07/2022 12:55,"Pay Bill from 254722314892 - MOSES MWANGI GACHARI Acc. D5,d6",Completed,10000,,245500,TRUE,Pay Utility,254722314892 - MOSES MWANGI GACHARI,,"D5,d6"
QG9559RT5P,09/07/2022 00:03,09/07/2022 00:03,Pay Bill from 254722269369 - FAIZ OMAR BASABRA Acc. NAIROBI WEST 12 ,Completed,70000,,235500,TRUE,Pay Utility,254722269369 - FAIZ OMAR BASABRA,,NAIROBI
QG853UW3OX,08/07/2022 13:11,08/07/2022 13:11,Pay Bill from 254726928715 - ELIZAPHAN KAMAU NDUTA Acc. Z2,Completed,32000,,165500,TRUE,Pay Utility,254726928715 - ELIZAPHAN KAMAU NDUTA,,Z2
QG732UQ2LH,07/07/2022 20:33,07/07/2022 20:33,Pay Bill Online from 254722599866 - ASIYO OCHUODHO Acc. 4,Completed,14000,,133500,TRUE,Pay Bill Online,254722599866 - ASIYO OCHUODHO,,4
QG711HEJPF,07/07/2022 11:07,07/07/2022 11:07,Pay Bill from 0115556359 - CHEPNGENO   EDITH Acc. c701,Completed,20000,,119500,TRUE,Pay Utility,0115556359 - CHEPNGENO   EDITH,,c701
QG63Z5TT87,06/07/2022 17:35,06/07/2022 17:35,Pay Bill Online from 254723853941 - ELIZABETH MUTIO MUTUKU Acc. house number 12,Completed,16000,,99500,TRUE,Pay Bill Online,254723853941 - ELIZABETH MUTIO MUTUKU,,house
QG62YHIJ72,06/07/2022 12:28,06/07/2022 12:28,Pay Bill from 254722711299 - ANNE WANGUI KAMAU Acc. Samville No 11,Completed,15000,,83500,TRUE,Pay Utility,254722711299 - ANNE WANGUI KAMAU,,Samville
QG68YD39C2,06/07/2022 11:28,06/07/2022 11:28,Pay Bill from 254706859500 - JULIA NJAMBI WAINAINA Acc. u2u4,Completed,11000,,68500,TRUE,Pay Utility,254706859500 - JULIA NJAMBI WAINAINA,,u2u4
QG59X5SGIT,05/07/2022 18:33,05/07/2022 18:33,Pay Bill from 254723882311 - VERONICAH WAMBUGU Acc. 9,Completed,16000,,57500,TRUE,Pay Utility,254723882311 - VERONICAH WAMBUGU,,9
QG59WXXHNL,05/07/2022 17:12,05/07/2022 17:12,Pay Bill Online from 254723909186 - BRIAN LIBASIA Acc. 18,Completed,16000,,41500,TRUE,Pay Bill Online,254723909186 - BRIAN LIBASIA,,18
QG24QZSWM6,02/07/2022 18:22,02/07/2022 18:22,Pay Bill Online from 254723174583 - BRIAN ODHIAMBO OUMA Acc. B3,Completed,4500,,25500,TRUE,Pay Utility with OD Online,254723174583 - BRIAN ODHIAMBO OUMA,,B3
QG23Q461TR,02/07/2022 11:49,02/07/2022 11:49,Pay Bill from 0700616526 - Lionel Uchechukwu Kibathi Acc. Leah b2,Completed,15000,,21000,TRUE,Pay Utility with OD via STK,0700616526 - Lionel Uchechukwu Kibathi,,Leah
QG12O3XWVE,01/07/2022 13:08,01/07/2022 13:08,Pay Bill from 0759385844 - ROSEMARY WAMBUI GITAU Acc. B5,Completed,6000,,6000,TRUE,Pay Utility with OD via STK,0759385844 - ROSEMARY WAMBUI GITAU,,B5
