Receipt No.,Completion Time,Initiation Time,Details,Transaction Status,Paid In,Withdrawn,Balance,Balance Confirmed,Reason Type,Other Party Info,Linked Transaction ID,A/C No.
RCF1TPT0QH,15/03/2023 12:04,15/03/2023 12:04,Pay Bill from 254720362703 - SULEKA ISSACK MOHAMED Acc. v52,Completed,2200,,16400,TRUE,Pay Utility with OD via STK,254720362703 - SULEKA ISSACK MOHAMED,,v52
RCE5RJJXP7,14/03/2023 15:23,14/03/2023 15:23,Pay Bill Online from 254726292792 - PHILIP MIANO Acc. JEI,Completed,2600,,14200,TRUE,Pay Bill Online,254726292792 - PHILIP MIANO,,JEI
RCE2QVUFW8,14/03/2023 10:58,14/03/2023 10:58,Pay Bill from 254791341895 - Enos Nyaosi Ayuma Acc. D5,Completed,800,,11600,TRUE,Pay Utility,254791341895 - Enos Nyaosi Ayuma,,D5
RCD7PCDM1J,13/03/2023 18:03,13/03/2023 18:03,Pay Bill from 254724423882 - JOEL GICHURI KARANJA Acc. fee,Completed,1400,,10800,TRUE,Pay Utility,254724423882 - JOEL GICHURI KARANJA,,fee
RCD9OL0SID,13/03/2023 13:18,13/03/2023 13:18,Pay Bill from 0743248310 - PATRICK STURRIDGE NYONGESA Acc. daa,Completed,400,,9400,TRUE,Pay Utility,0743248310 - PATRICK STURRIDGE NYONGESA,,daa
RCD1O4SZ19,13/03/2023 10:14,13/03/2023 10:14,Pay Bill from 254728238249 - ESTHER WANGUI KIBUNYI Acc. ICA,Completed,1000,,9000,TRUE,Pay Utility,254728238249 - ESTHER WANGUI KIBUNYI,,ICA
RCD5O3ETLJ,13/03/2023 09:58,13/03/2023 09:58,Pay Bill from 254746659971 - gladys wanjiru nyaga Acc. E4,Completed,400,,8000,TRUE,Pay Utility,254746659971 - gladys wanjiru nyaga,,E4
RCD3NT6EWT,13/03/2023 07:47,13/03/2023 07:47,Pay Bill from 0713841898 - STACY MAUA KILONZO Acc. v37,Completed,1000,,7600,TRUE,Pay Utility with OD via STK,0713841898 - STACY MAUA KILONZO,,v37
RCC0NGOT8A,12/03/2023 21:36,12/03/2023 21:36,Pay Bill Online from 254718233980 - KAREN ASWANI Acc. HEC,Completed,400,,6600,TRUE,Pay Bill Online,254718233980 - KAREN ASWANI,,HEC
RCC1NG52FF,12/03/2023 21:29,12/03/2023 21:29,Pay Bill from 254729355933 - FELISTAH NJERI WAIRIMU Acc. IDI,Completed,1400,,6200,TRUE,Pay Utility,254729355933 - FELISTAH NJERI WAIRIMU,,IDI
RCB6K1NE58,11/03/2023 17:15,11/03/2023 17:15,Pay Bill Online from 254720107609 - DENNIS OGENDI BARAKE Acc. JAJ,Completed,800,,4800,TRUE,Pay Bill Online,254720107609 - DENNIS OGENDI BARAKE,,JAJ
RCB9JL8XIZ,11/03/2023 14:34,11/03/2023 14:34,Pay Bill from 254797001100 - CHRISTIAN KIMANI KIRAGU Acc. FGE,Completed,3000,,4000,TRUE,Pay Utility,254797001100 - CHRISTIAN KIMANI KIRAGU,,FGE
RCB0JI571A,11/03/2023 14:04,11/03/2023 14:04,Pay Bill from 0715566922 - diramu ollo galgalo Acc. HBD,Completed,1000,,1000,TRUE,Pay Utility with OD via STK,0715566922 - diramu ollo galgalo,,HBD
RCB2IW7FL4,11/03/2023 10:11,11/03/2023 10:11,Utility Account to Organization Settlement Account,Completed,,-123576,0,TRUE,Utility Account to Organization Settlement Account,846783 - ANCIENT WELLS LTD 4,,
RCB1IMXZ8P,11/03/2023 08:22,11/03/2023 08:22,Pay Bill Online from 254722910078 - MAUREEN MUNYIVA MUTUKU Acc. DCD,Completed,1000,,123576,TRUE,Pay Bill Online,254722910078 - MAUREEN MUNYIVA MUTUKU,,DCD
RCA9I28SZ3,10/03/2023 20:57,10/03/2023 20:57,Pay Bill from 254720439955 - GEOPHRY OKOTH Acc. D6,Completed,300,,122576,TRUE,Pay Utility,254720439955 - GEOPHRY OKOTH,,D6
RCA3HQVTDR,10/03/2023 19:33,10/03/2023 19:33,Pay Bill from 254723341864 - WILLIAM OSIEL WACHUDI Acc. DED,Completed,2800,,122276,TRUE,Pay Utility with OD via STK,254723341864 - WILLIAM OSIEL WACHUDI,,DED
RCA9H36A6R,10/03/2023 16:24,10/03/2023 16:24,Pay Bill from 254718911865 - KENNEDY KELI KATUNGII Acc. HDF,Completed,1000,,119476,TRUE,Pay Utility,254718911865 - KENNEDY KELI KATUNGII,,HDF
RCA2GXV25A,10/03/2023 15:28,10/03/2023 15:28,Pay Bill Online from 254714552193 - CHRISTOPHER OCHIENG Acc. JGI,Completed,1100,,118476,TRUE,Pay Bill Online,254714552193 - CHRISTOPHER OCHIENG,,JGI
RCA4GVF6P6,10/03/2023 15:02,10/03/2023 15:02,Pay Bill Online from 254714596677 - IMMANUEL BARBOI Acc. KAI,Completed,400,,117376,TRUE,Pay Bill Online,254714596677 - IMMANUEL BARBOI,,KAI
RCA3GDS9JX,10/03/2023 11:52,10/03/2023 11:52,Pay Bill from 0715688238 - JOANNAH ATUHAIRE BANTU Acc. JAE,Completed,200,,116976,TRUE,Pay Utility,0715688238 - JOANNAH ATUHAIRE BANTU,,JAE
RCA7FY5MTR,10/03/2023 08:57,10/03/2023 08:57,Pay Bill Online from 254704995854 - james karanja wairimu Acc. V54,Completed,100,,116776,TRUE,Pay Bill Online,254704995854 - james karanja wairimu,,V54
RCA5FY29OV,10/03/2023 08:55,10/03/2023 08:55,Pay Bill Online from 254704995854 - james karanja wairimu Acc. V54,Completed,100,,116676,TRUE,Pay Bill Online,254704995854 - james karanja wairimu,,V54
RCA2FXY6X6,10/03/2023 08:54,10/03/2023 08:54,Pay Bill Online from 254704995854 - james karanja wairimu Acc. V54,Completed,100,,116576,TRUE,Pay Bill Online,254704995854 - james karanja wairimu,,V54
RCA9FXUOYD,10/03/2023 08:53,10/03/2023 08:53,Pay Bill Online from 254704995854 - james karanja wairimu Acc. V54,Completed,100,,116476,TRUE,Pay Bill Online,254704995854 - james karanja wairimu,,V54
RCA2FUHKL4,10/03/2023 08:11,10/03/2023 08:11,Pay Bill Online from 254724862849 - Ann Fresiah Kinyua Acc. HDA,Completed,600,,116376,TRUE,Pay Bill Online,254724862849 - Ann Fresiah Kinyua,,HDA
RC90FKZJVK,09/03/2023 23:43,09/03/2023 23:43,Pay Bill Online from 254712187712 - JUDELEEN SHILOBELE AHINDUKHA Acc. IEA,Completed,600,,115776,TRUE,Pay Bill Online,254712187712 - JUDELEEN SHILOBELE AHINDUKHA,,IEA
RC97FFVXIZ,09/03/2023 21:55,09/03/2023 21:55,Pay Bill from 254716167517 - BENARD MUTUA Acc. HCB,Completed,2000,,115176,TRUE,Pay Utility,254716167517 - BENARD MUTUA,,HCB
RC97DUYF0F,09/03/2023 13:31,09/03/2023 13:31,Pay Bill from 254710239100 - PHILOMENA WOKI MUTHAMA Acc. KDK,Completed,1000,,113176,TRUE,Pay Utility,254710239100 - PHILOMENA WOKI MUTHAMA,,KDK
RC91DK6IDL,09/03/2023 11:36,09/03/2023 11:36,Pay Bill from 254727223024 - JANE WAMAITHA NJUGUNA Acc. V32,Completed,1800,,112176,TRUE,Pay Utility,254727223024 - JANE WAMAITHA NJUGUNA,,V32
RC91D4TINT,09/03/2023 08:46,09/03/2023 08:46,Pay Bill from 254701174081 - JOSEPHINE ODUOR Acc. v34,Completed,100,,110376,TRUE,Pay Utility,254701174081 - JOSEPHINE ODUOR,,v34
RC92D4GP8G,09/03/2023 08:41,09/03/2023 08:41,Pay Bill from 0717441870 - Steven oduor ogutu Acc. KTA,Completed,500,,110276,TRUE,Pay Utility,0717441870 - Steven oduor ogutu,,KTA
RC98CW2L4M,09/03/2023 06:26,09/03/2023 06:26,Pay Bill from 254720466443 - FATUMA MOHAMED ABDALLAH Acc. V21,Completed,400,,109776,TRUE,Pay Utility,254720466443 - FATUMA MOHAMED ABDALLAH,,V21
RC91CV4V3P,09/03/2023 05:40,09/03/2023 05:40,Pay Bill Online from 254720451253 - JIMMY KIOGORA NKIROTE Acc. KBD,Completed,100,,109376,TRUE,Pay Utility with OD Online,254720451253 - JIMMY KIOGORA NKIROTE,,KBD
RC83CEJJTP,08/03/2023 20:30,08/03/2023 20:30,Pay Bill from 254724018163 - IRENE MUENI WILLY Acc. A4,Completed,600,,109276,TRUE,Pay Utility,254724018163 - IRENE MUENI WILLY,,A4
RC85C92UMZ,08/03/2023 19:49,08/03/2023 19:49,Pay Bill Online from 254720086214 - SAMUEL WANJIKU Acc. B3,Completed,600,,108676,TRUE,Pay Utility with OD Online,254720086214 - SAMUEL WANJIKU,,B3
RC88C3VO4Y,08/03/2023 19:14,08/03/2023 19:14,Pay Bill from 254710107500 - ERICK MISIANI Acc. Hcg,Completed,2200,,108076,TRUE,Pay Utility with OD via STK,254710107500 - ERICK MISIANI,,Hcg
RC80BSIPLC,08/03/2023 17:40,08/03/2023 17:38,Pay Utility Reversal by M-PESA - TNjuguna,Completed,,-250,105876,TRUE,Pay Utility Reversal,254726997536 - BENARD NYANUSI,RC86B6TPPK,
RC88BC3CB4,08/03/2023 14:50,08/03/2023 14:50,Pay Bill from 254714597495 - WAMBUA KIOKO Acc. c1,Completed,400,,106126,TRUE,Pay Utility with OD via STK,254714597495 - WAMBUA KIOKO,,c1
RC86B6TPPK,08/03/2023 13:52,08/03/2023 13:52,Pay Bill from 254726997536 - BENARD NYANUSI Acc. mwenzangu,Completed,250,,105726,TRUE,Pay Utility,254726997536 - BENARD NYANUSI,,mwenzangu
RC83ATF5UT,08/03/2023 11:27,08/03/2023 11:27,Pay Bill from 0769118645 - kennedy kipkurui korir Acc. IGC,Completed,400,,105476,TRUE,Pay Utility,0769118645 - kennedy kipkurui korir,,IGC
RC86ATENQ4,08/03/2023 11:26,08/03/2023 11:26,Pay Bill Online from 254715764212 - BANCE ISHEMINYE Acc. JFE ,Completed,200,,105076,TRUE,Pay Bill Online,254715764212 - BANCE ISHEMINYE,,JFE
RC80APOMMM,08/03/2023 10:45,08/03/2023 10:45,Pay Bill from 254726732160 - CATHERINE MBETI Acc. kfi,Completed,600,,104876,TRUE,Pay Utility,254726732160 - CATHERINE MBETI,,kfi
RC81AESZ8L,08/03/2023 08:40,08/03/2023 08:40,Pay Bill from 254722706516 - KORIR ANTHONY Acc. Anthony D 3 ,Completed,200,,104276,TRUE,Pay Utility,254722706516 - KORIR ANTHONY,,Anthony
RC83AB9IQ9,08/03/2023 07:54,08/03/2023 07:54,Pay Bill from 254727585857 - PETER MUOKI NGUNDO Acc. Peter Ngundo e6,Completed,500,,104076,TRUE,Pay Utility,254727585857 - PETER MUOKI NGUNDO,,Peter
RC81A5XS3R,08/03/2023 05:41,08/03/2023 05:41,Pay Bill Online from 254715020357 - ELIZABETH NJERI WARARI Acc. C2,Completed,200,,103576,TRUE,Pay Bill Online,254715020357 - ELIZABETH NJERI WARARI,,C2
RC88A57Z8S,08/03/2023 03:34,08/03/2023 03:34,Pay Bill from 254700198550 - BENARD ONYANGO Acc. DBB,Completed,1000,,103376,TRUE,Pay Utility,254700198550 - BENARD ONYANGO,,DBB
RC709ZG9C4,07/03/2023 22:17,07/03/2023 22:17,Pay Bill Online from 254706144834 - WILKISTER OSUMO Acc. HGH,Completed,600,,102376,TRUE,Pay Bill Online,254706144834 - WILKISTER OSUMO,,HGH
RC799YCU95,07/03/2023 22:01,07/03/2023 22:01,Pay Bill from 254725478531 - KIPKORIR KUTO Acc. DFB,Completed,400,,101776,TRUE,Pay Utility,254725478531 - KIPKORIR KUTO,,DFB
RC709W7S1S,07/03/2023 21:36,07/03/2023 21:36,Pay Bill from 254746643113 - camilla namisoo wekola Acc. V17,Completed,400,,101376,TRUE,Pay Utility,254746643113 - camilla namisoo wekola,,V17
RC729QAXMW,07/03/2023 20:41,07/03/2023 20:41,Pay Bill Online from 254723930071 - AMOS KITAVI KIVITE Acc. JCE,Completed,1000,,100976,TRUE,Pay Bill Online,254723930071 - AMOS KITAVI KIVITE,,JCE
RC779OPC7Z,07/03/2023 20:28,07/03/2023 20:28,Pay Bill from 0795807227 - Lucy Ncekei Kimathi Acc. V36 ,Completed,200,,99976,TRUE,Pay Utility,0795807227 - Lucy Ncekei Kimathi,,V36
RC759DNAI7,07/03/2023 19:16,07/03/2023 19:16,Pay Bill Online from 254720451253 - JIMMY KIOGORA NKIROTE Acc. KBD,Completed,200,,99776,TRUE,Pay Utility with OD Online,254720451253 - JIMMY KIOGORA NKIROTE,,KBD
RC778WYUFN,07/03/2023 17:02,07/03/2023 17:02,Pay Bill Online from 254713966424 - NDUTI MUTHUI Acc. jed,Completed,1000,,99576,TRUE,Pay Bill Online,254713966424 - NDUTI MUTHUI,,jed
RC728UFQDU,07/03/2023 16:36,07/03/2023 16:36,Pay Bill from 254717801919 - MARCELINE AKINYI Acc. IAF,Completed,400,,98576,TRUE,Pay Utility,254717801919 - MARCELINE AKINYI,,IAF
RC718O0OCN,07/03/2023 15:27,07/03/2023 15:27,Pay Bill Online from 254799371069 - ALPHONCE OCHIENG WAREGA Acc. IEE,Completed,1500,,98176,TRUE,Pay Bill Online,254799371069 - ALPHONCE OCHIENG WAREGA,,IEE
RC778DCOPP,07/03/2023 13:31,07/03/2023 13:31,Pay Bill from 254710357391 - CHEPKOECH VALENTINE Acc. KAH,Completed,1000,,96676,TRUE,Pay Utility,254710357391 - CHEPKOECH VALENTINE,,KAH
RC708CLC8Y,07/03/2023 13:23,07/03/2023 13:23,Pay Bill from 254796069018 - PEACE KIMEU Acc. JAH,Completed,1700,,95676,TRUE,Pay Utility,254796069018 - PEACE KIMEU,,JAH
RC7680STOM,07/03/2023 11:16,07/03/2023 11:16,Pay Bill Online from 0757319222 - ATEM KUOL JOHN BOL Acc. FAC,Completed,1200,,93976,TRUE,Pay Bill Online,0757319222 - ATEM KUOL JOHN BOL,,FAC
RC747YEB30,07/03/2023 10:50,07/03/2023 10:50,Pay Bill Online from 254710732381 - JANE ACHIENG MBEKE Acc. HAF,Completed,10000,,92776,TRUE,Pay Bill Online,254710732381 - JANE ACHIENG MBEKE,,HAF
RC777SM5XH,07/03/2023 09:46,07/03/2023 09:46,Pay Bill from 0114093036 - Cecillia Njeri Githui Acc. C3,Completed,500,,82776,TRUE,Pay Utility,0114093036 - Cecillia Njeri Githui,,C3
RC727QD2Z4,07/03/2023 09:21,07/03/2023 09:21,Pay Bill from 254720814822 - JAMES OTIENO OPAR Acc. jgj,Completed,500,,82276,TRUE,Pay Utility,254720814822 - JAMES OTIENO OPAR,,jgj
RC68785SBO,06/03/2023 22:15,06/03/2023 22:15,Pay Bill from 254708570729 - MARY OGOLLA Acc. House no.KAD,Completed,800,,81776,TRUE,Pay Utility,254708570729 - MARY OGOLLA,,House
RC636YU9QN,06/03/2023 20:37,06/03/2023 20:37,Pay Bill Online from 254720044312 - ELIUD KIPKURUI Acc. FCF,Completed,1200,,80976,TRUE,Pay Bill Online,254720044312 - ELIUD KIPKURUI,,FCF
RC676VQWWZ,06/03/2023 20:15,06/03/2023 20:15,Pay Bill from 254723488259 - WILSON OKITE OKITE Acc. hca,Completed,2200,,79776,TRUE,Pay Utility,254723488259 - WILSON OKITE OKITE,,hca
RC606TKPWI,06/03/2023 20:00,06/03/2023 20:00,Pay Bill from 254723341864 - WILLIAM OSIEL WACHUDI Acc. DED,Completed,2000,,77576,TRUE,Pay Utility with OD via STK,254723341864 - WILLIAM OSIEL WACHUDI,,DED
RC616L05GX,06/03/2023 19:06,06/03/2023 19:06,Pay Bill from 254700557767 - BAKHITA MWENDE MUANGE Acc. kcb,Completed,1000,,75576,TRUE,Pay Utility,254700557767 - BAKHITA MWENDE MUANGE,,kcb
RC686HVOI2,06/03/2023 18:43,06/03/2023 18:43,Pay Bill Online from 254718253322 - DUNCAN MOCHOGE Acc. JFJ,Completed,1500,,74576,TRUE,Pay Bill Online,254718253322 - DUNCAN MOCHOGE,,JFJ
RC6462OFLG,06/03/2023 16:31,06/03/2023 16:31,Pay Bill from 254729258441 - ROBERT RONO KULEI Acc. 1000,Completed,2526,,73076,TRUE,Pay Utility,254729258441 - ROBERT RONO KULEI,,1000
RC685Q92XI,06/03/2023 14:17,06/03/2023 14:17,Pay Bill from 254797675450 - JOHN NYAREGA NYAKUNDI Acc. FAF,Completed,2000,,70550,TRUE,Pay Utility,254797675450 - JOHN NYAREGA NYAKUNDI,,FAF
RC635KO6WB,06/03/2023 13:19,06/03/2023 13:19,Pay Bill Online from 0704120519 - Mildred   Adhiambo Acc. G1,Completed,600,,68550,TRUE,Pay Bill Online,0704120519 - Mildred   Adhiambo,,G1
RC685FF6ZW,06/03/2023 12:24,06/03/2023 12:24,Pay Bill from 254703276305 - MARTHA MUSYOKA Acc. IAI,Completed,600,,67950,TRUE,Pay Utility,254703276305 - MARTHA MUSYOKA,,IAI
RC61508QPR,06/03/2023 09:40,06/03/2023 09:40,Pay Bill Online from 254726465584 - JULIANA MUKELI MUTUNGA Acc. v4,Completed,400,,67350,TRUE,Pay Bill Online,254726465584 - JULIANA MUKELI MUTUNGA,,v4
RC694RJ3Y7,06/03/2023 07:56,06/03/2023 07:56,Pay Bill from 254790128716 - HELLEN NAPHTAL Acc. V11,Completed,800,,66950,TRUE,Pay Utility with OD via STK,254790128716 - HELLEN NAPHTAL,,V11
RC634Q9D83,06/03/2023 07:37,06/03/2023 07:37,Pay Bill from 254705641030 - FRIDAH WAENI MUITHYA Acc. JEH,Completed,1600,,66150,TRUE,Pay Utility,254705641030 - FRIDAH WAENI MUITHYA,,JEH
RC644MVUBG,06/03/2023 06:29,06/03/2023 06:29,Pay Bill Online from 254710814215 - JOAN NYAMBURA KAMAU Acc. ifb,Completed,1400,,64550,TRUE,Pay Bill Online,254710814215 - JOAN NYAMBURA KAMAU,,ifb
RC514JA3T1,05/03/2023 23:47,05/03/2023 23:47,Pay Bill from 0114123024 - Sharad Edward Adala Olum Acc. kck,Completed,2000,,63150,TRUE,Pay Utility,0114123024 - Sharad Edward Adala Olum,,kck
RC544GXP4W,05/03/2023 22:37,05/03/2023 22:37,Pay Bill from 254729690627 - BILLY KABIU Acc. KFJ,Completed,2000,,61150,TRUE,Pay Utility,254729690627 - BILLY KABIU,,KFJ
RC514EOZ4P,05/03/2023 22:01,05/03/2023 22:01,Pay Bill from 254702216907 - FAITH MUSA Acc. kbe,Completed,400,,59150,TRUE,Pay Utility,254702216907 - FAITH MUSA,,kbe
RC553ZTBH5,05/03/2023 19:40,05/03/2023 19:40,Pay Bill from 254723328258 - SAMUEL MAINA MURIUKI Acc. IFE,Completed,400,,58750,TRUE,Pay Utility,254723328258 - SAMUEL MAINA MURIUKI,,IFE
RC543V3NWC,05/03/2023 19:09,05/03/2023 19:09,Pay Bill Online from 254721974995 - BERNICE MANGOKA Acc. KFK,Completed,1000,,58350,TRUE,Pay Utility with OD Online,254721974995 - BERNICE MANGOKA,,KFK
RC583UXY5S,05/03/2023 19:08,05/03/2023 19:08,Pay Bill from 254718818610 - HANNAH NALIAKA Acc. V23,Completed,400,,57350,TRUE,Pay Utility,254718818610 - HANNAH NALIAKA,,V23
RC573TAORJ,05/03/2023 18:56,05/03/2023 18:56,Pay Bill Online from 254111303204 - JAMES MUEMA KIKUVI Acc. DFA,Completed,1200,,56950,TRUE,Pay Bill Online,254111303204 - JAMES MUEMA KIKUVI,,DFA
RC553L3X87,05/03/2023 17:46,05/03/2023 17:46,Pay Bill from 254723815832 - SEMEKIA ONDIALA Acc. V38,Completed,400,,55750,TRUE,Pay Utility,254723815832 - SEMEKIA ONDIALA,,V38
RC563L2EIS,05/03/2023 17:46,05/03/2023 17:46,Pay Bill from 254712283818 - OYUGI OCHIENG Acc. FCB,Completed,2000,,55350,TRUE,Pay Utility,254712283818 - OYUGI OCHIENG,,FCB
RC543INSC0,05/03/2023 17:23,05/03/2023 17:23,Pay Bill from 0724386624 - FATUMA ISSE YUSSUF Acc. FAB,Completed,1000,,53350,TRUE,Pay Utility with OD via STK,0724386624 - FATUMA ISSE YUSSUF,,FAB
RC5133AKEL,05/03/2023 14:45,05/03/2023 14:45,Pay Bill Online from 254723499628 - CLINTON JOSEPH MUHARI Acc. hfh,Completed,1200,,52350,TRUE,Pay Bill Online,254723499628 - CLINTON JOSEPH MUHARI,,hfh
RC572UDAPR,05/03/2023 13:07,05/03/2023 13:07,Pay Bill from 254741573910 - VINCENT ODUOR OLIENG Acc. HBC,Completed,800,,51150,TRUE,Pay Utility,254741573910 - VINCENT ODUOR OLIENG,,HBC
RC562NI5JE,05/03/2023 11:43,05/03/2023 11:43,Pay Bill from 254799188200 - PURITY KURUI Acc. HDC,Completed,600,,50350,TRUE,Pay Utility,254799188200 - PURITY KURUI,,HDC
RC562GV50W,05/03/2023 10:19,05/03/2023 10:19,Pay Bill from 254712974871 - PAULA WANJIKU GATUI Acc. hea,Completed,1200,,49750,TRUE,Pay Utility,254712974871 - PAULA WANJIKU GATUI,,hea
RC522D0I9K,05/03/2023 09:33,05/03/2023 09:33,Pay Bill Online from 254716315144 - PETER MUNYIRI WAROTERE Acc. FBB,Completed,1000,,48550,TRUE,Pay Bill Online,254716315144 - PETER MUNYIRI WAROTERE,,FBB
RC5226TJEM,05/03/2023 08:11,05/03/2023 08:11,Pay Bill Online from 254724587401 - RAPHAEL IRUNGU WAIHURA Acc. KGG,Completed,200,,47550,TRUE,Pay Bill Online,254724587401 - RAPHAEL IRUNGU WAIHURA,,KGG
RC471VM1QV,04/03/2023 22:32,04/03/2023 22:31,Pay Bill Online from 254720381965 - JAMES NGUGI MWANIKI Acc. JBI,Completed,2800,,47350,TRUE,Pay Utility with OD Online,254720381965 - JAMES NGUGI MWANIKI,,JBI
RC491AO8QZ,04/03/2023 19:14,04/03/2023 19:14,Pay Bill from 254708875278 - ROSEMARY WANJIRU KONYE Acc. HBF,Completed,400,,44550,TRUE,Pay Utility,254708875278 - ROSEMARY WANJIRU KONYE,,HBF
RC41ZZ9U07,04/03/2023 17:51,04/03/2023 17:51,Pay Bill from 0715806956 - Mercy Jelagat Kalum Acc. FFE,Completed,600,,44150,TRUE,Pay Utility,0715806956 - Mercy Jelagat Kalum,,FFE
RC40ZQ03Z6,04/03/2023 16:30,04/03/2023 16:30,Pay Bill Online from 254721714178 - PHANICE JEROTICH KIPTOO Acc. FBF,Completed,400,,43550,TRUE,Pay Bill Online,254721714178 - PHANICE JEROTICH KIPTOO,,FBF
RC46ZCNAK6,04/03/2023 14:19,04/03/2023 14:19,Pay Bill from 254726945691 - JAMES RAMTU Acc. B5,Completed,600,,43150,TRUE,Pay Utility,254726945691 - JAMES RAMTU,,B5
RC44Z9ECOK,04/03/2023 13:48,04/03/2023 13:48,Pay Bill from 254726702082 - STEPHEN NJUGUNA Acc. V02,Completed,1000,,42550,TRUE,Pay Utility,254726702082 - STEPHEN NJUGUNA,,V02
RC45Z6WSGN,04/03/2023 13:24,04/03/2023 13:24,Pay Bill Online from 254714563486 - BRIAN MMATA MUSERA Acc. KBJ,Completed,600,,41550,TRUE,Pay Bill Online,254714563486 - BRIAN MMATA MUSERA,,KBJ
RC49Z4938P,04/03/2023 12:57,04/03/2023 12:57,Pay Bill Online from 254711562428 - Lionel Mutune Muoka Acc. KDI,Completed,800,,40950,TRUE,Pay Bill Online,254711562428 - Lionel Mutune Muoka,,KDI
RC49Z1WYCP,04/03/2023 12:34,04/03/2023 12:34,Pay Bill from 254717063324 - Christine Murugi Nyaga Acc. KDF,Completed,200,,40150,TRUE,Pay Utility,254717063324 - Christine Murugi Nyaga,,KDF
RC42YZMIYE,04/03/2023 12:10,04/03/2023 12:10,Pay Bill Online from 254715892656 - DENNIS MUSYOKA MUOKI Acc. KFA,Completed,400,,39950,TRUE,Pay Bill Online,254715892656 - DENNIS MUSYOKA MUOKI,,KFA
RC49YVD6YV,04/03/2023 11:26,04/03/2023 11:26,Pay Bill from 0702801469 - sharon   awuor Acc. KDH,Completed,400,,39550,TRUE,Pay Utility,0702801469 - sharon   awuor,,KDH
RC49YF4JT3,04/03/2023 08:28,04/03/2023 08:28,Pay Bill from 254705425553 - ALEX MATHENGE Acc. JFD,Completed,800,,39150,TRUE,Pay Utility,254705425553 - ALEX MATHENGE,,JFD
RC42YB5FSE,04/03/2023 07:33,04/03/2023 07:33,Pay Bill Online from 254722728975 - CURTIS MRIGA OMIDO Acc. IAH,Completed,1000,,38350,TRUE,Pay Bill Online,254722728975 - CURTIS MRIGA OMIDO,,IAH
RC39XZ00CJ,03/03/2023 22:02,03/03/2023 22:02,Pay Bill from 254726028330 - JOHN WAMBUA Acc. IFH,Completed,1200,,37350,TRUE,Pay Utility,254726028330 - JOHN WAMBUA,,IFH
RC37XDKJIJ,03/03/2023 19:11,03/03/2023 19:11,Pay Bill from 254701112397 - ELEMA GODANA DIBA Acc. FCA,Completed,500,,36150,TRUE,Pay Utility with OD via STK,254701112397 - ELEMA GODANA DIBA,,FCA
RC32XCTWS8,03/03/2023 19:07,03/03/2023 19:07,Pay Bill from 254716587875 - PATRICIA WAITHERA MAINA Acc. v24,Completed,2000,,35650,TRUE,Pay Utility,254716587875 - PATRICIA WAITHERA MAINA,,v24
RC34X8ILTA,03/03/2023 18:37,03/03/2023 18:37,Pay Bill from 254720230582 - SHADRACK KITAKA NGILA Acc. she,Completed,800,,33650,TRUE,Pay Utility,254720230582 - SHADRACK KITAKA NGILA,,she
RC34X85FN0,03/03/2023 18:34,03/03/2023 18:34,Pay Bill from 0715030019 - Omwenga Ong'era Stephen Acc. E1,Completed,600,,32850,TRUE,Pay Utility,0715030019 - Omwenga Ong'era Stephen,,E1
RC30WZUBIY,03/03/2023 17:28,03/03/2023 17:28,Pay Bill from 0706563358 - HARRIET NYANCHAMA NYABERI Acc. HBA,Completed,400,,32250,TRUE,Pay Utility,0706563358 - HARRIET NYANCHAMA NYABERI,,HBA
RC31WA1BLV,03/03/2023 13:08,03/03/2023 13:08,Pay Bill Online from 254700187806 - WINNIE OLIVIA AKOTH Acc. JEC,Completed,800,,31850,TRUE,Pay Bill Online,254700187806 - WINNIE OLIVIA AKOTH,,JEC
RC33W2JJEH,03/03/2023 11:46,03/03/2023 11:46,Pay Bill Online from 254706898046 - STACY AKETCH OCHUKA Acc. KGK,Completed,400,,31050,TRUE,Pay Bill Online,254706898046 - STACY AKETCH OCHUKA,,KGK
RC31W0ZY55,03/03/2023 11:29,03/03/2023 11:29,Pay Bill Online from 254721465713 - RHODA WAMBUI MWANGI Acc. Jfh,Completed,1200,,30650,TRUE,Pay Bill Online,254721465713 - RHODA WAMBUI MWANGI,,Jfh
RC36VWA350,03/03/2023 10:38,03/03/2023 10:38,Pay Bill Online from 254710382992 - SIMON KAMAU MUIRURI Acc. JCD,Completed,400,,29450,TRUE,Pay Bill Online,254710382992 - SIMON KAMAU MUIRURI,,JCD
RC37VRD867,03/03/2023 09:45,03/03/2023 09:45,Pay Bill from 254719398942 - NORAH WAYUA MUNYAO Acc. KDA,Completed,1000,,29050,TRUE,Pay Utility,254719398942 - NORAH WAYUA MUNYAO,,KDA
RC39VN4VT1,03/03/2023 08:56,03/03/2023 08:56,Pay Bill from 254714060203 - PATRICK MWANGOMBE MSAWUCHI Acc. KEI,Completed,200,,28050,TRUE,Pay Utility,254714060203 - PATRICK MWANGOMBE MSAWUCHI,,KEI
RC28V8K2KM,02/03/2023 23:35,02/03/2023 23:35,Pay Bill from 254715764093 - GICHANA GOVAN Acc. E3,Completed,600,,27850,TRUE,Pay Utility,254715764093 - GICHANA GOVAN,,E3
RC20V5HC5A,02/03/2023 22:19,02/03/2023 22:19,Pay Bill from 254741791919 - Linet Mongina Maraga Acc. U3,Completed,450,,27250,TRUE,Pay Utility,254741791919 - Linet Mongina Maraga,,U3
RC28V4JZ7W,02/03/2023 22:05,02/03/2023 22:05,Pay Bill Online from 254723394064 - ANDREW LAGAT Acc. HBG ,Completed,400,,26800,TRUE,Pay Bill Online,254723394064 - ANDREW LAGAT,,HBG
RC27UPRQZT,02/03/2023 19:52,02/03/2023 19:52,Pay Bill from 254725754547 - MWACHIRO GEORGE DECHE Acc. DFC,Completed,2000,,26400,TRUE,Pay Utility,254725754547 - MWACHIRO GEORGE DECHE,,DFC
RC22UIJAOQ,02/03/2023 19:06,02/03/2023 19:06,Pay Bill from 254712091662 - BENARD OMONDI ROBY Acc. V16,Completed,400,,24400,TRUE,Pay Utility,254712091662 - BENARD OMONDI ROBY,,V16
RC25UG07K7,02/03/2023 18:49,02/03/2023 18:49,Pay Bill Online from 254799654490 - DANIEL MUTIO MAUNDU Acc. V28,Completed,1000,,24000,TRUE,Pay Bill Online,254799654490 - DANIEL MUTIO MAUNDU,,V28
RC22UAYOFE,02/03/2023 18:10,02/03/2023 18:10,Pay Bill Online from 254729097858 - AMBROSE ADEYA AHAWO Acc. KCF,Completed,1200,,23000,TRUE,Pay Bill Online,254729097858 - AMBROSE ADEYA AHAWO,,KCF
RC25UANOZX,02/03/2023 18:08,02/03/2023 18:08,Pay Bill Online from 0722255105 - SALIM OMAR MZEE Acc. FGF water,Completed,1400,,21800,TRUE,Pay Utility with OD Online,0722255105 - SALIM OMAR MZEE,,FGF
RC26UA1Z0A,02/03/2023 18:03,02/03/2023 18:03,Pay Bill from 254720550403 - GRACE WANGONDU Acc. jfi,Completed,2200,,20400,TRUE,Pay Utility,254720550403 - GRACE WANGONDU,,jfi
RC28U0Q0EI,02/03/2023 16:39,02/03/2023 16:39,Pay Bill from 254728084427 - MARY NABWIRE OKELLO Acc. FDF,Completed,1400,,18200,TRUE,Pay Utility,254728084427 - MARY NABWIRE OKELLO,,FDF
RC23TR5HRN,02/03/2023 14:55,02/03/2023 14:55,Pay Bill from 254700811449 - JOHN MULIMA ENANE Acc. HCE,Completed,800,,16800,TRUE,Pay Utility,254700811449 - JOHN MULIMA ENANE,,HCE
RC28TPPMRK,02/03/2023 14:39,02/03/2023 14:39,Pay Bill Online from 254718138578 - PAULINE KIOKO Acc. KFD,Completed,800,,16000,TRUE,Pay Bill Online,254718138578 - PAULINE KIOKO,,KFD
RC27TIAJY7,02/03/2023 13:22,02/03/2023 13:22,Pay Bill from 254717726012 - WINFRED MUENI PETER Acc. IDA,Completed,800,,15200,TRUE,Pay Utility,254717726012 - WINFRED MUENI PETER,,IDA
RC26TBUEP2,02/03/2023 12:12,02/03/2023 12:12,Pay Bill Online from 254703180395 - JANE NYAGUTHII MWAGO Acc. IBE,Completed,200,,14400,TRUE,Pay Bill Online,254703180395 - JANE NYAGUTHII MWAGO,,IBE
RC26T5FQ92,02/03/2023 11:01,02/03/2023 11:01,Pay Bill from 0796929370 - HALIMA BOYA GALMA Acc. DBC,Completed,3000,,14200,TRUE,Pay Utility,0796929370 - HALIMA BOYA GALMA,,DBC
RC24T5D23C,02/03/2023 11:00,02/03/2023 11:00,Pay Bill from 254725771056 - CHARLES MURAGURI Acc. FCE,Completed,300,,11200,TRUE,Pay Utility,254725771056 - CHARLES MURAGURI,,FCE
RC27SZOMAN,02/03/2023 09:57,02/03/2023 09:57,Pay Bill from 254741223822 - Rhoyce Kiptarus Boiyo Acc. FEC,Completed,2000,,10900,TRUE,Pay Utility,254741223822 - Rhoyce Kiptarus Boiyo,,FEC
RC21SOIBTL,02/03/2023 07:36,02/03/2023 07:36,Pay Bill from 254723929380 - RHODAH K WAMBUA Acc. HEG,Completed,1400,,8900,TRUE,Pay Utility,254723929380 - RHODAH K WAMBUA,,HEG
RC23SLHQMT,02/03/2023 06:33,02/03/2023 06:33,Pay Bill from 254711650034 - Lucky Ngoya Acc. JAA,Completed,1200,,7500,TRUE,Pay Utility,254711650034 - Lucky Ngoya,,JAA
RC14SG969Q,01/03/2023 22:59,01/03/2023 22:59,Pay Bill from 254715939283 - alex nyamai Acc. v07,Completed,400,,6300,TRUE,Pay Utility,254715939283 - alex nyamai,,v07
RC19SB9SQH,01/03/2023 21:40,01/03/2023 21:40,Pay Bill from 0717042461 - Sharon Nyangasi Shivachi Acc. V55,Completed,400,,5900,TRUE,Pay Utility,0717042461 - Sharon Nyangasi Shivachi,,V55
RC17S9VEE1,01/03/2023 21:24,01/03/2023 21:24,Pay Bill from 254725062550 - FRANKLINE MASSAM Acc. KAF,Completed,1000,,5500,TRUE,Pay Utility,254725062550 - FRANKLINE MASSAM,,KAF
RC12S5UTWI,01/03/2023 20:47,01/03/2023 20:47,Pay Bill from 254714710944 - MERCY NDUNG'U Acc. hff,Completed,400,,4500,TRUE,Pay Utility,254714710944 - MERCY NDUNG'U,,hff
RC10S4K3LY,01/03/2023 20:37,01/03/2023 20:37,Pay Bill from 254714710944 - MERCY NDUNG'U Acc. hff,Completed,400,,4100,TRUE,Pay Utility,254714710944 - MERCY NDUNG'U,,hff
RC15RM1WML,01/03/2023 18:32,01/03/2023 18:32,Pay Bill Online from 254716579300 - BRIAN KIPKOECH RONO Acc. HEH,Completed,400,,3700,TRUE,Pay Bill Online,254716579300 - BRIAN KIPKOECH RONO,,HEH
RC17R9Y4H1,01/03/2023 16:48,01/03/2023 16:48,Pay Bill Online from 254706549634 - CLINTON OMBASA Acc. FDB,Completed,1000,,3300,TRUE,Pay Bill Online,254706549634 - CLINTON OMBASA,,FDB
RC14R405IA,01/03/2023 15:45,01/03/2023 15:45,Pay Bill from 254791086424 - Martha Achieng Arodi Acc. FDC,Completed,500,,2300,TRUE,Pay Utility,254791086424 - Martha Achieng Arodi,,FDC
RC11R0IN6H,01/03/2023 15:06,01/03/2023 15:06,Pay Bill Online from 254729796719 - JACINTA WANJIKU NJERI Acc. FFF,Completed,1000,,1800,TRUE,Pay Bill Online,254729796719 - JACINTA WANJIKU NJERI,,FFF
RC10QT66D0,01/03/2023 13:46,01/03/2023 13:46,Pay Bill from 254717690295 - MARCELLA JELIMO Acc. IGE,Completed,800,,800,TRUE,Pay Utility,254717690295 - MARCELLA JELIMO,,IGE
RC17QIOZBN,01/03/2023 11:51,01/03/2023 11:51,Utility Account to Organization Settlement Account,Completed,,-3600,0,TRUE,Utility Account to Organization Settlement Account,846783 - ANCIENT WELLS LTD 4,,
RC15QIB7J9,01/03/2023 11:47,01/03/2023 11:47,Pay Bill from 254721784820 - YVONNE OKELLO Acc. IEC,Completed,200,,3600,TRUE,Pay Utility,254721784820 - YVONNE OKELLO,,IEC
RC15QCN48H,01/03/2023 10:42,01/03/2023 10:42,Pay Bill Online from 254795510441 - LEWIS MUEMA Acc. KEB,Completed,600,,3400,TRUE,Pay Bill Online,254795510441 - LEWIS MUEMA,,KEB
RC13Q9NM2B,01/03/2023 10:09,01/03/2023 10:09,Pay Bill from 254724379488 - NICHOLAS KOOME Acc. JDE,Completed,200,,2800,TRUE,Pay Utility,254724379488 - NICHOLAS KOOME,,JDE
RC10Q65IB4,01/03/2023 09:29,01/03/2023 09:29,Pay Bill Online from 254724821898 - ALLAN GISONI NYANGARESI Acc. DBA,Completed,600,,2600,TRUE,Pay Bill Online,254724821898 - ALLAN GISONI NYANGARESI,,DBA
RC16Q4H8V0,01/03/2023 09:09,01/03/2023 09:09,Pay Bill from 254727095667 - HILDA JEPKEMOI KIMELIEL Acc. JBH,Completed,2000,,2000,TRUE,Pay Utility,254727095667 - HILDA JEPKEMOI KIMELIEL,,JBH
RC13Q0SSHJ,01/03/2023 08:22,01/03/2023 08:22,Utility Account to Organization Settlement Account,Completed,,-1400,0,TRUE,Utility Account to Organization Settlement Account,846783 - ANCIENT WELLS LTD 4,,
