Receipt No.,Completion Time,Initiation Time,Details,Transaction Status,Paid In,Withdrawn,Balance,Balance Confirmed,Reason Type,Other Party Info,Linked Transaction ID,A/C No.
OED95T5ZYV,13/05/2020 10:26,13/05/2020 10:26,Pay Bill from 254713388942 - UKONU CHRISTOPHER OBINNA Acc. V22,Completed,900,,28300,TRUE,Pay Utility,254713388942 - UKONU CHRISTOPHER OBINNA,,V22
OED95T3OGR,13/05/2020 10:24,13/05/2020 10:24,Pay Bill from 254713388942 - UKONU CHRISTOPHER OBINNA Acc. V22,Completed,1000,,27400,TRUE,Pay Utility,254713388942 - UKONU CHRISTOPHER OBINNA,,V22
OED95SZ6B9,13/05/2020 10:20,13/05/2020 10:20,Pay Bill from 254721524677 - SAMSON AHOLO Acc. samsonv33,Completed,5500,,26400,TRUE,Pay Utility,254721524677 - SAMSON AHOLO,,samsonv33
OEC153TVW1,12/05/2020 12:44,12/05/2020 12:44,Pay Bill from 0742658849 - Winfridah   Namiba Acc. pascalv45,Completed,6000,,20900,TRUE,Pay Utility,0742658849 - Winfridah   Namiba,,pascalv45
OEC14Y8ALJ,12/05/2020 09:40,12/05/2020 09:40,Pay Bill from 254723389922 - ANNE WANJIKU Acc. V53,Completed,3500,,14900,TRUE,Pay Utility,254723389922 - ANNE WANJIKU,,V53
OEB54RW5RF,11/05/2020 20:43,11/05/2020 20:43,Pay Bill from 254729078854 - JOSHUA NJUGUNA KARANJA Acc. joshua v20,Completed,4800,,11400,TRUE,Pay Utility with OD via STK,254729078854 - JOSHUA NJUGUNA KARANJA,,joshua
OEB14KHL8B,11/05/2020 17:34,11/05/2020 17:34,Pay Bill from 254710262457 - PETER VIKATSI Acc. V26,Completed,6600,,6600,TRUE,Pay Utility,254710262457 - PETER VIKATSI,,V26
OEB74DFJJ7,11/05/2020 14:30,11/05/2020 14:30,Utility Account to Organization Settlement Account,Completed,,-108800,0,TRUE,Utility Account to Organization Settlement Account,887674 - ANCIENT WELLS LTD 1,,
OEB049SYYQ,11/05/2020 12:43,11/05/2020 12:43,Pay Bill from 254707358881 - SUSAN NZOMO Acc. v42,Completed,6600,,108800,TRUE,Pay Utility,254707358881 - SUSAN NZOMO,,v42
OEB847WSI4,11/05/2020 11:45,11/05/2020 11:45,Pay Bill from 0702544614 - linda kwamboka ombiro Acc. V49,Completed,6600,,102200,TRUE,Pay Utility,0702544614 - linda kwamboka ombiro,,V49
OEB842BJN4,11/05/2020 08:41,11/05/2020 08:41,Pay Bill from 254712305555 - peris kiragu Acc. V17,Completed,7000,,95600,TRUE,Pay Utility,254712305555 - peris kiragu,,V17
OEA63ZADWI,10/05/2020 22:43,10/05/2020 22:43,Pay Bill Online from 254720723193 - MIKA KEVIN OMONDI Acc. v03,Completed,6600,,88600,TRUE,Pay Bill Online,254720723193 - MIKA KEVIN OMONDI,,v03
OEA03TV5F2,10/05/2020 18:46,10/05/2020 18:46,Pay Bill from 254758070694 - naomi ndinda nzamalu Acc. v28,Completed,6100,,82000,TRUE,Pay Utility,254758070694 - naomi ndinda nzamalu,,v28
OEA03E1WJG,10/05/2020 11:20,10/05/2020 11:20,Pay Bill from 254713388942 - UKONU CHRISTOPHER OBINNA Acc. V22,Completed,2500,,75900,TRUE,Pay Utility,254713388942 - UKONU CHRISTOPHER OBINNA,,V22
OEA73CNMJD,10/05/2020 10:33,10/05/2020 10:33,Pay Bill from 0745306681 - ALEX MUNYUI NDUNGU Acc. Simon V32,Completed,6600,,73400,TRUE,Pay Utility,0745306681 - ALEX MUNYUI NDUNGU,,Simon
OE902NTMKO,09/05/2020 13:28,09/05/2020 13:28,Pay Bill from 254729569271 - MESHACK OBOTTA OBOTTA OBARE Acc. V12,Completed,6600,,66800,TRUE,Pay Utility,254729569271 - MESHACK OBOTTA OBOTTA OBARE,,V12
OE8027TVNS,08/05/2020 19:30,08/05/2020 19:30,Pay Bill from 254712569636 - BENSON NYAGA Acc. V60,Completed,6600,,60200,TRUE,Pay Utility with OD via STK,254712569636 - BENSON NYAGA,,V60
OE821X4SZ6,08/05/2020 15:27,08/05/2020 15:27,Pay Bill from 254718417450 - HARON ASUMA OROKO Acc. haron V 47,Completed,6600,,53600,TRUE,Pay Utility,254718417450 - HARON ASUMA OROKO,,haron
OE861UUM3K,08/05/2020 14:24,08/05/2020 14:24,Pay Bill from 254701086112 - CAROLYNE KOKI MULWA Acc. V30,Completed,6600,,47000,TRUE,Pay Utility,254701086112 - CAROLYNE KOKI MULWA,,V30
OE861RZAMQ,08/05/2020 13:01,08/05/2020 13:01,Pay Bill from 254703311892 - WINNIE ACHIENG' OPEYO Acc. v50,Completed,4100,,40400,TRUE,Pay Utility,254703311892 - WINNIE ACHIENG' OPEYO,,v50
OE861LT6KO,08/05/2020 09:50,08/05/2020 09:50,Pay Bill from 0742965163 - Winnie   Naliaka Acc. v 31,Completed,6600,,36300,TRUE,Pay Utility,0742965163 - Winnie   Naliaka,,v
OE751G99BT,07/05/2020 22:50,07/05/2020 22:50,Pay Bill from 254723935789 - EDWIN MWITI Acc. V43,Completed,6600,,29700,TRUE,Pay Utility,254723935789 - EDWIN MWITI,,V43
OE7418QIW4,07/05/2020 18:21,07/05/2020 18:21,Pay Bill Online from 254713498554 - HENRY KINYUA WARUI Acc. Henry Warui V44,Completed,3300,,23100,TRUE,Pay Bill Online,254713498554 - HENRY KINYUA WARUI,,Henry
OE7818G7Z6,07/05/2020 18:16,07/05/2020 18:16,Pay Bill from 254797665088 - INNOCENT WANAMI Acc. V2,Completed,6600,,19800,TRUE,Pay Utility with OD via STK,254797665088 - INNOCENT WANAMI,,V2
OE7615VK2W,07/05/2020 17:25,07/05/2020 17:25,Pay Bill from 254718593194 - HURRY IBARASI MADEDE Acc. V52,Completed,6600,,13200,TRUE,Pay Utility with OD via STK,254718593194 - HURRY IBARASI MADEDE,,V52
OE7015OM7Q,07/05/2020 17:21,07/05/2020 17:21,Pay Bill from 254704995854 - james karanja wairimu Acc. V54,Completed,6600,,6600,TRUE,Pay Utility,254704995854 - james karanja wairimu,,V54
OE78ZXQ3BA,07/05/2020 13:46,07/05/2020 13:46,Utility Account to Organization Settlement Account,Completed,,-211100,0,TRUE,Utility Account to Organization Settlement Account,887674 - ANCIENT WELLS LTD 1,,
OE73ZOMH4V,07/05/2020 09:13,07/05/2020 09:13,Pay Bill from 254722160984 - PENINNAH MUNYWOKI Acc. Anita v27,Completed,6600,,211100,TRUE,Pay Utility,254722160984 - PENINNAH MUNYWOKI,,Anita
