Receipt No.,Completion Time,Initiation Time,Details,Transaction Status,Paid In,Withdrawn,Balance,Balance Confirmed,Reason Type,Other Party Info,Linked Transaction ID,A/C No.
OEE16M6KE3,14/05/2020 10:08,14/05/2020 10:08,Pay Bill from 254729258441 - ROBERT RONO KULEI Acc. JAB,Completed,15000,,204200,TRUE,Pay Utility,254729258441 - ROBERT RONO KULEI,,JAB
OEE06I6O4W,14/05/2020 07:18,14/05/2020 07:18,Pay Bill from 254722910078 - MAUREEN MUNYIVA MUTUKU Acc. DBD,Completed,1500,,189200,TRUE,Pay Utility,254722910078 - MAUREEN MUNYIVA MUTUKU,,DBD
OED26F556K,13/05/2020 20:53,13/05/2020 20:53,Pay Bill from 254710814215 - JOAN NYAMBURA KAMAU Acc. jci,Completed,20000,,187700,TRUE,Pay Utility,254710814215 - JOAN NYAMBURA KAMAU,,jci
OED06CCC2Q,13/05/2020 19:20,13/05/2020 19:20,Pay Bill from 254720361605 - DAUD AMBER Acc. IGH,Completed,10000,,167700,TRUE,Pay Utility,254720361605 - DAUD AMBER,,IGH
OED869IYV0,13/05/2020 18:19,13/05/2020 18:19,Pay Bill from 254791315477 - VERAH MIRERI Acc. JEC,Completed,10000,,157700,TRUE,Pay Utility,254791315477 - VERAH MIRERI,,JEC
OED2683KSC,13/05/2020 17:49,13/05/2020 17:49,Pay Bill from 254724777705 - COLLINS AKASA Acc. KEG ,Completed,3000,,147700,TRUE,Pay Utility,254724777705 - COLLINS AKASA,,KEG
OED7643SX3,13/05/2020 16:08,13/05/2020 16:08,Pay Bill from 254724873566 - SHAILA NZIOKA Acc. HFB,Completed,2000,,144700,TRUE,Pay Utility,254724873566 - SHAILA NZIOKA,,HFB
OED461A77I,13/05/2020 14:44,13/05/2020 14:44,Pay Bill from 254701374875 - EVALYNE MWANGANGI Acc. HFC,Completed,10000,,142700,TRUE,Pay Utility,254701374875 - EVALYNE MWANGANGI,,HFC
OED85U06J8,13/05/2020 10:54,13/05/2020 10:54,Pay Bill from 254726405755 - EDWARD NGONGE Acc. dgc,Completed,11000,,132700,TRUE,Pay Utility,254726405755 - EDWARD NGONGE,,dgc
OED35RR2CP,13/05/2020 09:37,13/05/2020 09:37,Pay Bill from 0705448526 - HASSAN HAJIR MURSAL Acc. kbj,Completed,12000,,121700,TRUE,Pay Utility,0705448526 - HASSAN HAJIR MURSAL,,kbj
OED45RNB5I,13/05/2020 09:34,13/05/2020 09:34,FSI to Pay Bill by 100401 - 100401HFC Acc. JEJ via WEB by 100401HFC\hfcappinit,Completed,25700,,109700,TRUE,FSI to Pay Bill via API,100401 - 100401HFC,,JEJ
OED95P4ND9,13/05/2020 07:50,13/05/2020 07:50,Pay Bill from 254725255978 - DICKSON OLUOCH Acc. JFF,Completed,10000,,84000,TRUE,Pay Utility,254725255978 - DICKSON OLUOCH,,JFF
OED35OGMK1,13/05/2020 07:07,13/05/2020 07:07,Pay Bill from 0719834515 - Ibsa   Usman Acc. HBH,Completed,18000,,74000,TRUE,Pay Utility,0719834515 - Ibsa   Usman,,HBH
OED65NOYSC,13/05/2020 01:44,13/05/2020 01:44,Pay Bill Online from 254720451253 - JIMMY KIOGORA NKIROTE Acc. KBD,Completed,12000,,56000,TRUE,Pay Utility with OD Online,254720451253 - JIMMY KIOGORA NKIROTE,,KBD
OEC85LU7JG,12/05/2020 20:59,12/05/2020 20:59,Pay Bill Online from 254713831946 - KEVIN WAMBUA Acc. IAA,Completed,15000,,44000,TRUE,Pay Utility with OD Online,254713831946 - KEVIN WAMBUA,,IAA
OEC05ETB7E,12/05/2020 17:51,12/05/2020 17:51,Pay Bill from 254799723423 - REGINA WANGUI MAINA Acc. FBA,Completed,17000,,29000,TRUE,Pay Utility,254799723423 - REGINA WANGUI MAINA,,FBA
OEC85BIMCU,12/05/2020 16:33,12/05/2020 16:33,Pay Bill Online from 254722249092 - MARIAM ABDULLAHI Acc. KED,Completed,12000,,12000,TRUE,Pay Utility with OD Online,254722249092 - MARIAM ABDULLAHI,,KED
OEC55BGTIB,12/05/2020 16:31,12/05/2020 16:31,Utility Account to Organization Settlement Account,Completed,,-596100,0,TRUE,Utility Account to Organization Settlement Account,979524 - ANCIENT WELLS PROPERTY MANAGERS 2,,
OEC559S3YL,12/05/2020 15:45,12/05/2020 15:45,Pay Bill from 254720361605 - DAUD AMBER Acc. IGH,Completed,9000,,596100,TRUE,Pay Utility,254720361605 - DAUD AMBER,,IGH
OEC053FFD4,12/05/2020 12:31,12/05/2020 12:31,Pay Bill from 0705509744 - ANDREW NYARIBO OBARE Acc. JAF,Completed,1200,,587100,TRUE,Pay Utility,0705509744 - ANDREW NYARIBO OBARE,,JAF
OEC64Z0SNQ,12/05/2020 10:08,12/05/2020 10:08,Pay Bill from 254708442077 - JOHN MUIRURI Acc. FAC,Completed,9000,,585900,TRUE,Pay Utility,254708442077 - JOHN MUIRURI,,FAC
OEC84ULNN2,12/05/2020 06:41,12/05/2020 06:41,Pay Bill from 254721392650 - JUSTUS ODIWUOR OUKO Acc. FCA,Completed,17000,,576900,TRUE,Pay Utility,254721392650 - JUSTUS ODIWUOR OUKO,,FCA
OEB24P1FCU,11/05/2020 19:12,11/05/2020 19:12,Pay Bill from 254706115779 - MIRRIAM NJOKI MAINA Acc. IDE,Completed,9500,,559900,TRUE,Pay Utility,254706115779 - MIRRIAM NJOKI MAINA,,IDE
OEB44J5GOG,11/05/2020 17:04,11/05/2020 17:04,Pay Bill from 254720361605 - DAUD AMBER Acc. IGH,Completed,5000,,550400,TRUE,Pay Utility,254720361605 - DAUD AMBER,,IGH
OEB74IPU1T,11/05/2020 16:54,11/05/2020 16:54,Pay Bill from 254728849248 - ISABELA KARIMI KIOGORA Acc. FAB,Completed,17000,,545400,TRUE,Pay Utility,254728849248 - ISABELA KARIMI KIOGORA,,FAB
OEB24GXOX2,11/05/2020 16:09,11/05/2020 16:09,Pay Bill from 254710635630 - DONNA JESSICA OWANO Acc. Kcc,Completed,10000,,528400,TRUE,Pay Utility,254710635630 - DONNA JESSICA OWANO,,Kcc
OEB94GPDRT,11/05/2020 16:03,11/05/2020 16:03,Pay Bill from 254714889853 - EUNICE WAIRIMU MWANGI Acc. KGE,Completed,9000,,518400,TRUE,Pay Utility,254714889853 - EUNICE WAIRIMU MWANGI,,KGE
OEB049G58S,11/05/2020 12:32,11/05/2020 12:32,Pay Bill from 254797705246 - DOREEEN MUKIRI RINKANYA Acc. Fdc,Completed,9000,,509400,TRUE,Pay Utility,254797705246 - DOREEEN MUKIRI RINKANYA,,Fdc
OEB749BJOP,11/05/2020 12:28,11/05/2020 12:28,Pay Bill from 254798146452 - VALARY ODHIAMBO Acc. JEE,Completed,10000,,500400,TRUE,Pay Utility,254798146452 - VALARY ODHIAMBO,,JEE
OEB248T5VA,11/05/2020 12:13,11/05/2020 12:13,Pay Bill from 254700557767 - BAKHITA MWENDE MUANGE Acc. KCB,Completed,17000,,490400,TRUE,Pay Utility,254700557767 - BAKHITA MWENDE MUANGE,,KCB
OEB2486MIE,11/05/2020 11:54,11/05/2020 11:54,Pay Bill from 254726081838 - SELLA WAGA Acc. kfj,Completed,14000,,473400,TRUE,Pay Utility,254726081838 - SELLA WAGA,,kfj
OEB44846OI,11/05/2020 11:51,11/05/2020 11:51,Pay Bill from 254710537468 - DONALDO AMIOL JUAC AKEC Acc. jdg,Completed,1000,,459400,TRUE,Pay Utility,254710537468 - DONALDO AMIOL JUAC AKEC,,jdg
OEB043U51C,11/05/2020 09:36,11/05/2020 09:36,Pay Bill from 254700052170 - EMMANUEL MUTYETU Acc. KBF,Completed,10000,,458400,TRUE,Pay Utility,254700052170 - EMMANUEL MUTYETU,,KBF
OEB343TRIR,11/05/2020 09:36,11/05/2020 09:36,Pay Bill from 254790280339 - BANTURA GIBSON Acc. IBA,Completed,7000,,448400,TRUE,Pay Utility,254790280339 - BANTURA GIBSON,,IBA
OEB743IY0X,11/05/2020 09:25,11/05/2020 09:25,Pay Bill from 254725718282 - JULIUS MOMANYI Acc. KFG,Completed,10400,,441400,TRUE,Pay Utility,254725718282 - JULIUS MOMANYI,,KFG
OEB941DO89,11/05/2020 08:01,11/05/2020 08:01,Pay Bill from 254722997392 - ISAAC MUKONAMBI MATUMBUFU Acc. JAH ,Completed,18000,,431000,TRUE,Pay Utility,254722997392 - ISAAC MUKONAMBI MATUMBUFU,,JAH
OEB841BTZ8,11/05/2020 07:58,11/05/2020 07:58,Pay Bill from 254720249209 - WILFRED NJUGUNA WANJIRI Acc. DDD,Completed,20000,,413000,TRUE,Pay Utility,254720249209 - WILFRED NJUGUNA WANJIRI,,DDD
OEB74184TV,11/05/2020 07:53,11/05/2020 07:53,Pay Bill from 254720795510 - JONAH KIPKEMBOI ROTICH Acc. KAK,Completed,7000,,393000,TRUE,Pay Utility,254720795510 - JONAH KIPKEMBOI ROTICH,,KAK
OEA63Q57DM,10/05/2020 17:20,10/05/2020 17:20,Pay Bill from 254726611493 - Cornelius Kimeli Acc. HAG,Completed,16000,,386000,TRUE,Pay Utility,254726611493 - Cornelius Kimeli,,HAG
OEA93P6BVD,10/05/2020 16:56,10/05/2020 16:56,Pay Bill from 254715326205 - GEORGE MURANGIRI KOBIA Acc. FBB,Completed,17000,,370000,TRUE,Pay Utility,254715326205 - GEORGE MURANGIRI KOBIA,,FBB
OEA03LYSTK,10/05/2020 15:27,10/05/2020 15:27,Pay Bill from 0790273411 - MUHAMEDMALIK   GAAL Acc. IEF,Completed,11000,,353000,TRUE,Pay Utility,0790273411 - MUHAMEDMALIK   GAAL,,IEF
OEA53J3SGB,10/05/2020 14:01,10/05/2020 14:01,Pay Bill from 0717954061 - Judith Nkatha Simba Acc. icf,Completed,11000,,342000,TRUE,Pay Utility,0717954061 - Judith Nkatha Simba,,icf
OEA03FTU58,10/05/2020 12:17,10/05/2020 12:17,Pay Bill from 254714710698 - TABITHA MULEE KYALO Acc. IFE,Completed,9000,,331000,TRUE,Pay Utility,254714710698 - TABITHA MULEE KYALO,,IFE
OEA93DJXPL,10/05/2020 11:03,10/05/2020 11:03,Pay Bill from 254708901520 - COLLINS KWENA Acc. HDD,Completed,8000,,322000,TRUE,Pay Utility,254708901520 - COLLINS KWENA,,HDD
OEA4375GOE,10/05/2020 00:50,10/05/2020 00:50,Pay Bill from 254706159636 - titus omondi abuodha Acc. HBC,Completed,3000,,314000,TRUE,Pay Utility,254706159636 - titus omondi abuodha,,HBC
OE9736XJVZ,09/05/2020 23:31,09/05/2020 23:31,Pay Bill from 254701047939 - Cyrus Wahome Acc. kbg,Completed,10000,,311000,TRUE,Pay Utility,254701047939 - Cyrus Wahome,,kbg
OE9636VLCI,09/05/2020 23:17,09/05/2020 23:17,Pay Bill from 0790273411 - MUHAMEDMALIK   GAAL Acc. FDF,Completed,16000,,301000,TRUE,Pay Utility,0790273411 - MUHAMEDMALIK   GAAL,,FDF
OE9632CZSQ,09/05/2020 19:21,09/05/2020 19:21,Pay Bill from 254708669783 - SYLVIA EVA OLENDO Acc. HCA,Completed,18000,,285000,TRUE,Pay Utility,254708669783 - SYLVIA EVA OLENDO,,HCA
OE902U769Q,09/05/2020 16:22,09/05/2020 16:22,Pay Bill from 254710202776 - KELVIN KARIMI MACHARIA Acc. FAD,Completed,11000,,267000,TRUE,Pay Utility,254710202776 - KELVIN KARIMI MACHARIA,,FAD
OE912QAF6H,09/05/2020 14:34,09/05/2020 14:34,Pay Bill Online from 254706549634 - CLINTON OMBASA Acc. FDB,Completed,17000,,256000,TRUE,Pay Bill Online,254706549634 - CLINTON OMBASA,,FDB
OE912PMBRT,09/05/2020 14:15,09/05/2020 14:15,Pay Bill from 254701683737 - MICHAEL NGUGI Acc. HDB,Completed,33000,,239000,TRUE,Pay Utility,254701683737 - MICHAEL NGUGI,,HDB
OE932O31EJ,09/05/2020 13:35,09/05/2020 13:35,Pay Bill from 254721911181 - UBAH ALINOOR Acc. HGD,Completed,16000,,206000,TRUE,Pay Utility,254721911181 - UBAH ALINOOR,,HGD
OE932NOUVX,09/05/2020 13:24,09/05/2020 13:24,Pay Bill Online from 254725248080 - DENNIS KIPROTICH Acc. IBE,Completed,9500,,190000,TRUE,Pay Bill Online,254725248080 - DENNIS KIPROTICH,,IBE
OE922MSJF6,09/05/2020 12:56,09/05/2020 12:56,Pay Bill from 254720107609 - DENNIS OGENDI BARAKE Acc. JAJ,Completed,15000,,180500,TRUE,Pay Utility,254720107609 - DENNIS OGENDI BARAKE,,JAJ
OE932J2JK1,09/05/2020 10:57,09/05/2020 10:57,Pay Bill from 254791910715 - BOAZ OMAE MORARO Acc. ICC,Completed,4500,,165500,TRUE,Pay Utility,254791910715 - BOAZ OMAE MORARO,,ICC
OE952HLKAZ,09/05/2020 10:08,09/05/2020 10:08,Pay Bill from 254726001708 - MARTHA ATIENO ATIENO OSALO Acc. IBI,Completed,9000,,161000,TRUE,Pay Utility,254726001708 - MARTHA ATIENO ATIENO OSALO,,IBI
OE962DCJ14,09/05/2020 07:01,09/05/2020 07:01,Pay Bill from 254791154655 - ELISHA JURA Acc. IAH,Completed,18000,,152000,TRUE,Pay Utility,254791154655 - ELISHA JURA,,IAH
OE902DACVC,09/05/2020 06:55,09/05/2020 06:55,Pay Bill from 254710381003 - ALFRED KISHOIN Acc. IBC,Completed,9500,,134000,TRUE,Pay Utility,254710381003 - ALFRED KISHOIN,,IBC
OE892B5JE3,08/05/2020 21:48,08/05/2020 21:48,Pay Bill Online from 254726116777 - MARY NDUTA GOSHO Acc. JDB,Completed,15000,,124500,TRUE,Pay Bill Online,254726116777 - MARY NDUTA GOSHO,,JDB
OE8725XR05,08/05/2020 18:45,08/05/2020 18:45,Pay Bill from 254792414699 - LUCYWENDY AWUOR OTIENO Acc. KDI,Completed,10000,,109500,TRUE,Pay Utility,254792414699 - LUCYWENDY AWUOR OTIENO,,KDI
OE8324TY1X,08/05/2020 18:23,08/05/2020 18:23,Pay Bill from 254729948896 - CAROLINE V MILIZA Acc. Fec,Completed,9000,,99500,TRUE,Pay Utility,254729948896 - CAROLINE V MILIZA,,Fec
OE8920OHHJ,08/05/2020 16:56,08/05/2020 16:56,Pay Bill from 0722950695 - Joshua Mbithi Kivondo Acc. Dca,Completed,19000,,90500,TRUE,Pay Utility,0722950695 - Joshua Mbithi Kivondo,,Dca
OE821ZYJEO,08/05/2020 16:39,08/05/2020 16:39,Pay Bill from 0715688238 - JOANNAH ATUHAIRE BANTU Acc. JAE,Completed,9000,,71500,TRUE,Pay Utility,0715688238 - JOANNAH ATUHAIRE BANTU,,JAE
OE881ZYA6C,08/05/2020 16:38,08/05/2020 16:38,Pay Bill from 254721320216 - PAULINE WANJA NJUNGUNA Acc. HDC,Completed,10500,,62500,TRUE,Pay Utility,254721320216 - PAULINE WANJA NJUNGUNA,,HDC
OE821Y7C08,08/05/2020 15:55,08/05/2020 15:55,Pay Bill from 254727072823 - EVALYNE SITIENEI Acc. FBE,Completed,16000,,52000,TRUE,Pay Utility,254727072823 - EVALYNE SITIENEI,,FBE
OE841XSFB6,08/05/2020 15:44,08/05/2020 15:44,Pay Bill from 0743949026 - RENSON MOTAROKI NYARIKI Acc. KEJ,Completed,16000,,36000,TRUE,Pay Utility,0743949026 - RENSON MOTAROKI NYARIKI,,KEJ
OE831WPP05,08/05/2020 15:16,08/05/2020 15:16,Pay Bill from 254742142912 - cyrus makau ndulya Acc. JEI,Completed,20000,,20000,TRUE,Pay Utility,254742142912 - cyrus makau ndulya,,JEI
OE891R05QZ,08/05/2020 12:32,08/05/2020 12:32,Utility Account to Organization Settlement Account,Completed,,-145000,0,TRUE,Utility Account to Organization Settlement Account,979524 - ANCIENT WELLS PROPERTY MANAGERS 2,,
OE801QESOM,08/05/2020 12:15,08/05/2020 12:15,Pay Bill from 254703375006 - KEN RODGERS Acc. DBA,Completed,17000,,145000,TRUE,Pay Utility,254703375006 - KEN RODGERS,,DBA
OE841PNXSE,08/05/2020 11:52,08/05/2020 11:52,Pay Bill Online from 0757699775 - BENARD MUIA MUTUA Acc. HCB,Completed,16000,,128000,TRUE,Pay Bill Online,0757699775 - BENARD MUIA MUTUA,,HCB
OE841PEKT0,08/05/2020 11:44,08/05/2020 11:44,Pay Bill from 254729508187 - PATRICK SOLOMON GUDA Acc. IGF,Completed,5000,,112000,TRUE,Pay Utility,254729508187 - PATRICK SOLOMON GUDA,,IGF
OE811KF4ER,08/05/2020 09:00,08/05/2020 09:00,Pay Bill from 254722940643 - HERBERT MAVIAH ISWEKA Acc. HCG,Completed,26000,,107000,TRUE,Pay Utility,254722940643 - HERBERT MAVIAH ISWEKA,,HCG
OE861KCEO0,08/05/2020 08:58,08/05/2020 08:58,Pay Bill from 254710926340 - DOREEN MUTANU Acc. IBG,Completed,9500,,81000,TRUE,Pay Utility,254710926340 - DOREEN MUTANU,,IBG
OE881JGC5K,08/05/2020 08:22,08/05/2020 08:22,Pay Bill from 254703122244 - MABEL KAMANDA Acc. JGA,Completed,20000,,71500,TRUE,Pay Utility,254703122244 - MABEL KAMANDA,,JGA
