Receipt No.,Completion Time,Initiation Time,Details,Transaction Status,Paid In,Withdrawn,Balance,Balance Confirmed,Reason Type,Other Party Info,Linked Transaction ID,A/C No.
QLU7AS7UGL,30/12/2022 00:20,30/12/2022 00:20,Pay Bill from 254701174081 - JOSEPHINE ODUOR Acc. v34,Completed,7500,,21500,TRUE,Pay Utility,254701174081 - JOSEPHINE ODUOR,,v34
QLT89MZ7J6,29/12/2022 15:50,29/12/2022 15:50,Pay Bill from 254741968254 - VERONICA MUMBUA MULINGE Acc. V43,Completed,14000,,14000,TRUE,Pay Utility,254741968254 - VERONICA MUMBUA MULINGE,,V43
QLT58P3I33,29/12/2022 09:07,29/12/2022 09:07,Utility Account to Organization Settlement Account,Completed,,-7000,0,TRUE,Utility Account to Organization Settlement Account,887674 - ANCIENT WELLS LTD 1,,
QLS96OC1AV,28/12/2022 11:43,28/12/2022 11:43,Pay Bill Online from 254706427665 - CHRIS KIRIMI Acc. v22,Completed,7000,,7000,TRUE,Pay Bill Online,254706427665 - CHRIS KIRIMI,,v22
QLS165VABN,28/12/2022 07:24,28/12/2022 07:24,Utility Account to Organization Settlement Account,Completed,,-7000,0,TRUE,Utility Account to Organization Settlement Account,887674 - ANCIENT WELLS LTD 1,,
QLO0Y9LQY6,24/12/2022 22:30,24/12/2022 22:30,Pay Bill from 0706286171 - Ivan Ofweja Katimi Acc. V13,Completed,7000,,7000,TRUE,Pay Utility,0706286171 - Ivan Ofweja Katimi,,V13
QLO9WVWCMZ,24/12/2022 15:25,24/12/2022 15:25,Utility Account to Organization Settlement Account,Completed,,-23600,0,TRUE,Utility Account to Organization Settlement Account,887674 - ANCIENT WELLS LTD 1,,
QLO4W0REWE,24/12/2022 10:30,24/12/2022 10:30,Pay Bill from 254726702082 - STEPHEN NJUGUNA Acc. V02,Completed,7000,,23600,TRUE,Pay Utility,254726702082 - STEPHEN NJUGUNA,,V02
QLO7VWKIM9,24/12/2022 09:47,24/12/2022 09:47,Pay Bill from 0713841898 - STACY MAUA KILONZO Acc. v37,Completed,3000,,16600,TRUE,Pay Utility,0713841898 - STACY MAUA KILONZO,,v37
QLN1U14U1F,23/12/2022 15:52,23/12/2022 15:52,FSI to Pay Bill by 714888 - B2C LOOP VIA NCBA Acc. V40 via WEB by B2C LOOP VIA NCBA\Cbainitiator,Completed,6600,,13600,TRUE,FSI to Pay Bill via API,714888 - B2C LOOP VIA NCBA,,V40
QLN1TQE4ML,23/12/2022 14:07,23/12/2022 14:07,Pay Bill from 0724076126 - Denis Njuguna Karanja Acc. V32,Completed,7000,,7000,TRUE,Pay Utility,0724076126 - Denis Njuguna Karanja,,V32
QLM8RCQ40O,22/12/2022 16:33,22/12/2022 16:33,Utility Account to Organization Settlement Account,Completed,,-14000,0,TRUE,Utility Account to Organization Settlement Account,887674 - ANCIENT WELLS LTD 1,,
QLM8QREEMU,22/12/2022 12:54,22/12/2022 12:54,Pay Bill Online from 254702118125 - ROTICH BETHWEL Acc. V20,Completed,7000,,14000,TRUE,Pay Bill Online,254702118125 - ROTICH BETHWEL,,V20
QLM5QI85O9,22/12/2022 11:17,22/12/2022 11:17,Pay Bill Online from 254722454346 - RISPER KATHURE MUTHOMI Acc. V47,Completed,7000,,7000,TRUE,Pay Bill Online,254722454346 - RISPER KATHURE MUTHOMI,,V47
QLM9PZSNKD,22/12/2022 07:33,22/12/2022 07:33,Utility Account to Organization Settlement Account,Completed,,-20200,0,TRUE,Utility Account to Organization Settlement Account,887674 - ANCIENT WELLS LTD 1,,
QLL6OKY5GM,21/12/2022 16:07,21/12/2022 16:07,Pay Bill Online from 254799654490 - DANIEL MUTIO MAUNDU Acc. V28,Completed,7000,,20200,TRUE,Pay Bill Online,254799654490 - DANIEL MUTIO MAUNDU,,V28
QLL3O7Y1AR,21/12/2022 13:53,21/12/2022 13:53,Pay Bill from 254702343078 - JOSEPH EBENYO Acc. V10 Joseph ,Completed,6600,,13200,TRUE,Pay Utility,254702343078 - JOSEPH EBENYO,,V10
QLL1O21YMD,21/12/2022 12:57,21/12/2022 12:57,Pay Bill from 254719808077 - ANTHONY KARIUKI Acc. V41,Completed,6600,,6600,TRUE,Pay Utility,254719808077 - ANTHONY KARIUKI,,V41
QLJ8ICL00W,19/12/2022 10:11,19/12/2022 10:11,Utility Account to Organization Settlement Account,Completed,,-3000,0,TRUE,Utility Account to Organization Settlement Account,887674 - ANCIENT WELLS LTD 1,,
QLJ9I1XMXR,19/12/2022 08:00,19/12/2022 08:00,Pay Bill from 0704562877 - RYAN WILBERT KOJWANG Acc. V35,Completed,3000,,3000,TRUE,Pay Utility,0704562877 - RYAN WILBERT KOJWANG,,V35
QLI0GJ8QRY,18/12/2022 14:45,18/12/2022 14:45,Utility Account to Organization Settlement Account,Completed,,-10000,0,TRUE,Utility Account to Organization Settlement Account,887674 - ANCIENT WELLS LTD 1,,
QLI1G0T5SD,18/12/2022 10:57,18/12/2022 10:57,Pay Bill Online from 0718314223 - WILSON      WAINDO Acc. v19,Completed,7000,,10000,TRUE,Pay Bill Online,0718314223 - WILSON      WAINDO,,v19
QLH5EH6LDT,17/12/2022 17:50,17/12/2022 17:50,Pay Bill from 0703406243 - LEVITAN    SHALIMBA Acc. vk3,Completed,3000,,3000,TRUE,Pay Utility,0703406243 - LEVITAN    SHALIMBA,,vk3
QLH4EASWU0,17/12/2022 16:52,17/12/2022 16:52,Utility Account to Organization Settlement Account,Completed,,-13100,0,TRUE,Utility Account to Organization Settlement Account,887674 - ANCIENT WELLS LTD 1,,
QLH9E16GBL,17/12/2022 15:12,17/12/2022 15:12,Pay Bill Online from 254729569271 - MESHACK OBOTTA OBARE Acc. V12,Completed,8600,,13100,TRUE,Pay Bill Online,254729569271 - MESHACK OBOTTA OBARE,,V12
QLH3DY4NH7,17/12/2022 14:39,17/12/2022 14:39,Merchant Pay Utility Received from 7006234 - CARLPETERS ORWA AGENGO           Acc. v35,Completed,4000,,4500,TRUE,Merchant Pay Utility via API,7006234 - CARLPETERS ORWA AGENGO          ,,v35
QLH2D5FYZ0,17/12/2022 09:25,17/12/2022 09:25,Pay Bill from 254718818610 - HANNAH NALIAKA Acc. V23,Completed,500,,500,TRUE,Pay Utility,254718818610 - HANNAH NALIAKA,,V23
QLH9D0H2OD,17/12/2022 08:23,17/12/2022 08:23,Utility Account to Organization Settlement Account,Completed,,-45000,0,TRUE,Utility Account to Organization Settlement Account,887674 - ANCIENT WELLS LTD 1,,
QLG8A7OFTI,16/12/2022 08:13,16/12/2022 08:13,Pay Bill from 254746643113 - camilla namisoo wekola Acc. V17,Completed,10000,,45000,TRUE,Pay Utility with OD via STK,254746643113 - camilla namisoo wekola,,V17
QLF58W7TBX,15/12/2022 17:21,15/12/2022 17:21,Pay Bill from 254724581472 - ROSEMARY ADHIAMBO ONGWESO Acc. Vo3,Completed,9000,,35000,TRUE,Pay Utility,254724581472 - ROSEMARY ADHIAMBO ONGWESO,,Vo3
QLE0765C0A,14/12/2022 22:41,14/12/2022 22:41,Pay Bill from 254706920646 - MIRIAM CHEPTOO Acc. V08,Completed,5400,,26000,TRUE,Pay Utility with OD via STK,254706920646 - MIRIAM CHEPTOO,,V08
QLE26VDE76,14/12/2022 20:29,14/12/2022 20:29,Pay Bill from 254720230582 - SHADRACK KITAKA NGILA Acc. v01,Completed,7000,,20600,TRUE,Pay Utility,254720230582 - SHADRACK KITAKA NGILA,,v01
QLE4544KDI,14/12/2022 10:42,14/12/2022 10:42,Pay Bill Online from 254704995854 - james karanja wairimu Acc. V54,Completed,6600,,13600,TRUE,Pay Bill Online,254704995854 - james karanja wairimu,,V54
QLD54B7E1D,13/12/2022 21:03,13/12/2022 21:03,Pay Bill Online from 254723147662 - EMMANUEL ETYANG EKISA Acc. V44,Completed,7000,,7000,TRUE,Pay Bill Online,254723147662 - EMMANUEL ETYANG EKISA,,V44
QLD12UE8F7,13/12/2022 13:14,13/12/2022 13:14,Utility Account to Organization Settlement Account,Completed,,-17100,0,TRUE,Utility Account to Organization Settlement Account,887674 - ANCIENT WELLS LTD 1,,
QLD72KRNVJ,13/12/2022 11:30,13/12/2022 11:30,Utility Account to Organization Settlement Account,Completed,,-20000,17100,TRUE,Utility Account to Organization Settlement Account,887674 - ANCIENT WELLS LTD 1,,
QLC91VUEK3,12/12/2022 23:50,12/12/2022 23:50,Pay Bill from 254722282754 - HENRY SAHA Acc. V34,Completed,4000,,37100,TRUE,Pay Utility,254722282754 - HENRY SAHA,,V34
QLC9YZ7I5F,12/12/2022 11:18,12/12/2022 11:18,Pay Bill from 254700085051 - HUMPHREY WANJIKU Acc. v46,Completed,6600,,33100,TRUE,Pay Utility,254700085051 - HUMPHREY WANJIKU,,v46
QLC1YYHDSF,12/12/2022 11:10,12/12/2022 11:10,Utility Account to Organization Settlement Account,Completed,,-30000,26500,TRUE,Utility Account to Organization Settlement Account,887674 - ANCIENT WELLS LTD 1,,
QLC3YIRXTH,12/12/2022 07:59,12/12/2022 07:59,Pay Bill from 254702923950 - SAMUEL KIMANTHI Acc. V49,Completed,5800,,56500,TRUE,Pay Utility,254702923950 - SAMUEL KIMANTHI,,V49
QLB0XZ5FMK,11/12/2022 20:24,11/12/2022 20:24,Pay Bill from 0727266858 - winrose imbuga mudenyo Acc. Vk5,Completed,2500,,50700,TRUE,Pay Utility,0727266858 - winrose imbuga mudenyo,,Vk5
QLB9WPUFUH,11/12/2022 13:12,11/12/2022 13:12,Pay Bill from 254717294709 - CAROLINE WAVINYA NDINDA Acc. v15,Completed,7000,,48200,TRUE,Pay Utility,254717294709 - CAROLINE WAVINYA NDINDA,,v15
QLB0WD3FNO,11/12/2022 10:34,11/12/2022 10:34,Pay Bill from 0707674271 - Victor   Mwilu Acc. v37,Completed,5000,,41200,TRUE,Pay Utility,0707674271 - Victor   Mwilu,,v37
QLA3UOX7A9,10/12/2022 16:51,10/12/2022 16:51,Pay Bill from 254720466443 - FATUMA MOHAMED ABDALLAH Acc. V21,Completed,7000,,36200,TRUE,Pay Utility,254720466443 - FATUMA MOHAMED ABDALLAH,,V21
QLA2TIXAAW,10/12/2022 09:42,10/12/2022 09:42,Pay Bill from 254718818610 - HANNAH NALIAKA Acc. V23,Completed,2000,,29200,TRUE,Pay Utility,254718818610 - HANNAH NALIAKA,,V23
QL99RKI8BP,09/12/2022 15:17,09/12/2022 15:17,Pay Bill from 254729358258 - Cliff Ombasa Acc. V05,Completed,11000,,27200,TRUE,Pay Utility,254729358258 - Cliff Ombasa,,V05
QL92R4CP6I,09/12/2022 12:39,09/12/2022 12:39,Pay Bill Online from 254740912300 - ADELIDE IMINZA CHAGUSIA Acc. v27,Completed,6600,,16200,TRUE,Pay Bill Online,254740912300 - ADELIDE IMINZA CHAGUSIA,,v27
QL84Q54VNK,08/12/2022 23:16,08/12/2022 23:16,Pay Bill Online from 254720056285 - DAMARIS NDURU Acc. V18,Completed,6600,,9600,TRUE,Pay Bill Online,254720056285 - DAMARIS NDURU,,V18
QL89PVJNQZ,08/12/2022 20:55,08/12/2022 20:55,Pay Bill from 254722282754 - HENRY SAHA Acc. V34,Completed,3000,,3000,TRUE,Pay Utility,254722282754 - HENRY SAHA,,V34
QL84OBG7J2,08/12/2022 13:03,08/12/2022 13:03,Utility Account to Organization Settlement Account,Completed,,-17800,0,TRUE,Utility Account to Organization Settlement Account,887674 - ANCIENT WELLS LTD 1,,
QL76N1CB3Q,07/12/2022 21:24,07/12/2022 21:24,Pay Bill from 254707183471 - PETINA NEKESA Acc. V23,Completed,3800,,17800,TRUE,Pay Utility,254707183471 - PETINA NEKESA,,V23
QL79LV03OP,07/12/2022 15:58,07/12/2022 15:58,Pay Bill from 0758457508 - PETER KINGORI KAGUNDA Acc. V06,Completed,7000,,14000,TRUE,Pay Utility,0758457508 - PETER KINGORI KAGUNDA,,V06
QL78LAAA98,07/12/2022 12:39,07/12/2022 12:39,Pay Bill from 0769858701 - DOLLARS DANIEL CIRHUZA Acc. V09,Completed,7000,,7000,TRUE,Pay Utility,0769858701 - DOLLARS DANIEL CIRHUZA,,V09
QL76KF0GUK,07/12/2022 06:25,07/12/2022 06:25,Utility Account to Organization Settlement Account,Completed,,-67600,0,TRUE,Utility Account to Organization Settlement Account,887674 - ANCIENT WELLS LTD 1,,
QL67K6WSTH,06/12/2022 22:08,06/12/2022 22:08,Pay Bill from 254729806880 - Eunice Akinyi Were Acc. V33,Completed,7000,,67600,TRUE,Pay Utility,254729806880 - Eunice Akinyi Were,,V33
QL68K1NRKM,06/12/2022 21:12,06/12/2022 21:12,Pay Bill from 0717042461 - Sharon Nyangasi Shivachi Acc. V55 ,Completed,6600,,60600,TRUE,Pay Utility,0717042461 - Sharon Nyangasi Shivachi,,V55
QL62JXLUMW,06/12/2022 20:36,06/12/2022 20:36,Pay Bill from 0795807227 - Lucy Ncekei Kimathi Acc. V36 ,Completed,6600,,54000,TRUE,Pay Utility,0795807227 - Lucy Ncekei Kimathi,,V36
QL61J0EPUD,06/12/2022 16:36,06/12/2022 16:36,Pay Bill from 254712091662 - BENARD OMONDI ROBY Acc. V16,Completed,6600,,47400,TRUE,Pay Utility,254712091662 - BENARD OMONDI ROBY,,V16
QL68I2AO1I,06/12/2022 11:15,06/12/2022 11:15,Pay Bill Online from 254726465584 - JULIANA MUKELI MUTUNGA Acc. v4,Completed,6600,,40800,TRUE,Pay Bill Online,254726465584 - JULIANA MUKELI MUTUNGA,,v4
QL67I24CF1,06/12/2022 11:13,06/12/2022 11:13,Pay Bill from 254703108159 - JOICE OGOLLA Acc. V50,Completed,6600,,34200,TRUE,Pay Utility,254703108159 - JOICE OGOLLA,,V50
QL60HK0MWY,06/12/2022 08:06,06/12/2022 08:06,Pay Bill from 254723815832 - SEMEKIA ONDIALA Acc. V38,Completed,6600,,27600,TRUE,Pay Utility,254723815832 - SEMEKIA ONDIALA,,V38
QL51H6PJ3V,05/12/2022 22:25,05/12/2022 22:25,Pay Bill from 254722578070 - SAMUEL MACHARIA Acc. v42,Completed,7000,,21000,TRUE,Pay Utility,254722578070 - SAMUEL MACHARIA,,v42
QL58G6EKWA,05/12/2022 17:56,05/12/2022 17:56,Pay Bill from 254723337732 - CHRISTINE AKINYI OCHELE Acc. V14,Completed,7000,,14000,TRUE,Pay Utility,254723337732 - CHRISTINE AKINYI OCHELE,,V14
QL59FWA7ZP,05/12/2022 16:41,05/12/2022 16:41,Pay Bill from 254790128716 - HELLEN NAPHTAL Acc. V11,Completed,7000,,7000,TRUE,Pay Utility,254790128716 - HELLEN NAPHTAL,,V11
QL58EYIJUS,05/12/2022 11:44,05/12/2022 11:44,Utility Account to Organization Settlement Account,Completed,,-100,0,TRUE,Utility Account to Organization Settlement Account,887674 - ANCIENT WELLS LTD 1,,
QL56EP05T8,05/12/2022 10:13,05/12/2022 10:13,Utility Account to Organization Settlement Account,Completed,,-30000,100,TRUE,Utility Account to Organization Settlement Account,887674 - ANCIENT WELLS LTD 1,,
QL47CK7DMD,04/12/2022 15:48,04/12/2022 15:48,Pay Bill from 254740912300 - ADELIDE IMINZA CHAGUSIA Acc. v31,Completed,1200,,30100,TRUE,Pay Utility,254740912300 - ADELIDE IMINZA CHAGUSIA,,v31
QL49C63Q43,04/12/2022 13:42,04/12/2022 13:42,Pay Bill from 254720362703 - SULEKA ISSACK MOHAMED Acc. V52,Completed,7000,,28900,TRUE,Pay Utility,254720362703 - SULEKA ISSACK MOHAMED,,V52
QL47C4J8QN,04/12/2022 13:28,04/12/2022 13:28,Pay Bill from 254706920646 - MIRIAM CHEPTOO Acc. V08,Completed,2100,,21900,TRUE,Pay Utility with OD via STK,254706920646 - MIRIAM CHEPTOO,,V08
QL42BOCS7K,04/12/2022 10:38,04/12/2022 10:38,Pay Bill from 0714747222 - WILSON KIMANI MWANGI Acc. v25,Completed,7000,,19800,TRUE,Pay Utility,0714747222 - WILSON KIMANI MWANGI,,v25
QL34AEXLA6,03/12/2022 20:39,03/12/2022 20:39,Utility Account to Organization Settlement Account,Completed,,-15000,12800,TRUE,Utility Account to Organization Settlement Account,887674 - ANCIENT WELLS LTD 1,,
QL38AEEGJU,03/12/2022 20:35,03/12/2022 20:35,Pay Bill from 254701086112 - CAROLYNE KOKI MULWA Acc. V30,Completed,6600,,27800,TRUE,Pay Utility,254701086112 - CAROLYNE KOKI MULWA,,V30
QL264FF0RA,02/12/2022 06:25,02/12/2022 06:25,Utility Account to Organization Settlement Account,Completed,,-20000,21200,TRUE,Utility Account to Organization Settlement Account,887674 - ANCIENT WELLS LTD 1,,
QL193ZFGU5,01/12/2022 21:39,01/12/2022 21:39,Pay Bill from 254726702082 - STEPHEN NJUGUNA Acc. V02,Completed,7000,,41200,TRUE,Pay Utility,254726702082 - STEPHEN NJUGUNA,,V02
QL1434S220,01/12/2022 17:58,01/12/2022 17:58,Pay Bill Online from 0715939681 - alex mwanzia nyamai Acc. v7,Completed,6600,,34200,TRUE,Pay Bill Online,0715939681 - alex mwanzia nyamai,,v7
QL102NNHBO,01/12/2022 15:28,01/12/2022 15:28,FSI to Pay Bill by 714888 - B2C LOOP VIA NCBA Acc. V40 via WEB by B2C LOOP VIA NCBA\Cbainitiator,Completed,6600,,27600,TRUE,FSI to Pay Bill via API,714888 - B2C LOOP VIA NCBA,,V40
QL151CK3PJ,01/12/2022 07:05,01/12/2022 07:05,Pay Bill from 254720002225 - DAVID NDENGWA Acc. V29,Completed,7000,,21000,TRUE,Pay Utility,254720002225 - DAVID NDENGWA,,V29
