Receipt No.,Completion Time,Initiation Time,Details,Transaction Status,Paid In,Withdrawn,Balance,Balance Confirmed,Reason Type,Other Party Info,Linked Transaction ID,A/C No.
PJS4UHBE1G,28/10/2021 16:31,28/10/2021 16:31,Pay Bill from 254791206178 - LORINE MUGANDA Acc. FBD,Completed,400,,6800,TRUE,Pay Utility,254791206178 - LORINE MUGANDA,,FBD
PJS5UEOVCT,28/10/2021 15:45,28/10/2021 15:45,Pay Bill from 254729450678 - GRACE NDUNGE Acc. fba,Completed,400,,6400,TRUE,Pay Utility,254729450678 - GRACE NDUNGE,,fba
PJS8UBP83G,28/10/2021 14:51,28/10/2021 14:51,Pay Bill from 254722458136 - NADI GOLICHA Acc. KAA,Completed,600,,6000,TRUE,Pay Utility with OD via STK,254722458136 - NADI GOLICHA,,KAA
PJS0TVNIHC,28/10/2021 09:52,28/10/2021 09:52,Pay Bill from 254728259571 - ANNE KASIVA Acc. ieb,Completed,1000,,5400,TRUE,Pay Utility,254728259571 - ANNE KASIVA,,ieb
PJS9TQXBA5,28/10/2021 08:12,28/10/2021 08:12,Pay Bill Online from 254725140122 - JEDIDAH LOLE MUTHONI Acc. HDE,Completed,400,,4400,TRUE,Pay Bill Online,254725140122 - JEDIDAH LOLE MUTHONI,,HDE
PJS0TO35ZE,28/10/2021 06:50,28/10/2021 06:50,Pay Bill from 254710965167 - KUSA STEPHANIE HAZEL Acc. JDC,Completed,600,,4000,TRUE,Pay Utility,254710965167 - KUSA STEPHANIE HAZEL,,JDC
PJR6TKYPLC,27/10/2021 23:11,27/10/2021 23:11,Pay Bill from 254721671129 - CHRISPINUS ODHIAMBO Acc. DFD,Completed,2800,,3400,TRUE,Pay Utility,254721671129 - CHRISPINUS ODHIAMBO,,DFD
PJR0TJXV8K,27/10/2021 22:21,27/10/2021 22:21,Pay Bill from 254720278119 - LINDAH OGAWO Acc. KFE,Completed,600,,600,TRUE,Pay Utility with OD via STK,254720278119 - LINDAH OGAWO,,KFE
PJR2TI5J4W,27/10/2021 21:33,27/10/2021 21:33,Utility Account to Organization Settlement Account,Completed,,-7600,0,TRUE,Utility Account to Organization Settlement Account,846783 - ANCIENT WELLS LTD 4,,
PJR9TGJ1E5,27/10/2021 21:02,27/10/2021 21:02,Pay Bill from 254711706815 - NAOMI WANYONYI Acc. KBA,Completed,800,,7600,TRUE,Pay Utility,254711706815 - NAOMI WANYONYI,,KBA
PJR1TCJ5YR,27/10/2021 20:02,27/10/2021 20:02,Pay Bill from 254705902606 - JOSEPH OTIENO SAGWA Acc. fed,Completed,1000,,6800,TRUE,Pay Utility,254705902606 - JOSEPH OTIENO SAGWA,,fed
PJR2TCD1IE,27/10/2021 20:00,27/10/2021 20:00,Pay Bill Online from 254700379039 - MARTIN KIMANI Acc. KCI,Completed,1200,,5800,TRUE,Pay Bill Online,254700379039 - MARTIN KIMANI,,KCI
PJR7TACJIJ,27/10/2021 19:36,27/10/2021 19:36,Pay Bill from 254702527778 - PAULINE MUKAMI MUNYI Acc. Heh,Completed,800,,4600,TRUE,Pay Utility,254702527778 - PAULINE MUKAMI MUNYI,,Heh
PJR7SXEYZN,27/10/2021 17:03,27/10/2021 17:03,Pay Bill from 0715273095 - Stacy Aketch Ochuka Acc. KGK,Completed,3000,,3800,TRUE,Pay Utility,0715273095 - Stacy Aketch Ochuka,,KGK
PJR5SKS22Z,27/10/2021 13:22,27/10/2021 13:22,Pay Bill from 254703375006 - KEN RODGERS Acc. DBA,Completed,600,,800,TRUE,Pay Utility,254703375006 - KEN RODGERS,,DBA
PJR5SH9E6B,27/10/2021 12:18,27/10/2021 12:18,Pay Bill from 254728901013 - ALEX MOSE ARWASA Acc. HGD,Completed,200,,200,TRUE,Pay Utility with OD via STK,254728901013 - ALEX MOSE ARWASA,,HGD
PJQ4RPXXHY,26/10/2021 19:57,26/10/2021 19:57,Utility Account to Organization Settlement Account,Completed,,-7800,0,TRUE,Utility Account to Organization Settlement Account,846783 - ANCIENT WELLS LTD 4,,
PJQ2RO6XB6,26/10/2021 19:36,26/10/2021 19:36,Pay Bill from 254729557859 - AUDREY KASINDAHA KASINDAHA Acc. KFB,Completed,1400,,7800,TRUE,Pay Utility with OD via STK,254729557859 - AUDREY KASINDAHA KASINDAHA,,KFB
PJQ2R7UPVC,26/10/2021 16:06,26/10/2021 16:06,Pay Bill from 254722910078 - MAUREEN MUNYIVA MUTUKU Acc. DBD,Completed,1400,,6400,TRUE,Pay Utility,254722910078 - MAUREEN MUNYIVA MUTUKU,,DBD
PJQ3QYY4G9,26/10/2021 13:24,26/10/2021 13:24,Pay Bill from 254704140048 - MAUREEN GACHERI KINYUA Acc. JDD,Completed,800,,5000,TRUE,Pay Utility,254704140048 - MAUREEN GACHERI KINYUA,,JDD
PJQ0QMHZUK,26/10/2021 09:26,26/10/2021 09:26,Pay Bill Online from 254717463608 - DANIEL MUNIU MUGURE Acc. HGE,Completed,600,,4200,TRUE,Pay Bill Online,254717463608 - DANIEL MUNIU MUGURE,,HGE
PJQ5QGWLJL,26/10/2021 07:12,26/10/2021 07:12,Pay Bill from 0796929370 - HALIMA BOYA GALMA Acc. Dbc,Completed,2400,,3600,TRUE,Pay Utility,0796929370 - HALIMA BOYA GALMA,,Dbc
PJP0QCVIOE,25/10/2021 22:46,25/10/2021 22:46,FSI to Pay Bill by 714888 - B2C LOOP VIA NCBA Acc. KCF via WEB by B2C LOOP VIA NCBA\Cbainitiator,Completed,1200,,1200,TRUE,FSI to Pay Bill via API,714888 - B2C LOOP VIA NCBA,,KCF
PJP7Q3EL53,25/10/2021 19:41,25/10/2021 19:41,Utility Account to Organization Settlement Account,Completed,,-700,0,TRUE,Utility Account to Organization Settlement Account,846783 - ANCIENT WELLS LTD 4,,
PJP8PTVE3Q,25/10/2021 17:51,25/10/2021 17:51,Pay Bill from 254798146452 - VALARY ODHIAMBO Acc. JEE,Completed,300,,700,TRUE,Pay Utility with OD via STK,254798146452 - VALARY ODHIAMBO,,JEE
PJP3PNUQEZ,25/10/2021 16:16,25/10/2021 16:16,Pay Bill from 254713497971 - GERISHON NDUNG'U KOMU Acc. HGH,Completed,400,,400,TRUE,Pay Utility,254713497971 - GERISHON NDUNG'U KOMU,,HGH
PJP7PKIXOH,25/10/2021 15:14,25/10/2021 15:14,Utility Account to Organization Settlement Account,Completed,,-4400,0,TRUE,Utility Account to Organization Settlement Account,846783 - ANCIENT WELLS LTD 4,,
PJP1PHOY33,25/10/2021 14:20,25/10/2021 14:20,Pay Bill Online from 254719317219 - PHILIP MBOYA Acc. JDH,Completed,600,,4400,TRUE,Pay Utility with OD Online,254719317219 - PHILIP MBOYA,,JDH
PJP2PEMDJE,25/10/2021 13:23,25/10/2021 13:23,Pay Bill from 0742952242 - Isaac tuitoek cheserem Acc. IBI,Completed,2000,,3800,TRUE,Pay Utility,0742952242 - Isaac tuitoek cheserem,,IBI
PJP0PE3KR6,25/10/2021 13:14,25/10/2021 13:14,Pay Bill from 254704783091 - CLINTON MUSEBE KASUTI Acc. V48,Completed,200,,1800,TRUE,Pay Utility,254704783091 - CLINTON MUSEBE KASUTI,,V48
PJP6PCF3UQ,25/10/2021 12:42,25/10/2021 12:42,Pay Bill from 0721130307 - HILLARY NGUNYI MUTINDA Acc. JCH,Completed,1200,,1600,TRUE,Pay Utility,0721130307 - HILLARY NGUNYI MUTINDA,,JCH
PJP8P27Z90,25/10/2021 09:20,25/10/2021 09:20,Pay Bill from 254723389922 - ANNE WANJIKU NDUNGU Acc. v53,Completed,400,,400,TRUE,Pay Utility,254723389922 - ANNE WANJIKU NDUNGU,,v53
PJP7P1I4LD,25/10/2021 09:05,25/10/2021 09:05,Utility Account to Organization Settlement Account,Completed,,-1700,0,TRUE,Utility Account to Organization Settlement Account,846783 - ANCIENT WELLS LTD 4,,
PJO4OO3H6U,24/10/2021 20:36,24/10/2021 20:36,Pay Bill Online from 254707049818 - LUCKY TSUMA Acc. V19,Completed,200,,1700,TRUE,Pay Bill Online,254707049818 - LUCKY TSUMA,,V19
PJO6OJUTIG,24/10/2021 19:31,24/10/2021 19:31,Pay Bill Online from 254723901777 - EVANS YEBEI Acc. KCH,Completed,900,,1500,TRUE,Pay Bill Online,254723901777 - EVANS YEBEI,,KCH
PJN0LZUM1Q,23/10/2021 09:01,23/10/2021 09:01,Pay Bill from 254713662892 - DAVID JUMA KIPTOCH Acc. JBE,Completed,600,,600,TRUE,Pay Utility,254713662892 - DAVID JUMA KIPTOCH,,JBE
PJN6LXJQRA,23/10/2021 08:10,23/10/2021 08:10,Utility Account to Organization Settlement Account,Completed,,-52300,0,TRUE,Utility Account to Organization Settlement Account,846783 - ANCIENT WELLS LTD 4,,
PJN1LWMVH3,23/10/2021 07:48,23/10/2021 07:48,Pay Bill from 254701261592 - VICTOR MWILU Acc. v37,Completed,400,,52300,TRUE,Pay Utility with OD via STK,254701261592 - VICTOR MWILU,,v37
PJM9LMFILR,22/10/2021 20:47,22/10/2021 20:47,Pay Bill Online from 254799863492 - HIRANI MULJI Acc. JDB,Completed,800,,51900,TRUE,Pay Bill Online,254799863492 - HIRANI MULJI,,JDB
PJM7LKGUD7,22/10/2021 20:17,22/10/2021 20:17,Pay Bill from 254798146452 - VALARY ODHIAMBO Acc. JEE,Completed,900,,51100,TRUE,Pay Utility with OD via STK,254798146452 - VALARY ODHIAMBO,,JEE
PJM4L48IC6,22/10/2021 16:55,22/10/2021 16:55,Pay Bill from 0740507437 - JOY KAARI KAMENCU Acc. FAC,Completed,2000,,50200,TRUE,Pay Utility,0740507437 - JOY KAARI KAMENCU,,FAC
PJM2L3NBF4,22/10/2021 16:46,22/10/2021 16:46,Pay Bill from 254722706516 - KORIR ANTHONY Acc. Anthony d 3 ,Completed,200,,48200,TRUE,Pay Utility,254722706516 - KORIR ANTHONY,,Anthony
PJM8L2LRUW,22/10/2021 16:29,22/10/2021 16:29,Pay Bill from 0798115228 - samwel kariuki wanjigi Acc. KAF,Completed,400,,48000,TRUE,Pay Utility,0798115228 - samwel kariuki wanjigi,,KAF
PJM1L1LVB1,22/10/2021 16:12,22/10/2021 16:12,Pay Bill from 254722992162 - JAEL MWANDILOH Acc. DCB,Completed,2000,,47600,TRUE,Pay Utility,254722992162 - JAEL MWANDILOH,,DCB
PJM8KVYWSS,22/10/2021 14:30,22/10/2021 14:30,Pay Bill from 254729371750 - DERRICK OTANGA Acc. FEF,Completed,1600,,45600,TRUE,Pay Utility,254729371750 - DERRICK OTANGA,,FEF
PJM0KQGQ8Y,22/10/2021 12:47,22/10/2021 12:47,Pay Bill from 0727542914 - Pascal Ouma Opar Acc. pascalv45,Completed,1000,,44000,TRUE,Pay Utility,0727542914 - Pascal Ouma Opar,,pascalv45
PJM3KO14AJ,22/10/2021 11:59,22/10/2021 11:59,Pay Bill from 254700385346 - JESCA ATIENO OKOTH Acc. kcg,Completed,400,,43000,TRUE,Pay Utility,254700385346 - JESCA ATIENO OKOTH,,kcg
PJM4KNRTBE,22/10/2021 11:54,22/10/2021 11:54,Pay Bill from 254728681775 - Faith Abigael Acc. IAF,Completed,3600,,42600,TRUE,Pay Utility,254728681775 - Faith Abigael,,IAF
PJM7KMM8BT,22/10/2021 11:31,22/10/2021 11:31,Pay Bill from 0758457508 - PETER KINGORI KAGUNDA Acc. V06,Completed,400,,39000,TRUE,Pay Utility,0758457508 - PETER KINGORI KAGUNDA,,V06
PJM2KKQ9OS,22/10/2021 10:54,22/10/2021 10:54,Pay Bill from 254723488259 - WILSON OKITE OKITE Acc. HCA,Completed,1000,,38600,TRUE,Pay Utility with OD via STK,254723488259 - WILSON OKITE OKITE,,HCA
PJM1KE59CV,22/10/2021 08:38,22/10/2021 08:38,Pay Bill from 254717909848 - MARY MBULA KATHUKU Acc. FGD,Completed,1400,,37600,TRUE,Pay Utility with OD via STK,254717909848 - MARY MBULA KATHUKU,,FGD
PJM9K8X3I7,22/10/2021 03:51,22/10/2021 03:51,Pay Bill Online from 254712187712 - JUDELEEN AHINDUKHA SHILOBELE Acc. IEA,Completed,1600,,36200,TRUE,Pay Bill Online,254712187712 - JUDELEEN AHINDUKHA SHILOBELE,,IEA
PJM7K8RPVV,22/10/2021 02:39,22/10/2021 02:39,Pay Bill from 254728042989 - PATRICK OMONDI Acc. IFI,Completed,600,,34600,TRUE,Pay Utility with OD via STK,254728042989 - PATRICK OMONDI,,IFI
PJL0K5R1VG,21/10/2021 21:53,21/10/2021 21:53,Pay Bill from 254707715639 - Annastacia Kimeu Acc. JFC,Completed,3200,,34000,TRUE,Pay Utility with OD via STK,254707715639 - Annastacia Kimeu,,JFC
PJL5K33F6X,21/10/2021 20:57,21/10/2021 20:57,Pay Bill from 0715688238 - JOANNAH ATUHAIRE BANTU Acc. jae,Completed,400,,30800,TRUE,Pay Utility,0715688238 - JOANNAH ATUHAIRE BANTU,,jae
PJL0JZ4GS8,21/10/2021 19:56,21/10/2021 19:56,Pay Bill from 0113292564 - Bethuel Kemboi Kurui Acc. JFD,Completed,400,,30400,TRUE,Pay Utility,0113292564 - Bethuel Kemboi Kurui,,JFD
PJL9JUY6F5,21/10/2021 19:08,21/10/2021 19:08,Pay Bill from 254719285750 - LILIAN ACHIENG ODONGO Acc. IGE,Completed,200,,30000,TRUE,Pay Utility,254719285750 - LILIAN ACHIENG ODONGO,,IGE
PJL9JUMWJ7,21/10/2021 19:05,21/10/2021 19:05,Pay Bill Online from 0757699775 - BENARD MUIA MUTUA Acc. HCB,Completed,1600,,29800,TRUE,Pay Bill Online,0757699775 - BENARD MUIA MUTUA,,HCB
PJL3JECK35,21/10/2021 15:01,21/10/2021 15:01,Pay Bill Online from 254715764212 - BANCE ISHEMINYE Acc. JFE,Completed,400,,28200,TRUE,Pay Utility with OD Online,254715764212 - BANCE ISHEMINYE,,JFE
PJL8JE7C2O,21/10/2021 14:58,21/10/2021 14:58,Pay Bill from 0758506934 - Edgar Maxwel Wanguba Acc. IFG,Completed,2600,,27800,TRUE,Pay Utility,0758506934 - Edgar Maxwel Wanguba,,IFG
PJL0JDKJOA,21/10/2021 14:46,21/10/2021 14:46,Pay Bill from 254719499823 - MOSES MWANZIA MUTHIANI Acc. Jcc,Completed,3800,,25200,TRUE,Pay Utility,254719499823 - MOSES MWANZIA MUTHIANI,,Jcc
PJL5J8CDH1,21/10/2021 13:09,21/10/2021 13:09,Pay Bill from 254795449800 - MARTHA WANJIRU NJUGUNA Acc. Feb,Completed,600,,21400,TRUE,Pay Utility,254795449800 - MARTHA WANJIRU NJUGUNA,,Feb
PJL1J6TZ4N,21/10/2021 12:40,21/10/2021 12:40,Pay Bill from 254700430569 - EDITH   GAKII Acc. FCB,Completed,6200,,20800,TRUE,Pay Utility,254700430569 - EDITH   GAKII,,FCB
PJL8J4AU8C,21/10/2021 11:52,21/10/2021 11:52,Pay Bill from 254712461449 - CAROLINE MUTHONI GICHOHI Acc. fca,Completed,600,,14600,TRUE,Pay Utility,254712461449 - CAROLINE MUTHONI GICHOHI,,fca
PJL1J3DLFF,21/10/2021 11:34,21/10/2021 11:34,Pay Bill from 254712954563 - JOSEPH MUTISO KILONZO Acc. dac,Completed,3000,,14000,TRUE,Pay Utility,254712954563 - JOSEPH MUTISO KILONZO,,dac
PJL5J26IHD,21/10/2021 11:11,21/10/2021 11:11,Pay Bill from 254702044732 - GUYATU OLLO GALGALO Acc. DGD,Completed,3200,,11000,TRUE,Pay Utility,254702044732 - GUYATU OLLO GALGALO,,DGD
PJL8J18XXE,21/10/2021 10:52,21/10/2021 10:52,Pay Bill from 254729713741 - ALBANUS MUTISO Acc. DDC,Completed,2600,,7800,TRUE,Pay Utility,254729713741 - ALBANUS MUTISO,,DDC
PJL4IS3LCC,21/10/2021 07:30,21/10/2021 07:30,Pay Bill Online from 254722728975 - CURTIS MRIGA OMIDO Acc. IAH,Completed,600,,5200,TRUE,Pay Bill Online,254722728975 - CURTIS MRIGA OMIDO,,IAH
PJK4IMQMWE,20/10/2021 22:11,20/10/2021 22:11,Pay Bill Online from 254720696119 - DUNCAN OMONDI OKETCH Acc. IAG,Completed,400,,4600,TRUE,Pay Utility with OD Online,254720696119 - DUNCAN OMONDI OKETCH,,IAG
PJK9IK3FR1,20/10/2021 21:09,20/10/2021 21:09,Pay Bill from 254707881909 - MARGARET NGIMA NDUNG'U Acc. V17,Completed,2000,,4200,TRUE,Pay Utility,254707881909 - MARGARET NGIMA NDUNG'U,,V17
PJK4IHJTMO,20/10/2021 20:25,20/10/2021 20:25,Pay Bill from 254717294709 - CAROLINE WAVINYA NDINDA Acc. v15,Completed,1400,,2200,TRUE,Pay Utility,254717294709 - CAROLINE WAVINYA NDINDA,,v15
PJK0IGODN6,20/10/2021 20:12,20/10/2021 20:12,Pay Bill from 254700218502 - GRACE NGURE Acc. v46,Completed,600,,800,TRUE,Pay Utility,254700218502 - GRACE NGURE,,v46
PJK2IFPNLU,20/10/2021 19:59,20/10/2021 19:59,Pay Bill from 254728093389 - MOHAMED MUSA ALASOW Acc. KED ,Completed,200,,200,TRUE,Pay Utility,254728093389 - MOHAMED MUSA ALASOW,,KED
PJK0HTF8EW,20/10/2021 14:39,20/10/2021 14:39,Utility Account to Organization Settlement Account,Completed,,-20670,0,TRUE,Utility Account to Organization Settlement Account,846783 - ANCIENT WELLS LTD 4,,
PJK4HSSTIY,20/10/2021 14:28,20/10/2021 14:28,Pay Bill Online from 254715002789 - ERICK NGUGI MAINA Acc. HAG,Completed,1400,,20670,TRUE,Pay Bill Online,254715002789 - ERICK NGUGI MAINA,,HAG
PJK6HRT2OW,20/10/2021 14:09,20/10/2021 14:09,Pay Bill from 254728417975 - HANNAH WANJIKU WAGIKUYU Acc. DEA,Completed,2000,,19270,TRUE,Pay Utility,254728417975 - HANNAH WANJIKU WAGIKUYU,,DEA
PJK6HO1R16,20/10/2021 12:58,20/10/2021 12:58,Pay Bill from 254720249209 - WILFRED NJUGUNA WANJIRA Acc. DDD,Completed,1200,,17270,TRUE,Pay Utility,254720249209 - WILFRED NJUGUNA WANJIRA,,DDD
PJK3HM3OS9,20/10/2021 12:21,20/10/2021 12:20,Pay Bill from 254722136450 - MARY EVERLYN Acc. JAI,Completed,600,,16070,TRUE,Pay Utility with OD via STK,254722136450 - MARY EVERLYN,,JAI
PJK9HIDFIX,20/10/2021 11:08,20/10/2021 11:08,Pay Bill Online from 254706427665 - CHRIS KIRIMI Acc. V22,Completed,100,,15470,TRUE,Pay Bill Online,254706427665 - CHRIS KIRIMI,,V22
PJK8HIA2DI,20/10/2021 11:06,20/10/2021 11:06,Pay Bill Online from 254706427665 - CHRIS KIRIMI Acc. V22,Completed,100,,15370,TRUE,Pay Bill Online,254706427665 - CHRIS KIRIMI,,V22
PJK8HI29XO,20/10/2021 11:02,20/10/2021 11:02,Pay Bill from 254702346515 - ELIZABETH ACHIENG NGOME Acc. KDE,Completed,200,,15270,TRUE,Pay Utility,254702346515 - ELIZABETH ACHIENG NGOME,,KDE
PJK0HE5I8I,20/10/2021 09:44,20/10/2021 09:44,Pay Bill from 254721115404 - Justine Fayuma Okwemba Acc. HAA,Completed,1500,,15070,TRUE,Pay Utility with OD via STK,254721115404 - Justine Fayuma Okwemba,,HAA
PJK3HCYBM7,20/10/2021 09:20,20/10/2021 09:20,Pay Bill from 254720230582 - SHADRACK KITAKA NGILA Acc. hse,Completed,600,,13570,TRUE,Pay Utility,254720230582 - SHADRACK KITAKA NGILA,,hse
PJJ2GW6W10,19/10/2021 19:47,19/10/2021 19:47,Pay Bill from 254700382442 - EVERLYNE MWENDE MUMO Acc. FGC,Completed,400,,12970,TRUE,Pay Utility,254700382442 - EVERLYNE MWENDE MUMO,,FGC
PJJ7GV8OK3,19/10/2021 19:35,19/10/2021 19:35,Pay Bill from 254723328258 - SAMUEL MAINA MURIUKI Acc. IFE,Completed,200,,12570,TRUE,Pay Utility,254723328258 - SAMUEL MAINA MURIUKI,,IFE
PJJ8GUBYRK,19/10/2021 19:25,19/10/2021 19:25,Pay Bill from 254718284151 - EVERLINE MATHEKA Acc. JAG,Completed,200,,12370,TRUE,Pay Utility,254718284151 - EVERLINE MATHEKA,,JAG
PJJ6GOWL1W,19/10/2021 18:27,19/10/2021 18:27,Pay Bill from 254720623535 - JOSEPH MUTURI KAMAU Acc. V32,Completed,800,,12170,TRUE,Pay Utility with OD via STK,254720623535 - JOSEPH MUTURI KAMAU,,V32
PJJ5GH3GBH,19/10/2021 16:38,19/10/2021 16:38,Pay Bill from 254725111246 - FRANCIS MUUTU MWANGANGI Acc. IGI,Completed,400,,11370,TRUE,Pay Utility,254725111246 - FRANCIS MUUTU MWANGANGI,,IGI
PJJ2GFETJ4,19/10/2021 16:10,19/10/2021 16:10,Pay Bill from 254701006375 - EZRA MAKORI SERETI Acc. HTE,Completed,600,,10970,TRUE,Pay Utility with OD via STK,254701006375 - EZRA MAKORI SERETI,,HTE
PJJ7GDBD0J,19/10/2021 15:32,19/10/2021 15:32,Pay Bill from 254720931300 - ESTHER WANJIRU NDUNGO Acc. KGE,Completed,400,,10370,TRUE,Pay Utility,254720931300 - ESTHER WANJIRU NDUNGO,,KGE
PJJ8GC45QA,19/10/2021 15:09,19/10/2021 15:09,Pay Bill from 254703147783 - LYDIAH NJOKI MUCHIRI Acc. Jeb,Completed,200,,9970,TRUE,Pay Utility,254703147783 - LYDIAH NJOKI MUCHIRI,,Jeb
PJJ3GBPFW9,19/10/2021 15:02,19/10/2021 15:02,Pay Bill from 254713916352 - WINFRED KATUNGWA NDALA Acc. V30,Completed,200,,9770,TRUE,Pay Utility,254713916352 - WINFRED KATUNGWA NDALA,,V30
PJJ0GBNMQ2,19/10/2021 15:01,19/10/2021 15:01,Pay Bill from 254722521028 - CHARLES MONYONCHO Acc. ICB,Completed,3800,,9570,TRUE,Pay Utility,254722521028 - CHARLES MONYONCHO,,ICB
PJJ4GBKF4S,19/10/2021 14:59,19/10/2021 14:59,Pay Bill from 254728888511 - HAMISI MIRITI Acc. KAK,Completed,200,,5770,TRUE,Pay Utility,254728888511 - HAMISI MIRITI,,KAK
PJJ7GBGU6N,19/10/2021 14:57,19/10/2021 14:57,Pay Bill Online from 254717053159 - FREDRICK NYATIKA Acc. IEF,Completed,600,,5570,TRUE,Pay Bill Online,254717053159 - FREDRICK NYATIKA,,IEF
PJJ7GBDTKN,19/10/2021 14:56,19/10/2021 14:56,Pay Bill from 254724852503 - GEOFREY YEGO Acc. JFF,Completed,400,,4970,TRUE,Pay Utility,254724852503 - GEOFREY YEGO,,JFF
PJJ0GBDTDS,19/10/2021 14:56,19/10/2021 14:56,Pay Bill from 254759390371 - RHINUS MUTWIRI KINYURU Acc. v26,Completed,800,,4570,TRUE,Pay Utility,254759390371 - RHINUS MUTWIRI KINYURU,,v26
PJJ0GAHMKK,19/10/2021 14:39,19/10/2021 14:39,Pay Bill from 254717985596 - NICHOLAS KIPKOECH BUTIA Acc. hcf,Completed,500,,3770,TRUE,Pay Utility,254717985596 - NICHOLAS KIPKOECH BUTIA,,hcf
PJJ7G9YUML,19/10/2021 14:29,19/10/2021 14:29,Pay Bill from 254715939283 - alex nyamai Acc. 07,Completed,400,,3270,TRUE,Pay Utility,254715939283 - alex nyamai,,7
PJJ0FVLCJC,19/10/2021 09:53,19/10/2021 09:53,Pay Bill from 254706920646 - MIRIAM CHEPTOO Acc. V08,Completed,470,,2870,TRUE,Pay Utility with OD via STK,254706920646 - MIRIAM CHEPTOO,,V08
PJI9ENGIET,18/10/2021 13:36,18/10/2021 13:36,Pay Bill from 254725381062 - VICTOR MAITHYA Acc. HEG,Completed,1000,,2400,TRUE,Pay Utility with OD via STK,254725381062 - VICTOR MAITHYA,,HEG
PJI7EJOAEL,18/10/2021 12:27,18/10/2021 12:27,Pay Bill from 254703375006 - KEN RODGERS Acc. DBA,Completed,600,,1400,TRUE,Pay Utility,254703375006 - KEN RODGERS,,DBA
PJI8ECLUDI,18/10/2021 10:11,18/10/2021 10:11,Pay Bill from 254724655033 - SUSAN CHIMOTO Acc. KGH,Completed,800,,800,TRUE,Pay Utility,254724655033 - SUSAN CHIMOTO,,KGH
PJI7EBFKO3,18/10/2021 09:47,18/10/2021 09:47,Utility Account to Organization Settlement Account,Completed,,-1800,0,TRUE,Utility Account to Organization Settlement Account,846783 - ANCIENT WELLS LTD 4,,
PJH6E22YCW,17/10/2021 23:42,17/10/2021 23:42,Pay Bill from 254719808077 - ANTHONY KARIUKI Acc. V41,Completed,600,,1800,TRUE,Pay Utility,254719808077 - ANTHONY KARIUKI,,V41
PJH6CXFLLO,17/10/2021 10:29,17/10/2021 10:29,Pay Bill Online from 0769929240 - Calvince Klein Alal Acc. v02,Completed,1200,,1200,TRUE,Pay Utility with OD Online,0769929240 - Calvince Klein Alal,,v02
PJG9C634YP,16/10/2021 18:33,16/10/2021 18:33,Utility Account to Organization Settlement Account,Completed,,-8100,0,TRUE,Utility Account to Organization Settlement Account,846783 - ANCIENT WELLS LTD 4,,
PJG9BFI4FV,16/10/2021 11:37,16/10/2021 11:37,Pay Bill from 254710106394 - LUCY TONKEI Acc. kbg,Completed,400,,8100,TRUE,Pay Utility,254710106394 - LUCY TONKEI,,kbg
PJG1BCER57,16/10/2021 10:43,16/10/2021 10:43,Pay Bill from 0793999724 - JALEEL    MWERO Acc. House A2,Completed,1400,,7700,TRUE,Pay Utility,0793999724 - JALEEL    MWERO,,House
PJF6A8RS4E,15/10/2021 16:20,15/10/2021 16:20,Pay Bill Online from 254720062144 - CAROLINE AMONDI OKELO Acc. f4,Completed,600,,6300,TRUE,Pay Bill Online,254720062144 - CAROLINE AMONDI OKELO,,f4
PJF8A69UHQ,15/10/2021 15:39,15/10/2021 15:39,Pay Bill from 254758951969 - WILKISTER IRAKO HARAMBEE Acc. 37847739,Completed,600,,5700,TRUE,Pay Utility,254758951969 - WILKISTER IRAKO HARAMBEE,,37847739
PJF5A4M24X,15/10/2021 15:10,15/10/2021 15:10,Pay Bill from 254725381062 - VICTOR MAITHYA Acc. HEG,Completed,1000,,5100,TRUE,Pay Utility,254725381062 - VICTOR MAITHYA,,HEG
PJF09ZJV4C,15/10/2021 13:42,15/10/2021 13:42,Pay Bill Online from 0700206427 - Clare Nabalisa Mukasa Acc. HFA,Completed,2000,,4100,TRUE,Pay Bill Online,0700206427 - Clare Nabalisa Mukasa,,HFA
PJF29W3922,15/10/2021 12:40,15/10/2021 12:40,Pay Bill from 254726039536 - MERCY MESHACK Acc. jbc,Completed,500,,2100,TRUE,Pay Utility,254726039536 - MERCY MESHACK,,jbc
PJF29SOY98,15/10/2021 11:36,15/10/2021 11:36,Pay Bill from 254724103759 - RICHARD NKAABO Acc. jej,Completed,1600,,1600,TRUE,Pay Utility,254724103759 - RICHARD NKAABO,,jej
PJE18F85GT,14/10/2021 13:27,14/10/2021 13:27,Utility Account to Organization Settlement Account,Completed,,-4200,0,TRUE,Utility Account to Organization Settlement Account,846783 - ANCIENT WELLS LTD 4,,
PJE78BTJ8H,14/10/2021 12:24,14/10/2021 12:24,Pay Bill from 254798643998 - Judith Mwaniki Acc. kce,Completed,600,,4200,TRUE,Pay Utility with OD via STK,254798643998 - Judith Mwaniki,,kce
PJD87S8YXI,13/10/2021 21:52,13/10/2021 21:52,Pay Bill Online from 254715764212 - BANCE ISHEMINYE Acc. JFE ,Completed,500,,3600,TRUE,Pay Bill Online,254715764212 - BANCE ISHEMINYE,,JFE
PJD77Q1PO9,13/10/2021 21:04,13/10/2021 21:04,Pay Bill from 254727515326 - HARRISON WACIRA MAINA Acc. HAH,Completed,1500,,3100,TRUE,Pay Utility,254727515326 - HARRISON WACIRA MAINA,,HAH
PJD16ULCUH,13/10/2021 13:20,13/10/2021 13:20,Pay Bill from 254719844889 - LATIFFA ABDULLAHI Acc. IGC,Completed,600,,1600,TRUE,Pay Utility with OD via STK,254719844889 - LATIFFA ABDULLAHI,,IGC
PJC05XNRG6,12/10/2021 19:12,12/10/2021 19:12,Pay Bill from 0799028632 - WILSON MUTANGILI WAMBUA Acc. haf,Completed,400,,1000,TRUE,Pay Utility,0799028632 - WILSON MUTANGILI WAMBUA,,haf
PJC95FBP53,12/10/2021 14:52,12/10/2021 14:52,Pay Bill from 254710635630 - DONNA JESSICA OWANO Acc. KCC,Completed,600,,600,TRUE,Pay Utility,254710635630 - DONNA JESSICA OWANO,,KCC
PJC64YBZL6,12/10/2021 09:51,12/10/2021 09:51,Utility Account to Organization Settlement Account,Completed,,-85000,0,TRUE,Utility Account to Organization Settlement Account,846783 - ANCIENT WELLS LTD 4,,
PJB234IN7C,11/10/2021 01:08,11/10/2021 01:08,Pay Bill from 254703935626 - DAVID NGARI ITA Acc. FCD,Completed,300,,85000,TRUE,Pay Utility,254703935626 - DAVID NGARI ITA,,FCD
PJA11RIBIL,10/10/2021 07:45,10/10/2021 07:45,Pay Bill from 254792976771 - DANIEL MUTHAMA NDUNDA Acc. F1,Completed,200,,84700,TRUE,Pay Utility,254792976771 - DANIEL MUTHAMA NDUNDA,,F1
PJ921AE3HC,09/10/2021 19:06,09/10/2021 19:06,Pay Bill from 254714597495 - WAMBUA KIOKO Acc. c1,Completed,600,,84500,TRUE,Pay Utility,254714597495 - WAMBUA KIOKO,,c1
PJ9613LGZU,09/10/2021 17:44,09/10/2021 17:44,Pay Bill from 254725771056 - CHARLES MURAGURI Acc. FCE,Completed,800,,83900,TRUE,Pay Utility,254725771056 - CHARLES MURAGURI,,FCE
PJ90ZM7U9W,09/10/2021 13:05,09/10/2021 13:05,Pay Bill from 254706158280 - patience mutheu mbevi Acc. KFC,Completed,400,,83100,TRUE,Pay Utility with OD via STK,254706158280 - patience mutheu mbevi,,KFC
PJ98ZHQT7E,09/10/2021 11:49,09/10/2021 11:49,Pay Bill from 254707183471 - PETINA NEKESA Acc. v23,Completed,400,,82700,TRUE,Pay Utility,254707183471 - PETINA NEKESA,,v23
PJ92ZHKD1Q,09/10/2021 11:45,09/10/2021 11:45,Pay Bill from 0758591833 - DORCUS MBULA PETER Acc. HDD,Completed,500,,82300,TRUE,Pay Utility,0758591833 - DORCUS MBULA PETER,,HDD
PJ93Z2TLLZ,09/10/2021 06:19,09/10/2021 06:19,Pay Bill from 254724590178 - Silvanus Ongiri Acc. HAE,Completed,100,,81800,TRUE,Pay Utility,254724590178 - Silvanus Ongiri,,HAE
PJ96Z2HPQG,09/10/2021 05:45,09/10/2021 05:45,Pay Bill Online from 254722276550 - ISAAC NYAMRER Acc. Kgc,Completed,500,,81700,TRUE,Pay Bill Online,254722276550 - ISAAC NYAMRER,,Kgc
PJ97Z1FX5X,09/10/2021 01:13,09/10/2021 01:13,Pay Bill from 254724477912 - SAMUEL MURIMI Acc. HCD,Completed,400,,81200,TRUE,Pay Utility,254724477912 - SAMUEL MURIMI,,HCD
PJ99Z177U9,09/10/2021 00:33,09/10/2021 00:33,Pay Bill from 254724590178 - Silvanus Ongiri Acc. HAE,Completed,900,,80800,TRUE,Pay Utility,254724590178 - Silvanus Ongiri,,HAE
PJ89YZYSCL,08/10/2021 22:52,08/10/2021 22:52,Pay Bill from 254724590178 - Silvanus Ongiri Acc. HAE,Completed,500,,79900,TRUE,Pay Utility,254724590178 - Silvanus Ongiri,,HAE
PJ87YPDZ8R,08/10/2021 19:35,08/10/2021 19:35,Pay Bill Online from 254705670064 - margaret wahu wachira Acc. v35,Completed,400,,79400,TRUE,Pay Bill Online,254705670064 - margaret wahu wachira,,v35
PJ87YOMYP3,08/10/2021 19:27,08/10/2021 19:27,Pay Bill from 254720107609 - DENNIS OGENDI BARAKE Acc. JAJ,Completed,1100,,79000,TRUE,Pay Utility with OD via STK,254720107609 - DENNIS OGENDI BARAKE,,JAJ
PJ82YAWVJQ,08/10/2021 16:36,08/10/2021 16:36,Pay Bill Online from 254722249092 - MARIAM ABDULLAHI Acc. KEH,Completed,400,,77900,TRUE,Pay Utility with OD Online,254722249092 - MARIAM ABDULLAHI,,KEH
PJ89YAE1Q9,08/10/2021 16:28,08/10/2021 16:28,Pay Bill from 254703528196 - ERIC GITONGA MUGO Acc. KGJ,Completed,2200,,77500,TRUE,Pay Utility,254703528196 - ERIC GITONGA MUGO,,KGJ
PJ86Y924W0,08/10/2021 16:07,08/10/2021 16:07,FSI to Pay Bill by 714888 - B2C LOOP VIA NCBA Acc. V40 via WEB by B2C LOOP VIA NCBA\Cbainitiator,Completed,400,,75300,TRUE,FSI to Pay Bill via API,714888 - B2C LOOP VIA NCBA,,V40
PJ81Y1GGIL,08/10/2021 14:03,08/10/2021 14:03,Pay Bill from 254722514052 - JOSEPH NDIRANGU Acc. JCF,Completed,400,,74900,TRUE,Pay Utility,254722514052 - JOSEPH NDIRANGU,,JCF
PJ89XS6NRH,08/10/2021 11:26,08/10/2021 11:26,Pay Bill from 254795023150 - FAITH MORAA SITEMBA Acc. IFC,Completed,600,,74500,TRUE,Pay Utility with OD via STK,254795023150 - FAITH MORAA SITEMBA,,IFC
PJ80XQG078,08/10/2021 10:56,08/10/2021 10:56,Pay Bill from 254717577871 - KELVIN MUTUMA KINYUA Acc. B1,Completed,400,,73900,TRUE,Pay Utility,254717577871 - KELVIN MUTUMA KINYUA,,B1
PJ89XKA731,08/10/2021 09:03,08/10/2021 09:03,Pay Bill Online from 254722769473 - SAMSON CHALO Acc. IAB,Completed,400,,73500,TRUE,Pay Bill Online,254722769473 - SAMSON CHALO,,IAB
PJ76WYRU76,07/10/2021 19:00,07/10/2021 19:00,Pay Bill Online from 254716328009 - IRENE ODHIAMBO Acc. KGG,Completed,1600,,73100,TRUE,Pay Bill Online,254716328009 - IRENE ODHIAMBO,,KGG
PJ72WUPBOK,07/10/2021 18:14,07/10/2021 18:14,Pay Bill from 0759888028 - ROBERT OKOTH OGALO Acc. KBH,Completed,800,,71500,TRUE,Pay Utility,0759888028 - ROBERT OKOTH OGALO,,KBH
PJ76WQPNZK,07/10/2021 17:21,07/10/2021 17:21,Pay Bill from 254701379512 - veronicah minoo mwanza Acc. C3,Completed,8400,,70700,TRUE,Pay Utility,254701379512 - veronicah minoo mwanza,,C3
PJ79WMWYEP,07/10/2021 16:23,07/10/2021 16:23,Pay Bill from 254703147783 - LYDIAH NJOKI MUCHIRI Acc. Jeb,Completed,15000,,62300,TRUE,Pay Utility,254703147783 - LYDIAH NJOKI MUCHIRI,,Jeb
PJ70WJYWYY,07/10/2021 15:34,07/10/2021 15:34,Pay Bill from 254791318982 - ADULLAHI HASSAN Acc. JCI,Completed,1800,,47300,TRUE,Pay Utility,254791318982 - ADULLAHI HASSAN,,JCI
PJ72WJHEI2,07/10/2021 15:26,07/10/2021 15:26,Pay Bill Online from 254704995854 - james karanja wairimu Acc. V54,Completed,100,,45500,TRUE,Pay Bill Online,254704995854 - james karanja wairimu,,V54
PJ74WJENRY,07/10/2021 15:24,07/10/2021 15:24,Pay Bill Online from 254704995854 - james karanja wairimu Acc. V54,Completed,100,,45400,TRUE,Pay Bill Online,254704995854 - james karanja wairimu,,V54
PJ78WIKO9A,07/10/2021 15:10,07/10/2021 15:10,Pay Bill from 254704111133 - ELVIS OTIENO Acc. HFD,Completed,1200,,45300,TRUE,Pay Utility,254704111133 - ELVIS OTIENO,,HFD
PJ74WF5SY0,07/10/2021 14:10,07/10/2021 14:10,Pay Bill from 254717985596 - NICHOLAS KIPKOECH BUTIA Acc. hcf,Completed,500,,44100,TRUE,Pay Utility,254717985596 - NICHOLAS KIPKOECH BUTIA,,hcf
PJ78W43LL2,07/10/2021 10:54,07/10/2021 10:54,Pay Bill from 254726337163 - HALIMA ALI HASSAN Acc. DDA,Completed,500,,43600,TRUE,Pay Utility,254726337163 - HALIMA ALI HASSAN,,DDA
PJ78VR8OIU,07/10/2021 00:30,07/10/2021 00:30,Pay Bill Online from 254723643548 - KEVIN OUKO Acc. FDD,Completed,1000,,43100,TRUE,Pay Bill Online,254723643548 - KEVIN OUKO,,FDD
PJ61VP02CB,06/10/2021 22:01,06/10/2021 22:01,Pay Bill from 254790837715 - JULIUS MWASHUMBE MAGHANGA Acc. F5,Completed,600,,42100,TRUE,Pay Utility,254790837715 - JULIUS MWASHUMBE MAGHANGA,,F5
PJ60VO98MG,06/10/2021 21:41,06/10/2021 21:41,Pay Bill from 254717465142 - EPHANTUS IRURA Acc. c4 muriithi,Completed,400,,41500,TRUE,Pay Utility,254717465142 - EPHANTUS IRURA,,c4
PJ60VE5XIE,06/10/2021 19:14,06/10/2021 19:14,Pay Bill from 0792441884 - CORNELIA CONRAD MVULA Acc. IBB,Completed,1200,,41100,TRUE,Pay Utility,0792441884 - CORNELIA CONRAD MVULA,,IBB
PJ66VAP5ZK,06/10/2021 18:37,06/10/2021 18:37,Pay Bill Online from 254715144865 - CAROL JULIET MUGOYA Acc. E2,Completed,400,,39900,TRUE,Pay Bill Online,254715144865 - CAROL JULIET MUGOYA,,E2
PJ69VA1WPF,06/10/2021 18:29,06/10/2021 18:29,Pay Bill from 254721539716 - OCTAVIAN MWANYALO Acc. C6,Completed,200,,39500,TRUE,Pay Utility,254721539716 - OCTAVIAN MWANYALO,,C6
PJ65V5EM4J,06/10/2021 17:28,06/10/2021 17:28,Pay Bill from 254725909984 - TIMOTHY ODHIAMBO OWITI Acc. JDE,Completed,2200,,39300,TRUE,Pay Utility,254725909984 - TIMOTHY ODHIAMBO OWITI,,JDE
PJ65UYGAEB,06/10/2021 15:38,06/10/2021 15:38,Pay Bill from 254790610309 - MESHACK CHUMBA Acc. V39,Completed,400,,37100,TRUE,Pay Utility,254790610309 - MESHACK CHUMBA,,V39
PJ64UWXBPI,06/10/2021 15:11,06/10/2021 15:11,Pay Bill from 254701330588 - EDGER WAFULA BUTALI Acc. D1,Completed,600,,36700,TRUE,Pay Utility,254701330588 - EDGER WAFULA BUTALI,,D1
PJ61UVAGL3,06/10/2021 14:43,06/10/2021 14:43,Pay Bill from 254791273726 - JULLIET WINNIE OTIENO Acc. G1,Completed,400,,36100,TRUE,Pay Utility,254791273726 - JULLIET WINNIE OTIENO,,G1
PJ65URT559,06/10/2021 13:42,06/10/2021 13:42,Pay Bill from 254710605251 - PAULINE OCHIENG Acc. HDC,Completed,400,,35700,TRUE,Pay Utility with OD via STK,254710605251 - PAULINE OCHIENG,,HDC
PJ67UR43CV,06/10/2021 13:30,06/10/2021 13:30,Pay Bill Online from 254792187144 - HASSAN AHMED HASSAN Acc. KGI,Completed,800,,35300,TRUE,Pay Bill Online,254792187144 - HASSAN AHMED HASSAN,,KGI
PJ60UQDSFI,06/10/2021 13:18,06/10/2021 13:18,Pay Bill from 254724882554 - ALPHONCE WAMBUA NGELI Acc. JDA,Completed,1800,,34500,TRUE,Pay Utility,254724882554 - ALPHONCE WAMBUA NGELI,,JDA
PJ69UPUGY9,06/10/2021 13:09,06/10/2021 13:09,Pay Bill Online from 254706549634 - CLINTON OMBASA Acc. FDB,Completed,800,,32700,TRUE,Pay Bill Online,254706549634 - CLINTON OMBASA,,FDB
PJ63UM76DP,06/10/2021 12:05,06/10/2021 12:05,Pay Bill from 254724466518 - EUNICE NDUTA Acc. KFF,Completed,500,,31900,TRUE,Pay Utility,254724466518 - EUNICE NDUTA,,KFF
PJ62UKNFCC,06/10/2021 11:37,06/10/2021 11:37,Pay Bill Online from 254795983642 - OBED MOGAKA Acc. F6 OBED ,Completed,1000,,31400,TRUE,Pay Bill Online,254795983642 - OBED MOGAKA,,F6
PJ68UHR6TO,06/10/2021 10:45,06/10/2021 10:45,Pay Bill from 254708703539 - SUSAN NDUGIRE NDUGIRE Acc. KDA,Completed,800,,30400,TRUE,Pay Utility,254708703539 - SUSAN NDUGIRE NDUGIRE,,KDA
PJ65UH3127,06/10/2021 10:33,06/10/2021 10:33,Pay Bill from 254726687555 - ELIUD MUTHURE MICHENI Acc. KAI,Completed,600,,29600,TRUE,Pay Utility,254726687555 - ELIUD MUTHURE MICHENI,,KAI
PJ62UEFTZO,06/10/2021 09:44,06/10/2021 09:44,Pay Bill from 254727585857 - PETER MUOKI NGUNDO Acc. Peter muoki e6,Completed,600,,29000,TRUE,Pay Utility,254727585857 - PETER MUOKI NGUNDO,,Peter
PJ66UDY6DU,06/10/2021 09:34,06/10/2021 09:34,Pay Bill Online from 254710382992 - SIMON KAMAU MUIRURI Acc. JCD,Completed,400,,28400,TRUE,Pay Bill Online,254710382992 - SIMON KAMAU MUIRURI,,JCD
PJ67UCXTAN,06/10/2021 09:15,06/10/2021 09:15,Pay Bill from 254728664261 - LEVIN INGATI NYONJE Acc. B5,Completed,800,,28000,TRUE,Pay Utility,254728664261 - LEVIN INGATI NYONJE,,B5
PJ62U7Z8HU,06/10/2021 07:23,06/10/2021 07:23,Pay Bill Online from 254797160610 - JAMES MWANIKI Acc. JBI,Completed,2800,,27200,TRUE,Pay Bill Online,254797160610 - JAMES MWANIKI,,JBI
PJ64U7CID4,06/10/2021 07:02,06/10/2021 07:02,Pay Bill from 254718233980 - KAREN ASWANI Acc. HEC,Completed,600,,24400,TRUE,Pay Utility,254718233980 - KAREN ASWANI,,HEC
PJ62U6SESG,06/10/2021 06:39,06/10/2021 06:39,Pay Bill from 254716702294 - DANIEL MULATI Acc. KBE,Completed,1000,,23800,TRUE,Pay Utility,254716702294 - DANIEL MULATI,,KBE
PJ67U5FAVB,06/10/2021 01:22,06/10/2021 01:22,Pay Bill Online from 254728670882 - SHARAD EDWARD ADALA OLUM Acc. KCK,Completed,2200,,22800,TRUE,Pay Bill Online,254728670882 - SHARAD EDWARD ADALA OLUM,,KCK
PJ50U3GW6I,05/10/2021 22:15,05/10/2021 22:15,Pay Bill Online from 254711123196 - JUDITH MUTUA Acc. FEA,Completed,1000,,20600,TRUE,Pay Bill Online,254711123196 - JUDITH MUTUA,,FEA
PJ56U2M7LY,05/10/2021 21:50,05/10/2021 21:50,Pay Bill Online from 254714552193 - CHRISTOPHER OCHIENG Acc. jGI,Completed,2000,,19600,TRUE,Pay Bill Online,254714552193 - CHRISTOPHER OCHIENG,,jGI
PJ59U0ATZP,05/10/2021 21:01,05/10/2021 21:01,Pay Bill Online from 254718138578 - PAULINE KIOKO Acc. KFD,Completed,400,,17600,TRUE,Pay Bill Online,254718138578 - PAULINE KIOKO,,KFD
PJ54TZLRO8,05/10/2021 20:49,05/10/2021 20:49,Pay Bill from 254742911013 - HANEST AMIMO Acc. IEG,Completed,800,,17200,TRUE,Pay Utility with OD via STK,254742911013 - HANEST AMIMO,,IEG
PJ56TYWTIE,05/10/2021 20:38,05/10/2021 20:38,Pay Bill from 254726465584 - JULIANA MUKELI MUTUNGA Acc. v4,Completed,400,,16400,TRUE,Pay Utility,254726465584 - JULIANA MUKELI MUTUNGA,,v4
PJ58TX283I,05/10/2021 20:12,05/10/2021 20:12,Pay Bill from 254717726012 - WINFRED MUENI PETER Acc. IDA,Completed,600,,16000,TRUE,Pay Utility,254717726012 - WINFRED MUENI PETER,,IDA
PJ59TS0QEH,05/10/2021 19:12,05/10/2021 19:12,Pay Bill from 254790627132 - Everline Mutave Kiio Acc. IGG,Completed,600,,15400,TRUE,Pay Utility,254790627132 - Everline Mutave Kiio,,IGG
PJ55TQIRQ9,05/10/2021 18:56,05/10/2021 18:56,Pay Bill from 254797726484 - gideon marubua kiburu Acc. JBB,Completed,60,,14800,TRUE,Pay Utility,254797726484 - gideon marubua kiburu,,JBB
PJ54TQ98SY,05/10/2021 18:53,05/10/2021 18:53,Pay Bill from 254703108159 - JOICE OGOLLA Acc. V50,Completed,400,,14740,TRUE,Pay Utility,254703108159 - JOICE OGOLLA,,V50
PJ57TPG7EB,05/10/2021 18:45,05/10/2021 18:45,Pay Bill from 254710110273 - AGNES NTOITI Acc. jbb,Completed,4140,,14340,TRUE,Pay Utility with OD via STK,254710110273 - AGNES NTOITI,,jbb
PJ56TOGGVU,05/10/2021 18:34,05/10/2021 18:34,Pay Bill from 254719398942 - NORAH WAYUA MUNYAO Acc. KDC,Completed,800,,10200,TRUE,Pay Utility,254719398942 - NORAH WAYUA MUNYAO,,KDC
PJ59TNQAMT,05/10/2021 18:25,05/10/2021 18:25,Pay Bill Online from 254725218904 - SALOME MUTHONI MWANGI Acc. KFJ,Completed,800,,9400,TRUE,Pay Bill Online,254725218904 - SALOME MUTHONI MWANGI,,KFJ
PJ51TJQ36N,05/10/2021 17:32,05/10/2021 17:32,Pay Bill from 254797601911 - JORAM MASAI KILONZO Acc. KTE,Completed,600,,8600,TRUE,Pay Utility,254797601911 - JORAM MASAI KILONZO,,KTE
PJ52THVBBS,05/10/2021 17:04,05/10/2021 17:04,Pay Bill from 254798844460 - WYCLIFFE ODHIAMBO NYAGOA Acc. KAC,Completed,600,,8000,TRUE,Pay Utility,254798844460 - WYCLIFFE ODHIAMBO NYAGOA,,KAC
PJ59THURYH,05/10/2021 17:04,05/10/2021 17:04,Pay Bill from 254724953672 - MERCY MBETI Acc. JCA,Completed,2600,,7400,TRUE,Pay Utility,254724953672 - MERCY MBETI,,JCA
PJ58TFY3GQ,05/10/2021 16:33,05/10/2021 16:33,Pay Bill from 254712974871 - PAULA WANJIKU GATUI Acc. hea,Completed,800,,4800,TRUE,Pay Utility,254712974871 - PAULA WANJIKU GATUI,,hea
PJ59TEYN27,05/10/2021 16:16,05/10/2021 16:16,Pay Bill from 254729948896 - CAROLINE V MILIZA Acc. Fec,Completed,600,,4000,TRUE,Pay Utility,254729948896 - CAROLINE V MILIZA,,Fec
PJ58TEAGOA,05/10/2021 16:05,05/10/2021 16:05,Pay Bill Online from 254713966424 - NDUTI MUTHUI Acc. Jed,Completed,2200,,3400,TRUE,Pay Bill Online,254713966424 - NDUTI MUTHUI,,Jed
PJ59TCLQPV,05/10/2021 15:34,05/10/2021 15:34,Pay Bill from 254721465713 - RHODA WAMBUI MWANGI Acc. jfh,Completed,800,,1200,TRUE,Pay Utility,254721465713 - RHODA WAMBUI MWANGI,,jfh
PJ50T9ESXM,05/10/2021 14:35,05/10/2021 14:35,FSI to Pay Bill by 714888 - B2C LOOP VIA NCBA Acc. Kfa via WEB by B2C LOOP VIA NCBA\Cbainitiator,Completed,400,,400,TRUE,FSI to Pay Bill via API,714888 - B2C LOOP VIA NCBA,,Kfa
PJ56T7W0J4,05/10/2021 14:08,05/10/2021 14:08,Utility Account to Organization Settlement Account,Completed,,-5000,0,TRUE,Utility Account to Organization Settlement Account,846783 - ANCIENT WELLS LTD 4,,
PJ56SWF3XA,05/10/2021 10:47,05/10/2021 10:47,Pay Bill Online from 254715002789 - ERICK NGUGI MAINA Acc. HAG,Completed,1400,,5000,TRUE,Pay Bill Online,254715002789 - ERICK NGUGI MAINA,,HAG
PJ59SWD80X,05/10/2021 10:46,05/10/2021 10:46,Pay Bill Online from 254713404029 - ANNE ISEUNA Acc. DED,Completed,3600,,3600,TRUE,Pay Bill Online,254713404029 - ANNE ISEUNA,,DED
PJ55SPJWUB,05/10/2021 08:36,05/10/2021 08:36,Utility Account to Organization Settlement Account,Completed,,-18950,0,TRUE,Utility Account to Organization Settlement Account,846783 - ANCIENT WELLS LTD 4,,
PJ53SM94KZ,05/10/2021 07:15,05/10/2021 07:15,Pay Bill from 254723929380 - RHODAH K WAMBUA Acc. HEF,Completed,1000,,18950,TRUE,Pay Utility,254723929380 - RHODAH K WAMBUA,,HEF
PJ51SK82YT,05/10/2021 02:46,05/10/2021 02:46,Pay Bill from 254723488259 - WILSON OKITE OKITE Acc. HCA,Completed,800,,17950,TRUE,Pay Utility with OD via STK,254723488259 - WILSON OKITE OKITE,,HCA
PJ48SITJOU,04/10/2021 22:40,04/10/2021 22:40,Pay Bill from 254726403551 - VICTOR O KIRUMA Acc. u2,Completed,600,,17150,TRUE,Pay Utility,254726403551 - VICTOR O KIRUMA,,u2
PJ45SHLNJ7,04/10/2021 21:56,04/10/2021 21:56,Pay Bill from 254718672924 - LILIAN CHEBET NGENO Acc. KGD,Completed,10,,16550,TRUE,Pay Utility,254718672924 - LILIAN CHEBET NGENO,,KGD
PJ43SHL35J,04/10/2021 21:55,04/10/2021 21:55,Pay Bill from 254718672924 - LILIAN CHEBET NGENO Acc. KGD,Completed,100,,16540,TRUE,Pay Utility,254718672924 - LILIAN CHEBET NGENO,,KGD
PJ42SHK8KY,04/10/2021 21:54,04/10/2021 21:54,Pay Bill from 254718672924 - LILIAN CHEBET NGENO Acc. KGD,Completed,90,,16440,TRUE,Pay Utility,254718672924 - LILIAN CHEBET NGENO,,KGD
PJ49SHJGL3,04/10/2021 21:54,04/10/2021 21:54,Pay Bill from 254718672924 - LILIAN CHEBET NGENO Acc. KGD,Completed,100,,16350,TRUE,Pay Utility,254718672924 - LILIAN CHEBET NGENO,,KGD
PJ40SHEJM0,04/10/2021 21:50,04/10/2021 21:50,Pay Bill from 254729355933 - FELISTAH NJERI WAIRIMU Acc. IDI,Completed,2200,,16250,TRUE,Pay Utility,254729355933 - FELISTAH NJERI WAIRIMU,,IDI
PJ41SB8G6H,04/10/2021 20:04,04/10/2021 20:04,Pay Bill Online from 0724386624 - FATUMA ISSE YUSSUF Acc. FAB,Completed,1200,,14050,TRUE,Pay Bill Online,0724386624 - FATUMA ISSE YUSSUF,,FAB
PJ40SAQLOG,04/10/2021 19:57,04/10/2021 19:57,Pay Bill Online from 254718911865 - KENNEDY KELI KATUNGII Acc. HDF,Completed,1000,,12850,TRUE,Pay Bill Online,254718911865 - KENNEDY KELI KATUNGII,,HDF
PJ47S84RGT,04/10/2021 19:27,04/10/2021 19:27,Pay Bill from 0722925798 - ifrah abukar adan Acc. IEI,Completed,1000,,11850,TRUE,Pay Utility,0722925798 - ifrah abukar adan,,IEI
PJ40S67ZJA,04/10/2021 19:07,04/10/2021 19:07,Pay Bill Online from 0796121714 - janet   mwikali Acc. KBC,Completed,1600,,10850,TRUE,Pay Bill Online,0796121714 - janet   mwikali,,KBC
PJ43S523KF,04/10/2021 18:55,04/10/2021 18:55,Pay Bill from 254715896141 - samuel macharia Acc. v42,Completed,800,,9250,TRUE,Pay Utility,254715896141 - samuel macharia,,v42
PJ43S50LKJ,04/10/2021 18:55,04/10/2021 18:55,Pay Bill Online from 254714563486 - BRIAN MMATA MUSERA Acc. KBJ,Completed,800,,8450,TRUE,Pay Bill Online,254714563486 - BRIAN MMATA MUSERA,,KBJ
PJ49S4BAFV,04/10/2021 18:48,04/10/2021 18:48,Pay Bill from 254722444622 - CHARITY KAGWAINI Acc. ffd,Completed,400,,7650,TRUE,Pay Utility,254722444622 - CHARITY KAGWAINI,,ffd
PJ47S455WX,04/10/2021 18:46,04/10/2021 18:46,Pay Bill from 254719779657 - SAMUEL NJOROGE Acc. JGA,Completed,4000,,7250,TRUE,Pay Utility with OD via STK,254719779657 - SAMUEL NJOROGE,,JGA
PJ40S2159K,04/10/2021 18:24,04/10/2021 18:24,Pay Bill from 254702152790 - Michelle Ndunge Kyalo Acc. IDE,Completed,200,,3250,TRUE,Pay Utility,254702152790 - Michelle Ndunge Kyalo,,IDE
PJ45RXH7C9,04/10/2021 17:26,04/10/2021 17:26,Pay Bill from 254701112397 - ELEMA GODANA DIBA Acc. IAD,Completed,1500,,3050,TRUE,Pay Utility with OD via STK,254701112397 - ELEMA GODANA DIBA,,IAD
PJ41RO3AON,04/10/2021 14:54,04/10/2021 14:54,Pay Bill Online from 254708225541 - JUDITH NKATHA SIMBA Acc. HDH,Completed,600,,1550,TRUE,Pay Bill Online,254708225541 - JUDITH NKATHA SIMBA,,HDH
PJ41RL0FAD,04/10/2021 14:00,04/10/2021 14:00,Pay Bill from 0748334540 - shichenga wawire mark Acc. D2,Completed,200,,950,TRUE,Pay Utility,0748334540 - shichenga wawire mark,,D2
PJ48RKV3FC,04/10/2021 13:57,04/10/2021 13:57,Pay Bill from 254714814264 - PATRICIA NZOMO Acc. Hcc,Completed,350,,750,TRUE,Pay Utility,254714814264 - PATRICIA NZOMO,,Hcc
PJ42RJ6Q0E,04/10/2021 13:28,04/10/2021 13:28,Pay Bill from 254708915764 - GEORGE WAHOME Acc. V18,Completed,400,,400,TRUE,Pay Utility,254708915764 - GEORGE WAHOME,,V18
PJ40R6YCOM,04/10/2021 09:51,04/10/2021 09:51,Utility Account to Organization Settlement Account,Completed,,-9300,0,TRUE,Utility Account to Organization Settlement Account,846783 - ANCIENT WELLS LTD 4,,
PJ44R32B2O,04/10/2021 08:33,04/10/2021 08:33,Pay Bill from 0745378455 - harriet nyanchama nyaberi Acc. FCC,Completed,600,,9300,TRUE,Pay Utility,0745378455 - harriet nyanchama nyaberi,,FCC
PJ33QWXJV7,03/10/2021 23:08,03/10/2021 23:08,Pay Bill from 254701196539 - GICHURI KARANJA Acc. Fee,Completed,1000,,8700,TRUE,Pay Utility,254701196539 - GICHURI KARANJA,,Fee
PJ33QS8HI1,03/10/2021 20:45,03/10/2021 20:45,Pay Bill from 254712091662 - BENARD OMONDI ROBY Acc. V16,Completed,600,,7700,TRUE,Pay Utility,254712091662 - BENARD OMONDI ROBY,,V16
PJ32QFDT8G,03/10/2021 17:46,03/10/2021 17:46,Pay Bill from 254714710840 - RACHAEL WANJIRU NJOROGE Acc. ITE,Completed,600,,7100,TRUE,Pay Utility,254714710840 - RACHAEL WANJIRU NJOROGE,,ITE
PJ32QE2MYE,03/10/2021 17:26,03/10/2021 17:26,Pay Bill from 254723815832 - SEMEKIA ONDIALA Acc. v38,Completed,1400,,6500,TRUE,Pay Utility,254723815832 - SEMEKIA ONDIALA,,v38
PJ39QC7BZX,03/10/2021 16:57,03/10/2021 16:57,Pay Bill from 0797758628 - jackline nyamari onyango Acc. ICF,Completed,600,,5100,TRUE,Pay Utility,0797758628 - jackline nyamari onyango,,ICF
PJ34Q2WXEC,03/10/2021 14:22,03/10/2021 14:22,Pay Bill from 254725754547 - MWACHIRO GEORGE DECHE Acc. DFC,Completed,2400,,4500,TRUE,Pay Utility,254725754547 - MWACHIRO GEORGE DECHE,,DFC
PJ37Q1IBER,03/10/2021 13:57,03/10/2021 13:57,Pay Bill Online from 254728364280 - EMMANUEL THUMA OYIER Acc. IDF,Completed,700,,2100,TRUE,Pay Bill Online,254728364280 - EMMANUEL THUMA OYIER,,IDF
PJ35PYABSR,03/10/2021 12:58,03/10/2021 12:58,Pay Bill Online from 254714855708 - KIPLANGAT SITIENEI Acc. FAE,Completed,1000,,1400,TRUE,Pay Bill Online,254714855708 - KIPLANGAT SITIENEI,,FAE
PJ23PCRVE9,02/10/2021 21:40,02/10/2021 21:40,Pay Bill Online from 254718359438 - AHMAD TAHIR MACHENGO Acc. V11,Completed,400,,400,TRUE,Pay Bill Online,254718359438 - AHMAD TAHIR MACHENGO,,V11
PJ20OXCWJ0,02/10/2021 18:14,02/10/2021 18:14,Utility Account to Organization Settlement Account,Completed,,-15100,0,TRUE,Utility Account to Organization Settlement Account,846783 - ANCIENT WELLS LTD 4,,
PJ28OUYV0O,02/10/2021 17:43,02/10/2021 17:43,Pay Bill from 254718284151 - EVERLINE MATHEKA Acc. JAG,Completed,400,,15100,TRUE,Pay Utility,254718284151 - EVERLINE MATHEKA,,JAG
PJ22OJER2G,02/10/2021 14:49,02/10/2021 14:49,Pay Bill Online from 254717809935 - LYDIAH WERU Acc. idc,Completed,600,,14700,TRUE,Pay Bill Online,254717809935 - LYDIAH WERU,,idc
PJ22O73ERC,02/10/2021 11:33,02/10/2021 11:33,Pay Bill Online from 254710814215 - JOAN NYAMBURA KAMAU Acc. IFB,Completed,1000,,14100,TRUE,Pay Bill Online,254710814215 - JOAN NYAMBURA KAMAU,,IFB
PJ27NZIYRZ,02/10/2021 09:22,02/10/2021 09:22,Pay Bill from 254710381003 - ALFRED KISHOIN Acc. DAB,Completed,1000,,13100,TRUE,Pay Utility,254710381003 - ALFRED KISHOIN,,DAB
PJ20NWNANE,02/10/2021 08:25,02/10/2021 08:25,Pay Bill Online from 254726001437 - FESTUS MUNYIRI MAINA Acc. JAC,Completed,200,,12100,TRUE,Pay Bill Online,254726001437 - FESTUS MUNYIRI MAINA,,JAC
PJ17NQRIIF,01/10/2021 23:36,01/10/2021 23:36,Pay Bill from 0717042461 - Sharon Nyangasi Shivachi Acc. v55,Completed,200,,11900,TRUE,Pay Utility,0717042461 - Sharon Nyangasi Shivachi,,v55
PJ13NQ8JQV,01/10/2021 22:59,01/10/2021 22:59,Pay Bill from 254710239100 - PHILOMENA WOKI MUTHAMA Acc. KDK,Completed,1600,,11700,TRUE,Pay Utility,254710239100 - PHILOMENA WOKI MUTHAMA,,KDK
PJ11NEB675,01/10/2021 19:20,01/10/2021 19:20,Pay Bill from 254729796719 - JACINTA WANJIKU NJERI Acc. FFF,Completed,600,,10100,TRUE,Pay Utility,254729796719 - JACINTA WANJIKU NJERI,,FFF
PJ12NDHFCW,01/10/2021 19:12,01/10/2021 19:12,Pay Bill Online from 0757699775 - BENARD MUIA MUTUA Acc. HCB,Completed,1400,,9500,TRUE,Pay Bill Online,0757699775 - BENARD MUIA MUTUA,,HCB
PJ11NBUDU9,01/10/2021 18:55,01/10/2021 18:55,Pay Bill from 254704934557 - BAKARI KITSAKA Acc. JAD,Completed,600,,8100,TRUE,Pay Utility,254704934557 - BAKARI KITSAKA,,JAD
PJ14N9QHTU,01/10/2021 18:32,01/10/2021 18:32,Pay Bill from 254721302658 - JACOB BIRUNDU Acc. DDB,Completed,400,,7500,TRUE,Pay Utility,254721302658 - JACOB BIRUNDU,,DDB
PJ12N38B9S,01/10/2021 17:11,01/10/2021 17:11,Pay Bill Online from 254717780356 - ALFRED MAIRURA Acc. FAF,Completed,1000,,7100,TRUE,Pay Bill Online,254717780356 - ALFRED MAIRURA,,FAF
PJ16MRXLE4,01/10/2021 14:10,01/10/2021 14:10,Pay Bill Online from 254707226192 - NICHOLUS MAINGI MWANTHI Acc. HBF,Completed,400,,6100,TRUE,Pay Bill Online,254707226192 - NICHOLUS MAINGI MWANTHI,,HBF
PJ14MI5DBK,01/10/2021 11:22,01/10/2021 11:22,Pay Bill Online from 254795510441 - LEWIS MUEMA Acc. KEB,Completed,600,,5700,TRUE,Pay Bill Online,254795510441 - LEWIS MUEMA,,KEB
PJ14MHW6YS,01/10/2021 11:18,01/10/2021 11:18,Pay Bill Online from 254711562428 - Lionel Mutune Muoka Acc. KDI,Completed,600,,5100,TRUE,Pay Bill Online,254711562428 - Lionel Mutune Muoka,,KDI
PJ10MDXU3Y,01/10/2021 10:07,01/10/2021 10:07,Pay Bill from 254703180395 - JANE NYAGUTHII MWAGO Acc. IBE,Completed,400,,4500,TRUE,Pay Utility,254703180395 - JANE NYAGUTHII MWAGO,,IBE
PJ18M8YHUW,01/10/2021 08:31,01/10/2021 08:31,Pay Bill from 254716315144 - PETER MUNYIRI WAROTERE Acc. FBB,Completed,400,,4100,TRUE,Pay Utility,254716315144 - PETER MUNYIRI WAROTERE,,FBB
PJ19M6MX1F,01/10/2021 07:37,01/10/2021 07:37,Pay Bill from 254729541871 - ROBERT KULEI Acc. JAB,Completed,600,,3700,TRUE,Pay Utility,254729541871 - ROBERT KULEI,,JAB
