Receipt No.,Completion Time,Initiation Time,Details,Transaction Status,Paid In,Withdrawn,Balance,Balance Confirmed,Reason Type,Other Party Info,Linked Transaction ID,A/C No.
PB147YB0VG,01/02/2021 13:19,01/02/2021 13:19,Utility Account to Organization Settlement Account,Completed,,-25000,0,TRUE,Utility Account to Organization Settlement Account,887075 - ANCIENT WELLS LTD 3,,
PB197T3XJ3,01/02/2021 11:16,01/02/2021 11:16,Pay Bill Online from 254795983642 - OBED MOGAKA Acc. F6 OBED ,Completed,8500,,25000,TRUE,Pay Bill Online,254795983642 - OBED MOGAKA,,F6
PAV26O0LW4,31/01/2021 12:01,31/01/2021 12:01,Pay Bill from 254722706516 - KORIR ANTHONY Acc. Anthony d 3,Completed,8000,,16500,TRUE,Pay Utility,254722706516 - KORIR ANTHONY,,Anthony
PAU85HGAFU,30/01/2021 12:42,30/01/2021 12:42,Pay Bill from 254724871526 - JOHN KAGUONGO Acc. D5 John Kaguongo ,Completed,8500,,8500,TRUE,Pay Utility,254724871526 - JOHN KAGUONGO,,D5
PAT74LFHHX,29/01/2021 17:33,29/01/2021 17:33,Utility Account to Organization Settlement Account,Completed,,-15500,0,TRUE,Utility Account to Organization Settlement Account,887075 - ANCIENT WELLS LTD 3,,
PAT542HCGJ,29/01/2021 10:18,29/01/2021 10:18,Pay Bill from 254726432241 - STEPHEN MAYABI Acc. A1,Completed,7500,,15500,TRUE,Pay Utility,254726432241 - STEPHEN MAYABI,,A1
PAS83GP6KS,28/01/2021 18:32,28/01/2021 18:32,Pay Bill from 254713701237 - Michael Wanjala Acc. G2,Completed,8000,,8000,TRUE,Pay Utility,254713701237 - Michael Wanjala,,G2
PAR82DDLQS,27/01/2021 19:13,27/01/2021 19:13,Utility Account to Organization Settlement Account,Completed,,-8000,0,TRUE,Utility Account to Organization Settlement Account,887075 - ANCIENT WELLS LTD 3,,
PAR62AJ94M,27/01/2021 18:27,27/01/2021 18:27,Pay Bill Online from 254715144865 - CAROL JULIET MUGOYA Acc. E2 Carol juliet,Completed,8000,,8000,TRUE,Pay Bill Online,254715144865 - CAROL JULIET MUGOYA,,E2
PAR81X13DM,27/01/2021 13:21,27/01/2021 13:21,Utility Account to Organization Settlement Account,Completed,,-11500,0,TRUE,Utility Account to Organization Settlement Account,887075 - ANCIENT WELLS LTD 3,,
PAR61OWXPG,27/01/2021 09:53,27/01/2021 09:53,Pay Bill from 254703451075 - SHICHENGA MARK Acc. D2,Completed,8000,,11500,TRUE,Pay Utility,254703451075 - SHICHENGA MARK,,D2
PAP0ZCB11A,25/01/2021 23:33,25/01/2021 23:33,Pay Bill from 254720062144 - CAROLINE AMONDI OKELO Acc. f4,Completed,3500,,3500,TRUE,Pay Utility with OD via STK,254720062144 - CAROLINE AMONDI OKELO,,f4
PAK8SHV58Y,20/01/2021 00:07,20/01/2021 00:07,Utility Account to Organization Settlement Account,Completed,,-14000,0,TRUE,Utility Account to Organization Settlement Account,887075 - ANCIENT WELLS LTD 3,,
PAK1SHUMYF,20/01/2021 00:04,20/01/2021 00:04,Pay Bill Online from 254715020357 - ELIZABETH NJERI WARARI Acc. C2,Completed,5500,,14000,TRUE,Pay Bill Online,254715020357 - ELIZABETH NJERI WARARI,,C2
PAJ1SHHEMX,19/01/2021 23:16,19/01/2021 23:16,Pay Bill from 254740711710 - james waweru karuga Acc. F5,Completed,8500,,8500,TRUE,Pay Utility,254740711710 - james waweru karuga,,F5
PAH3P6YNP5,17/01/2021 07:29,17/01/2021 07:29,Utility Account to Organization Settlement Account,Completed,,-13500,0,TRUE,Utility Account to Organization Settlement Account,887075 - ANCIENT WELLS LTD 3,,
PAG7P49Q85,16/01/2021 22:29,16/01/2021 22:29,Pay Bill from 254720062144 - CAROLINE AMONDI OKELO Acc. F4,Completed,8500,,13500,TRUE,Pay Utility,254720062144 - CAROLINE AMONDI OKELO,,F4
PAG0OX9W3E,16/01/2021 19:46,16/01/2021 19:46,Pay Bill from 254701166449 - BETTY NYAWIRA MAINA Acc. G-3,Completed,5000,,5000,TRUE,Pay Utility,254701166449 - BETTY NYAWIRA MAINA,,G-3
PAF6N0IWAI,15/01/2021 10:37,15/01/2021 10:37,Utility Account to Organization Settlement Account,Completed,,-8500,0,TRUE,Utility Account to Organization Settlement Account,887075 - ANCIENT WELLS LTD 3,,
PAF7MW1KC5,15/01/2021 08:32,15/01/2021 08:32,Pay Bill from 254725941384 - BRIAN MURUMBA Acc. Brian Murumba E4,Completed,8500,,8500,TRUE,Pay Utility,254725941384 - BRIAN MURUMBA,,Brian
PAD0KX36RG,13/01/2021 13:15,13/01/2021 13:15,Utility Account to Organization Settlement Account,Completed,,-9000,0,TRUE,Utility Account to Organization Settlement Account,887075 - ANCIENT WELLS LTD 3,,
PAD9KVH41B,13/01/2021 12:33,13/01/2021 12:33,Pay Bill from 254727275562 - ANTONNY OTIENO Acc. e1,Completed,9000,,9000,TRUE,Pay Utility,254727275562 - ANTONNY OTIENO,,e1
PAD9KOL5FT,13/01/2021 09:31,13/01/2021 09:31,Utility Account to Organization Settlement Account,Completed,,-19000,0,TRUE,Utility Account to Organization Settlement Account,887075 - ANCIENT WELLS LTD 3,,
PAC4K2XB5S,12/01/2021 17:26,12/01/2021 17:26,Pay Bill from 254711428856 - JAPHETH OTSIENO BARASA Acc. Japheth Barasa A5,Completed,11000,,19000,TRUE,Pay Utility,254711428856 - JAPHETH OTSIENO BARASA,,Japheth
PAC8K2TDUO,12/01/2021 17:24,12/01/2021 17:24,Pay Bill from 254701166449 - BETTY NYAWIRA MAINA Acc. G-3,Completed,3000,,8000,TRUE,Pay Utility,254701166449 - BETTY NYAWIRA MAINA,,G-3
PAC0K2QDKO,12/01/2021 17:23,12/01/2021 17:23,Pay Bill from 254729110577 - GREGORY ONESMUS KIMANTHI Acc. D6,Completed,5000,,5000,TRUE,Pay Utility,254729110577 - GREGORY ONESMUS KIMANTHI,,D6
PAB1JDNOJN,11/01/2021 22:44,11/01/2021 22:44,Utility Account to Organization Settlement Account,Completed,,-10500,0,TRUE,Utility Account to Organization Settlement Account,887075 - ANCIENT WELLS LTD 3,,
PAB0J18UT8,11/01/2021 18:19,11/01/2021 18:19,Pay Bill Online from 254715020357 - ELIZABETH NJERI WARARI Acc. C2,Completed,2000,,10500,TRUE,Pay Bill Online,254715020357 - ELIZABETH NJERI WARARI,,C2
PAB2IKPSNI,11/01/2021 12:02,11/01/2021 12:02,Pay Bill from 254725085735 - MATTHEW MULI MUTUKU Acc. mercymuliB6p,Completed,8500,,8500,TRUE,Pay Utility,254725085735 - MATTHEW MULI MUTUKU,,mercymuliB6p
PA85EZ0H6D,08/01/2021 08:54,08/01/2021 08:54,Utility Account to Organization Settlement Account,Completed,,-44500,0,TRUE,Utility Account to Organization Settlement Account,887075 - ANCIENT WELLS LTD 3,,
PA72EG8LLC,07/01/2021 17:58,07/01/2021 17:58,Pay Bill from 0799912339 - PETER KAMAU MURIU Acc. c5,Completed,11500,,44500,TRUE,Pay Utility,0799912339 - PETER KAMAU MURIU,,c5
PA70E7KAK4,07/01/2021 14:38,07/01/2021 14:38,Pay Bill from 254701330588 - EDGER WAFULA BUTALI Acc. D1,Completed,8000,,33000,TRUE,Pay Utility,254701330588 - EDGER WAFULA BUTALI,,D1
PA78E3O5J8,07/01/2021 13:02,07/01/2021 13:02,Pay Bill from 0799838354 - Brian Kyengo Ndambuki Acc. B3,Completed,9000,,25000,TRUE,Pay Utility,0799838354 - Brian Kyengo Ndambuki,,B3
PA72DU5OI2,07/01/2021 09:00,07/01/2021 09:00,Pay Bill from 254792976771 - DANIEL MUTHAMA NDUNDA Acc. F1,Completed,8000,,16000,TRUE,Pay Utility with OD via STK,254792976771 - DANIEL MUTHAMA NDUNDA,,F1
PA60DL3BH0,06/01/2021 20:53,06/01/2021 20:53,Pay Bill Online from 254711184244 - KIPROP FESTUS Acc. Festus Kiprop C1p,Completed,8000,,8000,TRUE,Pay Bill Online,254711184244 - KIPROP FESTUS,,Festus
PA62D59K5A,06/01/2021 16:18,06/01/2021 16:18,Utility Account to Organization Settlement Account,Completed,,-8500,0,TRUE,Utility Account to Organization Settlement Account,887075 - ANCIENT WELLS LTD 3,,
PA62CTMGYY,06/01/2021 11:45,06/01/2021 11:45,Pay Bill from 254727585857 - PETER MUOKI NGUNDO Acc. Peter ngundo e6,Completed,8500,,8500,TRUE,Pay Utility,254727585857 - PETER MUOKI NGUNDO,,Peter
PA68CJ1DMQ,06/01/2021 06:47,06/01/2021 06:47,Utility Account to Organization Settlement Account,Completed,,-8500,0,TRUE,Utility Account to Organization Settlement Account,887075 - ANCIENT WELLS LTD 3,,
PA52C5LU4A,05/01/2021 18:45,05/01/2021 18:45,Pay Bill from 254711877988 - PATRICK KONZI Acc. b4,Completed,8500,,8500,TRUE,Pay Utility with OD via STK,254711877988 - PATRICK KONZI,,b4
PA52BN6U0M,05/01/2021 12:17,05/01/2021 12:17,Utility Account to Organization Settlement Account,Completed,,-8000,0,TRUE,Utility Account to Organization Settlement Account,887075 - ANCIENT WELLS LTD 3,,
PA51BKUNXT,05/01/2021 11:23,05/01/2021 11:23,Pay Bill from 254703451075 - SHICHENGA MARK Acc. D2,Completed,8000,,8000,TRUE,Pay Utility,254703451075 - SHICHENGA MARK,,D2
PA57BA7USB,05/01/2021 05:36,05/01/2021 05:36,Utility Account to Organization Settlement Account,Completed,,-16500,0,TRUE,Utility Account to Organization Settlement Account,887075 - ANCIENT WELLS LTD 3,,
PA40B5FFTK,04/01/2021 20:55,04/01/2021 20:55,Pay Bill from 254717465142 - EPHANTUS IRURA Acc. C4 MURIITHI,Completed,8500,,16500,TRUE,Pay Utility,254717465142 - EPHANTUS IRURA,,C4
PA48B3DF3I,04/01/2021 20:16,04/01/2021 20:16,Pay Bill from 254721539716 - OCTAVIAN MWANYALO Acc. C6,Completed,8000,,8000,TRUE,Pay Utility,254721539716 - OCTAVIAN MWANYALO,,C6
PA41A4T1KH,04/01/2021 08:33,04/01/2021 08:33,Utility Account to Organization Settlement Account,Completed,,-17500,0,TRUE,Utility Account to Organization Settlement Account,887075 - ANCIENT WELLS LTD 3,,
PA319RZYDN,03/01/2021 19:21,03/01/2021 19:21,Pay Bill from 254703246217 - AMBROSE ADOCHE MIRASI Acc. D4,Completed,8500,,17500,TRUE,Pay Utility,254703246217 - AMBROSE ADOCHE MIRASI,,D4
PA238LSH77,02/01/2021 18:50,02/01/2021 18:50,Pay Bill from 254704213191 - VALENTINE WAVINYA Acc. e3,Completed,9000,,9000,TRUE,Pay Utility,254704213191 - VALENTINE WAVINYA,,e3
PA137BDK5R,01/01/2021 16:42,01/01/2021 16:42,Utility Account to Organization Settlement Account,Completed,,-8000,0,TRUE,Utility Account to Organization Settlement Account,887075 - ANCIENT WELLS LTD 3,,
PA176VLZ4P,01/01/2021 10:30,01/01/2021 10:30,Pay Bill from 254701339690 - ASHA BAGANWA NDAHIRU Acc. F3,Completed,8000,,8000,TRUE,Pay Utility,254701339690 - ASHA BAGANWA NDAHIRU,,F3
