Receipt No.,Completion Time,Initiation Time,Details,Transaction Status,Paid In,Withdrawn,Balance,Balance Confirmed,Reason Type,Other Party Info,Linked Transaction ID,A/C No.
SD21X2ISAZ,02/04/2024 18:03,02/04/2024 18:03,Pay Bill Online from 254790***715 - JULIUS *** Acc. C2,Completed,7500,,42000,TRUE,Pay Bill Online,254790***715 - JULIUS ***,,C2
SD18S2AOLI,01/04/2024 11:02,01/04/2024 11:02,Pay Bill from 079162***292 - Miriam *** Acc. f1,Completed,7000,,34500,TRUE,Pay Utility,079162***292 - Miriam ***,,f1
SD14RR21SE,01/04/2024 09:18,01/04/2024 09:18,Pay Bill from 072977***299 - WAMBUA *** Acc. c1,Completed,1000,,27500,TRUE,Pay Utility,072977***299 - WAMBUA ***,,c1
SCV5R6T28N,31/03/2024 22:58,31/03/2024 22:58,Pay Bill Online from 079991***339 - PETER *** Acc. c5,Completed,7000,,26500,TRUE,Pay Bill Online,079991***339 - PETER ***,,c5
SCV3O269HF,31/03/2024 02:15,31/03/2024 02:15,Pay Bill Online from 079991***339 - PETER *** Acc. c5,Completed,5000,,19500,TRUE,Pay Bill Online,079991***339 - PETER ***,,c5
SCU1M9HAZD,30/03/2024 16:10,30/03/2024 16:10,Pay Bill from 072977***299 - WAMBUA *** Acc. c1,Completed,1000,,14500,TRUE,Pay Utility,072977***299 - WAMBUA ***,,c1
SCU2KG1A28,30/03/2024 03:47,30/03/2024 03:47,Pay Bill Online from 079991***339 - PETER *** Acc. c5,Completed,5000,,13500,TRUE,Pay Bill Online,079991***339 - PETER ***,,c5
SCS8FGHPLE,28/03/2024 18:04,28/03/2024 18:04,Pay Bill from 079801***497 - GODWIN *** Acc. c6,Completed,8500,,8500,TRUE,Pay Utility,079801***497 - GODWIN ***,,c6
SCS2F419RG,28/03/2024 16:38,28/03/2024 16:38,Utility Account to Organization Settlement Account,Completed,,-14000,0,TRUE,Utility Account to Organization Settlement Account,887075 - ANCIENT WELLS LTD 3,,
SCS8DSHSQ6,28/03/2024 10:02,28/03/2024 10:02,Pay Bill Online from 254703***849 - ROYAL *** Acc. F2,Completed,3000,,14000,TRUE,Pay Utility with OD Online,254703***849 - ROYAL ***,,F2
SCR39QYZCR,27/03/2024 07:06,27/03/2024 07:06,Pay Bill from 072977***299 - WAMBUA *** Acc. c1,Completed,3000,,11000,TRUE,Pay Utility,072977***299 - WAMBUA ***,,c1
SCQ473YFPU,26/03/2024 12:44,26/03/2024 12:44,Pay Bill Online from 254722***929 - LIZ *** Acc. g3,Completed,8000,,8000,TRUE,Pay Bill Online,254722***929 - LIZ ***,,g3
SCN6VX2YAQ,23/03/2024 12:22,23/03/2024 12:22,Utility Account to Organization Settlement Account,Completed,,-12000,0,TRUE,Utility Account to Organization Settlement Account,887075 - ANCIENT WELLS LTD 3,,
SCN8VAUUNO,23/03/2024 09:01,23/03/2024 09:01,Pay Bill from 254720***298 - ERIC *** Acc. A5,Completed,11000,,12000,TRUE,Pay Utility with OD via STK,254720***298 - ERIC ***,,A5
SCM3RC4GB3,22/03/2024 02:31,22/03/2024 02:31,Pay Bill from 072977***299 - WAMBUA *** Acc. c1,Completed,1000,,1000,TRUE,Pay Utility,072977***299 - WAMBUA ***,,c1
SCL1P6TB9L,21/03/2024 13:55,21/03/2024 13:55,Utility Account to Organization Settlement Account,Completed,,-84200,0,TRUE,Utility Account to Organization Settlement Account,887075 - ANCIENT WELLS LTD 3,,
SCJ6KAJIG8,19/03/2024 23:20,19/03/2024 23:20,Pay Bill from 072057***944 - Ronoh *** Acc. D2,Completed,8000,,84200,TRUE,Pay Utility,072057***944 - Ronoh ***,,D2
SCJ4IRYZXM,19/03/2024 16:40,19/03/2024 16:40,Pay Bill from 254727***164 - NICHOLAS *** Acc. G2,Completed,1200,,76200,TRUE,Pay Utility,254727***164 - NICHOLAS ***,,G2
SCF8662YFA,15/03/2024 22:07,15/03/2024 22:07,Pay Bill Online from 254720***144 - CAROLINE *** Acc. f4,Completed,8000,,75000,TRUE,Pay Bill Online,254720***144 - CAROLINE ***,,f4
SCD8W6C4YA,13/03/2024 14:46,13/03/2024 14:46,Pay Bill Online from 254703***849 - ROYAL *** Acc. F2,Completed,5000,,67000,TRUE,Pay Utility with OD Online,254703***849 - ROYAL ***,,F2
SCC3SV4XR5,12/03/2024 16:03,12/03/2024 16:03,Pay Bill from 254707***121 - JOHNSTONE *** Acc. b4,Completed,8500,,62000,TRUE,Pay Utility,254707***121 - JOHNSTONE ***,,b4
SCC0S9BQVK,12/03/2024 12:59,12/03/2024 12:59,Pay Bill from 254724***163 - IRENE *** Acc. A4,Completed,12000,,53500,TRUE,Pay Utility,254724***163 - IRENE ***,,A4
SCB0QYVSN8,11/03/2024 23:08,11/03/2024 23:08,Pay Bill from 074871***970 - judith *** Acc. E5,Completed,8500,,41500,TRUE,Pay Utility,074871***970 - judith ***,,E5
SCB1QP8Z6V,11/03/2024 21:19,11/03/2024 21:19,Pay Bill from 254708***835 - SUSAN *** Acc. B2,Completed,8000,,33000,TRUE,Pay Utility,254708***835 - SUSAN ***,,B2
SCB8QKQDJE,11/03/2024 20:47,11/03/2024 20:47,Pay Bill from 254714***834 - FAITH *** Acc. d4,Completed,8500,,25000,TRUE,Pay Utility,254714***834 - FAITH ***,,d4
SCB2OUDH2Q,11/03/2024 13:51,11/03/2024 13:51,Pay Bill Online from 074028***700 - SERAH *** Acc. c4serahmukulu,Completed,8500,,16500,TRUE,Pay Bill Online,074028***700 - SERAH ***,,c4serahmukulu
SCA8KJ0Y4Q,10/03/2024 09:43,10/03/2024 09:43,Pay Bill from 254715***408 - JONATHAN *** Acc. G1,Completed,8000,,8000,TRUE,Pay Utility,254715***408 - JONATHAN ***,,G1
SC98J9BZV8,09/03/2024 19:59,09/03/2024 19:59,Utility Account to Organization Settlement Account,Completed,,-183500,0,TRUE,Utility Account to Organization Settlement Account,887075 - ANCIENT WELLS LTD 3,,
SC82FRWETA,08/03/2024 20:57,08/03/2024 20:57,Pay Bill from 254720***157 - BENSON *** Acc. b6,Completed,8500,,183500,TRUE,Pay Utility,254720***157 - BENSON ***,,b6
SC88DKOZGA,08/03/2024 12:10,08/03/2024 12:10,Pay Bill from 254710***036 - Allan *** Acc. F5,Completed,8500,,175000,TRUE,Pay Utility,254710***036 - Allan ***,,F5
SC789UWKZW,07/03/2024 12:07,07/03/2024 12:07,Pay Bill from 070888***932 - Annfaith *** Acc. C3,Completed,8000,,166500,TRUE,Pay Utility,070888***932 - Annfaith ***,,C3
SC7895KS8S,07/03/2024 08:26,07/03/2024 08:26,Pay Bill from 254720***214 - SAMUEL *** Acc. B3,Completed,8000,,158500,TRUE,Pay Utility,254720***214 - SAMUEL ***,,B3
SC608032SE,06/03/2024 19:58,06/03/2024 19:58,Pay Bill from 074180***396 - JAMES *** Acc. B5,Completed,8500,,150500,TRUE,Pay Utility,074180***396 - JAMES ***,,B5
SC6561Z0OT,06/03/2024 11:53,06/03/2024 11:53,Pay Bill from 079156***463 - Lilian *** Acc. F6,Completed,8500,,142000,TRUE,Pay Utility with OD via STK,079156***463 - Lilian ***,,F6
SC551V5JOZ,05/03/2024 09:53,05/03/2024 09:53,Pay Bill Online from 254720***144 - CAROLINE *** Acc. f4,Completed,8500,,133500,TRUE,Pay Bill Online,254720***144 - CAROLINE ***,,f4
SC40ZY8SPU,04/03/2024 21:39,04/03/2024 21:39,Pay Bill from 254746***971 - gladys *** Acc. E4,Completed,8500,,125000,TRUE,Pay Utility,254746***971 - gladys ***,,E4
SC45ZGIH3V,04/03/2024 19:48,04/03/2024 19:48,Pay Bill Online from 254792***730 - kevin *** Acc. F3,Completed,8000,,116500,TRUE,Pay Bill Online,254792***730 - kevin ***,,F3
SC45X8XEGV,04/03/2024 10:40,04/03/2024 10:40,Pay Bill from 254768***417 - PAUL *** Acc. D6,Completed,8500,,108500,TRUE,Pay Utility,254768***417 - PAUL ***,,D6
SC35WDHOTZ,03/03/2024 23:19,03/03/2024 23:19,Pay Bill from 071503***019 - Omwenga *** Acc. E1,Completed,8000,,100000,TRUE,Pay Utility,071503***019 - Omwenga ***,,E1
SC31W6EABD,03/03/2024 21:43,03/03/2024 21:43,Pay Bill Online from 254792***122 - MWENDWA *** Acc. B1,Completed,8000,,92000,TRUE,Pay Bill Online,254792***122 - MWENDWA ***,,B1
SC38W13IOA,03/03/2024 21:02,03/03/2024 21:02,Pay Bill from 071934***205 - Christabel *** Acc. D1,Completed,8000,,84000,TRUE,Pay Utility,071934***205 - Christabel ***,,D1
SC30V1ZP4Y,03/03/2024 17:27,03/03/2024 17:27,Business Pay Bill by 998094 - COOP TO PAYBILL Acc. A1 via API,Completed,8000,,76000,TRUE,Business Pay Bill via API,998094 - COOP TO PAYBILL,,A1 via API
SC34T2UCVA,03/03/2024 06:01,03/03/2024 06:01,Pay Bill from 072977***299 - WAMBUA *** Acc. c1,Completed,1500,,68000,TRUE,Pay Utility,072977***299 - WAMBUA ***,,c1
SC27SITTK3,02/03/2024 21:07,02/03/2024 21:07,Pay Bill from 254722***516 - KORIR *** Acc. Anthony D3 ,Completed,8000,,66500,TRUE,Pay Utility,254722***516 - KORIR ***,,Anthony D3 
SC20S7BVOE,02/03/2024 20:03,02/03/2024 20:03,Pay Bill from 254715***093 - GICHANA *** Acc. E3,Completed,8000,,58500,TRUE,Pay Utility,254715***093 - GICHANA ***,,E3
SC22RURLPW,02/03/2024 19:01,02/03/2024 19:01,Pay Bill from 254791***895 - Enos *** Acc. D5,Completed,8500,,50500,TRUE,Pay Utility,254791***895 - Enos ***,,D5
SC27PRK3LL,02/03/2024 10:00,02/03/2024 10:00,Pay Bill from 254727***857 - PETER *** Acc. Peter Ngundo e6,Completed,8500,,42000,TRUE,Pay Utility,254727***857 - PETER ***,,Peter Ngundo e6
SC24PM6YIY,02/03/2024 09:13,02/03/2024 09:13,Pay Bill Online from 254715***357 - ELIZABETH *** Acc. C2,Completed,7500,,33500,TRUE,Pay Bill Online,254715***357 - ELIZABETH ***,,C2
SC14MQTSUE,01/03/2024 13:48,01/03/2024 13:48,Pay Bill from 254727***164 - NICHOLAS *** Acc. G2,Completed,8000,,26000,TRUE,Pay Utility,254727***164 - NICHOLAS ***,,G2
SC19LRWRMF,01/03/2024 09:10,01/03/2024 09:10,Pay Bill from 072977***299 - WAMBUA *** Acc. c1,Completed,1000,,18000,TRUE,Pay Utility,072977***299 - WAMBUA ***,,c1
