Receipt No.,Completion Time,Initiation Time,Details,Transaction Status,Paid In,Withdrawn,Balance,Balance Confirmed,Reason Type,Other Party Info,Linked Transaction ID,A/C No.
OD196HOWKP,01/04/2020 13:42,01/04/2020 13:42,Pay Bill Online from 254795983642 - OBED MOGAKA Acc. F6 OBED ,Completed,8500,,39000,TRUE,Pay Bill Online,254795983642 - OBED MOGAKA,,F6
OD1066FJIQ,01/04/2020 06:39,01/04/2020 06:39,Pay Bill from 0741067845 - jullian ellside  lion davids Acc. A2,Completed,7500,,30500,TRUE,Pay Utility,0741067845 - jullian ellside  lion davids,,A2
OCU3505E7H,30/03/2020 15:59,30/03/2020 15:59,Pay Bill from 254722706516 - KORIR ANTHONY Acc. Anthony B 3,Completed,8000,,23000,TRUE,Pay Utility,254722706516 - KORIR ANTHONY,,Anthony
OCU44OEXXQ,30/03/2020 09:28,30/03/2020 09:28,Pay Bill from 254712090460 - DAVID NANGENDO MABONGA Acc. 401 David mabonga,Completed,15000,,15000,TRUE,Pay Utility with OD via STK,254712090460 - DAVID NANGENDO MABONGA,,401
OCJ4VFW99I,19/03/2020 16:36,19/03/2020 16:36,Utility Account to Organization Settlement Account,Completed,,-7500,0,TRUE,Utility Account to Organization Settlement Account,887075 - ANCIENT WELLS LTD 3,,
OCJ9V7E9HL,19/03/2020 11:49,19/03/2020 11:49,Pay Bill from 254726432241 - STEPHEN MAYABI Acc. A1,Completed,7500,,7500,TRUE,Pay Utility with OD via STK,254726432241 - STEPHEN MAYABI,,A1
