Receipt No.,Completion Time,Initiation Time,Details,Transaction Status,Paid In,Withdrawn,Balance,Balance Confirmed,Reason Type,Other Party Info,Linked Transaction ID,A/C No.
RKP0ALPPU4,25/11/2023 07:11,25/11/2023 07:11,Utility Account to Organization Settlement Account,Completed,,-7000,0,TRUE,Utility Account to Organization Settlement Account,887674 - ANCIENT WELLS LTD 1,,
RKP6AJVJFW,25/11/2023 06:32,25/11/2023 06:32,Pay Bill from 074534***318 - Joyce *** Acc. V10,Completed,7000,,7000,TRUE,Pay Utility,074534***318 - Joyce ***,,V10
RKO59CDE1V,24/11/2023 18:23,24/11/2023 18:23,Utility Account to Organization Settlement Account,Completed,,-65000,0,TRUE,Utility Account to Organization Settlement Account,887674 - ANCIENT WELLS LTD 1,,
RKO989JJGN,24/11/2023 13:10,24/11/2023 13:10,Pay Bill Online from 254726***045 - DAYVEE *** Acc. b6,Completed,65000,,65000,TRUE,Pay Bill Online,254726***045 - DAYVEE ***,,b6
RKO677XORS,24/11/2023 05:52,24/11/2023 05:52,Utility Account to Organization Settlement Account,Completed,,-2500,0,TRUE,Utility Account to Organization Settlement Account,887674 - ANCIENT WELLS LTD 1,,
RKN6716PQG,23/11/2023 22:35,23/11/2023 22:35,Pay Bill from 254715***283 - alex *** Acc. v7,Completed,2500,,2500,TRUE,Pay Utility,254715***283 - alex ***,,v7
RKN66405SI,23/11/2023 18:30,23/11/2023 18:30,Utility Account to Organization Settlement Account,Completed,,-7000,0,TRUE,Utility Account to Organization Settlement Account,887674 - ANCIENT WELLS LTD 1,,
RKN458RYXM,23/11/2023 14:21,23/11/2023 14:21,Pay Bill from 254703***064 - KENNEDY *** Acc. V26,Completed,7000,,7000,TRUE,Pay Utility,254703***064 - KENNEDY ***,,V26
RKM81JKKEE,22/11/2023 11:31,22/11/2023 11:31,Utility Account to Organization Settlement Account,Completed,,-7000,0,TRUE,Utility Account to Organization Settlement Account,887674 - ANCIENT WELLS LTD 1,,
RKM81G14QA,22/11/2023 10:56,22/11/2023 10:56,Pay Bill from 254724***610 - ALINOOR *** Acc. v52,Completed,7000,,7000,TRUE,Pay Utility,254724***610 - ALINOOR ***,,v52
RKL9Z8S3LT,21/11/2023 20:20,21/11/2023 20:20,Utility Account to Organization Settlement Account,Completed,,-500,0,TRUE,Utility Account to Organization Settlement Account,887674 - ANCIENT WELLS LTD 1,,
RKL2Y6LA24,21/11/2023 16:02,21/11/2023 16:02,Pay Bill Online from 254715***283 - alex *** Acc. v7,Completed,500,,500,TRUE,Pay Bill Online,254715***283 - alex ***,,v7
RKL1XHX49P,21/11/2023 12:13,21/11/2023 12:13,Utility Account to Organization Settlement Account,Completed,,-7000,0,TRUE,Utility Account to Organization Settlement Account,887674 - ANCIENT WELLS LTD 1,,
RKL5XA51YH,21/11/2023 10:57,21/11/2023 10:57,Pay Bill from 254720***443 - FATUMA *** Acc. V21,Completed,7000,,7000,TRUE,Pay Utility,254720***443 - FATUMA ***,,V21
RKK9V24I81,20/11/2023 16:19,20/11/2023 16:19,Utility Account to Organization Settlement Account,Completed,,-40000,0,TRUE,Utility Account to Organization Settlement Account,887674 - ANCIENT WELLS LTD 1,,
RKK7UIGNUP,20/11/2023 13:25,20/11/2023 13:25,Business Pay Bill by 488519 - NCBA  Bank M-pesa Acc. T29 via API,Completed,40000,,40000,TRUE,Business Pay Bill via API,488519 - NCBA  Bank M-pesa,,T29
RKK6TMWLES,20/11/2023 08:19,20/11/2023 08:19,Utility Account to Organization Settlement Account,Completed,,-17100,0,TRUE,Utility Account to Organization Settlement Account,887674 - ANCIENT WELLS LTD 1,,
RKJ1R67WDB,19/11/2023 11:08,19/11/2023 11:08,Pay Bill Online from 074572***178 - RODGERS *** Acc. v27,Completed,7000,,17100,TRUE,Pay Bill Online,074572***178 - RODGERS ***,,v27
RKI2PU6ISU,18/11/2023 19:52,18/11/2023 19:52,Pay Bill from 070340***243 - LEVITAN *** Acc. vk3,Completed,2000,,10100,TRUE,Pay Utility,070340***243 - LEVITAN ***,,vk3
RKI1P374F7,18/11/2023 17:04,18/11/2023 17:04,Pay Bill Online from 254720***285 - DAMARIS *** Acc. V18,Completed,6600,,8100,TRUE,Pay Bill Online,254720***285 - DAMARIS ***,,V18
RKI3OHAP9N,18/11/2023 13:55,18/11/2023 13:55,Pay Bill from 254701***081 - JOSEPHINE *** Acc. v34,Completed,500,,1500,TRUE,Pay Utility,254701***081 - JOSEPHINE ***,,v34
RKI0NTAAW6,18/11/2023 10:13,18/11/2023 10:13,Pay Bill from 254717***709 - CAROLINE *** Acc. v15,Completed,1000,,1000,TRUE,Pay Utility,254717***709 - CAROLINE ***,,v15
RKI0NM93YO,18/11/2023 09:02,18/11/2023 09:02,Utility Account to Organization Settlement Account,Completed,,-9000,0,TRUE,Utility Account to Organization Settlement Account,887674 - ANCIENT WELLS LTD 1,,
RKH3LBGMS5,17/11/2023 14:40,17/11/2023 14:40,Pay Bill from 071384***898 - STACY *** Acc. v37,Completed,2000,,9000,TRUE,Pay Utility,071384***898 - STACY ***,,v37
RKH4KEAYHY,17/11/2023 09:27,17/11/2023 09:27,Pay Bill Online from 254799***490 - DANIEL *** Acc. V28,Completed,7000,,7000,TRUE,Pay Bill Online,254799***490 - DANIEL ***,,V28
RKH3K9QULH,17/11/2023 08:39,17/11/2023 08:39,Utility Account to Organization Settlement Account,Completed,,-14000,0,TRUE,Utility Account to Organization Settlement Account,887674 - ANCIENT WELLS LTD 1,,
RKG8JP7NMW,16/11/2023 21:44,16/11/2023 21:44,Pay Bill from 070767***271 - Victor *** Acc. v37,Completed,5000,,14000,TRUE,Pay Utility,070767***271 - Victor ***,,v37
RKF1FWSHYF,15/11/2023 19:18,15/11/2023 19:18,Pay Bill from 074326***596 - EMILY *** Acc. V58,Completed,2000,,9000,TRUE,Pay Utility with OD via STK,074326***596 - EMILY ***,,V58
RKF2FRNYBW,15/11/2023 18:50,15/11/2023 18:50,Pay Bill from 254720***582 - SHADRACK *** Acc. v01,Completed,7000,,7000,TRUE,Pay Utility,254720***582 - SHADRACK ***,,v01
RKF1FLY52J,15/11/2023 18:16,15/11/2023 18:16,Utility Account to Organization Settlement Account,Completed,,-10500,0,TRUE,Utility Account to Organization Settlement Account,887674 - ANCIENT WELLS LTD 1,,
RKD68CGQHC,13/11/2023 13:13,13/11/2023 13:13,Pay Bill from 254701***081 - JOSEPHINE *** Acc. v34,Completed,3500,,10500,TRUE,Pay Utility,254701***081 - JOSEPHINE ***,,v34
RKD480GF9G,13/11/2023 11:16,13/11/2023 11:16,Pay Bill Online from 254715***283 - alex *** Acc. v7,Completed,4000,,7000,TRUE,Pay Bill Online,254715***283 - alex ***,,v7
RKD47H9ABU,13/11/2023 07:43,13/11/2023 07:43,Pay Bill Online from 254706***390 - ELIZABETH *** Acc. V06,Completed,3000,,3000,TRUE,Pay Bill Online,254706***390 - ELIZABETH ***,,V06
RKD47G9UU2,13/11/2023 07:27,13/11/2023 07:27,Utility Account to Organization Settlement Account,Completed,,-181500,0,TRUE,Utility Account to Organization Settlement Account,887674 - ANCIENT WELLS LTD 1,,
RKB71ZZWWR,11/11/2023 12:31,11/11/2023 12:31,Pay Bill from 254729***880 - Eunice *** Acc. V33,Completed,7000,,181500,TRUE,Pay Utility with OD via STK,254729***880 - Eunice ***,,V33
RKB017X16W,11/11/2023 07:59,11/11/2023 07:59,Pay Bill from 070434***708 - WENDY *** Acc. V17,Completed,7000,,174500,TRUE,Pay Utility,070434***708 - WENDY ***,,V17
RKA9ZAYUDH,10/11/2023 19:50,10/11/2023 19:50,Pay Bill Online from 254712***669 - Joel *** Acc. A4,Completed,148000,,167500,TRUE,Pay Bill Online,254712***669 - Joel ***,,A4
RKA7YWZ1JV,10/11/2023 18:33,10/11/2023 18:33,Pay Bill from 254707***557 - GRACE *** Acc. V60,Completed,7000,,19500,TRUE,Pay Utility,254707***557 - GRACE ***,,V60
RKA5YI6NOP,10/11/2023 16:55,10/11/2023 16:55,Pay Bill from 254729***258 - Cliff *** Acc. v05,Completed,5500,,12500,TRUE,Pay Utility,254729***258 - Cliff ***,,v05
RKA7XYZ5RX,10/11/2023 14:13,10/11/2023 14:13,Pay Bill from 011536***438 - zibborah *** Acc. V48,Completed,7000,,7000,TRUE,Pay Utility,011536***438 - zibborah ***,,V48
RKA6XD4OGG,10/11/2023 10:56,10/11/2023 10:56,Utility Account to Organization Settlement Account,Completed,,-16500,0,TRUE,Utility Account to Organization Settlement Account,887674 - ANCIENT WELLS LTD 1,,
RKA4XCCA70,10/11/2023 10:49,10/11/2023 10:49,Pay Bill from 254702***335 - IMMACULATE *** Acc. V39,Completed,7000,,16500,TRUE,Pay Utility,254702***335 - IMMACULATE ***,,V39
RKA9X3KC65,10/11/2023 09:26,10/11/2023 09:26,Pay Bill from 254717***709 - CAROLINE *** Acc. v15,Completed,1000,,9500,TRUE,Pay Utility,254717***709 - CAROLINE ***,,v15
RK96WHIOS2,09/11/2023 22:47,09/11/2023 22:47,Pay Bill from 254700***102 - ROSE *** Acc. V12,Completed,1500,,8500,TRUE,Pay Utility,254700***102 - ROSE ***,,V12
RK99WH5ZEB,09/11/2023 22:41,09/11/2023 22:41,Pay Bill from 011206***814 - JOHN *** Acc. V53,Completed,7000,,7000,TRUE,Pay Utility with OD via STK,011206***814 - JOHN ***,,V53
RK93TWDHTD,09/11/2023 09:53,09/11/2023 09:53,Utility Account to Organization Settlement Account,Completed,,-2100,0,TRUE,Utility Account to Organization Settlement Account,887674 - ANCIENT WELLS LTD 1,,
RK94TOBQ7C,09/11/2023 08:27,09/11/2023 08:27,Pay Bill Online from 254715***283 - alex *** Acc. v7,Completed,2100,,2100,TRUE,Pay Bill Online,254715***283 - alex ***,,v7
RK85S12PCH,08/11/2023 17:16,08/11/2023 17:16,Utility Account to Organization Settlement Account,Completed,,-12000,0,TRUE,Utility Account to Organization Settlement Account,887674 - ANCIENT WELLS LTD 1,,
RK88S06BQW,08/11/2023 17:09,08/11/2023 17:09,Pay Bill from 254724***777 - ANTONY *** Acc. V41,Completed,12000,,12000,TRUE,Pay Utility,254724***777 - ANTONY ***,,V41
RK81QQ1APX,08/11/2023 10:01,08/11/2023 10:01,Utility Account to Organization Settlement Account,Completed,,-14600,0,TRUE,Utility Account to Organization Settlement Account,887674 - ANCIENT WELLS LTD 1,,
RK89QGWQXL,08/11/2023 08:23,08/11/2023 08:23,Pay Bill from 254717***709 - CAROLINE *** Acc. v15,Completed,1000,,14600,TRUE,Pay Utility,254717***709 - CAROLINE ***,,v15
RK77Q06EBZ,07/11/2023 22:05,07/11/2023 22:05,Pay Bill from 254712***662 - BENARD *** Acc. V16,Completed,6600,,13600,TRUE,Pay Utility,254712***662 - BENARD ***,,V16
RK73PFX4ND,07/11/2023 19:26,07/11/2023 19:26,FSI to Pay Bill by 3033815 - LOOP B2C. Acc. V55 via WEB by LOOP B2C.\TRINITYAPI,Completed,7000,,7000,TRUE,FSI to Pay Bill via API,3033815 - LOOP B2C.,,V55
RK78NZLPWW,07/11/2023 12:45,07/11/2023 12:45,Utility Account to Organization Settlement Account,Completed,,-6600,0,TRUE,Utility Account to Organization Settlement Account,887674 - ANCIENT WELLS LTD 1,,
RK74N97S20,07/11/2023 08:26,07/11/2023 08:26,Pay Bill from 254705***032 - NAOMI *** Acc. v46,Completed,6600,,6600,TRUE,Pay Utility,254705***032 - NAOMI ***,,v46
RK60MRWHZ2,06/11/2023 22:12,06/11/2023 22:12,Utility Account to Organization Settlement Account,Completed,,-20000,0,TRUE,Utility Account to Organization Settlement Account,887674 - ANCIENT WELLS LTD 1,,
RK63ME6MB3,06/11/2023 20:07,06/11/2023 20:07,Pay Bill Online from 254720***303 - PAUL *** Acc. V13,Completed,7000,,20000,TRUE,Pay Utility with OD Online,254720***303 - PAUL ***,,V13
RK69KSFSAX,06/11/2023 13:02,06/11/2023 13:02,Pay Bill from 254717***709 - CAROLINE *** Acc. v15,Completed,1000,,13000,TRUE,Pay Utility,254717***709 - CAROLINE ***,,v15
RK61KNKDPP,06/11/2023 12:17,06/11/2023 12:17,Pay Bill from 254701***081 - JOSEPHINE *** Acc. v34,Completed,5000,,12000,TRUE,Pay Utility,254701***081 - JOSEPHINE ***,,v34
RK65K5HNG9,06/11/2023 09:25,06/11/2023 09:25,Pay Bill Online from 254706***665 - CHRIS *** Acc. v22,Completed,7000,,7000,TRUE,Pay Bill Online,254706***665 - CHRIS ***,,v22
RK60JRU59A,06/11/2023 06:30,06/11/2023 06:30,Utility Account to Organization Settlement Account,Completed,,-49000,0,TRUE,Utility Account to Organization Settlement Account,887674 - ANCIENT WELLS LTD 1,,
RK51JKYE9P,05/11/2023 22:40,05/11/2023 22:40,Pay Bill from 254722***070 - SAMUEL *** Acc. v42,Completed,7000,,49000,TRUE,Pay Utility,254722***070 - SAMUEL ***,,v42
RK50JJS4EG,05/11/2023 22:17,05/11/2023 22:17,Pay Bill Online from 254722***623 - SUSAN *** Acc. v56,Completed,7000,,42000,TRUE,Pay Bill Online,254722***623 - SUSAN ***,,v56
RK59JHVGDD,05/11/2023 21:50,05/11/2023 21:50,Pay Bill from 254741***886 - TERESIA *** Acc. v50,Completed,7000,,35000,TRUE,Pay Utility,254741***886 - TERESIA ***,,v50
RK52JBVI7G,05/11/2023 20:47,05/11/2023 20:47,Pay Bill from 254703***096 - KEVIN *** Acc. V51,Completed,7000,,28000,TRUE,Pay Utility,254703***096 - KEVIN ***,,V51
RK52J7DJ7C,05/11/2023 20:11,05/11/2023 20:11,Pay Bill from 072938***149 - SYLVIA *** Acc. v30,Completed,7000,,21000,TRUE,Pay Utility,072938***149 - SYLVIA ***,,v30
RK50J4C1WM,05/11/2023 19:49,05/11/2023 19:49,Pay Bill Online from 075960***060 - ELVIS *** Acc. V47,Completed,7000,,14000,TRUE,Pay Bill Online,075960***060 - ELVIS ***,,V47
RK59IJ2ZEB,05/11/2023 17:29,05/11/2023 17:29,Pay Bill from 072927***890 - HALIMA *** Acc. V03,Completed,7000,,7000,TRUE,Pay Utility,072927***890 - HALIMA ***,,V03
RK58IIWS2A,05/11/2023 17:28,05/11/2023 17:28,Utility Account to Organization Settlement Account,Completed,,-7000,0,TRUE,Utility Account to Organization Settlement Account,887674 - ANCIENT WELLS LTD 1,,
RK50I5YXYQ,05/11/2023 15:40,05/11/2023 15:40,Pay Bill from 254791***764 - ISAIAH *** Acc. V49,Completed,7000,,7000,TRUE,Pay Utility,254791***764 - ISAIAH ***,,V49
RK55HTKZOZ,05/11/2023 13:50,05/11/2023 13:50,Utility Account to Organization Settlement Account,Completed,,-27200,0,TRUE,Utility Account to Organization Settlement Account,887674 - ANCIENT WELLS LTD 1,,
RK54HLBTBK,05/11/2023 12:29,05/11/2023 12:29,Pay Bill from 079580***227 - Lucy *** Acc. V36 ,Completed,6600,,27200,TRUE,Pay Utility with OD via STK,079580***227 - Lucy ***,,V36
RK57H0YM6D,05/11/2023 08:52,05/11/2023 08:52,Pay Bill from 254722***253 - DAVID *** Acc. v32,Completed,7000,,20600,TRUE,Pay Utility,254722***253 - DAVID ***,,v32
RK43GJJ32J,04/11/2023 22:48,04/11/2023 22:48,Pay Bill from 074654***458 - Hannah *** Acc. V23,Completed,6600,,13600,TRUE,Pay Utility,074654***458 - Hannah ***,,V23
RK47FGOWX7,04/11/2023 18:01,04/11/2023 18:01,Pay Bill from 071474***222 - WILSON *** Acc. V25,Completed,7000,,7000,TRUE,Pay Utility,071474***222 - WILSON ***,,V25
RK42EFVM3W,04/11/2023 13:18,04/11/2023 13:18,Utility Account to Organization Settlement Account,Completed,,-12000,0,TRUE,Utility Account to Organization Settlement Account,887674 - ANCIENT WELLS LTD 1,,
RK42E4IVX2,04/11/2023 11:40,04/11/2023 11:40,Pay Bill Online from 254710***983 - WINNIE *** Acc. V12,Completed,1500,,12000,TRUE,Pay Bill Online,254710***983 - WINNIE ***,,V12
RK48E3WMTS,04/11/2023 11:35,04/11/2023 11:35,Pay Bill from 076985***701 - DOLLARS *** Acc. V09,Completed,7000,,10500,TRUE,Pay Utility,076985***701 - DOLLARS ***,,V09
RK44E3WXV6,04/11/2023 11:35,04/11/2023 11:35,Pay Bill from 254706***908 - joseph *** Acc. V45,Completed,3500,,3500,TRUE,Pay Utility,254706***908 - joseph ***,,V45
RK30BD58US,03/11/2023 14:42,03/11/2023 14:42,Utility Account to Organization Settlement Account,Completed,,-32500,0,TRUE,Utility Account to Organization Settlement Account,887674 - ANCIENT WELLS LTD 1,,
RK35AXV3W1,03/11/2023 12:31,03/11/2023 12:31,Pay Bill from 254799***755 - CAROLINE *** Acc. V59,Completed,14000,,32500,TRUE,Pay Utility,254799***755 - CAROLINE ***,,V59
RK259BKED3,02/11/2023 19:58,02/11/2023 19:58,Pay Bill from 071420***896 - JANET *** Acc. vk4,Completed,3500,,18500,TRUE,Pay Utility,071420***896 - JANET ***,,vk4
RK2596S6DN,02/11/2023 19:30,02/11/2023 19:30,Pay Bill from 074326***596 - EMILY *** Acc. V58,Completed,5000,,15000,TRUE,Pay Utility with OD via STK,074326***596 - EMILY ***,,V58
RK268MJWZA,02/11/2023 17:30,02/11/2023 17:30,Pay Bill from 254715***540 - HILLARY *** Acc. V19,Completed,10000,,10000,TRUE,Pay Utility,254715***540 - HILLARY ***,,V19
RK2180N8O3,02/11/2023 14:29,02/11/2023 14:29,Utility Account to Organization Settlement Account,Completed,,-91000,0,TRUE,Utility Account to Organization Settlement Account,887674 - ANCIENT WELLS LTD 1,,
RK207KF2J2,02/11/2023 12:06,02/11/2023 12:06,Pay Bill Online from 254791***803 - JOHN *** Acc. V14,Completed,7000,,91000,TRUE,Pay Bill Online,254791***803 - JOHN ***,,V14
RK267IE318,02/11/2023 11:47,02/11/2023 11:47,Pay Bill from 079674***765 - VERONICA *** Acc. V43,Completed,7000,,84000,TRUE,Pay Utility,079674***765 - VERONICA ***,,V43
RK277FAAKZ,02/11/2023 11:18,02/11/2023 11:18,Pay Bill from 254706***075 - HARON *** Acc. v38,Completed,7000,,77000,TRUE,Pay Utility,254706***075 - HARON ***,,v38
RK25765B0V,02/11/2023 09:53,02/11/2023 09:53,Pay Bill Online from 254721***250 - DAVID *** Acc. B7,Completed,70000,,70000,TRUE,Pay Utility with OD Online,254721***250 - DAVID ***,,B7
RK256O5ZK5,02/11/2023 05:45,02/11/2023 05:45,Utility Account to Organization Settlement Account,Completed,,-49200,0,TRUE,Utility Account to Organization Settlement Account,887674 - ANCIENT WELLS LTD 1,,
RK196F5V1B,01/11/2023 22:10,01/11/2023 22:10,Pay Bill from 070707***137 - samuel *** Acc. V57,Completed,7000,,49200,TRUE,Pay Utility,070707***137 - samuel ***,,V57
RK146BMYTC,01/11/2023 21:33,01/11/2023 21:33,Pay Bill from 254790***716 - HELLEN *** Acc. V11,Completed,14000,,42200,TRUE,Pay Utility,254790***716 - HELLEN ***,,V11
RK1463T1LE,01/11/2023 20:32,01/11/2023 20:32,Pay Bill from 254726***082 - STEPHEN *** Acc. V02,Completed,7000,,28200,TRUE,Pay Utility,254726***082 - STEPHEN ***,,V02
RK12617TUY,01/11/2023 20:15,01/11/2023 20:15,Pay Bill Online from 254702***125 - ROTICH *** Acc. V20,Completed,7000,,21200,TRUE,Pay Bill Online,254702***125 - ROTICH ***,,V20
RK115SFG5R,01/11/2023 19:25,01/11/2023 19:25,Pay Bill from 254740***844 - LINA *** Acc. v29,Completed,7600,,14200,TRUE,Pay Utility,254740***844 - LINA ***,,v29
RK145C3URC,01/11/2023 17:55,01/11/2023 17:55,Pay Bill Online from 254726***584 - JULIANA *** Acc. v4,Completed,6600,,6600,TRUE,Pay Bill Online,254726***584 - JULIANA ***,,v4
RK163OE15O,01/11/2023 09:19,01/11/2023 09:19,Utility Account to Organization Settlement Account,Completed,,-1500,0,TRUE,Utility Account to Organization Settlement Account,887674 - ANCIENT WELLS LTD 1,,
