Receipt No.,Completion Time,Initiation Time,Details,Transaction Status,Paid In,Withdrawn,Balance,Balance Confirmed,Reason Type,Other Party Info,Linked Transaction ID,A/C No.
RCS3U3B28J,28/03/2023 19:05,28/03/2023 19:05,Pay Bill from 254722255523 - KELVIN WAMJAU KAMAU Acc. Z14,Completed,16000,,16000,TRUE,Pay Utility,254722255523 - KELVIN WAMJAU KAMAU,,Z14
RCS1THFXJX,28/03/2023 15:58,28/03/2023 15:58,Utility Account to Organization Settlement Account,Completed,,-35500,0,TRUE,Utility Account to Organization Settlement Account,887264 - ANCIENT WELLS LTD 2,,
RCS5T1OUTH,28/03/2023 13:08,28/03/2023 13:08,Pay Bill from 0111633679 - JOSEPH ESILABA NDUKA Acc. SAVANNAH 102,Completed,35500,,35500,TRUE,Pay Utility,0111633679 - JOSEPH ESILABA NDUKA,,SAVANNAH
RCR3QXTX7Z,27/03/2023 16:34,27/03/2023 16:34,Utility Account to Organization Settlement Account,Completed,,-1000,0,TRUE,Utility Account to Organization Settlement Account,887264 - ANCIENT WELLS LTD 2,,
RCR0QJ2OJ0,27/03/2023 13:44,27/03/2023 13:44,Utility Account to Organization Settlement Account,Completed,,-5000,1000,TRUE,Utility Account to Organization Settlement Account,887264 - ANCIENT WELLS LTD 2,,
RCP1N0NVZJ,25/03/2023 21:55,25/03/2023 21:55,Pay Bill from 254720213934 - TERRY KAWIRA SALESIO Acc. z20 ,Completed,6000,,6000,TRUE,Pay Utility,254720213934 - TERRY KAWIRA SALESIO,,z20
RCK689BN82,20/03/2023 12:32,20/03/2023 12:32,Utility Account to Organization Settlement Account,Completed,,-16000,0,TRUE,Utility Account to Organization Settlement Account,887264 - ANCIENT WELLS LTD 2,,
RCJ55OBT4R,19/03/2023 12:23,19/03/2023 12:23,Pay Bill Online from 254796931225 - Martin Nyaga Gikang'a Acc. 8z,Completed,16000,,16000,TRUE,Pay Utility with OD Online,254796931225 - Martin Nyaga Gikang'a,,8z
RCI22S0BRE,18/03/2023 11:05,18/03/2023 11:05,Utility Account to Organization Settlement Account,Completed,,-8200,0,TRUE,Utility Account to Organization Settlement Account,887264 - ANCIENT WELLS LTD 2,,
RCH6119BT0,17/03/2023 17:25,17/03/2023 17:25,Utility Account to Organization Settlement Account,Completed,,-15000,8200,TRUE,Utility Account to Organization Settlement Account,887264 - ANCIENT WELLS LTD 2,,
RCH2YQU1Q0,17/03/2023 09:20,17/03/2023 09:20,Pay Bill Online from 0798280554 - Joseph Wambugu Macharia Acc. house number 17,Completed,16000,,23200,TRUE,Pay Bill Online,0798280554 - Joseph Wambugu Macharia,,house
RCG2XMPU5C,16/03/2023 19:05,16/03/2023 19:05,Pay Bill from 0745528615 - COLLINS OCHIENG ONYANGO Acc. U6,Completed,5500,,7200,TRUE,Pay Utility,0745528615 - COLLINS OCHIENG ONYANGO,,U6
RCG1VX4RWT,16/03/2023 08:44,16/03/2023 08:44,Pay Bill from 0710331192 - Pius Ngumba Mulwa Acc. z12,Completed,1700,,1700,TRUE,Pay Utility with OD via STK,0710331192 - Pius Ngumba Mulwa,,z12
RCG6VWV08Y,16/03/2023 08:41,16/03/2023 08:41,Utility Account to Organization Settlement Account,Completed,,-308000,0,TRUE,Utility Account to Organization Settlement Account,887264 - ANCIENT WELLS LTD 2,,
RCF9USM8FL,15/03/2023 18:32,15/03/2023 18:32,Utility Account to Organization Settlement Account,Completed,,-100000,308000,TRUE,Utility Account to Organization Settlement Account,887264 - ANCIENT WELLS LTD 2,,
RCF6UQOQVY,15/03/2023 18:17,15/03/2023 18:17,Utility Account to Organization Settlement Account,Completed,,-25000,408000,TRUE,Utility Account to Organization Settlement Account,887264 - ANCIENT WELLS LTD 2,,
RCF3U7PJWP,15/03/2023 15:18,15/03/2023 15:18,Utility Account to Organization Settlement Account,Completed,,-30000,433000,TRUE,Utility Account to Organization Settlement Account,887264 - ANCIENT WELLS LTD 2,,
RCF0SYMK0G,15/03/2023 01:58,15/03/2023 01:58,Pay Bill Online from 254722949879 - KAMANDE JOSEPH Acc. Z10,Completed,15000,,463000,TRUE,Pay Utility with OD Online,254722949879 - KAMANDE JOSEPH,,Z10
RCD4PJLFSQ,13/03/2023 18:58,13/03/2023 18:58,Pay Bill Online from 254722269369 - FAIZ OMAR BASABRA Acc. NAIROBI WEST 12,Completed,70000,,448000,TRUE,Pay Bill Online,254722269369 - FAIZ OMAR BASABRA,,NAIROBI
RCD8P5S6TU,13/03/2023 17:05,13/03/2023 17:05,Pay Bill Online from 0743263203 - Patrick theuri wachira Acc. u1,Completed,5000,,378000,TRUE,Pay Utility with OD Online,0743263203 - Patrick theuri wachira,,u1
RCD8OJ0V9U,13/03/2023 12:56,13/03/2023 12:56,Utility Account to Organization Settlement Account,Completed,,-70000,373000,TRUE,Utility Account to Organization Settlement Account,887264 - ANCIENT WELLS LTD 2,,
RCD7NSEKB1,13/03/2023 07:33,13/03/2023 07:33,Pay Bill from 254728912446 - GRACE NJERI KIMANI Acc. ancient well ,Completed,40000,,443000,TRUE,Pay Utility with OD via STK,254728912446 - GRACE NJERI KIMANI,,ancient
RCD8NSCXKM,13/03/2023 07:32,13/03/2023 07:32,Pay Bill from 254729140163 - BEATRICE OMADI NYANDIGA Acc. Z13,Completed,7000,,403000,TRUE,Pay Utility,254729140163 - BEATRICE OMADI NYANDIGA,,Z13
RCC0ME0GEE,12/03/2023 15:42,12/03/2023 15:42,Pay Bill from 254726928715 - ELIZAPHAN KAMAU NDUTA Acc. Z2,Completed,18000,,396000,TRUE,Pay Utility with OD via STK,254726928715 - ELIZAPHAN KAMAU NDUTA,,Z2
RCB5K65EGJ,11/03/2023 17:53,11/03/2023 17:52,Pay Bill from 254721226492 - MICHAEL OKEYO CURTIS Acc. Uu4,Completed,5500,,378000,TRUE,Pay Utility with OD via STK,254721226492 - MICHAEL OKEYO CURTIS,,Uu4
RCB6JSJGRM,11/03/2023 15:47,11/03/2023 15:47,Utility Account to Organization Settlement Account,Completed,,-20000,372500,TRUE,Utility Account to Organization Settlement Account,887264 - ANCIENT WELLS LTD 2,,
RCA7IBZ8LT,10/03/2023 23:13,10/03/2023 23:13,FSI to Pay Bill by 998094 - COOP TO PAYBILL Acc. hse no. 3 via WEB by COOP TO PAYBILL\COOPAYBILLTRNS,Completed,12000,,392500,TRUE,FSI to Pay Bill via API,998094 - COOP TO PAYBILL,,hse
RCA9I1UYA1,10/03/2023 20:54,10/03/2023 20:54,"Pay Bill from 254722566566 - DANIEL KIMANTHI KAMANDI Acc. UMOJA,DANIEL",Completed,20000,,380500,TRUE,Pay Utility,254722566566 - DANIEL KIMANTHI KAMANDI,,"UMOJA,DANIEL"
RCA2GI4WVG,10/03/2023 12:40,10/03/2023 12:40,Pay Bill from 254725014210 - FREDRICK MOUNDE Acc. EPZ MH ,Completed,30000,,360500,TRUE,Pay Utility,254725014210 - FREDRICK MOUNDE,,EPZ
RCA0FR0WBU,10/03/2023 07:19,10/03/2023 07:19,Pay Bill from 254720867522 - DANIEL WAMBUI Acc. z15 ,Completed,16000,,330500,TRUE,Pay Utility,254720867522 - DANIEL WAMBUI,,z15
RC82AVRAZY,08/03/2023 11:53,08/03/2023 11:53,Pay Bill from 254720213934 - TERRY KAWIRA SALESIO Acc. z20 ,Completed,10000,,314500,TRUE,Pay Utility,254720213934 - TERRY KAWIRA SALESIO,,z20
RC82A8RVJC,08/03/2023 07:14,08/03/2023 07:14,Pay Bill from 254715776633 - FIONA KIMANI Acc. Z16,Completed,14000,,304500,TRUE,Pay Utility,254715776633 - FIONA KIMANI,,Z16
RC789QW8JO,07/03/2023 20:46,07/03/2023 20:46,Pay Bill from 254714033354 - George njoroge Acc. Z11,Completed,16000,,290500,TRUE,Pay Utility,254714033354 - George njoroge,,Z11
RC7387U6Y3,07/03/2023 12:32,07/03/2023 12:32,Pay Bill from 0115556359 - CHEPNGENO   EDITH Acc. C701,Completed,20000,,274500,TRUE,Pay Utility,0115556359 - CHEPNGENO   EDITH,,C701
RC707JG2GK,07/03/2023 07:55,07/03/2023 07:55,Pay Bill from 254721392330 - ROSE KENDI MUTEGI Acc. A202,Completed,90000,,254500,TRUE,Pay Utility,254721392330 - ROSE KENDI MUTEGI,,A202
RC6762HJBR,06/03/2023 16:29,06/03/2023 16:29,Pay Bill Online from 254723909186 - BRIAN LIBASIA Acc. 18,Completed,16000,,164500,TRUE,Pay Bill Online,254723909186 - BRIAN LIBASIA,,18
RC645VCO7K,06/03/2023 15:12,06/03/2023 15:12,Pay Bill from 254720084537 - MARY NDUKU WAMBUA Acc. 6,Completed,16000,,148500,TRUE,Pay Utility,254720084537 - MARY NDUKU WAMBUA,,6
RC543EKVWO,05/03/2023 16:43,05/03/2023 16:43,Pay Bill from 0115818416 - dennis   spence Acc. u2,Completed,14500,,132500,TRUE,Pay Utility,0115818416 - dennis   spence,,u2
RC5338ABQZ,05/03/2023 15:38,05/03/2023 15:38,Pay Bill from 254728479985 - VIRGINIAH MUHIA Acc. B7,Completed,13000,,118000,TRUE,Pay Utility,254728479985 - VIRGINIAH MUHIA,,B7
RC582QMWY2,05/03/2023 12:22,05/03/2023 12:22,Pay Bill from 254745713921 - LAUREEN WANJIRU MAINA Acc. B3,Completed,6000,,105000,TRUE,Pay Utility,254745713921 - LAUREEN WANJIRU MAINA,,B3
RC571ZIH1Z,05/03/2023 01:03,05/03/2023 01:03,Pay Bill Online from 254722729251 - DAVID KIBE NJUGUNA Acc. ZEE4,Completed,6000,,99000,TRUE,Pay Utility with OD Online,254722729251 - DAVID KIBE NJUGUNA,,ZEE4
RC31W2JUCV,03/03/2023 11:46,03/03/2023 11:46,Pay Bill from 254723882311 - VERONICAH WAMBUGU Acc. house number 9,Completed,16000,,93000,TRUE,Pay Utility,254723882311 - VERONICAH WAMBUGU,,house
RC31VVWNTZ,03/03/2023 10:33,03/03/2023 10:33,Pay Bill from 254718167869 - MARK OTIENO Acc. A3,Completed,7000,,77000,TRUE,Pay Utility,254718167869 - MARK OTIENO,,A3
RC38VVR9LY,03/03/2023 10:32,03/03/2023 10:32,Pay Bill from 254722314500 - SHARON AKINYI OBIERO Acc. hse 1,Completed,12000,,70000,TRUE,Pay Utility,254722314500 - SHARON AKINYI OBIERO,,hse
RC26V5XLOC,02/03/2023 22:27,02/03/2023 22:27,Pay Bill from 254741791919 - Linet Mongina Maraga Acc. U3,Completed,5000,,58000,TRUE,Pay Utility,254741791919 - Linet Mongina Maraga,,U3
RC25U573PF,02/03/2023 17:21,02/03/2023 17:21,Pay Bill from 254723877938 - SALOME ONGELE Acc. 369S,Completed,13000,,53000,TRUE,Pay Utility,254723877938 - SALOME ONGELE,,369S
RC23T8ZOLV,02/03/2023 11:40,02/03/2023 11:40,Pay Bill from 254724825611 - PAULINE INDIEKA Acc. D13,Completed,6000,,40000,TRUE,Pay Utility,254724825611 - PAULINE INDIEKA,,D13
RC17S77CG7,01/03/2023 20:59,01/03/2023 20:59,Pay Bill from 254726731040 - ISAAC NDUNGU Acc. D8,Completed,6000,,34000,TRUE,Pay Utility,254726731040 - ISAAC NDUNGU,,D8
