Receipt No.,Completion Time,Initiation Time,Details,Transaction Status,Paid In,Withdrawn,Balance,Balance Confirmed,Reason Type,Other Party Info,Linked Transaction ID,A/C No.
RGL438HPJW,21/07/2023 15:49,21/07/2023 15:49,Pay Bill from 254707801121 - JOHNSTONE MUTHUI MUTHAMI Acc. B4,Completed,8500,,8500,TRUE,Pay Utility with OD via STK,254707801121 - JOHNSTONE MUTHUI MUTHAMI,,B4
RGH1PUA6PF,17/07/2023 06:47,17/07/2023 06:47,Utility Account to Organization Settlement Account,Completed,,-12000,0,TRUE,Utility Account to Organization Settlement Account,887075 - ANCIENT WELLS LTD 3,,
RGG6OEB2PU,16/07/2023 15:48,16/07/2023 15:48,Pay Bill from 254724018163 - IRENE MUENI WILLY Acc. A4,Completed,12000,,12000,TRUE,Pay Utility,254724018163 - IRENE MUENI WILLY,,A4
RGF4LPV45S,15/07/2023 16:28,15/07/2023 16:28,Utility Account to Organization Settlement Account,Completed,,-7100,0,TRUE,Utility Account to Organization Settlement Account,887075 - ANCIENT WELLS LTD 3,,
RGF2KDXJQQ,15/07/2023 08:21,15/07/2023 08:21,Pay Bill from 0748719970 - judith ndunge mwende Acc. E5,Completed,7100,,7100,TRUE,Pay Utility,0748719970 - judith ndunge mwende,,E5
RGC5D9RFDN,12/07/2023 18:14,12/07/2023 18:14,Utility Account to Organization Settlement Account,Completed,,-147000,0,TRUE,Utility Account to Organization Settlement Account,887075 - ANCIENT WELLS LTD 3,,
RGB1BB9771,11/07/2023 21:45,11/07/2023 21:45,Pay Bill Online from 254720086214 - SAMUEL WANJIKU Acc. B3,Completed,9000,,147000,TRUE,Pay Bill Online,254720086214 - SAMUEL WANJIKU,,B3
RGB8A4237W,11/07/2023 16:16,11/07/2023 16:16,Pay Bill from 254714597495 - WAMBUA KIOKO Acc. c1,Completed,8000,,138000,TRUE,Pay Utility with OD via STK,254714597495 - WAMBUA KIOKO,,c1
RGA47V9DJ0,10/07/2023 19:26,10/07/2023 19:26,Pay Bill from 254708989835 - SUSAN NDUTA Acc. B2,Completed,8000,,130000,TRUE,Pay Utility,254708989835 - SUSAN NDUTA,,B2
RG993S40WH,09/07/2023 12:48,09/07/2023 12:48,Pay Bill from 254704740197 - CECILIA NJERI GITHUI Acc. C3,Completed,8000,,122000,TRUE,Pay Utility,254704740197 - CECILIA NJERI GITHUI,,C3
RG811MTOFZ,08/07/2023 16:59,08/07/2023 16:59,Pay Bill from 254792607730 - kevin kipchirchir Acc. F3,Completed,6000,,114000,TRUE,Pay Utility,254792607730 - kevin kipchirchir,,F3
RG81Z68ZE3,08/07/2023 08:10,08/07/2023 08:10,Pay Bill from 254714419834 - FAITH MWIKALI MUTHAMA Acc. d4,Completed,8500,,108000,TRUE,Pay Utility with OD via STK,254714419834 - FAITH MWIKALI MUTHAMA,,d4
RG79YN7RKX,07/07/2023 21:09,07/07/2023 21:09,Pay Bill from 254715764093 - GICHANA GOVAN Acc. E3,Completed,8000,,99500,TRUE,Pay Utility,254715764093 - GICHANA GOVAN,,E3
RG79XJBQ8R,07/07/2023 16:14,07/07/2023 16:14,Pay Bill from 0791565463 - Lilian Njeri Wakagwi Acc. F6,Completed,8500,,91500,TRUE,Pay Utility,0791565463 - Lilian Njeri Wakagwi,,F6
RG71X0Z2Q5,07/07/2023 13:12,07/07/2023 13:12,Pay Bill from 254710248036 - Allan Kimeu Mutua Acc. F5,Completed,8500,,83000,TRUE,Pay Utility,254710248036 - Allan Kimeu Mutua,,F5
RG67VXUEAJ,06/07/2023 22:47,06/07/2023 22:47,Pay Bill from 0111653037 - STEPHEN MUKABANA MAYABI Acc. A1,Completed,7500,,74500,TRUE,Pay Utility,0111653037 - STEPHEN MUKABANA MAYABI,,A1
RG64V44IGG,06/07/2023 18:43,06/07/2023 18:43,Pay Bill from 0715030019 - Omwenga Ong'era Stephen Acc. E1,Completed,8000,,67000,TRUE,Pay Utility,0715030019 - Omwenga Ong'era Stephen,,E1
RG65U6OWIZ,06/07/2023 13:52,06/07/2023 13:52,Pay Bill Online from 0740283700 - SERAH MUKULU MULILIA Acc. c4serahmukulu,Completed,8500,,59000,TRUE,Pay Bill Online,0740283700 - SERAH MUKULU MULILIA,,c4serahmukulu
RG64TQ7YRQ,06/07/2023 11:10,06/07/2023 11:10,Pay Bill Online from 254720201157 - BENSON INYANJE MWAKHA Acc. b6,Completed,8500,,50500,TRUE,Pay Bill Online,254720201157 - BENSON INYANJE MWAKHA,,b6
RG56SEBB20,05/07/2023 19:45,05/07/2023 19:45,Pay Bill from 254726945691 - JAMES RAMTU Acc. B5,Completed,8500,,42000,TRUE,Pay Utility,254726945691 - JAMES RAMTU,,B5
RG55Q2CC21,05/07/2023 04:59,05/07/2023 04:59,Pay Bill Online from 0799912339 - PETER KAMAU MURIU Acc. c5,Completed,8500,,33500,TRUE,Pay Bill Online,0799912339 - PETER KAMAU MURIU,,c5
RG48PP5RI8,04/07/2023 20:59,04/07/2023 20:59,Pay Bill from 0768386417 - PAUL MUTUNE MUSYOKA Acc. D6,Completed,8500,,25000,TRUE,Pay Utility,0768386417 - PAUL MUTUNE MUSYOKA,,D6
RG41PJ19BB,04/07/2023 20:13,04/07/2023 20:13,Pay Bill from 254791341895 - Enos Nyaosi Ayuma Acc. D5,Completed,8500,,16500,TRUE,Pay Utility,254791341895 - Enos Nyaosi Ayuma,,D5
RG43OT8CRN,04/07/2023 17:23,04/07/2023 17:23,Pay Bill from 0719349205 - Christabel Gakii Munene Acc. D1,Completed,8000,,8000,TRUE,Pay Utility,0719349205 - Christabel Gakii Munene,,D1
RG43OPIUJH,04/07/2023 16:53,04/07/2023 16:53,Utility Account to Organization Settlement Account,Completed,,-33000,0,TRUE,Utility Account to Organization Settlement Account,887075 - ANCIENT WELLS LTD 3,,
RG42NVCEUM,04/07/2023 12:04,04/07/2023 12:04,Pay Bill from 0720571944 - Ronoh   Benard Acc. D2,Completed,8000,,33000,TRUE,Pay Utility,0720571944 - Ronoh   Benard,,D2
RG48NMI640,04/07/2023 10:34,04/07/2023 10:34,Pay Bill from 0758877993 - VIRGINIA MBATHA MUTINDA Acc. G1,Completed,8000,,25000,TRUE,Pay Utility,0758877993 - VIRGINIA MBATHA MUTINDA,,G1
RG33K9H2AP,03/07/2023 08:36,03/07/2023 08:36,Pay Bill from 254727585857 - PETER MUOKI NGUNDO Acc. peter Ngundo e6,Completed,8500,,17000,TRUE,Pay Utility,254727585857 - PETER MUOKI NGUNDO,,peter
RG25HOSUDD,02/07/2023 10:03,02/07/2023 10:03,Pay Bill from 0748956967 - Selvin Mukami Wanjiru Acc. E4,Completed,8500,,8500,TRUE,Pay Utility,0748956967 - Selvin Mukami Wanjiru,,E4
RG18GCR74C,01/07/2023 18:54,01/07/2023 18:54,Utility Account to Organization Settlement Account,Completed,,-65000,0,TRUE,Utility Account to Organization Settlement Account,887075 - ANCIENT WELLS LTD 3,,
RG14FRZ2OQ,01/07/2023 16:17,01/07/2023 16:17,Pay Bill from 254728501821 - DUNCAN KIBET SANG Acc. F3,Completed,15000,,65000,TRUE,Pay Utility,254728501821 - DUNCAN KIBET SANG,,F3
RG11FP6NLV,01/07/2023 15:52,01/07/2023 15:52,Pay Bill from 0745516938 - MARION REBECCA BARASA Acc. A2,Completed,7500,,50000,TRUE,Pay Utility,0745516938 - MARION REBECCA BARASA,,A2
RG19F3925P,01/07/2023 12:26,01/07/2023 12:26,Pay Bill Online from 254706298810 - Morgan Mudengani Kisarago Acc. f1,Completed,8000,,42500,TRUE,Pay Bill Online,254706298810 - Morgan Mudengani Kisarago,,f1
RG10EQH6RU,01/07/2023 10:19,01/07/2023 10:19,Pay Bill from 254722706516 - KORIR ANTHONY Acc. Anthony D3 ,Completed,8000,,34500,TRUE,Pay Utility,254722706516 - KORIR ANTHONY,,Anthony
