Receipt No.,Completion Time,Initiation Time,Details,Transaction Status,Paid In,Withdrawn,Balance,Balance Confirmed,Reason Type,Other Party Info,Linked Transaction ID,A/C No.
QLJ4IMJODS,19/12/2022 12:03,19/12/2022 12:03,Pay Bill from 254711428856 - JAPHETH OTSIENO BARASA Acc. Japheth Barasa A5,Completed,11000,,52800,TRUE,Pay Utility,254711428856 - JAPHETH OTSIENO BARASA,,Japheth
QLH1DOXDCV,17/12/2022 13:02,17/12/2022 13:02,Pay Bill Online from 0793999724 - JALEEL    MWERO Acc. A2,Completed,7500,,41800,TRUE,Pay Bill Online,0793999724 - JALEEL    MWERO,,A2
QLG0CQ36JE,16/12/2022 23:37,16/12/2022 23:37,Pay Bill from 254726432241 - STEPHEN MAYABI Acc. A1,Completed,7500,,34300,TRUE,Pay Utility,254726432241 - STEPHEN MAYABI,,A1
QLF5882I6D,15/12/2022 13:15,15/12/2022 13:15,Utility Account to Organization Settlement Account,Completed,,-180000,26800,TRUE,Utility Account to Organization Settlement Account,887075 - ANCIENT WELLS LTD 3,,
QLF27QFQWG,15/12/2022 10:00,15/12/2022 10:00,Utility Account to Organization Settlement Account,Completed,,-20000,206800,TRUE,Utility Account to Organization Settlement Account,887075 - ANCIENT WELLS LTD 3,,
QLD642F3AC,13/12/2022 19:46,13/12/2022 19:46,Pay Bill from 254724018163 - IRENE MUENI WILLY Acc. A4,Completed,12000,,226800,TRUE,Pay Utility,254724018163 - IRENE MUENI WILLY,,A4
QLA0U2Q5WK,10/12/2022 13:12,10/12/2022 13:12,Pay Bill from 254713229967 - John Mugabo Simba Acc. E4,Completed,8500,,214800,TRUE,Pay Utility,254713229967 - John Mugabo Simba,,E4
QLA9T7HEH5,10/12/2022 07:05,10/12/2022 07:05,Pay Bill Online from 254720086214 - SAMUEL WANJIKU Acc. B3,Completed,8000,,206300,TRUE,Pay Bill Online,254720086214 - SAMUEL WANJIKU,,B3
QL99STFC41,09/12/2022 21:22,09/12/2022 21:22,Pay Bill Online from 254711877988 - PATRICK KONZI Acc. b4,Completed,8500,,198300,TRUE,Pay Utility with OD Online,254711877988 - PATRICK KONZI,,b4
QL94S8YK86,09/12/2022 18:41,09/12/2022 18:41,Pay Bill from 254708989835 - SUSAN NDUTA Acc. B2,Completed,8000,,189800,TRUE,Pay Utility,254708989835 - SUSAN NDUTA,,B2
QL84PDK6X2,08/12/2022 18:48,08/12/2022 18:48,Pay Bill from 0114093036 - Cecillia Njeri Githui Acc. c3,Completed,7600,,181800,TRUE,Pay Utility,0114093036 - Cecillia Njeri Githui,,c3
QL84P9UQAO,08/12/2022 18:22,08/12/2022 18:22,Pay Bill Online from 0799912339 - PETER KAMAU MURIU Acc. C5,Completed,8500,,174200,TRUE,Pay Bill Online,0799912339 - PETER KAMAU MURIU,,C5
QL75MPINHP,07/12/2022 19:49,07/12/2022 19:49,Pay Bill from 254721539716 - OCTAVIAN MWANYALO Acc.  C6,Completed,8000,,165700,TRUE,Pay Utility,254721539716 - OCTAVIAN MWANYALO,,
QL74M56KGA,07/12/2022 17:29,07/12/2022 17:29,Pay Bill from 254714597495 - WAMBUA KIOKO Acc. c1,Completed,8000,,157700,TRUE,Pay Utility,254714597495 - WAMBUA KIOKO,,c1
QL70L38N28,07/12/2022 11:29,07/12/2022 11:29,Pay Bill from 254710248036 - Allan Kimeu Mutua Acc. F5,Completed,8500,,149700,TRUE,Pay Utility,254710248036 - Allan Kimeu Mutua,,F5
QL71L0Q5LX,07/12/2022 11:04,07/12/2022 11:04,Pay Bill Online from 254720201157 - BENSON INYANJE MWAKHA Acc. b6,Completed,8500,,141200,TRUE,Pay Bill Online,254720201157 - BENSON INYANJE MWAKHA,,b6
QL78KXJYBG,07/12/2022 10:31,07/12/2022 10:31,Pay Bill from 254713701237 - Michael Wanjala Acc. G2,Completed,8000,,132700,TRUE,Pay Utility,254713701237 - Michael Wanjala,,G2
QL67K54D4V,06/12/2022 21:46,06/12/2022 21:46,Pay Bill from 254715764093 - GICHANA GOVAN Acc. E3,Completed,8200,,124700,TRUE,Pay Utility,254715764093 - GICHANA GOVAN,,E3
QL66JPGKGK,06/12/2022 19:36,06/12/2022 19:36,Pay Bill from 0791565463 - Lilian Njeri Wakagwi Acc. F6,Completed,8500,,116500,TRUE,Pay Utility,0791565463 - Lilian Njeri Wakagwi,,F6
QL68J5D2KE,06/12/2022 17:18,06/12/2022 17:18,Pay Bill from 254720439955 - GEOPHRY OKOTH Acc. D6,Completed,8500,,108000,TRUE,Pay Utility,254720439955 - GEOPHRY OKOTH,,D6
QL64HNRCEQ,06/12/2022 08:48,06/12/2022 08:48,Pay Bill from 254726945691 - JAMES RAMTU Acc. B5,Completed,8500,,99500,TRUE,Pay Utility,254726945691 - JAMES RAMTU,,B5
QL55H689U5,05/12/2022 22:18,05/12/2022 22:18,Pay Bill Online from 254706248362 - BERYL HUMA Acc. E5,Completed,8500,,91000,TRUE,Pay Bill Online,254706248362 - BERYL HUMA,,E5
QL55H0WDN5,05/12/2022 21:19,05/12/2022 21:19,Pay Bill from 254726645592 - Ephantus Muriithi Irura Acc. c4 muriithi,Completed,8500,,82500,TRUE,Pay Utility,254726645592 - Ephantus Muriithi Irura,,c4
QL44BZBPDY,04/12/2022 12:35,04/12/2022 12:35,Pay Bill from 0719349205 - Christabel Gakii Munene Acc. D1,Completed,17000,,74000,TRUE,Pay Utility,0719349205 - Christabel Gakii Munene,,D1
QL45B7HZKP,04/12/2022 07:33,04/12/2022 07:33,Pay Bill from 0720571944 - Ronoh   Benard Acc. D2,Completed,8500,,57000,TRUE,Pay Utility,0720571944 - Ronoh   Benard,,D2
QL359FFL73,03/12/2022 16:32,03/12/2022 16:32,Pay Bill Online from 254703176849 - ROYAL MUYA Acc. F2,Completed,8000,,48500,TRUE,Pay Bill Online,254703176849 - ROYAL MUYA,,F2
QL34819SAI,03/12/2022 09:09,03/12/2022 09:09,Pay Bill from 254722706516 - KORIR ANTHONY Acc. Anthony D 3,Completed,8000,,40500,TRUE,Pay Utility,254722706516 - KORIR ANTHONY,,Anthony
QL307OJ5PK,03/12/2022 06:11,03/12/2022 06:11,Pay Bill from 254727585857 - PETER MUOKI NGUNDO Acc. peter Ngundo e6 ,Completed,8500,,32500,TRUE,Pay Utility,254727585857 - PETER MUOKI NGUNDO,,peter
QL2369N4U1,02/12/2022 17:14,02/12/2022 17:14,Pay Bill from 0715030019 - Omwenga Ong'era Stephen Acc. E1,Completed,8000,,24000,TRUE,Pay Utility,0715030019 - Omwenga Ong'era Stephen,,E1
QL2566DJFB,02/12/2022 16:47,02/12/2022 16:47,Pay Bill from 254791341895 - Enos Nyaosi Ayuma Acc. D5,Completed,8500,,16000,TRUE,Pay Utility,254791341895 - Enos Nyaosi Ayuma,,D5
QL113KL9QH,01/12/2022 19:41,01/12/2022 19:41,Pay Bill Online from 254715020357 - ELIZABETH NJERI WARARI Acc. C2,Completed,7500,,7500,TRUE,Pay Bill Online,254715020357 - ELIZABETH NJERI WARARI,,C2
