Receipt No.,Completion Time,Initiation Time,Details,Transaction Status,Paid In,Withdrawn,Balance,Balance Confirmed,Reason Type,Other Party Info,Linked Transaction ID,A/C No.
SED96EIF97,13/05/2024 21:21,13/05/2024 21:21,Pay Bill from 254724***238 - Immacurate *** Acc. V45,Completed,400,,40250,TRUE,Pay Utility,254724***238 - Immacurate ***,,V45
SED55BBKVH,13/05/2024 17:35,13/05/2024 17:35,Pay Bill from 254704***689 - ANTONY *** Acc. ICD,Completed,400,,39850,TRUE,Pay Utility,254704***689 - ANTONY ***,,ICD
SEB5X52QZ9,11/05/2024 17:49,11/05/2024 17:49,Pay Bill from 071057***069 - GLADYS *** Acc. HCC ,Completed,600,,39450,TRUE,Pay Utility,071057***069 - GLADYS ***,,HCC 
SEB3VHIM37,11/05/2024 10:26,11/05/2024 10:26,Pay Bill from 254725***547 - MWACHIRO *** Acc. DFC,Completed,1600,,38850,TRUE,Pay Utility,254725***547 - MWACHIRO ***,,DFC
SEB7VEPGD3,11/05/2024 10:03,11/05/2024 10:03,Pay Bill Online from 254722***078 - MAUREEN *** Acc. DCD,Completed,1000,,37250,TRUE,Pay Bill Online,254722***078 - MAUREEN ***,,DCD
SEB8V9687M,11/05/2024 09:14,11/05/2024 09:14,Pay Bill from 254701***102 - CHEPCHUMBA *** Acc. IFE,Completed,300,,36250,TRUE,Pay Utility,254701***102 - CHEPCHUMBA ***,,IFE
SEB3V54Q43,11/05/2024 08:36,11/05/2024 08:36,Business Pay Bill by 998094 - COOP TO PAYBILL Acc. IFF via API,Completed,200,,35950,TRUE,Business Pay Bill via API,998094 - COOP TO PAYBILL,,IFF via API
SEA1UNPMN3,10/05/2024 22:57,10/05/2024 22:57,Pay Bill from 254710***630 - DONNA *** Acc. KCC,Completed,1000,,35750,TRUE,Pay Utility,254710***630 - DONNA ***,,KCC
SEA8SQZZX6,10/05/2024 14:57,10/05/2024 14:57,Pay Bill from 254724***046 - GIDEON *** Acc. KBJ,Completed,1000,,34750,TRUE,Pay Utility,254724***046 - GIDEON ***,,KBJ
SEA0RC4MXW,10/05/2024 07:44,10/05/2024 07:44,Pay Bill Online from 254710***965 - BRENDA *** Acc. hfg,Completed,1200,,33750,TRUE,Pay Bill Online,254710***965 - BRENDA ***,,hfg
SEA9R3OKVJ,10/05/2024 01:46,10/05/2024 01:46,Pay Bill Online from 254720***253 - JIMMY *** Acc. KBD,Completed,200,,32550,TRUE,Pay Utility with OD Online,254720***253 - JIMMY ***,,KBD
SE90QVG5A2,09/05/2024 22:15,09/05/2024 22:15,Pay Bill from 254712***662 - BENARD *** Acc. V16,Completed,1200,,32350,TRUE,Pay Utility,254712***662 - BENARD ***,,V16
SE97PQKFQZ,09/05/2024 18:00,09/05/2024 18:00,Pay Bill from 254706***075 - HARON *** Acc. v 38,Completed,600,,31150,TRUE,Pay Utility,254706***075 - HARON ***,,v 38
SE97OA1J1H,09/05/2024 11:29,09/05/2024 11:29,Pay Bill from 079665***494 - Rose *** Acc. KFH,Completed,1000,,30550,TRUE,Pay Utility,079665***494 - Rose ***,,KFH
SE92NDNK44,09/05/2024 02:55,09/05/2024 02:55,Pay Bill Online from 254720***253 - JIMMY *** Acc. KBD,Completed,200,,29550,TRUE,Pay Bill Online,254720***253 - JIMMY ***,,KBD
SE80N5282K,08/05/2024 22:14,08/05/2024 22:14,Pay Bill from 254725***531 - KIPKORIR *** Acc. DFB,Completed,400,,29350,TRUE,Pay Utility with OD via STK,254725***531 - KIPKORIR ***,,DFB
SE83MUJ2PZ,08/05/2024 20:42,08/05/2024 20:42,Pay Bill from 254704***496 - PETER *** Acc. DFD,Completed,1800,,28950,TRUE,Pay Utility with OD via STK,254704***496 - PETER ***,,DFD
SE85MQAIIL,08/05/2024 20:15,08/05/2024 20:15,Pay Bill from 254725***550 - FRANKLINE *** Acc.  KAF,Completed,1800,,27150,TRUE,Pay Utility,254725***550 - FRANKLINE ***,, KAF
SE88MK8BMA,08/05/2024 19:40,08/05/2024 19:40,Pay Bill from 254797***402 - Tiberius *** Acc. KFC,Completed,200,,25350,TRUE,Pay Utility,254797***402 - Tiberius ***,,KFC
SE84LLFCWS,08/05/2024 16:16,08/05/2024 16:16,Pay Bill Online from 254729***858 - AMBROSE *** Acc. KEJ,Completed,1800,,25150,TRUE,Pay Bill Online,254729***858 - AMBROSE ***,,KEJ
SE89KKC29L,08/05/2024 11:24,08/05/2024 11:24,Pay Bill from 254714***834 - FAITH *** Acc. D4,Completed,400,,23350,TRUE,Pay Utility,254714***834 - FAITH ***,,D4
SE86KK3S64,08/05/2024 11:22,08/05/2024 11:22,Pay Bill from 254705***030 - FRIDAH *** Acc. JEH,Completed,1000,,22950,TRUE,Pay Utility,254705***030 - FRIDAH ***,,JEH
SE81K79F5Z,08/05/2024 09:31,08/05/2024 09:31,Pay Bill from 254708***289 - BERYLE *** Acc. v02,Completed,400,,21950,TRUE,Pay Utility,254708***289 - BERYLE ***,,v02
SE71JBB13L,07/05/2024 21:22,07/05/2024 21:22,Pay Bill from 254705***032 - NAOMI *** Acc. v46,Completed,650,,21550,TRUE,Pay Utility,254705***032 - NAOMI ***,,v46
SE79IWR41H,07/05/2024 19:44,07/05/2024 19:44,Pay Bill from 254725***550 - FRANKLINE *** Acc. KAF,Completed,200,,20900,TRUE,Pay Utility,254725***550 - FRANKLINE ***,,KAF
SE74ILX6WY,07/05/2024 18:49,07/05/2024 18:49,Pay Bill Online from 254720***253 - JIMMY *** Acc. KBD,Completed,200,,20700,TRUE,Pay Bill Online,254720***253 - JIMMY ***,,KBD
SE71IJDR4P,07/05/2024 18:36,07/05/2024 18:36,Pay Bill from 072438***624 - FATUMA *** Acc. FAB,Completed,1800,,20500,TRUE,Pay Utility with OD via STK,072438***624 - FATUMA ***,,FAB
SE72IJ6S9M,07/05/2024 18:35,07/05/2024 18:35,Pay Bill Online from 254742***013 - HANEST *** Acc. IED,Completed,1000,,18700,TRUE,Pay Bill Online,254742***013 - HANEST ***,,IED
SE71GYUQAP,07/05/2024 11:49,07/05/2024 11:49,Pay Bill from 254722***051 - GILBERT *** Acc. JBE,Completed,1500,,17700,TRUE,Pay Utility with OD via STK,254722***051 - GILBERT ***,,JBE
SE77GWOB8L,07/05/2024 11:31,07/05/2024 11:31,Pay Bill from 254703***305 - MARTHA *** Acc. iai,Completed,800,,16200,TRUE,Pay Utility,254703***305 - MARTHA ***,,iai
SE76GS3860,07/05/2024 10:53,07/05/2024 10:53,Pay Bill Online from 254722***473 - SAMSON *** Acc. IAB,Completed,1400,,15400,TRUE,Pay Bill Online,254722***473 - SAMSON ***,,IAB
SE74GM8B98,07/05/2024 10:03,07/05/2024 10:03,Pay Bill from 072729***129 - AISHA *** Acc. V09,Completed,800,,14000,TRUE,Pay Utility,072729***129 - AISHA ***,,V09
SE73GGNF03,07/05/2024 09:13,07/05/2024 09:13,Pay Bill Online from 254741***957 - Mercy *** Acc. Jcb,Completed,1000,,13200,TRUE,Pay Bill Online,254741***957 - Mercy ***,,Jcb
SE66FQSSWM,06/05/2024 21:53,06/05/2024 21:53,Pay Bill Online from 254725***394 - RACHAEL *** Acc. JFB,Completed,400,,12200,TRUE,Pay Bill Online,254725***394 - RACHAEL ***,,JFB
SE66FDTCNY,06/05/2024 20:16,06/05/2024 20:16,Pay Bill from 254757***090 - Laureen *** Acc. KCJ,Completed,1400,,11800,TRUE,Pay Utility,254757***090 - Laureen ***,,KCJ
SE64FBC4Y8,06/05/2024 20:02,06/05/2024 20:02,Pay Bill from 254700***449 - JOHN *** Acc. 950,Completed,950,,10400,TRUE,Pay Utility,254700***449 - JOHN ***,,950
SE69F1BQBP,06/05/2024 19:12,06/05/2024 19:12,Pay Bill from 071503***019 - Omwenga *** Acc. E1,Completed,400,,9450,TRUE,Pay Utility,071503***019 - Omwenga ***,,E1
SE65EXWUT7,06/05/2024 18:55,06/05/2024 18:55,Pay Bill from 254705***736 - SNAIDA *** Acc. hbc,Completed,1000,,9050,TRUE,Pay Utility with OD via STK,254705***736 - SNAIDA ***,,hbc
SE61EXL9HH,06/05/2024 18:54,06/05/2024 18:54,Pay Bill from 074180***396 - JAMES *** Acc. B5,Completed,400,,8050,TRUE,Pay Utility,074180***396 - JAMES ***,,B5
SE63D9RLQR,06/05/2024 11:55,06/05/2024 11:55,Pay Bill from 072938***149 - SYLVIA *** Acc. v30,Completed,350,,7650,TRUE,Pay Utility,072938***149 - SYLVIA ***,,v30
SE64D89GQW,06/05/2024 11:43,06/05/2024 11:43,Pay Bill Online from 071580***956 - Mercy *** Acc. FFE,Completed,800,,7300,TRUE,Pay Bill Online,071580***956 - Mercy ***,,FFE
SE67CZ0LKJ,06/05/2024 10:27,06/05/2024 10:27,Business Pay Bill by 3033815 - LOOP B2C. Acc. V55 via API,Completed,700,,6500,TRUE,Business Pay Bill via API,3033815 - LOOP B2C.,,V55 via API
SE66CP89YI,06/05/2024 09:01,06/05/2024 09:01,Pay Bill Online from 070640***366 - LUCY *** Acc. KDB,Completed,1400,,5800,TRUE,Pay Bill Online,070640***366 - LUCY ***,,KDB
SE63CJKAMZ,06/05/2024 08:05,06/05/2024 08:05,Pay Bill from 254701***949 - AGNES *** Acc. ICH,Completed,200,,4400,TRUE,Pay Utility,254701***949 - AGNES ***,,ICH
SE69CG9PZH,06/05/2024 07:23,06/05/2024 07:23,Pay Bill from 254708***373 - MUNINI *** Acc. IEB,Completed,600,,4200,TRUE,Pay Utility,254708***373 - MUNINI ***,,IEB
SE58C7I09M,05/05/2024 23:14,05/05/2024 23:14,Pay Bill Online from 254721***178 - PHANICE *** Acc. FBF,Completed,400,,3600,TRUE,Pay Bill Online,254721***178 - PHANICE ***,,FBF
SE54BW79SM,05/05/2024 20:54,05/05/2024 20:54,Pay Bill Online from 254716***144 - PETER *** Acc. FBB,Completed,1000,,3200,TRUE,Pay Bill Online,254716***144 - PETER ***,,FBB
SE53BSVIZZ,05/05/2024 20:29,05/05/2024 20:29,Pay Bill from 074548***142 - Daisy *** Acc. FGE,Completed,2000,,2200,TRUE,Pay Utility,074548***142 - Daisy ***,,FGE
SE52BJE490,05/05/2024 19:29,05/05/2024 19:29,Pay Bill from 070728***361 - JOSEPHIN *** Acc. HGD,Completed,200,,200,TRUE,Pay Utility,070728***361 - JOSEPHIN ***,,HGD
SE57B9A0HP,05/05/2024 18:34,05/05/2024 18:34,Utility Account to Organization Settlement Account,Completed,,-87700,0,TRUE,Utility Account to Organization Settlement Account,846783 - ANCIENT WELLS LTD 4,,
SE51B684HF,05/05/2024 18:16,05/05/2024 18:16,Pay Bill Online from 254718***397 - JIMMY *** Acc. DCB,Completed,800,,87700,TRUE,Pay Bill Online,254718***397 - JIMMY ***,,DCB
SE57AKPV7J,05/05/2024 15:44,05/05/2024 15:44,Pay Bill Online from 071414***211 - KAREN *** Acc. JDF,Completed,800,,86900,TRUE,Pay Bill Online,071414***211 - KAREN ***,,JDF
SE54A55W1G,05/05/2024 13:42,05/05/2024 13:42,Pay Bill from 254712***818 - OYUGI *** Acc. FCB,Completed,2400,,86100,TRUE,Pay Utility,254712***818 - OYUGI ***,,FCB
SE599U2N0F,05/05/2024 12:07,05/05/2024 12:07,Pay Bill from 254799***761 - Samuel *** Acc. V42,Completed,800,,83700,TRUE,Pay Utility,254799***761 - Samuel ***,,V42
SE549QJE7E,05/05/2024 11:34,05/05/2024 11:34,Pay Bill from 254729***933 - FELISTAH *** Acc. IDI,Completed,1000,,82900,TRUE,Pay Utility,254729***933 - FELISTAH ***,,IDI
SE599P1IDD,05/05/2024 11:19,05/05/2024 11:19,Pay Bill from 254719***942 - NORAH *** Acc. KDA,Completed,1200,,81900,TRUE,Pay Utility,254719***942 - NORAH ***,,KDA
SE549MST38,05/05/2024 10:58,05/05/2024 10:58,Pay Bill from 254700***550 - BENARD *** Acc. DBB,Completed,1500,,80700,TRUE,Pay Utility,254700***550 - BENARD ***,,DBB
SE599M1HPF,05/05/2024 10:51,05/05/2024 10:51,Pay Bill from 254717***430 - ALFRED *** Acc. V11,Completed,2000,,79200,TRUE,Pay Utility,254717***430 - ALFRED ***,,V11
SE579L1IEJ,05/05/2024 10:42,05/05/2024 10:42,Pay Bill Online from 254728***882 - SHARAD *** Acc. KCK,Completed,3600,,77200,TRUE,Pay Bill Online,254728***882 - SHARAD ***,,KCK
SE478MRQP9,04/05/2024 21:48,04/05/2024 21:48,Pay Bill Online from 074635***450 - Alice *** Acc. FBC,Completed,200,,73600,TRUE,Pay Bill Online,074635***450 - Alice ***,,FBC
SE428DWOEG,04/05/2024 20:38,04/05/2024 20:38,Pay Bill Online from 072225***105 - SALIM *** Acc. FGF water,Completed,2000,,73400,TRUE,Pay Bill Online,072225***105 - SALIM ***,,FGF water
SE4489B3VC,04/05/2024 20:08,04/05/2024 20:08,Pay Bill Online from 254722***929 - LIZ *** Acc. g3,Completed,1400,,71400,TRUE,Pay Bill Online,254722***929 - LIZ ***,,g3
SE4084KUQ2,04/05/2024 19:42,04/05/2024 19:42,Pay Bill from 254799***719 - Anjeline *** Acc. FCA,Completed,1000,,70000,TRUE,Pay Utility,254799***719 - Anjeline ***,,FCA
SE42823UFY,04/05/2024 19:29,04/05/2024 19:29,Pay Bill from 254798***621 - MERCY *** Acc. jcj,Completed,1600,,69000,TRUE,Pay Utility,254798***621 - MERCY ***,,jcj
SE457WIE4Z,04/05/2024 19:01,04/05/2024 19:01,Pay Bill from 254700***550 - BENARD *** Acc. DBB,Completed,16000,,67400,TRUE,Pay Utility,254700***550 - BENARD ***,,DBB
SE467NBNIY,04/05/2024 18:12,04/05/2024 18:12,Pay Bill Online from 254799***492 - HIRANI *** Acc. JDB,Completed,1200,,51400,TRUE,Pay Bill Online,254799***492 - HIRANI ***,,JDB
SE4172R4SD,04/05/2024 15:57,04/05/2024 15:57,Pay Bill from 254726***273 - JESSE *** Acc. HCH,Completed,600,,50200,TRUE,Pay Utility,254726***273 - JESSE ***,,HCH
SE476712JH,04/05/2024 12:01,04/05/2024 12:01,Pay Bill from 254798***778 - victor *** Acc. DAD,Completed,1600,,49600,TRUE,Pay Utility,254798***778 - victor ***,,DAD
SE425S51U8,04/05/2024 10:01,04/05/2024 10:01,Pay Bill Online from 254723***628 - CLINTON *** Acc. hfh,Completed,800,,48000,TRUE,Pay Bill Online,254723***628 - CLINTON ***,,hfh
SE495J24B3,04/05/2024 08:36,04/05/2024 08:36,Pay Bill Online from 254721***713 - RHODA *** Acc. Jfh,Completed,1000,,47200,TRUE,Pay Bill Online,254721***713 - RHODA ***,,Jfh
SE445GRRLI,04/05/2024 08:11,04/05/2024 08:11,Pay Bill Online from 076802***575 - DOREEN *** Acc. HCD,Completed,800,,46200,TRUE,Pay Bill Online,076802***575 - DOREEN ***,,HCD
SE323SOOT4,03/05/2024 17:46,03/05/2024 17:46,Pay Bill from 254741***886 - TERESIA *** Acc. v50,Completed,200,,45400,TRUE,Pay Utility,254741***886 - TERESIA ***,,v50
SE333KPGB3,03/05/2024 16:56,03/05/2024 16:56,Pay Bill from 254701***476 - mary *** Acc. DAA,Completed,600,,45200,TRUE,Pay Utility,254701***476 - mary ***,,DAA
SE33396OZ1,03/05/2024 15:33,03/05/2024 15:33,Pay Bill from 070656***358 - HARRIET *** Acc. HBA,Completed,800,,44600,TRUE,Pay Utility,070656***358 - HARRIET ***,,HBA
SE392MXR6T,03/05/2024 12:45,03/05/2024 12:45,Pay Bill from 254713***251 - ERIC *** Acc. JDI,Completed,1000,,43800,TRUE,Pay Utility,254713***251 - ERIC ***,,JDI
SE382JEYWC,03/05/2024 12:17,03/05/2024 12:17,Pay Bill from 254717***324 - Christine *** Acc. KDF,Completed,200,,42800,TRUE,Pay Utility,254717***324 - Christine ***,,KDF
SE392HBC75,03/05/2024 12:00,03/05/2024 12:00,Pay Bill from 254796***018 - PEACE *** Acc. jah,Completed,1400,,42600,TRUE,Pay Utility,254796***018 - PEACE ***,,jah
SE392FETJF,03/05/2024 11:44,03/05/2024 11:44,Pay Bill from 254792***128 - Edwin *** Acc. HBF,Completed,600,,41200,TRUE,Pay Utility,254792***128 - Edwin ***,,HBF
SE3820T4GM,03/05/2024 09:42,03/05/2024 09:42,Pay Bill from 254726***584 - JULIANA *** Acc. v4,Completed,400,,40600,TRUE,Pay Utility,254726***584 - JULIANA ***,,v4
SE321Z4LEC,03/05/2024 09:27,03/05/2024 09:27,Pay Bill from 254715***540 - HILLARY *** Acc. v19,Completed,1000,,40200,TRUE,Pay Utility,254715***540 - HILLARY ***,,v19
SE371UJ35T,03/05/2024 08:44,03/05/2024 08:44,Pay Bill Online from 254712***871 - PAULA *** Acc. hea,Completed,800,,39200,TRUE,Pay Bill Online,254712***871 - PAULA ***,,hea
SE2715XZ7V,02/05/2024 21:14,02/05/2024 21:14,Pay Bill Online from 254795***849 - PURITY *** Acc. kbb,Completed,400,,38400,TRUE,Pay Bill Online,254795***849 - PURITY ***,,kbb
SE25ZRVKSJ,02/05/2024 19:33,02/05/2024 19:33,Pay Bill Online from 254710***992 - SIMON *** Acc. JCD,Completed,600,,38000,TRUE,Pay Bill Online,254710***992 - SIMON ***,,JCD
SE21ZOGKNN,02/05/2024 19:15,02/05/2024 19:15,Pay Bill Online from 254703***849 - ROYAL *** Acc. F2,Completed,8000,,37400,TRUE,Pay Bill Online,254703***849 - ROYAL ***,,F2
SE22ZOF68O,02/05/2024 19:14,02/05/2024 19:14,Pay Bill Online from 254708***223 - DENNIS *** Acc. DCA,Completed,600,,29400,TRUE,Pay Bill Online,254708***223 - DENNIS ***,,DCA
SE28YOHDYG,02/05/2024 15:21,02/05/2024 15:21,Pay Bill from 254708***464 - MERCY *** Acc. IBB,Completed,1000,,28800,TRUE,Pay Utility,254708***464 - MERCY ***,,IBB
SE29XJJ0AX,02/05/2024 09:53,02/05/2024 09:53,Pay Bill Online from 254720***253 - JIMMY *** Acc. KBD,Completed,200,,27800,TRUE,Pay Utility with OD Online,254720***253 - JIMMY ***,,KBD
SE23XGKMN9,02/05/2024 09:27,02/05/2024 09:27,Pay Bill from 254703***626 - DAVID *** Acc. fcd,Completed,600,,27600,TRUE,Pay Utility,254703***626 - DAVID ***,,fcd
SE25XF5JOJ,02/05/2024 09:13,02/05/2024 09:13,Pay Bill Online from 254706***046 - STACY *** Acc. KGK,Completed,800,,27000,TRUE,Pay Bill Online,254706***046 - STACY ***,,KGK
SE24X56ADW,02/05/2024 07:27,02/05/2024 07:27,Pay Bill from 254723***380 - RHODAH *** Acc. HEG,Completed,1400,,26200,TRUE,Pay Utility,254723***380 - RHODAH ***,,HEG
SE23X3M2FN,02/05/2024 07:02,02/05/2024 07:02,Pay Bill from 254717***817 - MARTHA *** Acc. fcf,Completed,900,,24800,TRUE,Pay Utility,254717***817 - MARTHA ***,,fcf
SE29X3JOTB,02/05/2024 07:01,02/05/2024 07:01,Pay Bill from 254717***817 - MARTHA *** Acc. fcf,Completed,100,,23900,TRUE,Pay Utility,254717***817 - MARTHA ***,,fcf
SE29X1U591,02/05/2024 06:17,02/05/2024 06:17,Pay Bill Online from 071150***447 - Gabriel *** Acc. FDC,Completed,600,,23800,TRUE,Pay Bill Online,071150***447 - Gabriel ***,,FDC
SE23X0OB9V,02/05/2024 04:56,02/05/2024 04:56,Pay Bill Online from 254720***253 - JIMMY *** Acc. KBD,Completed,200,,23200,TRUE,Pay Utility with OD Online,254720***253 - JIMMY ***,,KBD
SE19WVCZ3V,01/05/2024 23:38,01/05/2024 23:38,Pay Bill from 074337***291 - Ann *** Acc. KAD,Completed,1200,,23000,TRUE,Pay Utility,074337***291 - Ann ***,,KAD
SE10WRG51Y,01/05/2024 22:21,01/05/2024 22:21,Pay Bill Online from 254717***935 - LYDIAH *** Acc. ffb,Completed,600,,21800,TRUE,Pay Bill Online,254717***935 - LYDIAH ***,,ffb
SE11W9AF8H,01/05/2024 19:55,01/05/2024 19:55,Pay Bill from 254703***239 - BENARD *** Acc. KAK,Completed,1200,,21200,TRUE,Pay Utility,254703***239 - BENARD ***,,KAK
SE10W64LEI,01/05/2024 19:37,01/05/2024 19:37,Pay Bill from 074167***394 - STANELY *** Acc. V44,Completed,400,,20000,TRUE,Pay Utility,074167***394 - STANELY ***,,V44
SE17W5J0UL,01/05/2024 19:34,01/05/2024 19:34,Pay Bill from 254706***081 - FATUMA *** Acc. HED,Completed,1000,,19600,TRUE,Pay Utility,254706***081 - FATUMA ***,,HED
SE14W3A55E,01/05/2024 19:22,01/05/2024 19:22,Pay Bill from 254743***477 - FAITH *** Acc. IGE,Completed,1000,,18600,TRUE,Pay Utility,254743***477 - FAITH ***,,IGE
SE11VTAEE3,01/05/2024 18:30,01/05/2024 18:30,Pay Bill from 254717***775 - QADRA *** Acc. jci,Completed,2500,,17600,TRUE,Pay Utility,254717***775 - QADRA ***,,jci
SE19VKBQ6P,01/05/2024 17:34,01/05/2024 17:34,Pay Bill Online from 254799***039 - LUIS *** Acc. IAE,Completed,800,,15100,TRUE,Pay Bill Online,254799***039 - LUIS ***,,IAE
SE16VET1ME,01/05/2024 16:55,01/05/2024 16:55,Pay Bill Online from 254706***429 - ROSE *** Acc. IFI,Completed,200,,14300,TRUE,Pay Bill Online,254706***429 - ROSE ***,,IFI
SE14VDUTRO,01/05/2024 16:48,01/05/2024 16:48,Pay Bill Online from 254729***719 - JACINTA *** Acc. FFF,Completed,600,,14100,TRUE,Pay Bill Online,254729***719 - JACINTA ***,,FFF
SE15V6X0MX,01/05/2024 15:54,01/05/2024 15:54,Pay Bill Online from 254707***839 - DENNIS *** Acc. FEF,Completed,800,,13500,TRUE,Pay Bill Online,254707***839 - DENNIS ***,,FEF
SE14V3NCSC,01/05/2024 15:28,01/05/2024 15:28,Pay Bill Online from 254716***364 - Wendy *** Acc. ffc,Completed,1000,,12700,TRUE,Pay Bill Online,254716***364 - Wendy ***,,ffc
SE14UYTYWU,01/05/2024 14:50,01/05/2024 14:50,Pay Bill from 254704***133 - ELVIS *** Acc. HFD,Completed,500,,11700,TRUE,Pay Utility,254704***133 - ELVIS ***,,HFD
SE15UX5L5B,01/05/2024 14:37,01/05/2024 14:37,Pay Bill Online from 254790***715 - JULIUS *** Acc. C2,Completed,200,,11200,TRUE,Pay Bill Online,254790***715 - JULIUS ***,,C2
SE17UOW3PX,01/05/2024 13:33,01/05/2024 13:33,Pay Bill from 254717***012 - WINFRED *** Acc. IDA,Completed,600,,11000,TRUE,Pay Utility,254717***012 - WINFRED ***,,IDA
SE14UDLFHI,01/05/2024 12:02,01/05/2024 12:02,Pay Bill Online from 254795***441 - LEWIS *** Acc. KEB,Completed,400,,10400,TRUE,Pay Bill Online,254795***441 - LEWIS ***,,KEB
SE11UDEB3P,01/05/2024 12:00,01/05/2024 12:00,Pay Bill Online from 254714***840 - RACHAEL *** Acc. ITE,Completed,400,,10000,TRUE,Pay Bill Online,254714***840 - RACHAEL ***,,ITE
SE13U4Q7F1,01/05/2024 10:47,01/05/2024 10:47,Pay Bill from 254717***817 - NYANGAU *** Acc. jba,Completed,1800,,9600,TRUE,Pay Utility,254717***817 - NYANGAU ***,,jba
SE17U31HHJ,01/05/2024 10:32,01/05/2024 10:32,Pay Bill from 254725***094 - ABDISALAN *** Acc. IBA,Completed,1900,,7800,TRUE,Pay Utility,254725***094 - ABDISALAN ***,,IBA
SE12TQ0NSQ,01/05/2024 08:29,01/05/2024 08:29,Pay Bill Online from 254725***080 - DENNIS *** Acc. HDH,Completed,1000,,5900,TRUE,Pay Utility with OD Online,254725***080 - DENNIS ***,,HDH
SE13TPKTG9,01/05/2024 08:24,01/05/2024 08:24,Pay Bill Online from 254720***253 - JIMMY *** Acc. KBD,Completed,500,,4900,TRUE,Pay Utility with OD Online,254720***253 - JIMMY ***,,KBD
