Receipt No.,Completion Time,Initiation Time,Details,Transaction Status,Paid In,Withdrawn,Balance,Balance Confirmed,Reason Type,Other Party Info,Linked Transaction ID,A/C No.
QCO277JA18,24/03/2022 11:17,24/03/2022 11:17,Utility Account to Organization Settlement Account,Completed,,-7500,0,TRUE,Utility Account to Organization Settlement Account,887075 - ANCIENT WELLS LTD 3,,
QCN06HFYJY,23/03/2022 20:20,23/03/2022 20:20,Pay Bill from 254726432241 - STEPHEN MAYABI Acc. A1,Completed,7500,,7500,TRUE,Pay Utility with OD via STK,254726432241 - STEPHEN MAYABI,,A1
QCL31SI4L1,21/03/2022 12:27,21/03/2022 12:27,Utility Account to Organization Settlement Account,Completed,,-3000,0,TRUE,Utility Account to Organization Settlement Account,887075 - ANCIENT WELLS LTD 3,,
QCL91D5TK1,21/03/2022 08:12,21/03/2022 08:12,Pay Bill Online from 254703176849 - ROYAL MUYA Acc. F2,Completed,3000,,3000,TRUE,Pay Utility with OD Online,254703176849 - ROYAL MUYA,,F2
QCH7T1Q9DT,17/03/2022 09:34,17/03/2022 09:34,Utility Account to Organization Settlement Account,Completed,,-4500,0,TRUE,Utility Account to Organization Settlement Account,887075 - ANCIENT WELLS LTD 3,,
QCG8R88KPA,16/03/2022 10:32,16/03/2022 10:32,Pay Bill from 254720201157 - BENSON INYANJE MWAKHA Acc. b6,Completed,1500,,4500,TRUE,Pay Utility with OD via STK,254720201157 - BENSON INYANJE MWAKHA,,b6
QCF1P76PQ7,15/03/2022 09:17,15/03/2022 09:17,Pay Bill from 254713229967 - John Mugabo Simba Acc. E4,Completed,3000,,3000,TRUE,Pay Utility with OD via STK,254713229967 - John Mugabo Simba,,E4
QCE1NTCISB,14/03/2022 13:57,14/03/2022 13:57,Utility Account to Organization Settlement Account,Completed,,-8500,0,TRUE,Utility Account to Organization Settlement Account,887075 - ANCIENT WELLS LTD 3,,
QCD3MK1PMX,13/03/2022 18:53,13/03/2022 18:53,Pay Bill from 0799912339 - PETER KAMAU MURIU Acc. C5,Completed,8500,,8500,TRUE,Pay Utility,0799912339 - PETER KAMAU MURIU,,C5
QCB5ID9X7F,11/03/2022 15:58,11/03/2022 15:58,Utility Account to Organization Settlement Account,Completed,,-10500,0,TRUE,Utility Account to Organization Settlement Account,887075 - ANCIENT WELLS LTD 3,,
QCB0HWO2UK,11/03/2022 11:54,11/03/2022 11:54,Pay Bill Online from 254713295711 - JAMES CHEGE KAMAU Acc. A2,Completed,4500,,10500,TRUE,Pay Bill Online,254713295711 - JAMES CHEGE KAMAU,,A2
QCA7GMXUAV,10/03/2022 17:51,10/03/2022 17:51,Pay Bill Online from 254722444929 - LIZ KIHARA Acc. G3,Completed,6000,,6000,TRUE,Pay Bill Online,254722444929 - LIZ KIHARA,,G3
QCA8G5YW7E,10/03/2022 13:50,10/03/2022 13:50,Utility Account to Organization Settlement Account,Completed,,-17000,0,TRUE,Utility Account to Organization Settlement Account,887075 - ANCIENT WELLS LTD 3,,
QC91DLSKAT,09/03/2022 08:10,09/03/2022 08:10,Pay Bill from 254713229967 - John Mugabo Simba Acc. E4,Completed,4000,,17000,TRUE,Pay Utility,254713229967 - John Mugabo Simba,,E4
QC86CSGB54,08/03/2022 18:15,08/03/2022 18:15,Pay Bill Online from 254714597495 - WAMBUA KIOKO Acc. C1,Completed,8000,,13000,TRUE,Pay Bill Online,254714597495 - WAMBUA KIOKO,,C1
QC85CMG3DT,08/03/2022 17:03,08/03/2022 17:03,Pay Bill Online from 254703176849 - ROYAL MUYA Acc. F2,Completed,5000,,5000,TRUE,Pay Bill Online,254703176849 - ROYAL MUYA,,F2
QC82BQAQBI,08/03/2022 09:08,08/03/2022 09:08,Utility Account to Organization Settlement Account,Completed,,-8000,0,TRUE,Utility Account to Organization Settlement Account,887075 - ANCIENT WELLS LTD 3,,
QC78A5BH28,07/03/2022 12:41,07/03/2022 12:41,Pay Bill from 254703442069 - SALMA NASWA YUSUF Acc. C3,Completed,8000,,8000,TRUE,Pay Utility,254703442069 - SALMA NASWA YUSUF,,C3
QC739M4IKZ,07/03/2022 07:29,07/03/2022 07:29,Utility Account to Organization Settlement Account,Completed,,-20000,0,TRUE,Utility Account to Organization Settlement Account,887075 - ANCIENT WELLS LTD 3,,
QC609B6OFA,06/03/2022 21:04,06/03/2022 21:04,Pay Bill from 0704120519 - Mildred   Adhiambo Acc. G1,Completed,8000,,20000,TRUE,Pay Utility,0704120519 - Mildred   Adhiambo,,G1
QC608R3WWI,06/03/2022 17:18,06/03/2022 17:18,Pay Bill from 254724018163 - IRENE MUENI WILLY Acc. A4,Completed,12000,,12000,TRUE,Pay Utility,254724018163 - IRENE MUENI WILLY,,A4
QC6689PSKG,06/03/2022 13:04,06/03/2022 13:04,Utility Account to Organization Settlement Account,Completed,,-8000,0,TRUE,Utility Account to Organization Settlement Account,887075 - ANCIENT WELLS LTD 3,,
QC637TA093,06/03/2022 08:18,06/03/2022 08:18,Pay Bill from 0715030019 - Omwenga Ong'era Stephen Acc. E1,Completed,8000,,8000,TRUE,Pay Utility,0715030019 - Omwenga Ong'era Stephen,,E1
QC546TX5C4,05/03/2022 17:22,05/03/2022 17:22,Utility Account to Organization Settlement Account,Completed,,-24000,0,TRUE,Utility Account to Organization Settlement Account,887075 - ANCIENT WELLS LTD 3,,
QC596GETV3,05/03/2022 14:22,05/03/2022 14:22,Pay Bill from 0791565463 - Lilian Njeri Wakagwi Acc. F6,Completed,15500,,24000,TRUE,Pay Utility with OD via STK,0791565463 - Lilian Njeri Wakagwi,,F6
QC575YEEYL,05/03/2022 10:11,05/03/2022 10:11,Pay Bill from 254727585857 - PETER MUOKI NGUNDO Acc. Peter ngundo e6,Completed,8500,,8500,TRUE,Pay Utility,254727585857 - PETER MUOKI NGUNDO,,Peter
QC545VNVMC,05/03/2022 09:29,05/03/2022 09:29,Utility Account to Organization Settlement Account,Completed,,-33500,0,TRUE,Utility Account to Organization Settlement Account,887075 - ANCIENT WELLS LTD 3,,
QC485H5RAO,04/03/2022 22:04,04/03/2022 22:04,Pay Bill from 254717465142 - EPHANTUS IRURA Acc. c4 muriithi,Completed,8500,,33500,TRUE,Pay Utility,254717465142 - EPHANTUS IRURA,,c4
QC42521716,04/03/2022 19:19,04/03/2022 19:19,Pay Bill from 254706722732 - NAOMY ACHIENG OYUGI Acc. E5,Completed,8500,,25000,TRUE,Pay Utility,254706722732 - NAOMY ACHIENG OYUGI,,E5
QC464UKENU,04/03/2022 18:05,04/03/2022 18:05,Pay Bill Online from 254720201157 - BENSON INYANJE MWAKHA Acc. b6,Completed,8500,,16500,TRUE,Pay Utility with OD Online,254720201157 - BENSON INYANJE MWAKHA,,b6
QC444QIDL2,04/03/2022 17:18,04/03/2022 17:18,Pay Bill from 0719349205 - Christabel Gakii Munene Acc. D1,Completed,8000,,8000,TRUE,Pay Utility,0719349205 - Christabel Gakii Munene,,D1
QC4140OTJP,04/03/2022 11:22,04/03/2022 11:22,Utility Account to Organization Settlement Account,Completed,,-45000,0,TRUE,Utility Account to Organization Settlement Account,887075 - ANCIENT WELLS LTD 3,,
QC483ZIA1G,04/03/2022 11:05,04/03/2022 11:05,Pay Bill Online from 254722444929 - LIZ KIHARA Acc. G3,Completed,12000,,45000,TRUE,Pay Bill Online,254722444929 - LIZ KIHARA,,G3
QC423RPT1C,04/03/2022 09:09,04/03/2022 09:09,Pay Bill from 0720571944 - Ronoh   Benard Acc. D2,Completed,8500,,33000,TRUE,Pay Utility,0720571944 - Ronoh   Benard,,D2
QC303G056K,03/03/2022 22:32,03/03/2022 22:32,Pay Bill Online from 254701228789 - SAMWEL GITAU Acc. D4,Completed,8500,,24500,TRUE,Pay Bill Online,254701228789 - SAMWEL GITAU,,D4
QC333AFQ81,03/03/2022 21:01,03/03/2022 21:01,Pay Bill from 254721539716 - OCTAVIAN MWANYALO Acc. C6,Completed,8000,,16000,TRUE,Pay Utility,254721539716 - OCTAVIAN MWANYALO,,C6
QC322CUJUE,03/03/2022 14:36,03/03/2022 14:36,Pay Bill from 254720086214 - SAMUEL WANJIKU Acc. B3,Completed,8000,,8000,TRUE,Pay Utility,254720086214 - SAMUEL WANJIKU,,B3
QC29ZT3UY3,02/03/2022 18:44,02/03/2022 18:44,Utility Account to Organization Settlement Account,Completed,,-20500,0,TRUE,Utility Account to Organization Settlement Account,887075 - ANCIENT WELLS LTD 3,,
QC20ZR9BR6,02/03/2022 18:25,02/03/2022 18:25,Pay Bill from 254790130650 - CELESTINE AMBOKA Acc. B1,Completed,12000,,20500,TRUE,Pay Utility,254790130650 - CELESTINE AMBOKA,,B1
QC29ZG3NN9,02/03/2022 16:07,02/03/2022 16:07,Pay Bill Online from 254711877988 - PATRICK KONZI Acc. b4,Completed,8500,,8500,TRUE,Pay Bill Online,254711877988 - PATRICK KONZI,,b4
QC25YFRZAJ,02/03/2022 06:01,02/03/2022 06:01,Utility Account to Organization Settlement Account,Completed,,-16500,0,TRUE,Utility Account to Organization Settlement Account,887075 - ANCIENT WELLS LTD 3,,
QC18YBIZD2,01/03/2022 22:27,01/03/2022 22:27,Pay Bill Online from 254711428308 - NICHOLAS KERERA Acc. F3,Completed,8000,,16500,TRUE,Pay Bill Online,254711428308 - NICHOLAS KERERA,,F3
QC15XJ9QZX,01/03/2022 17:08,01/03/2022 17:08,Pay Bill Online from 254724871526 - JOHN KAGUONGO Acc. D5 JOHN KAGUONGO,Completed,8500,,8500,TRUE,Pay Bill Online,254724871526 - JOHN KAGUONGO,,D5
QC12XA4PAK,01/03/2022 15:00,01/03/2022 15:00,Utility Account to Organization Settlement Account,Completed,,-7500,0,TRUE,Utility Account to Organization Settlement Account,887075 - ANCIENT WELLS LTD 3,,
