Receipt No.,Completion Time,Initiation Time,Details,Transaction Status,Paid In,Withdrawn,Balance,Balance Confirmed,Reason Type,Other Party Info,Linked Transaction ID,A/C No.
OKB3E4YJX9,11/11/2020 09:17,11/11/2020 09:17,Utility Account to Organization Settlement Account,Completed,,-70000,0,TRUE,Utility Account to Organization Settlement Account,979524 - ANCIENT WELLS PROPERTY MANAGERS 2,,
OKB9E3XAGN,11/11/2020 08:48,11/11/2020 08:48,Pay Bill from 254722940643 - HERBERT MAVIAH MAVIAH ISWEKA Acc. HCG,Completed,34000,,70000,TRUE,Pay Utility with OD via STK,254722940643 - HERBERT MAVIAH MAVIAH ISWEKA,,HCG
OKB4E2PMYC,11/11/2020 08:13,11/11/2020 08:13,Pay Bill from 254721918811 - AHMED ABDI Acc. kaj,Completed,16000,,36000,TRUE,Pay Utility,254721918811 - AHMED ABDI,,kaj
OKB5E0N5Z3,11/11/2020 06:50,11/11/2020 06:50,Pay Bill from 254701006375 - EZRA MAKORI SERETI Acc. HTE,Completed,10000,,20000,TRUE,Pay Utility,254701006375 - EZRA MAKORI SERETI,,HTE
OKB6E0M9II,11/11/2020 06:49,11/11/2020 06:49,Pay Bill from 254701047939 - Cyrus Wahome Acc. KBG,Completed,10000,,10000,TRUE,Pay Utility,254701047939 - Cyrus Wahome,,KBG
OKB1E0HC71,11/11/2020 06:40,11/11/2020 06:40,Utility Account to Organization Settlement Account,Completed,,-66000,0,TRUE,Utility Account to Organization Settlement Account,979524 - ANCIENT WELLS PROPERTY MANAGERS 2,,
OKA3DP6XG5,10/11/2020 19:07,10/11/2020 19:07,Pay Bill from 0746447780 - MERCY KARISA MUTSEMBI Acc. KCG,Completed,10000,,66000,TRUE,Pay Utility,0746447780 - MERCY KARISA MUTSEMBI,,KCG
OKA3DO3XZZ,10/11/2020 18:52,10/11/2020 18:52,Pay Bill from 254728313347 - GEORGE KIMAIGA NYAMORI Acc. ici,Completed,16000,,56000,TRUE,Pay Utility,254728313347 - GEORGE KIMAIGA NYAMORI,,ici
OKA8DH7HAE,10/11/2020 16:53,10/11/2020 16:53,Pay Bill from 254729450678 - GRACE NDUNGE Acc. FBA,Completed,15000,,40000,TRUE,Pay Utility,254729450678 - GRACE NDUNGE,,FBA
OKA9DH0B8Z,10/11/2020 16:49,10/11/2020 16:49,Pay Bill from 254700052170 - EMMANUEL MUTYETU Acc. KBF,Completed,10000,,25000,TRUE,Pay Utility,254700052170 - EMMANUEL MUTYETU,,KBF
OKA2DGMW1I,10/11/2020 16:42,10/11/2020 16:42,Pay Bill Online from 254727554512 - COLLINS KOECH Acc. JDJ,Completed,15000,,15000,TRUE,Pay Bill Online,254727554512 - COLLINS KOECH,,JDJ
OKA4DFW6TO,10/11/2020 16:26,10/11/2020 16:26,Utility Account to Organization Settlement Account,Completed,,-41000,0,TRUE,Utility Account to Organization Settlement Account,979524 - ANCIENT WELLS PROPERTY MANAGERS 2,,
OKA2DBTX2E,10/11/2020 14:54,10/11/2020 14:54,Pay Bill from 0702322105 - hurry ibarasi madede Acc. HDG,Completed,15000,,41000,TRUE,Pay Utility,0702322105 - hurry ibarasi madede,,HDG
OKA7D74X91,10/11/2020 13:04,10/11/2020 13:04,Pay Bill from 254710537468 - DONALDO AMIOL JUAC AKEC Acc. jdg,Completed,2000,,26000,TRUE,Pay Utility,254710537468 - DONALDO AMIOL JUAC AKEC,,jdg
OKA4D5W5FO,10/11/2020 12:34,10/11/2020 12:34,Pay Bill from 254729258441 - ROBERT RONO KULEI Acc. JAB,Completed,15000,,24000,TRUE,Pay Utility,254729258441 - ROBERT RONO KULEI,,JAB
OKA4D28BPU,10/11/2020 11:07,10/11/2020 11:07,Pay Bill from 0758591833 - DORCUS MBULA PETER Acc. HDD,Completed,9000,,9000,TRUE,Pay Utility,0758591833 - DORCUS MBULA PETER,,HDD
OKA2D05J00,10/11/2020 10:17,10/11/2020 10:17,Utility Account to Organization Settlement Account,Completed,,-153700,0,TRUE,Utility Account to Organization Settlement Account,979524 - ANCIENT WELLS PROPERTY MANAGERS 2,,
OKA1CVNXN9,10/11/2020 08:21,10/11/2020 08:21,Pay Bill from 254715597659 - JOYCE KIVAI Acc. IED,Completed,11000,,153700,TRUE,Pay Utility,254715597659 - JOYCE KIVAI,,IED
OK91CPUQQH,09/11/2020 21:47,09/11/2020 21:47,Pay Bill from 254720361605 - DAUD AMBER Acc. IGH,Completed,500,,142700,TRUE,Pay Utility,254720361605 - DAUD AMBER,,IGH
OK94COVFW0,09/11/2020 21:16,09/11/2020 21:16,Pay Bill from 254727648419 - ABDISALAN AHMED Acc. Jbh,Completed,17000,,142200,TRUE,Pay Utility,254727648419 - ABDISALAN AHMED,,Jbh
OK94COSF9Q,09/11/2020 21:13,09/11/2020 21:13,Pay Bill from 254729892526 - PHARIS MICHUKI Acc. JA1,Completed,20000,,125200,TRUE,Pay Utility,254729892526 - PHARIS MICHUKI,,JA1
OK94CLPPII,09/11/2020 20:07,09/11/2020 20:07,Pay Bill Online from 254726877391 - EVERLYNE ATIENO Acc. JGI,Completed,20000,,105200,TRUE,Pay Bill Online,254726877391 - EVERLYNE ATIENO,,JGI
OK93CKDSUP,09/11/2020 19:44,09/11/2020 19:44,Pay Bill from 0722279788 - HARRISON WACIRA MAINA Acc. HAH,Completed,24000,,85200,TRUE,Pay Utility,0722279788 - HARRISON WACIRA MAINA,,HAH
OK94CIZGNU,09/11/2020 19:23,09/11/2020 19:23,Pay Bill from 254719626804 - PAUL NJOROGE Acc. JFI,Completed,20000,,61200,TRUE,Pay Utility,254719626804 - PAUL NJOROGE,,JFI
OK91CGSMXP,09/11/2020 18:52,09/11/2020 18:52,Pay Bill from 254701688732 - Brenda Mwongeli Mawili Acc. jag,Completed,10200,,41200,TRUE,Pay Utility,254701688732 - Brenda Mwongeli Mawili,,jag
OK93CGGV8F,09/11/2020 18:48,09/11/2020 18:48,Pay Bill from 254725255978 - DICKSON OLUOCH Acc. JFF,Completed,10000,,31000,TRUE,Pay Utility,254725255978 - DICKSON OLUOCH,,JFF
OK93CG3WFP,09/11/2020 18:43,09/11/2020 18:43,Pay Bill from 254708442077 - JOHN MUIRURI Acc. Fac,Completed,3000,,21000,TRUE,Pay Utility,254708442077 - JOHN MUIRURI,,Fac
OK97CENSCD,09/11/2020 18:21,09/11/2020 18:21,Pay Bill from 254702190887 - Nax Ochieng Acc. fde,Completed,16000,,18000,TRUE,Pay Utility,254702190887 - Nax Ochieng,,fde
OK95CCQKQT,09/11/2020 17:50,09/11/2020 17:50,Pay Bill from 254725909984 - TIMOTHY ODHIAMBO OWITI Acc. JDE,Completed,2000,,2000,TRUE,Pay Utility with OD via STK,254725909984 - TIMOTHY ODHIAMBO OWITI,,JDE
OK98C43UA4,09/11/2020 15:02,09/11/2020 14:50,Business Transfer from Utility Account to MMF Account via WEB by M-PESA - gwainaina,Completed,,-48500,0,TRUE,Business Transfer from Utility Account to MMF Account via WEB,979524 - ANCIENT WELLS PROPERTY MANAGERS 2,,
OK95C0L3ZT,09/11/2020 13:28,09/11/2020 13:28,Pay Bill from 254717554562 - OMONDI JACK Acc. KCI,Completed,12500,,48500,TRUE,Pay Utility,254717554562 - OMONDI JACK,,KCI
OK93C09LV5,09/11/2020 13:20,09/11/2020 13:20,Pay Bill from 254719285750 - LILIAN ACHIENG ODONGO Acc. IGE,Completed,9000,,36000,TRUE,Pay Utility,254719285750 - LILIAN ACHIENG ODONGO,,IGE
OK95BYRJ09,09/11/2020 12:44,09/11/2020 12:44,Pay Bill from 254702190887 - Nax Ochieng Acc. fde,Completed,15000,,27000,TRUE,Pay Utility,254702190887 - Nax Ochieng,,fde
OK99BX23KZ,09/11/2020 12:03,09/11/2020 12:03,Pay Bill from 254724611087 - Francis Mukindya Muoki Acc. kde,Completed,5000,,12000,TRUE,Pay Utility with OD via STK,254724611087 - Francis Mukindya Muoki,,kde
OK97BQNMTB,09/11/2020 09:28,09/11/2020 09:28,Pay Bill from 254710635630 - DONNA JESSICA OWANO Acc. KCC ,Completed,7000,,7000,TRUE,Pay Utility,254710635630 - DONNA JESSICA OWANO,,KCC
OK90BKSOXO,09/11/2020 00:50,09/11/2020 00:50,Utility Account to Organization Settlement Account,Completed,,-317500,0,TRUE,Utility Account to Organization Settlement Account,979524 - ANCIENT WELLS PROPERTY MANAGERS 2,,
OK94BKS320,09/11/2020 00:43,09/11/2020 00:43,Pay Bill Online from 254714578997 - LINCOLN DAN MEMBA Acc. KAC,Completed,1000,,317500,TRUE,Pay Utility with OD Online,254714578997 - LINCOLN DAN MEMBA,,KAC
OK97BKPMKJ,09/11/2020 00:22,09/11/2020 00:22,Pay Bill from 254791154655 - ELISHA JURA Acc. IAH,Completed,18000,,316500,TRUE,Pay Utility,254791154655 - ELISHA JURA,,IAH
OK93BKNSUV,09/11/2020 00:09,09/11/2020 00:09,Pay Bill from 254725909984 - TIMOTHY ODHIAMBO OWITI Acc. JDE,Completed,8000,,298500,TRUE,Pay Utility with OD via STK,254725909984 - TIMOTHY ODHIAMBO OWITI,,JDE
OK84BIRZ44,08/11/2020 21:40,08/11/2020 21:40,Pay Bill from 254722921132 - JOE MCCRAY MURIUKI KIHIA Acc. IFA,Completed,15000,,290500,TRUE,Pay Utility with OD via STK,254722921132 - JOE MCCRAY MURIUKI KIHIA,,IFA
OK80BGP5BC,08/11/2020 20:39,08/11/2020 20:39,Pay Bill from 254726380203 - SHARON OLENDO Acc. HCA,Completed,18000,,275500,TRUE,Pay Utility,254726380203 - SHARON OLENDO,,HCA
OK86BFG4PK,08/11/2020 20:11,08/11/2020 20:11,Pay Bill from 254729948896 - CAROLINE V MILIZA Acc. Fec,Completed,9000,,257500,TRUE,Pay Utility,254729948896 - CAROLINE V MILIZA,,Fec
OK83B7RG5H,08/11/2020 17:57,08/11/2020 17:57,Pay Bill from 254716369842 - HUMMAM HAMID MOHAMED SAID AMBER Acc. FGC,Completed,500,,248500,TRUE,Pay Utility with OD via STK,254716369842 - HUMMAM HAMID MOHAMED SAID AMBER,,FGC
OK85B6NOOR,08/11/2020 17:35,08/11/2020 17:35,Pay Bill from 254722458136 - NADI GOLICHA Acc. KAA,Completed,10000,,248000,TRUE,Pay Utility,254722458136 - NADI GOLICHA,,KAA
OK89B59SAB,08/11/2020 17:08,08/11/2020 17:08,Pay Bill Online from 254720451253 - JIMMY KIOGORA NKIROTE Acc. JBG,Completed,21000,,238000,TRUE,Pay Bill Online,254720451253 - JIMMY KIOGORA NKIROTE,,JBG
OK88AVMV1I,08/11/2020 13:38,08/11/2020 13:38,Pay Bill from 254703624678 - Zacharia Gesora Omwoyo Acc. igd,Completed,1000,,217000,TRUE,Pay Utility,254703624678 - Zacharia Gesora Omwoyo,,igd
OK88AQ8UHM,08/11/2020 11:21,08/11/2020 11:21,Pay Bill from 254721115404 - Justine Fayuma Okwemba Acc. HAA,Completed,17000,,216000,TRUE,Pay Utility with OD via STK,254721115404 - Justine Fayuma Okwemba,,HAA
OK83AKTUQD,08/11/2020 08:57,08/11/2020 08:57,Pay Bill from 254740579741 - MUHINDI MULINYA Acc. HGG,Completed,15000,,199000,TRUE,Pay Utility,254740579741 - MUHINDI MULINYA,,HGG
