Receipt No.,Completion Time,Initiation Time,Details,Transaction Status,Paid In,Withdrawn,Balance,Balance Confirmed,Reason Type,Other Party Info,Linked Transaction ID,A/C No.
QDC7AJPIF5,12/04/2022 20:44,12/04/2022 20:44,Pay Bill from 0112583763 - Mercy Ndunge Nzamalu Acc. v28,Completed,6600,,18200,TRUE,Pay Utility,0112583763 - Mercy Ndunge Nzamalu,,v28
QDC7A3BCS3,12/04/2022 17:53,12/04/2022 17:53,Pay Bill from 254715939283 - alex nyamai Acc. v07,Completed,3000,,11600,TRUE,Pay Utility,254715939283 - alex nyamai,,v07
QDC8A05T5O,12/04/2022 17:13,12/04/2022 17:13,Pay Bill Online from 0725639425 - GEOFFREY ODOYO OMUNE Acc. V13,Completed,1600,,8600,TRUE,Pay Bill Online,0725639425 - GEOFFREY ODOYO OMUNE,,V13
QDC69SEJCY,12/04/2022 15:22,12/04/2022 15:22,Pay Bill from 254720230582 - SHADRACK KITAKA NGILA Acc. v01,Completed,7000,,7000,TRUE,Pay Utility,254720230582 - SHADRACK KITAKA NGILA,,v01
QDC49MZP8A,12/04/2022 14:01,12/04/2022 14:01,Utility Account to Organization Settlement Account,Completed,,-7000,0,TRUE,Utility Account to Organization Settlement Account,887674 - ANCIENT WELLS LTD 1,,
QDC399U0JV,12/04/2022 10:45,12/04/2022 10:45,Pay Bill Online from 254702118125 - ROTICH BETHWEL Acc. V20,Completed,7000,,7000,TRUE,Pay Bill Online,254702118125 - ROTICH BETHWEL,,V20
QDC494T46C,12/04/2022 09:26,12/04/2022 09:26,Utility Account to Organization Settlement Account,Completed,,-57700,0,TRUE,Utility Account to Organization Settlement Account,887674 - ANCIENT WELLS LTD 1,,
QDB98KGP9V,11/04/2022 20:15,11/04/2022 20:15,Pay Bill from 254719701463 - MARY KANYI KIARIE Acc. v17,Completed,7000,,57700,TRUE,Pay Utility with OD via STK,254719701463 - MARY KANYI KIARIE,,v17
QDB06Z1KJY,11/04/2022 06:41,11/04/2022 06:41,Pay Bill from 0707032788 - CLIFF ONDIBA OMBASA Acc. V05,Completed,7000,,50700,TRUE,Pay Utility,0707032788 - CLIFF ONDIBA OMBASA,,V05
QDA767EDQV,10/04/2022 17:19,10/04/2022 17:19,Pay Bill from 0769858701 - DOLLARS DANIEL CIRHUZA Acc. V09,Completed,7000,,43700,TRUE,Pay Utility,0769858701 - DOLLARS DANIEL CIRHUZA,,V09
QDA663HXVG,10/04/2022 16:23,10/04/2022 16:23,Pay Bill from 254720056285 - DAMARIS NDURU Acc. V18,Completed,6600,,36700,TRUE,Pay Utility,254720056285 - DAMARIS NDURU,,V18
QD984U1O7M,09/04/2022 20:28,09/04/2022 20:28,Pay Bill from 0727266858 - winrose imbuga mudenyo Acc. vk5,Completed,500,,30100,TRUE,Pay Utility,0727266858 - winrose imbuga mudenyo,,vk5
QD964JCSFS,09/04/2022 18:46,09/04/2022 18:46,Pay Bill from 254701261592 - VICTOR MWILU Acc. v37,Completed,7000,,29600,TRUE,Pay Utility,254701261592 - VICTOR MWILU,,v37
QD914E6BTR,09/04/2022 17:47,09/04/2022 17:47,Pay Bill from 254715939283 - alex nyamai Acc. v07,Completed,2000,,22600,TRUE,Pay Utility,254715939283 - alex nyamai,,v07
QD983QRBSS,09/04/2022 12:34,09/04/2022 12:34,Pay Bill Online from 254718359438 - AHMAD TAHIR MACHENGO Acc. V11,Completed,6600,,20600,TRUE,Pay Bill Online,254718359438 - AHMAD TAHIR MACHENGO,,V11
QD862YL20W,08/04/2022 21:45,08/04/2022 21:45,Pay Bill from 254729806880 - Eunice Akinyi Were Acc. V33 ,Completed,7000,,14000,TRUE,Pay Utility,254729806880 - Eunice Akinyi Were,,V33
QD872HXORT,08/04/2022 18:45,08/04/2022 18:45,Pay Bill from 0758457508 - PETER KINGORI KAGUNDA Acc. V06,Completed,7000,,7000,TRUE,Pay Utility,0758457508 - PETER KINGORI KAGUNDA,,V06
QD811I7R5X,08/04/2022 10:54,08/04/2022 10:54,Utility Account to Organization Settlement Account,Completed,,-6600,0,TRUE,Utility Account to Organization Settlement Account,887674 - ANCIENT WELLS LTD 1,,
QD8314P71Z,08/04/2022 06:47,08/04/2022 06:47,Pay Bill Online from 254704995854 - james karanja wairimu Acc. V54,Completed,6600,,6600,TRUE,Pay Bill Online,254704995854 - james karanja wairimu,,V54
QD70ZR3WJO,07/04/2022 20:22,07/04/2022 20:22,Utility Account to Organization Settlement Account,Completed,,-36100,0,TRUE,Utility Account to Organization Settlement Account,887674 - ANCIENT WELLS LTD 1,,
QD76YTITGU,07/04/2022 13:50,07/04/2022 13:50,Pay Bill from 254700904994 - HUSSEIN HASSAN LAMA Acc. V43,Completed,7000,,36100,TRUE,Pay Utility,254700904994 - HUSSEIN HASSAN LAMA,,V43
QD78YJO8F8,07/04/2022 11:32,07/04/2022 11:32,Pay Bill from 254717294709 - CAROLINE WAVINYA NDINDA Acc. v15,Completed,7000,,29100,TRUE,Pay Utility,254717294709 - CAROLINE WAVINYA NDINDA,,v15
QD71Y4VXJF,07/04/2022 07:34,07/04/2022 07:34,Pay Bill from 254799304833 - ISMAEL RAJAB KITSAO Acc. v52,Completed,7000,,22100,TRUE,Pay Utility,254799304833 - ISMAEL RAJAB KITSAO,,v52
QD64WUVXJY,06/04/2022 14:34,06/04/2022 14:34,Pay Bill from 254712660519 - KELVIN MUTUNGA KATONYI Acc. V49,Completed,7000,,15100,TRUE,Pay Utility,254712660519 - KELVIN MUTUNGA KATONYI,,V49
QD68WS50SU,06/04/2022 13:56,06/04/2022 13:56,Pay Bill from 254703108159 - JOICE OGOLLA Acc. V50,Completed,6600,,8100,TRUE,Pay Utility,254703108159 - JOICE OGOLLA,,V50
QD61W7FU07,06/04/2022 08:59,06/04/2022 08:59,Pay Bill from 0727542914 - Pascal Ouma Opar Acc. pascalv45,Completed,1500,,1500,TRUE,Pay Utility,0727542914 - Pascal Ouma Opar,,pascalv45
QD63W6LRZH,06/04/2022 08:45,06/04/2022 08:45,Utility Account to Organization Settlement Account,Completed,,-45700,0,TRUE,Utility Account to Organization Settlement Account,887674 - ANCIENT WELLS LTD 1,,
QD66VYOOC6,06/04/2022 00:00,06/04/2022 00:00,Pay Bill from 0792514260 - Wilkister Irako Harambee Acc. 37847739,Completed,7000,,45700,TRUE,Pay Utility,0792514260 - Wilkister Irako Harambee,,37847739
QD59VWX9BN,05/04/2022 22:37,05/04/2022 22:37,Pay Bill from 0727266858 - winrose imbuga mudenyo Acc. vk5,Completed,3000,,38700,TRUE,Pay Utility,0727266858 - winrose imbuga mudenyo,,vk5
QD59VWUSSP,05/04/2022 22:35,05/04/2022 22:35,Pay Bill from 0702360376 - Bonface aganga nyamongo Acc. vk4,Completed,3500,,35700,TRUE,Pay Utility,0702360376 - Bonface aganga nyamongo,,vk4
QD52VNP2VU,05/04/2022 20:16,05/04/2022 20:16,Pay Bill from 0707032788 - CLIFF ONDIBA OMBASA Acc. v05,Completed,1500,,32200,TRUE,Pay Utility,0707032788 - CLIFF ONDIBA OMBASA,,v05
QD54VGDPKO,05/04/2022 19:09,05/04/2022 19:09,Pay Bill from 254722578070 - SAMUEL MACHARIA Acc. v42,Completed,7000,,30700,TRUE,Pay Utility,254722578070 - SAMUEL MACHARIA,,v42
QD51V4ZXLH,05/04/2022 17:09,05/04/2022 17:09,Pay Bill Online from 254706354035 - MOSES MUOKA Acc. V03,Completed,7000,,23700,TRUE,Pay Bill Online,254706354035 - MOSES MUOKA,,V03
QD58V1HU0E,05/04/2022 16:24,05/04/2022 16:24,Pay Bill from 254723815832 - SEMEKIA ONDIALA Acc. V38,Completed,6600,,16700,TRUE,Pay Utility,254723815832 - SEMEKIA ONDIALA,,V38
QD53UPZ5SF,05/04/2022 13:41,05/04/2022 13:41,Pay Bill from 254713916352 - WINFRED KATUNGWA NDALA Acc. V30,Completed,6600,,10100,TRUE,Pay Utility,254713916352 - WINFRED KATUNGWA NDALA,,V30
QD53UK0JK9,05/04/2022 12:17,05/04/2022 12:17,Pay Bill from 254719658678 - KELVIN SOMBA MAUNDU Acc. vk6,Completed,3500,,3500,TRUE,Pay Utility,254719658678 - KELVIN SOMBA MAUNDU,,vk6
QD51UA4PRP,05/04/2022 09:51,05/04/2022 09:51,Utility Account to Organization Settlement Account,Completed,,-13200,0,TRUE,Utility Account to Organization Settlement Account,887674 - ANCIENT WELLS LTD 1,,
QD54U4COHM,05/04/2022 08:17,05/04/2022 08:17,Pay Bill Online from 254700760396 - JULIUS MBUGUA KINYAHWE Acc. v35,Completed,6600,,13200,TRUE,Pay Bill Online,254700760396 - JULIUS MBUGUA KINYAHWE,,v35
QD42TRCO46,04/04/2022 21:04,04/04/2022 21:04,Pay Bill from 254718818610 - HANNAH NALIAKA Acc. V23,Completed,6600,,6600,TRUE,Pay Utility,254718818610 - HANNAH NALIAKA,,V23
QD49SNPQST,04/04/2022 13:09,04/04/2022 13:09,Utility Account to Organization Settlement Account,Completed,,-74000,0,TRUE,Utility Account to Organization Settlement Account,887674 - ANCIENT WELLS LTD 1,,
QD42S77ZBO,04/04/2022 09:05,04/04/2022 09:05,Pay Bill from 254702343078 - JOSEPH EBENYO Acc. V10 joseph,Completed,6600,,74000,TRUE,Pay Utility,254702343078 - JOSEPH EBENYO,,V10
QD48S3JCYM,04/04/2022 08:00,04/04/2022 08:00,Pay Bill from 254723389922 - ANNE WANJIKU NDUNGU Acc. v53,Completed,7300,,67400,TRUE,Pay Utility,254723389922 - ANNE WANJIKU NDUNGU,,v53
QD48S2DFIC,04/04/2022 07:34,04/04/2022 07:34,Pay Bill from 254712091662 - BENARD OMONDI ROBY Acc. V16,Completed,6600,,60100,TRUE,Pay Utility,254712091662 - BENARD OMONDI ROBY,,V16
QD37RXNGJJ,03/04/2022 23:17,03/04/2022 23:17,Pay Bill from 0727542914 - Pascal Ouma Opar Acc. pascalv45,Completed,3000,,53500,TRUE,Pay Utility,0727542914 - Pascal Ouma Opar,,pascalv45
QD33RWPR7P,03/04/2022 22:38,03/04/2022 22:38,Pay Bill from 0795807227 - Lucy Ncekei Kimathi Acc. V36,Completed,6600,,50500,TRUE,Pay Utility,0795807227 - Lucy Ncekei Kimathi,,V36
QD22P5HMU8,02/04/2022 15:56,02/04/2022 15:56,Pay Bill from 254715939283 - alex nyamai Acc. v07,Completed,3600,,43900,TRUE,Pay Utility,254715939283 - alex nyamai,,v07
QD21P2CZTX,02/04/2022 15:14,02/04/2022 15:14,Pay Bill Online from 254726465584 - JULIANA MUKELI MUTUNGA Acc. v4,Completed,6600,,40300,TRUE,Pay Bill Online,254726465584 - JULIANA MUKELI MUTUNGA,,v4
QD28OT0M2Q,02/04/2022 13:12,02/04/2022 13:12,Pay Bill from 254700218502 - GRACE NGURE Acc. v46,Completed,6600,,33700,TRUE,Pay Utility,254700218502 - GRACE NGURE,,v46
QD19NUWBPN,01/04/2022 21:09,01/04/2022 21:09,Pay Bill from 254704551142 - KEVIN MORGAN MUTWIRI Acc. V25,Completed,17500,,27100,TRUE,Pay Utility,254704551142 - KEVIN MORGAN MUTWIRI,,V25
QD10MNA2NA,01/04/2022 12:49,01/04/2022 12:49,Pay Bill Online from 0769929240 - Calvince Klein Alal Acc. v02,Completed,3000,,9600,TRUE,Pay Bill Online,0769929240 - Calvince Klein Alal,,v02
QD11MJXCYB,01/04/2022 12:02,01/04/2022 12:02,Pay Bill from 254718417450 - HARON ASUMA OROKO Acc. haron v47 ,Completed,6600,,6600,TRUE,Pay Utility,254718417450 - HARON ASUMA OROKO,,haron
QD18M4TNAK,01/04/2022 08:16,01/04/2022 08:16,Utility Account to Organization Settlement Account,Completed,,-6600,0,TRUE,Utility Account to Organization Settlement Account,887674 - ANCIENT WELLS LTD 1,,
