Receipt No.,Completion Time,Initiation Time,Details,Transaction Status,Paid In,Withdrawn,Balance,Balance Confirmed,Reason Type,Other Party Info,Linked Transaction ID,A/C No.
SDT2OWF87G,29/04/2024 19:41,29/04/2024 19:41,Pay Bill from 254722***516 - KORIR *** Acc. Anthony D3 ,Completed,8000,,40500,TRUE,Pay Utility,254722***516 - KORIR ***,,Anthony D3 
SDT4NINE8I,29/04/2024 14:08,29/04/2024 14:08,Pay Bill from 079801***497 - GODWIN *** Acc. c6,Completed,8500,,32500,TRUE,Pay Utility,079801***497 - GODWIN ***,,c6
SDR7G38BQN,27/04/2024 11:47,27/04/2024 11:47,Pay Bill from 254706***810 - Morgan *** Acc. F1,Completed,8000,,24000,TRUE,Pay Utility,254706***810 - Morgan ***,,F1
SDQ4F1C1JQ,26/04/2024 23:17,26/04/2024 23:17,Pay Bill from 072143***195 - KIPKOECH *** Acc. e2,Completed,8000,,16000,TRUE,Pay Utility,072143***195 - KIPKOECH ***,,e2
SDQ0D4HHWM,26/04/2024 14:45,26/04/2024 14:45,Pay Bill Online from 254722***929 - LIZ *** Acc. g3,Completed,8000,,8000,TRUE,Pay Bill Online,254722***929 - LIZ ***,,g3
SDM0XEMVY6,22/04/2024 11:08,22/04/2024 11:08,Utility Account to Organization Settlement Account,Completed,,-23000,0,TRUE,Utility Account to Organization Settlement Account,887075 - ANCIENT WELLS LTD 3,,
SDM0X13J40,22/04/2024 09:03,22/04/2024 09:03,Pay Bill from 254727***830 - CATHERINE *** Acc. A5,Completed,11000,,23000,TRUE,Pay Utility with OD via STK,254727***830 - CATHERINE ***,,A5
SDK2QZO57U,20/04/2024 12:02,20/04/2024 12:02,Pay Bill from 074551***938 - MARION *** Acc. A2,Completed,10000,,12000,TRUE,Pay Utility,074551***938 - MARION ***,,A2
SDK7QIK1IJ,20/04/2024 09:32,20/04/2024 09:32,Pay Bill from 254720***214 - SAMUEL *** Acc. B3,Completed,2000,,2000,TRUE,Pay Utility with OD via STK,254720***214 - SAMUEL ***,,B3
SDJ8MTXV2Q,19/04/2024 08:55,19/04/2024 08:55,Utility Account to Organization Settlement Account,Completed,,-271500,0,TRUE,Utility Account to Organization Settlement Account,887075 - ANCIENT WELLS LTD 3,,
SDI6J72DFA,18/04/2024 08:25,18/04/2024 08:25,Pay Bill from 072977***299 - WAMBUA *** Acc. c1,Completed,4000,,271500,TRUE,Pay Utility,072977***299 - WAMBUA ***,,c1
SDH2GWZD5Q,17/04/2024 15:47,17/04/2024 15:47,Pay Bill from 072057***944 - Ronoh *** Acc. D2,Completed,8300,,267500,TRUE,Pay Utility,072057***944 - Ronoh ***,,D2
SDH0GPGFDU,17/04/2024 14:46,17/04/2024 14:46,Pay Bill from 254724***163 - IRENE *** Acc. A4,Completed,8000,,259200,TRUE,Pay Utility,254724***163 - IRENE ***,,A4
SDH0F5LDOM,17/04/2024 04:34,17/04/2024 04:34,Pay Bill from 254727***164 - NICHOLAS *** Acc. G2,Completed,1200,,251200,TRUE,Pay Utility,254727***164 - NICHOLAS ***,,G2
SDF27Z0V18,15/04/2024 00:31,15/04/2024 00:31,Pay Bill from 254707***121 - JOHNSTONE *** Acc. b4,Completed,8500,,250000,TRUE,Pay Utility,254707***121 - JOHNSTONE ***,,b4
SDE17TY821,14/04/2024 22:18,14/04/2024 22:18,Pay Bill from 072977***299 - WAMBUA *** Acc. c1,Completed,2000,,241500,TRUE,Pay Utility,072977***299 - WAMBUA ***,,c1
SDC5XZX7L1,12/04/2024 14:49,12/04/2024 14:49,Pay Bill from 254715***408 - JONATHAN *** Acc. G1,Completed,8000,,239500,TRUE,Pay Utility,254715***408 - JONATHAN ***,,G1
SDC3XWIRO9,12/04/2024 14:23,12/04/2024 14:23,Pay Bill from 074871***970 - judith *** Acc. E5,Completed,8500,,231500,TRUE,Pay Utility,074871***970 - judith ***,,E5
SD96OZ9LUM,09/04/2024 22:37,09/04/2024 22:37,Pay Bill from 254710***036 - Allan *** Acc. F5,Completed,8500,,223000,TRUE,Pay Utility,254710***036 - Allan ***,,F5
SD90NRRAZI,09/04/2024 18:07,09/04/2024 18:07,Pay Bill from 074234***493 - benson *** Acc. b6,Completed,8500,,214500,TRUE,Pay Utility,074234***493 - benson ***,,b6
SD90NO0X78,09/04/2024 17:45,09/04/2024 17:45,Pay Bill Online from 254703***849 - ROYAL *** Acc. F2,Completed,8000,,206000,TRUE,Pay Utility with OD Online,254703***849 - ROYAL ***,,F2
SD88KK5JLS,08/04/2024 19:18,08/04/2024 19:18,Pay Bill from 254708***835 - SUSAN *** Acc. B2,Completed,8000,,198000,TRUE,Pay Utility,254708***835 - SUSAN ***,,B2
SD85IKRKHN,08/04/2024 10:46,08/04/2024 10:46,Business Pay Bill by 998094 - COOP TO PAYBILL Acc. A1 via API,Completed,8000,,190000,TRUE,Business Pay Bill via API,998094 - COOP TO PAYBILL,,A1 via API
SD84HSRCAU,08/04/2024 00:19,08/04/2024 00:19,Pay Bill from 254727***164 - NICHOLAS *** Acc. G2,Completed,8000,,182000,TRUE,Pay Utility,254727***164 - NICHOLAS ***,,G2
SD76HB57QK,07/04/2024 20:30,07/04/2024 20:30,Pay Bill from 254715***093 - GICHANA *** Acc. E3,Completed,8000,,174000,TRUE,Pay Utility,254715***093 - GICHANA ***,,E3
SD74FG5OF4,07/04/2024 12:35,07/04/2024 12:35,Pay Bill from 254722***516 - KORIR *** Acc. Anthony D3 ,Completed,8000,,166000,TRUE,Pay Utility,254722***516 - KORIR ***,,Anthony D3 
SD66CBKFUS,06/04/2024 14:55,06/04/2024 14:55,Pay Bill Online from 074028***700 - SERAH *** Acc. c4serahmukulu,Completed,8500,,158000,TRUE,Pay Bill Online,074028***700 - SERAH ***,,c4serahmukulu
SD66BIQ5I8,06/04/2024 11:14,06/04/2024 11:14,Pay Bill from 254792***730 - kevin *** Acc. F3,Completed,8000,,149500,TRUE,Pay Utility,254792***730 - kevin ***,,F3
SD64BGC4XI,06/04/2024 10:55,06/04/2024 10:55,Pay Bill from 254746***971 - gladys *** Acc. E4,Completed,8500,,141500,TRUE,Pay Utility,254746***971 - gladys ***,,E4
SD58AITZQU,05/04/2024 22:43,05/04/2024 22:43,Pay Bill from 079156***463 - Lilian *** Acc. F6,Completed,8500,,133000,TRUE,Pay Utility,079156***463 - Lilian ***,,F6
SD52AH50YG,05/04/2024 22:21,05/04/2024 22:21,Pay Bill from 074180***396 - JAMES *** Acc. B5,Completed,8500,,124500,TRUE,Pay Utility,074180***396 - JAMES ***,,B5
SD54A1621Y,05/04/2024 20:20,05/04/2024 20:20,Pay Bill from 070888***932 - Annfaith *** Acc. C3,Completed,8000,,116000,TRUE,Pay Utility,070888***932 - Annfaith ***,,C3
SD599YGV09,05/04/2024 20:05,05/04/2024 20:05,Pay Bill from 074632***646 - OTIENO *** Acc. D6,Completed,8500,,108000,TRUE,Pay Utility,074632***646 - OTIENO ***,,D6
SD538YYVZ1,05/04/2024 16:52,05/04/2024 16:52,Pay Bill from 071503***019 - Omwenga *** Acc. E1,Completed,8000,,99500,TRUE,Pay Utility,071503***019 - Omwenga ***,,E1
SD508KCFPU,05/04/2024 15:03,05/04/2024 15:03,Pay Bill from 254727***857 - PETER *** Acc. Peter Ngundo e6 ,Completed,8500,,91500,TRUE,Pay Utility,254727***857 - PETER ***,,Peter Ngundo e6 
SD486G83C8,04/04/2024 21:16,04/04/2024 21:16,Pay Bill Online from 254792***122 - MWENDWA *** Acc. B1,Completed,8000,,83000,TRUE,Pay Bill Online,254792***122 - MWENDWA ***,,B1
SD425RFXZM,04/04/2024 19:00,04/04/2024 19:00,Pay Bill from 071934***205 - Christabel *** Acc. D1,Completed,8000,,75000,TRUE,Pay Utility,071934***205 - Christabel ***,,D1
SD4451DBU4,04/04/2024 16:13,04/04/2024 16:13,Pay Bill Online from 072143***195 - KIPKOECH *** Acc. E2,Completed,8000,,67000,TRUE,Pay Bill Online,072143***195 - KIPKOECH ***,,E2
SD453EY5T5,04/04/2024 08:00,04/04/2024 08:00,Pay Bill from 254791***895 - Enos *** Acc. D5,Completed,8500,,59000,TRUE,Pay Utility,254791***895 - Enos ***,,D5
SD33ZWNY81,03/04/2024 14:02,03/04/2024 14:02,Pay Bill from 254714***834 - FAITH *** Acc. d4,Completed,8500,,50500,TRUE,Pay Utility,254714***834 - FAITH ***,,d4
SD21X2ISAZ,02/04/2024 18:03,02/04/2024 18:03,Pay Bill Online from 254790***715 - JULIUS *** Acc. C2,Completed,7500,,42000,TRUE,Pay Bill Online,254790***715 - JULIUS ***,,C2
SD18S2AOLI,01/04/2024 11:02,01/04/2024 11:02,Pay Bill from 079162***292 - Miriam *** Acc. f1,Completed,7000,,34500,TRUE,Pay Utility,079162***292 - Miriam ***,,f1
SD14RR21SE,01/04/2024 09:18,01/04/2024 09:18,Pay Bill from 072977***299 - WAMBUA *** Acc. c1,Completed,1000,,27500,TRUE,Pay Utility,072977***299 - WAMBUA ***,,c1
