Receipt No.,Completion Time,Initiation Time,Details,Transaction Status,Paid In,Withdrawn,Balance,Balance Confirmed,Reason Type,Other Party Info,Linked Transaction ID,A/C No.
OJ7598NGCR,07/10/2020 08:53,07/10/2020 08:53,Pay Bill from 254728238249 - ESTHER WANGUI KIBUNYI Acc. ICA,Completed,800,,7700,TRUE,Pay Utility,254728238249 - ESTHER WANGUI KIBUNYI,,ICA
OJ7594YQVL,07/10/2020 06:37,07/10/2020 06:37,Pay Bill from 254714114228 - MWANGO AWINO VIOLET Acc. DCB,Completed,1600,,6900,TRUE,Pay Utility,254714114228 - MWANGO AWINO VIOLET,,DCB
OJ76940W4C,07/10/2020 03:36,07/10/2020 03:36,Pay Bill from 254723872785 - MARY ANN NJERI NDUNG'U Acc. HED,Completed,400,,5300,TRUE,Pay Utility,254723872785 - MARY ANN NJERI NDUNG'U,,HED
OJ6391D497,06/10/2020 21:47,06/10/2020 21:47,Pay Bill from 254729392595 - WINNIE NASICHE KERE Acc. JBF,Completed,200,,4900,TRUE,Pay Utility,254729392595 - WINNIE NASICHE KERE,,JBF
OJ64915OPU,06/10/2020 21:40,06/10/2020 21:40,Pay Bill from 254714552193 - CHRISTOPHER OCHIENG Acc. jGI,Completed,1300,,4700,TRUE,Pay Utility,254714552193 - CHRISTOPHER OCHIENG,,jGI
OJ688SUNGS,06/10/2020 18:54,06/10/2020 18:54,Pay Bill from 254713966424 - NDUTI MUTHUI Acc. JED,Completed,800,,3400,TRUE,Pay Utility,254713966424 - NDUTI MUTHUI,,JED
OJ668S90UG,06/10/2020 18:45,06/10/2020 18:45,Pay Bill Online from 254724754662 - CHARLES ERUKUDI EKAI Acc. FBE,Completed,1000,,2600,TRUE,Pay Bill Online,254724754662 - CHARLES ERUKUDI EKAI,,FBE
OJ648CHZ7K,06/10/2020 13:10,06/10/2020 13:10,Pay Bill from 254724655033 - SUSAN CHIMOTO Acc. KGH,Completed,800,,1600,TRUE,Pay Utility,254724655033 - SUSAN CHIMOTO,,KGH
OJ618ABZ57,06/10/2020 12:17,06/10/2020 12:17,Pay Bill Online from 254713498554 - HENRY KINYUA WARUI Acc. V44 Henry,Completed,800,,800,TRUE,Pay Bill Online,254713498554 - HENRY KINYUA WARUI,,V44
OJ6889XCQU,06/10/2020 12:08,06/10/2020 12:08,Utility Account to Organization Settlement Account,Completed,,-36008,0,TRUE,Utility Account to Organization Settlement Account,846783 - ANCIENT WELLS LTD 4,,
OJ6687INDM,06/10/2020 11:10,06/10/2020 11:10,Pay Bill from 254729736327 - DARLYNE MAIMA Acc. V59,Completed,600,,36008,TRUE,Pay Utility,254729736327 - DARLYNE MAIMA,,V59
OJ6286HHM2,06/10/2020 10:45,06/10/2020 10:45,Pay Bill from 254708328466 - VENESSA NYARERU Acc. kcd,Completed,200,,35408,TRUE,Pay Utility with OD via STK,254708328466 - VENESSA NYARERU,,kcd
OJ6385NZJ3,06/10/2020 10:26,06/10/2020 10:26,Pay Bill from 254726611493 - Cornelius Kimeli Acc. HAG,Completed,1200,,35208,TRUE,Pay Utility,254726611493 - Cornelius Kimeli,,HAG
OJ6084A2CE,06/10/2020 09:52,06/10/2020 09:52,Pay Bill from 254729508187 - PATRICK SOLOMON GUDA Acc. IGF,Completed,1300,,34008,TRUE,Pay Utility with OD via STK,254729508187 - PATRICK SOLOMON GUDA,,IGF
OJ60814CM8,06/10/2020 08:31,06/10/2020 08:31,Pay Bill from 0792933158 - mary wamaitha maina Acc. kdh,Completed,600,,32708,TRUE,Pay Utility,0792933158 - mary wamaitha maina,,kdh
OJ6780FLC1,06/10/2020 08:11,06/10/2020 08:11,Pay Bill Online from 254715121526 - ROBERT WAINAINA KARIUKI Acc. HAH,Completed,1200,,32108,TRUE,Pay Bill Online,254715121526 - ROBERT WAINAINA KARIUKI,,HAH
OJ657WVSS9,06/10/2020 02:16,06/10/2020 02:16,Pay Bill from 254798524621 - MERCY CHESANG Acc. jcj,Completed,600,,30908,TRUE,Pay Utility,254798524621 - MERCY CHESANG,,jcj
OJ577VS8WB,05/10/2020 22:58,05/10/2020 22:58,Pay Bill from 254713159153 - GUYO SANKALA Acc. DGD ,Completed,2400,,30308,TRUE,Pay Utility,254713159153 - GUYO SANKALA,,DGD
OJ567UKPZE,05/10/2020 21:54,05/10/2020 21:54,Pay Bill Online from 254705670064 - margaret wahu wachira Acc. v35 ,Completed,400,,27908,TRUE,Pay Bill Online,254705670064 - margaret wahu wachira,,v35
OJ597TTC89,05/10/2020 21:29,05/10/2020 21:29,Pay Bill from 254711877988 - PATRICK KONZI Acc. b4,Completed,800,,27508,TRUE,Pay Utility,254711877988 - PATRICK KONZI,,b4
OJ587TNROI,05/10/2020 21:24,05/10/2020 21:24,Pay Bill from 254727729395 - ROBERT OUKO OSORO Acc. V29,Completed,400,,26708,TRUE,Pay Utility,254727729395 - ROBERT OUKO OSORO,,V29
OJ557TJ38T,05/10/2020 21:21,05/10/2020 21:21,Pay Bill Online from 254705846408 - JAMES OUMA Acc. HBG,Completed,500,,26308,TRUE,Pay Bill Online,254705846408 - JAMES OUMA,,HBG
OJ507SP86Q,05/10/2020 20:58,05/10/2020 20:58,Pay Bill from 254716260268 - LUCY MUTHONI NJIRU Acc. HCB,Completed,1600,,25808,TRUE,Pay Utility with OD via STK,254716260268 - LUCY MUTHONI NJIRU,,HCB
OJ537R6RUV,05/10/2020 20:25,05/10/2020 20:25,Pay Bill from 254723389922 - ANNE WANJIKU Acc. v53,Completed,200,,24208,TRUE,Pay Utility,254723389922 - ANNE WANJIKU,,v53
OJ517QJHCP,05/10/2020 20:12,05/10/2020 20:12,Pay Bill from 254726465584 - JULIANA MUKELI MUTUNGA Acc. v4,Completed,600,,24008,TRUE,Pay Utility,254726465584 - JULIANA MUKELI MUTUNGA,,v4
OJ507PVMS2,05/10/2020 19:59,05/10/2020 19:59,Pay Bill from 254741791919 - Linet Mongina Maraga Acc. linet,Completed,600,,23408,TRUE,Pay Utility,254741791919 - Linet Mongina Maraga,,linet
OJ517ORY1N,05/10/2020 19:41,05/10/2020 19:41,Pay Bill Online from 254715892656 - DENNIS MUSYOKA MUOKI Acc. KFA,Completed,408,,22808,TRUE,Pay Bill Online,254715892656 - DENNIS MUSYOKA MUOKI,,KFA
OJ567ON5WA,05/10/2020 19:38,05/10/2020 19:38,Pay Bill from 254720623535 - JOSEPH MUTURI KAMAU Acc. V32,Completed,200,,22400,TRUE,Pay Utility,254720623535 - JOSEPH MUTURI KAMAU,,V32
OJ597ILPVH,05/10/2020 18:06,05/10/2020 18:06,Pay Bill from 254708915764 - GEORGE WAHOME Acc. V18,Completed,600,,22200,TRUE,Pay Utility,254708915764 - GEORGE WAHOME,,V18
OJ537FYG8X,05/10/2020 17:17,05/10/2020 17:17,Pay Bill from 254726265855 - SHEM KEVIN OMONDI OTIENO Acc. Kdj,Completed,1000,,21600,TRUE,Pay Utility,254726265855 - SHEM KEVIN OMONDI OTIENO,,Kdj
OJ547FLWWW,05/10/2020 17:10,05/10/2020 17:10,Pay Bill from 254711397174 - JASEL HOPE ANTONINA Acc. kef,Completed,600,,20600,TRUE,Pay Utility,254711397174 - JASEL HOPE ANTONINA,,kef
OJ5378QUD9,05/10/2020 14:36,05/10/2020 14:36,Pay Bill from 254708703539 - SUSAN NDUGIRE NDUGIRE Acc. Kda,Completed,400,,20000,TRUE,Pay Utility,254708703539 - SUSAN NDUGIRE NDUGIRE,,Kda
OJ55788G15,05/10/2020 14:24,05/10/2020 14:24,Pay Bill Online from 254716499837 - ASHA MUSA Acc. jfd,Completed,1000,,19600,TRUE,Pay Bill Online,254716499837 - ASHA MUSA,,jfd
OJ52783D5G,05/10/2020 14:20,05/10/2020 14:20,Pay Bill from 0715688238 - JOANNAH ATUHAIRE BANTU Acc. jae,Completed,400,,18600,TRUE,Pay Utility,0715688238 - JOANNAH ATUHAIRE BANTU,,jae
OJ55776E1P,05/10/2020 13:58,05/10/2020 13:58,Pay Bill from 254724882554 - ALPHONCE WAMBUA NGELI Acc. JDA,Completed,1600,,18200,TRUE,Pay Utility,254724882554 - ALPHONCE WAMBUA NGELI,,JDA
OJ5676OHZM,05/10/2020 13:46,05/10/2020 13:46,Pay Bill Online from 254717809935 - LYDIAH WERU Acc. IDC,Completed,200,,16600,TRUE,Pay Bill Online,254717809935 - LYDIAH WERU,,IDC
OJ5975R82F,05/10/2020 13:24,05/10/2020 13:24,Pay Bill from 254715728688 - NAOMI HAGERERA JACOB Acc. DGC,Completed,2200,,16400,TRUE,Pay Utility,254715728688 - NAOMI HAGERERA JACOB,,DGC
OJ5575H8ML,05/10/2020 13:17,05/10/2020 13:17,Pay Bill from 254710814215 - JOAN NYAMBURA KAMAU Acc. jci,Completed,800,,14200,TRUE,Pay Utility,254710814215 - JOAN NYAMBURA KAMAU,,jci
OJ5674KEM4,05/10/2020 12:55,05/10/2020 12:55,Pay Bill from 254719398942 - NORAH WAYUA MUNYAO Acc. KDC,Completed,1000,,13400,TRUE,Pay Utility,254719398942 - NORAH WAYUA MUNYAO,,KDC
OJ5274AN8K,05/10/2020 12:48,05/10/2020 12:48,Pay Bill from 254792976771 - DANIEL MUTHAMA NDUNDA Acc. F1,Completed,800,,12400,TRUE,Pay Utility,254792976771 - DANIEL MUTHAMA NDUNDA,,F1
OJ57740ZJ7,05/10/2020 12:42,05/10/2020 12:42,Pay Bill from 254706159636 - titus omondi abuodha Acc. HBC,Completed,400,,11600,TRUE,Pay Utility,254706159636 - titus omondi abuodha,,HBC
OJ5773ZYM1,05/10/2020 12:41,05/10/2020 12:41,Pay Bill from 254718138578 - PAULINE KIOKO Acc. KFD,Completed,800,,11200,TRUE,Pay Utility,254718138578 - PAULINE KIOKO,,KFD
OJ5373R65F,05/10/2020 12:35,05/10/2020 12:35,Pay Bill Online from 254720044312 - ELIUD KIPKURUI Acc. FCF,Completed,1800,,10400,TRUE,Pay Bill Online,254720044312 - ELIUD KIPKURUI,,FCF
OJ516ZL1O9,05/10/2020 10:53,05/10/2020 10:53,Pay Bill from 254722444622 - CHARITY KAGWAINI Acc. FFD,Completed,400,,8600,TRUE,Pay Utility,254722444622 - CHARITY KAGWAINI,,FFD
OJ516YK9GB,05/10/2020 10:29,05/10/2020 10:29,Pay Bill from 0759422988 - IVY   WITABA Acc. IEI,Completed,2000,,8200,TRUE,Pay Utility,0759422988 - IVY   WITABA,,IEI
OJ566YGIPM,05/10/2020 10:26,05/10/2020 10:26,Pay Bill from 254717465142 - EPHANTUS IRURA Acc. C4 MURIITHI,Completed,600,,6200,TRUE,Pay Utility,254717465142 - EPHANTUS IRURA,,C4
OJ586WYWAY,05/10/2020 09:49,05/10/2020 09:49,Pay Bill from 254718233980 - KAREN ASWANI Acc. HEC,Completed,200,,5600,TRUE,Pay Utility,254718233980 - KAREN ASWANI,,HEC
OJ556S21FX,05/10/2020 07:19,05/10/2020 07:19,Pay Bill from 254722307003 - NIGEL BOMETT Acc. V01,Completed,600,,5400,TRUE,Pay Utility,254722307003 - NIGEL BOMETT,,V01
OJ556QYKSL,05/10/2020 05:53,05/10/2020 05:53,Pay Bill from 254721465713 - RHODA WAMBUI MWANGI Acc. jfh,Completed,1400,,4800,TRUE,Pay Utility,254721465713 - RHODA WAMBUI MWANGI,,jfh
OJ406Q7C72,04/10/2020 23:48,04/10/2020 23:48,Pay Bill from 254716369842 - HUMMAM HAMID MOHAMED SAID AMBER Acc. FGC,Completed,400,,3400,TRUE,Pay Utility with OD via STK,254716369842 - HUMMAM HAMID MOHAMED SAID AMBER,,FGC
OJ486NA202,04/10/2020 21:04,04/10/2020 21:04,Pay Bill from 254728476791 - CAROLE ACHIENG Acc. KCF,Completed,1200,,3000,TRUE,Pay Utility,254728476791 - CAROLE ACHIENG,,KCF
OJ446MP1Z0,04/10/2020 20:49,04/10/2020 20:49,Pay Bill from 0717042461 - Sharon Nyangasi Shivachi Acc. V55,Completed,200,,1800,TRUE,Pay Utility,0717042461 - Sharon Nyangasi Shivachi,,V55
OJ466MHYYI,04/10/2020 20:44,04/10/2020 20:44,Pay Bill from 254720062144 - CAROLINE AMONDI OKELO Acc. F4,Completed,1000,,1600,TRUE,Pay Utility with OD via STK,254720062144 - CAROLINE AMONDI OKELO,,F4
OJ406KV5AS,04/10/2020 20:05,04/10/2020 20:05,Pay Bill from 254715400042 - BETHUEL WACHITE Acc. Hfg,Completed,600,,600,TRUE,Pay Utility,254715400042 - BETHUEL WACHITE,,Hfg
OJ406HG43O,04/10/2020 19:01,04/10/2020 19:01,Utility Account to Organization Settlement Account,Completed,,-800,0,TRUE,Utility Account to Organization Settlement Account,846783 - ANCIENT WELLS LTD 4,,
OJ456DRW61,04/10/2020 17:53,04/10/2020 17:53,Pay Bill from 254729948896 - CAROLINE V MILIZA Acc. Fec,Completed,800,,800,TRUE,Pay Utility,254729948896 - CAROLINE V MILIZA,,Fec
OJ4667NG86,04/10/2020 15:33,04/10/2020 15:33,Utility Account to Organization Settlement Account,Completed,,-10100,0,TRUE,Utility Account to Organization Settlement Account,846783 - ANCIENT WELLS LTD 4,,
OJ426783L2,04/10/2020 15:23,04/10/2020 15:23,Pay Bill Online from 254799863492 - HIRANI MULJI Acc. JDB,Completed,1400,,10100,TRUE,Pay Bill Online,254799863492 - HIRANI MULJI,,JDB
OJ4362F965,04/10/2020 13:25,04/10/2020 13:25,Pay Bill Online from 254726313835 - SYLVIA JUMA Acc. hdf,Completed,400,,8700,TRUE,Pay Bill Online,254726313835 - SYLVIA JUMA,,hdf
OJ48620HY4,04/10/2020 13:14,04/10/2020 13:14,Pay Bill from 254724871526 - JOHN KAGUONGO Acc. D5,Completed,600,,8300,TRUE,Pay Utility,254724871526 - JOHN KAGUONGO,,D5
OJ435YASK1,04/10/2020 11:33,04/10/2020 11:33,Pay Bill from 254703528196 - ERIC GITONGA MUGO Acc. KGJ,Completed,600,,7700,TRUE,Pay Utility with OD via STK,254703528196 - ERIC GITONGA MUGO,,KGJ
OJ465SAISM,04/10/2020 08:40,04/10/2020 08:40,Pay Bill from 0795807227 - Lucy Ncekei Kimathi Acc. V36,Completed,200,,7100,TRUE,Pay Utility,0795807227 - Lucy Ncekei Kimathi,,V36
OJ455PB1HL,04/10/2020 06:33,04/10/2020 06:33,Pay Bill Online from 254722258756 - DAVID KEMBOI Acc. HDA,Completed,1200,,6900,TRUE,Pay Bill Online,254722258756 - DAVID KEMBOI,,HDA
OJ355L1FU3,03/10/2020 21:14,03/10/2020 21:14,Pay Bill from 254712569636 - BENSON NYAGA Acc. v60,Completed,800,,5700,TRUE,Pay Utility with OD via STK,254712569636 - BENSON NYAGA,,v60
OJ355KIWRD,03/10/2020 21:00,03/10/2020 21:00,Pay Bill from 254720361605 - DAUD AMBER Acc. IGH,Completed,1400,,4900,TRUE,Pay Utility,254720361605 - DAUD AMBER,,IGH
OJ315EW6VD,03/10/2020 19:15,03/10/2020 19:15,Pay Bill from 254713701237 - Michael Wanjala Acc. G2,Completed,1200,,3500,TRUE,Pay Utility,254713701237 - Michael Wanjala,,G2
OJ305BLHZG,03/10/2020 18:25,03/10/2020 18:25,Pay Bill from 0790924905 - KEVIN   KIDAGISA Acc. IGC,Completed,1200,,2300,TRUE,Pay Utility,0790924905 - KEVIN   KIDAGISA,,IGC
OJ345AOFG4,03/10/2020 18:09,03/10/2020 18:09,Pay Bill from 254729569271 - MESHACK OBOTTA OBOTTA OBARE Acc. V12,Completed,300,,1100,TRUE,Pay Utility,254729569271 - MESHACK OBOTTA OBOTTA OBARE,,V12
OJ31587TLL,03/10/2020 17:22,03/10/2020 17:22,Pay Bill Online from 254795983642 - OBED MOGAKA Acc. F6 OBED ,Completed,800,,800,TRUE,Pay Bill Online,254795983642 - OBED MOGAKA,,F6
OJ36544BO8,03/10/2020 15:55,03/10/2020 15:55,Utility Account to Organization Settlement Account,Completed,,-6900,0,TRUE,Utility Account to Organization Settlement Account,846783 - ANCIENT WELLS LTD 4,,
OJ384YUVHC,03/10/2020 13:59,03/10/2020 13:59,Pay Bill from 254723605941 - JOHN KARIHA Acc. KDD,Completed,800,,6900,TRUE,Pay Utility,254723605941 - JOHN KARIHA,,KDD
OJ324VR1R2,03/10/2020 12:50,03/10/2020 12:50,Pay Bill from 254725754547 - MWACHIRO GEORGE DECHE Acc. DFC,Completed,2200,,6100,TRUE,Pay Utility,254725754547 - MWACHIRO GEORGE DECHE,,DFC
OJ364VJY1M,03/10/2020 12:45,03/10/2020 12:45,Pay Bill from 254704783091 - CLINTON MUSEBE KASUTI Acc. V48,Completed,200,,3900,TRUE,Pay Utility,254704783091 - CLINTON MUSEBE KASUTI,,V48
OJ324SLL5S,03/10/2020 11:39,03/10/2020 11:39,Pay Bill from 254798605303 - SAMUEL ADIYO OGODO Acc. KAE,Completed,800,,3700,TRUE,Pay Utility,254798605303 - SAMUEL ADIYO OGODO,,KAE
OJ344S1MVI,03/10/2020 11:26,03/10/2020 11:26,Pay Bill from 254703246217 - AMBROSE ADOCHE MIRASI Acc. D4,Completed,1400,,2900,TRUE,Pay Utility,254703246217 - AMBROSE ADOCHE MIRASI,,D4
OJ324RUJI4,03/10/2020 11:21,03/10/2020 11:21,Pay Bill from 254728664261 - LEVIN INGATI NYONJE Acc. B5,Completed,400,,1500,TRUE,Pay Utility,254728664261 - LEVIN INGATI NYONJE,,B5
OJ334R27IF,03/10/2020 11:03,03/10/2020 11:03,Pay Bill from 254700627058 - SUSY NABALAYO CHELONGO Acc. dbb,Completed,1100,,1100,TRUE,Pay Utility,254700627058 - SUSY NABALAYO CHELONGO,,dbb
OJ394Q8XHB,03/10/2020 10:44,03/10/2020 10:44,Utility Account to Organization Settlement Account,Completed,,-16000,0,TRUE,Utility Account to Organization Settlement Account,846783 - ANCIENT WELLS LTD 4,,
OJ374POIGZ,03/10/2020 10:31,03/10/2020 10:31,Pay Bill from 254743775372 - SHIKUNDI PURITY KHAOYA Acc. HCD,Completed,200,,16000,TRUE,Pay Utility,254743775372 - SHIKUNDI PURITY KHAOYA,,HCD
OJ394O907F,03/10/2020 09:58,03/10/2020 09:58,Pay Bill from 254711271263 - BENSON MWADIME JOSEPH Acc. 1EE,Completed,200,,15800,TRUE,Pay Utility,254711271263 - BENSON MWADIME JOSEPH,,1EE
OJ384JYMOU,03/10/2020 08:08,03/10/2020 08:08,Pay Bill from 254701683737 - MICHAEL NGUGI Acc. HDB,Completed,600,,15600,TRUE,Pay Utility,254701683737 - MICHAEL NGUGI,,HDB
OJ264DNMEU,02/10/2020 21:37,02/10/2020 21:37,Pay Bill from 254721538323 - ISSA ISACK GOLLO Acc. DCC ,Completed,4000,,15000,TRUE,Pay Utility,254721538323 - ISSA ISACK GOLLO,,DCC
OJ2749NLS7,02/10/2020 20:05,02/10/2020 20:05,Pay Bill from 254714209770 - PURITY NDUKU KYALO Acc. JEB,Completed,1200,,11000,TRUE,Pay Utility,254714209770 - PURITY NDUKU KYALO,,JEB
OJ2848A86M,02/10/2020 19:41,02/10/2020 19:41,Pay Bill from 254727575146 - SUSAN NJERI KIBE Acc. KEC,Completed,200,,9800,TRUE,Pay Utility,254727575146 - SUSAN NJERI KIBE,,KEC
OJ2747P4SJ,02/10/2020 19:32,02/10/2020 19:32,Pay Bill from 254712091662 - BENARD OMONDI ROBY Acc. V16,Completed,1000,,9600,TRUE,Pay Utility,254712091662 - BENARD OMONDI ROBY,,V16
OJ26427QMU,02/10/2020 18:06,02/10/2020 18:06,Pay Bill from 254716045947 - LILIAN OLOO Acc. FBD,Completed,1000,,8600,TRUE,Pay Utility,254716045947 - LILIAN OLOO,,FBD
OJ223W16PU,02/10/2020 16:03,02/10/2020 16:03,Pay Bill from 254797665088 - INNOCENT WANAMI Acc. v2,Completed,1600,,7600,TRUE,Pay Utility,254797665088 - INNOCENT WANAMI,,v2
OJ233TPVKF,02/10/2020 15:11,02/10/2020 15:11,Pay Bill Online from 254704033042 - LESLIE KOIKAI Acc. IBD ,Completed,1000,,6000,TRUE,Pay Bill Online,254704033042 - LESLIE KOIKAI,,IBD
OJ273SKU3N,02/10/2020 14:44,02/10/2020 14:44,Pay Bill from 254714060203 - PATRICK MWANGOMBE MSAWUCHI Acc. KEI,Completed,200,,5000,TRUE,Pay Utility,254714060203 - PATRICK MWANGOMBE MSAWUCHI,,KEI
OJ283S8E96,02/10/2020 14:36,02/10/2020 14:36,Pay Bill from 254714855708 - KIPLANGAT SITIENEI Acc. FAE,Completed,1000,,4800,TRUE,Pay Utility,254714855708 - KIPLANGAT SITIENEI,,FAE
OJ263QWDNO,02/10/2020 14:04,02/10/2020 14:04,Pay Bill from 0742965163 - Winnie   Naliaka Acc. v31,Completed,2200,,3800,TRUE,Pay Utility,0742965163 - Winnie   Naliaka,,v31
OJ293MG7OR,02/10/2020 12:16,02/10/2020 12:16,Pay Bill from 254710202776 - KELVIN KARIMI MACHARIA Acc. FAD,Completed,400,,1600,TRUE,Pay Utility,254710202776 - KELVIN KARIMI MACHARIA,,FAD
OJ213J7GW9,02/10/2020 10:58,02/10/2020 10:58,Pay Bill from 254716784364 - Wendy Kemunto Nyandiko Acc. FFC,Completed,600,,1200,TRUE,Pay Utility,254716784364 - Wendy Kemunto Nyandiko,,FFC
OJ213IFI6B,02/10/2020 10:40,02/10/2020 10:40,Pay Bill from 0769001671 - Wilson Mutangili Wambua Acc. haf,Completed,400,,600,TRUE,Pay Utility,0769001671 - Wilson Mutangili Wambua,,haf
OJ253FSEN7,02/10/2020 09:34,02/10/2020 09:34,Pay Bill Online from 254718359438 - AHMAD TAHIR MACHENGO Acc. V11,Completed,200,,200,TRUE,Pay Bill Online,254718359438 - AHMAD TAHIR MACHENGO,,V11
OJ223A0HO8,02/10/2020 04:11,02/10/2020 04:11,Utility Account to Organization Settlement Account,Completed,,-10600,0,TRUE,Utility Account to Organization Settlement Account,846783 - ANCIENT WELLS LTD 4,,
OJ1237L33U,01/10/2020 21:56,01/10/2020 21:56,Pay Bill from 254725255978 - DICKSON OLUOCH Acc. JFF,Completed,800,,10600,TRUE,Pay Utility,254725255978 - DICKSON OLUOCH,,JFF
OJ142SFVZS,01/10/2020 17:10,01/10/2020 17:10,Pay Bill from 254703147783 - LYDIAH NJOKI MUCHIRI Acc. Hge,Completed,9000,,9800,TRUE,Pay Utility,254703147783 - LYDIAH NJOKI MUCHIRI,,Hge
OJ112JQ1XP,01/10/2020 13:52,01/10/2020 13:52,Pay Bill from 254722136450 - MARY EVERLYN Acc. FAF,Completed,400,,800,TRUE,Pay Utility,254722136450 - MARY EVERLYN,,FAF
OJ192IB4F9,01/10/2020 13:18,01/10/2020 13:18,Pay Bill from 254707669965 - ELVIS MOENGA OKERO Acc. IAE,Completed,400,,400,TRUE,Pay Utility,254707669965 - ELVIS MOENGA OKERO,,IAE
OJ192G44Q7,01/10/2020 12:26,01/10/2020 12:26,Utility Account to Organization Settlement Account,Completed,,-900,0,TRUE,Utility Account to Organization Settlement Account,846783 - ANCIENT WELLS LTD 4,,
OJ122FYOPW,01/10/2020 12:22,01/10/2020 12:22,Pay Bill Online from 254714578997 - LINCOLN DAN MEMBA Acc. KAC,Completed,500,,900,TRUE,Pay Bill Online,254714578997 - LINCOLN DAN MEMBA,,KAC
OJ162FJTGK,01/10/2020 12:12,01/10/2020 12:12,Pay Bill from 254718417450 - HARON ASUMA OROKO Acc. haron v47,Completed,400,,400,TRUE,Pay Utility,254718417450 - HARON ASUMA OROKO,,haron
OJ1229RZUE,01/10/2020 09:51,01/10/2020 09:51,Utility Account to Organization Settlement Account,Completed,,-3600,0,TRUE,Utility Account to Organization Settlement Account,846783 - ANCIENT WELLS LTD 4,,
OJ1527HR39,01/10/2020 08:52,01/10/2020 08:52,Pay Bill Online from 254795510441 - LEWIS MUEMA Acc. KEB,Completed,600,,3600,TRUE,Pay Bill Online,254795510441 - LEWIS MUEMA,,KEB
OJ1626TUAO,01/10/2020 08:33,01/10/2020 08:33,Pay Bill from 254721302658 - JACOB BIRUNDU Acc. DDB,Completed,600,,3000,TRUE,Pay Utility,254721302658 - JACOB BIRUNDU,,DDB
