Receipt No.,Completion Time,Initiation Time,Details,Transaction Status,Paid In,Withdrawn,Balance,Balance Confirmed,Reason Type,Other Party Info,Linked Transaction ID,A/C No.
ODT1SUU1WZ,29/04/2020 15:05,29/04/2020 15:05,Pay Bill from 254725111246 - FRANCIS MWANGANGI Acc. IGI,Completed,15000,,41000,TRUE,Pay Utility,254725111246 - FRANCIS MWANGANGI,,IGI
ODT6SQ6E2K,29/04/2020 12:42,29/04/2020 12:42,Pay Bill from 254708328466 - VENESSA NYARERU Acc. KCD,Completed,8000,,26000,TRUE,Pay Utility,254708328466 - VENESSA NYARERU,,KCD
ODT4SP8DT6,29/04/2020 12:13,29/04/2020 12:13,Pay Bill from 254759076603 - GORDON OUMA OKELLO Acc. KFE,Completed,13000,,18000,TRUE,Pay Utility,254759076603 - GORDON OUMA OKELLO,,KFE
ODT7SP6ZRB,29/04/2020 12:12,29/04/2020 12:12,Pay Bill from 254705207723 - LATIFA ALI BAKARI JUMA Acc. KFI,Completed,5000,,5000,TRUE,Pay Utility,254705207723 - LATIFA ALI BAKARI JUMA,,KFI
ODT6SMY61U,29/04/2020 10:57,29/04/2020 10:57,Utility Account to Organization Settlement Account,Completed,,-226000,0,TRUE,Utility Account to Organization Settlement Account,979524 - ANCIENT WELLS PROPERTY MANAGERS 2,,
ODT3SJ3CDN,29/04/2020 08:34,29/04/2020 08:34,Pay Bill from 254724953672 - MERCY MBETI Acc. JCA,Completed,20000,,226000,TRUE,Pay Utility,254724953672 - MERCY MBETI,,JCA
ODS6S4XTNE,28/04/2020 16:25,28/04/2020 16:25,Pay Bill from 254728447483 - Abdimalick Rashid Warmoge Acc. JA1,Completed,20000,,206000,TRUE,Pay Utility,254728447483 - Abdimalick Rashid Warmoge,,JA1
ODS9S31H91,28/04/2020 15:32,28/04/2020 15:32,Pay Bill from 254722115546 - ROSELYNE MURUGUTI SUMBA Acc. JCH,Completed,17000,,186000,TRUE,Pay Utility with OD via STK,254722115546 - ROSELYNE MURUGUTI SUMBA,,JCH
ODS0RZ9PAY,28/04/2020 13:34,28/04/2020 13:34,Pay Bill from 254729371750 - DERRICK OTANGA Acc. FEF,Completed,17000,,169000,TRUE,Pay Utility,254729371750 - DERRICK OTANGA,,FEF
ODS9RTTMVB,28/04/2020 10:29,28/04/2020 10:29,Pay Bill from 254722244406 - NOAH MELI Acc. Jac,Completed,10000,,152000,TRUE,Pay Utility,254722244406 - NOAH MELI,,Jac
ODS8RSMRMM,28/04/2020 09:44,28/04/2020 09:44,Pay Bill Online from 254724398579 - PETER DAVID OWINO OLENDI Acc. HBE,Completed,21000,,142000,TRUE,Pay Bill Online,254724398579 - PETER DAVID OWINO OLENDI,,HBE
ODS2RQUPEU,28/04/2020 08:30,28/04/2020 08:30,Pay Bill from 254701006375 - EZRA MAKORI SERETI Acc. IFB,Completed,32000,,121000,TRUE,Pay Utility,254701006375 - EZRA MAKORI SERETI,,IFB
ODR4RJY1KI,27/04/2020 19:07,27/04/2020 19:07,Pay Bill Online from 254724211857 - OCHUODHO OUMA Acc. KBK Rent,Completed,17000,,89000,TRUE,Pay Bill Online,254724211857 - OCHUODHO OUMA,,KBK
ODR5RIV3TR,27/04/2020 18:41,27/04/2020 18:41,Pay Bill from 254726265855 - SHEM KEVIN OMONDI OTIENO Acc. kdj,Completed,17000,,72000,TRUE,Pay Utility,254726265855 - SHEM KEVIN OMONDI OTIENO,,kdj
ODR8RGVDD8,27/04/2020 17:57,27/04/2020 17:57,Pay Bill from 254726928933 - JOSHUA NDUNDA NZIOKA Acc. KCJ,Completed,7000,,55000,TRUE,Pay Utility with OD via STK,254726928933 - JOSHUA NDUNDA NZIOKA,,KCJ
ODR9RBR0SB,27/04/2020 15:44,27/04/2020 15:44,Pay Bill Online from 254722258756 - DAVID KEMBOI Acc. HDA,Completed,18000,,48000,TRUE,Pay Bill Online,254722258756 - DAVID KEMBOI,,HDA
ODR3R7KY7N,27/04/2020 13:35,27/04/2020 13:35,Pay Bill from 254729279767 - ZAKAYO KIMUTAI A NGENO Acc. DFA,Completed,10000,,30000,TRUE,Pay Utility,254729279767 - ZAKAYO KIMUTAI A NGENO,,DFA
ODR9R64219,27/04/2020 12:46,27/04/2020 12:46,Pay Bill from 254722665876 - HASSAN ABDINUR MOHAMED Acc. jaa,Completed,20000,,20000,TRUE,Pay Utility,254722665876 - HASSAN ABDINUR MOHAMED,,jaa
ODR7R1L1SJ,27/04/2020 10:10,27/04/2020 10:10,Utility Account to Organization Settlement Account,Completed,,-97000,0,TRUE,Utility Account to Organization Settlement Account,979524 - ANCIENT WELLS PROPERTY MANAGERS 2,,
ODQ1QK5UCN,26/04/2020 15:11,26/04/2020 15:11,Pay Bill from 254710239100 - PHILOMENA WOKI MUTHAMA Acc. KDK,Completed,17000,,97000,TRUE,Pay Utility,254710239100 - PHILOMENA WOKI MUTHAMA,,KDK
ODQ7QH6VBB,26/04/2020 13:29,26/04/2020 13:29,Pay Bill from 254724318164 - JASON PATRICE Acc. keh,Completed,5000,,80000,TRUE,Pay Utility,254724318164 - JASON PATRICE,,keh
ODQ8QH5WVC,26/04/2020 13:28,26/04/2020 13:28,Pay Bill from 254797705246 - DOREEEN MUKIRI RINKANYA Acc. Fdc,Completed,9000,,75000,TRUE,Pay Utility,254797705246 - DOREEEN MUKIRI RINKANYA,,Fdc
ODQ8QFCL8G,26/04/2020 12:23,26/04/2020 12:23,Pay Bill from 254703122244 - MABEL KAMANDA Acc. JGA,Completed,20000,,66000,TRUE,Pay Utility,254703122244 - MABEL KAMANDA,,JGA
ODP9Q5KSHD,25/04/2020 20:33,25/04/2020 20:33,Pay Bill from 254795418073 - WINNIE OWILLI BEVERLY Acc. HAC,Completed,10000,,46000,TRUE,Pay Utility,254795418073 - WINNIE OWILLI BEVERLY,,HAC
ODP8Q2VFHW,25/04/2020 19:04,25/04/2020 19:04,Pay Bill from 254726783489 - OLIVER OKINDO Acc. JBG,Completed,10000,,36000,TRUE,Pay Utility,254726783489 - OLIVER OKINDO,,JBG
ODP1Q28SWZ,25/04/2020 18:49,25/04/2020 18:49,Pay Bill from 254700833330 - RITAH MUTHAMBI Acc. KAB,Completed,16000,,26000,TRUE,Pay Utility,254700833330 - RITAH MUTHAMBI,,KAB
ODP5PYSGAR,25/04/2020 17:34,25/04/2020 17:34,Pay Bill from 254724777705 - COLLINS AKASA Acc. KEG ,Completed,2000,,10000,TRUE,Pay Utility,254724777705 - COLLINS AKASA,,KEG
ODP5PX9IHX,25/04/2020 16:58,25/04/2020 16:58,Pay Bill from 254708442077 - JOHN MUIRURI Acc. Fac,Completed,8000,,8000,TRUE,Pay Utility,254708442077 - JOHN MUIRURI,,Fac
ODP7PV16SB,25/04/2020 16:00,25/04/2020 16:00,Utility Account to Organization Settlement Account,Completed,,-31000,0,TRUE,Utility Account to Organization Settlement Account,979524 - ANCIENT WELLS PROPERTY MANAGERS 2,,
ODP1PQTKZV,25/04/2020 13:53,25/04/2020 13:53,Pay Bill Online from 254711724272 - EDMOND ONYANGO OKEWE Acc. FCE,Completed,16000,,31000,TRUE,Pay Bill Online,254711724272 - EDMOND ONYANGO OKEWE,,FCE
ODP0PMUIWS,25/04/2020 11:43,25/04/2020 11:43,Pay Bill from 254729258441 - ROBERT RONO KULEI Acc. JAB,Completed,15000,,15000,TRUE,Pay Utility,254729258441 - ROBERT RONO KULEI,,JAB
ODP8PLZOYO,25/04/2020 11:14,25/04/2020 11:14,Utility Account to Organization Settlement Account,Completed,,-42000,0,TRUE,Utility Account to Organization Settlement Account,979524 - ANCIENT WELLS PROPERTY MANAGERS 2,,
ODP9PHTOLN,25/04/2020 08:21,25/04/2020 08:21,Pay Bill from 0722389924 - ISSA ISACK GOLLO Acc. DCC For may ,Completed,20000,,42000,TRUE,Pay Utility,0722389924 - ISSA ISACK GOLLO,,DCC
ODO6P7B30A,24/04/2020 17:27,24/04/2020 17:27,Pay Bill from 254716369842 - HUMMAM HAMID MOHAMED SAID AMBER Acc. FGC,Completed,3000,,22000,TRUE,Pay Utility,254716369842 - HUMMAM HAMID MOHAMED SAID AMBER,,FGC
ODO0P79N2O,24/04/2020 17:26,24/04/2020 17:26,Pay Bill from 254713662892 - DAVID JUMA KIPTOCH Acc. JBE,Completed,8500,,19000,TRUE,Pay Utility,254713662892 - DAVID JUMA KIPTOCH,,JBE
ODO7OZV6NN,24/04/2020 14:04,24/04/2020 14:04,Pay Bill from 254798524621 - MERCY CHESANG Acc. JCJ,Completed,10500,,10500,TRUE,Pay Utility,254798524621 - MERCY CHESANG,,JCJ
ODO1OTRJV1,24/04/2020 10:36,24/04/2020 10:36,Utility Account to Organization Settlement Account,Completed,,-34000,0,TRUE,Utility Account to Organization Settlement Account,979524 - ANCIENT WELLS PROPERTY MANAGERS 2,,
ODN4OODJTU,23/04/2020 23:08,23/04/2020 23:08,Pay Bill from 254712577283 - BILDARD BONYO Acc. IAI,Completed,17000,,34000,TRUE,Pay Utility with OD via STK,254712577283 - BILDARD BONYO,,IAI
ODN4ONG8H6,23/04/2020 21:28,23/04/2020 21:28,Pay Bill from 254713115724 - ROTICH JUDITH JUDITH CHERONO Acc. KCK,Completed,17000,,17000,TRUE,Pay Utility,254713115724 - ROTICH JUDITH JUDITH CHERONO,,KCK
ODN9OK99D9,23/04/2020 19:19,23/04/2020 19:19,Utility Account to Organization Settlement Account,Completed,,-36000,0,TRUE,Utility Account to Organization Settlement Account,979524 - ANCIENT WELLS PROPERTY MANAGERS 2,,
ODN2O7KYJI,23/04/2020 13:37,23/04/2020 13:37,Pay Bill from 254728849248 - ISABELA KARIMI KIOGORA Acc. FAB,Completed,15000,,36000,TRUE,Pay Utility,254728849248 - ISABELA KARIMI KIOGORA,,FAB
ODN8O51EAY,23/04/2020 12:12,23/04/2020 12:12,Pay Bill Online from 254714889853 - EUNICE WAIRIMU MWANGI Acc. KGE,Completed,9000,,21000,TRUE,Pay Bill Online,254714889853 - EUNICE WAIRIMU MWANGI,,KGE
