Receipt No.,Completion Time,Initiation Time,Details,Transaction Status,Paid In,Withdrawn,Balance,Balance Confirmed,Reason Type,Other Party Info,Linked Transaction ID,A/C No.
OL204K3TK4,02/12/2020 16:42,02/12/2020 16:42,Pay Bill from 254711712240 - LEON WOMWENE BWAYO Acc. 602,Completed,15000,,31500,TRUE,Pay Utility,254711712240 - LEON WOMWENE BWAYO,,602
OL143KWTBE,01/12/2020 19:31,01/12/2020 19:31,Pay Bill Online from 254715144865 - CAROL JULIET MUGOYA Acc. E2,Completed,8000,,16500,TRUE,Pay Bill Online,254715144865 - CAROL JULIET MUGOYA,,E2
OL133GHCMN,01/12/2020 18:30,01/12/2020 18:30,Pay Bill Online from 254795983642 - OBED MOGAKA Acc. F6 OBED ,Completed,8500,,8500,TRUE,Pay Bill Online,254795983642 - OBED MOGAKA,,F6
OL1430DJ54,01/12/2020 13:06,01/12/2020 13:06,Utility Account to Organization Settlement Account,Completed,,-13000,0,TRUE,Utility Account to Organization Settlement Account,887075 - ANCIENT WELLS LTD 3,,
OL112N00V5,01/12/2020 07:42,01/12/2020 07:42,Pay Bill Online from 254720873532 - ARETI DIRIBO Acc. 301,Completed,13000,,13000,TRUE,Pay Bill Online,254720873532 - ARETI DIRIBO,,301
OL122KYJQQ,01/12/2020 05:22,01/12/2020 05:22,Utility Account to Organization Settlement Account,Completed,,-7500,0,TRUE,Utility Account to Organization Settlement Account,887075 - ANCIENT WELLS LTD 3,,
OKS1Z69XNZ,28/11/2020 22:16,28/11/2020 22:16,Pay Bill from 254726432241 - STEPHEN MAYABI Acc. A1,Completed,7500,,7500,TRUE,Pay Utility with OD via STK,254726432241 - STEPHEN MAYABI,,A1
OKR0XX5VKI,27/11/2020 22:36,27/11/2020 22:36,Utility Account to Organization Settlement Account,Completed,,-38050,0,TRUE,Utility Account to Organization Settlement Account,887075 - ANCIENT WELLS LTD 3,,
OKR8XCGMU0,27/11/2020 15:55,27/11/2020 15:55,Pay Bill from 254724395251 - ZENA ANYANGO ORWAYA Acc. 202,Completed,15000,,38050,TRUE,Pay Utility,254724395251 - ZENA ANYANGO ORWAYA,,202
OKR8X4TJRQ,27/11/2020 13:07,27/11/2020 13:07,Pay Bill from 254713701237 - Michael Wanjala Acc. G2,Completed,8000,,23050,TRUE,Pay Utility,254713701237 - Michael Wanjala,,G2
OKR7X0SHY5,27/11/2020 11:36,27/11/2020 11:36,Pay Bill from 254796502531 - ASHA MAOMBOLA Acc. Asha 801,Completed,15000,,15050,TRUE,Pay Utility,254796502531 - ASHA MAOMBOLA,,Asha
OKQ8WF62GW,26/11/2020 19:20,26/11/2020 19:20,Pay Bill from 254713158275 - JOHN CHEGE Acc. 37169369222,Completed,50,,50,TRUE,Pay Utility,254713158275 - JOHN CHEGE,,37169369222
OKQ5W002FV,26/11/2020 14:33,26/11/2020 14:33,Utility Account to Organization Settlement Account,Completed,,-13000,0,TRUE,Utility Account to Organization Settlement Account,887075 - ANCIENT WELLS LTD 3,,
OKQ9VOH56L,26/11/2020 10:03,26/11/2020 10:03,Pay Bill from 254704213191 - VALENTINE WAVINYA Acc. e3,Completed,8000,,13000,TRUE,Pay Utility,254704213191 - VALENTINE WAVINYA,,e3
OKP1VG5D8N,25/11/2020 22:59,25/11/2020 22:59,Pay Bill Online from 254715020357 - ELIZABETH NJERI WARARI Acc. C2,Completed,5000,,5000,TRUE,Pay Bill Online,254715020357 - ELIZABETH NJERI WARARI,,C2
OKL0PWVESU,21/11/2020 11:51,21/11/2020 11:51,Utility Account to Organization Settlement Account,Completed,,-11000,0,TRUE,Utility Account to Organization Settlement Account,887075 - ANCIENT WELLS LTD 3,,
OKL6PRG93Q,21/11/2020 09:40,21/11/2020 09:40,Pay Bill from 254711428856 - JAPHETH OTSIENO BARASA Acc. Japheth Barasa A5,Completed,11000,,11000,TRUE,Pay Utility,254711428856 - JAPHETH OTSIENO BARASA,,Japheth
OKK3OVCD1H,20/11/2020 14:36,20/11/2020 14:36,Utility Account to Organization Settlement Account,Completed,,-22500,0,TRUE,Utility Account to Organization Settlement Account,887075 - ANCIENT WELLS LTD 3,,
OKK8OPQI6Y,20/11/2020 12:21,20/11/2020 12:21,Pay Bill from 254725941384 - BRIAN MURUMBA Acc. E4,Completed,3500,,22500,TRUE,Pay Utility,254725941384 - BRIAN MURUMBA,,E4
OKK7OO2HT1,20/11/2020 11:39,20/11/2020 11:39,Pay Bill from 254713158275 - JOHN CHEGE Acc. A4,Completed,14000,,19000,TRUE,Pay Utility,254713158275 - JOHN CHEGE,,A4
OKK1ON1EH7,20/11/2020 11:14,20/11/2020 11:14,Pay Bill from 254725941384 - BRIAN MURUMBA Acc. E4,Completed,5000,,5000,TRUE,Pay Utility with OD via STK,254725941384 - BRIAN MURUMBA,,E4
OKI2MJOSRM,18/11/2020 14:16,18/11/2020 14:16,Utility Account to Organization Settlement Account,Completed,,-32000,0,TRUE,Utility Account to Organization Settlement Account,887075 - ANCIENT WELLS LTD 3,,
OKI7MD8Y9B,18/11/2020 11:39,18/11/2020 11:39,Pay Bill from 254722654377 - WILFRED ANDITA MATHAYO Acc. 702,Completed,32000,,32000,TRUE,Pay Utility with OD via STK,254722654377 - WILFRED ANDITA MATHAYO,,702
OKH3LFT427,17/11/2020 15:13,17/11/2020 15:13,Utility Account to Organization Settlement Account,Completed,,-18600,0,TRUE,Utility Account to Organization Settlement Account,887075 - ANCIENT WELLS LTD 3,,
OKH5L1UCLZ,17/11/2020 09:27,17/11/2020 09:27,Pay Bill from 254701166449 - BETTY NYAWIRA MAINA Acc. G~3,Completed,2000,,18600,TRUE,Pay Utility,254701166449 - BETTY NYAWIRA MAINA,,G~3
OKG9KUD04R,16/11/2020 22:03,16/11/2020 22:03,Pay Bill from 254720062144 - CAROLINE AMONDI OKELO Acc. f4,Completed,8100,,16600,TRUE,Pay Utility,254720062144 - CAROLINE AMONDI OKELO,,f4
OKG4KEHUHG,16/11/2020 16:56,16/11/2020 16:56,Pay Bill from 0702927581 - Peter Muoki Ngundo Acc. Peter ngundo e6,Completed,8500,,8500,TRUE,Pay Utility,0702927581 - Peter Muoki Ngundo,,Peter
OKF4JE3UAS,15/11/2020 18:15,15/11/2020 18:15,Utility Account to Organization Settlement Account,Completed,,-8500,0,TRUE,Utility Account to Organization Settlement Account,887075 - ANCIENT WELLS LTD 3,,
OKE1IMSZJ9,14/11/2020 22:16,14/11/2020 22:16,Pay Bill from 254740711710 - james waweru karuga Acc. F5,Completed,8500,,8500,TRUE,Pay Utility,254740711710 - james waweru karuga,,F5
OKD5GW6367,13/11/2020 15:16,13/11/2020 15:16,Utility Account to Organization Settlement Account,Completed,,-7500,0,TRUE,Utility Account to Organization Settlement Account,887075 - ANCIENT WELLS LTD 3,,
OKB9E3Z1SD,11/11/2020 08:50,11/11/2020 08:50,Pay Bill Online from 254715020357 - ELIZABETH NJERI WARARI Acc. C2,Completed,7500,,7500,TRUE,Pay Bill Online,254715020357 - ELIZABETH NJERI WARARI,,C2
OKB4E0HICI,11/11/2020 06:40,11/11/2020 06:40,Utility Account to Organization Settlement Account,Completed,,-13001,0,TRUE,Utility Account to Organization Settlement Account,887075 - ANCIENT WELLS LTD 3,,
OKA6D3EKOM,10/11/2020 11:35,10/11/2020 11:35,Pay Bill from 254711903617 - Grace Njeri Thuo Acc. Njenga 701,Completed,13000,,13001,TRUE,Pay Utility,254711903617 - Grace Njeri Thuo,,Njenga
OKA0D3DFTW,10/11/2020 11:34,10/11/2020 11:34,Pay Bill from 254711903617 - Grace Njeri Thuo Acc. Njenga 701,Completed,1,,1,TRUE,Pay Utility,254711903617 - Grace Njeri Thuo,,Njenga
OKA9D1F8FH,10/11/2020 10:47,10/11/2020 10:47,Utility Account to Organization Settlement Account,Completed,,-13000,0,TRUE,Utility Account to Organization Settlement Account,887075 - ANCIENT WELLS LTD 3,,
OKA0CYEHD0,10/11/2020 09:35,10/11/2020 09:35,Pay Bill from 0110023089 - Nicholus Kioko Kilungya Acc. 302,Completed,13000,,13000,TRUE,Pay Utility,0110023089 - Nicholus Kioko Kilungya,,302
OK98CK464W,09/11/2020 19:39,09/11/2020 19:39,Utility Account to Organization Settlement Account,Completed,,-13000,0,TRUE,Utility Account to Organization Settlement Account,887075 - ANCIENT WELLS LTD 3,,
OK97CE5GC3,09/11/2020 18:13,09/11/2020 18:13,Pay Bill from 254729466081 - SUSAN MARTHA Acc. 501,Completed,13000,,13000,TRUE,Pay Utility,254729466081 - SUSAN MARTHA,,501
OK90C3YI1C,09/11/2020 14:49,09/11/2020 14:46,Business Transfer from Utility Account to MMF Account via WEB by M-PESA - gwainaina,Completed,,-11000,0,TRUE,Business Transfer from Utility Account to MMF Account via WEB,887075 - ANCIENT WELLS LTD 3,,
OK97BL2IEL,09/11/2020 03:34,09/11/2020 03:34,Pay Bill from 254702201070 - ANITA MUKORO Acc. ANITAROOM502,Completed,3000,,11000,TRUE,Pay Utility with OD via STK,254702201070 - ANITA MUKORO,,ANITAROOM502
OK87AQVF7N,08/11/2020 11:37,08/11/2020 11:37,Pay Bill from 254703451075 - SHICHENGA MARK Acc. D2,Completed,8000,,8000,TRUE,Pay Utility,254703451075 - SHICHENGA MARK,,D2
OK759URDPL,07/11/2020 15:58,07/11/2020 15:58,Utility Account to Organization Settlement Account,Completed,,-146500,0,TRUE,Utility Account to Organization Settlement Account,887075 - ANCIENT WELLS LTD 3,,
OK709MR2EQ,07/11/2020 13:11,07/11/2020 13:11,Pay Bill Online from 254703176849 - ROYAL MUYA Acc. F2,Completed,9000,,146500,TRUE,Pay Bill Online,254703176849 - ROYAL MUYA,,F2
OK7096CBBG,07/11/2020 00:02,07/11/2020 00:02,Pay Bill from 0792589822 - Rashid juma maina Acc. Rashid room802,Completed,15000,,137500,TRUE,Pay Utility,0792589822 - Rashid juma maina,,Rashid
OK6392MKWD,06/11/2020 20:58,06/11/2020 20:58,Pay Bill Online from 254711184244 - KIPROP FESTUS Acc. Festus Kiprop C1p,Completed,8000,,122500,TRUE,Pay Bill Online,254711184244 - KIPROP FESTUS,,Festus
OK638JUGWX,06/11/2020 15:26,06/11/2020 15:26,Pay Bill from 254700429089 - MERCY MULI Acc. mercymulib6p,Completed,8500,,114500,TRUE,Pay Utility,254700429089 - MERCY MULI,,mercymulib6p
OK668H475K,06/11/2020 14:24,06/11/2020 14:24,Pay Bill from 254724939972 - KENNEDY KISWILI MULINGE Acc. kennedy 201,Completed,15000,,106000,TRUE,Pay Utility,254724939972 - KENNEDY KISWILI MULINGE,,kennedy
OK6787BNI5,06/11/2020 10:37,06/11/2020 10:37,Pay Bill from 254792976771 - DANIEL MUTHAMA NDUNDA Acc. F1,Completed,8000,,91000,TRUE,Pay Utility,254792976771 - DANIEL MUTHAMA NDUNDA,,F1
OK577WSKRN,05/11/2020 22:07,05/11/2020 22:07,Pay Bill from 254701339690 - ASHA BAGANWA NDAHIRU Acc. F3,Completed,8000,,83000,TRUE,Pay Utility,254701339690 - ASHA BAGANWA NDAHIRU,,F3
OK567UMZ7U,05/11/2020 21:00,05/11/2020 21:00,Pay Bill from 254724871526 - JOHN KAGUONGO Acc. D5 John Kaguongo ,Completed,8500,,75000,TRUE,Pay Utility,254724871526 - JOHN KAGUONGO,,D5
OK507T5CI4,05/11/2020 20:29,05/11/2020 20:29,Pay Bill from 254703246217 - AMBROSE ADOCHE MIRASI Acc. D4,Completed,8500,,66500,TRUE,Pay Utility,254703246217 - AMBROSE ADOCHE MIRASI,,D4
OK507GDJ1Y,05/11/2020 17:11,05/11/2020 17:11,Pay Bill from 254722706516 - KORIR ANTHONY Acc. Anthony d 3 ,Completed,8000,,58000,TRUE,Pay Utility,254722706516 - KORIR ANTHONY,,Anthony
OK537FXZB7,05/11/2020 17:03,05/11/2020 17:03,Pay Bill from 254724395251 - ZENA ANYANGO ORWAYA Acc. 202,Completed,15000,,50000,TRUE,Pay Utility,254724395251 - ZENA ANYANGO ORWAYA,,202
OK5677LWNG,05/11/2020 14:00,05/11/2020 14:00,Pay Bill from 254727275562 - ANTONNY OTIENO Acc. e1,Completed,20000,,35000,TRUE,Pay Utility,254727275562 - ANTONNY OTIENO,,e1
OK5670O4MO,05/11/2020 11:16,05/11/2020 11:16,Pay Bill from 254722395959 - THEOPHILUS MUSYOKA Acc. 601,Completed,15000,,15000,TRUE,Pay Utility,254722395959 - THEOPHILUS MUSYOKA,,601
OK556TXYMB,05/11/2020 08:26,05/11/2020 08:26,Utility Account to Organization Settlement Account,Completed,,-49000,0,TRUE,Utility Account to Organization Settlement Account,887075 - ANCIENT WELLS LTD 3,,
OK456O3KST,04/11/2020 21:42,04/11/2020 21:42,Pay Bill from 254720062144 - CAROLINE AMONDI OKELO Acc. F4,Completed,6000,,49000,TRUE,Pay Utility,254720062144 - CAROLINE AMONDI OKELO,,F4
OK406I9OI0,04/11/2020 19:37,04/11/2020 19:37,Pay Bill from 254717465142 - EPHANTUS IRURA Acc. C4 MURIITHI,Completed,14000,,43000,TRUE,Pay Utility,254717465142 - EPHANTUS IRURA,,C4
OK426H1TVS,04/11/2020 19:19,04/11/2020 19:19,Pay Bill from 254711460336 - DAVID SILLA MUTUKU Acc. 903,Completed,8000,,29000,TRUE,Pay Utility,254711460336 - DAVID SILLA MUTUKU,,903
OK416G31ZZ,04/11/2020 19:05,04/11/2020 19:05,Pay Bill from 254729110577 - GREGORY ONESMUS KIMANTHI Acc. D6,Completed,13000,,21000,TRUE,Pay Utility,254729110577 - GREGORY ONESMUS KIMANTHI,,D6
OK4766MWZL,04/11/2020 16:22,04/11/2020 16:22,Pay Bill from 0743167092 - marvin njuguna maina Acc. G1,Completed,8000,,8000,TRUE,Pay Utility,0743167092 - marvin njuguna maina,,G1
OK4961D1U3,04/11/2020 14:22,04/11/2020 14:22,Utility Account to Organization Settlement Account,Completed,,-16000,0,TRUE,Utility Account to Organization Settlement Account,887075 - ANCIENT WELLS LTD 3,,
OK485TU1LW,04/11/2020 11:24,04/11/2020 11:24,Pay Bill from 254721539716 - OCTAVIAN MWANYALO Acc. C6,Completed,8000,,16000,TRUE,Pay Utility,254721539716 - OCTAVIAN MWANYALO,,C6
OK425SFUKE,04/11/2020 10:50,04/11/2020 10:50,Pay Bill from 254701330588 - EDGER WAFULA BUTALI Acc. D1,Completed,8000,,8000,TRUE,Pay Utility,254701330588 - EDGER WAFULA BUTALI,,D1
OK435OXOBL,04/11/2020 09:22,04/11/2020 09:22,Utility Account to Organization Settlement Account,Completed,,-17000,0,TRUE,Utility Account to Organization Settlement Account,887075 - ANCIENT WELLS LTD 3,,
OK3258QKWQ,03/11/2020 19:00,03/11/2020 19:00,Pay Bill from 254700007703 - RITA LESOROGOL Acc. ritahnashangairm902,Completed,8000,,17000,TRUE,Pay Utility,254700007703 - RITA LESOROGOL,,ritahnashangairm902
OK31533DLV,03/11/2020 17:31,03/11/2020 17:31,Pay Bill from 254701166449 - BETTY NYAWIRA MAINA Acc. G-3,Completed,9000,,9000,TRUE,Pay Utility,254701166449 - BETTY NYAWIRA MAINA,,G-3
OK334W3X0L,03/11/2020 15:02,03/11/2020 15:02,Utility Account to Organization Settlement Account,Completed,,-14500,0,TRUE,Utility Account to Organization Settlement Account,887075 - ANCIENT WELLS LTD 3,,
OK344SVQI2,03/11/2020 13:47,03/11/2020 13:47,Pay Bill from 0799838354 - Brian Kyengo Ndambuki Acc. B3,Completed,9000,,14500,TRUE,Pay Utility,0799838354 - Brian Kyengo Ndambuki,,B3
OK304QKNQQ,03/11/2020 12:52,03/11/2020 12:52,Pay Bill from 0799912339 - PETER KAMAU MURIU Acc. c5,Completed,5500,,5500,TRUE,Pay Utility,0799912339 - PETER KAMAU MURIU,,c5
OK304JU7P0,03/11/2020 10:09,03/11/2020 10:09,Utility Account to Organization Settlement Account,Completed,,-10000,0,TRUE,Utility Account to Organization Settlement Account,887075 - ANCIENT WELLS LTD 3,,
OK2548ESQP,02/11/2020 20:55,02/11/2020 20:55,Pay Bill from 254723640699 - FREDRICK OTIENO Acc. FREDRICK HS NO 102,Completed,10000,,10000,TRUE,Pay Utility,254723640699 - FREDRICK OTIENO,,FREDRICK
OK293IEBHB,02/11/2020 12:11,02/11/2020 12:11,Utility Account to Organization Settlement Account,Completed,,-39600,0,TRUE,Utility Account to Organization Settlement Account,887075 - ANCIENT WELLS LTD 3,,
OK1834KBL4,01/11/2020 22:25,01/11/2020 22:25,Pay Bill Online from 254795983642 - OBED MOGAKA Acc. F6 OBED ,Completed,8500,,39600,TRUE,Pay Bill Online,254795983642 - OBED MOGAKA,,F6
OK152ZYOJB,01/11/2020 20:04,01/11/2020 20:04,Pay Bill from 254726432241 - STEPHEN MAYABI Acc. A1,Completed,7600,,31100,TRUE,Pay Utility with OD via STK,254726432241 - STEPHEN MAYABI,,A1
OK162OXZ2U,01/11/2020 16:37,01/11/2020 16:37,Pay Bill from 254728664261 - LEVIN INGATI NYONJE Acc. B5,Completed,8500,,23500,TRUE,Pay Utility,254728664261 - LEVIN INGATI NYONJE,,B5
OK1827GQCK,01/11/2020 09:22,01/11/2020 09:22,Pay Bill from 254711712240 - LEON WOMWENE BWAYO Acc. 602,Completed,15000,,15000,TRUE,Pay Utility,254711712240 - LEON WOMWENE BWAYO,,602
