Receipt No.,Completion Time,Initiation Time,Details,Transaction Status,Paid In,Withdrawn,Balance,Balance Confirmed,Reason Type,Other Party Info,Linked Transaction ID,A/C No.
PEP8CGZ8MK,25/05/2021 10:25,25/05/2021 10:25,Pay Bill from 254702343078 - JOSEPH EBENYO Acc. V10 joseph,Completed,6600,,6600,TRUE,Pay Utility,254702343078 - JOSEPH EBENYO,,V10
PEO9B6OL2P,24/05/2021 10:23,24/05/2021 10:23,Utility Account to Organization Settlement Account,Completed,,-300,0,TRUE,Utility Account to Organization Settlement Account,887674 - ANCIENT WELLS LTD 1,,
PEM19FAJ7V,22/05/2021 19:15,22/05/2021 19:15,Pay Bill from 0719473191 - KENNEDY KIOKO JOSEPH Acc. V57,Completed,300,,300,TRUE,Pay Utility with OD via STK,0719473191 - KENNEDY KIOKO JOSEPH,,V57
PEM096VG12,22/05/2021 17:11,22/05/2021 17:11,Utility Account to Organization Settlement Account,Completed,,-10000,0,TRUE,Utility Account to Organization Settlement Account,887674 - ANCIENT WELLS LTD 1,,
PEM594S4MX,22/05/2021 16:33,22/05/2021 16:33,Pay Bill from 0719473191 - KENNEDY KIOKO JOSEPH Acc. V57,Completed,3700,,10000,TRUE,Pay Utility with OD via STK,0719473191 - KENNEDY KIOKO JOSEPH,,V57
PEM08U0GC4,22/05/2021 13:02,22/05/2021 13:02,Pay Bill from 254758070694 - naomi ndinda nzamalu Acc. v28,Completed,300,,6300,TRUE,Pay Utility,254758070694 - naomi ndinda nzamalu,,v28
PEM08LRQU8,22/05/2021 10:03,22/05/2021 10:03,Pay Bill from 254721526811 - Hazel KAHURIA KAHURIA Acc. V36,Completed,3000,,6000,TRUE,Pay Utility,254721526811 - Hazel KAHURIA KAHURIA,,V36
PEM68K2Z0Q,22/05/2021 09:23,22/05/2021 09:23,Pay Bill from 0719473191 - KENNEDY KIOKO JOSEPH Acc. V57,Completed,1000,,3000,TRUE,Pay Utility with OD via STK,0719473191 - KENNEDY KIOKO JOSEPH,,V57
PEL68AA8N2,21/05/2021 21:16,21/05/2021 21:16,Pay Bill Online from 254729569271 - MESHACK OBOTTA OBARE Acc. V12,Completed,2000,,2000,TRUE,Pay Bill Online,254729569271 - MESHACK OBOTTA OBARE,,V12
PEL47FQGBY,21/05/2021 12:05,21/05/2021 12:05,Utility Account to Organization Settlement Account,Completed,,-5600,0,TRUE,Utility Account to Organization Settlement Account,887674 - ANCIENT WELLS LTD 1,,
PEK76IJ36P,20/05/2021 16:53,20/05/2021 16:53,Pay Bill Online from 254725639425 - CHRISPINE OMONDI Acc. V13,Completed,5600,,5600,TRUE,Pay Bill Online,254725639425 - CHRISPINE OMONDI,,V13
PEK56F51U3,20/05/2021 15:43,20/05/2021 15:43,Utility Account to Organization Settlement Account,Completed,,-4000,0,TRUE,Utility Account to Organization Settlement Account,887674 - ANCIENT WELLS LTD 1,,
PEK45WOAZ8,20/05/2021 08:38,20/05/2021 08:38,Pay Bill from 254721524677 - SAMSON AHOLO Acc. samson v33,Completed,4000,,4000,TRUE,Pay Utility with OD via STK,254721524677 - SAMSON AHOLO,,samson
PEK55UFOGZ,20/05/2021 07:29,20/05/2021 07:29,Utility Account to Organization Settlement Account,Completed,,-6300,0,TRUE,Utility Account to Organization Settlement Account,887674 - ANCIENT WELLS LTD 1,,
PEJ75204KB,19/05/2021 14:47,19/05/2021 14:47,Pay Bill from 0112583763 - Mercy Ndunge Nzamalu Acc. v28,Completed,6300,,6300,TRUE,Pay Utility,0112583763 - Mercy Ndunge Nzamalu,,v28
PEJ94YQSA7,19/05/2021 13:35,19/05/2021 13:35,Utility Account to Organization Settlement Account,Completed,,-9600,0,TRUE,Utility Account to Organization Settlement Account,887674 - ANCIENT WELLS LTD 1,,
PEJ54OXC1V,19/05/2021 09:50,19/05/2021 09:50,Pay Bill from 0727542914 - Pascal Ouma Opar Acc. pascalv45,Completed,3000,,9600,TRUE,Pay Utility,0727542914 - Pascal Ouma Opar,,pascalv45
PEJ74HPXLR,19/05/2021 00:38,19/05/2021 00:38,Pay Bill from 254721510646 - ANTHONY IRUNGU KARIUKI Acc. V41,Completed,6600,,6600,TRUE,Pay Utility,254721510646 - ANTHONY IRUNGU KARIUKI,,V41
PEH52N1Y9B,17/05/2021 16:53,17/05/2021 16:53,Utility Account to Organization Settlement Account,Completed,,-4600,0,TRUE,Utility Account to Organization Settlement Account,887674 - ANCIENT WELLS LTD 1,,
PEH92COSPN,17/05/2021 13:15,17/05/2021 13:15,Pay Bill Online from 254729569271 - MESHACK OBOTTA OBARE Acc. V12,Completed,4600,,4600,TRUE,Pay Bill Online,254729569271 - MESHACK OBOTTA OBARE,,V12
PEE0XFO5LM,14/05/2021 11:52,14/05/2021 11:52,Utility Account to Organization Settlement Account,Completed,,-6600,0,TRUE,Utility Account to Organization Settlement Account,887674 - ANCIENT WELLS LTD 1,,
PEE5X75AL9,14/05/2021 08:24,14/05/2021 08:24,Pay Bill from 254727457050 - ANDREW SONGORO OSORE Acc. DERRICK  V58,Completed,6600,,6600,TRUE,Pay Utility,254727457050 - ANDREW SONGORO OSORE,,DERRICK
PED6VWZ1WK,13/05/2021 08:49,13/05/2021 08:49,Utility Account to Organization Settlement Account,Completed,,-29200,0,TRUE,Utility Account to Organization Settlement Account,887674 - ANCIENT WELLS LTD 1,,
PEC8UWW2GG,12/05/2021 13:11,12/05/2021 13:11,Pay Bill from 254715939283 - alex nyamai Acc. alex v07,Completed,1600,,29200,TRUE,Pay Utility,254715939283 - alex nyamai,,alex
PEC4UQC5ZG,12/05/2021 10:50,12/05/2021 10:50,Pay Bill from 0792024336 - CHRISANTUS KARANI OGOTI Acc. v6,Completed,7000,,27600,TRUE,Pay Utility with OD via STK,0792024336 - CHRISANTUS KARANI OGOTI,,v6
PEB4UE3E80,11/05/2021 21:48,11/05/2021 21:48,Pay Bill Online from 254720360607 - MARITIM SUSAN CHEBET Acc. V49,Completed,14000,,20600,TRUE,Pay Bill Online,254720360607 - MARITIM SUSAN CHEBET,,V49
PEB1U3MNZN,11/05/2021 18:44,11/05/2021 18:44,Pay Bill from 254710262457 - PETER VIKATSI Acc. Peter V26,Completed,6600,,6600,TRUE,Pay Utility,254710262457 - PETER VIKATSI,,Peter
PEB2TZXGNQ,11/05/2021 17:50,11/05/2021 17:50,Utility Account to Organization Settlement Account,Completed,,-18600,0,TRUE,Utility Account to Organization Settlement Account,887674 - ANCIENT WELLS LTD 1,,
PEB3TZA69T,11/05/2021 17:40,11/05/2021 17:40,Pay Bill from 254716113771 - LOISE KURIA Acc. V59,Completed,7000,,18600,TRUE,Pay Utility,254716113771 - LOISE KURIA,,V59
PEB8TS7PKY,11/05/2021 15:33,11/05/2021 15:33,Pay Bill from 254715939283 - alex nyamai Acc. alex v07,Completed,5000,,11600,TRUE,Pay Utility,254715939283 - alex nyamai,,alex
PEB2TECSZO,11/05/2021 10:52,11/05/2021 10:52,Pay Bill from 254703108159 - JOICE OGOLLA Acc. V50,Completed,6600,,6600,TRUE,Pay Utility,254703108159 - JOICE OGOLLA,,V50
PEB2TB302C,11/05/2021 09:43,11/05/2021 09:43,Utility Account to Organization Settlement Account,Completed,,-6600,0,TRUE,Utility Account to Organization Settlement Account,887674 - ANCIENT WELLS LTD 1,,
PEA4SN5GV6,10/05/2021 17:57,10/05/2021 17:57,Pay Bill from 254700218502 - GRACE NGURE Acc. v46,Completed,6600,,6600,TRUE,Pay Utility,254700218502 - GRACE NGURE,,v46
PEA9SHY3O3,10/05/2021 16:34,10/05/2021 16:34,Utility Account to Organization Settlement Account,Completed,,-47600,0,TRUE,Utility Account to Organization Settlement Account,887674 - ANCIENT WELLS LTD 1,,
PEA8RZ2DFQ,10/05/2021 10:31,10/05/2021 10:31,Pay Bill from 254790610309 - MESHACK CHUMBA Acc. V39,Completed,6600,,47600,TRUE,Pay Utility,254790610309 - MESHACK CHUMBA,,V39
PEA8RQFQ5E,10/05/2021 06:02,10/05/2021 06:02,Pay Bill from 254704783091 - CLINTON MUSEBE KASUTI Acc. v48,Completed,13200,,41000,TRUE,Pay Utility,254704783091 - CLINTON MUSEBE KASUTI,,v48
PE91RNWN8D,09/05/2021 21:59,09/05/2021 21:59,Pay Bill from 254707568664 - Ismael Kitsao Acc. V52,Completed,7000,,27800,TRUE,Pay Utility,254707568664 - Ismael Kitsao,,V52
PE92RHFF1M,09/05/2021 19:38,09/05/2021 19:38,Pay Bill from 254717294709 - CAROLINE WAVINYA NDINDA Acc. V15,Completed,7000,,20800,TRUE,Pay Utility,254717294709 - CAROLINE WAVINYA NDINDA,,V15
PE92QOKV38,09/05/2021 10:27,09/05/2021 10:27,Pay Bill from 0711494312 - CALVIN MAKWAKA AMULIOTO Acc. V08,Completed,6800,,13800,TRUE,Pay Utility,0711494312 - CALVIN MAKWAKA AMULIOTO,,V08
PE82QANMUQ,08/05/2021 20:33,08/05/2021 20:33,Pay Bill from 254746559177 - STACY MAUA KILONZO Acc. v37,Completed,7000,,7000,TRUE,Pay Utility,254746559177 - STACY MAUA KILONZO,,v37
PE79NWCTNF,07/05/2021 09:47,07/05/2021 09:47,Utility Account to Organization Settlement Account,Completed,,-14600,0,TRUE,Utility Account to Organization Settlement Account,887674 - ANCIENT WELLS LTD 1,,
PE79NUKUS3,07/05/2021 09:06,07/05/2021 09:06,Pay Bill from 254712305555 - peris kiragu Acc. V17,Completed,8000,,14600,TRUE,Pay Utility,254712305555 - peris kiragu,,V17
PE66NKLR78,06/05/2021 21:01,06/05/2021 21:01,Pay Bill from 254712091662 - BENARD OMONDI ROBY Acc. V16,Completed,6600,,6600,TRUE,Pay Utility,254712091662 - BENARD OMONDI ROBY,,V16
PE68MZJMOG,06/05/2021 15:23,06/05/2021 15:23,Utility Account to Organization Settlement Account,Completed,,-27200,0,TRUE,Utility Account to Organization Settlement Account,887674 - ANCIENT WELLS LTD 1,,
PE61MG11Y7,06/05/2021 08:28,06/05/2021 08:28,Pay Bill from 254703690697 - CATHERINE MURAGE Acc. V21,Completed,7000,,27200,TRUE,Pay Utility,254703690697 - CATHERINE MURAGE,,V21
PE63MCXPSD,06/05/2021 06:31,06/05/2021 06:31,Pay Bill from 254708915764 - GEORGE WAHOME Acc. V18,Completed,6600,,20200,TRUE,Pay Utility,254708915764 - GEORGE WAHOME,,V18
PE58MB7YIG,05/05/2021 23:28,05/05/2021 23:28,Pay Bill from 254701174081 - JOSEPHINE ODUOR Acc. v34,Completed,7000,,13600,TRUE,Pay Utility,254701174081 - JOSEPHINE ODUOR,,v34
PE51M8CAH7,05/05/2021 21:21,05/05/2021 21:21,Pay Bill from 254720056285 - DAMARIS NDURU Acc. V09,Completed,6600,,6600,TRUE,Pay Utility,254720056285 - DAMARIS NDURU,,V09
PE55M5URXN,05/05/2021 20:30,05/05/2021 20:30,Utility Account to Organization Settlement Account,Completed,,-13600,0,TRUE,Utility Account to Organization Settlement Account,887674 - ANCIENT WELLS LTD 1,,
PE55M1NBCL,05/05/2021 19:28,05/05/2021 19:28,Pay Bill from 254726465584 - JULIANA MUKELI MUTUNGA Acc. v4,Completed,6600,,13600,TRUE,Pay Utility,254726465584 - JULIANA MUKELI MUTUNGA,,v4
PE58LKQKIS,05/05/2021 15:00,05/05/2021 15:00,Pay Bill from 254758951969 - WILKISTER IRAKO HARAMBEE Acc. 37847739,Completed,7000,,7000,TRUE,Pay Utility,254758951969 - WILKISTER IRAKO HARAMBEE,,37847739
PE59LI8GJR,05/05/2021 14:10,05/05/2021 14:10,Utility Account to Organization Settlement Account,Completed,,-13600,0,TRUE,Utility Account to Organization Settlement Account,887674 - ANCIENT WELLS LTD 1,,
PE50L953H0,05/05/2021 11:09,05/05/2021 11:09,Pay Bill from 254722578070 - SAMUEL MACHARIA Acc. v42,Completed,7000,,13600,TRUE,Pay Utility,254722578070 - SAMUEL MACHARIA,,v42
PE57L30PPN,05/05/2021 08:58,05/05/2021 08:58,Pay Bill from 254723815832 - SEMEKIA ONDIALA Acc. v38,Completed,6600,,6600,TRUE,Pay Utility,254723815832 - SEMEKIA ONDIALA,,v38
PE55L1INE3,05/05/2021 08:21,05/05/2021 08:21,Utility Account to Organization Settlement Account,Completed,,-37400,0,TRUE,Utility Account to Organization Settlement Account,887674 - ANCIENT WELLS LTD 1,,
PE59KYB34H,05/05/2021 06:00,05/05/2021 06:00,Pay Bill from 254722307003 - NIGEL BOMETT Acc. V01,Completed,6600,,37400,TRUE,Pay Utility,254722307003 - NIGEL BOMETT,,V01
PE43KX1HT3,04/05/2021 23:25,04/05/2021 23:25,Pay Bill from 254718818610 - HANNAH NALIAKA Acc. V23,Completed,6600,,30800,TRUE,Pay Utility,254718818610 - HANNAH NALIAKA,,V23
PE44KWPSJA,04/05/2021 22:56,04/05/2021 22:56,Pay Bill Online from 254704995854 - james karanja wairimu Acc. V54,Completed,6600,,24200,TRUE,Pay Bill Online,254704995854 - james karanja wairimu,,V54
PE45KOVEVZ,04/05/2021 19:47,04/05/2021 19:47,Pay Bill from 254705133053 - PASCAL OPAR Acc. pascal45,Completed,4000,,17600,TRUE,Pay Utility,254705133053 - PASCAL OPAR,,pascal45
PE45K9NC6P,04/05/2021 15:56,04/05/2021 15:56,Pay Bill from 254720881746 - LEMMY WANJAU NJIRU Acc. V51,Completed,7000,,13600,TRUE,Pay Utility,254720881746 - LEMMY WANJAU NJIRU,,V51
PE47K538WT,04/05/2021 14:25,04/05/2021 14:25,FSI to Pay Bill by 714888 - B2C LOOP VIA NCBA Acc. v40 via WEB by B2C LOOP VIA NCBA\Cbainitiator,Completed,6600,,6600,TRUE,FSI to Pay Bill via API,714888 - B2C LOOP VIA NCBA,,v40
PE41K4X3YH,04/05/2021 14:22,04/05/2021 14:22,Utility Account to Organization Settlement Account,Completed,,-20700,0,TRUE,Utility Account to Organization Settlement Account,887674 - ANCIENT WELLS LTD 1,,
PE43K45QXZ,04/05/2021 14:07,04/05/2021 14:07,Pay Bill from 254700760396 - JULIUS MBUGUA KINYAHWE Acc. v35 ,Completed,6600,,20700,TRUE,Pay Utility,254700760396 - JULIUS MBUGUA KINYAHWE,,v35
PE44JZSSUE,04/05/2021 12:39,04/05/2021 12:39,Pay Bill from 254713916352 - WINFRED KATUNGWA NDALA Acc. V30,Completed,6600,,14100,TRUE,Pay Utility,254713916352 - WINFRED KATUNGWA NDALA,,V30
PE45JPN8RX,04/05/2021 08:57,04/05/2021 08:57,Pay Bill from 254704480791 - LYDIA AWUOR OMENO Acc. Samson v33,Completed,4000,,7500,TRUE,Pay Utility with OD via STK,254704480791 - LYDIA AWUOR OMENO,,Samson
PE32J6TEC2,03/05/2021 18:29,03/05/2021 18:29,Pay Bill Online from 254725639425 - CHRISPINE OMONDI Acc. V13,Completed,3500,,3500,TRUE,Pay Bill Online,254725639425 - CHRISPINE OMONDI,,V13
PE32IVE7QG,03/05/2021 15:13,03/05/2021 15:13,Utility Account to Organization Settlement Account,Completed,,-4000,0,TRUE,Utility Account to Organization Settlement Account,887674 - ANCIENT WELLS LTD 1,,
PE37IPR9PX,03/05/2021 13:21,03/05/2021 13:21,Pay Bill Online from 254725639425 - CHRISPINE OMONDI Acc. V13,Completed,4000,,4000,TRUE,Pay Bill Online,254725639425 - CHRISPINE OMONDI,,V13
PE25I7JEN9,02/05/2021 23:06,02/05/2021 23:06,Utility Account to Organization Settlement Account,Completed,,-13400,0,TRUE,Utility Account to Organization Settlement Account,887674 - ANCIENT WELLS LTD 1,,
PE24HMHGDO,02/05/2021 15:40,02/05/2021 15:40,Pay Bill from 254723389922 - ANNE WANJIKU NDUNGU Acc. v53,Completed,6800,,13400,TRUE,Pay Utility,254723389922 - ANNE WANJIKU NDUNGU,,v53
PE27HFGWWP,02/05/2021 13:13,02/05/2021 13:13,Pay Bill from 0717042461 - Sharon Nyangasi Shivachi Acc. V55,Completed,6600,,6600,TRUE,Pay Utility,0717042461 - Sharon Nyangasi Shivachi,,V55
PE11GTNI73,01/05/2021 20:32,01/05/2021 20:32,Utility Account to Organization Settlement Account,Completed,,-6600,0,TRUE,Utility Account to Organization Settlement Account,887674 - ANCIENT WELLS LTD 1,,
PE19GOIZC9,01/05/2021 19:17,01/05/2021 19:17,Pay Bill from 254727729395 - ROBERT OUKO OSORO Acc. V29,Completed,6600,,6600,TRUE,Pay Utility,254727729395 - ROBERT OUKO OSORO,,V29
PE16FY5YLM,01/05/2021 11:31,01/05/2021 11:31,Utility Account to Organization Settlement Account,Completed,,-34200,0,TRUE,Utility Account to Organization Settlement Account,887674 - ANCIENT WELLS LTD 1,,
