Receipt No.,Completion Time,Initiation Time,Details,Transaction Status,Paid In,Withdrawn,Balance,Balance Confirmed,Reason Type,Other Party Info,Linked Transaction ID,A/C No.
PL53O1EKDB,05/12/2021 18:19,05/12/2021 18:19,Pay Bill from 254706859500 - JULIA NJAMBI WAINAINA Acc. U4,Completed,5500,,5500,TRUE,Pay Utility,254706859500 - JULIA NJAMBI WAINAINA,,U4
PL45M57Q2N,04/12/2021 16:53,04/12/2021 16:53,Utility Account to Organization Settlement Account,Completed,,-38500,0,TRUE,Utility Account to Organization Settlement Account,887264 - ANCIENT WELLS LTD 2,,
PL43LWVVTJ,04/12/2021 14:53,04/12/2021 14:53,Pay Bill Online from 254713580938 - ZHOU QIAN Acc. Dennis prit 7,Completed,28000,,38500,TRUE,Pay Bill Online,254713580938 - ZHOU QIAN,,Dennis
PL49LSG3SX,04/12/2021 13:47,04/12/2021 13:47,Pay Bill from 0743263203 - Patrick theuri wachira Acc. U1,Completed,5000,,10500,TRUE,Pay Utility with OD via STK,0743263203 - Patrick theuri wachira,,U1
PL33L1W7N9,03/12/2021 23:08,03/12/2021 23:08,Pay Bill from 254726403551 - VICTOR O KIRUMA Acc. U2,Completed,5500,,5500,TRUE,Pay Utility,254726403551 - VICTOR O KIRUMA,,U2
PL30KSCJRE,03/12/2021 20:09,03/12/2021 20:09,Utility Account to Organization Settlement Account,Completed,,-6000,0,TRUE,Utility Account to Organization Settlement Account,887264 - ANCIENT WELLS LTD 2,,
PL22IGM7BI,02/12/2021 16:27,02/12/2021 16:27,Pay Bill from 254706011442 - REUBEN MURIUKI Acc. B5,Completed,6000,,6000,TRUE,Pay Utility,254706011442 - REUBEN MURIUKI,,B5
PL14H5X89C,01/12/2021 19:49,01/12/2021 19:49,Utility Account to Organization Settlement Account,Completed,,-5500,0,TRUE,Utility Account to Organization Settlement Account,887264 - ANCIENT WELLS LTD 2,,
PL13GRD4FX,01/12/2021 17:13,01/12/2021 17:13,Pay Bill from 254712614146 - SOPHIE MUENI MUVITHU Acc. Sophie Mueni- HseNo6,Completed,5500,,5500,TRUE,Pay Utility,254712614146 - SOPHIE MUENI MUVITHU,,Sophie
