Receipt No.,Completion Time,Initiation Time,Details,Transaction Status,Paid In,Withdrawn,Balance,Balance Confirmed,Reason Type,Other Party Info,Linked Transaction ID,A/C No.
QCS7ENVIXN,28/03/2022 12:06,28/03/2022 12:06,Utility Account to Organization Settlement Account,Completed,,-30700,0,TRUE,Utility Account to Organization Settlement Account,887674 - ANCIENT WELLS LTD 1,,
QCR0CXFFBE,27/03/2022 12:07,27/03/2022 12:07,Pay Bill Online from 254728780393 - DINAH ONGIRI Acc. V39,Completed,10500,,30700,TRUE,Pay Bill Online,254728780393 - DINAH ONGIRI,,V39
QCQ1ASXKUZ,26/03/2022 09:14,26/03/2022 09:14,Pay Bill Online from 254704783091 - CLINTON MUSEBE KASUTI Acc. v48,Completed,13200,,20200,TRUE,Pay Bill Online,254704783091 - CLINTON MUSEBE KASUTI,,v48
QCP895DPPQ,25/03/2022 11:58,25/03/2022 11:58,Pay Bill Online from 254722369373 - JUSTUS NDISYA MUSYOKA Acc. V40,Completed,7000,,7000,TRUE,Pay Bill Online,254722369373 - JUSTUS NDISYA MUSYOKA,,V40
QCO477GK5O,24/03/2022 11:16,24/03/2022 11:16,Utility Account to Organization Settlement Account,Completed,,-6600,0,TRUE,Utility Account to Organization Settlement Account,887674 - ANCIENT WELLS LTD 1,,
QCN96PABJD,23/03/2022 22:24,23/03/2022 22:24,Pay Bill Online from 254707049818 - LUCKY TSUMA Acc. v19,Completed,6600,,6600,TRUE,Pay Bill Online,254707049818 - LUCKY TSUMA,,v19
QCN35KDSRP,23/03/2022 13:18,23/03/2022 13:18,Utility Account to Organization Settlement Account,Completed,,-5000,0,TRUE,Utility Account to Organization Settlement Account,887674 - ANCIENT WELLS LTD 1,,
QCM64THCNG,22/03/2022 21:55,22/03/2022 21:55,Pay Bill from 0795807227 - Lucy Ncekei Kimathi Acc. V36,Completed,3000,,5000,TRUE,Pay Utility,0795807227 - Lucy Ncekei Kimathi,,V36
QCM0499XIM,22/03/2022 17:59,22/03/2022 17:59,Pay Bill Online from 0725639425 - GEOFFREY ODOYO OMUNE Acc. V13,Completed,2000,,2000,TRUE,Pay Bill Online,0725639425 - GEOFFREY ODOYO OMUNE,,V13
QCM33EUAAL,22/03/2022 10:17,22/03/2022 10:17,Utility Account to Organization Settlement Account,Completed,,-1000,0,TRUE,Utility Account to Organization Settlement Account,887674 - ANCIENT WELLS LTD 1,,
QCL12M8GO9,21/03/2022 19:14,21/03/2022 19:14,Pay Bill Online from 254710693464 - BENARD OLANDO OKUMU Acc. V59,Completed,1000,,1000,TRUE,Pay Bill Online,254710693464 - BENARD OLANDO OKUMU,,V59
QCL71SFMFB,21/03/2022 12:26,21/03/2022 12:26,Utility Account to Organization Settlement Account,Completed,,-6000,0,TRUE,Utility Account to Organization Settlement Account,887674 - ANCIENT WELLS LTD 1,,
QCL01R99F4,21/03/2022 12:08,21/03/2022 12:08,Pay Bill Online from 254710693464 - BENARD OLANDO OKUMU Acc. V59,Completed,6000,,6000,TRUE,Pay Bill Online,254710693464 - BENARD OLANDO OKUMU,,V59
QCL61AIKGQ,21/03/2022 07:06,21/03/2022 07:06,Utility Account to Organization Settlement Account,Completed,,-17500,0,TRUE,Utility Account to Organization Settlement Account,887674 - ANCIENT WELLS LTD 1,,
QCK1ZF8QEX,20/03/2022 16:26,20/03/2022 16:26,Pay Bill from 254720373871 - KEZIAH KIMANI Acc. V21,Completed,8000,,17500,TRUE,Pay Utility,254720373871 - KEZIAH KIMANI,,V21
QCJ1XJK7ED,19/03/2022 15:38,19/03/2022 15:38,Pay Bill from 254713894468 - RAPHAEL . NTHAMBURI Acc. v 26,Completed,8000,,9500,TRUE,Pay Utility with OD via STK,254713894468 - RAPHAEL . NTHAMBURI,,v
QCI1W2KJ3Z,18/03/2022 19:06,18/03/2022 19:06,Pay Bill from 254729358258 - Cliff Ombasa Acc. V05,Completed,1500,,1500,TRUE,Pay Utility,254729358258 - Cliff Ombasa,,V05
QCI4VYD1AK,18/03/2022 18:23,18/03/2022 18:23,Utility Account to Organization Settlement Account,Completed,,-24200,0,TRUE,Utility Account to Organization Settlement Account,887674 - ANCIENT WELLS LTD 1,,
QCI7VWZ36P,18/03/2022 18:08,18/03/2022 18:08,Pay Bill from 0713851252 - GRACE   OMUNG'ANA Acc. vk3,Completed,3000,,24200,TRUE,Pay Utility,0713851252 - GRACE   OMUNG'ANA,,vk3
QCI5VT8RW3,18/03/2022 17:24,18/03/2022 17:24,Pay Bill from 254720466443 - FATUMA MOHAMED ABDALLAH Acc. v21,Completed,7000,,21200,TRUE,Pay Utility,254720466443 - FATUMA MOHAMED ABDALLAH,,v21
QCI5VN759Z,18/03/2022 16:03,18/03/2022 16:03,Pay Bill from 0727542914 - Pascal Ouma Opar Acc. pascalv45,Completed,4000,,14200,TRUE,Pay Utility,0727542914 - Pascal Ouma Opar,,pascalv45
QCI7UU9KZ3,18/03/2022 08:33,18/03/2022 08:33,Pay Bill from 0795807227 - Lucy Ncekei Kimathi Acc. V36,Completed,3600,,10200,TRUE,Pay Utility,0795807227 - Lucy Ncekei Kimathi,,V36
QCI7UNVIE1,18/03/2022 00:08,18/03/2022 00:08,Pay Bill from 254719808077 - ANTHONY KARIUKI Acc. V41,Completed,6600,,6600,TRUE,Pay Utility,254719808077 - ANTHONY KARIUKI,,V41
QCH0T1PC7Q,17/03/2022 09:34,17/03/2022 09:34,Utility Account to Organization Settlement Account,Completed,,-7000,0,TRUE,Utility Account to Organization Settlement Account,887674 - ANCIENT WELLS LTD 1,,
QCG4R7F0KK,16/03/2022 10:19,16/03/2022 10:19,Pay Bill from 254707220622 - EVERLYN SYOMBUA KAKUI Acc. v57,Completed,7000,,7000,TRUE,Pay Utility,254707220622 - EVERLYN SYOMBUA KAKUI,,v57
QCF8PTHX4K,15/03/2022 15:07,15/03/2022 15:07,Utility Account to Organization Settlement Account,Completed,,-7000,0,TRUE,Utility Account to Organization Settlement Account,887674 - ANCIENT WELLS LTD 1,,
QCF6PDZ49A,15/03/2022 11:08,15/03/2022 11:08,Pay Bill from 254717294709 - CAROLINE WAVINYA NDINDA Acc. v15,Completed,7000,,7000,TRUE,Pay Utility,254717294709 - CAROLINE WAVINYA NDINDA,,v15
QCF0P2CZZQ,15/03/2022 07:45,15/03/2022 07:45,Utility Account to Organization Settlement Account,Completed,,-6600,0,TRUE,Utility Account to Organization Settlement Account,887674 - ANCIENT WELLS LTD 1,,
QCE6OB9RM8,14/03/2022 18:09,14/03/2022 18:09,Pay Bill Online from 254729569271 - MESHACK OBOTTA OBARE Acc. V12,Completed,6600,,6600,TRUE,Pay Bill Online,254729569271 - MESHACK OBOTTA OBARE,,V12
QCE1NTAXG5,14/03/2022 13:57,14/03/2022 13:57,Utility Account to Organization Settlement Account,Completed,,-4300,0,TRUE,Utility Account to Organization Settlement Account,887674 - ANCIENT WELLS LTD 1,,
QCD1MZ4PQJ,13/03/2022 22:02,13/03/2022 22:02,Pay Bill from 254715939283 - alex nyamai Acc. v07,Completed,4300,,4300,TRUE,Pay Utility,254715939283 - alex nyamai,,v07
QCC4KDPAYW,12/03/2022 16:15,12/03/2022 16:15,Utility Account to Organization Settlement Account,Completed,,-7000,0,TRUE,Utility Account to Organization Settlement Account,887674 - ANCIENT WELLS LTD 1,,
QCC2JU7OAM,12/03/2022 11:32,12/03/2022 11:32,Pay Bill from 254706920646 - MIRIAM CHEPTOO Acc. V08,Completed,7000,,7000,TRUE,Pay Utility,254706920646 - MIRIAM CHEPTOO,,V08
QCC6JLQPM8,12/03/2022 09:24,12/03/2022 09:24,Utility Account to Organization Settlement Account,Completed,,-1500,0,TRUE,Utility Account to Organization Settlement Account,887674 - ANCIENT WELLS LTD 1,,
QCB7IHPU25,11/03/2022 17:00,11/03/2022 17:00,Pay Bill Online from 0725639425 - GEOFFREY ODOYO OMUNE Acc. V13,Completed,1500,,1500,TRUE,Pay Bill Online,0725639425 - GEOFFREY ODOYO OMUNE,,V13
QCB9HFJF7B,11/03/2022 06:53,11/03/2022 06:53,Utility Account to Organization Settlement Account,Completed,,-12300,0,TRUE,Utility Account to Organization Settlement Account,887674 - ANCIENT WELLS LTD 1,,
QCB1HF2SYF,11/03/2022 06:30,11/03/2022 06:30,Pay Bill from 0707032788 - CLIFF ONDIBA OMBASA Acc. v05,Completed,4000,,12300,TRUE,Pay Utility,0707032788 - CLIFF ONDIBA OMBASA,,v05
QCA6GOQTBU,10/03/2022 18:12,10/03/2022 18:12,Pay Bill from 254704186067 - CHRISTINE MUNANIE NYAMAI Acc. V07,Completed,1300,,8300,TRUE,Pay Utility with OD via STK,254704186067 - CHRISTINE MUNANIE NYAMAI,,V07
QCA9GBDEYB,10/03/2022 15:11,10/03/2022 15:11,Pay Bill from 254720230582 - SHADRACK KITAKA NGILA Acc. v01,Completed,7000,,7000,TRUE,Pay Utility,254720230582 - SHADRACK KITAKA NGILA,,v01
QCA0G5WXRW,10/03/2022 13:50,10/03/2022 13:50,Utility Account to Organization Settlement Account,Completed,,-57300,0,TRUE,Utility Account to Organization Settlement Account,887674 - ANCIENT WELLS LTD 1,,
QCA8FY395M,10/03/2022 11:55,10/03/2022 11:55,Pay Bill from 254758070694 - naomi ndinda nzamalu Acc. v28,Completed,6600,,57300,TRUE,Pay Utility,254758070694 - naomi ndinda nzamalu,,v28
QCA0FWAH4M,10/03/2022 11:28,10/03/2022 11:28,Pay Bill from 254712927291 - JACINTER ODUOR Acc. V25,Completed,7000,,50700,TRUE,Pay Utility,254712927291 - JACINTER ODUOR,,V25
QC99ET2F7H,09/03/2022 18:37,09/03/2022 18:37,Pay Bill Online from 0769929240 - Calvince Klein Alal Acc. v02,Completed,8000,,43700,TRUE,Pay Utility with OD Online,0769929240 - Calvince Klein Alal,,v02
QC92EMTPT8,09/03/2022 17:26,09/03/2022 17:26,Pay Bill Online from 254704995854 - james karanja wairimu Acc. V54,Completed,6600,,35700,TRUE,Pay Bill Online,254704995854 - james karanja wairimu,,V54
QC91EITG4F,09/03/2022 16:34,09/03/2022 16:34,Pay Bill Online from 0725639425 - GEOFFREY ODOYO OMUNE Acc. V13,Completed,1500,,29100,TRUE,Pay Bill Online,0725639425 - GEOFFREY ODOYO OMUNE,,V13
QC96ECMFPI,09/03/2022 15:03,09/03/2022 15:03,Pay Bill Online from 254718359438 - AHMAD TAHIR MACHENGO Acc. V11,Completed,6600,,27600,TRUE,Pay Bill Online,254718359438 - AHMAD TAHIR MACHENGO,,V11
QC91E1D7VP,09/03/2022 12:20,09/03/2022 12:20,Pay Bill from 254729806880 - Eunice Akinyi Were Acc. V33 ,Completed,7000,,21000,TRUE,Pay Utility,254729806880 - Eunice Akinyi Were,,V33
QC92DJXYK8,09/03/2022 07:30,09/03/2022 07:30,Pay Bill from 254707568664 - Ismael Kitsao Acc. v52,Completed,7000,,14000,TRUE,Pay Utility,254707568664 - Ismael Kitsao,,v52
QC93DH0VY3,09/03/2022 02:13,09/03/2022 02:13,Pay Bill from 254719701463 - MARY KANYI KIARIE Acc. v17,Completed,7000,,7000,TRUE,Pay Utility with OD via STK,254719701463 - MARY KANYI KIARIE,,v17
QC81CF6ANF,08/03/2022 15:18,08/03/2022 15:18,Utility Account to Organization Settlement Account,Completed,,-21100,0,TRUE,Utility Account to Organization Settlement Account,887674 - ANCIENT WELLS LTD 1,,
QC81CF0TEB,08/03/2022 15:16,08/03/2022 15:16,Pay Bill from 0702360376 - Bonface aganga nyamongo Acc. vk4,Completed,3500,,21100,TRUE,Pay Utility,0702360376 - Bonface aganga nyamongo,,vk4
QC88C5NX6Y,08/03/2022 13:01,08/03/2022 13:01,Pay Bill from 254712660519 - KELVIN MUTUNGA KATONYI Acc. V49,Completed,7000,,17600,TRUE,Pay Utility,254712660519 - KELVIN MUTUNGA KATONYI,,V49
QC87C3LAID,08/03/2022 12:31,08/03/2022 12:31,Pay Bill from 254703177381 - LAZARUS KASUNI Acc. v07,Completed,4000,,10600,TRUE,Pay Utility,254703177381 - LAZARUS KASUNI,,v07
QC89BU2FQ5,08/03/2022 10:08,08/03/2022 10:08,Pay Bill from 254720056285 - DAMARIS NDURU Acc. V18,Completed,6600,,6600,TRUE,Pay Utility,254720056285 - DAMARIS NDURU,,V18
QC89BQ9TSL,08/03/2022 09:08,08/03/2022 09:08,Utility Account to Organization Settlement Account,Completed,,-39700,0,TRUE,Utility Account to Organization Settlement Account,887674 - ANCIENT WELLS LTD 1,,
QC84BPUYRM,08/03/2022 09:01,08/03/2022 09:01,Pay Bill Online from 254706354035 - MOSES MUOKA Acc. V03,Completed,7000,,39700,TRUE,Pay Bill Online,254706354035 - MOSES MUOKA,,V03
QC82BJQPJC,08/03/2022 06:44,08/03/2022 06:44,Pay Bill from 254723389922 - ANNE WANJIKU NDUNGU Acc. v53,Completed,4000,,32700,TRUE,Pay Utility,254723389922 - ANNE WANJIKU NDUNGU,,v53
QC70B8CDMY,07/03/2022 20:36,07/03/2022 20:36,Pay Bill Online from 254758951969 - WILKISTER IRAKO HARAMBEE Acc. 37847739,Completed,3000,,28700,TRUE,Pay Utility with OD Online,254758951969 - WILKISTER IRAKO HARAMBEE,,37847739
QC76A74RRQ,07/03/2022 13:07,07/03/2022 13:07,Pay Bill from 254703108159 - JOICE OGOLLA Acc. V50,Completed,6600,,25700,TRUE,Pay Utility,254703108159 - JOICE OGOLLA,,V50
QC76A31YJO,07/03/2022 12:07,07/03/2022 12:07,Pay Bill from 254700904994 - HUSSEIN HASSAN LAMA Acc. V43,Completed,7000,,19100,TRUE,Pay Utility,254700904994 - HUSSEIN HASSAN LAMA,,V43
QC729ZJSZG,07/03/2022 11:16,07/03/2022 11:16,Pay Bill from 254700218502 - GRACE NGURE Acc. v46,Completed,6600,,12100,TRUE,Pay Utility,254700218502 - GRACE NGURE,,v46
QC749RBVJW,07/03/2022 09:09,07/03/2022 09:09,Pay Bill Online from 0725639425 - GEOFFREY ODOYO OMUNE Acc. V13,Completed,5500,,5500,TRUE,Pay Bill Online,0725639425 - GEOFFREY ODOYO OMUNE,,V13
QC759M2OWV,07/03/2022 07:28,07/03/2022 07:28,Utility Account to Organization Settlement Account,Completed,,-6600,0,TRUE,Utility Account to Organization Settlement Account,887674 - ANCIENT WELLS LTD 1,,
QC779K6YAN,07/03/2022 06:12,07/03/2022 06:12,Pay Bill Online from 254726465584 - JULIANA MUKELI MUTUNGA Acc. v4,Completed,6600,,6600,TRUE,Pay Bill Online,254726465584 - JULIANA MUKELI MUTUNGA,,v4
QC6789NBBF,06/03/2022 13:03,06/03/2022 13:03,Utility Account to Organization Settlement Account,Completed,,-24600,0,TRUE,Utility Account to Organization Settlement Account,887674 - ANCIENT WELLS LTD 1,,
QC537LUVM7,05/03/2022 22:49,05/03/2022 22:49,Pay Bill from 254722578070 - SAMUEL MACHARIA Acc. V42,Completed,7000,,24600,TRUE,Pay Utility,254722578070 - SAMUEL MACHARIA,,V42
QC597JNDGB,05/03/2022 22:00,05/03/2022 22:00,Pay Bill Online from 254758951969 - WILKISTER IRAKO HARAMBEE Acc. 37847739,Completed,4000,,17600,TRUE,Pay Utility with OD Online,254758951969 - WILKISTER IRAKO HARAMBEE,,37847739
QC557GMION,05/03/2022 21:14,05/03/2022 21:14,Pay Bill from 254718818610 - HANNAH NALIAKA Acc. v23,Completed,6600,,13600,TRUE,Pay Utility,254718818610 - HANNAH NALIAKA,,v23
QC527G94PQ,05/03/2022 21:09,05/03/2022 21:09,Pay Bill from 254701261592 - VICTOR MWILU Acc. v37,Completed,7000,,7000,TRUE,Pay Utility,254701261592 - VICTOR MWILU,,v37
QC596TTM9J,05/03/2022 17:21,05/03/2022 17:21,Utility Account to Organization Settlement Account,Completed,,-13600,0,TRUE,Utility Account to Organization Settlement Account,887674 - ANCIENT WELLS LTD 1,,
QC596MW1CB,05/03/2022 15:50,05/03/2022 15:50,Pay Bill from 254722282754 - HENRY SAHA Acc. V34,Completed,7000,,13600,TRUE,Pay Utility,254722282754 - HENRY SAHA,,V34
QC546EI5E2,05/03/2022 13:56,05/03/2022 13:56,Pay Bill from 254723815832 - SEMEKIA ONDIALA Acc. v38,Completed,6600,,6600,TRUE,Pay Utility,254723815832 - SEMEKIA ONDIALA,,v38
QC505VKK6I,05/03/2022 09:28,05/03/2022 09:28,Utility Account to Organization Settlement Account,Completed,,-17500,0,TRUE,Utility Account to Organization Settlement Account,887674 - ANCIENT WELLS LTD 1,,
QC474KV47L,04/03/2022 16:06,04/03/2022 16:06,Pay Bill from 0769858701 - DOLLARS DANIEL CIRHUZA Acc. V09,Completed,17500,,17500,TRUE,Pay Utility,0769858701 - DOLLARS DANIEL CIRHUZA,,V09
QC414C3UI9,04/03/2022 14:04,04/03/2022 14:04,Utility Account to Organization Settlement Account,Completed,,-6600,0,TRUE,Utility Account to Organization Settlement Account,887674 - ANCIENT WELLS LTD 1,,
QC4849U9CY,04/03/2022 13:33,04/03/2022 13:33,Pay Bill Online from 254705670064 - margaret wahu wachira Acc. v35,Completed,6600,,6600,TRUE,Pay Bill Online,254705670064 - margaret wahu wachira,,v35
QC4640NL5I,04/03/2022 11:22,04/03/2022 11:22,Utility Account to Organization Settlement Account,Completed,,-13600,0,TRUE,Utility Account to Organization Settlement Account,887674 - ANCIENT WELLS LTD 1,,
QC443W9C76,04/03/2022 10:18,04/03/2022 10:18,Pay Bill from 0758457508 - PETER KINGORI KAGUNDA Acc. V06,Completed,7000,,13600,TRUE,Pay Utility,0758457508 - PETER KINGORI KAGUNDA,,V06
QC382VQMZC,03/03/2022 18:39,03/03/2022 18:39,Pay Bill from 254713916352 - WINFRED KATUNGWA NDALA Acc. V30,Completed,6600,,6600,TRUE,Pay Utility,254713916352 - WINFRED KATUNGWA NDALA,,V30
QC382BND3Q,03/03/2022 14:19,03/03/2022 14:19,Utility Account to Organization Settlement Account,Completed,,-3000,0,TRUE,Utility Account to Organization Settlement Account,887674 - ANCIENT WELLS LTD 1,,
QC361T7IAG,03/03/2022 09:59,03/03/2022 09:59,Pay Bill Online from 254713498554 - HENRY KINYUA WARUI Acc. Henry V44,Completed,3000,,3000,TRUE,Pay Bill Online,254713498554 - HENRY KINYUA WARUI,,Henry
QC381K7SKM,03/03/2022 07:31,03/03/2022 07:31,Utility Account to Organization Settlement Account,Completed,,-6600,0,TRUE,Utility Account to Organization Settlement Account,887674 - ANCIENT WELLS LTD 1,,
QC26ZTBRGS,02/03/2022 18:46,02/03/2022 18:46,Pay Bill from 254712091662 - BENARD OMONDI ROBY Acc. V16,Completed,6600,,6600,TRUE,Pay Utility,254712091662 - BENARD OMONDI ROBY,,V16
QC24ZT1POU,02/03/2022 18:44,02/03/2022 18:44,Utility Account to Organization Settlement Account,Completed,,-13200,0,TRUE,Utility Account to Organization Settlement Account,887674 - ANCIENT WELLS LTD 1,,
QC24ZLD15O,02/03/2022 17:17,02/03/2022 17:17,Pay Bill from 254718417450 - HARON ASUMA OROKO Acc. haron v47 ,Completed,6600,,13200,TRUE,Pay Utility,254718417450 - HARON ASUMA OROKO,,haron
QC22Z07H8U,02/03/2022 12:20,02/03/2022 12:20,Pay Bill from 0717042461 - Sharon Nyangasi Shivachi Acc. V55,Completed,6600,,6600,TRUE,Pay Utility,0717042461 - Sharon Nyangasi Shivachi,,V55
QC25YU9GBP,02/03/2022 10:53,02/03/2022 10:53,Utility Account to Organization Settlement Account,Completed,,-13600,0,TRUE,Utility Account to Organization Settlement Account,887674 - ANCIENT WELLS LTD 1,,
QC21YPX1HL,02/03/2022 09:48,02/03/2022 09:48,Pay Bill from 254703690697 - CATHERINE MURAGE Acc. V21,Completed,7000,,13600,TRUE,Pay Utility,254703690697 - CATHERINE MURAGE,,V21
QC27YIQZC7,02/03/2022 07:45,02/03/2022 07:45,Pay Bill from 254727729395 - ROBERT OUKO OSORO Acc. V29,Completed,6600,,6600,TRUE,Pay Utility,254727729395 - ROBERT OUKO OSORO,,V29
QC24YFRLKM,02/03/2022 06:01,02/03/2022 06:01,Utility Account to Organization Settlement Account,Completed,,-20100,0,TRUE,Utility Account to Organization Settlement Account,887674 - ANCIENT WELLS LTD 1,,
QC14YD9HJM,01/03/2022 23:30,01/03/2022 23:30,Pay Bill from 254719658678 - KELVIN SOMBA MAUNDU Acc. vk6,Completed,3500,,20100,TRUE,Pay Utility,254719658678 - KELVIN SOMBA MAUNDU,,vk6
QC14Y8UI54,01/03/2022 21:37,01/03/2022 21:37,Pay Bill from 0707032788 - CLIFF ONDIBA OMBASA Acc. V05,Completed,3000,,16600,TRUE,Pay Utility,0707032788 - CLIFF ONDIBA OMBASA,,V05
QC15XRK1K9,01/03/2022 18:41,01/03/2022 18:41,Pay Bill from 254720623535 - JOSEPH MUTURI KAMAU Acc. V32,Completed,6600,,13600,TRUE,Pay Utility,254720623535 - JOSEPH MUTURI KAMAU,,V32
QC13XAZIPR,01/03/2022 15:13,01/03/2022 15:13,Pay Bill Online from 254702118125 - ROTICH BETHWEL Acc. V20,Completed,7000,,7000,TRUE,Pay Bill Online,254702118125 - ROTICH BETHWEL,,V20
