Receipt No.,Completion Time,Initiation Time,Details,Transaction Status,Paid In,Withdrawn,Balance,Balance Confirmed,Reason Type,Other Party Info,Linked Transaction ID,A/C No.
OB52UCWLBG,05/02/2020 09:40,05/02/2020 09:40,Pay Bill from 254717465142 - EPHANTUS IRURA Acc. C4 MURIITHI,Completed,8500,,105000,TRUE,Pay Utility,254717465142 - EPHANTUS IRURA,,C4
OB47U8FG03,04/02/2020 23:19,04/02/2020 23:19,Pay Bill from 254705445188 - SHEILA KIPKEMBOI Acc. SHEILA JEROTICH D5,Completed,8500,,96500,TRUE,Pay Utility,254705445188 - SHEILA KIPKEMBOI,,SHEILA
OB45U6GVTD,04/02/2020 21:26,04/02/2020 21:26,Pay Bill from 254705452947 - PURITY NJOKI CHAI Acc. purity c3,Completed,8000,,88000,TRUE,Pay Utility,254705452947 - PURITY NJOKI CHAI,,purity
OB42U34XOS,04/02/2020 19:58,04/02/2020 19:58,Pay Bill from 254711460336 - DAVID SILLA MUTUKU Acc. 903,Completed,8000,,80000,TRUE,Pay Utility,254711460336 - DAVID SILLA MUTUKU,,903
OB44U1YTJ6,04/02/2020 19:33,04/02/2020 19:33,Pay Bill from 254700745283 - WINFRED NYAMAI Acc. E5,Completed,8000,,72000,TRUE,Pay Utility,254700745283 - WINFRED NYAMAI,,E5
OB45TR4B7H,04/02/2020 14:26,04/02/2020 14:26,Pay Bill from 254720062144 - CAROLINE AMONDI OKELO Acc. F4,Completed,10000,,64000,TRUE,Pay Utility,254720062144 - CAROLINE AMONDI OKELO,,F4
OB49TJIVKR,04/02/2020 09:56,04/02/2020 09:56,Pay Bill from 254701230271 - SHEILA MUYUKA MMASI Acc. 301,Completed,13000,,54000,TRUE,Pay Utility,254701230271 - SHEILA MUYUKA MMASI,,301
OB45TFMJTL,04/02/2020 06:24,04/02/2020 06:24,Pay Bill from 254723155336 - REGINA AKHULUNYA LUTA Acc. Anita Room 502,Completed,13000,,41000,TRUE,Pay Utility,254723155336 - REGINA AKHULUNYA LUTA,,Anita
OB31T31MAB,03/02/2020 17:22,03/02/2020 17:22,Pay Bill from 254710269475 - SAMUEL M KIMANTHI Acc. Nicholas. Room302,Completed,13000,,28000,TRUE,Pay Utility with OD via STK,254710269475 - SAMUEL M KIMANTHI,,Nicholas.
OB34SZJMCI,03/02/2020 15:33,03/02/2020 15:33,Pay Bill from 254722395959 - THEOPHILUS MUSYOKA Acc. Theophilus wambua601,Completed,15000,,15000,TRUE,Pay Utility,254722395959 - THEOPHILUS MUSYOKA,,Theophilus
OB37SZ60F3,03/02/2020 15:20,03/02/2020 15:20,Utility Account to Organization Settlement Account,Completed,,-97500,0,TRUE,Utility Account to Organization Settlement Account,887075 - ANCIENT WELLS LTD 3,,
OB30SUO0QM,03/02/2020 12:45,03/02/2020 12:45,Pay Bill from 254701339690 - ASHA BAGANWA NDAHIRU Acc. F3,Completed,8000,,97500,TRUE,Pay Utility,254701339690 - ASHA BAGANWA NDAHIRU,,F3
OB28SKWUDA,02/02/2020 23:02,02/02/2020 23:02,Pay Bill from 254724395251 - ZENA ORWAYA Acc. 202,Completed,15000,,89500,TRUE,Pay Utility,254724395251 - ZENA ORWAYA,,202
OB28S0C4ZE,02/02/2020 11:25,02/02/2020 11:25,Pay Bill from 0741067845 - jullian ellside  lion davids Acc. Jullian Room A2,Completed,7500,,74500,TRUE,Pay Utility,0741067845 - jullian ellside  lion davids,,Jullian
OB28RZ6E56,02/02/2020 10:35,02/02/2020 10:35,Pay Bill from 254711877988 - PATRICK KONZI Acc. Patrick b4,Completed,8500,,67000,TRUE,Pay Utility,254711877988 - PATRICK KONZI,,Patrick
