Receipt No.,Completion Time,Initiation Time,Details,Transaction Status,Paid In,Withdrawn,Balance,Balance Confirmed,Reason Type,Other Party Info,Linked Transaction ID,A/C No.
RFS15U0WAJ,28/06/2023 09:43,28/06/2023 09:43,Utility Account to Organization Settlement Account,Completed,,-48500,0,TRUE,Utility Account to Organization Settlement Account,887075 - ANCIENT WELLS LTD 3,,
RFS35GUIZT,28/06/2023 06:06,28/06/2023 06:06,Pay Bill Online from 254713062617 - ISAAC KIPROTICH INCHERE Acc. F3,Completed,4000,,48500,TRUE,Pay Bill Online,254713062617 - ISAAC KIPROTICH INCHERE,,F3
RFR9392M4J,27/06/2023 11:54,27/06/2023 11:54,Pay Bill from 254704740197 - CECILIA NJERI GITHUI Acc. c3,Completed,8000,,44500,TRUE,Pay Utility,254704740197 - CECILIA NJERI GITHUI,,c3
RFQ720W9SV,26/06/2023 20:25,26/06/2023 20:25,Pay Bill from 0721436195 - KIPKOECH   CHARLES Acc. e2,Completed,8000,,36500,TRUE,Pay Utility,0721436195 - KIPKOECH   CHARLES,,e2
RFQ9ZTJPRJ,26/06/2023 14:52,26/06/2023 14:52,Pay Bill from 0798015497 - GODWIN OLUKWA AMBUGA Acc. C6,Completed,8500,,28500,TRUE,Pay Utility,0798015497 - GODWIN OLUKWA AMBUGA,,C6
RFQ2YL9AQM,26/06/2023 05:56,26/06/2023 05:56,Pay Bill Online from 254703176849 - ROYAL MUYA Acc. F2,Completed,16000,,20000,TRUE,Pay Bill Online,254703176849 - ROYAL MUYA,,F2
RFO8UJUHBQ,24/06/2023 16:30,24/06/2023 16:30,Pay Bill from 254713062617 - ISAAC KIPROTICH INCHERE Acc. F3,Completed,4000,,4000,TRUE,Pay Utility,254713062617 - ISAAC KIPROTICH INCHERE,,F3
RFN6R29WMO,23/06/2023 13:47,23/06/2023 13:47,Utility Account to Organization Settlement Account,Completed,,-33700,0,TRUE,Utility Account to Organization Settlement Account,887075 - ANCIENT WELLS LTD 3,,
RFN4QLI888,23/06/2023 10:53,23/06/2023 10:53,Pay Bill from 254720490298 - ERIC SIMIYU WAFULA Acc. A5,Completed,11000,,33700,TRUE,Pay Utility,254720490298 - ERIC SIMIYU WAFULA,,A5
RFK0JLTID0,20/06/2023 19:38,20/06/2023 19:38,Pay Bill from 254707801121 - JOHNSTONE MUTHUI MUTHAMI Acc. b4,Completed,8300,,22700,TRUE,Pay Utility,254707801121 - JOHNSTONE MUTHUI MUTHAMI,,b4
RFI3CI3HHV,18/06/2023 10:27,18/06/2023 10:27,Pay Bill from 0720571944 - Ronoh   Benard Acc. D2,Completed,8000,,14400,TRUE,Pay Utility,0720571944 - Ronoh   Benard,,D2
RFG4668EWI,16/06/2023 01:48,16/06/2023 01:48,Pay Bill Online from 254720062144 - CAROLINE AMONDI OKELO Acc. f4,Completed,6400,,6400,TRUE,Pay Utility with OD Online,254720062144 - CAROLINE AMONDI OKELO,,f4
RFF453HPJK,15/06/2023 17:56,15/06/2023 17:56,Utility Account to Organization Settlement Account,Completed,,-232100,0,TRUE,Utility Account to Organization Settlement Account,887075 - ANCIENT WELLS LTD 3,,
RFE02F7ILW,14/06/2023 18:32,14/06/2023 18:32,Pay Bill from 254714419834 - FAITH MWIKALI MUTHAMA Acc. D4,Completed,3500,,232100,TRUE,Pay Utility,254714419834 - FAITH MWIKALI MUTHAMA,,D4
RFE717BA5D,14/06/2023 11:27,14/06/2023 11:27,Pay Bill from 0748719970 - judith ndunge mwende Acc. E5,Completed,9900,,228600,TRUE,Pay Utility,0748719970 - judith ndunge mwende,,E5
RFD4ZFHMHI,13/06/2023 23:02,13/06/2023 23:02,Pay Bill Online from 0799912339 - PETER KAMAU MURIU Acc. c5,Completed,3500,,218700,TRUE,Pay Bill Online,0799912339 - PETER KAMAU MURIU,,c5
RFC0UHTXAQ,12/06/2023 11:10,12/06/2023 11:10,Pay Bill Online from 0799912339 - PETER KAMAU MURIU Acc. c5,Completed,5000,,215200,TRUE,Pay Bill Online,0799912339 - PETER KAMAU MURIU,,c5
RFB2S5TWXU,11/06/2023 13:50,11/06/2023 13:50,Pay Bill Online from 254720086214 - SAMUEL WANJIKU Acc. B3,Completed,8000,,210200,TRUE,Pay Utility with OD Online,254720086214 - SAMUEL WANJIKU,,B3
RFA5QMPBSX,10/06/2023 20:12,10/06/2023 20:12,Pay Bill from 254724018163 - IRENE MUENI WILLY Acc. A4,Completed,12000,,202200,TRUE,Pay Utility,254724018163 - IRENE MUENI WILLY,,A4
RFA6PW7SA4,10/06/2023 17:14,10/06/2023 17:14,Pay Bill from 254714597495 - WAMBUA KIOKO Acc. C1,Completed,8000,,190200,TRUE,Pay Utility,254714597495 - WAMBUA KIOKO,,C1
RFA7P9066L,10/06/2023 13:39,10/06/2023 13:39,Pay Bill from 0715030019 - Omwenga Ong'era Stephen Acc. E1,Completed,8000,,182200,TRUE,Pay Utility,0715030019 - Omwenga Ong'era Stephen,,E1
RFA8OZ4UB4,10/06/2023 12:02,10/06/2023 12:02,Pay Bill from 254727585857 - PETER MUOKI NGUNDO Acc. peter Ngundo e6 ,Completed,8500,,174200,TRUE,Pay Utility,254727585857 - PETER MUOKI NGUNDO,,peter
RF90MWVXMU,09/06/2023 17:26,09/06/2023 17:26,Pay Bill from 254714419834 - FAITH MWIKALI MUTHAMA Acc. d4,Completed,5000,,165700,TRUE,Pay Utility,254714419834 - FAITH MWIKALI MUTHAMA,,d4
RF99MFYLWZ,09/06/2023 14:52,09/06/2023 14:52,Pay Bill from 0791565463 - Lilian Njeri Wakagwi Acc. F6,Completed,8500,,160700,TRUE,Pay Utility,0791565463 - Lilian Njeri Wakagwi,,F6
RF94M5TN64,09/06/2023 13:14,09/06/2023 13:14,Pay Bill from 254715764093 - GICHANA GOVAN Acc. E3,Completed,8000,,152200,TRUE,Pay Utility,254715764093 - GICHANA GOVAN,,E3
RF71HB6MLJ,07/06/2023 19:01,07/06/2023 19:01,Pay Bill Online from 254720201157 - BENSON INYANJE MWAKHA Acc. b6,Completed,8500,,144200,TRUE,Pay Bill Online,254720201157 - BENSON INYANJE MWAKHA,,b6
RF70H95QGC,07/06/2023 18:48,07/06/2023 18:48,Pay Bill from 254708989835 - SUSAN NDUTA Acc. B2,Completed,8000,,135700,TRUE,Pay Utility,254708989835 - SUSAN NDUTA,,B2
RF79FNZOON,07/06/2023 09:44,07/06/2023 09:44,Pay Bill from 254710248036 - Allan Kimeu Mutua Acc. F5,Completed,8500,,127700,TRUE,Pay Utility,254710248036 - Allan Kimeu Mutua,,F5
RF70FGP2NE,07/06/2023 08:22,07/06/2023 08:22,Pay Bill from 0798015497 - GODWIN OLUKWA AMBUGA Acc. C6,Completed,4000,,119200,TRUE,Pay Utility,0798015497 - GODWIN OLUKWA AMBUGA,,C6
RF66EN70Z2,06/06/2023 19:56,06/06/2023 19:56,Pay Bill Online from 0740283700 - SERAH MUKULU MULILIA Acc. c4serahmukulu,Completed,8500,,115200,TRUE,Pay Bill Online,0740283700 - SERAH MUKULU MULILIA,,c4serahmukulu
RF59AE7UUN,05/06/2023 13:47,05/06/2023 13:47,Pay Bill Online from 254720062144 - CAROLINE AMONDI OKELO Acc. f4,Completed,6700,,106700,TRUE,Pay Utility with OD Online,254720062144 - CAROLINE AMONDI OKELO,,f4
RF529DKRUS,05/06/2023 07:04,05/06/2023 07:04,Pay Bill Online from 254715020357 - ELIZABETH NJERI WARARI Acc. C2,Completed,7500,,100000,TRUE,Pay Bill Online,254715020357 - ELIZABETH NJERI WARARI,,C2
RF4390JG9F,04/06/2023 21:20,04/06/2023 21:20,Pay Bill from 254726945691 - JAMES RAMTU Acc. B5,Completed,8500,,92500,TRUE,Pay Utility,254726945691 - JAMES RAMTU,,B5
RF418TUJ87,04/06/2023 20:19,04/06/2023 20:19,Pay Bill from 0768386417 - PAUL MUTUNE MUSYOKA Acc. D6,Completed,8500,,84000,TRUE,Pay Utility,0768386417 - PAUL MUTUNE MUSYOKA,,D6
RF408QFV6E,04/06/2023 19:53,04/06/2023 19:53,Pay Bill from 254720305972 - JACKSON MUSAU Acc. E5,Completed,2000,,75500,TRUE,Pay Utility,254720305972 - JACKSON MUSAU,,E5
RF4274B7RQ,04/06/2023 10:44,04/06/2023 10:44,Pay Bill from 254791341895 - Enos Nyaosi Ayuma Acc. D5,Completed,8500,,73500,TRUE,Pay Utility,254791341895 - Enos Nyaosi Ayuma,,D5
RF375I4C6H,03/06/2023 18:09,03/06/2023 18:09,Pay Bill from 0758877993 - VIRGINIA MBATHA MUTINDA Acc. G1,Completed,8000,,65000,TRUE,Pay Utility,0758877993 - VIRGINIA MBATHA MUTINDA,,G1
RF363XKVEA,03/06/2023 09:23,03/06/2023 09:23,Pay Bill from 0748719970 - judith ndunge mwende Acc. E5,Completed,6500,,57000,TRUE,Pay Utility with OD via STK,0748719970 - judith ndunge mwende,,E5
RF262CPGMO,02/06/2023 17:38,02/06/2023 17:38,Pay Bill from 254792281122 - MWENDWA MUTUNGA Acc. B1,Completed,10000,,50500,TRUE,Pay Utility,254792281122 - MWENDWA MUTUNGA,,B1
RF12ZB6PKU,01/06/2023 21:36,01/06/2023 21:36,Pay Bill from 0111653037 - STEPHEN MUKABANA MAYABI Acc. A1,Completed,7500,,40500,TRUE,Pay Utility,0111653037 - STEPHEN MUKABANA MAYABI,,A1
RF19YEQTJR,01/06/2023 17:37,01/06/2023 17:37,Pay Bill from 0719349205 - Christabel Gakii Munene Acc. D1,Completed,8000,,33000,TRUE,Pay Utility,0719349205 - Christabel Gakii Munene,,D1
RF13WWK6PN,01/06/2023 08:26,01/06/2023 08:26,Pay Bill from 0748956967 - Selvin Mukami Wanjiru Acc. E4,Completed,8500,,25000,TRUE,Pay Utility,0748956967 - Selvin Mukami Wanjiru,,E4
