Receipt No.,Completion Time,Initiation Time,Details,Transaction Status,Paid In,Withdrawn,Balance,Balance Confirmed,Reason Type,Other Party Info,Linked Transaction ID,A/C No.
SA699NW375,06/01/2024 16:52,06/01/2024 16:52,Pay Bill from 070728***361 - JOSEPHIN *** Acc. HGD,Completed,9000,,52000,TRUE,Pay Utility,070728***361 - JOSEPHIN ***,,HGD
SA608VJ6PQ,06/01/2024 12:59,06/01/2024 12:59,Pay Bill Online from 075769***775 - BENARD *** Acc. HCB,Completed,16000,,43000,TRUE,Pay Bill Online,075769***775 - BENARD ***,,HCB
SA638REVRB,06/01/2024 12:23,06/01/2024 12:23,Pay Bill Online from 254710***215 - JOAN *** Acc. ifb,Completed,15000,,27000,TRUE,Pay Bill Online,254710***215 - JOAN ***,,ifb
SA678P6OUT,06/01/2024 12:03,06/01/2024 12:03,Pay Bill from 079009***091 - Daisy *** Acc. KFI,Completed,12000,,12000,TRUE,Pay Utility,079009***091 - Daisy ***,,KFI
SA688OKCTK,06/01/2024 11:58,06/01/2024 11:58,Utility Account to Organization Settlement Account,Completed,,-58000,0,TRUE,Utility Account to Organization Settlement Account,979524 - ANCIENT WELLS PROPERTY MANAGERS 2,,
SA678NTMCD,06/01/2024 11:51,06/01/2024 11:51,Pay Bill Online from 254703***159 - Enock *** Acc. KAE,Completed,10000,,58000,TRUE,Pay Bill Online,254703***159 - Enock ***,,KAE
SA6387VAVL,06/01/2024 09:24,06/01/2024 09:24,Pay Bill from 254719***910 - KEVIN *** Acc. Idd,Completed,11000,,48000,TRUE,Pay Utility,254719***910 - KEVIN ***,,Idd
SA62868P82,06/01/2024 09:07,06/01/2024 09:07,Pay Bill from 254702***907 - FAITH *** Acc. kbe,Completed,10000,,37000,TRUE,Pay Utility,254702***907 - FAITH ***,,kbe
SA6484V5TC,06/01/2024 08:52,06/01/2024 08:52,Pay Bill Online from 254722***078 - MAUREEN *** Acc. DCD,Completed,6000,,27000,TRUE,Pay Bill Online,254722***078 - MAUREEN ***,,DCD
SA6384UD8F,06/01/2024 08:52,06/01/2024 08:52,Pay Bill Online from 254720***253 - JIMMY *** Acc. KBD,Completed,1000,,21000,TRUE,Pay Utility with OD Online,254720***253 - JIMMY ***,,KBD
SA6482H5HA,06/01/2024 08:26,06/01/2024 08:26,Pay Bill from 011066***258 - lucky *** Acc. JAA,Completed,20000,,20000,TRUE,Pay Utility,011066***258 - lucky ***,,JAA
SA6680WODY,06/01/2024 08:07,06/01/2024 08:07,Utility Account to Organization Settlement Account,Completed,,-263000,0,TRUE,Utility Account to Organization Settlement Account,979524 - ANCIENT WELLS PROPERTY MANAGERS 2,,
SA627TPJFC,06/01/2024 04:03,06/01/2024 04:03,Pay Bill Online from 254720***253 - JIMMY *** Acc. KBD,Completed,1000,,263000,TRUE,Pay Utility with OD Online,254720***253 - JIMMY ***,,KBD
SA587QND1S,05/01/2024 23:56,05/01/2024 23:56,Pay Bill Online from 254714***486 - BRIAN *** Acc. KBJ,Completed,16000,,262000,TRUE,Pay Bill Online,254714***486 - BRIAN ***,,KBJ
SA567PXW36,05/01/2024 23:34,05/01/2024 23:34,Pay Bill Online from 254721***178 - PHANICE *** Acc. FBF,Completed,16000,,246000,TRUE,Pay Bill Online,254721***178 - PHANICE ***,,FBF
SA517OT6TL,05/01/2024 23:05,05/01/2024 23:05,Pay Bill from 075705***882 - FAITH *** Acc. HDF ,Completed,9000,,230000,TRUE,Pay Utility,075705***882 - FAITH ***,,HDF
SA577NV8UX,05/01/2024 22:45,05/01/2024 22:45,Pay Bill Online from 254715***656 - DENNIS *** Acc. kfa,Completed,6000,,221000,TRUE,Pay Bill Online,254715***656 - DENNIS ***,,kfa
SA527LTKMI,05/01/2024 22:14,05/01/2024 22:14,Pay Bill Online from 254706***834 - WILKISTER *** Acc. HGH,Completed,15000,,215000,TRUE,Pay Bill Online,254706***834 - WILKISTER ***,,HGH
SA557KZ7NX,05/01/2024 22:04,05/01/2024 22:04,Pay Bill from 254716***682 - JUSTINE *** Acc. HAA,Completed,17000,,200000,TRUE,Pay Utility,254716***682 - JUSTINE ***,,HAA
SA557IMVLB,05/01/2024 21:39,05/01/2024 21:39,Pay Bill from 254708***464 - MERCY *** Acc. IBB,Completed,16000,,183000,TRUE,Pay Utility,254708***464 - MERCY ***,,IBB
SA517BWD85,05/01/2024 20:42,05/01/2024 20:42,Pay Bill from 254722***028 - CHARLES *** Acc. JDA,Completed,20000,,167000,TRUE,Pay Utility,254722***028 - CHARLES ***,,JDA
SA507AQZF2,05/01/2024 20:33,05/01/2024 20:33,Pay Bill from 071568***238 - JOANNAH *** Acc. FFA,Completed,15000,,147000,TRUE,Pay Utility,071568***238 - JOANNAH ***,,FFA
SA5275F80M,05/01/2024 19:57,05/01/2024 19:57,Pay Bill Online from 254715***656 - DENNIS *** Acc. kfa,Completed,7000,,132000,TRUE,Pay Bill Online,254715***656 - DENNIS ***,,kfa
SA5672UFES,05/01/2024 19:42,05/01/2024 19:42,Pay Bill Online from 254723***628 - CLINTON *** Acc. hfh,Completed,16000,,125000,TRUE,Pay Bill Online,254723***628 - CLINTON ***,,hfh
SA526ZCW0C,05/01/2024 19:22,05/01/2024 19:22,Pay Bill from 254712***818 - OYUGI *** Acc. FCB,Completed,16000,,109000,TRUE,Pay Utility,254712***818 - OYUGI ***,,FCB
SA576W7XB3,05/01/2024 19:04,05/01/2024 19:04,Pay Bill from 254700***550 - BENARD *** Acc. DBB,Completed,16000,,93000,TRUE,Pay Utility,254700***550 - BENARD ***,,DBB
SA536SXEQV,05/01/2024 18:44,05/01/2024 18:44,Pay Bill from 254708***373 - MUNINI *** Acc. IEB,Completed,15000,,77000,TRUE,Pay Utility,254708***373 - MUNINI ***,,IEB
SA516PY62N,05/01/2024 18:25,05/01/2024 18:25,Pay Bill from 254714***761 - MARTIN *** Acc. KDI,Completed,11000,,62000,TRUE,Pay Utility,254714***761 - MARTIN ***,,KDI
SA576OFSS1,05/01/2024 18:14,05/01/2024 18:14,Pay Bill from 254757***090 - Laureen *** Acc. KCJ,Completed,16000,,51000,TRUE,Pay Utility,254757***090 - Laureen ***,,KCJ
SA516L53AB,05/01/2024 17:51,05/01/2024 17:51,Pay Bill Online from 254711***716 - RODGERS *** Acc. IGC,Completed,9000,,35000,TRUE,Pay Bill Online,254711***716 - RODGERS ***,,IGC
SA596E2TIF,05/01/2024 16:57,05/01/2024 16:57,Pay Bill from 076841***584 - Faith *** Acc. IDF,Completed,11000,,26000,TRUE,Pay Utility,076841***584 - Faith ***,,IDF
SA576AQNED,05/01/2024 16:31,05/01/2024 16:31,Pay Bill from 070115***700 - Anabel *** Acc. Jdj,Completed,15000,,15000,TRUE,Pay Utility,070115***700 - Anabel ***,,Jdj
SA5569H1FH,05/01/2024 16:21,05/01/2024 16:21,Utility Account to Organization Settlement Account,Completed,,-58500,0,TRUE,Utility Account to Organization Settlement Account,979524 - ANCIENT WELLS PROPERTY MANAGERS 2,,
SA5067EWRY,05/01/2024 16:04,05/01/2024 16:04,Pay Bill Online from 254714***668 - ZACHARY *** Acc. JAD,Completed,16000,,58500,TRUE,Pay Bill Online,254714***668 - ZACHARY ***,,JAD
SA595QVWQ9,05/01/2024 13:43,05/01/2024 13:43,Pay Bill from 254710***394 - LUCY *** Acc. KBG,Completed,1000,,42500,TRUE,Pay Utility,254710***394 - LUCY ***,,KBG
SA545HPTQ2,05/01/2024 12:23,05/01/2024 12:23,Pay Bill from 254112***958 - Nicholas *** Acc. JDE,Completed,9500,,41500,TRUE,Pay Utility,254112***958 - Nicholas ***,,JDE
SA525C7H6K,05/01/2024 11:34,05/01/2024 11:34,Pay Bill Online from 254708***223 - DENNIS *** Acc. DCA,Completed,16000,,32000,TRUE,Pay Bill Online,254708***223 - DENNIS ***,,DCA
SA585BTUSK,05/01/2024 11:31,05/01/2024 11:31,Pay Bill Online from 254725***080 - DENNIS *** Acc. HDH,Completed,16000,,16000,TRUE,Pay Utility with OD Online,254725***080 - DENNIS ***,,HDH
SA5559NP4T,05/01/2024 11:12,05/01/2024 11:12,Utility Account to Organization Settlement Account,Completed,,-58000,0,TRUE,Utility Account to Organization Settlement Account,979524 - ANCIENT WELLS PROPERTY MANAGERS 2,,
SA5057QQYM,05/01/2024 10:55,05/01/2024 10:55,Pay Bill from 254703***744 - Esther *** Acc. KEF,Completed,10000,,58000,TRUE,Pay Utility,254703***744 - Esther ***,,KEF
SA5955JXZ7,05/01/2024 10:35,05/01/2024 10:35,Pay Bill from 254719***942 - NORAH *** Acc. KDA,Completed,16000,,48000,TRUE,Pay Utility,254719***942 - NORAH ***,,KDA
SA5453OHIC,05/01/2024 10:18,05/01/2024 10:18,Pay Bill Online from 254702***515 - ELIZABETH *** Acc. ICH,Completed,16000,,32000,TRUE,Pay Bill Online,254702***515 - ELIZABETH ***,,ICH
SA5951T3FL,05/01/2024 10:01,05/01/2024 10:01,Pay Bill from 254796***018 - PEACE *** Acc. JAH,Completed,16000,,16000,TRUE,Pay Utility,254796***018 - PEACE ***,,JAH
SA524Z1Z84,05/01/2024 09:34,05/01/2024 09:34,Utility Account to Organization Settlement Account,Completed,,-167900,0,TRUE,Utility Account to Organization Settlement Account,979524 - ANCIENT WELLS PROPERTY MANAGERS 2,,
SA564SEGUO,05/01/2024 08:26,05/01/2024 08:26,Pay Bill Online from 254728***908 - Teddy *** Acc. DDD,Completed,15900,,167900,TRUE,Pay Utility with OD Online,254728***908 - Teddy ***,,DDD
SA514QWMEX,05/01/2024 08:08,05/01/2024 08:08,Pay Bill Online from 254721***995 - BERNICE *** Acc. KFK,Completed,16000,,152000,TRUE,Pay Bill Online,254721***995 - BERNICE ***,,KFK
SA554GT9HF,05/01/2024 00:20,05/01/2024 00:20,Pay Bill from 254722***235 - AHMED *** Acc. IGD,Completed,10000,,136000,TRUE,Pay Utility with OD via STK,254722***235 - AHMED ***,,IGD
SA4243VVWG,04/01/2024 21:00,04/01/2024 21:00,Pay Bill from 074337***291 - Ann *** Acc. KAD,Completed,11000,,126000,TRUE,Pay Utility,074337***291 - Ann ***,,KAD
SA4243IVTC,04/01/2024 20:57,04/01/2024 20:57,Pay Bill Online from 254721***713 - RHODA *** Acc. Jfh,Completed,17000,,115000,TRUE,Pay Bill Online,254721***713 - RHODA ***,,Jfh
SA4441U5SG,04/01/2024 20:44,04/01/2024 20:44,Pay Bill Online from 254719***219 - PHILIP *** Acc. JDH,Completed,20000,,98000,TRUE,Pay Utility with OD Online,254719***219 - PHILIP ***,,JDH
SA443X7GU0,04/01/2024 20:12,04/01/2024 20:12,Pay Bill from 254714***203 - PATRICK *** Acc. KEI,Completed,12000,,78000,TRUE,Pay Utility,254714***203 - PATRICK ***,,KEI
SA423C1FYW,04/01/2024 18:02,04/01/2024 18:02,Pay Bill from 254724***503 - GEOFREY *** Acc. JFF,Completed,10000,,66000,TRUE,Pay Utility,254724***503 - GEOFREY ***,,JFF
SA4839Z1ZA,04/01/2024 17:48,04/01/2024 17:48,Pay Bill from 254728***256 - NICHOLAS *** Acc. HAD,Completed,10000,,56000,TRUE,Pay Utility,254728***256 - NICHOLAS ***,,HAD
SA4737Z07P,04/01/2024 17:34,04/01/2024 17:34,Pay Bill Online from 254723***331 - DALLIAS *** Acc. HBB,Completed,3000,,46000,TRUE,Pay Bill Online,254723***331 - DALLIAS ***,,HBB
SA44369YCK,04/01/2024 17:21,04/01/2024 17:21,Pay Bill from 254703***626 - DAVID *** Acc. FCD,Completed,1000,,43000,TRUE,Pay Utility with OD via STK,254703***626 - DAVID ***,,FCD
SA432X576F,04/01/2024 16:06,04/01/2024 16:06,Pay Bill from 254724***849 - Ann *** Acc. HDA,Completed,16000,,42000,TRUE,Pay Utility,254724***849 - Ann ***,,HDA
SA442QF6RS,04/01/2024 15:06,04/01/2024 15:06,Pay Bill from 074548***142 - Daisy *** Acc. FGE,Completed,15000,,26000,TRUE,Pay Utility,074548***142 - Daisy ***,,FGE
SA492L5TRZ,04/01/2024 14:19,04/01/2024 14:19,Pay Bill from 071451***575 - IAN *** Acc. IBD,Completed,11000,,11000,TRUE,Pay Utility,071451***575 - IAN ***,,IBD
SA432JT12P,04/01/2024 14:07,04/01/2024 14:07,Utility Account to Organization Settlement Account,Completed,,-17000,0,TRUE,Utility Account to Organization Settlement Account,979524 - ANCIENT WELLS PROPERTY MANAGERS 2,,
SA442FRL5O,04/01/2024 13:31,04/01/2024 13:31,Pay Bill from 254743***477 - FAITH *** Acc. IGE,Completed,1000,,17000,TRUE,Pay Utility,254743***477 - FAITH ***,,IGE
SA482D21CI,04/01/2024 13:07,04/01/2024 13:07,Pay Bill Online from 254716***144 - PETER *** Acc. FBB,Completed,16000,,16000,TRUE,Pay Bill Online,254716***144 - PETER ***,,FBB
SA412BPJYF,04/01/2024 12:55,04/01/2024 12:55,Utility Account to Organization Settlement Account,Completed,,-37000,0,TRUE,Utility Account to Organization Settlement Account,979524 - ANCIENT WELLS PROPERTY MANAGERS 2,,
SA462A7VJW,04/01/2024 12:42,04/01/2024 12:42,Pay Bill Online from 011497***420 - WENDY *** Acc. FFC,Completed,9000,,37000,TRUE,Pay Bill Online,011497***420 - WENDY ***,,FFC
SA4429P4WW,04/01/2024 12:37,04/01/2024 12:37,Pay Bill from 254740***741 - MUHINDI *** Acc. HGG,Completed,10000,,28000,TRUE,Pay Utility,254740***741 - MUHINDI ***,,HGG
SA471VIK57,04/01/2024 10:26,04/01/2024 10:26,Pay Bill from 254743***477 - FAITH *** Acc. IGE,Completed,18000,,18000,TRUE,Pay Utility,254743***477 - FAITH ***,,IGE
SA491R41XN,04/01/2024 09:43,04/01/2024 09:43,Utility Account to Organization Settlement Account,Completed,,-223500,0,TRUE,Utility Account to Organization Settlement Account,979524 - ANCIENT WELLS PROPERTY MANAGERS 2,,
SA431LZICL,04/01/2024 08:50,04/01/2024 08:50,Pay Bill from 254799***755 - CAROLINE *** Acc. IEF,Completed,15000,,223500,TRUE,Pay Utility,254799***755 - CAROLINE ***,,IEF
SA451LCSM1,04/01/2024 08:43,04/01/2024 08:43,Pay Bill Online from 254729***700 - MICAH *** Acc. HFE,Completed,10500,,208500,TRUE,Pay Bill Online,254729***700 - MICAH ***,,HFE
SA441IM1WK,04/01/2024 08:12,04/01/2024 08:12,Pay Bill from 254720***119 - LINDAH *** Acc. kfe,Completed,9500,,198000,TRUE,Pay Utility,254720***119 - LINDAH ***,,kfe
SA481C2E5O,04/01/2024 06:09,04/01/2024 06:09,Pay Bill from 254723***911 - JAMES *** Acc. ICG,Completed,9500,,188500,TRUE,Pay Utility,254723***911 - JAMES ***,,ICG
SA4119D689,04/01/2024 01:38,04/01/2024 01:38,Pay Bill Online from 254702***678 - JOHN *** Acc. DEB,Completed,16000,,179000,TRUE,Pay Bill Online,254702***678 - JOHN ***,,DEB
SA3017FSLS,03/01/2024 23:46,03/01/2024 23:46,Pay Bill Online from 254720***253 - JIMMY *** Acc. KBD,Completed,2000,,163000,TRUE,Pay Utility with OD Online,254720***253 - JIMMY ***,,KBD
SA3113FHJ1,03/01/2024 22:21,03/01/2024 22:21,Pay Bill from 254711***196 - JUDITH *** Acc. FEA,Completed,16000,,161000,TRUE,Pay Utility,254711***196 - JUDITH ***,,FEA
SA3810Z0TS,03/01/2024 21:51,03/01/2024 21:51,Pay Bill from 254725***550 - FRANKLINE *** Acc. KAF,Completed,10000,,145000,TRUE,Pay Utility,254725***550 - FRANKLINE ***,,KAF
SA31ZU2X6F,03/01/2024 20:50,03/01/2024 20:50,Pay Bill Online from 072225***105 - SALIM *** Acc. FGF,Completed,16000,,135000,TRUE,Pay Utility with OD Online,072225***105 - SALIM ***,,FGF
SA32Z4U0IU,03/01/2024 18:10,03/01/2024 18:10,Pay Bill Online from 254726***792 - PHILIP *** Acc. JEI,Completed,20000,,119000,TRUE,Pay Bill Online,254726***792 - PHILIP ***,,JEI
SA37YXOXP3,03/01/2024 17:18,03/01/2024 17:18,Pay Bill from 074805***595 - Rashid *** Acc. DDA,Completed,15000,,99000,TRUE,Pay Utility,074805***595 - Rashid ***,,DDA
SA37YX25KX,03/01/2024 17:13,03/01/2024 17:13,Pay Bill from 254725***537 - PATRICK *** Acc. KEH,Completed,5000,,84000,TRUE,Pay Utility,254725***537 - PATRICK ***,,KEH
SA35YR99WT,03/01/2024 16:25,03/01/2024 16:25,Pay Bill Online from 254718***980 - KAREN *** Acc. HEC,Completed,10500,,79000,TRUE,Pay Bill Online,254718***980 - KAREN ***,,HEC
SA32YNZOD8,03/01/2024 15:56,03/01/2024 15:56,Pay Bill from 075760***316 - MOHAMED *** Acc. FCA,Completed,6000,,68500,TRUE,Pay Utility,075760***316 - MOHAMED ***,,FCA
SA39YL7O7L,03/01/2024 15:31,03/01/2024 15:31,Pay Bill Online from 254742***558 - PEACEMARY *** Acc. JBC,Completed,11000,,62500,TRUE,Pay Bill Online,254742***558 - PEACEMARY ***,,JBC
SA38YHGA2E,03/01/2024 14:57,03/01/2024 14:57,Pay Bill Online from 254711***729 - DAVID *** Acc. HFA,Completed,16000,,51500,TRUE,Pay Bill Online,254711***729 - DAVID ***,,HFA
SA34YFON8A,03/01/2024 14:41,03/01/2024 14:41,Pay Bill from 254715***045 - FRIDAH *** Acc. HGC,Completed,9500,,35500,TRUE,Pay Utility,254715***045 - FRIDAH ***,,HGC
SA33Y0338F,03/01/2024 12:21,03/01/2024 12:21,Pay Bill Online from 254706***046 - STACY *** Acc. KGK,Completed,15000,,26000,TRUE,Pay Bill Online,254706***046 - STACY ***,,KGK
SA34XZ6K2S,03/01/2024 12:13,03/01/2024 12:13,Pay Bill from 254745***401 - mirriam *** Acc. kci,Completed,11000,,11000,TRUE,Pay Utility,254745***401 - mirriam ***,,kci
SA33XTTY8F,03/01/2024 11:23,03/01/2024 11:23,Utility Account to Organization Settlement Account,Completed,,-28000,0,TRUE,Utility Account to Organization Settlement Account,979524 - ANCIENT WELLS PROPERTY MANAGERS 2,,
SA38XP34G2,03/01/2024 10:40,03/01/2024 10:40,Pay Bill from 254702***404 - VALENTINE *** Acc. IDH,Completed,6000,,28000,TRUE,Pay Utility,254702***404 - VALENTINE ***,,IDH
SA38XOXHOC,03/01/2024 10:38,03/01/2024 10:38,Pay Bill from 254710***394 - LUCY *** Acc. KBG,Completed,6000,,22000,TRUE,Pay Utility,254710***394 - LUCY ***,,KBG
SA37XNYC3R,03/01/2024 10:29,03/01/2024 10:29,Pay Bill from 254712***871 - PAULA *** Acc. hea ,Completed,16000,,16000,TRUE,Pay Utility,254712***871 - PAULA ***,,hea
SA31XNVEFP,03/01/2024 10:28,03/01/2024 10:28,Utility Account to Organization Settlement Account,Completed,,-8000,0,TRUE,Utility Account to Organization Settlement Account,979524 - ANCIENT WELLS PROPERTY MANAGERS 2,,
SA31XJSGN7,03/01/2024 09:48,03/01/2024 09:48,Pay Bill from 011532***960 - JOSEPH *** Acc. IBG,Completed,8000,,8000,TRUE,Pay Utility,011532***960 - JOSEPH ***,,IBG
SA31X9W8Q3,03/01/2024 07:59,03/01/2024 07:59,Utility Account to Organization Settlement Account,Completed,,-10000,0,TRUE,Utility Account to Organization Settlement Account,979524 - ANCIENT WELLS PROPERTY MANAGERS 2,,
SA30X8PU7W,03/01/2024 07:42,03/01/2024 07:42,Pay Bill from 254710***630 - DONNA *** Acc. KCC,Completed,10000,,10000,TRUE,Pay Utility,254710***630 - DONNA ***,,KCC
SA22WUJIBC,02/01/2024 21:58,02/01/2024 21:58,Utility Account to Organization Settlement Account,Completed,,-165300,0,TRUE,Utility Account to Organization Settlement Account,979524 - ANCIENT WELLS PROPERTY MANAGERS 2,,
SA26WTKE4M,02/01/2024 21:47,02/01/2024 21:47,Pay Bill from 254722***622 - CHARITY *** Acc. ffd,Completed,11000,,165300,TRUE,Pay Utility,254722***622 - CHARITY ***,,ffd
SA23WT2UZ5,02/01/2024 21:41,02/01/2024 21:41,Pay Bill Online from 254718***397 - JIMMY *** Acc. DCB,Completed,16000,,154300,TRUE,Pay Bill Online,254718***397 - JIMMY ***,,DCB
SA25WRX0PN,02/01/2024 21:29,02/01/2024 21:29,Pay Bill Online from 254715***212 - BANCE *** Acc. JFE,Completed,8000,,138300,TRUE,Pay Bill Online,254715***212 - BANCE ***,,JFE
SA26WADHUY,02/01/2024 19:22,02/01/2024 19:22,Pay Bill from 072438***624 - FATUMA *** Acc. FAB,Completed,16000,,130300,TRUE,Pay Utility,072438***624 - FATUMA ***,,FAB
SA29W47RPJ,02/01/2024 18:45,02/01/2024 18:45,Pay Bill from 254706***081 - FATUMA *** Acc. HED,Completed,9000,,114300,TRUE,Pay Utility,254706***081 - FATUMA ***,,HED
SA28VO5LSE,02/01/2024 16:43,02/01/2024 16:43,Pay Bill from 254701***476 - mary *** Acc. DAA,Completed,13000,,105300,TRUE,Pay Utility,254701***476 - mary ***,,DAA
SA29VNX5WZ,02/01/2024 16:41,02/01/2024 16:41,Pay Bill from 254718***655 - Victor *** Acc. DAA,Completed,20000,,92300,TRUE,Pay Utility,254718***655 - Victor ***,,DAA
SA28VKQKUQ,02/01/2024 16:12,02/01/2024 16:12,Pay Bill from 074130***410 - STEVEKEVIN *** Acc. IAC,Completed,9000,,72300,TRUE,Pay Utility,074130***410 - STEVEKEVIN ***,,IAC
SA20VIOGFG,02/01/2024 15:53,02/01/2024 15:53,Pay Bill from 254717***212 - PATRICK *** Acc. kce,Completed,20000,,63300,TRUE,Pay Utility,254717***212 - PATRICK ***,,kce
SA27VHCNT5,02/01/2024 15:41,02/01/2024 15:41,Pay Bill from 254717***212 - PATRICK *** Acc. kce,Completed,2300,,43300,TRUE,Pay Utility,254717***212 - PATRICK ***,,kce
SA27VFDA9T,02/01/2024 15:23,02/01/2024 15:23,Pay Bill from 070656***358 - HARRIET *** Acc. HBA,Completed,16000,,41000,TRUE,Pay Utility,070656***358 - HARRIET ***,,HBA
SA22VBTBEG,02/01/2024 14:50,02/01/2024 14:50,Pay Bill from 254792***128 - Edwin *** Acc. HBF,Completed,9000,,25000,TRUE,Pay Utility,254792***128 - Edwin ***,,HBF
SA26VA20P8,02/01/2024 14:33,02/01/2024 14:33,Pay Bill from 254726***835 - LAWRENCE *** Acc. KDJ,Completed,16000,,16000,TRUE,Pay Utility,254726***835 - LAWRENCE ***,,KDJ
SA27V86GKL,02/01/2024 14:15,02/01/2024 14:15,Utility Account to Organization Settlement Account,Completed,,-96000,0,TRUE,Utility Account to Organization Settlement Account,979524 - ANCIENT WELLS PROPERTY MANAGERS 2,,
SA22V5UETI,02/01/2024 13:54,02/01/2024 13:54,Pay Bill Online from 254700***806 - WINNIE *** Acc. JEC,Completed,10000,,96000,TRUE,Pay Bill Online,254700***806 - WINNIE ***,,JEC
SA25UYWNR9,02/01/2024 12:50,02/01/2024 12:50,Pay Bill Online from 071160***780 - gift *** Acc. DEA,Completed,16000,,86000,TRUE,Pay Bill Online,071160***780 - gift ***,,DEA
SA20UTN2XS,02/01/2024 11:59,02/01/2024 11:59,Pay Bill from 254722***705 - ERIC *** Acc. FCF,Completed,16000,,70000,TRUE,Pay Utility,254722***705 - ERIC ***,,FCF
SA20UTJH0K,02/01/2024 11:58,02/01/2024 11:58,Pay Bill from 254791***823 - rachel *** Acc. JEG,Completed,9000,,54000,TRUE,Pay Utility,254791***823 - rachel ***,,JEG
SA28UQILGW,02/01/2024 11:28,02/01/2024 11:28,Pay Bill from 254748***063 - NELLY *** Acc. KCK,Completed,15000,,45000,TRUE,Pay Utility,254748***063 - NELLY ***,,KCK
SA23UKOPZ9,02/01/2024 10:32,02/01/2024 10:32,Pay Bill from 254717***919 - MARCELINE *** Acc. IAF,Completed,10000,,30000,TRUE,Pay Utility,254717***919 - MARCELINE ***,,IAF
SA25UKFHGR,02/01/2024 10:29,02/01/2024 10:29,Pay Bill from 254722***450 - MARY *** Acc. JAI,Completed,20000,,20000,TRUE,Pay Utility,254722***450 - MARY ***,,JAI
SA21U6SJOJ,02/01/2024 07:51,02/01/2024 07:51,Utility Account to Organization Settlement Account,Completed,,-401700,0,TRUE,Utility Account to Organization Settlement Account,979524 - ANCIENT WELLS PROPERTY MANAGERS 2,,
SA11TEWOHP,01/01/2024 19:39,01/01/2024 19:39,Pay Bill Online from 254723***064 - ANDREW *** Acc. HBG,Completed,16000,,401700,TRUE,Pay Bill Online,254723***064 - ANDREW ***,,HBG
SA12TDKLUE,01/01/2024 19:30,01/01/2024 19:30,Pay Bill from 254726***273 - JESSE *** Acc. HCH,Completed,17000,,385700,TRUE,Pay Utility,254726***273 - JESSE ***,,HCH
SA15SZ830V,01/01/2024 17:34,01/01/2024 17:34,Pay Bill Online from 254721***294 - GRACE *** Acc. IGH,Completed,15000,,368700,TRUE,Pay Bill Online,254721***294 - GRACE ***,,IGH
SA18SX1KCY,01/01/2024 17:14,01/01/2024 17:14,Pay Bill from 254795***751 - caroline *** Acc. KBF,Completed,9000,,353700,TRUE,Pay Utility,254795***751 - caroline ***,,KBF
SA16SOKZBI,01/01/2024 15:51,01/01/2024 15:51,Pay Bill from 254721***773 - NANCY *** Acc. KCF,Completed,10000,,344700,TRUE,Pay Utility,254721***773 - NANCY ***,,KCF
SA18SKGDEM,01/01/2024 15:09,01/01/2024 15:09,Pay Bill from 254716***398 - HYVENE *** Acc. KDE ,Completed,10000,,334700,TRUE,Pay Utility,254716***398 - HYVENE ***,,KDE
SA13SI00JX,01/01/2024 14:44,01/01/2024 14:44,Pay Bill from 254711***333 - JOSEPH *** Acc. KBH,Completed,10000,,324700,TRUE,Pay Utility,254711***333 - JOSEPH ***,,KBH
SA17SEN06B,01/01/2024 14:11,01/01/2024 14:11,Pay Bill from 254729***678 - GRACE *** Acc. DED,Completed,30500,,314700,TRUE,Pay Utility,254729***678 - GRACE ***,,DED
SA14S9GJJ8,01/01/2024 13:19,01/01/2024 13:19,Pay Bill Online from 254729***858 - AMBROSE *** Acc. KEJ,Completed,16000,,284200,TRUE,Pay Bill Online,254729***858 - AMBROSE ***,,KEJ
SA18S5A28A,01/01/2024 12:38,01/01/2024 12:38,Pay Bill Online from 254795***441 - LEWIS *** Acc. KEB,Completed,16000,,268200,TRUE,Pay Bill Online,254795***441 - LEWIS ***,,KEB
SA10S402UG,01/01/2024 12:26,01/01/2024 12:26,Pay Bill Online from 254707***839 - DENNIS *** Acc. FEF,Completed,16000,,252200,TRUE,Pay Bill Online,254707***839 - DENNIS ***,,FEF
SA18S3CHVM,01/01/2024 12:19,01/01/2024 12:19,Pay Bill from 079063***952 - Guyo *** Acc. DBC,Completed,20000,,236200,TRUE,Pay Utility with OD via STK,079063***952 - Guyo ***,,DBC
SA19S0MNEH,01/01/2024 11:53,01/01/2024 11:53,Pay Bill from 254729***933 - FELISTAH *** Acc. IDI,Completed,15000,,216200,TRUE,Pay Utility,254729***933 - FELISTAH ***,,IDI
SA18RGAGJU,01/01/2024 08:09,01/01/2024 08:09,Pay Bill from 254725***537 - PATRICK *** Acc. KEH,Completed,5000,,201200,TRUE,Pay Utility,254725***537 - PATRICK ***,,KEH
SA13RBAO83,01/01/2024 06:00,01/01/2024 06:00,Pay Bill Online from 254706***429 - ROSE *** Acc. IFI,Completed,15000,,196200,TRUE,Pay Bill Online,254706***429 - ROSE ***,,IFI
SA15R8LSF1,01/01/2024 03:00,01/01/2024 03:00,Pay Bill from 254712***486 - JACKLINE *** Acc. ked,Completed,11000,,181200,TRUE,Pay Utility,254712***486 - JACKLINE ***,,ked
SA19R1ZP4H,01/01/2024 00:10,01/01/2024 00:10,Pay Bill from 254703***626 - DAVID *** Acc. FCD,Completed,1000,,170200,TRUE,Pay Utility,254703***626 - DAVID ***,,FCD
