Receipt No.,Completion Time,Initiation Time,Details,Transaction Status,Paid In,Withdrawn,Balance,Balance Confirmed,Reason Type,Other Party Info,Linked Transaction ID,A/C No.
PLF96I41U5,15/12/2021 17:21,15/12/2021 17:21,Pay Bill from 254721510646 - ANTHONY IRUNGU KARIUKI Acc. v41,Completed,6600,,13600,TRUE,Pay Utility,254721510646 - ANTHONY IRUNGU KARIUKI,,v41
PLF264JM6U,15/12/2021 13:47,15/12/2021 13:47,Pay Bill from 254707220622 - EVERLYN SYOMBUA KAKUI Acc. v57,Completed,7000,,7000,TRUE,Pay Utility,254707220622 - EVERLYN SYOMBUA KAKUI,,v57
PLD33GRVGP,13/12/2021 19:58,13/12/2021 19:58,Utility Account to Organization Settlement Account,Completed,,-6600,0,TRUE,Utility Account to Organization Settlement Account,887674 - ANCIENT WELLS LTD 1,,
PLC1205JWX,12/12/2021 21:40,12/12/2021 21:40,Pay Bill from 254720056285 - DAMARIS NDURU Acc. V09,Completed,6600,,6600,TRUE,Pay Utility,254720056285 - DAMARIS NDURU,,V09
PLB8YH24CO,11/12/2021 14:47,11/12/2021 14:47,Utility Account to Organization Settlement Account,Completed,,-30500,0,TRUE,Utility Account to Organization Settlement Account,887674 - ANCIENT WELLS LTD 1,,
PLB4Y5YL8C,11/12/2021 11:54,11/12/2021 11:54,Pay Bill from 254700218502 - GRACE NGURE Acc. v46,Completed,6600,,30500,TRUE,Pay Utility,254700218502 - GRACE NGURE,,v46
PLB2XRDBK8,11/12/2021 07:31,11/12/2021 07:31,Pay Bill from 254701174081 - JOSEPHINE ODUOR Acc. v34,Completed,3500,,23900,TRUE,Pay Utility,254701174081 - JOSEPHINE ODUOR,,v34
PLA6XDGP0Y,10/12/2021 20:20,10/12/2021 20:20,Pay Bill from 254729358258 - Cliff Ombasa Acc. V05,Completed,7000,,20400,TRUE,Pay Utility,254729358258 - Cliff Ombasa,,V05
PLA3X6XPF1,10/12/2021 19:12,10/12/2021 19:12,Pay Bill from 0112583763 - Mercy Ndunge Nzamalu Acc. v28,Completed,6600,,13400,TRUE,Pay Utility,0112583763 - Mercy Ndunge Nzamalu,,v28
PLA4X2KXO2,10/12/2021 18:28,10/12/2021 18:28,Pay Bill from 0713851252 - GRACE   OMUNG'ANA Acc. vk3,Completed,3000,,6800,TRUE,Pay Utility,0713851252 - GRACE   OMUNG'ANA,,vk3
PLA3WSZKK3,10/12/2021 16:25,10/12/2021 16:25,Pay Bill Online from 0725639425 - GEOFFREY ODOYO OMUNE Acc. V13,Completed,3800,,3800,TRUE,Pay Bill Online,0725639425 - GEOFFREY ODOYO OMUNE,,V13
PLA8WK114U,10/12/2021 13:59,10/12/2021 13:59,Utility Account to Organization Settlement Account,Completed,,-27200,0,TRUE,Utility Account to Organization Settlement Account,887674 - ANCIENT WELLS LTD 1,,
PLA4W1M2ZM,10/12/2021 08:43,10/12/2021 08:43,Pay Bill Online from 254705670064 - margaret wahu wachira Acc. v35,Completed,6600,,27200,TRUE,Pay Bill Online,254705670064 - margaret wahu wachira,,v35
PL93V0179Z,09/12/2021 16:15,09/12/2021 16:15,Pay Bill from 254712660519 - KELVIN MUTUNGA KATONYI Acc. V49,Completed,7000,,20600,TRUE,Pay Utility,254712660519 - KELVIN MUTUNGA KATONYI,,V49
PL90UW6FWA,09/12/2021 15:13,09/12/2021 15:13,Pay Bill Online from 254718359438 - AHMAD TAHIR MACHENGO Acc. V11,Completed,6600,,13600,TRUE,Pay Bill Online,254718359438 - AHMAD TAHIR MACHENGO,,V11
PL96US8TJW,09/12/2021 14:07,09/12/2021 14:07,Pay Bill from 254719701463 - MARY KANYI KIARIE Acc. v17,Completed,7000,,7000,TRUE,Pay Utility,254719701463 - MARY KANYI KIARIE,,v17
PL95UKZXVB,09/12/2021 12:09,09/12/2021 12:09,Utility Account to Organization Settlement Account,Completed,,-26800,0,TRUE,Utility Account to Organization Settlement Account,887674 - ANCIENT WELLS LTD 1,,
PL84T3OV4S,08/12/2021 15:24,08/12/2021 15:24,Pay Bill Online from 254704995854 - james karanja wairimu Acc. V54,Completed,6600,,26800,TRUE,Pay Bill Online,254704995854 - james karanja wairimu,,V54
PL81SKW7JZ,08/12/2021 10:21,08/12/2021 10:21,Pay Bill from 254715939283 - alex nyamai Acc. v07,Completed,6600,,20200,TRUE,Pay Utility,254715939283 - alex nyamai,,v07
PL81SFEKO5,08/12/2021 08:45,08/12/2021 08:45,Pay Bill from 254706920646 - MIRIAM CHEPTOO Acc. V08,Completed,7000,,13600,TRUE,Pay Utility,254706920646 - MIRIAM CHEPTOO,,V08
PL71QSLX5X,07/12/2021 11:05,07/12/2021 11:05,Pay Bill from 254703108159 - JOICE OGOLLA Acc. V50,Completed,6600,,6600,TRUE,Pay Utility,254703108159 - JOICE OGOLLA,,V50
PL79QO146N,07/12/2021 09:48,07/12/2021 09:48,Utility Account to Organization Settlement Account,Completed,,-24100,0,TRUE,Utility Account to Organization Settlement Account,887674 - ANCIENT WELLS LTD 1,,
PL79QIMUKN,07/12/2021 08:07,07/12/2021 08:07,Pay Bill from 254720230582 - SHADRACK KITAKA NGILA Acc. v01,Completed,7000,,24100,TRUE,Pay Utility,254720230582 - SHADRACK KITAKA NGILA,,v01
PL77QG2GRZ,07/12/2021 07:02,07/12/2021 07:02,Pay Bill from 254707568664 - Ismael Kitsao Acc. v52,Completed,3500,,17100,TRUE,Pay Utility,254707568664 - Ismael Kitsao,,v52
PL61PSKBMP,06/12/2021 18:26,06/12/2021 18:26,Pay Bill from 254713916352 - WINFRED KATUNGWA NDALA Acc. V30,Completed,6600,,13600,TRUE,Pay Utility,254713916352 - WINFRED KATUNGWA NDALA,,V30
PL62PJL1AG,06/12/2021 16:29,06/12/2021 16:29,Pay Bill from 254759390371 - RHINUS MUTWIRI KINYURU Acc. v26 ,Completed,7000,,7000,TRUE,Pay Utility,254759390371 - RHINUS MUTWIRI KINYURU,,v26
PL63P5Q21T,06/12/2021 12:47,06/12/2021 12:47,Utility Account to Organization Settlement Account,Completed,,-44100,0,TRUE,Utility Account to Organization Settlement Account,887674 - ANCIENT WELLS LTD 1,,
PL60P3NW48,06/12/2021 12:13,06/12/2021 12:13,Pay Bill from 254723389922 - ANNE WANJIKU NDUNGU Acc. v53,Completed,6800,,44100,TRUE,Pay Utility,254723389922 - ANNE WANJIKU NDUNGU,,v53
PL69OZ8PWZ,06/12/2021 11:00,06/12/2021 11:00,Pay Bill from 254726465584 - JULIANA MUKELI MUTUNGA Acc. v4,Completed,6600,,37300,TRUE,Pay Utility,254726465584 - JULIANA MUKELI MUTUNGA,,v4
PL50OKC3VK,05/12/2021 23:56,05/12/2021 23:56,Pay Bill from 254758951969 - WILKISTER IRAKO HARAMBEE Acc. 37847739,Completed,7000,,30700,TRUE,Pay Utility,254758951969 - WILKISTER IRAKO HARAMBEE,,37847739
PL50OJDG6C,05/12/2021 22:51,05/12/2021 22:51,Pay Bill from 254708915764 - GEORGE WAHOME Acc. V18,Completed,6600,,23700,TRUE,Pay Utility,254708915764 - GEORGE WAHOME,,V18
PL51OETUDL,05/12/2021 21:02,05/12/2021 21:02,Pay Bill from 254712091662 - BENARD OMONDI ROBY Acc. V16,Completed,6600,,17100,TRUE,Pay Utility,254712091662 - BENARD OMONDI ROBY,,V16
PL55OE8WE3,05/12/2021 20:53,05/12/2021 20:53,Pay Bill from 254722578070 - SAMUEL MACHARIA Acc. v42,Completed,7000,,10500,TRUE,Pay Utility,254722578070 - SAMUEL MACHARIA,,v42
PL57ODRXX7,05/12/2021 20:46,05/12/2021 20:46,Pay Bill from 0702360376 - Bonface aganga nyamongo Acc. vk4,Completed,3500,,3500,TRUE,Pay Utility,0702360376 - Bonface aganga nyamongo,,vk4
PL50O0HX2O,05/12/2021 18:06,05/12/2021 18:06,Utility Account to Organization Settlement Account,Completed,,-6600,0,TRUE,Utility Account to Organization Settlement Account,887674 - ANCIENT WELLS LTD 1,,
PL52NXK8R6,05/12/2021 17:24,05/12/2021 17:24,Pay Bill from 0795807227 - Lucy Ncekei Kimathi Acc. V36,Completed,6600,,6600,TRUE,Pay Utility,0795807227 - Lucy Ncekei Kimathi,,V36
PL58NTCQGM,05/12/2021 16:23,05/12/2021 16:23,Utility Account to Organization Settlement Account,Completed,,-40800,0,TRUE,Utility Account to Organization Settlement Account,887674 - ANCIENT WELLS LTD 1,,
PL56NBWVFE,05/12/2021 11:27,05/12/2021 11:27,Pay Bill from 254720623535 - JOSEPH MUTURI KAMAU Acc. V32,Completed,6600,,40800,TRUE,Pay Utility,254720623535 - JOSEPH MUTURI KAMAU,,V32
PL53N915DH,05/12/2021 10:31,05/12/2021 10:31,Pay Bill from 254712927291 - JACINTER ODUOR Acc. V25,Completed,7000,,34200,TRUE,Pay Utility,254712927291 - JACINTER ODUOR,,V25
PL57N76583,05/12/2021 09:55,05/12/2021 09:55,Pay Bill from 254723815832 - SEMEKIA ONDIALA Acc. V38,Completed,6600,,27200,TRUE,Pay Utility,254723815832 - SEMEKIA ONDIALA,,V38
PL47MUNBOH,04/12/2021 22:18,04/12/2021 22:18,Pay Bill from 0758457508 - PETER KINGORI KAGUNDA Acc. V06,Completed,7000,,20600,TRUE,Pay Utility,0758457508 - PETER KINGORI KAGUNDA,,V06
PL46MR24ZQ,04/12/2021 21:08,04/12/2021 21:08,Pay Bill from 254718818610 - HANNAH NALIAKA Acc. V23,Completed,6600,,13600,TRUE,Pay Utility,254718818610 - HANNAH NALIAKA,,V23
PL49MFNGGH,04/12/2021 18:57,04/12/2021 18:57,Pay Bill from 254701261592 - VICTOR MWILU Acc. v37,Completed,7000,,7000,TRUE,Pay Utility,254701261592 - VICTOR MWILU,,v37
PL45M552SN,04/12/2021 16:52,04/12/2021 16:52,Utility Account to Organization Settlement Account,Completed,,-10500,0,TRUE,Utility Account to Organization Settlement Account,887674 - ANCIENT WELLS LTD 1,,
PL47L5DYTF,04/12/2021 06:50,04/12/2021 06:50,Pay Bill from 254717294709 - CAROLINE WAVINYA NDINDA Acc. v15,Completed,7000,,10500,TRUE,Pay Utility,254717294709 - CAROLINE WAVINYA NDINDA,,v15
PL41L2PLPH,04/12/2021 00:00,04/12/2021 00:00,Pay Bill from 0701762102 - KELVIN SOMBA MAUNDU Acc. vk6,Completed,3500,,3500,TRUE,Pay Utility,0701762102 - KELVIN SOMBA MAUNDU,,vk6
PL34KS9DFE,03/12/2021 20:08,03/12/2021 20:08,Utility Account to Organization Settlement Account,Completed,,-6600,0,TRUE,Utility Account to Organization Settlement Account,887674 - ANCIENT WELLS LTD 1,,
PL36JIEIKC,03/12/2021 09:12,03/12/2021 09:12,Pay Bill from 254727729395 - ROBERT OUKO OSORO Acc. V29,Completed,6600,,6600,TRUE,Pay Utility,254727729395 - ROBERT OUKO OSORO,,V29
PL21I566V5,02/12/2021 13:21,02/12/2021 13:21,Utility Account to Organization Settlement Account,Completed,,-34200,0,TRUE,Utility Account to Organization Settlement Account,887674 - ANCIENT WELLS LTD 1,,
PL27HYGDDT,02/12/2021 11:25,02/12/2021 11:25,Pay Bill from 254700904994 - HUSSEIN HASSAN LAMA Acc. v43,Completed,7000,,34200,TRUE,Pay Utility,254700904994 - HUSSEIN HASSAN LAMA,,v43
PL26HSHGT4,02/12/2021 09:39,02/12/2021 09:39,Pay Bill Online from 0725639425 - GEOFFREY ODOYO OMUNE Acc. V13,Completed,2500,,27200,TRUE,Pay Bill Online,0725639425 - GEOFFREY ODOYO OMUNE,,V13
PL20HQ67HW,02/12/2021 08:55,02/12/2021 08:55,Pay Bill from 0717042461 - Sharon Nyangasi Shivachi Acc. V55,Completed,10700,,24700,TRUE,Pay Utility,0717042461 - Sharon Nyangasi Shivachi,,V55
PL29HP6ZDN,02/12/2021 08:36,02/12/2021 08:36,Pay Bill Online from 0769929240 - Calvince Klein Alal Acc. v02,Completed,14000,,14000,TRUE,Pay Utility with OD Online,0769929240 - Calvince Klein Alal,,v02
PL13H5TPRZ,01/12/2021 19:48,01/12/2021 19:48,Utility Account to Organization Settlement Account,Completed,,-23600,0,TRUE,Utility Account to Organization Settlement Account,887674 - ANCIENT WELLS LTD 1,,
PL11H5OQPT,01/12/2021 19:47,01/12/2021 19:47,Pay Bill from 0727542914 - Pascal Ouma Opar Acc. pascalv45,Completed,6600,,23600,TRUE,Pay Utility,0727542914 - Pascal Ouma Opar,,pascalv45
PL10H5DHKI,01/12/2021 19:43,01/12/2021 19:43,Pay Bill from 0722531422 - ANTHONY ITIMU MAINA Acc. JBD,Completed,10000,,17000,TRUE,Pay Utility,0722531422 - ANTHONY ITIMU MAINA,,JBD
PL12GSME9I,01/12/2021 17:30,01/12/2021 17:30,Pay Bill Online from 254706427665 - CHRIS KIRIMI Acc. V22,Completed,7000,,7000,TRUE,Pay Bill Online,254706427665 - CHRIS KIRIMI,,V22
PL19G9FCK7,01/12/2021 12:29,01/12/2021 12:29,Utility Account to Organization Settlement Account,Completed,,-24600,0,TRUE,Utility Account to Organization Settlement Account,887674 - ANCIENT WELLS LTD 1,,
PL16FPD31E,01/12/2021 01:43,01/12/2021 01:43,Pay Bill from 254722648389 - SUDI MOSES Acc. V31,Completed,7000,,24600,TRUE,Pay Utility,254722648389 - SUDI MOSES,,V31
