Receipt No.,Completion Time,Initiation Time,Details,Transaction Status,Paid In,Withdrawn,Balance,Balance Confirmed,Reason Type,Other Party Info,Linked Transaction ID,A/C No.
PIS0I9JZBI,28/09/2021 18:08,28/09/2021 18:08,Pay Bill Online from 254706354035 - MOSES MUOKA Acc. V03,Completed,7000,,7000,TRUE,Pay Bill Online,254706354035 - MOSES MUOKA,,V03
PIR3GSH7QT,27/09/2021 18:27,27/09/2021 18:27,Utility Account to Organization Settlement Account,Completed,,-14600,0,TRUE,Utility Account to Organization Settlement Account,887674 - ANCIENT WELLS LTD 1,,
PIR3GIIFU1,27/09/2021 15:54,27/09/2021 15:54,Pay Bill from 254720068224 - ESAU JARREL MUNYWOKI Acc. V27,Completed,1000,,14600,TRUE,Pay Utility with OD via STK,254720068224 - ESAU JARREL MUNYWOKI,,V27
PIQ2EL6ISK,26/09/2021 09:45,26/09/2021 09:45,Pay Bill from 254722648389 - SUDI MOSES Acc. V31,Completed,7000,,13600,TRUE,Pay Utility,254722648389 - SUDI MOSES,,V31
PIP7E5W11J,25/09/2021 20:13,25/09/2021 20:13,Pay Bill from 254701086112 - CAROLYNE KOKI MULWA Acc. V30,Completed,6600,,6600,TRUE,Pay Utility,254701086112 - CAROLYNE KOKI MULWA,,V30
PIP1DGXS1F,25/09/2021 14:15,25/09/2021 14:15,Utility Account to Organization Settlement Account,Completed,,-9600,0,TRUE,Utility Account to Organization Settlement Account,887674 - ANCIENT WELLS LTD 1,,
PIP2DA2SAE,25/09/2021 12:20,25/09/2021 12:20,Pay Bill Online from 254729569271 - MESHACK OBOTTA OBARE Acc. V12,Completed,3000,,9600,TRUE,Pay Bill Online,254729569271 - MESHACK OBOTTA OBARE,,V12
PIP5CX94IT,25/09/2021 08:10,25/09/2021 08:10,Pay Bill from 254702343078 - JOSEPH EBENYO Acc. V10 joseph,Completed,6600,,6600,TRUE,Pay Utility,254702343078 - JOSEPH EBENYO,,V10
PIO3C388HF,24/09/2021 16:16,24/09/2021 16:16,Utility Account to Organization Settlement Account,Completed,,-12500,0,TRUE,Utility Account to Organization Settlement Account,887674 - ANCIENT WELLS LTD 1,,
PIO1BZP5H3,24/09/2021 15:12,24/09/2021 15:12,Pay Bill from 254704783091 - CLINTON MUSEBE KASUTI Acc. V48,Completed,6600,,12500,TRUE,Pay Utility,254704783091 - CLINTON MUSEBE KASUTI,,V48
PIO2BZ2FWC,24/09/2021 15:00,24/09/2021 15:00,Pay Bill from 254720068224 - ESAU JARREL MUNYWOKI Acc. V27,Completed,2400,,5900,TRUE,Pay Utility with OD via STK,254720068224 - ESAU JARREL MUNYWOKI,,V27
PIO3BOHV0Z,24/09/2021 11:37,24/09/2021 11:37,Pay Bill Online from 254706427665 - CHRIS KIRIMI Acc. V22,Completed,3500,,3500,TRUE,Pay Bill Online,254706427665 - CHRIS KIRIMI,,V22
PIO5BJOJE3,24/09/2021 09:59,24/09/2021 09:59,Utility Account to Organization Settlement Account,Completed,,-6900,0,TRUE,Utility Account to Organization Settlement Account,887674 - ANCIENT WELLS LTD 1,,
PIN7B2NBT1,23/09/2021 20:12,23/09/2021 20:12,Pay Bill from 0712917575 - Derrick Osore Songoro Acc. Derrick V58,Completed,6900,,6900,TRUE,Pay Utility,0712917575 - Derrick Osore Songoro,,Derrick
PIM08X2VUG,22/09/2021 14:25,22/09/2021 14:25,Utility Account to Organization Settlement Account,Completed,,-13800,0,TRUE,Utility Account to Organization Settlement Account,887674 - ANCIENT WELLS LTD 1,,
PIL489PJ4E,21/09/2021 22:44,21/09/2021 22:44,Pay Bill Online from 254707049818 - LUCKY TSUMA Acc. V19,Completed,6600,,13800,TRUE,Pay Bill Online,254707049818 - LUCKY TSUMA,,V19
PIL9813LYR,21/09/2021 19:45,21/09/2021 19:45,Pay Bill from 254759390371 - RHINUS MUTWIRI KINYURU Acc. v26,Completed,200,,7200,TRUE,Pay Utility,254759390371 - RHINUS MUTWIRI KINYURU,,v26
PIL46Z11EM,21/09/2021 08:58,21/09/2021 08:58,Pay Bill from 254720881746 - LEMMY WANJAU NJIRU Acc. V51,Completed,7000,,7000,TRUE,Pay Utility,254720881746 - LEMMY WANJAU NJIRU,,V51
PIK65QHWWE,20/09/2021 12:08,20/09/2021 12:08,Utility Account to Organization Settlement Account,Completed,,-7800,0,TRUE,Utility Account to Organization Settlement Account,887674 - ANCIENT WELLS LTD 1,,
PIK75JXB4F,20/09/2021 09:56,20/09/2021 09:56,Pay Bill Online from 0769929240 - Calvince Klein Alal Acc. v02,Completed,7000,,7800,TRUE,Pay Utility with OD Online,0769929240 - Calvince Klein Alal,,v02
PIJ34G5ZLR,19/09/2021 13:52,19/09/2021 13:52,Pay Bill from 254729358258 - Cliff Ombasa Acc. v05,Completed,800,,800,TRUE,Pay Utility,254729358258 - Cliff Ombasa,,v05
PIH914GLAH,17/09/2021 10:01,17/09/2021 10:01,Utility Account to Organization Settlement Account,Completed,,-19700,0,TRUE,Utility Account to Organization Settlement Account,887674 - ANCIENT WELLS LTD 1,,
PIG2YTXKII,16/09/2021 12:30,16/09/2021 12:30,Pay Bill from 254720068224 - ESAU JARREL MUNYWOKI Acc. V27,Completed,4000,,19700,TRUE,Pay Utility,254720068224 - ESAU JARREL MUNYWOKI,,V27
PIG5YSNBDV,16/09/2021 12:05,16/09/2021 12:05,Pay Bill from 0727542914 - Pascal Ouma Opar Acc. pascalv45,Completed,1100,,15700,TRUE,Pay Utility,0727542914 - Pascal Ouma Opar,,pascalv45
PIF1Y4PCSN,15/09/2021 20:00,15/09/2021 20:00,Pay Bill from 0701762102 - KELVIN SOMBA MAUNDU Acc. vk6,Completed,1000,,14600,TRUE,Pay Utility,0701762102 - KELVIN SOMBA MAUNDU,,vk6
PIF6XHSPX0,15/09/2021 14:29,15/09/2021 14:29,Pay Bill from 254707220622 - EVERLYN SYOMBUA KAKUI Acc. V57,Completed,7000,,13600,TRUE,Pay Utility,254707220622 - EVERLYN SYOMBUA KAKUI,,V57
PIF3X51T4V,15/09/2021 10:24,15/09/2021 10:24,Pay Bill from 254715939283 - alex nyamai Acc. alexv07,Completed,6600,,6600,TRUE,Pay Utility,254715939283 - alex nyamai,,alexv07
PIE8VOR7TU,14/09/2021 11:21,14/09/2021 11:21,Utility Account to Organization Settlement Account,Completed,,-6600,0,TRUE,Utility Account to Organization Settlement Account,887674 - ANCIENT WELLS LTD 1,,
PID9V84WJZ,13/09/2021 21:37,13/09/2021 21:37,Pay Bill from 0717042461 - Sharon Nyangasi Shivachi Acc. V55,Completed,6600,,6600,TRUE,Pay Utility,0717042461 - Sharon Nyangasi Shivachi,,V55
PIC6SM9KMA,12/09/2021 09:45,12/09/2021 09:45,Utility Account to Organization Settlement Account,Completed,,-6600,0,TRUE,Utility Account to Organization Settlement Account,887674 - ANCIENT WELLS LTD 1,,
PIB8S0F71M,11/09/2021 18:58,11/09/2021 18:58,Pay Bill from 254721510646 - ANTHONY IRUNGU KARIUKI Acc. v41,Completed,6600,,6600,TRUE,Pay Utility,254721510646 - ANTHONY IRUNGU KARIUKI,,v41
PIB9RYXNBV,11/09/2021 18:39,11/09/2021 18:39,Utility Account to Organization Settlement Account,Completed,,-6600,0,TRUE,Utility Account to Organization Settlement Account,887674 - ANCIENT WELLS LTD 1,,
PIB1RVUMGF,11/09/2021 17:56,11/09/2021 17:56,Pay Bill from 0113907030 - NAOMI NDINDA NZAMALU Acc. V28,Completed,6600,,6600,TRUE,Pay Utility,0113907030 - NAOMI NDINDA NZAMALU,,V28
PIB1RUVMAB,11/09/2021 17:42,11/09/2021 17:42,Utility Account to Organization Settlement Account,Completed,,-10200,0,TRUE,Utility Account to Organization Settlement Account,887674 - ANCIENT WELLS LTD 1,,
PIB5RUP8NH,11/09/2021 17:39,11/09/2021 17:39,Pay Bill from 254700218502 - GRACE NGURE Acc. v46,Completed,6600,,10200,TRUE,Pay Utility,254700218502 - GRACE NGURE,,v46
PIB8RUH4U0,11/09/2021 17:36,11/09/2021 17:36,Pay Bill Online from 254729569271 - MESHACK OBOTTA OBARE Acc. V12,Completed,3600,,3600,TRUE,Pay Utility with OD Online,254729569271 - MESHACK OBOTTA OBARE,,V12
PIB6R3JKO8,11/09/2021 09:54,11/09/2021 09:54,Utility Account to Organization Settlement Account,Completed,,-16600,0,TRUE,Utility Account to Organization Settlement Account,887674 - ANCIENT WELLS LTD 1,,
PIA4QPM5MY,10/09/2021 21:02,10/09/2021 21:02,Pay Bill from 254720056285 - DAMARIS NDURU Acc. V09,Completed,6600,,16600,TRUE,Pay Utility,254720056285 - DAMARIS NDURU,,V09
PIA7QHB9EF,10/09/2021 19:10,10/09/2021 19:10,Pay Bill from 254729358258 - Cliff Ombasa Acc. V05,Completed,7000,,10000,TRUE,Pay Utility,254729358258 - Cliff Ombasa,,V05
PIA8QEA48G,10/09/2021 18:36,10/09/2021 18:36,Pay Bill from 0713851252 - GRACE   OMUNG'ANA Acc. VK3,Completed,3000,,3000,TRUE,Pay Utility,0713851252 - GRACE   OMUNG'ANA,,VK3
PIA8PMU32G,10/09/2021 10:45,10/09/2021 10:45,Utility Account to Organization Settlement Account,Completed,,-16600,0,TRUE,Utility Account to Organization Settlement Account,887674 - ANCIENT WELLS LTD 1,,
PI93OVLA8J,09/09/2021 18:24,09/09/2021 18:24,Pay Bill from 254790610309 - MESHACK CHUMBA Acc. V39,Completed,3000,,16600,TRUE,Pay Utility,254790610309 - MESHACK CHUMBA,,V39
PI95OUJ9BR,09/09/2021 18:09,09/09/2021 18:09,Pay Bill Online from 0711494312 - CALVIN MAKWAKA AMULIOTO Acc. VO8,Completed,7000,,13600,TRUE,Pay Bill Online,0711494312 - CALVIN MAKWAKA AMULIOTO,,VO8
PI85NBJGLZ,08/09/2021 17:44,08/09/2021 17:44,Pay Bill from 254707872947 - PRISCILA AGUNGA ALUGANJA Acc. V16,Completed,6600,,6600,TRUE,Pay Utility,254707872947 - PRISCILA AGUNGA ALUGANJA,,V16
PI87MWP1A7,08/09/2021 13:40,08/09/2021 13:40,Utility Account to Organization Settlement Account,Completed,,-33000,0,TRUE,Utility Account to Organization Settlement Account,887674 - ANCIENT WELLS LTD 1,,
PI85MUOXVF,08/09/2021 13:05,08/09/2021 13:05,Pay Bill from 254717294709 - CAROLINE WAVINYA NDINDA Acc. v15,Completed,7000,,33000,TRUE,Pay Utility,254717294709 - CAROLINE WAVINYA NDINDA,,v15
PI70MADS2K,07/09/2021 23:01,07/09/2021 23:01,Pay Bill Online from 254725639425 - CHRISPINE OMONDI Acc. V13,Completed,2000,,26000,TRUE,Pay Bill Online,254725639425 - CHRISPINE OMONDI,,V13
PI79LYYI6V,07/09/2021 19:22,07/09/2021 19:22,Pay Bill from 254707568664 - Ismael Kitsao Acc. V52,Completed,10000,,24000,TRUE,Pay Utility,254707568664 - Ismael Kitsao,,V52
PI74LRMQBM,07/09/2021 17:55,07/09/2021 17:55,Pay Bill from 254703690697 - CATHERINE MURAGE Acc. V21,Completed,7000,,14000,TRUE,Pay Utility,254703690697 - CATHERINE MURAGE,,V21
PI74LAJ5KE,07/09/2021 12:52,07/09/2021 12:52,Pay Bill from 254719701463 - MARY KANYI KIARIE Acc. V17,Completed,7000,,7000,TRUE,Pay Utility,254719701463 - MARY KANYI KIARIE,,V17
PI78L06DJY,07/09/2021 09:27,07/09/2021 09:27,Utility Account to Organization Settlement Account,Completed,,-40500,0,TRUE,Utility Account to Organization Settlement Account,887674 - ANCIENT WELLS LTD 1,,
PI77KSJXX9,07/09/2021 00:18,07/09/2021 00:18,Pay Bill Online from 254725639425 - CHRISPINE OMONDI Acc. V13,Completed,1000,,40500,TRUE,Pay Bill Online,254725639425 - CHRISPINE OMONDI,,V13
PI66K76VW0,06/09/2021 17:19,06/09/2021 17:19,Pay Bill from 254726465584 - JULIANA MUKELI MUTUNGA Acc. v4,Completed,6600,,39500,TRUE,Pay Utility,254726465584 - JULIANA MUKELI MUTUNGA,,v4
PI60K6EWDU,06/09/2021 17:07,06/09/2021 17:07,Pay Bill Online from 254704995854 - james karanja wairimu Acc. V54,Completed,6600,,32900,TRUE,Pay Bill Online,254704995854 - james karanja wairimu,,V54
PI66K2YKBE,06/09/2021 16:10,06/09/2021 16:10,FSI to Pay Bill by 714888 - B2C LOOP VIA NCBA Acc. V40 via WEB by B2C LOOP VIA NCBA\Cbainitiator,Completed,6600,,26300,TRUE,FSI to Pay Bill via API,714888 - B2C LOOP VIA NCBA,,V40
PI65K15Y7N,06/09/2021 15:38,06/09/2021 15:38,Pay Bill from 0792534730 - VALENTINE WANGARI KAMAU Acc. Derrick V58,Completed,6300,,19700,TRUE,Pay Utility,0792534730 - VALENTINE WANGARI KAMAU,,Derrick
PI64K0N15A,06/09/2021 15:29,06/09/2021 15:29,Pay Bill from 254701086112 - CAROLYNE KOKI MULWA Acc. V30,Completed,6600,,13400,TRUE,Pay Utility with OD via STK,254701086112 - CAROLYNE KOKI MULWA,,V30
PI61JWGBVR,06/09/2021 14:12,06/09/2021 14:12,Pay Bill from 254723389922 - ANNE WANJIKU NDUNGU Acc. v53,Completed,6800,,6800,TRUE,Pay Utility,254723389922 - ANNE WANJIKU NDUNGU,,v53
PI69JS25MN,06/09/2021 12:52,06/09/2021 12:52,Utility Account to Organization Settlement Account,Completed,,-42200,0,TRUE,Utility Account to Organization Settlement Account,887674 - ANCIENT WELLS LTD 1,,
PI63JLGIAT,06/09/2021 10:47,06/09/2021 10:47,Pay Bill from 0758457508 - PETER KINGORI KAGUNDA Acc. V06,Completed,7000,,42200,TRUE,Pay Utility,0758457508 - PETER KINGORI KAGUNDA,,V06
PI65JFH3IX,06/09/2021 08:47,06/09/2021 08:47,Pay Bill Online from 254705670064 - margaret wahu wachira Acc. v35,Completed,6600,,35200,TRUE,Pay Bill Online,254705670064 - margaret wahu wachira,,v35
PI58J7TURG,05/09/2021 22:08,05/09/2021 22:08,Pay Bill from 254722578070 - SAMUEL MACHARIA Acc. v42,Completed,7000,,28600,TRUE,Pay Utility,254722578070 - SAMUEL MACHARIA,,v42
PI57J0OKDV,05/09/2021 19:49,05/09/2021 19:49,Pay Bill from 254718818610 - HANNAH NALIAKA Acc. V23,Completed,6600,,21600,TRUE,Pay Utility,254718818610 - HANNAH NALIAKA,,V23
PI56IPRY66,05/09/2021 17:16,05/09/2021 17:16,Pay Bill from 254721524677 - SAMSON AHOLO Acc. Samson v33 ,Completed,8000,,15000,TRUE,Pay Utility with OD via STK,254721524677 - SAMSON AHOLO,,Samson
PI55II8S21,05/09/2021 15:01,05/09/2021 15:01,Pay Bill from 254746559177 - STACY MAUA KILONZO Acc. v37,Completed,7000,,7000,TRUE,Pay Utility with OD via STK,254746559177 - STACY MAUA KILONZO,,v37
PI52IFK9QE,05/09/2021 14:10,05/09/2021 14:10,Utility Account to Organization Settlement Account,Completed,,-9600,0,TRUE,Utility Account to Organization Settlement Account,887674 - ANCIENT WELLS LTD 1,,
PI52I2CVN6,05/09/2021 09:22,05/09/2021 09:22,Pay Bill from 254723815832 - SEMEKIA ONDIALA Acc. v38,Completed,6600,,9600,TRUE,Pay Utility,254723815832 - SEMEKIA ONDIALA,,v38
PI53HY8IZL,05/09/2021 07:28,05/09/2021 07:28,Pay Bill from 0701762102 - KELVIN SOMBA MAUNDU Acc. vk6,Completed,3000,,3000,TRUE,Pay Utility with OD via STK,0701762102 - KELVIN SOMBA MAUNDU,,vk6
PI42HCJR0C,04/09/2021 17:58,04/09/2021 17:58,Utility Account to Organization Settlement Account,Completed,,-6600,0,TRUE,Utility Account to Organization Settlement Account,887674 - ANCIENT WELLS LTD 1,,
PI46HBYS92,04/09/2021 17:50,04/09/2021 17:50,Pay Bill from 254703108159 - JOICE OGOLLA Acc. V50,Completed,6600,,6600,TRUE,Pay Utility,254703108159 - JOICE OGOLLA,,V50
PI42H0F3X4,04/09/2021 14:41,04/09/2021 14:41,Utility Account to Organization Settlement Account,Completed,,-17600,0,TRUE,Utility Account to Organization Settlement Account,887674 - ANCIENT WELLS LTD 1,,
PI46GU8Z34,04/09/2021 12:51,04/09/2021 12:51,Pay Bill Online from 254759390371 - RHINUS MUTWIRI KINYURU Acc. V26,Completed,7000,,17600,TRUE,Pay Bill Online,254759390371 - RHINUS MUTWIRI KINYURU,,V26
PI42GNIXS4,04/09/2021 10:46,04/09/2021 10:46,Pay Bill from 254701174081 - JOSEPHINE ODUOR Acc. v34,Completed,4000,,10600,TRUE,Pay Utility,254701174081 - JOSEPHINE ODUOR,,v34
PI40GKH1Y2,04/09/2021 09:46,04/09/2021 09:46,Pay Bill from 254720623535 - JOSEPH MUTURI KAMAU Acc. V32,Completed,6600,,6600,TRUE,Pay Utility with OD via STK,254720623535 - JOSEPH MUTURI KAMAU,,V32
PI40GI75IG,04/09/2021 08:58,04/09/2021 08:58,Utility Account to Organization Settlement Account,Completed,,-10100,0,TRUE,Utility Account to Organization Settlement Account,887674 - ANCIENT WELLS LTD 1,,
PI44GI3JDA,04/09/2021 08:56,04/09/2021 08:56,Pay Bill from 254708915764 - GEORGE WAHOME Acc. V18,Completed,6600,,10100,TRUE,Pay Utility,254708915764 - GEORGE WAHOME,,V18
PI35GAHW8H,03/09/2021 22:25,03/09/2021 22:25,Pay Bill from 0702360376 - Bonface aganga nyamongo Acc. vk4,Completed,3500,,3500,TRUE,Pay Utility,0702360376 - Bonface aganga nyamongo,,vk4
PI35F7LQZV,03/09/2021 11:48,03/09/2021 11:48,Utility Account to Organization Settlement Account,Completed,,-13200,0,TRUE,Utility Account to Organization Settlement Account,887674 - ANCIENT WELLS LTD 1,,
PI33F6U90X,03/09/2021 11:33,03/09/2021 11:33,Pay Bill Online from 254713498554 - HENRY KINYUA WARUI Acc. V44 Henry Warui,Completed,13200,,13200,TRUE,Pay Bill Online,254713498554 - HENRY KINYUA WARUI,,V44
PI39F25BUL,03/09/2021 10:02,03/09/2021 10:02,Utility Account to Organization Settlement Account,Completed,,-13200,0,TRUE,Utility Account to Organization Settlement Account,887674 - ANCIENT WELLS LTD 1,,
PI20EA2JU0,02/09/2021 18:01,02/09/2021 18:01,Pay Bill from 254727729395 - ROBERT OUKO OSORO Acc. V29,Completed,6600,,13200,TRUE,Pay Utility,254727729395 - ROBERT OUKO OSORO,,V29
PI24E3GK3I,02/09/2021 16:18,02/09/2021 16:18,Pay Bill Online from 254718359438 - AHMAD TAHIR MACHENGO Acc. V11,Completed,6600,,6600,TRUE,Pay Bill Online,254718359438 - AHMAD TAHIR MACHENGO,,V11
PI18D5JYD4,01/09/2021 20:57,01/09/2021 20:57,Utility Account to Organization Settlement Account,Completed,,-28500,0,TRUE,Utility Account to Organization Settlement Account,887674 - ANCIENT WELLS LTD 1,,
PI19CUAQK1,01/09/2021 18:30,01/09/2021 18:30,Pay Bill from 254725756974 - MARTIN MUGAMBI Acc. v56,Completed,18000,,28500,TRUE,Pay Utility with OD via STK,254725756974 - MARTIN MUGAMBI,,v56
PI15CR8ABR,01/09/2021 17:49,01/09/2021 17:49,Pay Bill from 254758951969 - WILKISTER IRAKO HARAMBEE Acc. 37847739,Completed,7000,,10500,TRUE,Pay Utility,254758951969 - WILKISTER IRAKO HARAMBEE,,37847739
PI12CPYESO,01/09/2021 17:31,01/09/2021 17:31,Pay Bill Online from 254725639425 - CHRISPINE OMONDI Acc. V13,Completed,3500,,3500,TRUE,Pay Bill Online,254725639425 - CHRISPINE OMONDI,,V13
PI17CDE3YB,01/09/2021 13:51,01/09/2021 13:51,Utility Account to Organization Settlement Account,Completed,,-7000,0,TRUE,Utility Account to Organization Settlement Account,887674 - ANCIENT WELLS LTD 1,,
PI12C7JH3O,01/09/2021 12:00,01/09/2021 12:00,Pay Bill from 254700904994 - HUSSEIN HASSAN LAMA Acc. V43,Completed,7000,,7000,TRUE,Pay Utility,254700904994 - HUSSEIN HASSAN LAMA,,V43
PI19BXSNN1,01/09/2021 08:42,01/09/2021 08:42,Utility Account to Organization Settlement Account,Completed,,-31700,0,TRUE,Utility Account to Organization Settlement Account,887674 - ANCIENT WELLS LTD 1,,
