Receipt No.,Completion Time,Initiation Time,Details,Transaction Status,Paid In,Withdrawn,Balance,Balance Confirmed,Reason Type,Other Party Info,Linked Transaction ID,A/C No.
SKC0HOJ726,12/11/2024 08:05,12/11/2024 08:05,Pay Bill from 254725***547 - MWACHIRO *** Acc. DFC,Completed,20000,,20000,TRUE,Pay Utility,254725***547 - MWACHIRO ***,,DFC
SKC4HGT79Q,12/11/2024 06:41,12/11/2024 06:41,Utility Account to Organization Settlement Account,Completed,,-153000,0,TRUE,Utility Account to Organization Settlement Account,979524 - ANCIENT WELLS PROPERTY MANAGERS 2,,
SKC3HCBQPH,12/11/2024 01:56,12/11/2024 01:56,Pay Bill Online from 074378***968 - Dallias *** Acc. HBB,Completed,3000,,153000,TRUE,Pay Bill Online,074378***968 - Dallias ***,,HBB
SKB3HAB3NT,11/11/2024 23:54,11/11/2024 23:54,Pay Bill from 254700***449 - JOHN *** Acc. HCE,Completed,10500,,150000,TRUE,Pay Utility,254700***449 - JOHN ***,,HCE
SKB6H7T8GY,11/11/2024 22:53,11/11/2024 22:53,Pay Bill from 079514***674 - BARNABAS *** Acc. FGC,Completed,2000,,139500,TRUE,Pay Utility,079514***674 - BARNABAS ***,,FGC
SKB5H1HYK1,11/11/2024 21:41,11/11/2024 21:41,Pay Bill from 254705***460 - Debra *** Acc. FFC,Completed,8000,,137500,TRUE,Pay Utility with OD via STK,254705***460 - Debra ***,,FFC
SKB6GGIQE6,11/11/2024 19:40,11/11/2024 19:40,Pay Bill from 254705***460 - Debra *** Acc. FFC,Completed,8000,,129500,TRUE,Pay Utility with OD via STK,254705***460 - Debra ***,,FFC
SKB2GGI4ZI,11/11/2024 19:40,11/11/2024 19:40,Pay Bill Online from 254726***777 - MARY *** Acc. JDB,Completed,15000,,121500,TRUE,Pay Utility with OD Online,254726***777 - MARY ***,,JDB
SKB2G1DWSC,11/11/2024 18:35,11/11/2024 18:35,Pay Bill Online from 254710***630 - DONNA *** Acc. KCC,Completed,3000,,106500,TRUE,Pay Bill Online,254710***630 - DONNA ***,,KCC
SKB5FP2ITB,11/11/2024 17:31,11/11/2024 17:31,Pay Bill from 079278***993 - PETER *** Acc. FGE,Completed,15000,,103500,TRUE,Pay Utility,079278***993 - PETER ***,,FGE
SKB3F3SK2Z,11/11/2024 15:11,11/11/2024 15:11,Pay Bill from 254748***981 - TEDDY *** Acc. JCF,Completed,8000,,88500,TRUE,Pay Utility,254748***981 - TEDDY ***,,JCF
SKB9EXUS8V,11/11/2024 14:29,11/11/2024 14:29,Pay Bill Online from 254719***219 - PHILIP *** Acc. JDH,Completed,25000,,80500,TRUE,Pay Bill Online,254719***219 - PHILIP ***,,JDH
SKB5EWF1BH,11/11/2024 14:19,11/11/2024 14:19,Pay Bill from 254708***464 - MERCY *** Acc. IBB,Completed,16000,,55500,TRUE,Pay Utility,254708***464 - MERCY ***,,IBB
SKB4EWB0DE,11/11/2024 14:18,11/11/2024 14:18,Pay Bill from 071568***238 - JOANNAH *** Acc. FFA,Completed,13000,,39500,TRUE,Pay Utility,071568***238 - JOANNAH ***,,FFA
SKB6EUYCGK,11/11/2024 14:09,11/11/2024 14:09,Pay Bill from 072499***287 - JOHN *** Acc. ICA,Completed,26500,,26500,TRUE,Pay Utility,072499***287 - JOHN ***,,ICA
SKB3EQSJXX,11/11/2024 13:40,11/11/2024 13:40,Utility Account to Organization Settlement Account,Completed,,-77000,0,TRUE,Utility Account to Organization Settlement Account,979524 - ANCIENT WELLS PROPERTY MANAGERS 2,,
SKB2EJ2GW4,11/11/2024 12:46,11/11/2024 12:46,Pay Bill from 254707***639 - Annastacia *** Acc. JFC ,Completed,10000,,77000,TRUE,Pay Utility,254707***639 - Annastacia ***,,JFC 
SKB0EI2CLI,11/11/2024 12:39,11/11/2024 12:39,Pay Bill Online from 254722***051 - GILBERT *** Acc. JBE,Completed,3000,,67000,TRUE,Pay Utility with OD Online,254722***051 - GILBERT ***,,JBE
SKB8E5RFVQ,11/11/2024 11:07,11/11/2024 11:07,Pay Bill Online from 254757***672 - BRIAN *** Acc. KDD,Completed,12000,,64000,TRUE,Pay Bill Online,254757***672 - BRIAN ***,,KDD
SKB4DZ49HQ,11/11/2024 10:17,11/11/2024 10:17,Pay Bill Online from 254722***078 - MAUREEN *** Acc. DCD,Completed,5000,,52000,TRUE,Pay Bill Online,254722***078 - MAUREEN ***,,DCD
SKB3DXLS9J,11/11/2024 10:05,11/11/2024 10:05,Pay Bill from 254720***007 - BRENDA *** Acc. KAB ,Completed,16000,,47000,TRUE,Pay Utility,254720***007 - BRENDA ***,,KAB 
SKB1DKCXYJ,11/11/2024 08:13,11/11/2024 08:13,Pay Bill Online from 254720***609 - DENNIS *** Acc. JAJ,Completed,15000,,31000,TRUE,Pay Bill Online,254720***609 - DENNIS ***,,JAJ
SKB4DIN8DE,11/11/2024 07:56,11/11/2024 07:56,Pay Bill from 072049***173 - PAULINE *** Acc. DEA,Completed,16000,,16000,TRUE,Pay Utility,072049***173 - PAULINE ***,,DEA
SKB1DFK927,11/11/2024 07:22,11/11/2024 07:22,Utility Account to Organization Settlement Account,Completed,,-76000,0,TRUE,Utility Account to Organization Settlement Account,979524 - ANCIENT WELLS PROPERTY MANAGERS 2,,
SKB6D7SPEO,11/11/2024 01:18,11/11/2024 01:18,Pay Bill Online from 254723***228 - MORARA *** Acc. POOL,Completed,22000,,76000,TRUE,Pay Bill Online,254723***228 - MORARA ***,,POOL
SKB8D7E496,11/11/2024 00:52,11/11/2024 00:52,Pay Bill from 254711***840 - HILDA *** Acc. KTA,Completed,3000,,54000,TRUE,Pay Utility with OD via STK,254711***840 - HILDA ***,,KTA
SKA5BW8QA3,10/11/2024 18:18,10/11/2024 18:18,Pay Bill from 254707***668 - JONAH *** Acc. KEA,Completed,35000,,51000,TRUE,Pay Utility,254707***668 - JONAH ***,,KEA
SKA5BW59VR,10/11/2024 18:18,10/11/2024 18:18,Pay Bill from 254799***719 - Anjeline *** Acc. FCA,Completed,16000,,16000,TRUE,Pay Utility,254799***719 - Anjeline ***,,FCA
SKA9BNSQBF,10/11/2024 17:29,10/11/2024 17:29,Utility Account to Organization Settlement Account,Completed,,-77500,0,TRUE,Utility Account to Organization Settlement Account,979524 - ANCIENT WELLS PROPERTY MANAGERS 2,,
SKA8BJWNYY,10/11/2024 17:06,10/11/2024 17:06,Pay Bill from 079585***077 - habiba *** Acc. DGD,Completed,12000,,77500,TRUE,Pay Utility,079585***077 - habiba ***,,DGD
SKA5B7KPXJ,10/11/2024 15:47,10/11/2024 15:47,Pay Bill from 254725***906 - TRACY *** Acc. IDF,Completed,11000,,65500,TRUE,Pay Utility,254725***906 - TRACY ***,,IDF
SKA4B0UR24,10/11/2024 15:02,10/11/2024 15:02,Pay Bill Online from 254720***253 - JIMMY *** Acc. kbd,Completed,1000,,54500,TRUE,Pay Utility with OD Online,254720***253 - JIMMY ***,,kbd
SKA9AO8FJ3,10/11/2024 13:35,10/11/2024 13:35,Pay Bill Online from 254703***159 - Enock *** Acc. KAE,Completed,10000,,53500,TRUE,Pay Bill Online,254703***159 - Enock ***,,KAE
SKA2AFPMTG,10/11/2024 12:31,10/11/2024 12:31,Pay Bill from 072387***896 - FAITH *** Acc. hdf,Completed,9000,,43500,TRUE,Pay Utility,072387***896 - FAITH ***,,hdf
SKA2A9P2LK,10/11/2024 11:41,10/11/2024 11:41,Pay Bill from 254710***394 - LUCY *** Acc. KBG,Completed,2500,,34500,TRUE,Pay Utility,254710***394 - LUCY ***,,KBG
SKA0A8YJP4,10/11/2024 11:34,10/11/2024 11:34,Pay Bill Online from 254720***027 - ALEX *** Acc. FEB,Completed,32000,,32000,TRUE,Pay Bill Online,254720***027 - ALEX ***,,FEB
SKA29YA66C,10/11/2024 10:04,10/11/2024 10:04,Utility Account to Organization Settlement Account,Completed,,-147200,0,TRUE,Utility Account to Organization Settlement Account,979524 - ANCIENT WELLS PROPERTY MANAGERS 2,,
SKA89IXIWS,10/11/2024 07:45,10/11/2024 07:45,Pay Bill from 254793***218 - STEPHEN *** Acc. IBE,Completed,9000,,147200,TRUE,Pay Utility,254793***218 - STEPHEN ***,,IBE
SK998XFB75,09/11/2024 21:52,09/11/2024 21:52,Pay Bill from 254724***683 - STEPHEN *** Acc. KBH,Completed,10500,,138200,TRUE,Pay Utility with OD via STK,254724***683 - STEPHEN ***,,KBH
SK92857BZ6,09/11/2024 19:22,09/11/2024 19:22,Pay Bill Online from 254715***212 - BANCE *** Acc. JFE,Completed,7000,,127700,TRUE,Pay Bill Online,254715***212 - BANCE ***,,JFE
SK967HNGG2,09/11/2024 17:33,09/11/2024 17:33,Pay Bill Online from 071414***211 - KAREN *** Acc. JDF,Completed,7000,,120700,TRUE,Pay Bill Online,071414***211 - KAREN ***,,JDF
SK9476UBU0,09/11/2024 16:30,09/11/2024 16:30,Pay Bill Online from 254724***189 - GIVAN *** Acc. JEE,Completed,1000,,113700,TRUE,Pay Bill Online,254724***189 - GIVAN ***,,JEE
SK9173JOPX,09/11/2024 16:09,09/11/2024 16:09,Pay Bill Online from 254716***271 - RUKIA *** Acc. JAB,Completed,14700,,112700,TRUE,Pay Bill Online,254716***271 - RUKIA ***,,JAB
SK906TYUJW,09/11/2024 15:07,09/11/2024 15:07,Pay Bill from 254720***119 - LINDAH *** Acc. kfe,Completed,10000,,98000,TRUE,Pay Utility,254720***119 - LINDAH ***,,kfe
SK936EH76D,09/11/2024 13:27,09/11/2024 13:27,Pay Bill from 075725***130 - RASHID *** Acc. JAF,Completed,3000,,88000,TRUE,Pay Utility,075725***130 - RASHID ***,,JAF
SK9768JK1D,09/11/2024 12:48,09/11/2024 12:48,Pay Bill from 079514***674 - BARNABAS *** Acc. FGC,Completed,2000,,85000,TRUE,Pay Utility,079514***674 - BARNABAS ***,,FGC
SK92632AH4,09/11/2024 12:10,09/11/2024 12:10,Pay Bill from 070288***109 - Edith *** Acc. DDB,Completed,16000,,83000,TRUE,Pay Utility,070288***109 - Edith ***,,DDB
SK9461O3BY,09/11/2024 12:00,09/11/2024 12:00,Pay Bill from 254757***090 - Laureen *** Acc. KCJ,Completed,16000,,67000,TRUE,Pay Utility,254757***090 - Laureen ***,,KCJ
SK905ZHZK8,09/11/2024 11:45,09/11/2024 11:45,Business Pay Bill by 998094 - COOP TO PAYBILL Acc. HFH via API,Completed,17000,,51000,TRUE,Business Pay Bill via API,998094 - COOP TO PAYBILL,,HFH via API
SK965YP4VC,09/11/2024 11:39,09/11/2024 11:39,Pay Bill Online from 254723***071 - AMOS *** Acc. JCE,Completed,9000,,34000,TRUE,Pay Bill Online,254723***071 - AMOS ***,,JCE
SK975YNRRL,09/11/2024 11:39,09/11/2024 11:39,Pay Bill Online from 074378***968 - Dallias *** Acc. HBB,Completed,5000,,25000,TRUE,Pay Bill Online,074378***968 - Dallias ***,,HBB
SK945XSCZ6,09/11/2024 11:33,09/11/2024 11:33,Pay Bill from 254700***051 - CAROLYNE *** Acc. KDI,Completed,12000,,20000,TRUE,Pay Utility,254700***051 - CAROLYNE ***,,KDI
SK915GHK8F,09/11/2024 09:26,09/11/2024 09:26,Pay Bill from 254724***189 - GIVAN *** Acc. JEE,Completed,8000,,8000,TRUE,Pay Utility,254724***189 - GIVAN ***,,JEE
SK925D1VP2,09/11/2024 08:59,09/11/2024 08:59,Utility Account to Organization Settlement Account,Completed,,-82500,0,TRUE,Utility Account to Organization Settlement Account,979524 - ANCIENT WELLS PROPERTY MANAGERS 2,,
SK844MXEOW,08/11/2024 22:41,08/11/2024 22:41,Pay Bill Online from 079009***091 - Daisy *** Acc. KFI,Completed,12000,,82500,TRUE,Pay Bill Online,079009***091 - Daisy ***,,KFI
SK844KL6FS,08/11/2024 22:15,08/11/2024 22:15,Pay Bill Online from 254720***965 - JAMES *** Acc. JBI,Completed,20000,,70500,TRUE,Pay Bill Online,254720***965 - JAMES ***,,JBI
SK834527W3,08/11/2024 20:31,08/11/2024 20:31,Pay Bill Online from 074367***392 - vivian *** Acc. KBC,Completed,10000,,50500,TRUE,Pay Bill Online,074367***392 - vivian ***,,KBC
SK873Z3HYF,08/11/2024 20:02,08/11/2024 20:02,Pay Bill from 254721***448 - EVERLYNE *** Acc. JCA ,Completed,20000,,40500,TRUE,Pay Utility with OD via STK,254721***448 - EVERLYNE ***,,JCA 
SK883L8X6W,08/11/2024 19:03,08/11/2024 19:03,Pay Bill from 254799***466 - RUTH *** Acc. kdh,Completed,10000,,20500,TRUE,Pay Utility,254799***466 - RUTH ***,,kdh
SK813A8RM1,08/11/2024 18:16,08/11/2024 18:16,Pay Bill from 074053***137 - ERIC *** Acc. HFC,Completed,10500,,10500,TRUE,Pay Utility,074053***137 - ERIC ***,,HFC
SK8832GZXO,08/11/2024 17:36,08/11/2024 17:36,Utility Account to Organization Settlement Account,Completed,,-426833,0,TRUE,Utility Account to Organization Settlement Account,979524 - ANCIENT WELLS PROPERTY MANAGERS 2,,
SK822WJMSE,08/11/2024 17:03,08/11/2024 17:03,Pay Bill Online from 254713***424 - NDUTI *** Acc. jed,Completed,15000,,426833,TRUE,Pay Bill Online,254713***424 - NDUTI ***,,jed
SK862VLTLW,08/11/2024 16:58,08/11/2024 16:58,Pay Bill Online from 254725***374 - PAUL *** Acc. KAA,Completed,29333,,411833,TRUE,Pay Bill Online,254725***374 - PAUL ***,,KAA
SK812PHEPX,08/11/2024 16:21,08/11/2024 16:21,FSI to Pay Bill by 576777 - I&M BANK LTD - BANK TO TILL Acc. KGC via WEB by I&M BANK LTD - BANK TO TILL\B2BUser1,Completed,9000,,382500,TRUE,FSI to Pay Bill via API,576777 - I&M BANK LTD - BANK TO TILL,,KGC via WEB by I&M BANK LTD - BANK TO TILL\B2BUser1
SK862PCRCI,08/11/2024 16:20,08/11/2024 16:20,Pay Bill Online from 076991***050 - newton *** Acc. JBG,Completed,10000,,373500,TRUE,Pay Utility with OD Online,076991***050 - newton ***,,JBG
SK892N1TEZ,08/11/2024 16:05,08/11/2024 16:05,Pay Bill Online from 254720***253 - JIMMY *** Acc. kbd,Completed,1000,,363500,TRUE,Pay Utility with OD Online,254720***253 - JIMMY ***,,kbd
SK862E8FKW,08/11/2024 15:07,08/11/2024 15:07,Pay Bill Online from 254720***253 - JIMMY *** Acc. kbd,Completed,4000,,362500,TRUE,Pay Utility with OD Online,254720***253 - JIMMY ***,,kbd
SK861N9W24,08/11/2024 12:05,08/11/2024 12:05,Pay Bill from 070771***742 - Christine *** Acc. FAD,Completed,11000,,358500,TRUE,Pay Utility,070771***742 - Christine ***,,FAD
SK83ZYX0BZ,08/11/2024 09:02,08/11/2024 09:02,Pay Bill from 079585***077 - habiba *** Acc. DGD,Completed,8000,,347500,TRUE,Pay Utility,079585***077 - habiba ***,,DGD
SK82ZRG2C0,08/11/2024 08:01,08/11/2024 08:01,Pay Bill from 254729***724 - MERCY *** Acc. HFG,Completed,16000,,339500,TRUE,Pay Utility,254729***724 - MERCY ***,,HFG
SK89ZLRIDP,08/11/2024 07:04,08/11/2024 07:04,Pay Bill from 254797***402 - Tiberius *** Acc. KFC,Completed,9000,,323500,TRUE,Pay Utility,254797***402 - Tiberius ***,,KFC
SK81ZLC945,08/11/2024 06:59,08/11/2024 06:59,Pay Bill Online from 074150***311 - ALLAN *** Acc. DBA,Completed,16000,,314500,TRUE,Pay Bill Online,074150***311 - ALLAN ***,,DBA
SK82ZL53HQ,08/11/2024 06:56,08/11/2024 06:56,Pay Bill from 254700***767 - BAKHITA *** Acc. kcb,Completed,16000,,298500,TRUE,Pay Utility,254700***767 - BAKHITA ***,,kcb
SK89ZGRNFX,08/11/2024 04:46,08/11/2024 04:46,Pay Bill from 254722***028 - CHARLES *** Acc. JDA,Completed,20000,,282500,TRUE,Pay Utility,254722***028 - CHARLES ***,,JDA
SK70ZC60QQ,07/11/2024 23:50,07/11/2024 23:50,Pay Bill from 254702***034 - TABITHA *** Acc. IDG,Completed,9000,,262500,TRUE,Pay Utility,254702***034 - TABITHA ***,,IDG
SK70ZBMJQC,07/11/2024 23:35,07/11/2024 23:35,Pay Bill from 254724***046 - GIDEON *** Acc. KBJ,Completed,6000,,253500,TRUE,Pay Utility with OD via STK,254724***046 - GIDEON ***,,KBJ
SK72ZA3QRQ,07/11/2024 23:04,07/11/2024 23:04,Pay Bill Online from 254712***712 - JUDELEEN *** Acc. IEA,Completed,15000,,247500,TRUE,Pay Bill Online,254712***712 - JUDELEEN ***,,IEA
SK72Z9XUA0,07/11/2024 23:02,07/11/2024 23:02,Pay Bill from 254724***046 - GIDEON *** Acc. KBJ,Completed,8000,,232500,TRUE,Pay Utility,254724***046 - GIDEON ***,,KBJ
SK73YKGNVT,07/11/2024 19:58,07/11/2024 19:58,Pay Bill Online from 254718***397 - JIMMY *** Acc. DCB,Completed,16000,,224500,TRUE,Pay Bill Online,254718***397 - JIMMY ***,,DCB
SK70YI2IVM,07/11/2024 19:47,07/11/2024 19:47,Pay Bill from 079432***423 - BENARD *** Acc. HCB,Completed,16000,,208500,TRUE,Pay Utility,079432***423 - BENARD ***,,HCB
SK70YB4YH0,07/11/2024 19:18,07/11/2024 19:18,Pay Bill from 254704***496 - PETER *** Acc. DFD,Completed,20000,,192500,TRUE,Pay Utility,254704***496 - PETER ***,,DFD
SK73XK55MD,07/11/2024 17:15,07/11/2024 17:15,Pay Bill Online from 254790***254 - BROOKLYN *** Acc. JBB,Completed,15000,,172500,TRUE,Pay Bill Online,254790***254 - BROOKLYN ***,,JBB
SK71XH7P4F,07/11/2024 16:58,07/11/2024 16:58,Pay Bill from 079215***727 - jack *** Acc. V31,Completed,7500,,157500,TRUE,Pay Utility,079215***727 - jack ***,,V31
SK70XBT5XE,07/11/2024 16:26,07/11/2024 16:26,Pay Bill from 254711***672 - ALLAN *** Acc. IEI,Completed,15000,,150000,TRUE,Pay Utility,254711***672 - ALLAN ***,,IEI
SK74X9AXQI,07/11/2024 16:09,07/11/2024 16:09,Pay Bill from 254796***539 - MARION *** Acc. HGF,Completed,9500,,135000,TRUE,Pay Utility,254796***539 - MARION ***,,HGF
SK75WZKH3X,07/11/2024 15:04,07/11/2024 15:04,Pay Bill from 254796***018 - PEACE *** Acc. Jah,Completed,16000,,125500,TRUE,Pay Utility,254796***018 - PEACE ***,,Jah
SK78WMT2JE,07/11/2024 13:39,07/11/2024 13:39,Pay Bill from 254799***200 - PURITY *** Acc. HDC,Completed,10500,,109500,TRUE,Pay Utility,254799***200 - PURITY ***,,HDC
SK74WG4YWQ,07/11/2024 12:54,07/11/2024 12:54,Pay Bill Online from 254706***634 - CLINTON *** Acc. FDB,Completed,17000,,99000,TRUE,Pay Bill Online,254706***634 - CLINTON ***,,FDB
SK75W4M9HB,07/11/2024 11:30,07/11/2024 11:30,Pay Bill from 254700***056 - FREDRICK *** Acc. JAA,Completed,20000,,82000,TRUE,Pay Utility,254700***056 - FREDRICK ***,,JAA
SK70W2TARA,07/11/2024 11:17,07/11/2024 11:17,Pay Bill from 254719***910 - KEVIN *** Acc. idd,Completed,11000,,62000,TRUE,Pay Utility,254719***910 - KEVIN ***,,idd
SK76W1G1XI,07/11/2024 11:06,07/11/2024 11:06,Pay Bill Online from 254721***235 - VICTOR *** Acc. HEB,Completed,17000,,51000,TRUE,Pay Bill Online,254721***235 - VICTOR ***,,HEB
SK72VYTPFI,07/11/2024 10:47,07/11/2024 10:47,Pay Bill from 254729***215 - LANGAT *** Acc. KAG,Completed,10000,,34000,TRUE,Pay Utility,254729***215 - LANGAT ***,,KAG
SK78VR5CBC,07/11/2024 09:50,07/11/2024 09:50,Pay Bill from 254723***069 - ANN *** Acc. IFG,Completed,9000,,24000,TRUE,Pay Utility,254723***069 - ANN ***,,IFG
SK71VET18N,07/11/2024 08:12,07/11/2024 08:12,Pay Bill Online from 254717***935 - LYDIAH *** Acc. FFB,Completed,15000,,15000,TRUE,Pay Bill Online,254717***935 - LYDIAH ***,,FFB
SK72V5E0CA,07/11/2024 06:30,07/11/2024 06:30,Utility Account to Organization Settlement Account,Completed,,-210700,0,TRUE,Utility Account to Organization Settlement Account,979524 - ANCIENT WELLS PROPERTY MANAGERS 2,,
SK79V3QB3Z,07/11/2024 05:47,07/11/2024 05:47,Pay Bill from 254710***394 - LUCY *** Acc. KBG,Completed,6000,,210700,TRUE,Pay Utility,254710***394 - LUCY ***,,KBG
SK60UGCMUU,06/11/2024 20:46,06/11/2024 20:46,Pay Bill from 254719***823 - MOSES *** Acc. Jcc,Completed,10000,,204700,TRUE,Pay Utility with OD via STK,254719***823 - MOSES ***,,Jcc
SK67TZOQLH,06/11/2024 19:28,06/11/2024 19:28,Pay Bill Online from 254720***119 - DUNCAN *** Acc. FAE,Completed,15000,,194700,TRUE,Pay Bill Online,254720***119 - DUNCAN ***,,FAE
SK68TIUVOQ,06/11/2024 18:19,06/11/2024 18:19,Pay Bill from 254726***330 - JOHN *** Acc. IFH,Completed,15000,,179700,TRUE,Pay Utility,254726***330 - JOHN ***,,IFH
SK66TFXMDO,06/11/2024 18:05,06/11/2024 18:05,Pay Bill Online from 254714***668 - ZACHARY *** Acc. jad,Completed,16000,,164700,TRUE,Pay Bill Online,254714***668 - ZACHARY ***,,jad
SK69TE57H7,06/11/2024 17:56,06/11/2024 17:56,Pay Bill Online from 071580***956 - Mercy *** Acc. FFE,Completed,15000,,148700,TRUE,Pay Bill Online,071580***956 - Mercy ***,,FFE
SK63TDARCR,06/11/2024 17:51,06/11/2024 17:51,Pay Bill from 011545***292 - MONICA *** Acc. FCD,Completed,11000,,133700,TRUE,Pay Utility,011545***292 - MONICA ***,,FCD
SK63T7W4BF,06/11/2024 17:23,06/11/2024 17:23,Pay Bill from 011568***585 - Sophia *** Acc. FAC,Completed,9000,,122700,TRUE,Pay Utility,011568***585 - Sophia ***,,FAC
SK69SMKN0L,06/11/2024 15:08,06/11/2024 15:08,Pay Bill from 254707***264 - KELVIN *** Acc. HDE ,Completed,1600,,113700,TRUE,Pay Utility,254707***264 - KELVIN ***,,HDE 
SK67SMD4O1,06/11/2024 15:06,06/11/2024 15:06,Pay Bill from 074318***837 - Caroline *** Acc. JDC,Completed,10000,,112100,TRUE,Pay Utility,074318***837 - Caroline ***,,JDC
SK62SLKQMU,06/11/2024 15:01,06/11/2024 15:01,Pay Bill from 070700***491 - Dennis *** Acc. HDE,Completed,7100,,102100,TRUE,Pay Utility,070700***491 - Dennis ***,,HDE
SK61S6OZ7B,06/11/2024 13:22,06/11/2024 13:22,Pay Bill Online from 254721***037 - ERIC *** Acc. HCG,Completed,15000,,95000,TRUE,Pay Bill Online,254721***037 - ERIC ***,,HCG
SK64S0WW98,06/11/2024 12:43,06/11/2024 12:43,Pay Bill from 254725***531 - KIPKORIR *** Acc. DFB,Completed,15000,,80000,TRUE,Pay Utility,254725***531 - KIPKORIR ***,,DFB
SK67RUQ4T1,06/11/2024 11:59,06/11/2024 11:59,Pay Bill from 254700***550 - BENARD *** Acc. DBB,Completed,16000,,65000,TRUE,Pay Utility,254700***550 - BENARD ***,,DBB
SK67RTKODJ,06/11/2024 11:50,06/11/2024 11:50,Pay Bill Online from 254723***777 - EVANS *** Acc. KCH,Completed,10000,,49000,TRUE,Pay Utility with OD Online,254723***777 - EVANS ***,,KCH
SK63RS25XD,06/11/2024 11:39,06/11/2024 11:39,Pay Bill from 254724***274 - WINFRED *** Acc. DDC,Completed,4000,,39000,TRUE,Pay Utility,254724***274 - WINFRED ***,,DDC
SK69RDF5O5,06/11/2024 09:51,06/11/2024 09:51,Merchant Pay Utility Received from 6227093 -     RACHAEL WANZA MUIA      Acc. ancient wines,Completed,6000,,35000,TRUE,Merchant Pay Utility with OD,6227093 -     RACHAEL WANZA MUIA     ,,ancient wines
SK62RAFEJM,06/11/2024 09:28,06/11/2024 09:28,Pay Bill Online from 254721***995 - BERNICE *** Acc. KFK,Completed,16000,,29000,TRUE,Pay Bill Online,254721***995 - BERNICE ***,,KFK
SK69R9V7EL,06/11/2024 09:23,06/11/2024 09:23,Pay Bill Online from 254741***057 - BONIFACE *** Acc. Kge,Completed,10000,,13000,TRUE,Pay Bill Online,254741***057 - BONIFACE ***,,Kge
SK65R6TTAT,06/11/2024 09:00,06/11/2024 09:00,Pay Bill from 074378***968 - Dallias *** Acc. HBB,Completed,3000,,3000,TRUE,Pay Utility,074378***968 - Dallias ***,,HBB
SK66R4V2KW,06/11/2024 08:44,06/11/2024 08:44,Utility Account to Organization Settlement Account,Completed,,-520000,0,TRUE,Utility Account to Organization Settlement Account,979524 - ANCIENT WELLS PROPERTY MANAGERS 2,,
SK66R4AJOW,06/11/2024 08:40,06/11/2024 08:40,Pay Bill from 254706***081 - FATUMA *** Acc. HED,Completed,9000,,520000,TRUE,Pay Utility,254706***081 - FATUMA ***,,HED
SK62QZHZ8Q,06/11/2024 08:00,06/11/2024 08:00,Pay Bill from 254705***030 - FRIDAH *** Acc. JEH,Completed,16000,,511000,TRUE,Pay Utility,254705***030 - FRIDAH ***,,JEH
SK67QY6P5L,06/11/2024 07:48,06/11/2024 07:48,Pay Bill Online from 071150***447 - Gabriel *** Acc. FDC,Completed,9000,,495000,TRUE,Pay Bill Online,071150***447 - Gabriel ***,,FDC
SK64QOYS34,06/11/2024 05:01,06/11/2024 05:01,Pay Bill Online from 254723***873 - FREDRICK *** Acc. jbf,Completed,8000,,486000,TRUE,Pay Bill Online,254723***873 - FREDRICK ***,,jbf
SK62QOXSOM,06/11/2024 04:59,06/11/2024 04:59,Pay Bill Online from 254702***678 - JOHN *** Acc. DEB,Completed,16000,,478000,TRUE,Pay Bill Online,254702***678 - JOHN ***,,DEB
SK63QMH3DR,06/11/2024 00:55,06/11/2024 00:55,Pay Bill from 254792***695 - KIPROTICH *** Acc. HDD,Completed,10000,,462000,TRUE,Pay Utility,254792***695 - KIPROTICH ***,,HDD
SK58QKLTLQ,05/11/2024 23:40,05/11/2024 23:40,Pay Bill from 254720***856 - FLORENCE *** Acc. JEC,Completed,11000,,452000,TRUE,Pay Utility,254720***856 - FLORENCE ***,,JEC
SK50QJWP6W,05/11/2024 23:22,05/11/2024 23:22,Pay Bill from 254717***848 - MARY *** Acc. FGD,Completed,6000,,441000,TRUE,Pay Utility,254717***848 - MARY ***,,FGD
SK59QJWBFL,05/11/2024 23:22,05/11/2024 23:22,Pay Bill Online from 254720***253 - JIMMY *** Acc. kbd,Completed,2000,,435000,TRUE,Pay Utility with OD Online,254720***253 - JIMMY ***,,kbd
SK57QIDCWL,05/11/2024 22:53,05/11/2024 22:53,Pay Bill from 071515***284 - Clifford *** Acc. lC1 ,Completed,16000,,433000,TRUE,Pay Utility,071515***284 - Clifford ***,,lC1 
SK55QHC1UJ,05/11/2024 22:38,05/11/2024 22:38,Pay Bill from 079642***883 - jeniffer *** Acc. HFF,Completed,10500,,417000,TRUE,Pay Utility,079642***883 - jeniffer ***,,HFF
SK53QBZ8XZ,05/11/2024 21:43,05/11/2024 21:43,Pay Bill from 254712***818 - OYUGI *** Acc. FCB,Completed,16000,,406500,TRUE,Pay Utility,254712***818 - OYUGI ***,,FCB
SK52Q3EL3A,05/11/2024 20:46,05/11/2024 20:46,Pay Bill Online from 254708***223 - DENNIS *** Acc. DCA,Completed,16000,,390500,TRUE,Pay Bill Online,254708***223 - DENNIS ***,,DCA
SK59PZPINX,05/11/2024 20:26,05/11/2024 20:26,Pay Bill Online from 254711***716 - RODGERS *** Acc. IGC,Completed,9000,,374500,TRUE,Pay Bill Online,254711***716 - RODGERS ***,,IGC
SK53PWL72V,05/11/2024 20:11,05/11/2024 20:11,Pay Bill from 070584***905 - Ruth *** Acc. kdg,Completed,10000,,365500,TRUE,Pay Utility,070584***905 - Ruth ***,,kdg
SK51PVSSIB,05/11/2024 20:07,05/11/2024 20:07,Pay Bill Online from 254716***144 - PETER *** Acc. FBB,Completed,16000,,355500,TRUE,Pay Bill Online,254716***144 - PETER ***,,FBB
SK59PSJWR3,05/11/2024 19:51,05/11/2024 19:51,Pay Bill Online from 254741***957 - Mercy *** Acc. Jcb,Completed,15000,,339500,TRUE,Pay Bill Online,254741***957 - Mercy ***,,Jcb
SK52PHFBPO,05/11/2024 19:05,05/11/2024 19:05,Pay Bill from 074262***652 - Charity *** Acc. IEB,Completed,15000,,324500,TRUE,Pay Utility,074262***652 - Charity ***,,IEB
SK52PDT1O0,05/11/2024 18:50,05/11/2024 18:50,Pay Bill Online from 254727***993 - MAUREEN *** Acc. IBD,Completed,11000,,309500,TRUE,Pay Bill Online,254727***993 - MAUREEN ***,,IBD
SK54P9O3TY,05/11/2024 18:34,05/11/2024 18:34,Pay Bill from 254715***045 - FRIDAH *** Acc. KFJ ,Completed,16000,,298500,TRUE,Pay Utility with OD via STK,254715***045 - FRIDAH ***,,KFJ 
SK55P8G4T3,05/11/2024 18:28,05/11/2024 18:28,Pay Bill from 254711***721 - JUDY *** Acc. KAF,Completed,10000,,282500,TRUE,Pay Utility with OD via STK,254711***721 - JUDY ***,,KAF
SK52OQB02Y,05/11/2024 16:55,05/11/2024 16:55,Pay Bill from 075844***767 - shukria *** Acc. HAC,Completed,10000,,272500,TRUE,Pay Utility,075844***767 - shukria ***,,HAC
SK56OMSJT4,05/11/2024 16:34,05/11/2024 16:34,Pay Bill from 079364***949 - VIVIAN *** Acc. IFE,Completed,9500,,262500,TRUE,Pay Utility,079364***949 - VIVIAN ***,,IFE
SK56OGE3MM,05/11/2024 15:52,05/11/2024 15:52,Pay Bill Online from 254715***656 - DENNIS *** Acc. kfa,Completed,12000,,253000,TRUE,Pay Utility with OD Online,254715***656 - DENNIS ***,,kfa
SK56O9UHTM,05/11/2024 15:08,05/11/2024 15:08,Pay Bill from 070115***700 - Anabel *** Acc. jdj,Completed,15000,,241000,TRUE,Pay Utility,070115***700 - Anabel ***,,jdj
SK54O6FD6A,05/11/2024 14:44,05/11/2024 14:44,Pay Bill Online from 254721***713 - RHODA *** Acc. Jfh,Completed,17000,,226000,TRUE,Pay Bill Online,254721***713 - RHODA ***,,Jfh
SK52O3870A,05/11/2024 14:22,05/11/2024 14:22,Pay Bill from 072438***624 - FATUMA *** Acc. FAB,Completed,16000,,209000,TRUE,Pay Utility,072438***624 - FATUMA ***,,FAB
SK54O2GI7M,05/11/2024 14:17,05/11/2024 14:17,Pay Bill from 254728***256 - NICHOLAS *** Acc. FBE,Completed,15000,,193000,TRUE,Pay Utility,254728***256 - NICHOLAS ***,,FBE
SK50NX02AC,05/11/2024 13:40,05/11/2024 13:40,Pay Bill from 254798***621 - MERCY *** Acc. jcj,Completed,16000,,178000,TRUE,Pay Utility,254798***621 - MERCY ***,,jcj
SK58NWYLP8,05/11/2024 13:40,05/11/2024 13:40,Pay Bill from 254727***545 - SERAH *** Acc. KGD,Completed,10000,,162000,TRUE,Pay Utility,254727***545 - SERAH ***,,KGD
SK53NW4SND,05/11/2024 13:35,05/11/2024 13:35,Pay Bill from 254703***305 - MARTHA *** Acc. iai,Completed,15000,,152000,TRUE,Pay Utility,254703***305 - MARTHA ***,,iai
SK53NR4HWF,05/11/2024 13:02,05/11/2024 13:02,Pay Bill Online from 254712***681 - DENNIS *** Acc. HAG,Completed,16000,,137000,TRUE,Pay Utility with OD Online,254712***681 - DENNIS ***,,HAG
SK57NP9X2Z,05/11/2024 12:49,05/11/2024 12:49,Pay Bill from 254719***942 - NORAH *** Acc. KDA,Completed,16000,,121000,TRUE,Pay Utility,254719***942 - NORAH ***,,KDA
SK56NJ4WW6,05/11/2024 12:06,05/11/2024 12:06,Pay Bill from 254717***324 - Christine *** Acc. KDF,Completed,10000,,105000,TRUE,Pay Utility,254717***324 - Christine ***,,KDF
SK54NHYU2I,05/11/2024 11:58,05/11/2024 11:58,Pay Bill from 254701***613 - ELDERKIN *** Acc. IFB,Completed,15000,,95000,TRUE,Pay Utility,254701***613 - ELDERKIN ***,,IFB
SK54N8S910,05/11/2024 10:50,05/11/2024 10:50,Pay Bill Online from 254720***070 - Michelle *** Acc. JEJ,Completed,16000,,80000,TRUE,Pay Bill Online,254720***070 - Michelle ***,,JEJ
SK52N3O04S,05/11/2024 10:13,05/11/2024 10:13,Pay Bill from 254702***981 - VICTORIA *** Acc. KCE,Completed,10000,,64000,TRUE,Pay Utility,254702***981 - VICTORIA ***,,KCE
SK57MW2ZFV,05/11/2024 09:16,05/11/2024 09:16,Pay Bill Online from 070640***366 - LUCY *** Acc. KDB,Completed,16000,,54000,TRUE,Pay Bill Online,070640***366 - LUCY ***,,KDB
SK59MOYCDT,05/11/2024 08:19,05/11/2024 08:19,Pay Bill from 254716***682 - JUSTINE *** Acc. HAA,Completed,17000,,38000,TRUE,Pay Utility,254716***682 - JUSTINE ***,,HAA
SK52MO35UI,05/11/2024 08:12,05/11/2024 08:12,Pay Bill from 254722***335 - SOLOMON *** Acc. IBF,Completed,11000,,21000,TRUE,Pay Utility,254722***335 - SOLOMON ***,,IBF
SK58MKYKG6,05/11/2024 07:45,05/11/2024 07:45,Pay Bill Online from 254705***201 - NZIOKA *** Acc. JDG,Completed,10000,,10000,TRUE,Pay Bill Online,254705***201 - NZIOKA ***,,JDG
SK56MJMVMA,05/11/2024 07:32,05/11/2024 07:32,Utility Account to Organization Settlement Account,Completed,,-362500,0,TRUE,Utility Account to Organization Settlement Account,979524 - ANCIENT WELLS PROPERTY MANAGERS 2,,
SK52MIJPFI,05/11/2024 07:22,05/11/2024 07:22,Pay Bill from 254714***203 - PATRICK *** Acc. KEI,Completed,12000,,362500,TRUE,Pay Utility,254714***203 - PATRICK ***,,KEI
SK50M97QL0,05/11/2024 00:41,05/11/2024 00:41,Pay Bill Online from 254707***977 - HOSTEEN *** Acc. HGG,Completed,15000,,350500,TRUE,Pay Utility with OD Online,254707***977 - HOSTEEN ***,,HGG
SK59M88C63,05/11/2024 00:04,05/11/2024 00:04,Business Pay Bill by 488519 - NCBA  Bank M-pesa Acc. JGA via API,Completed,20000,,335500,TRUE,Business Pay Bill via API,488519 - NCBA  Bank M-pesa,,JGA via API
SK48M0KG6E,04/11/2024 21:59,04/11/2024 21:59,Pay Bill Online from 254725***394 - RACHAEL *** Acc. JFB,Completed,15000,,315500,TRUE,Pay Bill Online,254725***394 - RACHAEL ***,,JFB
SK45LZAYCN,04/11/2024 21:48,04/11/2024 21:48,Pay Bill from 074547***241 - Tonny *** Acc. IDC,Completed,9500,,300500,TRUE,Pay Utility,074547***241 - Tonny ***,,IDC
SK45LU6F2L,04/11/2024 21:10,04/11/2024 21:10,Pay Bill from 074546***503 - HAWO *** Acc. KGK,Completed,16000,,291000,TRUE,Pay Utility,074546***503 - HAWO ***,,KGK
SK49LSH6Q1,04/11/2024 21:00,04/11/2024 21:00,Pay Bill Online from 076802***575 - DOREEN *** Acc. HCD,Completed,10000,,275000,TRUE,Pay Bill Online,076802***575 - DOREEN ***,,HCD
SK49LQZ9U3,04/11/2024 20:50,04/11/2024 20:50,Pay Bill Online from 254722***051 - GILBERT *** Acc. JBE,Completed,3000,,265000,TRUE,Pay Utility with OD Online,254722***051 - GILBERT ***,,JBE
SK49LPLHZF,04/11/2024 20:42,04/11/2024 20:42,Pay Bill Online from 254712***871 - PAULA *** Acc. hea,Completed,16000,,262000,TRUE,Pay Bill Online,254712***871 - PAULA ***,,hea
SK43LPDL4T,04/11/2024 20:41,04/11/2024 20:41,Pay Bill from 011412***024 - Sharad *** Acc. KCK,Completed,15000,,246000,TRUE,Pay Utility,011412***024 - Sharad ***,,KCK
SK49LF1JS5,04/11/2024 19:49,04/11/2024 19:49,Pay Bill from 254724***261 - SELISILAS *** Acc. HEC,Completed,10000,,231000,TRUE,Pay Utility,254724***261 - SELISILAS ***,,HEC
SK46LAEQNC,04/11/2024 19:29,04/11/2024 19:29,Pay Bill Online from 072225***105 - SALIM *** Acc. FGF,Completed,16000,,221000,TRUE,Pay Bill Online,072225***105 - SALIM ***,,FGF
SK49KQZRBZ,04/11/2024 18:05,04/11/2024 18:05,Pay Bill from 075760***316 - MOHAMED *** Acc. IEC,Completed,10000,,205000,TRUE,Pay Utility with OD via STK,075760***316 - MOHAMED ***,,IEC
SK44KGKTYA,04/11/2024 17:11,04/11/2024 17:11,Pay Bill from 254718***582 - GERARD *** Acc. IBH,Completed,20700,,195000,TRUE,Pay Utility,254718***582 - GERARD ***,,IBH
SK49KCVJWZ,04/11/2024 16:49,04/11/2024 16:49,Pay Bill from 254718***582 - GERARD *** Acc. IBH,Completed,2300,,174300,TRUE,Pay Utility,254718***582 - GERARD ***,,IBH
SK48KBS0F4,04/11/2024 16:42,04/11/2024 16:42,Pay Bill from 254710***391 - CHEPKOECH *** Acc. KAH,Completed,12000,,172000,TRUE,Pay Utility,254710***391 - CHEPKOECH ***,,KAH
SK49KB6I8L,04/11/2024 16:39,04/11/2024 16:39,Pay Bill Online from 254723***064 - ANDREW *** Acc. hbg,Completed,16000,,160000,TRUE,Pay Bill Online,254723***064 - ANDREW ***,,hbg
SK49K8HE4V,04/11/2024 16:22,04/11/2024 16:22,Pay Bill from 254724***503 - GEOFREY *** Acc. JFF,Completed,10000,,144000,TRUE,Pay Utility,254724***503 - GEOFREY ***,,JFF
SK45K8F1ZL,04/11/2024 16:21,04/11/2024 16:21,Pay Bill Online from 254723***184 - ELIJAH *** Acc. IGF,Completed,10000,,134000,TRUE,Pay Bill Online,254723***184 - ELIJAH ***,,IGF
SK47K4F71P,04/11/2024 15:54,04/11/2024 15:54,Pay Bill from 254713***244 - MARTIN *** Acc. DFA,Completed,16000,,124000,TRUE,Pay Utility,254713***244 - MARTIN ***,,DFA
SK41JXZIYR,04/11/2024 15:10,04/11/2024 15:10,Pay Bill from 254724***882 - JOEL *** Acc. fee,Completed,16000,,108000,TRUE,Pay Utility,254724***882 - JOEL ***,,fee
SK41JVMJD7,04/11/2024 14:53,04/11/2024 14:53,Pay Bill Online from 254729***858 - AMBROSE *** Acc. KEJ,Completed,16000,,92000,TRUE,Pay Bill Online,254729***858 - AMBROSE ***,,KEJ
SK40JQWY1I,04/11/2024 14:21,04/11/2024 14:21,Pay Bill from 254701***750 - gillian *** Acc. ICG,Completed,9000,,76000,TRUE,Pay Utility,254701***750 - gillian ***,,ICG
SK42JNZSH0,04/11/2024 14:01,04/11/2024 14:01,Pay Bill from 074340***561 - Daisy *** Acc. IDI,Completed,16000,,67000,TRUE,Pay Utility,074340***561 - Daisy ***,,IDI
SK46JDJTEC,04/11/2024 12:52,04/11/2024 12:52,Pay Bill from 254725***532 - Jackline *** Acc. HGC,Completed,21000,,51000,TRUE,Pay Utility,254725***532 - Jackline ***,,HGC
SK47J7TI59,04/11/2024 12:12,04/11/2024 12:12,Pay Bill from 076974***683 - Joy *** Acc. ICD,Completed,11000,,30000,TRUE,Pay Utility,076974***683 - Joy ***,,ICD
SK44J2WO9S,04/11/2024 11:36,04/11/2024 11:36,Pay Bill Online from 254742***013 - HANEST *** Acc. IED,Completed,11000,,19000,TRUE,Pay Bill Online,254742***013 - HANEST ***,,IED
SK49J13BMN,04/11/2024 11:23,04/11/2024 11:23,Pay Bill from 254728***349 - JOSEPH *** Acc. IBG,Completed,8000,,8000,TRUE,Pay Utility,254728***349 - JOSEPH ***,,IBG
SK43IYGXLL,04/11/2024 11:04,04/11/2024 11:04,Utility Account to Organization Settlement Account,Completed,,-168500,0,TRUE,Utility Account to Organization Settlement Account,979524 - ANCIENT WELLS PROPERTY MANAGERS 2,,
SK44IT048U,04/11/2024 10:24,04/11/2024 10:24,Pay Bill from 254703***744 - Esther *** Acc. KEF,Completed,10000,,168500,TRUE,Pay Utility,254703***744 - Esther ***,,KEF
SK42IMRARS,04/11/2024 09:38,04/11/2024 09:38,Pay Bill Online from 074635***450 - Alice *** Acc. FBC,Completed,9000,,158500,TRUE,Pay Bill Online,074635***450 - Alice ***,,FBC
SK46IM9U70,04/11/2024 09:34,04/11/2024 09:34,Pay Bill from 254722***622 - CHARITY *** Acc. ffd,Completed,11000,,149500,TRUE,Pay Utility,254722***622 - CHARITY ***,,ffd
SK40IGQ6PE,04/11/2024 08:51,04/11/2024 08:51,Pay Bill from 074337***291 - Ann *** Acc. DGC,Completed,19000,,138500,TRUE,Pay Utility,074337***291 - Ann ***,,DGC
SK47I9ZN07,04/11/2024 07:55,04/11/2024 07:55,Pay Bill Online from 254729***700 - MICAH *** Acc. HFE,Completed,10500,,119500,TRUE,Pay Bill Online,254729***700 - MICAH ***,,HFE
SK41I7R39H,04/11/2024 07:35,04/11/2024 07:35,Pay Bill Online from 011425***335 - ISAAC *** Acc. HAB ,Completed,16000,,109000,TRUE,Pay Bill Online,011425***335 - ISAAC ***,,HAB 
SK44I4GDY4,04/11/2024 07:00,04/11/2024 07:00,Pay Bill from 254745***401 - mirriam *** Acc. kci,Completed,11000,,93000,TRUE,Pay Utility,254745***401 - mirriam ***,,kci
SK34HU7C62,03/11/2024 23:15,03/11/2024 23:15,Pay Bill from 254791***764 - ISAIAH *** Acc. KGI,Completed,10000,,82000,TRUE,Pay Utility,254791***764 - ISAIAH ***,,KGI
SK31HS57NV,03/11/2024 22:41,03/11/2024 22:41,Pay Bill from 254722***136 - NADI *** Acc. JEA,Completed,13000,,72000,TRUE,Pay Utility,254722***136 - NADI ***,,JEA
SK37HEU8KN,03/11/2024 20:47,03/11/2024 20:47,Pay Bill from 011456***715 - ZAINAB *** Acc. HAC,Completed,10000,,59000,TRUE,Pay Utility,011456***715 - ZAINAB ***,,HAC
SK36GTIUJ4,03/11/2024 18:57,03/11/2024 18:57,Pay Bill from 254706***396 - Kipkoech *** Acc. HGD,Completed,9000,,49000,TRUE,Pay Utility,254706***396 - Kipkoech ***,,HGD
SK37GRYOPB,03/11/2024 18:50,03/11/2024 18:50,Pay Bill from 254728***207 - AGNES *** Acc. Fce,Completed,15000,,40000,TRUE,Pay Utility,254728***207 - AGNES ***,,Fce
SK30GGYDYM,03/11/2024 17:53,03/11/2024 17:53,Pay Bill from 254706***560 - ALEX *** Acc. HBD,Completed,10000,,25000,TRUE,Pay Utility,254706***560 - ALEX ***,,HBD
SK39G9BSE1,03/11/2024 17:06,03/11/2024 17:06,Pay Bill Online from 254721***294 - GRACE *** Acc. IGH,Completed,15000,,15000,TRUE,Pay Bill Online,254721***294 - GRACE ***,,IGH
SK31G8M9QF,03/11/2024 17:01,03/11/2024 17:01,Utility Account to Organization Settlement Account,Completed,,-155500,0,TRUE,Utility Account to Organization Settlement Account,979524 - ANCIENT WELLS PROPERTY MANAGERS 2,,
SK35FX9GED,03/11/2024 15:47,03/11/2024 15:47,Pay Bill from 254711***815 - NAOMI *** Acc. KBA,Completed,10000,,155500,TRUE,Pay Utility,254711***815 - NAOMI ***,,KBA
SK37FMNHAP,03/11/2024 14:34,03/11/2024 14:34,Pay Bill Online from 254721***178 - PHANICE *** Acc. FBF,Completed,16000,,145500,TRUE,Pay Bill Online,254721***178 - PHANICE ***,,FBF
SK36FF9ANO,03/11/2024 13:42,03/11/2024 13:42,Pay Bill from 254726***835 - LAWRENCE *** Acc. KDJ,Completed,16000,,129500,TRUE,Pay Utility,254726***835 - LAWRENCE ***,,KDJ
SK32F9U1TI,03/11/2024 13:03,03/11/2024 13:03,Pay Bill from 254725***550 - FRANKLINE *** Acc. KAD,Completed,12000,,113500,TRUE,Pay Utility,254725***550 - FRANKLINE ***,,KAD
SK33EH1YEN,03/11/2024 09:05,03/11/2024 09:05,Pay Bill Online from 254702***597 - kevin *** Acc. HGE,Completed,10000,,101500,TRUE,Pay Bill Online,254702***597 - kevin ***,,HGE
SK35E4DIL5,03/11/2024 06:54,03/11/2024 06:54,Pay Bill Online from 254710***992 - SIMON *** Acc. JCD,Completed,15000,,91500,TRUE,Pay Bill Online,254710***992 - SIMON ***,,JCD
SK31E0YD0P,03/11/2024 04:48,03/11/2024 04:48,Pay Bill from 254718***358 - Job *** Acc. ICF,Completed,11000,,76500,TRUE,Pay Utility,254718***358 - Job ***,,ICF
SK33DXOUHL,03/11/2024 00:51,03/11/2024 00:51,Pay Bill Online from 254720***253 - JIMMY *** Acc. kbd,Completed,1000,,65500,TRUE,Pay Utility with OD Online,254720***253 - JIMMY ***,,kbd
SK28CWE8RA,02/11/2024 19:28,02/11/2024 19:28,Pay Bill from 254791***982 - ADULLAHI *** Acc. jci,Completed,9000,,64500,TRUE,Pay Utility,254791***982 - ADULLAHI ***,,jci
SK29BZSL81,02/11/2024 16:49,02/11/2024 16:49,Pay Bill from 254722***104 - ERICK *** Acc. HAE,Completed,11000,,55500,TRUE,Pay Utility,254722***104 - ERICK ***,,HAE
SK22BSV0CK,02/11/2024 16:06,02/11/2024 16:06,Business Pay Bill by 3031821 - DUKAPAY LIMITED B2C Acc. IEF via API,Completed,11000,,44500,TRUE,Business Pay Bill via API,3031821 - DUKAPAY LIMITED B2C,,IEF via API
SK28BQJGM4,02/11/2024 15:51,02/11/2024 15:51,Pay Bill from 254743***477 - FAITH *** Acc. IGE,Completed,9000,,33500,TRUE,Pay Utility,254743***477 - FAITH ***,,IGE
SK26BMMF7O,02/11/2024 15:26,02/11/2024 15:26,Pay Bill from 254724***488 - NICHOLAS *** Acc. JDE,Completed,9500,,24500,TRUE,Pay Utility,254724***488 - NICHOLAS ***,,JDE
SK24BJO3IY,02/11/2024 15:07,02/11/2024 15:07,Pay Bill from 254723***380 - RHODAH *** Acc. HEG,Completed,15000,,15000,TRUE,Pay Utility,254723***380 - RHODAH ***,,HEG
SK27B4WQ59,02/11/2024 13:33,02/11/2024 13:33,Utility Account to Organization Settlement Account,Completed,,-222000,0,TRUE,Utility Account to Organization Settlement Account,979524 - ANCIENT WELLS PROPERTY MANAGERS 2,,
SK24AUTX5M,02/11/2024 12:26,02/11/2024 12:26,Pay Bill Online from 254722***473 - SAMSON *** Acc. IAB,Completed,15000,,222000,TRUE,Pay Bill Online,254722***473 - SAMSON ***,,IAB
SK28APYQZS,02/11/2024 11:52,02/11/2024 11:52,Pay Bill Online from 254721***560 - ANDREW *** Acc. JBJ,Completed,16000,,207000,TRUE,Pay Bill Online,254721***560 - ANDREW ***,,JBJ
SK24ALX35M,02/11/2024 11:23,02/11/2024 11:23,Pay Bill from 070656***358 - HARRIET *** Acc. HBA,Completed,16000,,191000,TRUE,Pay Utility,070656***358 - HARRIET ***,,HBA
SK23AK8PUF,02/11/2024 11:11,02/11/2024 11:11,Pay Bill Online from 254729***719 - JACINTA *** Acc. FFF,Completed,17000,,175000,TRUE,Pay Bill Online,254729***719 - JACINTA ***,,FFF
SK28AFWG1O,02/11/2024 10:39,02/11/2024 10:39,Pay Bill Online from 254721***149 - ABDIRIZAK *** Acc. IEG,Completed,9000,,158000,TRUE,Pay Bill Online,254721***149 - ABDIRIZAK ***,,IEG
SK21AB6XFV,02/11/2024 10:04,02/11/2024 10:04,Pay Bill from 254705***606 - JOSEPH *** Acc. fed,Completed,15000,,149000,TRUE,Pay Utility,254705***606 - JOSEPH ***,,fed
SK299YVZAZ,02/11/2024 08:28,02/11/2024 08:28,Pay Bill Online from 254719***821 - KIPKEMOI *** Acc. JDD,Completed,15000,,134000,TRUE,Pay Bill Online,254719***821 - KIPKEMOI ***,,JDD
SK139EMSKZ,01/11/2024 23:04,01/11/2024 23:04,Pay Bill from 254716***398 - HYVENE *** Acc. KDE,Completed,10000,,119000,TRUE,Pay Utility,254716***398 - HYVENE ***,,KDE
SK189B7N80,01/11/2024 22:18,01/11/2024 22:18,Business Pay Bill by 488519 - NCBA  Bank M-pesa Acc. KBF via API,Completed,10000,,109000,TRUE,Business Pay Bill via API,488519 - NCBA  Bank M-pesa,,KBF via API
SK129672MG,01/11/2024 21:34,01/11/2024 21:34,Pay Bill Online from 254714***840 - RACHAEL *** Acc. ITE,Completed,10000,,99000,TRUE,Pay Bill Online,254714***840 - RACHAEL ***,,ITE
SK177YXZSZ,01/11/2024 17:58,01/11/2024 17:58,Pay Bill Online from 254791***019 - CLAUDIA *** Acc. iee,Completed,9000,,89000,TRUE,Pay Bill Online,254791***019 - CLAUDIA ***,,iee
SK127SZKLG,01/11/2024 17:25,01/11/2024 17:25,Pay Bill from 254720***281 - KENNEDY *** Acc. KBI,Completed,25000,,80000,TRUE,Pay Utility,254720***281 - KENNEDY ***,,KBI
SK167CO4JA,01/11/2024 15:42,01/11/2024 15:42,Pay Bill from 254722***450 - MARY *** Acc. JAI,Completed,20000,,55000,TRUE,Pay Utility,254722***450 - MARY ***,,JAI
SK107B6T7U,01/11/2024 15:32,01/11/2024 15:32,Pay Bill from 254710***003 - ALFRED *** Acc. HBH,Completed,16000,,35000,TRUE,Pay Utility,254710***003 - ALFRED ***,,HBH
SK12765JSM,01/11/2024 14:58,01/11/2024 14:58,Pay Bill from 254703***847 - MARGARET *** Acc. IAD,Completed,19000,,19000,TRUE,Pay Utility,254703***847 - MARGARET ***,,IAD
SK166TMGJO,01/11/2024 13:35,01/11/2024 13:35,Utility Account to Organization Settlement Account,Completed,,-285000,0,TRUE,Utility Account to Organization Settlement Account,979524 - ANCIENT WELLS PROPERTY MANAGERS 2,,
SK146RLD16,01/11/2024 13:21,01/11/2024 13:21,Business Pay Bill by 220112 - PesaPal Ltd Acc. DAB via API,Completed,16000,,285000,TRUE,Business Pay Bill via API,220112 - PesaPal Ltd,,DAB via API
SK196QYKYJ,01/11/2024 13:17,01/11/2024 13:17,Pay Bill Online from 254703***239 - BENARD *** Acc. KAK,Completed,16000,,269000,TRUE,Pay Bill Online,254703***239 - BENARD ***,,KAK
SK126LZG7C,01/11/2024 12:43,01/11/2024 12:43,Pay Bill from 254720***502 - JOHN *** Acc. JFA,Completed,20000,,253000,TRUE,Pay Utility,254720***502 - JOHN ***,,JFA
SK106K91HC,01/11/2024 12:31,01/11/2024 12:31,Pay Bill from 254717***012 - WINFRED *** Acc. IDA,Completed,16000,,233000,TRUE,Pay Utility,254717***012 - WINFRED ***,,IDA
SK186I7YB2,01/11/2024 12:16,01/11/2024 12:16,Pay Bill from 254723***259 - WILSON *** Acc. HCA,Completed,15000,,217000,TRUE,Pay Utility,254723***259 - WILSON ***,,HCA
SK125Z698E,01/11/2024 09:55,01/11/2024 09:55,Pay Bill Online from 254707***839 - DENNIS *** Acc. FEF,Completed,16000,,202000,TRUE,Pay Bill Online,254707***839 - DENNIS ***,,FEF
SK115XVGFV,01/11/2024 09:45,01/11/2024 09:45,Pay Bill Online from 254795***441 - LEWIS *** Acc. KEB,Completed,16000,,186000,TRUE,Pay Bill Online,254795***441 - LEWIS ***,,KEB
SK175SXI3P,01/11/2024 09:07,01/11/2024 09:07,Pay Bill from 254722***937 - Carlos *** Acc. KCF,Completed,10000,,170000,TRUE,Pay Utility,254722***937 - Carlos ***,,KCF
SK185DXFKW,01/11/2024 06:45,01/11/2024 06:45,Pay Bill from 254722***705 - ERIC *** Acc. FCF,Completed,16000,,160000,TRUE,Pay Utility,254722***705 - ERIC ***,,FCF
