Receipt No.,Completion Time,Initiation Time,Details,Transaction Status,Paid In,Withdrawn,Balance,Balance Confirmed,Reason Type,Other Party Info,Linked Transaction ID,A/C No.
PET1I4OQPJ,29/05/2021 15:58,29/05/2021 15:58,Pay Bill from 254729557859 - AUDREY KASINDAHA KASINDAHA Acc. KFB,Completed,24500,,36000,TRUE,Pay Utility,254729557859 - AUDREY KASINDAHA KASINDAHA,,KFB
PET0I0J4ZE,29/05/2021 14:37,29/05/2021 14:37,Pay Bill from 254720496449 - STANLEY KIPKOECH RONO Acc. FBE,Completed,11500,,11500,TRUE,Pay Utility,254720496449 - STANLEY KIPKOECH RONO,,FBE
PET9HYU9Q3,29/05/2021 14:04,29/05/2021 14:04,Utility Account to Organization Settlement Account,Completed,,-229200,0,TRUE,Utility Account to Organization Settlement Account,979524 - ANCIENT WELLS PROPERTY MANAGERS 2,,
PET1HWLNMV,29/05/2021 13:20,29/05/2021 13:20,Pay Bill from 254702527778 - PAULINE MUKAMI MUNYI Acc. HEH,Completed,16000,,229200,TRUE,Pay Utility,254702527778 - PAULINE MUKAMI MUNYI,,HEH
PET3HTEIMN,29/05/2021 12:15,29/05/2021 12:15,Pay Bill from 254790707935 - BONFACE AMAYAYA Acc. JEB,Completed,200,,213200,TRUE,Pay Utility with OD via STK,254790707935 - BONFACE AMAYAYA,,JEB
PET7HNW45V,29/05/2021 10:17,29/05/2021 10:17,Pay Bill from 254725381062 - VICTOR MAITHYA Acc. HEG,Completed,5000,,213000,TRUE,Pay Utility with OD via STK,254725381062 - VICTOR MAITHYA,,HEG
PET4HLGAD2,29/05/2021 09:22,29/05/2021 09:22,FSI to Pay Bill by 714888 - B2C LOOP VIA NCBA Acc. JAD via WEB by B2C LOOP VIA NCBA\Cbainitiator,Completed,10000,,208000,TRUE,FSI to Pay Bill via API,714888 - B2C LOOP VIA NCBA,,JAD
PET5HHF8RL,29/05/2021 07:32,29/05/2021 07:32,Pay Bill from 0717216114 - Felix Njeru Mugambi Acc. kdf,Completed,10000,,198000,TRUE,Pay Utility,0717216114 - Felix Njeru Mugambi,,kdf
PET3HFY1GP,29/05/2021 05:54,29/05/2021 05:54,Pay Bill from 0797758628 - jackline nyamari onyango Acc. ICF,Completed,11000,,188000,TRUE,Pay Utility,0797758628 - jackline nyamari onyango,,ICF
PET7HFJP29,29/05/2021 03:04,29/05/2021 03:04,Pay Bill from 254703555717 - SENGA SALIM Acc. hbb,Completed,1000,,177000,TRUE,Pay Utility,254703555717 - SENGA SALIM,,hbb
PES2HEDU58,28/05/2021 22:55,28/05/2021 22:55,Pay Bill from 254717726012 - WINFRED MUENI PETER Acc. IDA,Completed,16000,,176000,TRUE,Pay Utility,254717726012 - WINFRED MUENI PETER,,IDA
PES9HCB5NL,28/05/2021 21:33,28/05/2021 21:33,Pay Bill from 254721671129 - CHRISPINUS ODHIAMBO Acc. DEC,Completed,19000,,160000,TRUE,Pay Utility,254721671129 - CHRISPINUS ODHIAMBO,,DEC
PES6HACA9I,28/05/2021 20:49,28/05/2021 20:49,Pay Bill from 254726178084 - CHRISTOPHER OCHIENG Acc. FFE,Completed,10000,,141000,TRUE,Pay Utility,254726178084 - CHRISTOPHER OCHIENG,,FFE
PES4H5A3XQ,28/05/2021 19:32,28/05/2021 19:32,Pay Bill from 254702548725 - Charles Musyoki Nziboh Acc. DBB,Completed,10000,,131000,TRUE,Pay Utility,254702548725 - Charles Musyoki Nziboh,,DBB
PES5H4IPX3,28/05/2021 19:22,28/05/2021 19:22,Pay Bill Online from 254711724272 - EDMOND ONYANGO OKEWE Acc. FCB,Completed,16000,,121000,TRUE,Pay Bill Online,254711724272 - EDMOND ONYANGO OKEWE,,FCB
PES6H3PVH8,28/05/2021 19:12,28/05/2021 19:12,Pay Bill from 254790627132 - Everline Mutave Kiio Acc. IGG,Completed,17000,,105000,TRUE,Pay Utility,254790627132 - Everline Mutave Kiio,,IGG
PES0GTLIGU,28/05/2021 16:37,28/05/2021 16:37,Pay Bill from 254722244406 - NOAH MELI Acc. jac,Completed,15000,,88000,TRUE,Pay Utility,254722244406 - NOAH MELI,,jac
PES4GRJM96,28/05/2021 15:57,28/05/2021 15:57,Pay Bill from 254713497971 - GERISHON NDUNG'U KOMU Acc. HGH,Completed,38000,,73000,TRUE,Pay Utility,254713497971 - GERISHON NDUNG'U KOMU,,HGH
PES5GNIQAH,28/05/2021 14:34,28/05/2021 14:34,Pay Bill from 254726753273 - JESSE K MURIRMI NJERU Acc. HCH,Completed,17000,,35000,TRUE,Pay Utility,254726753273 - JESSE K MURIRMI NJERU,,HCH
PES9GCP5FB,28/05/2021 10:37,28/05/2021 10:37,Pay Bill Online from 254722258756 - DAVID KEMBOI Acc. HDA,Completed,18000,,18000,TRUE,Pay Bill Online,254722258756 - DAVID KEMBOI,,HDA
PES6G7O1XK,28/05/2021 08:34,28/05/2021 08:34,Utility Account to Organization Settlement Account,Completed,,-126000,0,TRUE,Utility Account to Organization Settlement Account,979524 - ANCIENT WELLS PROPERTY MANAGERS 2,,
PER9G33LWJ,27/05/2021 23:44,27/05/2021 23:44,Pay Bill Online from 254724211857 - OCHUODHO OUMA Acc. KBK,Completed,17000,,126000,TRUE,Pay Bill Online,254724211857 - OCHUODHO OUMA,,KBK
PER4G2P8XK,27/05/2021 22:58,27/05/2021 22:58,Pay Bill from 254703935626 - DAVID NGARI ITA Acc. FCD,Completed,1000,,109000,TRUE,Pay Utility,254703935626 - DAVID NGARI ITA,,FCD
PER8FX4I6M,27/05/2021 20:17,27/05/2021 20:17,Pay Bill from 254704140048 - MAUREEN GACHERI KINYUA Acc. JDD,Completed,15000,,108000,TRUE,Pay Utility,254704140048 - MAUREEN GACHERI KINYUA,,JDD
PER6FTEYQ8,27/05/2021 19:24,27/05/2021 19:24,Pay Bill from 254722604851 - WILFRED SAKWA Acc. IDG,Completed,10000,,93000,TRUE,Pay Utility,254722604851 - WILFRED SAKWA,,IDG
PER7FO0FG7,27/05/2021 18:10,27/05/2021 18:10,Pay Bill from 254720496449 - STANLEY KIPKOECH RONO Acc. 979524,Completed,17000,,83000,TRUE,Pay Utility,254720496449 - STANLEY KIPKOECH RONO,,979524
PER6FJTIB4,27/05/2021 16:59,27/05/2021 16:59,Pay Bill from 254713497971 - GERISHON NDUNG'U KOMU Acc. HGH,Completed,16000,,66000,TRUE,Pay Utility with OD via STK,254713497971 - GERISHON NDUNG'U KOMU,,HGH
PER2F9FY6S,27/05/2021 13:18,27/05/2021 13:18,Pay Bill from 254727554512 - COLLINS KOECH Acc. JDJ,Completed,30000,,50000,TRUE,Pay Utility,254727554512 - COLLINS KOECH,,JDJ
PER0F2Z22E,27/05/2021 10:49,27/05/2021 10:49,Pay Bill from 0720507782 - Fardosa Abdinur Mohamed Acc. jaa,Completed,20000,,20000,TRUE,Pay Utility,0720507782 - Fardosa Abdinur Mohamed,,jaa
PER3ETXQRT,27/05/2021 05:28,27/05/2021 05:28,Utility Account to Organization Settlement Account,Completed,,-48000,0,TRUE,Utility Account to Organization Settlement Account,979524 - ANCIENT WELLS PROPERTY MANAGERS 2,,
PEQ1ES7967,26/05/2021 22:37,26/05/2021 22:37,Pay Bill from 254700833330 - RITAH NTHAMBI MUTHAMA Acc. KAB,Completed,16000,,48000,TRUE,Pay Utility,254700833330 - RITAH NTHAMBI MUTHAMA,,KAB
PEQ4ES2HQ2,26/05/2021 22:29,26/05/2021 22:29,Pay Bill from 254703935626 - DAVID NGARI ITA Acc. FCD,Completed,1000,,32000,TRUE,Pay Utility with OD via STK,254703935626 - DAVID NGARI ITA,,FCD
PEQ6E661I6,26/05/2021 16:01,26/05/2021 16:01,Pay Bill from 254703555717 - SENGA SALIM Acc. hbb,Completed,2000,,31000,TRUE,Pay Utility,254703555717 - SENGA SALIM,,hbb
PEQ1E1ZEJX,26/05/2021 14:30,26/05/2021 14:30,Pay Bill from 254720931300 - ESTHER WANJIRU NDUNGO Acc. KGE,Completed,9000,,29000,TRUE,Pay Utility,254720931300 - ESTHER WANJIRU NDUNGO,,KGE
PEQ1DZ2JT3,26/05/2021 13:27,26/05/2021 13:27,Pay Bill from 254723747228 - MORARA ASANYO Acc. pool,Completed,10000,,20000,TRUE,Pay Utility,254723747228 - MORARA ASANYO,,pool
PEQ6DZ1X0O,26/05/2021 13:27,26/05/2021 13:27,Pay Bill from 254713140050 - DIANA MBEJA Acc. KAE,Completed,10000,,10000,TRUE,Pay Utility,254713140050 - DIANA MBEJA,,KAE
PEQ7DQANP5,26/05/2021 10:09,26/05/2021 10:09,Utility Account to Organization Settlement Account,Completed,,-21000,0,TRUE,Utility Account to Organization Settlement Account,979524 - ANCIENT WELLS PROPERTY MANAGERS 2,,
PEQ1DOV4G3,26/05/2021 09:34,26/05/2021 09:34,Pay Bill from 254726687555 - ELIUD MUTHURE MICHENI Acc. HCD,Completed,21000,,21000,TRUE,Pay Utility,254726687555 - ELIUD MUTHURE MICHENI,,HCD
PEQ6DIW78I,26/05/2021 05:48,26/05/2021 05:48,Utility Account to Organization Settlement Account,Completed,,-38500,0,TRUE,Utility Account to Organization Settlement Account,979524 - ANCIENT WELLS PROPERTY MANAGERS 2,,
PEP4DG1TI2,25/05/2021 21:46,25/05/2021 21:46,Pay Bill from 254713662892 - DAVID JUMA KIPTOCH Acc. JBE,Completed,8500,,38500,TRUE,Pay Utility,254713662892 - DAVID JUMA KIPTOCH,,JBE
PEP3DFMS0F,25/05/2021 21:34,25/05/2021 21:34,Pay Bill from 0721130307 - HILLARY NGUNYI MUTINDA Acc. KBC,Completed,10000,,30000,TRUE,Pay Utility,0721130307 - HILLARY NGUNYI MUTINDA,,KBC
PEP0D3YMNK,25/05/2021 18:26,25/05/2021 18:26,Pay Bill from 254703528196 - ERIC GITONGA MUGO Acc. KGJ,Completed,20000,,20000,TRUE,Pay Utility with OD via STK,254703528196 - ERIC GITONGA MUGO,,KGJ
PEP7D0WCO1,25/05/2021 17:38,25/05/2021 17:38,Utility Account to Organization Settlement Account,Completed,,-58000,0,TRUE,Utility Account to Organization Settlement Account,979524 - ANCIENT WELLS PROPERTY MANAGERS 2,,
PEP0CULPTS,25/05/2021 15:34,25/05/2021 15:34,Pay Bill from 254724364316 - LINET MWENDIA Acc. KEJ,Completed,16000,,58000,TRUE,Pay Utility,254724364316 - LINET MWENDIA,,KEJ
PEP7CSBKWJ,25/05/2021 14:43,25/05/2021 14:43,Pay Bill from 254703935626 - DAVID NGARI ITA Acc. FCD,Completed,1000,,42000,TRUE,Pay Utility with OD via STK,254703935626 - DAVID NGARI ITA,,FCD
PEP4CS28B8,25/05/2021 14:37,25/05/2021 14:37,Pay Bill from 254718138578 - PAULINE KIOKO Acc. KFD,Completed,3000,,41000,TRUE,Pay Utility,254718138578 - PAULINE KIOKO,,KFD
PEP6CQMPH4,25/05/2021 14:05,25/05/2021 14:05,Pay Bill from 254710965167 - KUSA STEPHANIE HAZEL Acc. JDC,Completed,22000,,38000,TRUE,Pay Utility,254710965167 - KUSA STEPHANIE HAZEL,,JDC
PEP9CJTD5V,25/05/2021 11:32,25/05/2021 11:32,Pay Bill from 254701683737 - MICHAEL NGUGI Acc. HDB,Completed,16000,,16000,TRUE,Pay Utility,254701683737 - MICHAEL NGUGI,,HDB
PEO8BEF07Q,24/05/2021 13:18,24/05/2021 13:18,Utility Account to Organization Settlement Account,Completed,,-18000,0,TRUE,Utility Account to Organization Settlement Account,979524 - ANCIENT WELLS PROPERTY MANAGERS 2,,
PEO9B1VADN,24/05/2021 08:23,24/05/2021 08:23,Pay Bill from 0711117122 - Yassir Mwinyi Abdulrazaq Acc. ICE,Completed,2000,,18000,TRUE,Pay Utility,0711117122 - Yassir Mwinyi Abdulrazaq,,ICE
PEN79YVXU5,23/05/2021 10:38,23/05/2021 10:38,Pay Bill Online from 254719317219 - PHILIP MBOYA Acc. JDH,Completed,16000,,16000,TRUE,Pay Utility with OD Online,254719317219 - PHILIP MBOYA,,JDH
PEN29WRMKC,23/05/2021 09:43,23/05/2021 09:43,Utility Account to Organization Settlement Account,Completed,,-24000,0,TRUE,Utility Account to Organization Settlement Account,979524 - ANCIENT WELLS PROPERTY MANAGERS 2,,
PEM998MZY1,22/05/2021 17:41,22/05/2021 17:41,Pay Bill from 254722910078 - MAUREEN MUNYIVA MUTUKU Acc. DBD,Completed,8000,,24000,TRUE,Pay Utility,254722910078 - MAUREEN MUNYIVA MUTUKU,,DBD
PEM38T0VTB,22/05/2021 12:41,22/05/2021 12:41,Pay Bill from 254748895202 - MAYOL MACH MADING AWAR Acc. kfb,Completed,16000,,16000,TRUE,Pay Utility,254748895202 - MAYOL MACH MADING AWAR,,kfb
PEM58N7TH1,22/05/2021 10:35,22/05/2021 10:35,Utility Account to Organization Settlement Account,Completed,,-33000,0,TRUE,Utility Account to Organization Settlement Account,979524 - ANCIENT WELLS PROPERTY MANAGERS 2,,
PEL88B39ZC,21/05/2021 21:36,21/05/2021 21:36,Pay Bill Online from 254728886864 - MOULINE ONYANGO Acc. IAA,Completed,16000,,33000,TRUE,Pay Bill Online,254728886864 - MOULINE ONYANGO,,IAA
PEL4888X2A,21/05/2021 20:35,21/05/2021 20:35,Merchant Pay Utility Received from 7917233 - ALICE MUTUA  5 Acc. JCH,Completed,17000,,17000,TRUE,Merchant Pay Utility via API,7917233 - ALICE MUTUA  5,,JCH
PEL785QWSX,21/05/2021 19:55,21/05/2021 19:55,Utility Account to Organization Settlement Account,Completed,,-21000,0,TRUE,Utility Account to Organization Settlement Account,979524 - ANCIENT WELLS PROPERTY MANAGERS 2,,
PEL07TZ3Y2,21/05/2021 17:05,21/05/2021 17:05,Pay Bill from 254724810512 - BENARDET Ochieng Acc. IEH ,Completed,2500,,21000,TRUE,Pay Utility,254724810512 - BENARDET Ochieng,,IEH
PEL77T9UF7,21/05/2021 16:53,21/05/2021 16:53,Pay Bill from 0113569427 - DOUGLAS MWENYA MAKHACHA Acc. IAC,Completed,2500,,18500,TRUE,Pay Utility,0113569427 - DOUGLAS MWENYA MAKHACHA,,IAC
PEL27QSSGW,21/05/2021 16:04,21/05/2021 16:04,Pay Bill from 254722486203 - JOSIAH OUKO OWUOR Acc. HBD,Completed,16000,,16000,TRUE,Pay Utility,254722486203 - JOSIAH OUKO OWUOR,,HBD
PEL47MI41C,21/05/2021 14:34,21/05/2021 14:34,Utility Account to Organization Settlement Account,Completed,,-16000,0,TRUE,Utility Account to Organization Settlement Account,979524 - ANCIENT WELLS PROPERTY MANAGERS 2,,
PEL37DR47P,21/05/2021 11:20,21/05/2021 11:20,Pay Bill from 254703935626 - DAVID NGARI ITA Acc. FCD,Completed,1000,,16000,TRUE,Pay Utility with OD via STK,254703935626 - DAVID NGARI ITA,,FCD
PEK8718UG6,20/05/2021 22:20,20/05/2021 22:20,Pay Bill from 254724611087 - Francis Mukindya Muoki Acc. dfb,Completed,5000,,15000,TRUE,Pay Utility with OD via STK,254724611087 - Francis Mukindya Muoki,,dfb
PEK567FCM3,20/05/2021 12:57,20/05/2021 12:57,Pay Bill from 0700206427 - Clare Nabalisa Mukasa Acc. HFA,Completed,4000,,10000,TRUE,Pay Utility,0700206427 - Clare Nabalisa Mukasa,,HFA
PEK465EASQ,20/05/2021 12:11,20/05/2021 12:11,Pay Bill Online from 254720451253 - JIMMY KIOGORA NKIROTE Acc. KBD,Completed,6000,,6000,TRUE,Pay Utility with OD Online,254720451253 - JIMMY KIOGORA NKIROTE,,KBD
PEK4658XJI,20/05/2021 12:07,20/05/2021 12:07,Utility Account to Organization Settlement Account,Completed,,-34000,0,TRUE,Utility Account to Organization Settlement Account,979524 - ANCIENT WELLS PROPERTY MANAGERS 2,,
PEK3650DVD,20/05/2021 12:02,20/05/2021 12:02,Pay Bill Online from 254715764212 - BANCE ISHEMINYE Acc. JFE ,Completed,3000,,34000,TRUE,Pay Bill Online,254715764212 - BANCE ISHEMINYE,,JFE
PEJ15RBM1P,19/05/2021 22:43,19/05/2021 22:43,Pay Bill from 254703935626 - DAVID NGARI ITA Acc. FCD,Completed,1000,,31000,TRUE,Pay Utility,254703935626 - DAVID NGARI ITA,,FCD
PEJ85KJNX8,19/05/2021 19:56,19/05/2021 19:56,Pay Bill from 254722458136 - NADI GOLICHA Acc. KAA,Completed,8000,,30000,TRUE,Pay Utility,254722458136 - NADI GOLICHA,,KAA
PEJ05C8TG0,19/05/2021 18:05,19/05/2021 18:05,Pay Bill from 254722444622 - CHARITY KAGWAINI Acc. FFD,Completed,11000,,22000,TRUE,Pay Utility,254722444622 - CHARITY KAGWAINI,,FFD
PEJ7580CT3,19/05/2021 16:53,19/05/2021 16:53,Pay Bill from 254703555717 - SENGA SALIM Acc. hbb,Completed,2000,,11000,TRUE,Pay Utility,254703555717 - SENGA SALIM,,hbb
PEJ056UR70,19/05/2021 16:31,19/05/2021 16:31,Pay Bill from 254719439717 - Cecilia Omondi Acc. hfc,Completed,9000,,9000,TRUE,Pay Utility,254719439717 - Cecilia Omondi,,hfc
PEJ24PT0HW,19/05/2021 10:11,19/05/2021 10:11,Utility Account to Organization Settlement Account,Completed,,-57000,0,TRUE,Utility Account to Organization Settlement Account,979524 - ANCIENT WELLS PROPERTY MANAGERS 2,,
PEI33PFQXL,18/05/2021 14:05,18/05/2021 14:05,Pay Bill from 254701047939 - Cyrus Wahome Acc. JAH,Completed,16000,,57000,TRUE,Pay Utility,254701047939 - Cyrus Wahome,,JAH
PEI53PB50V,18/05/2021 14:02,18/05/2021 14:02,Pay Bill from 0759217545 - Angela Syombua Lole Acc. HDE,Completed,10000,,41000,TRUE,Pay Utility,0759217545 - Angela Syombua Lole,,HDE
PEI83L8Y2U,18/05/2021 12:33,18/05/2021 12:33,Pay Bill from 254719499823 - MOSES MWANZIA MUTHIANI Acc. Jcc,Completed,8000,,31000,TRUE,Pay Utility,254719499823 - MOSES MWANZIA MUTHIANI,,Jcc
PEI53JBQ1F,18/05/2021 11:49,18/05/2021 11:49,Pay Bill from 254723747228 - MORARA ASANYO Acc. pool,Completed,23000,,23000,TRUE,Pay Utility,254723747228 - MORARA ASANYO,,pool
PEI93IG99J,18/05/2021 11:29,18/05/2021 11:29,Utility Account to Organization Settlement Account,Completed,,-182900,0,TRUE,Utility Account to Organization Settlement Account,979524 - ANCIENT WELLS PROPERTY MANAGERS 2,,
PEI23FF3Z6,18/05/2021 10:19,18/05/2021 10:19,Pay Bill from 254723901777 - EVANS YEBEI Acc. KAH,Completed,16000,,182900,TRUE,Pay Utility,254723901777 - EVANS YEBEI,,KAH
PEI63AXQMC,18/05/2021 08:26,18/05/2021 08:26,Pay Bill from 254711706815 - NAOMI WANYONYI Acc. KBA,Completed,16000,,166900,TRUE,Pay Utility,254711706815 - NAOMI WANYONYI,,KBA
PEI339LPLT,18/05/2021 07:46,18/05/2021 07:46,Pay Bill from 254728313347 - GEORGE KIMAIGA NYAMORI Acc. ici,Completed,16000,,150900,TRUE,Pay Utility,254728313347 - GEORGE KIMAIGA NYAMORI,,ici
PEI1387675,18/05/2021 06:47,18/05/2021 06:47,Pay Bill from 0722950695 - Joshua Mbithi Kivondo Acc. Dca,Completed,25000,,134900,TRUE,Pay Utility,0722950695 - Joshua Mbithi Kivondo,,Dca
PEI236TSO2,18/05/2021 00:14,18/05/2021 00:14,Pay Bill from 254703375006 - KEN RODGERS Acc. DBA,Completed,9000,,109900,TRUE,Pay Utility,254703375006 - KEN RODGERS,,DBA
PEH435H590,17/05/2021 22:09,17/05/2021 22:09,Pay Bill from 254718672924 - LILIAN CHEBET NGENO Acc. KGD,Completed,10000,,100900,TRUE,Pay Utility,254718672924 - LILIAN CHEBET NGENO,,KGD
PEH932H7WX,17/05/2021 20:47,17/05/2021 20:47,Pay Bill from 254703528196 - ERIC GITONGA MUGO Acc. KGJ,Completed,3000,,90900,TRUE,Pay Utility with OD via STK,254703528196 - ERIC GITONGA MUGO,,KGJ
PEH731THUR,17/05/2021 20:35,17/05/2021 20:35,Pay Bill Online from 254720451253 - JIMMY KIOGORA NKIROTE Acc. JBG,Completed,10000,,87900,TRUE,Pay Bill Online,254720451253 - JIMMY KIOGORA NKIROTE,,JBG
PEH22X18SK,17/05/2021 19:22,17/05/2021 19:22,Pay Bill from 254729450678 - GRACE NDUNGE Acc. fba,Completed,14400,,77900,TRUE,Pay Utility with OD via STK,254729450678 - GRACE NDUNGE,,fba
PEH82VPNSY,17/05/2021 19:06,17/05/2021 19:06,Pay Bill from 254719626804 - PAUL NJOROGE CYRUS Acc. JFI,Completed,20000,,63500,TRUE,Pay Utility,254719626804 - PAUL NJOROGE CYRUS,,JFI
PEH12S7ZI1,17/05/2021 18:19,17/05/2021 18:19,Pay Bill from 254726172957 - VINCENT OLIENG' Acc. HBC,Completed,10000,,43500,TRUE,Pay Utility,254726172957 - VINCENT OLIENG',,HBC
PEH22JBMPS,17/05/2021 15:38,17/05/2021 15:38,Pay Bill from 254790549449 - ABUKAR MOHAMED Acc. HBA,Completed,17000,,33500,TRUE,Pay Utility,254790549449 - ABUKAR MOHAMED,,HBA
PEH72H7OTD,17/05/2021 14:52,17/05/2021 14:52,Pay Bill from 254723843982 - MOSES KIPCHIRCHIR ROTICH Acc. IEE,Completed,8000,,16500,TRUE,Pay Utility,254723843982 - MOSES KIPCHIRCHIR ROTICH,,IEE
PEH32ADA9T,17/05/2021 12:24,17/05/2021 12:24,Pay Bill from 254727648419 - ABDISALAN AHMED Acc. Jbh,Completed,7000,,8500,TRUE,Pay Utility,254727648419 - ABDISALAN AHMED,,Jbh
PEH728VUMT,17/05/2021 11:51,17/05/2021 11:51,Pay Bill from 254716702294 - DANIEL MULATI Acc. KBE,Completed,1500,,1500,TRUE,Pay Utility,254716702294 - DANIEL MULATI,,KBE
PEH925KJ0X,17/05/2021 10:36,17/05/2021 10:36,Utility Account to Organization Settlement Account,Completed,,-64300,0,TRUE,Utility Account to Organization Settlement Account,979524 - ANCIENT WELLS PROPERTY MANAGERS 2,,
PEH023VRSO,17/05/2021 09:56,17/05/2021 09:56,Pay Bill from 0758591833 - DORCUS MBULA PETER Acc. HDD,Completed,10000,,64300,TRUE,Pay Utility,0758591833 - DORCUS MBULA PETER,,HDD
PEG11U46G9,16/05/2021 21:40,16/05/2021 21:40,Pay Bill from 254703935626 - DAVID NGARI ITA Acc. FCD,Completed,1000,,54300,TRUE,Pay Utility with OD via STK,254703935626 - DAVID NGARI ITA,,FCD
PEG418114O,16/05/2021 14:47,16/05/2021 14:47,Pay Bill from 254723954911 - JAMES KILAVI Acc. ICG,Completed,9500,,53300,TRUE,Pay Utility,254723954911 - JAMES KILAVI,,ICG
PEG617JCWK,16/05/2021 14:36,16/05/2021 14:36,Pay Bill from 254710110273 - AGNES NTOITI Acc. Jbb,Completed,15300,,43800,TRUE,Pay Utility with OD via STK,254710110273 - AGNES NTOITI,,Jbb
PEG4133ZJS,16/05/2021 12:58,16/05/2021 12:58,Pay Bill from 254720249209 - WILFRED NJUGUNA WANJIRA Acc. DDD,Completed,20000,,28500,TRUE,Pay Utility,254720249209 - WILFRED NJUGUNA WANJIRA,,DDD
PEG1ZX380H,16/05/2021 10:24,16/05/2021 10:24,Pay Bill from 254728103722 - YASSIR MWINYI ABDULRAZAQ Acc. ICE,Completed,8500,,8500,TRUE,Pay Utility,254728103722 - YASSIR MWINYI ABDULRAZAQ,,ICE
PEG5ZSBZD3,16/05/2021 08:11,16/05/2021 08:11,Utility Account to Organization Settlement Account,Completed,,-22000,0,TRUE,Utility Account to Organization Settlement Account,979524 - ANCIENT WELLS PROPERTY MANAGERS 2,,
PEF9ZF2Q4R,15/05/2021 19:20,15/05/2021 19:20,Pay Bill from 0748059595 - Rashid NASSIR Khamis Acc. DDA,Completed,5000,,22000,TRUE,Pay Utility,0748059595 - Rashid NASSIR Khamis,,DDA
PEF6ZAVN2K,15/05/2021 18:26,15/05/2021 18:26,Pay Bill from 254718593194 - HURRY IBARASI MADEDE Acc. HDG,Completed,7000,,17000,TRUE,Pay Utility,254718593194 - HURRY IBARASI MADEDE,,HDG
PEF1Z5M87T,15/05/2021 17:00,15/05/2021 17:00,Pay Bill from 254798146452 - VALARY ODHIAMBO Acc. JEE,Completed,10000,,10000,TRUE,Pay Utility with OD via STK,254798146452 - VALARY ODHIAMBO,,JEE
PEF8YZP838,15/05/2021 15:09,15/05/2021 15:09,Utility Account to Organization Settlement Account,Completed,,-19000,0,TRUE,Utility Account to Organization Settlement Account,979524 - ANCIENT WELLS PROPERTY MANAGERS 2,,
PEF4YM67DC,15/05/2021 10:28,15/05/2021 10:28,Pay Bill from 0743248310 - PATRICK STURRIDGE NYONGESA Acc. kaf,Completed,3000,,19000,TRUE,Pay Utility,0743248310 - PATRICK STURRIDGE NYONGESA,,kaf
PEE2YC6PK0,14/05/2021 22:34,14/05/2021 22:34,Pay Bill from 0748059595 - Rashid NASSIR Khamis Acc. DDA,Completed,6000,,16000,TRUE,Pay Utility,0748059595 - Rashid NASSIR Khamis,,DDA
PEE3XLKC07,14/05/2021 14:01,14/05/2021 14:01,Pay Bill from 254722889574 - ALLAN MWANGI Acc. jcg,Completed,10000,,10000,TRUE,Pay Utility,254722889574 - ALLAN MWANGI,,jcg
PEE6XABTWG,14/05/2021 09:49,14/05/2021 09:49,Utility Account to Organization Settlement Account,Completed,,-66000,0,TRUE,Utility Account to Organization Settlement Account,979524 - ANCIENT WELLS PROPERTY MANAGERS 2,,
PEE3X6HBZV,14/05/2021 08:04,14/05/2021 08:04,Pay Bill from 254703555717 - SENGA SALIM Acc. hbb,Completed,1000,,66000,TRUE,Pay Utility,254703555717 - SENGA SALIM,,hbb
PED1WTYL9V,13/05/2021 19:28,13/05/2021 19:28,Pay Bill from 254726405755 - EDWARD NGONGE Acc. DGC,Completed,19000,,65000,TRUE,Pay Utility,254726405755 - EDWARD NGONGE,,DGC
PED4WSY91U,13/05/2021 19:15,13/05/2021 19:15,Pay Bill Online from 254726116777 - MARY NDUTA GOSHO Acc. JDB,Completed,15000,,46000,TRUE,Pay Utility with OD Online,254726116777 - MARY NDUTA GOSHO,,JDB
PED9WETRZR,13/05/2021 15:22,13/05/2021 15:22,Pay Bill from 254727766786 - JOHN MAITHA MULWA Acc. IBH,Completed,5000,,31000,TRUE,Pay Utility,254727766786 - JOHN MAITHA MULWA,,IBH
PED3WE6T1B,13/05/2021 15:10,13/05/2021 15:10,Pay Bill from 254722458136 - NADI GOLICHA Acc. KAA,Completed,2000,,26000,TRUE,Pay Utility,254722458136 - NADI GOLICHA,,KAA
PED4W9355U,13/05/2021 13:23,13/05/2021 13:23,Pay Bill Online from 254722921132 - JOE MCCRAY MURIUKI KIHIA Acc. IFA,Completed,15000,,24000,TRUE,Pay Bill Online,254722921132 - JOE MCCRAY MURIUKI KIHIA,,IFA
PED0W7PR5O,13/05/2021 12:54,13/05/2021 12:54,Pay Bill from 254715098348 - STEPHEN MUREITHI KABUTU Acc. FGC,Completed,9000,,9000,TRUE,Pay Utility,254715098348 - STEPHEN MUREITHI KABUTU,,FGC
PED7W6XVY1,13/05/2021 12:37,13/05/2021 12:37,Utility Account to Organization Settlement Account,Completed,,-89300,0,TRUE,Utility Account to Organization Settlement Account,979524 - ANCIENT WELLS PROPERTY MANAGERS 2,,
PED4W30IWO,13/05/2021 11:11,13/05/2021 11:11,Pay Bill from 254722258107 - JOHN ODIMA ODIMA Acc. KGF,Completed,10000,,89300,TRUE,Pay Utility,254722258107 - JOHN ODIMA ODIMA,,KGF
PED2VZMDJ2,13/05/2021 09:54,13/05/2021 09:54,Pay Bill from 254702926057 - JULIAH JEPTUM Acc. IEF,Completed,800,,79300,TRUE,Pay Utility with OD via STK,254702926057 - JULIAH JEPTUM,,IEF
PED2VZGZKU,13/05/2021 09:51,13/05/2021 09:51,Pay Bill from 254702926057 - JULIAH JEPTUM Acc. IEF,Completed,10000,,78500,TRUE,Pay Utility,254702926057 - JULIAH JEPTUM,,IEF
PED5VTXOXZ,13/05/2021 07:12,13/05/2021 07:12,Pay Bill from 254725255978 - DICKSON OLUOCH Acc. JFF,Completed,10000,,68500,TRUE,Pay Utility,254725255978 - DICKSON OLUOCH,,JFF
PED8VTWC3Q,13/05/2021 07:10,13/05/2021 07:10,Pay Bill Online from 254715764212 - BANCE ISHEMINYE Acc. JFE ,Completed,10000,,58500,TRUE,Pay Bill Online,254715764212 - BANCE ISHEMINYE,,JFE
PED2VRZK9K,13/05/2021 00:13,13/05/2021 00:13,Pay Bill from 254703555717 - SENGA SALIM Acc. hbb,Completed,2000,,48500,TRUE,Pay Utility,254703555717 - SENGA SALIM,,hbb
PEC8VPUS3Q,12/05/2021 21:45,12/05/2021 21:45,Pay Bill from 254703935626 - DAVID NGARI ITA Acc. FCD,Completed,1000,,46500,TRUE,Pay Utility,254703935626 - DAVID NGARI ITA,,FCD
PEC6VMXDCU,12/05/2021 20:36,12/05/2021 20:36,Pay Bill from 254704111133 - ELVIS OTIENO Acc. HFD,Completed,9500,,45500,TRUE,Pay Utility,254704111133 - ELVIS OTIENO,,HFD
PEC9VB87DJ,12/05/2021 17:45,12/05/2021 17:45,Pay Bill from 254703375006 - KEN RODGERS Acc. DBA,Completed,9000,,36000,TRUE,Pay Utility,254703375006 - KEN RODGERS,,DBA
PEC7V59ZLV,12/05/2021 16:01,12/05/2021 16:01,Pay Bill from 254795449800 - MARTHA WANJIRU NJUGUNA Acc. FEB,Completed,5000,,27000,TRUE,Pay Utility,254795449800 - MARTHA WANJIRU NJUGUNA,,FEB
PEC0UWHPLA,12/05/2021 13:03,12/05/2021 13:03,Pay Bill from 254722458136 - NADI GOLICHA Acc. KAA,Completed,7000,,22000,TRUE,Pay Utility,254722458136 - NADI GOLICHA,,KAA
PEC8UUO41Y,12/05/2021 12:24,12/05/2021 12:24,Pay Bill from 254729258441 - ROBERT RONO KULEI Acc. JAB,Completed,10000,,15000,TRUE,Pay Utility,254729258441 - ROBERT RONO KULEI,,JAB
PEC1UQVDZL,12/05/2021 11:02,12/05/2021 11:02,Pay Bill from 254724611087 - Francis Mukindya Muoki Acc. dfb,Completed,5000,,5000,TRUE,Pay Utility with OD via STK,254724611087 - Francis Mukindya Muoki,,dfb
PEC2UM4YRA,12/05/2021 09:14,12/05/2021 09:14,Utility Account to Organization Settlement Account,Completed,,-38600,0,TRUE,Utility Account to Organization Settlement Account,979524 - ANCIENT WELLS PROPERTY MANAGERS 2,,
PEC7UGYB51,12/05/2021 05:06,12/05/2021 05:06,Pay Bill from 0740507437 - JOY KAARI KAMENCU Acc. FAC,Completed,9000,,38600,TRUE,Pay Utility,0740507437 - JOY KAARI KAMENCU,,FAC
PEB2UFAE3U,11/05/2021 22:41,11/05/2021 22:41,Pay Bill from 254727648419 - ABDISALAN AHMED Acc. Jbh,Completed,10000,,29600,TRUE,Pay Utility,254727648419 - ABDISALAN AHMED,,Jbh
PEB2UE62UU,11/05/2021 21:50,11/05/2021 21:50,Pay Bill from 0715688238 - JOANNAH ATUHAIRE BANTU Acc. jae,Completed,9000,,19600,TRUE,Pay Utility,0715688238 - JOANNAH ATUHAIRE BANTU,,jae
PEB1U616JJ,11/05/2021 19:16,11/05/2021 19:16,Pay Bill from 254729450678 - GRACE NDUNGE Acc. fba,Completed,600,,10600,TRUE,Pay Utility with OD via STK,254729450678 - GRACE NDUNGE,,fba
PEB6U11RUC,11/05/2021 18:07,11/05/2021 18:07,Pay Bill from 0759217545 - Angela Syombua Lole Acc. HDE,Completed,10000,,10000,TRUE,Pay Utility,0759217545 - Angela Syombua Lole,,HDE
PEB4TR4DOM,11/05/2021 15:12,11/05/2021 15:12,Utility Account to Organization Settlement Account,Completed,,-208100,0,TRUE,Utility Account to Organization Settlement Account,979524 - ANCIENT WELLS PROPERTY MANAGERS 2,,
PEB8TPA95A,11/05/2021 14:35,11/05/2021 14:35,Pay Bill from 254720883049 - SIMON AMUKOCHE Acc. IED,Completed,18000,,208100,TRUE,Pay Utility with OD via STK,254720883049 - SIMON AMUKOCHE,,IED
PEB5TOG41B,11/05/2021 14:18,11/05/2021 14:18,Pay Bill from 0723409745 - Kelvin Kitonga Mutyetu Acc. kbf,Completed,6500,,190100,TRUE,Pay Utility,0723409745 - Kelvin Kitonga Mutyetu,,kbf
PEB8TL9LRQ,11/05/2021 13:14,11/05/2021 13:14,Pay Bill Online from 254714552193 - CHRISTOPHER OCHIENG Acc. JGI,Completed,20000,,183600,TRUE,Pay Bill Online,254714552193 - CHRISTOPHER OCHIENG,,JGI
PEB2TK6F16,11/05/2021 12:53,11/05/2021 12:53,Pay Bill from 254701196539 - GICHURI KARANJA Acc. Fee,Completed,16000,,163600,TRUE,Pay Utility,254701196539 - GICHURI KARANJA,,Fee
PEB9TK45TR,11/05/2021 12:51,11/05/2021 12:51,Pay Bill from 0700206427 - Clare Nabalisa Mukasa Acc. HFA,Completed,1000,,147600,TRUE,Pay Utility,0700206427 - Clare Nabalisa Mukasa,,HFA
PEB3TI2BCV,11/05/2021 12:09,11/05/2021 12:09,Pay Bill from 0700206427 - Clare Nabalisa Mukasa Acc. HFA,Completed,11000,,146600,TRUE,Pay Utility,0700206427 - Clare Nabalisa Mukasa,,HFA
PEB0TFVD20,11/05/2021 11:24,11/05/2021 11:24,Pay Bill from 254727411231 - OBADIAH MASWAI Acc. JGJ,Completed,15000,,135600,TRUE,Pay Utility,254727411231 - OBADIAH MASWAI,,JGJ
PEB6TEOCVG,11/05/2021 10:59,11/05/2021 10:59,Pay Bill from 0718838251 - MARK KINYUA MAINA Acc. kfg,Completed,10000,,120600,TRUE,Pay Utility,0718838251 - MARK KINYUA MAINA,,kfg
PEB3TAX5KB,11/05/2021 09:39,11/05/2021 09:39,Pay Bill from 0743248310 - PATRICK STURRIDGE NYONGESA Acc. kaf,Completed,8000,,110600,TRUE,Pay Utility,0743248310 - PATRICK STURRIDGE NYONGESA,,kaf
PEA8SV8NQC,10/05/2021 19:48,10/05/2021 19:48,Pay Bill from 254722564580 - GLENN KISIANG'ANI Acc. DBB,Completed,16000,,102600,TRUE,Pay Utility,254722564580 - GLENN KISIANG'ANI,,DBB
PEA4SNWAVA,10/05/2021 18:08,10/05/2021 18:08,Pay Bill from 254702190887 - Nax Ochieng Acc. FDE,Completed,15000,,86600,TRUE,Pay Utility,254702190887 - Nax Ochieng,,FDE
PEA4SNJBZS,10/05/2021 18:03,10/05/2021 18:03,Pay Bill from 254714939164 - JEREMIAH SAKONGU Acc. kdj,Completed,500,,71600,TRUE,Pay Utility,254714939164 - JEREMIAH SAKONGU,,kdj
PEA6SND9TO,10/05/2021 18:01,10/05/2021 18:01,Pay Bill from 254714939164 - JEREMIAH SAKONGU Acc. kdj,Completed,15000,,71100,TRUE,Pay Utility,254714939164 - JEREMIAH SAKONGU,,kdj
PEA5SJ4OPF,10/05/2021 16:54,10/05/2021 16:54,Pay Bill from 254714710698 - TABITHA MULEE KYALO Acc. IFD,Completed,11500,,56100,TRUE,Pay Utility,254714710698 - TABITHA MULEE KYALO,,IFD
PEA6SHOOZ8,10/05/2021 16:30,10/05/2021 16:30,Pay Bill from 254727955151 - NKONGE MAURICE Acc. Fge,Completed,15800,,44600,TRUE,Pay Utility,254727955151 - NKONGE MAURICE,,Fge
PEA3S90VDR,10/05/2021 13:51,10/05/2021 13:51,Pay Bill Online from 254722249092 - MARIAM ABDULLAHI Acc. KEH,Completed,12000,,28800,TRUE,Pay Utility with OD Online,254722249092 - MARIAM ABDULLAHI,,KEH
PEA4S3GXWW,10/05/2021 12:02,10/05/2021 12:02,Pay Bill from 254700385346 - JESCA ATIENO OKOTH Acc. jeh ,Completed,300,,16800,TRUE,Pay Utility,254700385346 - JESCA ATIENO OKOTH,,jeh
PEA0S34DG6,10/05/2021 11:55,10/05/2021 11:55,Pay Bill from 254726928933 - JOSHUA NDUNDA NZIOKA Acc. KCJ,Completed,16500,,16500,TRUE,Pay Utility,254726928933 - JOSHUA NDUNDA NZIOKA,,KCJ
PEA5RYPCS9,10/05/2021 10:23,10/05/2021 10:23,Utility Account to Organization Settlement Account,Completed,,-292400,0,TRUE,Utility Account to Organization Settlement Account,979524 - ANCIENT WELLS PROPERTY MANAGERS 2,,
PEA9RXX407,10/05/2021 10:07,10/05/2021 10:07,Pay Bill from 254725381062 - VICTOR MAITHYA Acc. HEG,Completed,3000,,292400,TRUE,Pay Utility with OD via STK,254725381062 - VICTOR MAITHYA,,HEG
PEA9RXHSKT,10/05/2021 09:57,10/05/2021 09:57,Pay Bill from 254729948896 - CAROLINE V MILIZA Acc. Fec ,Completed,9000,,289400,TRUE,Pay Utility,254729948896 - CAROLINE V MILIZA,,Fec
PE90ROZRFM,09/05/2021 22:58,09/05/2021 22:58,Pay Bill from 0706611474 - KEVIN MAKATO KUNGA Acc. KEG,Completed,10000,,280400,TRUE,Pay Utility,0706611474 - KEVIN MAKATO KUNGA,,KEG
PE98RLPN66,09/05/2021 20:56,09/05/2021 20:56,Pay Bill from 254707315614 - TERESAH WANJIRU KIRAGU Acc. JDI,Completed,24000,,270400,TRUE,Pay Utility,254707315614 - TERESAH WANJIRU KIRAGU,,JDI
PE99RKK3Z9,09/05/2021 20:32,09/05/2021 20:32,Pay Bill from 254720107609 - DENNIS OGENDI BARAKE Acc. JAJ,Completed,15000,,246400,TRUE,Pay Utility,254720107609 - DENNIS OGENDI BARAKE,,JAJ
PE93R8MLJV,09/05/2021 17:20,09/05/2021 17:20,Pay Bill from 0114735826 - PETER POCHI MAKACHA Acc. 1AC,Completed,5000,,231400,TRUE,Pay Utility,0114735826 - PETER POCHI MAKACHA,,1AC
PE99R6KCYF,09/05/2021 16:43,09/05/2021 16:43,Pay Bill from 254720883049 - SIMON AMUKOCHE Acc. IED,Completed,5000,,226400,TRUE,Pay Utility with OD via STK,254720883049 - SIMON AMUKOCHE,,IED
PE91R5IBTL,09/05/2021 16:23,09/05/2021 16:23,Pay Bill from 0797862969 - Esther Mutindi Mumo Acc. IGD,Completed,9000,,221400,TRUE,Pay Utility,0797862969 - Esther Mutindi Mumo,,IGD
PE94R3Z33I,09/05/2021 15:55,09/05/2021 15:55,Pay Bill from 0748059595 - Rashid NASSIR Khamis Acc. DDA,Completed,4000,,212400,TRUE,Pay Utility,0748059595 - Rashid NASSIR Khamis,,DDA
PE92R3QTJ8,09/05/2021 15:51,09/05/2021 15:51,Pay Bill from 254725539787 - EVERLYNE MOGAKA Acc. KEF,Completed,10000,,208400,TRUE,Pay Utility,254725539787 - EVERLYNE MOGAKA,,KEF
PE96R197FC,09/05/2021 15:04,09/05/2021 15:04,Pay Bill from 254707715639 - Annastacia Kimeu Acc. JFC,Completed,10000,,198400,TRUE,Pay Utility,254707715639 - Annastacia Kimeu,,JFC
PE94QZRL7I,09/05/2021 14:35,09/05/2021 14:35,Pay Bill from 254700385346 - JESCA ATIENO OKOTH Acc. jeh,Completed,31700,,188400,TRUE,Pay Utility,254700385346 - JESCA ATIENO OKOTH,,jeh
PE94QZHANS,09/05/2021 14:29,09/05/2021 14:29,Pay Bill Online from 254705672289 - FELIX KHAKAME LUCHEVELI Acc. fdf,Completed,14000,,156700,TRUE,Pay Bill Online,254705672289 - FELIX KHAKAME LUCHEVELI,,fdf
PE92QY0UR0,09/05/2021 14:01,09/05/2021 14:01,Pay Bill from 254724006242 - JOAN CHEBET Acc. JEG,Completed,9000,,142700,TRUE,Pay Utility,254724006242 - JOAN CHEBET,,JEG
PE90QXB2GW,09/05/2021 13:46,09/05/2021 13:46,Pay Bill from 254711123196 - JUDITH MUTUA Acc. FEA,Completed,16200,,133700,TRUE,Pay Utility,254711123196 - JUDITH MUTUA,,FEA
PE95QWWEB5,09/05/2021 13:38,09/05/2021 13:38,Pay Bill from 254708376721 - Millicent Achieng Akuka Acc. KCA,Completed,6000,,117500,TRUE,Pay Utility,254708376721 - Millicent Achieng Akuka,,KCA
PE92QV40E2,09/05/2021 13:00,09/05/2021 13:00,Pay Bill from 254721115404 - Justine Fayuma Okwemba Acc. HAA,Completed,17000,,111500,TRUE,Pay Utility with OD via STK,254721115404 - Justine Fayuma Okwemba,,HAA
PE99QSP5WN,09/05/2021 12:05,09/05/2021 12:05,Pay Bill from 0796929370 - HALIMA BOYA GALMA Acc. Dbc,Completed,20000,,94500,TRUE,Pay Utility,0796929370 - HALIMA BOYA GALMA,,Dbc
PE99QKF1WZ,09/05/2021 08:44,09/05/2021 08:44,Pay Bill from 254740579741 - MUHINDI MULINYA Acc. HGG,Completed,15000,,74500,TRUE,Pay Utility,254740579741 - MUHINDI MULINYA,,HGG
PE85QC4IQJ,08/05/2021 21:04,08/05/2021 21:04,Pay Bill from 254722276550 - ISAAC NYAMRER Acc. kgc,Completed,9000,,59500,TRUE,Pay Utility,254722276550 - ISAAC NYAMRER,,kgc
PE87QAMV71,08/05/2021 20:32,08/05/2021 20:32,Pay Bill from 254724655033 - SUSAN CHIMOTO Acc. KGH,Completed,9500,,50500,TRUE,Pay Utility,254724655033 - SUSAN CHIMOTO,,KGH
PE80Q2A4TO,08/05/2021 18:29,08/05/2021 18:29,Pay Bill from 254701683737 - MICHAEL NGUGI Acc. HDB,Completed,1000,,41000,TRUE,Pay Utility,254701683737 - MICHAEL NGUGI,,HDB
PE88PXQOKU,08/05/2021 17:19,08/05/2021 17:19,Pay Bill Online from 254720787158 - AMOS CHELANG'A Acc. KFK,Completed,16000,,40000,TRUE,Pay Bill Online,254720787158 - AMOS CHELANG'A,,KFK
PE85PU8R9B,08/05/2021 16:20,08/05/2021 16:20,Pay Bill from 254723026840 - HARRISON MAINA Acc. HAH,Completed,16000,,24000,TRUE,Pay Utility,254723026840 - HARRISON MAINA,,HAH
PE80PS8VDA,08/05/2021 15:43,08/05/2021 15:43,Pay Bill from 254721852723 - HASSAN ABDINOOR MOHAMED Acc. jaa,Completed,8000,,8000,TRUE,Pay Utility,254721852723 - HASSAN ABDINOOR MOHAMED,,jaa
PE80PNNGLM,08/05/2021 14:17,08/05/2021 14:17,Utility Account to Organization Settlement Account,Completed,,-336500,0,TRUE,Utility Account to Organization Settlement Account,979524 - ANCIENT WELLS PROPERTY MANAGERS 2,,
PE86PNL1HY,08/05/2021 14:16,08/05/2021 14:16,Pay Bill from 254713159153 - GUYO SANKALA Acc. DGD,Completed,20000,,336500,TRUE,Pay Utility,254713159153 - GUYO SANKALA,,DGD
PE89PN0YMZ,08/05/2021 14:06,08/05/2021 14:06,Pay Bill from 254729557859 - AUDREY KASINDAHA KASINDAHA Acc. KAI,Completed,12000,,316500,TRUE,Pay Utility,254729557859 - AUDREY KASINDAHA KASINDAHA,,KAI
PE84PJKLZY,08/05/2021 13:01,08/05/2021 13:01,Pay Bill from 254713205244 - ROBERT OGALO Acc. KBH,Completed,10000,,304500,TRUE,Pay Utility,254713205244 - ROBERT OGALO,,KBH
PE83PF5YCH,08/05/2021 11:35,08/05/2021 11:35,Pay Bill from 254724364316 - LINET MWENDIA Acc. KEJ,Completed,16000,,294500,TRUE,Pay Utility,254724364316 - LINET MWENDIA,,KEJ
PE86PC60NK,08/05/2021 10:35,08/05/2021 10:35,Pay Bill from 0114052034 - EVANS TIOKO NANGIRO Acc. Fbe,Completed,16000,,278500,TRUE,Pay Utility,0114052034 - EVANS TIOKO NANGIRO,,Fbe
PE83PA9SM9,08/05/2021 09:55,08/05/2021 09:55,Pay Bill from 254748903322 - MARILYN MKAWUGHANGA KIRIGHO Acc. ICD,Completed,9000,,262500,TRUE,Pay Utility,254748903322 - MARILYN MKAWUGHANGA KIRIGHO,,ICD
PE87P466TR,08/05/2021 07:15,08/05/2021 07:15,Pay Bill from 254720029066 - EVANS CHERUYOT ROTICH Acc. KFI,Completed,11000,,253500,TRUE,Pay Utility,254720029066 - EVANS CHERUYOT ROTICH,,KFI
PE73P1OQVV,07/05/2021 23:13,07/05/2021 23:13,Pay Bill from 254729392595 - WINNIE NASICHE KERE Acc. JBF,Completed,8000,,242500,TRUE,Pay Utility,254729392595 - WINNIE NASICHE KERE,,JBF
PE73OZZ5O5,07/05/2021 21:48,07/05/2021 21:48,Pay Bill from 0790924905 - KEVIN   KIDAGISA Acc. IGC,Completed,9000,,234500,TRUE,Pay Utility,0790924905 - KEVIN   KIDAGISA,,IGC
PE74OYY4JY,07/05/2021 21:20,07/05/2021 21:20,Pay Bill Online from 254720044312 - ELIUD KIPKURUI Acc. FCF,Completed,17000,,225500,TRUE,Pay Bill Online,254720044312 - ELIUD KIPKURUI,,FCF
PE70OY5YBC,07/05/2021 21:01,07/05/2021 21:01,Pay Bill from 254726178084 - CHRISTOPHER OCHIENG Acc. FFE,Completed,10000,,208500,TRUE,Pay Utility,254726178084 - CHRISTOPHER OCHIENG,,FFE
PE72OQEEX6,07/05/2021 19:00,07/05/2021 19:00,Pay Bill Online from 254711724272 - EDMOND ONYANGO OKEWE Acc. FCB,Completed,16000,,198500,TRUE,Pay Bill Online,254711724272 - EDMOND ONYANGO OKEWE,,FCB
PE77OPRRAT,07/05/2021 18:52,07/05/2021 18:52,Pay Bill from 254725094113 - BRAXTON LUMWAJI Acc. DDC,Completed,17000,,182500,TRUE,Pay Utility with OD via STK,254725094113 - BRAXTON LUMWAJI,,DDC
PE77OMFSXZ,07/05/2021 18:05,07/05/2021 18:05,Pay Bill from 0713851252 - GRACE   OMUNG'ANA Acc. Vc,Completed,3000,,165500,TRUE,Pay Utility,0713851252 - GRACE   OMUNG'ANA,,Vc
PE73OGT3SN,07/05/2021 16:36,07/05/2021 16:36,Pay Bill from 254713966424 - NDUTI MUTHUI Acc. jed,Completed,15000,,162500,TRUE,Pay Utility,254713966424 - NDUTI MUTHUI,,jed
PE74OCJUPE,07/05/2021 15:16,07/05/2021 15:16,Pay Bill from 254716581384 - GREGORY KILUNGYA Acc. DAD,Completed,20000,,147500,TRUE,Pay Utility,254716581384 - GREGORY KILUNGYA,,DAD
PE72OBLOHK,07/05/2021 14:57,07/05/2021 14:57,Pay Bill Online from 254718772336 - DAVID SERUGO Acc. DCD,Completed,20000,,127500,TRUE,Pay Bill Online,254718772336 - DAVID SERUGO,,DCD
PE73OA82YZ,07/05/2021 14:31,07/05/2021 14:31,Pay Bill from 254708619274 - BONIFACE MUTUA Acc. JFB,Completed,14000,,107500,TRUE,Pay Utility,254708619274 - BONIFACE MUTUA,,JFB
PE70O8DK1E,07/05/2021 13:55,07/05/2021 13:55,Pay Bill from 254725771056 - CHARLES MURAGURI Acc. FCE,Completed,15000,,93500,TRUE,Pay Utility,254725771056 - CHARLES MURAGURI,,FCE
PE70O5S5PI,07/05/2021 13:03,07/05/2021 13:03,Pay Bill from 254796292434 - ANTONINA HAYA Acc. HED,Completed,9000,,78500,TRUE,Pay Utility,254796292434 - ANTONINA HAYA,,HED
PE76O5CKN2,07/05/2021 12:55,07/05/2021 12:55,Pay Bill Online from 254724282299 - KEVIN OGUTU Acc. KDG,Completed,10000,,69500,TRUE,Pay Bill Online,254724282299 - KEVIN OGUTU,,KDG
PE71O1PFR9,07/05/2021 11:40,07/05/2021 11:40,Pay Bill from 254708499439 - ROSE NDEDE Acc. HGF,Completed,9000,,59500,TRUE,Pay Utility,254708499439 - ROSE NDEDE,,HGF
PE70O1K032,07/05/2021 11:37,07/05/2021 11:37,Pay Bill Online from 254728687482 - KELSEN MWIRIGI MUTIGA Acc. HCE,Completed,10500,,50500,TRUE,Pay Bill Online,254728687482 - KELSEN MWIRIGI MUTIGA,,HCE
PE72NXP83U,07/05/2021 10:16,07/05/2021 10:16,Pay Bill from 254728238249 - ESTHER WANGUI KIBUNYI Acc. ICA,Completed,17000,,40000,TRUE,Pay Utility,254728238249 - ESTHER WANGUI KIBUNYI,,ICA
PE75NUZNBD,07/05/2021 09:16,07/05/2021 09:16,Pay Bill from 254716479709 - PAUL MUSYOKI Acc. IEC,Completed,8000,,23000,TRUE,Pay Utility,254716479709 - PAUL MUSYOKI,,IEC
PE77NT1ADL,07/05/2021 08:28,07/05/2021 08:28,Pay Bill from 254714209770 - PURITY NDUKU KYALO Acc. JEB,Completed,15000,,15000,TRUE,Pay Utility,254714209770 - PURITY NDUKU KYALO,,JEB
PE73NR2HP9,07/05/2021 07:29,07/05/2021 07:29,Utility Account to Organization Settlement Account,Completed,,-356500,0,TRUE,Utility Account to Organization Settlement Account,979524 - ANCIENT WELLS PROPERTY MANAGERS 2,,
PE74NQB19E,07/05/2021 06:56,07/05/2021 06:56,Pay Bill from 254714578986 - EZEKIEL MULUNGYE Acc. HAC,Completed,10000,,356500,TRUE,Pay Utility,254714578986 - EZEKIEL MULUNGYE,,HAC
PE69NNQ23R,06/05/2021 22:36,06/05/2021 22:36,Pay Bill Online from 254729590734 - PATRICK NDUNGA Acc. IDD,Completed,10000,,346500,TRUE,Pay Bill Online,254729590734 - PATRICK NDUNGA,,IDD
PE63NN3V2L,06/05/2021 22:08,06/05/2021 22:08,Pay Bill from 254724611087 - Francis Mukindya Muoki Acc. dfb,Completed,3000,,336500,TRUE,Pay Utility with OD via STK,254724611087 - Francis Mukindya Muoki,,dfb
PE62NLDA6O,06/05/2021 21:18,06/05/2021 21:18,Pay Bill from 254729713741 - ALBANUS MUTISO Acc. jbd,Completed,15000,,333500,TRUE,Pay Utility,254729713741 - ALBANUS MUTISO,,jbd
PE66NHH9AA,06/05/2021 20:05,06/05/2021 20:05,Pay Bill from 254713404029 - ANNE ISEUNA Acc. DED,Completed,20000,,318500,TRUE,Pay Utility,254713404029 - ANNE ISEUNA,,DED
PE63NDQGDH,06/05/2021 19:13,06/05/2021 19:13,Pay Bill from 254727300915 - EUNICE NJERI Acc. KFF,Completed,9500,,298500,TRUE,Pay Utility,254727300915 - EUNICE NJERI,,KFF
PE64NCBB3Y,06/05/2021 18:55,06/05/2021 18:55,Pay Bill Online from 254706549634 - CLINTON OMBASA Acc. FDB,Completed,17000,,289000,TRUE,Pay Bill Online,254706549634 - CLINTON OMBASA,,FDB
PE63N7FMVF,06/05/2021 17:45,06/05/2021 17:45,Pay Bill from 254703555717 - SENGA SALIM Acc. hbb,Completed,2000,,272000,TRUE,Pay Utility,254703555717 - SENGA SALIM,,hbb
PE67N6EJOB,06/05/2021 17:28,06/05/2021 17:28,Pay Bill from 0769001671 - Wilson Mutangili Wambua Acc. haf,Completed,9500,,270000,TRUE,Pay Utility,0769001671 - Wilson Mutangili Wambua,,haf
PE65N4NMBH,06/05/2021 16:59,06/05/2021 16:59,Pay Bill from 254724810512 - BENARDET Ochieng Acc. IEH ,Completed,11000,,260500,TRUE,Pay Utility with OD via STK,254724810512 - BENARDET Ochieng,,IEH
PE66N2LQIG,06/05/2021 16:22,06/05/2021 16:22,Pay Bill from 254700788416 - MERCY KASILI Acc. IFE,Completed,8000,,249500,TRUE,Pay Utility,254700788416 - MERCY KASILI,,IFE
PE68N26NHC,06/05/2021 16:14,06/05/2021 16:14,Pay Bill from 254701006375 - EZRA MAKORI SERETI Acc. HTE,Completed,10000,,241500,TRUE,Pay Utility,254701006375 - EZRA MAKORI SERETI,,HTE
PE69N1KPU5,06/05/2021 16:03,06/05/2021 16:03,Pay Bill from 254701112397 - ELEMA GODANA DIBA Acc. IAD,Completed,10000,,231500,TRUE,Pay Utility,254701112397 - ELEMA GODANA DIBA,,IAD
PE60N16KYG,06/05/2021 15:55,06/05/2021 15:55,Pay Bill from 254798844460 - WYCLIFFE ODHIAMBO NYAGOA Acc. KAC,Completed,10000,,221500,TRUE,Pay Utility,254798844460 - WYCLIFFE ODHIAMBO NYAGOA,,KAC
PE61N0JT0Z,06/05/2021 15:43,06/05/2021 15:43,Pay Bill from 254717985596 - NICHOLAS KIPKOECH BUTIA Acc. hcf,Completed,9000,,211500,TRUE,Pay Utility,254717985596 - NICHOLAS KIPKOECH BUTIA,,hcf
PE62N0C21Y,06/05/2021 15:39,06/05/2021 15:39,Pay Bill from 254712187712 - JUDELEEN AHINDUKHA SHILOBELE Acc. IEA,Completed,10000,,202500,TRUE,Pay Utility,254712187712 - JUDELEEN AHINDUKHA SHILOBELE,,IEA
PE68MY186C,06/05/2021 14:53,06/05/2021 14:53,Pay Bill from 254722919144 - IBRAHIM HUSSEIN ALI Acc. JEH,Completed,10000,,192500,TRUE,Pay Utility,254722919144 - IBRAHIM HUSSEIN ALI,,JEH
PE61MX22D9,06/05/2021 14:33,06/05/2021 14:33,Pay Bill from 254716499837 - ASHA MUSA Acc. jfd,Completed,15000,,182500,TRUE,Pay Utility,254716499837 - ASHA MUSA,,jfd
PE61MUWJM1,06/05/2021 13:50,06/05/2021 13:50,Pay Bill Online from 254717809935 - LYDIAH WERU Acc. IDC,Completed,9500,,167500,TRUE,Pay Bill Online,254717809935 - LYDIAH WERU,,IDC
PE69MUK4IP,06/05/2021 13:43,06/05/2021 13:43,Pay Bill from 254723930071 - AMOS KITAVI KIVITE Acc. JCE,Completed,9000,,158000,TRUE,Pay Utility,254723930071 - AMOS KITAVI KIVITE,,JCE
PE69MUCYZ1,06/05/2021 13:39,06/05/2021 13:39,Pay Bill from 254721315975 - JOSEPH NDEGWA Acc. HEB,Completed,16000,,149000,TRUE,Pay Utility,254721315975 - JOSEPH NDEGWA,,HEB
PE62MT2OX2,06/05/2021 13:13,06/05/2021 13:13,Pay Bill from 254791318982 - ADULLAHI HASSAN Acc. jci,Completed,20000,,133000,TRUE,Pay Utility,254791318982 - ADULLAHI HASSAN,,jci
PE61MN9LG5,06/05/2021 11:12,06/05/2021 11:12,Pay Bill Online from 254722769473 - SAMSON CHALO Acc. IAB,Completed,15000,,113000,TRUE,Pay Bill Online,254722769473 - SAMSON CHALO,,IAB
PE67MMCX3Z,06/05/2021 10:53,06/05/2021 10:53,Pay Bill Online from 254710382992 - SIMON KAMAU MUIRURI Acc. JCD,Completed,15000,,98000,TRUE,Pay Bill Online,254710382992 - SIMON KAMAU MUIRURI,,JCD
PE67MLTT1Z,06/05/2021 10:41,06/05/2021 10:41,Pay Bill from 254712954563 - JOSEPH MUTISO KILONZO Acc. dac,Completed,20000,,83000,TRUE,Pay Utility,254712954563 - JOSEPH MUTISO KILONZO,,dac
PE62MKMQVG,06/05/2021 10:16,06/05/2021 10:16,Pay Bill from 254728670882 - SHARAD EDWARD ADALA OLUM Acc. KCK,Completed,15000,,63000,TRUE,Pay Utility,254728670882 - SHARAD EDWARD ADALA OLUM,,KCK
PE63MJN0SB,06/05/2021 09:54,06/05/2021 09:54,Pay Bill Online from 254708328466 - VENESSA NYARERU Acc. kcd,Completed,12000,,48000,TRUE,Pay Bill Online,254708328466 - VENESSA NYARERU,,kcd
PE61MH5C1J,06/05/2021 08:56,06/05/2021 08:56,Pay Bill Online from 254705951407 - CAROLINE WAITHIRA KAMAU Acc. IDH,Completed,16000,,36000,TRUE,Pay Utility with OD Online,254705951407 - CAROLINE WAITHIRA KAMAU,,IDH
PE67MG6M8D,06/05/2021 08:32,06/05/2021 08:32,Pay Bill Online from 254720381965 - JAMES NGUGI MWANIKI Acc. JBI,Completed,20000,,20000,TRUE,Pay Bill Online,254720381965 - JAMES NGUGI MWANIKI,,JBI
PE69MDO839,06/05/2021 07:13,06/05/2021 07:13,Utility Account to Organization Settlement Account,Completed,,-452000,0,TRUE,Utility Account to Organization Settlement Account,979524 - ANCIENT WELLS PROPERTY MANAGERS 2,,
PE67MDBBFF,06/05/2021 06:56,06/05/2021 06:56,Pay Bill from 254725218904 - SALOME MUTHONI MWANGI Acc. KFJ,Completed,15000,,452000,TRUE,Pay Utility,254725218904 - SALOME MUTHONI MWANGI,,KFJ
PE67MD4XWX,06/05/2021 06:46,06/05/2021 06:46,Pay Bill from 254700379039 - MARTIN KIMANI Acc. KCI,Completed,12000,,437000,TRUE,Pay Utility,254700379039 - MARTIN KIMANI,,KCI
PE69MCY0BP,06/05/2021 06:32,06/05/2021 06:32,Pay Bill from 254722358654 - TOM MAKORI ONGERI Acc. icc,Completed,9000,,425000,TRUE,Pay Utility,254722358654 - TOM MAKORI ONGERI,,icc
PE63MCR561,06/05/2021 06:15,06/05/2021 06:15,Pay Bill from 254722521028 - CHARLES MONYONCHO Acc. ICB,Completed,17000,,416000,TRUE,Pay Utility,254722521028 - CHARLES MONYONCHO,,ICB
PE67MCG7LT,06/05/2021 05:13,06/05/2021 05:13,Pay Bill Online from 254705846408 - JAMES OUMA Acc. HBH,Completed,19000,,399000,TRUE,Pay Bill Online,254705846408 - JAMES OUMA,,HBH
PE69MBX1QV,06/05/2021 01:18,06/05/2021 01:18,Pay Bill from 254798643998 - Judith Mwaniki Acc. kce,Completed,10000,,380000,TRUE,Pay Utility,254798643998 - Judith Mwaniki,,kce
PE63MBM6H5,06/05/2021 00:17,06/05/2021 00:17,Pay Bill from 254729355933 - FELISTAH NJERI WAIRIMU Acc. IDI,Completed,15000,,370000,TRUE,Pay Utility,254729355933 - FELISTAH NJERI WAIRIMU,,IDI
PE55MB05H5,05/05/2021 23:06,05/05/2021 23:06,Pay Bill from 254726028330 - JOHN WAMBUA Acc. IFH,Completed,15000,,355000,TRUE,Pay Utility,254726028330 - JOHN WAMBUA,,IFH
PE51MAKG1H,05/05/2021 22:37,05/05/2021 22:37,Pay Bill from 254716056537 - KIRUI KIPLANGAT HILLARY Acc. JCJ,Completed,16000,,340000,TRUE,Pay Utility,254716056537 - KIRUI KIPLANGAT HILLARY,,JCJ
PE55MAK83R,05/05/2021 22:36,05/05/2021 22:36,Pay Bill from 0757259130 - RASHID SUDI MCHOMBO Acc. JAF,Completed,8000,,324000,TRUE,Pay Utility,0757259130 - RASHID SUDI MCHOMBO,,JAF
PE51MAB0PD,05/05/2021 22:22,05/05/2021 22:22,Pay Bill Online from 254728897908 - Teddy Allan Onyango Acc. KCF,Completed,10000,,316000,TRUE,Pay Bill Online,254728897908 - Teddy Allan Onyango,,KCF
PE59M83GS7,05/05/2021 21:15,05/05/2021 21:15,Pay Bill from 0792441884 - CORNELIA CONRAD MVULA Acc. IBB,Completed,15000,,306000,TRUE,Pay Utility,0792441884 - CORNELIA CONRAD MVULA,,IBB
PE53M7O2S5,05/05/2021 21:05,05/05/2021 21:05,Pay Bill Online from 254711721087 - MUTHIANI KYULE Acc. IDB ,Completed,15000,,291000,TRUE,Pay Bill Online,254711721087 - MUTHIANI KYULE,,IDB
PE50M63C2U,05/05/2021 20:35,05/05/2021 20:35,Pay Bill from 254717140158 - Peter Wanjiru Acc. HFB,Completed,15000,,276000,TRUE,Pay Utility,254717140158 - Peter Wanjiru,,HFB
PE57M36WE5,05/05/2021 19:48,05/05/2021 19:48,Pay Bill from 254710106394 - LUCY TONKEI Acc. KBG,Completed,9000,,261000,TRUE,Pay Utility,254710106394 - LUCY TONKEI,,KBG
PE54M2ZBDG,05/05/2021 19:46,05/05/2021 19:46,Pay Bill from 254725909984 - TIMOTHY ODHIAMBO OWITI Acc. JDE,Completed,10000,,252000,TRUE,Pay Utility,254725909984 - TIMOTHY ODHIAMBO OWITI,,JDE
PE50LYWQ1G,05/05/2021 18:54,05/05/2021 18:54,Pay Bill from 254792224857 - FRANKLIN MIWO OGUNDA ODHIAMBO Acc. IAG,Completed,9500,,242000,TRUE,Pay Utility,254792224857 - FRANKLIN MIWO OGUNDA ODHIAMBO,,IAG
PE59LYSVFZ,05/05/2021 18:52,05/05/2021 18:52,Pay Bill Online from 254703550369 - ANASTASIA jepkoech Acc. KAG,Completed,10000,,232500,TRUE,Pay Bill Online,254703550369 - ANASTASIA jepkoech,,KAG
PE57LY3X79,05/05/2021 18:43,05/05/2021 18:43,Pay Bill from 0799122666 - ERIC WAWERU KIAMA Acc. FAA,Completed,16000,,222500,TRUE,Pay Utility,0799122666 - ERIC WAWERU KIAMA,,FAA
PE56LX8Y4Q,05/05/2021 18:32,05/05/2021 18:32,Pay Bill from 254722569870 - LUKA KEITANY Acc. jfj,Completed,15000,,206500,TRUE,Pay Utility,254722569870 - LUKA KEITANY,,jfj
PE59LW0AMT,05/05/2021 18:14,05/05/2021 18:14,Pay Bill from 254723643548 - KEVIN OUKO Acc. FDD,Completed,11000,,191500,TRUE,Pay Utility with OD via STK,254723643548 - KEVIN OUKO,,FDD
PE53LRTJ2Z,05/05/2021 17:10,05/05/2021 17:10,Pay Bill from 254724882554 - ALPHONCE WAMBUA NGELI Acc. JDA,Completed,20000,,180500,TRUE,Pay Utility,254724882554 - ALPHONCE WAMBUA NGELI,,JDA
PE53LRGI5V,05/05/2021 17:04,05/05/2021 17:04,Pay Bill Online from 254710814215 - JOAN NYAMBURA KAMAU Acc. ifb,Completed,15000,,160500,TRUE,Pay Bill Online,254710814215 - JOAN NYAMBURA KAMAU,,ifb
PE59LOTZM3,05/05/2021 16:19,05/05/2021 16:19,Pay Bill from 254792187144 - HASSAN AHMED HASSAN Acc. KGI,Completed,10000,,145500,TRUE,Pay Utility,254792187144 - HASSAN AHMED HASSAN,,KGI
PE50LMXWDO,05/05/2021 15:43,05/05/2021 15:43,Pay Bill Online from 0724386624 - FATUMA ISSE YUSSUF Acc. FAB,Completed,16000,,135500,TRUE,Pay Utility with OD Online,0724386624 - FATUMA ISSE YUSSUF,,FAB
PE52LM211K,05/05/2021 15:26,05/05/2021 15:26,Pay Bill from 254716328009 - IRENE ODHIAMBO Acc. KGG,Completed,9000,,119500,TRUE,Pay Utility,254716328009 - IRENE ODHIAMBO,,KGG
PE58LL3ZZ8,05/05/2021 15:07,05/05/2021 15:07,Pay Bill Online from 254715892656 - DENNIS MUSYOKA MUOKI Acc. KFA,Completed,16000,,110500,TRUE,Pay Bill Online,254715892656 - DENNIS MUSYOKA MUOKI,,KFA
PE58LK4314,05/05/2021 14:48,05/05/2021 14:48,Pay Bill from 254769102712 - VALARIA VUTALE AZENGA Acc. KAD,Completed,11000,,94500,TRUE,Pay Utility with OD via STK,254769102712 - VALARIA VUTALE AZENGA,,KAD
PE53LH8UVV,05/05/2021 13:51,05/05/2021 13:51,Pay Bill from 254728259571 - ANNE KASIVA Acc. ieb,Completed,15000,,83500,TRUE,Pay Utility,254728259571 - ANNE KASIVA,,ieb
PE53LB8IEV,05/05/2021 11:52,05/05/2021 11:52,Pay Bill from 254722992162 - JAEL MWANDILOH Acc. DCB,Completed,16000,,68500,TRUE,Pay Utility,254722992162 - JAEL MWANDILOH,,DCB
PE55L71ZRT,05/05/2021 10:27,05/05/2021 10:27,Pay Bill Online from 0757699775 - BENARD MUIA MUTUA Acc. HCB,Completed,16000,,52500,TRUE,Pay Bill Online,0757699775 - BENARD MUIA MUTUA,,HCB
PE58L6A7F4,05/05/2021 10:10,05/05/2021 10:10,Pay Bill Online from 254706898046 - STACY AKETCH OCHUKA Acc. KED,Completed,4000,,36500,TRUE,Pay Bill Online,254706898046 - STACY AKETCH OCHUKA,,KED
PE57L64RNL,05/05/2021 10:07,05/05/2021 10:07,Pay Bill from 254720868281 - KENNEDY MWELU Acc. KBI,Completed,12500,,32500,TRUE,Pay Utility,254720868281 - KENNEDY MWELU,,KBI
PE56L5021C,05/05/2021 09:43,05/05/2021 09:43,Pay Bill from 254725754547 - MWACHIRO GEORGE DECHE Acc. DFC,Completed,20000,,20000,TRUE,Pay Utility,254725754547 - MWACHIRO GEORGE DECHE,,DFC
PE57L45CIH,05/05/2021 09:25,05/05/2021 09:25,Utility Account to Organization Settlement Account,Completed,,-332500,0,TRUE,Utility Account to Organization Settlement Account,979524 - ANCIENT WELLS PROPERTY MANAGERS 2,,
PE50L1OYDM,05/05/2021 08:26,05/05/2021 08:26,Pay Bill from 254798022849 - MARTIN BUNDI RUGENDO Acc. KFH,Completed,10000,,332500,TRUE,Pay Utility,254798022849 - MARTIN BUNDI RUGENDO,,KFH
PE51L02R3D,05/05/2021 07:39,05/05/2021 07:39,Pay Bill from 254720511734 - ENOCK KIBET Acc. FDC,Completed,9000,,322500,TRUE,Pay Utility,254720511734 - ENOCK KIBET,,FDC
PE41KX9HF7,04/05/2021 23:56,04/05/2021 23:56,Pay Bill from 254703935626 - DAVID NGARI ITA Acc. FCD,Completed,1000,,313500,TRUE,Pay Utility with OD via STK,254703935626 - DAVID NGARI ITA,,FCD
PE43KVX99L,04/05/2021 22:13,04/05/2021 22:13,Pay Bill Online from 254715002789 - ERICK NGUGI MAINA Acc. HAG,Completed,16000,,312500,TRUE,Pay Bill Online,254715002789 - ERICK NGUGI MAINA,,HAG
PE48KUOU22,04/05/2021 21:34,04/05/2021 21:34,Pay Bill from 254715259756 - SYNTHIA OTIENO Acc. FBC,Completed,3000,,296500,TRUE,Pay Utility,254715259756 - SYNTHIA OTIENO,,FBC
PE48KU142G,04/05/2021 21:18,04/05/2021 21:18,Pay Bill from 254743775372 - SHIKUNDI PURITY KHAOYA Acc. hcd,Completed,9500,,293500,TRUE,Pay Utility,254743775372 - SHIKUNDI PURITY KHAOYA,,hcd
PE45KU0WVH,04/05/2021 21:18,04/05/2021 21:18,Pay Bill from 254720278119 - LINDAH OGAWO Acc. KFE,Completed,9500,,284000,TRUE,Pay Utility,254720278119 - LINDAH OGAWO,,KFE
PE43KPSMVH,04/05/2021 20:00,04/05/2021 20:00,Pay Bill from 254740306063 - susan wanja thurui Acc. Acc..hfg,Completed,31000,,274500,TRUE,Pay Utility,254740306063 - susan wanja thurui,,Acc..hfg
PE41KP4PD9,04/05/2021 19:50,04/05/2021 19:50,Pay Bill Online from 254729160700 - MICAH NDUNGI Acc. HFE,Completed,10500,,243500,TRUE,Pay Bill Online,254729160700 - MICAH NDUNGI,,HFE
PE44KMBJ34,04/05/2021 19:14,04/05/2021 19:14,Pay Bill from 254795023150 - FAITH MORAA SITEMBA Acc. IFC,Completed,8000,,233000,TRUE,Pay Utility,254795023150 - FAITH MORAA SITEMBA,,IFC
PE41KJUHJB,04/05/2021 18:43,04/05/2021 18:43,Pay Bill from 254720496449 - STANLEY KIPKOECH RONO Acc. IGG,Completed,9000,,225000,TRUE,Pay Utility,254720496449 - STANLEY KIPKOECH RONO,,IGG
PE42KG277A,04/05/2021 17:48,04/05/2021 17:48,Pay Bill from 254728681775 - Faith Abigael Acc. IAF,Completed,9000,,216000,TRUE,Pay Utility,254728681775 - Faith Abigael,,IAF
PE40KG00N6,04/05/2021 17:47,04/05/2021 17:47,Pay Bill from 254718009051 - STEPHEN OMOLLO Acc. JDF,Completed,8000,,207000,TRUE,Pay Utility with OD via STK,254718009051 - STEPHEN OMOLLO,,JDF
PE47KFA26T,04/05/2021 17:36,04/05/2021 17:36,Pay Bill from 254722874715 - PATRCIAH mbesa KIOKO Acc. KBB,Completed,16000,,199000,TRUE,Pay Utility,254722874715 - PATRCIAH mbesa KIOKO,,KBB
PE45KEVV4Z,04/05/2021 17:30,04/05/2021 17:30,Pay Bill from 0703236529 - MARGARET WANJIRU WANJOHI Acc. IAE,Completed,8000,,183000,TRUE,Pay Utility,0703236529 - MARGARET WANJIRU WANJOHI,,IAE
PE49KEV8SN,04/05/2021 17:29,04/05/2021 17:29,Pay Bill from 254702152790 - Michelle Ndunge Kyalo Acc. IDE,Completed,8000,,175000,TRUE,Pay Utility,254702152790 - Michelle Ndunge Kyalo,,IDE
PE40KAX3HM,04/05/2021 16:21,04/05/2021 16:21,Pay Bill Online from 254708703539 - SUSAN NDUGIRE NDUGIRE Acc. KDA,Completed,17000,,167000,TRUE,Pay Bill Online,254708703539 - SUSAN NDUGIRE NDUGIRE,,KDA
PE43KAWY2Z,04/05/2021 16:21,04/05/2021 16:21,Pay Bill from 254714052651 - MICHAEL WAFULA WALWANDA Acc. GJ,Completed,15000,,150000,TRUE,Pay Utility with OD via STK,254714052651 - MICHAEL WAFULA WALWANDA,,GJ
PE46KA560U,04/05/2021 16:06,04/05/2021 16:06,Pay Bill from 254703555717 - SENGA SALIM Acc. hbb,Completed,2000,,135000,TRUE,Pay Utility,254703555717 - SENGA SALIM,,hbb
PE40K7Y590,04/05/2021 15:23,04/05/2021 15:23,Pay Bill from 0745378455 - harriet nyanchama nyaberi Acc. FCC,Completed,9000,,133000,TRUE,Pay Utility,0745378455 - harriet nyanchama nyaberi,,FCC
PE41K5K209,04/05/2021 14:35,04/05/2021 14:35,Pay Bill from 254719398942 - NORAH WAYUA MUNYAO Acc. KDC,Completed,10000,,124000,TRUE,Pay Utility,254719398942 - NORAH WAYUA MUNYAO,,KDC
PE41K58ZAD,04/05/2021 14:29,04/05/2021 14:29,Pay Bill from 254704833344 - LOISE KIMANI Acc. jfa,Completed,20000,,114000,TRUE,Pay Utility,254704833344 - LOISE KIMANI,,jfa
PE44K2D8L0,04/05/2021 13:31,04/05/2021 13:31,Pay Bill from 254717438676 - SHIHAB THIIRU Acc. IEI,Completed,15000,,94000,TRUE,Pay Utility,254717438676 - SHIHAB THIIRU,,IEI
PE40K1L9HW,04/05/2021 13:16,04/05/2021 13:16,Pay Bill from 254706158280 - patience mutheu mbevi Acc. KFC,Completed,10000,,79000,TRUE,Pay Utility with OD via STK,254706158280 - patience mutheu mbevi,,KFC
PE42JZABI4,04/05/2021 12:28,04/05/2021 12:28,Pay Bill Online from 254706898046 - STACY AKETCH OCHUKA Acc. KED,Completed,8000,,69000,TRUE,Pay Utility with OD Online,254706898046 - STACY AKETCH OCHUKA,,KED
PE47JY51J9,04/05/2021 12:04,04/05/2021 12:04,Pay Bill from 254719210828 - BELLAH ATIENO OUMA Acc. DAB,Completed,16000,,61000,TRUE,Pay Utility,254719210828 - BELLAH ATIENO OUMA,,DAB
PE46JX223M,04/05/2021 11:41,04/05/2021 11:41,Pay Bill from 254729258441 - ROBERT RONO KULEI Acc. JAB,Completed,5000,,45000,TRUE,Pay Utility,254729258441 - ROBERT RONO KULEI,,JAB
PE43JVASCN,04/05/2021 11:04,04/05/2021 11:04,Pay Bill from 254714563486 - BRIAN MMATA MUSERA Acc. KBJ,Completed,16000,,40000,TRUE,Pay Utility with OD via STK,254714563486 - BRIAN MMATA MUSERA,,KBJ
PE48JV91PS,04/05/2021 11:03,04/05/2021 11:03,Pay Bill from 254728042989 - PATRICK OMONDI Acc. IFI,Completed,15000,,24000,TRUE,Pay Utility with OD via STK,254728042989 - PATRICK OMONDI,,IFI
PE40JUAQPA,04/05/2021 10:42,04/05/2021 10:42,Pay Bill Online from 254718911865 - KENNEDY KELI KATUNGII Acc. HDF,Completed,9000,,9000,TRUE,Pay Bill Online,254718911865 - KENNEDY KELI KATUNGII,,HDF
PE46JSMF6Q,04/05/2021 10:06,04/05/2021 10:06,Utility Account to Organization Settlement Account,Completed,,-79500,0,TRUE,Utility Account to Organization Settlement Account,979524 - ANCIENT WELLS PROPERTY MANAGERS 2,,
PE47JS9R1N,04/05/2021 09:58,04/05/2021 09:58,Pay Bill from 254728854349 - JOSEPH MUSYOKA Acc. IBG,Completed,8000,,79500,TRUE,Pay Utility,254728854349 - JOSEPH MUSYOKA,,IBG
PE40JPGDUC,04/05/2021 08:53,04/05/2021 08:53,Pay Bill from 254718284151 - EVERLINE MATHEKA Acc. JAG,Completed,9000,,71500,TRUE,Pay Utility,254718284151 - EVERLINE MATHEKA,,JAG
PE46JOK0BC,04/05/2021 08:30,04/05/2021 08:30,Pay Bill Online from 254714037688 - MALCOLM FORUM ODUOR JUMA Acc. JAD,Completed,8000,,62500,TRUE,Pay Utility with OD Online,254714037688 - MALCOLM FORUM ODUOR JUMA,,JAD
PE44JKHFJY,04/05/2021 02:03,04/05/2021 02:03,Pay Bill from 254703935626 - DAVID NGARI ITA Acc. FCD,Completed,1000,,54500,TRUE,Pay Utility with OD via STK,254703935626 - DAVID NGARI ITA,,FCD
PE33JJXRN7,03/05/2021 23:29,03/05/2021 23:29,Pay Bill from 254796261716 - CHRISTINE WAMBUI Acc. ICH,Completed,15000,,53500,TRUE,Pay Utility,254796261716 - CHRISTINE WAMBUI,,ICH
PE33JJ7T4F,03/05/2021 22:28,03/05/2021 22:28,Pay Bill from 254716315144 - PETER MUNYIRI WAROTERE Acc. FBB,Completed,16000,,38500,TRUE,Pay Utility,254716315144 - PETER MUNYIRI WAROTERE,,FBB
PE30JJ3MR0,03/05/2021 22:21,03/05/2021 22:21,Pay Bill Online from 254722258756 - DAVID KEMBOI Acc. HDA,Completed,18000,,22500,TRUE,Pay Utility with OD Online,254722258756 - DAVID KEMBOI,,HDA
PE30JB5KT6,03/05/2021 19:26,03/05/2021 19:26,Pay Bill from 254708851939 - VENANT MBOGHO Acc. KCH,Completed,4500,,4500,TRUE,Pay Utility,254708851939 - VENANT MBOGHO,,KCH
PE37JAPHNX,03/05/2021 19:20,03/05/2021 19:20,Utility Account to Organization Settlement Account,Completed,,-165400,0,TRUE,Utility Account to Organization Settlement Account,979524 - ANCIENT WELLS PROPERTY MANAGERS 2,,
PE39J9D733,03/05/2021 19:03,03/05/2021 19:03,Pay Bill from 254700187806 - WINNIE OLIVIA AKOTH Acc. JEC,Completed,10000,,165400,TRUE,Pay Utility,254700187806 - WINNIE OLIVIA AKOTH,,JEC
PE39J7LR19,03/05/2021 18:40,03/05/2021 18:40,Pay Bill from 0717216114 - Felix Njeru Mugambi Acc. kdf,Completed,10000,,155400,TRUE,Pay Utility,0717216114 - Felix Njeru Mugambi,,kdf
PE31J64QM9,03/05/2021 18:19,03/05/2021 18:19,Pay Bill from 254720850920 - HENRY ONDERI Acc. JCB,Completed,15000,,145400,TRUE,Pay Utility with OD via STK,254720850920 - HENRY ONDERI,,JCB
PE37J5MPBP,03/05/2021 18:12,03/05/2021 18:12,Pay Bill from 254719575794 - MAHAT ALI Acc. kcg,Completed,10000,,130400,TRUE,Pay Utility,254719575794 - MAHAT ALI,,kcg
PE32IZTF8C,03/05/2021 16:38,03/05/2021 16:38,Pay Bill from 254714855708 - KIPLANGAT SITIENEI Acc. FAE,Completed,16000,,120400,TRUE,Pay Utility,254714855708 - KIPLANGAT SITIENEI,,FAE
PE33IZEJS9,03/05/2021 16:30,03/05/2021 16:30,Pay Bill from 254720304215 - KIPLING KIPTOO Acc. jef,Completed,17000,,104400,TRUE,Pay Utility,254720304215 - KIPLING KIPTOO,,jef
PE38IXNQ8U,03/05/2021 15:57,03/05/2021 15:57,Pay Bill from 254723370004 - LABAN MAINGI WAMBUA Acc. JFE,Completed,17000,,87400,TRUE,Pay Utility,254723370004 - LABAN MAINGI WAMBUA,,JFE
PE34IXJZAO,03/05/2021 15:55,03/05/2021 15:55,Pay Bill from 0111278177 - Alfred   Kishoin Acc. IBC,Completed,19000,,70400,TRUE,Pay Utility,0111278177 - Alfred   Kishoin,,IBC
PE33IVYVR7,03/05/2021 15:25,03/05/2021 15:25,Pay Bill Online from 254742911013 - HANEST AMIMO Acc. IEG,Completed,7400,,51400,TRUE,Pay Bill Online,254742911013 - HANEST AMIMO,,IEG
PE37IUNCDB,03/05/2021 14:58,03/05/2021 14:58,Pay Bill from 254712974871 - PAULA WANJIKU GATUI Acc. HEA,Completed,16000,,44000,TRUE,Pay Utility,254712974871 - PAULA WANJIKU GATUI,,HEA
PE32IS2HMU,03/05/2021 14:06,03/05/2021 14:06,Pay Bill from 254714060203 - PATRICK MWANGOMBE MSAWUCHI Acc. KEI,Completed,12000,,28000,TRUE,Pay Utility,254714060203 - PATRICK MWANGOMBE MSAWUCHI,,KEI
PE38IRKODQ,03/05/2021 13:57,03/05/2021 13:57,Pay Bill from 254726977770 - STEPHEN MUIRURI MATHENGE Acc. HBG,Completed,16000,,16000,TRUE,Pay Utility,254726977770 - STEPHEN MUIRURI MATHENGE,,HBG
PE33IQSOJD,03/05/2021 13:41,03/05/2021 13:41,Utility Account to Organization Settlement Account,Completed,,-39500,0,TRUE,Utility Account to Organization Settlement Account,979524 - ANCIENT WELLS PROPERTY MANAGERS 2,,
PE39IOTU6H,03/05/2021 13:02,03/05/2021 13:02,Pay Bill from 254715742045 - FRIDAH KIEMA Acc. HGC,Completed,9500,,39500,TRUE,Pay Utility with OD via STK,254715742045 - FRIDAH KIEMA,,HGC
PE38IMYASG,03/05/2021 12:24,03/05/2021 12:24,Pay Bill from 254710635630 - DONNA JESSICA OWANO Acc. KCC,Completed,10000,,30000,TRUE,Pay Utility,254710635630 - DONNA JESSICA OWANO,,KCC
PE39IHYT6Z,03/05/2021 10:40,03/05/2021 10:40,Pay Bill from 254719439717 - Cecilia Omondi Acc. hfc,Completed,2000,,20000,TRUE,Pay Utility,254719439717 - Cecilia Omondi,,hfc
PE31IHH5S1,03/05/2021 10:30,03/05/2021 10:30,Pay Bill from 254714814264 - PATRICIA NZOMO Acc. Hcc,Completed,10000,,18000,TRUE,Pay Utility,254714814264 - PATRICIA NZOMO,,Hcc
PE32IEWL2A,03/05/2021 09:33,03/05/2021 09:33,Pay Bill Online from 254726001437 - FESTUS MUNYIRI MAINA Acc. IFF,Completed,8000,,8000,TRUE,Pay Bill Online,254726001437 - FESTUS MUNYIRI MAINA,,IFF
PE37ICVW45,03/05/2021 08:45,03/05/2021 08:45,Utility Account to Organization Settlement Account,Completed,,-459100,0,TRUE,Utility Account to Organization Settlement Account,979524 - ANCIENT WELLS PROPERTY MANAGERS 2,,
PE37I81FAZ,03/05/2021 00:17,03/05/2021 00:17,Pay Bill Online from 254717780356 - ALFRED MAIRURA Acc. FAF,Completed,16000,,459100,TRUE,Pay Bill Online,254717780356 - ALFRED MAIRURA,,FAF
PE29I7JNF7,02/05/2021 23:06,02/05/2021 23:06,Pay Bill from 254703935626 - DAVID NGARI ITA Acc. FCD,Completed,1000,,443100,TRUE,Pay Utility,254703935626 - DAVID NGARI ITA,,FCD
PE29I0NWLP,02/05/2021 19:46,02/05/2021 19:46,Pay Bill Online from 254704682516 - Winnie Akinyi Omollo Acc. FDA,Completed,16000,,442100,TRUE,Pay Bill Online,254704682516 - Winnie Akinyi Omollo,,FDA
PE28I0CFCQ,02/05/2021 19:41,02/05/2021 19:41,Pay Bill Online from 254718299426 - AMOS NGURE MWANGI Acc. HEE,Completed,10500,,426100,TRUE,Pay Bill Online,254718299426 - AMOS NGURE MWANGI,,HEE
PE20HZY298,02/05/2021 19:35,02/05/2021 19:35,Pay Bill from 254708225541 - JUDITH NKATHA SIMBA Acc. HDH,Completed,16000,,415600,TRUE,Pay Utility,254708225541 - JUDITH NKATHA SIMBA,,HDH
PE29HKAHM3,02/05/2021 14:55,02/05/2021 14:55,Pay Bill from 254719439717 - Cecilia Omondi Acc. hfc,Completed,7000,,399600,TRUE,Pay Utility,254719439717 - Cecilia Omondi,,hfc
PE29HISNNF,02/05/2021 14:24,02/05/2021 14:24,Pay Bill from 254721465713 - RHODA WAMBUI MWANGI Acc. Jfh,Completed,17000,,392600,TRUE,Pay Utility,254721465713 - RHODA WAMBUI MWANGI,,Jfh
PE24HGV0LY,02/05/2021 13:43,02/05/2021 13:43,Pay Bill from 254712461449 - CAROLINE MUTHONI GICHOHI Acc. fca,Completed,16000,,375600,TRUE,Pay Utility,254712461449 - CAROLINE MUTHONI GICHOHI,,fca
PE24HF5YDK,02/05/2021 13:06,02/05/2021 13:06,Pay Bill from 254723488259 - WILSON OKITE OKITE Acc. HCA,Completed,15000,,359600,TRUE,Pay Utility with OD via STK,254723488259 - WILSON OKITE OKITE,,HCA
PE25HEZE2D,02/05/2021 13:02,02/05/2021 13:02,Pay Bill from 0719405714 - tabitha akinyi ochieng Acc. HGD,Completed,9000,,344600,TRUE,Pay Utility,0719405714 - tabitha akinyi ochieng,,HGD
PE27H9B9CT,02/05/2021 10:47,02/05/2021 10:47,Pay Bill from 254719285750 - LILIAN ACHIENG ODONGO Acc. IGE,Completed,9000,,335600,TRUE,Pay Utility,254719285750 - LILIAN ACHIENG ODONGO,,IGE
PE27H769RV,02/05/2021 09:55,02/05/2021 09:55,Pay Bill from 254702346515 - ELIZABETH ACHIENG NGOME Acc. KDE,Completed,10000,,326600,TRUE,Pay Utility,254702346515 - ELIZABETH ACHIENG NGOME,,KDE
PE21H1H5R9,02/05/2021 07:12,02/05/2021 07:12,Pay Bill Online from 254715764212 - BANCE ISHEMINYE Acc. JFE ,Completed,2000,,316600,TRUE,Pay Bill Online,254715764212 - BANCE ISHEMINYE,,JFE
PE20H19YCM,02/05/2021 07:03,02/05/2021 07:03,Pay Bill from 254707226192 - NICHOLUS MAINGI MWANTHI Acc. HBF,Completed,9000,,314600,TRUE,Pay Utility,254707226192 - NICHOLUS MAINGI MWANTHI,,HBF
PE22GZ4BVA,02/05/2021 00:06,02/05/2021 00:06,Pay Bill from 254726753273 - JESSE K MURIRMI NJERU Acc. HCH,Completed,17000,,305600,TRUE,Pay Utility,254726753273 - JESSE K MURIRMI NJERU,,HCH
PE18GW9HQS,01/05/2021 21:30,01/05/2021 21:30,Pay Bill from 254720351482 - Cheruiyot Langat Brian Acc. dfa,Completed,15000,,288600,TRUE,Pay Utility,254720351482 - Cheruiyot Langat Brian,,dfa
PE12GVXFWA,01/05/2021 21:21,01/05/2021 21:21,Pay Bill from 254703935626 - DAVID NGARI ITA Acc. FCD,Completed,1000,,273600,TRUE,Pay Utility,254703935626 - DAVID NGARI ITA,,FCD
PE15GLCH77,01/05/2021 18:37,01/05/2021 18:37,Pay Bill from 254707370896 - OKECH BRIAN BRIAN Acc. FFA,Completed,15000,,272600,TRUE,Pay Utility,254707370896 - OKECH BRIAN BRIAN,,FFA
PE16GL4CAS,01/05/2021 18:33,01/05/2021 18:33,Pay Bill Online from 254725385966 - JOSEPH MUYA MARUA Acc. KEE,Completed,10000,,257600,TRUE,Pay Bill Online,254725385966 - JOSEPH MUYA MARUA,,KEE
PE19GJMNIL,01/05/2021 18:11,01/05/2021 18:11,Pay Bill from 254722604851 - WILFRED SAKWA Acc. IDG,Completed,11000,,247600,TRUE,Pay Utility,254722604851 - WILFRED SAKWA,,IDG
PE13GHH26F,01/05/2021 17:37,01/05/2021 17:37,Pay Bill Online from 254795510441 - LEWIS MUEMA Acc. KEB,Completed,16000,,236600,TRUE,Pay Bill Online,254795510441 - LEWIS MUEMA,,KEB
PE19GHG7RV,01/05/2021 17:37,01/05/2021 17:37,Pay Bill from 254721417560 - ANDREW SANDE Acc. JBJ,Completed,16000,,220600,TRUE,Pay Utility,254721417560 - ANDREW SANDE,,JBJ
PE18GGNNS2,01/05/2021 17:23,01/05/2021 17:23,Pay Bill Online from 254711562428 - Lionel Mutune Muoka Acc. KDI,Completed,11000,,204600,TRUE,Pay Bill Online,254711562428 - Lionel Mutune Muoka,,KDI
PE14GDOTEI,01/05/2021 16:31,01/05/2021 16:31,Pay Bill from 254717726012 - WINFRED MUENI PETER Acc. IDA,Completed,16000,,193600,TRUE,Pay Utility,254717726012 - WINFRED MUENI PETER,,IDA
PE17GCVSF5,01/05/2021 16:17,01/05/2021 16:17,Pay Bill from 254719499823 - MOSES MWANZIA MUTHIANI Acc. Jcc,Completed,3000,,177600,TRUE,Pay Utility with OD via STK,254719499823 - MOSES MWANZIA MUTHIANI,,Jcc
PE11GCGD8V,01/05/2021 16:09,01/05/2021 16:09,Pay Bill Online from 254712370657 - MARVIN NYANGAU Acc. Hs. no. KAJ May2021 rent,Completed,16000,,174600,TRUE,Pay Bill Online,254712370657 - MARVIN NYANGAU,,Hs.
PE17GC8OBV,01/05/2021 16:04,01/05/2021 16:04,Pay Bill from 0798660933 - JOSEPH NEWTON GUNI Acc. IAI,Completed,15600,,158600,TRUE,Pay Utility,0798660933 - JOSEPH NEWTON GUNI,,IAI
PE18G7BIAG,01/05/2021 14:30,01/05/2021 14:30,Pay Bill from 254726039536 - MERCY MESHACK Acc. JBC,Completed,11000,,143000,TRUE,Pay Utility,254726039536 - MERCY MESHACK,,JBC
PE11G77QX7,01/05/2021 14:28,01/05/2021 14:28,Pay Bill from 254705122840 - RICHU MWANGI GATURAGA Acc. DEA,Completed,33000,,132000,TRUE,Pay Utility,254705122840 - RICHU MWANGI GATURAGA,,DEA
PE19G6LEC5,01/05/2021 14:16,01/05/2021 14:16,Pay Bill from 254721302658 - JACOB BIRUNDU Acc. DDB,Completed,16000,,99000,TRUE,Pay Utility,254721302658 - JACOB BIRUNDU,,DDB
PE15G5N5H9,01/05/2021 13:58,01/05/2021 13:58,Pay Bill from 0113473583 - GERARD   HAVYARIMANA Acc. KAH,Completed,10000,,83000,TRUE,Pay Utility,0113473583 - GERARD   HAVYARIMANA,,KAH
PE15G1QSIL,01/05/2021 12:43,01/05/2021 12:43,Pay Bill from 254708376721 - Millicent Achieng Akuka Acc. KCA,Completed,10000,,73000,TRUE,Pay Utility with OD via STK,254708376721 - Millicent Achieng Akuka,,KCA
PE12G1B0I6,01/05/2021 12:34,01/05/2021 12:34,Pay Bill from 254729796719 - JACINTA WANJIKU NJERI Acc. FFF,Completed,17000,,63000,TRUE,Pay Utility,254729796719 - JACINTA WANJIKU NJERI,,FFF
PE10FZGIPQ,01/05/2021 11:57,01/05/2021 11:57,Pay Bill from 254723499628 - CLINTON JOSEPH MUHARI Acc. hfh,Completed,16000,,46000,TRUE,Pay Utility,254723499628 - CLINTON JOSEPH MUHARI,,hfh
PE16FXO8GA,01/05/2021 11:21,01/05/2021 11:21,Pay Bill from 0796121714 - janet   mwikali Acc. kec,Completed,10000,,30000,TRUE,Pay Utility,0796121714 - janet   mwikali,,kec
PE12FU7QAE,01/05/2021 10:09,01/05/2021 10:09,Pay Bill from 254702355678 - JOHN NJOROGE GICHERU Acc. ITE,Completed,20000,,20000,TRUE,Pay Utility,254702355678 - JOHN NJOROGE GICHERU,,ITE
PE16FRSB00,01/05/2021 09:16,01/05/2021 09:16,Utility Account to Organization Settlement Account,Completed,,-316000,0,TRUE,Utility Account to Organization Settlement Account,979524 - ANCIENT WELLS PROPERTY MANAGERS 2,,
PE17FNENT3,01/05/2021 07:19,01/05/2021 07:19,Pay Bill Online from 254726593769 - BONFACE BWINA Acc. DEB,Completed,16000,,316000,TRUE,Pay Bill Online,254726593769 - BONFACE BWINA,,DEB
