Receipt No.,Completion Time,Initiation Time,Details,Transaction Status,Paid In,Withdrawn,Balance,Balance Confirmed,Reason Type,Other Party Info,Linked Transaction ID,A/C No.
QJA0M44UJ6,10/10/2022 14:01,10/10/2022 14:01,Pay Bill from 0713126951 - PAUL KIARIE GEORGE Acc. v17,Completed,7000,,14000,TRUE,Pay Utility,0713126951 - PAUL KIARIE GEORGE,,v17
QJA1M37DX3,10/10/2022 13:50,10/10/2022 13:50,Pay Bill from 254769508804 - Lydia Watiri Irungu Acc. V 31,Completed,7000,,7000,TRUE,Pay Utility,254769508804 - Lydia Watiri Irungu,,V
QJA4LAPLGQ,10/10/2022 06:56,10/10/2022 06:56,Utility Account to Organization Settlement Account,Completed,,-34400,0,TRUE,Utility Account to Organization Settlement Account,887674 - ANCIENT WELLS LTD 1,,
QJ93KTUUBD,09/10/2022 19:49,09/10/2022 19:49,Pay Bill from 254700904994 - HUSSEIN HASSAN LAMA Acc. V43,Completed,7000,,34400,TRUE,Pay Utility,254700904994 - HUSSEIN HASSAN LAMA,,V43
QJ96KLA08M,09/10/2022 18:31,09/10/2022 18:31,Pay Bill Online from 254723389922 - ANNE WANJIKU NDUNGU Acc. v53,Completed,6800,,27400,TRUE,Pay Bill Online,254723389922 - ANNE WANJIKU NDUNGU,,v53
QJ82HUPRMG,08/10/2022 15:00,08/10/2022 15:00,Pay Bill from 0758457508 - PETER KINGORI KAGUNDA Acc. V06,Completed,7000,,20600,TRUE,Pay Utility,0758457508 - PETER KINGORI KAGUNDA,,V06
QJ83HOYDE1,08/10/2022 13:54,08/10/2022 13:54,Pay Bill from 254700085051 - HUMPHREY WANJIKU Acc. V46,Completed,6600,,13600,TRUE,Pay Utility,254700085051 - HUMPHREY WANJIKU,,V46
QJ80HESC3G,08/10/2022 11:52,08/10/2022 11:52,Pay Bill Online from 254113615645 - brian litumbi embai Acc. V58,Completed,7000,,7000,TRUE,Pay Bill Online,254113615645 - brian litumbi embai,,V58
QJ81H59Y0V,08/10/2022 09:51,08/10/2022 09:51,Utility Account to Organization Settlement Account,Completed,,-20950,0,TRUE,Utility Account to Organization Settlement Account,887674 - ANCIENT WELLS LTD 1,,
QJ79GN8IG3,07/10/2022 22:10,07/10/2022 22:10,Pay Bill from 254720056285 - DAMARIS NDURU Acc. V18,Completed,6600,,20950,TRUE,Pay Utility,254720056285 - DAMARIS NDURU,,V18
QJ78GN2H7I,07/10/2022 22:08,07/10/2022 22:08,Pay Bill from 254799304833 - ISMAEL RAJAB KITSAO Acc. v52,Completed,3750,,14350,TRUE,Pay Utility,254799304833 - ISMAEL RAJAB KITSAO,,v52
QJ72GL7NMI,07/10/2022 21:38,07/10/2022 21:38,Pay Bill from 0727266858 - winrose imbuga mudenyo Acc. vk5,Completed,3600,,10600,TRUE,Pay Utility,0727266858 - winrose imbuga mudenyo,,vk5
QJ75FVQXFP,07/10/2022 17:54,07/10/2022 17:54,Pay Bill from 0769858701 - DOLLARS DANIEL CIRHUZA Acc. V09,Completed,7000,,7000,TRUE,Pay Utility,0769858701 - DOLLARS DANIEL CIRHUZA,,V09
QJ72FPDXPQ,07/10/2022 16:54,07/10/2022 16:54,Utility Account to Organization Settlement Account,Completed,,-28200,0,TRUE,Utility Account to Organization Settlement Account,887674 - ANCIENT WELLS LTD 1,,
QJ70F565O0,07/10/2022 12:58,07/10/2022 12:58,Pay Bill from 254720466443 - FATUMA MOHAMED ABDALLAH Acc. V21,Completed,7000,,28200,TRUE,Pay Utility,254720466443 - FATUMA MOHAMED ABDALLAH,,V21
QJ64EB6RP6,06/10/2022 23:57,06/10/2022 23:57,Pay Bill Online from 254723147662 - EMMANUEL ETYANG EKISA Acc. V44,Completed,1000,,21200,TRUE,Pay Bill Online,254723147662 - EMMANUEL ETYANG EKISA,,V44
QJ60E5IPQC,06/10/2022 21:30,06/10/2022 21:30,Pay Bill from 254717294709 - CAROLINE WAVINYA NDINDA Acc. v15,Completed,7000,,20200,TRUE,Pay Utility,254717294709 - CAROLINE WAVINYA NDINDA,,v15
QJ66E4B3M2,06/10/2022 21:14,06/10/2022 21:14,Pay Bill Online from 254726465584 - JULIANA MUKELI MUTUNGA Acc. v4,Completed,6600,,13200,TRUE,Pay Bill Online,254726465584 - JULIANA MUKELI MUTUNGA,,v4
QJ62DRPBAQ,06/10/2022 19:19,06/10/2022 19:19,Pay Bill from 254712091662 - BENARD OMONDI ROBY Acc. V16,Completed,6600,,6600,TRUE,Pay Utility,254712091662 - BENARD OMONDI ROBY,,V16
QJ62D15UVC,06/10/2022 14:59,06/10/2022 14:59,Utility Account to Organization Settlement Account,Completed,,-62300,0,TRUE,Utility Account to Organization Settlement Account,887674 - ANCIENT WELLS LTD 1,,
QJ63CXC94X,06/10/2022 14:12,06/10/2022 14:12,Pay Bill from 254703108159 - JOICE OGOLLA Acc. V50,Completed,6600,,62300,TRUE,Pay Utility,254703108159 - JOICE OGOLLA,,V50
QJ64CF8AMC,06/10/2022 10:23,06/10/2022 10:23,Pay Bill Online from 254740912300 - ADELIDE IMINZA CHAGUSIA Acc. v27,Completed,7000,,55700,TRUE,Pay Bill Online,254740912300 - ADELIDE IMINZA CHAGUSIA,,v27
QJ61C8E1I3,06/10/2022 08:49,06/10/2022 08:49,Utility Account to Organization Settlement Account,Completed,,-50000,48700,TRUE,Utility Account to Organization Settlement Account,887674 - ANCIENT WELLS LTD 1,,
QJ56BWGQBA,05/10/2022 22:41,05/10/2022 22:41,Pay Bill from 0717042461 - Sharon Nyangasi Shivachi Acc. V55,Completed,6600,,98700,TRUE,Pay Utility,0717042461 - Sharon Nyangasi Shivachi,,V55
QJ50BPXR4U,05/10/2022 20:58,05/10/2022 20:58,Pay Bill from 254722578070 - SAMUEL MACHARIA Acc. v42,Completed,7000,,92100,TRUE,Pay Utility,254722578070 - SAMUEL MACHARIA,,v42
QJ53BK2RYJ,05/10/2022 20:02,05/10/2022 20:02,Pay Bill from 254707183471 - PETINA NEKESA Acc. V23,Completed,6500,,85100,TRUE,Pay Utility,254707183471 - PETINA NEKESA,,V23
QJ50BHH62W,05/10/2022 19:41,05/10/2022 19:41,Pay Bill from 254729358258 - Cliff Ombasa Acc. v05,Completed,10000,,78600,TRUE,Pay Utility,254729358258 - Cliff Ombasa,,v05
QJ53AXF947,05/10/2022 16:55,05/10/2022 16:55,Pay Bill from 254723815832 - SEMEKIA ONDIALA Acc. v38,Completed,6600,,68600,TRUE,Pay Utility,254723815832 - SEMEKIA ONDIALA,,v38
QJ51AK8CLZ,05/10/2022 14:18,05/10/2022 14:18,Pay Bill from 254723337732 - CHRISTINE AKINYI OCHELE Acc. V14,Completed,7000,,62000,TRUE,Pay Utility,254723337732 - CHRISTINE AKINYI OCHELE,,V14
QJ59AJXKP7,05/10/2022 14:14,05/10/2022 14:14,Pay Bill from 0795807227 - Lucy Ncekei Kimathi Acc. V36 ,Completed,8600,,55000,TRUE,Pay Utility,0795807227 - Lucy Ncekei Kimathi,,V36
QJ51AJ0EPD,05/10/2022 14:03,05/10/2022 14:03,Pay Bill from 254790128716 - HELLEN NAPHTAL Acc. V11,Completed,7000,,46400,TRUE,Pay Utility,254790128716 - HELLEN NAPHTAL,,V11
QJ599XPT3F,05/10/2022 09:33,05/10/2022 09:33,Utility Account to Organization Settlement Account,Completed,,-100000,39400,TRUE,Utility Account to Organization Settlement Account,887674 - ANCIENT WELLS LTD 1,,
QJ589KBZXK,05/10/2022 00:03,05/10/2022 00:03,Pay Bill Online from 254723147662 - EMMANUEL ETYANG EKISA Acc. V44,Completed,1000,,139400,TRUE,Pay Bill Online,254723147662 - EMMANUEL ETYANG EKISA,,V44
QJ448TUPGQ,04/10/2022 18:24,04/10/2022 18:24,Pay Bill from 0768384843 - Augastine   Omeri Acc. V51,Completed,7000,,138400,TRUE,Pay Utility,0768384843 - Augastine   Omeri,,V51
QJ488MAV70,04/10/2022 17:15,04/10/2022 17:15,Pay Bill Online from 254704995854 - james karanja wairimu Acc. V54,Completed,6600,,131400,TRUE,Pay Bill Online,254704995854 - james karanja wairimu,,V54
QJ4287172C,04/10/2022 14:15,04/10/2022 14:15,Pay Bill Online from 254702118125 - ROTICH BETHWEL Acc. V20,Completed,7000,,124800,TRUE,Pay Bill Online,254702118125 - ROTICH BETHWEL,,V20
QJ407VW01Y,04/10/2022 11:57,04/10/2022 11:57,Pay Bill from 254743311673 - Maureen Njoki Wambui Acc. v60,Completed,900,,117800,TRUE,Pay Utility,254743311673 - Maureen Njoki Wambui,,v60
QJ497UUB97,04/10/2022 11:44,04/10/2022 11:44,Pay Bill from 254791173224 - FAITH WAMBUI GATHECHA Acc. V29,Completed,10000,,116900,TRUE,Pay Utility,254791173224 - FAITH WAMBUI GATHECHA,,V29
QJ3673QG7C,03/10/2022 21:51,03/10/2022 21:51,Pay Bill from 254726702082 - STEPHEN NJUGUNA Acc. V02,Completed,7800,,106900,TRUE,Pay Utility,254726702082 - STEPHEN NJUGUNA,,V02
QJ356WGJRZ,03/10/2022 20:21,03/10/2022 20:21,Pay Bill from 0714747222 - WILSON KIMANI MWANGI Acc. V25,Completed,7000,,99100,TRUE,Pay Utility,0714747222 - WILSON KIMANI MWANGI,,V25
QJ3159D30L,03/10/2022 09:42,03/10/2022 09:42,Pay Bill from 254701174081 - JOSEPHINE ODUOR Acc. v34,Completed,2500,,92100,TRUE,Pay Utility,254701174081 - JOSEPHINE ODUOR,,v34
QJ34542VFM,03/10/2022 08:26,03/10/2022 08:26,Pay Bill from 254701086112 - CAROLYNE KOKI MULWA Acc. V30,Completed,6600,,89600,TRUE,Pay Utility,254701086112 - CAROLYNE KOKI MULWA,,V30
QJ131UNCU7,01/10/2022 17:44,01/10/2022 17:44,Pay Bill from 254702923950 - SAMUEL KIMANTHI Acc. V49,Completed,7400,,83000,TRUE,Pay Utility,254702923950 - SAMUEL KIMANTHI,,V49
QJ131A4YTF,01/10/2022 14:03,01/10/2022 14:03,Pay Bill from 0759010546 - Diana akinyi riko Acc. V48,Completed,14000,,75600,TRUE,Pay Utility,0759010546 - Diana akinyi riko,,V48
