Receipt No.,Completion Time,Initiation Time,Details,Transaction Status,Paid In,Withdrawn,Balance,Balance Confirmed,Reason Type,Other Party Info,Linked Transaction ID,A/C No.
QKE6WM9TPO,14/11/2022 14:14,14/11/2022 14:14,Pay Bill Online from 254729569271 - MESHACK OBOTTA OBARE Acc. V12,Completed,9200,,9200,TRUE,Pay Bill Online,254729569271 - MESHACK OBOTTA OBARE,,V12
QKE5VSG6TP,14/11/2022 07:20,14/11/2022 07:20,Utility Account to Organization Settlement Account,Completed,,-17550,0,TRUE,Utility Account to Organization Settlement Account,887674 - ANCIENT WELLS LTD 1,,
QKD3UWZ259,13/11/2022 17:55,13/11/2022 17:55,Pay Bill from 254702085109 - YASIN HASSAN BARKADE Acc. kcj859q ,Completed,50,,17550,TRUE,Pay Utility,254702085109 - YASIN HASSAN BARKADE,,kcj859q
QKC6TGPWD6,12/11/2022 23:19,12/11/2022 23:19,Pay Bill from 254719658678 - KELVIN SOMBA MAUNDU Acc. vk6,Completed,3500,,17500,TRUE,Pay Utility,254719658678 - KELVIN SOMBA MAUNDU,,vk6
QKC8TEJ77W,12/11/2022 22:21,12/11/2022 22:21,Pay Bill from 254717294709 - CAROLINE WAVINYA NDINDA Acc. v15,Completed,7000,,14000,TRUE,Pay Utility,254717294709 - CAROLINE WAVINYA NDINDA,,v15
QKC1S882M3,12/11/2022 15:17,12/11/2022 15:17,Pay Bill from 254700904994 - HUSSEIN HASSAN LAMA Acc. V43,Completed,7000,,7000,TRUE,Pay Utility,254700904994 - HUSSEIN HASSAN LAMA,,V43
QKC6S7J2YQ,12/11/2022 15:09,12/11/2022 15:09,Utility Account to Organization Settlement Account,Completed,,-2000,0,TRUE,Utility Account to Organization Settlement Account,887674 - ANCIENT WELLS LTD 1,,
QKC0S53UWW,12/11/2022 14:41,12/11/2022 14:41,Pay Bill from 254706920646 - MIRIAM CHEPTOO Acc. V08,Completed,2000,,2000,TRUE,Pay Utility with OD via STK,254706920646 - MIRIAM CHEPTOO,,V08
QKC7RO93PJ,12/11/2022 11:18,12/11/2022 11:18,Utility Account to Organization Settlement Account,Completed,,-9500,0,TRUE,Utility Account to Organization Settlement Account,887674 - ANCIENT WELLS LTD 1,,
QKC7RJVM2L,12/11/2022 10:22,12/11/2022 10:22,Pay Bill from 0758457508 - PETER KINGORI KAGUNDA Acc. V06,Completed,7000,,9500,TRUE,Pay Utility,0758457508 - PETER KINGORI KAGUNDA,,V06
QKC6R47HM4,12/11/2022 01:22,12/11/2022 01:22,Pay Bill from 0713126951 - PAUL KIARIE GEORGE Acc. v17,Completed,2500,,2500,TRUE,Pay Utility,0713126951 - PAUL KIARIE GEORGE,,v17
QKB6PWGJZO,11/11/2022 15:46,11/11/2022 15:46,Utility Account to Organization Settlement Account,Completed,,-6600,0,TRUE,Utility Account to Organization Settlement Account,887674 - ANCIENT WELLS LTD 1,,
QKB1PKWD5L,11/11/2022 13:27,11/11/2022 13:27,Pay Bill from 254700085051 - HUMPHREY WANJIKU Acc. v46,Completed,6600,,6600,TRUE,Pay Utility,254700085051 - HUMPHREY WANJIKU,,v46
QKB8P675H8,11/11/2022 10:20,11/11/2022 10:20,Utility Account to Organization Settlement Account,Completed,,-70701,0,TRUE,Utility Account to Organization Settlement Account,887674 - ANCIENT WELLS LTD 1,,
QKB2OQ4IIC,11/11/2022 02:18,11/11/2022 02:18,Pay Bill from 254701174081 - JOSEPHINE ODUOR Acc. v34,Completed,2000,,70701,TRUE,Pay Utility,254701174081 - JOSEPHINE ODUOR,,v34
QKB1OQ24SR,11/11/2022 02:05,11/11/2022 02:05,Pay Bill from 254722282754 - HENRY SAHA Acc. V34,Completed,7000,,68701,TRUE,Pay Utility,254722282754 - HENRY SAHA,,V34
QKA2OGMNCK,10/11/2022 20:56,10/11/2022 20:56,Pay Bill from 0727266858 - winrose imbuga mudenyo Acc. vk5,Completed,3400,,61701,TRUE,Pay Utility,0727266858 - winrose imbuga mudenyo,,vk5
QKA3OGG2J1,10/11/2022 20:54,10/11/2022 20:54,Pay Bill from 0727266858 - winrose imbuga mudenyo Acc. vk5,Completed,1,,58301,TRUE,Pay Utility,0727266858 - winrose imbuga mudenyo,,vk5
QKA8MP5KV0,10/11/2022 09:29,10/11/2022 09:29,Pay Bill from 254723389922 - ANNE WANJIKU NDUNGU Acc. v53,Completed,7000,,58300,TRUE,Pay Utility,254723389922 - ANNE WANJIKU NDUNGU,,v53
QKA2MN8DSI,10/11/2022 09:01,10/11/2022 09:01,Pay Bill from 0769858701 - DOLLARS DANIEL CIRHUZA Acc. V09,Completed,7000,,51300,TRUE,Pay Utility,0769858701 - DOLLARS DANIEL CIRHUZA,,V09
QK94MBUY8Y,09/11/2022 23:32,09/11/2022 23:32,Pay Bill from 254707183471 - PETINA NEKESA Acc. V23,Completed,6600,,44300,TRUE,Pay Utility,254707183471 - PETINA NEKESA,,V23
QK95MA6P0R,09/11/2022 22:34,09/11/2022 22:34,Pay Bill from 254729806880 - Eunice Akinyi Were Acc. V33,Completed,7000,,37700,TRUE,Pay Utility,254729806880 - Eunice Akinyi Were,,V33
QK96L1RONK,09/11/2022 15:08,09/11/2022 15:08,Pay Bill from 254713894468 - RAPHAEL . NTHAMBURI Acc. v26,Completed,1600,,30700,TRUE,Pay Utility,254713894468 - RAPHAEL . NTHAMBURI,,v26
QK94KGABFW,09/11/2022 10:41,09/11/2022 10:41,Pay Bill from 254706920646 - MIRIAM CHEPTOO Acc. V08,Completed,3000,,29100,TRUE,Pay Utility with OD via STK,254706920646 - MIRIAM CHEPTOO,,V08
QK86JSV7MO,08/11/2022 21:46,08/11/2022 21:46,Pay Bill from 254720056285 - DAMARIS NDURU Acc. V18,Completed,6600,,26100,TRUE,Pay Utility,254720056285 - DAMARIS NDURU,,V18
QK85JS65TD,08/11/2022 21:36,08/11/2022 21:36,Pay Bill Online from 254723147662 - EMMANUEL ETYANG EKISA Acc. V44,Completed,2000,,19500,TRUE,Pay Bill Online,254723147662 - EMMANUEL ETYANG EKISA,,V44
QK89J7IYLF,08/11/2022 18:35,08/11/2022 18:35,Pay Bill from 254720466443 - FATUMA MOHAMED ABDALLAH Acc. V21,Completed,7000,,17500,TRUE,Pay Utility,254720466443 - FATUMA MOHAMED ABDALLAH,,V21
QK81IZ7HZT,08/11/2022 17:23,08/11/2022 17:23,Pay Bill from 0111512152 - Pasckaline Wangari Irungu Acc. V59,Completed,10500,,10500,TRUE,Pay Utility,0111512152 - Pasckaline Wangari Irungu,,V59
QK86IYH7F0,08/11/2022 17:16,08/11/2022 17:16,Utility Account to Organization Settlement Account,Completed,,-14300,0,TRUE,Utility Account to Organization Settlement Account,887674 - ANCIENT WELLS LTD 1,,
QK82ISGY06,08/11/2022 16:09,08/11/2022 16:09,Pay Bill from 254713894468 - RAPHAEL . NTHAMBURI Acc. v26,Completed,7300,,14300,TRUE,Pay Utility,254713894468 - RAPHAEL . NTHAMBURI,,v26
QK71GRGTVR,07/11/2022 18:08,07/11/2022 18:08,Pay Bill from 254724760122 - DENIS NJUGUNA KARANJA Acc. V32,Completed,7000,,7000,TRUE,Pay Utility with OD via STK,254724760122 - DENIS NJUGUNA KARANJA,,V32
QK70GMI87E,07/11/2022 17:22,07/11/2022 17:22,Utility Account to Organization Settlement Account,Completed,,-27600,0,TRUE,Utility Account to Organization Settlement Account,887674 - ANCIENT WELLS LTD 1,,
QK78GK3Z8Q,07/11/2022 16:58,07/11/2022 16:58,Pay Bill Online from 254799654490 - DANIEL MUTIO MAUNDU Acc. V28,Completed,6000,,27600,TRUE,Pay Bill Online,254799654490 - DANIEL MUTIO MAUNDU,,V28
QK79GBX789,07/11/2022 15:23,07/11/2022 15:23,Pay Bill from 0707674271 - Victor   Mwilu Acc. v37,Completed,8000,,21600,TRUE,Pay Utility,0707674271 - Victor   Mwilu,,v37
QK70FPX1RE,07/11/2022 10:51,07/11/2022 10:51,Pay Bill Online from 254704995854 - james karanja wairimu Acc. V54,Completed,6600,,13600,TRUE,Pay Bill Online,254704995854 - james karanja wairimu,,V54
QK78FEG8WI,07/11/2022 08:14,07/11/2022 08:14,Pay Bill from 0111512152 - Pasckaline Wangari Irungu Acc. V59,Completed,7000,,7000,TRUE,Pay Utility,0111512152 - Pasckaline Wangari Irungu,,V59
QK70F6NPME,07/11/2022 00:09,07/11/2022 00:09,Utility Account to Organization Settlement Account,Completed,,-72900,0,TRUE,Utility Account to Organization Settlement Account,887674 - ANCIENT WELLS LTD 1,,
QK60F4STWW,06/11/2022 22:37,06/11/2022 22:37,Pay Bill from 254790128716 - HELLEN NAPHTAL Acc. V11,Completed,7000,,72900,TRUE,Pay Utility,254790128716 - HELLEN NAPHTAL,,V11
QK60EWSJOI,06/11/2022 20:31,06/11/2022 20:31,Pay Bill from 0718314223 - WILSON      WAINDO Acc. v19,Completed,10500,,65900,TRUE,Pay Utility,0718314223 - WILSON      WAINDO,,v19
QK69EU4NO9,06/11/2022 20:04,06/11/2022 20:04,Pay Bill from 254701086112 - CAROLYNE KOKI MULWA Acc. V30,Completed,6600,,55400,TRUE,Pay Utility,254701086112 - CAROLYNE KOKI MULWA,,V30
QK68E4LHWK,06/11/2022 15:56,06/11/2022 15:56,Pay Bill from 0717042461 - Sharon Nyangasi Shivachi Acc. V55,Completed,6600,,48800,TRUE,Pay Utility,0717042461 - Sharon Nyangasi Shivachi,,V55
QK61E3D8UX,06/11/2022 15:42,06/11/2022 15:42,Pay Bill from 0795807227 - Lucy Ncekei Kimathi Acc. V36 ,Completed,6600,,42200,TRUE,Pay Utility,0795807227 - Lucy Ncekei Kimathi,,V36
QK60E2ASVK,06/11/2022 15:28,06/11/2022 15:28,Pay Bill Online from 254740912300 - ADELIDE IMINZA CHAGUSIA Acc. v27,Completed,7000,,35600,TRUE,Pay Bill Online,254740912300 - ADELIDE IMINZA CHAGUSIA,,v27
QK63D9B983,06/11/2022 09:07,06/11/2022 09:07,Pay Bill from 254702923950 - SAMUEL KIMANTHI Acc. V49,Completed,7400,,28600,TRUE,Pay Utility,254702923950 - SAMUEL KIMANTHI,,V49
QK57CRKP35,05/11/2022 21:27,05/11/2022 21:27,Pay Bill from 254722578070 - SAMUEL MACHARIA Acc. V42,Completed,7000,,21200,TRUE,Pay Utility,254722578070 - SAMUEL MACHARIA,,V42
QK51CDLO8N,05/11/2022 19:20,05/11/2022 19:20,Pay Bill from 0703406243 - LEVITAN    SHALIMBA Acc. vk3,Completed,1000,,14200,TRUE,Pay Utility,0703406243 - LEVITAN    SHALIMBA,,vk3
QK55B3THMX,05/11/2022 11:41,05/11/2022 11:41,Pay Bill Online from 254726465584 - JULIANA MUKELI MUTUNGA Acc. v4,Completed,6600,,13200,TRUE,Pay Bill Online,254726465584 - JULIANA MUKELI MUTUNGA,,v4
QK52B05QHS,05/11/2022 10:57,05/11/2022 10:57,Pay Bill from 254723815832 - SEMEKIA ONDIALA Acc. V38,Completed,6600,,6600,TRUE,Pay Utility,254723815832 - SEMEKIA ONDIALA,,V38
QK50AYCTQE,05/11/2022 10:35,05/11/2022 10:35,Utility Account to Organization Settlement Account,Completed,,-27500,0,TRUE,Utility Account to Organization Settlement Account,887674 - ANCIENT WELLS LTD 1,,
QK57AXIBWN,05/11/2022 10:24,05/11/2022 10:24,Pay Bill from 254702479105 - VALERIO KAUMBU Acc. V52,Completed,17500,,27500,TRUE,Pay Utility,254702479105 - VALERIO KAUMBU,,V52
QK51AOL583,05/11/2022 08:25,05/11/2022 08:25,Pay Bill from 254729358258 - Cliff Ombasa Acc. V05,Completed,10000,,10000,TRUE,Pay Utility,254729358258 - Cliff Ombasa,,V05
QK429RJVYM,04/11/2022 18:51,04/11/2022 18:51,Utility Account to Organization Settlement Account,Completed,,-13600,0,TRUE,Utility Account to Organization Settlement Account,887674 - ANCIENT WELLS LTD 1,,
QK479OV1PH,04/11/2022 18:32,04/11/2022 18:32,Pay Bill from 254703108159 - JOICE OGOLLA Acc. V50,Completed,6600,,13600,TRUE,Pay Utility,254703108159 - JOICE OGOLLA,,V50
QK469BA4HA,04/11/2022 16:30,04/11/2022 16:30,Pay Bill from 0768384843 - Augastine   Omeri Acc. V51,Completed,7000,,7000,TRUE,Pay Utility,0768384843 - Augastine   Omeri,,V51
QK4198W3SL,04/11/2022 16:04,04/11/2022 16:04,Utility Account to Organization Settlement Account,Completed,,-7000,0,TRUE,Utility Account to Organization Settlement Account,887674 - ANCIENT WELLS LTD 1,,
QK4892DLBM,04/11/2022 14:48,04/11/2022 14:48,Pay Bill from 254723337732 - CHRISTINE AKINYI OCHELE Acc. V14,Completed,7000,,7000,TRUE,Pay Utility,254723337732 - CHRISTINE AKINYI OCHELE,,V14
QK478K1C2J,04/11/2022 11:06,04/11/2022 11:06,Utility Account to Organization Settlement Account,Completed,,-20600,0,TRUE,Utility Account to Organization Settlement Account,887674 - ANCIENT WELLS LTD 1,,
QK418COZJ3,04/11/2022 09:32,04/11/2022 09:32,Pay Bill from 0714747222 - WILSON KIMANI MWANGI Acc. v25,Completed,7000,,20600,TRUE,Pay Utility with OD via STK,0714747222 - WILSON KIMANI MWANGI,,v25
QK327QVFAI,03/11/2022 20:59,03/11/2022 20:59,Pay Bill from 254712091662 - BENARD OMONDI ROBY Acc. V16,Completed,6600,,13600,TRUE,Pay Utility,254712091662 - BENARD OMONDI ROBY,,V16
QK327GXDD0,03/11/2022 19:30,03/11/2022 19:30,Pay Bill from 254791173224 - FAITH WAMBUI GATHECHA Acc. v29,Completed,7000,,7000,TRUE,Pay Utility,254791173224 - FAITH WAMBUI GATHECHA,,v29
QK377CF3E1,03/11/2022 18:58,03/11/2022 18:58,Utility Account to Organization Settlement Account,Completed,,-14000,0,TRUE,Utility Account to Organization Settlement Account,887674 - ANCIENT WELLS LTD 1,,
QK336WR6I9,03/11/2022 16:44,03/11/2022 16:44,Pay Bill Online from 254722454346 - RISPER KATHURE MUTHOMI Acc. V47,Completed,7000,,14000,TRUE,Pay Bill Online,254722454346 - RISPER KATHURE MUTHOMI,,V47
QK336FYZ49,03/11/2022 13:26,03/11/2022 13:26,Pay Bill Online from 254113615645 - brian litumbi embai Acc. V58,Completed,7000,,7000,TRUE,Pay Bill Online,254113615645 - brian litumbi embai,,V58
QK346A9Q9O,03/11/2022 12:16,03/11/2022 12:16,Utility Account to Organization Settlement Account,Completed,,-7000,0,TRUE,Utility Account to Organization Settlement Account,887674 - ANCIENT WELLS LTD 1,,
QK294FF0U5,02/11/2022 16:34,02/11/2022 16:34,Pay Bill from 254725873177 - SOLOMON OGWAYE Acc. V48,Completed,7000,,7000,TRUE,Pay Utility with OD via STK,254725873177 - SOLOMON OGWAYE,,V48
QK243WT6WM,02/11/2022 12:45,02/11/2022 12:45,Utility Account to Organization Settlement Account,Completed,,-60000,0,TRUE,Utility Account to Organization Settlement Account,887674 - ANCIENT WELLS LTD 1,,
QK203LBY0G,02/11/2022 10:18,02/11/2022 10:18,Pay Bill from 254719701463 - MARY KANYI KIARIE Acc. v17,Completed,3500,,60000,TRUE,Pay Utility with OD via STK,254719701463 - MARY KANYI KIARIE,,v17
QK121Q19PK,01/11/2022 14:11,01/11/2022 14:11,Pay Bill Online from 254702118125 - ROTICH BETHWEL Acc. V20,Completed,7000,,56500,TRUE,Pay Bill Online,254702118125 - ROTICH BETHWEL,,V20
QK12ZZBU6K,01/11/2022 08:20,01/11/2022 08:20,Pay Bill Online from 254706427665 - CHRIS KIRIMI Acc. v22,Completed,7000,,49500,TRUE,Pay Bill Online,254706427665 - CHRIS KIRIMI,,v22
