Receipt No.,Completion Time,Initiation Time,Details,Transaction Status,Paid In,Withdrawn,Balance,Balance Confirmed,Reason Type,Other Party Info,Linked Transaction ID,A/C No.
PDO36JEWGL,24/04/2021 08:24,24/04/2021 08:24,Utility Account to Organization Settlement Account,Completed,,-6600,0,TRUE,Utility Account to Organization Settlement Account,887674 - ANCIENT WELLS LTD 1,,
PDN6635UTI,23/04/2021 18:44,23/04/2021 18:44,Pay Bill from 254702343078 - JOSEPH EBENYO Acc. V10Joseph,Completed,6600,,6600,TRUE,Pay Utility,254702343078 - JOSEPH EBENYO,,V10Joseph
PDN35HJPQ1,23/04/2021 11:54,23/04/2021 11:54,Utility Account to Organization Settlement Account,Completed,,-6600,0,TRUE,Utility Account to Organization Settlement Account,887674 - ANCIENT WELLS LTD 1,,
PDN857D8BE,23/04/2021 07:44,23/04/2021 07:44,Pay Bill from 254707049818 - LUCKY TSUMA Acc. sp,Completed,6600,,6600,TRUE,Pay Utility,254707049818 - LUCKY TSUMA,,sp
PDM247W5UY,22/04/2021 11:57,22/04/2021 11:57,Utility Account to Organization Settlement Account,Completed,,-7000,0,TRUE,Utility Account to Organization Settlement Account,887674 - ANCIENT WELLS LTD 1,,
PDM53Z7I8T,22/04/2021 08:30,22/04/2021 08:30,Pay Bill from 254722954532 - PAMPHIL CHORONGO Acc. v60,Completed,7000,,7000,TRUE,Pay Utility,254722954532 - PAMPHIL CHORONGO,,v60
PDL33A5UIH,21/04/2021 16:26,21/04/2021 16:26,Utility Account to Organization Settlement Account,Completed,,-6000,0,TRUE,Utility Account to Organization Settlement Account,887674 - ANCIENT WELLS LTD 1,,
PDL138RCWT,21/04/2021 15:58,21/04/2021 15:58,Pay Bill Online from 254715939283 - alex nyamai Acc. alexv07,Completed,6000,,6000,TRUE,Pay Utility with OD Online,254715939283 - alex nyamai,,alexv07
PDI3YONWHX,18/04/2021 18:27,18/04/2021 18:27,Utility Account to Organization Settlement Account,Completed,,-50,0,TRUE,Utility Account to Organization Settlement Account,887674 - ANCIENT WELLS LTD 1,,
PDI8YHTEZY,18/04/2021 16:18,18/04/2021 16:18,Pay Bill Online from 254720120420 - CAROLINE NJERI NJOROGE Acc. KBP639U,Completed,50,,50,TRUE,Pay Bill Online,254720120420 - CAROLINE NJERI NJOROGE,,KBP639U
PDH6XCUNEE,17/04/2021 17:29,17/04/2021 17:29,Utility Account to Organization Settlement Account,Completed,,-7100,0,TRUE,Utility Account to Organization Settlement Account,887674 - ANCIENT WELLS LTD 1,,
PDH8X70JTK,17/04/2021 15:40,17/04/2021 15:40,Pay Bill from 0711494312 - CALVIN MAKWAKA AMULIOTO Acc. V08,Completed,500,,7100,TRUE,Pay Utility,0711494312 - CALVIN MAKWAKA AMULIOTO,,V08
PDG5W819YB,16/04/2021 19:18,16/04/2021 19:18,Pay Bill from 254720623535 - JOSEPH MUTURI KAMAU Acc. V32,Completed,6600,,6600,TRUE,Pay Utility,254720623535 - JOSEPH MUTURI KAMAU,,V32
PDG6VMUVNO,16/04/2021 13:01,16/04/2021 13:01,Utility Account to Organization Settlement Account,Completed,,-19800,0,TRUE,Utility Account to Organization Settlement Account,887674 - ANCIENT WELLS LTD 1,,
PDG3VBKPZ1,16/04/2021 08:45,16/04/2021 08:45,Pay Bill from 254721510646 - ANTHONY IRUNGU KARIUKI Acc. V41,Completed,6600,,19800,TRUE,Pay Utility,254721510646 - ANTHONY IRUNGU KARIUKI,,V41
PDF6UMZO5K,15/04/2021 16:55,15/04/2021 16:55,Pay Bill from 254727457050 - ANDREW SONGORO OSORE Acc. DERRICK V58,Completed,6600,,13200,TRUE,Pay Utility,254727457050 - ANDREW SONGORO OSORE,,DERRICK
PDE1SYHBE7,14/04/2021 11:54,14/04/2021 11:54,Pay Bill from 254713388942 - UKONU CHRISTOPHER OBINNA Acc. V22,Completed,6600,,6600,TRUE,Pay Utility,254713388942 - UKONU CHRISTOPHER OBINNA,,V22
PDD6S1IEUU,13/04/2021 16:42,13/04/2021 16:42,Utility Account to Organization Settlement Account,Completed,,-14000,0,TRUE,Utility Account to Organization Settlement Account,887674 - ANCIENT WELLS LTD 1,,
PDD4S0PBJ6,13/04/2021 16:27,13/04/2021 16:27,Pay Bill from 254701174081 - JOSEPHINE ODUOR Acc. v34,Completed,14000,,14000,TRUE,Pay Utility,254701174081 - JOSEPHINE ODUOR,,v34
PDD1RQ1U07,13/04/2021 12:42,13/04/2021 12:42,Utility Account to Organization Settlement Account,Completed,,-6600,0,TRUE,Utility Account to Organization Settlement Account,887674 - ANCIENT WELLS LTD 1,,
PDC7QX0HTH,12/04/2021 18:18,12/04/2021 18:18,Pay Bill from 254758070694 - naomi ndinda nzamalu Acc. V28,Completed,6600,,6600,TRUE,Pay Utility,254758070694 - naomi ndinda nzamalu,,V28
PDB7P9PAOT,11/04/2021 14:01,11/04/2021 14:01,Utility Account to Organization Settlement Account,Completed,,-20200,0,TRUE,Utility Account to Organization Settlement Account,887674 - ANCIENT WELLS LTD 1,,
PDB7P4ML87,11/04/2021 12:06,11/04/2021 12:06,Pay Bill from 254720056285 - DAMARIS NDURU Acc. V09,Completed,6600,,20200,TRUE,Pay Utility,254720056285 - DAMARIS NDURU,,V09
PDA4NR0478,10/04/2021 11:15,10/04/2021 11:15,Pay Bill from 254710262457 - PETER VIKATSI Acc. V26,Completed,6600,,13600,TRUE,Pay Utility,254710262457 - PETER VIKATSI,,V26
PDA1NQCHGH,10/04/2021 11:01,10/04/2021 11:01,Pay Bill from 254706920646 - MIRIAM CHEPTOO Acc. V08,Completed,7000,,7000,TRUE,Pay Utility with OD via STK,254706920646 - MIRIAM CHEPTOO,,V08
PD99MV6CB7,09/04/2021 16:46,09/04/2021 16:46,Utility Account to Organization Settlement Account,Completed,,-13200,0,TRUE,Utility Account to Organization Settlement Account,887674 - ANCIENT WELLS LTD 1,,
PD99MQCF4Z,09/04/2021 15:14,09/04/2021 15:14,Pay Bill from 254725756974 - MARTIN MUGAMBI Acc. v56,Completed,6600,,13200,TRUE,Pay Utility,254725756974 - MARTIN MUGAMBI,,v56
PD97MLPV2B,09/04/2021 13:41,09/04/2021 13:41,Pay Bill from 0727542914 - Pascal Ouma Opar Acc. pascalv45,Completed,6600,,6600,TRUE,Pay Utility,0727542914 - Pascal Ouma Opar,,pascalv45
PD91MHW1A9,09/04/2021 12:20,09/04/2021 12:20,Utility Account to Organization Settlement Account,Completed,,-7000,0,TRUE,Utility Account to Organization Settlement Account,887674 - ANCIENT WELLS LTD 1,,
PD97MHIAIR,09/04/2021 12:12,09/04/2021 12:12,Pay Bill from 254716113771 - LOISE KURIA Acc. V59,Completed,7000,,7000,TRUE,Pay Utility,254716113771 - LOISE KURIA,,V59
PD90M3Z3L6,09/04/2021 04:56,09/04/2021 04:56,Utility Account to Organization Settlement Account,Completed,,-7500,0,TRUE,Utility Account to Organization Settlement Account,887674 - ANCIENT WELLS LTD 1,,
PD81LY3ETZ,08/04/2021 20:30,08/04/2021 20:30,Pay Bill from 0792024336 - CHRISANTUS KARANI OGOTI Acc. V06,Completed,7500,,7500,TRUE,Pay Utility with OD via STK,0792024336 - CHRISANTUS KARANI OGOTI,,V06
PD88L9VN5E,08/04/2021 13:44,08/04/2021 13:44,Utility Account to Organization Settlement Account,Completed,,-26400,0,TRUE,Utility Account to Organization Settlement Account,887674 - ANCIENT WELLS LTD 1,,
PD86L98UNU,08/04/2021 13:31,08/04/2021 13:31,Pay Bill from 254703108159 - JOICE OGOLLA Acc. V50,Completed,6600,,26400,TRUE,Pay Utility,254703108159 - JOICE OGOLLA,,V50
PD83L4LQV5,08/04/2021 11:52,08/04/2021 11:52,FSI to Pay Bill by 714888 - B2C LOOP VIA NCBA Acc. v40 via WEB by B2C LOOP VIA NCBA\Cbainitiator,Completed,6600,,19800,TRUE,FSI to Pay Bill via API,714888 - B2C LOOP VIA NCBA,,v40
PD87L4FDX1,08/04/2021 11:48,08/04/2021 11:48,Pay Bill Online from 254729569271 - MESHACK OBOTTA OBARE Acc. V12,Completed,6600,,13200,TRUE,Pay Bill Online,254729569271 - MESHACK OBOTTA OBARE,,V12
PD80KW8L72,08/04/2021 08:41,08/04/2021 08:41,Pay Bill Online from 254705670064 - margaret wahu wachira Acc. v35,Completed,6600,,6600,TRUE,Pay Bill Online,254705670064 - margaret wahu wachira,,v35
PD83KVKOD5,08/04/2021 08:23,08/04/2021 08:23,Utility Account to Organization Settlement Account,Completed,,-18000,0,TRUE,Utility Account to Organization Settlement Account,887674 - ANCIENT WELLS LTD 1,,
PD74KON6E2,07/04/2021 21:16,07/04/2021 21:16,Pay Bill from 254717294709 - CAROLINE WAVINYA NDINDA Acc. V15,Completed,7000,,18000,TRUE,Pay Utility,254717294709 - CAROLINE WAVINYA NDINDA,,V15
PD76KCW3CC,07/04/2021 18:21,07/04/2021 18:21,Pay Bill from 254707568664 - Ismael Kitsao Acc. V52,Completed,7000,,11000,TRUE,Pay Utility,254707568664 - Ismael Kitsao,,V52
PD73K7ZNOJ,07/04/2021 17:03,07/04/2021 17:03,Pay Bill from 254704480791 - LYDIA AWUOR OMENO Acc. Samson v33,Completed,4000,,4000,TRUE,Pay Utility with OD via STK,254704480791 - LYDIA AWUOR OMENO,,Samson
PD78K5PDAK,07/04/2021 16:22,07/04/2021 16:22,Utility Account to Organization Settlement Account,Completed,,-19800,0,TRUE,Utility Account to Organization Settlement Account,887674 - ANCIENT WELLS LTD 1,,
PD76JJDY9W,07/04/2021 08:19,07/04/2021 08:19,Pay Bill from 254722307003 - NIGEL BOMETT Acc. V01,Completed,6600,,19800,TRUE,Pay Utility,254722307003 - NIGEL BOMETT,,V01
PD77JIVOB9,07/04/2021 08:05,07/04/2021 08:05,Pay Bill from 254790610309 - MESHACK CHUMBA Acc. V39,Completed,6600,,13200,TRUE,Pay Utility,254790610309 - MESHACK CHUMBA,,V39
PD74JIOOSG,07/04/2021 07:59,07/04/2021 07:59,Pay Bill Online from 254704995854 - james karanja wairimu Acc. V54,Completed,6600,,6600,TRUE,Pay Bill Online,254704995854 - james karanja wairimu,,V54
PD79JGRWU5,07/04/2021 06:35,07/04/2021 06:35,Utility Account to Organization Settlement Account,Completed,,-27200,0,TRUE,Utility Account to Organization Settlement Account,887674 - ANCIENT WELLS LTD 1,,
PD75JGN4F3,07/04/2021 06:24,07/04/2021 06:24,Pay Bill from 254723389922 - ANNE WANJIKU NDUNGU Acc. v53,Completed,7000,,27200,TRUE,Pay Utility,254723389922 - ANNE WANJIKU NDUNGU,,v53
PD68J6SDS4,06/04/2021 19:30,06/04/2021 19:30,Pay Bill from 254712091662 - BENARD OMONDI ROBY Acc. V16,Completed,6600,,20200,TRUE,Pay Utility,254712091662 - BENARD OMONDI ROBY,,V16
PD64J0F89S,06/04/2021 18:07,06/04/2021 18:07,Pay Bill from 254708915764 - GEORGE WAHOME Acc. V18,Completed,6600,,13600,TRUE,Pay Utility,254708915764 - GEORGE WAHOME,,V18
PD66IUQ9CQ,06/04/2021 16:34,06/04/2021 16:34,Pay Bill from 254703690697 - CATHERINE MURAGE Acc. V21,Completed,7000,,7000,TRUE,Pay Utility,254703690697 - CATHERINE MURAGE,,V21
PD65I4ZAPX,06/04/2021 05:36,06/04/2021 05:36,Utility Account to Organization Settlement Account,Completed,,-13200,0,TRUE,Utility Account to Organization Settlement Account,887674 - ANCIENT WELLS LTD 1,,
PD50I48HQC,05/04/2021 23:45,05/04/2021 23:45,Pay Bill from 254718818610 - HANNAH NALIAKA Acc. V23,Completed,6600,,13200,TRUE,Pay Utility,254718818610 - HANNAH NALIAKA,,V23
PD51HYDLFB,05/04/2021 20:01,05/04/2021 20:01,Pay Bill from 254713916352 - WINFRED KATUNGWA NDALA Acc. V30,Completed,6600,,6600,TRUE,Pay Utility,254713916352 - WINFRED KATUNGWA NDALA,,V30
PD54HIWXF4,05/04/2021 15:46,05/04/2021 15:46,Utility Account to Organization Settlement Account,Completed,,-13600,0,TRUE,Utility Account to Organization Settlement Account,887674 - ANCIENT WELLS LTD 1,,
PD58HB81T2,05/04/2021 13:03,05/04/2021 13:03,Pay Bill from 254723815832 - SEMEKIA ONDIALA Acc. v38,Completed,6600,,13600,TRUE,Pay Utility,254723815832 - SEMEKIA ONDIALA,,v38
PD55H736OX,05/04/2021 11:32,05/04/2021 11:32,Pay Bill from 254722578070 - SAMUEL MACHARIA Acc. v42,Completed,7000,,7000,TRUE,Pay Utility,254722578070 - SAMUEL MACHARIA,,v42
PD56GX2IOS,05/04/2021 06:44,05/04/2021 06:44,Utility Account to Organization Settlement Account,Completed,,-6600,0,TRUE,Utility Account to Organization Settlement Account,887674 - ANCIENT WELLS LTD 1,,
PD48GGDY2W,04/04/2021 17:20,04/04/2021 17:20,Pay Bill from 254700218502 - GRACE NGURE Acc. v46,Completed,6600,,6600,TRUE,Pay Utility,254700218502 - GRACE NGURE,,v46
PD47G95LND,04/04/2021 14:55,04/04/2021 14:55,Utility Account to Organization Settlement Account,Completed,,-19800,0,TRUE,Utility Account to Organization Settlement Account,887674 - ANCIENT WELLS LTD 1,,
PD49FW48WX,04/04/2021 09:56,04/04/2021 09:56,Pay Bill from 254726465584 - JULIANA MUKELI MUTUNGA Acc. v4,Completed,6600,,19800,TRUE,Pay Utility,254726465584 - JULIANA MUKELI MUTUNGA,,v4
PD34F0S3QC,03/04/2021 15:34,03/04/2021 15:34,Pay Bill from 254722160984 - PENINNAH MUNYWOKI Acc. Anita V27. ,Completed,13200,,13200,TRUE,Pay Utility,254722160984 - PENINNAH MUNYWOKI,,Anita
PD36EC35BG,03/04/2021 04:44,03/04/2021 04:44,Utility Account to Organization Settlement Account,Completed,,-38700,0,TRUE,Utility Account to Organization Settlement Account,887674 - ANCIENT WELLS LTD 1,,
PD29E98PLH,02/04/2021 21:47,02/04/2021 21:47,Pay Bill from 0717042461 - Sharon Nyangasi Shivachi Acc. V55,Completed,6600,,38700,TRUE,Pay Utility,0717042461 - Sharon Nyangasi Shivachi,,V55
PD29DZQI0H,02/04/2021 19:00,02/04/2021 19:00,Pay Bill from 254700904994 - HUSSEIN HASSAN LAMA Acc. V43,Completed,7000,,32100,TRUE,Pay Utility,254700904994 - HUSSEIN HASSAN LAMA,,V43
PD28D74OGE,02/04/2021 10:25,02/04/2021 10:25,Pay Bill from 0719473191 - KENNEDY KIOKO JOSEPH Acc. V57,Completed,11000,,25100,TRUE,Pay Utility with OD via STK,0719473191 - KENNEDY KIOKO JOSEPH,,V57
PD16CRV18C,01/04/2021 20:24,01/04/2021 20:24,Pay Bill from 254712305555 - peris kiragu Acc. V17,Completed,7500,,14100,TRUE,Pay Utility,254712305555 - peris kiragu,,V17
PD18CNJQVM,01/04/2021 19:24,01/04/2021 19:24,Pay Bill from 254718359438 - AHMAD TAHIR MACHENGO Acc. V11,Completed,6600,,6600,TRUE,Pay Utility,254718359438 - AHMAD TAHIR MACHENGO,,V11
PD11CCQK01,01/04/2021 16:45,01/04/2021 16:45,Utility Account to Organization Settlement Account,Completed,,-7000,0,TRUE,Utility Account to Organization Settlement Account,887674 - ANCIENT WELLS LTD 1,,
PD10CBLZIS,01/04/2021 16:24,01/04/2021 16:24,Pay Bill from 254705671506 - DIANA KITUYI Acc. vo3,Completed,7000,,7000,TRUE,Pay Utility,254705671506 - DIANA KITUYI,,vo3
PD10BMEER2,01/04/2021 07:01,01/04/2021 07:01,Utility Account to Organization Settlement Account,Completed,,-13200,0,TRUE,Utility Account to Organization Settlement Account,887674 - ANCIENT WELLS LTD 1,,
